1.112188e+02 4.217391e-01 -1.366154e-02 5.975714e-01 -9.960938e-01 9.960938e-01
8.666016e+01 4.217391e-01 -3.742766e-02 5.973861e-01 -1.148438e+00 1.347656e+00
7.293359e+01 4.217391e-01 -8.660301e-02 6.274043e-01 -1.488281e+00 1.363281e+00
7.076172e+01 4.217391e-01 -1.318060e-01 6.808996e-01 -2.312500e+00 1.593750e+00
6.812109e+01 4.043478e-01 -1.523665e-01 7.345944e-01 -2.792969e+00 1.878906e+00
6.558984e+01 3.478261e-01 -1.692026e-01 7.746739e-01 -2.976562e+00 2.292969e+00
5.960547e+01 2.000000e-01 -1.963294e-01 8.114813e-01 -3.011719e+00 2.585938e+00
5.499219e+01 1.913043e-01 -2.227493e-01 8.526952e-01 -3.078125e+00 2.925781e+00
5.076172e+01 2.000000e-01 -2.474806e-01 8.962398e-01 -3.171875e+00 3.234375e+00
4.768750e+01 1.782609e-01 -2.682664e-01 9.429256e-01 -3.382812e+00 3.351562e+00
4.657031e+01 1.739130e-01 -2.868283e-01 9.885418e-01 -3.953125e+00 3.464844e+00
4.614453e+01 1.956522e-01 -3.071284e-01 1.029403e+00 -4.425781e+00 3.507812e+00
4.633594e+01 1.826087e-01 -3.250847e-01 1.066341e+00 -4.585938e+00 3.496094e+00
4.581250e+01 1.869565e-01 -3.436074e-01 1.099311e+00 -4.804688e+00 3.757812e+00
4.459375e+01 1.869565e-01 -3.620660e-01 1.128801e+00 -4.863281e+00 4.007812e+00
4.340625e+01 2.000000e-01 -3.806610e-01 1.156912e+00 -4.945312e+00 4.171875e+00
4.352734e+01 1.826087e-01 -4.035012e-01 1.183733e+00 -5.062500e+00 4.230469e+00
4.240234e+01 1.956522e-01 -4.207031e-01 1.211346e+00 -5.117188e+00 4.292969e+00
4.325000e+01 1.869565e-01 -4.376426e-01 1.243180e+00 -5.285156e+00 4.253906e+00
4.235938e+01 2.000000e-01 -4.506862e-01 1.273988e+00 -5.289062e+00 4.351562e+00
4.197266e+01 2.000000e-01 -4.632606e-01 1.302919e+00 -5.242188e+00 4.394531e+00
4.219141e+01 1.913043e-01 -4.838996e-01 1.332097e+00 -5.316406e+00 4.429688e+00
4.204688e+01 2.000000e-01 -5.013744e-01 1.361622e+00 -5.316406e+00 4.539062e+00
4.170703e+01 1.956522e-01 -5.153584e-01 1.392381e+00 -5.273438e+00 4.625000e+00
4.201953e+01 1.956522e-01 -5.314980e-01 1.423984e+00 -5.363281e+00 4.683594e+00
4.151172e+01 1.956522e-01 -5.461806e-01 1.456149e+00 -5.386719e+00 4.773438e+00
4.150781e+01 1.956522e-01 -5.560888e-01 1.489427e+00 -5.382812e+00 4.863281e+00
4.153125e+01 1.739130e-01 -5.692316e-01 1.522895e+00 -5.425781e+00 4.929688e+00
4.104297e+01 1.869565e-01 -5.796586e-01 1.556905e+00 -5.449219e+00 5.003906e+00
4.091406e+01 1.826087e-01 -5.932374e-01 1.589945e+00 -5.460938e+00 5.074219e+00
4.050781e+01 1.869565e-01 -6.060826e-01 1.622863e+00 -5.453125e+00 5.156250e+00
4.008594e+01 1.826087e-01 -6.180080e-01 1.657016e+00 -5.476562e+00 5.257812e+00
4.032031e+01 1.826087e-01 -6.318370e-01 1.690368e+00 -5.527344e+00 5.332031e+00
4.016406e+01 1.739130e-01 -6.473359e-01 1.723376e+00 -5.562500e+00 5.437500e+00
4.082422e+01 1.869565e-01 -6.596561e-01 1.757445e+00 -5.562500e+00 5.554688e+00
3.987891e+01 1.739130e-01 -6.768415e-01 1.790265e+00 -5.605469e+00 5.636719e+00
4.015234e+01 1.782609e-01 -6.925244e-01 1.824448e+00 -5.699219e+00 5.738281e+00
4.019922e+01 1.782609e-01 -7.070416e-01 1.859180e+00 -5.722656e+00 5.859375e+00
4.044531e+01 1.782609e-01 -7.281622e-01 1.892576e+00 -5.765625e+00 5.953125e+00
4.005859e+01 1.782609e-01 -7.455233e-01 1.926563e+00 -5.773438e+00 6.023438e+00
4.088672e+01 1.782609e-01 -7.635127e-01 1.962317e+00 -5.835938e+00 6.105469e+00
3.981641e+01 1.869565e-01 -7.849723e-01 1.995976e+00 -5.843750e+00 6.199219e+00
4.026562e+01 1.782609e-01 -8.047433e-01 2.031275e+00 -5.878906e+00 6.304688e+00
4.105859e+01 1.826087e-01 -8.174769e-01 2.068442e+00 -5.914062e+00 6.425781e+00
4.022266e+01 1.782609e-01 -8.408958e-01 2.102386e+00 -5.992188e+00 6.464844e+00
4.051562e+01 1.869565e-01 -8.522755e-01 2.139426e+00 -6.070312e+00 6.523438e+00
4.189453e+01 1.956522e-01 -8.693184e-01 2.177263e+00 -6.148438e+00 6.531250e+00
4.105859e+01 2.000000e-01 -8.788856e-01 2.214249e+00 -6.226562e+00 6.656250e+00
3.989453e+01 1.826087e-01 -8.989191e-01 2.248761e+00 -6.304688e+00 6.652344e+00
4.004688e+01 1.869565e-01 -9.139054e-01 2.285498e+00 -6.382812e+00 6.746094e+00
4.041797e+01 1.782609e-01 -9.293651e-01 2.321929e+00 -6.460938e+00 6.820312e+00
4.015625e+01 1.956522e-01 -9.454158e-01 2.357765e+00 -6.539062e+00 6.914062e+00
4.070312e+01 1.869565e-01 -9.633288e-01 2.393796e+00 -6.617188e+00 7.019531e+00
4.127734e+01 1.913043e-01 -9.783689e-01 2.429916e+00 -6.695312e+00 7.128906e+00
4.170703e+01 1.913043e-01 -9.945933e-01 2.467699e+00 -6.773438e+00 7.226562e+00
4.158203e+01 1.913043e-01 -1.009809e+00 2.506032e+00 -6.851562e+00 7.371094e+00
4.123828e+01 2.000000e-01 -1.027563e+00 2.542188e+00 -6.929688e+00 7.464844e+00
4.133203e+01 1.869565e-01 -1.045327e+00 2.579273e+00 -7.007812e+00 7.531250e+00
4.226562e+01 2.043478e-01 -1.060369e+00 2.616533e+00 -7.085938e+00 7.648438e+00
4.114062e+01 1.869565e-01 -1.070399e+00 2.656772e+00 -7.164062e+00 7.664062e+00
4.041406e+01 1.913043e-01 -1.086097e+00 2.694701e+00 -7.242188e+00 7.746094e+00
4.133984e+01 1.956522e-01 -1.102028e+00 2.730410e+00 -7.320312e+00 7.843750e+00
4.194922e+01 1.956522e-01 -1.119847e+00 2.766965e+00 -7.398438e+00 7.945312e+00
4.150781e+01 1.826087e-01 -1.133856e+00 2.805261e+00 -7.476562e+00 8.011719e+00
4.098828e+01 1.913043e-01 -1.149256e+00 2.844234e+00 -7.554688e+00 8.062500e+00
4.189844e+01 2.043478e-01 -1.162527e+00 2.881282e+00 -7.632812e+00 8.195312e+00
4.217578e+01 1.956522e-01 -1.179241e+00 2.917648e+00 -7.710938e+00 8.281250e+00
4.169531e+01 1.826087e-01 -1.194279e+00 2.957063e+00 -7.789062e+00 8.359375e+00
4.220312e+01 1.869565e-01 -1.207996e+00 2.995481e+00 -7.867188e+00 8.417969e+00
4.264844e+01 1.869565e-01 -1.224957e+00 3.033571e+00 -7.945312e+00 8.488281e+00
4.177344e+01 1.956522e-01 -1.244684e+00 3.069683e+00 -8.023438e+00 8.578125e+00
4.245703e+01 1.739130e-01 -1.261857e+00 3.106213e+00 -8.101562e+00 8.675781e+00
4.278516e+01 1.913043e-01 -1.276941e+00 3.144264e+00 -8.179688e+00 8.699219e+00
4.322266e+01 2.000000e-01 -1.292208e+00 3.182838e+00 -8.257812e+00 8.753906e+00
4.290234e+01 1.782609e-01 -1.307943e+00 3.220210e+00 -8.335938e+00 8.828125e+00
4.431641e+01 1.956522e-01 -1.321375e+00 3.258492e+00 -8.414062e+00 8.917969e+00
4.366406e+01 2.000000e-01 -1.337775e+00 3.294074e+00 -8.492188e+00 9.000000e+00
4.288281e+01 1.826087e-01 -1.354148e+00 3.330986e+00 -8.570312e+00 9.046875e+00
4.352344e+01 1.913043e-01 -1.369701e+00 3.368113e+00 -8.648438e+00 9.140625e+00
4.519141e+01 2.043478e-01 -1.380640e+00 3.406691e+00 -8.726562e+00 9.234375e+00
4.396484e+01 2.043478e-01 -1.401306e+00 3.441671e+00 -8.804688e+00 9.300781e+00
4.386719e+01 1.913043e-01 -1.419947e+00 3.478041e+00 -8.882812e+00 9.339844e+00
4.466797e+01 2.000000e-01 -1.433381e+00 3.515817e+00 -8.960938e+00 9.449219e+00
4.431641e+01 1.913043e-01 -1.447024e+00 3.553392e+00 -9.039062e+00 9.507812e+00
4.361328e+01 1.913043e-01 -1.465606e+00 3.590395e+00 -9.117188e+00 9.578125e+00
4.405859e+01 2.000000e-01 -1.482011e+00 3.628161e+00 -9.195312e+00 9.664062e+00
4.400000e+01 1.956522e-01 -1.496625e+00 3.666753e+00 -9.273438e+00 9.722656e+00
4.384375e+01 2.043478e-01 -1.512541e+00 3.704871e+00 -9.351562e+00 9.804688e+00
4.347266e+01 2.086957e-01 -1.528869e+00 3.742696e+00 -9.429688e+00 9.886719e+00
4.336719e+01 2.043478e-01 -1.540148e+00 3.782323e+00 -9.507812e+00 9.976562e+00
4.333203e+01 1.913043e-01 -1.555235e+00 3.819727e+00 -9.585938e+00 1.005078e+01
4.314062e+01 1.913043e-01 -1.573125e+00 3.856031e+00 -9.664062e+00 1.011719e+01
4.335156e+01 2.000000e-01 -1.589073e+00 3.892978e+00 -9.742188e+00 1.020703e+01
4.327344e+01 1.956522e-01 -1.603588e+00 3.930238e+00 -9.820312e+00 1.027344e+01
4.298047e+01 2.000000e-01 -1.618636e+00 3.968364e+00 -9.898438e+00 1.032812e+01
4.296484e+01 2.043478e-01 -1.636562e+00 4.004711e+00 -9.976562e+00 1.039844e+01
4.306250e+01 2.043478e-01 -1.650986e+00 4.042037e+00 -1.005469e+01 1.048047e+01
4.262109e+01 2.000000e-01 -1.666522e+00 4.079349e+00 -1.013281e+01 1.054688e+01
4.339453e+01 1.782609e-01 -1.684441e+00 4.116416e+00 -1.021094e+01 1.058984e+01
4.285938e+01 2.000000e-01 -1.700742e+00 4.152217e+00 -1.028906e+01 1.066406e+01
4.378125e+01 1.869565e-01 -1.711855e+00 4.191129e+00 -1.036719e+01 1.071484e+01
4.255469e+01 1.869565e-01 -1.729623e+00 4.228349e+00 -1.044531e+01 1.077344e+01
4.201953e+01 1.826087e-01 -1.747119e+00 4.264102e+00 -1.052344e+01 1.082422e+01
4.205859e+01 1.826087e-01 -1.763031e+00 4.300956e+00 -1.060156e+01 1.085938e+01
4.211328e+01 1.826087e-01 -1.775329e+00 4.339502e+00 -1.067969e+01 1.093359e+01
4.217188e+01 1.869565e-01 -1.790989e+00 4.376545e+00 -1.075781e+01 1.098047e+01
4.190234e+01 1.826087e-01 -1.808311e+00 4.413801e+00 -1.083594e+01 1.105469e+01
4.230078e+01 1.869565e-01 -1.818990e+00 4.453721e+00 -1.091406e+01 1.114453e+01
4.242578e+01 1.869565e-01 -1.834129e+00 4.491587e+00 -1.099219e+01 1.121875e+01
4.205469e+01 1.913043e-01 -1.852476e+00 4.528005e+00 -1.107031e+01 1.126172e+01
4.212109e+01 1.869565e-01 -1.869738e+00 4.565305e+00 -1.114844e+01 1.129688e+01
4.217578e+01 1.826087e-01 -1.883356e+00 4.603766e+00 -1.122656e+01 1.134766e+01
4.204297e+01 1.913043e-01 -1.896805e+00 4.641832e+00 -1.130469e+01 1.141016e+01
4.184766e+01 1.826087e-01 -1.910266e+00 4.681116e+00 -1.138281e+01 1.146484e+01
4.191797e+01 1.869565e-01 -1.925382e+00 4.719816e+00 -1.146094e+01 1.155078e+01
4.344141e+01 1.913043e-01 -1.937306e+00 4.759632e+00 -1.153906e+01 1.161719e+01
4.241406e+01 1.913043e-01 -1.952046e+00 4.797988e+00 -1.161719e+01 1.169922e+01
4.195703e+01 1.956522e-01 -1.969957e+00 4.835503e+00 -1.169531e+01 1.176953e+01
4.285938e+01 1.956522e-01 -1.983174e+00 4.875681e+00 -1.177344e+01 1.182812e+01
4.253516e+01 1.956522e-01 -1.994242e+00 4.916577e+00 -1.185156e+01 1.191016e+01
4.300000e+01 1.956522e-01 -2.012256e+00 4.953993e+00 -1.192969e+01 1.195312e+01
4.307422e+01 1.913043e-01 -2.026972e+00 4.993023e+00 -1.200781e+01 1.196094e+01
4.277734e+01 1.913043e-01 -2.040534e+00 5.031244e+00 -1.208594e+01 1.205078e+01
4.360156e+01 1.913043e-01 -2.054698e+00 5.069501e+00 -1.216406e+01 1.209375e+01
4.303125e+01 1.869565e-01 -2.074434e+00 5.107322e+00 -1.224219e+01 1.210156e+01
4.255469e+01 2.000000e-01 -2.091570e+00 5.145928e+00 -1.232031e+01 1.214062e+01
4.347656e+01 1.869565e-01 -2.103307e+00 5.186617e+00 -1.239844e+01 1.217578e+01
4.311328e+01 1.956522e-01 -2.117301e+00 5.227100e+00 -1.247656e+01 1.222266e+01
4.305469e+01 2.043478e-01 -2.133282e+00 5.266070e+00 -1.255469e+01 1.226562e+01
4.321875e+01 2.000000e-01 -2.151767e+00 5.304460e+00 -1.263281e+01 1.229297e+01
4.350781e+01 1.869565e-01 -2.169469e+00 5.343528e+00 -1.271094e+01 1.232031e+01
4.348438e+01 1.956522e-01 -2.183619e+00 5.382449e+00 -1.278906e+01 1.240625e+01
4.346094e+01 1.782609e-01 -2.199781e+00 5.420897e+00 -1.286719e+01 1.245703e+01
4.378516e+01 2.043478e-01 -2.218965e+00 5.459044e+00 -1.294531e+01 1.248047e+01
4.464062e+01 1.956522e-01 -2.230394e+00 5.500016e+00 -1.302344e+01 1.253906e+01
4.273438e+01 1.956522e-01 -2.245592e+00 5.539289e+00 -1.310156e+01 1.258594e+01
4.346875e+01 1.956522e-01 -2.262242e+00 5.578433e+00 -1.317969e+01 1.265625e+01
4.348047e+01 2.000000e-01 -2.279369e+00 5.617508e+00 -1.325781e+01 1.271875e+01
4.373438e+01 2.000000e-01 -2.297142e+00 5.655196e+00 -1.333594e+01 1.279297e+01
4.391797e+01 1.956522e-01 -2.312349e+00 5.694499e+00 -1.341406e+01 1.286328e+01
4.333594e+01 2.043478e-01 -2.323987e+00 5.734239e+00 -1.349219e+01 1.295312e+01
4.423828e+01 2.043478e-01 -2.335311e+00 5.774735e+00 -1.357031e+01 1.295703e+01
4.319531e+01 2.000000e-01 -2.355258e+00 5.812393e+00 -1.364844e+01 1.295703e+01
4.416406e+01 1.956522e-01 -2.369407e+00 5.851288e+00 -1.372656e+01 1.302344e+01
4.393359e+01 1.956522e-01 -2.382374e+00 5.890727e+00 -1.380469e+01 1.302734e+01
4.322656e+01 1.869565e-01 -2.396189e+00 5.929744e+00 -1.388281e+01 1.303906e+01
4.310938e+01 2.086957e-01 -2.413099e+00 5.967155e+00 -1.396094e+01 1.306641e+01
4.316797e+01 1.956522e-01 -2.429402e+00 6.004489e+00 -1.403906e+01 1.308203e+01
4.398828e+01 1.956522e-01 -2.443473e+00 6.043062e+00 -1.411719e+01 1.308203e+01
4.402734e+01 2.000000e-01 -2.458453e+00 6.081033e+00 -1.419531e+01 1.307031e+01
4.441797e+01 1.913043e-01 -2.472778e+00 6.119559e+00 -1.427344e+01 1.305859e+01
4.348047e+01 2.000000e-01 -2.486022e+00 6.159038e+00 -1.435156e+01 1.305078e+01
4.315625e+01 1.913043e-01 -2.501033e+00 6.197482e+00 -1.442969e+01 1.305078e+01
4.297656e+01 1.956522e-01 -2.517816e+00 6.235457e+00 -1.450781e+01 1.307031e+01
4.351562e+01 1.956522e-01 -2.533552e+00 6.273677e+00 -1.458594e+01 1.308203e+01
4.360547e+01 1.956522e-01 -2.546305e+00 6.312843e+00 -1.466406e+01 1.312109e+01
4.368359e+01 1.956522e-01 -2.560727e+00 6.352089e+00 -1.474219e+01 1.319922e+01
4.323828e+01 1.956522e-01 -2.577377e+00 6.389996e+00 -1.482031e+01 1.327734e+01
4.364062e+01 1.956522e-01 -2.595709e+00 6.427453e+00 -1.489844e+01 1.335547e+01
4.389453e+01 1.913043e-01 -2.611074e+00 6.466408e+00 -1.497656e+01 1.343359e+01
4.319922e+01 1.782609e-01 -2.622731e+00 6.506609e+00 -1.505469e+01 1.351172e+01
4.321484e+01 1.826087e-01 -2.634662e+00 6.547545e+00 -1.513281e+01 1.358984e+01
4.367578e+01 1.913043e-01 -2.652118e+00 6.585396e+00 -1.521094e+01 1.366797e+01
4.489062e+01 1.826087e-01 -2.667307e+00 6.625427e+00 -1.528906e+01 1.374609e+01
4.413281e+01 2.000000e-01 -2.681436e+00 6.662741e+00 -1.536719e+01 1.382422e+01
4.430469e+01 1.913043e-01 -2.696598e+00 6.700652e+00 -1.544531e+01 1.390234e+01
4.410938e+01 1.782609e-01 -2.710293e+00 6.739933e+00 -1.552344e+01 1.398047e+01
4.425391e+01 1.956522e-01 -2.727658e+00 6.775769e+00 -1.560156e+01 1.405859e+01
4.421484e+01 1.869565e-01 -2.740976e+00 6.814575e+00 -1.567969e+01 1.413672e+01
4.399219e+01 1.826087e-01 -2.755632e+00 6.853108e+00 -1.575781e+01 1.421484e+01
4.395703e+01 1.913043e-01 -2.772489e+00 6.889690e+00 -1.583594e+01 1.429297e+01
4.378516e+01 1.782609e-01 -2.784956e+00 6.929756e+00 -1.591406e+01 1.437109e+01
4.380078e+01 2.000000e-01 -2.796362e+00 6.969326e+00 -1.599219e+01 1.444922e+01
4.444141e+01 2.043478e-01 -2.813967e+00 7.005255e+00 -1.607031e+01 1.452734e+01
4.513672e+01 1.956522e-01 -2.831355e+00 7.043068e+00 -1.614844e+01 1.460547e+01
4.413281e+01 1.956522e-01 -2.842107e+00 7.083598e+00 -1.622656e+01 1.468359e+01
4.369141e+01 2.000000e-01 -2.858552e+00 7.120578e+00 -1.630469e+01 1.476172e+01
4.386328e+01 1.782609e-01 -2.873985e+00 7.159565e+00 -1.638281e+01 1.483984e+01
4.373828e+01 1.913043e-01 -2.887742e+00 7.198248e+00 -1.646094e+01 1.491797e+01
4.396484e+01 1.956522e-01 -2.900676e+00 7.237523e+00 -1.653906e+01 1.499609e+01
4.337109e+01 1.826087e-01 -2.913930e+00 7.276580e+00 -1.661719e+01 1.507422e+01
4.376172e+01 1.913043e-01 -2.931496e+00 7.312498e+00 -1.669531e+01 1.515234e+01
4.463672e+01 1.826087e-01 -2.944289e+00 7.352427e+00 -1.677344e+01 1.523047e+01
4.430859e+01 1.913043e-01 -2.957887e+00 7.392429e+00 -1.685156e+01 1.530859e+01
4.387500e+01 1.826087e-01 -2.973985e+00 7.430290e+00 -1.692969e+01 1.538672e+01
4.444531e+01 1.782609e-01 -2.986489e+00 7.471148e+00 -1.700781e+01 1.546484e+01
4.435938e+01 2.000000e-01 -3.002654e+00 7.509305e+00 -1.708594e+01 1.554297e+01
4.483984e+01 1.869565e-01 -3.018200e+00 7.548162e+00 -1.716406e+01 1.562109e+01
4.452344e+01 1.869565e-01 -3.030113e+00 7.588736e+00 -1.724219e+01 1.569922e+01
4.476953e+01 1.869565e-01 -3.047125e+00 7.625878e+00 -1.732031e+01 1.577734e+01
4.501562e+01 1.826087e-01 -3.063209e+00 7.664982e+00 -1.739844e+01 1.585547e+01
4.485156e+01 1.913043e-01 -3.077592e+00 7.703948e+00 -1.747656e+01 1.593359e+01
4.422656e+01 1.869565e-01 -3.091063e+00 7.742726e+00 -1.755469e+01 1.601172e+01
4.465234e+01 1.782609e-01 -3.106585e+00 7.781888e+00 -1.763281e+01 1.608984e+01
4.409766e+01 1.913043e-01 -3.123652e+00 7.819184e+00 -1.771094e+01 1.616797e+01
4.337109e+01 1.782609e-01 -3.132585e+00 7.860975e+00 -1.778906e+01 1.624609e+01
4.310938e+01 1.826087e-01 -3.149903e+00 7.897805e+00 -1.786719e+01 1.632422e+01
4.382031e+01 1.826087e-01 -3.168469e+00 7.934479e+00 -1.794531e+01 1.640234e+01
4.379297e+01 1.826087e-01 -3.183672e+00 7.972719e+00 -1.802344e+01 1.648047e+01
4.418750e+01 1.869565e-01 -3.197208e+00 8.011582e+00 -1.810156e+01 1.655859e+01
4.391406e+01 1.913043e-01 -3.211514e+00 8.050246e+00 -1.817969e+01 1.663672e+01
4.366016e+01 1.739130e-01 -3.226961e+00 8.088887e+00 -1.825781e+01 1.671484e+01
4.410938e+01 1.869565e-01 -3.242392e+00 8.127546e+00 -1.833594e+01 1.679297e+01
4.434766e+01 1.869565e-01 -3.258137e+00 8.166270e+00 -1.841406e+01 1.687109e+01
4.452344e+01 1.782609e-01 -3.272425e+00 8.207155e+00 -1.849219e+01 1.694922e+01
4.418359e+01 1.913043e-01 -3.289474e+00 8.244591e+00 -1.857031e+01 1.702734e+01
4.370703e+01 1.782609e-01 -3.302100e+00 8.284621e+00 -1.864844e+01 1.710547e+01
4.428516e+01 1.956522e-01 -3.316840e+00 8.323763e+00 -1.872656e+01 1.718359e+01
4.424219e+01 1.826087e-01 -3.335512e+00 8.361215e+00 -1.880469e+01 1.726172e+01
4.408203e+01 1.869565e-01 -3.350324e+00 8.400939e+00 -1.888281e+01 1.733984e+01
4.468359e+01 1.956522e-01 -3.365534e+00 8.439689e+00 -1.896094e+01 1.741797e+01
4.413672e+01 1.739130e-01 -3.377327e+00 8.479708e+00 -1.903906e+01 1.749609e+01
4.396484e+01 1.913043e-01 -3.392429e+00 8.516749e+00 -1.911719e+01 1.757422e+01
4.391016e+01 1.782609e-01 -3.406808e+00 8.555531e+00 -1.919531e+01 1.765234e+01
4.449609e+01 1.913043e-01 -3.423332e+00 8.594520e+00 -1.927344e+01 1.773047e+01
4.427734e+01 1.869565e-01 -3.437678e+00 8.634272e+00 -1.935156e+01 1.780859e+01
4.408594e+01 1.913043e-01 -3.451178e+00 8.673422e+00 -1.942969e+01 1.788672e+01
4.442578e+01 1.956522e-01 -3.468814e+00 8.710754e+00 -1.950781e+01 1.796484e+01
4.440625e+01 1.869565e-01 -3.483209e+00 8.750822e+00 -1.958594e+01 1.804297e+01
4.483203e+01 1.956522e-01 -3.497627e+00 8.789925e+00 -1.966406e+01 1.812109e+01
4.442188e+01 1.869565e-01 -3.510603e+00 8.829841e+00 -1.974219e+01 1.819922e+01
4.433984e+01 1.826087e-01 -3.525895e+00 8.869348e+00 -1.982031e+01 1.827734e+01
4.413672e+01 1.913043e-01 -3.542194e+00 8.907356e+00 -1.989844e+01 1.835547e+01
4.437891e+01 1.913043e-01 -3.556856e+00 8.946526e+00 -1.997656e+01 1.843359e+01
4.449219e+01 2.043478e-01 -3.573402e+00 8.984161e+00 -2.005469e+01 1.851172e+01
4.401953e+01 1.956522e-01 -3.586438e+00 9.023399e+00 -2.013281e+01 1.858984e+01
4.483594e+01 1.956522e-01 -3.602532e+00 9.062251e+00 -2.021094e+01 1.866797e+01
4.512500e+01 1.956522e-01 -3.620804e+00 9.100865e+00 -2.028906e+01 1.874609e+01
4.448047e+01 1.956522e-01 -3.635115e+00 9.140325e+00 -2.036719e+01 1.882422e+01
4.443359e+01 1.869565e-01 -3.650872e+00 9.178115e+00 -2.044531e+01 1.890234e+01
4.476953e+01 1.956522e-01 -3.665439e+00 9.217385e+00 -2.052344e+01 1.898047e+01
4.512891e+01 1.956522e-01 -3.683519e+00 9.255107e+00 -2.060156e+01 1.905859e+01
4.500000e+01 1.956522e-01 -3.700639e+00 9.293564e+00 -2.067969e+01 1.913672e+01
4.453906e+01 1.956522e-01 -3.715379e+00 9.333296e+00 -2.075781e+01 1.921484e+01
4.457812e+01 1.956522e-01 -3.730188e+00 9.372934e+00 -2.083594e+01 1.929297e+01
4.525391e+01 1.956522e-01 -3.746555e+00 9.411820e+00 -2.091406e+01 1.937109e+01
4.491406e+01 1.913043e-01 -3.758079e+00 9.453248e+00 -2.099219e+01 1.944922e+01
4.613281e+01 2.000000e-01 -3.776873e+00 9.489817e+00 -2.107031e+01 1.952734e+01
4.439844e+01 2.000000e-01 -3.790637e+00 9.529110e+00 -2.114844e+01 1.960547e+01
4.502344e+01 1.913043e-01 -3.806122e+00 9.568877e+00 -2.122656e+01 1.968359e+01
4.488281e+01 1.956522e-01 -3.823696e+00 9.607271e+00 -2.130469e+01 1.976172e+01
4.487891e+01 1.913043e-01 -3.837655e+00 9.646642e+00 -2.138281e+01 1.983984e+01
