1.279961e+02 9.298000e-01 3.138916e-03 5.743257e-01 -9.960938e-01 9.960938e-01
1.279961e+02 1.109000e-01 -3.732453e-02 5.919358e-01 -3.390625e+00 3.832031e+00
1.279961e+02 9.890000e-02 -4.918543e-02 6.040293e-01 -4.679688e+00 3.582031e+00
1.279961e+02 8.880000e-02 -5.527780e-02 6.137453e-01 -5.558594e+00 3.457031e+00
1.279961e+02 8.450000e-02 -5.896271e-02 6.215032e-01 -6.320312e+00 3.746094e+00
1.279961e+02 8.580000e-02 -6.121307e-02 6.280465e-01 -6.734375e+00 3.808594e+00
