1.839186e+04 9.167000e-01 -5.878196e-03 5.787092e-01 -9.999274e-01 9.999738e-01
1.361611e+03 9.720000e-02 -2.521170e-03 5.863010e-01 -1.952609e+00 1.625006e+00
1.037392e+03 7.450000e-02 -5.840658e-03 6.000655e-01 -2.584228e+00 1.976619e+00
8.909234e+02 6.650000e-02 -1.043345e-02 6.134058e-01 -2.923060e+00 2.152932e+00
8.259841e+02 6.260000e-02 -1.478635e-02 6.280395e-01 -3.219194e+00 2.300143e+00
7.669900e+02 6.060000e-02 -1.790842e-02 6.428819e-01 -3.402157e+00 2.502470e+00
7.453319e+02 5.880000e-02 -2.039329e-02 6.589306e-01 -3.550959e+00 2.693599e+00
7.096550e+02 5.560000e-02 -2.294630e-02 6.757015e-01 -3.634546e+00 2.958789e+00
7.083062e+02 5.560000e-02 -2.462008e-02 6.931843e-01 -3.770560e+00 3.227943e+00
6.814455e+02 5.270000e-02 -2.602077e-02 7.114043e-01 -4.030973e+00 3.378025e+00
6.735602e+02 5.310000e-02 -2.710919e-02 7.307084e-01 -4.352793e+00 3.449006e+00
6.764972e+02 5.350000e-02 -2.874165e-02 7.496465e-01 -4.549877e+00 3.555169e+00
6.538828e+02 5.270000e-02 -3.031956e-02 7.690111e-01 -4.820252e+00 3.662184e+00
6.449451e+02 5.260000e-02 -3.210312e-02 7.886299e-01 -5.035613e+00 3.892807e+00
6.440071e+02 4.990000e-02 -3.399536e-02 8.083622e-01 -5.240467e+00 4.063209e+00
6.526425e+02 5.320000e-02 -3.539096e-02 8.288564e-01 -5.447415e+00 4.204021e+00
6.473960e+02 5.250000e-02 -3.712854e-02 8.486187e-01 -5.642434e+00 4.319682e+00
6.556772e+02 5.190000e-02 -3.858925e-02 8.693603e-01 -5.802801e+00 4.487323e+00
6.339341e+02 5.200000e-02 -3.982919e-02 8.897030e-01 -5.926645e+00 4.670159e+00
6.389027e+02 5.150000e-02 -4.110348e-02 9.102301e-01 -6.086875e+00 4.914798e+00
6.372511e+02 5.110000e-02 -4.188727e-02 9.301939e-01 -6.199106e+00 5.111253e+00
6.411524e+02 5.270000e-02 -4.381299e-02 9.506947e-01 -6.360143e+00 5.240158e+00
6.414471e+02 5.230000e-02 -4.500807e-02 9.719409e-01 -6.473791e+00 5.523765e+00
6.409040e+02 5.210000e-02 -4.602597e-02 9.932375e-01 -6.586865e+00 5.570975e+00
