-1.273825e+00 7.296341e+00 -3.836073e+01 3.774355e+01 5.293018e-06 3.183816e-03 -2.249908e-01 2.250061e-01
-1.400889e+00 8.141598e+00 -4.128645e+01 3.838835e+01 4.433804e-07 2.410239e-03 -2.207794e-01 2.093964e-01
-1.524713e+00 8.638715e+00 -4.313882e+01 4.076018e+01 6.695127e-07 2.220277e-03 -2.198944e-01 2.188416e-01
-1.632076e+00 9.026672e+00 -4.398941e+01 4.145663e+01 7.479082e-07 2.121897e-03 -2.188263e-01 2.141876e-01
-1.730609e+00 9.303551e+00 -4.397687e+01 4.162608e+01 4.323556e-07 2.050504e-03 -2.188263e-01 2.160187e-01
-1.799574e+00 9.532775e+00 -4.671631e+01 4.309369e+01 1.709511e-07 1.994641e-03 -2.175446e-01 2.188416e-01
-1.861366e+00 9.716996e+00 -4.801413e+01 4.470767e+01 3.052814e-07 1.961287e-03 -2.175446e-01 2.188416e-01
-1.896914e+00 9.885536e+00 -4.898875e+01 4.569551e+01 2.079734e-07 1.926078e-03 -2.175446e-01 2.188416e-01
-1.944767e+00 1.002721e+01 -5.035341e+01 4.636877e+01 3.507749e-07 1.898124e-03 -2.175446e-01 2.175598e-01
-1.967182e+00 1.014697e+01 -5.085289e+01 4.713216e+01 1.981844e-07 1.874623e-03 -2.160187e-01 2.207794e-01
-1.983113e+00 1.026035e+01 -5.075992e+01 4.762561e+01 1.775628e-07 1.847770e-03 -2.175446e-01 2.188416e-01
-1.996632e+00 1.036070e+01 -5.223032e+01 4.873712e+01 2.059395e-07 1.833451e-03 -2.175446e-01 2.207794e-01
-2.011829e+00 1.045899e+01 -5.390227e+01 4.940172e+01 2.318641e-07 1.812550e-03 -2.175446e-01 2.198944e-01
-2.033577e+00 1.054098e+01 -5.352881e+01 4.974823e+01 -5.835654e-09 1.796297e-03 -2.141876e-01 2.207794e-01
-2.038009e+00 1.061360e+01 -5.412476e+01 5.010309e+01 1.118255e-07 1.776228e-03 -2.160187e-01 2.215118e-01
-2.056180e+00 1.068771e+01 -5.480879e+01 5.061314e+01 5.639507e-08 1.763699e-03 -2.141876e-01 2.198944e-01
-2.053944e+00 1.075029e+01 -5.475185e+01 5.138972e+01 2.454943e-07 1.749475e-03 -2.141876e-01 2.198944e-01
-2.065785e+00 1.082078e+01 -5.516847e+01 5.171924e+01 5.334528e-08 1.737759e-03 -2.175446e-01 2.207794e-01
-2.080076e+00 1.088023e+01 -5.576726e+01 5.207930e+01 2.377265e-07 1.726539e-03 -2.119904e-01 2.215118e-01
-2.074499e+00 1.093574e+01 -5.639789e+01 5.281541e+01 5.604300e-08 1.716716e-03 -2.160187e-01 2.207794e-01
-2.093038e+00 1.098932e+01 -5.655475e+01 5.276471e+01 6.164827e-08 1.706070e-03 -2.141876e-01 2.215118e-01
-2.094699e+00 1.103695e+01 -5.711647e+01 5.312912e+01 2.641793e-08 1.692213e-03 -2.160187e-01 2.215118e-01
-2.101811e+00 1.108345e+01 -5.721051e+01 5.361942e+01 6.653643e-08 1.690284e-03 -2.160187e-01 2.198944e-01
-2.105698e+00 1.113030e+01 -5.750572e+01 5.384352e+01 5.506014e-08 1.680608e-03 -2.160187e-01 2.198944e-01
-2.119229e+00 1.117002e+01 -5.787393e+01 5.424684e+01 -1.655559e-07 1.675254e-03 -2.119904e-01 2.198944e-01
-2.125358e+00 1.121071e+01 -5.859677e+01 5.423300e+01 1.172395e-07 1.665884e-03 -2.175446e-01 2.221222e-01
-2.126603e+00 1.126138e+01 -5.916805e+01 5.459744e+01 2.196399e-07 1.657405e-03 -2.160187e-01 2.198944e-01
-2.136311e+00 1.129812e+01 -5.883943e+01 5.466612e+01 9.855126e-08 1.652021e-03 -2.160187e-01 2.188416e-01
-2.135796e+00 1.134209e+01 -5.953839e+01 5.525571e+01 2.349011e-07 1.650269e-03 -2.160187e-01 2.198944e-01
-2.146630e+00 1.136888e+01 -5.998489e+01 5.515871e+01 9.735097e-08 1.642309e-03 -2.141876e-01 2.207794e-01
-2.147844e+00 1.140835e+01 -5.998593e+01 5.554213e+01 2.981652e-07 1.636098e-03 -2.160187e-01 2.175598e-01
-2.148751e+00 1.143868e+01 -6.069821e+01 5.584712e+01 3.303507e-07 1.632073e-03 -2.160187e-01 2.207794e-01
-2.156933e+00 1.147613e+01 -6.112506e+01 5.593520e+01 2.790482e-07 1.626826e-03 -2.160187e-01 2.188416e-01
-2.159909e+00 1.150385e+01 -6.109598e+01 5.606978e+01 2.445147e-07 1.621146e-03 -2.160187e-01 2.175598e-01
-2.168125e+00 1.153652e+01 -6.184174e+01 5.651443e+01 1.458515e-07 1.616526e-03 -2.160187e-01 2.175598e-01
-2.176551e+00 1.156690e+01 -6.159315e+01 5.688361e+01 1.354410e-07 1.614167e-03 -2.119904e-01 2.188416e-01
-2.181903e+00 1.158802e+01 -6.198911e+01 5.677333e+01 6.960414e-08 1.604611e-03 -2.160187e-01 2.188416e-01
-2.176544e+00 1.162714e+01 -6.199017e+01 5.752171e+01 8.983878e-08 1.604656e-03 -2.119904e-01 2.160187e-01
-2.194694e+00 1.164480e+01 -6.207506e+01 5.753987e+01 -1.053896e-07 1.598409e-03 -2.119904e-01 2.175598e-01
-2.192171e+00 1.167733e+01 -6.293004e+01 5.780801e+01 2.452270e-07 1.594250e-03 -2.119904e-01 2.175598e-01
-2.199759e+00 1.170196e+01 -6.156995e+01 5.792912e+01 1.268642e-07 1.593948e-03 -2.119904e-01 2.175598e-01
-2.201485e+00 1.172599e+01 -6.260483e+01 5.822523e+01 1.187603e-08 1.583561e-03 -2.093964e-01 2.188416e-01
-2.198288e+00 1.174619e+01 -6.279311e+01 5.903322e+01 -5.800838e-08 1.582280e-03 -2.093964e-01 2.188416e-01
-2.211489e+00 1.177282e+01 -6.328644e+01 5.881841e+01 1.736488e-07 1.577767e-03 -2.119904e-01 2.175598e-01
-2.214607e+00 1.179734e+01 -6.328101e+01 5.890289e+01 5.925498e-09 1.576160e-03 -2.093964e-01 2.175598e-01
-2.224140e+00 1.182065e+01 -6.323877e+01 5.904405e+01 6.530872e-08 1.570400e-03 -2.093964e-01 2.188416e-01
-2.221105e+00 1.184552e+01 -6.334271e+01 5.923682e+01 2.375482e-07 1.570341e-03 -2.093964e-01 2.160187e-01
-2.221576e+00 1.186089e+01 -6.354523e+01 5.930951e+01 1.718468e-07 1.566447e-03 -2.119904e-01 2.160187e-01
-2.237902e+00 1.189197e+01 -6.365134e+01 6.003773e+01 -5.871386e-08 1.561426e-03 -2.119904e-01 2.175598e-01
-2.232795e+00 1.190464e+01 -6.435120e+01 5.988712e+01 8.943073e-08 1.557242e-03 -2.093964e-01 2.160187e-01
-2.241774e+00 1.192900e+01 -6.433469e+01 5.973152e+01 -1.291158e-09 1.553986e-03 -2.119904e-01 2.188416e-01
-2.237275e+00 1.194979e+01 -6.448022e+01 6.004688e+01 1.493895e-07 1.554005e-03 -2.119904e-01 2.160187e-01
-2.247439e+00 1.196688e+01 -6.433171e+01 5.990541e+01 -5.871112e-08 1.552372e-03 -2.119904e-01 2.188416e-01
-2.251172e+00 1.199151e+01 -6.538289e+01 6.005994e+01 -4.146204e-08 1.544294e-03 -2.093964e-01 2.175598e-01
-2.259552e+00 1.201180e+01 -6.451923e+01 6.009233e+01 5.412705e-08 1.544730e-03 -2.093964e-01 2.175598e-01
-2.269205e+00 1.203217e+01 -6.501364e+01 6.053227e+01 9.130918e-08 1.539020e-03 -2.093964e-01 2.160187e-01
-2.263848e+00 1.204636e+01 -6.511835e+01 6.097322e+01 1.698031e-07 1.534801e-03 -2.093964e-01 2.175598e-01
-2.276607e+00 1.207110e+01 -6.527725e+01 6.098434e+01 9.598206e-08 1.534292e-03 -2.093964e-01 2.188416e-01
-2.286435e+00 1.208526e+01 -6.575175e+01 6.090048e+01 8.891997e-08 1.529546e-03 -2.119904e-01 2.141876e-01
-2.280895e+00 1.210990e+01 -6.562300e+01 6.124896e+01 2.339401e-07 1.526173e-03 -2.093964e-01 2.141876e-01
-2.293660e+00 1.212665e+01 -6.531018e+01 6.074931e+01 -4.176816e-09 1.523346e-03 -2.093964e-01 2.175598e-01
-2.287025e+00 1.214512e+01 -6.632657e+01 6.110580e+01 1.205285e-08 1.522537e-03 -2.093964e-01 2.160187e-01
-2.306772e+00 1.216751e+01 -6.605171e+01 6.141537e+01 7.737220e-08 1.518725e-03 -2.093964e-01 2.141876e-01
-2.309143e+00 1.218860e+01 -6.643999e+01 6.147981e+01 7.281503e-08 1.515845e-03 -2.093964e-01 2.141876e-01
-2.310387e+00 1.221094e+01 -6.633308e+01 6.155183e+01 3.448577e-08 1.512319e-03 -2.093964e-01 2.141876e-01
-2.329488e+00 1.222484e+01 -6.593430e+01 6.177115e+01 1.365156e-07 1.509073e-03 -2.093964e-01 2.120056e-01
-2.321999e+00 1.223759e+01 -6.680821e+01 6.158879e+01 2.187778e-07 1.507417e-03 -2.119904e-01 2.141876e-01
-2.329264e+00 1.226066e+01 -6.638559e+01 6.192757e+01 -7.111029e-08 1.503891e-03 -2.093964e-01 2.120056e-01
-2.334341e+00 1.226974e+01 -6.644629e+01 6.180540e+01 2.431801e-08 1.502641e-03 -2.093964e-01 2.120056e-01
-2.348728e+00 1.229240e+01 -6.691307e+01 6.224966e+01 8.367068e-08 1.497095e-03 -2.119904e-01 2.120056e-01
-2.347175e+00 1.230719e+01 -6.662370e+01 6.258835e+01 -5.341102e-08 1.497582e-03 -2.093964e-01 2.093964e-01
-2.363429e+00 1.232651e+01 -6.682852e+01 6.256210e+01 8.410861e-08 1.498072e-03 -2.093964e-01 2.120056e-01
-2.363879e+00 1.234050e+01 -6.742026e+01 6.212839e+01 2.098221e-07 1.492009e-03 -2.093964e-01 2.120056e-01
-2.368993e+00 1.235704e+01 -6.755060e+01 6.231686e+01 6.818514e-09 1.490708e-03 -2.093964e-01 2.120056e-01
-2.375593e+00 1.237313e+01 -6.736798e+01 6.250357e+01 -9.520867e-08 1.486500e-03 -2.093964e-01 2.120056e-01
-2.388838e+00 1.238357e+01 -6.770248e+01 6.235664e+01 8.482633e-08 1.484129e-03 -2.093964e-01 2.093964e-01
-2.388945e+00 1.240615e+01 -6.773337e+01 6.240065e+01 -3.256557e-08 1.480345e-03 -2.093964e-01 2.120056e-01
-2.392150e+00 1.241837e+01 -6.799835e+01 6.234801e+01 -2.713584e-08 1.483358e-03 -2.093964e-01 2.093964e-01
