7.373828e+01 6.302083e-01 -4.562745e-02 5.819869e-01 -9.960938e-01 9.960938e-01
5.866797e+01 3.697917e-01 -5.982084e-02 5.815239e-01 -1.031250e+00 1.011719e+00
5.728906e+01 3.697917e-01 -6.106839e-02 5.796702e-01 -1.019531e+00 1.003906e+00
5.754688e+01 3.697917e-01 -6.217277e-02 5.814737e-01 -1.031250e+00 1.019531e+00
5.754688e+01 3.697917e-01 -6.241819e-02 5.814096e-01 -1.027344e+00 1.019531e+00
5.754688e+01 3.697917e-01 -6.241819e-02 5.814096e-01 -1.027344e+00 1.019531e+00
5.754688e+01 3.697917e-01 -6.241819e-02 5.814096e-01 -1.027344e+00 1.019531e+00
5.765234e+01 3.697917e-01 -6.244887e-02 5.813932e-01 -1.027344e+00 1.019531e+00
5.765234e+01 3.697917e-01 -6.247955e-02 5.813768e-01 -1.027344e+00 1.015625e+00
5.765234e+01 3.697917e-01 -6.247955e-02 5.813768e-01 -1.027344e+00 1.015625e+00
5.765234e+01 3.697917e-01 -6.247955e-02 5.813768e-01 -1.027344e+00 1.015625e+00
5.765234e+01 3.697917e-01 -6.247955e-02 5.813768e-01 -1.027344e+00 1.015625e+00
5.760156e+01 3.697917e-01 -6.266361e-02 5.814449e-01 -1.027344e+00 1.015625e+00
5.760156e+01 3.697917e-01 -6.266361e-02 5.814449e-01 -1.027344e+00 1.015625e+00
5.760156e+01 3.697917e-01 -6.266361e-02 5.814449e-01 -1.027344e+00 1.015625e+00
5.760156e+01 3.697917e-01 -6.266361e-02 5.814449e-01 -1.027344e+00 1.015625e+00
5.760156e+01 3.697917e-01 -6.266361e-02 5.814449e-01 -1.027344e+00 1.015625e+00
5.760156e+01 3.697917e-01 -6.266361e-02 5.814449e-01 -1.027344e+00 1.015625e+00
5.760156e+01 3.697917e-01 -6.266361e-02 5.814449e-01 -1.027344e+00 1.015625e+00
5.760156e+01 3.697917e-01 -6.266361e-02 5.814449e-01 -1.027344e+00 1.015625e+00
5.776953e+01 3.697917e-01 -6.284768e-02 5.815147e-01 -1.027344e+00 1.015625e+00
5.776953e+01 3.697917e-01 -6.284768e-02 5.815147e-01 -1.027344e+00 1.015625e+00
5.776953e+01 3.697917e-01 -6.284768e-02 5.815147e-01 -1.027344e+00 1.015625e+00
5.776953e+01 3.697917e-01 -6.284768e-02 5.815147e-01 -1.027344e+00 1.015625e+00
5.864844e+01 3.697917e-01 -6.294993e-02 5.817093e-01 -1.027344e+00 1.023438e+00
5.807422e+01 3.697917e-01 -6.315445e-02 5.815269e-01 -1.027344e+00 1.015625e+00
5.807422e+01 3.697917e-01 -6.315445e-02 5.815269e-01 -1.027344e+00 1.015625e+00
5.807422e+01 3.697917e-01 -6.315445e-02 5.815269e-01 -1.027344e+00 1.015625e+00
5.807422e+01 3.697917e-01 -6.315445e-02 5.815269e-01 -1.027344e+00 1.015625e+00
5.794141e+01 3.697917e-01 -6.333851e-02 5.816323e-01 -1.027344e+00 1.019531e+00
5.827344e+01 3.697917e-01 -6.368619e-02 5.816778e-01 -1.027344e+00 1.023438e+00
5.779297e+01 3.697917e-01 -6.405432e-02 5.816130e-01 -1.023438e+00 1.023438e+00
5.978516e+01 3.697917e-01 -6.504622e-02 5.819810e-01 -1.023438e+00 1.042969e+00
5.784766e+01 3.697917e-01 -6.716296e-02 5.818662e-01 -1.019531e+00 1.042969e+00
5.716797e+01 3.697917e-01 -7.327798e-02 5.821834e-01 -1.007812e+00 1.000000e+00
5.786719e+01 3.697917e-01 -7.305301e-02 5.827083e-01 -1.007812e+00 1.023438e+00
5.713281e+01 3.697917e-01 -7.988384e-02 5.834968e-01 -1.023438e+00 1.042969e+00
5.614844e+01 3.697917e-01 -8.403550e-02 5.837429e-01 -1.054688e+00 1.023438e+00
5.614844e+01 3.697917e-01 -8.403550e-02 5.837429e-01 -1.054688e+00 1.023438e+00
5.614844e+01 3.697917e-01 -8.403550e-02 5.837429e-01 -1.054688e+00 1.023438e+00
5.622266e+01 3.697917e-01 -8.407641e-02 5.837578e-01 -1.054688e+00 1.023438e+00
5.631641e+01 3.697917e-01 -8.407641e-02 5.838045e-01 -1.054688e+00 1.023438e+00
5.626953e+01 3.697917e-01 -8.403550e-02 5.838867e-01 -1.054688e+00 1.027344e+00
5.626953e+01 3.697917e-01 -8.403550e-02 5.838867e-01 -1.054688e+00 1.027344e+00
5.633984e+01 3.697917e-01 -8.402528e-02 5.838649e-01 -1.054688e+00 1.027344e+00
5.619141e+01 3.697917e-01 -8.404573e-02 5.838924e-01 -1.054688e+00 1.027344e+00
5.619141e+01 3.697917e-01 -8.407641e-02 5.839415e-01 -1.054688e+00 1.027344e+00
5.619141e+01 3.697917e-01 -8.407641e-02 5.839415e-01 -1.054688e+00 1.027344e+00
5.619141e+01 3.697917e-01 -8.407641e-02 5.839415e-01 -1.054688e+00 1.027344e+00
5.626172e+01 3.697917e-01 -8.406618e-02 5.839166e-01 -1.054688e+00 1.027344e+00
5.626172e+01 3.697917e-01 -8.405596e-02 5.838917e-01 -1.054688e+00 1.023438e+00
5.619141e+01 3.697917e-01 -8.405596e-02 5.839195e-01 -1.054688e+00 1.027344e+00
5.619141e+01 3.697917e-01 -8.405596e-02 5.839472e-01 -1.054688e+00 1.027344e+00
5.619141e+01 3.697917e-01 -8.405596e-02 5.839472e-01 -1.054688e+00 1.027344e+00
5.626172e+01 3.697917e-01 -8.405596e-02 5.839509e-01 -1.054688e+00 1.027344e+00
5.626172e+01 3.697917e-01 -8.405596e-02 5.839547e-01 -1.054688e+00 1.027344e+00
5.626172e+01 3.697917e-01 -8.405596e-02 5.839547e-01 -1.054688e+00 1.027344e+00
5.626172e+01 3.697917e-01 -8.405596e-02 5.839547e-01 -1.054688e+00 1.027344e+00
5.619141e+01 3.697917e-01 -8.405596e-02 5.839839e-01 -1.054688e+00 1.031250e+00
5.619141e+01 3.697917e-01 -8.404573e-02 5.840664e-01 -1.054688e+00 1.031250e+00
5.725000e+01 3.697917e-01 -8.427070e-02 5.843485e-01 -1.062500e+00 1.039062e+00
5.696875e+01 3.697917e-01 -8.439341e-02 5.843452e-01 -1.066406e+00 1.039062e+00
5.650000e+01 3.697917e-01 -8.481266e-02 5.842743e-01 -1.070312e+00 1.031250e+00
5.603125e+01 3.697917e-01 -8.493537e-02 5.842988e-01 -1.070312e+00 1.031250e+00
5.676562e+01 3.697917e-01 -8.495582e-02 5.845188e-01 -1.074219e+00 1.039062e+00
5.683594e+01 3.697917e-01 -8.501718e-02 5.849289e-01 -1.074219e+00 1.050781e+00
5.712109e+01 3.697917e-01 -8.526260e-02 5.852934e-01 -1.082031e+00 1.062500e+00
5.688281e+01 3.697917e-01 -8.754295e-02 5.884382e-01 -1.121094e+00 1.097656e+00
5.688281e+01 3.697917e-01 -8.857575e-02 5.901041e-01 -1.121094e+00 1.097656e+00
5.688672e+01 3.697917e-01 -8.863711e-02 5.900639e-01 -1.121094e+00 1.093750e+00
5.863672e+01 3.697917e-01 -8.943472e-02 5.915706e-01 -1.125000e+00 1.128906e+00
5.753906e+01 3.697917e-01 -9.065159e-02 5.913361e-01 -1.140625e+00 1.121094e+00
5.660156e+01 3.697917e-01 -9.177642e-02 5.913813e-01 -1.148438e+00 1.117188e+00
5.666797e+01 3.697917e-01 -9.248200e-02 5.915707e-01 -1.148438e+00 1.101562e+00
5.688672e+01 3.697917e-01 -9.354548e-02 5.920853e-01 -1.152344e+00 1.109375e+00
5.591016e+01 3.697917e-01 -9.415903e-02 5.922955e-01 -1.156250e+00 1.125000e+00
5.615625e+01 3.697917e-01 -9.426129e-02 5.924711e-01 -1.156250e+00 1.132812e+00
5.539844e+01 3.697917e-01 -9.436355e-02 5.924031e-01 -1.156250e+00 1.128906e+00
5.539844e+01 3.697917e-01 -9.449648e-02 5.925212e-01 -1.156250e+00 1.128906e+00
5.539844e+01 3.697917e-01 -9.462942e-02 5.926393e-01 -1.156250e+00 1.128906e+00
5.549219e+01 3.697917e-01 -9.462942e-02 5.926677e-01 -1.156250e+00 1.132812e+00
5.549219e+01 3.697917e-01 -9.462942e-02 5.926960e-01 -1.156250e+00 1.132812e+00
5.549219e+01 3.697917e-01 -9.462942e-02 5.926960e-01 -1.156250e+00 1.132812e+00
5.549219e+01 3.697917e-01 -9.462942e-02 5.926960e-01 -1.156250e+00 1.132812e+00
5.549219e+01 3.697917e-01 -9.462942e-02 5.926960e-01 -1.156250e+00 1.132812e+00
5.549219e+01 3.697917e-01 -9.462942e-02 5.926960e-01 -1.156250e+00 1.132812e+00
5.549219e+01 3.697917e-01 -9.462942e-02 5.926960e-01 -1.156250e+00 1.132812e+00
5.562109e+01 3.697917e-01 -9.464987e-02 5.927994e-01 -1.156250e+00 1.132812e+00
5.532031e+01 3.697917e-01 -9.477258e-02 5.930186e-01 -1.156250e+00 1.132812e+00
5.532031e+01 3.697917e-01 -9.478280e-02 5.930555e-01 -1.156250e+00 1.136719e+00
5.532031e+01 3.697917e-01 -9.479303e-02 5.930923e-01 -1.156250e+00 1.136719e+00
5.532031e+01 3.697917e-01 -9.479303e-02 5.930923e-01 -1.156250e+00 1.136719e+00
5.532031e+01 3.697917e-01 -9.479303e-02 5.930923e-01 -1.156250e+00 1.136719e+00
5.532031e+01 3.697917e-01 -9.479303e-02 5.930923e-01 -1.156250e+00 1.136719e+00
5.560547e+01 3.697917e-01 -9.473168e-02 5.931085e-01 -1.156250e+00 1.140625e+00
5.569922e+01 3.697917e-01 -9.466009e-02 5.931459e-01 -1.156250e+00 1.144531e+00
5.569922e+01 3.697917e-01 -9.464987e-02 5.931672e-01 -1.156250e+00 1.144531e+00
5.575000e+01 3.697917e-01 -9.473168e-02 5.932113e-01 -1.156250e+00 1.144531e+00
5.575000e+01 3.697917e-01 -9.481348e-02 5.932553e-01 -1.156250e+00 1.144531e+00
5.575000e+01 3.697917e-01 -9.481348e-02 5.932553e-01 -1.156250e+00 1.144531e+00
5.575000e+01 3.697917e-01 -9.481348e-02 5.932553e-01 -1.156250e+00 1.144531e+00
5.575000e+01 3.697917e-01 -9.481348e-02 5.932553e-01 -1.156250e+00 1.144531e+00
5.575000e+01 3.697917e-01 -9.481348e-02 5.932553e-01 -1.156250e+00 1.144531e+00
5.575000e+01 3.697917e-01 -9.481348e-02 5.932553e-01 -1.156250e+00 1.144531e+00
5.575000e+01 3.697917e-01 -9.481348e-02 5.932553e-01 -1.156250e+00 1.144531e+00
5.593750e+01 3.697917e-01 -9.529409e-02 5.938085e-01 -1.156250e+00 1.164062e+00
5.590234e+01 3.697917e-01 -9.610193e-02 5.945436e-01 -1.156250e+00 1.171875e+00
5.590234e+01 3.697917e-01 -9.610193e-02 5.945436e-01 -1.156250e+00 1.171875e+00
5.590234e+01 3.697917e-01 -9.610193e-02 5.945436e-01 -1.156250e+00 1.171875e+00
5.590234e+01 3.697917e-01 -9.610193e-02 5.945436e-01 -1.156250e+00 1.171875e+00
5.545703e+01 3.697917e-01 -9.609170e-02 5.946759e-01 -1.156250e+00 1.171875e+00
5.545703e+01 3.697917e-01 -9.608148e-02 5.948082e-01 -1.156250e+00 1.171875e+00
5.545703e+01 3.697917e-01 -9.608148e-02 5.948082e-01 -1.156250e+00 1.171875e+00
5.545703e+01 3.697917e-01 -9.608148e-02 5.948082e-01 -1.156250e+00 1.171875e+00
5.545703e+01 3.697917e-01 -9.608148e-02 5.948082e-01 -1.156250e+00 1.171875e+00
5.545703e+01 3.697917e-01 -9.608148e-02 5.948082e-01 -1.156250e+00 1.171875e+00
5.545703e+01 3.697917e-01 -9.608148e-02 5.948082e-01 -1.156250e+00 1.171875e+00
5.545703e+01 3.697917e-01 -9.608148e-02 5.948082e-01 -1.156250e+00 1.171875e+00
5.542578e+01 3.697917e-01 -9.614283e-02 5.948394e-01 -1.156250e+00 1.171875e+00
5.542578e+01 3.697917e-01 -9.620419e-02 5.948706e-01 -1.156250e+00 1.171875e+00
5.542578e+01 3.697917e-01 -9.620419e-02 5.948706e-01 -1.156250e+00 1.171875e+00
5.542578e+01 3.697917e-01 -9.620419e-02 5.948706e-01 -1.156250e+00 1.171875e+00
5.542578e+01 3.697917e-01 -9.620419e-02 5.948706e-01 -1.156250e+00 1.171875e+00
5.542578e+01 3.697917e-01 -9.620419e-02 5.948706e-01 -1.156250e+00 1.171875e+00
5.542578e+01 3.697917e-01 -9.620419e-02 5.948706e-01 -1.156250e+00 1.171875e+00
5.542578e+01 3.697917e-01 -9.620419e-02 5.948706e-01 -1.156250e+00 1.171875e+00
5.542578e+01 3.697917e-01 -9.620419e-02 5.948706e-01 -1.156250e+00 1.171875e+00
5.542578e+01 3.697917e-01 -9.620419e-02 5.948706e-01 -1.156250e+00 1.171875e+00
5.542578e+01 3.697917e-01 -9.620419e-02 5.948706e-01 -1.156250e+00 1.171875e+00
5.542578e+01 3.697917e-01 -9.620419e-02 5.948706e-01 -1.156250e+00 1.171875e+00
5.542578e+01 3.697917e-01 -9.620419e-02 5.948706e-01 -1.156250e+00 1.171875e+00
5.542578e+01 3.697917e-01 -9.620419e-02 5.948706e-01 -1.156250e+00 1.171875e+00
5.542578e+01 3.697917e-01 -9.620419e-02 5.948706e-01 -1.156250e+00 1.171875e+00
5.542578e+01 3.697917e-01 -9.620419e-02 5.948706e-01 -1.156250e+00 1.171875e+00
5.542578e+01 3.697917e-01 -9.620419e-02 5.948706e-01 -1.156250e+00 1.171875e+00
5.542578e+01 3.697917e-01 -9.620419e-02 5.948706e-01 -1.156250e+00 1.171875e+00
5.542578e+01 3.697917e-01 -9.620419e-02 5.948706e-01 -1.156250e+00 1.171875e+00
5.542578e+01 3.697917e-01 -9.620419e-02 5.948706e-01 -1.156250e+00 1.171875e+00
5.542578e+01 3.697917e-01 -9.620419e-02 5.948706e-01 -1.156250e+00 1.171875e+00
5.542578e+01 3.697917e-01 -9.620419e-02 5.948706e-01 -1.156250e+00 1.171875e+00
5.542578e+01 3.697917e-01 -9.620419e-02 5.948706e-01 -1.156250e+00 1.171875e+00
5.542578e+01 3.697917e-01 -9.620419e-02 5.948706e-01 -1.156250e+00 1.171875e+00
5.542578e+01 3.697917e-01 -9.620419e-02 5.948706e-01 -1.156250e+00 1.171875e+00
5.542578e+01 3.697917e-01 -9.620419e-02 5.948706e-01 -1.156250e+00 1.171875e+00
5.542578e+01 3.697917e-01 -9.620419e-02 5.948706e-01 -1.156250e+00 1.171875e+00
5.542578e+01 3.697917e-01 -9.620419e-02 5.948706e-01 -1.156250e+00 1.171875e+00
5.542578e+01 3.697917e-01 -9.620419e-02 5.948706e-01 -1.156250e+00 1.171875e+00
5.542578e+01 3.697917e-01 -9.620419e-02 5.948706e-01 -1.156250e+00 1.171875e+00
5.542578e+01 3.697917e-01 -9.620419e-02 5.948706e-01 -1.156250e+00 1.171875e+00
5.542578e+01 3.697917e-01 -9.620419e-02 5.948706e-01 -1.156250e+00 1.171875e+00
5.542578e+01 3.697917e-01 -9.620419e-02 5.948706e-01 -1.156250e+00 1.171875e+00
5.542578e+01 3.697917e-01 -9.620419e-02 5.948706e-01 -1.156250e+00 1.171875e+00
5.542578e+01 3.697917e-01 -9.620419e-02 5.948706e-01 -1.156250e+00 1.171875e+00
5.542578e+01 3.697917e-01 -9.620419e-02 5.948706e-01 -1.156250e+00 1.171875e+00
5.542578e+01 3.697917e-01 -9.620419e-02 5.948706e-01 -1.156250e+00 1.171875e+00
5.542578e+01 3.697917e-01 -9.620419e-02 5.948706e-01 -1.156250e+00 1.171875e+00
5.542578e+01 3.697917e-01 -9.620419e-02 5.948706e-01 -1.156250e+00 1.171875e+00
5.542578e+01 3.697917e-01 -9.620419e-02 5.948706e-01 -1.156250e+00 1.171875e+00
5.542578e+01 3.697917e-01 -9.620419e-02 5.948706e-01 -1.156250e+00 1.171875e+00
5.542578e+01 3.697917e-01 -9.620419e-02 5.948706e-01 -1.156250e+00 1.171875e+00
5.542578e+01 3.697917e-01 -9.620419e-02 5.948706e-01 -1.156250e+00 1.171875e+00
5.542578e+01 3.697917e-01 -9.620419e-02 5.948706e-01 -1.156250e+00 1.171875e+00
5.542578e+01 3.697917e-01 -9.620419e-02 5.948706e-01 -1.156250e+00 1.171875e+00
5.542578e+01 3.697917e-01 -9.620419e-02 5.948706e-01 -1.156250e+00 1.171875e+00
5.542578e+01 3.697917e-01 -9.620419e-02 5.948706e-01 -1.156250e+00 1.171875e+00
5.542578e+01 3.697917e-01 -9.620419e-02 5.948706e-01 -1.156250e+00 1.171875e+00
5.542578e+01 3.697917e-01 -9.620419e-02 5.948706e-01 -1.156250e+00 1.171875e+00
5.542578e+01 3.697917e-01 -9.620419e-02 5.948706e-01 -1.156250e+00 1.171875e+00
5.542578e+01 3.697917e-01 -9.620419e-02 5.948706e-01 -1.156250e+00 1.171875e+00
5.542578e+01 3.697917e-01 -9.620419e-02 5.948706e-01 -1.156250e+00 1.171875e+00
5.542578e+01 3.697917e-01 -9.620419e-02 5.948706e-01 -1.156250e+00 1.171875e+00
5.542578e+01 3.697917e-01 -9.620419e-02 5.948706e-01 -1.156250e+00 1.171875e+00
5.542578e+01 3.697917e-01 -9.620419e-02 5.948706e-01 -1.156250e+00 1.171875e+00
5.542578e+01 3.697917e-01 -9.620419e-02 5.948706e-01 -1.156250e+00 1.171875e+00
5.542578e+01 3.697917e-01 -9.620419e-02 5.948706e-01 -1.156250e+00 1.171875e+00
5.542578e+01 3.697917e-01 -9.620419e-02 5.948706e-01 -1.156250e+00 1.171875e+00
5.542578e+01 3.697917e-01 -9.620419e-02 5.948706e-01 -1.156250e+00 1.171875e+00
5.542578e+01 3.697917e-01 -9.620419e-02 5.948706e-01 -1.156250e+00 1.171875e+00
5.542578e+01 3.697917e-01 -9.620419e-02 5.948706e-01 -1.156250e+00 1.171875e+00
5.542578e+01 3.697917e-01 -9.620419e-02 5.948706e-01 -1.156250e+00 1.171875e+00
5.542578e+01 3.697917e-01 -9.620419e-02 5.948706e-01 -1.156250e+00 1.171875e+00
5.542578e+01 3.697917e-01 -9.620419e-02 5.948706e-01 -1.156250e+00 1.171875e+00
5.542578e+01 3.697917e-01 -9.620419e-02 5.948706e-01 -1.156250e+00 1.171875e+00
5.542578e+01 3.697917e-01 -9.620419e-02 5.948706e-01 -1.156250e+00 1.171875e+00
5.542578e+01 3.697917e-01 -9.620419e-02 5.948706e-01 -1.156250e+00 1.171875e+00
5.542578e+01 3.697917e-01 -9.620419e-02 5.948706e-01 -1.156250e+00 1.171875e+00
5.542578e+01 3.697917e-01 -9.620419e-02 5.948706e-01 -1.156250e+00 1.171875e+00
5.542578e+01 3.697917e-01 -9.620419e-02 5.948706e-01 -1.156250e+00 1.171875e+00
5.542578e+01 3.697917e-01 -9.620419e-02 5.948706e-01 -1.156250e+00 1.171875e+00
5.542578e+01 3.697917e-01 -9.620419e-02 5.948706e-01 -1.156250e+00 1.171875e+00
5.542578e+01 3.697917e-01 -9.620419e-02 5.948706e-01 -1.156250e+00 1.171875e+00
5.542578e+01 3.697917e-01 -9.620419e-02 5.948706e-01 -1.156250e+00 1.171875e+00
5.542578e+01 3.697917e-01 -9.620419e-02 5.948706e-01 -1.156250e+00 1.171875e+00
5.542578e+01 3.697917e-01 -9.620419e-02 5.948706e-01 -1.156250e+00 1.171875e+00
5.542578e+01 3.697917e-01 -9.620419e-02 5.948706e-01 -1.156250e+00 1.171875e+00
5.542578e+01 3.697917e-01 -9.620419e-02 5.948706e-01 -1.156250e+00 1.171875e+00
5.542578e+01 3.697917e-01 -9.620419e-02 5.948706e-01 -1.156250e+00 1.171875e+00
5.542578e+01 3.697917e-01 -9.620419e-02 5.948706e-01 -1.156250e+00 1.171875e+00
5.542578e+01 3.697917e-01 -9.620419e-02 5.948706e-01 -1.156250e+00 1.171875e+00
5.542578e+01 3.697917e-01 -9.620419e-02 5.948706e-01 -1.156250e+00 1.171875e+00
5.542578e+01 3.697917e-01 -9.620419e-02 5.948706e-01 -1.156250e+00 1.171875e+00
5.542578e+01 3.697917e-01 -9.620419e-02 5.948706e-01 -1.156250e+00 1.171875e+00
5.542578e+01 3.697917e-01 -9.620419e-02 5.948706e-01 -1.156250e+00 1.171875e+00
5.542578e+01 3.697917e-01 -9.620419e-02 5.948706e-01 -1.156250e+00 1.171875e+00
5.542578e+01 3.697917e-01 -9.620419e-02 5.948706e-01 -1.156250e+00 1.171875e+00
5.542578e+01 3.697917e-01 -9.620419e-02 5.948706e-01 -1.156250e+00 1.171875e+00
5.542578e+01 3.697917e-01 -9.620419e-02 5.948706e-01 -1.156250e+00 1.171875e+00
5.542578e+01 3.697917e-01 -9.620419e-02 5.948706e-01 -1.156250e+00 1.171875e+00
5.542578e+01 3.697917e-01 -9.620419e-02 5.948706e-01 -1.156250e+00 1.171875e+00
5.542578e+01 3.697917e-01 -9.620419e-02 5.948706e-01 -1.156250e+00 1.171875e+00
5.542578e+01 3.697917e-01 -9.620419e-02 5.948706e-01 -1.156250e+00 1.171875e+00
5.542578e+01 3.697917e-01 -9.620419e-02 5.948706e-01 -1.156250e+00 1.171875e+00
5.542578e+01 3.697917e-01 -9.620419e-02 5.948706e-01 -1.156250e+00 1.171875e+00
5.542578e+01 3.697917e-01 -9.620419e-02 5.948706e-01 -1.156250e+00 1.171875e+00
5.542578e+01 3.697917e-01 -9.620419e-02 5.948706e-01 -1.156250e+00 1.171875e+00
5.542578e+01 3.697917e-01 -9.620419e-02 5.948706e-01 -1.156250e+00 1.171875e+00
5.542578e+01 3.697917e-01 -9.620419e-02 5.948706e-01 -1.156250e+00 1.171875e+00
5.542578e+01 3.697917e-01 -9.620419e-02 5.948706e-01 -1.156250e+00 1.171875e+00
5.542578e+01 3.697917e-01 -9.620419e-02 5.948706e-01 -1.156250e+00 1.171875e+00
5.542578e+01 3.697917e-01 -9.620419e-02 5.948706e-01 -1.156250e+00 1.171875e+00
5.542578e+01 3.697917e-01 -9.620419e-02 5.948706e-01 -1.156250e+00 1.171875e+00
5.542578e+01 3.697917e-01 -9.620419e-02 5.948706e-01 -1.156250e+00 1.171875e+00
5.542578e+01 3.697917e-01 -9.620419e-02 5.948706e-01 -1.156250e+00 1.171875e+00
5.542578e+01 3.697917e-01 -9.620419e-02 5.948706e-01 -1.156250e+00 1.171875e+00
5.542578e+01 3.697917e-01 -9.620419e-02 5.948706e-01 -1.156250e+00 1.171875e+00
5.542578e+01 3.697917e-01 -9.620419e-02 5.948706e-01 -1.156250e+00 1.171875e+00
5.542578e+01 3.697917e-01 -9.620419e-02 5.948706e-01 -1.156250e+00 1.171875e+00
5.542578e+01 3.697917e-01 -9.620419e-02 5.948706e-01 -1.156250e+00 1.171875e+00
5.542578e+01 3.697917e-01 -9.620419e-02 5.948706e-01 -1.156250e+00 1.171875e+00
5.542578e+01 3.697917e-01 -9.620419e-02 5.948706e-01 -1.156250e+00 1.171875e+00
5.542578e+01 3.697917e-01 -9.620419e-02 5.948706e-01 -1.156250e+00 1.171875e+00
5.542578e+01 3.697917e-01 -9.620419e-02 5.948706e-01 -1.156250e+00 1.171875e+00
5.542578e+01 3.697917e-01 -9.620419e-02 5.948706e-01 -1.156250e+00 1.171875e+00
5.542578e+01 3.697917e-01 -9.620419e-02 5.948706e-01 -1.156250e+00 1.171875e+00
5.542578e+01 3.697917e-01 -9.620419e-02 5.948706e-01 -1.156250e+00 1.171875e+00
5.542578e+01 3.697917e-01 -9.620419e-02 5.948706e-01 -1.156250e+00 1.171875e+00
5.542578e+01 3.697917e-01 -9.620419e-02 5.948706e-01 -1.156250e+00 1.171875e+00
5.542578e+01 3.697917e-01 -9.620419e-02 5.948706e-01 -1.156250e+00 1.171875e+00
5.542578e+01 3.697917e-01 -9.620419e-02 5.948706e-01 -1.156250e+00 1.171875e+00
5.542578e+01 3.697917e-01 -9.620419e-02 5.948706e-01 -1.156250e+00 1.171875e+00
5.542578e+01 3.697917e-01 -9.620419e-02 5.948706e-01 -1.156250e+00 1.171875e+00
5.542578e+01 3.697917e-01 -9.620419e-02 5.948706e-01 -1.156250e+00 1.171875e+00
5.542578e+01 3.697917e-01 -9.620419e-02 5.948706e-01 -1.156250e+00 1.171875e+00
5.542578e+01 3.697917e-01 -9.620419e-02 5.948706e-01 -1.156250e+00 1.171875e+00
5.542578e+01 3.697917e-01 -9.620419e-02 5.948706e-01 -1.156250e+00 1.171875e+00
5.542578e+01 3.697917e-01 -9.620419e-02 5.948706e-01 -1.156250e+00 1.171875e+00
5.542578e+01 3.697917e-01 -9.620419e-02 5.948706e-01 -1.156250e+00 1.171875e+00
5.542578e+01 3.697917e-01 -9.620419e-02 5.948706e-01 -1.156250e+00 1.171875e+00
5.542578e+01 3.697917e-01 -9.620419e-02 5.948706e-01 -1.156250e+00 1.171875e+00
5.542578e+01 3.697917e-01 -9.620419e-02 5.948706e-01 -1.156250e+00 1.171875e+00
5.542578e+01 3.697917e-01 -9.620419e-02 5.948706e-01 -1.156250e+00 1.171875e+00
5.542578e+01 3.697917e-01 -9.620419e-02 5.948706e-01 -1.156250e+00 1.171875e+00
5.542578e+01 3.697917e-01 -9.620419e-02 5.948706e-01 -1.156250e+00 1.171875e+00
5.542578e+01 3.697917e-01 -9.620419e-02 5.948706e-01 -1.156250e+00 1.171875e+00
5.542578e+01 3.697917e-01 -9.620419e-02 5.948706e-01 -1.156250e+00 1.171875e+00
5.542578e+01 3.697917e-01 -9.620419e-02 5.948706e-01 -1.156250e+00 1.171875e+00
5.542578e+01 3.697917e-01 -9.620419e-02 5.948706e-01 -1.156250e+00 1.171875e+00
5.542578e+01 3.697917e-01 -9.620419e-02 5.948706e-01 -1.156250e+00 1.171875e+00
5.542578e+01 3.697917e-01 -9.620419e-02 5.948706e-01 -1.156250e+00 1.171875e+00
5.542578e+01 3.697917e-01 -9.620419e-02 5.948706e-01 -1.156250e+00 1.171875e+00
5.542578e+01 3.697917e-01 -9.620419e-02 5.948706e-01 -1.156250e+00 1.171875e+00
5.542578e+01 3.697917e-01 -9.620419e-02 5.948706e-01 -1.156250e+00 1.171875e+00
5.542578e+01 3.697917e-01 -9.620419e-02 5.948706e-01 -1.156250e+00 1.171875e+00
5.542578e+01 3.697917e-01 -9.620419e-02 5.948706e-01 -1.156250e+00 1.171875e+00
5.542578e+01 3.697917e-01 -9.620419e-02 5.948706e-01 -1.156250e+00 1.171875e+00
5.542578e+01 3.697917e-01 -9.620419e-02 5.948706e-01 -1.156250e+00 1.171875e+00
5.542578e+01 3.697917e-01 -9.620419e-02 5.948706e-01 -1.156250e+00 1.171875e+00
5.542578e+01 3.697917e-01 -9.620419e-02 5.948706e-01 -1.156250e+00 1.171875e+00
5.542578e+01 3.697917e-01 -9.620419e-02 5.948706e-01 -1.156250e+00 1.171875e+00
5.542578e+01 3.697917e-01 -9.620419e-02 5.948706e-01 -1.156250e+00 1.171875e+00
5.542578e+01 3.697917e-01 -9.620419e-02 5.948706e-01 -1.156250e+00 1.171875e+00
5.542578e+01 3.697917e-01 -9.620419e-02 5.948706e-01 -1.156250e+00 1.171875e+00
5.542578e+01 3.697917e-01 -9.620419e-02 5.948706e-01 -1.156250e+00 1.171875e+00
5.542578e+01 3.697917e-01 -9.620419e-02 5.948706e-01 -1.156250e+00 1.171875e+00
5.542578e+01 3.697917e-01 -9.620419e-02 5.948706e-01 -1.156250e+00 1.171875e+00
5.542578e+01 3.697917e-01 -9.620419e-02 5.948706e-01 -1.156250e+00 1.171875e+00
5.542578e+01 3.697917e-01 -9.620419e-02 5.948706e-01 -1.156250e+00 1.171875e+00
5.542578e+01 3.697917e-01 -9.620419e-02 5.948706e-01 -1.156250e+00 1.171875e+00
5.542578e+01 3.697917e-01 -9.620419e-02 5.948706e-01 -1.156250e+00 1.171875e+00
5.542578e+01 3.697917e-01 -9.620419e-02 5.948706e-01 -1.156250e+00 1.171875e+00
5.542578e+01 3.697917e-01 -9.620419e-02 5.948706e-01 -1.156250e+00 1.171875e+00
5.542578e+01 3.697917e-01 -9.620419e-02 5.948706e-01 -1.156250e+00 1.171875e+00
5.542578e+01 3.697917e-01 -9.620419e-02 5.948706e-01 -1.156250e+00 1.171875e+00
5.542578e+01 3.697917e-01 -9.620419e-02 5.948706e-01 -1.156250e+00 1.171875e+00
5.542578e+01 3.697917e-01 -9.620419e-02 5.948706e-01 -1.156250e+00 1.171875e+00
5.542578e+01 3.697917e-01 -9.620419e-02 5.948706e-01 -1.156250e+00 1.171875e+00
5.542578e+01 3.697917e-01 -9.620419e-02 5.948706e-01 -1.156250e+00 1.171875e+00
5.542578e+01 3.697917e-01 -9.620419e-02 5.948706e-01 -1.156250e+00 1.171875e+00
5.542578e+01 3.697917e-01 -9.620419e-02 5.948706e-01 -1.156250e+00 1.171875e+00
5.542578e+01 3.697917e-01 -9.620419e-02 5.948706e-01 -1.156250e+00 1.171875e+00
5.542578e+01 3.697917e-01 -9.620419e-02 5.948706e-01 -1.156250e+00 1.171875e+00
5.542578e+01 3.697917e-01 -9.620419e-02 5.948706e-01 -1.156250e+00 1.171875e+00
5.542578e+01 3.697917e-01 -9.620419e-02 5.948706e-01 -1.156250e+00 1.171875e+00
5.542578e+01 3.697917e-01 -9.620419e-02 5.948706e-01 -1.156250e+00 1.171875e+00
5.542578e+01 3.697917e-01 -9.620419e-02 5.948706e-01 -1.156250e+00 1.171875e+00
5.542578e+01 3.697917e-01 -9.620419e-02 5.948706e-01 -1.156250e+00 1.171875e+00
5.542578e+01 3.697917e-01 -9.620419e-02 5.948706e-01 -1.156250e+00 1.171875e+00
5.542578e+01 3.697917e-01 -9.620419e-02 5.948706e-01 -1.156250e+00 1.171875e+00
5.542578e+01 3.697917e-01 -9.620419e-02 5.948706e-01 -1.156250e+00 1.171875e+00
5.542578e+01 3.697917e-01 -9.620419e-02 5.948706e-01 -1.156250e+00 1.171875e+00
5.542578e+01 3.697917e-01 -9.620419e-02 5.948706e-01 -1.156250e+00 1.171875e+00
5.542578e+01 3.697917e-01 -9.620419e-02 5.948706e-01 -1.156250e+00 1.171875e+00
5.542578e+01 3.697917e-01 -9.620419e-02 5.948706e-01 -1.156250e+00 1.171875e+00
5.542578e+01 3.697917e-01 -9.620419e-02 5.948706e-01 -1.156250e+00 1.171875e+00
5.542578e+01 3.697917e-01 -9.620419e-02 5.948706e-01 -1.156250e+00 1.171875e+00
5.542578e+01 3.697917e-01 -9.620419e-02 5.948706e-01 -1.156250e+00 1.171875e+00
5.542578e+01 3.697917e-01 -9.620419e-02 5.948706e-01 -1.156250e+00 1.171875e+00
5.542578e+01 3.697917e-01 -9.620419e-02 5.948706e-01 -1.156250e+00 1.171875e+00
5.542578e+01 3.697917e-01 -9.620419e-02 5.948706e-01 -1.156250e+00 1.171875e+00
5.542578e+01 3.697917e-01 -9.620419e-02 5.948706e-01 -1.156250e+00 1.171875e+00
5.542578e+01 3.697917e-01 -9.620419e-02 5.948706e-01 -1.156250e+00 1.171875e+00
5.542578e+01 3.697917e-01 -9.620419e-02 5.948706e-01 -1.156250e+00 1.171875e+00
5.542578e+01 3.697917e-01 -9.620419e-02 5.948706e-01 -1.156250e+00 1.171875e+00
5.542578e+01 3.697917e-01 -9.620419e-02 5.948706e-01 -1.156250e+00 1.171875e+00
5.542578e+01 3.697917e-01 -9.620419e-02 5.948706e-01 -1.156250e+00 1.171875e+00
5.542578e+01 3.697917e-01 -9.620419e-02 5.948706e-01 -1.156250e+00 1.171875e+00
5.542578e+01 3.697917e-01 -9.620419e-02 5.948706e-01 -1.156250e+00 1.171875e+00
5.542578e+01 3.697917e-01 -9.620419e-02 5.948706e-01 -1.156250e+00 1.171875e+00
5.542578e+01 3.697917e-01 -9.620419e-02 5.948706e-01 -1.156250e+00 1.171875e+00
5.542578e+01 3.697917e-01 -9.620419e-02 5.948706e-01 -1.156250e+00 1.171875e+00
5.542578e+01 3.697917e-01 -9.620419e-02 5.948706e-01 -1.156250e+00 1.171875e+00
5.542578e+01 3.697917e-01 -9.620419e-02 5.948706e-01 -1.156250e+00 1.171875e+00
5.542578e+01 3.697917e-01 -9.620419e-02 5.948706e-01 -1.156250e+00 1.171875e+00
5.542578e+01 3.697917e-01 -9.620419e-02 5.948706e-01 -1.156250e+00 1.171875e+00
5.542578e+01 3.697917e-01 -9.620419e-02 5.948706e-01 -1.156250e+00 1.171875e+00
5.542578e+01 3.697917e-01 -9.620419e-02 5.948706e-01 -1.156250e+00 1.171875e+00
5.542578e+01 3.697917e-01 -9.620419e-02 5.948706e-01 -1.156250e+00 1.171875e+00
5.542578e+01 3.697917e-01 -9.620419e-02 5.948706e-01 -1.156250e+00 1.171875e+00
5.542578e+01 3.697917e-01 -9.620419e-02 5.948706e-01 -1.156250e+00 1.171875e+00
5.542578e+01 3.697917e-01 -9.620419e-02 5.948706e-01 -1.156250e+00 1.171875e+00
5.542578e+01 3.697917e-01 -9.620419e-02 5.948706e-01 -1.156250e+00 1.171875e+00
5.542578e+01 3.697917e-01 -9.620419e-02 5.948706e-01 -1.156250e+00 1.171875e+00
5.542578e+01 3.697917e-01 -9.620419e-02 5.948706e-01 -1.156250e+00 1.171875e+00
5.542578e+01 3.697917e-01 -9.620419e-02 5.948706e-01 -1.156250e+00 1.171875e+00
5.542578e+01 3.697917e-01 -9.620419e-02 5.948706e-01 -1.156250e+00 1.171875e+00
5.542578e+01 3.697917e-01 -9.620419e-02 5.948706e-01 -1.156250e+00 1.171875e+00
5.542578e+01 3.697917e-01 -9.620419e-02 5.948706e-01 -1.156250e+00 1.171875e+00
5.542578e+01 3.697917e-01 -9.620419e-02 5.948706e-01 -1.156250e+00 1.171875e+00
5.542578e+01 3.697917e-01 -9.620419e-02 5.948706e-01 -1.156250e+00 1.171875e+00
5.542578e+01 3.697917e-01 -9.620419e-02 5.948706e-01 -1.156250e+00 1.171875e+00
5.542578e+01 3.697917e-01 -9.620419e-02 5.948706e-01 -1.156250e+00 1.171875e+00
5.542578e+01 3.697917e-01 -9.620419e-02 5.948706e-01 -1.156250e+00 1.171875e+00
5.542578e+01 3.697917e-01 -9.620419e-02 5.948706e-01 -1.156250e+00 1.171875e+00
5.542578e+01 3.697917e-01 -9.620419e-02 5.948706e-01 -1.156250e+00 1.171875e+00
5.542578e+01 3.697917e-01 -9.620419e-02 5.948706e-01 -1.156250e+00 1.171875e+00
5.542578e+01 3.697917e-01 -9.620419e-02 5.948706e-01 -1.156250e+00 1.171875e+00
5.542578e+01 3.697917e-01 -9.620419e-02 5.948706e-01 -1.156250e+00 1.171875e+00
5.542578e+01 3.697917e-01 -9.620419e-02 5.948706e-01 -1.156250e+00 1.171875e+00
5.542578e+01 3.697917e-01 -9.620419e-02 5.948706e-01 -1.156250e+00 1.171875e+00
5.542578e+01 3.697917e-01 -9.620419e-02 5.948706e-01 -1.156250e+00 1.171875e+00
5.542578e+01 3.697917e-01 -9.620419e-02 5.948706e-01 -1.156250e+00 1.171875e+00
5.542578e+01 3.697917e-01 -9.620419e-02 5.948706e-01 -1.156250e+00 1.171875e+00
5.542578e+01 3.697917e-01 -9.620419e-02 5.948706e-01 -1.156250e+00 1.171875e+00
5.542578e+01 3.697917e-01 -9.620419e-02 5.948706e-01 -1.156250e+00 1.171875e+00
5.542578e+01 3.697917e-01 -9.620419e-02 5.948706e-01 -1.156250e+00 1.171875e+00
5.542578e+01 3.697917e-01 -9.620419e-02 5.948706e-01 -1.156250e+00 1.171875e+00
5.542578e+01 3.697917e-01 -9.620419e-02 5.948706e-01 -1.156250e+00 1.171875e+00
5.542578e+01 3.697917e-01 -9.620419e-02 5.948706e-01 -1.156250e+00 1.171875e+00
5.542578e+01 3.697917e-01 -9.620419e-02 5.948706e-01 -1.156250e+00 1.171875e+00
5.542578e+01 3.697917e-01 -9.620419e-02 5.948706e-01 -1.156250e+00 1.171875e+00
5.542578e+01 3.697917e-01 -9.620419e-02 5.948706e-01 -1.156250e+00 1.171875e+00
5.542578e+01 3.697917e-01 -9.620419e-02 5.948706e-01 -1.156250e+00 1.171875e+00
5.542578e+01 3.697917e-01 -9.620419e-02 5.948706e-01 -1.156250e+00 1.171875e+00
5.542578e+01 3.697917e-01 -9.620419e-02 5.948706e-01 -1.156250e+00 1.171875e+00
5.542578e+01 3.697917e-01 -9.620419e-02 5.948706e-01 -1.156250e+00 1.171875e+00
5.542578e+01 3.697917e-01 -9.620419e-02 5.948706e-01 -1.156250e+00 1.171875e+00
5.542578e+01 3.697917e-01 -9.620419e-02 5.948706e-01 -1.156250e+00 1.171875e+00
5.542578e+01 3.697917e-01 -9.620419e-02 5.948706e-01 -1.156250e+00 1.171875e+00
5.542578e+01 3.697917e-01 -9.620419e-02 5.948706e-01 -1.156250e+00 1.171875e+00
5.542578e+01 3.697917e-01 -9.620419e-02 5.948706e-01 -1.156250e+00 1.171875e+00
5.542578e+01 3.697917e-01 -9.620419e-02 5.948706e-01 -1.156250e+00 1.171875e+00
5.542578e+01 3.697917e-01 -9.620419e-02 5.948706e-01 -1.156250e+00 1.171875e+00
5.542578e+01 3.697917e-01 -9.620419e-02 5.948706e-01 -1.156250e+00 1.171875e+00
5.542578e+01 3.697917e-01 -9.620419e-02 5.948706e-01 -1.156250e+00 1.171875e+00
5.542578e+01 3.697917e-01 -9.620419e-02 5.948706e-01 -1.156250e+00 1.171875e+00
5.542578e+01 3.697917e-01 -9.620419e-02 5.948706e-01 -1.156250e+00 1.171875e+00
5.542578e+01 3.697917e-01 -9.620419e-02 5.948706e-01 -1.156250e+00 1.171875e+00
5.542578e+01 3.697917e-01 -9.620419e-02 5.948706e-01 -1.156250e+00 1.171875e+00
5.542578e+01 3.697917e-01 -9.620419e-02 5.948706e-01 -1.156250e+00 1.171875e+00
5.542578e+01 3.697917e-01 -9.620419e-02 5.948706e-01 -1.156250e+00 1.171875e+00
5.542578e+01 3.697917e-01 -9.620419e-02 5.948706e-01 -1.156250e+00 1.171875e+00
5.542578e+01 3.697917e-01 -9.620419e-02 5.948706e-01 -1.156250e+00 1.171875e+00
5.542578e+01 3.697917e-01 -9.620419e-02 5.948706e-01 -1.156250e+00 1.171875e+00
5.542578e+01 3.697917e-01 -9.620419e-02 5.948706e-01 -1.156250e+00 1.171875e+00
5.542578e+01 3.697917e-01 -9.620419e-02 5.948706e-01 -1.156250e+00 1.171875e+00
5.542578e+01 3.697917e-01 -9.620419e-02 5.948706e-01 -1.156250e+00 1.171875e+00
5.542578e+01 3.697917e-01 -9.620419e-02 5.948706e-01 -1.156250e+00 1.171875e+00
5.542578e+01 3.697917e-01 -9.620419e-02 5.948706e-01 -1.156250e+00 1.171875e+00
5.542578e+01 3.697917e-01 -9.620419e-02 5.948706e-01 -1.156250e+00 1.171875e+00
