-6.269207e-01 6.272318e+00 -3.419577e+01 3.186553e+01 8.026084e-06 2.399820e-03 -1.262285e-01 1.262285e-01
-5.124372e-01 6.836913e+00 -3.503283e+01 3.501046e+01 7.060314e-07 2.012083e-03 -1.262285e-01 1.262285e-01
-4.755485e-01 7.160970e+00 -3.568866e+01 3.552974e+01 2.742012e-06 1.859330e-03 -1.262285e-01 1.262285e-01
-4.467396e-01 7.431607e+00 -3.614731e+01 3.637904e+01 9.979881e-07 1.760206e-03 -1.262285e-01 1.262285e-01
-4.429957e-01 7.653604e+00 -3.611798e+01 3.695127e+01 -5.483382e-07 1.681598e-03 -1.262285e-01 1.262285e-01
-4.388072e-01 7.853323e+00 -3.727263e+01 3.791623e+01 1.734769e-07 1.622506e-03 -1.262285e-01 1.262285e-01
-4.581832e-01 8.021476e+00 -3.912178e+01 3.843157e+01 2.055651e-06 1.573074e-03 -1.262285e-01 1.262285e-01
-4.408746e-01 8.179384e+00 -4.012859e+01 3.896830e+01 -1.007597e-07 1.535277e-03 -1.262285e-01 1.262285e-01
-4.611863e-01 8.313138e+00 -4.117930e+01 3.900673e+01 1.516978e-08 1.505571e-03 -1.262285e-01 1.262285e-01
-4.747926e-01 8.433995e+00 -4.202031e+01 3.964772e+01 4.136807e-07 1.472978e-03 -1.262285e-01 1.262285e-01
-4.826186e-01 8.548318e+00 -4.270623e+01 3.994723e+01 -7.801938e-09 1.443039e-03 -1.262285e-01 1.262285e-01
-4.941403e-01 8.650064e+00 -4.402267e+01 4.002885e+01 -4.695218e-07 1.424497e-03 -1.262285e-01 1.262285e-01
-5.000602e-01 8.735590e+00 -4.453092e+01 4.017936e+01 4.677988e-08 1.405180e-03 -1.262285e-01 1.262285e-01
-5.187530e-01 8.821439e+00 -4.458330e+01 4.050479e+01 8.104349e-07 1.386124e-03 -1.262284e-01 1.262285e-01
-5.300306e-01 8.898089e+00 -4.569125e+01 4.080499e+01 3.732130e-07 1.366618e-03 -1.262285e-01 1.262283e-01
-5.483272e-01 8.966746e+00 -4.567959e+01 4.101317e+01 5.047233e-07 1.348909e-03 -1.262285e-01 1.262285e-01
-5.520927e-01 9.030077e+00 -4.620463e+01 4.113919e+01 4.255974e-07 1.334371e-03 -1.262284e-01 1.262285e-01
-5.677679e-01 9.111163e+00 -4.646841e+01 4.133629e+01 7.893127e-07 1.317742e-03 -1.262285e-01 1.262285e-01
-5.729037e-01 9.160525e+00 -4.681413e+01 4.156108e+01 1.379680e-07 1.307151e-03 -1.262285e-01 1.262282e-01
-5.918093e-01 9.215210e+00 -4.687510e+01 4.154037e+01 1.018390e-06 1.294058e-03 -1.262285e-01 1.262285e-01
-5.926477e-01 9.275057e+00 -4.766839e+01 4.180869e+01 2.150441e-07 1.280850e-03 -1.262285e-01 1.262285e-01
-6.016286e-01 9.324531e+00 -4.794167e+01 4.193876e+01 -7.557689e-07 1.270503e-03 -1.262285e-01 1.262283e-01
-6.189528e-01 9.372335e+00 -4.762173e+01 4.220680e+01 3.169454e-08 1.261678e-03 -1.262285e-01 1.262285e-01
-6.157418e-01 9.416011e+00 -4.814368e+01 4.220138e+01 1.791983e-07 1.252817e-03 -1.262285e-01 1.262281e-01
-6.315340e-01 9.455129e+00 -4.826257e+01 4.236819e+01 -3.688409e-07 1.242272e-03 -1.262285e-01 1.262285e-01
-6.309790e-01 9.503621e+00 -4.815729e+01 4.272302e+01 -5.037877e-07 1.229918e-03 -1.262285e-01 1.262285e-01
-6.396874e-01 9.546256e+00 -4.871764e+01 4.260775e+01 -2.661342e-07 1.221798e-03 -1.262285e-01 1.262285e-01
-6.368495e-01 9.591052e+00 -4.888109e+01 4.311700e+01 -4.776946e-07 1.211875e-03 -1.262285e-01 1.262284e-01
-6.474556e-01 9.611681e+00 -4.864927e+01 4.307318e+01 -3.705768e-07 1.206793e-03 -1.262285e-01 1.262284e-01
-6.501939e-01 9.657830e+00 -4.864699e+01 4.348819e+01 -2.008550e-07 1.201106e-03 -1.262285e-01 1.262284e-01
-6.588916e-01 9.698456e+00 -4.896000e+01 4.378207e+01 5.351537e-07 1.191455e-03 -1.262285e-01 1.262285e-01
-6.533657e-01 9.722709e+00 -4.950681e+01 4.354886e+01 -5.100448e-08 1.184553e-03 -1.262285e-01 1.262285e-01
-6.605484e-01 9.752125e+00 -4.896847e+01 4.433039e+01 -1.239798e-06 1.178576e-03 -1.262285e-01 1.262284e-01
-6.688427e-01 9.784797e+00 -4.887239e+01 4.438548e+01 8.858473e-07 1.175248e-03 -1.262285e-01 1.262284e-01
-6.692940e-01 9.813440e+00 -4.932755e+01 4.462741e+01 1.070139e-06 1.167017e-03 -1.262285e-01 1.262277e-01
-6.707654e-01 9.847556e+00 -4.892573e+01 4.445872e+01 -3.238114e-07 1.160614e-03 -1.262285e-01 1.262285e-01
