-4.427995e+00 6.145283e+00 -4.364238e+01 3.534891e+01 1.864468e-05 4.592383e-03 -4.499969e-01 4.794312e-01
-5.721340e+00 7.055488e+00 -4.601758e+01 3.915820e+01 3.151810e-06 3.393063e-03 -4.376526e-01 5.231628e-01
-6.335739e+00 7.555614e+00 -5.162874e+01 4.254019e+01 2.167094e-06 3.152305e-03 -4.376526e-01 5.609283e-01
-6.732570e+00 7.897798e+00 -5.406001e+01 4.466066e+01 1.539725e-06 3.051769e-03 -4.351044e-01 6.930084e-01
-7.001798e+00 8.130346e+00 -5.459268e+01 4.506213e+01 1.483858e-06 2.941767e-03 -4.376526e-01 7.662201e-01
-7.190817e+00 8.308417e+00 -5.548679e+01 4.628236e+01 5.507643e-07 2.914721e-03 -4.397888e-01 8.042908e-01
-7.384662e+00 8.466735e+00 -5.709354e+01 4.637952e+01 6.713596e-07 2.877065e-03 -4.376526e-01 7.597656e-01
-7.513848e+00 8.590001e+00 -5.787654e+01 4.711237e+01 7.439862e-07 2.833034e-03 -4.351044e-01 8.733978e-01
-7.646819e+00 8.701434e+00 -5.876967e+01 4.887408e+01 9.693840e-07 2.780091e-03 -4.283752e-01 8.186493e-01
-7.767471e+00 8.809310e+00 -6.006351e+01 4.981918e+01 7.992919e-07 2.777393e-03 -4.819183e-01 9.341888e-01
-7.860468e+00 8.893272e+00 -6.090965e+01 5.124663e+01 5.682570e-07 2.759666e-03 -4.320374e-01 7.750549e-01
-7.958359e+00 8.985802e+00 -6.023590e+01 5.118312e+01 6.268102e-07 2.721133e-03 -4.320374e-01 8.790588e-01
-8.042820e+00 9.058031e+00 -6.112567e+01 5.305807e+01 3.568461e-07 2.677443e-03 -4.320374e-01 8.640137e-01
-8.120740e+00 9.120208e+00 -6.152205e+01 5.382301e+01 -1.034198e-07 2.647944e-03 -4.283752e-01 8.627014e-01
-8.200036e+00 9.185850e+00 -6.286038e+01 5.510751e+01 1.294561e-07 2.614996e-03 -4.239960e-01 9.106445e-01
-8.268786e+00 9.247629e+00 -6.173180e+01 5.557178e+01 -4.498022e-08 2.595443e-03 -4.239960e-01 8.862915e-01
-8.344904e+00 9.292940e+00 -6.297751e+01 5.552733e+01 3.478877e-07 2.607574e-03 -4.239960e-01 8.520660e-01
-8.398258e+00 9.357258e+00 -6.297485e+01 5.649342e+01 3.174710e-07 2.574611e-03 -4.283752e-01 9.145508e-01
-8.453183e+00 9.401907e+00 -6.343898e+01 5.713170e+01 4.821483e-07 2.520132e-03 -4.239960e-01 7.271271e-01
-8.528290e+00 9.449771e+00 -6.385506e+01 5.784836e+01 3.676502e-07 2.565438e-03 -4.187927e-01 8.789673e-01
-8.581007e+00 9.486840e+00 -6.276453e+01 5.734550e+01 1.789972e-07 2.525783e-03 -4.187927e-01 7.749023e-01
-8.632308e+00 9.537226e+00 -6.367825e+01 5.884550e+01 3.349427e-07 2.513378e-03 -4.239960e-01 7.311249e-01
-8.674656e+00 9.567425e+00 -6.379198e+01 5.893468e+01 2.799097e-07 2.462386e-03 -4.187927e-01 8.965454e-01
-8.722046e+00 9.604545e+00 -6.370612e+01 5.966275e+01 3.466171e-07 2.482197e-03 -4.187927e-01 9.246368e-01
-8.755007e+00 9.642596e+00 -6.400575e+01 5.985320e+01 -1.329457e-08 2.462138e-03 -4.187927e-01 8.666687e-01
-8.800480e+00 9.670803e+00 -6.437227e+01 6.006194e+01 1.065063e-07 2.462803e-03 -4.239960e-01 8.790131e-01
-8.838278e+00 9.708247e+00 -6.358492e+01 6.044562e+01 6.131949e-07 2.453383e-03 -4.187927e-01 8.876801e-01
-8.883424e+00 9.737897e+00 -6.354498e+01 6.150545e+01 2.390972e-07 2.417833e-03 -4.320374e-01 8.264160e-01
-8.914691e+00 9.755921e+00 -6.351778e+01 6.089954e+01 5.893577e-07 2.464282e-03 -4.187927e-01 8.851776e-01
-8.966753e+00 9.793308e+00 -6.482100e+01 6.289746e+01 1.086321e-07 2.428269e-03 -4.187927e-01 9.688110e-01
-8.985036e+00 9.807794e+00 -6.365443e+01 6.180177e+01 3.042266e-07 2.396655e-03 -4.187927e-01 7.830505e-01
-9.027214e+00 9.846504e+00 -6.388803e+01 6.305818e+01 5.468296e-07 2.399373e-03 -4.662323e-01 7.926941e-01
-9.062916e+00 9.874490e+00 -6.404768e+01 6.179509e+01 2.490048e-07 2.401588e-03 -4.459686e-01 9.732361e-01
-9.099757e+00 9.896345e+00 -6.370566e+01 6.202605e+01 2.076748e-08 2.416909e-03 -4.187927e-01 8.959198e-01
-9.122715e+00 9.912966e+00 -6.435684e+01 6.327399e+01 -1.124208e-07 2.370883e-03 -4.358521e-01 8.117828e-01
-9.169255e+00 9.945411e+00 -6.386638e+01 6.367160e+01 2.562398e-07 2.367254e-03 -4.187927e-01 7.925568e-01
-9.200465e+00 9.977908e+00 -6.456606e+01 6.393803e+01 3.916663e-07 2.368789e-03 -4.317322e-01 9.020996e-01
-9.239621e+00 1.000380e+01 -6.387395e+01 6.391826e+01 2.978556e-07 2.411847e-03 -4.126282e-01 9.913177e-01
-9.274704e+00 1.003072e+01 -6.420047e+01 6.493054e+01 3.470192e-07 2.381197e-03 -4.187927e-01 9.138031e-01
-9.293980e+00 1.004163e+01 -6.448969e+01 6.524881e+01 2.280961e-07 2.362046e-03 -4.239960e-01 9.911957e-01
-9.328645e+00 1.006930e+01 -6.494414e+01 6.396098e+01 3.548083e-09 2.376962e-03 -4.187927e-01 9.206543e-01
-9.358858e+00 1.009248e+01 -6.514162e+01 6.562114e+01 1.668942e-07 2.348943e-03 -5.131989e-01 9.227295e-01
-9.385975e+00 1.010453e+01 -6.511662e+01 6.554939e+01 1.485210e-07 2.351962e-03 -4.126282e-01 9.937744e-01
-9.408949e+00 1.012626e+01 -6.476169e+01 6.576227e+01 1.040153e-07 2.342799e-03 -4.484406e-01 8.390961e-01
-9.435775e+00 1.015487e+01 -6.521004e+01 6.592264e+01 -1.362550e-09 2.325680e-03 -4.187927e-01 9.306183e-01
-9.455744e+00 1.017394e+01 -6.570937e+01 6.657326e+01 -3.495553e-08 2.291484e-03 -4.187927e-01 1.013458e+00
-9.496347e+00 1.019365e+01 -6.540942e+01 6.693071e+01 2.534356e-07 2.318526e-03 -4.495239e-01 7.602081e-01
-9.523656e+00 1.020954e+01 -6.622659e+01 6.534145e+01 3.337070e-07 2.316715e-03 -4.187927e-01 8.582916e-01
-9.545543e+00 1.022914e+01 -6.659280e+01 6.611223e+01 1.453244e-07 2.323909e-03 -4.264679e-01 1.026398e+00
-9.572222e+00 1.025490e+01 -6.671779e+01 6.801488e+01 1.448560e-07 2.326330e-03 -4.362488e-01 7.266083e-01
-9.599208e+00 1.026943e+01 -6.617720e+01 6.700327e+01 7.912887e-08 2.293100e-03 -4.187927e-01 1.005936e+00
-9.623659e+00 1.028923e+01 -6.641328e+01 6.815294e+01 2.643903e-07 2.276608e-03 -4.173279e-01 8.381653e-01
-9.651222e+00 1.031203e+01 -6.724098e+01 6.718755e+01 4.189522e-07 2.290410e-03 -4.348297e-01 1.041107e+00
-9.667688e+00 1.033493e+01 -6.752760e+01 6.740759e+01 1.235096e-07 2.276288e-03 -4.351044e-01 9.320221e-01
-9.691368e+00 1.035192e+01 -6.786678e+01 6.790971e+01 -8.499727e-09 2.274004e-03 -4.240875e-01 1.040375e+00
-9.704374e+00 1.036452e+01 -6.730031e+01 6.875122e+01 2.915744e-07 2.249480e-03 -4.187927e-01 8.596497e-01
-9.724735e+00 1.037892e+01 -6.754306e+01 6.899504e+01 2.740958e-07 2.260476e-03 -4.187927e-01 1.022751e+00
-9.753349e+00 1.040103e+01 -6.743127e+01 6.855698e+01 -3.139353e-09 2.251379e-03 -4.187927e-01 1.051559e+00
-9.778667e+00 1.042299e+01 -6.798914e+01 6.746770e+01 3.390073e-07 2.279029e-03 -4.187927e-01 9.504242e-01
-9.788801e+00 1.043241e+01 -6.778802e+01 6.990976e+01 -2.918121e-08 2.231871e-03 -4.239960e-01 7.442322e-01
-9.819135e+00 1.044933e+01 -6.806291e+01 6.815767e+01 3.672369e-07 2.250191e-03 -4.187927e-01 8.975677e-01
-9.835275e+00 1.046964e+01 -6.862227e+01 6.894368e+01 3.307070e-07 2.258576e-03 -4.187927e-01 7.149811e-01
-9.849082e+00 1.047756e+01 -6.825421e+01 6.896129e+01 2.027155e-07 2.199274e-03 -4.187927e-01 9.632874e-01
-9.880505e+00 1.051221e+01 -6.887563e+01 6.981845e+01 2.301123e-07 2.278284e-03 -4.351044e-01 1.040344e+00
-9.887372e+00 1.052558e+01 -6.874275e+01 6.902783e+01 -3.212855e-08 2.229920e-03 -4.187927e-01 9.338226e-01
-9.911734e+00 1.052867e+01 -6.912729e+01 7.012030e+01 5.108918e-07 2.222986e-03 -4.187927e-01 1.003693e+00
