3.798061e+02 6.095718e-01 1.471898e-02 5.691919e-01 -9.999847e-01 9.998169e-01
3.798061e+02 6.095718e-01 1.471898e-02 5.691919e-01 -9.999847e-01 9.998169e-01
3.798061e+02 6.095718e-01 1.471898e-02 5.691919e-01 -9.999847e-01 9.998169e-01
3.798061e+02 6.095718e-01 1.471898e-02 5.691919e-01 -9.999847e-01 9.998169e-01
3.798061e+02 6.095718e-01 1.471898e-02 5.691919e-01 -9.999847e-01 9.998169e-01
3.798061e+02 6.095718e-01 1.471898e-02 5.691919e-01 -9.999847e-01 9.998169e-01
3.798061e+02 6.095718e-01 1.471898e-02 5.691919e-01 -9.999847e-01 9.998169e-01
3.798061e+02 6.095718e-01 1.471898e-02 5.691919e-01 -9.999847e-01 9.998169e-01
3.798061e+02 6.095718e-01 1.471898e-02 5.691919e-01 -9.999847e-01 9.998169e-01
3.798061e+02 6.095718e-01 1.471898e-02 5.691919e-01 -9.999847e-01 9.998169e-01
3.798061e+02 6.095718e-01 1.471898e-02 5.691919e-01 -9.999847e-01 9.998169e-01
3.798061e+02 6.095718e-01 1.471898e-02 5.691919e-01 -9.999847e-01 9.998169e-01
3.798061e+02 6.095718e-01 1.471898e-02 5.691919e-01 -9.999847e-01 9.998169e-01
3.798061e+02 6.095718e-01 1.471898e-02 5.691919e-01 -9.999847e-01 9.998169e-01
3.798061e+02 6.095718e-01 1.471898e-02 5.691919e-01 -9.999847e-01 9.998169e-01
3.798061e+02 6.095718e-01 1.471898e-02 5.691919e-01 -9.999847e-01 9.998169e-01
3.798061e+02 6.095718e-01 1.471898e-02 5.691919e-01 -9.999847e-01 9.998169e-01
3.798061e+02 6.095718e-01 1.471898e-02 5.691919e-01 -9.999847e-01 9.998169e-01
3.798061e+02 6.095718e-01 1.471898e-02 5.691919e-01 -9.999847e-01 9.998169e-01
3.798061e+02 6.095718e-01 1.471898e-02 5.691919e-01 -9.999847e-01 9.998169e-01
3.798061e+02 6.095718e-01 1.471898e-02 5.691919e-01 -9.999847e-01 9.998169e-01
3.798061e+02 6.095718e-01 1.471898e-02 5.691919e-01 -9.999847e-01 9.998169e-01
3.798061e+02 6.095718e-01 1.471898e-02 5.691919e-01 -9.999847e-01 9.998169e-01
3.798061e+02 6.095718e-01 1.471898e-02 5.691919e-01 -9.999847e-01 9.998169e-01
3.798061e+02 6.095718e-01 1.471898e-02 5.691919e-01 -9.999847e-01 9.998169e-01
3.798061e+02 6.095718e-01 1.471898e-02 5.691919e-01 -9.999847e-01 9.998169e-01
3.798061e+02 6.095718e-01 1.471898e-02 5.691919e-01 -9.999847e-01 9.998169e-01
3.798061e+02 6.095718e-01 1.471898e-02 5.691919e-01 -9.999847e-01 9.998169e-01
3.798061e+02 6.095718e-01 1.471898e-02 5.691919e-01 -9.999847e-01 9.998169e-01
3.798061e+02 6.095718e-01 1.471898e-02 5.691919e-01 -9.999847e-01 9.998169e-01
3.798061e+02 6.095718e-01 1.471898e-02 5.691919e-01 -9.999847e-01 9.998169e-01
3.798061e+02 6.095718e-01 1.471898e-02 5.691919e-01 -9.999847e-01 9.998169e-01
3.798061e+02 6.095718e-01 1.471898e-02 5.691919e-01 -9.999847e-01 9.998169e-01
3.798061e+02 6.095718e-01 1.471898e-02 5.691919e-01 -9.999847e-01 9.998169e-01
3.798061e+02 6.095718e-01 1.471898e-02 5.691919e-01 -9.999847e-01 9.998169e-01
3.798061e+02 6.095718e-01 1.471898e-02 5.691919e-01 -9.999847e-01 9.998169e-01
3.798061e+02 6.095718e-01 1.471898e-02 5.691919e-01 -9.999847e-01 9.998169e-01
3.798061e+02 6.095718e-01 1.471898e-02 5.691919e-01 -9.999847e-01 9.998169e-01
3.798061e+02 6.095718e-01 1.471898e-02 5.691919e-01 -9.999847e-01 9.998169e-01
3.798061e+02 6.095718e-01 1.471898e-02 5.691919e-01 -9.999847e-01 9.998169e-01
3.798061e+02 6.095718e-01 1.471898e-02 5.691919e-01 -9.999847e-01 9.998169e-01
3.798061e+02 6.095718e-01 1.471898e-02 5.691919e-01 -9.999847e-01 9.998169e-01
3.798061e+02 6.095718e-01 1.471898e-02 5.691919e-01 -9.999847e-01 9.998169e-01
3.798061e+02 6.095718e-01 1.471898e-02 5.691919e-01 -9.999847e-01 9.998169e-01
3.798061e+02 6.095718e-01 1.471898e-02 5.691919e-01 -9.999847e-01 9.998169e-01
3.798061e+02 6.095718e-01 1.471898e-02 5.691919e-01 -9.999847e-01 9.998169e-01
3.798061e+02 6.095718e-01 1.471898e-02 5.691919e-01 -9.999847e-01 9.998169e-01
3.798061e+02 6.095718e-01 1.471898e-02 5.691919e-01 -9.999847e-01 9.998169e-01
3.798061e+02 6.095718e-01 1.471898e-02 5.691919e-01 -9.999847e-01 9.998169e-01
3.798061e+02 6.095718e-01 1.471898e-02 5.691919e-01 -9.999847e-01 9.998169e-01
3.798061e+02 6.095718e-01 1.471898e-02 5.691919e-01 -9.999847e-01 9.998169e-01
3.798061e+02 6.095718e-01 1.471898e-02 5.691919e-01 -9.999847e-01 9.998169e-01
3.798061e+02 6.095718e-01 1.471898e-02 5.691919e-01 -9.999847e-01 9.998169e-01
3.798061e+02 6.095718e-01 1.471898e-02 5.691919e-01 -9.999847e-01 9.998169e-01
3.798061e+02 6.095718e-01 1.471898e-02 5.691919e-01 -9.999847e-01 9.998169e-01
3.798061e+02 6.095718e-01 1.471898e-02 5.691919e-01 -9.999847e-01 9.998169e-01
3.798061e+02 6.095718e-01 1.471898e-02 5.691919e-01 -9.999847e-01 9.998169e-01
3.798061e+02 6.095718e-01 1.471898e-02 5.691919e-01 -9.999847e-01 9.998169e-01
3.798061e+02 6.095718e-01 1.471898e-02 5.691919e-01 -9.999847e-01 9.998169e-01
3.798061e+02 6.095718e-01 1.471898e-02 5.691919e-01 -9.999847e-01 9.998169e-01
3.798061e+02 6.095718e-01 1.471898e-02 5.691919e-01 -9.999847e-01 9.998169e-01
3.798061e+02 6.095718e-01 1.471898e-02 5.691919e-01 -9.999847e-01 9.998169e-01
3.798061e+02 6.095718e-01 1.471898e-02 5.691919e-01 -9.999847e-01 9.998169e-01
3.798061e+02 6.095718e-01 1.471898e-02 5.691919e-01 -9.999847e-01 9.998169e-01
3.798061e+02 6.095718e-01 1.471898e-02 5.691919e-01 -9.999847e-01 9.998169e-01
3.798061e+02 6.095718e-01 1.471898e-02 5.691919e-01 -9.999847e-01 9.998169e-01
3.798061e+02 6.095718e-01 1.471898e-02 5.691919e-01 -9.999847e-01 9.998169e-01
3.798061e+02 6.095718e-01 1.471898e-02 5.691919e-01 -9.999847e-01 9.998169e-01
3.798061e+02 6.095718e-01 1.471898e-02 5.691919e-01 -9.999847e-01 9.998169e-01
3.798061e+02 6.095718e-01 1.471898e-02 5.691919e-01 -9.999847e-01 9.998169e-01
3.798061e+02 6.095718e-01 1.471898e-02 5.691919e-01 -9.999847e-01 9.998169e-01
3.798061e+02 6.095718e-01 1.471898e-02 5.691919e-01 -9.999847e-01 9.998169e-01
3.798061e+02 6.095718e-01 1.471898e-02 5.691919e-01 -9.999847e-01 9.998169e-01
3.798061e+02 6.095718e-01 1.471898e-02 5.691919e-01 -9.999847e-01 9.998169e-01
3.798061e+02 6.095718e-01 1.471898e-02 5.691919e-01 -9.999847e-01 9.998169e-01
3.798061e+02 6.095718e-01 1.471898e-02 5.691919e-01 -9.999847e-01 9.998169e-01
3.798061e+02 6.095718e-01 1.471898e-02 5.691919e-01 -9.999847e-01 9.998169e-01
3.798061e+02 6.095718e-01 1.471898e-02 5.691919e-01 -9.999847e-01 9.998169e-01
3.798061e+02 6.095718e-01 1.471898e-02 5.691919e-01 -9.999847e-01 9.998169e-01
3.798061e+02 6.095718e-01 1.471898e-02 5.691919e-01 -9.999847e-01 9.998169e-01
3.798061e+02 6.095718e-01 1.471898e-02 5.691919e-01 -9.999847e-01 9.998169e-01
3.798061e+02 6.095718e-01 1.471898e-02 5.691919e-01 -9.999847e-01 9.998169e-01
3.798061e+02 6.095718e-01 1.471898e-02 5.691919e-01 -9.999847e-01 9.998169e-01
3.798061e+02 6.095718e-01 1.471898e-02 5.691919e-01 -9.999847e-01 9.998169e-01
3.798061e+02 6.095718e-01 1.471898e-02 5.691919e-01 -9.999847e-01 9.998169e-01
3.798061e+02 6.095718e-01 1.471898e-02 5.691919e-01 -9.999847e-01 9.998169e-01
3.798061e+02 6.095718e-01 1.471898e-02 5.691919e-01 -9.999847e-01 9.998169e-01
3.798061e+02 6.095718e-01 1.471898e-02 5.691919e-01 -9.999847e-01 9.998169e-01
3.798061e+02 6.095718e-01 1.471898e-02 5.691919e-01 -9.999847e-01 9.998169e-01
3.798061e+02 6.095718e-01 1.471898e-02 5.691919e-01 -9.999847e-01 9.998169e-01
3.798061e+02 6.095718e-01 1.471898e-02 5.691919e-01 -9.999847e-01 9.998169e-01
3.798061e+02 6.095718e-01 1.471898e-02 5.691919e-01 -9.999847e-01 9.998169e-01
3.798061e+02 6.095718e-01 1.471898e-02 5.691919e-01 -9.999847e-01 9.998169e-01
3.798061e+02 6.095718e-01 1.471898e-02 5.691919e-01 -9.999847e-01 9.998169e-01
3.798061e+02 6.095718e-01 1.471898e-02 5.691919e-01 -9.999847e-01 9.998169e-01
3.798061e+02 6.095718e-01 1.471898e-02 5.691919e-01 -9.999847e-01 9.998169e-01
3.798061e+02 6.095718e-01 1.471898e-02 5.691919e-01 -9.999847e-01 9.998169e-01
3.798061e+02 6.095718e-01 1.471898e-02 5.691919e-01 -9.999847e-01 9.998169e-01
3.798061e+02 6.095718e-01 1.471898e-02 5.691919e-01 -9.999847e-01 9.998169e-01
3.798061e+02 6.095718e-01 1.471898e-02 5.691919e-01 -9.999847e-01 9.998169e-01
3.798061e+02 6.095718e-01 1.471898e-02 5.691919e-01 -9.999847e-01 9.998169e-01
