1.120469e+02 4.217391e-01 -1.366154e-02 5.975714e-01 -9.960938e-01 9.960938e-01
7.285156e+01 4.217391e-01 -1.316964e-02 5.917810e-01 -1.160156e+00 1.019531e+00
7.046875e+01 3.913043e-01 -1.948785e-02 5.908417e-01 -1.179688e+00 1.058594e+00
6.882812e+01 4.217391e-01 -2.144097e-02 5.916300e-01 -1.183594e+00 1.066406e+00
6.725781e+01 3.782609e-01 -2.486359e-02 5.938687e-01 -1.207031e+00 1.085938e+00
5.107422e+01 2.043478e-01 -3.117560e-02 6.110186e-01 -2.121094e+00 1.367188e+00
4.034375e+01 2.043478e-01 -4.028191e-02 6.784301e-01 -3.261719e+00 2.589844e+00
4.294531e+01 1.913043e-01 -4.184648e-02 7.273624e-01 -3.445312e+00 2.816406e+00
3.885156e+01 2.043478e-01 -4.289848e-02 7.140359e-01 -3.265625e+00 2.679688e+00
3.893359e+01 2.000000e-01 -4.386574e-02 7.124305e-01 -3.226562e+00 2.671875e+00
3.940625e+01 1.956522e-01 -4.378720e-02 7.199928e-01 -3.328125e+00 2.769531e+00
3.905469e+01 2.043478e-01 -4.424810e-02 7.211154e-01 -3.316406e+00 2.753906e+00
3.953516e+01 2.043478e-01 -4.395875e-02 7.234268e-01 -3.332031e+00 2.773438e+00
3.897656e+01 1.956522e-01 -4.354539e-02 7.224321e-01 -3.332031e+00 2.757812e+00
3.961719e+01 2.086957e-01 -4.326224e-02 7.229604e-01 -3.343750e+00 2.738281e+00
3.944531e+01 1.826087e-01 -4.402282e-02 7.219885e-01 -3.335938e+00 2.738281e+00
3.896094e+01 2.000000e-01 -4.315890e-02 7.223117e-01 -3.351562e+00 2.722656e+00
3.887500e+01 2.000000e-01 -4.457672e-02 7.215034e-01 -3.351562e+00 2.714844e+00
3.860938e+01 1.913043e-01 -4.370453e-02 7.221517e-01 -3.355469e+00 2.714844e+00
3.850781e+01 1.913043e-01 -4.455398e-02 7.216492e-01 -3.375000e+00 2.703125e+00
4.025000e+01 1.826087e-01 -4.452092e-02 7.244614e-01 -3.421875e+00 2.742188e+00
3.905859e+01 2.000000e-01 -4.406415e-02 7.280960e-01 -3.421875e+00 2.753906e+00
4.001953e+01 1.782609e-01 -4.413029e-02 7.272765e-01 -3.421875e+00 2.738281e+00
3.998438e+01 1.782609e-01 -4.513889e-02 7.261319e-01 -3.417969e+00 2.710938e+00
3.982812e+01 1.782609e-01 -4.559979e-02 7.270011e-01 -3.429688e+00 2.714844e+00
3.930469e+01 1.826087e-01 -4.562872e-02 7.283235e-01 -3.437500e+00 2.718750e+00
3.974219e+01 1.869565e-01 -4.695147e-02 7.294964e-01 -3.441406e+00 2.738281e+00
3.963672e+01 1.826087e-01 -4.810888e-02 7.316665e-01 -3.492188e+00 2.722656e+00
3.905469e+01 1.826087e-01 -5.216394e-02 7.328832e-01 -3.480469e+00 2.722656e+00
3.826953e+01 1.782609e-01 -5.220321e-02 7.350174e-01 -3.476562e+00 2.722656e+00
3.832422e+01 1.826087e-01 -5.496652e-02 7.399080e-01 -3.488281e+00 2.738281e+00
3.948438e+01 1.913043e-01 -5.639468e-02 7.445404e-01 -3.527344e+00 2.777344e+00
3.966016e+01 1.913043e-01 -5.616113e-02 7.546918e-01 -3.593750e+00 2.890625e+00
3.947656e+01 1.956522e-01 -5.672536e-02 7.601507e-01 -3.628906e+00 2.902344e+00
3.987500e+01 1.826087e-01 -5.734127e-02 7.602387e-01 -3.632812e+00 2.882812e+00
3.923438e+01 1.782609e-01 -5.870329e-02 7.601795e-01 -3.628906e+00 2.875000e+00
4.004688e+01 2.043478e-01 -5.854208e-02 7.618475e-01 -3.636719e+00 2.867188e+00
3.931250e+01 1.826087e-01 -5.820933e-02 7.629644e-01 -3.652344e+00 2.871094e+00
3.975000e+01 1.913043e-01 -5.910425e-02 7.652362e-01 -3.667969e+00 2.898438e+00
3.951953e+01 1.913043e-01 -6.051794e-02 7.654812e-01 -3.671875e+00 2.886719e+00
3.971875e+01 1.913043e-01 -5.978423e-02 7.652426e-01 -3.691406e+00 2.867188e+00
4.123438e+01 1.956522e-01 -6.155754e-02 7.663091e-01 -3.703125e+00 2.890625e+00
3.887109e+01 1.913043e-01 -6.070809e-02 7.676942e-01 -3.703125e+00 2.871094e+00
3.904688e+01 1.913043e-01 -6.199363e-02 7.684807e-01 -3.691406e+00 2.890625e+00
3.948438e+01 1.913043e-01 -6.119792e-02 7.702101e-01 -3.695312e+00 2.910156e+00
4.223047e+01 1.956522e-01 -5.685351e-02 7.791503e-01 -3.773438e+00 3.011719e+00
4.195703e+01 1.913043e-01 -5.671710e-02 7.818919e-01 -3.753906e+00 3.015625e+00
4.065234e+01 2.130435e-01 -5.859788e-02 7.779471e-01 -3.757812e+00 2.941406e+00
4.028906e+01 2.000000e-01 -6.004464e-02 7.775665e-01 -3.757812e+00 2.921875e+00
3.982031e+01 2.043478e-01 -6.000124e-02 7.798159e-01 -3.769531e+00 2.941406e+00
4.124219e+01 2.043478e-01 -6.001777e-02 7.813025e-01 -3.761719e+00 2.949219e+00
4.000000e+01 1.869565e-01 -5.948867e-02 7.821725e-01 -3.789062e+00 2.937500e+00
3.957422e+01 1.869565e-01 -6.036706e-02 7.850255e-01 -3.792969e+00 2.957031e+00
3.967969e+01 1.782609e-01 -6.181382e-02 7.885186e-01 -3.800781e+00 2.964844e+00
3.960938e+01 1.869565e-01 -6.261161e-02 7.893350e-01 -3.808594e+00 2.976562e+00
4.028906e+01 2.043478e-01 -6.088376e-02 7.914138e-01 -3.824219e+00 3.003906e+00
3.972266e+01 1.913043e-01 -6.148520e-02 7.939212e-01 -3.851562e+00 3.007812e+00
3.985547e+01 1.826087e-01 -6.125992e-02 7.946400e-01 -3.851562e+00 3.000000e+00
3.983203e+01 1.956522e-01 -6.104704e-02 7.955958e-01 -3.859375e+00 3.007812e+00
3.978516e+01 2.173913e-01 -6.062748e-02 8.007208e-01 -3.894531e+00 3.027344e+00
3.992188e+01 2.000000e-01 -5.926753e-02 8.038332e-01 -3.925781e+00 3.019531e+00
3.991797e+01 1.956522e-01 -6.013765e-02 8.049686e-01 -3.914062e+00 3.031250e+00
3.946484e+01 1.913043e-01 -6.281415e-02 8.097794e-01 -3.945312e+00 3.066406e+00
4.285547e+01 1.826087e-01 -6.058201e-02 8.254976e-01 -4.054688e+00 3.144531e+00
3.945312e+01 1.826087e-01 -6.141906e-02 8.257611e-01 -4.042969e+00 3.085938e+00
4.134375e+01 1.869565e-01 -5.946387e-02 8.259252e-01 -4.074219e+00 3.070312e+00
3.838672e+01 1.956522e-01 -6.259094e-02 8.278560e-01 -4.054688e+00 3.070312e+00
3.870703e+01 1.869565e-01 -6.414104e-02 8.324211e-01 -4.058594e+00 3.058594e+00
4.010156e+01 1.913043e-01 -5.683490e-02 8.376607e-01 -4.117188e+00 3.085938e+00
3.968359e+01 1.826087e-01 -5.521660e-02 8.394341e-01 -4.179688e+00 3.082031e+00
3.961328e+01 1.782609e-01 -5.970982e-02 8.402206e-01 -4.136719e+00 3.035156e+00
4.171484e+01 1.956522e-01 -5.806258e-02 8.416551e-01 -4.167969e+00 3.062500e+00
3.922656e+01 1.826087e-01 -5.959821e-02 8.417717e-01 -4.164062e+00 3.019531e+00
4.015625e+01 1.826087e-01 -5.875496e-02 8.418261e-01 -4.167969e+00 3.023438e+00
3.972266e+01 1.869565e-01 -5.839947e-02 8.424666e-01 -4.179688e+00 3.027344e+00
4.043359e+01 1.913043e-01 -5.728133e-02 8.457794e-01 -4.195312e+00 3.066406e+00
4.283203e+01 1.956522e-01 -5.529101e-02 8.547506e-01 -4.222656e+00 3.132812e+00
4.155469e+01 1.869565e-01 -5.607019e-02 8.543913e-01 -4.214844e+00 3.105469e+00
3.950000e+01 1.826087e-01 -5.854621e-02 8.545936e-01 -4.214844e+00 3.074219e+00
3.926172e+01 1.869565e-01 -5.915179e-02 8.568010e-01 -4.226562e+00 3.089844e+00
4.086719e+01 1.869565e-01 -5.872603e-02 8.591288e-01 -4.261719e+00 3.113281e+00
4.020703e+01 1.913043e-01 -5.887690e-02 8.601685e-01 -4.277344e+00 3.101562e+00
3.997656e+01 1.782609e-01 -6.081763e-02 8.610595e-01 -4.273438e+00 3.082031e+00
3.971484e+01 1.869565e-01 -5.849868e-02 8.636994e-01 -4.300781e+00 3.093750e+00
4.035938e+01 1.869565e-01 -5.939980e-02 8.665355e-01 -4.320312e+00 3.085938e+00
4.123438e+01 1.869565e-01 -5.979456e-02 8.677957e-01 -4.335938e+00 3.109375e+00
4.017188e+01 1.782609e-01 -6.174355e-02 8.689659e-01 -4.335938e+00 3.097656e+00
3.984766e+01 1.739130e-01 -6.260541e-02 8.713437e-01 -4.335938e+00 3.117188e+00
3.935938e+01 1.782609e-01 -6.569320e-02 8.739906e-01 -4.328125e+00 3.128906e+00
4.048047e+01 1.869565e-01 -6.197503e-02 8.757769e-01 -4.351562e+00 3.148438e+00
4.272266e+01 2.173913e-01 -6.327918e-02 8.810744e-01 -4.355469e+00 3.144531e+00
4.201172e+01 2.086957e-01 -6.445519e-02 8.905027e-01 -4.363281e+00 3.175781e+00
4.169922e+01 1.913043e-01 -6.255787e-02 8.942291e-01 -4.378906e+00 3.171875e+00
4.178906e+01 2.000000e-01 -6.196470e-02 8.954507e-01 -4.402344e+00 3.152344e+00
4.083984e+01 2.000000e-01 -6.108631e-02 8.973668e-01 -4.421875e+00 3.175781e+00
4.063672e+01 2.043478e-01 -6.063781e-02 9.005798e-01 -4.433594e+00 3.191406e+00
4.202344e+01 1.782609e-01 -6.378762e-02 9.049730e-01 -4.480469e+00 3.187500e+00
4.189062e+01 1.913043e-01 -6.476728e-02 9.068669e-01 -4.480469e+00 3.191406e+00
4.093750e+01 1.956522e-01 -6.297536e-02 9.077871e-01 -4.484375e+00 3.203125e+00
4.147266e+01 1.956522e-01 -6.393849e-02 9.089853e-01 -4.480469e+00 3.203125e+00
4.062500e+01 2.043478e-01 -6.362021e-02 9.106190e-01 -4.476562e+00 3.203125e+00
4.054297e+01 1.913043e-01 -6.361814e-02 9.119332e-01 -4.484375e+00 3.214844e+00
4.075000e+01 1.826087e-01 -6.328125e-02 9.130159e-01 -4.496094e+00 3.214844e+00
4.087891e+01 1.956522e-01 -6.293403e-02 9.123069e-01 -4.496094e+00 3.214844e+00
4.114844e+01 1.913043e-01 -5.990617e-02 9.166623e-01 -4.496094e+00 3.214844e+00
4.189844e+01 1.913043e-01 -5.905878e-02 9.203501e-01 -4.507812e+00 3.214844e+00
4.096875e+01 1.956522e-01 -6.132606e-02 9.223485e-01 -4.515625e+00 3.222656e+00
4.096875e+01 2.000000e-01 -6.063575e-02 9.242698e-01 -4.531250e+00 3.203125e+00
4.090234e+01 2.000000e-01 -5.948041e-02 9.264741e-01 -4.546875e+00 3.218750e+00
4.016797e+01 1.913043e-01 -6.207631e-02 9.275253e-01 -4.550781e+00 3.222656e+00
4.099609e+01 1.956522e-01 -6.365534e-02 9.313402e-01 -4.589844e+00 3.269531e+00
4.083594e+01 2.000000e-01 -6.417824e-02 9.356644e-01 -4.597656e+00 3.277344e+00
4.384375e+01 1.913043e-01 -6.065435e-02 9.440310e-01 -4.636719e+00 3.355469e+00
4.233203e+01 1.782609e-01 -6.070809e-02 9.485177e-01 -4.628906e+00 3.355469e+00
4.224219e+01 1.782609e-01 -6.200604e-02 9.494376e-01 -4.640625e+00 3.328125e+00
4.213281e+01 1.913043e-01 -6.094370e-02 9.494737e-01 -4.640625e+00 3.300781e+00
4.174609e+01 1.869565e-01 -6.070602e-02 9.507281e-01 -4.652344e+00 3.304688e+00
4.214453e+01 1.695652e-01 -5.908358e-02 9.524245e-01 -4.671875e+00 3.324219e+00
4.205469e+01 1.826087e-01 -6.034020e-02 9.536623e-01 -4.664062e+00 3.320312e+00
4.251172e+01 2.043478e-01 -6.094783e-02 9.544142e-01 -4.679688e+00 3.312500e+00
4.191406e+01 1.913043e-01 -6.031746e-02 9.551201e-01 -4.675781e+00 3.312500e+00
4.190234e+01 2.043478e-01 -6.104084e-02 9.561432e-01 -4.691406e+00 3.308594e+00
4.248828e+01 1.826087e-01 -6.044974e-02 9.575134e-01 -4.699219e+00 3.312500e+00
4.373438e+01 1.869565e-01 -5.856895e-02 9.595353e-01 -4.742188e+00 3.339844e+00
4.271484e+01 1.956522e-01 -5.595238e-02 9.650716e-01 -4.761719e+00 3.394531e+00
4.236328e+01 2.086957e-01 -6.086516e-02 9.661028e-01 -4.718750e+00 3.394531e+00
4.188281e+01 1.956522e-01 -6.183449e-02 9.681683e-01 -4.734375e+00 3.402344e+00
4.196484e+01 2.130435e-01 -6.326058e-02 9.719597e-01 -4.750000e+00 3.390625e+00
4.310156e+01 2.130435e-01 -6.160921e-02 9.735527e-01 -4.773438e+00 3.394531e+00
4.373438e+01 1.826087e-01 -6.238013e-02 9.759393e-01 -4.796875e+00 3.394531e+00
4.383594e+01 2.043478e-01 -6.334532e-02 9.775156e-01 -4.796875e+00 3.394531e+00
4.329688e+01 1.956522e-01 -6.194816e-02 9.794562e-01 -4.824219e+00 3.375000e+00
4.326953e+01 2.086957e-01 -6.422371e-02 9.856548e-01 -4.824219e+00 3.453125e+00
4.294531e+01 2.000000e-01 -6.533358e-02 9.890699e-01 -4.863281e+00 3.453125e+00
4.348828e+01 1.826087e-01 -6.278522e-02 9.918567e-01 -4.882812e+00 3.414062e+00
4.435547e+01 1.913043e-01 -6.199157e-02 9.932014e-01 -4.882812e+00 3.417969e+00
4.439844e+01 2.000000e-01 -6.120412e-02 9.957328e-01 -4.886719e+00 3.519531e+00
4.414062e+01 1.869565e-01 -6.185103e-02 9.978739e-01 -4.898438e+00 3.566406e+00
4.400391e+01 1.826087e-01 -6.175182e-02 9.995931e-01 -4.898438e+00 3.511719e+00
4.391016e+01 1.826087e-01 -6.220238e-02 1.000372e+00 -4.898438e+00 3.558594e+00
4.385938e+01 1.826087e-01 -6.404803e-02 1.001726e+00 -4.914062e+00 3.550781e+00
4.381250e+01 1.913043e-01 -6.332465e-02 1.002990e+00 -4.914062e+00 3.542969e+00
4.288672e+01 2.130435e-01 -6.381035e-02 1.004556e+00 -4.910156e+00 3.554688e+00
4.382031e+01 1.956522e-01 -6.307457e-02 1.006497e+00 -4.945312e+00 3.570312e+00
4.483203e+01 1.956522e-01 -6.363674e-02 1.007951e+00 -4.941406e+00 3.664062e+00
4.377734e+01 2.043478e-01 -6.381448e-02 1.009162e+00 -4.941406e+00 3.652344e+00
4.372266e+01 2.000000e-01 -6.371528e-02 1.009682e+00 -4.957031e+00 3.636719e+00
4.269141e+01 2.086957e-01 -6.588335e-02 1.010676e+00 -4.945312e+00 3.625000e+00
4.329688e+01 2.043478e-01 -6.697462e-02 1.014248e+00 -4.972656e+00 3.621094e+00
4.439453e+01 1.956522e-01 -6.608590e-02 1.015752e+00 -4.996094e+00 3.660156e+00
4.348828e+01 2.130435e-01 -6.335772e-02 1.017879e+00 -4.996094e+00 3.726562e+00
4.607031e+01 2.000000e-01 -6.490162e-02 1.021987e+00 -4.968750e+00 3.761719e+00
4.298438e+01 2.173913e-01 -6.480448e-02 1.024206e+00 -4.968750e+00 3.773438e+00
4.405078e+01 2.000000e-01 -6.186343e-02 1.027602e+00 -5.000000e+00 3.777344e+00
4.435547e+01 2.173913e-01 -6.155547e-02 1.030313e+00 -5.023438e+00 3.800781e+00
4.359375e+01 2.217391e-01 -6.214864e-02 1.030278e+00 -5.035156e+00 3.808594e+00
4.338672e+01 1.826087e-01 -6.347346e-02 1.030294e+00 -5.039062e+00 3.808594e+00
4.360938e+01 2.217391e-01 -6.278935e-02 1.031686e+00 -5.039062e+00 3.808594e+00
4.363281e+01 2.217391e-01 -6.460607e-02 1.031977e+00 -5.089844e+00 3.761719e+00
4.184766e+01 2.217391e-01 -7.029183e-02 1.031902e+00 -5.050781e+00 3.867188e+00
4.324219e+01 2.130435e-01 -7.108342e-02 1.034630e+00 -5.074219e+00 3.894531e+00
4.273047e+01 1.869565e-01 -7.204654e-02 1.036928e+00 -5.050781e+00 3.894531e+00
4.425781e+01 1.956522e-01 -7.084987e-02 1.038605e+00 -5.046875e+00 3.921875e+00
4.298438e+01 2.130435e-01 -6.972760e-02 1.039267e+00 -5.054688e+00 3.945312e+00
4.545312e+01 2.000000e-01 -6.893188e-02 1.040941e+00 -5.125000e+00 3.957031e+00
4.364062e+01 1.869565e-01 -6.708623e-02 1.044107e+00 -5.125000e+00 3.937500e+00
4.355859e+01 2.086957e-01 -6.638972e-02 1.044679e+00 -5.105469e+00 4.003906e+00
4.300391e+01 2.000000e-01 -6.915303e-02 1.045558e+00 -5.113281e+00 4.007812e+00
4.326172e+01 2.173913e-01 -7.331969e-02 1.047258e+00 -5.140625e+00 4.007812e+00
4.417578e+01 2.043478e-01 -7.183573e-02 1.047720e+00 -5.156250e+00 3.996094e+00
4.348828e+01 2.086957e-01 -6.999835e-02 1.049687e+00 -5.160156e+00 4.042969e+00
4.294141e+01 2.130435e-01 -7.155671e-02 1.053535e+00 -5.164062e+00 4.066406e+00
4.497266e+01 2.086957e-01 -7.027943e-02 1.054889e+00 -5.171875e+00 4.101562e+00
4.356250e+01 2.130435e-01 -6.515377e-02 1.059107e+00 -5.187500e+00 4.093750e+00
4.512891e+01 2.000000e-01 -6.671834e-02 1.059895e+00 -5.171875e+00 4.117188e+00
4.467188e+01 2.130435e-01 -6.632771e-02 1.060365e+00 -5.171875e+00 4.128906e+00
4.593359e+01 1.956522e-01 -6.754092e-02 1.061845e+00 -5.187500e+00 4.160156e+00
4.446484e+01 1.913043e-01 -6.988674e-02 1.064421e+00 -5.187500e+00 4.175781e+00
4.391797e+01 2.000000e-01 -7.053985e-02 1.066418e+00 -5.199219e+00 4.187500e+00
4.288281e+01 2.130435e-01 -6.940518e-02 1.067298e+00 -5.203125e+00 4.191406e+00
4.336719e+01 2.260870e-01 -7.027943e-02 1.067853e+00 -5.195312e+00 4.171875e+00
4.348047e+01 1.956522e-01 -7.009962e-02 1.068762e+00 -5.191406e+00 4.164062e+00
4.322656e+01 2.000000e-01 -6.886161e-02 1.070426e+00 -5.222656e+00 4.191406e+00
4.500000e+01 2.086957e-01 -7.035590e-02 1.071498e+00 -5.214844e+00 4.191406e+00
4.346875e+01 2.043478e-01 -7.004588e-02 1.072530e+00 -5.222656e+00 4.214844e+00
4.428516e+01 2.173913e-01 -7.056465e-02 1.075710e+00 -5.273438e+00 4.214844e+00
4.934766e+01 1.956522e-01 -6.905795e-02 1.090752e+00 -5.507812e+00 4.199219e+00
4.758203e+01 2.086957e-01 -6.651579e-02 1.107149e+00 -5.632812e+00 4.277344e+00
4.627344e+01 2.130435e-01 -7.377852e-02 1.106900e+00 -5.597656e+00 4.339844e+00
4.661328e+01 2.130435e-01 -7.464244e-02 1.107293e+00 -5.574219e+00 4.316406e+00
4.663672e+01 2.086957e-01 -7.304688e-02 1.107564e+00 -5.570312e+00 4.312500e+00
4.634766e+01 2.086957e-01 -6.888848e-02 1.108119e+00 -5.562500e+00 4.355469e+00
4.725781e+01 1.956522e-01 -6.736111e-02 1.108964e+00 -5.539062e+00 4.378906e+00
4.558203e+01 1.913043e-01 -6.457093e-02 1.111508e+00 -5.539062e+00 4.453125e+00
4.555469e+01 2.130435e-01 -6.866733e-02 1.114656e+00 -5.511719e+00 4.503906e+00
4.775000e+01 2.086957e-01 -7.196387e-02 1.116455e+00 -5.492188e+00 4.515625e+00
4.638672e+01 1.956522e-01 -6.921090e-02 1.117698e+00 -5.511719e+00 4.492188e+00
4.587891e+01 1.956522e-01 -6.929977e-02 1.118678e+00 -5.507812e+00 4.507812e+00
4.808203e+01 2.043478e-01 -6.711930e-02 1.120918e+00 -5.531250e+00 4.437500e+00
4.533984e+01 2.130435e-01 -6.770420e-02 1.121737e+00 -5.531250e+00 4.449219e+00
4.648438e+01 2.000000e-01 -6.872933e-02 1.122958e+00 -5.519531e+00 4.480469e+00
4.632031e+01 1.956522e-01 -6.588335e-02 1.127142e+00 -5.527344e+00 4.570312e+00
4.650000e+01 1.913043e-01 -6.860946e-02 1.127622e+00 -5.531250e+00 4.593750e+00
4.676562e+01 1.956522e-01 -6.918609e-02 1.128306e+00 -5.539062e+00 4.597656e+00
4.479688e+01 2.086957e-01 -6.976480e-02 1.129903e+00 -5.539062e+00 4.593750e+00
4.556641e+01 2.130435e-01 -6.602389e-02 1.137091e+00 -5.625000e+00 4.585938e+00
4.618750e+01 2.000000e-01 -6.583788e-02 1.140419e+00 -5.601562e+00 4.589844e+00
4.609375e+01 2.086957e-01 -6.699735e-02 1.140577e+00 -5.597656e+00 4.605469e+00
4.601172e+01 1.956522e-01 -6.801422e-02 1.141094e+00 -5.585938e+00 4.609375e+00
4.523438e+01 2.000000e-01 -6.761739e-02 1.141901e+00 -5.582031e+00 4.621094e+00
4.612891e+01 1.913043e-01 -6.704282e-02 1.142928e+00 -5.570312e+00 4.656250e+00
4.533984e+01 2.043478e-01 -6.674314e-02 1.144026e+00 -5.562500e+00 4.679688e+00
4.660156e+01 1.956522e-01 -6.692295e-02 1.145187e+00 -5.574219e+00 4.683594e+00
4.571094e+01 2.173913e-01 -6.628638e-02 1.147145e+00 -5.566406e+00 4.746094e+00
4.532031e+01 2.043478e-01 -6.861152e-02 1.147819e+00 -5.558594e+00 4.746094e+00
4.555078e+01 1.913043e-01 -6.597636e-02 1.150058e+00 -5.617188e+00 4.796875e+00
4.578125e+01 2.000000e-01 -6.733424e-02 1.151594e+00 -5.644531e+00 4.789062e+00
4.510547e+01 2.086957e-01 -6.781787e-02 1.153325e+00 -5.644531e+00 4.812500e+00
4.815625e+01 2.086957e-01 -6.744585e-02 1.154525e+00 -5.640625e+00 4.824219e+00
4.651953e+01 1.956522e-01 -6.790055e-02 1.156554e+00 -5.664062e+00 4.863281e+00
4.684375e+01 1.913043e-01 -6.777447e-02 1.166729e+00 -5.781250e+00 4.863281e+00
4.583984e+01 2.086957e-01 -7.288773e-02 1.187201e+00 -5.929688e+00 5.074219e+00
4.769922e+01 2.086957e-01 -5.935847e-02 1.197797e+00 -6.015625e+00 5.078125e+00
4.754688e+01 2.217391e-01 -6.279555e-02 1.199601e+00 -6.046875e+00 5.082031e+00
4.642578e+01 2.043478e-01 -6.475281e-02 1.199955e+00 -6.050781e+00 5.109375e+00
5.080078e+01 2.173913e-01 -6.439939e-02 1.199912e+00 -6.003906e+00 5.113281e+00
5.219531e+01 2.130435e-01 -6.564360e-02 1.200463e+00 -6.015625e+00 5.171875e+00
4.588672e+01 2.043478e-01 -6.527571e-02 1.200963e+00 -6.015625e+00 5.195312e+00
4.485547e+01 2.000000e-01 -6.510830e-02 1.201099e+00 -5.980469e+00 5.218750e+00
4.698438e+01 2.173913e-01 -5.511119e-02 1.208957e+00 -5.984375e+00 5.238281e+00
