-1.373035e-01 8.756362e-01 -2.020455e+00 2.205110e+00 3.930264e-04 1.620893e-02 -1.257212e-01 1.227747e-01
-1.710536e-01 8.232097e-01 -2.008971e+00 2.189392e+00 9.747336e-05 1.529711e-02 -1.261185e-01 1.261967e-01
-1.791259e-01 8.121795e-01 -2.018191e+00 2.192118e+00 -1.322553e-04 1.630000e-02 -1.235688e-01 1.216702e-01
-1.779546e-01 8.125457e-01 -2.017049e+00 2.191737e+00 -9.803266e-05 1.623869e-02 -1.231111e-01 1.229162e-01
-1.735616e-01 8.179038e-01 -2.015201e+00 2.190955e+00 4.234192e-05 1.565671e-02 -1.254303e-01 1.254658e-01
-1.744853e-01 8.164098e-01 -2.015201e+00 2.190955e+00 1.391259e-05 1.581559e-02 -1.254318e-01 1.255588e-01
-1.764760e-01 8.135039e-01 -2.022492e+00 2.192911e+00 -2.863756e-05 1.588308e-02 -1.259122e-01 1.250783e-01
-1.748842e-01 8.105443e-01 -2.035859e+00 2.198525e+00 2.439937e-05 1.594706e-02 -1.246455e-01 1.250818e-01
-1.779013e-01 8.111377e-01 -2.038384e+00 2.198299e+00 -5.249349e-05 1.568456e-02 -1.260295e-01 1.252511e-01
-1.767872e-01 8.109094e-01 -2.041322e+00 2.199663e+00 -2.574792e-05 1.570895e-02 -1.260541e-01 1.251885e-01
-1.741914e-01 8.106230e-01 -2.041727e+00 2.200187e+00 3.277926e-05 1.576898e-02 -1.248435e-01 1.250482e-01
-1.735141e-01 8.132504e-01 -2.040973e+00 2.199837e+00 5.726961e-05 1.550155e-02 -1.261111e-01 1.260195e-01
-1.737478e-01 8.126446e-01 -2.043031e+00 2.200772e+00 4.438558e-05 1.552601e-02 -1.261111e-01 1.259599e-01
-1.760862e-01 8.068698e-01 -2.047142e+00 2.202623e+00 -3.848568e-05 1.613650e-02 -1.232350e-01 1.231083e-01
-1.747126e-01 8.086662e-01 -2.046238e+00 2.202099e+00 -1.957065e-06 1.588175e-02 -1.247317e-01 1.246348e-01
-1.752084e-01 8.074350e-01 -2.047223e+00 2.201959e+00 -2.186106e-05 1.605524e-02 -1.247317e-01 1.246348e-01
-1.750807e-01 8.074629e-01 -2.050628e+00 2.203501e+00 -2.048463e-05 1.603208e-02 -1.248500e-01 1.248252e-01
-1.748654e-01 8.059417e-01 -2.054391e+00 2.205019e+00 -3.383581e-05 1.611320e-02 -1.241796e-01 1.239822e-01
-1.729236e-01 8.083234e-01 -2.054589e+00 2.204870e+00 1.875295e-05 1.578499e-02 -1.251740e-01 1.250885e-01
-1.743890e-01 8.056506e-01 -2.061025e+00 2.207682e+00 -3.204409e-05 1.614046e-02 -1.245162e-01 1.243134e-01
-1.738158e-01 8.064679e-01 -2.057103e+00 2.205683e+00 -1.337467e-05 1.604630e-02 -1.253472e-01 1.252748e-01
-1.745798e-01 8.040430e-01 -2.075481e+00 2.214328e+00 -5.410809e-06 1.615045e-02 -1.258131e-01 1.257982e-01
-1.771664e-01 7.993549e-01 -2.090626e+00 2.220613e+00 -4.056355e-05 1.622495e-02 -1.248503e-01 1.247270e-01
-1.760065e-01 7.989041e-01 -2.096377e+00 2.224091e+00 -3.845858e-05 1.626274e-02 -1.245037e-01 1.243546e-01
-1.750099e-01 7.991768e-01 -2.111447e+00 2.233698e+00 -3.303189e-05 1.624485e-02 -1.248318e-01 1.247127e-01
-1.747996e-01 7.982921e-01 -2.118171e+00 2.236959e+00 -4.336828e-05 1.631581e-02 -1.239669e-01 1.238988e-01
-1.735535e-01 7.996434e-01 -2.112299e+00 2.234507e+00 -5.351093e-06 1.614754e-02 -1.255832e-01 1.255961e-01
-1.736745e-01 7.940157e-01 -2.135622e+00 2.245243e+00 -7.831730e-06 1.623954e-02 -1.250298e-01 1.247949e-01
-1.706500e-01 7.851576e-01 -2.159931e+00 2.259446e+00 -1.124452e-04 1.688298e-02 -1.245700e-01 1.223205e-01
-1.672281e-01 7.850342e-01 -2.159931e+00 2.259446e+00 -4.013447e-05 1.682545e-02 -1.242638e-01 1.241435e-01
-1.651806e-01 7.866366e-01 -2.148948e+00 2.254713e+00 1.686779e-05 1.631951e-02 -1.256979e-01 1.254671e-01
-1.630174e-01 7.887613e-01 -2.145572e+00 2.252855e+00 7.879020e-05 1.607298e-02 -1.261363e-01 1.260820e-01
-1.579130e-01 7.870844e-01 -2.143440e+00 2.251883e+00 1.308665e-04 1.611736e-02 -1.262276e-01 1.262275e-01
-1.480727e-01 7.656942e-01 -2.247310e+00 2.309705e+00 -1.090411e-04 1.853775e-02 -1.230560e-01 1.242985e-01
-1.455310e-01 7.639007e-01 -2.247310e+00 2.309705e+00 -6.958171e-05 1.829442e-02 -1.260574e-01 1.260452e-01
-1.435972e-01 7.593893e-01 -2.216384e+00 2.298438e+00 -4.706668e-05 1.817098e-02 -1.256822e-01 1.255210e-01
-1.382729e-01 7.566276e-01 -2.208273e+00 2.298002e+00 5.107386e-05 1.800224e-02 -1.261572e-01 1.260855e-01
-1.393194e-01 7.559641e-01 -2.215054e+00 2.301861e+00 1.056620e-05 1.818851e-02 -1.258962e-01 1.258447e-01
-1.389992e-01 7.503578e-01 -2.326226e+00 2.395146e+00 -2.370933e-04 2.006679e-02 -1.239323e-01 1.239860e-01
-2.040898e-02 1.080163e+00 -3.568017e+00 5.140123e+00 -4.903333e-04 4.349016e-02 -4.499839e-01 4.854517e-01
9.192906e-03 1.106650e+00 -3.646313e+00 5.346487e+00 -1.047680e-04 4.438782e-02 -4.478989e-01 4.815241e-01
5.711436e-02 1.086801e+00 -3.439394e+00 4.978558e+00 4.730661e-04 3.785444e-02 -3.806100e-01 4.341761e-01
7.470636e-02 1.054915e+00 -3.800039e+00 4.185944e+00 1.798262e-04 3.113209e-02 -2.197397e-01 2.381784e-01
6.899916e-02 1.057147e+00 -3.779023e+00 4.268343e+00 1.851756e-05 3.104577e-02 -2.166423e-01 2.342501e-01
6.473272e-02 1.056049e+00 -3.779023e+00 4.268343e+00 -1.449855e-04 3.103612e-02 -2.166423e-01 2.366752e-01
6.730638e-02 1.049644e+00 -3.771053e+00 4.174420e+00 -1.470067e-04 3.141176e-02 -2.204282e-01 2.400879e-01
8.048694e-02 1.052062e+00 -3.701583e+00 4.362748e+00 2.624961e-04 3.129736e-02 -2.231796e-01 2.335095e-01
7.736351e-02 1.064206e+00 -3.335970e+00 4.314969e+00 -4.924818e-04 3.130634e-02 -2.156033e-01 2.346300e-01
8.070241e-02 1.062325e+00 -3.213408e+00 4.436357e+00 -4.988711e-04 3.147878e-02 -2.173545e-01 2.365546e-01
9.578934e-02 1.067903e+00 -3.186418e+00 4.515246e+00 2.425196e-05 3.123168e-02 -2.072155e-01 2.382283e-01
1.025097e-01 1.059677e+00 -3.187002e+00 4.521710e+00 1.889581e-04 3.153757e-02 -2.091447e-01 2.445691e-01
9.502909e-02 1.052643e+00 -3.205719e+00 4.442753e+00 -4.557499e-05 3.195705e-02 -2.242899e-01 2.461831e-01
9.412121e-02 1.052503e+00 -3.231124e+00 4.517553e+00 -7.960702e-05 3.177462e-02 -2.189152e-01 2.484767e-01
1.021049e-01 1.057722e+00 -3.182068e+00 4.571461e+00 2.202414e-04 3.168515e-02 -2.082492e-01 2.447701e-01
1.001283e-01 1.056686e+00 -3.171687e+00 4.593517e+00 1.554397e-04 3.184931e-02 -2.087825e-01 2.474164e-01
9.858869e-02 1.055207e+00 -3.165595e+00 4.614331e+00 1.438390e-04 3.183555e-02 -2.088339e-01 2.452809e-01
9.744672e-02 1.054119e+00 -3.172659e+00 4.614331e+00 1.048823e-04 3.184251e-02 -2.147477e-01 2.484782e-01
9.245967e-02 1.049948e+00 -3.190472e+00 4.533896e+00 -6.455708e-05 3.207085e-02 -2.213753e-01 2.514315e-01
9.449139e-02 1.050837e+00 -3.168024e+00 4.533896e+00 1.358982e-06 3.212093e-02 -2.151460e-01 2.481561e-01
9.358043e-02 1.047142e+00 -3.217131e+00 4.531440e+00 8.757970e-05 3.212891e-02 -2.288954e-01 2.566015e-01
6.680593e-02 1.025543e+00 -3.320452e+00 4.679767e+00 -9.969734e-05 3.390347e-02 -2.521437e-01 2.788621e-01
6.775760e-02 1.027996e+00 -3.331543e+00 4.507756e+00 -1.932139e-04 3.416785e-02 -2.538850e-01 2.766113e-01
7.417079e-02 1.034511e+00 -3.303639e+00 4.578550e+00 -6.757638e-05 3.357724e-02 -2.479655e-01 2.786503e-01
8.385906e-02 1.042769e+00 -3.270178e+00 4.658902e+00 3.041903e-04 3.333116e-02 -2.356639e-01 2.810943e-01
8.407083e-02 1.045179e+00 -3.267509e+00 4.694977e+00 3.525982e-04 3.324981e-02 -2.344134e-01 2.791923e-01
7.464449e-02 1.037028e+00 -3.319302e+00 4.588449e+00 4.584054e-05 3.354415e-02 -2.419841e-01 2.806671e-01
7.491581e-02 1.038026e+00 -3.297986e+00 4.588449e+00 5.713077e-05 3.355373e-02 -2.402186e-01 2.809293e-01
7.495856e-02 1.037854e+00 -3.297986e+00 4.639123e+00 7.106605e-05 3.352889e-02 -2.466953e-01 2.795647e-01
7.510353e-02 1.038859e+00 -3.310852e+00 4.633053e+00 1.026367e-04 3.348436e-02 -2.420155e-01 2.809829e-01
8.208143e-02 1.045225e+00 -3.271941e+00 4.662879e+00 3.011653e-04 3.299943e-02 -2.335536e-01 2.765024e-01
6.853409e-02 1.032179e+00 -3.358001e+00 4.560374e+00 -1.974445e-04 3.373540e-02 -2.495278e-01 2.735416e-01
7.694640e-02 1.038281e+00 -3.313877e+00 4.682183e+00 1.144346e-04 3.357178e-02 -2.416980e-01 2.758666e-01
7.616276e-02 1.037384e+00 -3.361401e+00 4.584928e+00 7.976410e-05 3.338477e-02 -2.462045e-01 2.734114e-01
7.457405e-02 1.036225e+00 -3.322525e+00 4.584956e+00 3.693334e-05 3.356327e-02 -2.487025e-01 2.771693e-01
7.640267e-02 1.037208e+00 -3.343297e+00 4.640612e+00 1.343515e-04 3.353298e-02 -2.375662e-01 2.780638e-01
8.665942e-02 1.042187e+00 -3.576921e+00 4.490499e+00 1.021220e-04 3.296011e-02 -2.354025e-01 2.780638e-01
9.037290e-02 1.047452e+00 -3.612179e+00 4.395071e+00 -1.336355e-04 3.238083e-02 -2.121181e-01 2.284181e-01
9.188840e-02 1.047699e+00 -3.553056e+00 4.395071e+00 -8.884849e-05 3.229116e-02 -2.121181e-01 2.309190e-01
9.277493e-02 1.048931e+00 -3.560640e+00 4.544654e+00 1.182700e-04 3.222618e-02 -2.142204e-01 2.351513e-01
8.048211e-02 1.044669e+00 -3.605313e+00 4.430626e+00 -3.372238e-05 3.244591e-02 -2.243800e-01 2.399901e-01
8.500352e-02 1.048612e+00 -3.563355e+00 4.522102e+00 1.896772e-04 3.224499e-02 -2.213269e-01 2.427992e-01
8.756315e-02 1.049912e+00 -3.521439e+00 4.577249e+00 3.065083e-04 3.223833e-02 -2.184101e-01 2.455290e-01
8.166258e-02 1.045083e+00 -3.555900e+00 4.555570e+00 1.581978e-04 3.249819e-02 -2.222116e-01 2.475599e-01
6.927182e-02 1.038109e+00 -3.564369e+00 4.491865e+00 -2.439472e-04 3.326159e-02 -2.310808e-01 2.511661e-01
6.971086e-02 1.039437e+00 -3.626914e+00 4.522589e+00 -1.448018e-04 3.312120e-02 -2.352816e-01 2.511661e-01
7.201690e-02 1.039832e+00 -3.584401e+00 4.458085e+00 -4.471467e-05 3.288282e-02 -2.362645e-01 2.503624e-01
7.464735e-02 1.042076e+00 -3.550336e+00 4.539759e+00 1.247594e-04 3.272063e-02 -2.330092e-01 2.538225e-01
7.859145e-02 1.045523e+00 -3.533607e+00 4.569504e+00 2.605795e-04 3.263164e-02 -2.258228e-01 2.545576e-01
7.649073e-02 1.043310e+00 -3.538468e+00 4.534600e+00 2.013923e-04 3.267675e-02 -2.357415e-01 2.560658e-01
6.938728e-02 1.037447e+00 -3.559467e+00 4.492197e+00 -4.990625e-05 3.299883e-02 -2.401151e-01 2.547464e-01
7.031612e-02 1.037915e+00 -3.559467e+00 4.492197e+00 -2.016235e-05 3.298977e-02 -2.371435e-01 2.547358e-01
6.976421e-02 1.038192e+00 -3.553178e+00 4.510756e+00 -2.860739e-06 3.298738e-02 -2.392000e-01 2.560925e-01
6.323357e-02 1.034440e+00 -3.580070e+00 4.449335e+00 -2.210375e-04 3.327148e-02 -2.440310e-01 2.546587e-01
6.918049e-02 1.038302e+00 -3.549638e+00 4.498095e+00 8.481990e-06 3.303838e-02 -2.394278e-01 2.562522e-01
7.253599e-02 1.040621e+00 -3.530084e+00 4.575422e+00 1.258836e-04 3.292500e-02 -2.335719e-01 2.586325e-01
7.295577e-02 1.040552e+00 -3.528924e+00 4.552597e+00 1.505412e-04 3.293507e-02 -2.378858e-01 2.600579e-01
6.323055e-02 1.032328e+00 -3.539975e+00 4.498534e+00 -1.863878e-04 3.353659e-02 -2.473946e-01 2.620797e-01
5.908421e-02 1.029635e+00 -3.522467e+00 4.478470e+00 -3.115193e-04 3.386176e-02 -2.496305e-01 2.607956e-01
6.182329e-02 1.030146e+00 -3.480020e+00 4.547622e+00 -2.084411e-04 3.381701e-02 -2.523459e-01 2.660277e-01
7.440025e-02 1.040281e+00 -3.437047e+00 4.596287e+00 2.504859e-04 3.335140e-02 -2.367582e-01 2.637419e-01
7.239163e-02 1.039291e+00 -3.437047e+00 4.665467e+00 1.975165e-04 3.311976e-02 -2.443356e-01 2.650063e-01
7.023750e-02 1.037919e+00 -3.458779e+00 4.582423e+00 1.511528e-04 3.325590e-02 -2.416742e-01 2.668848e-01
6.784133e-02 1.035790e+00 -3.458779e+00 4.623653e+00 1.014723e-04 3.334361e-02 -2.481676e-01 2.695384e-01
6.632982e-02 1.034706e+00 -3.478028e+00 4.584078e+00 5.700660e-05 3.342806e-02 -2.432293e-01 2.706390e-01
6.327135e-02 1.032070e+00 -3.484528e+00 4.558272e+00 -3.371479e-05 3.360018e-02 -2.476735e-01 2.716148e-01
5.990811e-02 1.030146e+00 -3.514343e+00 4.554014e+00 -1.398031e-04 3.376884e-02 -2.495790e-01 2.716148e-01
5.924529e-02 1.029815e+00 -3.514343e+00 4.507701e+00 -1.566442e-04 3.370729e-02 -2.509973e-01 2.719505e-01
6.743055e-02 1.035383e+00 -3.466464e+00 4.618988e+00 1.525994e-04 3.344246e-02 -2.438508e-01 2.708098e-01
6.869803e-02 1.036497e+00 -3.462802e+00 4.634955e+00 1.987619e-04 3.338776e-02 -2.429309e-01 2.694633e-01
6.414501e-02 1.033274e+00 -3.494008e+00 4.616146e+00 7.147778e-05 3.356959e-02 -2.484709e-01 2.707471e-01
6.046872e-02 1.030151e+00 -3.496302e+00 4.570203e+00 -4.699504e-05 3.372088e-02 -2.506421e-01 2.725236e-01
5.294415e-02 1.025881e+00 -3.527134e+00 4.496115e+00 -3.068000e-04 3.407382e-02 -2.580743e-01 2.692704e-01
5.997520e-02 1.029899e+00 -3.496239e+00 4.546604e+00 -4.174941e-05 3.369389e-02 -2.479829e-01 2.725385e-01
6.654079e-02 1.035799e+00 -3.452362e+00 4.675152e+00 1.934473e-04 3.352869e-02 -2.445010e-01 2.719861e-01
6.733965e-02 1.037002e+00 -3.471575e+00 4.630967e+00 2.212977e-04 3.345403e-02 -2.465233e-01 2.718226e-01
5.664876e-02 1.028176e+00 -3.508219e+00 4.545763e+00 -1.396173e-04 3.390134e-02 -2.552493e-01 2.740657e-01
6.222867e-02 1.032025e+00 -3.483971e+00 4.576734e+00 6.896415e-05 3.369515e-02 -2.512446e-01 2.711690e-01
6.375055e-02 1.033739e+00 -3.483971e+00 4.604229e+00 1.117532e-04 3.355994e-02 -2.468289e-01 2.725529e-01
5.917141e-02 1.030081e+00 -3.504419e+00 4.569711e+00 -4.685180e-05 3.375762e-02 -2.519569e-01 2.737450e-01
5.226150e-02 1.030219e+00 -3.517771e+00 4.546618e+00 -1.624034e-04 3.384561e-02 -2.577876e-01 2.737649e-01
5.324807e-02 1.034117e+00 -3.538664e+00 4.479619e+00 -2.731795e-05 3.375388e-02 -2.577876e-01 2.708599e-01
4.949569e-02 1.030501e+00 -3.563568e+00 4.501527e+00 -1.369405e-04 3.383464e-02 -2.599070e-01 2.752056e-01
4.894426e-02 1.028206e+00 -3.552315e+00 4.579319e+00 -1.119312e-04 3.400918e-02 -2.582254e-01 2.752056e-01
5.311206e-02 1.030407e+00 -3.538581e+00 4.641661e+00 1.403031e-04 3.374012e-02 -2.570829e-01 2.703253e-01
4.971010e-02 1.027697e+00 -3.566587e+00 4.671757e+00 4.228845e-05 3.400036e-02 -2.579455e-01 2.703253e-01
4.939565e-02 1.027234e+00 -3.558470e+00 4.607765e+00 5.013670e-05 3.395535e-02 -2.601142e-01 2.733280e-01
5.098858e-02 1.028693e+00 -3.540857e+00 4.637717e+00 1.028041e-04 3.385752e-02 -2.586991e-01 2.729335e-01
5.059470e-02 1.028288e+00 -3.540857e+00 4.654062e+00 9.378749e-05 3.382805e-02 -2.598040e-01 2.721704e-01
4.621423e-02 1.024077e+00 -3.559390e+00 4.606227e+00 -5.561233e-05 3.412677e-02 -2.617891e-01 2.741456e-01
4.517321e-02 1.023007e+00 -3.555275e+00 4.597190e+00 -9.986632e-05 3.419721e-02 -2.628495e-01 2.748713e-01
4.384682e-02 1.022019e+00 -3.564022e+00 4.566942e+00 -1.513954e-04 3.427065e-02 -2.628495e-01 2.739539e-01
5.099969e-02 1.029258e+00 -3.564022e+00 4.566942e+00 7.362496e-05 3.422070e-02 -2.619027e-01 2.666358e-01
5.495641e-02 1.031437e+00 -3.502661e+00 4.646657e+00 2.133662e-04 3.369383e-02 -2.541354e-01 2.680352e-01
4.373743e-02 1.022229e+00 -3.562801e+00 4.574536e+00 -1.507278e-04 3.426471e-02 -2.637666e-01 2.744737e-01
4.246171e-02 1.021473e+00 -3.566125e+00 4.562542e+00 -1.914151e-04 3.433326e-02 -2.653182e-01 2.742171e-01
5.148482e-02 1.029080e+00 -3.538972e+00 4.647918e+00 1.312747e-04 3.386771e-02 -2.589304e-01 2.732477e-01
4.920190e-02 1.027267e+00 -3.538972e+00 4.662734e+00 8.959039e-05 3.401033e-02 -2.620160e-01 2.750533e-01
4.477840e-02 1.029209e+00 -3.612009e+00 4.520080e+00 -6.871591e-05 3.365782e-02 -2.551133e-01 2.604084e-01
4.334615e-02 1.028307e+00 -3.636956e+00 4.449486e+00 -1.312380e-04 3.382628e-02 -2.595771e-01 2.584245e-01
5.191169e-02 1.034155e+00 -3.563882e+00 4.568473e+00 1.341882e-04 3.349038e-02 -2.507451e-01 2.629829e-01
5.365107e-02 1.036156e+00 -3.557360e+00 4.589117e+00 2.013871e-04 3.340847e-02 -2.500263e-01 2.616613e-01
4.832696e-02 1.031364e+00 -3.582103e+00 4.554119e+00 3.342666e-05 3.367175e-02 -2.523431e-01 2.644796e-01
4.726445e-02 1.031859e+00 -3.570105e+00 4.527947e+00 6.886206e-05 3.377829e-02 -2.568365e-01 2.673319e-01
4.753338e-02 1.032734e+00 -3.546729e+00 4.591582e+00 1.122035e-04 3.372979e-02 -2.577661e-01 2.694893e-01
4.314479e-02 1.028628e+00 -3.567041e+00 4.529039e+00 -3.773697e-05 3.393635e-02 -2.596254e-01 2.701348e-01
4.161295e-02 1.026192e+00 -3.565499e+00 4.507319e+00 -1.189390e-04 3.413403e-02 -2.631563e-01 2.722495e-01
4.759502e-02 1.029033e+00 -3.428040e+00 4.568745e+00 1.127363e-05 3.416799e-02 -2.601464e-01 2.771500e-01
5.394638e-02 1.032937e+00 -3.411214e+00 4.602860e+00 1.598321e-04 3.422524e-02 -2.608975e-01 2.777263e-01
5.596438e-02 1.034877e+00 -3.404261e+00 4.622873e+00 2.251484e-04 3.414172e-02 -2.602225e-01 2.744287e-01
5.235021e-02 1.030842e+00 -3.408571e+00 4.581995e+00 9.911445e-05 3.437900e-02 -2.617350e-01 2.818843e-01
4.690381e-02 1.026236e+00 -3.425764e+00 4.550384e+00 -8.495512e-05 3.458365e-02 -2.646692e-01 2.852049e-01
4.479554e-02 1.024425e+00 -3.432569e+00 4.507729e+00 -1.661183e-04 3.469192e-02 -2.668634e-01 2.865065e-01
4.458962e-02 1.024389e+00 -3.429031e+00 4.530546e+00 -1.800691e-04 3.469601e-02 -2.691165e-01 2.875035e-01
5.446378e-02 1.033209e+00 -3.390254e+00 4.629382e+00 1.967224e-04 3.432967e-02 -2.634093e-01 2.775848e-01
4.725079e-02 1.027520e+00 -3.417447e+00 4.577877e+00 -2.573346e-05 3.458817e-02 -2.638193e-01 2.842489e-01
4.790659e-02 1.027779e+00 -3.438047e+00 4.543950e+00 7.080303e-06 3.444562e-02 -2.648456e-01 2.821799e-01
3.284549e-02 1.023325e+00 -3.659072e+00 4.520713e+00 -1.665699e-04 3.451430e-02 -2.681078e-01 2.761496e-01
4.370510e-02 1.031305e+00 -3.608529e+00 4.601894e+00 1.807939e-04 3.402504e-02 -2.615398e-01 2.677662e-01
4.304484e-02 1.036207e+00 -3.664240e+00 4.623096e+00 3.090541e-04 3.373353e-02 -2.571334e-01 2.620851e-01
3.407343e-02 1.027423e+00 -3.696571e+00 4.528652e+00 1.872645e-05 3.413680e-02 -2.670751e-01 2.723782e-01
2.752570e-02 1.024908e+00 -3.715829e+00 4.510091e+00 -1.823313e-04 3.448872e-02 -2.734609e-01 2.734978e-01
3.063648e-02 1.028476e+00 -3.715829e+00 4.580701e+00 -3.630590e-05 3.449901e-02 -2.734609e-01 2.738898e-01
2.967651e-02 1.026921e+00 -3.677912e+00 4.484275e+00 -4.736886e-05 3.422670e-02 -2.713508e-01 2.762284e-01
2.947492e-02 1.026675e+00 -3.686350e+00 4.510813e+00 -5.950764e-05 3.427681e-02 -2.705486e-01 2.763268e-01
2.664781e-02 1.024820e+00 -3.696247e+00 4.482970e+00 -1.567699e-04 3.440612e-02 -2.720473e-01 2.770042e-01
3.135773e-02 1.028245e+00 -3.674270e+00 4.528116e+00 2.262244e-05 3.421665e-02 -2.703452e-01 2.764482e-01
2.290033e-02 1.022733e+00 -3.778578e+00 4.509589e+00 -1.173463e-04 3.468628e-02 -2.820250e-01 2.839586e-01
1.971327e-02 1.021850e+00 -3.790513e+00 4.568728e+00 -3.797119e-05 3.475619e-02 -2.831072e-01 2.838108e-01
2.271767e-02 1.024242e+00 -3.798268e+00 4.568728e+00 1.001538e-04 3.475887e-02 -2.820218e-01 2.838108e-01
1.607529e-02 1.019784e+00 -3.853264e+00 4.596061e+00 -1.381097e-04 3.534179e-02 -2.781802e-01 2.826961e-01
1.244356e-02 1.016874e+00 -3.853264e+00 4.420210e+00 -2.478337e-04 3.509785e-02 -2.853974e-01 2.822676e-01
2.444634e-02 1.025260e+00 -3.797198e+00 4.558805e+00 1.517320e-04 3.476815e-02 -2.810602e-01 2.750700e-01
2.355193e-02 1.025301e+00 -3.798938e+00 4.627979e+00 1.224902e-04 3.465188e-02 -2.830439e-01 2.859014e-01
2.184383e-02 1.024724e+00 -3.810399e+00 4.569538e+00 9.968735e-05 3.465696e-02 -2.804004e-01 2.817027e-01
2.486169e-02 1.027819e+00 -3.799617e+00 4.601145e+00 1.993049e-04 3.451693e-02 -2.761264e-01 2.776953e-01
1.804639e-02 1.022315e+00 -3.844202e+00 4.521257e+00 -3.248583e-06 3.474364e-02 -2.824392e-01 2.827847e-01
1.645318e-02 1.021332e+00 -3.843260e+00 4.517684e+00 -5.342482e-05 3.478817e-02 -2.834241e-01 2.829774e-01
1.251496e-02 1.018319e+00 -3.840753e+00 4.492993e+00 -2.074664e-04 3.507567e-02 -2.846921e-01 2.827598e-01
2.806364e-02 1.029421e+00 -3.754239e+00 4.644418e+00 2.662849e-04 3.459081e-02 -2.773286e-01 2.760875e-01
1.848725e-02 1.019608e+00 -3.794631e+00 4.527433e+00 -5.746192e-05 3.508352e-02 -2.868769e-01 2.895892e-01
2.710083e-02 1.028606e+00 -3.734445e+00 4.663023e+00 2.211111e-04 3.483336e-02 -2.810580e-01 2.848165e-01
2.843516e-02 1.029395e+00 -3.756892e+00 4.663023e+00 2.556544e-04 3.453115e-02 -2.771610e-01 2.802510e-01
1.220809e-02 1.016476e+00 -3.808020e+00 4.472148e+00 -2.885427e-04 3.531211e-02 -2.858862e-01 2.885265e-01
2.019025e-02 1.021677e+00 -3.785010e+00 4.542268e+00 -2.416346e-05 3.488425e-02 -2.824597e-01 2.856938e-01
1.968699e-02 1.021384e+00 -3.791354e+00 4.542268e+00 -1.914786e-05 3.490881e-02 -2.846804e-01 2.851546e-01
2.128928e-02 1.023772e+00 -3.786463e+00 4.567639e+00 5.091996e-05 3.480559e-02 -2.819837e-01 2.843397e-01
2.620303e-02 1.027109e+00 -3.761227e+00 4.584336e+00 1.865399e-04 3.463448e-02 -2.795870e-01 2.829289e-01
1.499355e-02 1.025317e+00 -3.777972e+00 4.525729e+00 -1.366907e-04 3.543293e-02 -2.935221e-01 2.893653e-01
1.691588e-02 1.033194e+00 -3.724604e+00 4.569350e+00 7.574647e-05 3.521097e-02 -2.892180e-01 2.992501e-01
1.677435e-02 1.033863e+00 -3.749615e+00 4.568980e+00 7.446093e-05 3.528366e-02 -2.917784e-01 2.992501e-01
1.929012e-02 1.033670e+00 -3.734249e+00 4.607299e+00 1.185831e-04 3.515820e-02 -2.855451e-01 2.976896e-01
1.675757e-02 1.031089e+00 -3.728675e+00 4.626182e+00 2.560670e-05 3.531352e-02 -2.918909e-01 2.983500e-01
1.968387e-02 1.034214e+00 -3.759848e+00 4.643476e+00 1.604130e-04 3.499011e-02 -2.853328e-01 2.937546e-01
1.725467e-02 1.031246e+00 -3.789412e+00 4.567495e+00 8.987591e-05 3.530783e-02 -2.893696e-01 2.937546e-01
1.893178e-02 1.033001e+00 -3.763369e+00 4.603566e+00 1.333194e-04 3.507075e-02 -2.856855e-01 2.901983e-01
1.955559e-02 1.033755e+00 -3.773854e+00 4.642610e+00 1.583481e-04 3.499581e-02 -2.839413e-01 2.901983e-01
9.646196e-03 1.025695e+00 -3.808888e+00 4.526150e+00 -1.992256e-04 3.545936e-02 -2.914825e-01 2.978218e-01
6.938451e-03 1.024440e+00 -3.820279e+00 4.496508e+00 -2.994198e-04 3.555474e-02 -2.912158e-01 3.000670e-01
1.596772e-02 1.031732e+00 -3.779556e+00 4.626713e+00 4.828154e-05 3.491918e-02 -2.870162e-01 2.920269e-01
2.157440e-02 1.035938e+00 -3.763463e+00 4.626713e+00 2.558476e-04 3.500799e-02 -2.812263e-01 2.939476e-01
1.905576e-02 1.034991e+00 -3.800753e+00 4.578235e+00 1.709067e-04 3.507507e-02 -2.868065e-01 2.939476e-01
1.598020e-02 1.030729e+00 -3.799415e+00 4.596439e+00 5.547895e-05 3.504623e-02 -2.855439e-01 2.848575e-01
2.316605e-02 1.037526e+00 -3.772957e+00 4.671532e+00 3.057730e-04 3.471441e-02 -2.783788e-01 2.914693e-01
1.069288e-02 1.026948e+00 -3.800732e+00 4.503917e+00 -1.174610e-04 3.537302e-02 -2.877744e-01 2.991322e-01
1.032234e-02 1.026704e+00 -3.830304e+00 4.587041e+00 -1.594799e-04 3.535609e-02 -2.872568e-01 2.884210e-01
1.927056e-02 1.033441e+00 -3.782550e+00 4.681443e+00 1.792343e-04 3.497703e-02 -2.848933e-01 2.900330e-01
1.691446e-02 1.032733e+00 -3.782550e+00 4.566825e+00 1.090642e-04 3.511317e-02 -2.878188e-01 2.900330e-01
1.610495e-02 1.029647e+00 -3.798842e+00 4.589388e+00 4.832029e-05 3.505077e-02 -2.846609e-01 2.872353e-01
4.556951e-03 1.021257e+00 -3.867358e+00 4.533549e+00 -2.829601e-04 3.559157e-02 -2.937632e-01 2.944361e-01
3.929679e-03 1.020597e+00 -3.861354e+00 4.534165e+00 -2.992327e-04 3.563397e-02 -2.937632e-01 2.975453e-01
1.832412e-02 1.036133e+00 -3.797112e+00 4.737913e+00 3.271593e-04 3.492184e-02 -2.891898e-01 2.891734e-01
9.609487e-03 1.027308e+00 -3.850994e+00 4.588862e+00 1.808802e-05 3.557435e-02 -2.998455e-01 3.017048e-01
7.143915e-03 1.021613e+00 -3.767408e+00 4.710317e+00 -1.153348e-04 3.572111e-02 -2.994792e-01 2.890256e-01
9.503883e-03 1.023302e+00 -3.796824e+00 4.634630e+00 -5.322031e-05 3.566991e-02 -2.987937e-01 2.996933e-01
7.969087e-03 1.022091e+00 -3.820912e+00 4.613944e+00 -1.151978e-04 3.564770e-02 -2.964326e-01 2.992890e-01
1.426597e-02 1.027971e+00 -3.820912e+00 4.613944e+00 7.483000e-05 3.574610e-02 -2.893949e-01 2.929645e-01
1.442184e-02 1.028446e+00 -3.823035e+00 4.774579e+00 8.953520e-05 3.520821e-02 -2.941243e-01 2.981666e-01
1.961480e-02 1.032690e+00 -3.765495e+00 4.734533e+00 2.641178e-04 3.495547e-02 -2.884214e-01 2.924552e-01
-1.148479e-03 1.016211e+00 -3.818649e+00 4.537239e+00 -4.779706e-04 3.630487e-02 -3.008523e-01 3.067932e-01
1.380487e-02 1.025857e+00 -3.759410e+00 4.704157e+00 2.732193e-05 3.532116e-02 -2.929452e-01 2.855748e-01
1.155104e-02 1.023688e+00 -3.780206e+00 4.666427e+00 -4.487004e-05 3.545052e-02 -2.944462e-01 2.921662e-01
8.936524e-04 1.017159e+00 -3.825623e+00 4.561762e+00 -3.843191e-04 3.606667e-02 -2.978000e-01 3.036560e-01
8.516376e-03 1.021901e+00 -3.778053e+00 4.671024e+00 -1.480118e-04 3.561763e-02 -2.941816e-01 2.911347e-01
1.359609e-02 1.028469e+00 -3.810419e+00 4.688667e+00 1.022468e-04 3.500262e-02 -2.891853e-01 2.783900e-01
1.384991e-02 1.031216e+00 -3.824830e+00 4.701210e+00 1.727741e-04 3.489647e-02 -2.886215e-01 2.784189e-01
4.761372e-03 1.023168e+00 -3.868679e+00 4.594177e+00 -1.162422e-04 3.539378e-02 -2.939646e-01 2.937083e-01
5.370320e-03 1.023966e+00 -3.849112e+00 4.639375e+00 -1.051182e-04 3.541243e-02 -2.955610e-01 2.881054e-01
1.012563e-02 1.027586e+00 -3.840847e+00 4.664408e+00 5.583969e-05 3.508224e-02 -2.919456e-01 2.833097e-01
1.327742e-02 1.030133e+00 -3.823971e+00 4.692719e+00 1.384151e-04 3.493734e-02 -2.893302e-01 2.773862e-01
8.089714e-03 1.024973e+00 -3.835876e+00 4.661852e+00 -7.795601e-05 3.536658e-02 -2.943859e-01 2.931522e-01
1.308091e-02 1.030324e+00 -3.778149e+00 4.604400e+00 5.021277e-05 3.498996e-02 -2.926943e-01 2.931522e-01
1.870986e-02 1.033959e+00 -3.778149e+00 4.724827e+00 2.630184e-04 3.473782e-02 -2.860931e-01 2.791198e-01
9.673333e-04 1.019361e+00 -3.895716e+00 4.577848e+00 -2.859747e-04 3.561002e-02 -2.926083e-01 2.933237e-01
7.505830e-03 1.025371e+00 -3.889602e+00 4.567599e+00 -6.564802e-05 3.524119e-02 -2.925176e-01 2.744884e-01
4.414959e-03 1.021674e+00 -3.876356e+00 4.596154e+00 -1.691136e-04 3.532763e-02 -2.916714e-01 2.893577e-01
1.249443e-02 1.029023e+00 -3.844431e+00 4.682060e+00 9.944638e-05 3.485737e-02 -2.874099e-01 2.779701e-01
7.993563e-03 1.027475e+00 -4.440077e+00 4.494545e+00 -2.619250e-05 3.472696e-02 -2.870728e-01 2.692577e-01
8.768953e-03 1.029956e+00 -4.442747e+00 4.527299e+00 -4.048226e-05 3.411597e-02 -2.693109e-01 2.437240e-01
7.715433e-03 1.027424e+00 -4.434054e+00 4.433200e+00 -2.133704e-04 3.461977e-02 -2.688549e-01 2.446933e-01
8.736054e-03 1.027086e+00 -4.339033e+00 4.433200e+00 -1.958589e-04 3.441991e-02 -2.680921e-01 2.563594e-01
2.572684e-02 1.036772e+00 -4.320566e+00 4.561259e+00 8.718826e-05 3.499865e-02 -2.872607e-01 3.247390e-01
2.373196e-02 1.033033e+00 -3.617373e+00 4.583414e+00 -1.002035e-04 3.589692e-02 -2.923074e-01 3.250083e-01
1.403249e-02 1.032568e+00 -3.772654e+00 4.640680e+00 -5.408581e-05 3.564681e-02 -3.019126e-01 3.012489e-01
1.820590e-02 1.038584e+00 -3.766452e+00 4.707542e+00 1.715011e-04 3.535397e-02 -3.032918e-01 3.197973e-01
1.690733e-02 1.038765e+00 -3.766452e+00 4.661394e+00 1.322125e-04 3.520271e-02 -3.032918e-01 3.197973e-01
5.605219e-03 1.030899e+00 -3.816331e+00 4.624433e+00 -2.318332e-04 3.580374e-02 -2.992979e-01 2.994946e-01
7.754139e-03 1.032652e+00 -3.811090e+00 4.676159e+00 -1.246751e-04 3.578602e-02 -2.958769e-01 2.882178e-01
5.001667e-03 1.030103e+00 -3.851132e+00 4.612512e+00 -2.203853e-04 3.584577e-02 -2.977717e-01 2.988805e-01
4.648529e-03 1.030359e+00 -3.851132e+00 4.607897e+00 -2.333408e-04 3.572430e-02 -2.977717e-01 2.880485e-01
1.823917e-02 1.042151e+00 -3.793373e+00 4.719770e+00 2.204945e-04 3.482911e-02 -2.970055e-01 3.108049e-01
8.628482e-03 1.032666e+00 -3.819446e+00 4.635418e+00 -9.156287e-05 3.545118e-02 -2.973869e-01 2.940455e-01
1.364334e-02 1.036160e+00 -3.784839e+00 4.616565e+00 7.928601e-05 3.562732e-02 -2.973869e-01 3.087808e-01
1.857356e-02 1.042549e+00 -3.790310e+00 4.741461e+00 2.298026e-04 3.479408e-02 -2.967647e-01 3.093661e-01
5.355211e-03 1.029300e+00 -3.821047e+00 4.590100e+00 -2.436378e-04 3.574547e-02 -2.961407e-01 2.939277e-01
9.205939e-03 1.032203e+00 -3.808196e+00 4.640391e+00 -1.028115e-04 3.544271e-02 -2.966919e-01 2.907940e-01
1.315468e-02 1.036348e+00 -3.795700e+00 4.676976e+00 4.677652e-05 3.516905e-02 -2.963631e-01 3.029540e-01
1.938529e-02 1.042218e+00 -3.768745e+00 4.731957e+00 2.227396e-04 3.483528e-02 -2.964647e-01 3.129142e-01
2.392265e-02 1.047874e+00 -3.752720e+00 4.776230e+00 3.628332e-04 3.459160e-02 -2.958923e-01 3.161903e-01
1.031558e-02 1.033538e+00 -3.799851e+00 4.632985e+00 -6.770370e-05 3.531072e-02 -2.962429e-01 2.972683e-01
1.448607e-02 1.037260e+00 -3.788579e+00 4.686936e+00 7.443878e-05 3.509075e-02 -2.955852e-01 3.044985e-01
2.246278e-02 1.046259e+00 -3.750857e+00 4.767222e+00 3.229660e-04 3.466248e-02 -2.962149e-01 3.158453e-01
7.211966e-03 1.031756e+00 -3.820963e+00 4.655234e+00 -1.836101e-04 3.570690e-02 -2.966137e-01 2.939087e-01
3.572095e-03 1.028510e+00 -3.820963e+00 4.575550e+00 -2.697816e-04 3.582392e-02 -2.972764e-01 2.944070e-01
7.121798e-03 1.038822e+00 -3.854248e+00 4.752277e+00 1.903475e-04 3.507201e-02 -3.039549e-01 3.048126e-01
5.274041e-04 1.031400e+00 -3.878833e+00 4.667402e+00 -2.646053e-05 3.551518e-02 -3.030637e-01 2.922739e-01
-3.913771e-04 1.030588e+00 -3.871602e+00 4.667402e+00 -5.406343e-05 3.557609e-02 -3.030562e-01 2.849276e-01
2.347658e-03 1.033345e+00 -3.861887e+00 4.703485e+00 2.461040e-05 3.537503e-02 -3.029381e-01 2.924094e-01
1.784235e-02 1.030435e+00 -3.847578e+00 4.734888e+00 -8.535716e-05 3.556398e-02 -2.979585e-01 3.162894e-01
3.704981e-02 1.034000e+00 -3.643010e+00 4.816018e+00 -2.888578e-06 3.506706e-02 -2.801898e-01 3.162894e-01
3.438584e-02 1.033935e+00 -3.682214e+00 4.762854e+00 1.660609e-04 3.512858e-02 -2.845930e-01 3.184715e-01
3.244897e-02 1.033075e+00 -3.672177e+00 4.750796e+00 1.184538e-04 3.511719e-02 -2.837798e-01 3.171411e-01
2.025470e-02 1.030406e+00 -3.751156e+00 4.715407e+00 -9.645993e-05 3.542521e-02 -2.836329e-01 3.174940e-01
2.040480e-02 1.032747e+00 -3.711654e+00 4.804561e+00 -1.498863e-05 3.518772e-02 -2.877837e-01 3.183903e-01
2.501318e-02 1.036649e+00 -3.704386e+00 4.810756e+00 1.498922e-04 3.486857e-02 -2.884972e-01 3.192617e-01
1.572616e-02 1.029849e+00 -3.766201e+00 4.717440e+00 -9.747161e-05 3.543012e-02 -2.862346e-01 3.109533e-01
1.596803e-02 1.032003e+00 -3.743479e+00 4.717440e+00 -2.180452e-05 3.536448e-02 -2.875660e-01 3.010648e-01
1.572001e-02 1.032428e+00 -3.741176e+00 4.741174e+00 -3.504808e-05 3.526222e-02 -2.864065e-01 3.096143e-01
1.861888e-02 1.035010e+00 -3.733623e+00 4.781122e+00 6.332588e-05 3.499628e-02 -2.865782e-01 3.124088e-01
2.327031e-02 1.037903e+00 -3.836210e+00 4.851994e+00 3.682650e-05 3.366312e-02 -2.600195e-01 2.534682e-01
2.804232e-02 1.044413e+00 -3.836210e+00 4.972864e+00 1.540451e-04 3.352429e-02 -2.574836e-01 2.632594e-01
3.171535e-02 1.047645e+00 -3.800831e+00 4.972864e+00 3.019048e-04 3.307218e-02 -2.597000e-01 2.646947e-01
1.335262e-02 1.031040e+00 -3.832281e+00 4.774091e+00 -2.335574e-04 3.451913e-02 -2.660591e-01 2.595835e-01
1.709683e-02 1.033983e+00 -3.805711e+00 4.792617e+00 -1.072942e-04 3.434725e-02 -2.624582e-01 2.628413e-01
1.893697e-02 1.035662e+00 -3.739940e+00 4.792617e+00 -5.720375e-05 3.406660e-02 -2.641363e-01 2.672564e-01
5.089370e-03 1.036009e+00 -4.008982e+00 4.765916e+00 -7.294894e-05 3.435965e-02 -2.740270e-01 2.540309e-01
-6.579453e-03 1.036423e+00 -4.002080e+00 4.770655e+00 -8.554515e-05 3.439765e-02 -2.765879e-01 2.583003e-01
7.103768e-04 1.041065e+00 -3.920805e+00 4.827941e+00 1.377975e-04 3.425883e-02 -2.825571e-01 2.707899e-01
2.018128e-03 1.039164e+00 -3.769021e+00 4.880213e+00 1.108526e-04 3.563050e-02 -3.125936e-01 3.510061e-01
7.953090e-03 1.043674e+00 -3.234765e+00 4.899246e+00 1.938974e-04 3.631951e-02 -3.176943e-01 3.573254e-01
2.164967e-03 1.035900e+00 -3.272769e+00 4.791120e+00 2.010221e-05 3.711747e-02 -3.298231e-01 3.595346e-01
2.099418e-02 1.037262e+00 -3.417159e+00 5.039322e+00 8.041084e-05 3.527521e-02 -3.125159e-01 3.188623e-01
3.604896e-02 1.032419e+00 -3.419494e+00 5.038189e+00 -2.659849e-06 3.472414e-02 -3.009279e-01 3.077649e-01
3.686769e-02 1.033165e+00 -3.432941e+00 5.057700e+00 3.084032e-05 3.457725e-02 -2.982242e-01 3.078848e-01
3.322597e-02 1.032140e+00 -3.451700e+00 5.019976e+00 4.870079e-06 3.479032e-02 -2.997495e-01 3.114037e-01
2.503351e-02 1.027838e+00 -3.498148e+00 4.988574e+00 -1.592928e-04 3.548332e-02 -3.001525e-01 3.116310e-01
2.576895e-02 1.029866e+00 -3.498148e+00 5.019261e+00 -9.848200e-05 3.527636e-02 -2.985542e-01 3.129539e-01
2.915869e-02 1.035838e+00 -3.468237e+00 5.038893e+00 1.159213e-04 3.472266e-02 -2.976848e-01 3.210943e-01
2.602677e-02 1.035646e+00 -3.498088e+00 5.012789e+00 1.098126e-04 3.487361e-02 -2.972183e-01 3.219140e-01
1.915899e-02 1.030029e+00 -3.506432e+00 4.997097e+00 -7.355537e-05 3.549942e-02 -2.945773e-01 3.163046e-01
1.810480e-02 1.029552e+00 -3.517876e+00 4.984233e+00 -8.748154e-05 3.553612e-02 -2.945773e-01 3.220378e-01
2.312509e-02 1.034888e+00 -3.510497e+00 5.011856e+00 8.926442e-05 3.499986e-02 -2.962022e-01 3.235316e-01
2.452956e-02 1.036760e+00 -3.504965e+00 5.025863e+00 1.408850e-04 3.487442e-02 -2.954723e-01 3.241984e-01
1.768053e-02 1.032824e+00 -3.538990e+00 4.994732e+00 2.376445e-05 3.519166e-02 -2.912852e-01 3.234902e-01
1.619975e-02 1.033373e+00 -3.564939e+00 4.970844e+00 3.762750e-05 3.521495e-02 -2.912852e-01 3.207600e-01
8.271229e-04 1.033267e+00 -3.737013e+00 4.780830e+00 -1.582924e-04 3.582541e-02 -3.046612e-01 3.256208e-01
-7.632343e-03 1.031387e+00 -3.716166e+00 4.780830e+00 -2.504730e-04 3.634665e-02 -2.927301e-01 3.185062e-01
3.980086e-03 1.039974e+00 -3.683902e+00 4.915206e+00 1.422096e-04 3.549587e-02 -2.909077e-01 3.381722e-01
9.500332e-03 1.048145e+00 -3.673862e+00 4.981931e+00 3.631817e-04 3.495761e-02 -2.936408e-01 3.389863e-01
2.190708e-03 1.039557e+00 -3.707270e+00 4.891406e+00 1.349134e-04 3.541119e-02 -2.912666e-01 3.384786e-01
-3.745622e-03 1.034247e+00 -3.720891e+00 4.856075e+00 -6.719878e-05 3.599399e-02 -2.896598e-01 3.270985e-01
-3.127753e-03 1.035123e+00 -3.721291e+00 4.865727e+00 -3.166024e-05 3.591355e-02 -2.904308e-01 3.291872e-01
8.155639e-03 1.047476e+00 -3.684190e+00 4.977362e+00 3.438952e-04 3.502083e-02 -2.940218e-01 3.397843e-01
-2.824887e-03 1.037232e+00 -3.744001e+00 4.918769e+00 -1.804869e-05 3.591336e-02 -2.910644e-01 3.367644e-01
-3.677251e-03 1.035047e+00 -3.744001e+00 4.835398e+00 -1.575076e-05 3.600033e-02 -2.920065e-01 3.198301e-01
1.755231e-04 1.041963e+00 -3.685435e+00 4.980998e+00 9.193284e-05 3.571782e-02 -2.937164e-01 3.450719e-01
7.542133e-04 1.043016e+00 -3.738750e+00 4.819071e+00 1.026885e-04 3.624420e-02 -2.980374e-01 3.574415e-01
-5.066075e-03 1.045110e+00 -3.725543e+00 4.815086e+00 3.065130e-05 3.604438e-02 -2.999918e-01 3.608351e-01
-9.840723e-03 1.040862e+00 -3.845451e+00 4.861909e+00 9.904570e-06 3.624558e-02 -2.983917e-01 3.575999e-01
-1.442705e-02 1.039315e+00 -3.947071e+00 4.836841e+00 -7.003630e-05 3.650468e-02 -2.983328e-01 3.516797e-01
-4.922159e-02 1.047720e+00 -4.541725e+00 4.731384e+00 -1.727805e-04 3.619163e-02 -3.093342e-01 3.133146e-01
-4.124571e-02 1.052370e+00 -4.590887e+00 4.751075e+00 -1.512938e-04 3.597568e-02 -3.089678e-01 3.467564e-01
-1.904659e-02 1.061204e+00 -4.416677e+00 4.812733e+00 1.779925e-04 3.599608e-02 -3.091686e-01 3.685248e-01
-2.198792e-02 1.057893e+00 -4.419428e+00 4.799651e+00 -2.541130e-06 3.634718e-02 -3.090334e-01 3.613730e-01
-2.697805e-02 1.053606e+00 -4.453241e+00 4.685684e+00 -2.118353e-04 3.673066e-02 -3.056587e-01 3.613730e-01
-2.415617e-02 1.055045e+00 -4.412010e+00 4.800425e+00 -1.009434e-04 3.656376e-02 -3.087310e-01 3.521719e-01
-2.607390e-02 1.054103e+00 -4.442007e+00 4.703575e+00 -1.731354e-04 3.671271e-02 -3.074593e-01 3.625190e-01
-2.238701e-02 1.055859e+00 -4.400816e+00 4.818687e+00 -2.520276e-05 3.634474e-02 -3.092473e-01 3.544793e-01
-1.568311e-02 1.060599e+00 -4.438619e+00 4.708017e+00 1.866806e-04 3.715449e-02 -3.069775e-01 3.666955e-01
-7.482578e-03 1.067524e+00 -4.362784e+00 4.864455e+00 4.667286e-04 3.570378e-02 -3.098019e-01 3.746802e-01
-2.927745e-02 1.049999e+00 -4.414323e+00 4.692120e+00 -4.195478e-04 3.734822e-02 -3.096253e-01 3.607155e-01
-1.602018e-02 1.058515e+00 -4.370226e+00 4.842816e+00 1.423115e-04 3.634942e-02 -3.106791e-01 3.768573e-01
-2.438383e-02 1.053778e+00 -4.397646e+00 4.793400e+00 -2.105657e-04 3.701328e-02 -3.108613e-01 3.758199e-01
-1.887349e-02 1.060989e+00 -4.344572e+00 4.918680e+00 6.458312e-05 3.664171e-02 -3.108613e-01 3.729125e-01
-4.689337e-02 1.051518e+00 -4.614045e+00 4.784645e+00 -1.288369e-04 3.624264e-02 -3.121709e-01 3.408453e-01
-3.376452e-02 1.052489e+00 -4.448784e+00 4.814751e+00 -6.832592e-05 3.648158e-02 -3.141126e-01 3.754989e-01
-3.135824e-02 1.055443e+00 -4.490124e+00 4.814751e+00 3.666444e-05 3.652457e-02 -3.153115e-01 3.775558e-01
-2.952851e-02 1.056929e+00 -4.442155e+00 4.834332e+00 8.467538e-05 3.640351e-02 -3.149990e-01 3.695320e-01
-5.248509e-02 1.055660e+00 -4.626181e+00 4.862733e+00 -4.085739e-05 3.761318e-02 -3.537428e-01 4.003506e-01
-6.015327e-02 1.063426e+00 -4.616359e+00 4.680687e+00 8.758818e-05 3.762161e-02 -3.539583e-01 4.189320e-01
-5.403302e-02 1.062404e+00 -4.515734e+00 4.708943e+00 9.681577e-05 3.772787e-02 -3.489778e-01 4.227645e-01
-5.807164e-02 1.058536e+00 -4.541912e+00 4.688083e+00 -9.196592e-05 3.800496e-02 -3.469999e-01 4.223202e-01
-5.974975e-02 1.057164e+00 -4.551031e+00 4.672723e+00 -1.545581e-04 3.812062e-02 -3.478631e-01 4.199425e-01
-6.288807e-02 1.056146e+00 -4.694820e+00 4.707391e+00 -1.369203e-04 3.808745e-02 -3.470196e-01 4.104766e-01
-6.810840e-02 1.054832e+00 -4.721489e+00 4.780386e+00 -1.376215e-04 3.780255e-02 -3.417986e-01 3.894724e-01
-4.082771e-02 1.060849e+00 -4.621536e+00 4.867641e+00 4.598243e-05 3.717707e-02 -3.366118e-01 4.049571e-01
-2.788213e-02 1.068202e+00 -4.553515e+00 4.890117e+00 2.803289e-04 3.679113e-02 -3.341325e-01 3.976139e-01
-2.220418e-02 1.070138e+00 -4.585414e+00 4.939159e+00 3.667329e-04 3.602111e-02 -3.283443e-01 3.975163e-01
-4.136436e-02 1.059571e+00 -4.611971e+00 4.875255e+00 -3.035429e-07 3.687585e-02 -3.376118e-01 3.910411e-01
-5.411627e-02 1.054505e+00 -4.818123e+00 4.868329e+00 -2.046141e-04 3.758573e-02 -3.229750e-01 3.889194e-01
-5.061720e-02 1.058717e+00 -4.818123e+00 4.931636e+00 -1.138265e-04 3.737410e-02 -3.249192e-01 3.767954e-01
-4.995994e-02 1.055861e+00 -4.778238e+00 4.859763e+00 -1.892468e-04 3.737606e-02 -3.310886e-01 3.855647e-01
-4.172716e-02 1.061453e+00 -4.736829e+00 4.918782e+00 1.014811e-04 3.679532e-02 -3.280143e-01 3.992135e-01
-4.619476e-02 1.056964e+00 -4.734426e+00 4.856699e+00 -7.128944e-05 3.716647e-02 -3.303920e-01 3.971763e-01
-4.124761e-02 1.059209e+00 -4.675219e+00 4.867698e+00 2.355680e-05 3.720225e-02 -3.367571e-01 3.998549e-01
-4.031129e-02 1.059912e+00 -4.675219e+00 4.882803e+00 5.429610e-05 3.725965e-02 -3.421343e-01 4.036248e-01
-3.676505e-02 1.061037e+00 -4.659348e+00 4.921562e+00 1.059037e-04 3.710765e-02 -3.435933e-01 4.029937e-01
-3.782294e-02 1.060267e+00 -4.666846e+00 4.936626e+00 6.927153e-05 3.720049e-02 -3.421904e-01 4.029937e-01
-4.072425e-02 1.057518e+00 -4.674054e+00 4.891207e+00 -3.188801e-05 3.743312e-02 -3.466035e-01 4.049535e-01
-4.380203e-02 1.056453e+00 -4.693213e+00 4.867878e+00 -9.709729e-05 3.760004e-02 -3.460828e-01 4.049947e-01
-4.538418e-02 1.055330e+00 -4.697665e+00 4.847594e+00 -1.610662e-04 3.777169e-02 -3.466947e-01 4.039532e-01
-3.646542e-02 1.062220e+00 -4.674258e+00 4.904441e+00 1.563305e-04 3.714717e-02 -3.438496e-01 4.024614e-01
-3.891638e-02 1.061856e+00 -4.693320e+00 4.864830e+00 8.522191e-05 3.731074e-02 -3.463748e-01 3.997279e-01
-3.561013e-02 1.063250e+00 -4.668746e+00 4.969306e+00 1.645296e-04 3.694582e-02 -3.444748e-01 3.990761e-01
-3.776747e-02 1.062211e+00 -4.648052e+00 4.865406e+00 8.037233e-05 3.722067e-02 -3.481169e-01 4.031914e-01
-3.858741e-02 1.059803e+00 -4.674634e+00 4.900072e+00 4.880735e-05 3.729464e-02 -3.455167e-01 4.060162e-01
-4.051064e-02 1.057531e+00 -4.682935e+00 4.877690e+00 -4.094121e-05 3.748230e-02 -3.464878e-01 4.048565e-01
-4.332312e-02 1.055522e+00 -4.682935e+00 4.877690e+00 -1.302970e-04 3.772411e-02 -3.468193e-01 4.048565e-01
-4.238536e-02 1.056508e+00 -4.705718e+00 4.834255e+00 -6.532947e-05 3.750129e-02 -3.468193e-01 4.047590e-01
-4.428733e-02 1.054136e+00 -4.712865e+00 4.810070e+00 -2.205655e-04 3.803280e-02 -3.502564e-01 3.964932e-01
-4.229987e-02 1.057138e+00 -4.676635e+00 4.810070e+00 -1.149561e-04 3.751288e-02 -3.457757e-01 4.034734e-01
-4.261037e-02 1.056182e+00 -4.702338e+00 4.879696e+00 -1.076044e-04 3.756318e-02 -3.470947e-01 4.025437e-01
-4.265298e-02 1.056453e+00 -4.694529e+00 4.876915e+00 -1.098936e-04 3.757708e-02 -3.470947e-01 4.046337e-01
-3.586193e-02 1.062096e+00 -4.676332e+00 4.928663e+00 1.330809e-04 3.705540e-02 -3.450586e-01 4.030210e-01
-4.106810e-02 1.057870e+00 -4.691733e+00 4.869657e+00 -4.334741e-05 3.753327e-02 -3.454011e-01 4.054973e-01
-4.002059e-02 1.059019e+00 -4.698582e+00 4.916053e+00 1.903473e-05 3.736957e-02 -3.468799e-01 4.054973e-01
-4.122973e-02 1.058139e+00 -4.706730e+00 4.847139e+00 -1.786128e-05 3.770325e-02 -3.471285e-01 4.047153e-01
-4.125788e-02 1.059208e+00 -4.706730e+00 4.924472e+00 -5.410985e-05 3.753374e-02 -3.416202e-01 4.047153e-01
-3.830924e-02 1.057678e+00 -4.680054e+00 4.877495e+00 -7.668272e-05 3.772199e-02 -3.502562e-01 4.059131e-01
-3.272921e-02 1.062546e+00 -4.659203e+00 4.901368e+00 1.275573e-04 3.724968e-02 -3.509149e-01 4.019517e-01
-3.271355e-02 1.062679e+00 -4.653479e+00 4.899807e+00 1.229979e-04 3.723589e-02 -3.503494e-01 4.031885e-01
-3.658101e-02 1.059427e+00 -4.675782e+00 4.870099e+00 -1.087376e-05 3.752782e-02 -3.498165e-01 4.059169e-01
-4.269163e-02 1.055167e+00 -4.686673e+00 4.829206e+00 -2.946876e-04 3.860087e-02 -3.551656e-01 4.015561e-01
-3.911451e-02 1.058103e+00 -4.686673e+00 4.753464e+00 -1.834883e-04 3.813978e-02 -3.528978e-01 4.026978e-01
-3.255976e-02 1.061002e+00 -4.631136e+00 4.873423e+00 2.865496e-05 3.761959e-02 -3.574526e-01 4.050892e-01
-2.845663e-02 1.064264e+00 -4.601237e+00 4.922314e+00 1.555574e-04 3.732780e-02 -3.538437e-01 4.069272e-01
-2.916827e-02 1.063649e+00 -4.601237e+00 4.922314e+00 1.368292e-04 3.739095e-02 -3.538437e-01 4.080300e-01
-3.815630e-02 1.059400e+00 -4.653408e+00 4.843357e+00 1.568486e-05 3.763219e-02 -3.476991e-01 4.084708e-01
-4.673623e-02 1.060379e+00 -4.784678e+00 4.861677e+00 -1.181282e-05 3.732082e-02 -3.383167e-01 4.048949e-01
-4.792222e-02 1.059246e+00 -4.804573e+00 4.847241e+00 -3.900983e-05 3.730581e-02 -3.345052e-01 4.012856e-01
-4.368001e-02 1.062408e+00 -4.794841e+00 4.926087e+00 7.677782e-05 3.717911e-02 -3.351717e-01 4.068367e-01
-4.599516e-02 1.059835e+00 -4.814295e+00 4.827340e+00 -1.963106e-05 3.747378e-02 -3.361394e-01 3.988746e-01
-1.723889e-02 1.072928e+00 -4.539985e+00 4.929076e+00 3.650612e-04 3.701756e-02 -3.598880e-01 4.057614e-01
-2.727315e-02 1.061848e+00 -4.555970e+00 4.862684e+00 2.625804e-05 3.801040e-02 -3.686807e-01 4.120943e-01
-2.614536e-02 1.062654e+00 -4.547139e+00 4.931052e+00 5.973639e-05 3.793472e-02 -3.732900e-01 4.130872e-01
-5.073458e-02 1.059887e+00 -4.810172e+00 4.843001e+00 -7.338023e-05 3.711481e-02 -3.391609e-01 3.722433e-01
-5.919892e-02 1.062275e+00 -4.995703e+00 4.894608e+00 -4.988676e-05 3.673232e-02 -3.292214e-01 3.661232e-01
-6.897461e-02 1.053282e+00 -5.028880e+00 4.803566e+00 -3.942159e-04 3.765690e-02 -3.349386e-01 3.675313e-01
-5.222833e-02 1.053870e+00 -4.740620e+00 4.752298e+00 -4.252665e-04 3.808502e-02 -3.527108e-01 4.001126e-01
-1.435767e-02 1.068017e+00 -4.634883e+00 4.792258e+00 7.597253e-05 3.778431e-02 -3.592360e-01 3.997311e-01
-3.279954e-03 1.077674e+00 -4.554786e+00 4.969215e+00 4.454947e-04 3.671659e-02 -3.223888e-01 3.997311e-01
-7.760382e-03 1.074602e+00 -4.605319e+00 4.969215e+00 3.895896e-04 3.706451e-02 -3.444269e-01 3.886808e-01
-1.426373e-02 1.070689e+00 -4.639034e+00 4.885222e+00 2.835770e-04 3.685717e-02 -3.308403e-01 3.988957e-01
-1.023494e-02 1.074154e+00 -4.612303e+00 4.939778e+00 4.196755e-04 3.671875e-02 -3.288221e-01 4.005226e-01
-2.988062e-02 1.059429e+00 -4.688378e+00 4.781584e+00 -2.263916e-04 3.820682e-02 -3.681784e-01 4.044771e-01
-3.082180e-02 1.060319e+00 -4.688378e+00 4.823175e+00 -1.535264e-04 3.784637e-02 -3.673873e-01 4.044771e-01
-2.311643e-02 1.065708e+00 -4.655417e+00 4.865947e+00 1.701404e-04 3.722152e-02 -3.529802e-01 4.029519e-01
-2.873551e-02 1.060972e+00 -4.650764e+00 4.731291e+00 -1.583857e-04 3.824395e-02 -3.726050e-01 3.999481e-01
-2.769473e-02 1.061160e+00 -4.657509e+00 4.731291e+00 -1.440517e-04 3.776095e-02 -3.642328e-01 3.957620e-01
-2.005091e-02 1.066871e+00 -4.624621e+00 4.863459e+00 1.967579e-04 3.731165e-02 -3.508905e-01 4.066401e-01
-1.823674e-02 1.068764e+00 -4.624514e+00 4.877283e+00 2.821268e-04 3.710772e-02 -3.386338e-01 4.074899e-01
-3.478476e-02 1.057154e+00 -4.675987e+00 4.761846e+00 -2.251100e-04 3.837650e-02 -3.718860e-01 4.070122e-01
-3.525395e-02 1.056797e+00 -4.675987e+00 4.781062e+00 -2.339878e-04 3.835535e-02 -3.745968e-01 4.088315e-01
-2.561438e-02 1.069155e+00 -4.678074e+00 4.916851e+00 3.094125e-04 3.711180e-02 -3.524589e-01 4.104680e-01
-2.938239e-02 1.066551e+00 -4.678074e+00 4.852842e+00 1.516670e-04 3.707006e-02 -3.577898e-01 4.107544e-01
-3.490879e-02 1.060373e+00 -4.710099e+00 4.837523e+00 -2.053611e-05 3.785732e-02 -3.684265e-01 4.093802e-01
-3.269589e-02 1.062217e+00 -4.697460e+00 4.856982e+00 5.834150e-05 3.771878e-02 -3.665336e-01 4.067266e-01
-3.155929e-02 1.063611e+00 -4.696201e+00 4.870664e+00 1.126241e-04 3.758529e-02 -3.637874e-01 4.075808e-01
-2.996432e-02 1.065806e+00 -4.696908e+00 4.894109e+00 1.933489e-04 3.737293e-02 -3.591443e-01 4.097700e-01
-3.508550e-02 1.061451e+00 -4.709498e+00 4.846443e+00 4.360130e-05 3.763649e-02 -3.658976e-01 4.059578e-01
-4.100477e-02 1.058166e+00 -4.773532e+00 4.799486e+00 -1.262024e-04 3.798600e-02 -3.662996e-01 4.121821e-01
-3.906605e-02 1.060115e+00 -4.773532e+00 4.799486e+00 -2.832520e-05 3.810029e-02 -3.616044e-01 4.121821e-01
-4.161920e-02 1.058421e+00 -4.767091e+00 4.800423e+00 -1.279976e-04 3.805053e-02 -3.661339e-01 4.131193e-01
-4.433034e-02 1.057380e+00 -4.765914e+00 4.800423e+00 -2.277577e-04 3.829199e-02 -3.641114e-01 4.144846e-01
-4.492955e-02 1.057088e+00 -4.792673e+00 4.795390e+00 -2.301441e-04 3.824062e-02 -3.641114e-01 4.142617e-01
-3.005598e-02 1.071319e+00 -4.754952e+00 4.934409e+00 3.335842e-04 3.695572e-02 -3.487704e-01 4.109835e-01
-1.444313e-02 1.075701e+00 -4.792389e+00 5.018854e+00 3.356053e-04 3.783564e-02 -3.638605e-01 4.168037e-01
7.642926e-03 1.074666e+00 -4.330356e+00 4.909057e+00 2.587826e-04 3.825326e-02 -3.448932e-01 4.083332e-01
-7.355177e-03 1.062242e+00 -4.423064e+00 4.876169e+00 4.206371e-05 3.814781e-02 -3.772120e-01 4.060306e-01
-2.789704e-03 1.068201e+00 -4.426392e+00 4.932200e+00 3.217421e-04 3.734641e-02 -3.396965e-01 4.045052e-01
9.592603e-04 1.072202e+00 -4.414983e+00 4.965388e+00 4.402020e-04 3.702893e-02 -3.272926e-01 4.003274e-01
-3.201392e-02 1.052443e+00 -4.477755e+00 4.843410e+00 -2.733339e-04 3.893345e-02 -3.644050e-01 4.040106e-01
-4.068160e-02 1.056748e+00 -4.684323e+00 4.919636e+00 -2.713555e-04 3.800546e-02 -3.626164e-01 3.884718e-01
-3.669020e-02 1.055424e+00 -4.702971e+00 4.878772e+00 -6.053079e-05 3.761922e-02 -3.755461e-01 4.030429e-01
-2.800997e-02 1.065137e+00 -4.702971e+00 5.042475e+00 2.037856e-04 3.809269e-02 -3.755461e-01 3.909054e-01
-2.658550e-02 1.068037e+00 -4.691838e+00 5.042475e+00 2.288014e-04 3.680286e-02 -3.746803e-01 3.999303e-01
-4.025619e-02 1.052423e+00 -4.701099e+00 4.803440e+00 -1.920869e-04 3.806869e-02 -3.729074e-01 4.019660e-01
-3.798326e-02 1.055916e+00 -4.693704e+00 4.926810e+00 -1.079339e-04 3.757968e-02 -3.729074e-01 4.020666e-01
-3.899964e-02 1.053511e+00 -4.719830e+00 4.809362e+00 -1.718368e-04 3.807696e-02 -3.776390e-01 4.025135e-01
-3.552088e-02 1.057612e+00 -4.719830e+00 4.809362e+00 -4.586174e-05 3.758744e-02 -3.691732e-01 4.040842e-01
-3.860965e-02 1.054226e+00 -4.713591e+00 4.823982e+00 -1.634177e-04 3.805756e-02 -3.799741e-01 4.035758e-01
-3.839408e-02 1.054790e+00 -4.705330e+00 4.823982e+00 -1.437119e-04 3.783838e-02 -3.787549e-01 4.053769e-01
-3.285586e-02 1.059742e+00 -4.690896e+00 4.903807e+00 6.200552e-05 3.739159e-02 -3.756910e-01 4.009468e-01
-2.666411e-02 1.067687e+00 -4.669013e+00 4.993449e+00 2.840351e-04 3.678631e-02 -3.655884e-01 4.019169e-01
-3.181593e-02 1.062950e+00 -4.710582e+00 4.993449e+00 1.392576e-04 3.710817e-02 -3.626260e-01 4.019169e-01
-3.633573e-02 1.053790e+00 -4.635608e+00 4.801473e+00 -1.767806e-04 3.819971e-02 -3.830735e-01 4.044509e-01
-2.401366e-02 1.062209e+00 -4.635608e+00 4.801473e+00 1.118779e-04 3.840171e-02 -3.830735e-01 4.010414e-01
-2.089191e-02 1.068027e+00 -4.571965e+00 4.995574e+00 2.135449e-04 3.742577e-02 -3.796535e-01 4.041242e-01
-2.408041e-02 1.062344e+00 -4.625815e+00 4.902429e+00 1.375726e-04 3.750603e-02 -3.693284e-01 4.093888e-01
-1.382203e-02 1.073386e+00 -4.584821e+00 4.966632e+00 4.508275e-04 3.636182e-02 -3.257367e-01 4.043383e-01
-3.522174e-02 1.052220e+00 -4.683846e+00 4.762875e+00 -4.169250e-04 3.877689e-02 -3.910800e-01 4.004209e-01
-2.273357e-02 1.061487e+00 -4.673417e+00 4.861039e+00 7.286612e-05 3.755946e-02 -3.784242e-01 4.040790e-01
-2.458286e-02 1.060704e+00 -4.658298e+00 4.900998e+00 7.087802e-05 3.747995e-02 -3.720690e-01 4.036581e-01
-3.341433e-02 1.056798e+00 -4.701681e+00 4.837972e+00 -9.593369e-05 3.792373e-02 -3.808185e-01 3.976440e-01
-3.837245e-02 1.053849e+00 -4.753442e+00 4.837972e+00 -2.420686e-04 3.819003e-02 -3.837365e-01 4.053812e-01
-3.763294e-02 1.055420e+00 -4.739550e+00 4.782068e+00 -1.990015e-04 3.814311e-02 -3.837365e-01 4.016227e-01
-2.803897e-02 1.063312e+00 -4.708548e+00 4.924050e+00 1.452039e-04 3.719341e-02 -3.701282e-01 4.057150e-01
-3.063164e-02 1.061104e+00 -4.708548e+00 4.847354e+00 2.552306e-05 3.750272e-02 -3.705909e-01 4.057150e-01
-2.763430e-02 1.064165e+00 -4.714934e+00 4.904796e+00 1.685126e-04 3.721964e-02 -3.697240e-01 4.072191e-01
-2.841928e-02 1.063315e+00 -4.714934e+00 4.933368e+00 1.431861e-04 3.715445e-02 -3.677603e-01 4.072191e-01
-3.626854e-02 1.056398e+00 -4.758883e+00 4.848412e+00 -1.192554e-04 3.789622e-02 -3.828136e-01 4.054183e-01
-3.640483e-02 1.056937e+00 -4.750227e+00 4.835663e+00 -9.339110e-05 3.775799e-02 -3.828136e-01 4.054183e-01
-3.284992e-02 1.060390e+00 -4.741773e+00 4.888038e+00 4.122210e-05 3.749739e-02 -3.758222e-01 4.016870e-01
-2.370285e-02 1.070965e+00 -4.712643e+00 4.978789e+00 3.524922e-04 3.668207e-02 -3.496728e-01 4.072572e-01
-3.520659e-02 1.058835e+00 -4.760813e+00 4.886418e+00 -1.797750e-05 3.761904e-02 -3.807174e-01 4.049430e-01
-3.715952e-02 1.056830e+00 -4.747890e+00 4.859787e+00 -1.142480e-04 3.792475e-02 -3.807174e-01 4.049430e-01
-2.957592e-02 1.063483e+00 -4.747890e+00 4.987713e+00 7.991549e-05 3.783864e-02 -3.847559e-01 4.081564e-01
-2.433385e-02 1.069236e+00 -4.688765e+00 4.952055e+00 3.026852e-04 3.681559e-02 -3.605023e-01 4.084993e-01
-4.805402e-02 1.052047e+00 -4.832946e+00 4.797869e+00 -3.588733e-04 3.838470e-02 -3.764969e-01 4.041926e-01
-3.711788e-02 1.060442e+00 -4.808415e+00 4.884607e+00 4.272929e-05 3.756189e-02 -3.707675e-01 4.016335e-01
-3.959100e-02 1.057992e+00 -4.784049e+00 4.934396e+00 -4.940183e-05 3.794906e-02 -3.735903e-01 4.083699e-01
-3.280936e-02 1.062108e+00 -4.643203e+00 4.897075e+00 1.694267e-05 3.763269e-02 -3.653075e-01 4.178199e-01
-4.028435e-02 1.059780e+00 -4.799136e+00 4.831761e+00 -6.595478e-05 3.766061e-02 -3.763279e-01 4.108482e-01
-3.032277e-02 1.066179e+00 -4.799158e+00 4.933670e+00 2.036475e-04 3.730628e-02 -3.653350e-01 4.048241e-01
-2.570004e-02 1.068737e+00 -4.789083e+00 4.876162e+00 2.602493e-04 3.716824e-02 -3.507606e-01 4.064442e-01
-2.365706e-02 1.067088e+00 -4.647763e+00 4.818508e+00 9.882827e-05 3.824717e-02 -3.694600e-01 4.223676e-01
-2.306290e-02 1.067819e+00 -4.647763e+00 4.811466e+00 1.507095e-04 3.822151e-02 -3.621445e-01 4.211296e-01
-3.443816e-02 1.064210e+00 -4.754955e+00 4.836435e+00 8.729201e-05 3.792297e-02 -3.702615e-01 4.156250e-01
-4.027336e-02 1.060560e+00 -4.793561e+00 4.820185e+00 -7.760884e-05 3.823306e-02 -3.806420e-01 4.118952e-01
-4.071102e-02 1.060198e+00 -4.793561e+00 4.793905e+00 -6.836962e-05 3.822305e-02 -3.739759e-01 4.131829e-01
-3.516423e-02 1.064543e+00 -4.761340e+00 4.852380e+00 1.030589e-04 3.781291e-02 -3.672871e-01 4.160047e-01
-2.936617e-02 1.068486e+00 -4.720494e+00 4.886527e+00 2.440588e-04 3.759553e-02 -3.638668e-01 4.213252e-01
-3.597595e-02 1.062919e+00 -4.756103e+00 4.849410e+00 3.215446e-05 3.802136e-02 -3.754454e-01 4.173580e-01
-4.287190e-02 1.059436e+00 -4.806667e+00 4.770369e+00 -1.501257e-04 3.839134e-02 -3.788787e-01 4.162619e-01
-3.763757e-02 1.065384e+00 -4.806667e+00 4.770369e+00 6.438135e-05 3.793880e-02 -3.850976e-01 4.211795e-01
-3.488266e-02 1.065930e+00 -4.790240e+00 4.830761e+00 1.317759e-04 3.746502e-02 -3.605069e-01 4.098951e-01
-4.049529e-02 1.060569e+00 -4.779427e+00 4.810286e+00 -7.551440e-05 3.831749e-02 -3.809490e-01 4.168152e-01
-4.455220e-02 1.058101e+00 -4.803487e+00 4.768147e+00 -2.069452e-04 3.862128e-02 -3.879685e-01 4.201497e-01
-3.920389e-02 1.060671e+00 -4.764857e+00 4.768147e+00 5.862246e-05 3.844146e-02 -3.879685e-01 4.218361e-01
-3.757209e-02 1.065645e+00 -4.764857e+00 4.913118e+00 1.274289e-04 3.779476e-02 -3.716483e-01 4.218361e-01
-3.717475e-02 1.065117e+00 -4.795423e+00 4.887990e+00 9.691145e-05 3.796042e-02 -3.743061e-01 4.186875e-01
-3.961542e-02 1.062757e+00 -4.785355e+00 4.887990e+00 3.740905e-06 3.817761e-02 -3.858556e-01 4.204005e-01
-4.987715e-02 1.059624e+00 -4.950360e+00 4.819987e+00 -1.545978e-04 3.830001e-02 -3.750612e-01 4.204005e-01
-5.527810e-02 1.061124e+00 -4.953694e+00 4.826049e+00 -1.039536e-04 3.793114e-02 -3.698670e-01 4.216482e-01
-4.924543e-02 1.065937e+00 -4.926460e+00 4.875372e+00 7.584397e-05 3.758261e-02 -3.664684e-01 4.219066e-01
-4.177118e-02 1.069984e+00 -4.878754e+00 4.906125e+00 2.193815e-04 3.736093e-02 -3.575351e-01 4.136057e-01
-5.638826e-02 1.056337e+00 -4.910077e+00 4.706570e+00 -3.988489e-04 3.900192e-02 -3.798499e-01 4.193678e-01
-5.415176e-02 1.056666e+00 -4.910077e+00 4.773133e+00 -3.638735e-04 3.868620e-02 -3.801848e-01 4.237328e-01
-3.845305e-02 1.068903e+00 -4.828076e+00 4.883881e+00 2.002221e-04 3.760432e-02 -3.618981e-01 4.179781e-01
-4.222530e-02 1.063966e+00 -4.834928e+00 4.854177e+00 2.475805e-05 3.810866e-02 -3.667658e-01 4.215844e-01
-4.131763e-02 1.063900e+00 -4.807778e+00 4.849137e+00 1.214929e-05 3.816527e-02 -3.767589e-01 4.166552e-01
-4.368693e-02 1.062221e+00 -4.849784e+00 4.768937e+00 -8.136450e-05 3.836210e-02 -3.848905e-01 4.166552e-01
-5.145563e-02 1.058109e+00 -4.875156e+00 4.720224e+00 -3.274251e-04 3.894189e-02 -3.848905e-01 4.246522e-01
-4.686811e-02 1.060154e+00 -4.812578e+00 4.856355e+00 -1.555990e-04 3.891083e-02 -3.870678e-01 4.208899e-01
-4.651203e-02 1.061918e+00 -4.856552e+00 4.799078e+00 -7.850278e-05 3.829439e-02 -3.805708e-01 4.252459e-01
-4.068456e-02 1.067311e+00 -4.832859e+00 4.904776e+00 1.345808e-04 3.801653e-02 -3.720139e-01 4.209397e-01
-4.362549e-02 1.065260e+00 -4.832859e+00 4.904776e+00 5.554560e-05 3.817228e-02 -3.723154e-01 4.256211e-01
-4.636821e-02 1.063541e+00 -4.851114e+00 4.841288e+00 -2.152985e-05 3.821782e-02 -3.842062e-01 4.280613e-01
-4.698443e-02 1.063132e+00 -4.875689e+00 4.816070e+00 -1.709422e-05 3.831044e-02 -3.842062e-01 4.236569e-01
-4.240841e-02 1.066873e+00 -4.840272e+00 4.891374e+00 1.288763e-04 3.795703e-02 -3.754619e-01 4.236569e-01
-4.416593e-02 1.066573e+00 -4.874467e+00 4.891374e+00 5.387050e-05 3.796473e-02 -3.671664e-01 4.176265e-01
-4.373075e-02 1.064076e+00 -4.848835e+00 4.846869e+00 -5.569748e-05 3.841669e-02 -3.810106e-01 4.247390e-01
-3.395570e-02 1.066034e+00 -4.728393e+00 4.852298e+00 6.008205e-05 3.858652e-02 -3.860155e-01 4.218129e-01
-3.532344e-02 1.065775e+00 -4.766405e+00 4.792325e+00 1.153833e-05 3.853753e-02 -3.866951e-01 4.191230e-01
-3.204566e-02 1.070431e+00 -4.766405e+00 4.792325e+00 1.215793e-04 3.835378e-02 -3.877210e-01 4.284508e-01
-3.345056e-02 1.065726e+00 -4.777434e+00 4.763150e+00 1.514003e-04 3.852732e-02 -3.851504e-01 4.284508e-01
-3.652967e-02 1.068157e+00 -4.800197e+00 4.846362e+00 1.361709e-04 3.795706e-02 -3.731626e-01 4.260710e-01
-4.659977e-02 1.060698e+00 -4.859047e+00 4.818343e+00 -1.881853e-04 3.877350e-02 -3.873416e-01 4.268211e-01
-4.542621e-02 1.060877e+00 -4.859047e+00 4.862293e+00 -1.005247e-04 3.831002e-02 -3.960818e-01 4.205284e-01
-4.433347e-02 1.062207e+00 -4.836801e+00 4.816770e+00 -7.970510e-05 3.844354e-02 -3.870079e-01 4.242027e-01
-4.999836e-02 1.058763e+00 -4.861813e+00 4.774994e+00 -2.505211e-04 3.881191e-02 -3.950655e-01 4.273858e-01
-4.141864e-02 1.065714e+00 -4.831642e+00 4.861067e+00 6.484776e-05 3.809370e-02 -3.775251e-01 4.194904e-01
-3.397497e-02 1.073393e+00 -4.804086e+00 4.917556e+00 2.974734e-04 3.762167e-02 -3.660353e-01 4.272826e-01
-3.935789e-02 1.069225e+00 -4.846792e+00 4.813003e+00 1.019573e-04 3.759147e-02 -3.895939e-01 4.272826e-01
-3.826945e-02 1.068075e+00 -4.825991e+00 4.869504e+00 1.410141e-04 3.794095e-02 -3.769636e-01 4.188492e-01
-3.858849e-02 1.067700e+00 -4.824740e+00 4.890808e+00 1.360529e-04 3.802539e-02 -3.781461e-01 4.181939e-01
-4.717618e-02 1.061195e+00 -4.859726e+00 4.815369e+00 -1.435952e-04 3.862695e-02 -3.896327e-01 4.276525e-01
-5.040232e-02 1.058824e+00 -4.859726e+00 4.796126e+00 -2.584978e-04 3.883250e-02 -3.987099e-01 4.276525e-01
-4.602471e-02 1.062521e+00 -4.819799e+00 4.869816e+00 -1.313828e-04 3.872198e-02 -3.987099e-01 4.264497e-01
-5.569110e-02 1.058020e+00 -4.846718e+00 4.815799e+00 -2.877429e-04 3.896146e-02 -3.801863e-01 4.262791e-01
-5.721765e-02 1.060431e+00 -4.921190e+00 4.885052e+00 -1.653683e-04 3.881014e-02 -3.799140e-01 4.268546e-01
-5.369739e-02 1.062130e+00 -4.912958e+00 4.842307e+00 -1.185488e-04 3.832592e-02 -3.875112e-01 4.305854e-01
-4.996716e-02 1.061460e+00 -4.912254e+00 4.823648e+00 -1.253985e-04 3.839412e-02 -3.905220e-01 4.282204e-01
-3.891802e-02 1.068802e+00 -4.862052e+00 4.900816e+00 1.293152e-04 3.790930e-02 -3.767838e-01 4.213764e-01
-3.992453e-02 1.067432e+00 -4.835106e+00 4.814812e+00 7.137609e-05 3.796938e-02 -3.768941e-01 4.213764e-01
-3.891583e-02 1.067323e+00 -4.851170e+00 4.856776e+00 1.033698e-04 3.789627e-02 -3.748341e-01 4.174811e-01
-4.305811e-02 1.062039e+00 -4.870067e+00 4.767020e+00 -4.518794e-05 3.833932e-02 -3.950853e-01 4.251466e-01
-4.017938e-02 1.069075e+00 -4.870067e+00 4.767020e+00 7.167432e-06 3.820278e-02 -3.764619e-01 4.184113e-01
-4.067688e-02 1.067641e+00 -4.814437e+00 4.924307e+00 -2.698987e-05 3.821592e-02 -3.965648e-01 4.250701e-01
-4.284686e-02 1.063385e+00 -4.873559e+00 4.755175e+00 -9.208468e-05 3.856370e-02 -3.965648e-01 4.181113e-01
-4.608317e-02 1.061085e+00 -4.877514e+00 4.819457e+00 -1.793460e-04 3.876540e-02 -3.969880e-01 4.206810e-01
-4.801769e-02 1.059764e+00 -4.877514e+00 4.749038e+00 -1.975456e-04 3.864500e-02 -3.969880e-01 4.241943e-01
-3.705957e-02 1.071978e+00 -4.845905e+00 4.878372e+00 2.254390e-04 3.766468e-02 -3.658727e-01 4.162386e-01
-3.847665e-02 1.070242e+00 -4.845905e+00 4.921463e+00 1.948543e-04 3.756719e-02 -3.652119e-01 4.141589e-01
-4.975203e-02 1.059808e+00 -4.898758e+00 4.779762e+00 -2.122727e-04 3.856776e-02 -3.922358e-01 4.254509e-01
-4.927505e-02 1.064245e+00 -4.881995e+00 4.790169e+00 -3.595012e-05 3.815163e-02 -3.746092e-01 4.225853e-01
-4.931215e-02 1.068982e+00 -4.980969e+00 4.819884e+00 8.513650e-05 3.774485e-02 -3.691526e-01 4.249374e-01
-4.527046e-02 1.065669e+00 -4.992042e+00 4.762588e+00 -4.876749e-05 3.835507e-02 -3.670526e-01 4.270894e-01
-4.007491e-02 1.064575e+00 -4.865395e+00 4.730528e+00 -1.392670e-04 3.866593e-02 -3.798527e-01 4.186081e-01
-3.790168e-02 1.066618e+00 -4.875514e+00 4.769283e+00 -7.999533e-06 3.828562e-02 -3.756732e-01 4.147735e-01
-3.011531e-02 1.075199e+00 -4.873309e+00 4.842021e+00 3.266652e-04 3.759847e-02 -3.534059e-01 4.257420e-01
-5.615344e-02 1.064090e+00 -4.943902e+00 4.829402e+00 -8.355690e-05 3.843983e-02 -3.830470e-01 4.251067e-01
-6.910784e-02 1.067774e+00 -5.137867e+00 4.798980e+00 -1.484268e-04 3.835221e-02 -3.829851e-01 4.260209e-01
-6.462599e-02 1.073900e+00 -5.137867e+00 4.875938e+00 -6.434629e-05 3.774785e-02 -3.829851e-01 4.375050e-01
-5.970093e-02 1.076346e+00 -5.080389e+00 4.855774e+00 1.269343e-04 3.770612e-02 -3.816836e-01 4.360399e-01
-7.724357e-02 1.063475e+00 -5.180279e+00 4.734805e+00 -3.705998e-04 3.867517e-02 -3.769728e-01 4.207327e-01
-6.678939e-02 1.071842e+00 -5.142628e+00 4.864172e+00 -1.292936e-05 3.789744e-02 -3.825924e-01 4.243136e-01
-5.874623e-02 1.073247e+00 -5.009839e+00 4.864172e+00 5.537881e-05 3.794358e-02 -3.825924e-01 4.360538e-01
-5.227545e-02 1.071443e+00 -4.999803e+00 4.825151e+00 -8.544259e-06 3.834101e-02 -3.892866e-01 4.358813e-01
-5.607008e-02 1.068277e+00 -5.004783e+00 4.807266e+00 -1.445140e-04 3.877283e-02 -4.013956e-01 4.358913e-01
-5.756914e-02 1.068180e+00 -5.019872e+00 4.796403e+00 -1.712629e-04 3.860768e-02 -3.971376e-01 4.323139e-01
-5.029087e-02 1.079542e+00 -5.007735e+00 4.914078e+00 2.432101e-04 3.766262e-02 -3.735317e-01 4.354837e-01
-5.342243e-02 1.073230e+00 -5.042097e+00 4.839232e+00 6.402465e-05 3.808969e-02 -3.934816e-01 4.349268e-01
-5.017888e-02 1.072890e+00 -4.969097e+00 4.881314e+00 8.200173e-05 3.832718e-02 -3.959303e-01 4.349268e-01
-6.744054e-02 1.064140e+00 -5.112645e+00 4.802518e+00 -2.432551e-04 3.849414e-02 -3.958301e-01 4.195372e-01
-6.361066e-02 1.067463e+00 -5.099387e+00 4.840693e+00 -1.150985e-04 3.819625e-02 -3.958130e-01 4.267521e-01
-5.523699e-02 1.075416e+00 -5.062597e+00 4.916753e+00 1.297634e-04 3.765144e-02 -3.852238e-01 4.353922e-01
-6.085537e-02 1.068927e+00 -5.088214e+00 4.812104e+00 -6.456322e-05 3.830438e-02 -3.907236e-01 4.255009e-01
-6.418498e-02 1.066110e+00 -5.088214e+00 4.823412e+00 -1.719945e-04 3.842257e-02 -3.980629e-01 4.255009e-01
-6.320892e-02 1.069430e+00 -5.104619e+00 4.848449e+00 -7.578389e-05 3.819280e-02 -3.952743e-01 4.323047e-01
-5.740047e-02 1.074934e+00 -5.079625e+00 4.900169e+00 9.643823e-05 3.782235e-02 -3.874776e-01 4.381545e-01
-5.174480e-02 1.072851e+00 -5.071754e+00 4.915064e+00 9.415999e-05 3.782578e-02 -3.932951e-01 4.286764e-01
-3.559395e-02 1.073564e+00 -4.856644e+00 4.908349e+00 1.721437e-04 3.789400e-02 -3.944967e-01 4.138445e-01
-4.018673e-02 1.066886e+00 -4.871462e+00 4.858510e+00 -3.611115e-05 3.840884e-02 -4.019536e-01 4.210514e-01
-4.205720e-02 1.065468e+00 -4.871462e+00 4.829333e+00 -9.128010e-05 3.855760e-02 -3.998243e-01 4.214651e-01
-4.003476e-02 1.068067e+00 -4.889996e+00 4.829333e+00 -2.627400e-05 3.821530e-02 -3.998243e-01 4.224413e-01
-4.014170e-02 1.067914e+00 -4.886013e+00 4.873824e+00 1.116101e-05 3.816454e-02 -3.986326e-01 4.207330e-01
-4.301060e-02 1.064949e+00 -4.893849e+00 4.834639e+00 -1.106784e-04 3.855144e-02 -3.996440e-01 4.225482e-01
-3.781615e-02 1.066834e+00 -4.875661e+00 4.811615e+00 -2.667813e-05 3.845633e-02 -3.981807e-01 4.174097e-01
-2.957410e-02 1.069613e+00 -4.812018e+00 4.822579e+00 6.824239e-05 3.849136e-02 -4.106422e-01 4.219104e-01
-2.522611e-02 1.071575e+00 -4.673995e+00 4.867011e+00 8.921393e-05 3.824810e-02 -4.110976e-01 4.250511e-01
9.779892e-03 1.093718e+00 -4.541545e+00 4.767241e+00 4.425432e-04 3.810852e-02 -3.815764e-01 4.285286e-01
1.060322e-02 1.097572e+00 -4.706447e+00 4.808824e+00 6.542434e-04 3.695656e-02 -3.832350e-01 4.135150e-01
-2.795297e-02 1.066455e+00 -4.911141e+00 4.739246e+00 -1.192073e-04 3.777201e-02 -3.946341e-01 3.933066e-01
-2.241670e-02 1.072802e+00 -4.889006e+00 4.794398e+00 1.125371e-04 3.716699e-02 -3.880871e-01 4.014324e-01
-1.553797e-02 1.081346e+00 -4.861905e+00 4.860269e+00 3.227875e-04 3.664064e-02 -3.697160e-01 4.084173e-01
-3.170152e-02 1.064558e+00 -4.904043e+00 4.670076e+00 -1.905312e-04 3.807628e-02 -4.068633e-01 4.006049e-01
-2.841518e-02 1.067362e+00 -4.869735e+00 4.790914e+00 -7.110609e-05 3.798593e-02 -4.068633e-01 4.057328e-01
-2.935990e-02 1.067802e+00 -4.898412e+00 4.729894e+00 -9.049187e-05 3.781916e-02 -3.966383e-01 3.973808e-01
-3.995058e-02 1.061413e+00 -4.937989e+00 4.629037e+00 -4.491644e-04 3.880237e-02 -4.135039e-01 4.048945e-01
-1.626045e-02 1.076382e+00 -4.339648e+00 4.584696e+00 4.517054e-05 3.941504e-02 -4.029492e-01 4.399185e-01
2.866576e-03 1.093298e+00 -4.339648e+00 4.760266e+00 3.599290e-04 3.909899e-02 -4.029492e-01 4.455666e-01
-3.249149e-02 1.077173e+00 -4.776927e+00 4.727313e+00 1.926509e-04 3.828843e-02 -3.951434e-01 4.340605e-01
-4.748188e-02 1.067062e+00 -4.832958e+00 4.628624e+00 -1.735781e-04 3.876628e-02 -4.032404e-01 4.315904e-01
-4.145956e-02 1.072778e+00 -4.765766e+00 4.600237e+00 -4.554082e-06 3.868203e-02 -4.002471e-01 4.310400e-01
-3.970100e-02 1.074755e+00 -4.823873e+00 4.749870e+00 5.647180e-05 3.828318e-02 -3.965345e-01 4.132007e-01
