4.213850e+02 7.481108e-01 -9.269413e-03 5.816193e-01 -9.992676e-01 9.965820e-01
3.164338e+02 4.811083e-01 -1.169024e-02 5.817888e-01 -1.171875e+00 1.036621e+00
3.144873e+02 4.811083e-01 -1.251883e-02 5.819471e-01 -1.212402e+00 1.045654e+00
3.137119e+02 4.811083e-01 -1.263565e-02 5.819467e-01 -1.229004e+00 1.042480e+00
3.132793e+02 4.811083e-01 -1.261622e-02 5.818855e-01 -1.221191e+00 1.042236e+00
3.128757e+02 4.811083e-01 -1.261293e-02 5.818343e-01 -1.222168e+00 1.046875e+00
3.130967e+02 4.811083e-01 -1.260143e-02 5.817945e-01 -1.220215e+00 1.052490e+00
3.124500e+02 4.811083e-01 -1.258914e-02 5.817785e-01 -1.225830e+00 1.056885e+00
3.132861e+02 4.811083e-01 -1.257306e-02 5.817326e-01 -1.226318e+00 1.062256e+00
3.126157e+02 4.811083e-01 -1.254806e-02 5.816987e-01 -1.224121e+00 1.067871e+00
3.109045e+02 4.811083e-01 -1.253684e-02 5.816960e-01 -1.222900e+00 1.071289e+00
3.116045e+02 4.811083e-01 -1.252462e-02 5.816622e-01 -1.231689e+00 1.075195e+00
3.097971e+02 4.811083e-01 -1.251698e-02 5.816522e-01 -1.221924e+00 1.077881e+00
3.099482e+02 4.811083e-01 -1.249769e-02 5.816567e-01 -1.227539e+00 1.083984e+00
3.106108e+02 4.811083e-01 -1.248111e-02 5.816593e-01 -1.227783e+00 1.089600e+00
3.099104e+02 4.811083e-01 -1.245467e-02 5.816636e-01 -1.235107e+00 1.095459e+00
3.108499e+02 4.811083e-01 -1.243410e-02 5.816636e-01 -1.231445e+00 1.100830e+00
3.115710e+02 4.811083e-01 -1.240945e-02 5.816835e-01 -1.232422e+00 1.107910e+00
3.112402e+02 4.811083e-01 -1.239173e-02 5.817091e-01 -1.236328e+00 1.113770e+00
3.105574e+02 4.811083e-01 -1.236643e-02 5.817015e-01 -1.230225e+00 1.114258e+00
3.103372e+02 4.811083e-01 -1.233814e-02 5.817298e-01 -1.235840e+00 1.121826e+00
3.100852e+02 4.811083e-01 -1.231220e-02 5.817501e-01 -1.235596e+00 1.128418e+00
3.098135e+02 4.811083e-01 -1.228998e-02 5.817953e-01 -1.240479e+00 1.134277e+00
3.099014e+02 4.811083e-01 -1.226776e-02 5.818284e-01 -1.240723e+00 1.138916e+00
3.107795e+02 4.811083e-01 -1.222832e-02 5.818726e-01 -1.250244e+00 1.145996e+00
3.095347e+02 4.811083e-01 -1.220746e-02 5.818952e-01 -1.244873e+00 1.147949e+00
3.106667e+02 4.811083e-01 -1.216588e-02 5.819447e-01 -1.247559e+00 1.154053e+00
3.092148e+02 4.811083e-01 -1.214323e-02 5.819736e-01 -1.244873e+00 1.162842e+00
3.082378e+02 4.811083e-01 -1.209914e-02 5.820477e-01 -1.243408e+00 1.165283e+00
3.079915e+02 4.811083e-01 -1.206421e-02 5.820891e-01 -1.247314e+00 1.172363e+00
3.095786e+02 4.811083e-01 -1.204649e-02 5.821392e-01 -1.258057e+00 1.185303e+00
3.088428e+02 4.811083e-01 -1.201090e-02 5.822400e-01 -1.249512e+00 1.186523e+00
3.088335e+02 4.811083e-01 -1.197261e-02 5.822952e-01 -1.258789e+00 1.192627e+00
3.088459e+02 4.811083e-01 -1.193495e-02 5.823559e-01 -1.260498e+00 1.200439e+00
3.083704e+02 4.811083e-01 -1.192009e-02 5.824056e-01 -1.262939e+00 1.209717e+00
3.081628e+02 4.811083e-01 -1.186772e-02 5.825039e-01 -1.263428e+00 1.214844e+00
3.086052e+02 4.811083e-01 -1.183378e-02 5.825875e-01 -1.267090e+00 1.225830e+00
3.085969e+02 4.811083e-01 -1.178877e-02 5.826858e-01 -1.270020e+00 1.231934e+00
3.083591e+02 4.811083e-01 -1.174176e-02 5.827720e-01 -1.261475e+00 1.235840e+00
3.081570e+02 4.811083e-01 -1.170482e-02 5.828887e-01 -1.265381e+00 1.244385e+00
3.079673e+02 4.811083e-01 -1.167059e-02 5.829866e-01 -1.269531e+00 1.255615e+00
3.069065e+02 4.811083e-01 -1.160679e-02 5.831179e-01 -1.272461e+00 1.266113e+00
3.078081e+02 4.811083e-01 -1.156349e-02 5.832432e-01 -1.274658e+00 1.270996e+00
3.080215e+02 4.811083e-01 -1.149583e-02 5.833396e-01 -1.279053e+00 1.278076e+00
3.071426e+02 4.811083e-01 -1.143917e-02 5.834503e-01 -1.283691e+00 1.287598e+00
3.071025e+02 4.811083e-01 -1.137601e-02 5.836008e-01 -1.288574e+00 1.295410e+00
3.074351e+02 4.811083e-01 -1.132435e-02 5.837294e-01 -1.288330e+00 1.302246e+00
3.071514e+02 4.811083e-01 -1.126183e-02 5.838767e-01 -1.288818e+00 1.310791e+00
3.070063e+02 4.811083e-01 -1.121732e-02 5.840105e-01 -1.290527e+00 1.319824e+00
3.061775e+02 4.811083e-01 -1.115188e-02 5.841739e-01 -1.298828e+00 1.330322e+00
3.055481e+02 4.811083e-01 -1.109236e-02 5.843344e-01 -1.305420e+00 1.340088e+00
3.058079e+02 4.811083e-01 -1.102512e-02 5.845039e-01 -1.300781e+00 1.351318e+00
3.045085e+02 4.811083e-01 -1.096761e-02 5.846529e-01 -1.313232e+00 1.365967e+00
3.055696e+02 4.811083e-01 -1.088587e-02 5.848529e-01 -1.323486e+00 1.370850e+00
3.048462e+02 4.811083e-01 -1.083786e-02 5.850274e-01 -1.317871e+00 1.382324e+00
3.044265e+02 4.811083e-01 -1.076584e-02 5.852432e-01 -1.322998e+00 1.392822e+00
3.046047e+02 4.811083e-01 -1.068967e-02 5.854569e-01 -1.328613e+00 1.404297e+00
3.040981e+02 4.811083e-01 -1.063151e-02 5.856724e-01 -1.333984e+00 1.417236e+00
3.045762e+02 4.811083e-01 -1.054356e-02 5.859121e-01 -1.341553e+00 1.430176e+00
3.041794e+02 4.811083e-01 -1.045503e-02 5.861330e-01 -1.338135e+00 1.440430e+00
3.039814e+02 4.811083e-01 -1.038409e-02 5.863939e-01 -1.343750e+00 1.451172e+00
3.032178e+02 4.811083e-01 -1.031357e-02 5.866482e-01 -1.347168e+00 1.462891e+00
3.009375e+02 4.811083e-01 -1.020932e-02 5.869019e-01 -1.355957e+00 1.480713e+00
3.008569e+02 4.811083e-01 -1.013680e-02 5.872269e-01 -1.360352e+00 1.491699e+00
3.002742e+02 4.811083e-01 -1.003477e-02 5.875209e-01 -1.367920e+00 1.508057e+00
2.998264e+02 4.811083e-01 -9.939460e-03 5.878329e-01 -1.376465e+00 1.522705e+00
2.996465e+02 4.811083e-01 -9.853293e-03 5.881544e-01 -1.384033e+00 1.536133e+00
2.992214e+02 4.811083e-01 -9.729186e-03 5.884977e-01 -1.390137e+00 1.551270e+00
2.982881e+02 4.811083e-01 -9.639446e-03 5.888611e-01 -1.400146e+00 1.570312e+00
2.982173e+02 4.823678e-01 -9.530916e-03 5.892596e-01 -1.406738e+00 1.581055e+00
2.965525e+02 4.823678e-01 -9.434674e-03 5.896163e-01 -1.406250e+00 1.596191e+00
2.952153e+02 4.798489e-01 -9.340219e-03 5.900156e-01 -1.417236e+00 1.615723e+00
2.948730e+02 4.836272e-01 -9.197107e-03 5.904401e-01 -1.423584e+00 1.631592e+00
2.942490e+02 4.836272e-01 -9.077144e-03 5.909016e-01 -1.430176e+00 1.649902e+00
2.924202e+02 4.836272e-01 -8.978473e-03 5.913496e-01 -1.441895e+00 1.669678e+00
2.919617e+02 4.836272e-01 -8.876945e-03 5.918666e-01 -1.449219e+00 1.684570e+00
2.908438e+02 4.836272e-01 -8.751123e-03 5.923714e-01 -1.460938e+00 1.705322e+00
2.891155e+02 4.785894e-01 -8.643950e-03 5.929029e-01 -1.469482e+00 1.723877e+00
2.876846e+02 4.785894e-01 -8.520629e-03 5.934128e-01 -1.476562e+00 1.740723e+00
2.870479e+02 4.760705e-01 -8.401524e-03 5.939413e-01 -1.483643e+00 1.760254e+00
2.853003e+02 4.785894e-01 -8.279418e-03 5.945286e-01 -1.493164e+00 1.782959e+00
2.849473e+02 4.609572e-01 -8.143094e-03 5.951236e-01 -1.500488e+00 1.796143e+00
2.832615e+02 4.710327e-01 -8.023631e-03 5.957545e-01 -1.514160e+00 1.817627e+00
2.808491e+02 4.647355e-01 -7.895309e-03 5.963854e-01 -1.527100e+00 1.838623e+00
2.802732e+02 4.659950e-01 -7.850725e-03 5.970211e-01 -1.534424e+00 1.859619e+00
2.774734e+02 4.596977e-01 -7.664958e-03 5.976805e-01 -1.546143e+00 1.881348e+00
2.764348e+02 4.559194e-01 -7.608299e-03 5.983412e-01 -1.562988e+00 1.902588e+00
2.755342e+02 4.571788e-01 -7.491623e-03 5.990462e-01 -1.568604e+00 1.920898e+00
2.733831e+02 4.596977e-01 -7.370303e-03 5.997296e-01 -1.577148e+00 1.939697e+00
2.722366e+02 4.508816e-01 -7.235051e-03 6.004184e-01 -1.587158e+00 1.955811e+00
2.705776e+02 4.508816e-01 -7.157886e-03 6.011279e-01 -1.604004e+00 1.982910e+00
2.690613e+02 4.445844e-01 -7.069361e-03 6.018634e-01 -1.614014e+00 1.998779e+00
2.672534e+02 4.370277e-01 -6.921104e-03 6.025508e-01 -1.621582e+00 2.013916e+00
2.656411e+02 4.206549e-01 -6.773634e-03 6.032515e-01 -1.636475e+00 2.031494e+00
2.636343e+02 4.269521e-01 -6.713117e-03 6.039372e-01 -1.642090e+00 2.050537e+00
2.626753e+02 4.319899e-01 -6.656315e-03 6.046615e-01 -1.654053e+00 2.071045e+00
2.599373e+02 4.269521e-01 -6.563074e-03 6.053467e-01 -1.660645e+00 2.085938e+00
2.584363e+02 4.206549e-01 -6.436038e-03 6.060028e-01 -1.672607e+00 2.103271e+00
2.577898e+02 4.282116e-01 -6.392955e-03 6.066584e-01 -1.683350e+00 2.121826e+00
2.572458e+02 4.294710e-01 -6.303358e-03 6.073143e-01 -1.698486e+00 2.144043e+00
2.544663e+02 4.042821e-01 -6.286353e-03 6.079234e-01 -1.701660e+00 2.148926e+00
2.536021e+02 4.055416e-01 -6.212189e-03 6.085763e-01 -1.706299e+00 2.164795e+00
2.524568e+02 4.156171e-01 -6.139883e-03 6.092142e-01 -1.721680e+00 2.183838e+00
2.516440e+02 4.105793e-01 -6.131095e-03 6.098462e-01 -1.727051e+00 2.194336e+00
2.499453e+02 4.080605e-01 -6.165462e-03 6.104387e-01 -1.734863e+00 2.206055e+00
2.488354e+02 4.042821e-01 -6.080438e-03 6.109887e-01 -1.744385e+00 2.222656e+00
2.480142e+02 3.979849e-01 -6.080723e-03 6.115432e-01 -1.751953e+00 2.239014e+00
2.469314e+02 4.030227e-01 -6.039140e-03 6.120144e-01 -1.761475e+00 2.261230e+00
2.460527e+02 4.030227e-01 -6.030066e-03 6.125412e-01 -1.771240e+00 2.276367e+00
2.453987e+02 3.954660e-01 -5.970549e-03 6.130530e-01 -1.778320e+00 2.286621e+00
2.450540e+02 3.967254e-01 -5.997914e-03 6.135319e-01 -1.783936e+00 2.305420e+00
2.437798e+02 3.954660e-01 -5.994771e-03 6.140397e-01 -1.791992e+00 2.321533e+00
2.421104e+02 3.929471e-01 -6.029423e-03 6.144655e-01 -1.796875e+00 2.335693e+00
2.418547e+02 4.017632e-01 -6.083510e-03 6.149328e-01 -1.805664e+00 2.351074e+00
2.406565e+02 3.967254e-01 -6.071292e-03 6.153538e-01 -1.811768e+00 2.361572e+00
2.394197e+02 4.042821e-01 -6.094227e-03 6.157178e-01 -1.818115e+00 2.377686e+00
2.380686e+02 3.891688e-01 -6.109160e-03 6.161137e-01 -1.823486e+00 2.384521e+00
2.372966e+02 3.853904e-01 -6.114662e-03 6.164964e-01 -1.829834e+00 2.396973e+00
2.371096e+02 3.866499e-01 -6.071578e-03 6.168968e-01 -1.835205e+00 2.408447e+00
2.366406e+02 3.866499e-01 -6.140740e-03 6.173008e-01 -1.841553e+00 2.416992e+00
2.359768e+02 3.866499e-01 -6.107803e-03 6.176171e-01 -1.846191e+00 2.427979e+00
2.347285e+02 3.853904e-01 -6.020349e-03 6.179667e-01 -1.852783e+00 2.437744e+00
2.338533e+02 3.803526e-01 -6.091727e-03 6.182392e-01 -1.857910e+00 2.449219e+00
2.332888e+02 3.790932e-01 -6.053073e-03 6.185644e-01 -1.861816e+00 2.456787e+00
2.326624e+02 3.765743e-01 -6.036568e-03 6.189225e-01 -1.866943e+00 2.463623e+00
2.318245e+02 3.727960e-01 -5.967977e-03 6.192515e-01 -1.871826e+00 2.473633e+00
2.314053e+02 3.740554e-01 -5.978409e-03 6.195549e-01 -1.875732e+00 2.479248e+00
2.308140e+02 3.702771e-01 -5.813862e-03 6.198473e-01 -1.880615e+00 2.490723e+00
2.303193e+02 3.727960e-01 -5.758489e-03 6.201534e-01 -1.884766e+00 2.495361e+00
2.298882e+02 3.778338e-01 -5.717478e-03 6.203997e-01 -1.889648e+00 2.501709e+00
2.291414e+02 3.740554e-01 -5.681825e-03 6.206715e-01 -1.891602e+00 2.505615e+00
2.294155e+02 3.740554e-01 -5.649101e-03 6.209644e-01 -1.899902e+00 2.515869e+00
2.293342e+02 3.740554e-01 -5.517635e-03 6.212214e-01 -1.900879e+00 2.518311e+00
2.283708e+02 3.614610e-01 -5.461977e-03 6.215375e-01 -1.907227e+00 2.533203e+00
2.279807e+02 3.727960e-01 -5.325867e-03 6.218327e-01 -1.909180e+00 2.529785e+00
2.274543e+02 3.690176e-01 -5.258205e-03 6.220466e-01 -1.910645e+00 2.533691e+00
2.278479e+02 3.690176e-01 -5.161320e-03 6.222717e-01 -1.915039e+00 2.536621e+00
2.270317e+02 3.589421e-01 -5.105590e-03 6.225915e-01 -1.918457e+00 2.545166e+00
2.272451e+02 3.602015e-01 -4.998917e-03 6.227773e-01 -1.918945e+00 2.546875e+00
2.265742e+02 3.551637e-01 -4.938685e-03 6.230257e-01 -1.922119e+00 2.556152e+00
2.261038e+02 3.614610e-01 -4.820152e-03 6.233068e-01 -1.925781e+00 2.558838e+00
2.263149e+02 3.627204e-01 -4.792001e-03 6.235440e-01 -1.928711e+00 2.558594e+00
2.251360e+02 3.602015e-01 -4.718552e-03 6.237405e-01 -1.932861e+00 2.560547e+00
2.238723e+02 3.501259e-01 -4.736628e-03 6.239908e-01 -1.933350e+00 2.568115e+00
2.237219e+02 3.576826e-01 -4.587515e-03 6.242762e-01 -1.938477e+00 2.571289e+00
2.243618e+02 3.589421e-01 -4.456120e-03 6.245030e-01 -1.942627e+00 2.574707e+00
2.243508e+02 3.664987e-01 -4.410250e-03 6.247521e-01 -1.943848e+00 2.578369e+00
2.233179e+02 3.589421e-01 -4.382242e-03 6.250325e-01 -1.946777e+00 2.581055e+00
2.231687e+02 3.602015e-01 -4.377169e-03 6.251852e-01 -1.948730e+00 2.580078e+00
2.233879e+02 3.614610e-01 -4.342731e-03 6.254835e-01 -1.950684e+00 2.583740e+00
2.228586e+02 3.576826e-01 -4.252991e-03 6.257212e-01 -1.954102e+00 2.591064e+00
2.224675e+02 3.602015e-01 -4.206764e-03 6.260047e-01 -1.955811e+00 2.594727e+00
2.224236e+02 3.564232e-01 -4.167753e-03 6.262315e-01 -1.957764e+00 2.594482e+00
2.213882e+02 3.602015e-01 -4.024926e-03 6.264655e-01 -1.960938e+00 2.596924e+00
2.212161e+02 3.551637e-01 -3.991560e-03 6.267048e-01 -1.963867e+00 2.596924e+00
2.214763e+02 3.488665e-01 -3.922112e-03 6.269701e-01 -1.964844e+00 2.603760e+00
2.212788e+02 3.551637e-01 -3.880528e-03 6.272023e-01 -1.966553e+00 2.604736e+00
2.210256e+02 3.526448e-01 -3.829443e-03 6.273974e-01 -1.970215e+00 2.604004e+00
2.210730e+02 3.513854e-01 -3.752492e-03 6.276740e-01 -1.973145e+00 2.607910e+00
2.208555e+02 3.526448e-01 -3.584230e-03 6.278774e-01 -1.973389e+00 2.609619e+00
2.206074e+02 3.539043e-01 -3.612738e-03 6.280746e-01 -1.976562e+00 2.609619e+00
2.203352e+02 3.501259e-01 -3.520355e-03 6.282862e-01 -1.979492e+00 2.612305e+00
2.204077e+02 3.501259e-01 -3.571870e-03 6.285396e-01 -1.983887e+00 2.614014e+00
2.201689e+02 3.413098e-01 -3.593733e-03 6.287581e-01 -1.984863e+00 2.619629e+00
2.199263e+02 3.413098e-01 -3.510424e-03 6.290154e-01 -1.985352e+00 2.622559e+00
2.193613e+02 3.476071e-01 -3.411538e-03 6.292237e-01 -1.991211e+00 2.628662e+00
2.182607e+02 3.400504e-01 -3.419040e-03 6.294273e-01 -1.992920e+00 2.633789e+00
2.187039e+02 3.476071e-01 -3.328300e-03 6.296926e-01 -1.996094e+00 2.636963e+00
2.187773e+02 3.476071e-01 -3.274214e-03 6.298758e-01 -1.999268e+00 2.642334e+00
2.183525e+02 3.413098e-01 -3.273571e-03 6.300390e-01 -2.000977e+00 2.645264e+00
2.182673e+02 3.476071e-01 -3.282073e-03 6.302113e-01 -2.004150e+00 2.648682e+00
2.183218e+02 3.387909e-01 -3.187118e-03 6.304870e-01 -2.006592e+00 2.653564e+00
2.182407e+02 3.488665e-01 -3.084803e-03 6.307182e-01 -2.009277e+00 2.655518e+00
2.172751e+02 3.450882e-01 -3.047721e-03 6.308835e-01 -2.013428e+00 2.660645e+00
2.174583e+02 3.425693e-01 -3.020713e-03 6.310924e-01 -2.015381e+00 2.664795e+00
2.169814e+02 3.501259e-01 -3.034003e-03 6.313310e-01 -2.017334e+00 2.667236e+00
2.172627e+02 3.400504e-01 -3.015998e-03 6.315214e-01 -2.021484e+00 2.671631e+00
2.167122e+02 3.387909e-01 -3.023000e-03 6.317585e-01 -2.021240e+00 2.676025e+00
2.163923e+02 3.438287e-01 -3.010425e-03 6.319371e-01 -2.025146e+00 2.679443e+00
2.165137e+02 3.425693e-01 -3.018641e-03 6.321380e-01 -2.026855e+00 2.680420e+00
2.165474e+02 3.450882e-01 -3.014069e-03 6.323866e-01 -2.030029e+00 2.686035e+00
2.167900e+02 3.438287e-01 -2.967484e-03 6.326257e-01 -2.036621e+00 2.689941e+00
2.164648e+02 3.463476e-01 -2.972914e-03 6.328306e-01 -2.039062e+00 2.694336e+00
2.160447e+02 3.463476e-01 -3.055938e-03 6.330507e-01 -2.043213e+00 2.699463e+00
2.156853e+02 3.463476e-01 -3.037075e-03 6.332689e-01 -2.042969e+00 2.702881e+00
2.154478e+02 3.400504e-01 -3.014354e-03 6.335191e-01 -2.048340e+00 2.708496e+00
2.152656e+02 3.425693e-01 -2.984489e-03 6.338034e-01 -2.052002e+00 2.711670e+00
2.156443e+02 3.387909e-01 -3.023643e-03 6.340583e-01 -2.053711e+00 2.715576e+00
2.154001e+02 3.362720e-01 -3.013283e-03 6.342398e-01 -2.055420e+00 2.718994e+00
2.148518e+02 3.299748e-01 -3.056938e-03 6.345006e-01 -2.058838e+00 2.722412e+00
2.153079e+02 3.324937e-01 -2.973271e-03 6.347029e-01 -2.062500e+00 2.729980e+00
2.145193e+02 3.312343e-01 -2.963983e-03 6.349848e-01 -2.065918e+00 2.735840e+00
2.141060e+02 3.274559e-01 -2.982703e-03 6.352218e-01 -2.070068e+00 2.738281e+00
2.141926e+02 3.312343e-01 -2.999922e-03 6.354558e-01 -2.074219e+00 2.742676e+00
2.146211e+02 3.425693e-01 -3.016927e-03 6.356964e-01 -2.079834e+00 2.751465e+00
2.132280e+02 3.350126e-01 -2.923329e-03 6.359268e-01 -2.081299e+00 2.751221e+00
2.129575e+02 3.337531e-01 -2.952837e-03 6.361207e-01 -2.085938e+00 2.755127e+00
2.135874e+02 3.450882e-01 -2.959124e-03 6.363908e-01 -2.085938e+00 2.759033e+00
2.133491e+02 3.362720e-01 -2.938619e-03 6.366081e-01 -2.088867e+00 2.764160e+00
2.134109e+02 3.463476e-01 -2.907467e-03 6.368771e-01 -2.091797e+00 2.768555e+00
2.130974e+02 3.476071e-01 -2.834018e-03 6.371720e-01 -2.096436e+00 2.775879e+00
2.129265e+02 3.413098e-01 -2.840948e-03 6.374288e-01 -2.098633e+00 2.780029e+00
2.126509e+02 3.375315e-01 -2.825658e-03 6.376993e-01 -2.102783e+00 2.784424e+00
2.124790e+02 3.324937e-01 -2.845949e-03 6.379342e-01 -2.106689e+00 2.788818e+00
2.122581e+02 3.312343e-01 -2.893892e-03 6.382280e-01 -2.109619e+00 2.793457e+00
2.114963e+02 3.236776e-01 -2.903537e-03 6.384839e-01 -2.114990e+00 2.799072e+00
2.117930e+02 3.337531e-01 -2.846235e-03 6.387393e-01 -2.120117e+00 2.803467e+00
2.112637e+02 3.387909e-01 -2.818513e-03 6.390208e-01 -2.126221e+00 2.810791e+00
2.105259e+02 3.337531e-01 -2.857953e-03 6.393010e-01 -2.129883e+00 2.817871e+00
2.116133e+02 3.324937e-01 -2.820156e-03 6.395589e-01 -2.131348e+00 2.818359e+00
2.109426e+02 3.287154e-01 -2.844163e-03 6.398140e-01 -2.135986e+00 2.823730e+00
2.105730e+02 3.249370e-01 -2.843806e-03 6.400905e-01 -2.141846e+00 2.830811e+00
2.104087e+02 3.198992e-01 -2.805724e-03 6.403403e-01 -2.145752e+00 2.834473e+00
2.103716e+02 3.287154e-01 -2.703552e-03 6.406246e-01 -2.147217e+00 2.839600e+00
2.100879e+02 3.211587e-01 -2.753423e-03 6.409239e-01 -2.154541e+00 2.845947e+00
2.102686e+02 3.274559e-01 -2.780074e-03 6.412019e-01 -2.158203e+00 2.850586e+00
2.099739e+02 3.224181e-01 -2.819513e-03 6.414834e-01 -2.162109e+00 2.855957e+00
2.096016e+02 3.186398e-01 -2.773572e-03 6.417694e-01 -2.166748e+00 2.861328e+00
2.096064e+02 3.249370e-01 -2.754781e-03 6.420456e-01 -2.171143e+00 2.868408e+00
2.097778e+02 3.211587e-01 -2.748779e-03 6.423622e-01 -2.175293e+00 2.873047e+00
2.094729e+02 3.148615e-01 -2.777859e-03 6.426426e-01 -2.177979e+00 2.878906e+00
2.089119e+02 3.136020e-01 -2.751137e-03 6.429684e-01 -2.181396e+00 2.882080e+00
2.082864e+02 3.136020e-01 -2.720485e-03 6.432615e-01 -2.186035e+00 2.888672e+00
2.090151e+02 3.211587e-01 -2.749922e-03 6.436085e-01 -2.193359e+00 2.895996e+00
2.077297e+02 3.098237e-01 -2.694121e-03 6.439166e-01 -2.194580e+00 2.898682e+00
2.088418e+02 3.098237e-01 -2.646036e-03 6.442341e-01 -2.199219e+00 2.905518e+00
2.079746e+02 3.085642e-01 -2.627245e-03 6.445046e-01 -2.200439e+00 2.907471e+00
2.083616e+02 3.110831e-01 -2.616599e-03 6.448092e-01 -2.204590e+00 2.912598e+00
2.070457e+02 3.098237e-01 -2.587233e-03 6.451124e-01 -2.212646e+00 2.921631e+00
2.073306e+02 3.136020e-01 -2.591949e-03 6.454576e-01 -2.216553e+00 2.926514e+00
2.072283e+02 3.022670e-01 -2.581732e-03 6.458022e-01 -2.220215e+00 2.933105e+00
2.062302e+02 2.997481e-01 -2.615456e-03 6.461655e-01 -2.224365e+00 2.939941e+00
2.064438e+02 2.984887e-01 -2.642177e-03 6.465025e-01 -2.228760e+00 2.945068e+00
2.069751e+02 2.972292e-01 -2.545150e-03 6.468132e-01 -2.234131e+00 2.950684e+00
2.068777e+02 3.073048e-01 -2.534933e-03 6.471471e-01 -2.240234e+00 2.956543e+00
2.055271e+02 3.035264e-01 -2.581017e-03 6.475051e-01 -2.244629e+00 2.964111e+00
2.061868e+02 3.022670e-01 -2.538505e-03 6.478798e-01 -2.251221e+00 2.969971e+00
2.059636e+02 2.972292e-01 -2.605524e-03 6.482503e-01 -2.254883e+00 2.974854e+00
2.066665e+02 3.022670e-01 -2.642749e-03 6.485999e-01 -2.257324e+00 2.979980e+00
2.059211e+02 2.959698e-01 -2.626101e-03 6.489847e-01 -2.262695e+00 2.986816e+00
2.060637e+02 2.934509e-01 -2.655681e-03 6.493264e-01 -2.266357e+00 2.990723e+00
2.049568e+02 2.896725e-01 -2.666756e-03 6.497210e-01 -2.272949e+00 2.998047e+00
2.059951e+02 3.085642e-01 -2.680474e-03 6.500985e-01 -2.279053e+00 3.005127e+00
2.058433e+02 3.047859e-01 -2.723772e-03 6.504948e-01 -2.284668e+00 3.011719e+00
2.042625e+02 2.921914e-01 -2.767427e-03 6.508420e-01 -2.288086e+00 3.016846e+00
2.039854e+02 2.909320e-01 -2.790005e-03 6.512340e-01 -2.294678e+00 3.024902e+00
2.041785e+02 2.921914e-01 -2.813297e-03 6.516221e-01 -2.299316e+00 3.029785e+00
2.035330e+02 2.858942e-01 -2.890891e-03 6.520310e-01 -2.305420e+00 3.037109e+00
2.027183e+02 2.909320e-01 -2.831231e-03 6.524267e-01 -2.310547e+00 3.042969e+00
2.035669e+02 3.010076e-01 -2.856238e-03 6.528310e-01 -2.316650e+00 3.049316e+00
2.035349e+02 2.972292e-01 -2.883103e-03 6.532341e-01 -2.324463e+00 3.057373e+00
2.029451e+02 2.896725e-01 -2.883603e-03 6.536742e-01 -2.326904e+00 3.063477e+00
2.021926e+02 2.947103e-01 -2.946549e-03 6.540681e-01 -2.334717e+00 3.070068e+00
2.027207e+02 2.909320e-01 -3.010996e-03 6.545116e-01 -2.337891e+00 3.077637e+00
2.020332e+02 2.846348e-01 -2.983060e-03 6.549535e-01 -2.343018e+00 3.083008e+00
2.005935e+02 2.732997e-01 -3.062297e-03 6.554138e-01 -2.349854e+00 3.089844e+00
2.011658e+02 2.884131e-01 -3.105023e-03 6.558524e-01 -2.359131e+00 3.097900e+00
2.009546e+02 2.858942e-01 -3.181545e-03 6.562922e-01 -2.364502e+00 3.103027e+00
2.003782e+02 2.871537e-01 -3.182902e-03 6.567616e-01 -2.369141e+00 3.109619e+00
1.992317e+02 2.795970e-01 -3.222485e-03 6.571854e-01 -2.374512e+00 3.116943e+00
1.994211e+02 2.745592e-01 -3.249421e-03 6.576858e-01 -2.383545e+00 3.127441e+00
1.986743e+02 2.808564e-01 -3.297220e-03 6.581729e-01 -2.391357e+00 3.135254e+00
1.977166e+02 2.720403e-01 -3.344162e-03 6.586099e-01 -2.395264e+00 3.139648e+00
1.970508e+02 2.795970e-01 -3.359524e-03 6.590747e-01 -2.404053e+00 3.148926e+00
1.971123e+02 2.770781e-01 -3.411038e-03 6.595727e-01 -2.409424e+00 3.156006e+00
1.968669e+02 2.770781e-01 -3.421970e-03 6.600363e-01 -2.416748e+00 3.162842e+00
1.970315e+02 2.783375e-01 -3.484059e-03 6.605182e-01 -2.421387e+00 3.168701e+00
1.953884e+02 2.695214e-01 -3.516640e-03 6.610302e-01 -2.429443e+00 3.178467e+00
1.956096e+02 2.695214e-01 -3.589160e-03 6.614795e-01 -2.435059e+00 3.184570e+00
1.948657e+02 2.745592e-01 -3.617954e-03 6.619387e-01 -2.444336e+00 3.192627e+00
1.954465e+02 2.695214e-01 -3.632244e-03 6.624494e-01 -2.449707e+00 3.197754e+00
1.938064e+02 2.695214e-01 -3.682758e-03 6.629536e-01 -2.459229e+00 3.209473e+00
1.935645e+02 2.720403e-01 -3.747634e-03 6.634549e-01 -2.464355e+00 3.214111e+00
1.932456e+02 2.657431e-01 -3.762352e-03 6.639399e-01 -2.471680e+00 3.222900e+00
1.931016e+02 2.657431e-01 -3.817511e-03 6.644526e-01 -2.480713e+00 3.231689e+00
1.938596e+02 2.670025e-01 -3.895676e-03 6.649726e-01 -2.485840e+00 3.236816e+00
1.927859e+02 2.670025e-01 -3.942975e-03 6.655153e-01 -2.495361e+00 3.245117e+00
1.936768e+02 2.644836e-01 -3.974055e-03 6.660326e-01 -2.501465e+00 3.252930e+00
1.928777e+02 2.657431e-01 -4.092803e-03 6.665777e-01 -2.508545e+00 3.261230e+00
1.918542e+02 2.607053e-01 -4.130242e-03 6.670685e-01 -2.517090e+00 3.270508e+00
1.916409e+02 2.607053e-01 -4.148462e-03 6.676606e-01 -2.524658e+00 3.277344e+00
1.906440e+02 2.556675e-01 -4.186687e-03 6.681603e-01 -2.530273e+00 3.286133e+00
1.910847e+02 2.569270e-01 -4.288001e-03 6.686891e-01 -2.539795e+00 3.292236e+00
1.906382e+02 2.544081e-01 -4.367666e-03 6.692527e-01 -2.546387e+00 3.300293e+00
1.893582e+02 2.493703e-01 -4.410679e-03 6.698529e-01 -2.554688e+00 3.309326e+00
1.887490e+02 2.468514e-01 -4.452262e-03 6.704390e-01 -2.561523e+00 3.316650e+00
1.878347e+02 2.468514e-01 -4.426826e-03 6.710296e-01 -2.570557e+00 3.324951e+00
1.873298e+02 2.481108e-01 -4.580298e-03 6.716035e-01 -2.578369e+00 3.333740e+00
1.867563e+02 2.506297e-01 -4.559435e-03 6.721958e-01 -2.588623e+00 3.343506e+00
1.861790e+02 2.493703e-01 -4.649175e-03 6.727495e-01 -2.598145e+00 3.353760e+00
1.858113e+02 2.506297e-01 -4.697117e-03 6.733431e-01 -2.605957e+00 3.361816e+00
1.852183e+02 2.531486e-01 -4.639887e-03 6.739682e-01 -2.613525e+00 3.369629e+00
1.852080e+02 2.468514e-01 -4.751275e-03 6.745599e-01 -2.620605e+00 3.378906e+00
1.841870e+02 2.493703e-01 -4.812793e-03 6.751214e-01 -2.630859e+00 3.388428e+00
1.836936e+02 2.493703e-01 -4.849875e-03 6.757386e-01 -2.640381e+00 3.397461e+00
1.827808e+02 2.405542e-01 -4.907462e-03 6.763444e-01 -2.648682e+00 3.406738e+00
1.826069e+02 2.418136e-01 -4.937828e-03 6.769140e-01 -2.656982e+00 3.414795e+00
1.825803e+02 2.430730e-01 -4.990915e-03 6.775169e-01 -2.664795e+00 3.423340e+00
1.813164e+02 2.380353e-01 -4.989271e-03 6.781380e-01 -2.670898e+00 3.430420e+00
1.807644e+02 2.468514e-01 -5.066793e-03 6.787178e-01 -2.681885e+00 3.441162e+00
1.793669e+02 2.380353e-01 -5.122452e-03 6.792956e-01 -2.688721e+00 3.447998e+00
1.797522e+02 2.455919e-01 -5.118594e-03 6.799452e-01 -2.699707e+00 3.458252e+00
1.799263e+02 2.443325e-01 -5.125738e-03 6.805256e-01 -2.710938e+00 3.468506e+00
1.792104e+02 2.430730e-01 -5.192472e-03 6.811412e-01 -2.718994e+00 3.477539e+00
1.784319e+02 2.380353e-01 -5.280282e-03 6.817543e-01 -2.725342e+00 3.484375e+00
1.784084e+02 2.418136e-01 -5.224481e-03 6.823988e-01 -2.737305e+00 3.496094e+00
1.781843e+02 2.430730e-01 -5.202975e-03 6.830118e-01 -2.746826e+00 3.503906e+00
1.767615e+02 2.355164e-01 -5.227982e-03 6.836178e-01 -2.756836e+00 3.512695e+00
1.762822e+02 2.443325e-01 -5.306004e-03 6.842423e-01 -2.762207e+00 3.519775e+00
1.750833e+02 2.392947e-01 -5.361591e-03 6.848477e-01 -2.773193e+00 3.529785e+00
1.739150e+02 2.430730e-01 -5.324366e-03 6.854127e-01 -2.782959e+00 3.538818e+00
1.737671e+02 2.405542e-01 -5.353732e-03 6.860677e-01 -2.791504e+00 3.546143e+00
1.730603e+02 2.443325e-01 -5.313792e-03 6.866853e-01 -2.801270e+00 3.557373e+00
1.722827e+02 2.367758e-01 -5.319008e-03 6.872896e-01 -2.807129e+00 3.563965e+00
1.715017e+02 2.380353e-01 -5.333797e-03 6.878818e-01 -2.817627e+00 3.574463e+00
1.714800e+02 2.342569e-01 -5.349588e-03 6.885784e-01 -2.827393e+00 3.583252e+00
1.708752e+02 2.367758e-01 -5.332226e-03 6.891832e-01 -2.838135e+00 3.593018e+00
1.703447e+02 2.418136e-01 -5.324080e-03 6.897916e-01 -2.845703e+00 3.600342e+00
1.704385e+02 2.418136e-01 -5.207690e-03 6.904299e-01 -2.858643e+00 3.611572e+00
1.698030e+02 2.405542e-01 -5.237913e-03 6.910333e-01 -2.867432e+00 3.620117e+00
1.697910e+02 2.455919e-01 -5.225338e-03 6.916609e-01 -2.873535e+00 3.626465e+00
1.695210e+02 2.430730e-01 -5.178539e-03 6.923157e-01 -2.884033e+00 3.636230e+00
1.685779e+02 2.392947e-01 -5.207833e-03 6.929449e-01 -2.892334e+00 3.644287e+00
1.680525e+02 2.392947e-01 -5.176824e-03 6.935536e-01 -2.903320e+00 3.654053e+00
1.676321e+02 2.392947e-01 -5.160606e-03 6.941640e-01 -2.912598e+00 3.662598e+00
1.680288e+02 2.342569e-01 -5.035999e-03 6.948271e-01 -2.920898e+00 3.669922e+00
1.669497e+02 2.304786e-01 -5.037428e-03 6.954519e-01 -2.931885e+00 3.680176e+00
1.661643e+02 2.342569e-01 -4.938042e-03 6.960448e-01 -2.943848e+00 3.691162e+00
1.662971e+02 2.329975e-01 -4.920537e-03 6.967144e-01 -2.953369e+00 3.699219e+00
1.648147e+02 2.329975e-01 -4.912107e-03 6.973393e-01 -2.962891e+00 3.709717e+00
1.640107e+02 2.317380e-01 -4.934613e-03 6.979757e-01 -2.973389e+00 3.720703e+00
1.649653e+02 2.430730e-01 -4.884170e-03 6.985882e-01 -2.978516e+00 3.726562e+00
1.639670e+02 2.355164e-01 -4.751990e-03 6.992254e-01 -2.990723e+00 3.737549e+00
1.630310e+02 2.380353e-01 -4.739057e-03 6.998994e-01 -3.000244e+00 3.745605e+00
1.637458e+02 2.367758e-01 -4.748775e-03 7.005305e-01 -3.007324e+00 3.752930e+00
1.634797e+02 2.342569e-01 -4.708620e-03 7.011342e-01 -3.017822e+00 3.763672e+00
1.627920e+02 2.367758e-01 -4.639029e-03 7.017595e-01 -3.028809e+00 3.773682e+00
1.618706e+02 2.304786e-01 -4.586943e-03 7.023377e-01 -3.038086e+00 3.782715e+00
1.616445e+02 2.317380e-01 -4.509707e-03 7.029643e-01 -3.044678e+00 3.790283e+00
1.615305e+02 2.267003e-01 -4.484985e-03 7.035598e-01 -3.051758e+00 3.797363e+00
1.610784e+02 2.279597e-01 -4.390244e-03 7.041968e-01 -3.060791e+00 3.805664e+00
1.600759e+02 2.254408e-01 -4.381456e-03 7.048472e-01 -3.072998e+00 3.817139e+00
1.594175e+02 2.267003e-01 -4.294289e-03 7.054689e-01 -3.080811e+00 3.824707e+00
1.586133e+02 2.216625e-01 -4.199976e-03 7.060436e-01 -3.091064e+00 3.833496e+00
1.585994e+02 2.254408e-01 -4.197761e-03 7.066731e-01 -3.099365e+00 3.841797e+00
1.590762e+02 2.241814e-01 -4.148462e-03 7.072555e-01 -3.110352e+00 3.853271e+00
1.585374e+02 2.241814e-01 -4.115309e-03 7.078806e-01 -3.117432e+00 3.860352e+00
1.578574e+02 2.241814e-01 -3.984201e-03 7.084891e-01 -3.124512e+00 3.867920e+00
1.578625e+02 2.254408e-01 -4.027427e-03 7.091076e-01 -3.134033e+00 3.876953e+00
1.581204e+02 2.267003e-01 -3.993132e-03 7.096927e-01 -3.141846e+00 3.885498e+00
1.575225e+02 2.191436e-01 -3.923326e-03 7.102812e-01 -3.150146e+00 3.893311e+00
1.575107e+02 2.204030e-01 -3.945047e-03 7.109198e-01 -3.157471e+00 3.900391e+00
1.574170e+02 2.191436e-01 -3.989202e-03 7.115180e-01 -3.168945e+00 3.910400e+00
1.572012e+02 2.191436e-01 -3.873169e-03 7.120875e-01 -3.176758e+00 3.919922e+00
1.557754e+02 2.178841e-01 -3.800934e-03 7.126820e-01 -3.187012e+00 3.928223e+00
1.556028e+02 2.153652e-01 -3.772712e-03 7.132670e-01 -3.193604e+00 3.934570e+00
1.559797e+02 2.166247e-01 -3.716553e-03 7.139244e-01 -3.203613e+00 3.945068e+00
1.556208e+02 2.166247e-01 -3.728700e-03 7.145253e-01 -3.214111e+00 3.953857e+00
1.552754e+02 2.153652e-01 -3.632458e-03 7.151506e-01 -3.222412e+00 3.963379e+00
1.549651e+02 2.141058e-01 -3.573298e-03 7.157699e-01 -3.230469e+00 3.971680e+00
1.544050e+02 2.128463e-01 -3.510495e-03 7.163532e-01 -3.237061e+00 3.976562e+00
1.540352e+02 2.153652e-01 -3.449621e-03 7.169672e-01 -3.247070e+00 3.987793e+00
1.543184e+02 2.141058e-01 -3.515353e-03 7.175495e-01 -3.254395e+00 3.995117e+00
1.545701e+02 2.141058e-01 -3.424971e-03 7.181489e-01 -3.265381e+00 4.006348e+00
1.543875e+02 2.141058e-01 -3.322727e-03 7.187374e-01 -3.272461e+00 4.013184e+00
1.544646e+02 2.178841e-01 -3.273213e-03 7.193356e-01 -3.282227e+00 4.022217e+00
1.539097e+02 2.128463e-01 -3.218126e-03 7.199744e-01 -3.290039e+00 4.030762e+00
1.517253e+02 2.166247e-01 -3.083302e-03 7.205545e-01 -3.298584e+00 4.038330e+00
1.532505e+02 2.141058e-01 -3.017641e-03 7.211577e-01 -3.309082e+00 4.048340e+00
1.535972e+02 2.166247e-01 -2.994063e-03 7.217754e-01 -3.317139e+00 4.056885e+00
1.531719e+02 2.166247e-01 -2.957052e-03 7.223817e-01 -3.324707e+00 4.064941e+00
1.536760e+02 2.128463e-01 -2.945549e-03 7.229429e-01 -3.335449e+00 4.075684e+00
1.530251e+02 2.115869e-01 -2.887533e-03 7.235131e-01 -3.344482e+00 4.084229e+00
1.529136e+02 2.115869e-01 -2.855381e-03 7.241169e-01 -3.352051e+00 4.091553e+00
1.527417e+02 2.141058e-01 -2.858596e-03 7.246561e-01 -3.359131e+00 4.098877e+00
1.526116e+02 2.115869e-01 -2.761997e-03 7.253067e-01 -3.367920e+00 4.106934e+00
1.513992e+02 2.090680e-01 -2.740991e-03 7.258915e-01 -3.376221e+00 4.115967e+00
1.507170e+02 2.027708e-01 -2.641534e-03 7.264677e-01 -3.386230e+00 4.124512e+00
1.510381e+02 2.065491e-01 -2.617670e-03 7.270317e-01 -3.391602e+00 4.131104e+00
1.506855e+02 2.040302e-01 -2.528288e-03 7.276256e-01 -3.402344e+00 4.140625e+00
1.505630e+02 2.027708e-01 -2.578374e-03 7.282191e-01 -3.408936e+00 4.148193e+00
1.505220e+02 2.040302e-01 -2.531503e-03 7.287507e-01 -3.416260e+00 4.155518e+00
1.505361e+02 2.015113e-01 -2.454053e-03 7.293307e-01 -3.426025e+00 4.166748e+00
1.502708e+02 2.040302e-01 -2.453767e-03 7.298989e-01 -3.433838e+00 4.174316e+00
1.506567e+02 2.052897e-01 -2.453124e-03 7.304382e-01 -3.438721e+00 4.179688e+00
1.499609e+02 2.040302e-01 -2.420686e-03 7.309757e-01 -3.448242e+00 4.188965e+00
1.497119e+02 2.052897e-01 -2.373887e-03 7.315509e-01 -3.454590e+00 4.196289e+00
1.495125e+02 2.052897e-01 -2.380032e-03 7.321002e-01 -3.462158e+00 4.204590e+00
1.496245e+02 2.052897e-01 -2.383104e-03 7.326106e-01 -3.469971e+00 4.211670e+00
1.492341e+02 2.052897e-01 -2.443621e-03 7.331665e-01 -3.477295e+00 4.219971e+00
1.494709e+02 2.065491e-01 -2.450623e-03 7.336939e-01 -3.486328e+00 4.228760e+00
1.498303e+02 2.052897e-01 -2.355025e-03 7.342537e-01 -3.493164e+00 4.237549e+00
1.504526e+02 2.052897e-01 -2.306797e-03 7.347959e-01 -3.500244e+00 4.244873e+00
1.503281e+02 2.065491e-01 -2.347022e-03 7.353148e-01 -3.506104e+00 4.251953e+00
1.497383e+02 2.090680e-01 -2.396608e-03 7.358802e-01 -3.513672e+00 4.260254e+00
1.502097e+02 2.128463e-01 -2.435476e-03 7.363880e-01 -3.520508e+00 4.268066e+00
1.492244e+02 2.090680e-01 -2.492492e-03 7.369108e-01 -3.530029e+00 4.278320e+00
1.489348e+02 2.115869e-01 -2.506282e-03 7.374774e-01 -3.535400e+00 4.283203e+00
1.490627e+02 2.090680e-01 -2.534576e-03 7.379974e-01 -3.541016e+00 4.289062e+00
1.487053e+02 2.103275e-01 -2.530217e-03 7.385071e-01 -3.548828e+00 4.297363e+00
1.493472e+02 2.078086e-01 -2.510283e-03 7.390736e-01 -3.556396e+00 4.306152e+00
1.485515e+02 2.090680e-01 -2.430332e-03 7.395614e-01 -3.561768e+00 4.312012e+00
1.483999e+02 2.078086e-01 -2.517356e-03 7.400860e-01 -3.570801e+00 4.321777e+00
1.484102e+02 2.052897e-01 -2.525287e-03 7.405861e-01 -3.574951e+00 4.326660e+00
1.487258e+02 2.065491e-01 -2.543292e-03 7.411253e-01 -3.581299e+00 4.332764e+00
1.487229e+02 2.065491e-01 -2.537219e-03 7.416667e-01 -3.589844e+00 4.341309e+00
1.491965e+02 2.065491e-01 -2.583518e-03 7.421558e-01 -3.595703e+00 4.348145e+00
1.488025e+02 2.078086e-01 -2.594450e-03 7.426486e-01 -3.600830e+00 4.353516e+00
1.492236e+02 2.065491e-01 -2.627530e-03 7.431878e-01 -3.607666e+00 4.361084e+00
1.490115e+02 2.103275e-01 -2.715055e-03 7.437193e-01 -3.614502e+00 4.368408e+00
1.489995e+02 2.065491e-01 -2.762569e-03 7.442121e-01 -3.623291e+00 4.376953e+00
1.488389e+02 2.040302e-01 -2.799865e-03 7.447704e-01 -3.630615e+00 4.384766e+00
1.489490e+02 2.065491e-01 -2.854881e-03 7.452763e-01 -3.635498e+00 4.391357e+00
1.489722e+02 2.065491e-01 -2.874029e-03 7.458115e-01 -3.642822e+00 4.398438e+00
1.483589e+02 2.052897e-01 -2.980988e-03 7.463496e-01 -3.650635e+00 4.406738e+00
1.487607e+02 2.065491e-01 -2.941548e-03 7.468328e-01 -3.656982e+00 4.413574e+00
1.491296e+02 2.027708e-01 -3.029502e-03 7.473289e-01 -3.662598e+00 4.420166e+00
1.493142e+02 2.090680e-01 -3.008067e-03 7.478365e-01 -3.668213e+00 4.426514e+00
1.484939e+02 2.015113e-01 -3.030073e-03 7.483585e-01 -3.675537e+00 4.434814e+00
1.491941e+02 2.052897e-01 -3.072942e-03 7.488457e-01 -3.683350e+00 4.442383e+00
1.491775e+02 2.040302e-01 -3.082874e-03 7.493837e-01 -3.689209e+00 4.450439e+00
1.492627e+02 2.040302e-01 -3.124743e-03 7.498651e-01 -3.694092e+00 4.456299e+00
1.492490e+02 2.040302e-01 -3.070799e-03 7.503631e-01 -3.701172e+00 4.463379e+00
1.491721e+02 2.027708e-01 -3.161253e-03 7.508491e-01 -3.707275e+00 4.469727e+00
1.488052e+02 2.040302e-01 -3.176972e-03 7.513561e-01 -3.712646e+00 4.476807e+00
1.485063e+02 2.040302e-01 -3.121385e-03 7.518327e-01 -3.719727e+00 4.483398e+00
1.485237e+02 2.040302e-01 -3.274500e-03 7.523401e-01 -3.725586e+00 4.489990e+00
1.480483e+02 2.027708e-01 -3.281216e-03 7.528202e-01 -3.731445e+00 4.496826e+00
1.478574e+02 2.027708e-01 -3.260424e-03 7.533052e-01 -3.738770e+00 4.505127e+00
1.482439e+02 2.052897e-01 -3.315940e-03 7.538080e-01 -3.745361e+00 4.510742e+00
1.479958e+02 2.040302e-01 -3.396748e-03 7.543049e-01 -3.750000e+00 4.517334e+00
1.487446e+02 2.052897e-01 -3.334874e-03 7.547700e-01 -3.756104e+00 4.525391e+00
1.490222e+02 2.052897e-01 -3.364382e-03 7.552069e-01 -3.760010e+00 4.530762e+00
1.482834e+02 2.040302e-01 -3.412038e-03 7.557362e-01 -3.765625e+00 4.538086e+00
1.486262e+02 2.065491e-01 -3.426114e-03 7.561770e-01 -3.769531e+00 4.542969e+00
1.491746e+02 2.065491e-01 -3.454908e-03 7.566223e-01 -3.774902e+00 4.549316e+00
1.494590e+02 2.040302e-01 -3.499706e-03 7.571225e-01 -3.782227e+00 4.558105e+00
1.491943e+02 2.027708e-01 -3.464482e-03 7.575999e-01 -3.787354e+00 4.564697e+00
1.489595e+02 2.040302e-01 -3.513710e-03 7.580525e-01 -3.792480e+00 4.570801e+00
1.493342e+02 2.090680e-01 -3.450192e-03 7.585224e-01 -3.796631e+00 4.576416e+00
1.487861e+02 2.078086e-01 -3.509423e-03 7.589881e-01 -3.800537e+00 4.582275e+00
1.490591e+02 2.052897e-01 -3.485274e-03 7.594582e-01 -3.806885e+00 4.590088e+00
1.491138e+02 2.065491e-01 -3.579657e-03 7.599260e-01 -3.811768e+00 4.596680e+00
1.493657e+02 2.078086e-01 -3.565439e-03 7.603913e-01 -3.815674e+00 4.602051e+00
1.493574e+02 2.103275e-01 -3.592447e-03 7.608412e-01 -3.819824e+00 4.608154e+00
1.486333e+02 2.065491e-01 -3.588446e-03 7.613032e-01 -3.824951e+00 4.615967e+00
1.490801e+02 2.065491e-01 -3.588017e-03 7.617150e-01 -3.829590e+00 4.622314e+00
1.487666e+02 2.090680e-01 -3.624527e-03 7.621466e-01 -3.834473e+00 4.628418e+00
1.488440e+02 2.078086e-01 -3.648391e-03 7.626086e-01 -3.837402e+00 4.634521e+00
1.490662e+02 2.040302e-01 -3.626099e-03 7.630517e-01 -3.841553e+00 4.640381e+00
1.490686e+02 2.065491e-01 -3.664753e-03 7.634943e-01 -3.846680e+00 4.646484e+00
1.492544e+02 2.065491e-01 -3.661752e-03 7.639195e-01 -3.852051e+00 4.653564e+00
1.489346e+02 2.052897e-01 -3.686688e-03 7.643445e-01 -3.857422e+00 4.660156e+00
1.494304e+02 2.052897e-01 -3.695976e-03 7.647963e-01 -3.861572e+00 4.666504e+00
1.497190e+02 2.052897e-01 -3.657537e-03 7.652169e-01 -3.864746e+00 4.671143e+00
1.494946e+02 2.052897e-01 -3.709337e-03 7.656414e-01 -3.870361e+00 4.679443e+00
1.497231e+02 2.052897e-01 -3.740989e-03 7.660492e-01 -3.872070e+00 4.683350e+00
1.499187e+02 2.015113e-01 -3.756493e-03 7.664577e-01 -3.877441e+00 4.690430e+00
1.498611e+02 2.040302e-01 -3.760137e-03 7.668752e-01 -3.880371e+00 4.696045e+00
1.495625e+02 2.052897e-01 -3.783072e-03 7.673121e-01 -3.885742e+00 4.702393e+00
1.498853e+02 2.052897e-01 -3.760566e-03 7.677205e-01 -3.889893e+00 4.708496e+00
1.497505e+02 2.040302e-01 -3.796147e-03 7.681390e-01 -3.893555e+00 4.714600e+00
1.505972e+02 2.065491e-01 -3.786645e-03 7.685320e-01 -3.895996e+00 4.719238e+00
1.499973e+02 2.027708e-01 -3.836730e-03 7.689300e-01 -3.899902e+00 4.725098e+00
1.499500e+02 2.040302e-01 -3.886387e-03 7.693682e-01 -3.903076e+00 4.730713e+00
1.510559e+02 2.103275e-01 -3.875456e-03 7.697658e-01 -3.908936e+00 4.738281e+00
1.508379e+02 2.065491e-01 -3.922183e-03 7.701827e-01 -3.914307e+00 4.744873e+00
1.509045e+02 2.103275e-01 -4.018139e-03 7.705795e-01 -3.917480e+00 4.749756e+00
1.502517e+02 2.065491e-01 -4.052006e-03 7.709885e-01 -3.921387e+00 4.755371e+00
1.507581e+02 2.040302e-01 -4.062437e-03 7.713704e-01 -3.924316e+00 4.759766e+00
1.502866e+02 2.052897e-01 -4.109379e-03 7.718065e-01 -3.928955e+00 4.766602e+00
1.505002e+02 2.040302e-01 -4.150176e-03 7.721821e-01 -3.933105e+00 4.772949e+00
1.501980e+02 2.040302e-01 -4.131885e-03 7.725744e-01 -3.936035e+00 4.778076e+00
1.502612e+02 2.040302e-01 -4.187687e-03 7.729563e-01 -3.939697e+00 4.783447e+00
1.506560e+02 2.015113e-01 -4.227770e-03 7.733194e-01 -3.943848e+00 4.790771e+00
1.503804e+02 2.065491e-01 -4.290716e-03 7.737343e-01 -3.947998e+00 4.796875e+00
1.505657e+02 2.052897e-01 -4.347589e-03 7.740836e-01 -3.949707e+00 4.801025e+00
1.501362e+02 2.078086e-01 -4.378241e-03 7.744823e-01 -3.953857e+00 4.807373e+00
1.501074e+02 2.065491e-01 -4.467838e-03 7.748269e-01 -3.954834e+00 4.810791e+00
1.498176e+02 2.052897e-01 -4.505348e-03 7.752121e-01 -3.958252e+00 4.816162e+00
1.503499e+02 2.052897e-01 -4.589372e-03 7.756148e-01 -3.960938e+00 4.822510e+00
1.503591e+02 2.065491e-01 -4.615594e-03 7.759617e-01 -3.964844e+00 4.828369e+00
1.504851e+02 2.078086e-01 -4.636743e-03 7.763561e-01 -3.967529e+00 4.832764e+00
1.510930e+02 2.103275e-01 -4.663750e-03 7.767042e-01 -3.970947e+00 4.837891e+00
1.510005e+02 2.090680e-01 -4.704405e-03 7.770945e-01 -3.974365e+00 4.844238e+00
1.506482e+02 2.078086e-01 -4.704048e-03 7.774477e-01 -3.977783e+00 4.850098e+00
1.509639e+02 2.090680e-01 -4.744916e-03 7.778006e-01 -3.980469e+00 4.855225e+00
1.502473e+02 2.090680e-01 -4.725411e-03 7.781574e-01 -3.982910e+00 4.859863e+00
1.502351e+02 2.065491e-01 -4.745702e-03 7.785404e-01 -3.986328e+00 4.865234e+00
1.502734e+02 2.065491e-01 -4.742416e-03 7.789044e-01 -3.988770e+00 4.871338e+00
1.507258e+02 2.065491e-01 -4.847160e-03 7.792627e-01 -3.992432e+00 4.876709e+00
1.506528e+02 2.052897e-01 -4.885813e-03 7.796401e-01 -3.995605e+00 4.882324e+00
1.505332e+02 2.052897e-01 -4.860735e-03 7.799995e-01 -3.996826e+00 4.885742e+00
1.507476e+02 2.078086e-01 -4.916036e-03 7.803840e-01 -4.001221e+00 4.892090e+00
1.504583e+02 2.065491e-01 -4.945402e-03 7.807177e-01 -4.002197e+00 4.896729e+00
1.507974e+02 2.065491e-01 -4.930540e-03 7.810665e-01 -4.005127e+00 4.902100e+00
1.507129e+02 2.040302e-01 -4.997631e-03 7.814231e-01 -4.007568e+00 4.906982e+00
1.503606e+02 2.040302e-01 -5.011778e-03 7.817467e-01 -4.009033e+00 4.910400e+00
1.503357e+02 2.040302e-01 -5.053575e-03 7.820569e-01 -4.012695e+00 4.917480e+00
1.503787e+02 2.065491e-01 -5.105661e-03 7.824000e-01 -4.013916e+00 4.920166e+00
1.502986e+02 2.040302e-01 -5.139814e-03 7.827630e-01 -4.017090e+00 4.925537e+00
1.503120e+02 2.052897e-01 -5.191543e-03 7.830631e-01 -4.019043e+00 4.928955e+00
1.500591e+02 2.002519e-01 -5.213192e-03 7.834201e-01 -4.023193e+00 4.935791e+00
1.501025e+02 2.052897e-01 -5.226624e-03 7.837389e-01 -4.023926e+00 4.939453e+00
1.501252e+02 2.002519e-01 -5.273852e-03 7.840799e-01 -4.027100e+00 4.945312e+00
1.502905e+02 2.027708e-01 -5.319651e-03 7.844280e-01 -4.029785e+00 4.949951e+00
1.506282e+02 2.002519e-01 -5.345872e-03 7.847401e-01 -4.031250e+00 4.953613e+00
1.500405e+02 1.989924e-01 -5.457475e-03 7.850835e-01 -4.034424e+00 4.958740e+00
1.497944e+02 1.989924e-01 -5.470408e-03 7.854336e-01 -4.037598e+00 4.964111e+00
1.502351e+02 1.964736e-01 -5.555860e-03 7.857513e-01 -4.039795e+00 4.968262e+00
1.502041e+02 1.952141e-01 -5.554860e-03 7.860554e-01 -4.041992e+00 4.973389e+00
1.498682e+02 1.939547e-01 -5.662605e-03 7.863957e-01 -4.043945e+00 4.978271e+00
1.503589e+02 1.926952e-01 -5.706617e-03 7.867048e-01 -4.045654e+00 4.982178e+00
1.497205e+02 1.926952e-01 -5.752988e-03 7.870372e-01 -4.048584e+00 4.987305e+00
1.492729e+02 1.901763e-01 -5.792928e-03 7.873513e-01 -4.050781e+00 4.991943e+00
1.494617e+02 1.914358e-01 -5.862947e-03 7.876601e-01 -4.052734e+00 4.996582e+00
1.497805e+02 1.914358e-01 -5.856303e-03 7.880097e-01 -4.055420e+00 5.000244e+00
1.499797e+02 1.939547e-01 -5.910604e-03 7.883666e-01 -4.057373e+00 5.005371e+00
1.501707e+02 1.939547e-01 -6.027065e-03 7.886661e-01 -4.060059e+00 5.009766e+00
1.499607e+02 1.964736e-01 -6.053501e-03 7.889887e-01 -4.061035e+00 5.014160e+00
1.499995e+02 1.952141e-01 -6.066005e-03 7.892743e-01 -4.063721e+00 5.018799e+00
1.501238e+02 1.952141e-01 -6.077151e-03 7.896137e-01 -4.066406e+00 5.023193e+00
1.498567e+02 1.964736e-01 -6.184539e-03 7.899295e-01 -4.068604e+00 5.028076e+00
1.501597e+02 1.964736e-01 -6.199043e-03 7.902459e-01 -4.069824e+00 5.031738e+00
1.507466e+02 1.964736e-01 -6.282495e-03 7.905517e-01 -4.072754e+00 5.036621e+00
1.515417e+02 1.989924e-01 -6.370377e-03 7.908469e-01 -4.073486e+00 5.040039e+00
1.516279e+02 1.977330e-01 -6.389239e-03 7.911338e-01 -4.076660e+00 5.044678e+00
1.518247e+02 1.989924e-01 -6.498771e-03 7.914520e-01 -4.078125e+00 5.048828e+00
1.524717e+02 1.989924e-01 -6.533852e-03 7.917540e-01 -4.080322e+00 5.053223e+00
