3.440437e-01 1.323623e+00 -4.044144e+00 4.999741e+00 3.641646e-04 1.351914e-02 -1.068726e-01 1.645966e-01
3.086537e-01 1.328481e+00 -4.045578e+00 5.011917e+00 6.305439e-06 1.297838e-02 -1.068726e-01 1.139221e-01
3.076886e-01 1.329028e+00 -4.045578e+00 5.011459e+00 2.163092e-05 1.288128e-02 -1.068726e-01 1.139221e-01
3.058075e-01 1.331424e+00 -4.042374e+00 5.013306e+00 2.947347e-05 1.294321e-02 -1.068726e-01 1.139221e-01
3.061019e-01 1.330264e+00 -4.046768e+00 5.013260e+00 8.172289e-05 1.293542e-02 -1.068726e-01 1.201782e-01
3.086488e-01 1.353234e+00 -4.050217e+00 5.015930e+00 5.834942e-05 1.297465e-02 -1.068726e-01 1.139221e-01
2.558988e-01 1.416177e+00 -4.094559e+00 5.013916e+00 7.067001e-05 1.232680e-02 -1.131287e-01 1.201782e-01
2.280148e-01 1.429488e+00 -4.094315e+00 4.939972e+00 -3.214297e-05 1.224279e-02 -1.201782e-01 1.139221e-01
2.369526e-01 1.416843e+00 -4.113342e+00 4.939972e+00 -4.860909e-05 1.231164e-02 -1.201782e-01 1.131439e-01
2.432279e-01 1.413847e+00 -4.127716e+00 4.925537e+00 -4.193183e-05 1.254504e-02 -1.139221e-01 1.131439e-01
2.489375e-01 1.409455e+00 -4.127197e+00 4.879562e+00 -3.836153e-05 1.277624e-02 -1.131287e-01 1.139221e-01
2.676140e-01 1.477257e+00 -5.117065e+00 5.310318e+00 1.482428e-04 1.582318e-02 -2.014923e-01 3.173065e-01
2.535776e-01 1.805947e+00 -6.132248e+00 5.907181e+00 2.023149e-04 2.049726e-02 -3.762054e-01 5.034332e-01
2.291182e-01 1.841288e+00 -6.123901e+00 5.945312e+00 1.537355e-04 1.906182e-02 -3.330383e-01 4.501038e-01
2.036244e-01 1.850303e+00 -6.175858e+00 5.886703e+00 5.659310e-05 1.814844e-02 -2.595673e-01 4.824219e-01
1.584545e-01 1.862125e+00 -6.256393e+00 5.796875e+00 1.229850e-04 1.763458e-02 -3.098297e-01 3.324738e-01
1.189969e-01 1.842030e+00 -6.358673e+00 5.908356e+00 5.764607e-06 1.773638e-02 -3.874969e-01 5.273132e-01
1.396259e-01 1.825937e+00 -6.206970e+00 5.862457e+00 1.422028e-04 1.708887e-02 -2.972717e-01 3.334045e-01
1.277805e-01 1.833392e+00 -6.206970e+00 5.862457e+00 1.611817e-04 1.829239e-02 -3.740997e-01 4.790955e-01
8.209532e-02 1.838431e+00 -6.409103e+00 5.786270e+00 1.582919e-04 1.763144e-02 -3.674011e-01 4.909058e-01
5.722873e-02 1.842512e+00 -6.689056e+00 5.770767e+00 8.734577e-05 1.573833e-02 -3.048401e-01 3.683014e-01
5.587668e-02 1.827878e+00 -6.578415e+00 5.580124e+00 1.575562e-04 1.565298e-02 -2.737732e-01 3.828583e-01
4.340137e-02 1.832537e+00 -6.553268e+00 5.643997e+00 1.193829e-04 1.582872e-02 -2.829590e-01 3.828583e-01
4.190467e-02 1.827545e+00 -6.587204e+00 5.669098e+00 1.424092e-04 1.729729e-02 -5.127869e-01 5.115051e-01
1.383462e-02 1.865360e+00 -7.240662e+00 5.851608e+00 7.506134e-05 1.720716e-02 -5.029602e-01 3.822021e-01
-2.867218e-02 1.881986e+00 -7.210785e+00 5.740814e+00 1.696781e-05 1.499484e-02 -1.863708e-01 3.631897e-01
-2.809610e-02 1.863082e+00 -6.991516e+00 5.486618e+00 7.568993e-05 1.524281e-02 -1.863708e-01 4.827423e-01
-5.097604e-03 1.838992e+00 -6.994232e+00 5.538071e+00 1.456797e-04 1.546322e-02 -1.894531e-01 4.609833e-01
-1.193896e-02 1.848192e+00 -7.035095e+00 5.516815e+00 9.317558e-05 1.515362e-02 -1.863708e-01 3.360748e-01
-3.165014e-02 1.848656e+00 -7.084045e+00 5.473694e+00 3.346315e-05 1.406507e-02 -1.962738e-01 2.995148e-01
-2.661868e-02 1.834266e+00 -7.025360e+00 5.396805e+00 8.593661e-05 1.486566e-02 -1.926575e-01 3.409729e-01
-3.979707e-02 1.844593e+00 -6.974274e+00 5.318008e+00 -3.393475e-07 1.410081e-02 -1.956482e-01 3.180084e-01
-3.344663e-02 1.830560e+00 -6.956680e+00 5.244324e+00 1.174117e-04 1.462815e-02 -1.953430e-01 3.387146e-01
-5.593348e-02 1.852608e+00 -7.115936e+00 5.330200e+00 3.270092e-06 1.434555e-02 -1.964111e-01 2.832642e-01
-4.284966e-02 1.826738e+00 -6.995041e+00 5.179276e+00 7.516270e-05 1.441099e-02 -1.898956e-01 3.283691e-01
-4.317242e-02 1.821007e+00 -6.995041e+00 5.179276e+00 1.059407e-04 1.492505e-02 -1.923676e-01 3.283691e-01
-6.182476e-02 1.844778e+00 -7.143509e+00 5.284363e+00 3.157309e-05 1.496375e-02 -1.923676e-01 3.194427e-01
-6.298887e-02 1.825707e+00 -7.001877e+00 5.226196e+00 6.559612e-05 1.468475e-02 -1.894531e-01 2.816010e-01
-5.979575e-02 1.815346e+00 -7.071411e+00 5.191940e+00 2.525686e-05 1.412556e-02 -1.785889e-01 3.094482e-01
-7.441544e-02 1.828969e+00 -6.952988e+00 5.061234e+00 8.065184e-06 1.483169e-02 -1.863708e-01 3.136597e-01
-9.713998e-02 1.844371e+00 -7.106934e+00 5.221252e+00 -8.429445e-05 1.343568e-02 -1.735077e-01 2.510834e-01
-8.387809e-02 1.817722e+00 -7.046921e+00 5.146011e+00 4.776972e-05 1.376437e-02 -1.806641e-01 2.976837e-01
-9.011439e-02 1.829026e+00 -7.026520e+00 5.146805e+00 1.909104e-06 1.382621e-02 -2.002563e-01 2.976837e-01
-9.274542e-02 1.826240e+00 -7.026550e+00 5.152313e+00 -1.576970e-05 1.352005e-02 -1.677856e-01 2.849579e-01
-9.151225e-02 1.824074e+00 -7.102371e+00 5.168106e+00 -2.242440e-05 1.353447e-02 -1.785889e-01 2.508392e-01
-8.665299e-02 1.811801e+00 -6.994904e+00 5.076065e+00 4.843841e-05 1.449677e-02 -2.170258e-01 3.449707e-01
-9.117205e-02 1.816966e+00 -7.038544e+00 5.173706e+00 1.938502e-05 1.358782e-02 -2.002563e-01 2.662659e-01
-8.692338e-02 1.810258e+00 -7.004333e+00 5.090149e+00 3.682670e-05 1.422437e-02 -1.985016e-01 3.771362e-01
-1.028181e-01 1.821557e+00 -7.137421e+00 5.153809e+00 -2.982221e-05 1.379530e-02 -1.894531e-01 3.259125e-01
-1.139969e-01 1.833763e+00 -7.106522e+00 5.127899e+00 -1.734314e-05 1.531495e-02 -1.894531e-01 3.534698e-01
-1.180578e-01 1.821017e+00 -7.243301e+00 5.235947e+00 1.205925e-05 1.494935e-02 -2.166138e-01 3.664246e-01
-1.134365e-01 1.812507e+00 -6.984970e+00 5.157303e+00 1.316672e-05 1.535913e-02 -2.529907e-01 3.320312e-01
-1.127227e-01 1.798281e+00 -6.952209e+00 5.109177e+00 4.202336e-05 1.493861e-02 -2.707062e-01 3.277130e-01
-1.107546e-01 1.791675e+00 -6.877792e+00 5.061447e+00 9.790723e-05 1.511147e-02 -2.644196e-01 2.942963e-01
-1.191957e-01 1.805390e+00 -6.744492e+00 5.104797e+00 4.673202e-06 1.560178e-02 -2.523346e-01 2.785492e-01
-1.274187e-01 1.803630e+00 -6.659973e+00 5.011795e+00 1.199122e-04 1.652578e-02 -2.716064e-01 3.393097e-01
-1.490267e-01 1.796973e+00 -7.074188e+00 4.979523e+00 3.247012e-06 1.528938e-02 -2.767639e-01 3.204651e-01
-1.495614e-01 1.799900e+00 -6.895599e+00 5.031387e+00 1.028759e-04 1.614662e-02 -2.571259e-01 3.462219e-01
-1.584145e-01 1.792664e+00 -6.782593e+00 4.930008e+00 1.257778e-04 1.684253e-02 -2.643280e-01 3.873291e-01
-1.841143e-01 1.799913e+00 -7.139297e+00 5.154068e+00 -2.863901e-05 1.474227e-02 -1.945038e-01 2.816467e-01
-1.863126e-01 1.786848e+00 -6.958023e+00 4.938889e+00 9.182741e-05 1.559709e-02 -2.696838e-01 3.509064e-01
-1.838795e-01 1.776501e+00 -6.875305e+00 4.912720e+00 1.807502e-04 1.631672e-02 -2.839508e-01 3.712006e-01
-2.177767e-01 1.793799e+00 -7.182129e+00 4.951416e+00 7.309432e-05 1.605615e-02 -5.387421e-01 6.895905e-01
-2.225200e-01 1.779071e+00 -7.081833e+00 4.820511e+00 8.418467e-05 1.550173e-02 -2.861786e-01 3.666534e-01
-2.226269e-01 1.781238e+00 -7.046265e+00 4.813232e+00 7.905532e-05 1.552329e-02 -3.651428e-01 4.621735e-01
-2.338686e-01 1.786485e+00 -7.131470e+00 4.855850e+00 9.026002e-05 1.570605e-02 -2.198486e-01 3.859558e-01
-2.309885e-01 1.775112e+00 -6.982040e+00 4.838959e+00 7.537401e-05 1.552191e-02 -3.869171e-01 3.657379e-01
-2.622531e-01 1.796328e+00 -7.278961e+00 4.845795e+00 6.982318e-05 1.601169e-02 -3.754578e-01 3.747406e-01
-3.264943e-01 1.780752e+00 -7.118652e+00 4.615036e+00 1.944725e-04 1.573962e-02 -3.754578e-01 3.311157e-01
-3.781775e-01 1.793106e+00 -7.462616e+00 4.586517e+00 -5.397941e-05 1.496231e-02 -3.754578e-01 3.657227e-01
-3.656096e-01 1.800581e+00 -7.380859e+00 4.687134e+00 -2.322376e-05 1.422583e-02 -3.968353e-01 2.746429e-01
-3.584946e-01 1.789506e+00 -7.197388e+00 4.632141e+00 1.146003e-04 1.619752e-02 -3.968353e-01 3.042297e-01
-3.673840e-01 1.787772e+00 -7.312653e+00 4.826172e+00 3.428822e-05 1.564740e-02 -3.968353e-01 3.274384e-01
-3.830205e-01 1.792569e+00 -7.320755e+00 4.829010e+00 -5.370465e-05 1.451639e-02 -3.869171e-01 3.739471e-01
-3.868384e-01 1.798591e+00 -7.420547e+00 4.858765e+00 -5.718009e-05 1.487679e-02 -3.869171e-01 6.251373e-01
-3.781297e-01 1.799573e+00 -7.304825e+00 4.785797e+00 -7.615529e-05 1.372057e-02 -3.869171e-01 2.795715e-01
-3.769296e-01 1.802244e+00 -7.243759e+00 4.875122e+00 -3.332178e-05 1.472194e-02 -3.869171e-01 6.319122e-01
-3.865450e-01 1.809200e+00 -7.459000e+00 4.953613e+00 -2.833257e-05 1.484756e-02 -3.754578e-01 3.187103e-01
-3.796669e-01 1.798484e+00 -7.360764e+00 4.883881e+00 -4.586965e-05 1.374920e-02 -3.869171e-01 2.823792e-01
-3.296904e-01 1.819999e+00 -7.055084e+00 4.938538e+00 4.144655e-07 1.575771e-02 -3.623352e-01 3.890076e-01
-3.058872e-01 1.793004e+00 -6.953720e+00 4.848358e+00 9.997552e-05 1.615206e-02 -3.869171e-01 3.139496e-01
-3.070284e-01 1.794372e+00 -6.953720e+00 4.848358e+00 1.285930e-04 1.697782e-02 -3.869171e-01 6.429596e-01
-3.159492e-01 1.798644e+00 -7.158417e+00 4.835007e+00 1.134105e-04 1.618903e-02 -3.754578e-01 3.404236e-01
-3.008643e-01 1.770684e+00 -6.741028e+00 4.743149e+00 2.665609e-04 1.790893e-02 -4.053497e-01 6.008453e-01
-3.378441e-01 1.783509e+00 -7.061661e+00 4.876770e+00 3.836171e-05 1.676734e-02 -3.623352e-01 6.241913e-01
-3.552872e-01 1.801787e+00 -7.193283e+00 4.864136e+00 -1.115959e-05 1.465590e-02 -3.474426e-01 2.682953e-01
-3.726849e-01 1.797457e+00 -7.293579e+00 4.931320e+00 -2.628017e-05 1.476463e-02 -3.754578e-01 2.949982e-01
-3.553649e-01 1.798812e+00 -6.985367e+00 4.944977e+00 2.465337e-05 1.578954e-02 -3.754578e-01 3.970947e-01
-3.476817e-01 1.797477e+00 -6.912354e+00 4.870682e+00 3.636222e-05 1.640764e-02 -3.623352e-01 3.970947e-01
-3.648705e-01 1.805180e+00 -7.157013e+00 4.866364e+00 2.057927e-05 1.557919e-02 -3.869171e-01 3.068695e-01
-3.712149e-01 1.801305e+00 -7.063644e+00 4.877609e+00 4.975955e-06 1.516781e-02 -4.126282e-01 2.787170e-01
-3.809930e-01 1.793928e+00 -7.048721e+00 4.866211e+00 3.331081e-06 1.504791e-02 -3.968353e-01 3.860626e-01
-3.795320e-01 1.797723e+00 -7.044235e+00 4.885803e+00 -2.725933e-05 1.447826e-02 -3.869171e-01 3.831940e-01
-3.864655e-01 1.807432e+00 -7.165863e+00 4.886642e+00 -6.281710e-05 1.382432e-02 -3.869171e-01 3.103333e-01
-3.731560e-01 1.813749e+00 -7.100235e+00 4.858154e+00 2.096908e-05 1.503446e-02 -3.623352e-01 3.159027e-01
-3.678195e-01 1.837184e+00 -7.009811e+00 4.999466e+00 5.334126e-05 1.571656e-02 -3.869171e-01 3.314514e-01
-3.771161e-01 1.836531e+00 -7.168198e+00 5.003815e+00 1.931876e-05 1.485298e-02 -3.968353e-01 3.224792e-01
-3.797408e-01 1.836781e+00 -7.082809e+00 5.018173e+00 -3.466136e-06 1.446124e-02 -3.968353e-01 3.204498e-01
-3.797408e-01 1.836781e+00 -7.082809e+00 5.018173e+00 -3.466136e-06 1.446124e-02 -3.968353e-01 3.204498e-01
-3.763585e-01 1.830861e+00 -7.013550e+00 4.991257e+00 4.387376e-05 1.523708e-02 -3.968353e-01 3.276367e-01
-3.711581e-01 1.820795e+00 -6.991180e+00 4.970245e+00 1.003801e-04 1.644708e-02 -4.053497e-01 6.536865e-01
-3.981708e-01 1.833056e+00 -7.179611e+00 5.004059e+00 2.177019e-06 1.589689e-02 -3.968353e-01 3.879242e-01
-4.320017e-01 1.809873e+00 -7.225540e+00 4.935120e+00 5.315355e-05 1.591285e-02 -3.869171e-01 3.619080e-01
-4.500309e-01 1.817851e+00 -7.225540e+00 4.856537e+00 -9.283887e-05 1.488421e-02 -3.869171e-01 3.788605e-01
-4.295770e-01 1.807560e+00 -7.130798e+00 4.862000e+00 6.039104e-05 1.567248e-02 -4.053497e-01 3.765717e-01
-4.347974e-01 1.813885e+00 -7.110168e+00 4.894775e+00 1.223029e-05 1.513260e-02 -3.968353e-01 3.757477e-01
-4.351997e-01 1.819935e+00 -7.115021e+00 4.956680e+00 -3.821288e-05 1.443197e-02 -3.869171e-01 3.068848e-01
-4.422648e-01 1.828987e+00 -7.085327e+00 4.949615e+00 -5.460247e-05 1.479909e-02 -3.754578e-01 4.005432e-01
-4.581016e-01 1.835109e+00 -7.218307e+00 4.909271e+00 -1.742352e-05 1.459767e-02 -3.968353e-01 3.253174e-01
-4.629046e-01 1.823671e+00 -7.291412e+00 4.866913e+00 -3.225065e-05 1.483800e-02 -3.869171e-01 4.364014e-01
-4.680757e-01 1.832382e+00 -7.328903e+00 4.867722e+00 -1.033730e-04 1.404846e-02 -3.869171e-01 3.277130e-01
-4.557786e-01 1.831850e+00 -7.265915e+00 4.831146e+00 -4.250031e-05 1.432878e-02 -3.968353e-01 3.232727e-01
-4.616779e-01 1.835426e+00 -7.308487e+00 4.870285e+00 -8.438212e-05 1.391983e-02 -3.869171e-01 3.170013e-01
-4.420524e-01 1.825714e+00 -7.166412e+00 4.823257e+00 9.729198e-05 1.615494e-02 -3.968353e-01 4.015350e-01
-4.509528e-01 1.831414e+00 -7.182632e+00 4.899063e+00 -3.192165e-06 1.457098e-02 -3.968353e-01 3.408356e-01
-4.479964e-01 1.826962e+00 -7.197296e+00 4.849304e+00 4.735709e-05 1.557030e-02 -3.968353e-01 4.406891e-01
-4.522619e-01 1.834518e+00 -7.238983e+00 4.954315e+00 -3.174843e-05 1.462971e-02 -3.754578e-01 4.423523e-01
-4.493393e-01 1.834635e+00 -7.204865e+00 4.907562e+00 -6.466513e-05 1.354362e-02 -3.754578e-01 2.579346e-01
-4.440658e-01 1.835235e+00 -7.159088e+00 4.835739e+00 -9.025396e-06 1.470642e-02 -3.968353e-01 4.415588e-01
-4.392047e-01 1.843781e+00 -7.153091e+00 4.831863e+00 -5.109395e-05 1.479433e-02 -3.869171e-01 3.134613e-01
-4.234055e-01 1.832763e+00 -7.093231e+00 4.790359e+00 9.914422e-05 1.712872e-02 -3.968353e-01 4.127350e-01
-4.477513e-01 1.851082e+00 -7.307739e+00 4.816940e+00 -3.767512e-05 1.469919e-02 -3.869171e-01 3.744659e-01
-4.592444e-01 1.845142e+00 -7.325760e+00 4.813660e+00 -9.392527e-05 1.413981e-02 -3.754578e-01 4.236450e-01
-4.599601e-01 1.842994e+00 -7.240372e+00 4.815414e+00 -8.037963e-05 1.390116e-02 -3.754578e-01 4.236450e-01
-4.580083e-01 1.838437e+00 -7.240372e+00 4.824814e+00 -7.446540e-05 1.365686e-02 -3.754578e-01 3.415680e-01
-4.479894e-01 1.832679e+00 -7.011200e+00 4.888947e+00 3.517507e-05 1.561067e-02 -3.869171e-01 4.694672e-01
-4.473142e-01 1.834694e+00 -7.106796e+00 4.888947e+00 1.278665e-05 1.477980e-02 -3.754578e-01 3.221283e-01
-4.388094e-01 1.838528e+00 -7.043533e+00 4.909744e+00 7.411122e-05 1.586492e-02 -3.754578e-01 4.155884e-01
-4.438282e-01 1.845804e+00 -7.100616e+00 4.884109e+00 5.873598e-06 1.472165e-02 -3.754578e-01 3.854065e-01
-4.472847e-01 1.850562e+00 -7.093109e+00 4.963867e+00 -4.039525e-06 1.517692e-02 -3.754578e-01 4.109039e-01
-4.389856e-01 1.848859e+00 -7.015839e+00 5.141006e+00 6.972559e-05 1.551672e-02 -3.869171e-01 4.008942e-01
-3.899080e-01 1.882205e+00 -7.109528e+00 5.190704e+00 1.031100e-04 1.674529e-02 -4.053497e-01 4.257660e-01
-4.028435e-01 1.864267e+00 -7.109528e+00 5.067886e+00 1.722659e-04 1.696511e-02 -4.053497e-01 4.035339e-01
-4.267483e-01 1.864808e+00 -7.203308e+00 5.024811e+00 7.718799e-05 1.547519e-02 -3.968353e-01 3.912201e-01
-4.301061e-01 1.862411e+00 -7.195465e+00 4.951172e+00 4.964100e-05 1.499418e-02 -3.968353e-01 3.239594e-01
-4.449695e-01 1.880046e+00 -7.267502e+00 5.027283e+00 -2.511329e-05 1.530968e-02 -3.968353e-01 4.268951e-01
-4.422885e-01 1.871069e+00 -7.026108e+00 5.006668e+00 -7.340067e-06 1.537996e-02 -3.968353e-01 4.132843e-01
-4.523145e-01 1.870566e+00 -7.192749e+00 4.929886e+00 -6.755358e-07 1.494955e-02 -3.623352e-01 3.677979e-01
-4.459489e-01 1.861031e+00 -7.097092e+00 5.036438e+00 9.111133e-06 1.481737e-02 -3.754578e-01 4.518280e-01
-4.489214e-01 1.860882e+00 -7.097092e+00 5.052597e+00 2.228329e-05 1.522086e-02 -3.754578e-01 4.518280e-01
-4.672677e-01 1.868180e+00 -7.359787e+00 5.033325e+00 1.395879e-05 1.487978e-02 -3.754578e-01 3.295288e-01
-4.750385e-01 1.870070e+00 -7.331207e+00 4.948212e+00 7.722827e-05 1.549421e-02 -3.623352e-01 3.840027e-01
-5.046101e-01 1.865041e+00 -7.304031e+00 4.831299e+00 -2.452402e-05 1.442659e-02 -3.474426e-01 3.936768e-01
-5.096648e-01 1.853781e+00 -7.268661e+00 4.831299e+00 -7.042824e-05 1.356499e-02 -3.968353e-01 4.052734e-01
-4.479948e-01 1.875790e+00 -7.058014e+00 4.754990e+00 1.022656e-04 1.563253e-02 -3.968353e-01 4.164886e-01
-4.428958e-01 1.867403e+00 -7.053650e+00 4.845535e+00 1.261505e-04 1.626613e-02 -3.474426e-01 3.609619e-01
-4.575716e-01 1.864013e+00 -7.053650e+00 4.915176e+00 5.278788e-05 1.519740e-02 -3.754578e-01 4.260712e-01
-4.619160e-01 1.864997e+00 -7.103897e+00 4.896133e+00 4.650359e-05 1.501517e-02 -3.754578e-01 4.248505e-01
-4.832216e-01 1.864548e+00 -7.150345e+00 4.893127e+00 -4.483844e-05 1.382745e-02 -3.754578e-01 3.960876e-01
-4.847355e-01 1.868311e+00 -7.133224e+00 4.918167e+00 -3.513040e-05 1.393141e-02 -3.754578e-01 3.905487e-01
-4.939492e-01 1.869327e+00 -7.174622e+00 4.939667e+00 -5.268705e-05 1.340971e-02 -3.754578e-01 4.077759e-01
-4.871844e-01 1.867172e+00 -7.138458e+00 4.930435e+00 -5.249557e-05 1.364950e-02 -3.754578e-01 4.114380e-01
-4.894378e-01 1.870600e+00 -7.181381e+00 4.925827e+00 -6.665848e-07 1.394374e-02 -3.754578e-01 4.115601e-01
-4.865269e-01 1.875253e+00 -7.206879e+00 4.956757e+00 -2.870228e-05 1.382304e-02 -3.869171e-01 4.011383e-01
-4.767912e-01 1.863789e+00 -7.158844e+00 4.929047e+00 1.376941e-04 1.661884e-02 -3.869171e-01 4.598999e-01
-4.940235e-01 1.875538e+00 -7.172638e+00 4.993286e+00 2.645875e-05 1.541658e-02 -3.968353e-01 3.839874e-01
-4.833354e-01 1.865018e+00 -7.260086e+00 5.000458e+00 6.457483e-05 1.555991e-02 -3.869171e-01 4.583588e-01
-4.895421e-01 1.876635e+00 -7.250671e+00 4.972626e+00 1.021678e-04 1.640803e-02 -3.968353e-01 6.215210e-01
-5.738826e-01 1.905940e+00 -7.582123e+00 5.132141e+00 -7.808002e-05 1.468588e-02 -3.474426e-01 4.274292e-01
-5.590852e-01 1.872942e+00 -7.541809e+00 5.075241e+00 -7.269969e-05 1.386222e-02 -3.754578e-01 3.930511e-01
-5.337481e-01 1.895705e+00 -7.496628e+00 4.967331e+00 -2.784571e-05 1.632113e-02 -3.869171e-01 8.375854e-01
-5.252908e-01 1.902149e+00 -7.484467e+00 5.019638e+00 -3.729031e-05 1.442176e-02 -3.623352e-01 3.283386e-01
-5.248751e-01 1.911034e+00 -7.539413e+00 4.898438e+00 5.973323e-05 1.523902e-02 -3.623352e-01 4.256439e-01
-5.454487e-01 1.911534e+00 -7.640106e+00 4.887451e+00 2.556567e-05 1.599501e-02 -4.169922e-01 5.092621e-01
-5.501128e-01 1.902929e+00 -7.700531e+00 4.929031e+00 -5.187374e-05 1.506003e-02 -4.155121e-01 5.089874e-01
-5.513642e-01 1.908067e+00 -7.700531e+00 4.960800e+00 -4.844560e-05 1.481993e-02 -3.754578e-01 6.711273e-01
-5.437780e-01 1.905546e+00 -7.681442e+00 4.905441e+00 -3.497025e-06 1.455826e-02 -3.754578e-01 4.098053e-01
-5.474588e-01 1.891749e+00 -7.683350e+00 4.905960e+00 1.006196e-05 1.472625e-02 -3.869171e-01 4.166260e-01
-5.711646e-01 1.908734e+00 -7.825241e+00 4.880310e+00 -1.133440e-05 1.626986e-02 -3.968353e-01 9.143524e-01
-5.615066e-01 1.914165e+00 -7.809540e+00 4.776062e+00 -1.180652e-05 1.459771e-02 -3.754578e-01 3.714752e-01
-5.553068e-01 1.907860e+00 -7.767029e+00 4.831970e+00 -7.953911e-06 1.435471e-02 -3.869171e-01 3.703003e-01
-5.588102e-01 1.922061e+00 -7.789642e+00 4.926956e+00 -1.729751e-05 1.445953e-02 -3.754578e-01 3.610687e-01
-5.569059e-01 1.916246e+00 -7.812698e+00 4.845627e+00 1.146322e-05 1.484463e-02 -3.623352e-01 3.647461e-01
-5.724304e-01 1.908538e+00 -7.792725e+00 4.836411e+00 6.099479e-06 1.521274e-02 -3.754578e-01 3.647766e-01
-5.750434e-01 1.924655e+00 -7.860275e+00 4.873505e+00 -1.145296e-05 1.515855e-02 -3.754578e-01 3.662872e-01
-5.738413e-01 1.919974e+00 -7.886353e+00 4.891357e+00 1.036480e-05 1.543862e-02 -3.754578e-01 3.644867e-01
-5.711423e-01 1.922612e+00 -7.900314e+00 4.859222e+00 5.174939e-05 1.785477e-02 -4.126282e-01 8.736572e-01
-5.609885e-01 1.930070e+00 -7.930145e+00 4.837494e+00 1.098934e-04 1.679758e-02 -4.053497e-01 5.736084e-01
-5.907291e-01 1.926770e+00 -7.987656e+00 4.805969e+00 -4.957790e-06 1.487659e-02 -3.869171e-01 3.599701e-01
-5.892383e-01 1.936333e+00 -7.995697e+00 4.897720e+00 1.630267e-04 1.983338e-02 -4.126282e-01 1.021271e+00
-6.445713e-01 1.998269e+00 -8.784790e+00 4.897720e+00 4.750645e-05 1.852698e-02 -4.219971e-01 1.021271e+00
-6.651577e-01 1.979907e+00 -8.763351e+00 4.856812e+00 -5.222011e-05 1.584108e-02 -4.239960e-01 6.178741e-01
-6.619040e-01 1.987080e+00 -8.817383e+00 4.914062e+00 -8.859014e-06 1.630366e-02 -4.187927e-01 6.102448e-01
-6.616467e-01 1.975235e+00 -8.775009e+00 4.839584e+00 -6.304544e-05 1.603346e-02 -4.239960e-01 6.149902e-01
-6.495463e-01 1.978012e+00 -8.789200e+00 4.839584e+00 -2.523395e-05 1.683249e-02 -4.199219e-01 6.071777e-01
-6.350606e-01 1.969061e+00 -8.608994e+00 4.720383e+00 1.525440e-05 1.682666e-02 -4.217072e-01 5.955963e-01
-6.234288e-01 1.952325e+00 -8.523254e+00 4.663788e+00 8.850773e-05 1.750134e-02 -4.126282e-01 5.991364e-01
-6.620551e-01 1.959329e+00 -8.652069e+00 4.795624e+00 2.027318e-05 1.931817e-02 -4.239960e-01 6.201172e-01
-6.612348e-01 1.955443e+00 -8.660400e+00 4.669739e+00 -4.422987e-05 1.463168e-02 -4.126282e-01 3.339081e-01
-6.561849e-01 1.939490e+00 -8.525192e+00 4.593460e+00 -3.530881e-05 1.519264e-02 -4.126282e-01 3.711700e-01
-6.586752e-01 1.951903e+00 -8.530472e+00 4.740952e+00 -3.156774e-05 1.556790e-02 -3.860016e-01 4.921570e-01
-6.563802e-01 1.933249e+00 -8.462845e+00 4.606125e+00 3.823446e-05 1.789462e-02 -4.126282e-01 5.968781e-01
-6.585310e-01 1.930378e+00 -8.429489e+00 4.583023e+00 -3.644716e-06 1.601146e-02 -4.053497e-01 5.878143e-01
-6.525009e-01 1.920653e+00 -8.319016e+00 4.589935e+00 -2.743326e-05 1.524325e-02 -3.754578e-01 5.194244e-01
-6.565261e-01 1.929767e+00 -8.358002e+00 4.654587e+00 -4.566044e-05 1.474742e-02 -3.754578e-01 3.500214e-01
-6.484418e-01 1.932412e+00 -8.346741e+00 4.616806e+00 -9.414852e-06 1.650645e-02 -3.869171e-01 8.101501e-01
-6.674083e-01 1.943846e+00 -8.386658e+00 4.826126e+00 -7.000658e-05 1.500530e-02 -3.968353e-01 3.759155e-01
-6.655565e-01 1.953447e+00 -8.408508e+00 4.872345e+00 -6.731690e-05 1.423141e-02 -3.968353e-01 3.711853e-01
-6.494991e-01 1.954159e+00 -8.433411e+00 4.912796e+00 3.729286e-05 1.611799e-02 -3.754578e-01 3.775482e-01
-6.477485e-01 1.953661e+00 -8.433411e+00 4.884415e+00 -2.083411e-05 1.474015e-02 -3.869171e-01 3.161926e-01
-6.588244e-01 1.959980e+00 -8.794632e+00 4.903015e+00 1.300068e-05 1.709906e-02 -3.869171e-01 6.447754e-01
-6.628923e-01 1.992448e+00 -8.818024e+00 4.959839e+00 1.849588e-05 1.497075e-02 -3.754578e-01 3.387299e-01
-6.624061e-01 1.981170e+00 -8.802109e+00 4.855972e+00 1.981598e-05 1.625428e-02 -4.053497e-01 6.063843e-01
-6.597491e-01 1.972603e+00 -8.809509e+00 4.829300e+00 2.208189e-05 1.627213e-02 -4.126282e-01 6.196442e-01
-6.645191e-01 1.973511e+00 -8.787201e+00 4.789154e+00 -3.432640e-05 1.475666e-02 -3.754578e-01 3.220825e-01
-6.630175e-01 1.967888e+00 -8.859314e+00 4.754822e+00 2.386419e-05 1.662227e-02 -4.053497e-01 6.047974e-01
-6.795914e-01 1.968297e+00 -8.940811e+00 4.754822e+00 -1.947593e-05 1.601249e-02 -3.968353e-01 3.913269e-01
-6.794295e-01 1.964697e+00 -8.850830e+00 4.734894e+00 -3.154396e-05 1.518002e-02 -3.869171e-01 3.908997e-01
-6.776895e-01 1.957578e+00 -8.850830e+00 4.706070e+00 -3.467355e-05 1.533736e-02 -3.968353e-01 3.908997e-01
-6.796703e-01 1.968527e+00 -8.820969e+00 4.769791e+00 -2.526098e-05 1.588827e-02 -4.126282e-01 6.184692e-01
-6.830653e-01 1.981993e+00 -8.913879e+00 4.762863e+00 -2.377688e-05 1.539880e-02 -3.968353e-01 3.865814e-01
-6.935739e-01 1.964414e+00 -8.861023e+00 4.657211e+00 2.692016e-05 1.717449e-02 -4.564667e-01 6.177216e-01
-7.090072e-01 1.985527e+00 -8.881165e+00 4.661407e+00 -3.514515e-05 1.392935e-02 -3.869171e-01 3.676758e-01
-6.921133e-01 1.976200e+00 -8.810333e+00 4.639404e+00 -6.573574e-05 1.384679e-02 -3.869171e-01 3.436890e-01
-6.804556e-01 1.972796e+00 -8.838577e+00 4.674530e+00 -2.913948e-05 1.647431e-02 -4.160156e-01 9.674072e-01
-6.748356e-01 1.981450e+00 -8.865448e+00 4.707138e+00 2.127946e-05 1.939405e-02 -5.579681e-01 1.215057e+00
-6.864987e-01 1.997224e+00 -8.914673e+00 4.764954e+00 -2.447567e-06 1.569023e-02 -4.519043e-01 5.827179e-01
-6.883950e-01 1.990460e+00 -8.942856e+00 4.820084e+00 -3.418371e-05 1.781942e-02 -4.088287e-01 9.589233e-01
-6.844073e-01 1.989593e+00 -8.989685e+00 4.759949e+00 -6.837619e-05 1.395115e-02 -3.968353e-01 3.115234e-01
-6.960310e-01 2.003160e+00 -9.068054e+00 4.805008e+00 -3.857908e-05 1.573830e-02 -4.408569e-01 5.760498e-01
-6.889660e-01 1.987704e+00 -8.926743e+00 4.729401e+00 2.667998e-05 1.733878e-02 -3.869171e-01 5.468903e-01
-7.017214e-01 2.010127e+00 -9.229523e+00 4.784286e+00 -4.360733e-05 1.473914e-02 -3.869171e-01 3.358917e-01
-5.728048e-01 2.003776e+00 -8.573441e+00 5.038177e+00 2.145113e-04 2.168152e-02 -4.203339e-01 9.254608e-01
-5.851879e-01 2.010571e+00 -8.672134e+00 5.013840e+00 3.257238e-04 2.353011e-02 -5.263672e-01 1.089920e+00
-6.180931e-01 2.020691e+00 -8.672134e+00 4.908768e+00 3.471778e-04 2.357490e-02 -4.760742e-01 7.467804e-01
-6.800270e-01 2.013217e+00 -9.258347e+00 4.761124e+00 1.556353e-04 1.943242e-02 -3.968353e-01 7.998199e-01
-6.927361e-01 2.010608e+00 -9.331467e+00 4.692047e+00 1.068056e-04 1.830625e-02 -3.754578e-01 5.541382e-01
-7.258184e-01 2.016556e+00 -9.353027e+00 4.795822e+00 2.720694e-05 1.627242e-02 -3.869171e-01 4.026794e-01
-7.389820e-01 2.029155e+00 -9.303360e+00 4.795822e+00 -4.615108e-05 1.499248e-02 -3.869171e-01 3.730469e-01
-7.445502e-01 2.027222e+00 -9.487534e+00 4.636734e+00 5.597601e-05 2.067580e-02 -5.251160e-01 1.060638e+00
-7.405226e-01 2.029070e+00 -9.404129e+00 4.636734e+00 -1.939800e-05 1.563708e-02 -3.754578e-01 3.022003e-01
-7.466858e-01 2.033979e+00 -9.590500e+00 4.824707e+00 2.769196e-05 2.041492e-02 -5.502625e-01 1.127502e+00
-7.498717e-01 2.046129e+00 -9.523911e+00 4.739899e+00 2.640724e-05 1.954661e-02 -5.393677e-01 1.092545e+00
-7.564252e-01 2.046189e+00 -9.587936e+00 4.751938e+00 -5.495569e-05 1.592816e-02 -5.031433e-01 6.170502e-01
-7.348079e-01 2.047522e+00 -9.589600e+00 4.767105e+00 7.437256e-05 1.884160e-02 -4.394989e-01 6.781769e-01
-7.359432e-01 2.056757e+00 -9.626068e+00 4.848038e+00 6.040990e-05 1.901458e-02 -5.335999e-01 1.059921e+00
-7.286595e-01 2.060980e+00 -9.558304e+00 4.829758e+00 1.390852e-04 2.137073e-02 -5.480804e-01 1.107910e+00
-7.515780e-01 2.055722e+00 -9.655884e+00 4.887573e+00 8.822157e-06 1.830370e-02 -5.063324e-01 6.598206e-01
-7.571490e-01 2.066072e+00 -9.674866e+00 4.703918e+00 -5.751883e-06 1.624271e-02 -5.036163e-01 6.217499e-01
-7.133926e-01 2.075805e+00 -9.580231e+00 4.729828e+00 1.238106e-04 1.963657e-02 -4.054718e-01 9.378815e-01
-7.832445e-01 2.074255e+00 -9.868286e+00 4.786438e+00 -3.864349e-05 1.786369e-02 -4.053497e-01 6.439514e-01
-7.880818e-01 2.076815e+00 -9.846863e+00 4.786438e+00 -3.545071e-05 1.644009e-02 -4.053497e-01 6.441193e-01
-7.851442e-01 2.080027e+00 -9.863815e+00 4.841507e+00 -1.864647e-05 1.729034e-02 -4.053497e-01 6.446838e-01
-8.004216e-01 2.094926e+00 -9.878601e+00 4.856445e+00 -3.468136e-05 1.602647e-02 -3.968353e-01 6.311951e-01
-8.063109e-01 2.086543e+00 -9.934860e+00 4.897308e+00 -3.236718e-05 1.868727e-02 -5.160675e-01 7.539062e-01
-8.021510e-01 2.099309e+00 -1.003821e+01 4.876221e+00 -6.560288e-05 1.591406e-02 -5.122223e-01 6.247711e-01
-7.912077e-01 2.090783e+00 -1.003821e+01 4.800720e+00 1.322323e-05 1.925252e-02 -4.126282e-01 7.217560e-01
-8.057118e-01 2.100173e+00 -1.013643e+01 4.891998e+00 -8.418660e-05 1.661563e-02 -5.147095e-01 6.400452e-01
-7.944154e-01 2.096698e+00 -1.009413e+01 4.904938e+00 -2.380619e-05 1.651906e-02 -3.869171e-01 7.500916e-01
-7.862128e-01 2.115525e+00 -1.009413e+01 4.992310e+00 -4.717588e-05 1.662160e-02 -5.180054e-01 6.400604e-01
-7.804968e-01 2.131532e+00 -1.005115e+01 4.992310e+00 -1.930762e-05 1.518324e-02 -3.754578e-01 3.494873e-01
-7.696000e-01 2.097685e+00 -9.966461e+00 5.047729e+00 8.788503e-05 1.974649e-02 -4.126282e-01 7.636871e-01
-7.899427e-01 2.105645e+00 -9.933502e+00 5.019318e+00 1.232392e-05 1.953153e-02 -3.869171e-01 9.659424e-01
-8.077935e-01 2.118917e+00 -1.009831e+01 4.916153e+00 -1.672491e-05 1.887663e-02 -5.337219e-01 1.254562e+00
-8.070887e-01 2.112035e+00 -1.004427e+01 5.138458e+00 -5.001044e-05 1.664106e-02 -5.337219e-01 6.337433e-01
-8.069511e-01 2.103385e+00 -1.006763e+01 5.138458e+00 -7.725451e-05 1.583927e-02 -5.445099e-01 6.694641e-01
-8.065202e-01 2.108985e+00 -1.005957e+01 5.138458e+00 -5.833126e-05 1.584508e-02 -5.422516e-01 6.617279e-01
-8.005055e-01 2.115750e+00 -1.032216e+01 5.227936e+00 1.258455e-05 1.801562e-02 -5.405884e-01 6.706696e-01
-8.058822e-01 2.112881e+00 -1.027432e+01 5.193695e+00 -2.479439e-05 1.647306e-02 -3.968353e-01 6.164551e-01
-7.973916e-01 2.112787e+00 -1.026035e+01 5.068665e+00 3.552425e-05 1.790366e-02 -4.075775e-01 1.023499e+00
-7.875344e-01 2.109750e+00 -1.010666e+01 4.947067e+00 5.826965e-05 1.731029e-02 -3.919220e-01 6.059570e-01
-8.096715e-01 2.119212e+00 -1.026370e+01 5.209259e+00 -5.300946e-05 1.481111e-02 -3.754578e-01 3.908234e-01
-8.152387e-01 2.122014e+00 -1.026523e+01 5.017685e+00 -4.146006e-05 1.491653e-02 -3.968353e-01 3.888855e-01
-7.995069e-01 2.123459e+00 -1.029387e+01 5.082443e+00 1.013732e-04 2.063368e-02 -4.839020e-01 1.255875e+00
-8.314252e-01 2.119703e+00 -1.028180e+01 4.986023e+00 -5.813574e-05 1.446365e-02 -4.126282e-01 4.087830e-01
-8.255044e-01 2.121248e+00 -1.025671e+01 5.022095e+00 -4.540657e-05 1.485416e-02 -4.126282e-01 4.276276e-01
-8.229605e-01 2.120790e+00 -1.023305e+01 4.960220e+00 -1.975367e-05 1.660506e-02 -3.796997e-01 1.046417e+00
-8.245763e-01 2.126864e+00 -1.038115e+01 5.094711e+00 6.678046e-06 1.723598e-02 -4.053497e-01 7.449799e-01
-8.199904e-01 2.139956e+00 -1.031264e+01 5.269073e+00 6.397915e-05 1.539910e-02 -4.126282e-01 3.947906e-01
-8.265395e-01 2.137670e+00 -1.031264e+01 5.241318e+00 3.392974e-05 1.465328e-02 -4.126282e-01 3.948364e-01
-8.026784e-01 2.132289e+00 -1.041330e+01 5.092850e+00 1.875664e-04 2.241841e-02 -5.437469e-01 1.271530e+00
-8.618835e-01 2.159943e+00 -1.052425e+01 5.187683e+00 -2.751373e-05 1.565770e-02 -4.053497e-01 3.840485e-01
-8.406497e-01 2.142941e+00 -1.046091e+01 5.188736e+00 3.758087e-05 1.558397e-02 -4.126282e-01 3.520813e-01
-8.353674e-01 2.123099e+00 -1.040094e+01 5.362595e+00 6.842077e-05 2.174107e-02 -6.738129e-01 1.317520e+00
-8.720594e-01 2.138185e+00 -1.056665e+01 4.989929e+00 -9.122804e-06 1.768246e-02 -3.869171e-01 7.110443e-01
-8.906778e-01 2.152538e+00 -1.056665e+01 5.088364e+00 -3.870930e-05 1.651784e-02 -3.869171e-01 7.270203e-01
-8.767328e-01 2.158107e+00 -1.050415e+01 5.243835e+00 -4.222502e-05 1.438882e-02 -3.968353e-01 4.442139e-01
-8.660706e-01 2.158074e+00 -1.044243e+01 5.268845e+00 3.156712e-05 1.633491e-02 -4.053497e-01 4.460144e-01
-8.840841e-01 2.153926e+00 -1.055992e+01 5.092651e+00 7.648876e-06 1.615740e-02 -3.968353e-01 6.263733e-01
-8.828029e-01 2.150686e+00 -1.078088e+01 5.251450e+00 1.482291e-05 1.767207e-02 -4.187927e-01 8.472137e-01
-8.905270e-01 2.171750e+00 -1.084956e+01 5.396530e+00 -1.818462e-05 1.480757e-02 -3.754578e-01 2.876892e-01
-8.587414e-01 2.176844e+00 -1.062521e+01 5.623672e+00 4.594205e-05 2.032920e-02 -5.533295e-01 7.953339e-01
-8.588883e-01 2.176483e+00 -1.066673e+01 5.539505e+00 1.145760e-04 1.880517e-02 -4.053497e-01 6.806641e-01
-8.560441e-01 2.174496e+00 -1.066466e+01 5.539505e+00 1.201188e-04 2.027414e-02 -4.124146e-01 6.800537e-01
-8.755021e-01 2.176810e+00 -1.070502e+01 5.405075e+00 1.845561e-05 1.637247e-02 -5.217285e-01 5.689240e-01
-7.639463e-01 2.150544e+00 -9.899002e+00 5.666214e+00 4.920639e-04 2.070469e-02 -3.968353e-01 6.160126e-01
-8.024225e-01 2.132462e+00 -1.004872e+01 5.601456e+00 2.880282e-04 2.165629e-02 -4.237823e-01 6.148987e-01
-8.404582e-01 2.152388e+00 -1.017566e+01 5.488464e+00 2.507877e-04 2.263146e-02 -5.042572e-01 1.217514e+00
-9.759380e-01 2.322471e+00 -1.164876e+01 6.892990e+00 1.736500e-04 1.804762e-02 -4.319000e-01 4.456635e-01
-1.008592e+00 2.300102e+00 -1.144754e+01 6.733368e+00 2.169858e-05 1.849224e-02 -4.126282e-01 6.022186e-01
-1.011027e+00 2.305467e+00 -1.132379e+01 6.699921e+00 2.061657e-05 1.658398e-02 -4.048920e-01 5.684967e-01
-1.018875e+00 2.254176e+00 -1.118503e+01 6.434433e+00 -1.016501e-04 1.620841e-02 -4.397583e-01 5.967407e-01
-1.020674e+00 2.277864e+00 -1.118719e+01 6.079117e+00 -3.381584e-05 1.598613e-02 -3.869171e-01 5.020447e-01
-9.973121e-01 2.257933e+00 -1.104343e+01 6.356995e+00 -2.364928e-05 1.648119e-02 -4.253235e-01 6.184540e-01
-9.947790e-01 2.262313e+00 -1.121474e+01 6.202164e+00 4.376626e-05 1.651260e-02 -3.869171e-01 5.273590e-01
-9.994465e-01 2.249091e+00 -1.125566e+01 5.944901e+00 -2.544386e-05 1.599541e-02 -3.869171e-01 5.626526e-01
-9.734594e-01 2.245355e+00 -1.136617e+01 5.840973e+00 -3.784369e-05 1.773611e-02 -3.968353e-01 6.184082e-01
-9.719580e-01 2.264758e+00 -1.142467e+01 5.566620e+00 2.428129e-05 1.731256e-02 -3.869171e-01 7.668457e-01
-9.979494e-01 2.287122e+00 -1.139503e+01 5.669098e+00 -3.042956e-05 1.637159e-02 -3.968353e-01 5.958862e-01
-9.862596e-01 2.275618e+00 -1.170538e+01 6.037430e+00 3.339857e-06 1.629242e-02 -4.126282e-01 4.820709e-01
-9.818579e-01 2.268458e+00 -1.156030e+01 5.854645e+00 5.660284e-05 1.960668e-02 -4.126282e-01 7.329407e-01
-1.000943e+00 2.284919e+00 -1.177034e+01 5.751892e+00 1.888692e-05 2.009558e-02 -4.126282e-01 1.114914e+00
-1.005124e+00 2.284975e+00 -1.167307e+01 5.942307e+00 -1.946399e-06 1.880075e-02 -4.053497e-01 1.114914e+00
-9.930551e-01 2.289863e+00 -1.162386e+01 5.793442e+00 2.929814e-05 1.814736e-02 -4.126282e-01 7.822113e-01
-9.830159e-01 2.284748e+00 -1.153215e+01 5.886215e+00 -6.175123e-06 1.734479e-02 -4.126282e-01 6.721191e-01
-9.670698e-01 2.294167e+00 -1.156508e+01 6.121719e+00 4.718071e-05 1.814088e-02 -4.126282e-01 6.483154e-01
-9.391137e-01 2.293541e+00 -1.164262e+01 6.298599e+00 1.363582e-04 2.246375e-02 -5.070648e-01 1.113480e+00
-9.285366e-01 2.295169e+00 -1.159370e+01 6.353043e+00 1.566721e-04 2.251032e-02 -4.725800e-01 1.099136e+00
-9.540613e-01 2.300952e+00 -1.159370e+01 6.176346e+00 1.486625e-04 1.998129e-02 -3.968353e-01 6.429443e-01
-9.939139e-01 2.294480e+00 -1.170903e+01 6.186874e+00 2.223976e-05 1.869539e-02 -4.954376e-01 6.489868e-01
-1.014782e+00 2.298859e+00 -1.197513e+01 5.995132e+00 -4.699028e-05 1.527295e-02 -4.126282e-01 6.651611e-01
-1.014252e+00 2.300586e+00 -1.188835e+01 5.902542e+00 -4.320629e-05 1.712337e-02 -5.077515e-01 6.274261e-01
-1.016072e+00 2.299056e+00 -1.188835e+01 6.042603e+00 -1.504958e-05 1.707431e-02 -4.126282e-01 6.717224e-01
-1.013887e+00 2.299993e+00 -1.192976e+01 5.895844e+00 -3.320094e-05 1.556092e-02 -4.053497e-01 6.577911e-01
-1.017735e+00 2.303500e+00 -1.192195e+01 5.688873e+00 -3.704126e-06 1.505987e-02 -3.869171e-01 4.199066e-01
-1.000214e+00 2.280238e+00 -1.189796e+01 6.066315e+00 3.025739e-05 1.987943e-02 -4.081573e-01 1.066162e+00
-1.025743e+00 2.301080e+00 -1.203342e+01 5.892120e+00 -3.091686e-05 1.716734e-02 -3.869171e-01 1.078156e+00
-1.001409e+00 2.301438e+00 -1.193404e+01 6.020020e+00 -9.936466e-06 1.580473e-02 -3.968353e-01 4.346161e-01
-1.000577e+00 2.299420e+00 -1.190919e+01 6.033157e+00 -3.078347e-05 1.542432e-02 -3.869171e-01 4.191895e-01
-9.863016e-01 2.299005e+00 -1.179391e+01 6.080963e+00 7.573793e-05 1.868836e-02 -4.053497e-01 6.563110e-01
-1.011268e+00 2.303876e+00 -1.193842e+01 6.001556e+00 -5.630632e-05 1.466290e-02 -3.869171e-01 4.116669e-01
-9.980847e-01 2.303276e+00 -1.179291e+01 6.099426e+00 5.626481e-05 2.006766e-02 -8.024597e-01 1.140121e+00
-1.025582e+00 2.309014e+00 -1.194981e+01 5.956009e+00 -5.820015e-05 1.473520e-02 -3.869171e-01 4.146118e-01
-1.013255e+00 2.303964e+00 -1.194897e+01 6.031708e+00 -2.952849e-05 1.560979e-02 -3.968353e-01 4.411316e-01
-1.006335e+00 2.306197e+00 -1.183057e+01 6.149109e+00 -2.349834e-05 1.596929e-02 -3.968353e-01 4.795227e-01
-1.025646e+00 2.312703e+00 -1.191110e+01 6.125397e+00 5.466478e-05 1.932539e-02 -4.187622e-01 6.482544e-01
-1.072770e+00 2.361093e+00 -1.277908e+01 5.818497e+00 5.587851e-05 2.010808e-02 -4.408417e-01 1.093430e+00
-1.070216e+00 2.339682e+00 -1.246007e+01 6.316971e+00 -9.671684e-05 1.764295e-02 -7.982635e-01 6.166687e-01
-1.065191e+00 2.339532e+00 -1.235918e+01 6.259171e+00 -6.391632e-05 1.940630e-02 -7.785492e-01 1.103699e+00
-1.065526e+00 2.343612e+00 -1.234723e+01 6.175171e+00 -1.249297e-04 1.644317e-02 -7.781525e-01 5.961151e-01
-1.054964e+00 2.341417e+00 -1.228784e+01 6.175171e+00 -1.071685e-04 1.449098e-02 -3.968353e-01 2.922211e-01
-1.048828e+00 2.347399e+00 -1.228784e+01 6.187531e+00 -2.018543e-05 1.741033e-02 -3.968353e-01 6.410065e-01
-1.049741e+00 2.347765e+00 -1.228619e+01 5.873932e+00 -5.297418e-05 1.601213e-02 -3.968353e-01 6.415405e-01
-1.033842e+00 2.339698e+00 -1.224599e+01 5.993134e+00 8.223845e-06 2.021501e-02 -4.907532e-01 1.426834e+00
-1.034061e+00 2.347805e+00 -1.235674e+01 6.090347e+00 2.246389e-05 1.805567e-02 -4.053497e-01 6.587219e-01
-1.077754e+00 2.361781e+00 -1.226418e+01 6.200455e+00 -2.434184e-05 1.731545e-02 -3.968353e-01 6.429291e-01
-1.077045e+00 2.364512e+00 -1.213971e+01 6.140335e+00 -3.547730e-05 1.643979e-02 -3.968353e-01 4.826660e-01
-1.047256e+00 2.361509e+00 -1.201450e+01 6.334961e+00 1.012760e-05 1.723278e-02 -4.126282e-01 7.438202e-01
-1.048095e+00 2.364331e+00 -1.201450e+01 6.263168e+00 -3.297620e-05 1.576771e-02 -4.053497e-01 5.930023e-01
-1.049076e+00 2.367288e+00 -1.238017e+01 6.383652e+00 1.627016e-05 1.891986e-02 -4.187927e-01 1.097916e+00
-1.050639e+00 2.355478e+00 -1.239412e+01 6.358551e+00 3.071766e-06 1.824047e-02 -3.968353e-01 1.089294e+00
-1.049523e+00 2.364377e+00 -1.223907e+01 6.492188e+00 -1.976368e-05 1.569094e-02 -4.053497e-01 7.042999e-01
-1.063239e+00 2.370047e+00 -1.239558e+01 6.260345e+00 -5.506441e-05 1.567858e-02 -3.968353e-01 1.015488e+00
-1.055484e+00 2.368655e+00 -1.234979e+01 6.447327e+00 -3.718018e-05 1.357585e-02 -3.968353e-01 4.748077e-01
-1.031074e+00 2.362759e+00 -1.215363e+01 6.507355e+00 3.367499e-05 1.599056e-02 -3.869171e-01 4.913940e-01
-1.029899e+00 2.364392e+00 -1.223395e+01 6.522079e+00 5.585236e-06 1.656513e-02 -4.053497e-01 7.109833e-01
-1.036562e+00 2.367521e+00 -1.256102e+01 6.522079e+00 7.949699e-06 1.733155e-02 -4.053497e-01 7.846222e-01
-1.040191e+00 2.373867e+00 -1.243448e+01 6.465118e+00 3.370930e-05 1.803796e-02 -3.968353e-01 1.072632e+00
-1.041371e+00 2.369024e+00 -1.236143e+01 6.430740e+00 5.483967e-06 1.748050e-02 -3.968353e-01 1.097687e+00
-1.028489e+00 2.368319e+00 -1.224313e+01 6.463684e+00 4.491979e-05 1.942074e-02 -3.968353e-01 1.106766e+00
-1.029033e+00 2.368705e+00 -1.254904e+01 6.557419e+00 4.047054e-05 1.866812e-02 -4.126282e-01 1.129562e+00
-1.032569e+00 2.372538e+00 -1.258679e+01 6.617355e+00 4.067606e-06 1.765985e-02 -4.126282e-01 1.106293e+00
-1.041890e+00 2.385061e+00 -1.260051e+01 6.522018e+00 4.735525e-05 1.740775e-02 -3.869171e-01 1.074005e+00
-1.023004e+00 2.374189e+00 -1.259326e+01 6.722260e+00 4.777568e-05 1.910173e-02 -4.053497e-01 1.099960e+00
-1.023360e+00 2.373043e+00 -1.258740e+01 6.625122e+00 3.429138e-05 1.871237e-02 -4.053497e-01 1.099960e+00
-1.042592e+00 2.385898e+00 -1.313612e+01 6.523880e+00 -2.222353e-05 1.656868e-02 -3.968353e-01 6.626740e-01
-1.046178e+00 2.404065e+00 -1.303554e+01 6.465500e+00 -2.419310e-06 1.683361e-02 -3.968353e-01 6.569824e-01
-1.047474e+00 2.394439e+00 -1.300471e+01 6.457291e+00 -3.309844e-05 1.554851e-02 -4.053497e-01 4.721069e-01
-1.041190e+00 2.388568e+00 -1.274283e+01 6.555435e+00 -2.398863e-06 1.536790e-02 -4.053497e-01 6.698608e-01
-1.036915e+00 2.392028e+00 -1.259184e+01 6.540146e+00 -1.247819e-05 1.502030e-02 -4.053497e-01 6.584320e-01
-1.050475e+00 2.398675e+00 -1.276810e+01 6.593079e+00 -6.134581e-06 1.431959e-02 -3.968353e-01 3.748322e-01
-1.037426e+00 2.392788e+00 -1.269048e+01 6.690186e+00 2.396634e-05 1.532133e-02 -4.053497e-01 4.414062e-01
-1.032421e+00 2.395280e+00 -1.272514e+01 6.891525e+00 9.330520e-06 1.692599e-02 -4.053497e-01 6.821442e-01
-1.014173e+00 2.396130e+00 -1.256885e+01 6.935806e+00 7.613827e-05 1.850641e-02 -5.299530e-01 6.880646e-01
-1.042707e+00 2.399773e+00 -1.268611e+01 6.795990e+00 7.480835e-05 1.781728e-02 -4.126282e-01 5.947113e-01
-1.078768e+00 2.405028e+00 -1.282893e+01 6.825211e+00 -6.313688e-05 1.573980e-02 -4.053497e-01 4.060364e-01
-1.061077e+00 2.408240e+00 -1.305008e+01 6.875488e+00 1.797045e-04 2.172897e-02 -4.126282e-01 6.484222e-01
-1.091536e+00 2.406292e+00 -1.282326e+01 6.779129e+00 -7.894072e-05 1.460554e-02 -4.053497e-01 4.110413e-01
-1.083292e+00 2.405576e+00 -1.283809e+01 6.788971e+00 -6.720510e-05 1.400753e-02 -4.053497e-01 4.437103e-01
-1.082697e+00 2.409520e+00 -1.279710e+01 6.764542e+00 -4.602761e-05 1.435927e-02 -4.053497e-01 3.853912e-01
-1.082532e+00 2.407503e+00 -1.286122e+01 6.642487e+00 -3.201467e-06 1.452799e-02 -4.053497e-01 6.486816e-01
-1.076272e+00 2.405743e+00 -1.270416e+01 6.764572e+00 -4.805255e-05 1.377929e-02 -4.053497e-01 3.191528e-01
-1.082249e+00 2.408730e+00 -1.272102e+01 6.861389e+00 -3.043597e-05 1.462482e-02 -3.968353e-01 4.774475e-01
-1.100597e+00 2.418862e+00 -1.302055e+01 6.753250e+00 -6.275489e-05 1.344916e-02 -3.968353e-01 2.924347e-01
-1.094664e+00 2.413864e+00 -1.268553e+01 6.770721e+00 -1.458211e-05 1.657074e-02 -4.053497e-01 4.113922e-01
-1.093194e+00 2.417068e+00 -1.279094e+01 6.806137e+00 -5.229128e-05 1.467436e-02 -3.968353e-01 3.935394e-01
-1.089453e+00 2.426879e+00 -1.293430e+01 6.740463e+00 -4.090809e-05 1.482091e-02 -3.968353e-01 4.246826e-01
-1.085158e+00 2.428426e+00 -1.292648e+01 6.796921e+00 -5.192306e-05 1.529691e-02 -4.053497e-01 4.947357e-01
-1.097170e+00 2.433011e+00 -1.297978e+01 6.906662e+00 -6.940748e-05 1.486214e-02 -4.053497e-01 4.359436e-01
-1.095089e+00 2.427881e+00 -1.286078e+01 6.983337e+00 -9.023071e-05 1.381843e-02 -4.053497e-01 3.965607e-01
-1.093283e+00 2.438522e+00 -1.289772e+01 6.961243e+00 -5.955824e-05 1.396304e-02 -4.053497e-01 2.899017e-01
-1.075425e+00 2.436090e+00 -1.273325e+01 6.959991e+00 -5.080998e-07 1.523951e-02 -3.968353e-01 5.923309e-01
-1.073025e+00 2.438674e+00 -1.272058e+01 6.957428e+00 1.938466e-05 1.661783e-02 -4.053497e-01 6.184692e-01
-1.060886e+00 2.447140e+00 -1.287099e+01 6.517212e+00 3.967978e-05 1.667879e-02 -4.053497e-01 5.115814e-01
-1.071607e+00 2.455595e+00 -1.283672e+01 6.927597e+00 1.129219e-05 1.531295e-02 -3.869171e-01 4.510803e-01
-1.073957e+00 2.446021e+00 -1.302898e+01 7.003525e+00 7.531416e-05 1.808612e-02 -4.053497e-01 6.762390e-01
-1.078991e+00 2.451659e+00 -1.282065e+01 6.959137e+00 6.164663e-05 1.731019e-02 -3.869171e-01 6.783142e-01
-1.090572e+00 2.443816e+00 -1.283037e+01 6.992111e+00 4.143084e-05 1.635648e-02 -3.968353e-01 6.772614e-01
-1.088340e+00 2.443136e+00 -1.290506e+01 7.133789e+00 -2.975850e-06 1.449921e-02 -3.968353e-01 2.993011e-01
-1.082946e+00 2.438951e+00 -1.288661e+01 7.064224e+00 2.386147e-05 1.516341e-02 -4.053497e-01 5.017700e-01
-1.081980e+00 2.439633e+00 -1.284340e+01 7.064224e+00 1.798875e-05 1.519505e-02 -3.968353e-01 4.841309e-01
-1.084034e+00 2.442356e+00 -1.282451e+01 7.172302e+00 4.887411e-06 1.583364e-02 -4.053497e-01 4.842682e-01
-1.083490e+00 2.448002e+00 -1.294542e+01 7.129639e+00 -3.809344e-06 1.565020e-02 -4.053497e-01 5.321045e-01
-1.112057e+00 2.480116e+00 -1.285002e+01 6.794022e+00 1.860186e-04 2.197592e-02 -4.120789e-01 1.143341e+00
-1.138022e+00 2.468596e+00 -1.311714e+01 6.949753e+00 -9.995788e-06 1.474604e-02 -3.869171e-01 5.834656e-01
-1.139360e+00 2.462632e+00 -1.311714e+01 7.086380e+00 -2.788704e-05 1.510668e-02 -3.869171e-01 5.834656e-01
-1.120226e+00 2.470796e+00 -1.327805e+01 6.731949e+00 3.244950e-05 1.885645e-02 -4.369507e-01 1.131943e+00
-1.116955e+00 2.478795e+00 -1.335831e+01 6.733841e+00 6.353134e-05 1.910240e-02 -4.053497e-01 7.121735e-01
-1.120120e+00 2.472290e+00 -1.304411e+01 6.812897e+00 7.790337e-05 1.889634e-02 -4.053497e-01 7.113647e-01
-1.128688e+00 2.474112e+00 -1.324814e+01 7.062851e+00 2.314811e-05 1.637606e-02 -4.126282e-01 5.125732e-01
-1.129691e+00 2.497052e+00 -1.282484e+01 6.858032e+00 1.651191e-04 2.093272e-02 -4.205627e-01 1.264542e+00
-1.156196e+00 2.493517e+00 -1.325102e+01 6.776535e+00 1.607438e-05 1.790930e-02 -4.194794e-01 1.279572e+00
-1.153312e+00 2.478957e+00 -1.328796e+01 6.861267e+00 -1.713709e-05 1.669169e-02 -4.126282e-01 6.896515e-01
-1.169205e+00 2.491325e+00 -1.334912e+01 6.714844e+00 -6.812618e-05 1.450275e-02 -3.869171e-01 5.689392e-01
-1.154596e+00 2.484850e+00 -1.332654e+01 6.725952e+00 -1.673482e-07 1.840577e-02 -4.365540e-01 1.262039e+00
-1.145650e+00 2.485198e+00 -1.313489e+01 6.759171e+00 6.652158e-06 1.573049e-02 -4.053497e-01 5.208130e-01
-1.150950e+00 2.488279e+00 -1.339716e+01 6.616913e+00 -4.534295e-05 1.356931e-02 -3.968353e-01 3.474579e-01
-1.138256e+00 2.488367e+00 -1.325421e+01 6.798126e+00 -2.374476e-05 1.447695e-02 -3.968353e-01 4.568176e-01
-1.149500e+00 2.495755e+00 -1.343867e+01 6.704010e+00 -1.143760e-05 1.782864e-02 -4.204102e-01 1.250458e+00
-1.147921e+00 2.493054e+00 -1.331441e+01 6.621979e+00 -2.242212e-05 1.478057e-02 -3.869171e-01 5.661621e-01
-1.142881e+00 2.504564e+00 -1.334808e+01 6.804596e+00 3.883936e-06 1.563143e-02 -3.869171e-01 5.793915e-01
-1.152850e+00 2.500338e+00 -1.337314e+01 6.596069e+00 -6.945803e-05 1.453656e-02 -3.869171e-01 2.897797e-01
-1.112863e+00 2.497186e+00 -1.329228e+01 6.800430e+00 9.423224e-05 1.897504e-02 -3.968353e-01 6.845093e-01
-1.145801e+00 2.509825e+00 -1.361633e+01 7.806610e+00 7.008881e-06 2.002116e-02 -3.968353e-01 1.245575e+00
-1.148746e+00 2.508516e+00 -1.378444e+01 7.784897e+00 5.554768e-05 2.221177e-02 -5.812073e-01 1.620148e+00
-1.155639e+00 2.522553e+00 -1.359024e+01 7.755783e+00 5.324842e-05 2.018733e-02 -4.126282e-01 1.333588e+00
-1.171532e+00 2.522357e+00 -1.377292e+01 7.795929e+00 -3.322797e-05 1.545731e-02 -3.968353e-01 5.574951e-01
-1.163889e+00 2.518893e+00 -1.367542e+01 7.832062e+00 -2.546896e-05 1.611888e-02 -3.968353e-01 5.574951e-01
-1.156874e+00 2.522994e+00 -1.384920e+01 7.849258e+00 1.299937e-05 1.511975e-02 -3.968353e-01 2.964172e-01
-1.145551e+00 2.512622e+00 -1.361749e+01 6.776978e+00 1.049871e-05 1.884961e-02 -4.989014e-01 8.964386e-01
-1.158760e+00 2.529468e+00 -1.369983e+01 6.832550e+00 3.668270e-05 1.588069e-02 -3.968353e-01 5.730286e-01
-1.186777e+00 2.532438e+00 -1.400594e+01 8.391647e+00 -2.980949e-05 2.113095e-02 -5.304718e-01 1.334381e+00
-1.220368e+00 2.553868e+00 -1.369893e+01 6.616882e+00 -6.978281e-05 1.767379e-02 -4.723816e-01 1.225204e+00
-1.199954e+00 2.547047e+00 -1.356564e+01 6.633713e+00 -6.752409e-05 2.015839e-02 -5.941162e-01 1.623459e+00
-1.198644e+00 2.543552e+00 -1.376898e+01 6.699722e+00 -6.662092e-05 2.109217e-02 -5.861816e-01 1.629333e+00
-1.199388e+00 2.551489e+00 -1.374870e+01 6.817139e+00 -8.640627e-05 1.514576e-02 -3.968353e-01 7.129669e-01
-1.185817e+00 2.547455e+00 -1.349120e+01 6.779114e+00 -3.306203e-05 1.600993e-02 -4.053497e-01 7.196960e-01
-1.194720e+00 2.550152e+00 -1.367969e+01 6.693680e+00 -5.583130e-06 1.971692e-02 -4.667053e-01 1.186096e+00
-1.176888e+00 2.550747e+00 -1.348953e+01 6.548035e+00 3.831572e-05 1.941538e-02 -3.968353e-01 1.062851e+00
-1.201223e+00 2.560520e+00 -1.380966e+01 7.239044e+00 -4.853459e-05 1.621702e-02 -4.989624e-01 5.763702e-01
-1.192970e+00 2.552350e+00 -1.377977e+01 7.999451e+00 -6.714209e-05 1.787701e-02 -4.907379e-01 1.260864e+00
-1.186384e+00 2.556157e+00 -1.377977e+01 6.814941e+00 -2.941441e-05 1.952838e-02 -5.007019e-01 1.243378e+00
-1.207085e+00 2.569048e+00 -1.386324e+01 6.573120e+00 -3.986723e-05 1.605841e-02 -3.754578e-01 6.636963e-01
-1.197770e+00 2.564621e+00 -1.373965e+01 6.838425e+00 -3.689647e-05 1.668301e-02 -3.968353e-01 6.636963e-01
