-2.871254e+00 1.078155e+01 -6.239989e+01 5.363469e+01 4.102908e-06 2.894932e-03 -2.230377e-01 2.230377e-01
-3.188130e+00 1.266027e+01 -6.899590e+01 6.513295e+01 -6.031133e-07 2.258103e-03 -2.215118e-01 2.093964e-01
-3.192334e+00 1.322614e+01 -7.270892e+01 6.484052e+01 -5.184687e-08 2.155276e-03 -2.178345e-01 2.063141e-01
-3.171297e+00 1.367335e+01 -8.017281e+01 7.473163e+01 1.001408e-06 2.111628e-03 -2.198944e-01 2.120056e-01
-3.188659e+00 1.421408e+01 -8.025806e+01 7.710497e+01 1.037768e-06 2.064607e-03 -2.207794e-01 2.160187e-01
-3.187758e+00 1.459129e+01 -8.277539e+01 8.040718e+01 7.991429e-07 2.028422e-03 -2.175446e-01 2.093964e-01
-3.231698e+00 1.482725e+01 -8.413918e+01 8.148775e+01 4.999633e-07 1.983998e-03 -2.175446e-01 2.141876e-01
-3.232641e+00 1.495804e+01 -8.483704e+01 7.956895e+01 -8.307509e-07 1.958863e-03 -2.188263e-01 2.063141e-01
-3.234096e+00 1.515540e+01 -9.103745e+01 8.281584e+01 3.553917e-07 1.944853e-03 -2.175446e-01 2.093964e-01
-3.082733e+00 1.553155e+01 -9.275627e+01 8.789642e+01 -4.355825e-07 1.930091e-03 -2.175446e-01 2.093964e-01
-3.081173e+00 1.562560e+01 -9.313583e+01 8.906535e+01 6.546850e-07 1.890674e-03 -2.175446e-01 2.120056e-01
-3.087512e+00 1.604359e+01 -9.379866e+01 8.874409e+01 -4.788818e-07 1.914633e-03 -2.141876e-01 2.120056e-01
-3.070518e+00 1.628968e+01 -9.712425e+01 8.672661e+01 -4.957517e-08 1.898674e-03 -2.141876e-01 2.093964e-01
-3.046716e+00 1.642486e+01 -1.014563e+02 9.125343e+01 5.691671e-07 1.841276e-03 -2.141876e-01 2.063141e-01
-2.984382e+00 1.642211e+01 -9.916537e+01 9.105858e+01 -1.354732e-09 1.837986e-03 -2.121887e-01 2.093964e-01
