-1.929760e+00 8.887805e+00 -4.633064e+01 4.312271e+01 1.478299e-05 1.770082e-03 -1.262285e-01 1.262285e-01
-2.581613e+00 1.004149e+01 -4.989835e+01 4.509047e+01 1.472038e-06 1.410206e-03 -1.262285e-01 1.262285e-01
-2.721719e+00 1.040711e+01 -5.037510e+01 4.418484e+01 4.965418e-06 1.313244e-03 -1.262284e-01 1.262285e-01
-2.904064e+00 1.068270e+01 -5.178734e+01 4.501585e+01 2.126932e-06 1.239493e-03 -1.262285e-01 1.262285e-01
-3.028847e+00 1.082135e+01 -5.279274e+01 4.327397e+01 1.860140e-06 1.171014e-03 -1.262285e-01 1.262284e-01
-3.080924e+00 1.096570e+01 -5.373308e+01 4.628749e+01 1.912855e-06 1.134317e-03 -1.262285e-01 1.262285e-01
-3.058397e+00 1.107926e+01 -5.457342e+01 4.840745e+01 -3.282570e-06 1.110588e-03 -1.262285e-01 1.262285e-01
-3.150308e+00 1.125679e+01 -5.613186e+01 4.834229e+01 1.899211e-07 1.095376e-03 -1.262285e-01 1.262285e-01
-3.253514e+00 1.138274e+01 -5.629906e+01 5.136974e+01 2.546133e-06 1.059729e-03 -1.262285e-01 1.262285e-01
-3.265616e+00 1.145236e+01 -5.639355e+01 4.992451e+01 7.321604e-07 1.034434e-03 -1.262285e-01 1.262285e-01
-3.338245e+00 1.161070e+01 -5.478159e+01 5.112534e+01 1.363336e-06 1.027651e-03 -1.262285e-01 1.262284e-01
-3.344918e+00 1.168049e+01 -5.703045e+01 5.142344e+01 2.791773e-06 9.922018e-04 -1.262285e-01 1.262285e-01
-3.396158e+00 1.175810e+01 -5.676215e+01 5.181064e+01 9.123126e-09 9.812992e-04 -1.262285e-01 1.262283e-01
-3.375468e+00 1.182581e+01 -5.713639e+01 5.279334e+01 4.563305e-07 9.741462e-04 -1.262285e-01 1.262285e-01
-3.436645e+00 1.186846e+01 -5.600052e+01 5.280802e+01 2.300998e-06 9.618709e-04 -1.262285e-01 1.262285e-01
-3.451393e+00 1.196273e+01 -5.843382e+01 5.389550e+01 -5.050008e-07 9.633351e-04 -1.262285e-01 1.262285e-01
-3.570425e+00 1.210637e+01 -5.732388e+01 5.571963e+01 -1.434897e-06 9.635937e-04 -1.262285e-01 1.262285e-01
-3.596022e+00 1.218891e+01 -5.845942e+01 5.671305e+01 9.735417e-07 9.243463e-04 -1.262283e-01 1.262283e-01
-3.592957e+00 1.223319e+01 -5.982727e+01 5.625979e+01 -2.732066e-07 9.086592e-04 -1.262285e-01 1.262285e-01
-3.604262e+00 1.228773e+01 -5.947931e+01 5.676631e+01 -1.088549e-06 8.815328e-04 -1.262284e-01 1.262285e-01
-3.579781e+00 1.229581e+01 -6.083578e+01 5.625571e+01 -1.899516e-07 8.825466e-04 -1.262285e-01 1.262285e-01
-3.652683e+00 1.234924e+01 -5.994701e+01 5.685741e+01 3.014902e-06 8.997657e-04 -1.262285e-01 1.262283e-01
-3.608171e+00 1.243049e+01 -6.188289e+01 5.735744e+01 -2.860402e-06 9.707681e-04 -1.262285e-01 1.262283e-01
-3.575981e+00 1.248924e+01 -6.293643e+01 5.806137e+01 2.194461e-08 9.867235e-04 -1.262285e-01 1.262284e-01
-3.615794e+00 1.253610e+01 -6.342929e+01 5.771929e+01 -3.841789e-07 9.913358e-04 -1.262285e-01 1.262277e-01
-3.714135e+00 1.263891e+01 -6.293425e+01 5.928696e+01 -1.582730e-06 9.959208e-04 -1.262285e-01 1.262284e-01
-3.721229e+00 1.271974e+01 -6.380150e+01 6.105999e+01 -2.544197e-06 9.522331e-04 -1.262285e-01 1.287091e-01
-3.696643e+00 1.274527e+01 -6.599500e+01 5.968331e+01 4.241079e-07 9.699207e-04 -1.262285e-01 1.262283e-01
-3.726937e+00 1.278514e+01 -6.477738e+01 6.097292e+01 1.800242e-07 9.445790e-04 -1.262285e-01 1.262285e-01
-3.746980e+00 1.281427e+01 -6.528286e+01 5.926862e+01 -1.883594e-07 9.317154e-04 -1.262285e-01 1.262285e-01
-3.760637e+00 1.286193e+01 -6.546416e+01 5.969321e+01 5.329834e-07 9.164982e-04 -1.262284e-01 1.262284e-01
-3.778933e+00 1.291598e+01 -6.491215e+01 5.992673e+01 -2.711279e-06 9.166676e-04 -1.262285e-01 1.262285e-01
-3.806636e+00 1.302480e+01 -6.638636e+01 6.237875e+01 2.257939e-06 9.140491e-04 -1.262285e-01 1.262285e-01
-3.802470e+00 1.301311e+01 -6.683937e+01 6.081740e+01 1.326255e-06 9.074963e-04 -1.262285e-01 1.274097e-01
-3.809098e+00 1.304365e+01 -6.737649e+01 6.110919e+01 1.572147e-06 8.785862e-04 -1.262285e-01 1.262285e-01
-3.811649e+00 1.311663e+01 -6.687307e+01 6.044895e+01 8.348903e-07 9.095612e-04 -1.262285e-01 1.272490e-01
-3.860772e+00 1.315155e+01 -6.774838e+01 6.100958e+01 -7.990777e-08 8.834580e-04 -1.262285e-01 1.262285e-01
-3.859568e+00 1.316392e+01 -6.688734e+01 6.106334e+01 -1.185759e-07 8.873405e-04 -1.262285e-01 1.262285e-01
