6.892578e+01 6.250000e-01 -4.982096e-02 5.368076e-01 -9.528809e-01 9.633789e-01
6.412427e+01 3.697917e-01 -8.032136e-02 7.473800e-01 -2.692627e+00 2.279297e+00
6.229077e+01 3.697917e-01 -2.306306e-01 1.654093e+00 -5.621338e+00 5.347656e+00
6.086426e+01 3.697917e-01 -4.007125e-01 2.348085e+00 -7.468018e+00 7.434082e+00
5.837427e+01 3.697917e-01 -5.485939e-01 2.810226e+00 -8.716064e+00 8.829590e+00
5.738647e+01 3.697917e-01 -7.035816e-01 3.153151e+00 -9.664062e+00 9.878906e+00
5.546411e+01 3.697917e-01 -8.211995e-01 3.420731e+00 -1.033496e+01 1.065015e+01
5.452246e+01 3.697917e-01 -8.949029e-01 3.636808e+00 -1.083545e+01 1.121265e+01
5.396094e+01 3.697917e-01 -9.370506e-01 3.810245e+00 -1.122021e+01 1.164771e+01
5.546265e+01 3.697917e-01 -9.545645e-01 3.962401e+00 -1.153955e+01 1.200952e+01
5.663940e+01 3.697917e-01 -9.843822e-01 4.089288e+00 -1.179395e+01 1.230200e+01
5.472559e+01 3.697917e-01 -1.050703e+00 4.181541e+00 -1.199097e+01 1.252832e+01
5.325854e+01 3.697917e-01 -1.133068e+00 4.263029e+00 -1.214673e+01 1.269824e+01
5.301367e+01 3.697917e-01 -1.200071e+00 4.344804e+00 -1.227759e+01 1.284131e+01
5.141553e+01 3.697917e-01 -1.244363e+00 4.418205e+00 -1.238062e+01 1.295679e+01
5.120972e+01 3.697917e-01 -1.280173e+00 4.494094e+00 -1.245801e+01 1.304614e+01
5.125537e+01 3.697917e-01 -1.324278e+00 4.577403e+00 -1.251440e+01 1.311523e+01
5.014795e+01 3.697917e-01 -1.402138e+00 4.659987e+00 -1.256494e+01 1.316577e+01
5.037256e+01 3.697917e-01 -1.476734e+00 4.742141e+00 -1.313940e+01 1.321631e+01
4.958838e+01 3.697917e-01 -1.498908e+00 4.827742e+00 -1.362134e+01 1.410864e+01
4.998706e+01 3.697917e-01 -1.492475e+00 4.913152e+00 -1.406226e+01 1.553198e+01
4.887988e+01 3.697917e-01 -1.513835e+00 4.990407e+00 -1.461768e+01 1.589233e+01
4.817944e+01 3.697917e-01 -1.550065e+00 5.064739e+00 -1.531812e+01 1.636768e+01
4.784277e+01 3.697917e-01 -1.587884e+00 5.125791e+00 -1.622314e+01 1.634644e+01
4.768140e+01 3.697917e-01 -1.560092e+00 5.146049e+00 -1.669775e+01 1.640283e+01
4.784888e+01 3.385417e-01 -1.533467e+00 5.169117e+00 -1.741846e+01 1.645874e+01
4.792017e+01 3.385417e-01 -1.534096e+00 5.200723e+00 -1.827954e+01 1.647998e+01
4.635791e+01 3.125000e-01 -1.587105e+00 5.247396e+00 -1.921753e+01 1.647192e+01
4.625000e+01 2.864583e-01 -1.614641e+00 5.289326e+00 -1.989819e+01 1.647632e+01
4.564648e+01 3.020833e-01 -1.598940e+00 5.320158e+00 -2.041284e+01 1.650049e+01
4.570117e+01 3.020833e-01 -1.602815e+00 5.347492e+00 -2.103198e+01 1.651636e+01
4.530835e+01 3.072917e-01 -1.642104e+00 5.376562e+00 -2.148169e+01 1.652026e+01
4.531201e+01 3.125000e-01 -1.653211e+00 5.400891e+00 -2.182739e+01 1.653101e+01
4.555591e+01 2.864583e-01 -1.638416e+00 5.419677e+00 -2.204858e+01 1.654150e+01
4.406055e+01 2.968750e-01 -1.679725e+00 5.452774e+00 -2.260669e+01 1.653320e+01
4.373242e+01 2.656250e-01 -1.705139e+00 5.481567e+00 -2.280249e+01 1.653345e+01
4.368091e+01 2.812500e-01 -1.701544e+00 5.494222e+00 -2.312720e+01 1.654785e+01
4.428735e+01 2.760417e-01 -1.682770e+00 5.507505e+00 -2.332593e+01 1.655933e+01
4.330005e+01 2.760417e-01 -1.722304e+00 5.538619e+00 -2.390015e+01 1.655273e+01
4.336890e+01 2.760417e-01 -1.750166e+00 5.576958e+00 -2.428101e+01 1.654321e+01
4.256714e+01 2.760417e-01 -1.761022e+00 5.612121e+00 -2.463794e+01 1.653906e+01
4.307959e+01 2.708333e-01 -1.757446e+00 5.638986e+00 -2.473364e+01 1.654077e+01
4.292651e+01 2.760417e-01 -1.777609e+00 5.670671e+00 -2.503247e+01 1.653418e+01
4.313647e+01 2.760417e-01 -1.795259e+00 5.704176e+00 -2.516333e+01 1.652490e+01
4.298730e+01 2.708333e-01 -1.806425e+00 5.720907e+00 -2.537231e+01 1.652173e+01
4.278882e+01 2.708333e-01 -1.829406e+00 5.750058e+00 -2.571606e+01 1.651050e+01
4.309277e+01 2.708333e-01 -1.831211e+00 5.773973e+00 -2.583398e+01 1.650513e+01
4.275024e+01 2.604167e-01 -1.859901e+00 5.810213e+00 -2.586621e+01 1.648486e+01
4.295923e+01 2.708333e-01 -1.863324e+00 5.845227e+00 -2.565674e+01 1.646826e+01
4.257324e+01 2.656250e-01 -1.865790e+00 5.873483e+00 -2.553589e+01 1.645508e+01
4.291064e+01 2.656250e-01 -1.894459e+00 5.897180e+00 -2.576758e+01 1.643799e+01
4.309839e+01 2.604167e-01 -1.923041e+00 5.910226e+00 -2.581592e+01 1.642529e+01
4.323071e+01 2.656250e-01 -1.926724e+00 5.926110e+00 -2.566479e+01 1.641821e+01
4.275366e+01 2.656250e-01 -1.937997e+00 5.949019e+00 -2.544897e+01 1.640186e+01
4.272070e+01 2.656250e-01 -1.939854e+00 5.974573e+00 -2.506519e+01 1.638867e+01
4.286865e+01 2.604167e-01 -1.955953e+00 6.000862e+00 -2.487012e+01 1.637036e+01
4.235278e+01 2.656250e-01 -1.984781e+00 6.030394e+00 -2.486401e+01 1.634399e+01
4.229761e+01 2.604167e-01 -1.987576e+00 6.053345e+00 -2.440332e+01 1.632886e+01
4.217139e+01 2.552083e-01 -1.997388e+00 6.064574e+00 -2.403809e+01 1.631348e+01
4.219873e+01 2.708333e-01 -1.994647e+00 6.073757e+00 -2.342798e+01 1.630884e+01
4.219458e+01 2.552083e-01 -2.026563e+00 6.093156e+00 -2.330566e+01 1.629297e+01
4.240674e+01 2.552083e-01 -2.040235e+00 6.110700e+00 -2.286157e+01 1.628564e+01
4.236743e+01 2.552083e-01 -2.056566e+00 6.119867e+00 -2.276831e+01 1.627856e+01
4.244116e+01 2.708333e-01 -2.056422e+00 6.128931e+00 -2.229102e+01 1.628125e+01
4.223853e+01 2.656250e-01 -2.068397e+00 6.150828e+00 -2.185522e+01 1.627075e+01
4.197095e+01 2.552083e-01 -2.086452e+00 6.175413e+00 -2.159595e+01 1.625415e+01
4.194043e+01 2.604167e-01 -2.095706e+00 6.196151e+00 -2.114209e+01 1.624121e+01
4.188062e+01 2.604167e-01 -2.106631e+00 6.228611e+00 -2.060474e+01 1.628394e+01
4.165552e+01 2.656250e-01 -2.122667e+00 6.243365e+00 -2.050220e+01 1.626660e+01
4.193628e+01 2.656250e-01 -2.110752e+00 6.254591e+00 -1.974585e+01 1.640063e+01
4.146387e+01 2.656250e-01 -2.130226e+00 6.270299e+00 -1.929932e+01 1.640918e+01
4.179907e+01 2.604167e-01 -2.159240e+00 6.289769e+00 -1.917407e+01 1.645166e+01
4.157544e+01 2.656250e-01 -2.163978e+00 6.309693e+00 -1.867334e+01 1.664526e+01
4.198853e+01 2.604167e-01 -2.162895e+00 6.336548e+00 -1.784888e+01 1.683911e+01
4.181689e+01 2.604167e-01 -2.190797e+00 6.372315e+00 -1.794263e+01 1.685596e+01
4.103931e+01 2.500000e-01 -2.209353e+00 6.414683e+00 -1.824805e+01 1.697681e+01
4.197534e+01 2.604167e-01 -2.211721e+00 6.438259e+00 -1.791187e+01 1.722290e+01
4.207739e+01 2.604167e-01 -2.207298e+00 6.465123e+00 -1.730347e+01 1.741187e+01
4.147437e+01 2.656250e-01 -2.222173e+00 6.501965e+00 -1.775366e+01 1.746240e+01
4.122656e+01 2.500000e-01 -2.244390e+00 6.539764e+00 -1.776245e+01 1.757446e+01
4.136743e+01 2.552083e-01 -2.255813e+00 6.567511e+00 -1.752515e+01 1.774805e+01
4.148193e+01 2.604167e-01 -2.269352e+00 6.597342e+00 -1.732080e+01 1.797876e+01
4.184692e+01 2.656250e-01 -2.274358e+00 6.627715e+00 -1.696045e+01 1.823608e+01
4.137695e+01 2.604167e-01 -2.293304e+00 6.659364e+00 -1.687036e+01 1.833301e+01
4.144214e+01 2.604167e-01 -2.306859e+00 6.688078e+00 -1.681348e+01 1.850415e+01
4.168213e+01 2.656250e-01 -2.310734e+00 6.710313e+00 -1.691040e+01 1.867725e+01
4.157349e+01 2.552083e-01 -2.334294e+00 6.745414e+00 -1.685986e+01 1.862329e+01
4.114258e+01 2.552083e-01 -2.344883e+00 6.772119e+00 -1.693164e+01 1.871094e+01
4.090039e+01 2.552083e-01 -2.360972e+00 6.798850e+00 -1.700342e+01 1.879858e+01
4.070239e+01 2.500000e-01 -2.376908e+00 6.830184e+00 -1.707520e+01 1.891553e+01
4.113013e+01 2.604167e-01 -2.364496e+00 6.851057e+00 -1.714697e+01 1.914966e+01
4.101001e+01 2.447917e-01 -2.383662e+00 6.878697e+00 -1.721875e+01 1.912280e+01
4.104346e+01 2.604167e-01 -2.420911e+00 6.914963e+00 -1.729053e+01 1.900781e+01
4.116870e+01 2.447917e-01 -2.422651e+00 6.946450e+00 -1.736230e+01 1.930298e+01
4.190161e+01 2.604167e-01 -2.417593e+00 6.976033e+00 -1.743408e+01 1.951025e+01
4.126904e+01 2.604167e-01 -2.436394e+00 7.008757e+00 -1.750586e+01 1.946533e+01
4.098242e+01 2.500000e-01 -2.458943e+00 7.042996e+00 -1.757764e+01 1.943140e+01
4.083252e+01 2.447917e-01 -2.477771e+00 7.077100e+00 -1.764941e+01 1.931445e+01
4.111548e+01 2.604167e-01 -2.491130e+00 7.111184e+00 -1.772119e+01 1.931445e+01
4.102637e+01 2.656250e-01 -2.481684e+00 7.146849e+00 -1.779297e+01 1.959839e+01
4.069287e+01 2.656250e-01 -2.501611e+00 7.183250e+00 -1.786475e+01 1.961621e+01
4.075073e+01 2.552083e-01 -2.531566e+00 7.212567e+00 -1.793652e+01 1.950122e+01
4.078174e+01 2.552083e-01 -2.545773e+00 7.251472e+00 -1.800830e+01 1.973730e+01
4.114526e+01 2.656250e-01 -2.550123e+00 7.298087e+00 -1.808008e+01 2.006812e+01
4.138232e+01 2.604167e-01 -2.555218e+00 7.341228e+00 -1.815186e+01 2.024756e+01
4.024341e+01 2.708333e-01 -2.579384e+00 7.373794e+00 -1.822363e+01 2.025122e+01
4.001001e+01 2.656250e-01 -2.599734e+00 7.405196e+00 -1.829541e+01 2.039307e+01
3.968042e+01 2.552083e-01 -2.621651e+00 7.437290e+00 -1.836719e+01 2.058008e+01
4.060254e+01 2.604167e-01 -2.630552e+00 7.478793e+00 -1.843896e+01 2.082324e+01
4.019263e+01 2.656250e-01 -2.641184e+00 7.513025e+00 -1.851074e+01 2.104175e+01
4.035596e+01 2.656250e-01 -2.660315e+00 7.548068e+00 -1.858252e+01 2.128223e+01
4.048682e+01 2.656250e-01 -2.676277e+00 7.585870e+00 -1.865576e+01 2.153125e+01
3.981226e+01 2.656250e-01 -2.687198e+00 7.626459e+00 -1.872900e+01 2.181982e+01
4.000781e+01 2.656250e-01 -2.696916e+00 7.668754e+00 -1.880225e+01 2.209521e+01
4.009229e+01 2.708333e-01 -2.706688e+00 7.718764e+00 -1.887549e+01 2.239282e+01
4.013550e+01 2.656250e-01 -2.728395e+00 7.759160e+00 -1.894873e+01 2.267480e+01
4.003394e+01 2.604167e-01 -2.738746e+00 7.804005e+00 -1.902197e+01 2.299048e+01
4.089526e+01 2.552083e-01 -2.742637e+00 7.849484e+00 -1.909521e+01 2.322534e+01
4.028906e+01 2.552083e-01 -2.766204e+00 7.880637e+00 -1.916846e+01 2.340796e+01
4.007446e+01 2.656250e-01 -2.786477e+00 7.913089e+00 -1.924170e+01 2.360132e+01
3.995093e+01 2.656250e-01 -2.794664e+00 7.965942e+00 -1.931494e+01 2.394336e+01
3.995483e+01 2.708333e-01 -2.802721e+00 8.016510e+00 -1.938818e+01 2.420776e+01
3.986304e+01 2.656250e-01 -2.815386e+00 8.065899e+00 -1.946143e+01 2.445679e+01
3.999927e+01 2.656250e-01 -2.835540e+00 8.104997e+00 -1.953467e+01 2.463940e+01
3.997388e+01 2.604167e-01 -2.855180e+00 8.138664e+00 -1.960791e+01 2.483105e+01
4.026489e+01 2.500000e-01 -2.874630e+00 8.183066e+00 -1.968115e+01 2.502979e+01
4.035034e+01 2.500000e-01 -2.891814e+00 8.232118e+00 -1.997559e+01 2.523242e+01
4.031519e+01 2.395833e-01 -2.909464e+00 8.273252e+00 -2.004712e+01 2.541699e+01
4.009424e+01 2.395833e-01 -2.923580e+00 8.317151e+00 -2.019360e+01 2.558252e+01
3.952954e+01 2.500000e-01 -2.942921e+00 8.348006e+00 -2.006519e+01 2.570190e+01
3.916113e+01 2.552083e-01 -2.959682e+00 8.384864e+00 -2.005615e+01 2.584741e+01
3.920044e+01 2.552083e-01 -2.971669e+00 8.424624e+00 -2.012061e+01 2.605005e+01
3.914893e+01 2.552083e-01 -2.987146e+00 8.462169e+00 -2.019385e+01 2.620459e+01
3.911060e+01 2.552083e-01 -3.007150e+00 8.497757e+00 -2.026709e+01 2.638477e+01
3.945679e+01 2.447917e-01 -3.018971e+00 8.549495e+00 -2.034033e+01 2.662622e+01
3.980859e+01 2.447917e-01 -3.035263e+00 8.596858e+00 -2.047021e+01 2.679883e+01
3.926636e+01 2.447917e-01 -3.053972e+00 8.635801e+00 -2.056250e+01 2.688867e+01
3.937354e+01 2.395833e-01 -3.074044e+00 8.668114e+00 -2.056006e+01 2.691602e+01
3.977759e+01 2.500000e-01 -3.095207e+00 8.703461e+00 -2.063330e+01 2.702441e+01
3.914233e+01 2.343750e-01 -3.107956e+00 8.749994e+00 -2.070654e+01 2.718604e+01
3.935303e+01 2.395833e-01 -3.117880e+00 8.800745e+00 -2.092676e+01 2.736865e+01
3.928125e+01 2.395833e-01 -3.133073e+00 8.836490e+00 -2.088062e+01 2.749805e+01
3.923779e+01 2.500000e-01 -3.153570e+00 8.860826e+00 -2.092627e+01 2.753467e+01
3.937012e+01 2.447917e-01 -3.168161e+00 8.901665e+00 -2.099951e+01 2.761523e+01
3.914526e+01 2.447917e-01 -3.185958e+00 8.936850e+00 -2.107275e+01 2.765186e+01
3.908057e+01 2.447917e-01 -3.202440e+00 8.971177e+00 -2.114600e+01 2.768848e+01
3.918042e+01 2.447917e-01 -3.221596e+00 9.014744e+00 -2.121924e+01 2.774341e+01
3.942993e+01 2.395833e-01 -3.236938e+00 9.056601e+00 -2.129248e+01 2.784229e+01
3.962085e+01 2.395833e-01 -3.256272e+00 9.093036e+00 -2.136572e+01 2.794116e+01
3.968018e+01 2.395833e-01 -3.275962e+00 9.130885e+00 -2.143896e+01 2.800537e+01
3.980957e+01 2.395833e-01 -3.290138e+00 9.171038e+00 -2.151221e+01 2.808813e+01
3.972705e+01 2.447917e-01 -3.304371e+00 9.208711e+00 -2.158545e+01 2.817993e+01
3.939355e+01 2.500000e-01 -3.326149e+00 9.234310e+00 -2.165869e+01 2.821460e+01
3.959595e+01 2.447917e-01 -3.337443e+00 9.285076e+00 -2.173193e+01 2.841235e+01
3.963989e+01 2.447917e-01 -3.347705e+00 9.335870e+00 -2.180518e+01 2.851367e+01
3.960718e+01 2.447917e-01 -3.362400e+00 9.371579e+00 -2.187842e+01 2.858716e+01
3.940576e+01 2.447917e-01 -3.385651e+00 9.398758e+00 -2.195166e+01 2.863306e+01
3.964380e+01 2.447917e-01 -3.404277e+00 9.438147e+00 -2.202490e+01 2.871582e+01
3.952783e+01 2.395833e-01 -3.419907e+00 9.481876e+00 -2.209814e+01 2.878955e+01
3.987061e+01 2.447917e-01 -3.437654e+00 9.524416e+00 -2.217139e+01 2.884448e+01
3.957104e+01 2.395833e-01 -3.456533e+00 9.559206e+00 -2.224463e+01 2.890869e+01
3.933813e+01 2.395833e-01 -3.472685e+00 9.595347e+00 -2.231787e+01 2.898218e+01
3.979175e+01 2.395833e-01 -3.484621e+00 9.635688e+00 -2.239111e+01 2.909668e+01
3.966724e+01 2.395833e-01 -3.501967e+00 9.672242e+00 -2.246436e+01 2.920508e+01
3.967627e+01 2.395833e-01 -3.514620e+00 9.709075e+00 -2.253760e+01 2.928564e+01
3.954858e+01 2.395833e-01 -3.530886e+00 9.743251e+00 -2.261084e+01 2.939600e+01
3.959106e+01 2.395833e-01 -3.547262e+00 9.781003e+00 -2.268408e+01 2.949683e+01
3.971948e+01 2.395833e-01 -3.564428e+00 9.820639e+00 -2.275732e+01 2.965137e+01
3.947095e+01 2.395833e-01 -3.583799e+00 9.857930e+00 -2.283057e+01 2.978687e+01
3.972754e+01 2.395833e-01 -3.597209e+00 9.906872e+00 -2.290381e+01 2.998804e+01
3.973901e+01 2.447917e-01 -3.619906e+00 9.930298e+00 -2.297705e+01 2.991431e+01
3.982764e+01 2.395833e-01 -3.636992e+00 9.970514e+00 -2.305029e+01 3.008691e+01
3.965381e+01 2.395833e-01 -3.647104e+00 1.002060e+01 -2.312354e+01 3.032935e+01
4.004663e+01 2.447917e-01 -3.657258e+00 1.007298e+01 -2.319678e+01 3.056006e+01
3.986328e+01 2.395833e-01 -3.672209e+00 1.010522e+01 -2.327002e+01 3.050488e+01
3.943848e+01 2.395833e-01 -3.689957e+00 1.013496e+01 -2.334326e+01 3.050000e+01
3.947144e+01 2.395833e-01 -3.707023e+00 1.016876e+01 -2.341650e+01 3.058276e+01
3.950562e+01 2.395833e-01 -3.725219e+00 1.020602e+01 -2.348975e+01 3.070728e+01
3.938354e+01 2.395833e-01 -3.736448e+00 1.025259e+01 -2.356299e+01 3.093701e+01
3.950464e+01 2.395833e-01 -3.753882e+00 1.029162e+01 -2.363623e+01 3.112061e+01
3.942114e+01 2.395833e-01 -3.772206e+00 1.032724e+01 -2.370947e+01 3.123047e+01
3.933618e+01 2.395833e-01 -3.790376e+00 1.036387e+01 -2.378271e+01 3.139600e+01
3.918579e+01 2.395833e-01 -3.805312e+00 1.040498e+01 -2.385596e+01 3.156860e+01
3.934155e+01 2.395833e-01 -3.818950e+00 1.044522e+01 -2.392920e+01 3.171606e+01
3.941357e+01 2.395833e-01 -3.835038e+00 1.047910e+01 -2.400244e+01 3.178003e+01
3.922949e+01 2.395833e-01 -3.849746e+00 1.052237e+01 -2.407568e+01 3.199976e+01
3.908398e+01 2.395833e-01 -3.864175e+00 1.056522e+01 -2.414893e+01 3.217554e+01
3.905054e+01 2.395833e-01 -3.887482e+00 1.059293e+01 -2.422217e+01 3.217529e+01
3.881152e+01 2.395833e-01 -3.907738e+00 1.062868e+01 -2.429541e+01 3.224878e+01
3.909302e+01 2.395833e-01 -3.914705e+00 1.067717e+01 -2.436865e+01 3.237329e+01
3.896094e+01 2.395833e-01 -3.926562e+00 1.071857e+01 -2.444189e+01 3.241016e+01
3.884277e+01 2.395833e-01 -3.941457e+00 1.075788e+01 -2.451514e+01 3.243750e+01
3.888794e+01 2.395833e-01 -3.958534e+00 1.079674e+01 -2.458838e+01 3.252075e+01
3.872217e+01 2.395833e-01 -3.982352e+00 1.082370e+01 -2.466162e+01 3.245654e+01
3.877026e+01 2.395833e-01 -4.000643e+00 1.086415e+01 -2.473486e+01 3.258325e+01
3.857935e+01 2.395833e-01 -4.021669e+00 1.089532e+01 -2.480811e+01 3.265649e+01
3.950708e+01 2.395833e-01 -4.029076e+00 1.095382e+01 -2.488135e+01 3.295898e+01
3.977686e+01 2.447917e-01 -4.040629e+00 1.100292e+01 -2.495459e+01 3.309253e+01
3.847607e+01 2.395833e-01 -4.064496e+00 1.102053e+01 -2.502783e+01 3.291895e+01
3.860840e+01 2.395833e-01 -4.085055e+00 1.105015e+01 -2.510107e+01 3.288184e+01
3.865820e+01 2.395833e-01 -4.098423e+00 1.109461e+01 -2.517432e+01 3.302173e+01
3.903931e+01 2.395833e-01 -4.111059e+00 1.114476e+01 -2.524756e+01 3.321240e+01
3.916675e+01 2.395833e-01 -4.128928e+00 1.118478e+01 -2.532080e+01 3.331128e+01
3.896069e+01 2.395833e-01 -4.143465e+00 1.122754e+01 -2.539404e+01 3.345068e+01
3.869092e+01 2.395833e-01 -4.164351e+00 1.125561e+01 -2.546729e+01 3.350586e+01
3.837524e+01 2.395833e-01 -4.182105e+00 1.129168e+01 -2.554053e+01 3.365283e+01
3.846509e+01 2.447917e-01 -4.204311e+00 1.132463e+01 -2.561377e+01 3.368066e+01
3.903345e+01 2.395833e-01 -4.213572e+00 1.137442e+01 -2.568701e+01 3.382617e+01
3.903369e+01 2.395833e-01 -4.231424e+00 1.141464e+01 -2.576025e+01 3.386279e+01
3.879272e+01 2.447917e-01 -4.254350e+00 1.144607e+01 -2.583350e+01 3.386279e+01
3.882642e+01 2.447917e-01 -4.269170e+00 1.148631e+01 -2.590674e+01 3.396411e+01
3.848853e+01 2.447917e-01 -4.290861e+00 1.151625e+01 -2.597998e+01 3.395508e+01
3.855981e+01 2.447917e-01 -4.306922e+00 1.155473e+01 -2.605322e+01 3.410059e+01
3.900317e+01 2.447917e-01 -4.319613e+00 1.160328e+01 -2.612646e+01 3.421997e+01
3.854077e+01 2.500000e-01 -4.337546e+00 1.164058e+01 -2.619971e+01 3.431885e+01
3.866284e+01 2.500000e-01 -4.355191e+00 1.168126e+01 -2.627295e+01 3.441772e+01
3.869678e+01 2.500000e-01 -4.374591e+00 1.172381e+01 -2.634619e+01 3.450952e+01
3.878296e+01 2.500000e-01 -4.390984e+00 1.176896e+01 -2.641943e+01 3.462891e+01
3.906787e+01 2.500000e-01 -4.411117e+00 1.180415e+01 -2.649268e+01 3.472070e+01
3.900000e+01 2.500000e-01 -4.429870e+00 1.184544e+01 -2.656592e+01 3.482202e+01
3.903369e+01 2.500000e-01 -4.440638e+00 1.189306e+01 -2.663916e+01 3.495801e+01
3.885791e+01 2.500000e-01 -4.461060e+00 1.192764e+01 -2.671240e+01 3.500415e+01
3.896143e+01 2.500000e-01 -4.474040e+00 1.196998e+01 -2.678564e+01 3.514966e+01
3.889258e+01 2.500000e-01 -4.490868e+00 1.201089e+01 -2.685889e+01 3.523242e+01
3.909937e+01 2.500000e-01 -4.510150e+00 1.205367e+01 -2.693213e+01 3.530371e+01
3.904590e+01 2.447917e-01 -4.527479e+00 1.209997e+01 -2.700537e+01 3.542822e+01
3.922485e+01 2.447917e-01 -4.546687e+00 1.214116e+01 -2.707861e+01 3.554565e+01
3.929736e+01 2.447917e-01 -4.565549e+00 1.217465e+01 -2.715186e+01 3.566504e+01
3.918823e+01 2.447917e-01 -4.583687e+00 1.220675e+01 -2.722510e+01 3.573633e+01
3.916602e+01 2.447917e-01 -4.596548e+00 1.224700e+01 -2.729834e+01 3.584692e+01
3.955933e+01 2.447917e-01 -4.608093e+00 1.229693e+01 -2.737158e+01 3.603149e+01
3.947095e+01 2.447917e-01 -4.622933e+00 1.234258e+01 -2.744482e+01 3.615601e+01
3.934448e+01 2.395833e-01 -4.642635e+00 1.237715e+01 -2.751807e+01 3.624780e+01
3.934692e+01 2.395833e-01 -4.665429e+00 1.241025e+01 -2.759131e+01 3.632129e+01
3.949268e+01 2.395833e-01 -4.685072e+00 1.245418e+01 -2.766455e+01 3.643872e+01
3.939258e+01 2.395833e-01 -4.701888e+00 1.249845e+01 -2.773779e+01 3.657715e+01
3.953735e+01 2.395833e-01 -4.722739e+00 1.253332e+01 -2.781104e+01 3.661401e+01
3.970215e+01 2.447917e-01 -4.736289e+00 1.258256e+01 -2.788428e+01 3.671533e+01
3.940259e+01 2.395833e-01 -4.751172e+00 1.261739e+01 -2.795752e+01 3.680762e+01
3.918042e+01 2.395833e-01 -4.773857e+00 1.264725e+01 -2.803076e+01 3.685376e+01
3.919531e+01 2.395833e-01 -4.797683e+00 1.267672e+01 -2.810400e+01 3.689038e+01
3.948315e+01 2.395833e-01 -4.814045e+00 1.272241e+01 -2.817725e+01 3.701880e+01
3.940552e+01 2.395833e-01 -4.821418e+00 1.277961e+01 -2.825049e+01 3.720190e+01
3.951221e+01 2.395833e-01 -4.843176e+00 1.281024e+01 -2.832373e+01 3.725708e+01
3.936157e+01 2.395833e-01 -4.866354e+00 1.283717e+01 -2.839697e+01 3.728442e+01
3.911548e+01 2.395833e-01 -4.888451e+00 1.286973e+01 -2.847021e+01 3.729346e+01
3.901782e+01 2.395833e-01 -4.903080e+00 1.291318e+01 -2.854346e+01 3.742188e+01
3.942334e+01 2.395833e-01 -4.916412e+00 1.296156e+01 -2.861670e+01 3.754175e+01
3.972119e+01 2.395833e-01 -4.931283e+00 1.300503e+01 -2.868994e+01 3.759692e+01
3.941943e+01 2.395833e-01 -4.948445e+00 1.304529e+01 -2.876318e+01 3.771484e+01
3.914380e+01 2.395833e-01 -4.971159e+00 1.307236e+01 -2.883643e+01 3.776099e+01
3.929272e+01 2.447917e-01 -4.993845e+00 1.310171e+01 -2.890967e+01 3.774243e+01
3.916016e+01 2.395833e-01 -5.010036e+00 1.314191e+01 -2.898291e+01 3.788086e+01
3.939258e+01 2.395833e-01 -5.026419e+00 1.318496e+01 -2.905615e+01 3.799072e+01
3.948853e+01 2.447917e-01 -5.039903e+00 1.322999e+01 -2.912939e+01 3.805298e+01
3.962817e+01 2.447917e-01 -5.049903e+00 1.327251e+01 -2.920264e+01 3.819849e+01
3.913721e+01 2.395833e-01 -5.072721e+00 1.329593e+01 -2.927588e+01 3.820752e+01
3.853638e+01 2.447917e-01 -5.097500e+00 1.332326e+01 -2.934912e+01 3.824414e+01
3.890015e+01 2.395833e-01 -5.116335e+00 1.336268e+01 -2.942236e+01 3.836865e+01
3.905518e+01 2.395833e-01 -5.127187e+00 1.341075e+01 -2.949561e+01 3.847900e+01
3.941943e+01 2.447917e-01 -5.138849e+00 1.345516e+01 -2.956885e+01 3.860596e+01
3.919287e+01 2.395833e-01 -5.164421e+00 1.348016e+01 -2.964209e+01 3.860596e+01
3.919116e+01 2.447917e-01 -5.186954e+00 1.351328e+01 -2.971533e+01 3.862427e+01
3.933203e+01 2.500000e-01 -5.201024e+00 1.355969e+01 -2.978857e+01 3.873267e+01
3.925952e+01 2.447917e-01 -5.215028e+00 1.360066e+01 -2.986182e+01 3.878760e+01
3.971069e+01 2.447917e-01 -5.226910e+00 1.364606e+01 -2.993506e+01 3.889844e+01
3.929443e+01 2.447917e-01 -5.244161e+00 1.368364e+01 -3.000830e+01 3.896069e+01
3.912158e+01 2.447917e-01 -5.263595e+00 1.371259e+01 -3.008154e+01 3.895142e+01
3.882910e+01 2.447917e-01 -5.287362e+00 1.373841e+01 -3.015479e+01 3.887769e+01
3.915649e+01 2.447917e-01 -5.306953e+00 1.377478e+01 -3.022803e+01 3.890552e+01
3.934473e+01 2.447917e-01 -5.315543e+00 1.382447e+01 -3.030127e+01 3.905103e+01
3.921265e+01 2.447917e-01 -5.330820e+00 1.385830e+01 -3.037451e+01 3.911523e+01
3.914380e+01 2.447917e-01 -5.350555e+00 1.389165e+01 -3.044775e+01 3.914282e+01
3.907544e+01 2.447917e-01 -5.367682e+00 1.392778e+01 -3.052100e+01 3.920728e+01
3.886157e+01 2.447917e-01 -5.385838e+00 1.396180e+01 -3.059424e+01 3.928076e+01
3.907861e+01 2.500000e-01 -5.404142e+00 1.399656e+01 -3.066748e+01 3.935400e+01
3.879712e+01 2.447917e-01 -5.420040e+00 1.403802e+01 -3.074072e+01 3.948340e+01
3.908569e+01 2.500000e-01 -5.438771e+00 1.407238e+01 -3.081396e+01 3.957520e+01
3.887598e+01 2.447917e-01 -5.452346e+00 1.410661e+01 -3.088721e+01 3.973682e+01
3.885962e+01 2.447917e-01 -5.467731e+00 1.414296e+01 -3.096045e+01 3.985425e+01
3.936353e+01 2.447917e-01 -5.479895e+00 1.418851e+01 -3.103369e+01 3.998364e+01
3.927588e+01 2.500000e-01 -5.495315e+00 1.422181e+01 -3.110693e+01 4.002954e+01
3.908813e+01 2.500000e-01 -5.519768e+00 1.424690e+01 -3.118018e+01 4.007544e+01
3.922974e+01 2.500000e-01 -5.545520e+00 1.427807e+01 -3.125342e+01 4.013062e+01
4.013989e+01 2.447917e-01 -5.560290e+00 1.433286e+01 -3.132666e+01 4.038745e+01
3.945166e+01 2.291667e-01 -5.574267e+00 1.438200e+01 -3.139990e+01 4.067603e+01
3.967236e+01 2.343750e-01 -5.588692e+00 1.442124e+01 -3.147314e+01 4.088379e+01
3.953418e+01 2.395833e-01 -5.604540e+00 1.445140e+01 -3.154639e+01 4.103125e+01
3.887573e+01 2.447917e-01 -5.620837e+00 1.447814e+01 -3.161963e+01 4.117676e+01
3.902588e+01 2.447917e-01 -5.636411e+00 1.450887e+01 -3.169287e+01 4.129419e+01
3.901318e+01 2.447917e-01 -5.651753e+00 1.454812e+01 -3.176611e+01 4.148535e+01
3.946582e+01 2.447917e-01 -5.667440e+00 1.459120e+01 -3.183936e+01 4.162085e+01
4.024585e+01 2.447917e-01 -5.685055e+00 1.462963e+01 -3.191260e+01 4.168481e+01
4.017578e+01 2.447917e-01 -5.701435e+00 1.466813e+01 -3.198584e+01 4.180420e+01
3.969678e+01 2.447917e-01 -5.719228e+00 1.469966e+01 -3.205908e+01 4.186841e+01
3.921704e+01 2.395833e-01 -5.738006e+00 1.472656e+01 -3.213232e+01 4.190527e+01
3.916602e+01 2.447917e-01 -5.755265e+00 1.476536e+01 -3.220557e+01 4.205273e+01
3.989282e+01 2.447917e-01 -5.772139e+00 1.480641e+01 -3.227881e+01 4.219116e+01
3.905542e+01 2.395833e-01 -5.790446e+00 1.483984e+01 -3.235205e+01 4.220972e+01
3.952979e+01 2.395833e-01 -5.807612e+00 1.487822e+01 -3.242529e+01 4.230200e+01
3.942188e+01 2.395833e-01 -5.826008e+00 1.491115e+01 -3.249854e+01 4.237549e+01
3.941040e+01 2.395833e-01 -5.844510e+00 1.494508e+01 -3.257178e+01 4.244678e+01
3.964648e+01 2.447917e-01 -5.862694e+00 1.498368e+01 -3.264502e+01 4.253833e+01
3.939575e+01 2.395833e-01 -5.879823e+00 1.501850e+01 -3.271826e+01 4.266284e+01
3.935400e+01 2.395833e-01 -5.897817e+00 1.505259e+01 -3.279150e+01 4.272510e+01
3.923828e+01 2.395833e-01 -5.915479e+00 1.508581e+01 -3.286475e+01 4.282642e+01
3.941724e+01 2.395833e-01 -5.932188e+00 1.512398e+01 -3.293799e+01 4.298804e+01
3.933911e+01 2.447917e-01 -5.949496e+00 1.516558e+01 -3.301123e+01 4.313354e+01
3.934106e+01 2.447917e-01 -5.967732e+00 1.519211e+01 -3.308447e+01 4.315186e+01
3.939062e+01 2.447917e-01 -5.986022e+00 1.522748e+01 -3.315771e+01 4.322559e+01
3.947363e+01 2.500000e-01 -6.003146e+00 1.526497e+01 -3.323096e+01 4.335400e+01
3.944653e+01 2.447917e-01 -6.020341e+00 1.530466e+01 -3.330420e+01 4.345532e+01
3.972412e+01 2.500000e-01 -6.039246e+00 1.533592e+01 -3.337744e+01 4.346631e+01
3.968628e+01 2.500000e-01 -6.055774e+00 1.537428e+01 -3.345068e+01 4.360181e+01
3.968164e+01 2.395833e-01 -6.072234e+00 1.541830e+01 -3.352393e+01 4.375635e+01
3.980762e+01 2.395833e-01 -6.089638e+00 1.545689e+01 -3.359717e+01 4.385767e+01
3.969629e+01 2.447917e-01 -6.106802e+00 1.549090e+01 -3.367041e+01 4.397534e+01
3.972095e+01 2.447917e-01 -6.123764e+00 1.552609e+01 -3.374365e+01 4.404663e+01
3.967725e+01 2.500000e-01 -6.142355e+00 1.555794e+01 -3.381689e+01 4.405566e+01
3.963062e+01 2.500000e-01 -6.160707e+00 1.558759e+01 -3.389014e+01 4.409229e+01
3.937476e+01 2.395833e-01 -6.178718e+00 1.562675e+01 -3.396338e+01 4.417505e+01
3.969824e+01 2.343750e-01 -6.195386e+00 1.567379e+01 -3.403662e+01 4.432715e+01
3.949609e+01 2.343750e-01 -6.214051e+00 1.570793e+01 -3.410986e+01 4.439136e+01
3.935840e+01 2.343750e-01 -6.233326e+00 1.573793e+01 -3.418311e+01 4.438208e+01
3.946216e+01 2.447917e-01 -6.251860e+00 1.576662e+01 -3.425635e+01 4.442798e+01
3.971802e+01 2.447917e-01 -6.270527e+00 1.580248e+01 -3.432959e+01 4.447388e+01
3.995532e+01 2.343750e-01 -6.287298e+00 1.585577e+01 -3.440283e+01 4.465112e+01
3.995825e+01 2.343750e-01 -6.305099e+00 1.589242e+01 -3.447607e+01 4.468774e+01
3.938916e+01 2.343750e-01 -6.324180e+00 1.591994e+01 -3.454932e+01 4.470581e+01
3.935303e+01 2.343750e-01 -6.342682e+00 1.595304e+01 -3.462256e+01 4.476099e+01
3.969165e+01 2.343750e-01 -6.360762e+00 1.599258e+01 -3.469580e+01 4.488037e+01
3.946558e+01 2.291667e-01 -6.377932e+00 1.603242e+01 -3.476904e+01 4.500024e+01
3.933057e+01 2.343750e-01 -6.396090e+00 1.606462e+01 -3.484229e+01 4.505542e+01
3.950854e+01 2.343750e-01 -6.413082e+00 1.610570e+01 -3.491553e+01 4.520190e+01
3.939771e+01 2.291667e-01 -6.431058e+00 1.614522e+01 -3.498877e+01 4.532886e+01
3.984839e+01 2.343750e-01 -6.448088e+00 1.619323e+01 -3.506201e+01 4.552051e+01
3.979053e+01 2.343750e-01 -6.464812e+00 1.623455e+01 -3.513525e+01 4.565601e+01
3.971045e+01 2.343750e-01 -6.480624e+00 1.627236e+01 -3.520850e+01 4.586865e+01
3.942725e+01 2.291667e-01 -6.499540e+00 1.629712e+01 -3.528174e+01 4.590552e+01
3.936597e+01 2.291667e-01 -6.517177e+00 1.633231e+01 -3.535498e+01 4.600684e+01
3.977515e+01 2.291667e-01 -6.535267e+00 1.637191e+01 -3.542822e+01 4.611768e+01
3.953589e+01 2.291667e-01 -6.552713e+00 1.642275e+01 -3.550146e+01 4.625317e+01
3.971143e+01 2.343750e-01 -6.569603e+00 1.646622e+01 -3.557471e+01 4.636304e+01
3.944604e+01 2.291667e-01 -6.587488e+00 1.650525e+01 -3.564795e+01 4.641821e+01
3.941016e+01 2.291667e-01 -6.605826e+00 1.653087e+01 -3.572119e+01 4.645483e+01
3.945630e+01 2.395833e-01 -6.624866e+00 1.655799e+01 -3.579443e+01 4.647314e+01
3.934033e+01 2.343750e-01 -6.643931e+00 1.659837e+01 -3.586768e+01 4.652808e+01
4.007788e+01 2.395833e-01 -6.660604e+00 1.664666e+01 -3.594092e+01 4.666357e+01
4.002563e+01 2.395833e-01 -6.677212e+00 1.668897e+01 -3.601416e+01 4.679907e+01
4.002832e+01 2.395833e-01 -6.694754e+00 1.672973e+01 -3.608740e+01 4.687280e+01
3.963940e+01 2.395833e-01 -6.710442e+00 1.676756e+01 -3.616064e+01 4.700903e+01
3.959375e+01 2.395833e-01 -6.727763e+00 1.680097e+01 -3.623389e+01 4.707324e+01
3.943042e+01 2.395833e-01 -6.745744e+00 1.683817e+01 -3.630713e+01 4.713745e+01
3.932593e+01 2.395833e-01 -6.763241e+00 1.688138e+01 -3.638037e+01 4.722729e+01
3.958984e+01 2.447917e-01 -6.780641e+00 1.692630e+01 -3.645361e+01 4.733569e+01
3.968774e+01 2.447917e-01 -6.798535e+00 1.696731e+01 -3.652686e+01 4.740918e+01
3.944604e+01 2.447917e-01 -6.816884e+00 1.699995e+01 -3.660010e+01 4.745508e+01
3.947876e+01 2.395833e-01 -6.835317e+00 1.703666e+01 -3.667334e+01 4.752637e+01
3.931201e+01 2.395833e-01 -6.852619e+00 1.707602e+01 -3.674658e+01 4.768286e+01
3.975293e+01 2.500000e-01 -6.868424e+00 1.712127e+01 -3.681982e+01 4.790259e+01
3.977026e+01 2.500000e-01 -6.885924e+00 1.716136e+01 -3.689307e+01 4.802246e+01
3.942432e+01 2.447917e-01 -6.904404e+00 1.719722e+01 -3.696631e+01 4.812329e+01
3.959985e+01 2.447917e-01 -6.923012e+00 1.723416e+01 -3.703955e+01 4.824268e+01
3.952197e+01 2.395833e-01 -6.940966e+00 1.727074e+01 -3.711279e+01 4.837817e+01
3.975513e+01 2.447917e-01 -6.958838e+00 1.731279e+01 -3.718604e+01 4.850269e+01
3.959106e+01 2.447917e-01 -6.977324e+00 1.735131e+01 -3.725928e+01 4.860400e+01
3.964185e+01 2.447917e-01 -6.995380e+00 1.739202e+01 -3.733252e+01 4.874243e+01
3.982471e+01 2.447917e-01 -7.011731e+00 1.743783e+01 -3.740576e+01 4.892554e+01
3.962769e+01 2.395833e-01 -7.029489e+00 1.747379e+01 -3.747900e+01 4.900830e+01
3.964673e+01 2.395833e-01 -7.047859e+00 1.751309e+01 -3.755225e+01 4.913721e+01
3.959790e+01 2.447917e-01 -7.066668e+00 1.755438e+01 -3.762549e+01 4.921094e+01
3.972437e+01 2.447917e-01 -7.085929e+00 1.759417e+01 -3.769873e+01 4.925659e+01
3.985913e+01 2.395833e-01 -7.103808e+00 1.763298e+01 -3.777197e+01 4.933936e+01
4.010986e+01 2.447917e-01 -7.122119e+00 1.767767e+01 -3.784521e+01 4.942212e+01
4.000049e+01 2.395833e-01 -7.139212e+00 1.772039e+01 -3.791846e+01 4.955811e+01
3.989331e+01 2.447917e-01 -7.157352e+00 1.775755e+01 -3.799170e+01 4.961304e+01
3.942749e+01 2.395833e-01 -7.174996e+00 1.779323e+01 -3.806494e+01 4.969580e+01
3.948560e+01 2.447917e-01 -7.192360e+00 1.783484e+01 -3.813818e+01 4.976904e+01
3.966235e+01 2.447917e-01 -7.209419e+00 1.788112e+01 -3.821143e+01 4.989746e+01
4.005273e+01 2.447917e-01 -7.226148e+00 1.792931e+01 -3.828467e+01 5.001489e+01
3.994189e+01 2.447917e-01 -7.242386e+00 1.797199e+01 -3.835791e+01 5.014429e+01
3.974805e+01 2.395833e-01 -7.259949e+00 1.801076e+01 -3.843115e+01 5.021802e+01
4.000366e+01 2.395833e-01 -7.278531e+00 1.805084e+01 -3.850439e+01 5.023657e+01
3.955298e+01 2.395833e-01 -7.295554e+00 1.808631e+01 -3.857764e+01 5.033789e+01
3.967334e+01 2.395833e-01 -7.312119e+00 1.812909e+01 -3.865088e+01 5.046631e+01
3.943311e+01 2.395833e-01 -7.329581e+00 1.816317e+01 -3.872412e+01 5.049390e+01
3.962134e+01 2.343750e-01 -7.345910e+00 1.821167e+01 -3.879736e+01 5.065039e+01
4.026147e+01 2.395833e-01 -7.363269e+00 1.825768e+01 -3.887061e+01 5.070557e+01
4.031543e+01 2.395833e-01 -7.380679e+00 1.830137e+01 -3.894385e+01 5.079785e+01
3.990771e+01 2.395833e-01 -7.399378e+00 1.833789e+01 -3.901709e+01 5.079785e+01
3.996777e+01 2.447917e-01 -7.418557e+00 1.837528e+01 -3.909033e+01 5.075195e+01
3.938550e+01 2.395833e-01 -7.436549e+00 1.841064e+01 -3.916357e+01 5.077930e+01
3.964087e+01 2.395833e-01 -7.454879e+00 1.844876e+01 -3.923682e+01 5.079541e+01
3.968433e+01 2.343750e-01 -7.471293e+00 1.849407e+01 -3.931006e+01 5.096094e+01
3.991650e+01 2.447917e-01 -7.486640e+00 1.854023e+01 -3.938330e+01 5.116211e+01
4.043677e+01 2.343750e-01 -7.501595e+00 1.859288e+01 -3.945654e+01 5.138184e+01
3.988892e+01 2.395833e-01 -7.517578e+00 1.863336e+01 -3.952979e+01 5.150171e+01
3.958569e+01 2.447917e-01 -7.534754e+00 1.866689e+01 -3.960303e+01 5.157495e+01
3.926221e+01 2.395833e-01 -7.551645e+00 1.870390e+01 -3.967627e+01 5.167651e+01
3.985840e+01 2.500000e-01 -7.567529e+00 1.874953e+01 -3.974951e+01 5.186816e+01
4.009814e+01 2.395833e-01 -7.584020e+00 1.879529e+01 -3.982275e+01 5.205176e+01
4.014844e+01 2.395833e-01 -7.600434e+00 1.884122e+01 -3.989600e+01 5.224536e+01
4.021704e+01 2.343750e-01 -7.618633e+00 1.888213e+01 -3.996924e+01 5.230054e+01
4.021118e+01 2.395833e-01 -7.635558e+00 1.892298e+01 -4.004248e+01 5.242920e+01
3.977246e+01 2.395833e-01 -7.652757e+00 1.895898e+01 -4.011572e+01 5.248438e+01
3.994336e+01 2.447917e-01 -7.670445e+00 1.899457e+01 -4.018896e+01 5.258569e+01
3.993555e+01 2.447917e-01 -7.687153e+00 1.903638e+01 -4.026221e+01 5.270508e+01
3.989307e+01 2.395833e-01 -7.703493e+00 1.907862e+01 -4.033545e+01 5.284351e+01
4.022021e+01 2.343750e-01 -7.719714e+00 1.912547e+01 -4.040869e+01 5.300513e+01
3.993628e+01 2.447917e-01 -7.736693e+00 1.916306e+01 -4.048193e+01 5.309497e+01
3.999023e+01 2.500000e-01 -7.754394e+00 1.919852e+01 -4.055518e+01 5.315918e+01
3.960059e+01 2.395833e-01 -7.771805e+00 1.923310e+01 -4.062842e+01 5.322363e+01
3.968701e+01 2.447917e-01 -7.788590e+00 1.927178e+01 -4.070166e+01 5.335498e+01
3.969385e+01 2.447917e-01 -7.805147e+00 1.930959e+01 -4.077490e+01 5.346484e+01
3.993530e+01 2.447917e-01 -7.820397e+00 1.935012e+01 -4.084814e+01 5.359839e+01
3.998364e+01 2.500000e-01 -7.837014e+00 1.939059e+01 -4.092139e+01 5.374072e+01
4.066895e+01 2.500000e-01 -7.853356e+00 1.943217e+01 -4.099463e+01 5.386914e+01
4.045288e+01 2.447917e-01 -7.870443e+00 1.946672e+01 -4.106787e+01 5.391528e+01
4.023853e+01 2.395833e-01 -7.887412e+00 1.950760e+01 -4.114111e+01 5.404224e+01
4.058838e+01 2.395833e-01 -7.905169e+00 1.954189e+01 -4.121436e+01 5.409741e+01
4.042188e+01 2.395833e-01 -7.922020e+00 1.957730e+01 -4.128760e+01 5.412476e+01
4.064258e+01 2.395833e-01 -7.939899e+00 1.961198e+01 -4.136084e+01 5.416162e+01
4.025269e+01 2.395833e-01 -7.955447e+00 1.964809e+01 -4.143408e+01 5.429150e+01
4.060132e+01 2.395833e-01 -7.970064e+00 1.969011e+01 -4.150732e+01 5.454053e+01
4.089185e+01 2.343750e-01 -7.985415e+00 1.973720e+01 -4.158057e+01 5.476025e+01
4.085767e+01 2.447917e-01 -8.002870e+00 1.977181e+01 -4.165381e+01 5.479688e+01
4.084814e+01 2.395833e-01 -8.022008e+00 1.980120e+01 -4.172705e+01 5.477832e+01
4.041846e+01 2.447917e-01 -8.038677e+00 1.983429e+01 -4.180029e+01 5.485156e+01
4.081812e+01 2.395833e-01 -8.054895e+00 1.987513e+01 -4.187354e+01 5.497998e+01
4.079272e+01 2.395833e-01 -8.072344e+00 1.991387e+01 -4.194678e+01 5.505322e+01
4.099121e+01 2.291667e-01 -8.089079e+00 1.995751e+01 -4.202002e+01 5.518164e+01
4.134351e+01 2.343750e-01 -8.106605e+00 1.999733e+01 -4.209326e+01 5.527344e+01
4.093945e+01 2.395833e-01 -8.123765e+00 2.003030e+01 -4.216650e+01 5.532861e+01
4.065845e+01 2.395833e-01 -8.141037e+00 2.006293e+01 -4.223975e+01 5.541846e+01
4.032349e+01 2.395833e-01 -8.157986e+00 2.009698e+01 -4.231299e+01 5.552686e+01
4.108496e+01 2.447917e-01 -8.173412e+00 2.014199e+01 -4.238623e+01 5.575562e+01
4.106567e+01 2.447917e-01 -8.190454e+00 2.017993e+01 -4.245947e+01 5.584790e+01
4.117871e+01 2.500000e-01 -8.207268e+00 2.021783e+01 -4.253271e+01 5.594678e+01
4.108105e+01 2.447917e-01 -8.225047e+00 2.025327e+01 -4.260596e+01 5.600195e+01
4.110229e+01 2.447917e-01 -8.242619e+00 2.028841e+01 -4.267920e+01 5.607568e+01
4.095386e+01 2.500000e-01 -8.259198e+00 2.032345e+01 -4.275244e+01 5.619507e+01
4.098755e+01 2.447917e-01 -8.275703e+00 2.035971e+01 -4.282568e+01 5.627783e+01
4.105542e+01 2.447917e-01 -8.292407e+00 2.039637e+01 -4.289893e+01 5.637012e+01
4.081665e+01 2.395833e-01 -8.309803e+00 2.043536e+01 -4.297217e+01 5.644385e+01
4.068750e+01 2.395833e-01 -8.328962e+00 2.046773e+01 -4.304541e+01 5.642578e+01
4.070923e+01 2.395833e-01 -8.345576e+00 2.050443e+01 -4.311865e+01 5.656421e+01
4.073608e+01 2.395833e-01 -8.363613e+00 2.053994e+01 -4.319189e+01 5.660986e+01
4.024194e+01 2.291667e-01 -8.381460e+00 2.057955e+01 -4.326514e+01 5.669312e+01
4.030469e+01 2.343750e-01 -8.397357e+00 2.061968e+01 -4.333838e+01 5.687280e+01
4.035840e+01 2.343750e-01 -8.414835e+00 2.065339e+01 -4.341162e+01 5.694653e+01
4.051318e+01 2.343750e-01 -8.432624e+00 2.068983e+01 -4.348486e+01 5.701074e+01
4.048486e+01 2.343750e-01 -8.450318e+00 2.072668e+01 -4.355811e+01 5.709351e+01
4.028345e+01 2.291667e-01 -8.468045e+00 2.076369e+01 -4.363135e+01 5.719482e+01
4.022339e+01 2.395833e-01 -8.487597e+00 2.079341e+01 -4.370459e+01 5.716699e+01
4.015674e+01 2.343750e-01 -8.504625e+00 2.082966e+01 -4.377783e+01 5.730322e+01
4.039526e+01 2.291667e-01 -8.523445e+00 2.086777e+01 -4.385107e+01 5.737671e+01
4.050146e+01 2.343750e-01 -8.541778e+00 2.091148e+01 -4.392432e+01 5.744800e+01
4.053320e+01 2.343750e-01 -8.561220e+00 2.094657e+01 -4.399756e+01 5.745703e+01
4.027393e+01 2.291667e-01 -8.580348e+00 2.098252e+01 -4.407080e+01 5.749365e+01
4.031152e+01 2.343750e-01 -8.598390e+00 2.101636e+01 -4.414404e+01 5.754858e+01
4.022510e+01 2.291667e-01 -8.616848e+00 2.105506e+01 -4.421729e+01 5.764038e+01
4.059082e+01 2.447917e-01 -8.635457e+00 2.108994e+01 -4.429053e+01 5.772314e+01
4.036816e+01 2.343750e-01 -8.653695e+00 2.112834e+01 -4.436377e+01 5.781543e+01
4.030518e+01 2.395833e-01 -8.672093e+00 2.116919e+01 -4.443701e+01 5.785229e+01
4.023682e+01 2.395833e-01 -8.689581e+00 2.120700e+01 -4.451025e+01 5.789819e+01
4.035229e+01 2.395833e-01 -8.707635e+00 2.124311e+01 -4.458350e+01 5.792554e+01
4.028149e+01 2.395833e-01 -8.725643e+00 2.128086e+01 -4.465674e+01 5.793457e+01
4.026733e+01 2.395833e-01 -8.743600e+00 2.131638e+01 -4.472998e+01 5.794385e+01
4.025464e+01 2.395833e-01 -8.760430e+00 2.135655e+01 -4.480322e+01 5.803369e+01
4.020679e+01 2.343750e-01 -8.778238e+00 2.139637e+01 -4.487646e+01 5.807935e+01
4.046753e+01 2.395833e-01 -8.796575e+00 2.143089e+01 -4.494971e+01 5.809766e+01
4.041699e+01 2.447917e-01 -8.816175e+00 2.146511e+01 -4.502295e+01 5.803516e+01
4.025000e+01 2.447917e-01 -8.833964e+00 2.149910e+01 -4.509619e+01 5.809961e+01
4.039526e+01 2.447917e-01 -8.851392e+00 2.154082e+01 -4.516943e+01 5.821899e+01
4.015210e+01 2.395833e-01 -8.869218e+00 2.158446e+01 -4.524268e+01 5.826489e+01
4.011475e+01 2.447917e-01 -8.887742e+00 2.162053e+01 -4.531592e+01 5.821875e+01
3.991577e+01 2.343750e-01 -8.905467e+00 2.165647e+01 -4.538916e+01 5.823706e+01
4.007837e+01 2.395833e-01 -8.922690e+00 2.168917e+01 -4.546240e+01 5.822754e+01
3.997095e+01 2.395833e-01 -8.939764e+00 2.172345e+01 -4.553564e+01 5.830127e+01
4.031641e+01 2.500000e-01 -8.956387e+00 2.176751e+01 -4.560889e+01 5.842065e+01
4.030859e+01 2.395833e-01 -8.972994e+00 2.180975e+01 -4.568213e+01 5.849390e+01
4.025171e+01 2.447917e-01 -8.991584e+00 2.184726e+01 -4.575537e+01 5.845703e+01
4.019507e+01 2.395833e-01 -9.011504e+00 2.187485e+01 -4.582861e+01 5.830054e+01
4.002319e+01 2.395833e-01 -9.029702e+00 2.190506e+01 -4.590186e+01 5.823633e+01
4.009692e+01 2.343750e-01 -9.047109e+00 2.194480e+01 -4.597510e+01 5.830054e+01
4.039990e+01 2.447917e-01 -9.063254e+00 2.198373e+01 -4.604834e+01 5.839282e+01
4.011987e+01 2.447917e-01 -9.081714e+00 2.201742e+01 -4.612158e+01 5.835620e+01
4.020630e+01 2.395833e-01 -9.099314e+00 2.205407e+01 -4.619482e+01 5.838379e+01
4.036914e+01 2.395833e-01 -9.116584e+00 2.209140e+01 -4.626807e+01 5.842041e+01
4.014648e+01 2.395833e-01 -9.134925e+00 2.212354e+01 -4.634131e+01 5.841113e+01
4.019531e+01 2.395833e-01 -9.153292e+00 2.215713e+01 -4.641455e+01 5.840210e+01
4.021655e+01 2.395833e-01 -9.169655e+00 2.219499e+01 -4.648779e+01 5.851050e+01
4.019409e+01 2.395833e-01 -9.185301e+00 2.222836e+01 -4.656104e+01 5.863892e+01
4.026025e+01 2.395833e-01 -9.202412e+00 2.227055e+01 -4.663428e+01 5.874731e+01
4.033325e+01 2.395833e-01 -9.219588e+00 2.230859e+01 -4.670752e+01 5.881152e+01
4.003564e+01 2.343750e-01 -9.236772e+00 2.234208e+01 -4.678076e+01 5.883911e+01
4.027905e+01 2.239583e-01 -9.254739e+00 2.238207e+01 -4.685400e+01 5.887573e+01
4.029907e+01 2.239583e-01 -9.273461e+00 2.241816e+01 -4.692725e+01 5.887573e+01
4.043604e+01 2.239583e-01 -9.292384e+00 2.245295e+01 -4.700049e+01 5.887549e+01
4.010083e+01 2.291667e-01 -9.311608e+00 2.248378e+01 -4.707373e+01 5.882959e+01
4.022485e+01 2.395833e-01 -9.329130e+00 2.251452e+01 -4.714697e+01 5.889404e+01
4.020874e+01 2.395833e-01 -9.346875e+00 2.255137e+01 -4.722021e+01 5.893994e+01
4.024365e+01 2.239583e-01 -9.363108e+00 2.259428e+01 -4.729346e+01 5.906836e+01
4.043213e+01 2.239583e-01 -9.379764e+00 2.263444e+01 -4.736670e+01 5.914209e+01
4.049219e+01 2.187500e-01 -9.397154e+00 2.267047e+01 -4.743994e+01 5.917871e+01
4.034009e+01 2.187500e-01 -9.415089e+00 2.270851e+01 -4.751318e+01 5.920605e+01
