-6.387671e+01 3.002671e+02 -2.048000e+03 2.048000e+03 8.354727e-06 4.408828e-03 -4.499512e-01 4.809570e-01
-2.410901e+02 8.453207e+02 -2.048000e+03 2.048000e+03 8.830328e-07 3.365064e-03 -4.375000e-01 4.189453e-01
-3.664660e+02 1.085638e+03 -2.048000e+03 2.048000e+03 3.902637e-07 3.145128e-03 -4.375000e-01 4.243164e-01
-4.355119e+02 1.162594e+03 -2.048000e+03 2.048000e+03 1.860389e-07 3.043129e-03 -4.375000e-01 4.570312e-01
-4.826771e+02 1.198964e+03 -2.048000e+03 2.048000e+03 3.661629e-07 3.032700e-03 -4.396973e-01 6.018066e-01
-5.208735e+02 1.224794e+03 -2.048000e+03 2.048000e+03 3.037425e-07 2.960811e-03 -4.375000e-01 6.096191e-01
-5.548012e+02 1.245878e+03 -2.048000e+03 2.048000e+03 3.058240e-07 2.938804e-03 -4.414062e-01 6.938477e-01
-5.754901e+02 1.260703e+03 -2.048000e+03 2.048000e+03 1.490011e-07 2.911267e-03 -4.414062e-01 6.281738e-01
-5.955796e+02 1.273780e+03 -2.048000e+03 2.048000e+03 7.232696e-08 2.893560e-03 -4.428711e-01 6.967773e-01
-6.127915e+02 1.284876e+03 -2.048000e+03 2.048000e+03 4.291821e-08 2.862646e-03 -4.428711e-01 8.125000e-01
-6.322187e+02 1.294603e+03 -2.048000e+03 2.048000e+03 1.283319e-07 2.845362e-03 -4.428711e-01 6.850586e-01
-6.498422e+02 1.305029e+03 -2.048000e+03 2.048000e+03 3.506009e-07 2.938494e-03 -4.428711e-01 3.505615e+00
-6.585217e+02 1.314724e+03 -2.048000e+03 2.048000e+03 1.012239e-06 4.017909e-03 -4.414062e-01 1.269995e+01
-6.736953e+02 1.321371e+03 -2.048000e+03 2.048000e+03 3.189049e-06 1.059028e-02 -4.375000e-01 4.579907e+01
-6.842141e+02 1.328003e+03 -2.048000e+03 2.048000e+03 1.248094e-06 4.398001e-03 -4.396973e-01 1.504077e+01
-6.962641e+02 1.335691e+03 -2.048000e+03 2.048000e+03 8.924815e-07 3.515556e-03 -4.375000e-01 9.522217e+00
-7.026434e+02 1.343258e+03 -2.048000e+03 2.048000e+03 5.156581e-07 3.204447e-03 -4.396973e-01 6.916504e+00
-7.137774e+02 1.349077e+03 -2.048000e+03 2.048000e+03 -1.263889e-08 2.956244e-03 -4.396973e-01 3.995850e+00
-7.207613e+02 1.355686e+03 -2.048000e+03 2.048000e+03 6.165181e-07 2.928948e-03 -4.375000e-01 3.479980e+00
