-6.728546e-01 5.812064e+00 -2.993798e+01 3.674353e+01 1.291397e-05 2.420503e-03 -1.262285e-01 1.262285e-01
-7.779289e-01 6.382532e+00 -3.138601e+01 3.876067e+01 9.679407e-07 1.976060e-03 -1.262285e-01 1.262285e-01
-8.129139e-01 6.698140e+00 -3.335027e+01 3.898630e+01 2.090221e-06 1.802877e-03 -1.262285e-01 1.262285e-01
-8.425076e-01 6.950347e+00 -3.486284e+01 3.935579e+01 -7.945906e-07 1.695538e-03 -1.262285e-01 1.262285e-01
-8.735570e-01 7.157471e+00 -3.612920e+01 4.019243e+01 4.082811e-07 1.623211e-03 -1.262285e-01 1.262285e-01
-9.034901e-01 7.335141e+00 -3.696585e+01 4.157193e+01 3.254865e-07 1.566034e-03 -1.262285e-01 1.262285e-01
-9.207808e-01 7.481551e+00 -3.817540e+01 4.189558e+01 1.752271e-07 1.521052e-03 -1.262285e-01 1.262284e-01
-9.603190e-01 7.618433e+00 -3.932876e+01 4.344151e+01 7.645132e-07 1.480849e-03 -1.262285e-01 1.262285e-01
-9.875844e-01 7.732808e+00 -3.987749e+01 4.340885e+01 3.541650e-07 1.448248e-03 -1.262285e-01 1.262285e-01
-9.922563e-01 7.854474e+00 -4.006455e+01 4.494364e+01 2.660602e-07 1.420271e-03 -1.262285e-01 1.262284e-01
-1.013726e+00 7.951495e+00 -4.119804e+01 4.545714e+01 -3.821778e-07 1.396084e-03 -1.262285e-01 1.262285e-01
-1.026388e+00 8.052124e+00 -4.183551e+01 4.627408e+01 -4.895900e-07 1.377027e-03 -1.262285e-01 1.262282e-01
-1.035179e+00 8.139614e+00 -4.237370e+01 4.660601e+01 -3.007254e-07 1.354054e-03 -1.262285e-01 1.262285e-01
-1.050767e+00 8.222052e+00 -4.269636e+01 4.700988e+01 3.773000e-07 1.338755e-03 -1.262285e-01 1.262285e-01
-1.058351e+00 8.296649e+00 -4.323337e+01 4.755668e+01 2.491795e-07 1.323312e-03 -1.262285e-01 1.262285e-01
-1.062419e+00 8.366407e+00 -4.316117e+01 4.811782e+01 -8.100378e-07 1.307082e-03 -1.262285e-01 1.262283e-01
-1.075380e+00 8.436356e+00 -4.393181e+01 4.805287e+01 3.748139e-07 1.294772e-03 -1.262285e-01 1.262283e-01
-1.075701e+00 8.495266e+00 -4.424937e+01 4.936921e+01 -7.573090e-07 1.283009e-03 -1.262285e-01 1.262285e-01
-1.094102e+00 8.547658e+00 -4.425044e+01 4.952647e+01 -6.540382e-07 1.271297e-03 -1.262285e-01 1.262284e-01
-1.093961e+00 8.610911e+00 -4.510485e+01 4.968780e+01 4.582586e-07 1.260546e-03 -1.262285e-01 1.262282e-01
-1.097697e+00 8.661050e+00 -4.541514e+01 5.041628e+01 1.082251e-07 1.251784e-03 -1.262285e-01 1.262284e-01
-1.108704e+00 8.706862e+00 -4.589077e+01 5.021301e+01 6.003473e-07 1.240547e-03 -1.262285e-01 1.262285e-01
-1.099753e+00 8.760518e+00 -4.672917e+01 5.082601e+01 -1.653789e-06 1.231422e-03 -1.262285e-01 1.262285e-01
-1.120409e+00 8.802688e+00 -4.687151e+01 5.105990e+01 2.238756e-07 1.221134e-03 -1.262285e-01 1.262285e-01
-1.117914e+00 8.844344e+00 -4.730413e+01 5.100926e+01 4.567101e-07 1.213671e-03 -1.262285e-01 1.262285e-01
-1.122683e+00 8.885066e+00 -4.787496e+01 5.166541e+01 -8.749500e-07 1.206062e-03 -1.262285e-01 1.262285e-01
-1.130113e+00 8.926185e+00 -4.780341e+01 5.183121e+01 -9.559062e-07 1.197580e-03 -1.262285e-01 1.262285e-01
-1.132840e+00 8.962049e+00 -4.826978e+01 5.238334e+01 5.992409e-07 1.190144e-03 -1.262284e-01 1.262285e-01
-1.140937e+00 8.995704e+00 -4.854288e+01 5.234078e+01 -4.186483e-07 1.183770e-03 -1.262285e-01 1.262285e-01
-1.142830e+00 9.025830e+00 -4.890874e+01 5.217961e+01 -1.126320e-06 1.174667e-03 -1.262285e-01 1.262285e-01
-1.140176e+00 9.061092e+00 -4.926135e+01 5.276293e+01 -1.448828e-06 1.168689e-03 -1.262285e-01 1.262285e-01
-1.154392e+00 9.089221e+00 -4.959875e+01 5.248034e+01 -4.502762e-07 1.162506e-03 -1.262285e-01 1.262285e-01
-1.150809e+00 9.124203e+00 -4.952891e+01 5.337403e+01 -6.004160e-07 1.156561e-03 -1.262285e-01 1.262283e-01
-1.158700e+00 9.152101e+00 -4.987228e+01 5.361128e+01 -1.187510e-06 1.148579e-03 -1.262285e-01 1.262284e-01
-1.167295e+00 9.176604e+00 -4.997682e+01 5.361688e+01 -5.183954e-07 1.145845e-03 -1.262285e-01 1.262284e-01
-1.166825e+00 9.209529e+00 -5.050649e+01 5.389647e+01 5.299137e-07 1.137477e-03 -1.262285e-01 1.262279e-01
-1.166928e+00 9.235391e+00 -5.030665e+01 5.370289e+01 -6.195296e-07 1.134861e-03 -1.262285e-01 1.262285e-01
-1.171105e+00 9.261557e+00 -5.078531e+01 5.430800e+01 6.850368e-07 1.128286e-03 -1.262285e-01 1.262285e-01
-1.170324e+00 9.280339e+00 -5.045486e+01 5.414719e+01 -6.450593e-07 1.122769e-03 -1.262285e-01 1.262283e-01
-1.174975e+00 9.306658e+00 -5.110750e+01 5.466844e+01 -1.233183e-06 1.118555e-03 -1.262285e-01 1.262276e-01
-1.183980e+00 9.325965e+00 -5.104484e+01 5.458452e+01 -1.123541e-06 1.111642e-03 -1.262285e-01 1.262283e-01
-1.181424e+00 9.354538e+00 -5.126478e+01 5.484328e+01 8.699892e-07 1.108199e-03 -1.262285e-01 1.262285e-01
-1.183921e+00 9.374393e+00 -5.144029e+01 5.531217e+01 7.460861e-07 1.103118e-03 -1.262285e-01 1.262257e-01
-1.186537e+00 9.396654e+00 -5.151052e+01 5.535445e+01 -6.417690e-07 1.099891e-03 -1.262285e-01 1.262284e-01
-1.189883e+00 9.412485e+00 -5.159655e+01 5.540019e+01 3.727518e-08 1.095461e-03 -1.262284e-01 1.262284e-01
-1.191637e+00 9.433231e+00 -5.195592e+01 5.593403e+01 -9.705583e-07 1.091496e-03 -1.262285e-01 1.262281e-01
-1.202447e+00 9.458518e+00 -5.200016e+01 5.609650e+01 -1.978142e-07 1.083685e-03 -1.262285e-01 1.262284e-01
-1.198057e+00 9.475408e+00 -5.211077e+01 5.609996e+01 -4.418336e-07 1.082685e-03 -1.262285e-01 1.262284e-01
-1.199319e+00 9.492517e+00 -5.204984e+01 5.661567e+01 1.173043e-06 1.079116e-03 -1.262285e-01 1.262285e-01
-1.193331e+00 9.512460e+00 -5.221097e+01 5.670143e+01 -8.996599e-07 1.074683e-03 -1.262282e-01 1.262285e-01
-1.200711e+00 9.525844e+00 -5.256758e+01 5.672228e+01 -1.448117e-06 1.069030e-03 -1.262285e-01 1.262285e-01
-1.205798e+00 9.541265e+00 -5.223191e+01 5.724467e+01 -1.070515e-06 1.064225e-03 -1.262285e-01 1.262285e-01
-1.208998e+00 9.561339e+00 -5.262550e+01 5.729352e+01 -1.127717e-06 1.063616e-03 -1.262285e-01 1.262284e-01
-1.217359e+00 9.575643e+00 -5.266085e+01 5.748765e+01 9.683694e-08 1.059246e-03 -1.262285e-01 1.262285e-01
-1.210645e+00 9.589297e+00 -5.290317e+01 5.724858e+01 7.580026e-07 1.055075e-03 -1.262285e-01 1.262285e-01
-1.214409e+00 9.610159e+00 -5.270428e+01 5.800109e+01 -4.836710e-07 1.051345e-03 -1.262285e-01 1.262285e-01
-1.216311e+00 9.623774e+00 -5.294666e+01 5.828998e+01 -2.439893e-07 1.051373e-03 -1.262285e-01 1.262285e-01
-1.221680e+00 9.642918e+00 -5.289262e+01 5.858805e+01 9.386814e-07 1.044914e-03 -1.262285e-01 1.262285e-01
-1.223340e+00 9.652134e+00 -5.296147e+01 5.848586e+01 5.781689e-07 1.039853e-03 -1.262284e-01 1.262285e-01
-1.224595e+00 9.678442e+00 -5.325733e+01 5.885525e+01 1.976210e-07 1.038535e-03 -1.262285e-01 1.262284e-01
-1.226211e+00 9.686337e+00 -5.327318e+01 5.897352e+01 6.217382e-07 1.034461e-03 -1.262285e-01 1.262285e-01
-1.231803e+00 9.699944e+00 -5.317315e+01 5.892827e+01 -6.310336e-08 1.031106e-03 -1.262285e-01 1.262283e-01
-1.230884e+00 9.709038e+00 -5.340085e+01 5.914983e+01 -1.499951e-07 1.028774e-03 -1.262285e-01 1.262282e-01
-1.235967e+00 9.727421e+00 -5.333274e+01 5.934981e+01 -6.720312e-07 1.024972e-03 -1.262285e-01 1.262284e-01
-1.236681e+00 9.740593e+00 -5.349025e+01 5.956946e+01 -3.691398e-07 1.022092e-03 -1.262285e-01 1.262284e-01
-1.238777e+00 9.751360e+00 -5.363859e+01 5.979374e+01 4.522935e-07 1.019620e-03 -1.262285e-01 1.262285e-01
-1.245717e+00 9.766821e+00 -5.370770e+01 6.026058e+01 -2.957523e-07 1.018223e-03 -1.262285e-01 1.262285e-01
-1.250685e+00 9.783484e+00 -5.370230e+01 5.995951e+01 1.851636e-08 1.012955e-03 -1.262284e-01 1.262284e-01
-1.246434e+00 9.797239e+00 -5.349066e+01 6.028432e+01 1.212718e-07 1.010509e-03 -1.262285e-01 1.262284e-01
-1.250372e+00 9.810666e+00 -5.371196e+01 6.038517e+01 -1.400841e-07 1.006944e-03 -1.262285e-01 1.262283e-01
-1.254242e+00 9.820057e+00 -5.384251e+01 6.054474e+01 2.452516e-07 1.006965e-03 -1.262285e-01 1.262285e-01
-1.257460e+00 9.831305e+00 -5.376975e+01 6.067591e+01 1.635244e-06 1.004802e-03 -1.262282e-01 1.262284e-01
-1.255271e+00 9.844608e+00 -5.378454e+01 6.119678e+01 -3.211842e-07 9.993184e-04 -1.262285e-01 1.262276e-01
-1.257767e+00 9.859520e+00 -5.375524e+01 6.116454e+01 -4.932749e-07 9.977672e-04 -1.262285e-01 1.262284e-01
-1.267048e+00 9.872670e+00 -5.397475e+01 6.164213e+01 4.929226e-07 9.939754e-04 -1.262285e-01 1.262269e-01
-1.266586e+00 9.882340e+00 -5.383312e+01 6.162848e+01 1.201460e-07 9.926559e-04 -1.262285e-01 1.262285e-01
-1.268700e+00 9.893506e+00 -5.363887e+01 6.172796e+01 -2.048498e-07 9.897579e-04 -1.262285e-01 1.262282e-01
-1.272124e+00 9.901622e+00 -5.404395e+01 6.141328e+01 -1.006367e-07 9.867620e-04 -1.262285e-01 1.262282e-01
-1.277518e+00 9.915323e+00 -5.423893e+01 6.186065e+01 1.260105e-07 9.843545e-04 -1.262285e-01 1.262284e-01
-1.270557e+00 9.922455e+00 -5.414418e+01 6.193403e+01 3.879119e-07 9.829723e-04 -1.262285e-01 1.262285e-01
-1.276433e+00 9.939579e+00 -5.426476e+01 6.260724e+01 -1.743329e-06 9.797174e-04 -1.262284e-01 1.262284e-01
-1.285417e+00 9.946976e+00 -5.406330e+01 6.225219e+01 8.022676e-07 9.775807e-04 -1.262285e-01 1.262285e-01
-1.283361e+00 9.960027e+00 -5.418859e+01 6.260037e+01 1.374072e-06 9.736523e-04 -1.262285e-01 1.262285e-01
-1.283067e+00 9.972613e+00 -5.407980e+01 6.269524e+01 -3.801307e-07 9.712252e-04 -1.262285e-01 1.262282e-01
-1.285033e+00 9.973871e+00 -5.427970e+01 6.268323e+01 -2.307823e-08 9.729996e-04 -1.262285e-01 1.288490e-01
-1.290386e+00 9.990376e+00 -5.404904e+01 6.282031e+01 1.548380e-08 9.669680e-04 -1.262285e-01 1.262277e-01
-1.290785e+00 1.000389e+01 -5.420043e+01 6.312378e+01 5.799950e-07 9.653834e-04 -1.262284e-01 1.276447e-01
-1.288678e+00 1.000605e+01 -5.428998e+01 6.319885e+01 -6.254194e-07 9.655624e-04 -1.262283e-01 1.318117e-01
-1.304501e+00 1.002208e+01 -5.441678e+01 6.320855e+01 1.544261e-06 9.615278e-04 -1.262284e-01 1.262284e-01
-1.292574e+00 1.003733e+01 -5.438513e+01 6.320307e+01 8.991627e-08 9.597768e-04 -1.262285e-01 1.262285e-01
-1.297751e+00 1.003998e+01 -5.441000e+01 6.360495e+01 -4.961145e-07 9.569066e-04 -1.262285e-01 1.262284e-01
-1.302080e+00 1.005025e+01 -5.445901e+01 6.342187e+01 -2.924726e-07 9.557781e-04 -1.262285e-01 1.262281e-01
-1.311000e+00 1.005992e+01 -5.459515e+01 6.400232e+01 5.429699e-07 9.523928e-04 -1.262284e-01 1.262273e-01
-1.306059e+00 1.006783e+01 -5.457824e+01 6.402999e+01 7.397185e-07 9.506146e-04 -1.262285e-01 1.264929e-01
-1.301050e+00 1.007850e+01 -5.455322e+01 6.381033e+01 7.377463e-07 9.510444e-04 -1.262285e-01 1.262285e-01
-1.308006e+00 1.009103e+01 -5.459120e+01 6.406602e+01 -1.340154e-07 9.454716e-04 -1.262285e-01 1.262284e-01
-1.313911e+00 1.009469e+01 -5.462336e+01 6.425958e+01 -6.278831e-07 9.457690e-04 -1.262285e-01 1.323695e-01
-1.315824e+00 1.010963e+01 -5.461848e+01 6.439838e+01 9.520469e-07 9.434319e-04 -1.262285e-01 1.310417e-01
