4.476028e+02 7.367758e-01 1.155828e-02 5.799227e-01 -9.990234e-01 9.987793e-01
3.522632e+02 4.886650e-01 3.742099e-03 5.809172e-01 -1.284912e+00 1.008057e+00
3.522632e+02 4.886650e-01 3.742099e-03 5.809172e-01 -1.284912e+00 1.008057e+00
3.522632e+02 4.886650e-01 3.742099e-03 5.809172e-01 -1.284912e+00 1.008057e+00
3.522632e+02 4.886650e-01 3.742099e-03 5.809172e-01 -1.284912e+00 1.008057e+00
3.522632e+02 4.886650e-01 3.742099e-03 5.809172e-01 -1.284912e+00 1.008057e+00
3.522632e+02 4.886650e-01 3.742099e-03 5.809172e-01 -1.284912e+00 1.008057e+00
3.522632e+02 4.886650e-01 3.742099e-03 5.809172e-01 -1.284912e+00 1.008057e+00
3.522632e+02 4.886650e-01 3.742099e-03 5.809172e-01 -1.284912e+00 1.008057e+00
3.522632e+02 4.886650e-01 3.742099e-03 5.809172e-01 -1.284912e+00 1.008057e+00
3.522632e+02 4.886650e-01 3.742099e-03 5.809172e-01 -1.284912e+00 1.008057e+00
3.522632e+02 4.886650e-01 3.742099e-03 5.809172e-01 -1.284912e+00 1.008057e+00
3.522632e+02 4.886650e-01 3.742099e-03 5.809172e-01 -1.284912e+00 1.008057e+00
3.522632e+02 4.886650e-01 3.742099e-03 5.809172e-01 -1.284912e+00 1.008057e+00
3.522632e+02 4.886650e-01 3.742099e-03 5.809172e-01 -1.284912e+00 1.008057e+00
3.522632e+02 4.886650e-01 3.742099e-03 5.809172e-01 -1.284912e+00 1.008057e+00
3.522632e+02 4.886650e-01 3.742099e-03 5.809172e-01 -1.284912e+00 1.008057e+00
3.522632e+02 4.886650e-01 3.742099e-03 5.809172e-01 -1.284912e+00 1.008057e+00
3.522632e+02 4.886650e-01 3.742099e-03 5.809172e-01 -1.284912e+00 1.008057e+00
3.522632e+02 4.886650e-01 3.742099e-03 5.809172e-01 -1.284912e+00 1.008057e+00
3.522632e+02 4.886650e-01 3.742099e-03 5.809172e-01 -1.284912e+00 1.008057e+00
3.522632e+02 4.886650e-01 3.742099e-03 5.809172e-01 -1.284912e+00 1.008057e+00
3.522632e+02 4.886650e-01 3.742099e-03 5.809172e-01 -1.284912e+00 1.008057e+00
3.522632e+02 4.886650e-01 3.742099e-03 5.809172e-01 -1.284912e+00 1.008057e+00
3.522632e+02 4.886650e-01 3.742099e-03 5.809172e-01 -1.284912e+00 1.008057e+00
3.522632e+02 4.886650e-01 3.742099e-03 5.809172e-01 -1.284912e+00 1.008057e+00
3.522632e+02 4.886650e-01 3.742099e-03 5.809172e-01 -1.284912e+00 1.008057e+00
3.522632e+02 4.886650e-01 3.742099e-03 5.809172e-01 -1.284912e+00 1.008057e+00
3.522632e+02 4.886650e-01 3.742099e-03 5.809172e-01 -1.284912e+00 1.008057e+00
3.522632e+02 4.886650e-01 3.742099e-03 5.809172e-01 -1.284912e+00 1.008057e+00
3.522632e+02 4.886650e-01 3.742099e-03 5.809172e-01 -1.284912e+00 1.008057e+00
3.522632e+02 4.886650e-01 3.742099e-03 5.809172e-01 -1.284912e+00 1.008057e+00
3.522632e+02 4.886650e-01 3.742099e-03 5.809172e-01 -1.284912e+00 1.008057e+00
3.522632e+02 4.886650e-01 3.742099e-03 5.809172e-01 -1.284912e+00 1.008057e+00
3.522632e+02 4.886650e-01 3.742099e-03 5.809172e-01 -1.284912e+00 1.008057e+00
3.522632e+02 4.886650e-01 3.742099e-03 5.809172e-01 -1.284912e+00 1.008057e+00
3.522632e+02 4.886650e-01 3.742099e-03 5.809172e-01 -1.284912e+00 1.008057e+00
3.522632e+02 4.886650e-01 3.742099e-03 5.809172e-01 -1.284912e+00 1.008057e+00
3.522632e+02 4.886650e-01 3.742099e-03 5.809172e-01 -1.284912e+00 1.008057e+00
3.522632e+02 4.886650e-01 3.742099e-03 5.809172e-01 -1.284912e+00 1.008057e+00
3.522632e+02 4.886650e-01 3.742099e-03 5.809172e-01 -1.284912e+00 1.008057e+00
3.522632e+02 4.886650e-01 3.742099e-03 5.809172e-01 -1.284912e+00 1.008057e+00
3.522632e+02 4.886650e-01 3.742099e-03 5.809172e-01 -1.284912e+00 1.008057e+00
3.522632e+02 4.886650e-01 3.742099e-03 5.809172e-01 -1.284912e+00 1.008057e+00
3.522632e+02 4.886650e-01 3.742099e-03 5.809172e-01 -1.284912e+00 1.008057e+00
3.522632e+02 4.886650e-01 3.742099e-03 5.809172e-01 -1.284912e+00 1.008057e+00
3.522632e+02 4.886650e-01 3.742099e-03 5.809172e-01 -1.284912e+00 1.008057e+00
3.522632e+02 4.886650e-01 3.742099e-03 5.809172e-01 -1.284912e+00 1.008057e+00
3.522632e+02 4.886650e-01 3.742099e-03 5.809172e-01 -1.284912e+00 1.008057e+00
3.522632e+02 4.886650e-01 3.742099e-03 5.809172e-01 -1.284912e+00 1.008057e+00
3.522632e+02 4.886650e-01 3.742099e-03 5.809172e-01 -1.284912e+00 1.008057e+00
3.522632e+02 4.886650e-01 3.742099e-03 5.809172e-01 -1.284912e+00 1.008057e+00
3.522632e+02 4.886650e-01 3.742099e-03 5.809172e-01 -1.284912e+00 1.008057e+00
3.522632e+02 4.886650e-01 3.742099e-03 5.809172e-01 -1.284912e+00 1.008057e+00
3.522632e+02 4.886650e-01 3.742099e-03 5.809172e-01 -1.284912e+00 1.008057e+00
3.522632e+02 4.886650e-01 3.742099e-03 5.809172e-01 -1.284912e+00 1.008057e+00
3.522632e+02 4.886650e-01 3.742099e-03 5.809172e-01 -1.284912e+00 1.008057e+00
3.522632e+02 4.886650e-01 3.742099e-03 5.809172e-01 -1.284912e+00 1.008057e+00
3.522632e+02 4.886650e-01 3.742099e-03 5.809172e-01 -1.284912e+00 1.008057e+00
3.522632e+02 4.886650e-01 3.742099e-03 5.809172e-01 -1.284912e+00 1.008057e+00
3.522632e+02 4.886650e-01 3.742099e-03 5.809172e-01 -1.284912e+00 1.008057e+00
3.522632e+02 4.886650e-01 3.742099e-03 5.809172e-01 -1.284912e+00 1.008057e+00
3.522632e+02 4.886650e-01 3.742099e-03 5.809172e-01 -1.284912e+00 1.008057e+00
3.522632e+02 4.886650e-01 3.742099e-03 5.809172e-01 -1.284912e+00 1.008057e+00
3.522632e+02 4.886650e-01 3.742099e-03 5.809172e-01 -1.284912e+00 1.008057e+00
3.522632e+02 4.886650e-01 3.742099e-03 5.809172e-01 -1.284912e+00 1.008057e+00
3.522632e+02 4.886650e-01 3.742099e-03 5.809172e-01 -1.284912e+00 1.008057e+00
3.522632e+02 4.886650e-01 3.742099e-03 5.809172e-01 -1.284912e+00 1.008057e+00
3.522632e+02 4.886650e-01 3.742099e-03 5.809172e-01 -1.284912e+00 1.008057e+00
3.522632e+02 4.886650e-01 3.742099e-03 5.809172e-01 -1.284912e+00 1.008057e+00
3.522632e+02 4.886650e-01 3.742099e-03 5.809172e-01 -1.284912e+00 1.008057e+00
3.522632e+02 4.886650e-01 3.742099e-03 5.809172e-01 -1.284912e+00 1.008057e+00
3.522632e+02 4.886650e-01 3.742099e-03 5.809172e-01 -1.284912e+00 1.008057e+00
3.522632e+02 4.886650e-01 3.742099e-03 5.809172e-01 -1.284912e+00 1.008057e+00
3.522632e+02 4.886650e-01 3.742099e-03 5.809172e-01 -1.284912e+00 1.008057e+00
3.522632e+02 4.886650e-01 3.742099e-03 5.809172e-01 -1.284912e+00 1.008057e+00
3.522632e+02 4.886650e-01 3.742099e-03 5.809172e-01 -1.284912e+00 1.008057e+00
3.522632e+02 4.886650e-01 3.742099e-03 5.809172e-01 -1.284912e+00 1.008057e+00
3.522632e+02 4.886650e-01 3.742099e-03 5.809172e-01 -1.284912e+00 1.008057e+00
3.522632e+02 4.886650e-01 3.742099e-03 5.809172e-01 -1.284912e+00 1.008057e+00
3.522632e+02 4.886650e-01 3.742099e-03 5.809172e-01 -1.284912e+00 1.008057e+00
3.522632e+02 4.886650e-01 3.742099e-03 5.809172e-01 -1.284912e+00 1.008057e+00
3.522632e+02 4.886650e-01 3.742099e-03 5.809172e-01 -1.284912e+00 1.008057e+00
3.522632e+02 4.886650e-01 3.742099e-03 5.809172e-01 -1.284912e+00 1.008057e+00
3.522632e+02 4.886650e-01 3.742099e-03 5.809172e-01 -1.284912e+00 1.008057e+00
3.522632e+02 4.886650e-01 3.742099e-03 5.809172e-01 -1.284912e+00 1.008057e+00
3.522632e+02 4.886650e-01 3.742099e-03 5.809172e-01 -1.284912e+00 1.008057e+00
3.522632e+02 4.886650e-01 3.742099e-03 5.809172e-01 -1.284912e+00 1.008057e+00
3.522632e+02 4.886650e-01 3.742099e-03 5.809172e-01 -1.284912e+00 1.008057e+00
3.522632e+02 4.886650e-01 3.742099e-03 5.809172e-01 -1.284912e+00 1.008057e+00
3.522632e+02 4.886650e-01 3.742099e-03 5.809172e-01 -1.284912e+00 1.008057e+00
3.522632e+02 4.886650e-01 3.742099e-03 5.809172e-01 -1.284912e+00 1.008057e+00
3.522632e+02 4.886650e-01 3.742099e-03 5.809172e-01 -1.284912e+00 1.008057e+00
3.522632e+02 4.886650e-01 3.742099e-03 5.809172e-01 -1.284912e+00 1.008057e+00
3.522632e+02 4.886650e-01 3.742099e-03 5.809172e-01 -1.284912e+00 1.008057e+00
3.522632e+02 4.886650e-01 3.742099e-03 5.809172e-01 -1.284912e+00 1.008057e+00
3.522632e+02 4.886650e-01 3.742099e-03 5.809172e-01 -1.284912e+00 1.008057e+00
3.522632e+02 4.886650e-01 3.742099e-03 5.809172e-01 -1.284912e+00 1.008057e+00
3.522632e+02 4.886650e-01 3.742099e-03 5.809172e-01 -1.284912e+00 1.008057e+00
3.522632e+02 4.886650e-01 3.742099e-03 5.809172e-01 -1.284912e+00 1.008057e+00
3.522632e+02 4.886650e-01 3.742099e-03 5.809172e-01 -1.284912e+00 1.008057e+00
3.522632e+02 4.886650e-01 3.742099e-03 5.809172e-01 -1.284912e+00 1.008057e+00
