4.166802e-02 3.605123e+00 -2.344141e+01 2.205469e+01 7.013736e-04 9.999220e-03 -9.765625e-02 1.367188e-01
4.753713e-02 3.608293e+00 -2.344141e+01 2.205469e+01 7.009301e-04 1.000218e-02 -9.765625e-02 1.367188e-01
4.202884e-02 3.599181e+00 -2.344141e+01 2.205469e+01 7.022287e-04 1.000744e-02 -9.765625e-02 1.367188e-01
4.211873e-02 3.608379e+00 -2.344141e+01 2.205469e+01 7.002693e-04 1.000050e-02 -9.765625e-02 1.367188e-01
3.752951e-02 3.605544e+00 -2.344141e+01 2.205469e+01 7.005437e-04 9.999764e-03 -9.765625e-02 1.367188e-01
4.148524e-02 3.607707e+00 -2.344141e+01 2.205469e+01 6.997938e-04 9.993840e-03 -9.765625e-02 1.367188e-01
4.394338e-02 3.608800e+00 -2.344141e+01 2.205469e+01 7.041241e-04 1.001454e-02 -9.765625e-02 1.367188e-01
4.241734e-02 3.606212e+00 -2.344141e+01 2.205469e+01 7.018744e-04 1.000723e-02 -9.765625e-02 1.367188e-01
4.920660e-02 3.614825e+00 -2.344141e+01 2.205469e+01 7.015634e-04 1.000806e-02 -9.765625e-02 1.367188e-01
4.431327e-02 3.603639e+00 -2.344141e+01 2.205469e+01 6.993456e-04 1.000242e-02 -9.765625e-02 1.367188e-01
3.780903e-02 3.607370e+00 -2.344141e+01 2.205469e+01 6.990324e-04 9.994472e-03 -9.765625e-02 1.367188e-01
3.213600e-02 3.613248e+00 -2.344141e+01 2.205469e+01 6.967826e-04 9.987951e-03 -9.765625e-02 1.367188e-01
3.348949e-02 3.604352e+00 -2.344141e+01 2.200391e+01 7.004614e-04 1.000354e-02 -9.765625e-02 1.367188e-01
4.699508e-02 3.611140e+00 -2.275781e+01 2.205469e+01 7.020047e-04 1.000569e-02 -9.765625e-02 1.367188e-01
4.357514e-02 3.607850e+00 -2.344141e+01 2.205469e+01 7.014422e-04 1.000609e-02 -9.765625e-02 1.367188e-01
4.222676e-02 3.613594e+00 -2.344141e+01 2.205469e+01 6.990941e-04 9.998622e-03 -9.765625e-02 1.367188e-01
4.733054e-02 3.608276e+00 -2.344141e+01 2.205469e+01 7.022813e-04 1.001107e-02 -9.765625e-02 1.367188e-01
4.933709e-02 3.609616e+00 -2.344141e+01 2.205469e+01 7.031524e-04 1.001425e-02 -9.765625e-02 1.367188e-01
3.799007e-02 3.623364e+00 -2.344141e+01 2.205469e+01 6.964603e-04 9.982022e-03 -9.765625e-02 1.367188e-01
3.642448e-02 3.599618e+00 -2.344141e+01 2.205469e+01 6.994554e-04 9.998630e-03 -9.765625e-02 1.367188e-01
4.372820e-02 3.611866e+00 -2.344141e+01 2.205469e+01 7.001344e-04 9.997689e-03 -9.765625e-02 1.367188e-01
4.702247e-02 3.611432e+00 -2.344141e+01 2.205469e+01 7.009438e-04 1.000276e-02 -9.765625e-02 1.367188e-01
4.390220e-02 3.605380e+00 -2.344141e+01 2.205469e+01 6.998807e-04 1.000028e-02 -9.765625e-02 1.367188e-01
4.044686e-02 3.614092e+00 -2.344141e+01 2.205469e+01 6.986917e-04 9.997834e-03 -9.765625e-02 1.367188e-01
4.622251e-02 3.608136e+00 -2.344141e+01 2.205469e+01 6.998372e-04 1.000094e-02 -9.765625e-02 1.367188e-01
3.890008e-02 3.607298e+00 -2.344141e+01 2.205469e+01 6.979784e-04 9.995809e-03 -9.765625e-02 1.367188e-01
4.756935e-02 3.605536e+00 -2.344141e+01 2.205469e+01 7.006603e-04 1.000479e-02 -9.765625e-02 1.367188e-01
4.157928e-02 3.614052e+00 -2.344141e+01 2.205469e+01 6.986460e-04 9.996395e-03 -9.765625e-02 1.367188e-01
3.359684e-02 3.603672e+00 -2.344141e+01 2.205469e+01 6.994600e-04 9.994642e-03 -9.765625e-02 1.367188e-01
4.913619e-02 3.611018e+00 -2.344141e+01 2.205469e+01 7.016777e-04 1.000851e-02 -9.765625e-02 1.367188e-01
4.337539e-02 3.610940e+00 -2.344141e+01 2.205469e+01 6.988564e-04 9.986063e-03 -9.765625e-02 1.367188e-01
3.829572e-02 3.605332e+00 -2.344141e+01 2.205469e+01 7.005528e-04 1.000737e-02 -9.765625e-02 1.367188e-01
4.541821e-02 3.597408e+00 -2.344141e+01 2.205469e+01 7.006534e-04 1.000851e-02 -9.765625e-02 1.367188e-01
4.284375e-02 3.605491e+00 -2.344141e+01 2.205469e+01 6.997160e-04 9.997274e-03 -9.765625e-02 1.367188e-01
4.109838e-02 3.607997e+00 -2.344141e+01 2.205469e+01 6.969610e-04 9.994005e-03 -9.765625e-02 1.367188e-01
4.313735e-02 3.609604e+00 -2.344141e+01 2.205469e+01 7.010033e-04 1.000506e-02 -9.765625e-02 1.367188e-01
3.692072e-02 3.604680e+00 -2.344141e+01 2.205469e+01 6.988083e-04 9.996979e-03 -9.765625e-02 1.367188e-01
3.826456e-02 3.613217e+00 -2.344141e+01 2.205469e+01 6.961905e-04 9.986956e-03 -9.765625e-02 1.367188e-01
4.023389e-02 3.607150e+00 -2.344141e+01 2.205469e+01 7.000270e-04 9.996994e-03 -9.765625e-02 1.367188e-01
4.096316e-02 3.605787e+00 -2.344141e+01 2.205469e+01 7.007152e-04 1.000062e-02 -9.765625e-02 1.367188e-01
4.083198e-02 3.609702e+00 -2.344141e+01 2.205469e+01 7.019178e-04 1.000309e-02 -9.765625e-02 1.367188e-01
3.322627e-02 3.604673e+00 -2.344141e+01 2.205469e+01 6.992976e-04 9.997449e-03 -9.765625e-02 1.367188e-01
4.518721e-02 3.607143e+00 -2.344141e+01 2.205469e+01 7.007792e-04 1.000554e-02 -9.765625e-02 1.367188e-01
4.613783e-02 3.612801e+00 -2.344141e+01 2.205469e+01 6.980744e-04 1.000206e-02 -9.765625e-02 1.367188e-01
4.266773e-02 3.603821e+00 -2.344141e+01 2.205469e+01 7.002533e-04 9.998893e-03 -9.765625e-02 1.367188e-01
4.596663e-02 3.611423e+00 -2.344141e+01 2.205469e+01 6.994691e-04 1.000268e-02 -9.765625e-02 1.367188e-01
4.330131e-02 3.609002e+00 -2.344141e+01 2.205469e+01 6.996520e-04 9.992611e-03 -9.765625e-02 1.367188e-01
4.486285e-02 3.598403e+00 -2.275781e+01 2.205469e+01 7.011793e-04 1.000637e-02 -9.765625e-02 1.367188e-01
4.320399e-02 3.608887e+00 -2.344141e+01 2.205469e+01 7.014971e-04 1.000758e-02 -9.765625e-02 1.367188e-01
4.785523e-02 3.604843e+00 -2.344141e+01 2.205469e+01 7.007952e-04 1.000704e-02 -9.765625e-02 1.367188e-01
3.981366e-02 3.609619e+00 -2.344141e+01 2.200391e+01 7.010696e-04 9.999370e-03 -9.765625e-02 1.367188e-01
4.402816e-02 3.610392e+00 -2.344141e+01 2.205469e+01 7.027455e-04 1.001018e-02 -9.765625e-02 1.367188e-01
3.861998e-02 3.616149e+00 -2.344141e+01 2.205469e+01 6.987695e-04 1.000012e-02 -9.765625e-02 1.367188e-01
4.246036e-02 3.599861e+00 -2.344141e+01 2.205469e+01 7.008386e-04 1.000361e-02 -9.765625e-02 1.367188e-01
4.505102e-02 3.607544e+00 -2.344141e+01 2.205469e+01 7.002167e-04 1.000183e-02 -9.765625e-02 1.367188e-01
4.287269e-02 3.612549e+00 -2.344141e+01 2.205469e+01 7.019018e-04 1.001154e-02 -9.765625e-02 1.367188e-01
4.264525e-02 3.613783e+00 -2.344141e+01 2.205469e+01 7.019818e-04 1.000174e-02 -9.765625e-02 1.367188e-01
3.404803e-02 3.613931e+00 -2.344141e+01 2.205469e+01 6.985683e-04 9.997022e-03 -9.765625e-02 1.367188e-01
4.032620e-02 3.599833e+00 -2.344141e+01 2.205469e+01 6.998143e-04 1.000217e-02 -9.765625e-02 1.367188e-01
3.902469e-02 3.614156e+00 -2.344141e+01 2.205469e+01 6.994234e-04 9.990711e-03 -9.765625e-02 1.367188e-01
3.920100e-02 3.603615e+00 -2.344141e+01 2.205469e+01 6.976720e-04 9.989429e-03 -9.765625e-02 1.367188e-01
3.966725e-02 3.608776e+00 -2.344141e+01 2.205469e+01 6.980904e-04 9.992702e-03 -9.765625e-02 1.367188e-01
4.260436e-02 3.612749e+00 -2.344141e+01 2.205469e+01 7.005231e-04 1.000095e-02 -9.765625e-02 1.367188e-01
3.907002e-02 3.609728e+00 -2.344141e+01 2.205469e+01 7.033948e-04 1.000874e-02 -9.765625e-02 1.367188e-01
4.600154e-02 3.604873e+00 -2.344141e+01 2.205469e+01 7.017692e-04 1.000227e-02 -9.765625e-02 1.367188e-01
3.586294e-02 3.601460e+00 -2.344141e+01 2.205469e+01 7.013462e-04 1.000434e-02 -9.765625e-02 1.367188e-01
5.126534e-02 3.604213e+00 -2.344141e+01 2.205469e+01 7.022470e-04 1.001462e-02 -9.765625e-02 1.367188e-01
4.523486e-02 3.602936e+00 -2.344141e+01 2.205469e+01 7.010513e-04 1.000701e-02 -9.765625e-02 1.367188e-01
4.257282e-02 3.598555e+00 -2.344141e+01 2.205469e+01 6.975691e-04 9.995386e-03 -9.765625e-02 1.367188e-01
4.017043e-02 3.608022e+00 -2.344141e+01 2.205469e+01 7.002808e-04 1.000550e-02 -9.765625e-02 1.367188e-01
4.826939e-02 3.609020e+00 -2.344141e+01 2.205469e+01 7.013302e-04 1.000803e-02 -9.765625e-02 1.367188e-01
3.972579e-02 3.610185e+00 -2.344141e+01 2.205469e+01 6.987329e-04 9.996063e-03 -9.765625e-02 1.367188e-01
3.996238e-02 3.613432e+00 -2.344141e+01 2.205469e+01 7.006649e-04 9.997360e-03 -9.765625e-02 1.367188e-01
4.490519e-02 3.604497e+00 -2.344141e+01 2.205469e+01 7.018675e-04 1.000698e-02 -9.765625e-02 1.367188e-01
4.640577e-02 3.601282e+00 -2.344141e+01 2.205469e+01 7.024048e-04 1.000423e-02 -9.765625e-02 1.367188e-01
4.159298e-02 3.602642e+00 -2.344141e+01 2.205469e+01 7.002625e-04 1.000173e-02 -9.765625e-02 1.367188e-01
3.590934e-02 3.595317e+00 -2.344141e+01 2.205469e+01 7.029467e-04 1.001024e-02 -9.765625e-02 1.367188e-01
4.210764e-02 3.609438e+00 -2.344141e+01 2.205469e+01 7.005368e-04 1.000602e-02 -9.765625e-02 1.367188e-01
4.685532e-02 3.604374e+00 -2.344141e+01 2.205469e+01 6.995125e-04 1.000316e-02 -9.765625e-02 1.367188e-01
4.049016e-02 3.607874e+00 -2.344141e+01 2.205469e+01 7.010787e-04 1.000609e-02 -9.765625e-02 1.367188e-01
4.096190e-02 3.609418e+00 -2.344141e+01 2.205469e+01 7.002488e-04 1.000153e-02 -9.765625e-02 1.367188e-01
4.564699e-02 3.613287e+00 -2.344141e+01 2.205469e+01 7.008158e-04 1.000628e-02 -9.765625e-02 1.367188e-01
4.477074e-02 3.617788e+00 -2.344141e+01 2.205469e+01 7.005368e-04 1.000091e-02 -9.765625e-02 1.367188e-01
4.560185e-02 3.608708e+00 -2.344141e+01 2.205469e+01 7.009895e-04 1.000277e-02 -9.765625e-02 1.367188e-01
4.357851e-02 3.605157e+00 -2.344141e+01 2.205469e+01 7.003151e-04 9.999871e-03 -9.765625e-02 1.367188e-01
3.970303e-02 3.602067e+00 -2.344141e+01 2.205469e+01 7.024254e-04 1.001071e-02 -9.765625e-02 1.367188e-01
4.270062e-02 3.604825e+00 -2.344141e+01 2.205469e+01 7.010261e-04 1.000321e-02 -9.765625e-02 1.367188e-01
4.185561e-02 3.604712e+00 -2.344141e+01 2.205469e+01 7.000316e-04 9.999214e-03 -9.765625e-02 1.367188e-01
3.771508e-02 3.610205e+00 -2.344141e+01 2.205469e+01 6.981362e-04 9.993661e-03 -9.765625e-02 1.367188e-01
4.789313e-02 3.614712e+00 -2.344141e+01 2.205469e+01 7.019933e-04 1.000824e-02 -9.765625e-02 1.367188e-01
3.984597e-02 3.612044e+00 -2.344141e+01 2.205469e+01 7.019658e-04 1.000876e-02 -9.765625e-02 1.367188e-01
3.824093e-02 3.606694e+00 -2.344141e+01 2.205469e+01 7.019841e-04 1.000403e-02 -9.765625e-02 1.367188e-01
4.623457e-02 3.610566e+00 -2.344141e+01 2.205469e+01 7.015085e-04 1.000599e-02 -9.765625e-02 1.367188e-01
5.074749e-02 3.617203e+00 -2.344141e+01 2.205469e+01 7.012250e-04 1.000314e-02 -9.765625e-02 1.367188e-01
3.799807e-02 3.609810e+00 -2.344141e+01 2.205469e+01 7.001916e-04 1.000293e-02 -9.765625e-02 1.367188e-01
3.885648e-02 3.601541e+00 -2.344141e+01 2.205469e+01 7.011610e-04 9.999161e-03 -9.765625e-02 1.367188e-01
4.084877e-02 3.602520e+00 -2.344141e+01 2.205469e+01 7.005208e-04 1.000131e-02 -9.765625e-02 1.367188e-01
4.101746e-02 3.599806e+00 -2.344141e+01 2.205469e+01 7.007678e-04 1.000755e-02 -9.765625e-02 1.367188e-01
4.105633e-02 3.612229e+00 -2.344141e+01 2.205469e+01 6.991536e-04 9.994056e-03 -9.765625e-02 1.367188e-01
4.921615e-02 3.612870e+00 -2.344141e+01 2.205469e+01 7.006100e-04 1.000808e-02 -9.765625e-02 1.367188e-01
