7.261084e+01 4.217391e-01 -5.155165e-03 5.975850e-01 -9.985352e-01 9.965820e-01
7.189111e+01 4.217391e-01 -5.539280e-03 5.974993e-01 -9.987793e-01 9.968262e-01
7.182129e+01 3.478261e-01 -5.849175e-03 5.973824e-01 -9.995117e-01 9.968262e-01
7.202417e+01 3.739130e-01 -5.870660e-03 5.973622e-01 -9.997559e-01 9.973145e-01
7.205103e+01 3.782609e-01 -5.900391e-03 5.973542e-01 -9.997559e-01 9.973145e-01
7.205103e+01 3.782609e-01 -5.906576e-03 5.973538e-01 -9.997559e-01 9.973145e-01
7.200317e+01 3.434783e-01 -5.908963e-03 5.973789e-01 -1.000000e+00 9.978027e-01
7.201245e+01 3.391304e-01 -5.967339e-03 5.973875e-01 -1.000000e+00 9.985352e-01
7.140894e+01 4.217391e-01 -6.152669e-03 5.974040e-01 -1.000244e+00 1.000732e+00
7.166650e+01 4.217391e-01 -5.802300e-03 5.973957e-01 -1.002197e+00 9.992676e-01
7.166650e+01 4.217391e-01 -5.824653e-03 5.973899e-01 -1.002197e+00 9.992676e-01
7.125903e+01 4.217391e-01 -5.839193e-03 5.974589e-01 -1.002441e+00 1.000244e+00
7.125903e+01 4.217391e-01 -5.843641e-03 5.974588e-01 -1.002441e+00 1.000244e+00
7.347583e+01 5.608696e-01 -6.289497e-03 5.972455e-01 -1.003662e+00 1.000977e+00
7.193311e+01 4.217391e-01 -6.145182e-03 5.979489e-01 -1.024902e+00 1.091797e+00
7.093970e+01 4.217391e-01 -6.428602e-03 5.980373e-01 -1.025879e+00 1.036621e+00
7.067285e+01 4.217391e-01 -6.725477e-03 5.981919e-01 -1.026855e+00 1.037842e+00
7.095386e+01 4.000000e-01 -6.816949e-03 5.980825e-01 -1.027100e+00 1.037842e+00
7.073340e+01 4.000000e-01 -6.874349e-03 5.980126e-01 -1.027100e+00 1.017578e+00
7.087671e+01 4.217391e-01 -6.832465e-03 5.982416e-01 -1.029297e+00 1.037354e+00
7.084155e+01 4.217391e-01 -6.941081e-03 5.986048e-01 -1.029785e+00 1.031250e+00
7.091040e+01 3.043478e-01 -9.106337e-03 5.987286e-01 -1.042236e+00 1.047119e+00
7.018262e+01 4.217391e-01 -9.721463e-03 5.989839e-01 -1.042236e+00 1.049072e+00
7.037598e+01 4.217391e-01 -9.832574e-03 5.991871e-01 -1.042725e+00 1.051758e+00
7.068726e+01 4.217391e-01 -9.951280e-03 5.992855e-01 -1.042725e+00 1.052002e+00
7.129785e+01 3.217391e-01 -1.021191e-02 5.992944e-01 -1.042969e+00 1.056641e+00
7.066333e+01 2.652174e-01 -1.025358e-02 5.995285e-01 -1.043213e+00 1.060303e+00
7.040674e+01 2.826087e-01 -1.032498e-02 5.998581e-01 -1.043457e+00 1.063965e+00
7.021582e+01 2.608696e-01 -1.033388e-02 5.999715e-01 -1.043457e+00 1.064209e+00
6.974609e+01 4.217391e-01 -1.034950e-02 6.000942e-01 -1.043457e+00 1.065918e+00
7.034351e+01 4.217391e-01 -1.036740e-02 6.002729e-01 -1.043457e+00 1.066162e+00
6.911694e+01 4.217391e-01 -9.813477e-03 6.027509e-01 -1.089600e+00 1.197266e+00
6.927661e+01 4.217391e-01 -9.111545e-03 6.050203e-01 -1.094727e+00 1.195801e+00
6.892432e+01 4.217391e-01 -9.157227e-03 6.072174e-01 -1.101807e+00 1.204590e+00
7.035449e+01 4.217391e-01 -1.034918e-02 6.077214e-01 -1.143555e+00 1.227783e+00
6.498120e+01 3.739130e-01 -1.111654e-02 6.169465e-01 -1.579834e+00 3.065430e+00
6.372070e+01 3.130435e-01 -1.966482e-02 6.507568e-01 -1.648438e+00 3.407715e+00
6.317261e+01 2.521739e-01 -2.091851e-02 6.548298e-01 -1.664551e+00 3.397461e+00
5.423242e+01 2.260870e-01 -1.825933e-02 6.674111e-01 -1.723145e+00 3.528564e+00
5.188135e+01 2.130435e-01 -1.618240e-02 6.795462e-01 -1.772461e+00 3.529297e+00
4.657617e+01 2.173913e-01 -1.651226e-02 6.925613e-01 -2.129395e+00 3.563721e+00
4.541895e+01 2.000000e-01 -1.600814e-02 6.950147e-01 -2.147461e+00 3.569336e+00
4.277393e+01 1.913043e-01 -8.812934e-03 7.306452e-01 -2.328613e+00 3.593018e+00
4.206812e+01 2.000000e-01 -7.653537e-03 7.304798e-01 -2.328613e+00 3.560547e+00
4.159814e+01 2.130435e-01 -4.462674e-03 7.309278e-01 -2.309570e+00 3.538086e+00
4.286426e+01 1.956522e-01 -3.289280e-03 7.302817e-01 -2.334961e+00 3.530273e+00
4.105273e+01 2.086957e-01 -3.167860e-03 7.299729e-01 -2.340088e+00 3.508057e+00
4.176123e+01 2.043478e-01 -1.679253e-03 7.287743e-01 -2.365967e+00 3.493652e+00
4.007324e+01 2.043478e-01 -2.783312e-03 7.283877e-01 -2.323486e+00 3.450195e+00
4.129004e+01 2.043478e-01 -3.995768e-03 7.287564e-01 -2.330811e+00 3.448242e+00
4.005884e+01 1.956522e-01 -4.113064e-03 7.286782e-01 -2.331055e+00 3.448242e+00
4.046436e+01 1.826087e-01 -3.640734e-03 7.285214e-01 -2.331055e+00 3.431152e+00
4.033081e+01 1.956522e-01 -6.067817e-03 7.301979e-01 -2.324951e+00 3.426514e+00
4.152051e+01 1.956522e-01 -9.503798e-03 7.311771e-01 -2.342285e+00 3.426514e+00
4.147974e+01 2.043478e-01 -8.472765e-03 7.323500e-01 -2.354004e+00 3.432373e+00
4.027466e+01 2.000000e-01 -7.881727e-03 7.335293e-01 -2.354248e+00 3.432373e+00
4.083032e+01 2.000000e-01 -7.579970e-03 7.332854e-01 -2.394043e+00 3.412354e+00
4.066846e+01 1.913043e-01 -7.104492e-03 7.332189e-01 -2.394043e+00 3.393311e+00
4.742700e+01 2.347826e-01 1.334625e-02 7.717825e-01 -2.833740e+00 3.560791e+00
4.701660e+01 2.130435e-01 1.232357e-02 7.706736e-01 -2.866211e+00 3.470459e+00
4.531250e+01 2.130435e-01 1.209223e-02 7.706085e-01 -2.866211e+00 3.463135e+00
4.432495e+01 2.130435e-01 1.166580e-02 7.707864e-01 -2.852783e+00 3.447998e+00
4.398706e+01 2.130435e-01 1.195855e-02 7.699133e-01 -2.851318e+00 3.446777e+00
4.455713e+01 2.173913e-01 1.218283e-02 7.696351e-01 -2.841553e+00 3.441406e+00
4.315820e+01 2.086957e-01 1.110666e-02 7.693463e-01 -2.875244e+00 3.441406e+00
4.253320e+01 2.130435e-01 1.050033e-02 7.680751e-01 -2.860840e+00 3.417725e+00
4.225708e+01 2.130435e-01 1.065538e-02 7.677860e-01 -2.873047e+00 3.414795e+00
4.367749e+01 2.304348e-01 1.155252e-02 7.679471e-01 -2.869141e+00 3.413574e+00
4.213159e+01 2.173913e-01 9.925239e-03 7.673653e-01 -2.868164e+00 3.400635e+00
4.204980e+01 2.130435e-01 7.256727e-03 7.663910e-01 -2.868896e+00 3.392822e+00
4.223828e+01 2.173913e-01 7.673503e-03 7.649474e-01 -2.835938e+00 3.385254e+00
4.215454e+01 2.086957e-01 7.790039e-03 7.647021e-01 -2.834961e+00 3.385010e+00
4.196875e+01 2.173913e-01 3.145399e-03 7.650385e-01 -2.861816e+00 3.390381e+00
4.584619e+01 1.913043e-01 1.007812e-03 7.666901e-01 -2.914062e+00 3.387451e+00
4.330933e+01 2.086957e-01 4.774306e-04 7.679229e-01 -2.955078e+00 3.378906e+00
4.294482e+01 1.913043e-01 -1.225477e-03 7.681532e-01 -2.946777e+00 3.367432e+00
4.478638e+01 2.173913e-01 -1.946723e-03 7.669189e-01 -2.960205e+00 3.369385e+00
4.184106e+01 2.043478e-01 -1.610026e-03 7.652561e-01 -2.932129e+00 3.341309e+00
4.165747e+01 2.043478e-01 -7.743056e-04 7.639844e-01 -2.983643e+00 3.356689e+00
4.058594e+01 2.086957e-01 -1.145182e-03 7.643959e-01 -2.939453e+00 3.317627e+00
4.161475e+01 1.913043e-01 -3.060004e-03 7.648952e-01 -2.989014e+00 3.322510e+00
4.172559e+01 2.000000e-01 1.831380e-03 7.644933e-01 -2.981445e+00 3.321533e+00
4.205298e+01 2.000000e-01 -5.845269e-04 7.656845e-01 -2.994629e+00 3.322021e+00
4.123267e+01 2.043478e-01 -2.869792e-03 7.664760e-01 -2.993408e+00 3.321289e+00
4.101807e+01 1.913043e-01 -3.117947e-03 7.670265e-01 -2.985840e+00 3.320068e+00
4.167944e+01 1.956522e-01 -2.821940e-03 7.672884e-01 -3.004150e+00 3.325195e+00
4.157080e+01 2.000000e-01 -3.099501e-03 7.675011e-01 -2.996826e+00 3.312500e+00
4.169336e+01 1.913043e-01 -6.824219e-03 7.655196e-01 -3.178711e+00 3.320312e+00
4.092407e+01 2.130435e-01 -1.300998e-02 7.633354e-01 -3.168945e+00 3.314697e+00
4.228125e+01 1.913043e-01 -1.311925e-02 7.633328e-01 -3.185791e+00 3.322754e+00
4.119727e+01 1.869565e-01 -1.333670e-02 7.632672e-01 -3.185791e+00 3.322754e+00
4.055957e+01 1.826087e-01 -1.019510e-02 7.642952e-01 -3.147461e+00 3.325439e+00
4.156860e+01 1.869565e-01 -1.524740e-02 7.655064e-01 -3.278564e+00 3.359375e+00
4.177148e+01 2.043478e-01 -1.299490e-02 7.675056e-01 -3.273926e+00 3.374512e+00
4.039111e+01 1.869565e-01 -9.565755e-03 7.682553e-01 -3.234619e+00 3.374512e+00
4.071680e+01 1.913043e-01 -8.423503e-03 7.670914e-01 -3.234131e+00 3.355225e+00
3.952808e+01 1.956522e-01 -8.378798e-03 7.670517e-01 -3.234131e+00 3.355225e+00
4.014087e+01 1.913043e-01 -7.969293e-03 7.669940e-01 -3.218262e+00 3.344727e+00
3.975854e+01 1.956522e-01 -8.108832e-03 7.670041e-01 -3.218262e+00 3.342285e+00
4.029443e+01 1.869565e-01 -8.872179e-03 7.650268e-01 -3.210205e+00 3.336914e+00
4.050342e+01 1.826087e-01 -8.895399e-03 7.643577e-01 -3.205078e+00 3.333740e+00
3.937085e+01 1.826087e-01 -9.578559e-03 7.636311e-01 -3.209717e+00 3.333496e+00
3.931714e+01 1.913043e-01 -1.085460e-02 7.636140e-01 -3.199463e+00 3.330811e+00
3.985889e+01 1.869565e-01 -1.163205e-02 7.618846e-01 -3.232178e+00 3.332275e+00
3.991357e+01 1.956522e-01 -1.197190e-02 7.616832e-01 -3.227051e+00 3.324219e+00
4.103638e+01 1.913043e-01 -1.155230e-02 7.648306e-01 -3.186768e+00 3.358643e+00
3.985181e+01 1.782609e-01 -1.135601e-02 7.649498e-01 -3.186279e+00 3.358398e+00
3.922290e+01 1.869565e-01 -9.889974e-03 7.644062e-01 -3.126221e+00 3.332275e+00
3.975098e+01 1.869565e-01 -9.403537e-03 7.634293e-01 -3.131104e+00 3.331543e+00
4.010400e+01 1.913043e-01 -8.328234e-03 7.631143e-01 -3.124268e+00 3.325439e+00
4.066479e+01 1.869565e-01 -1.609918e-03 7.598124e-01 -3.099609e+00 3.322754e+00
4.057812e+01 1.869565e-01 -2.032118e-03 7.611846e-01 -3.099365e+00 3.304443e+00
4.002002e+01 1.869565e-01 -1.320530e-03 7.621657e-01 -3.098877e+00 3.303711e+00
4.028174e+01 1.782609e-01 -1.633355e-03 7.623963e-01 -3.111328e+00 3.306641e+00
4.057959e+01 1.869565e-01 -2.327474e-03 7.633361e-01 -3.119873e+00 3.314697e+00
3.948828e+01 1.913043e-01 -2.970812e-03 7.641681e-01 -3.113037e+00 3.311523e+00
3.965649e+01 1.869565e-01 -7.126519e-03 7.642903e-01 -3.093262e+00 3.311768e+00
3.926270e+01 2.000000e-01 -8.970269e-03 7.655994e-01 -3.103760e+00 3.315430e+00
4.022437e+01 1.695652e-01 -8.698676e-03 7.666649e-01 -3.134033e+00 3.323730e+00
3.967383e+01 1.826087e-01 -8.456923e-03 7.671085e-01 -3.152588e+00 3.323730e+00
4.126147e+01 1.913043e-01 -7.864149e-03 7.674377e-01 -3.181396e+00 3.333008e+00
3.998096e+01 1.913043e-01 -8.754991e-03 7.681119e-01 -3.179688e+00 3.318604e+00
3.987427e+01 1.739130e-01 -8.636610e-03 7.683309e-01 -3.173096e+00 3.313477e+00
4.258838e+01 1.956522e-01 -8.289388e-03 7.683715e-01 -3.183105e+00 3.314941e+00
3.926587e+01 1.826087e-01 -8.383355e-03 7.680124e-01 -3.152344e+00 3.294678e+00
3.970312e+01 1.782609e-01 -7.866970e-03 7.677968e-01 -3.158203e+00 3.299805e+00
4.055029e+01 1.913043e-01 -2.335395e-03 7.670777e-01 -3.147217e+00 3.304443e+00
3.951611e+01 1.913043e-01 -2.695421e-03 7.672190e-01 -3.147217e+00 3.285156e+00
3.946851e+01 1.869565e-01 -2.473958e-03 7.672310e-01 -3.138672e+00 3.281738e+00
3.975122e+01 1.739130e-01 -7.978082e-03 7.720996e-01 -3.241943e+00 3.274658e+00
3.973877e+01 1.739130e-01 -7.862522e-03 7.721754e-01 -3.234375e+00 3.268555e+00
3.997754e+01 1.782609e-01 -1.076530e-02 7.706998e-01 -3.239990e+00 3.272949e+00
4.035181e+01 1.913043e-01 -1.040451e-02 7.712157e-01 -3.254883e+00 3.303467e+00
4.027393e+01 1.913043e-01 -1.097201e-02 7.713338e-01 -3.245850e+00 3.296875e+00
3.897485e+01 1.869565e-01 -1.002648e-02 7.693510e-01 -3.240967e+00 3.276855e+00
4.027002e+01 1.956522e-01 -8.615668e-03 7.689041e-01 -3.256104e+00 3.273438e+00
4.118506e+01 2.086957e-01 -8.657227e-03 7.689949e-01 -3.256104e+00 3.274414e+00
3.920728e+01 1.913043e-01 -9.632487e-03 7.690741e-01 -3.216064e+00 3.273438e+00
3.865723e+01 1.956522e-01 -7.237956e-03 7.716968e-01 -3.256592e+00 3.273926e+00
3.992090e+01 1.913043e-01 -7.683051e-03 7.721069e-01 -3.248291e+00 3.290039e+00
3.870874e+01 1.826087e-01 -8.365777e-03 7.730016e-01 -3.235107e+00 3.290039e+00
3.879077e+01 1.826087e-01 -8.179796e-03 7.729600e-01 -3.218018e+00 3.288818e+00
3.842090e+01 1.782609e-01 -8.204102e-03 7.729710e-01 -3.218018e+00 3.288818e+00
3.968872e+01 1.826087e-01 -7.087674e-03 7.725964e-01 -3.215332e+00 3.284180e+00
3.886230e+01 2.000000e-01 -7.268121e-03 7.728706e-01 -3.210938e+00 3.282715e+00
3.877490e+01 2.000000e-01 -7.602865e-03 7.737073e-01 -3.192139e+00 3.284912e+00
3.990161e+01 1.956522e-01 -1.529373e-02 7.766947e-01 -3.263672e+00 3.295898e+00
3.920972e+01 2.043478e-01 -1.849544e-02 7.773137e-01 -3.242188e+00 3.277588e+00
3.941846e+01 2.086957e-01 -1.772342e-02 7.776272e-01 -3.240723e+00 3.265137e+00
4.056738e+01 2.000000e-01 -1.621289e-02 7.770923e-01 -3.263916e+00 3.270264e+00
4.017798e+01 2.086957e-01 -1.638878e-02 7.774399e-01 -3.263916e+00 3.252441e+00
3.994214e+01 2.043478e-01 -1.604492e-02 7.778180e-01 -3.254150e+00 3.245850e+00
3.988086e+01 2.086957e-01 -1.606532e-02 7.778847e-01 -3.252197e+00 3.243896e+00
3.906055e+01 2.043478e-01 -1.628874e-02 7.780385e-01 -3.254150e+00 3.242676e+00
4.048218e+01 2.000000e-01 -1.659049e-02 7.777262e-01 -3.254395e+00 3.234375e+00
4.040845e+01 1.956522e-01 -1.647776e-02 7.773929e-01 -3.252930e+00 3.234131e+00
4.032227e+01 2.000000e-01 -1.617741e-02 7.774205e-01 -3.250732e+00 3.231445e+00
3.998584e+01 2.086957e-01 -1.617752e-02 7.772827e-01 -3.220215e+00 3.209473e+00
3.944507e+01 2.000000e-01 -1.592849e-02 7.773453e-01 -3.254883e+00 3.223389e+00
3.960547e+01 1.869565e-01 -1.648101e-02 7.780291e-01 -3.265137e+00 3.215332e+00
4.014185e+01 1.913043e-01 -1.679850e-02 7.783351e-01 -3.265137e+00 3.215332e+00
4.296875e+01 1.956522e-01 -1.827485e-02 7.791185e-01 -3.262695e+00 3.212402e+00
4.227612e+01 1.956522e-01 -1.810829e-02 7.790085e-01 -3.262695e+00 3.212158e+00
4.052124e+01 1.956522e-01 -1.717014e-02 7.783465e-01 -3.252197e+00 3.206543e+00
4.050488e+01 2.000000e-01 -1.505219e-02 7.783279e-01 -3.166504e+00 3.162842e+00
3.963745e+01 1.956522e-01 -1.452799e-02 7.792493e-01 -3.192139e+00 3.174561e+00
4.043555e+01 2.130435e-01 -1.176421e-02 7.798243e-01 -3.196777e+00 3.147705e+00
4.124609e+01 2.086957e-01 -1.110764e-02 7.802833e-01 -3.194336e+00 3.150879e+00
4.270166e+01 1.826087e-01 -1.573839e-02 7.863264e-01 -3.299316e+00 3.168945e+00
4.080420e+01 2.086957e-01 -1.593641e-02 7.859462e-01 -3.284668e+00 3.163818e+00
4.116943e+01 2.043478e-01 -1.606304e-02 7.859586e-01 -3.280029e+00 3.171631e+00
4.481812e+01 1.869565e-01 -1.469944e-02 7.862736e-01 -3.292480e+00 3.196777e+00
4.153394e+01 1.956522e-01 -1.366862e-02 7.863067e-01 -3.282715e+00 3.186035e+00
4.065991e+01 1.956522e-01 -1.295302e-02 7.878882e-01 -3.282715e+00 3.161133e+00
4.102441e+01 2.043478e-01 -1.284603e-02 7.884952e-01 -3.283691e+00 3.157227e+00
4.150586e+01 2.043478e-01 -1.181738e-02 7.890569e-01 -3.281494e+00 3.156982e+00
4.147510e+01 2.130435e-01 -9.311632e-03 7.914715e-01 -3.267822e+00 3.181641e+00
4.140039e+01 2.130435e-01 -6.834527e-03 7.934043e-01 -3.240723e+00 3.182373e+00
4.135913e+01 2.086957e-01 -5.965061e-03 7.927287e-01 -3.242676e+00 3.179199e+00
4.120923e+01 2.086957e-01 -5.431749e-03 7.923387e-01 -3.244141e+00 3.168945e+00
4.093628e+01 2.086957e-01 -5.291450e-03 7.921541e-01 -3.237793e+00 3.155273e+00
4.058569e+01 2.000000e-01 -6.065755e-03 7.920988e-01 -3.249268e+00 3.153564e+00
4.086035e+01 2.043478e-01 -6.149414e-03 7.920680e-01 -3.249268e+00 3.153564e+00
4.075146e+01 2.043478e-01 -6.150608e-03 7.920828e-01 -3.246338e+00 3.155273e+00
4.157593e+01 2.043478e-01 -6.562609e-03 7.946214e-01 -3.268799e+00 3.170166e+00
4.156250e+01 2.000000e-01 -6.726888e-03 7.949054e-01 -3.262207e+00 3.163574e+00
4.232642e+01 1.913043e-01 -6.671658e-03 7.948214e-01 -3.279053e+00 3.168457e+00
4.171484e+01 2.000000e-01 -6.167643e-03 7.946706e-01 -3.271973e+00 3.173096e+00
4.147461e+01 2.000000e-01 -5.809245e-03 7.948620e-01 -3.248535e+00 3.174072e+00
4.063550e+01 2.000000e-01 -5.881836e-03 7.948438e-01 -3.244873e+00 3.170898e+00
4.132422e+01 2.086957e-01 -5.726128e-03 7.946459e-01 -3.244629e+00 3.173340e+00
4.080737e+01 1.869565e-01 -5.333333e-03 7.946978e-01 -3.252197e+00 3.177002e+00
4.079346e+01 1.913043e-01 -4.547852e-03 7.949444e-01 -3.247803e+00 3.172119e+00
4.129395e+01 2.043478e-01 -5.119466e-03 7.956632e-01 -3.247803e+00 3.171143e+00
4.213550e+01 1.869565e-01 -5.244141e-03 7.973741e-01 -3.312500e+00 3.180420e+00
4.172363e+01 1.913043e-01 -5.223524e-03 7.982860e-01 -3.312500e+00 3.180176e+00
4.131787e+01 1.869565e-01 -5.615234e-03 7.976255e-01 -3.338135e+00 3.177002e+00
4.295703e+01 1.956522e-01 -9.406901e-03 7.963006e-01 -3.381592e+00 3.149414e+00
4.122070e+01 1.869565e-01 -9.584418e-03 7.963014e-01 -3.378174e+00 3.133057e+00
4.077368e+01 1.956522e-01 -8.984158e-03 7.959155e-01 -3.338135e+00 3.112305e+00
4.083350e+01 2.130435e-01 -6.040907e-03 7.959498e-01 -3.331055e+00 3.124512e+00
4.006128e+01 2.000000e-01 -5.834527e-03 7.958055e-01 -3.314453e+00 3.118652e+00
4.060254e+01 2.000000e-01 -5.878147e-03 7.957153e-01 -3.318604e+00 3.119385e+00
3.987817e+01 1.956522e-01 -5.970052e-03 7.957510e-01 -3.314697e+00 3.117676e+00
4.130493e+01 1.956522e-01 -6.176324e-03 7.957997e-01 -3.332764e+00 3.128174e+00
4.024243e+01 1.913043e-01 -8.082248e-03 7.958646e-01 -3.325928e+00 3.134277e+00
4.214282e+01 1.956522e-01 -6.635634e-03 7.961509e-01 -3.333740e+00 3.149170e+00
4.125977e+01 2.043478e-01 -3.426975e-03 7.972659e-01 -3.333008e+00 3.149170e+00
4.061157e+01 1.956522e-01 -2.933377e-03 7.972867e-01 -3.318359e+00 3.145264e+00
4.278638e+01 1.826087e-01 -3.197157e-03 7.986912e-01 -3.329346e+00 3.143311e+00
4.012598e+01 1.956522e-01 -3.818142e-03 7.997992e-01 -3.327393e+00 3.119141e+00
4.149585e+01 1.869565e-01 -3.659397e-03 8.007534e-01 -3.332275e+00 3.125977e+00
4.086133e+01 1.913043e-01 -4.091797e-03 8.012759e-01 -3.332275e+00 3.125977e+00
4.344458e+01 1.956522e-01 -2.128743e-02 8.047269e-01 -3.287842e+00 3.079834e+00
4.347412e+01 2.000000e-01 -1.649251e-02 8.029708e-01 -3.268555e+00 3.056641e+00
4.173389e+01 1.869565e-01 -1.667925e-02 8.031150e-01 -3.256592e+00 3.049805e+00
4.115088e+01 1.956522e-01 -1.484418e-02 8.038552e-01 -3.265625e+00 3.078369e+00
4.134717e+01 1.913043e-01 -1.387066e-02 8.038497e-01 -3.264404e+00 3.078369e+00
4.349902e+01 2.000000e-01 -1.396495e-02 8.037520e-01 -3.288330e+00 3.084229e+00
4.122852e+01 1.913043e-01 -1.388032e-02 8.036938e-01 -3.286621e+00 3.084229e+00
4.097192e+01 1.913043e-01 -1.355816e-02 8.033802e-01 -3.262207e+00 3.060059e+00
4.156079e+01 1.869565e-01 -1.128961e-02 8.027375e-01 -3.279297e+00 3.068115e+00
4.327856e+01 2.043478e-01 -9.780056e-03 8.089245e-01 -3.295410e+00 3.125000e+00
4.289014e+01 1.913043e-01 -8.294922e-03 8.122209e-01 -3.295410e+00 3.093750e+00
4.143677e+01 1.869565e-01 -6.623915e-03 8.121607e-01 -3.271484e+00 3.066162e+00
4.342212e+01 2.000000e-01 -6.091580e-03 8.123935e-01 -3.284424e+00 3.075439e+00
4.186865e+01 1.956522e-01 -6.332357e-03 8.127129e-01 -3.265869e+00 3.068115e+00
4.210059e+01 2.000000e-01 -6.144097e-03 8.125810e-01 -3.258545e+00 3.068115e+00
4.408252e+01 2.000000e-01 -5.831380e-03 8.135400e-01 -3.284668e+00 3.082031e+00
4.173608e+01 1.956522e-01 -6.030599e-03 8.133460e-01 -3.284668e+00 3.082031e+00
4.174561e+01 1.869565e-01 -6.797526e-03 8.121698e-01 -3.265625e+00 3.046875e+00
4.183569e+01 1.913043e-01 -6.742947e-03 8.121118e-01 -3.265381e+00 3.046875e+00
4.191797e+01 1.869565e-01 -6.675673e-03 8.120806e-01 -3.261230e+00 3.044922e+00
4.159790e+01 1.956522e-01 -6.251302e-03 8.108217e-01 -3.267822e+00 3.041992e+00
4.175952e+01 1.913043e-01 -5.458225e-03 8.113253e-01 -3.259033e+00 3.066406e+00
4.217065e+01 1.826087e-01 -5.004991e-03 8.128418e-01 -3.230225e+00 3.067627e+00
4.018701e+01 2.000000e-01 -6.497287e-03 8.076200e-01 -3.324463e+00 3.028564e+00
4.106006e+01 1.956522e-01 -1.094314e-02 8.103412e-01 -3.324463e+00 3.002686e+00
4.143091e+01 2.000000e-01 -1.262858e-02 8.121515e-01 -3.322021e+00 3.003418e+00
4.069434e+01 2.043478e-01 -1.310775e-02 8.135247e-01 -3.319580e+00 3.001953e+00
4.096021e+01 2.086957e-01 -1.157899e-02 8.140134e-01 -3.288574e+00 2.996826e+00
4.081177e+01 2.086957e-01 -1.090419e-02 8.141477e-01 -3.289062e+00 2.999268e+00
4.074023e+01 2.043478e-01 -1.103309e-02 8.142423e-01 -3.291016e+00 3.000000e+00
4.252002e+01 2.000000e-01 -1.124240e-02 8.144865e-01 -3.303955e+00 3.004883e+00
3.991895e+01 2.086957e-01 -1.111675e-02 8.144895e-01 -3.303955e+00 3.004883e+00
4.013403e+01 2.000000e-01 -9.914171e-03 8.166606e-01 -3.359619e+00 2.992676e+00
4.160205e+01 1.695652e-01 -1.174208e-02 8.166236e-01 -3.413086e+00 3.018799e+00
4.172559e+01 1.913043e-01 -1.333539e-02 8.202612e-01 -3.461914e+00 3.023682e+00
4.192749e+01 2.000000e-01 -1.394401e-02 8.214057e-01 -3.446289e+00 3.007568e+00
4.367041e+01 1.869565e-01 -1.320996e-02 8.210458e-01 -3.482422e+00 3.009521e+00
4.141211e+01 1.869565e-01 -1.222374e-02 8.208987e-01 -3.482422e+00 2.992188e+00
4.073511e+01 2.000000e-01 -1.252517e-02 8.212077e-01 -3.445801e+00 2.976807e+00
4.107764e+01 2.000000e-01 -1.206131e-02 8.212200e-01 -3.445801e+00 2.976807e+00
4.209912e+01 1.869565e-01 -1.220302e-02 8.188274e-01 -3.486816e+00 2.974365e+00
4.148657e+01 2.000000e-01 -1.337348e-02 8.173592e-01 -3.469727e+00 2.939697e+00
4.035059e+01 2.043478e-01 -1.326139e-02 8.177071e-01 -3.475342e+00 2.944824e+00
4.011475e+01 2.000000e-01 -1.259831e-02 8.197326e-01 -3.473145e+00 2.953857e+00
3.989478e+01 1.913043e-01 -1.391070e-02 8.218230e-01 -3.572754e+00 2.971680e+00
3.997656e+01 1.913043e-01 -1.645345e-02 8.248244e-01 -3.572754e+00 2.971680e+00
4.001318e+01 2.000000e-01 -1.640647e-02 8.246834e-01 -3.548096e+00 2.954346e+00
4.031152e+01 2.086957e-01 -1.954481e-02 8.262826e-01 -3.584717e+00 2.983887e+00
4.035181e+01 2.043478e-01 -1.762467e-02 8.274615e-01 -3.578857e+00 2.962402e+00
4.048096e+01 2.086957e-01 -1.598405e-02 8.285328e-01 -3.571045e+00 2.951416e+00
4.031616e+01 2.130435e-01 -1.350000e-02 8.283698e-01 -3.565430e+00 2.944092e+00
4.100928e+01 2.086957e-01 -1.030957e-02 8.278234e-01 -3.519775e+00 2.927734e+00
4.074194e+01 1.956522e-01 -1.148882e-02 8.287301e-01 -3.503174e+00 2.919678e+00
4.065918e+01 2.043478e-01 -1.224132e-02 8.292434e-01 -3.485840e+00 2.915527e+00
4.083765e+01 1.956522e-01 -1.258659e-02 8.303643e-01 -3.497559e+00 2.931885e+00
4.346143e+01 1.913043e-01 -1.454481e-02 8.324227e-01 -3.510986e+00 2.942871e+00
4.164453e+01 1.869565e-01 -1.759223e-02 8.311597e-01 -3.510986e+00 2.947998e+00
4.201758e+01 1.826087e-01 -2.022168e-02 8.301087e-01 -3.516113e+00 2.933838e+00
4.073999e+01 1.913043e-01 -2.032530e-02 8.309888e-01 -3.516113e+00 2.933838e+00
4.132983e+01 1.869565e-01 -1.971994e-02 8.310370e-01 -3.494141e+00 2.920654e+00
4.059277e+01 1.869565e-01 -1.967209e-02 8.314387e-01 -3.505615e+00 2.917969e+00
4.235962e+01 1.739130e-01 -1.908051e-02 8.340511e-01 -3.568359e+00 2.950439e+00
4.080200e+01 1.913043e-01 -1.950890e-02 8.350637e-01 -3.584961e+00 2.950439e+00
4.248779e+01 1.869565e-01 -2.028700e-02 8.372496e-01 -3.642334e+00 2.925293e+00
4.212573e+01 1.869565e-01 -2.057042e-02 8.392502e-01 -3.628418e+00 2.934326e+00
4.020898e+01 1.913043e-01 -2.014388e-02 8.409876e-01 -3.640137e+00 2.956543e+00
4.087744e+01 2.043478e-01 -1.874154e-02 8.423400e-01 -3.643799e+00 2.953125e+00
4.091602e+01 2.043478e-01 -1.827398e-02 8.427033e-01 -3.639893e+00 2.943115e+00
4.343433e+01 1.913043e-01 -1.052637e-02 8.442686e-01 -3.623535e+00 2.958740e+00
4.074414e+01 2.043478e-01 -1.132433e-02 8.443763e-01 -3.602539e+00 2.920166e+00
4.110327e+01 1.869565e-01 -1.339963e-02 8.445583e-01 -3.608154e+00 2.922607e+00
4.099292e+01 1.956522e-01 -1.503700e-02 8.453052e-01 -3.634277e+00 2.934326e+00
4.179590e+01 1.913043e-01 -1.539236e-02 8.460374e-01 -3.657471e+00 2.950928e+00
4.180518e+01 1.869565e-01 -1.766081e-02 8.493064e-01 -3.700928e+00 2.972412e+00
4.030029e+01 1.826087e-01 -1.720996e-02 8.502359e-01 -3.683350e+00 2.942139e+00
4.234790e+01 1.782609e-01 -1.747928e-02 8.512005e-01 -3.653809e+00 2.920898e+00
4.316870e+01 1.826087e-01 -1.995703e-02 8.517185e-01 -3.657959e+00 2.938721e+00
4.298267e+01 1.739130e-01 -2.048958e-02 8.520679e-01 -3.625244e+00 2.935303e+00
4.169312e+01 1.913043e-01 -2.037522e-02 8.524778e-01 -3.619141e+00 2.935303e+00
4.182715e+01 1.913043e-01 -1.920703e-02 8.523777e-01 -3.591309e+00 2.915771e+00
4.123218e+01 1.869565e-01 -1.968121e-02 8.521388e-01 -3.606689e+00 2.905273e+00
4.132666e+01 1.913043e-01 -2.001877e-02 8.525780e-01 -3.596680e+00 2.897949e+00
4.137256e+01 1.913043e-01 -2.052170e-02 8.536078e-01 -3.586914e+00 2.896729e+00
4.102563e+01 1.869565e-01 -2.106076e-02 8.540136e-01 -3.587891e+00 2.896729e+00
4.177344e+01 1.869565e-01 -1.982498e-02 8.548816e-01 -3.601074e+00 2.904541e+00
4.120776e+01 2.000000e-01 -1.977235e-02 8.543125e-01 -3.582031e+00 2.887451e+00
4.218188e+01 1.956522e-01 -1.671734e-02 8.584469e-01 -3.623047e+00 2.958008e+00
4.324902e+01 1.826087e-01 -1.727680e-02 8.605728e-01 -3.643066e+00 2.933594e+00
4.385205e+01 1.956522e-01 -1.570974e-02 8.607498e-01 -3.640137e+00 2.965332e+00
4.242944e+01 1.869565e-01 -1.544705e-02 8.606463e-01 -3.507080e+00 2.965332e+00
4.204370e+01 1.826087e-01 -1.549403e-02 8.605720e-01 -3.498047e+00 2.948486e+00
4.113770e+01 2.217391e-01 -1.608355e-02 8.600399e-01 -3.481201e+00 2.910645e+00
4.187354e+01 1.826087e-01 -1.654340e-02 8.599159e-01 -3.486816e+00 2.925781e+00
4.316138e+01 1.826087e-01 -1.616558e-02 8.598297e-01 -3.504883e+00 2.928467e+00
4.208398e+01 1.913043e-01 -1.553418e-02 8.604976e-01 -3.486572e+00 2.916748e+00
4.447217e+01 1.913043e-01 -1.682216e-02 8.611609e-01 -3.526855e+00 2.929199e+00
4.173169e+01 1.869565e-01 -1.668294e-02 8.611660e-01 -3.520752e+00 2.917480e+00
4.214844e+01 1.869565e-01 -1.652094e-02 8.612726e-01 -3.502441e+00 2.914307e+00
4.134961e+01 1.869565e-01 -1.656521e-02 8.612030e-01 -3.502441e+00 2.913574e+00
4.129883e+01 1.826087e-01 -1.651736e-02 8.612702e-01 -3.496338e+00 2.911377e+00
4.132690e+01 1.869565e-01 -1.665180e-02 8.614261e-01 -3.496094e+00 2.911377e+00
4.120068e+01 2.000000e-01 -1.658757e-02 8.613075e-01 -3.481934e+00 2.903564e+00
4.166675e+01 1.956522e-01 -1.766189e-02 8.616660e-01 -3.506592e+00 2.910400e+00
4.179541e+01 1.826087e-01 -1.667177e-02 8.679140e-01 -3.548828e+00 2.977783e+00
4.155688e+01 1.956522e-01 -1.990875e-02 8.727297e-01 -3.596191e+00 2.963867e+00
4.101465e+01 1.956522e-01 -1.947645e-02 8.727120e-01 -3.601562e+00 2.953369e+00
4.099561e+01 1.956522e-01 -2.021788e-02 8.741090e-01 -3.612061e+00 2.953369e+00
4.588013e+01 1.826087e-01 -1.423437e-02 8.781548e-01 -3.605469e+00 2.947998e+00
4.316040e+01 1.956522e-01 -1.384701e-02 8.791620e-01 -3.599854e+00 2.932129e+00
4.315576e+01 2.130435e-01 -1.760395e-02 8.801201e-01 -3.653320e+00 2.894775e+00
4.340430e+01 1.869565e-01 -2.294976e-02 8.792403e-01 -3.690430e+00 2.898193e+00
4.419336e+01 1.956522e-01 -3.012435e-02 8.734965e-01 -3.741943e+00 2.781738e+00
4.527026e+01 1.956522e-01 -3.031369e-02 8.736492e-01 -3.737549e+00 2.767334e+00
4.408643e+01 1.913043e-01 -3.049468e-02 8.736449e-01 -3.737549e+00 2.766846e+00
4.195093e+01 2.000000e-01 -3.145530e-02 8.734943e-01 -3.721924e+00 2.758301e+00
4.194263e+01 1.956522e-01 -3.200488e-02 8.737075e-01 -3.718994e+00 2.762451e+00
4.158740e+01 1.826087e-01 -3.221474e-02 8.756830e-01 -3.725342e+00 2.796143e+00
4.157056e+01 1.956522e-01 -3.181966e-02 8.768332e-01 -3.707520e+00 2.796143e+00
4.188965e+01 1.826087e-01 -3.133333e-02 8.776921e-01 -3.706299e+00 2.809326e+00
4.187573e+01 1.956522e-01 -3.181901e-02 8.792221e-01 -3.677490e+00 2.819092e+00
4.213135e+01 1.956522e-01 -3.192914e-02 8.795684e-01 -3.677002e+00 2.819092e+00
4.148218e+01 1.782609e-01 -3.134017e-02 8.800628e-01 -3.699463e+00 2.825439e+00
4.138794e+01 1.913043e-01 -2.645909e-02 8.813412e-01 -3.704834e+00 2.992432e+00
4.065796e+01 1.739130e-01 -2.930414e-02 8.837776e-01 -3.688965e+00 3.055420e+00
4.049170e+01 1.739130e-01 -2.938303e-02 8.839320e-01 -3.680664e+00 3.049561e+00
4.129126e+01 1.782609e-01 -2.893142e-02 8.834984e-01 -3.665039e+00 3.087891e+00
4.171338e+01 1.826087e-01 -2.003136e-02 8.887105e-01 -3.703857e+00 2.970215e+00
4.101880e+01 1.826087e-01 -2.013737e-02 8.887867e-01 -3.684326e+00 2.937988e+00
4.121216e+01 1.826087e-01 -2.028006e-02 8.884574e-01 -3.676270e+00 2.932373e+00
4.173853e+01 1.913043e-01 -1.949197e-02 8.925403e-01 -3.659668e+00 3.072998e+00
