6.892578e+01 6.250000e-01 -4.982096e-02 5.368076e-01 -9.528809e-01 9.633789e-01
5.724902e+01 3.697917e-01 -4.295519e-02 5.355598e-01 -9.567871e-01 1.129395e+00
5.629443e+01 3.697917e-01 -3.786712e-02 5.367492e-01 -9.580078e-01 1.204346e+00
5.745679e+01 3.697917e-01 -3.590676e-02 5.374683e-01 -9.584961e-01 1.231689e+00
5.739502e+01 3.697917e-01 -3.561107e-02 5.379890e-01 -9.587402e-01 1.236084e+00
5.774609e+01 3.697917e-01 -3.560655e-02 5.382537e-01 -9.589844e-01 1.247314e+00
5.749341e+01 3.697917e-01 -3.526476e-02 5.388585e-01 -9.589844e-01 1.246582e+00
5.729663e+01 3.697917e-01 -3.539858e-02 5.393322e-01 -9.597168e-01 1.252197e+00
5.758545e+01 3.697917e-01 -3.611111e-02 5.395726e-01 -9.624023e-01 1.267822e+00
5.775977e+01 3.697917e-01 -3.572410e-02 5.405045e-01 -9.619141e-01 1.265381e+00
5.774048e+01 3.697917e-01 -3.588053e-02 5.409804e-01 -9.619141e-01 1.264648e+00
5.767871e+01 3.697917e-01 -3.605505e-02 5.414432e-01 -9.619141e-01 1.267578e+00
5.766724e+01 3.697917e-01 -3.639413e-02 5.417693e-01 -9.606934e-01 1.263916e+00
5.768042e+01 3.697917e-01 -3.653610e-02 5.422979e-01 -9.633789e-01 1.281738e+00
5.771924e+01 3.697917e-01 -3.612015e-02 5.430679e-01 -9.624023e-01 1.278809e+00
5.774048e+01 3.697917e-01 -3.638509e-02 5.434806e-01 -9.616699e-01 1.276367e+00
5.767871e+01 3.697917e-01 -3.642578e-02 5.440642e-01 -9.621582e-01 1.281738e+00
5.726001e+01 3.697917e-01 -3.684896e-02 5.444207e-01 -9.614258e-01 1.272217e+00
5.644995e+01 3.697917e-01 -3.703975e-02 5.448234e-01 -9.611816e-01 1.269043e+00
5.718457e+01 3.697917e-01 -3.682907e-02 5.452560e-01 -9.624023e-01 1.277344e+00
5.686426e+01 3.697917e-01 -3.661205e-02 5.458789e-01 -9.619141e-01 1.274170e+00
5.727148e+01 3.697917e-01 -3.677120e-02 5.463335e-01 -9.626465e-01 1.276367e+00
5.680249e+01 3.697917e-01 -3.672960e-02 5.469425e-01 -9.626465e-01 1.274414e+00
5.779980e+01 3.697917e-01 -3.717719e-02 5.473953e-01 -9.658203e-01 1.295166e+00
5.751855e+01 3.697917e-01 -3.645110e-02 5.484888e-01 -9.658203e-01 1.294922e+00
5.727148e+01 3.697917e-01 -3.701081e-02 5.487911e-01 -9.650879e-01 1.287354e+00
5.698779e+01 3.697917e-01 -3.672146e-02 5.495193e-01 -9.660645e-01 1.295166e+00
5.698779e+01 3.697917e-01 -3.721246e-02 5.499197e-01 -9.655762e-01 1.288086e+00
5.656909e+01 3.697917e-01 -3.680736e-02 5.507713e-01 -9.670410e-01 1.298584e+00
5.590332e+01 3.697917e-01 -3.703161e-02 5.513369e-01 -9.663086e-01 1.291016e+00
5.550757e+01 3.697917e-01 -3.697012e-02 5.520990e-01 -9.670410e-01 1.295654e+00
5.696655e+01 3.697917e-01 -3.717810e-02 5.527645e-01 -9.682617e-01 1.303711e+00
5.745654e+01 3.697917e-01 -3.724501e-02 5.535203e-01 -9.699707e-01 1.314941e+00
5.741040e+01 3.697917e-01 -3.687066e-02 5.544284e-01 -9.699707e-01 1.314941e+00
5.741602e+01 3.697917e-01 -3.721879e-02 5.550298e-01 -9.714355e-01 1.322510e+00
5.731592e+01 3.697917e-01 -3.685529e-02 5.559560e-01 -9.716797e-01 1.321533e+00
5.728491e+01 3.697917e-01 -3.729293e-02 5.565456e-01 -9.729004e-01 1.328369e+00
5.656323e+01 3.697917e-01 -3.673050e-02 5.575951e-01 -9.750977e-01 1.338623e+00
5.693774e+01 3.697917e-01 -3.723235e-02 5.581694e-01 -9.770508e-01 1.331055e+00
5.643213e+01 3.697917e-01 -3.694209e-02 5.590167e-01 -9.792480e-01 1.336182e+00
5.568921e+01 3.697917e-01 -3.682726e-02 5.599650e-01 -9.816895e-01 1.340820e+00
5.644751e+01 3.697917e-01 -3.688694e-02 5.609193e-01 -9.836426e-01 1.350830e+00
5.598828e+01 3.697917e-01 -3.672508e-02 5.619523e-01 -9.860840e-01 1.354736e+00
5.586694e+01 3.697917e-01 -3.687337e-02 5.629957e-01 -9.885254e-01 1.360352e+00
5.581494e+01 3.697917e-01 -3.690502e-02 5.640919e-01 -9.909668e-01 1.367920e+00
5.695581e+01 3.697917e-01 -3.702076e-02 5.650835e-01 -9.926758e-01 1.385742e+00
5.543286e+01 3.697917e-01 -3.685077e-02 5.662607e-01 -9.958496e-01 1.391846e+00
5.670972e+01 3.697917e-01 -3.710757e-02 5.671854e-01 -9.985352e-01 1.399902e+00
5.624683e+01 3.697917e-01 -3.696018e-02 5.683798e-01 -1.000488e+00 1.400879e+00
5.588940e+01 3.697917e-01 -3.705693e-02 5.694912e-01 -1.002930e+00 1.408691e+00
5.651587e+01 3.697917e-01 -3.704879e-02 5.706466e-01 -1.005615e+00 1.422852e+00
5.586206e+01 3.697917e-01 -3.691858e-02 5.718336e-01 -1.008057e+00 1.425537e+00
5.569897e+01 3.697917e-01 -3.690050e-02 5.729655e-01 -1.010254e+00 1.435059e+00
5.638770e+01 3.697917e-01 -3.678295e-02 5.742319e-01 -1.021484e+00 1.451416e+00
5.563745e+01 3.697917e-01 -3.659035e-02 5.754304e-01 -1.022217e+00 1.453369e+00
5.496167e+01 3.697917e-01 -3.676758e-02 5.767095e-01 -1.032471e+00 1.461426e+00
5.488745e+01 3.697917e-01 -3.696379e-02 5.779216e-01 -1.038818e+00 1.465332e+00
5.457153e+01 3.697917e-01 -3.674769e-02 5.793169e-01 -1.049072e+00 1.481689e+00
5.606738e+01 3.697917e-01 -3.692039e-02 5.805762e-01 -1.059082e+00 1.495361e+00
5.467505e+01 3.697917e-01 -3.655599e-02 5.820427e-01 -1.062256e+00 1.503174e+00
5.576440e+01 3.697917e-01 -3.694481e-02 5.832606e-01 -1.071777e+00 1.510498e+00
5.464429e+01 3.697917e-01 -3.638238e-02 5.847629e-01 -1.073486e+00 1.515625e+00
5.526978e+01 3.697917e-01 -3.680646e-02 5.861372e-01 -1.088379e+00 1.531250e+00
5.422412e+01 3.697917e-01 -3.638238e-02 5.876264e-01 -1.091309e+00 1.536621e+00
5.418188e+01 3.697917e-01 -3.654152e-02 5.889688e-01 -1.099854e+00 1.541504e+00
5.469751e+01 3.697917e-01 -3.650174e-02 5.905173e-01 -1.103271e+00 1.552979e+00
5.406567e+01 3.697917e-01 -3.616717e-02 5.921118e-01 -1.113037e+00 1.562256e+00
5.463550e+01 3.697917e-01 -3.613281e-02 5.937524e-01 -1.120605e+00 1.575195e+00
5.460913e+01 3.697917e-01 -3.619520e-02 5.952955e-01 -1.135986e+00 1.595215e+00
5.334595e+01 3.697917e-01 -3.586245e-02 5.969430e-01 -1.145020e+00 1.603027e+00
5.419336e+01 3.697917e-01 -3.597548e-02 5.986126e-01 -1.148926e+00 1.607910e+00
5.406250e+01 3.697917e-01 -3.584346e-02 6.005013e-01 -1.160889e+00 1.627197e+00
5.303491e+01 3.697917e-01 -3.550166e-02 6.020560e-01 -1.173096e+00 1.641357e+00
5.326611e+01 3.697917e-01 -3.565357e-02 6.039164e-01 -1.185303e+00 1.653076e+00
5.307544e+01 3.697917e-01 -3.575033e-02 6.056733e-01 -1.186768e+00 1.651123e+00
5.414648e+01 3.697917e-01 -3.561288e-02 6.074463e-01 -1.194824e+00 1.673340e+00
5.391699e+01 3.697917e-01 -3.524667e-02 6.093497e-01 -1.194580e+00 1.679443e+00
5.362134e+01 3.697917e-01 -3.507668e-02 6.111862e-01 -1.202393e+00 1.690430e+00
5.374438e+01 3.697917e-01 -3.482169e-02 6.131688e-01 -1.211914e+00 1.706055e+00
5.321729e+01 3.697917e-01 -3.441750e-02 6.152117e-01 -1.222168e+00 1.712891e+00
5.283228e+01 3.697917e-01 -3.425745e-02 6.172617e-01 -1.232178e+00 1.725342e+00
5.284058e+01 3.697917e-01 -3.409921e-02 6.194279e-01 -1.235596e+00 1.737549e+00
5.329126e+01 3.697917e-01 -3.386954e-02 6.214345e-01 -1.242432e+00 1.753174e+00
5.346021e+01 3.697917e-01 -3.375289e-02 6.234725e-01 -1.253418e+00 1.768799e+00
5.263696e+01 3.697917e-01 -3.349429e-02 6.257524e-01 -1.257080e+00 1.776123e+00
5.265625e+01 3.697917e-01 -3.328451e-02 6.280396e-01 -1.274658e+00 1.788818e+00
5.323975e+01 3.697917e-01 -3.327004e-02 6.303181e-01 -1.281738e+00 1.806641e+00
5.253931e+01 3.697917e-01 -3.298069e-02 6.326867e-01 -1.289551e+00 1.810059e+00
5.319141e+01 3.697917e-01 -3.305302e-02 6.351704e-01 -1.298096e+00 1.830322e+00
5.397314e+01 3.697917e-01 -3.309914e-02 6.376286e-01 -1.318359e+00 1.852051e+00
5.201343e+01 3.697917e-01 -3.270399e-02 6.400306e-01 -1.316406e+00 1.848633e+00
5.181152e+01 3.697917e-01 -3.279261e-02 6.425079e-01 -1.326416e+00 1.859375e+00
5.347534e+01 3.697917e-01 -3.245714e-02 6.451602e-01 -1.339844e+00 1.884277e+00
5.129883e+01 3.697917e-01 -3.212529e-02 6.477385e-01 -1.348877e+00 1.891357e+00
5.147681e+01 3.697917e-01 -3.209274e-02 6.502707e-01 -1.354492e+00 1.898193e+00
5.155127e+01 3.697917e-01 -3.187120e-02 6.529011e-01 -1.359863e+00 1.915771e+00
5.132446e+01 3.593750e-01 -3.161621e-02 6.556645e-01 -1.377197e+00 1.929932e+00
5.118359e+01 3.697917e-01 -3.166685e-02 6.581692e-01 -1.380859e+00 1.937256e+00
5.259277e+01 3.697917e-01 -3.146068e-02 6.611924e-01 -1.397461e+00 1.961670e+00
5.083423e+01 3.385417e-01 -3.140372e-02 6.638376e-01 -1.418701e+00 1.978271e+00
5.084033e+01 3.645833e-01 -3.159541e-02 6.668609e-01 -1.410889e+00 1.975586e+00
5.088330e+01 3.645833e-01 -3.147244e-02 6.696236e-01 -1.421875e+00 1.993408e+00
5.051611e+01 3.593750e-01 -3.128074e-02 6.726948e-01 -1.435303e+00 1.998779e+00
5.070825e+01 3.541667e-01 -3.126718e-02 6.758925e-01 -1.449219e+00 2.014648e+00
5.073315e+01 3.489583e-01 -3.137930e-02 6.789409e-01 -1.464844e+00 2.027588e+00
5.088281e+01 3.645833e-01 -3.136212e-02 6.820987e-01 -1.467773e+00 2.046875e+00
5.017212e+01 3.385417e-01 -3.108272e-02 6.852998e-01 -1.481201e+00 2.054443e+00
4.971167e+01 3.385417e-01 -3.115234e-02 6.886462e-01 -1.491211e+00 2.066406e+00
5.014136e+01 3.229167e-01 -3.100496e-02 6.919486e-01 -1.510742e+00 2.086426e+00
4.987769e+01 3.281250e-01 -3.111346e-02 6.951756e-01 -1.517578e+00 2.096436e+00
4.920020e+01 3.281250e-01 -3.080150e-02 6.987255e-01 -1.522705e+00 2.109375e+00
5.048022e+01 3.541667e-01 -3.057816e-02 7.023159e-01 -1.532471e+00 2.132324e+00
4.972144e+01 3.333333e-01 -3.041178e-02 7.055483e-01 -1.538818e+00 2.139648e+00
5.026733e+01 3.489583e-01 -3.028881e-02 7.092485e-01 -1.552734e+00 2.158203e+00
4.957617e+01 3.281250e-01 -3.001302e-02 7.127666e-01 -1.561768e+00 2.165283e+00
4.930688e+01 3.125000e-01 -2.981228e-02 7.162157e-01 -1.574951e+00 2.178711e+00
4.935034e+01 3.281250e-01 -2.939001e-02 7.197786e-01 -1.577881e+00 2.200684e+00
4.932349e+01 3.020833e-01 -2.936198e-02 7.237416e-01 -1.598145e+00 2.208740e+00
4.894165e+01 3.020833e-01 -2.923539e-02 7.274856e-01 -1.613281e+00 2.225586e+00
4.865112e+01 3.177083e-01 -2.890535e-02 7.312417e-01 -1.614258e+00 2.245850e+00
4.894946e+01 2.812500e-01 -2.895598e-02 7.352430e-01 -1.646729e+00 2.262451e+00
5.103931e+01 3.541667e-01 -2.850930e-02 7.386955e-01 -1.653809e+00 2.293701e+00
4.803540e+01 2.968750e-01 -2.921459e-02 7.424125e-01 -1.662109e+00 2.279785e+00
4.805762e+01 3.072917e-01 -2.876429e-02 7.463635e-01 -1.664062e+00 2.301758e+00
4.894287e+01 3.333333e-01 -2.852648e-02 7.501060e-01 -1.682129e+00 2.327881e+00
4.752173e+01 3.072917e-01 -2.879051e-02 7.543223e-01 -1.689941e+00 2.331055e+00
4.751636e+01 2.968750e-01 -2.859520e-02 7.583466e-01 -1.705322e+00 2.344238e+00
4.745874e+01 2.968750e-01 -2.846680e-02 7.624897e-01 -1.721436e+00 2.359619e+00
4.713501e+01 2.864583e-01 -2.818649e-02 7.665543e-01 -1.739258e+00 2.379639e+00
4.717847e+01 2.916667e-01 -2.806623e-02 7.706337e-01 -1.742920e+00 2.394531e+00
4.719531e+01 2.552083e-01 -2.847674e-02 7.751521e-01 -1.778320e+00 2.416504e+00
4.628394e+01 2.916667e-01 -2.820819e-02 7.788601e-01 -1.778076e+00 2.426025e+00
4.713306e+01 2.916667e-01 -2.819463e-02 7.831957e-01 -1.777832e+00 2.441650e+00
4.793530e+01 3.020833e-01 -2.831579e-02 7.876178e-01 -1.803711e+00 2.468506e+00
4.606982e+01 2.864583e-01 -2.880226e-02 7.913805e-01 -1.816162e+00 2.465332e+00
4.615112e+01 2.864583e-01 -2.843605e-02 7.958979e-01 -1.828369e+00 2.487061e+00
4.568726e+01 2.604167e-01 -2.853100e-02 7.998846e-01 -1.847900e+00 2.505615e+00
4.573853e+01 2.604167e-01 -2.833388e-02 8.042156e-01 -1.857910e+00 2.520264e+00
4.683179e+01 2.916667e-01 -2.795681e-02 8.086266e-01 -1.879639e+00 2.537354e+00
4.573633e+01 2.760417e-01 -2.817654e-02 8.126270e-01 -1.888916e+00 2.541992e+00
4.506274e+01 2.656250e-01 -2.781847e-02 8.170827e-01 -1.914307e+00 2.566895e+00
4.552954e+01 2.708333e-01 -2.739800e-02 8.205697e-01 -1.931641e+00 2.577881e+00
4.626099e+01 2.864583e-01 -2.733652e-02 8.251595e-01 -1.956299e+00 2.597412e+00
4.494580e+01 2.447917e-01 -2.767650e-02 8.295184e-01 -1.966309e+00 2.606445e+00
4.414307e+01 2.552083e-01 -2.763491e-02 8.329438e-01 -1.986816e+00 2.626953e+00
4.468140e+01 2.552083e-01 -2.745407e-02 8.369265e-01 -1.994873e+00 2.629395e+00
4.419165e+01 2.656250e-01 -2.764395e-02 8.412715e-01 -2.011963e+00 2.641113e+00
4.413599e+01 2.604167e-01 -2.776512e-02 8.449501e-01 -2.029053e+00 2.657471e+00
4.444214e+01 2.604167e-01 -2.768283e-02 8.488458e-01 -2.043701e+00 2.668945e+00
4.400024e+01 2.552083e-01 -2.778501e-02 8.530077e-01 -2.060791e+00 2.683594e+00
4.383936e+01 2.552083e-01 -2.803186e-02 8.567720e-01 -2.084229e+00 2.703613e+00
4.356567e+01 2.604167e-01 -2.842701e-02 8.601666e-01 -2.101562e+00 2.715332e+00
4.562500e+01 2.864583e-01 -2.763220e-02 8.641317e-01 -2.118896e+00 2.729492e+00
4.363159e+01 2.343750e-01 -2.878237e-02 8.680835e-01 -2.123779e+00 2.727783e+00
4.331421e+01 2.239583e-01 -2.850206e-02 8.720823e-01 -2.151123e+00 2.750000e+00
4.336792e+01 2.604167e-01 -2.821271e-02 8.753023e-01 -2.163086e+00 2.757080e+00
4.275439e+01 2.656250e-01 -2.834021e-02 8.792200e-01 -2.173584e+00 2.764404e+00
4.276440e+01 2.604167e-01 -2.771448e-02 8.829276e-01 -2.191406e+00 2.779785e+00
4.422437e+01 2.708333e-01 -2.723434e-02 8.866052e-01 -2.217773e+00 2.803223e+00
4.210669e+01 2.447917e-01 -2.783384e-02 8.903423e-01 -2.222168e+00 2.801025e+00
4.201953e+01 2.552083e-01 -2.738444e-02 8.938807e-01 -2.239746e+00 2.815674e+00
4.173999e+01 2.395833e-01 -2.732567e-02 8.973422e-01 -2.253174e+00 2.825195e+00
4.275708e+01 2.395833e-01 -2.762406e-02 9.008308e-01 -2.275391e+00 2.843750e+00
4.178174e+01 2.343750e-01 -2.729854e-02 9.042240e-01 -2.291504e+00 2.856445e+00
4.158496e+01 2.343750e-01 -2.759784e-02 9.069011e-01 -2.296387e+00 2.857422e+00
4.227051e+01 2.500000e-01 -2.798937e-02 9.100849e-01 -2.315430e+00 2.873291e+00
4.203003e+01 2.447917e-01 -2.823079e-02 9.128172e-01 -2.326904e+00 2.881592e+00
4.196704e+01 2.447917e-01 -2.867296e-02 9.155881e-01 -2.335205e+00 2.885498e+00
4.190088e+01 2.500000e-01 -2.894423e-02 9.192001e-01 -2.351074e+00 2.897949e+00
4.536719e+01 3.229167e-01 -3.018754e-02 9.217214e-01 -2.370361e+00 2.914795e+00
4.299585e+01 2.552083e-01 -2.978787e-02 9.231146e-01 -2.358154e+00 2.895264e+00
4.608862e+01 2.968750e-01 -3.068576e-02 9.265796e-01 -2.379883e+00 2.910645e+00
4.615454e+01 2.916667e-01 -3.126447e-02 9.292265e-01 -2.383789e+00 2.916016e+00
4.265039e+01 2.604167e-01 -3.160446e-02 9.317973e-01 -2.384033e+00 2.911621e+00
4.390723e+01 2.552083e-01 -3.141547e-02 9.337774e-01 -2.402588e+00 2.926270e+00
4.101978e+01 2.291667e-01 -3.201950e-02 9.370826e-01 -2.395996e+00 2.916504e+00
4.142651e+01 2.395833e-01 -3.117314e-02 9.399292e-01 -2.412598e+00 2.930664e+00
4.157764e+01 2.552083e-01 -3.171115e-02 9.429906e-01 -2.432373e+00 2.947998e+00
4.110083e+01 2.343750e-01 -3.148691e-02 9.443974e-01 -2.439453e+00 2.951904e+00
4.134229e+01 2.343750e-01 -3.142723e-02 9.470430e-01 -2.440430e+00 2.950928e+00
4.089844e+01 2.239583e-01 -3.190375e-02 9.496429e-01 -2.450439e+00 2.955078e+00
4.095850e+01 2.291667e-01 -3.168493e-02 9.520600e-01 -2.465332e+00 2.968506e+00
4.100586e+01 2.239583e-01 -3.167499e-02 9.546293e-01 -2.476074e+00 2.976074e+00
4.081836e+01 2.291667e-01 -3.166685e-02 9.569140e-01 -2.482422e+00 2.980225e+00
4.187646e+01 2.395833e-01 -3.142994e-02 9.587901e-01 -2.491943e+00 2.983643e+00
4.108936e+01 2.343750e-01 -3.150228e-02 9.616525e-01 -2.499023e+00 2.988037e+00
4.097388e+01 2.604167e-01 -3.186487e-02 9.644019e-01 -2.517578e+00 3.005371e+00
4.074561e+01 2.343750e-01 -3.122920e-02 9.650771e-01 -2.519043e+00 3.005615e+00
4.061719e+01 2.447917e-01 -3.216417e-02 9.674466e-01 -2.524902e+00 3.007568e+00
4.174756e+01 2.395833e-01 -3.142090e-02 9.689696e-01 -2.530029e+00 3.007568e+00
4.195679e+01 2.447917e-01 -3.169397e-02 9.709814e-01 -2.541992e+00 3.016357e+00
4.193921e+01 2.447917e-01 -3.172653e-02 9.728414e-01 -2.549072e+00 3.020508e+00
4.186011e+01 2.656250e-01 -3.242820e-02 9.755363e-01 -2.553955e+00 3.023926e+00
4.057715e+01 2.395833e-01 -3.216146e-02 9.763392e-01 -2.566406e+00 3.036377e+00
4.097485e+01 2.447917e-01 -3.224103e-02 9.784197e-01 -2.564697e+00 3.029541e+00
5.102393e+01 2.864583e-01 -3.200051e-02 9.801895e-01 -2.589844e+00 3.049805e+00
4.373560e+01 2.656250e-01 -3.423394e-02 9.818132e-01 -2.574707e+00 3.033203e+00
4.140063e+01 2.291667e-01 -3.435330e-02 9.834281e-01 -2.571045e+00 3.024902e+00
5.234302e+01 2.916667e-01 -3.336589e-02 9.852412e-01 -2.603027e+00 3.061768e+00
4.756128e+01 2.760417e-01 -3.590766e-02 9.858667e-01 -2.585205e+00 3.052734e+00
4.385620e+01 2.656250e-01 -3.707954e-02 9.863593e-01 -2.577393e+00 3.046143e+00
4.056689e+01 2.291667e-01 -3.761755e-02 9.879031e-01 -2.567627e+00 3.034424e+00
4.334814e+01 2.552083e-01 -3.660663e-02 9.896429e-01 -2.591309e+00 3.058594e+00
4.090479e+01 2.343750e-01 -3.746926e-02 9.919501e-01 -2.581055e+00 3.047119e+00
4.023975e+01 2.291667e-01 -3.665455e-02 9.934811e-01 -2.594727e+00 3.060059e+00
4.057666e+01 2.291667e-01 -3.670880e-02 9.954936e-01 -2.603516e+00 3.067383e+00
4.029834e+01 2.187500e-01 -3.635977e-02 9.969464e-01 -2.608154e+00 3.069824e+00
4.000610e+01 2.239583e-01 -3.638690e-02 9.990030e-01 -2.613037e+00 3.074707e+00
4.099268e+01 2.552083e-01 -3.659487e-02 1.000866e+00 -2.627441e+00 3.088623e+00
4.039380e+01 2.343750e-01 -3.641493e-02 1.001792e+00 -2.631836e+00 3.093018e+00
4.057007e+01 2.656250e-01 -3.701805e-02 1.003104e+00 -2.638428e+00 3.100098e+00
4.024805e+01 2.343750e-01 -3.706055e-02 1.004179e+00 -2.640381e+00 3.103516e+00
4.014697e+01 2.500000e-01 -3.759856e-02 1.005471e+00 -2.641846e+00 3.106445e+00
4.310059e+01 2.968750e-01 -3.869538e-02 1.006513e+00 -2.653320e+00 3.120361e+00
4.076562e+01 2.760417e-01 -3.954445e-02 1.006120e+00 -2.648682e+00 3.124268e+00
4.069995e+01 2.656250e-01 -4.104094e-02 1.006369e+00 -2.637939e+00 3.117188e+00
3.925513e+01 2.447917e-01 -4.141710e-02 1.007763e+00 -2.632080e+00 3.115479e+00
3.997754e+01 2.395833e-01 -4.186650e-02 1.009110e+00 -2.632568e+00 3.117676e+00
3.979028e+01 2.343750e-01 -4.142705e-02 1.010031e+00 -2.631104e+00 3.118408e+00
3.982178e+01 2.500000e-01 -4.179145e-02 1.011581e+00 -2.635742e+00 3.122559e+00
4.063379e+01 2.656250e-01 -4.197862e-02 1.012969e+00 -2.645996e+00 3.136475e+00
3.967920e+01 2.343750e-01 -4.201841e-02 1.013721e+00 -2.647461e+00 3.141357e+00
3.974561e+01 2.343750e-01 -4.255462e-02 1.014659e+00 -2.643066e+00 3.137939e+00
3.951880e+01 2.395833e-01 -4.249494e-02 1.015801e+00 -2.642822e+00 3.139893e+00
3.954688e+01 2.239583e-01 -4.239276e-02 1.017204e+00 -2.644043e+00 3.141113e+00
3.991455e+01 2.395833e-01 -4.248499e-02 1.018680e+00 -2.650635e+00 3.148438e+00
3.973926e+01 2.447917e-01 -4.249494e-02 1.019686e+00 -2.656494e+00 3.155029e+00
3.979443e+01 2.552083e-01 -4.275716e-02 1.020261e+00 -2.661865e+00 3.160889e+00
3.981860e+01 2.395833e-01 -4.282860e-02 1.021262e+00 -2.662598e+00 3.162109e+00
4.260352e+01 2.447917e-01 -4.196325e-02 1.022750e+00 -2.671875e+00 3.174316e+00
4.323242e+01 2.500000e-01 -4.300221e-02 1.023478e+00 -2.671631e+00 3.175781e+00
4.130591e+01 2.343750e-01 -4.381058e-02 1.023706e+00 -2.665771e+00 3.171387e+00
4.235547e+01 2.395833e-01 -4.358362e-02 1.024362e+00 -2.672363e+00 3.178223e+00
4.364185e+01 2.395833e-01 -4.379883e-02 1.025164e+00 -2.678223e+00 3.184814e+00
4.310229e+01 2.343750e-01 -4.446615e-02 1.026227e+00 -2.677979e+00 3.186035e+00
4.027539e+01 2.187500e-01 -4.485044e-02 1.026952e+00 -2.672607e+00 3.181396e+00
4.171582e+01 2.395833e-01 -4.433503e-02 1.027745e+00 -2.679932e+00 3.188965e+00
3.935474e+01 2.239583e-01 -4.475007e-02 1.029808e+00 -2.677979e+00 3.188477e+00
3.930640e+01 2.239583e-01 -4.457827e-02 1.030003e+00 -2.685791e+00 3.194824e+00
4.099951e+01 2.708333e-01 -4.510182e-02 1.031089e+00 -2.695557e+00 3.206299e+00
3.927051e+01 2.395833e-01 -4.544542e-02 1.031742e+00 -2.693359e+00 3.208496e+00
3.998511e+01 2.604167e-01 -4.617603e-02 1.032505e+00 -2.693359e+00 3.212891e+00
5.001489e+01 3.541667e-01 -4.842394e-02 1.033260e+00 -2.701904e+00 3.225830e+00
4.091626e+01 2.656250e-01 -5.116102e-02 1.030951e+00 -2.677979e+00 3.215820e+00
3.941260e+01 2.291667e-01 -5.224609e-02 1.031469e+00 -2.656982e+00 3.204834e+00
3.940625e+01 2.291667e-01 -5.240252e-02 1.032451e+00 -2.656982e+00 3.207031e+00
3.945825e+01 2.187500e-01 -5.242151e-02 1.033089e+00 -2.648438e+00 3.200928e+00
3.909253e+01 2.135417e-01 -5.237269e-02 1.034396e+00 -2.652588e+00 3.204590e+00
3.970923e+01 2.291667e-01 -5.213126e-02 1.035241e+00 -2.653564e+00 3.206055e+00
4.013208e+01 2.552083e-01 -5.209418e-02 1.037002e+00 -2.667480e+00 3.220947e+00
3.944507e+01 2.291667e-01 -5.219636e-02 1.037570e+00 -2.668213e+00 3.224121e+00
4.000684e+01 2.447917e-01 -5.251465e-02 1.038271e+00 -2.668457e+00 3.226562e+00
3.976978e+01 2.343750e-01 -5.259603e-02 1.039743e+00 -2.670410e+00 3.231201e+00
3.900220e+01 2.135417e-01 -5.259151e-02 1.040858e+00 -2.670898e+00 3.233154e+00
3.902393e+01 2.083333e-01 -5.274613e-02 1.041543e+00 -2.668457e+00 3.231445e+00
3.993726e+01 2.343750e-01 -5.280852e-02 1.042447e+00 -2.673828e+00 3.238525e+00
3.929102e+01 2.239583e-01 -5.242513e-02 1.043428e+00 -2.674561e+00 3.240967e+00
3.891138e+01 2.135417e-01 -5.273528e-02 1.044595e+00 -2.675537e+00 3.242432e+00
3.881079e+01 2.135417e-01 -5.258427e-02 1.045520e+00 -2.682129e+00 3.250732e+00
3.910132e+01 2.135417e-01 -5.248933e-02 1.046122e+00 -2.677979e+00 3.249512e+00
3.943311e+01 2.291667e-01 -5.277507e-02 1.046708e+00 -2.679932e+00 3.254150e+00
4.042798e+01 2.239583e-01 -5.209690e-02 1.047657e+00 -2.680420e+00 3.257080e+00
3.910083e+01 2.083333e-01 -5.259241e-02 1.048795e+00 -2.677734e+00 3.254150e+00
3.893970e+01 2.187500e-01 -5.232476e-02 1.049827e+00 -2.688232e+00 3.266113e+00
3.931201e+01 2.239583e-01 -5.185909e-02 1.050536e+00 -2.685547e+00 3.266113e+00
3.922827e+01 2.239583e-01 -5.207158e-02 1.051399e+00 -2.685059e+00 3.266113e+00
4.015308e+01 2.604167e-01 -5.239800e-02 1.052529e+00 -2.697510e+00 3.280762e+00
4.002856e+01 2.604167e-01 -5.315032e-02 1.052274e+00 -2.698242e+00 3.285645e+00
3.987793e+01 2.552083e-01 -5.416124e-02 1.052310e+00 -2.705566e+00 3.284912e+00
3.899756e+01 2.343750e-01 -5.453288e-02 1.053150e+00 -2.699219e+00 3.285889e+00
4.048267e+01 2.812500e-01 -5.592177e-02 1.053124e+00 -2.736084e+00 3.285156e+00
3.898169e+01 2.083333e-01 -5.609447e-02 1.053393e+00 -2.692871e+00 3.280273e+00
4.026733e+01 2.239583e-01 -5.610623e-02 1.054464e+00 -2.686279e+00 3.278809e+00
3.896973e+01 2.031250e-01 -5.641819e-02 1.055345e+00 -2.700195e+00 3.278076e+00
3.873682e+01 2.395833e-01 -5.630516e-02 1.056242e+00 -2.719482e+00 3.291748e+00
3.876099e+01 2.187500e-01 -5.599953e-02 1.056736e+00 -2.695557e+00 3.290527e+00
4.182715e+01 2.812500e-01 -5.742278e-02 1.057693e+00 -2.767090e+00 3.301025e+00
3.927563e+01 2.395833e-01 -5.802951e-02 1.057232e+00 -2.741211e+00 3.300293e+00
3.888232e+01 2.031250e-01 -5.812717e-02 1.057871e+00 -2.712402e+00 3.290771e+00
3.912012e+01 2.031250e-01 -5.825919e-02 1.058854e+00 -2.713135e+00 3.292480e+00
3.965967e+01 2.656250e-01 -5.861274e-02 1.060069e+00 -2.754395e+00 3.304199e+00
3.868701e+01 2.083333e-01 -5.811903e-02 1.060378e+00 -2.718994e+00 3.305908e+00
4.194678e+01 2.291667e-01 -5.838578e-02 1.060854e+00 -2.731445e+00 3.311768e+00
4.692529e+01 2.604167e-01 -5.913267e-02 1.061858e+00 -2.770264e+00 3.321533e+00
3.982739e+01 1.979167e-01 -6.068613e-02 1.062106e+00 -2.760254e+00 3.306396e+00
4.045874e+01 2.083333e-01 -5.998716e-02 1.062952e+00 -2.744141e+00 3.312256e+00
4.063379e+01 2.083333e-01 -6.024215e-02 1.063508e+00 -2.748779e+00 3.314209e+00
3.867432e+01 2.031250e-01 -6.037146e-02 1.064220e+00 -2.740479e+00 3.309326e+00
4.021313e+01 2.552083e-01 -6.070421e-02 1.065081e+00 -2.778320e+00 3.320068e+00
3.893359e+01 2.239583e-01 -6.050076e-02 1.065317e+00 -2.754639e+00 3.322510e+00
3.884668e+01 2.135417e-01 -6.049081e-02 1.066438e+00 -2.753418e+00 3.324219e+00
4.117334e+01 2.135417e-01 -6.005136e-02 1.067204e+00 -2.741211e+00 3.328613e+00
4.190356e+01 2.187500e-01 -6.053512e-02 1.067515e+00 -2.759766e+00 3.333252e+00
4.135986e+01 2.135417e-01 -6.083532e-02 1.067890e+00 -2.767090e+00 3.333984e+00
4.119922e+01 2.187500e-01 -6.075666e-02 1.068303e+00 -2.761963e+00 3.335938e+00
4.554614e+01 2.552083e-01 -6.085883e-02 1.068406e+00 -2.782715e+00 3.347900e+00
4.023193e+01 2.083333e-01 -6.226219e-02 1.068650e+00 -2.780762e+00 3.332520e+00
3.849756e+01 2.083333e-01 -6.221698e-02 1.068827e+00 -2.762207e+00 3.326904e+00
4.506885e+01 2.395833e-01 -6.107946e-02 1.070117e+00 -2.772949e+00 3.352539e+00
4.277832e+01 2.291667e-01 -6.261303e-02 1.070247e+00 -2.800781e+00 3.350098e+00
4.294214e+01 2.291667e-01 -6.310221e-02 1.070469e+00 -2.801025e+00 3.351807e+00
4.202539e+01 2.239583e-01 -6.365831e-02 1.070813e+00 -2.797363e+00 3.349365e+00
3.870776e+01 2.187500e-01 -6.396484e-02 1.071356e+00 -2.777344e+00 3.339111e+00
4.096265e+01 2.135417e-01 -6.361762e-02 1.071747e+00 -2.783447e+00 3.351807e+00
4.010962e+01 2.135417e-01 -6.351544e-02 1.072892e+00 -2.780762e+00 3.352539e+00
3.908936e+01 2.135417e-01 -6.377677e-02 1.073224e+00 -2.774414e+00 3.349121e+00
3.897559e+01 2.083333e-01 -6.351906e-02 1.073863e+00 -2.768799e+00 3.353271e+00
4.048413e+01 2.604167e-01 -6.375597e-02 1.075055e+00 -2.813965e+00 3.367432e+00
4.140405e+01 2.187500e-01 -6.306424e-02 1.075360e+00 -2.767578e+00 3.370361e+00
3.883521e+01 2.083333e-01 -6.374150e-02 1.076569e+00 -2.780518e+00 3.363037e+00
3.889551e+01 2.083333e-01 -6.366645e-02 1.076921e+00 -2.779785e+00 3.364014e+00
3.885547e+01 2.031250e-01 -6.352449e-02 1.077607e+00 -2.782227e+00 3.370361e+00
4.121606e+01 2.135417e-01 -6.283275e-02 1.078687e+00 -2.776611e+00 3.382080e+00
4.775317e+01 2.604167e-01 -6.375145e-02 1.078266e+00 -2.819336e+00 3.396240e+00
4.057251e+01 2.135417e-01 -6.540618e-02 1.079014e+00 -2.822998e+00 3.382080e+00
3.911230e+01 2.031250e-01 -6.529315e-02 1.079902e+00 -2.800781e+00 3.376221e+00
3.931445e+01 2.447917e-01 -6.560420e-02 1.080108e+00 -2.827148e+00 3.383057e+00
4.046997e+01 2.656250e-01 -6.563675e-02 1.081227e+00 -2.846924e+00 3.398926e+00
3.995410e+01 2.552083e-01 -6.679416e-02 1.080708e+00 -2.853271e+00 3.397217e+00
3.968359e+01 2.239583e-01 -6.712963e-02 1.080359e+00 -2.820557e+00 3.386963e+00
3.919214e+01 2.239583e-01 -6.750940e-02 1.081117e+00 -2.824219e+00 3.385010e+00
4.009521e+01 2.812500e-01 -6.822103e-02 1.081745e+00 -2.873535e+00 3.397705e+00
3.880103e+01 2.291667e-01 -6.869394e-02 1.081217e+00 -2.851074e+00 3.395996e+00
3.951465e+01 2.187500e-01 -6.894712e-02 1.082089e+00 -2.832031e+00 3.388184e+00
4.457764e+01 2.343750e-01 -6.866591e-02 1.082531e+00 -2.850098e+00 3.406494e+00
4.487671e+01 2.447917e-01 -6.964066e-02 1.083233e+00 -2.877686e+00 3.408203e+00
3.944751e+01 2.343750e-01 -7.079988e-02 1.083522e+00 -2.876709e+00 3.391846e+00
3.922705e+01 2.187500e-01 -7.004575e-02 1.083807e+00 -2.839111e+00 3.398682e+00
4.109912e+01 2.135417e-01 -6.976002e-02 1.084771e+00 -2.849121e+00 3.406982e+00
3.865820e+01 2.135417e-01 -7.015426e-02 1.085454e+00 -2.847168e+00 3.401611e+00
3.963159e+01 2.447917e-01 -7.021484e-02 1.086483e+00 -2.877197e+00 3.411377e+00
3.915845e+01 2.447917e-01 -7.026910e-02 1.086982e+00 -2.879150e+00 3.420410e+00
4.058325e+01 2.187500e-01 -6.992368e-02 1.087280e+00 -2.830566e+00 3.412842e+00
4.098926e+01 2.135417e-01 -7.037941e-02 1.088127e+00 -2.864746e+00 3.420410e+00
4.438086e+01 2.395833e-01 -7.071759e-02 1.088679e+00 -2.887695e+00 3.429932e+00
3.900732e+01 2.291667e-01 -7.152868e-02 1.088935e+00 -2.867188e+00 3.413818e+00
3.898828e+01 2.239583e-01 -7.107114e-02 1.089623e+00 -2.860352e+00 3.418701e+00
3.890308e+01 2.343750e-01 -7.136411e-02 1.089911e+00 -2.883301e+00 3.425049e+00
3.957056e+01 2.135417e-01 -7.069589e-02 1.090637e+00 -2.847656e+00 3.425293e+00
4.043335e+01 2.187500e-01 -7.091381e-02 1.091184e+00 -2.865723e+00 3.430420e+00
4.485132e+01 2.395833e-01 -7.108019e-02 1.091702e+00 -2.889893e+00 3.443604e+00
3.859937e+01 2.187500e-01 -7.248806e-02 1.091175e+00 -2.877441e+00 3.424805e+00
3.911426e+01 2.083333e-01 -7.160283e-02 1.092269e+00 -2.862549e+00 3.431396e+00
3.889722e+01 2.447917e-01 -7.192564e-02 1.092952e+00 -2.898438e+00 3.440918e+00
3.775977e+01 2.187500e-01 -7.239041e-02 1.092686e+00 -2.891113e+00 3.439453e+00
3.862354e+01 2.135417e-01 -7.204771e-02 1.093555e+00 -2.875000e+00 3.440918e+00
3.815942e+01 2.135417e-01 -7.199345e-02 1.094560e+00 -2.887939e+00 3.445068e+00
3.832617e+01 2.083333e-01 -7.199797e-02 1.095031e+00 -2.881836e+00 3.445557e+00
3.933618e+01 2.135417e-01 -7.194553e-02 1.095361e+00 -2.871826e+00 3.444580e+00
3.863477e+01 2.135417e-01 -7.191569e-02 1.096366e+00 -2.876709e+00 3.445312e+00
3.926782e+01 2.187500e-01 -7.156937e-02 1.096686e+00 -2.868652e+00 3.450439e+00
3.991235e+01 2.187500e-01 -7.185872e-02 1.097028e+00 -2.884277e+00 3.454590e+00
3.945459e+01 2.135417e-01 -7.186867e-02 1.097662e+00 -2.874756e+00 3.452881e+00
3.996484e+01 2.187500e-01 -7.139305e-02 1.098836e+00 -2.873535e+00 3.458740e+00
3.829590e+01 2.395833e-01 -7.203866e-02 1.099096e+00 -2.897461e+00 3.458984e+00
3.914624e+01 2.447917e-01 -7.199797e-02 1.099236e+00 -2.907227e+00 3.469971e+00
3.846021e+01 2.083333e-01 -7.206037e-02 1.099588e+00 -2.879395e+00 3.464355e+00
3.797290e+01 2.187500e-01 -7.253056e-02 1.100161e+00 -2.892578e+00 3.465088e+00
3.957129e+01 2.291667e-01 -7.200521e-02 1.100966e+00 -2.871094e+00 3.466064e+00
3.854932e+01 2.343750e-01 -7.268880e-02 1.100969e+00 -2.904297e+00 3.468506e+00
3.857153e+01 2.343750e-01 -7.263817e-02 1.101415e+00 -2.912598e+00 3.478027e+00
3.837720e+01 2.291667e-01 -7.278284e-02 1.101880e+00 -2.903320e+00 3.477539e+00
3.815552e+01 2.239583e-01 -7.315177e-02 1.102454e+00 -2.911133e+00 3.479492e+00
3.847192e+01 2.083333e-01 -7.316985e-02 1.102571e+00 -2.894775e+00 3.476074e+00
3.962793e+01 2.604167e-01 -7.372595e-02 1.103592e+00 -2.935791e+00 3.485840e+00
3.807373e+01 2.291667e-01 -7.383807e-02 1.103514e+00 -2.918945e+00 3.487061e+00
3.797900e+01 2.135417e-01 -7.420609e-02 1.103794e+00 -2.920166e+00 3.483643e+00
3.982007e+01 2.656250e-01 -7.494846e-02 1.104393e+00 -2.954102e+00 3.489990e+00
3.925928e+01 2.187500e-01 -7.475405e-02 1.104562e+00 -2.906250e+00 3.484131e+00
3.890698e+01 2.135417e-01 -7.539967e-02 1.104791e+00 -2.914062e+00 3.478760e+00
3.835376e+01 1.979167e-01 -7.534451e-02 1.105311e+00 -2.918213e+00 3.481934e+00
3.889087e+01 2.135417e-01 -7.516547e-02 1.105775e+00 -2.913330e+00 3.483398e+00
4.208105e+01 2.187500e-01 -7.467538e-02 1.106782e+00 -2.930420e+00 3.499023e+00
3.827075e+01 2.291667e-01 -7.551541e-02 1.107433e+00 -2.945312e+00 3.491211e+00
3.829248e+01 2.291667e-01 -7.581380e-02 1.107236e+00 -2.954346e+00 3.498535e+00
3.806470e+01 2.135417e-01 -7.584274e-02 1.107808e+00 -2.942383e+00 3.499756e+00
3.878955e+01 2.187500e-01 -7.567636e-02 1.108669e+00 -2.920410e+00 3.495605e+00
4.014990e+01 2.135417e-01 -7.550365e-02 1.109255e+00 -2.924561e+00 3.500732e+00
3.894043e+01 2.135417e-01 -7.575955e-02 1.109429e+00 -2.923096e+00 3.498291e+00
3.817847e+01 2.083333e-01 -7.567726e-02 1.109943e+00 -2.933838e+00 3.503662e+00
4.016040e+01 2.187500e-01 -7.550184e-02 1.110101e+00 -2.927490e+00 3.507568e+00
4.119287e+01 2.083333e-01 -7.572248e-02 1.110391e+00 -2.938965e+00 3.510010e+00
3.788940e+01 2.187500e-01 -7.606156e-02 1.111249e+00 -2.950684e+00 3.510254e+00
3.899438e+01 2.083333e-01 -7.562663e-02 1.111043e+00 -2.918945e+00 3.508789e+00
3.968701e+01 2.812500e-01 -7.650734e-02 1.111180e+00 -2.974609e+00 3.517822e+00
4.159497e+01 2.135417e-01 -7.620714e-02 1.111263e+00 -2.928955e+00 3.517822e+00
4.071362e+01 2.187500e-01 -7.661223e-02 1.112073e+00 -2.946533e+00 3.516846e+00
4.147412e+01 2.135417e-01 -7.656340e-02 1.112435e+00 -2.947266e+00 3.520508e+00
3.779980e+01 2.083333e-01 -7.698206e-02 1.112894e+00 -2.953857e+00 3.516113e+00
3.864429e+01 2.083333e-01 -7.645218e-02 1.113176e+00 -2.932129e+00 3.519043e+00
3.831689e+01 2.552083e-01 -7.710684e-02 1.113358e+00 -2.973145e+00 3.526611e+00
3.868726e+01 2.031250e-01 -7.677409e-02 1.113689e+00 -2.938721e+00 3.525635e+00
3.920093e+01 2.135417e-01 -7.670446e-02 1.114470e+00 -2.934570e+00 3.523682e+00
3.793066e+01 2.343750e-01 -7.737178e-02 1.114433e+00 -2.959229e+00 3.525391e+00
4.040747e+01 2.187500e-01 -7.671531e-02 1.115147e+00 -2.936768e+00 3.529785e+00
4.083472e+01 3.072917e-01 -7.773890e-02 1.115765e+00 -3.004150e+00 3.540039e+00
4.029053e+01 3.020833e-01 -7.905726e-02 1.114829e+00 -3.009277e+00 3.546387e+00
3.802441e+01 2.135417e-01 -7.968207e-02 1.114721e+00 -2.973877e+00 3.537109e+00
3.836646e+01 2.135417e-01 -7.979149e-02 1.115372e+00 -2.970459e+00 3.532227e+00
3.942578e+01 2.187500e-01 -7.956453e-02 1.116197e+00 -2.959961e+00 3.532227e+00
4.132251e+01 2.135417e-01 -7.957628e-02 1.116199e+00 -2.977539e+00 3.540283e+00
4.081348e+01 2.135417e-01 -7.949038e-02 1.116736e+00 -2.979004e+00 3.541016e+00
4.127148e+01 2.187500e-01 -7.920284e-02 1.117555e+00 -2.978027e+00 3.545166e+00
3.936865e+01 2.187500e-01 -7.939634e-02 1.117760e+00 -2.972412e+00 3.538818e+00
3.964160e+01 2.187500e-01 -7.896774e-02 1.118447e+00 -2.963867e+00 3.541504e+00
4.079590e+01 2.135417e-01 -7.883572e-02 1.118776e+00 -2.977051e+00 3.548584e+00
4.058228e+01 2.135417e-01 -7.878870e-02 1.119562e+00 -2.977051e+00 3.548584e+00
4.157007e+01 2.135417e-01 -7.868381e-02 1.119725e+00 -2.981934e+00 3.553711e+00
3.769434e+01 2.187500e-01 -7.928874e-02 1.120135e+00 -2.985596e+00 3.545410e+00
4.010742e+01 2.135417e-01 -7.839898e-02 1.120816e+00 -2.960205e+00 3.552002e+00
3.788159e+01 2.187500e-01 -7.897768e-02 1.121167e+00 -2.987549e+00 3.552734e+00
3.766333e+01 2.343750e-01 -7.897407e-02 1.121632e+00 -2.999512e+00 3.562988e+00
3.797192e+01 2.395833e-01 -7.934661e-02 1.121710e+00 -3.001221e+00 3.564453e+00
3.781396e+01 2.187500e-01 -7.947501e-02 1.122255e+00 -2.998535e+00 3.565674e+00
3.952344e+01 2.291667e-01 -7.964591e-02 1.122329e+00 -2.979248e+00 3.558838e+00
4.080664e+01 2.187500e-01 -7.947953e-02 1.122971e+00 -2.983643e+00 3.562256e+00
3.935400e+01 2.083333e-01 -7.938368e-02 1.123490e+00 -2.979736e+00 3.559570e+00
4.031201e+01 2.239583e-01 -7.928964e-02 1.123642e+00 -2.978027e+00 3.563477e+00
3.944678e+01 2.760417e-01 -7.969925e-02 1.124266e+00 -3.031250e+00 3.575195e+00
3.838184e+01 2.552083e-01 -8.030509e-02 1.124081e+00 -3.029785e+00 3.582275e+00
3.797827e+01 2.343750e-01 -8.080603e-02 1.124368e+00 -3.023682e+00 3.581543e+00
3.854517e+01 2.500000e-01 -8.178168e-02 1.124465e+00 -3.042969e+00 3.582031e+00
3.872900e+01 2.135417e-01 -8.190104e-02 1.124523e+00 -3.004395e+00 3.574219e+00
3.885913e+01 2.187500e-01 -8.195439e-02 1.125318e+00 -3.011475e+00 3.574463e+00
3.840381e+01 2.552083e-01 -8.257921e-02 1.125535e+00 -3.049316e+00 3.582520e+00
3.825439e+01 2.135417e-01 -8.224555e-02 1.126189e+00 -3.027832e+00 3.586426e+00
3.861426e+01 2.031250e-01 -8.238932e-02 1.126411e+00 -3.015625e+00 3.580322e+00
4.115771e+01 2.135417e-01 -8.196162e-02 1.127005e+00 -3.014648e+00 3.585449e+00
4.168970e+01 2.135417e-01 -8.245624e-02 1.127627e+00 -3.042480e+00 3.588623e+00
4.518335e+01 2.500000e-01 -8.247161e-02 1.127986e+00 -3.054443e+00 3.600830e+00
4.150171e+01 2.083333e-01 -8.330440e-02 1.128456e+00 -3.057373e+00 3.594482e+00
3.859473e+01 2.083333e-01 -8.350785e-02 1.128598e+00 -3.032715e+00 3.582275e+00
4.158765e+01 2.083333e-01 -8.255751e-02 1.129323e+00 -3.033447e+00 3.598389e+00
4.032788e+01 2.239583e-01 -8.294994e-02 1.129853e+00 -3.039062e+00 3.594238e+00
4.311499e+01 2.239583e-01 -8.259096e-02 1.130697e+00 -3.051514e+00 3.606689e+00
3.803345e+01 2.135417e-01 -8.358109e-02 1.130588e+00 -3.057373e+00 3.595215e+00
3.948022e+01 2.291667e-01 -8.266059e-02 1.131159e+00 -3.025879e+00 3.601562e+00
3.939600e+01 2.239583e-01 -8.303132e-02 1.131307e+00 -3.028809e+00 3.596191e+00
3.931592e+01 2.291667e-01 -8.252586e-02 1.132099e+00 -3.025391e+00 3.598633e+00
3.897070e+01 2.291667e-01 -8.234230e-02 1.132537e+00 -3.027100e+00 3.599854e+00
3.940674e+01 2.187500e-01 -8.196795e-02 1.133179e+00 -3.023682e+00 3.602539e+00
3.874170e+01 2.135417e-01 -8.230704e-02 1.133291e+00 -3.037109e+00 3.601562e+00
3.992603e+01 2.239583e-01 -8.164605e-02 1.134364e+00 -3.032715e+00 3.608154e+00
3.893750e+01 2.187500e-01 -8.168584e-02 1.134763e+00 -3.035400e+00 3.607178e+00
4.052002e+01 2.239583e-01 -8.087023e-02 1.135536e+00 -3.025146e+00 3.614258e+00
4.117041e+01 2.083333e-01 -8.127532e-02 1.135611e+00 -3.050537e+00 3.620850e+00
4.217334e+01 2.135417e-01 -8.140824e-02 1.136550e+00 -3.054688e+00 3.623779e+00
3.994531e+01 2.239583e-01 -8.211353e-02 1.136597e+00 -3.049805e+00 3.616211e+00
3.886548e+01 2.187500e-01 -8.212619e-02 1.136634e+00 -3.045166e+00 3.614990e+00
4.137988e+01 2.083333e-01 -8.157371e-02 1.137108e+00 -3.046631e+00 3.627930e+00
4.047534e+01 2.239583e-01 -8.187030e-02 1.137845e+00 -3.049072e+00 3.623291e+00
3.856689e+01 2.135417e-01 -8.197519e-02 1.137921e+00 -3.042969e+00 3.620361e+00
3.844287e+01 2.239583e-01 -8.187572e-02 1.138320e+00 -3.070068e+00 3.633301e+00
3.892090e+01 2.083333e-01 -8.216236e-02 1.138076e+00 -3.044189e+00 3.625732e+00
3.952637e+01 2.187500e-01 -8.234140e-02 1.138272e+00 -3.039307e+00 3.624512e+00
3.946582e+01 2.239583e-01 -8.191641e-02 1.138910e+00 -3.035400e+00 3.626465e+00
3.844116e+01 2.500000e-01 -8.228443e-02 1.139613e+00 -3.079346e+00 3.635254e+00
3.842773e+01 2.083333e-01 -8.237395e-02 1.139383e+00 -3.053711e+00 3.635498e+00
3.842798e+01 2.031250e-01 -8.227810e-02 1.140340e+00 -3.051514e+00 3.634766e+00
3.941089e+01 2.239583e-01 -8.219401e-02 1.140535e+00 -3.040527e+00 3.631836e+00
3.853662e+01 2.500000e-01 -8.241193e-02 1.141080e+00 -3.085449e+00 3.643311e+00
3.834058e+01 2.135417e-01 -8.243273e-02 1.140875e+00 -3.056396e+00 3.640869e+00
3.976270e+01 2.187500e-01 -8.234592e-02 1.141737e+00 -3.046631e+00 3.635742e+00
3.842188e+01 2.083333e-01 -8.237486e-02 1.142191e+00 -3.058350e+00 3.639404e+00
3.996973e+01 2.135417e-01 -8.213885e-02 1.142505e+00 -3.047363e+00 3.640869e+00
3.968628e+01 2.187500e-01 -8.217231e-02 1.142803e+00 -3.051025e+00 3.641357e+00
3.920044e+01 2.239583e-01 -8.192998e-02 1.143373e+00 -3.047852e+00 3.640869e+00
4.109717e+01 2.083333e-01 -8.154930e-02 1.144041e+00 -3.060303e+00 3.649658e+00
3.967236e+01 2.135417e-01 -8.165690e-02 1.144338e+00 -3.051758e+00 3.646729e+00
3.825439e+01 2.500000e-01 -8.201497e-02 1.144522e+00 -3.084229e+00 3.653564e+00
3.936304e+01 2.083333e-01 -8.142361e-02 1.145008e+00 -3.040283e+00 3.651855e+00
3.885010e+01 2.187500e-01 -8.154749e-02 1.145651e+00 -3.054199e+00 3.652588e+00
4.048608e+01 2.031250e-01 -8.113607e-02 1.145722e+00 -3.047852e+00 3.657227e+00
4.034961e+01 2.083333e-01 -8.158728e-02 1.145905e+00 -3.060547e+00 3.658203e+00
3.956470e+01 2.031250e-01 -8.115054e-02 1.146948e+00 -3.054443e+00 3.657471e+00
3.929761e+01 2.083333e-01 -8.095522e-02 1.147343e+00 -3.049561e+00 3.658447e+00
3.878735e+01 2.031250e-01 -8.097059e-02 1.147479e+00 -3.057861e+00 3.661133e+00
3.897388e+01 2.135417e-01 -8.068848e-02 1.148048e+00 -3.043213e+00 3.660645e+00
4.220117e+01 2.187500e-01 -8.050040e-02 1.148501e+00 -3.066406e+00 3.674805e+00
4.031445e+01 2.083333e-01 -8.127713e-02 1.148607e+00 -3.074951e+00 3.668945e+00
3.906812e+01 2.083333e-01 -8.113516e-02 1.148433e+00 -3.046875e+00 3.664795e+00
3.895532e+01 2.083333e-01 -8.081507e-02 1.149209e+00 -3.045166e+00 3.667236e+00
4.030103e+01 2.083333e-01 -8.060348e-02 1.149655e+00 -3.058105e+00 3.675781e+00
4.108105e+01 2.135417e-01 -8.101128e-02 1.149842e+00 -3.073242e+00 3.680664e+00
3.895312e+01 2.083333e-01 -8.115325e-02 1.150560e+00 -3.058594e+00 3.670898e+00
3.925244e+01 2.083333e-01 -8.090549e-02 1.150769e+00 -3.054688e+00 3.674072e+00
4.044482e+01 2.083333e-01 -8.042806e-02 1.151779e+00 -3.064453e+00 3.681152e+00
3.880786e+01 2.031250e-01 -8.092177e-02 1.151634e+00 -3.058594e+00 3.674316e+00
3.874951e+01 2.239583e-01 -8.077799e-02 1.152167e+00 -3.078125e+00 3.683838e+00
3.856128e+01 2.083333e-01 -8.080874e-02 1.152429e+00 -3.072998e+00 3.685791e+00
3.848022e+01 2.291667e-01 -8.112522e-02 1.152719e+00 -3.085938e+00 3.687744e+00
3.840161e+01 2.604167e-01 -8.128888e-02 1.153099e+00 -3.101074e+00 3.694824e+00
4.047070e+01 2.135417e-01 -8.097150e-02 1.153385e+00 -3.063232e+00 3.692383e+00
3.829639e+01 2.187500e-01 -8.172020e-02 1.153743e+00 -3.089111e+00 3.688477e+00
3.835864e+01 1.979167e-01 -8.118490e-02 1.154198e+00 -3.063965e+00 3.690430e+00
4.204370e+01 2.135417e-01 -8.081597e-02 1.154792e+00 -3.080566e+00 3.703125e+00
3.817090e+01 2.083333e-01 -8.142180e-02 1.155095e+00 -3.075439e+00 3.689941e+00
3.860400e+01 2.187500e-01 -8.104926e-02 1.155653e+00 -3.080566e+00 3.699463e+00
3.822314e+01 2.708333e-01 -8.148148e-02 1.155791e+00 -3.112305e+00 3.708740e+00
3.851074e+01 2.291667e-01 -8.194625e-02 1.155707e+00 -3.101562e+00 3.709473e+00
3.824219e+01 2.083333e-01 -8.214789e-02 1.155961e+00 -3.081299e+00 3.701660e+00
3.876270e+01 2.083333e-01 -8.185402e-02 1.156772e+00 -3.076172e+00 3.702637e+00
3.816113e+01 2.031250e-01 -8.205657e-02 1.156863e+00 -3.085938e+00 3.702637e+00
3.947705e+01 2.135417e-01 -8.170844e-02 1.157291e+00 -3.078613e+00 3.705566e+00
4.106543e+01 2.135417e-01 -8.168764e-02 1.157750e+00 -3.095947e+00 3.713623e+00
3.916626e+01 2.135417e-01 -8.190828e-02 1.158286e+00 -3.091797e+00 3.707275e+00
3.908594e+01 2.239583e-01 -8.183684e-02 1.158455e+00 -3.100586e+00 3.711670e+00
3.932812e+01 2.187500e-01 -8.140372e-02 1.158869e+00 -3.079834e+00 3.711426e+00
3.877954e+01 2.291667e-01 -8.164876e-02 1.159342e+00 -3.105957e+00 3.716309e+00
3.827832e+01 2.187500e-01 -8.148600e-02 1.159727e+00 -3.084473e+00 3.712891e+00
4.009253e+01 2.135417e-01 -8.136122e-02 1.160101e+00 -3.088867e+00 3.718262e+00
3.869971e+01 2.135417e-01 -8.157371e-02 1.160592e+00 -3.100830e+00 3.716309e+00
3.824902e+01 2.135417e-01 -8.103208e-02 1.161169e+00 -3.091309e+00 3.721436e+00
3.995532e+01 2.187500e-01 -8.114692e-02 1.161065e+00 -3.087891e+00 3.721680e+00
3.847974e+01 2.135417e-01 -8.137207e-02 1.161612e+00 -3.088867e+00 3.717285e+00
4.007690e+01 2.187500e-01 -8.095974e-02 1.161932e+00 -3.092041e+00 3.725830e+00
4.275073e+01 2.187500e-01 -8.118580e-02 1.162515e+00 -3.119385e+00 3.734375e+00
3.839160e+01 1.979167e-01 -8.159632e-02 1.162869e+00 -3.102539e+00 3.721436e+00
3.880542e+01 2.187500e-01 -8.163430e-02 1.162788e+00 -3.116455e+00 3.727051e+00
3.856226e+01 2.083333e-01 -8.114601e-02 1.163326e+00 -3.095215e+00 3.728027e+00
3.955835e+01 2.187500e-01 -8.101581e-02 1.164006e+00 -3.094727e+00 3.729736e+00
3.947754e+01 2.187500e-01 -8.100134e-02 1.164433e+00 -3.099121e+00 3.730957e+00
3.899194e+01 2.083333e-01 -8.116500e-02 1.164455e+00 -3.098877e+00 3.730957e+00
3.884082e+01 2.083333e-01 -8.129883e-02 1.164685e+00 -3.099121e+00 3.730713e+00
3.841357e+01 2.135417e-01 -8.079246e-02 1.165545e+00 -3.114014e+00 3.739502e+00
3.814600e+01 2.083333e-01 -8.105378e-02 1.165407e+00 -3.110596e+00 3.738525e+00
3.807983e+01 2.083333e-01 -8.102485e-02 1.165538e+00 -3.102295e+00 3.736572e+00
3.807251e+01 2.083333e-01 -8.099049e-02 1.165984e+00 -3.103516e+00 3.737305e+00
3.839624e+01 2.083333e-01 -8.072193e-02 1.166651e+00 -3.110352e+00 3.743652e+00
4.021997e+01 2.135417e-01 -8.078613e-02 1.166736e+00 -3.106201e+00 3.744873e+00
3.935645e+01 2.083333e-01 -8.072012e-02 1.167384e+00 -3.102783e+00 3.740479e+00
3.845312e+01 2.135417e-01 -8.064507e-02 1.167805e+00 -3.121826e+00 3.746826e+00
3.843408e+01 2.031250e-01 -8.072193e-02 1.167873e+00 -3.118164e+00 3.748047e+00
4.094482e+01 2.135417e-01 -8.079246e-02 1.167872e+00 -3.120361e+00 3.751709e+00
4.618237e+01 2.239583e-01 -8.102485e-02 1.168384e+00 -3.147949e+00 3.764648e+00
3.939795e+01 2.083333e-01 -8.218316e-02 1.168627e+00 -3.128906e+00 3.747070e+00
3.980859e+01 2.031250e-01 -8.179163e-02 1.168880e+00 -3.122314e+00 3.751465e+00
3.851855e+01 2.031250e-01 -8.185402e-02 1.169359e+00 -3.117188e+00 3.747314e+00
3.963159e+01 2.031250e-01 -8.155924e-02 1.169766e+00 -3.117676e+00 3.752686e+00
3.978784e+01 2.083333e-01 -8.144531e-02 1.170519e+00 -3.128418e+00 3.756348e+00
4.112744e+01 2.187500e-01 -8.182237e-02 1.170313e+00 -3.148926e+00 3.762695e+00
4.027808e+01 2.083333e-01 -8.173286e-02 1.170949e+00 -3.136230e+00 3.760742e+00
3.834424e+01 2.083333e-01 -8.159270e-02 1.171349e+00 -3.124023e+00 3.755859e+00
4.139282e+01 2.187500e-01 -8.129612e-02 1.171924e+00 -3.139160e+00 3.767578e+00
3.860498e+01 2.031250e-01 -8.170935e-02 1.172206e+00 -3.127930e+00 3.757080e+00
3.910840e+01 2.083333e-01 -8.124096e-02 1.172722e+00 -3.120850e+00 3.759766e+00
3.833838e+01 2.083333e-01 -8.133681e-02 1.172867e+00 -3.130371e+00 3.760986e+00
4.046045e+01 2.083333e-01 -8.117585e-02 1.173130e+00 -3.137207e+00 3.768799e+00
3.832642e+01 2.083333e-01 -8.116229e-02 1.173709e+00 -3.130859e+00 3.763672e+00
3.851465e+01 2.031250e-01 -8.079246e-02 1.174404e+00 -3.125000e+00 3.766846e+00
3.836816e+01 2.083333e-01 -8.099591e-02 1.174340e+00 -3.128662e+00 3.765869e+00
3.971021e+01 2.031250e-01 -8.078252e-02 1.174688e+00 -3.132568e+00 3.770508e+00
3.846851e+01 1.979167e-01 -8.083858e-02 1.175120e+00 -3.141113e+00 3.769531e+00
3.910205e+01 2.031250e-01 -8.074454e-02 1.175090e+00 -3.132324e+00 3.771240e+00
3.823145e+01 2.083333e-01 -8.081145e-02 1.175601e+00 -3.134277e+00 3.768066e+00
3.776562e+01 1.927083e-01 -8.036657e-02 1.176161e+00 -3.140869e+00 3.775635e+00
3.775415e+01 1.979167e-01 -8.029785e-02 1.176393e+00 -3.138428e+00 3.774902e+00
3.824048e+01 2.135417e-01 -8.022551e-02 1.177160e+00 -3.135254e+00 3.775635e+00
3.832007e+01 1.927083e-01 -8.045790e-02 1.176965e+00 -3.150146e+00 3.778076e+00
3.774072e+01 1.979167e-01 -8.017488e-02 1.177536e+00 -3.143311e+00 3.779541e+00
3.766919e+01 1.927083e-01 -8.044795e-02 1.177474e+00 -3.147217e+00 3.777588e+00
4.276343e+01 2.135417e-01 -7.990723e-02 1.178209e+00 -3.156982e+00 3.791748e+00
3.813525e+01 1.979167e-01 -8.066678e-02 1.178255e+00 -3.147217e+00 3.776611e+00
3.998413e+01 2.083333e-01 -8.022823e-02 1.178643e+00 -3.148438e+00 3.785889e+00
3.986304e+01 2.083333e-01 -8.050311e-02 1.178866e+00 -3.155518e+00 3.786377e+00
3.751416e+01 1.927083e-01 -8.058359e-02 1.178978e+00 -3.150879e+00 3.781494e+00
3.919556e+01 2.083333e-01 -8.005009e-02 1.179704e+00 -3.142578e+00 3.786377e+00
3.940210e+01 2.083333e-01 -8.004919e-02 1.179924e+00 -3.143066e+00 3.787842e+00
4.044116e+01 2.083333e-01 -8.021828e-02 1.180101e+00 -3.163574e+00 3.794678e+00
3.945020e+01 2.083333e-01 -8.020924e-02 1.180530e+00 -3.153076e+00 3.791504e+00
3.897192e+01 2.708333e-01 -8.067672e-02 1.180564e+00 -3.188721e+00 3.797363e+00
3.977808e+01 2.083333e-01 -8.028158e-02 1.180802e+00 -3.147217e+00 3.795410e+00
3.779761e+01 1.927083e-01 -8.053024e-02 1.181262e+00 -3.166748e+00 3.796143e+00
3.904663e+01 2.083333e-01 -7.989005e-02 1.181748e+00 -3.147949e+00 3.796875e+00
3.784351e+01 1.927083e-01 -8.049316e-02 1.181629e+00 -3.169678e+00 3.796631e+00
3.727246e+01 1.979167e-01 -8.006366e-02 1.181936e+00 -3.159912e+00 3.799561e+00
3.907690e+01 2.760417e-01 -8.085757e-02 1.182270e+00 -3.205566e+00 3.808350e+00
3.862769e+01 2.135417e-01 -8.119303e-02 1.182251e+00 -3.188232e+00 3.807373e+00
3.856982e+01 2.083333e-01 -8.106825e-02 1.182780e+00 -3.166992e+00 3.803223e+00
3.771533e+01 2.031250e-01 -8.123192e-02 1.183379e+00 -3.172119e+00 3.803223e+00
3.914795e+01 2.031250e-01 -8.112793e-02 1.183471e+00 -3.167725e+00 3.805420e+00
3.786328e+01 2.135417e-01 -8.078613e-02 1.184418e+00 -3.171631e+00 3.806396e+00
3.841895e+01 2.187500e-01 -8.112793e-02 1.184725e+00 -3.196533e+00 3.812012e+00
3.825024e+01 2.135417e-01 -8.128165e-02 1.184683e+00 -3.196289e+00 3.813232e+00
3.815649e+01 2.031250e-01 -8.097783e-02 1.185420e+00 -3.193848e+00 3.817627e+00
3.780200e+01 2.135417e-01 -8.085395e-02 1.185759e+00 -3.180908e+00 3.815186e+00
4.065405e+01 2.083333e-01 -8.077257e-02 1.186544e+00 -3.192383e+00 3.820312e+00
4.321484e+01 2.291667e-01 -8.098506e-02 1.186617e+00 -3.211426e+00 3.828369e+00
3.851123e+01 2.135417e-01 -8.172291e-02 1.186517e+00 -3.191406e+00 3.814697e+00
3.887769e+01 2.083333e-01 -8.121383e-02 1.187201e+00 -3.179199e+00 3.817139e+00
4.209351e+01 2.135417e-01 -8.108724e-02 1.187656e+00 -3.200928e+00 3.829102e+00
4.051392e+01 2.083333e-01 -8.170573e-02 1.187985e+00 -3.211426e+00 3.828613e+00
4.048462e+01 2.083333e-01 -8.129431e-02 1.188265e+00 -3.200195e+00 3.829834e+00
3.853760e+01 2.135417e-01 -8.160536e-02 1.188566e+00 -3.192871e+00 3.824463e+00
3.952075e+01 2.135417e-01 -8.134766e-02 1.189163e+00 -3.191895e+00 3.828369e+00
3.861133e+01 2.083333e-01 -8.166233e-02 1.189393e+00 -3.195312e+00 3.826660e+00
3.809351e+01 2.083333e-01 -8.146701e-02 1.189803e+00 -3.190430e+00 3.827148e+00
4.066431e+01 2.083333e-01 -8.144441e-02 1.190284e+00 -3.212158e+00 3.836426e+00
3.951221e+01 2.083333e-01 -8.123734e-02 1.190728e+00 -3.200195e+00 3.833252e+00
3.863916e+01 2.135417e-01 -8.150047e-02 1.191124e+00 -3.216309e+00 3.834961e+00
3.768213e+01 1.927083e-01 -8.130877e-02 1.191330e+00 -3.208984e+00 3.837158e+00
4.016357e+01 2.135417e-01 -8.106011e-02 1.191596e+00 -3.203125e+00 3.838867e+00
3.809570e+01 2.083333e-01 -8.136032e-02 1.191908e+00 -3.198730e+00 3.834473e+00
3.829932e+01 2.239583e-01 -8.129792e-02 1.192522e+00 -3.228027e+00 3.844238e+00
3.760132e+01 1.979167e-01 -8.144983e-02 1.193080e+00 -3.221924e+00 3.844482e+00
3.790674e+01 2.083333e-01 -8.120208e-02 1.193437e+00 -3.204834e+00 3.842041e+00
4.272754e+01 2.135417e-01 -8.107368e-02 1.193494e+00 -3.223145e+00 3.852783e+00
3.769604e+01 1.979167e-01 -8.179073e-02 1.193783e+00 -3.219238e+00 3.840576e+00
3.904224e+01 2.083333e-01 -8.135308e-02 1.194277e+00 -3.205566e+00 3.843994e+00
3.768018e+01 1.927083e-01 -8.174099e-02 1.194337e+00 -3.215332e+00 3.841797e+00
3.758228e+01 1.927083e-01 -8.154930e-02 1.195236e+00 -3.218506e+00 3.846191e+00
3.780347e+01 1.979167e-01 -8.133771e-02 1.195572e+00 -3.219727e+00 3.849121e+00
3.794800e+01 1.927083e-01 -8.095070e-02 1.196096e+00 -3.211426e+00 3.852051e+00
4.575757e+01 2.343750e-01 -8.100134e-02 1.196552e+00 -3.251221e+00 3.869873e+00
3.854272e+01 2.083333e-01 -8.212619e-02 1.196509e+00 -3.237549e+00 3.852539e+00
4.172729e+01 2.187500e-01 -8.168945e-02 1.196803e+00 -3.237305e+00 3.862305e+00
3.825000e+01 2.031250e-01 -8.180700e-02 1.197171e+00 -3.223389e+00 3.853027e+00
3.747559e+01 1.979167e-01 -8.161169e-02 1.197479e+00 -3.231201e+00 3.859131e+00
3.754395e+01 1.927083e-01 -8.149866e-02 1.197831e+00 -3.240479e+00 3.862061e+00
3.818066e+01 2.031250e-01 -8.120750e-02 1.198227e+00 -3.228027e+00 3.863281e+00
3.796021e+01 2.031250e-01 -8.136484e-02 1.198585e+00 -3.232422e+00 3.862793e+00
3.781348e+01 2.083333e-01 -8.179706e-02 1.198973e+00 -3.252441e+00 3.863525e+00
3.772925e+01 2.031250e-01 -8.136122e-02 1.199397e+00 -3.236816e+00 3.866455e+00
3.764600e+01 1.927083e-01 -8.156648e-02 1.199875e+00 -3.249023e+00 3.867920e+00
3.768213e+01 2.031250e-01 -8.155563e-02 1.200028e+00 -3.257812e+00 3.872559e+00
3.948145e+01 2.083333e-01 -8.112883e-02 1.200630e+00 -3.232910e+00 3.871826e+00
3.750415e+01 1.927083e-01 -8.133681e-02 1.201157e+00 -3.243164e+00 3.869873e+00
4.071924e+01 2.135417e-01 -8.118670e-02 1.201524e+00 -3.252686e+00 3.876953e+00
3.794995e+01 1.979167e-01 -8.154387e-02 1.202077e+00 -3.258545e+00 3.870850e+00
3.874463e+01 2.187500e-01 -8.089916e-02 1.202490e+00 -3.233154e+00 3.872070e+00
3.715039e+01 1.927083e-01 -8.121112e-02 1.202655e+00 -3.252441e+00 3.873047e+00
3.690210e+01 1.927083e-01 -8.114330e-02 1.203047e+00 -3.250977e+00 3.874268e+00
3.736646e+01 1.979167e-01 -8.071832e-02 1.203597e+00 -3.245850e+00 3.877686e+00
4.148535e+01 2.083333e-01 -8.052572e-02 1.204470e+00 -3.260498e+00 3.886475e+00
3.846948e+01 2.187500e-01 -8.100224e-02 1.204776e+00 -3.257080e+00 3.878662e+00
3.882739e+01 2.187500e-01 -8.062880e-02 1.205108e+00 -3.251953e+00 3.881348e+00
3.725586e+01 1.927083e-01 -8.082773e-02 1.205301e+00 -3.254395e+00 3.878662e+00
3.736938e+01 1.927083e-01 -8.031684e-02 1.205901e+00 -3.255859e+00 3.886963e+00
3.820166e+01 2.239583e-01 -8.080331e-02 1.205860e+00 -3.282959e+00 3.891357e+00
3.893091e+01 2.187500e-01 -8.037200e-02 1.206555e+00 -3.251709e+00 3.887695e+00
3.790454e+01 2.031250e-01 -8.063151e-02 1.206776e+00 -3.271240e+00 3.888184e+00
3.813696e+01 2.083333e-01 -8.069933e-02 1.206765e+00 -3.275635e+00 3.891846e+00
3.848633e+01 2.291667e-01 -8.091272e-02 1.207069e+00 -3.292725e+00 3.898682e+00
3.860718e+01 2.187500e-01 -8.082954e-02 1.207085e+00 -3.253906e+00 3.889893e+00
3.900854e+01 2.187500e-01 -8.063513e-02 1.207958e+00 -3.267090e+00 3.893799e+00
3.830957e+01 2.083333e-01 -8.082140e-02 1.208252e+00 -3.263916e+00 3.890869e+00
3.751636e+01 1.927083e-01 -8.079246e-02 1.208484e+00 -3.270508e+00 3.892090e+00
3.840381e+01 2.395833e-01 -8.076262e-02 1.209213e+00 -3.304932e+00 3.905273e+00
3.771289e+01 2.083333e-01 -8.086751e-02 1.208862e+00 -3.285645e+00 3.903564e+00
4.187671e+01 2.187500e-01 -8.063241e-02 1.209429e+00 -3.284912e+00 3.908203e+00
4.119922e+01 2.135417e-01 -8.120388e-02 1.210025e+00 -3.305420e+00 3.907715e+00
3.933154e+01 2.187500e-01 -8.147696e-02 1.210168e+00 -3.296631e+00 3.902588e+00
4.157764e+01 2.135417e-01 -8.137207e-02 1.210015e+00 -3.303711e+00 3.911377e+00
3.756152e+01 2.083333e-01 -8.136936e-02 1.211066e+00 -3.291748e+00 3.902100e+00
3.769556e+01 2.083333e-01 -8.134133e-02 1.211102e+00 -3.293457e+00 3.905518e+00
3.794116e+01 2.083333e-01 -8.086932e-02 1.211453e+00 -3.295654e+00 3.909424e+00
3.835107e+01 2.187500e-01 -8.111346e-02 1.211790e+00 -3.313721e+00 3.913086e+00
4.228247e+01 2.239583e-01 -8.113516e-02 1.212280e+00 -3.312500e+00 3.918457e+00
4.127686e+01 2.135417e-01 -8.138292e-02 1.212414e+00 -3.316162e+00 3.917725e+00
3.815210e+01 2.135417e-01 -8.174823e-02 1.212610e+00 -3.313965e+00 3.911621e+00
3.821484e+01 2.239583e-01 -8.184950e-02 1.212981e+00 -3.324951e+00 3.916748e+00
3.830591e+01 1.979167e-01 -8.145435e-02 1.213565e+00 -3.299316e+00 3.915039e+00
3.801245e+01 2.083333e-01 -8.160536e-02 1.214332e+00 -3.320801e+00 3.920166e+00
3.794238e+01 2.083333e-01 -8.158637e-02 1.214139e+00 -3.323730e+00 3.923096e+00
3.818335e+01 1.979167e-01 -8.164515e-02 1.214537e+00 -3.312744e+00 3.919922e+00
3.873535e+01 2.135417e-01 -8.152488e-02 1.214954e+00 -3.304688e+00 3.919434e+00
4.102100e+01 2.135417e-01 -8.111527e-02 1.215965e+00 -3.326904e+00 3.928467e+00
3.824927e+01 1.979167e-01 -8.145255e-02 1.216040e+00 -3.311035e+00 3.919434e+00
3.871875e+01 2.083333e-01 -8.106644e-02 1.216530e+00 -3.306152e+00 3.923828e+00
3.900659e+01 2.187500e-01 -8.076714e-02 1.216990e+00 -3.309082e+00 3.927490e+00
3.795801e+01 2.083333e-01 -8.100767e-02 1.217215e+00 -3.335693e+00 3.931641e+00
3.918848e+01 2.187500e-01 -8.068667e-02 1.217371e+00 -3.308350e+00 3.929932e+00
3.710620e+01 2.083333e-01 -8.094076e-02 1.218125e+00 -3.329102e+00 3.930664e+00
3.731177e+01 2.135417e-01 -8.116500e-02 1.217961e+00 -3.331543e+00 3.931641e+00
3.920557e+01 2.187500e-01 -8.039189e-02 1.218735e+00 -3.312988e+00 3.934082e+00
3.753345e+01 1.979167e-01 -8.052300e-02 1.219312e+00 -3.322266e+00 3.933350e+00
3.719531e+01 2.031250e-01 -8.054832e-02 1.219373e+00 -3.328613e+00 3.936035e+00
3.824048e+01 1.979167e-01 -8.032769e-02 1.219654e+00 -3.316406e+00 3.934814e+00
3.714648e+01 2.083333e-01 -8.046875e-02 1.220111e+00 -3.334473e+00 3.938477e+00
3.995093e+01 2.031250e-01 -7.998589e-02 1.220809e+00 -3.327881e+00 3.941895e+00
3.732104e+01 2.031250e-01 -8.003472e-02 1.221299e+00 -3.331055e+00 3.938477e+00
3.796338e+01 2.239583e-01 -8.060529e-02 1.221550e+00 -3.353516e+00 3.940918e+00
3.746851e+01 1.979167e-01 -8.004467e-02 1.221922e+00 -3.329590e+00 3.944580e+00
3.759351e+01 2.083333e-01 -7.962059e-02 1.222441e+00 -3.332764e+00 3.948486e+00
3.854810e+01 2.187500e-01 -7.994792e-02 1.222654e+00 -3.332031e+00 3.945801e+00
3.720532e+01 2.031250e-01 -7.970287e-02 1.223306e+00 -3.338623e+00 3.948486e+00
3.768408e+01 1.979167e-01 -7.982404e-02 1.223447e+00 -3.349121e+00 3.950439e+00
4.176782e+01 2.135417e-01 -7.920826e-02 1.224080e+00 -3.338867e+00 3.956543e+00
3.991309e+01 2.135417e-01 -7.995063e-02 1.223948e+00 -3.346436e+00 3.953613e+00
3.769116e+01 2.031250e-01 -7.987196e-02 1.224986e+00 -3.336914e+00 3.947998e+00
3.758984e+01 1.979167e-01 -7.960974e-02 1.225085e+00 -3.353516e+00 3.956299e+00
3.758789e+01 2.031250e-01 -7.964410e-02 1.225380e+00 -3.354492e+00 3.957764e+00
3.766968e+01 2.031250e-01 -7.970649e-02 1.225585e+00 -3.355957e+00 3.958252e+00
3.773901e+01 2.083333e-01 -7.960702e-02 1.225951e+00 -3.352295e+00 3.959717e+00
3.836279e+01 2.135417e-01 -7.907624e-02 1.226874e+00 -3.336182e+00 3.959717e+00
3.793555e+01 1.979167e-01 -7.935384e-02 1.227216e+00 -3.341797e+00 3.958496e+00
3.790527e+01 2.031250e-01 -7.887551e-02 1.227317e+00 -3.342529e+00 3.961670e+00
3.751807e+01 2.031250e-01 -7.901837e-02 1.228093e+00 -3.369629e+00 3.968018e+00
3.838379e+01 2.031250e-01 -7.862052e-02 1.228640e+00 -3.341064e+00 3.965576e+00
3.852832e+01 2.031250e-01 -7.892886e-02 1.228994e+00 -3.350586e+00 3.966553e+00
3.847949e+01 2.135417e-01 -7.847313e-02 1.229324e+00 -3.349365e+00 3.969971e+00
3.855933e+01 2.031250e-01 -7.863227e-02 1.229965e+00 -3.354004e+00 3.969482e+00
4.050366e+01 2.187500e-01 -7.823441e-02 1.230619e+00 -3.365967e+00 3.977539e+00
3.768164e+01 2.083333e-01 -7.834925e-02 1.230964e+00 -3.364014e+00 3.973877e+00
3.757690e+01 1.979167e-01 -7.835015e-02 1.231338e+00 -3.353027e+00 3.972412e+00
3.859106e+01 2.031250e-01 -7.840441e-02 1.231414e+00 -3.357666e+00 3.974854e+00
3.799146e+01 2.083333e-01 -7.845504e-02 1.231916e+00 -3.364258e+00 3.974609e+00
3.815405e+01 2.083333e-01 -7.828414e-02 1.232271e+00 -3.380859e+00 3.982666e+00
4.042188e+01 2.135417e-01 -7.757975e-02 1.232698e+00 -3.361572e+00 3.985840e+00
3.785327e+01 2.083333e-01 -7.826696e-02 1.232837e+00 -3.362061e+00 3.978027e+00
3.806250e+01 2.083333e-01 -7.778049e-02 1.233311e+00 -3.359863e+00 3.982422e+00
3.809814e+01 1.979167e-01 -7.763310e-02 1.233923e+00 -3.383301e+00 3.989014e+00
3.787720e+01 1.979167e-01 -7.768193e-02 1.234060e+00 -3.368652e+00 3.984619e+00
3.997949e+01 2.135417e-01 -7.751194e-02 1.234430e+00 -3.381836e+00 3.991699e+00
3.808057e+01 2.031250e-01 -7.731481e-02 1.235509e+00 -3.369141e+00 3.986328e+00
3.790332e+01 2.031250e-01 -7.725514e-02 1.235407e+00 -3.391357e+00 3.994385e+00
3.784473e+01 1.927083e-01 -7.722349e-02 1.235697e+00 -3.389893e+00 3.995361e+00
4.070630e+01 2.031250e-01 -7.726327e-02 1.236024e+00 -3.391602e+00 3.998535e+00
3.797754e+01 2.031250e-01 -7.754358e-02 1.236708e+00 -3.396484e+00 3.994385e+00
4.126343e+01 2.083333e-01 -7.644495e-02 1.237306e+00 -3.375488e+00 4.001465e+00
3.795190e+01 2.135417e-01 -7.732928e-02 1.237122e+00 -3.384766e+00 3.994141e+00
3.798901e+01 1.979167e-01 -7.687898e-02 1.237790e+00 -3.386963e+00 3.998779e+00
3.786499e+01 1.979167e-01 -7.646936e-02 1.238357e+00 -3.388672e+00 4.002441e+00
3.975757e+01 2.083333e-01 -7.648022e-02 1.238289e+00 -3.385742e+00 4.003906e+00
3.983374e+01 2.031250e-01 -7.662580e-02 1.238641e+00 -3.399414e+00 4.006836e+00
3.852734e+01 2.031250e-01 -7.626230e-02 1.239356e+00 -3.383301e+00 4.002686e+00
3.969238e+01 2.083333e-01 -7.593135e-02 1.239717e+00 -3.382568e+00 4.008545e+00
3.875513e+01 2.083333e-01 -7.614204e-02 1.240197e+00 -3.383545e+00 4.005371e+00
3.837671e+01 2.031250e-01 -7.601906e-02 1.240426e+00 -3.384766e+00 4.005859e+00
3.910596e+01 2.135417e-01 -7.558142e-02 1.240913e+00 -3.383301e+00 4.010010e+00
3.916455e+01 2.135417e-01 -7.523058e-02 1.241612e+00 -3.387207e+00 4.012451e+00
3.881665e+01 2.552083e-01 -7.579210e-02 1.241559e+00 -3.424561e+00 4.018066e+00
3.783447e+01 1.979167e-01 -7.560583e-02 1.241919e+00 -3.404541e+00 4.022217e+00
3.772290e+01 1.979167e-01 -7.583008e-02 1.242272e+00 -3.397217e+00 4.017334e+00
3.937573e+01 2.083333e-01 -7.561397e-02 1.242893e+00 -3.398682e+00 4.020996e+00
3.925610e+01 2.083333e-01 -7.565556e-02 1.243070e+00 -3.405518e+00 4.022705e+00
3.802808e+01 2.083333e-01 -7.556966e-02 1.243531e+00 -3.397705e+00 4.018799e+00
3.782593e+01 1.979167e-01 -7.500181e-02 1.244216e+00 -3.405029e+00 4.026367e+00
3.773169e+01 2.031250e-01 -7.494213e-02 1.244898e+00 -3.400635e+00 4.024902e+00
3.901318e+01 2.187500e-01 -7.474591e-02 1.245181e+00 -3.393799e+00 4.025879e+00
3.921704e+01 2.083333e-01 -7.483724e-02 1.245528e+00 -3.408691e+00 4.029541e+00
3.760010e+01 1.979167e-01 -7.468895e-02 1.245682e+00 -3.406494e+00 4.028809e+00
3.943579e+01 2.083333e-01 -7.427662e-02 1.246265e+00 -3.397461e+00 4.031982e+00
3.912720e+01 2.135417e-01 -7.448821e-02 1.246464e+00 -3.406982e+00 4.032471e+00
3.825952e+01 2.083333e-01 -7.438332e-02 1.246985e+00 -3.400146e+00 4.030762e+00
3.868115e+01 2.135417e-01 -7.399812e-02 1.247243e+00 -3.399414e+00 4.032959e+00
3.915503e+01 2.083333e-01 -7.404152e-02 1.248365e+00 -3.409180e+00 4.036865e+00
4.395239e+01 2.187500e-01 -7.379919e-02 1.248127e+00 -3.432617e+00 4.051025e+00
3.721582e+01 1.979167e-01 -7.476219e-02 1.248409e+00 -3.415039e+00 4.034424e+00
3.902417e+01 2.135417e-01 -7.418529e-02 1.249028e+00 -3.410156e+00 4.041992e+00
3.943164e+01 2.083333e-01 -7.396738e-02 1.249597e+00 -3.419678e+00 4.044922e+00
3.717285e+01 1.979167e-01 -7.393211e-02 1.249877e+00 -3.423584e+00 4.045898e+00
3.925195e+01 2.135417e-01 -7.414551e-02 1.250210e+00 -3.418457e+00 4.045410e+00
3.969263e+01 2.031250e-01 -7.372233e-02 1.250597e+00 -3.423584e+00 4.049072e+00
3.948901e+01 2.083333e-01 -7.374313e-02 1.251124e+00 -3.419678e+00 4.048584e+00
3.729053e+01 2.031250e-01 -7.374403e-02 1.251164e+00 -3.421631e+00 4.048340e+00
3.854346e+01 2.083333e-01 -7.359393e-02 1.252139e+00 -3.413330e+00 4.048096e+00
3.951196e+01 2.135417e-01 -7.373047e-02 1.252250e+00 -3.428223e+00 4.051758e+00
4.083301e+01 2.031250e-01 -7.352431e-02 1.252542e+00 -3.438477e+00 4.058350e+00
3.784351e+01 2.083333e-01 -7.357585e-02 1.253169e+00 -3.421387e+00 4.050537e+00
3.804175e+01 2.135417e-01 -7.315448e-02 1.253559e+00 -3.421143e+00 4.055664e+00
3.764209e+01 2.083333e-01 -7.347096e-02 1.254054e+00 -3.438232e+00 4.057617e+00
3.951733e+01 2.135417e-01 -7.300709e-02 1.254585e+00 -3.426514e+00 4.059570e+00
3.897290e+01 2.135417e-01 -7.306406e-02 1.255040e+00 -3.427490e+00 4.058594e+00
3.842163e+01 2.291667e-01 -7.347819e-02 1.255535e+00 -3.453369e+00 4.061768e+00
3.869312e+01 2.135417e-01 -7.302246e-02 1.255981e+00 -3.427002e+00 4.062012e+00
4.105981e+01 1.979167e-01 -7.282624e-02 1.256804e+00 -3.452637e+00 4.072021e+00
3.761890e+01 1.979167e-01 -7.300890e-02 1.257448e+00 -3.445801e+00 4.066650e+00
3.757739e+01 1.979167e-01 -7.276928e-02 1.257450e+00 -3.445801e+00 4.071777e+00
4.018091e+01 2.031250e-01 -7.269784e-02 1.258103e+00 -3.446533e+00 4.072998e+00
3.760962e+01 2.031250e-01 -7.307852e-02 1.258235e+00 -3.444336e+00 4.067383e+00
3.899561e+01 2.083333e-01 -7.227015e-02 1.258586e+00 -3.429199e+00 4.070801e+00
3.762109e+01 2.031250e-01 -7.271322e-02 1.259314e+00 -3.451416e+00 4.071533e+00
3.797534e+01 2.083333e-01 -7.245280e-02 1.259642e+00 -3.459961e+00 4.079346e+00
3.944263e+01 2.031250e-01 -7.187590e-02 1.260248e+00 -3.436035e+00 4.078857e+00
3.785962e+01 2.135417e-01 -7.258120e-02 1.260160e+00 -3.442627e+00 4.073730e+00
3.792627e+01 2.187500e-01 -7.220956e-02 1.261083e+00 -3.462646e+00 4.082764e+00
3.772241e+01 2.083333e-01 -7.270689e-02 1.261180e+00 -3.457031e+00 4.080811e+00
3.880420e+01 2.135417e-01 -7.219962e-02 1.261752e+00 -3.444580e+00 4.082520e+00
3.870850e+01 2.135417e-01 -7.235424e-02 1.262386e+00 -3.453613e+00 4.082764e+00
4.062329e+01 2.083333e-01 -7.267072e-02 1.262731e+00 -3.473877e+00 4.088623e+00
3.839795e+01 2.031250e-01 -7.208930e-02 1.263336e+00 -3.450439e+00 4.083984e+00
3.820874e+01 2.031250e-01 -7.230993e-02 1.263923e+00 -3.453125e+00 4.084229e+00
3.764478e+01 2.083333e-01 -7.209744e-02 1.264054e+00 -3.466064e+00 4.089355e+00
3.858398e+01 2.083333e-01 -7.170591e-02 1.264356e+00 -3.450684e+00 4.089355e+00
3.848486e+01 2.031250e-01 -7.224935e-02 1.264782e+00 -3.464355e+00 4.088379e+00
3.867261e+01 2.083333e-01 -7.166070e-02 1.265465e+00 -3.456543e+00 4.091797e+00
4.223560e+01 2.083333e-01 -7.204138e-02 1.266202e+00 -3.489990e+00 4.101074e+00
4.084741e+01 2.031250e-01 -7.209834e-02 1.266103e+00 -3.486084e+00 4.101562e+00
3.757495e+01 2.187500e-01 -7.245009e-02 1.266589e+00 -3.477051e+00 4.093994e+00
3.989600e+01 2.083333e-01 -7.194463e-02 1.266976e+00 -3.470215e+00 4.100342e+00
3.832935e+01 2.083333e-01 -7.205765e-02 1.267743e+00 -3.465820e+00 4.095703e+00
3.871802e+01 2.031250e-01 -7.205404e-02 1.268282e+00 -3.469971e+00 4.099121e+00
3.873193e+01 2.031250e-01 -7.135507e-02 1.268915e+00 -3.466064e+00 4.101562e+00
3.879517e+01 2.083333e-01 -7.177554e-02 1.269282e+00 -3.469482e+00 4.100342e+00
3.808960e+01 2.135417e-01 -7.138310e-02 1.269578e+00 -3.470215e+00 4.102539e+00
4.219922e+01 2.031250e-01 -7.133337e-02 1.270203e+00 -3.498779e+00 4.114746e+00
3.902271e+01 2.083333e-01 -7.107024e-02 1.271037e+00 -3.472656e+00 4.108398e+00
3.776636e+01 2.031250e-01 -7.141475e-02 1.271554e+00 -3.482910e+00 4.109131e+00
3.886646e+01 2.083333e-01 -7.126555e-02 1.271644e+00 -3.473633e+00 4.108154e+00
3.771680e+01 2.135417e-01 -7.148528e-02 1.272015e+00 -3.480225e+00 4.106689e+00
3.786377e+01 2.083333e-01 -7.088397e-02 1.272611e+00 -3.484375e+00 4.114990e+00
3.867920e+01 2.083333e-01 -7.071307e-02 1.273014e+00 -3.468262e+00 4.113281e+00
3.885303e+01 2.135417e-01 -7.058829e-02 1.273663e+00 -3.471680e+00 4.114746e+00
3.863086e+01 2.135417e-01 -7.082429e-02 1.274041e+00 -3.479736e+00 4.115479e+00
3.775586e+01 2.135417e-01 -7.078993e-02 1.274848e+00 -3.481934e+00 4.115723e+00
3.849927e+01 2.135417e-01 -7.045085e-02 1.274906e+00 -3.474609e+00 4.117676e+00
3.801318e+01 2.083333e-01 -7.019586e-02 1.275365e+00 -3.493408e+00 4.125244e+00
3.915137e+01 2.135417e-01 -7.015426e-02 1.275920e+00 -3.477295e+00 4.122559e+00
3.768359e+01 2.083333e-01 -7.026458e-02 1.276349e+00 -3.489258e+00 4.123047e+00
3.769043e+01 2.135417e-01 -6.998879e-02 1.276948e+00 -3.481934e+00 4.125000e+00
3.953467e+01 2.187500e-01 -6.976997e-02 1.277442e+00 -3.478760e+00 4.127930e+00
3.772974e+01 2.031250e-01 -7.029622e-02 1.277983e+00 -3.498047e+00 4.127930e+00
4.120630e+01 2.135417e-01 -6.965784e-02 1.278412e+00 -3.495117e+00 4.136963e+00
3.941992e+01 2.187500e-01 -7.010995e-02 1.279019e+00 -3.500732e+00 4.134766e+00
3.769995e+01 2.031250e-01 -7.017054e-02 1.279219e+00 -3.497803e+00 4.132080e+00
3.746191e+01 2.187500e-01 -7.005841e-02 1.279725e+00 -3.511719e+00 4.140381e+00
3.757959e+01 2.083333e-01 -7.021032e-02 1.279465e+00 -3.493408e+00 4.135254e+00
3.872485e+01 2.135417e-01 -6.993363e-02 1.280409e+00 -3.487793e+00 4.136719e+00
3.759424e+01 2.031250e-01 -6.983688e-02 1.280788e+00 -3.503174e+00 4.141113e+00
3.891162e+01 2.187500e-01 -6.966779e-02 1.281278e+00 -3.491211e+00 4.140625e+00
4.075586e+01 2.083333e-01 -6.965422e-02 1.282086e+00 -3.513916e+00 4.147705e+00
3.897437e+01 2.187500e-01 -6.955114e-02 1.282213e+00 -3.496094e+00 4.143799e+00
3.767725e+01 2.083333e-01 -6.996889e-02 1.282325e+00 -3.506836e+00 4.142090e+00
3.755933e+01 2.135417e-01 -6.977539e-02 1.283119e+00 -3.496094e+00 4.143799e+00
3.911060e+01 2.135417e-01 -6.942817e-02 1.283504e+00 -3.501709e+00 4.150391e+00
3.758838e+01 2.135417e-01 -6.922381e-02 1.284207e+00 -3.503906e+00 4.150879e+00
3.765356e+01 2.083333e-01 -6.972295e-02 1.284328e+00 -3.505615e+00 4.148682e+00
3.879199e+01 2.135417e-01 -6.923828e-02 1.284789e+00 -3.496338e+00 4.150635e+00
3.872925e+01 2.135417e-01 -6.886303e-02 1.285326e+00 -3.493896e+00 4.151123e+00
3.971631e+01 2.135417e-01 -6.907371e-02 1.285502e+00 -3.512451e+00 4.156738e+00
3.715283e+01 1.979167e-01 -6.892904e-02 1.286257e+00 -3.521729e+00 4.158203e+00
3.859253e+01 2.135417e-01 -6.848506e-02 1.286186e+00 -3.495361e+00 4.156006e+00
3.871948e+01 2.187500e-01 -6.870750e-02 1.286816e+00 -3.499268e+00 4.156250e+00
3.972827e+01 2.135417e-01 -6.844076e-02 1.287103e+00 -3.511475e+00 4.162354e+00
3.990796e+01 2.135417e-01 -6.834943e-02 1.287835e+00 -3.518555e+00 4.165283e+00
3.823438e+01 2.135417e-01 -6.842900e-02 1.288161e+00 -3.510254e+00 4.159424e+00
3.786279e+01 2.135417e-01 -6.797779e-02 1.288931e+00 -3.515625e+00 4.167480e+00
3.891162e+01 2.083333e-01 -6.800854e-02 1.289418e+00 -3.506592e+00 4.166992e+00
3.751099e+01 2.031250e-01 -6.806731e-02 1.289294e+00 -3.518311e+00 4.166992e+00
3.857080e+01 2.187500e-01 -6.738372e-02 1.290172e+00 -3.509033e+00 4.169922e+00
3.884595e+01 2.135417e-01 -6.782227e-02 1.290311e+00 -3.515137e+00 4.168701e+00
3.962988e+01 2.135417e-01 -6.746419e-02 1.290564e+00 -3.522705e+00 4.172852e+00
3.780664e+01 2.239583e-01 -6.736111e-02 1.291712e+00 -3.540771e+00 4.179443e+00
3.908228e+01 2.083333e-01 -6.701931e-02 1.291613e+00 -3.508301e+00 4.173828e+00
3.912109e+01 2.135417e-01 -6.714681e-02 1.292236e+00 -3.517578e+00 4.176270e+00
3.877173e+01 2.135417e-01 -6.776711e-02 1.292450e+00 -3.527588e+00 4.174316e+00
4.017529e+01 2.135417e-01 -6.713686e-02 1.293075e+00 -3.533691e+00 4.181396e+00
3.942017e+01 2.187500e-01 -6.721915e-02 1.293616e+00 -3.531494e+00 4.180176e+00
3.826538e+01 2.083333e-01 -6.723000e-02 1.294097e+00 -3.530518e+00 4.178711e+00
3.805249e+01 2.083333e-01 -6.718117e-02 1.294428e+00 -3.531494e+00 4.179932e+00
3.796484e+01 2.083333e-01 -6.688911e-02 1.294834e+00 -3.534912e+00 4.184082e+00
3.908032e+01 2.083333e-01 -6.680682e-02 1.295465e+00 -3.524170e+00 4.183594e+00
4.067285e+01 2.135417e-01 -6.636194e-02 1.296087e+00 -3.537354e+00 4.192383e+00
3.928442e+01 2.135417e-01 -6.704825e-02 1.296214e+00 -3.545166e+00 4.191406e+00
3.917310e+01 2.083333e-01 -6.655273e-02 1.296778e+00 -3.538086e+00 4.193848e+00
3.703638e+01 2.083333e-01 -6.636737e-02 1.297199e+00 -3.549072e+00 4.197510e+00
3.795264e+01 1.979167e-01 -6.596589e-02 1.297642e+00 -3.539062e+00 4.199463e+00
3.743359e+01 2.135417e-01 -6.643699e-02 1.298297e+00 -3.555908e+00 4.201416e+00
3.916406e+01 2.135417e-01 -6.594781e-02 1.298659e+00 -3.523438e+00 4.197754e+00
3.745410e+01 2.135417e-01 -6.658709e-02 1.298983e+00 -3.560303e+00 4.202148e+00
3.892285e+01 2.135417e-01 -6.642433e-02 1.299679e+00 -3.537354e+00 4.202148e+00
3.851196e+01 2.083333e-01 -6.618381e-02 1.299830e+00 -3.535156e+00 4.200684e+00
3.921704e+01 2.187500e-01 -6.611961e-02 1.300778e+00 -3.542236e+00 4.205566e+00
3.934521e+01 2.083333e-01 -6.621455e-02 1.301310e+00 -3.540283e+00 4.203125e+00
3.928613e+01 2.187500e-01 -6.570005e-02 1.302015e+00 -3.543457e+00 4.207031e+00
3.813135e+01 2.083333e-01 -6.604999e-02 1.302251e+00 -3.551025e+00 4.205566e+00
3.933008e+01 2.083333e-01 -6.548846e-02 1.302851e+00 -3.538818e+00 4.207520e+00
3.855371e+01 2.031250e-01 -6.589898e-02 1.303149e+00 -3.546875e+00 4.208008e+00
3.802588e+01 2.083333e-01 -6.555899e-02 1.303664e+00 -3.552490e+00 4.211426e+00
3.751831e+01 2.083333e-01 -6.544958e-02 1.304260e+00 -3.564697e+00 4.217041e+00
3.883667e+01 2.083333e-01 -6.570548e-02 1.304889e+00 -3.549561e+00 4.213135e+00
3.967236e+01 2.187500e-01 -6.513039e-02 1.305400e+00 -3.551025e+00 4.218262e+00
3.970923e+01 2.187500e-01 -6.513310e-02 1.305748e+00 -3.561035e+00 4.220703e+00
4.020190e+01 2.083333e-01 -6.494774e-02 1.306148e+00 -3.561768e+00 4.224854e+00
3.864038e+01 2.083333e-01 -6.568468e-02 1.306269e+00 -3.561523e+00 4.219482e+00
3.789966e+01 2.031250e-01 -6.523166e-02 1.307134e+00 -3.560791e+00 4.221680e+00
3.859351e+01 2.083333e-01 -6.480577e-02 1.307572e+00 -3.553467e+00 4.224121e+00
3.988452e+01 2.187500e-01 -6.493779e-02 1.308126e+00 -3.567383e+00 4.229736e+00
3.850293e+01 2.031250e-01 -6.469365e-02 1.308906e+00 -3.561523e+00 4.228271e+00
3.970459e+01 2.187500e-01 -6.499114e-02 1.308765e+00 -3.574707e+00 4.231689e+00
3.868677e+01 2.031250e-01 -6.494050e-02 1.309712e+00 -3.565186e+00 4.226562e+00
3.847583e+01 2.083333e-01 -6.498662e-02 1.310142e+00 -3.568359e+00 4.227539e+00
3.880469e+01 2.031250e-01 -6.449110e-02 1.310923e+00 -3.566895e+00 4.231201e+00
3.860376e+01 2.083333e-01 -6.447483e-02 1.311351e+00 -3.563965e+00 4.232910e+00
3.866895e+01 2.083333e-01 -6.426957e-02 1.311954e+00 -3.568848e+00 4.236084e+00
3.897144e+01 2.083333e-01 -6.468913e-02 1.312545e+00 -3.571777e+00 4.234375e+00
3.814990e+01 2.135417e-01 -6.424154e-02 1.313172e+00 -3.580322e+00 4.239258e+00
3.892383e+01 2.083333e-01 -6.374060e-02 1.313612e+00 -3.568359e+00 4.240234e+00
3.859277e+01 2.083333e-01 -6.371889e-02 1.314231e+00 -3.570068e+00 4.241943e+00
3.885742e+01 2.031250e-01 -6.409053e-02 1.314579e+00 -3.578613e+00 4.240479e+00
3.811133e+01 2.083333e-01 -6.370533e-02 1.314888e+00 -3.589600e+00 4.248535e+00
3.731323e+01 2.083333e-01 -6.421441e-02 1.315193e+00 -3.607422e+00 4.249756e+00
3.836963e+01 2.031250e-01 -6.396032e-02 1.315968e+00 -3.586182e+00 4.247803e+00
3.816284e+01 2.083333e-01 -6.420537e-02 1.316210e+00 -3.594482e+00 4.248047e+00
3.913281e+01 2.135417e-01 -6.368815e-02 1.317052e+00 -3.588135e+00 4.252441e+00
3.852026e+01 2.135417e-01 -6.371437e-02 1.317505e+00 -3.590332e+00 4.252441e+00
3.855688e+01 2.135417e-01 -6.376411e-02 1.318109e+00 -3.595215e+00 4.254150e+00
3.847583e+01 2.135417e-01 -6.305700e-02 1.318600e+00 -3.585205e+00 4.255615e+00
3.838306e+01 2.083333e-01 -6.354348e-02 1.318982e+00 -3.594238e+00 4.255859e+00
3.915625e+01 2.083333e-01 -6.334093e-02 1.319594e+00 -3.600342e+00 4.260254e+00
3.839014e+01 2.083333e-01 -6.341055e-02 1.319849e+00 -3.600098e+00 4.257324e+00
3.782129e+01 2.239583e-01 -6.350279e-02 1.320685e+00 -3.611816e+00 4.261963e+00
3.757520e+01 2.083333e-01 -6.329300e-02 1.321128e+00 -3.620605e+00 4.270020e+00
3.894580e+01 2.083333e-01 -6.322609e-02 1.321444e+00 -3.599121e+00 4.266357e+00
3.810156e+01 2.135417e-01 -6.366102e-02 1.321873e+00 -3.608887e+00 4.262695e+00
3.797729e+01 2.187500e-01 -6.351183e-02 1.322829e+00 -3.619385e+00 4.270264e+00
3.803369e+01 2.031250e-01 -6.358326e-02 1.322992e+00 -3.605713e+00 4.266602e+00
3.808374e+01 2.031250e-01 -6.295754e-02 1.323546e+00 -3.607178e+00 4.271973e+00
3.956494e+01 2.031250e-01 -6.309227e-02 1.324070e+00 -3.617676e+00 4.277588e+00
3.986987e+01 2.083333e-01 -6.274957e-02 1.324786e+00 -3.622314e+00 4.279541e+00
3.882397e+01 2.031250e-01 -6.343497e-02 1.325348e+00 -3.624756e+00 4.278076e+00
3.772485e+01 2.083333e-01 -6.324599e-02 1.325563e+00 -3.622803e+00 4.278809e+00
4.011670e+01 2.135417e-01 -6.249819e-02 1.326416e+00 -3.617188e+00 4.284668e+00
4.321484e+01 2.239583e-01 -6.331290e-02 1.326542e+00 -3.655029e+00 4.293457e+00
3.767163e+01 2.083333e-01 -6.419633e-02 1.326903e+00 -3.637207e+00 4.280273e+00
3.976221e+01 1.979167e-01 -6.317546e-02 1.327616e+00 -3.625732e+00 4.289062e+00
4.011865e+01 1.979167e-01 -6.354528e-02 1.328079e+00 -3.639160e+00 4.291504e+00
3.711377e+01 2.135417e-01 -6.398926e-02 1.328986e+00 -3.650879e+00 4.290771e+00
3.800244e+01 1.979167e-01 -6.372613e-02 1.329145e+00 -3.625000e+00 4.289795e+00
3.803711e+01 1.979167e-01 -6.367549e-02 1.330019e+00 -3.638428e+00 4.290283e+00
3.842065e+01 2.083333e-01 -6.332375e-02 1.330536e+00 -3.627930e+00 4.292480e+00
3.860449e+01 2.083333e-01 -6.392325e-02 1.330899e+00 -3.637451e+00 4.292969e+00
3.837524e+01 2.031250e-01 -6.316189e-02 1.331804e+00 -3.634521e+00 4.296387e+00
3.837500e+01 2.083333e-01 -6.301089e-02 1.332111e+00 -3.634766e+00 4.297607e+00
3.728540e+01 2.083333e-01 -6.361672e-02 1.332359e+00 -3.654785e+00 4.297852e+00
3.749902e+01 2.239583e-01 -6.329029e-02 1.333061e+00 -3.665283e+00 4.307617e+00
3.745093e+01 2.187500e-01 -6.349374e-02 1.333178e+00 -3.666992e+00 4.308105e+00
3.823291e+01 2.031250e-01 -6.376049e-02 1.333655e+00 -3.649170e+00 4.303467e+00
3.851318e+01 2.031250e-01 -6.379123e-02 1.334116e+00 -3.650146e+00 4.303223e+00
4.149170e+01 2.187500e-01 -6.369719e-02 1.334693e+00 -3.675781e+00 4.313721e+00
3.748535e+01 2.083333e-01 -6.416739e-02 1.335398e+00 -3.662842e+00 4.304443e+00
