1.020229e+02 4.217391e-01 -2.128867e-02 5.704643e-01 -9.990234e-01 9.968262e-01
6.718188e+01 3.913043e-01 -2.486346e-02 5.657510e-01 -1.081299e+00 1.051758e+00
6.718188e+01 3.913043e-01 -2.442504e-02 5.653389e-01 -1.071533e+00 1.051758e+00
6.534521e+01 3.521739e-01 -2.363733e-02 5.658521e-01 -1.040039e+00 1.148926e+00
6.578345e+01 3.478261e-01 -2.332253e-02 5.666461e-01 -1.041748e+00 1.148926e+00
6.487891e+01 3.217391e-01 -2.342639e-02 5.674036e-01 -1.066650e+00 1.190186e+00
6.487891e+01 3.217391e-01 -2.373977e-02 5.677809e-01 -1.066650e+00 1.190186e+00
6.479077e+01 4.130435e-01 -2.247347e-02 5.695913e-01 -1.088379e+00 1.329834e+00
6.465356e+01 4.130435e-01 -1.820178e-02 5.767344e-01 -1.095215e+00 1.329834e+00
5.520532e+01 2.304348e-01 -1.957969e-02 5.808434e-01 -1.223389e+00 1.655029e+00
5.380811e+01 2.217391e-01 -2.304003e-02 5.968227e-01 -1.230957e+00 1.655029e+00
4.379614e+01 2.130435e-01 -4.897771e-02 6.228620e-01 -1.526123e+00 1.618408e+00
4.045435e+01 1.956522e-01 -5.177771e-02 6.302860e-01 -1.511963e+00 1.628174e+00
3.753833e+01 1.956522e-01 -5.116748e-02 6.324304e-01 -1.516846e+00 1.655518e+00
3.746875e+01 1.869565e-01 -5.108016e-02 6.332098e-01 -1.516846e+00 1.664795e+00
3.872485e+01 1.913043e-01 -5.061591e-02 6.341648e-01 -1.510742e+00 1.683105e+00
4.039819e+01 2.086957e-01 -5.082452e-02 6.346445e-01 -1.540527e+00 1.691895e+00
4.253540e+01 2.086957e-01 -5.121308e-02 6.347811e-01 -1.538330e+00 1.691895e+00
4.753711e+01 2.304348e-01 -4.810332e-02 6.616305e-01 -1.573486e+00 1.839111e+00
4.605420e+01 2.304348e-01 -4.810436e-02 6.667908e-01 -1.557617e+00 1.839111e+00
4.127661e+01 1.913043e-01 -4.828146e-02 6.658358e-01 -1.561279e+00 1.835449e+00
3.857422e+01 1.695652e-01 -4.911554e-02 6.646328e-01 -1.567383e+00 1.828857e+00
4.148901e+01 1.826087e-01 -4.916114e-02 6.639647e-01 -1.571777e+00 1.828125e+00
4.453345e+01 1.913043e-01 -5.419728e-02 6.684955e-01 -1.685547e+00 1.841797e+00
4.419604e+01 2.043478e-01 -5.588650e-02 6.694080e-01 -1.685547e+00 1.774658e+00
4.420093e+01 2.000000e-01 -5.750377e-02 6.677797e-01 -1.680176e+00 1.755127e+00
4.420093e+01 2.000000e-01 -5.836963e-02 6.669060e-01 -1.674805e+00 1.716309e+00
4.421045e+01 1.956522e-01 -5.827585e-02 6.669966e-01 -1.685303e+00 1.733643e+00
4.421045e+01 1.956522e-01 -5.813518e-02 6.671325e-01 -1.685303e+00 1.733643e+00
4.593311e+01 2.130435e-01 -5.676063e-02 6.677452e-01 -1.707764e+00 1.776611e+00
4.362598e+01 2.086957e-01 -5.718716e-02 6.666162e-01 -1.694824e+00 1.765869e+00
4.114893e+01 2.086957e-01 -5.876504e-02 6.646171e-01 -1.689697e+00 1.697510e+00
4.114893e+01 2.086957e-01 -5.955740e-02 6.640181e-01 -1.689697e+00 1.672607e+00
4.114893e+01 2.086957e-01 -5.955740e-02 6.640181e-01 -1.689697e+00 1.672607e+00
4.195190e+01 2.217391e-01 -5.958039e-02 6.637905e-01 -1.689697e+00 1.672607e+00
4.213037e+01 2.260870e-01 -6.039768e-02 6.632363e-01 -1.691895e+00 1.669678e+00
4.352222e+01 2.217391e-01 -6.057646e-02 6.632969e-01 -1.702881e+00 1.651611e+00
4.530981e+01 2.391304e-01 -4.133908e-02 6.746503e-01 -1.828857e+00 2.171875e+00
4.288257e+01 2.043478e-01 -4.664197e-02 6.764509e-01 -1.828857e+00 2.172119e+00
4.064331e+01 1.956522e-01 -4.932183e-02 6.781074e-01 -1.822266e+00 2.171631e+00
4.149854e+01 1.956522e-01 -5.026390e-02 6.796587e-01 -1.812744e+00 2.170166e+00
4.294043e+01 2.086957e-01 -5.081884e-02 6.806635e-01 -1.810059e+00 2.164551e+00
4.043433e+01 1.826087e-01 -5.114862e-02 6.807968e-01 -1.808105e+00 2.162598e+00
4.181885e+01 2.086957e-01 -5.213332e-02 6.809201e-01 -1.807373e+00 2.159668e+00
4.155664e+01 2.043478e-01 -5.245264e-02 6.812231e-01 -1.804932e+00 2.159180e+00
4.004395e+01 2.000000e-01 -5.261644e-02 6.825313e-01 -1.798340e+00 2.158691e+00
4.061426e+01 2.000000e-01 -5.407017e-02 6.838829e-01 -1.797852e+00 2.157471e+00
4.178882e+01 2.086957e-01 -5.491356e-02 6.831936e-01 -1.792480e+00 2.156006e+00
4.329175e+01 2.304348e-01 -5.524011e-02 6.829335e-01 -1.792480e+00 2.155762e+00
4.329175e+01 2.304348e-01 -5.592112e-02 6.822945e-01 -1.789307e+00 2.155762e+00
4.187207e+01 2.173913e-01 -5.590562e-02 6.832735e-01 -1.789062e+00 2.155029e+00
4.187207e+01 2.173913e-01 -5.590562e-02 6.832735e-01 -1.789062e+00 2.155029e+00
4.123975e+01 2.043478e-01 -5.630322e-02 6.825625e-01 -1.798828e+00 2.155029e+00
4.145923e+01 2.173913e-01 -5.682315e-02 6.818921e-01 -1.797119e+00 2.150391e+00
4.104175e+01 2.086957e-01 -5.706961e-02 6.819700e-01 -1.791748e+00 2.150391e+00
4.130054e+01 2.173913e-01 -5.745326e-02 6.829848e-01 -1.794922e+00 2.145508e+00
4.057275e+01 2.043478e-01 -5.726803e-02 6.845609e-01 -1.793945e+00 2.142090e+00
4.192676e+01 2.086957e-01 -5.793754e-02 6.854167e-01 -1.784912e+00 2.136475e+00
4.135620e+01 2.130435e-01 -5.819021e-02 6.858241e-01 -1.785645e+00 2.136475e+00
4.290894e+01 2.347826e-01 -5.780126e-02 6.860868e-01 -1.770752e+00 2.127686e+00
4.098438e+01 2.043478e-01 -5.872486e-02 6.857666e-01 -1.778809e+00 2.126465e+00
4.080518e+01 2.043478e-01 -5.914726e-02 6.862358e-01 -1.781006e+00 2.125732e+00
4.080518e+01 2.043478e-01 -5.914726e-02 6.862358e-01 -1.781006e+00 2.125732e+00
4.037231e+01 2.217391e-01 -5.910347e-02 6.876204e-01 -1.793701e+00 2.129639e+00
4.139404e+01 2.086957e-01 -5.923807e-02 6.890420e-01 -1.793701e+00 2.129639e+00
4.139404e+01 2.086957e-01 -5.909301e-02 6.896342e-01 -1.787598e+00 2.125244e+00
4.139404e+01 2.086957e-01 -5.909301e-02 6.896342e-01 -1.787598e+00 2.125244e+00
4.146973e+01 2.086957e-01 -5.913280e-02 6.895219e-01 -1.792969e+00 2.125244e+00
4.021387e+01 2.043478e-01 -5.994169e-02 6.882978e-01 -1.792236e+00 2.121338e+00
3.948218e+01 2.086957e-01 -6.043411e-02 6.880984e-01 -1.792480e+00 2.121338e+00
4.104614e+01 2.217391e-01 -6.120696e-02 6.874158e-01 -1.802979e+00 2.118652e+00
4.122852e+01 2.260870e-01 -6.147332e-02 6.867680e-01 -1.810547e+00 2.117676e+00
3.858813e+01 1.956522e-01 -6.128834e-02 6.865164e-01 -1.790527e+00 2.113037e+00
3.916724e+01 2.043478e-01 -6.238465e-02 6.863882e-01 -1.815186e+00 2.111084e+00
3.840796e+01 1.869565e-01 -6.223803e-02 6.867437e-01 -1.815186e+00 2.107910e+00
4.059985e+01 2.173913e-01 -6.138767e-02 6.884540e-01 -1.814697e+00 2.104736e+00
4.059985e+01 2.173913e-01 -6.093634e-02 6.893069e-01 -1.812256e+00 2.103027e+00
4.000439e+01 2.260870e-01 -6.168749e-02 6.881934e-01 -1.814941e+00 2.102783e+00
4.086401e+01 2.304348e-01 -6.210808e-02 6.886009e-01 -1.814941e+00 2.102783e+00
3.858496e+01 2.000000e-01 -6.241991e-02 6.888419e-01 -1.811523e+00 2.091797e+00
3.887695e+01 2.043478e-01 -6.223700e-02 6.887170e-01 -1.800537e+00 2.088135e+00
3.895459e+01 2.086957e-01 -6.236630e-02 6.890359e-01 -1.798828e+00 2.080078e+00
4.008105e+01 2.217391e-01 -6.298944e-02 6.885370e-01 -1.811035e+00 2.081055e+00
3.909570e+01 2.130435e-01 -6.306230e-02 6.891237e-01 -1.818115e+00 2.078857e+00
3.890625e+01 2.000000e-01 -6.310983e-02 6.895840e-01 -1.819092e+00 2.075439e+00
3.956006e+01 2.173913e-01 -6.416700e-02 6.892519e-01 -1.823486e+00 2.073730e+00
3.969727e+01 2.173913e-01 -6.376966e-02 6.900249e-01 -1.819824e+00 2.069092e+00
4.069409e+01 2.173913e-01 -6.453050e-02 6.906174e-01 -1.823242e+00 2.063721e+00
3.920142e+01 2.130435e-01 -6.468758e-02 6.907421e-01 -1.823242e+00 2.063232e+00
3.965869e+01 2.043478e-01 -6.399468e-02 6.902312e-01 -1.819824e+00 2.061523e+00
3.965869e+01 2.043478e-01 -6.355859e-02 6.899387e-01 -1.815186e+00 2.060791e+00
4.016992e+01 2.173913e-01 -6.384084e-02 6.899376e-01 -1.808105e+00 2.056396e+00
4.097900e+01 2.260870e-01 -6.436554e-02 6.897453e-01 -1.832031e+00 2.055420e+00
3.922607e+01 2.086957e-01 -6.432602e-02 6.897461e-01 -1.832031e+00 2.053711e+00
3.952930e+01 2.173913e-01 -6.535993e-02 6.893580e-01 -1.819580e+00 2.051514e+00
3.927637e+01 2.000000e-01 -6.615475e-02 6.892517e-01 -1.816650e+00 2.050537e+00
3.956763e+01 2.086957e-01 -6.620525e-02 6.895888e-01 -1.816406e+00 2.050293e+00
3.956763e+01 2.086957e-01 -6.615436e-02 6.897934e-01 -1.814941e+00 2.048340e+00
3.989209e+01 2.173913e-01 -6.591629e-02 6.904096e-01 -1.823486e+00 2.048096e+00
3.839697e+01 2.043478e-01 -6.622398e-02 6.907517e-01 -1.832764e+00 2.041260e+00
4.060962e+01 2.173913e-01 -6.660402e-02 6.913259e-01 -1.838867e+00 2.031006e+00
4.060962e+01 2.173913e-01 -6.665362e-02 6.915235e-01 -1.838867e+00 2.029785e+00
3.899951e+01 1.956522e-01 -6.744585e-02 6.909575e-01 -1.833008e+00 2.030518e+00
3.823535e+01 2.043478e-01 -6.761378e-02 6.911442e-01 -1.837646e+00 2.030518e+00
3.780737e+01 1.913043e-01 -6.856347e-02 6.909539e-01 -1.838623e+00 2.029297e+00
3.950586e+01 2.173913e-01 -6.857975e-02 6.910608e-01 -1.851318e+00 2.029053e+00
3.950586e+01 2.173913e-01 -6.823149e-02 6.912953e-01 -1.851318e+00 2.024170e+00
3.926074e+01 2.130435e-01 -6.789564e-02 6.916862e-01 -1.850830e+00 2.023193e+00
4.030762e+01 2.260870e-01 -6.823278e-02 6.917558e-01 -1.855713e+00 2.021973e+00
3.827148e+01 2.000000e-01 -6.714487e-02 6.923244e-01 -1.850586e+00 2.015381e+00
3.994238e+01 2.217391e-01 -6.637564e-02 6.930783e-01 -1.848877e+00 2.009766e+00
3.934790e+01 2.217391e-01 -6.619221e-02 6.935417e-01 -1.845459e+00 2.008545e+00
3.963086e+01 1.913043e-01 -6.618006e-02 6.939613e-01 -1.833740e+00 2.002930e+00
3.836108e+01 2.043478e-01 -6.625731e-02 6.945426e-01 -1.836914e+00 1.998535e+00
3.846631e+01 2.260870e-01 -6.666680e-02 6.948734e-01 -1.841553e+00 1.992188e+00
3.846631e+01 2.260870e-01 -6.696106e-02 6.948723e-01 -1.841553e+00 1.991211e+00
3.795386e+01 2.043478e-01 -6.679222e-02 6.949102e-01 -1.841553e+00 1.986816e+00
3.721362e+01 2.086957e-01 -6.649900e-02 6.957552e-01 -1.841553e+00 1.981445e+00
3.860498e+01 2.130435e-01 -6.579848e-02 6.970491e-01 -1.840576e+00 1.979736e+00
3.860498e+01 2.130435e-01 -6.555047e-02 6.974791e-01 -1.840576e+00 1.979492e+00
3.947095e+01 2.217391e-01 -6.703830e-02 6.962283e-01 -1.851807e+00 1.977051e+00
3.931885e+01 2.130435e-01 -6.700627e-02 6.964780e-01 -1.850586e+00 1.971191e+00
3.891797e+01 2.086957e-01 -6.679403e-02 6.978276e-01 -1.843994e+00 1.961914e+00
3.979810e+01 2.260870e-01 -6.763716e-02 6.986456e-01 -1.851562e+00 1.959717e+00
3.979810e+01 2.260870e-01 -6.780199e-02 6.989567e-01 -1.851074e+00 1.958008e+00
4.117432e+01 2.260870e-01 -6.707124e-02 6.997750e-01 -1.858887e+00 1.957764e+00
3.898438e+01 2.043478e-01 -6.620215e-02 7.002802e-01 -1.845459e+00 1.956055e+00
4.106128e+01 2.260870e-01 -6.742492e-02 7.006052e-01 -1.861572e+00 1.958740e+00
4.094385e+01 2.173913e-01 -6.673758e-02 7.021390e-01 -1.862305e+00 1.960449e+00
4.094385e+01 2.173913e-01 -6.657741e-02 7.024481e-01 -1.862305e+00 1.960449e+00
4.000757e+01 2.130435e-01 -6.608577e-02 7.032555e-01 -1.860596e+00 1.958984e+00
4.115332e+01 2.217391e-01 -6.627436e-02 7.030657e-01 -1.864014e+00 1.957764e+00
3.997095e+01 2.173913e-01 -6.696584e-02 7.023728e-01 -1.864014e+00 1.956055e+00
4.035645e+01 2.130435e-01 -6.671524e-02 7.027155e-01 -1.866699e+00 1.950684e+00
3.945898e+01 2.000000e-01 -6.665504e-02 7.031612e-01 -1.866699e+00 1.945312e+00
3.873413e+01 2.043478e-01 -6.779178e-02 7.033720e-01 -1.871338e+00 1.940918e+00
3.994067e+01 2.130435e-01 -6.952247e-02 7.019463e-01 -1.864746e+00 1.933350e+00
3.962256e+01 2.086957e-01 -6.915509e-02 7.023669e-01 -1.872559e+00 1.930176e+00
4.432715e+01 2.086957e-01 -7.209705e-02 7.050701e-01 -1.908691e+00 1.929199e+00
4.432715e+01 2.086957e-01 -7.888455e-02 7.171294e-01 -1.908691e+00 1.927979e+00
4.442505e+01 2.043478e-01 -7.820767e-02 7.172072e-01 -1.908691e+00 1.930664e+00
4.474927e+01 2.217391e-01 -8.008743e-02 7.150187e-01 -1.904053e+00 1.933838e+00
4.458228e+01 2.217391e-01 -8.123682e-02 7.129132e-01 -1.894531e+00 1.932617e+00
4.233081e+01 2.000000e-01 -8.096427e-02 7.125152e-01 -1.906982e+00 1.930420e+00
4.337915e+01 2.217391e-01 -8.064985e-02 7.126392e-01 -1.906982e+00 1.936035e+00
4.337915e+01 2.217391e-01 -7.960405e-02 7.135212e-01 -1.900146e+00 1.936035e+00
4.251270e+01 2.043478e-01 -8.048076e-02 7.129916e-01 -1.915283e+00 1.933594e+00
4.243384e+01 2.130435e-01 -8.045377e-02 7.137152e-01 -1.905762e+00 1.939209e+00
4.260767e+01 2.043478e-01 -8.045157e-02 7.139432e-01 -1.908447e+00 1.939209e+00
4.087476e+01 1.913043e-01 -8.044511e-02 7.142635e-01 -1.919678e+00 1.935547e+00
4.141699e+01 2.086957e-01 -8.101283e-02 7.144001e-01 -1.912354e+00 1.929688e+00
4.047095e+01 2.043478e-01 -8.127622e-02 7.145584e-01 -1.909668e+00 1.934326e+00
4.021289e+01 1.913043e-01 -8.135825e-02 7.144158e-01 -1.912354e+00 1.934326e+00
4.035864e+01 1.869565e-01 -8.126628e-02 7.142466e-01 -1.916260e+00 1.933838e+00
4.050171e+01 1.956522e-01 -8.125000e-02 7.144022e-01 -1.916260e+00 1.928223e+00
4.050171e+01 1.956522e-01 -8.116319e-02 7.144352e-01 -1.916260e+00 1.925293e+00
4.125244e+01 2.173913e-01 -8.156687e-02 7.140428e-01 -1.913574e+00 1.926514e+00
4.137769e+01 2.130435e-01 -8.145965e-02 7.141125e-01 -1.913330e+00 1.929688e+00
4.137769e+01 2.130435e-01 -8.145965e-02 7.141125e-01 -1.913330e+00 1.929688e+00
4.137769e+01 2.130435e-01 -8.145965e-02 7.141125e-01 -1.913330e+00 1.929688e+00
4.071558e+01 1.956522e-01 -8.242433e-02 7.134135e-01 -1.913330e+00 1.929688e+00
4.142749e+01 2.043478e-01 -8.140695e-02 7.147187e-01 -1.912354e+00 1.926514e+00
4.238965e+01 2.086957e-01 -8.017875e-02 7.159615e-01 -1.914307e+00 1.928711e+00
4.451099e+01 2.000000e-01 -7.000338e-02 7.308373e-01 -1.935059e+00 2.325439e+00
4.521606e+01 2.000000e-01 -6.430767e-02 7.396148e-01 -1.939209e+00 2.325439e+00
4.508203e+01 2.217391e-01 -6.585454e-02 7.388372e-01 -1.940674e+00 2.318115e+00
4.208911e+01 2.173913e-01 -6.703947e-02 7.379821e-01 -1.939453e+00 2.303223e+00
4.259814e+01 2.260870e-01 -6.697798e-02 7.376574e-01 -1.943604e+00 2.284912e+00
4.410303e+01 2.304348e-01 -6.738475e-02 7.372517e-01 -1.955322e+00 2.272217e+00
4.278125e+01 2.043478e-01 -6.899014e-02 7.358028e-01 -1.974121e+00 2.259033e+00
3.975415e+01 2.173913e-01 -6.950193e-02 7.356656e-01 -1.974121e+00 2.251709e+00
4.260596e+01 2.260870e-01 -6.996127e-02 7.353563e-01 -1.960449e+00 2.250977e+00
4.244556e+01 2.304348e-01 -6.925262e-02 7.361149e-01 -1.956055e+00 2.245850e+00
4.120581e+01 2.086957e-01 -7.072353e-02 7.356668e-01 -1.963623e+00 2.239014e+00
4.195947e+01 2.086957e-01 -7.253108e-02 7.347703e-01 -1.966553e+00 2.222900e+00
4.374756e+01 2.173913e-01 -7.222455e-02 7.351792e-01 -1.974121e+00 2.222900e+00
4.338281e+01 2.173913e-01 -7.185872e-02 7.353059e-01 -1.977295e+00 2.210938e+00
4.301050e+01 2.217391e-01 -7.170371e-02 7.354498e-01 -1.978027e+00 2.203125e+00
4.395044e+01 2.347826e-01 -7.149342e-02 7.356944e-01 -1.978027e+00 2.203125e+00
4.395044e+01 2.347826e-01 -7.117797e-02 7.360611e-01 -1.976562e+00 2.201416e+00
4.440332e+01 2.217391e-01 -7.090412e-02 7.357781e-01 -1.985840e+00 2.201416e+00
4.337036e+01 2.304348e-01 -7.131748e-02 7.354949e-01 -1.976562e+00 2.200928e+00
4.228613e+01 2.217391e-01 -7.174983e-02 7.355429e-01 -1.971680e+00 2.199219e+00
4.286011e+01 2.130435e-01 -7.187100e-02 7.356233e-01 -1.973877e+00 2.199463e+00
4.115137e+01 2.130435e-01 -7.243161e-02 7.354570e-01 -1.973877e+00 2.199463e+00
4.120801e+01 2.130435e-01 -7.290892e-02 7.351063e-01 -1.978271e+00 2.186035e+00
3.974268e+01 2.043478e-01 -7.331349e-02 7.350201e-01 -1.978271e+00 2.186035e+00
4.088013e+01 2.173913e-01 -7.370373e-02 7.348302e-01 -1.975586e+00 2.182861e+00
4.030420e+01 2.086957e-01 -7.314737e-02 7.354759e-01 -1.983154e+00 2.180908e+00
4.028540e+01 2.086957e-01 -7.310914e-02 7.356368e-01 -1.983887e+00 2.179443e+00
4.141455e+01 1.869565e-01 -7.289664e-02 7.360481e-01 -1.996094e+00 2.170654e+00
3.906714e+01 2.130435e-01 -7.343091e-02 7.360624e-01 -1.994385e+00 2.167969e+00
3.906714e+01 2.130435e-01 -7.348052e-02 7.360847e-01 -1.994385e+00 2.164551e+00
4.004834e+01 2.000000e-01 -7.341076e-02 7.364041e-01 -1.982666e+00 2.163086e+00
3.950488e+01 2.173913e-01 -7.455138e-02 7.363681e-01 -1.987549e+00 2.165039e+00
3.965576e+01 2.043478e-01 -7.375876e-02 7.373111e-01 -1.989014e+00 2.167480e+00
3.965576e+01 2.043478e-01 -7.354381e-02 7.378244e-01 -1.985840e+00 2.167480e+00
3.940430e+01 2.043478e-01 -7.330949e-02 7.381717e-01 -1.991943e+00 2.167969e+00
3.954126e+01 2.086957e-01 -7.308847e-02 7.387425e-01 -1.989014e+00 2.168701e+00
3.924561e+01 1.956522e-01 -7.357236e-02 7.389689e-01 -1.989990e+00 2.164307e+00
3.924561e+01 1.956522e-01 -7.374791e-02 7.391240e-01 -1.989990e+00 2.159912e+00
3.850073e+01 2.000000e-01 -7.348839e-02 7.393714e-01 -1.994385e+00 2.157227e+00
3.899170e+01 2.086957e-01 -7.255239e-02 7.400687e-01 -1.998047e+00 2.152100e+00
3.981714e+01 2.086957e-01 -7.263054e-02 7.401077e-01 -1.998047e+00 2.152100e+00
3.981714e+01 2.086957e-01 -7.271645e-02 7.401441e-01 -1.995117e+00 2.147461e+00
3.874609e+01 2.043478e-01 -7.345352e-02 7.396719e-01 -2.000488e+00 2.147461e+00
3.968823e+01 2.043478e-01 -7.421255e-02 7.393535e-01 -2.000488e+00 2.153564e+00
3.838330e+01 2.043478e-01 -7.358876e-02 7.398303e-01 -1.999268e+00 2.153564e+00
3.987671e+01 1.956522e-01 -7.356900e-02 7.398431e-01 -1.999268e+00 2.151123e+00
3.921582e+01 2.086957e-01 -7.339293e-02 7.401559e-01 -1.999512e+00 2.149414e+00
3.926538e+01 1.869565e-01 -7.218618e-02 7.415510e-01 -1.992432e+00 2.144287e+00
3.936206e+01 2.043478e-01 -7.278452e-02 7.410204e-01 -1.995117e+00 2.144287e+00
4.122485e+01 2.043478e-01 -7.327448e-02 7.413811e-01 -1.984619e+00 2.143066e+00
3.904688e+01 2.043478e-01 -7.287791e-02 7.416288e-01 -1.988525e+00 2.145996e+00
3.957202e+01 1.913043e-01 -7.328985e-02 7.409933e-01 -1.986328e+00 2.152100e+00
4.093701e+01 2.173913e-01 -7.392681e-02 7.404647e-01 -1.979004e+00 2.155273e+00
3.931299e+01 2.173913e-01 -7.430866e-02 7.403901e-01 -1.992920e+00 2.155273e+00
3.933398e+01 2.000000e-01 -7.409720e-02 7.407893e-01 -1.992920e+00 2.148926e+00
3.751733e+01 2.217391e-01 -7.298771e-02 7.418326e-01 -1.995361e+00 2.149658e+00
3.725439e+01 2.043478e-01 -7.325355e-02 7.414875e-01 -1.997314e+00 2.151855e+00
3.937305e+01 2.000000e-01 -7.751026e-02 7.526620e-01 -2.107910e+00 1.965576e+00
3.886060e+01 2.000000e-01 -7.061270e-02 7.599813e-01 -2.102539e+00 1.937256e+00
3.928271e+01 2.086957e-01 -7.040538e-02 7.599409e-01 -2.103027e+00 1.935791e+00
3.830811e+01 2.000000e-01 -7.019237e-02 7.595902e-01 -2.115967e+00 1.939453e+00
3.942139e+01 2.130435e-01 -7.034738e-02 7.591770e-01 -2.138184e+00 1.939697e+00
3.942139e+01 2.130435e-01 -7.136528e-02 7.583366e-01 -2.138184e+00 1.939697e+00
3.930176e+01 1.956522e-01 -7.130534e-02 7.583543e-01 -2.143311e+00 1.938477e+00
3.923364e+01 1.913043e-01 -7.239247e-02 7.575153e-01 -2.150146e+00 1.951172e+00
3.923364e+01 1.913043e-01 -7.253302e-02 7.573485e-01 -2.150146e+00 1.951172e+00
3.859741e+01 2.000000e-01 -7.246107e-02 7.570668e-01 -2.150146e+00 1.955811e+00
3.845508e+01 2.000000e-01 -7.244905e-02 7.565563e-01 -2.146729e+00 1.958984e+00
3.830591e+01 2.000000e-01 -7.246120e-02 7.561250e-01 -2.144531e+00 1.958984e+00
3.830591e+01 2.000000e-01 -7.172180e-02 7.565070e-01 -2.140381e+00 1.950684e+00
3.811792e+01 2.000000e-01 -7.187784e-02 7.562679e-01 -2.138916e+00 1.953613e+00
3.621948e+01 1.652174e-01 -7.086188e-02 7.571471e-01 -2.145020e+00 1.952637e+00
3.694727e+01 1.869565e-01 -7.036391e-02 7.577641e-01 -2.145020e+00 1.953369e+00
3.658350e+01 1.652174e-01 -7.028550e-02 7.580033e-01 -2.142578e+00 1.953857e+00
3.591602e+01 1.695652e-01 -7.064487e-02 7.579541e-01 -2.142578e+00 1.959961e+00
3.554346e+01 1.782609e-01 -7.035771e-02 7.580531e-01 -2.138672e+00 1.959961e+00
3.554346e+01 1.782609e-01 -7.024275e-02 7.581790e-01 -2.136475e+00 1.958984e+00
3.497900e+01 1.913043e-01 -7.049154e-02 7.581962e-01 -2.147461e+00 1.965088e+00
3.680273e+01 1.826087e-01 -7.160490e-02 7.576314e-01 -2.170654e+00 1.968262e+00
3.680273e+01 1.826087e-01 -7.160490e-02 7.576314e-01 -2.170654e+00 1.968262e+00
3.680273e+01 1.826087e-01 -7.160490e-02 7.576314e-01 -2.170654e+00 1.968262e+00
3.680273e+01 1.826087e-01 -7.160490e-02 7.576314e-01 -2.170654e+00 1.968262e+00
3.497705e+01 1.826087e-01 -7.176701e-02 7.576045e-01 -2.180664e+00 1.967773e+00
3.572729e+01 1.782609e-01 -7.134034e-02 7.578574e-01 -2.180664e+00 1.967773e+00
3.778857e+01 1.782609e-01 -7.223152e-02 7.573770e-01 -2.193604e+00 1.966797e+00
3.778857e+01 1.782609e-01 -7.280041e-02 7.570330e-01 -2.193604e+00 1.966797e+00
3.778857e+01 1.782609e-01 -7.280041e-02 7.570330e-01 -2.193604e+00 1.966797e+00
3.778857e+01 1.782609e-01 -7.280041e-02 7.570330e-01 -2.193604e+00 1.966797e+00
3.661475e+01 1.695652e-01 -7.228229e-02 7.572411e-01 -2.193604e+00 1.966797e+00
3.713013e+01 1.695652e-01 -7.225348e-02 7.569309e-01 -2.179443e+00 1.965576e+00
3.713013e+01 1.695652e-01 -7.246455e-02 7.566316e-01 -2.179443e+00 1.962646e+00
3.713013e+01 1.695652e-01 -7.246455e-02 7.566316e-01 -2.179443e+00 1.962646e+00
3.879907e+01 1.826087e-01 -7.211036e-02 7.565190e-01 -2.165771e+00 1.965576e+00
3.879907e+01 1.826087e-01 -7.206153e-02 7.563713e-01 -2.141357e+00 1.965576e+00
3.879907e+01 1.826087e-01 -7.206153e-02 7.563713e-01 -2.141357e+00 1.965576e+00
3.720850e+01 1.739130e-01 -7.224224e-02 7.561859e-01 -2.133789e+00 1.961670e+00
3.720850e+01 1.739130e-01 -7.241999e-02 7.560632e-01 -2.127930e+00 1.958496e+00
3.720850e+01 1.739130e-01 -7.241999e-02 7.560632e-01 -2.127930e+00 1.958496e+00
3.720850e+01 1.739130e-01 -7.241999e-02 7.560632e-01 -2.127930e+00 1.958496e+00
3.708154e+01 1.695652e-01 -7.245939e-02 7.564849e-01 -2.140137e+00 1.957520e+00
3.708154e+01 1.695652e-01 -7.245939e-02 7.564849e-01 -2.140137e+00 1.957520e+00
3.708154e+01 1.695652e-01 -7.245939e-02 7.564849e-01 -2.140137e+00 1.957520e+00
3.694263e+01 1.739130e-01 -7.304377e-02 7.559750e-01 -2.140137e+00 1.959717e+00
3.694263e+01 1.739130e-01 -7.361292e-02 7.556141e-01 -2.132324e+00 1.959717e+00
3.694263e+01 1.739130e-01 -7.361292e-02 7.556141e-01 -2.132324e+00 1.959717e+00
3.694263e+01 1.739130e-01 -7.361292e-02 7.556141e-01 -2.132324e+00 1.959717e+00
3.694263e+01 1.739130e-01 -7.361292e-02 7.556141e-01 -2.132324e+00 1.959717e+00
3.694263e+01 1.739130e-01 -7.361292e-02 7.556141e-01 -2.132324e+00 1.959717e+00
3.671069e+01 1.739130e-01 -7.359277e-02 7.556221e-01 -2.143555e+00 1.959717e+00
3.700806e+01 1.695652e-01 -7.246662e-02 7.565132e-01 -2.141602e+00 1.956055e+00
3.623047e+01 1.782609e-01 -7.181519e-02 7.573006e-01 -2.150146e+00 1.957031e+00
3.562720e+01 1.869565e-01 -7.121763e-02 7.581293e-01 -2.150146e+00 1.957031e+00
3.608936e+01 1.782609e-01 -7.294922e-02 7.575218e-01 -2.204102e+00 1.953369e+00
3.608936e+01 1.782609e-01 -7.328482e-02 7.574715e-01 -2.204102e+00 1.952637e+00
3.898779e+01 1.739130e-01 -7.199229e-02 7.593374e-01 -2.198486e+00 1.953125e+00
3.576587e+01 1.782609e-01 -7.213593e-02 7.592047e-01 -2.200928e+00 1.952637e+00
3.892773e+01 1.782609e-01 -7.272730e-02 7.589738e-01 -2.213135e+00 1.949219e+00
3.768921e+01 1.782609e-01 -7.227338e-02 7.599697e-01 -2.210205e+00 1.952637e+00
3.730078e+01 1.869565e-01 -7.279912e-02 7.600169e-01 -2.207520e+00 1.952148e+00
3.660889e+01 1.739130e-01 -7.235269e-02 7.600873e-01 -2.207520e+00 1.952148e+00
3.489087e+01 1.695652e-01 -7.328533e-02 7.592444e-01 -2.232910e+00 1.948975e+00
3.577319e+01 1.739130e-01 -7.381547e-02 7.589993e-01 -2.239014e+00 1.948975e+00
3.481592e+01 1.826087e-01 -7.251752e-02 7.604844e-01 -2.229980e+00 1.949707e+00
3.481592e+01 1.826087e-01 -7.214678e-02 7.608247e-01 -2.219238e+00 1.949707e+00
3.655957e+01 1.652174e-01 -7.148102e-02 7.621696e-01 -2.225830e+00 1.951904e+00
3.655957e+01 1.652174e-01 -7.126969e-02 7.624779e-01 -2.219238e+00 1.951904e+00
3.638013e+01 1.695652e-01 -7.123352e-02 7.625361e-01 -2.219238e+00 1.951904e+00
3.552881e+01 1.695652e-01 -7.154250e-02 7.623163e-01 -2.214600e+00 1.950439e+00
3.546167e+01 1.652174e-01 -7.181623e-02 7.623928e-01 -2.219482e+00 1.954102e+00
3.706494e+01 1.565217e-01 -7.159288e-02 7.627971e-01 -2.219482e+00 1.958496e+00
3.689746e+01 1.782609e-01 -7.091859e-02 7.632084e-01 -2.217529e+00 1.958740e+00
5.706323e+01 2.608696e-01 -8.412350e-02 7.725203e-01 -2.346191e+00 1.958008e+00
3.993164e+01 2.000000e-01 -1.027654e-01 7.839339e-01 -2.307129e+00 1.968018e+00
3.993164e+01 2.000000e-01 -1.022407e-01 7.839517e-01 -2.285156e+00 1.968018e+00
3.824683e+01 2.043478e-01 -1.023422e-01 7.834113e-01 -2.285156e+00 1.968018e+00
3.716211e+01 1.826087e-01 -1.012446e-01 7.836996e-01 -2.279541e+00 1.978027e+00
3.705347e+01 1.782609e-01 -1.008289e-01 7.837711e-01 -2.279541e+00 1.978027e+00
3.705347e+01 1.782609e-01 -1.012447e-01 7.832044e-01 -2.267090e+00 1.971436e+00
4.263623e+01 1.913043e-01 -1.062045e-01 7.901766e-01 -2.722412e+00 1.973389e+00
4.153394e+01 1.956522e-01 -1.082959e-01 7.918618e-01 -2.715820e+00 1.975342e+00
4.145972e+01 1.869565e-01 -1.063899e-01 7.936757e-01 -2.696777e+00 1.994141e+00
4.145972e+01 1.869565e-01 -1.050573e-01 7.946619e-01 -2.680176e+00 1.994141e+00
4.110181e+01 1.913043e-01 -1.070834e-01 7.932147e-01 -2.685303e+00 1.974365e+00
4.105737e+01 1.913043e-01 -1.079186e-01 7.927038e-01 -2.683350e+00 1.957520e+00
4.096802e+01 1.782609e-01 -1.045812e-01 8.031000e-01 -2.676025e+00 2.007568e+00
3.927368e+01 1.826087e-01 -1.044108e-01 8.038219e-01 -2.572754e+00 1.997314e+00
4.013110e+01 1.826087e-01 -1.050507e-01 8.026393e-01 -2.577637e+00 1.998779e+00
3.955688e+01 2.000000e-01 -1.041605e-01 8.014522e-01 -2.566162e+00 2.002686e+00
3.869653e+01 2.000000e-01 -1.030669e-01 8.014171e-01 -2.564941e+00 2.005127e+00
3.861304e+01 2.086957e-01 -1.028424e-01 8.011618e-01 -2.557129e+00 2.010254e+00
3.861108e+01 2.043478e-01 -1.031798e-01 8.007656e-01 -2.562744e+00 2.011963e+00
3.840576e+01 2.000000e-01 -1.032180e-01 8.007762e-01 -2.565430e+00 2.014893e+00
3.839990e+01 1.913043e-01 -1.025569e-01 8.011632e-01 -2.563232e+00 2.018066e+00
3.940332e+01 1.956522e-01 -1.008895e-01 8.019715e-01 -2.543457e+00 2.020508e+00
3.956274e+01 2.043478e-01 -1.008438e-01 8.023081e-01 -2.543945e+00 2.025879e+00
3.807837e+01 1.956522e-01 -1.011088e-01 8.027753e-01 -2.542969e+00 2.028076e+00
3.823730e+01 1.956522e-01 -1.008359e-01 8.035330e-01 -2.536133e+00 2.028809e+00
3.823730e+01 1.956522e-01 -1.008359e-01 8.035330e-01 -2.536133e+00 2.028809e+00
3.942505e+01 2.043478e-01 -1.009875e-01 8.033266e-01 -2.540771e+00 2.031494e+00
3.878955e+01 1.913043e-01 -1.018432e-01 8.024001e-01 -2.542725e+00 2.033447e+00
3.814551e+01 1.869565e-01 -1.013707e-01 8.027815e-01 -2.536133e+00 2.036621e+00
3.814551e+01 1.869565e-01 -1.013707e-01 8.027815e-01 -2.536133e+00 2.036621e+00
3.907153e+01 1.956522e-01 -1.007552e-01 8.035356e-01 -2.539551e+00 2.038574e+00
3.900098e+01 1.956522e-01 -9.994329e-02 8.044829e-01 -2.527344e+00 2.043945e+00
3.823755e+01 2.000000e-01 -1.010153e-01 8.041650e-01 -2.535400e+00 2.046387e+00
3.911694e+01 1.869565e-01 -1.008381e-01 8.041219e-01 -2.535400e+00 2.049561e+00
3.911694e+01 1.869565e-01 -1.005039e-01 8.042003e-01 -2.534180e+00 2.049561e+00
3.911694e+01 1.869565e-01 -1.005039e-01 8.042003e-01 -2.534180e+00 2.049561e+00
3.852881e+01 1.869565e-01 -1.014979e-01 8.038567e-01 -2.556885e+00 2.054199e+00
3.843652e+01 1.956522e-01 -1.016423e-01 8.038038e-01 -2.556885e+00 2.055176e+00
3.843652e+01 1.956522e-01 -1.013280e-01 8.039080e-01 -2.551758e+00 2.055176e+00
3.843652e+01 1.956522e-01 -1.013280e-01 8.039080e-01 -2.551758e+00 2.055176e+00
3.900732e+01 1.913043e-01 -1.008077e-01 8.043776e-01 -2.551758e+00 2.055176e+00
3.936938e+01 1.956522e-01 -9.958096e-02 8.049396e-01 -2.530518e+00 2.053467e+00
3.996265e+01 1.913043e-01 -1.000944e-01 8.051009e-01 -2.534912e+00 2.054932e+00
3.968774e+01 1.956522e-01 -9.967848e-02 8.054543e-01 -2.541260e+00 2.056396e+00
3.968774e+01 1.956522e-01 -9.967848e-02 8.054543e-01 -2.541260e+00 2.056396e+00
3.968774e+01 1.956522e-01 -9.967848e-02 8.054543e-01 -2.541260e+00 2.056396e+00
3.968774e+01 1.956522e-01 -9.967848e-02 8.054543e-01 -2.541260e+00 2.056396e+00
3.978833e+01 2.000000e-01 -9.986320e-02 8.054475e-01 -2.541016e+00 2.056396e+00
3.970239e+01 1.956522e-01 -9.999173e-02 8.059711e-01 -2.542969e+00 2.056641e+00
3.990747e+01 1.956522e-01 -9.990557e-02 8.062808e-01 -2.535645e+00 2.059570e+00
3.990747e+01 1.956522e-01 -9.997171e-02 8.064360e-01 -2.532227e+00 2.059570e+00
3.847827e+01 1.913043e-01 -1.001655e-01 8.067235e-01 -2.533936e+00 2.062500e+00
3.810913e+01 1.956522e-01 -9.947943e-02 8.068623e-01 -2.522705e+00 2.064697e+00
3.895117e+01 1.913043e-01 -9.896738e-02 8.069307e-01 -2.507324e+00 2.064697e+00
3.811011e+01 1.956522e-01 -9.926654e-02 8.066987e-01 -2.507324e+00 2.068115e+00
3.985986e+01 2.000000e-01 -9.954944e-02 8.065428e-01 -2.514404e+00 2.070312e+00
4.522461e+01 2.260870e-01 -9.519779e-02 8.169765e-01 -2.509766e+00 2.096924e+00
4.172949e+01 2.086957e-01 -9.711888e-02 8.180944e-01 -2.483154e+00 2.104492e+00
4.172949e+01 2.086957e-01 -9.887566e-02 8.168844e-01 -2.483154e+00 2.104492e+00
4.173706e+01 1.956522e-01 -9.963211e-02 8.162584e-01 -2.489258e+00 2.106934e+00
4.140161e+01 2.086957e-01 -9.969076e-02 8.158473e-01 -2.494873e+00 2.108887e+00
4.140161e+01 2.086957e-01 -9.969076e-02 8.158473e-01 -2.494873e+00 2.108887e+00
4.146021e+01 2.000000e-01 -9.968559e-02 8.160181e-01 -2.498779e+00 2.111572e+00
4.095312e+01 2.043478e-01 -1.000725e-01 8.155036e-01 -2.505127e+00 2.111572e+00
4.041138e+01 2.130435e-01 -1.007238e-01 8.146834e-01 -2.505127e+00 2.111572e+00
4.065381e+01 2.130435e-01 -1.003346e-01 8.142081e-01 -2.499756e+00 2.110352e+00
4.067065e+01 2.086957e-01 -1.011349e-01 8.136981e-01 -2.519043e+00 2.112305e+00
3.942310e+01 2.043478e-01 -1.014049e-01 8.135530e-01 -2.525146e+00 2.112305e+00
3.810767e+01 2.130435e-01 -1.017364e-01 8.134089e-01 -2.525146e+00 2.111572e+00
3.810767e+01 2.130435e-01 -1.020366e-01 8.132946e-01 -2.524414e+00 2.111572e+00
3.914673e+01 2.086957e-01 -1.034600e-01 8.125193e-01 -2.537354e+00 2.111084e+00
3.882495e+01 2.086957e-01 -1.141689e-01 8.161224e-01 -2.809326e+00 2.124268e+00
4.276074e+01 1.869565e-01 -1.305566e-01 8.223149e-01 -2.809326e+00 2.162109e+00
4.130615e+01 1.782609e-01 -1.375886e-01 8.261003e-01 -2.719727e+00 2.163086e+00
4.179932e+01 2.000000e-01 -1.353884e-01 8.265965e-01 -2.698486e+00 2.164551e+00
4.043237e+01 1.913043e-01 -1.346952e-01 8.266157e-01 -2.686523e+00 2.167725e+00
4.091431e+01 1.956522e-01 -1.346398e-01 8.264644e-01 -2.686523e+00 2.167969e+00
3.827661e+01 2.000000e-01 -1.357654e-01 8.252650e-01 -2.670166e+00 2.170898e+00
3.842383e+01 2.086957e-01 -1.349161e-01 8.255886e-01 -2.669922e+00 2.172363e+00
3.870361e+01 2.000000e-01 -1.347022e-01 8.256511e-01 -2.669922e+00 2.172363e+00
3.816650e+01 1.869565e-01 -1.335143e-01 8.257422e-01 -2.664307e+00 2.173584e+00
3.816650e+01 1.869565e-01 -1.332782e-01 8.257597e-01 -2.663818e+00 2.173584e+00
3.816650e+01 1.869565e-01 -1.332782e-01 8.257597e-01 -2.663818e+00 2.173584e+00
3.980981e+01 2.130435e-01 -1.330860e-01 8.251066e-01 -2.650391e+00 2.173828e+00
3.980981e+01 2.130435e-01 -1.325625e-01 8.250444e-01 -2.635498e+00 2.173828e+00
3.900464e+01 1.869565e-01 -1.320608e-01 8.254524e-01 -2.635498e+00 2.177734e+00
3.920728e+01 1.869565e-01 -1.307842e-01 8.258405e-01 -2.630615e+00 2.187500e+00
3.920728e+01 1.869565e-01 -1.298234e-01 8.261836e-01 -2.620850e+00 2.187500e+00
3.920728e+01 1.869565e-01 -1.298234e-01 8.261836e-01 -2.620850e+00 2.187500e+00
3.920728e+01 1.869565e-01 -1.298234e-01 8.261836e-01 -2.620850e+00 2.187500e+00
4.098901e+01 2.000000e-01 -1.303274e-01 8.253880e-01 -2.617920e+00 2.186768e+00
4.098901e+01 2.000000e-01 -1.305946e-01 8.250082e-01 -2.617920e+00 2.186279e+00
3.945654e+01 1.956522e-01 -1.303995e-01 8.253017e-01 -2.617920e+00 2.187012e+00
3.998193e+01 1.956522e-01 -1.288895e-01 8.263333e-01 -2.618652e+00 2.189941e+00
4.054541e+01 1.956522e-01 -1.288008e-01 8.261189e-01 -2.614014e+00 2.190186e+00
4.090967e+01 1.956522e-01 -1.292728e-01 8.255314e-01 -2.614014e+00 2.192627e+00
4.060059e+01 1.956522e-01 -1.285129e-01 8.259240e-01 -2.607666e+00 2.192383e+00
4.046460e+01 1.869565e-01 -1.281998e-01 8.260068e-01 -2.602295e+00 2.198730e+00
4.000342e+01 1.826087e-01 -1.285052e-01 8.258579e-01 -2.610840e+00 2.203369e+00
4.063721e+01 1.869565e-01 -1.284444e-01 8.254644e-01 -2.617188e+00 2.207031e+00
4.063721e+01 1.869565e-01 -1.284393e-01 8.254029e-01 -2.617188e+00 2.207031e+00
4.005957e+01 1.826087e-01 -1.289993e-01 8.250944e-01 -2.611328e+00 2.208496e+00
4.109424e+01 1.913043e-01 -1.269277e-01 8.264958e-01 -2.598877e+00 2.214844e+00
4.155176e+01 2.000000e-01 -1.264859e-01 8.267412e-01 -2.589111e+00 2.219971e+00
4.254932e+01 2.086957e-01 -1.268892e-01 8.262952e-01 -2.586426e+00 2.223145e+00
4.250146e+01 2.086957e-01 -1.255349e-01 8.271473e-01 -2.569580e+00 2.226318e+00
4.230469e+01 1.913043e-01 -1.247862e-01 8.279802e-01 -2.581055e+00 2.229248e+00
4.109424e+01 2.086957e-01 -1.263777e-01 8.266972e-01 -2.572998e+00 2.230713e+00
4.206836e+01 2.043478e-01 -1.253112e-01 8.275553e-01 -2.575439e+00 2.231445e+00
4.037256e+01 2.086957e-01 -1.249968e-01 8.277518e-01 -2.571777e+00 2.232666e+00
4.037256e+01 2.086957e-01 -1.249063e-01 8.278424e-01 -2.570312e+00 2.232666e+00
4.117188e+01 2.086957e-01 -1.239627e-01 8.285867e-01 -2.567627e+00 2.233643e+00
4.327441e+01 2.000000e-01 -1.242743e-01 8.285272e-01 -2.569092e+00 2.237305e+00
4.021851e+01 2.173913e-01 -1.238206e-01 8.285165e-01 -2.553467e+00 2.236084e+00
4.540356e+01 2.000000e-01 -1.274817e-01 8.328806e-01 -2.553955e+00 2.288818e+00
3.931030e+01 1.782609e-01 -1.288060e-01 8.355861e-01 -2.345703e+00 2.288330e+00
3.812695e+01 1.826087e-01 -1.283175e-01 8.357212e-01 -2.330078e+00 2.289795e+00
3.792139e+01 1.869565e-01 -1.265417e-01 8.367611e-01 -2.319336e+00 2.288818e+00
3.827783e+01 1.913043e-01 -1.264621e-01 8.370482e-01 -2.330811e+00 2.293945e+00
3.827734e+01 2.000000e-01 -1.266487e-01 8.373741e-01 -2.355957e+00 2.293945e+00
3.942065e+01 1.695652e-01 -1.267869e-01 8.377507e-01 -2.372070e+00 2.293213e+00
3.902515e+01 1.739130e-01 -1.260297e-01 8.384418e-01 -2.372070e+00 2.294678e+00
3.861816e+01 1.782609e-01 -1.263576e-01 8.383572e-01 -2.369385e+00 2.294678e+00
3.763867e+01 1.739130e-01 -1.266284e-01 8.384887e-01 -2.367676e+00 2.294678e+00
5.019604e+01 1.913043e-01 -1.139469e-01 8.526705e-01 -2.370850e+00 2.322510e+00
3.868555e+01 1.913043e-01 -1.177147e-01 8.500313e-01 -2.302002e+00 2.315918e+00
3.700903e+01 1.913043e-01 -1.193605e-01 8.499018e-01 -2.302246e+00 2.309326e+00
3.694507e+01 2.000000e-01 -1.195369e-01 8.505410e-01 -2.311279e+00 2.309326e+00
3.908008e+01 1.956522e-01 -1.207968e-01 8.505201e-01 -2.336182e+00 2.305664e+00
3.835645e+01 1.913043e-01 -1.209537e-01 8.510084e-01 -2.338623e+00 2.304443e+00
3.839673e+01 1.956522e-01 -1.207658e-01 8.514239e-01 -2.338623e+00 2.305420e+00
3.854932e+01 1.913043e-01 -1.209675e-01 8.517610e-01 -2.345947e+00 2.305908e+00
3.915576e+01 2.043478e-01 -1.207747e-01 8.522268e-01 -2.339111e+00 2.306396e+00
3.961548e+01 2.000000e-01 -1.204140e-01 8.529031e-01 -2.346924e+00 2.310791e+00
3.923267e+01 1.869565e-01 -1.213690e-01 8.528497e-01 -2.374023e+00 2.310791e+00
3.794385e+01 1.869565e-01 -1.229833e-01 8.519203e-01 -2.379639e+00 2.310059e+00
3.926196e+01 1.956522e-01 -1.226079e-01 8.522078e-01 -2.401123e+00 2.308105e+00
3.926196e+01 1.956522e-01 -1.224940e-01 8.525044e-01 -2.401123e+00 2.307617e+00
3.950293e+01 1.913043e-01 -1.227059e-01 8.526260e-01 -2.407959e+00 2.308838e+00
4.005933e+01 1.956522e-01 -1.227397e-01 8.527436e-01 -2.407959e+00 2.313477e+00
3.942798e+01 2.043478e-01 -1.229714e-01 8.527126e-01 -2.405762e+00 2.317383e+00
3.942798e+01 2.043478e-01 -1.230921e-01 8.525743e-01 -2.396484e+00 2.317383e+00
3.926001e+01 1.956522e-01 -1.224664e-01 8.530891e-01 -2.396484e+00 2.317383e+00
3.921069e+01 1.869565e-01 -1.224076e-01 8.532804e-01 -2.395508e+00 2.316406e+00
3.870264e+01 1.739130e-01 -1.228246e-01 8.533376e-01 -2.408203e+00 2.321533e+00
3.983008e+01 1.869565e-01 -1.237199e-01 8.532129e-01 -2.425049e+00 2.321777e+00
3.797095e+01 2.000000e-01 -1.247378e-01 8.525260e-01 -2.413086e+00 2.322266e+00
3.913623e+01 2.000000e-01 -1.244222e-01 8.529588e-01 -2.408203e+00 2.325195e+00
3.855591e+01 1.913043e-01 -1.244709e-01 8.531957e-01 -2.419189e+00 2.328369e+00
3.928076e+01 1.913043e-01 -1.258859e-01 8.526447e-01 -2.437500e+00 2.329590e+00
3.774683e+01 1.913043e-01 -1.243180e-01 8.535392e-01 -2.412842e+00 2.328613e+00
3.774683e+01 1.913043e-01 -1.237987e-01 8.538295e-01 -2.391113e+00 2.328613e+00
3.806836e+01 1.913043e-01 -1.246251e-01 8.533053e-01 -2.385010e+00 2.330078e+00
3.877002e+01 1.956522e-01 -1.241201e-01 8.539712e-01 -2.378174e+00 2.333252e+00
3.836914e+01 1.956522e-01 -1.242093e-01 8.541671e-01 -2.376709e+00 2.333252e+00
4.241895e+01 1.956522e-01 -1.315632e-01 8.569192e-01 -2.617920e+00 2.332275e+00
3.914771e+01 2.000000e-01 -1.424244e-01 8.603439e-01 -2.617920e+00 2.312500e+00
3.833276e+01 2.000000e-01 -1.410411e-01 8.605985e-01 -2.608398e+00 2.312012e+00
3.826050e+01 2.000000e-01 -1.403094e-01 8.612183e-01 -2.596191e+00 2.309570e+00
3.881641e+01 1.913043e-01 -1.394473e-01 8.620058e-01 -2.596191e+00 2.311768e+00
3.946362e+01 1.956522e-01 -1.396741e-01 8.627209e-01 -2.600586e+00 2.317383e+00
3.946362e+01 1.956522e-01 -1.398273e-01 8.627809e-01 -2.600586e+00 2.317383e+00
3.946362e+01 1.956522e-01 -1.398273e-01 8.627809e-01 -2.600586e+00 2.317383e+00
3.946362e+01 1.956522e-01 -1.398273e-01 8.627809e-01 -2.600586e+00 2.317383e+00
3.946362e+01 1.956522e-01 -1.398273e-01 8.627809e-01 -2.600586e+00 2.317383e+00
3.946362e+01 1.956522e-01 -1.398273e-01 8.627809e-01 -2.600586e+00 2.317383e+00
3.946362e+01 1.956522e-01 -1.398273e-01 8.627809e-01 -2.600586e+00 2.317383e+00
3.946362e+01 1.956522e-01 -1.398273e-01 8.627809e-01 -2.600586e+00 2.317383e+00
3.946362e+01 1.956522e-01 -1.398273e-01 8.627809e-01 -2.600586e+00 2.317383e+00
3.946362e+01 1.956522e-01 -1.398273e-01 8.627809e-01 -2.600586e+00 2.317383e+00
3.946362e+01 1.956522e-01 -1.398273e-01 8.627809e-01 -2.600586e+00 2.317383e+00
3.896851e+01 1.913043e-01 -1.393747e-01 8.630943e-01 -2.610352e+00 2.317383e+00
3.864014e+01 1.956522e-01 -1.397208e-01 8.631756e-01 -2.623779e+00 2.315674e+00
3.894775e+01 1.956522e-01 -1.405953e-01 8.628395e-01 -2.628174e+00 2.317383e+00
3.865381e+01 1.913043e-01 -1.403545e-01 8.629211e-01 -2.628174e+00 2.317383e+00
3.932300e+01 1.956522e-01 -1.412199e-01 8.624863e-01 -2.641602e+00 2.314453e+00
3.976196e+01 1.956522e-01 -1.418453e-01 8.623224e-01 -2.650391e+00 2.314697e+00
3.992310e+01 1.956522e-01 -1.420935e-01 8.627166e-01 -2.661865e+00 2.313477e+00
3.894092e+01 1.913043e-01 -1.410524e-01 8.638599e-01 -2.659180e+00 2.311768e+00
3.894092e+01 1.913043e-01 -1.404674e-01 8.645283e-01 -2.647949e+00 2.308594e+00
4.010718e+01 1.956522e-01 -1.411930e-01 8.643437e-01 -2.668457e+00 2.309082e+00
3.863696e+01 1.782609e-01 -1.415335e-01 8.663569e-01 -2.668457e+00 2.345947e+00
3.815283e+01 1.739130e-01 -1.411668e-01 8.690063e-01 -2.578857e+00 2.343018e+00
3.727051e+01 1.739130e-01 -1.413618e-01 8.687100e-01 -2.581543e+00 2.343262e+00
3.822266e+01 1.826087e-01 -1.425349e-01 8.688349e-01 -2.635742e+00 2.343018e+00
3.713770e+01 1.782609e-01 -1.447082e-01 8.675388e-01 -2.655029e+00 2.340088e+00
3.692749e+01 1.782609e-01 -1.448389e-01 8.672976e-01 -2.662842e+00 2.343262e+00
3.673145e+01 1.913043e-01 -1.437426e-01 8.680216e-01 -2.658936e+00 2.341553e+00
3.673145e+01 1.913043e-01 -1.433435e-01 8.683704e-01 -2.656006e+00 2.338135e+00
3.770459e+01 1.869565e-01 -1.429439e-01 8.686454e-01 -2.661621e+00 2.338623e+00
3.754321e+01 1.869565e-01 -1.425805e-01 8.688926e-01 -2.661621e+00 2.338623e+00
