-1.583997e+00 7.550516e+00 -4.529457e+01 3.903956e+01 1.630140e-05 1.895731e-03 -1.262285e-01 1.262285e-01
-2.386042e+00 9.018010e+00 -5.054730e+01 4.169898e+01 1.653980e-06 1.515489e-03 -1.262285e-01 1.262285e-01
-2.575095e+00 9.420596e+00 -5.022787e+01 4.486820e+01 4.000450e-07 1.366311e-03 -1.262285e-01 1.262285e-01
-2.837276e+00 9.865832e+00 -5.634152e+01 4.719442e+01 2.488112e-06 1.291584e-03 -1.262285e-01 1.262285e-01
-3.002485e+00 1.019028e+01 -5.570633e+01 4.969088e+01 2.848050e-06 1.234257e-03 -1.262285e-01 1.262285e-01
-3.117776e+00 1.029976e+01 -5.645631e+01 5.252296e+01 -3.157351e-06 1.184355e-03 -1.262285e-01 1.262283e-01
-3.218754e+00 1.059195e+01 -5.958535e+01 5.543665e+01 2.854932e-06 1.167628e-03 -1.262285e-01 1.262285e-01
-3.300311e+00 1.085479e+01 -6.018188e+01 5.782032e+01 4.806485e-06 1.120910e-03 -1.296721e-01 1.262285e-01
-3.322856e+00 1.101373e+01 -6.166796e+01 5.645623e+01 1.946861e-06 1.086022e-03 -1.262285e-01 1.262285e-01
-3.383319e+00 1.107889e+01 -6.232927e+01 5.606641e+01 1.755807e-06 1.048782e-03 -1.262285e-01 1.262284e-01
-3.460512e+00 1.118599e+01 -6.190818e+01 5.645898e+01 -6.324509e-07 1.038035e-03 -1.262285e-01 1.262283e-01
-3.505871e+00 1.127979e+01 -6.236816e+01 5.974323e+01 3.145661e-06 1.023354e-03 -1.262285e-01 1.262284e-01
-3.588440e+00 1.139765e+01 -6.333106e+01 5.828185e+01 -2.897179e-07 1.039082e-03 -1.262285e-01 1.262285e-01
-3.630402e+00 1.150883e+01 -6.483311e+01 5.642031e+01 1.961971e-06 9.957607e-04 -1.262285e-01 1.262284e-01
-3.689960e+00 1.158305e+01 -6.400500e+01 5.699817e+01 2.355351e-06 1.004995e-03 -1.262285e-01 1.287977e-01
-3.750480e+00 1.167052e+01 -6.571291e+01 5.898004e+01 -5.979509e-07 9.751225e-04 -1.262285e-01 1.262285e-01
-3.775660e+00 1.180530e+01 -6.622406e+01 5.763663e+01 5.326579e-07 9.748432e-04 -1.262285e-01 1.262285e-01
-3.819234e+00 1.188512e+01 -6.520251e+01 6.073120e+01 -5.403739e-07 9.416851e-04 -1.262285e-01 1.307875e-01
-3.836034e+00 1.186976e+01 -6.564885e+01 5.936897e+01 1.802104e-06 9.349555e-04 -1.262285e-01 1.262284e-01
