9.353001e+01 5.782609e-01 -2.616234e-03 5.942328e-01 -9.987030e-01 9.967194e-01
8.600731e+01 5.782609e-01 -3.407716e-03 5.939649e-01 -9.993744e-01 1.000748e+00
8.083157e+01 5.782609e-01 -4.564682e-03 5.936183e-01 -9.997711e-01 1.005890e+00
7.692773e+01 5.478261e-01 -5.455994e-03 5.934055e-01 -9.999695e-01 1.010574e+00
7.435393e+01 4.913043e-01 -6.166127e-03 5.932595e-01 -1.000031e+00 1.014893e+00
7.251575e+01 4.608696e-01 -6.719632e-03 5.931828e-01 -1.000046e+00 1.018814e+00
7.154372e+01 4.086957e-01 -7.204532e-03 5.931195e-01 -1.000992e+00 1.022430e+00
7.003265e+01 3.826087e-01 -7.578861e-03 5.931033e-01 -1.002701e+00 1.025772e+00
6.952725e+01 3.565217e-01 -7.882381e-03 5.931129e-01 -1.004288e+00 1.028824e+00
6.884518e+01 3.478261e-01 -8.128267e-03 5.931439e-01 -1.005722e+00 1.031677e+00
6.813710e+01 3.391304e-01 -8.354247e-03 5.931779e-01 -1.007080e+00 1.034302e+00
6.801477e+01 3.391304e-01 -8.540294e-03 5.932065e-01 -1.008408e+00 1.036774e+00
6.773137e+01 3.434783e-01 -8.720318e-03 5.932667e-01 -1.009674e+00 1.039154e+00
6.709995e+01 3.521739e-01 -8.862863e-03 5.933005e-01 -1.010895e+00 1.041397e+00
6.634082e+01 3.434783e-01 -8.989192e-03 5.933558e-01 -1.012070e+00 1.043488e+00
6.600868e+01 3.391304e-01 -9.127987e-03 5.934008e-01 -1.013199e+00 1.045486e+00
6.556482e+01 3.347826e-01 -9.230351e-03 5.934687e-01 -1.014297e+00 1.047363e+00
6.540489e+01 3.391304e-01 -9.333203e-03 5.935239e-01 -1.015335e+00 1.049133e+00
6.500864e+01 3.434783e-01 -9.431168e-03 5.935889e-01 -1.016327e+00 1.050781e+00
6.471645e+01 3.434783e-01 -9.512229e-03 5.936538e-01 -1.017288e+00 1.052322e+00
6.455594e+01 3.434783e-01 -9.546696e-03 5.937278e-01 -1.027023e+00 1.053772e+00
6.433006e+01 3.434783e-01 -9.589321e-03 5.937992e-01 -1.037613e+00 1.055191e+00
6.418343e+01 3.347826e-01 -9.640453e-03 5.938811e-01 -1.047623e+00 1.056488e+00
6.396333e+01 3.347826e-01 -9.701678e-03 5.939560e-01 -1.057526e+00 1.057739e+00
6.371938e+01 3.391304e-01 -9.737750e-03 5.940410e-01 -1.067429e+00 1.059006e+00
6.360793e+01 3.434783e-01 -9.799214e-03 5.941230e-01 -1.076996e+00 1.060211e+00
6.341278e+01 3.434783e-01 -9.837860e-03 5.942054e-01 -1.086624e+00 1.061401e+00
6.292241e+01 3.347826e-01 -9.871579e-03 5.942922e-01 -1.096268e+00 1.062622e+00
6.265225e+01 3.347826e-01 -9.927847e-03 5.943955e-01 -1.105789e+00 1.063766e+00
6.229027e+01 3.304348e-01 -9.933192e-03 5.945074e-01 -1.114944e+00 1.064850e+00
6.238583e+01 3.347826e-01 -9.991784e-03 5.946032e-01 -1.124176e+00 1.065933e+00
6.217387e+01 3.347826e-01 -1.003712e-02 5.947072e-01 -1.133286e+00 1.066925e+00
6.180585e+01 3.260870e-01 -1.005853e-02 5.948177e-01 -1.142532e+00 1.068085e+00
6.156332e+01 3.173913e-01 -1.009104e-02 5.949356e-01 -1.151642e+00 1.068939e+00
6.138011e+01 3.130435e-01 -1.012768e-02 5.950709e-01 -1.160873e+00 1.069916e+00
6.121861e+01 3.173913e-01 -1.015877e-02 5.951781e-01 -1.170227e+00 1.070877e+00
6.097816e+01 3.173913e-01 -1.018774e-02 5.953150e-01 -1.179276e+00 1.071808e+00
6.076216e+01 3.130435e-01 -1.023537e-02 5.954387e-01 -1.188492e+00 1.072723e+00
6.065240e+01 3.043478e-01 -1.025372e-02 5.955818e-01 -1.197601e+00 1.073608e+00
6.031403e+01 3.043478e-01 -1.027658e-02 5.957136e-01 -1.206436e+00 1.074448e+00
6.017030e+01 3.043478e-01 -1.029771e-02 5.958696e-01 -1.215302e+00 1.075287e+00
5.991780e+01 3.043478e-01 -1.034353e-02 5.959988e-01 -1.224426e+00 1.076111e+00
5.963477e+01 3.086957e-01 -1.037327e-02 5.961524e-01 -1.233459e+00 1.076904e+00
5.940677e+01 3.043478e-01 -1.040578e-02 5.963032e-01 -1.242432e+00 1.077652e+00
5.906589e+01 3.000000e-01 -1.041859e-02 5.964720e-01 -1.251297e+00 1.078445e+00
5.893666e+01 2.956522e-01 -1.044913e-02 5.966305e-01 -1.260147e+00 1.079147e+00
5.838672e+01 2.869565e-01 -1.045626e-02 5.968125e-01 -1.268814e+00 1.079849e+00
5.835278e+01 2.869565e-01 -1.047683e-02 5.969586e-01 -1.277542e+00 1.080566e+00
5.825793e+01 2.869565e-01 -1.049086e-02 5.971325e-01 -1.286453e+00 1.081284e+00
5.787419e+01 2.869565e-01 -1.049154e-02 5.973215e-01 -1.295120e+00 1.082031e+00
5.771887e+01 2.826087e-01 -1.051499e-02 5.974915e-01 -1.303696e+00 1.082687e+00
5.763541e+01 2.869565e-01 -1.055732e-02 5.976536e-01 -1.312592e+00 1.083252e+00
5.703748e+01 2.913043e-01 -1.057526e-02 5.978433e-01 -1.321518e+00 1.083954e+00
5.682806e+01 2.913043e-01 -1.061080e-02 5.980205e-01 -1.330460e+00 1.084610e+00
5.657793e+01 2.913043e-01 -1.060189e-02 5.982237e-01 -1.339005e+00 1.085587e+00
5.624709e+01 2.913043e-01 -1.062832e-02 5.984193e-01 -1.347672e+00 1.085907e+00
5.611899e+01 2.956522e-01 -1.067677e-02 5.985831e-01 -1.356659e+00 1.086411e+00
5.616209e+01 2.913043e-01 -1.065195e-02 5.988018e-01 -1.365250e+00 1.086945e+00
5.603873e+01 2.913043e-01 -1.068648e-02 5.990065e-01 -1.373962e+00 1.087509e+00
5.591159e+01 2.913043e-01 -1.068752e-02 5.992203e-01 -1.382690e+00 1.088058e+00
5.554037e+01 2.869565e-01 -1.070043e-02 5.994161e-01 -1.391312e+00 1.088638e+00
5.528972e+01 2.869565e-01 -1.073414e-02 5.996244e-01 -1.400024e+00 1.089081e+00
5.517447e+01 2.869565e-01 -1.074422e-02 5.998313e-01 -1.408722e+00 1.089630e+00
5.516971e+01 2.826087e-01 -1.076295e-02 6.000423e-01 -1.417282e+00 1.090118e+00
5.477307e+01 2.782609e-01 -1.077379e-02 6.002579e-01 -1.425766e+00 1.090500e+00
5.459488e+01 2.782609e-01 -1.077602e-02 6.004853e-01 -1.434311e+00 1.091110e+00
5.427226e+01 2.739130e-01 -1.078596e-02 6.007120e-01 -1.442810e+00 1.091553e+00
5.395570e+01 2.695652e-01 -1.079434e-02 6.009321e-01 -1.451263e+00 1.091797e+00
5.387000e+01 2.652174e-01 -1.080079e-02 6.011451e-01 -1.459900e+00 1.092255e+00
5.363002e+01 2.652174e-01 -1.079452e-02 6.013756e-01 -1.468491e+00 1.092712e+00
5.352405e+01 2.608696e-01 -1.079628e-02 6.016140e-01 -1.477066e+00 1.093155e+00
5.324547e+01 2.565217e-01 -1.078802e-02 6.018497e-01 -1.485596e+00 1.093750e+00
5.284221e+01 2.565217e-01 -1.079649e-02 6.021008e-01 -1.493988e+00 1.094162e+00
5.254892e+01 2.565217e-01 -1.082884e-02 6.023008e-01 -1.502655e+00 1.094406e+00
5.237471e+01 2.521739e-01 -1.081512e-02 6.025554e-01 -1.510498e+00 1.094833e+00
5.223511e+01 2.478261e-01 -1.080247e-02 6.027825e-01 -1.518387e+00 1.095078e+00
5.212247e+01 2.434783e-01 -1.078167e-02 6.030370e-01 -1.526245e+00 1.095413e+00
5.201549e+01 2.478261e-01 -1.075241e-02 6.032847e-01 -1.534073e+00 1.095749e+00
5.184000e+01 2.478261e-01 -1.076212e-02 6.035270e-01 -1.541931e+00 1.096237e+00
5.174619e+01 2.478261e-01 -1.073531e-02 6.037787e-01 -1.549744e+00 1.096603e+00
5.164630e+01 2.391304e-01 -1.073763e-02 6.040216e-01 -1.557724e+00 1.096725e+00
5.151852e+01 2.391304e-01 -1.073352e-02 6.042788e-01 -1.565704e+00 1.097015e+00
5.121124e+01 2.391304e-01 -1.071473e-02 6.045332e-01 -1.573685e+00 1.097641e+00
5.100781e+01 2.391304e-01 -1.072464e-02 6.047898e-01 -1.581680e+00 1.097672e+00
5.092496e+01 2.391304e-01 -1.069217e-02 6.050495e-01 -1.589355e+00 1.098297e+00
5.079790e+01 2.347826e-01 -1.068108e-02 6.053131e-01 -1.597137e+00 1.098236e+00
5.064891e+01 2.347826e-01 -1.067150e-02 6.055694e-01 -1.604858e+00 1.098633e+00
5.047606e+01 2.347826e-01 -1.066311e-02 6.058196e-01 -1.612671e+00 1.098724e+00
5.037517e+01 2.347826e-01 -1.063929e-02 6.060849e-01 -1.620316e+00 1.099258e+00
5.022955e+01 2.347826e-01 -1.062978e-02 6.063438e-01 -1.627945e+00 1.099411e+00
5.006685e+01 2.347826e-01 -1.061264e-02 6.066123e-01 -1.635544e+00 1.099579e+00
5.001611e+01 2.347826e-01 -1.062574e-02 6.068729e-01 -1.643204e+00 1.099609e+00
4.986380e+01 2.347826e-01 -1.059662e-02 6.071517e-01 -1.650635e+00 1.100052e+00
4.955664e+01 2.304348e-01 -1.057606e-02 6.074158e-01 -1.657913e+00 1.100159e+00
4.945146e+01 2.304348e-01 -1.053655e-02 6.077075e-01 -1.665039e+00 1.100479e+00
4.911073e+01 2.304348e-01 -1.054383e-02 6.079554e-01 -1.672424e+00 1.100418e+00
4.878822e+01 2.304348e-01 -1.053886e-02 6.082195e-01 -1.679718e+00 1.100525e+00
4.866895e+01 2.347826e-01 -1.052101e-02 6.085030e-01 -1.687012e+00 1.100647e+00
4.842982e+01 2.304348e-01 -1.052348e-02 6.087564e-01 -1.694244e+00 1.100662e+00
4.820009e+01 2.260870e-01 -1.051151e-02 6.090393e-01 -1.701462e+00 1.100906e+00
4.811705e+01 2.260870e-01 -1.048449e-02 6.093242e-01 -1.708954e+00 1.101303e+00
4.801228e+01 2.260870e-01 -1.048112e-02 6.095956e-01 -1.715591e+00 1.101227e+00
4.791212e+01 2.260870e-01 -1.047085e-02 6.098547e-01 -1.722885e+00 1.101349e+00
4.772000e+01 2.260870e-01 -1.043563e-02 6.101438e-01 -1.729965e+00 1.101547e+00
4.764143e+01 2.217391e-01 -1.039500e-02 6.104282e-01 -1.736908e+00 1.101868e+00
4.750491e+01 2.217391e-01 -1.041575e-02 6.106965e-01 -1.744171e+00 1.101791e+00
4.744876e+01 2.217391e-01 -1.039141e-02 6.109810e-01 -1.751404e+00 1.108307e+00
4.731316e+01 2.217391e-01 -1.037225e-02 6.112625e-01 -1.758530e+00 1.117767e+00
4.721143e+01 2.217391e-01 -1.037484e-02 6.115241e-01 -1.765640e+00 1.127167e+00
4.709167e+01 2.217391e-01 -1.035245e-02 6.118238e-01 -1.772644e+00 1.136368e+00
4.693628e+01 2.217391e-01 -1.034293e-02 6.120960e-01 -1.779541e+00 1.145538e+00
4.688130e+01 2.217391e-01 -1.033554e-02 6.123768e-01 -1.786499e+00 1.154755e+00
4.679802e+01 2.217391e-01 -1.031975e-02 6.126577e-01 -1.793457e+00 1.164032e+00
4.672139e+01 2.217391e-01 -1.031398e-02 6.129598e-01 -1.800339e+00 1.173294e+00
4.662914e+01 2.217391e-01 -1.031447e-02 6.132181e-01 -1.807266e+00 1.182617e+00
4.662979e+01 2.217391e-01 -1.028745e-02 6.135325e-01 -1.814163e+00 1.192017e+00
4.642378e+01 2.217391e-01 -1.027885e-02 6.138014e-01 -1.820847e+00 1.201279e+00
4.616716e+01 2.217391e-01 -1.025774e-02 6.140971e-01 -1.827576e+00 1.210571e+00
4.600797e+01 2.260870e-01 -1.025147e-02 6.143488e-01 -1.834229e+00 1.219879e+00
4.607582e+01 2.260870e-01 -1.023481e-02 6.146580e-01 -1.840851e+00 1.229126e+00
4.600986e+01 2.260870e-01 -1.019263e-02 6.149514e-01 -1.847351e+00 1.238129e+00
4.602373e+01 2.260870e-01 -1.017122e-02 6.152160e-01 -1.853851e+00 1.247131e+00
4.578876e+01 2.260870e-01 -1.015651e-02 6.155061e-01 -1.860184e+00 1.255890e+00
4.577075e+01 2.260870e-01 -1.013264e-02 6.157999e-01 -1.866501e+00 1.264496e+00
4.565414e+01 2.260870e-01 -1.013681e-02 6.160734e-01 -1.872986e+00 1.273331e+00
4.560274e+01 2.260870e-01 -1.009838e-02 6.163556e-01 -1.879196e+00 1.281815e+00
4.555351e+01 2.260870e-01 -1.008381e-02 6.166397e-01 -1.885422e+00 1.290375e+00
4.537825e+01 2.260870e-01 -1.006227e-02 6.169172e-01 -1.891556e+00 1.298859e+00
4.522411e+01 2.260870e-01 -1.005454e-02 6.171973e-01 -1.897629e+00 1.307281e+00
4.502721e+01 2.260870e-01 -1.001334e-02 6.174806e-01 -1.903610e+00 1.315643e+00
4.489452e+01 2.260870e-01 -9.992163e-03 6.177789e-01 -1.909363e+00 1.323807e+00
4.469800e+01 2.260870e-01 -9.968786e-03 6.180410e-01 -1.915161e+00 1.332077e+00
4.474886e+01 2.260870e-01 -9.959073e-03 6.183046e-01 -1.920990e+00 1.340439e+00
4.480975e+01 2.260870e-01 -9.906903e-03 6.185849e-01 -1.926727e+00 1.348679e+00
4.458780e+01 2.260870e-01 -9.898676e-03 6.188898e-01 -1.932541e+00 1.356964e+00
4.441721e+01 2.217391e-01 -9.865406e-03 6.191637e-01 -1.938187e+00 1.365143e+00
4.435173e+01 2.217391e-01 -9.844332e-03 6.194236e-01 -1.943893e+00 1.373367e+00
4.426846e+01 2.173913e-01 -9.814603e-03 6.197178e-01 -1.949463e+00 1.381577e+00
4.398195e+01 2.173913e-01 -9.789431e-03 6.199971e-01 -1.954956e+00 1.389664e+00
4.378120e+01 2.173913e-01 -9.777084e-03 6.202746e-01 -1.960434e+00 1.397614e+00
4.356364e+01 2.173913e-01 -9.750616e-03 6.205467e-01 -1.965897e+00 1.405518e+00
4.371791e+01 2.173913e-01 -9.725084e-03 6.208289e-01 -1.971268e+00 1.413345e+00
4.355954e+01 2.173913e-01 -9.706824e-03 6.211030e-01 -1.976517e+00 1.421051e+00
4.341156e+01 2.173913e-01 -9.674960e-03 6.213752e-01 -1.981659e+00 1.428757e+00
4.322279e+01 2.173913e-01 -9.646816e-03 6.216721e-01 -1.987259e+00 1.436554e+00
4.335786e+01 2.130435e-01 -9.626491e-03 6.219203e-01 -1.992188e+00 1.444336e+00
4.335660e+01 2.130435e-01 -9.587755e-03 6.221901e-01 -1.997360e+00 1.451965e+00
4.307796e+01 2.130435e-01 -9.564239e-03 6.224644e-01 -2.001999e+00 1.459641e+00
4.285435e+01 2.130435e-01 -9.510295e-03 6.227512e-01 -2.006149e+00 1.467178e+00
4.275529e+01 2.130435e-01 -9.488932e-03 6.229919e-01 -2.010498e+00 1.474792e+00
4.269815e+01 2.130435e-01 -9.441141e-03 6.232476e-01 -2.015030e+00 1.482468e+00
4.257399e+01 2.130435e-01 -9.396053e-03 6.235283e-01 -2.019424e+00 1.489929e+00
4.259012e+01 2.130435e-01 -9.352092e-03 6.237858e-01 -2.023849e+00 1.497421e+00
4.271249e+01 2.173913e-01 -9.310943e-03 6.240644e-01 -2.028275e+00 1.504562e+00
4.273547e+01 2.173913e-01 -9.274950e-03 6.243070e-01 -2.032684e+00 1.511307e+00
4.260387e+01 2.173913e-01 -9.244532e-03 6.245568e-01 -2.037170e+00 1.518143e+00
4.244476e+01 2.173913e-01 -9.219031e-03 6.247998e-01 -2.041626e+00 1.524918e+00
4.223721e+01 2.173913e-01 -9.188853e-03 6.250617e-01 -2.046097e+00 1.531677e+00
4.227939e+01 2.173913e-01 -9.181363e-03 6.253270e-01 -2.050613e+00 1.538452e+00
4.221899e+01 2.217391e-01 -9.176307e-03 6.255718e-01 -2.055237e+00 1.545349e+00
4.214851e+01 2.217391e-01 -9.111073e-03 6.258174e-01 -2.059540e+00 1.551956e+00
4.202905e+01 2.217391e-01 -9.105458e-03 6.260732e-01 -2.063919e+00 1.558640e+00
4.207394e+01 2.217391e-01 -9.082241e-03 6.263167e-01 -2.068253e+00 1.565369e+00
4.207170e+01 2.217391e-01 -9.027718e-03 6.265865e-01 -2.072479e+00 1.571777e+00
4.201146e+01 2.217391e-01 -9.020108e-03 6.268307e-01 -2.076431e+00 1.578339e+00
4.198651e+01 2.173913e-01 -8.979000e-03 6.270610e-01 -2.080399e+00 1.584671e+00
4.182437e+01 2.130435e-01 -8.961367e-03 6.273208e-01 -2.084854e+00 1.591080e+00
4.175064e+01 2.130435e-01 -8.958066e-03 6.275616e-01 -2.088348e+00 1.597488e+00
4.168817e+01 2.130435e-01 -8.920398e-03 6.278001e-01 -2.092361e+00 1.603912e+00
4.168466e+01 2.130435e-01 -8.915232e-03 6.280383e-01 -2.096466e+00 1.610367e+00
4.150055e+01 2.130435e-01 -8.881273e-03 6.282803e-01 -2.100601e+00 1.616867e+00
4.144568e+01 2.130435e-01 -8.851993e-03 6.285292e-01 -2.104614e+00 1.623276e+00
4.131033e+01 2.130435e-01 -8.837601e-03 6.287467e-01 -2.108688e+00 1.629669e+00
4.129529e+01 2.130435e-01 -8.812898e-03 6.290046e-01 -2.112656e+00 1.636002e+00
4.117264e+01 2.130435e-01 -8.787118e-03 6.292247e-01 -2.116547e+00 1.642136e+00
4.111490e+01 2.130435e-01 -8.768678e-03 6.294784e-01 -2.120346e+00 1.648087e+00
4.093008e+01 2.130435e-01 -8.754845e-03 6.296845e-01 -2.124069e+00 1.653961e+00
4.106094e+01 2.130435e-01 -8.730461e-03 6.299301e-01 -2.127686e+00 1.659515e+00
4.102203e+01 2.130435e-01 -8.718932e-03 6.301486e-01 -2.131287e+00 1.665176e+00
4.098540e+01 2.130435e-01 -8.719740e-03 6.303836e-01 -2.134857e+00 1.670883e+00
4.105322e+01 2.130435e-01 -8.692234e-03 6.306139e-01 -2.138351e+00 1.676529e+00
4.089731e+01 2.130435e-01 -8.663192e-03 6.308313e-01 -2.141968e+00 1.682266e+00
4.086076e+01 2.130435e-01 -8.634380e-03 6.310878e-01 -2.146011e+00 1.687881e+00
4.079913e+01 2.130435e-01 -8.630670e-03 6.312760e-01 -2.148972e+00 1.693527e+00
4.078522e+01 2.130435e-01 -8.621385e-03 6.315171e-01 -2.152634e+00 1.699387e+00
4.076280e+01 2.130435e-01 -8.589591e-03 6.317523e-01 -2.156021e+00 1.704926e+00
4.061458e+01 2.130435e-01 -8.567411e-03 6.319591e-01 -2.159531e+00 1.710510e+00
4.056438e+01 2.130435e-01 -8.539427e-03 6.322049e-01 -2.162827e+00 1.715988e+00
4.040341e+01 2.130435e-01 -8.517247e-03 6.324080e-01 -2.166412e+00 1.721207e+00
4.040181e+01 2.130435e-01 -8.503125e-03 6.326104e-01 -2.169281e+00 1.726593e+00
4.044785e+01 2.173913e-01 -8.490768e-03 6.328337e-01 -2.172592e+00 1.731949e+00
4.042386e+01 2.173913e-01 -8.466763e-03 6.330475e-01 -2.175751e+00 1.737198e+00
4.034669e+01 2.173913e-01 -8.452631e-03 6.332591e-01 -2.178787e+00 1.742371e+00
4.040356e+01 2.173913e-01 -8.426741e-03 6.334959e-01 -2.182999e+00 1.748398e+00
4.038087e+01 2.173913e-01 -8.430660e-03 6.336895e-01 -2.185257e+00 1.752808e+00
4.039455e+01 2.173913e-01 -8.420378e-03 6.339039e-01 -2.188446e+00 1.757874e+00
4.029901e+01 2.173913e-01 -8.409478e-03 6.341173e-01 -2.191483e+00 1.762802e+00
4.013295e+01 2.130435e-01 -8.415102e-03 6.343066e-01 -2.194748e+00 1.767883e+00
4.007281e+01 2.086957e-01 -8.398378e-03 6.345283e-01 -2.197922e+00 1.772934e+00
4.006746e+01 2.086957e-01 -8.359273e-03 6.347252e-01 -2.200928e+00 1.777817e+00
3.996970e+01 2.043478e-01 -8.356261e-03 6.349558e-01 -2.203964e+00 1.782745e+00
3.985210e+01 2.043478e-01 -8.335817e-03 6.351448e-01 -2.206970e+00 1.787430e+00
3.990730e+01 2.043478e-01 -8.347455e-03 6.353363e-01 -2.209930e+00 1.792389e+00
3.994061e+01 2.043478e-01 -8.323789e-03 6.355548e-01 -2.212860e+00 1.797165e+00
3.998071e+01 2.043478e-01 -8.310066e-03 6.357279e-01 -2.215836e+00 1.801865e+00
3.994464e+01 2.043478e-01 -8.298398e-03 6.359226e-01 -2.218781e+00 1.806564e+00
3.981873e+01 2.043478e-01 -8.300602e-03 6.361593e-01 -2.221725e+00 1.811188e+00
3.987617e+01 2.043478e-01 -8.275430e-03 6.363292e-01 -2.224518e+00 1.815704e+00
3.985756e+01 2.043478e-01 -8.286280e-03 6.365329e-01 -2.227280e+00 1.820129e+00
3.985889e+01 2.043478e-01 -8.273854e-03 6.367292e-01 -2.230270e+00 1.824860e+00
3.980107e+01 2.000000e-01 -8.229085e-03 6.369361e-01 -2.233444e+00 1.829193e+00
3.978841e+01 1.956522e-01 -8.232695e-03 6.371017e-01 -2.235626e+00 1.833527e+00
3.979652e+01 1.956522e-01 -8.217666e-03 6.372919e-01 -2.238373e+00 1.837906e+00
3.975507e+01 1.956522e-01 -8.234849e-03 6.374948e-01 -2.241180e+00 1.842239e+00
3.974600e+01 1.956522e-01 -8.210395e-03 6.376876e-01 -2.243988e+00 1.846420e+00
3.975562e+01 1.956522e-01 -8.214644e-03 6.378731e-01 -2.246490e+00 1.850723e+00
3.967905e+01 1.956522e-01 -8.204352e-03 6.380706e-01 -2.249619e+00 1.855255e+00
3.962947e+01 1.956522e-01 -8.201200e-03 6.382395e-01 -2.251785e+00 1.859222e+00
3.960948e+01 1.956522e-01 -8.188993e-03 6.384404e-01 -2.254517e+00 1.863617e+00
3.964052e+01 1.956522e-01 -8.184785e-03 6.386143e-01 -2.256149e+00 1.867584e+00
3.950014e+01 2.000000e-01 -8.165337e-03 6.387856e-01 -2.258514e+00 1.871719e+00
3.952460e+01 2.000000e-01 -8.166863e-03 6.389663e-01 -2.260757e+00 1.875900e+00
3.934845e+01 2.000000e-01 -8.127619e-03 6.391183e-01 -2.263107e+00 1.880081e+00
3.945976e+01 2.000000e-01 -8.143775e-03 6.392877e-01 -2.265488e+00 1.884293e+00
3.943532e+01 2.000000e-01 -8.108112e-03 6.394685e-01 -2.267776e+00 1.888489e+00
3.931982e+01 1.956522e-01 -8.087687e-03 6.396385e-01 -2.269958e+00 1.892532e+00
3.931654e+01 1.956522e-01 -8.106366e-03 6.398165e-01 -2.272293e+00 1.896683e+00
3.943890e+01 1.956522e-01 -8.085722e-03 6.400006e-01 -2.274506e+00 1.900818e+00
3.942285e+01 1.956522e-01 -8.068838e-03 6.401718e-01 -2.276581e+00 1.904800e+00
3.947366e+01 1.956522e-01 -8.040424e-03 6.403518e-01 -2.278854e+00 1.908722e+00
3.938589e+01 1.956522e-01 -8.045301e-03 6.405017e-01 -2.280914e+00 1.912720e+00
3.949063e+01 2.000000e-01 -8.009648e-03 6.406785e-01 -2.283218e+00 1.916580e+00
3.947984e+01 2.000000e-01 -7.989831e-03 6.408469e-01 -2.284912e+00 1.920334e+00
3.946461e+01 2.000000e-01 -8.004721e-03 6.409935e-01 -2.286880e+00 1.924149e+00
3.945825e+01 2.000000e-01 -7.978202e-03 6.411560e-01 -2.288895e+00 1.927933e+00
3.944623e+01 2.000000e-01 -7.967442e-03 6.413289e-01 -2.290909e+00 1.931747e+00
3.956941e+01 2.043478e-01 -7.961478e-03 6.414899e-01 -2.293381e+00 1.935440e+00
3.949542e+01 2.043478e-01 -7.949650e-03 6.416549e-01 -2.294983e+00 1.939331e+00
3.945796e+01 2.043478e-01 -7.948343e-03 6.418051e-01 -2.297073e+00 1.943146e+00
3.929939e+01 2.000000e-01 -7.928916e-03 6.419592e-01 -2.299210e+00 1.946960e+00
3.934137e+01 2.000000e-01 -7.942958e-03 6.421248e-01 -2.301254e+00 1.950760e+00
3.921754e+01 2.000000e-01 -7.907035e-03 6.422884e-01 -2.303253e+00 1.954437e+00
3.910895e+01 2.000000e-01 -7.890120e-03 6.424482e-01 -2.305405e+00 1.957993e+00
3.907742e+01 2.000000e-01 -7.911004e-03 6.425984e-01 -2.307297e+00 1.961700e+00
3.915295e+01 2.000000e-01 -7.880018e-03 6.427883e-01 -2.309814e+00 1.965195e+00
3.922108e+01 2.000000e-01 -7.889941e-03 6.429095e-01 -2.310989e+00 1.968674e+00
3.932602e+01 2.000000e-01 -7.884845e-03 6.430896e-01 -2.312943e+00 1.972183e+00
3.938469e+01 2.000000e-01 -7.875221e-03 6.432302e-01 -2.314865e+00 1.975693e+00
3.937646e+01 2.000000e-01 -7.863722e-03 6.433654e-01 -2.316833e+00 1.979202e+00
3.936603e+01 2.000000e-01 -7.881773e-03 6.435339e-01 -2.318817e+00 1.982681e+00
3.942877e+01 2.000000e-01 -7.859792e-03 6.436636e-01 -2.320770e+00 1.986145e+00
3.931805e+01 1.956522e-01 -7.862375e-03 6.438344e-01 -2.322784e+00 1.989639e+00
3.930568e+01 1.956522e-01 -7.832227e-03 6.440005e-01 -2.324570e+00 1.992828e+00
3.919131e+01 1.956522e-01 -7.838799e-03 6.441314e-01 -2.326218e+00 1.996109e+00
3.903728e+01 1.956522e-01 -7.838619e-03 6.443030e-01 -2.328857e+00 1.999603e+00
3.898169e+01 1.956522e-01 -7.840554e-03 6.444355e-01 -2.330170e+00 2.002121e+00
3.890616e+01 1.956522e-01 -7.859124e-03 6.445555e-01 -2.331375e+00 2.003799e+00
3.886470e+01 1.956522e-01 -7.889362e-03 6.447002e-01 -2.333206e+00 2.006058e+00
3.876472e+01 1.956522e-01 -7.876188e-03 6.448321e-01 -2.334900e+00 2.008331e+00
3.874324e+01 1.956522e-01 -7.883149e-03 6.449599e-01 -2.337082e+00 2.010818e+00
3.874261e+01 1.956522e-01 -7.914365e-03 6.450874e-01 -2.338318e+00 2.012939e+00
3.875671e+01 1.956522e-01 -7.917107e-03 6.452035e-01 -2.340134e+00 2.015350e+00
3.872653e+01 1.956522e-01 -7.892354e-03 6.453378e-01 -2.342911e+00 2.018600e+00
3.870799e+01 1.956522e-01 -7.921725e-03 6.454567e-01 -2.343216e+00 2.019958e+00
3.871492e+01 1.956522e-01 -7.945481e-03 6.455968e-01 -2.345032e+00 2.022491e+00
3.870769e+01 1.956522e-01 -7.957937e-03 6.457209e-01 -2.346893e+00 2.025162e+00
3.870769e+01 1.956522e-01 -7.918923e-03 6.458371e-01 -2.348602e+00 2.027634e+00
3.875429e+01 1.956522e-01 -7.927629e-03 6.459581e-01 -2.350250e+00 2.030090e+00
3.877408e+01 1.956522e-01 -7.930791e-03 6.461043e-01 -2.352295e+00 2.032578e+00
3.873515e+01 1.956522e-01 -7.911732e-03 6.462082e-01 -2.353409e+00 2.034897e+00
3.870508e+01 1.956522e-01 -7.925944e-03 6.463441e-01 -2.355042e+00 2.037460e+00
3.869595e+01 1.956522e-01 -7.901859e-03 6.464430e-01 -2.356522e+00 2.039871e+00
3.868767e+01 1.956522e-01 -7.912769e-03 6.465750e-01 -2.358047e+00 2.042343e+00
3.868349e+01 1.956522e-01 -7.920000e-03 6.467229e-01 -2.361450e+00 2.046188e+00
3.865509e+01 1.956522e-01 -7.899714e-03 6.468315e-01 -2.361008e+00 2.047272e+00
3.859807e+01 1.956522e-01 -7.909059e-03 6.469434e-01 -2.362991e+00 2.049850e+00
3.857770e+01 1.956522e-01 -7.901001e-03 6.470741e-01 -2.363800e+00 2.052216e+00
3.856750e+01 1.956522e-01 -7.924867e-03 6.471771e-01 -2.365509e+00 2.054764e+00
3.854573e+01 1.956522e-01 -7.885882e-03 6.472920e-01 -2.367325e+00 2.057373e+00
3.852792e+01 1.956522e-01 -7.871600e-03 6.474120e-01 -2.368408e+00 2.059738e+00
3.850662e+01 1.956522e-01 -7.902158e-03 6.475147e-01 -2.370010e+00 2.062302e+00
3.857935e+01 1.956522e-01 -7.890699e-03 6.476253e-01 -2.371536e+00 2.064819e+00
3.855731e+01 1.956522e-01 -7.894010e-03 6.477591e-01 -2.372955e+00 2.067230e+00
3.856786e+01 1.956522e-01 -7.848473e-03 6.478846e-01 -2.374664e+00 2.069656e+00
3.861359e+01 1.956522e-01 -7.848144e-03 6.479929e-01 -2.376144e+00 2.072296e+00
3.859717e+01 1.956522e-01 -7.885603e-03 6.480891e-01 -2.376755e+00 2.074203e+00
3.863065e+01 1.956522e-01 -7.849370e-03 6.482097e-01 -2.378021e+00 2.076492e+00
3.861940e+01 1.956522e-01 -7.842649e-03 6.483257e-01 -2.380524e+00 2.079514e+00
3.858534e+01 1.956522e-01 -7.856661e-03 6.484429e-01 -2.380661e+00 2.080933e+00
3.858008e+01 1.956522e-01 -7.843746e-03 6.485518e-01 -2.381958e+00 2.083221e+00
3.857510e+01 1.956522e-01 -7.842369e-03 6.486329e-01 -2.382935e+00 2.085464e+00
3.851247e+01 1.956522e-01 -7.825545e-03 6.487439e-01 -2.384186e+00 2.087646e+00
3.862244e+01 1.956522e-01 -7.824926e-03 6.488514e-01 -2.385361e+00 2.089859e+00
3.861365e+01 1.956522e-01 -7.803514e-03 6.489537e-01 -2.387360e+00 2.092331e+00
3.851672e+01 1.913043e-01 -7.812839e-03 6.490519e-01 -2.387711e+00 2.094315e+00
3.855324e+01 1.913043e-01 -7.802098e-03 6.491773e-01 -2.389572e+00 2.096741e+00
3.851639e+01 1.913043e-01 -7.796822e-03 6.492519e-01 -2.390244e+00 2.098923e+00
3.862897e+01 1.913043e-01 -7.779898e-03 6.493513e-01 -2.391388e+00 2.101013e+00
3.868311e+01 1.913043e-01 -7.783578e-03 6.494854e-01 -2.393677e+00 2.104019e+00
3.859357e+01 1.913043e-01 -7.767023e-03 6.495772e-01 -2.394211e+00 2.105423e+00
3.858907e+01 1.913043e-01 -7.752921e-03 6.496719e-01 -2.395416e+00 2.107391e+00
3.855399e+01 1.913043e-01 -7.761588e-03 6.497823e-01 -2.396301e+00 2.109436e+00
3.853751e+01 1.913043e-01 -7.780397e-03 6.498876e-01 -2.397659e+00 2.111557e+00
3.855042e+01 1.913043e-01 -7.768000e-03 6.499734e-01 -2.399811e+00 2.114441e+00
3.857211e+01 1.913043e-01 -7.758067e-03 6.500588e-01 -2.399689e+00 2.115631e+00
3.855850e+01 1.913043e-01 -7.747416e-03 6.501681e-01 -2.400848e+00 2.117584e+00
3.841327e+01 1.869565e-01 -7.752243e-03 6.502601e-01 -2.402283e+00 2.119583e+00
3.842950e+01 1.869565e-01 -7.749051e-03 6.503492e-01 -2.403168e+00 2.121567e+00
3.842950e+01 1.869565e-01 -7.763831e-03 6.504529e-01 -2.404343e+00 2.123535e+00
3.839445e+01 1.869565e-01 -7.732386e-03 6.505649e-01 -2.406525e+00 2.126282e+00
3.835454e+01 1.913043e-01 -7.754666e-03 6.506338e-01 -2.406631e+00 2.127151e+00
3.827914e+01 1.913043e-01 -7.766035e-03 6.507302e-01 -2.408066e+00 2.129089e+00
3.826717e+01 1.913043e-01 -7.761966e-03 6.508059e-01 -2.408798e+00 2.130432e+00
3.825894e+01 1.913043e-01 -7.778801e-03 6.509128e-01 -2.410019e+00 2.132172e+00
3.827242e+01 1.913043e-01 -7.766175e-03 6.510065e-01 -2.411392e+00 2.133820e+00
3.827893e+01 1.956522e-01 -7.764161e-03 6.510956e-01 -2.412186e+00 2.135574e+00
3.832623e+01 1.913043e-01 -7.768688e-03 6.511720e-01 -2.413757e+00 2.137421e+00
3.832042e+01 1.913043e-01 -7.771979e-03 6.512822e-01 -2.414291e+00 2.138947e+00
3.824197e+01 1.913043e-01 -7.750148e-03 6.513710e-01 -2.415695e+00 2.140900e+00
3.820860e+01 1.913043e-01 -7.761847e-03 6.514581e-01 -2.416107e+00 2.142441e+00
3.820045e+01 1.956522e-01 -7.769726e-03 6.515356e-01 -2.417419e+00 2.144394e+00
3.820485e+01 1.956522e-01 -7.755394e-03 6.516057e-01 -2.418320e+00 2.146210e+00
3.826663e+01 1.956522e-01 -7.729484e-03 6.517053e-01 -2.419067e+00 2.147797e+00
3.832353e+01 1.956522e-01 -7.718414e-03 6.517924e-01 -2.419891e+00 2.149414e+00
3.830156e+01 1.956522e-01 -7.704462e-03 6.518884e-01 -2.421448e+00 2.151596e+00
3.829697e+01 1.869565e-01 -7.705020e-03 6.519537e-01 -2.421967e+00 2.152725e+00
3.829160e+01 1.869565e-01 -7.688605e-03 6.520469e-01 -2.423050e+00 2.154480e+00
3.817365e+01 1.869565e-01 -7.685972e-03 6.521125e-01 -2.423676e+00 2.155807e+00
3.815511e+01 1.869565e-01 -7.676238e-03 6.522185e-01 -2.425003e+00 2.158020e+00
3.833345e+01 1.869565e-01 -7.666325e-03 6.523170e-01 -2.425781e+00 2.159653e+00
3.836742e+01 1.869565e-01 -7.663094e-03 6.523728e-01 -2.426682e+00 2.160828e+00
3.832913e+01 1.869565e-01 -7.665447e-03 6.524466e-01 -2.426712e+00 2.161865e+00
3.839801e+01 1.869565e-01 -7.673436e-03 6.525611e-01 -2.427414e+00 2.163483e+00
3.839627e+01 1.869565e-01 -7.643068e-03 6.526209e-01 -2.428467e+00 2.165009e+00
3.837851e+01 1.869565e-01 -7.657927e-03 6.526929e-01 -2.429260e+00 2.166672e+00
3.834790e+01 1.869565e-01 -7.642559e-03 6.527459e-01 -2.430222e+00 2.168243e+00
3.823024e+01 1.869565e-01 -7.630910e-03 6.528329e-01 -2.431091e+00 2.169739e+00
3.826424e+01 1.913043e-01 -7.624228e-03 6.529112e-01 -2.431992e+00 2.171234e+00
3.830305e+01 1.913043e-01 -7.609638e-03 6.530062e-01 -2.433517e+00 2.173141e+00
3.821519e+01 1.913043e-01 -7.602697e-03 6.530662e-01 -2.433517e+00 2.174072e+00
3.828754e+01 1.913043e-01 -7.601450e-03 6.531310e-01 -2.434372e+00 2.175491e+00
3.825081e+01 1.869565e-01 -7.593292e-03 6.531935e-01 -2.435287e+00 2.177002e+00
3.824554e+01 1.869565e-01 -7.593910e-03 6.532890e-01 -2.436523e+00 2.178528e+00
3.829494e+01 1.869565e-01 -7.573346e-03 6.533483e-01 -2.436951e+00 2.179703e+00
3.808907e+01 1.869565e-01 -7.572049e-03 6.534187e-01 -2.438950e+00 2.182129e+00
3.802205e+01 1.869565e-01 -7.589502e-03 6.534980e-01 -2.438507e+00 2.182388e+00
3.801181e+01 1.869565e-01 -7.569287e-03 6.535725e-01 -2.440460e+00 2.184738e+00
3.798085e+01 1.869565e-01 -7.542350e-03 6.536534e-01 -2.440826e+00 2.185684e+00
3.806995e+01 1.913043e-01 -7.542749e-03 6.536970e-01 -2.441544e+00 2.186844e+00
3.806932e+01 1.913043e-01 -7.540375e-03 6.537746e-01 -2.442352e+00 2.187820e+00
3.807433e+01 1.913043e-01 -7.550677e-03 6.538679e-01 -2.443451e+00 2.189728e+00
3.812959e+01 1.913043e-01 -7.542838e-03 6.538936e-01 -2.443970e+00 2.190781e+00
3.812042e+01 1.913043e-01 -7.534012e-03 6.540089e-01 -2.445404e+00 2.192764e+00
3.808600e+01 1.913043e-01 -7.531060e-03 6.540439e-01 -2.445312e+00 2.193283e+00
3.811284e+01 1.913043e-01 -7.506895e-03 6.541419e-01 -2.446594e+00 2.194794e+00
3.814931e+01 1.913043e-01 -7.493182e-03 6.542006e-01 -2.447174e+00 2.196014e+00
3.806116e+01 1.913043e-01 -7.483090e-03 6.542748e-01 -2.448212e+00 2.197723e+00
3.806116e+01 1.913043e-01 -7.496813e-03 6.543392e-01 -2.449142e+00 2.198990e+00
3.813045e+01 1.913043e-01 -7.473147e-03 6.544138e-01 -2.449493e+00 2.200134e+00
3.808733e+01 1.913043e-01 -7.457070e-03 6.544791e-01 -2.450684e+00 2.201797e+00
3.807765e+01 1.913043e-01 -7.480726e-03 6.545273e-01 -2.451172e+00 2.202728e+00
3.803395e+01 1.913043e-01 -7.468100e-03 6.545916e-01 -2.452209e+00 2.204178e+00
3.802898e+01 1.913043e-01 -7.450817e-03 6.546584e-01 -2.453079e+00 2.205383e+00
3.802904e+01 1.913043e-01 -7.458516e-03 6.547317e-01 -2.453857e+00 2.206741e+00
3.805559e+01 1.913043e-01 -7.454936e-03 6.547994e-01 -2.454895e+00 2.208099e+00
3.801839e+01 1.913043e-01 -7.431778e-03 6.548746e-01 -2.456207e+00 2.210022e+00
3.801839e+01 1.913043e-01 -7.457898e-03 6.549463e-01 -2.456009e+00 2.210449e+00
3.802660e+01 1.913043e-01 -7.428607e-03 6.549893e-01 -2.456772e+00 2.211746e+00
3.802486e+01 1.913043e-01 -7.433703e-03 6.550718e-01 -2.458374e+00 2.213501e+00
3.802312e+01 1.913043e-01 -7.423670e-03 6.551368e-01 -2.459732e+00 2.215652e+00
3.799796e+01 1.913043e-01 -7.419422e-03 6.551975e-01 -2.459076e+00 2.215546e+00
3.795328e+01 1.913043e-01 -7.396673e-03 6.552480e-01 -2.460617e+00 2.217285e+00
3.797668e+01 1.913043e-01 -7.404891e-03 6.553014e-01 -2.460327e+00 2.217957e+00
3.798453e+01 1.913043e-01 -7.413557e-03 6.554024e-01 -2.461761e+00 2.219589e+00
3.803891e+01 1.913043e-01 -7.398418e-03 6.554525e-01 -2.462860e+00 2.221344e+00
3.803069e+01 1.913043e-01 -7.412470e-03 6.555095e-01 -2.462906e+00 2.222000e+00
3.807199e+01 1.913043e-01 -7.421207e-03 6.555656e-01 -2.463333e+00 2.222961e+00
3.804192e+01 1.913043e-01 -7.397980e-03 6.556199e-01 -2.464081e+00 2.224136e+00
3.803922e+01 1.913043e-01 -7.390091e-03 6.556937e-01 -2.465256e+00 2.225372e+00
3.803922e+01 1.913043e-01 -7.410785e-03 6.557939e-01 -2.466476e+00 2.227295e+00
3.806329e+01 1.913043e-01 -7.389034e-03 6.558038e-01 -2.467041e+00 2.228333e+00
3.802438e+01 1.913043e-01 -7.406138e-03 6.558843e-01 -2.466888e+00 2.228821e+00
3.802438e+01 1.913043e-01 -7.417297e-03 6.559261e-01 -2.467651e+00 2.230118e+00
3.805672e+01 1.913043e-01 -7.397232e-03 6.560131e-01 -2.468811e+00 2.231689e+00
3.804030e+01 1.913043e-01 -7.384296e-03 6.560560e-01 -2.469193e+00 2.232452e+00
3.801904e+01 1.913043e-01 -7.376926e-03 6.561305e-01 -2.470520e+00 2.234528e+00
3.801138e+01 1.913043e-01 -7.403734e-03 6.562291e-01 -2.471954e+00 2.236389e+00
3.801138e+01 1.913043e-01 -7.377036e-03 6.562497e-01 -2.471848e+00 2.236771e+00
3.799417e+01 1.913043e-01 -7.376059e-03 6.562949e-01 -2.471451e+00 2.237244e+00
3.804991e+01 1.913043e-01 -7.381983e-03 6.563716e-01 -2.471802e+00 2.238083e+00
3.814116e+01 1.913043e-01 -7.364330e-03 6.564181e-01 -2.472672e+00 2.239426e+00
3.812422e+01 1.913043e-01 -7.364350e-03 6.564697e-01 -2.473511e+00 2.240448e+00
3.809836e+01 1.913043e-01 -7.352642e-03 6.565170e-01 -2.473434e+00 2.241470e+00
3.809456e+01 1.913043e-01 -7.367632e-03 6.565977e-01 -2.474030e+00 2.242615e+00
3.814565e+01 1.913043e-01 -7.352702e-03 6.566727e-01 -2.475082e+00 2.243759e+00
3.814067e+01 1.913043e-01 -7.357110e-03 6.567222e-01 -2.475479e+00 2.244888e+00
3.822330e+01 1.913043e-01 -7.354477e-03 6.567550e-01 -2.475952e+00 2.246094e+00
3.822156e+01 1.913043e-01 -7.365447e-03 6.568333e-01 -2.477264e+00 2.247757e+00
3.818436e+01 1.913043e-01 -7.358696e-03 6.568539e-01 -2.477234e+00 2.248383e+00
3.818262e+01 1.913043e-01 -7.332905e-03 6.569249e-01 -2.478149e+00 2.249710e+00
3.818285e+01 1.913043e-01 -7.344175e-03 6.570101e-01 -2.478363e+00 2.250534e+00
3.818279e+01 1.913043e-01 -7.347087e-03 6.570462e-01 -2.478928e+00 2.251358e+00
3.810034e+01 1.913043e-01 -7.353210e-03 6.570967e-01 -2.479553e+00 2.252182e+00
3.809711e+01 1.913043e-01 -7.348124e-03 6.571581e-01 -2.480225e+00 2.253052e+00
3.808586e+01 1.913043e-01 -7.364310e-03 6.572160e-01 -2.480804e+00 2.253952e+00
3.808263e+01 1.913043e-01 -7.357858e-03 6.572568e-01 -2.481415e+00 2.254822e+00
3.804137e+01 1.913043e-01 -7.350568e-03 6.573315e-01 -2.482407e+00 2.256317e+00
3.802484e+01 1.913043e-01 -7.350079e-03 6.573546e-01 -2.482819e+00 2.256836e+00
3.798767e+01 1.913043e-01 -7.342749e-03 6.574049e-01 -2.482758e+00 2.257416e+00
3.802443e+01 1.956522e-01 -7.364141e-03 6.574610e-01 -2.483566e+00 2.258453e+00
3.794498e+01 1.956522e-01 -7.357220e-03 6.575359e-01 -2.484802e+00 2.260208e+00
3.787621e+01 1.956522e-01 -7.326423e-03 6.575354e-01 -2.484222e+00 2.260193e+00
3.789157e+01 1.956522e-01 -7.343068e-03 6.576111e-01 -2.484726e+00 2.261154e+00
3.791113e+01 1.956522e-01 -7.325306e-03 6.576945e-01 -2.486053e+00 2.262726e+00
3.800122e+01 1.913043e-01 -7.350677e-03 6.577150e-01 -2.485886e+00 2.262985e+00
3.799875e+01 1.913043e-01 -7.311483e-03 6.577654e-01 -2.486847e+00 2.264206e+00
3.797745e+01 1.913043e-01 -7.331020e-03 6.578103e-01 -2.486755e+00 2.264725e+00
3.799707e+01 1.913043e-01 -7.311683e-03 6.578955e-01 -2.488510e+00 2.266846e+00
3.795805e+01 1.913043e-01 -7.320289e-03 6.579056e-01 -2.487885e+00 2.266647e+00
3.792421e+01 1.913043e-01 -7.311623e-03 6.579843e-01 -2.488724e+00 2.267578e+00
3.794009e+01 1.913043e-01 -7.321197e-03 6.580240e-01 -2.488892e+00 2.268295e+00
3.792238e+01 1.913043e-01 -7.321606e-03 6.580680e-01 -2.489319e+00 2.268951e+00
3.792238e+01 1.913043e-01 -7.321007e-03 6.581064e-01 -2.489853e+00 2.270187e+00
3.792711e+01 1.913043e-01 -7.315632e-03 6.581694e-01 -2.490250e+00 2.270935e+00
3.792717e+01 1.913043e-01 -7.309100e-03 6.582118e-01 -2.490250e+00 2.271469e+00
3.804529e+01 1.913043e-01 -7.280327e-03 6.582519e-01 -2.492203e+00 2.273651e+00
3.804529e+01 1.913043e-01 -7.315801e-03 6.582876e-01 -2.490829e+00 2.273026e+00
3.800412e+01 1.913043e-01 -7.309758e-03 6.583435e-01 -2.491501e+00 2.273911e+00
3.792108e+01 1.913043e-01 -7.309668e-03 6.583756e-01 -2.492065e+00 2.275116e+00
3.792108e+01 1.913043e-01 -7.289463e-03 6.584464e-01 -2.493454e+00 2.276840e+00
3.792108e+01 1.913043e-01 -7.289642e-03 6.584845e-01 -2.493286e+00 2.277039e+00
3.795551e+01 1.913043e-01 -7.292415e-03 6.585415e-01 -2.493530e+00 2.277969e+00
3.795604e+01 1.913043e-01 -7.293262e-03 6.585661e-01 -2.493256e+00 2.278137e+00
3.795551e+01 1.913043e-01 -7.280577e-03 6.586285e-01 -2.494110e+00 2.279480e+00
3.781833e+01 1.913043e-01 -7.291487e-03 6.586497e-01 -2.493805e+00 2.279739e+00
3.781833e+01 1.913043e-01 -7.289403e-03 6.587158e-01 -2.494965e+00 2.281235e+00
3.781833e+01 1.913043e-01 -7.281863e-03 6.587577e-01 -2.494751e+00 2.281296e+00
3.784630e+01 1.913043e-01 -7.266684e-03 6.587893e-01 -2.495407e+00 2.282394e+00
3.783780e+01 1.913043e-01 -7.309638e-03 6.588400e-01 -2.495377e+00 2.282898e+00
3.787502e+01 1.913043e-01 -7.267203e-03 6.589129e-01 -2.495972e+00 2.283844e+00
3.787328e+01 1.913043e-01 -7.267253e-03 6.589251e-01 -2.496094e+00 2.284607e+00
3.785741e+01 1.913043e-01 -7.270933e-03 6.590113e-01 -2.497498e+00 2.286163e+00
3.790306e+01 1.913043e-01 -7.250947e-03 6.590081e-01 -2.497650e+00 2.287018e+00
3.781393e+01 1.913043e-01 -7.250737e-03 6.590523e-01 -2.497437e+00 2.287216e+00
3.781166e+01 1.913043e-01 -7.266405e-03 6.591084e-01 -2.498245e+00 2.288376e+00
3.781627e+01 1.913043e-01 -7.270903e-03 6.591255e-01 -2.497818e+00 2.288376e+00
3.786066e+01 1.913043e-01 -7.271272e-03 6.591987e-01 -2.498596e+00 2.289307e+00
3.793990e+01 1.913043e-01 -7.260351e-03 6.591916e-01 -2.498566e+00 2.289978e+00
3.794043e+01 1.913043e-01 -7.258576e-03 6.592650e-01 -2.498978e+00 2.290771e+00
3.784535e+01 1.913043e-01 -7.246209e-03 6.593176e-01 -2.500137e+00 2.292099e+00
3.787933e+01 1.913043e-01 -7.247037e-03 6.593484e-01 -2.499542e+00 2.292252e+00
3.783490e+01 1.913043e-01 -7.250937e-03 6.593799e-01 -2.500092e+00 2.293091e+00
3.782086e+01 1.913043e-01 -7.242210e-03 6.594323e-01 -2.500656e+00 2.293930e+00
3.782841e+01 1.913043e-01 -7.231050e-03 6.594726e-01 -2.500656e+00 2.294724e+00
3.782913e+01 1.913043e-01 -7.241263e-03 6.595073e-01 -2.501541e+00 2.296173e+00
3.782854e+01 1.913043e-01 -7.220848e-03 6.595226e-01 -2.500900e+00 2.296143e+00
3.785843e+01 1.913043e-01 -7.208292e-03 6.596023e-01 -2.501862e+00 2.297562e+00
3.783371e+01 1.913043e-01 -7.206596e-03 6.596140e-01 -2.501434e+00 2.297668e+00
3.782489e+01 1.913043e-01 -7.187717e-03 6.596787e-01 -2.502182e+00 2.299088e+00
3.779892e+01 1.913043e-01 -7.185892e-03 6.596892e-01 -2.501129e+00 2.298981e+00
3.781248e+01 1.913043e-01 -7.169038e-03 6.597467e-01 -2.502228e+00 2.300598e+00
3.782628e+01 1.913043e-01 -7.183359e-03 6.597643e-01 -2.501602e+00 2.300568e+00
3.778732e+01 1.913043e-01 -7.179470e-03 6.598075e-01 -2.502396e+00 2.301804e+00
3.779379e+01 1.913043e-01 -7.150957e-03 6.598562e-01 -2.503204e+00 2.302933e+00
3.780566e+01 1.913043e-01 -7.124997e-03 6.598608e-01 -2.502441e+00 2.303024e+00
3.780890e+01 1.913043e-01 -7.139647e-03 6.599178e-01 -2.502914e+00 2.304016e+00
3.780363e+01 1.913043e-01 -7.142908e-03 6.599831e-01 -2.502838e+00 2.304611e+00
3.780301e+01 1.913043e-01 -7.136506e-03 6.599924e-01 -2.502335e+00 2.304764e+00
3.775648e+01 1.913043e-01 -7.111763e-03 6.600426e-01 -2.503601e+00 2.306412e+00
3.772168e+01 1.913043e-01 -7.109180e-03 6.600524e-01 -2.502686e+00 2.306198e+00
3.772168e+01 1.913043e-01 -7.101381e-03 6.601165e-01 -2.503433e+00 2.307495e+00
3.771640e+01 1.913043e-01 -7.092525e-03 6.601451e-01 -2.503311e+00 2.307785e+00
3.771519e+01 1.913043e-01 -7.080148e-03 6.601762e-01 -2.503464e+00 2.308670e+00
3.771346e+01 1.913043e-01 -7.059434e-03 6.602066e-01 -2.503036e+00 2.308975e+00
3.771028e+01 1.913043e-01 -7.087867e-03 6.602293e-01 -2.503204e+00 2.309677e+00
3.771202e+01 1.913043e-01 -7.053879e-03 6.602538e-01 -2.503448e+00 2.310394e+00
3.770872e+01 1.913043e-01 -7.065288e-03 6.603014e-01 -2.503693e+00 2.311066e+00
3.770872e+01 1.913043e-01 -7.032836e-03 6.603259e-01 -2.504379e+00 2.312485e+00
3.770926e+01 1.913043e-01 -7.047865e-03 6.603995e-01 -2.504868e+00 2.313263e+00
3.777272e+01 1.913043e-01 -7.031140e-03 6.603821e-01 -2.504440e+00 2.313461e+00
3.777272e+01 1.913043e-01 -7.031140e-03 6.604291e-01 -2.504364e+00 2.313904e+00
3.779521e+01 1.913043e-01 -7.029295e-03 6.604638e-01 -2.504242e+00 2.314270e+00
3.779575e+01 1.913043e-01 -7.025276e-03 6.605162e-01 -2.504318e+00 2.315018e+00
3.779251e+01 1.913043e-01 -7.011404e-03 6.605481e-01 -2.504608e+00 2.315750e+00
3.779077e+01 1.913043e-01 -7.024309e-03 6.605666e-01 -2.504852e+00 2.316498e+00
3.778256e+01 1.913043e-01 -6.979799e-03 6.606114e-01 -2.505341e+00 2.317444e+00
3.778256e+01 1.913043e-01 -7.014007e-03 6.606463e-01 -2.505371e+00 2.317917e+00
3.783122e+01 1.913043e-01 -6.974892e-03 6.606832e-01 -2.506027e+00 2.318878e+00
3.781598e+01 1.913043e-01 -6.992574e-03 6.606964e-01 -2.505585e+00 2.319229e+00
3.781549e+01 1.913043e-01 -6.948194e-03 6.607452e-01 -2.507263e+00 2.321030e+00
3.778723e+01 1.913043e-01 -6.958576e-03 6.607702e-01 -2.505798e+00 2.320419e+00
3.779314e+01 1.913043e-01 -6.945761e-03 6.607986e-01 -2.506454e+00 2.321198e+00
3.782146e+01 1.913043e-01 -6.967183e-03 6.608528e-01 -2.506149e+00 2.321762e+00
3.782320e+01 1.913043e-01 -6.934880e-03 6.608704e-01 -2.506821e+00 2.322723e+00
3.788321e+01 1.913043e-01 -6.923830e-03 6.608851e-01 -2.506424e+00 2.322937e+00
3.788321e+01 1.913043e-01 -6.955146e-03 6.609499e-01 -2.507080e+00 2.323685e+00
3.789142e+01 1.913043e-01 -6.906397e-03 6.609835e-01 -2.507202e+00 2.324707e+00
3.782967e+01 1.913043e-01 -6.886301e-03 6.610126e-01 -2.507690e+00 2.325592e+00
3.780836e+01 1.913043e-01 -6.905649e-03 6.610288e-01 -2.506912e+00 2.325378e+00
3.787012e+01 1.913043e-01 -6.899237e-03 6.610815e-01 -2.507294e+00 2.326248e+00
3.787012e+01 1.913043e-01 -6.883250e-03 6.610921e-01 -2.507568e+00 2.326660e+00
3.775420e+01 1.913043e-01 -6.862845e-03 6.611599e-01 -2.508820e+00 2.328583e+00
3.775420e+01 1.913043e-01 -6.859853e-03 6.611688e-01 -2.507568e+00 2.327774e+00
3.776482e+01 1.913043e-01 -6.852862e-03 6.612288e-01 -2.508728e+00 2.329346e+00
3.776482e+01 1.913043e-01 -6.837513e-03 6.612272e-01 -2.508835e+00 2.329819e+00
3.778012e+01 1.913043e-01 -6.845322e-03 6.612725e-01 -2.508301e+00 2.329880e+00
3.785631e+01 1.913043e-01 -6.848145e-03 6.612810e-01 -2.508072e+00 2.330292e+00
3.784506e+01 1.913043e-01 -6.841832e-03 6.613323e-01 -2.508636e+00 2.331223e+00
3.783388e+01 1.913043e-01 -6.803036e-03 6.613708e-01 -2.509537e+00 2.332413e+00
3.782924e+01 1.913043e-01 -6.815882e-03 6.613942e-01 -2.508652e+00 2.332031e+00
3.774324e+01 1.913043e-01 -6.796275e-03 6.614381e-01 -2.510666e+00 2.334320e+00
3.773199e+01 1.913043e-01 -6.781634e-03 6.614528e-01 -2.509140e+00 2.333160e+00
3.773199e+01 1.913043e-01 -6.794061e-03 6.614954e-01 -2.509384e+00 2.333954e+00
3.771602e+01 1.913043e-01 -6.776319e-03 6.615140e-01 -2.509949e+00 2.334656e+00
3.771602e+01 1.913043e-01 -6.764171e-03 6.615673e-01 -2.509933e+00 2.335037e+00
3.784225e+01 1.913043e-01 -6.780747e-03 6.615611e-01 -2.509399e+00 2.335327e+00
3.780627e+01 1.913043e-01 -6.760910e-03 6.615994e-01 -2.509628e+00 2.335968e+00
3.778572e+01 1.913043e-01 -6.728328e-03 6.616368e-01 -2.509979e+00 2.336456e+00
3.783389e+01 1.913043e-01 -6.739049e-03 6.616453e-01 -2.509872e+00 2.337067e+00
3.776155e+01 1.869565e-01 -6.725446e-03 6.616850e-01 -2.510391e+00 2.337677e+00
3.776155e+01 1.869565e-01 -6.701989e-03 6.616982e-01 -2.510132e+00 2.338272e+00
3.776976e+01 1.869565e-01 -6.702358e-03 6.617426e-01 -2.510559e+00 2.339096e+00
3.779079e+01 1.869565e-01 -6.724100e-03 6.617822e-01 -2.510391e+00 2.339508e+00
3.779079e+01 1.869565e-01 -6.689912e-03 6.618242e-01 -2.511765e+00 2.341232e+00
3.778755e+01 1.869565e-01 -6.663882e-03 6.618223e-01 -2.510635e+00 2.340683e+00
3.775636e+01 1.869565e-01 -6.652004e-03 6.618549e-01 -2.511414e+00 2.341644e+00
3.769946e+01 1.869565e-01 -6.626194e-03 6.618846e-01 -2.511749e+00 2.342331e+00
3.769946e+01 1.869565e-01 -6.615682e-03 6.619025e-01 -2.510864e+00 2.342239e+00
3.769623e+01 1.869565e-01 -6.621197e-03 6.619521e-01 -2.511108e+00 2.342789e+00
3.767354e+01 1.869565e-01 -6.611334e-03 6.619839e-01 -2.511871e+00 2.343796e+00
3.767583e+01 1.869565e-01 -6.624479e-03 6.619951e-01 -2.511215e+00 2.343826e+00
3.760654e+01 1.869565e-01 -6.587489e-03 6.620482e-01 -2.511871e+00 2.344620e+00
3.763881e+01 1.869565e-01 -6.592196e-03 6.620643e-01 -2.511963e+00 2.345337e+00
3.763881e+01 1.869565e-01 -6.590949e-03 6.621013e-01 -2.512161e+00 2.345703e+00
3.762164e+01 1.869565e-01 -6.578962e-03 6.621374e-01 -2.511948e+00 2.345963e+00
3.759158e+01 1.869565e-01 -6.553929e-03 6.621591e-01 -2.512497e+00 2.346832e+00
3.765109e+01 1.869565e-01 -6.576339e-03 6.622039e-01 -2.512466e+00 2.347076e+00
3.759937e+01 1.869565e-01 -6.562486e-03 6.622340e-01 -2.512207e+00 2.347443e+00
3.759937e+01 1.869565e-01 -6.548005e-03 6.622452e-01 -2.512344e+00 2.347931e+00
3.759943e+01 1.869565e-01 -6.549800e-03 6.622791e-01 -2.512558e+00 2.348526e+00
3.759769e+01 1.869565e-01 -6.529415e-03 6.623368e-01 -2.513809e+00 2.349808e+00
3.759769e+01 1.869565e-01 -6.497382e-03 6.623701e-01 -2.513718e+00 2.350250e+00
3.759769e+01 1.869565e-01 -6.501900e-03 6.623907e-01 -2.513809e+00 2.350891e+00
3.759769e+01 1.869565e-01 -6.486651e-03 6.624017e-01 -2.513123e+00 2.350571e+00
3.755878e+01 1.826087e-01 -6.487140e-03 6.624309e-01 -2.513199e+00 2.351074e+00
3.755878e+01 1.826087e-01 -6.488316e-03 6.624814e-01 -2.513458e+00 2.351685e+00
3.756525e+01 1.826087e-01 -6.482751e-03 6.625004e-01 -2.513580e+00 2.352264e+00
3.754994e+01 1.826087e-01 -6.482492e-03 6.625297e-01 -2.514221e+00 2.353012e+00
3.754994e+01 1.826087e-01 -6.465219e-03 6.625475e-01 -2.514130e+00 2.353592e+00
3.758379e+01 1.869565e-01 -6.438082e-03 6.625935e-01 -2.514999e+00 2.354904e+00
3.762610e+01 1.869565e-01 -6.416431e-03 6.626313e-01 -2.514969e+00 2.355286e+00
3.761740e+01 1.913043e-01 -6.417567e-03 6.626608e-01 -2.515533e+00 2.355957e+00
3.761734e+01 1.913043e-01 -6.417547e-03 6.626712e-01 -2.514587e+00 2.355515e+00
3.762859e+01 1.913043e-01 -6.410885e-03 6.627348e-01 -2.515076e+00 2.356323e+00
3.762865e+01 1.913043e-01 -6.382971e-03 6.627581e-01 -2.515686e+00 2.357422e+00
3.755034e+01 1.913043e-01 -6.395996e-03 6.627782e-01 -2.515259e+00 2.357376e+00
3.754987e+01 1.913043e-01 -6.368101e-03 6.627968e-01 -2.516022e+00 2.358383e+00
3.770450e+01 1.913043e-01 -6.365139e-03 6.628487e-01 -2.516708e+00 2.359329e+00
3.769325e+01 1.913043e-01 -6.349212e-03 6.628800e-01 -2.517914e+00 2.360504e+00
3.769325e+01 1.913043e-01 -6.354378e-03 6.629098e-01 -2.516693e+00 2.360107e+00
3.769151e+01 1.913043e-01 -6.342101e-03 6.629232e-01 -2.515900e+00 2.359741e+00
3.774449e+01 1.913043e-01 -6.348464e-03 6.629707e-01 -2.517120e+00 2.361191e+00
3.774443e+01 1.913043e-01 -6.339089e-03 6.629920e-01 -2.517075e+00 2.361664e+00
3.766885e+01 1.913043e-01 -6.342929e-03 6.630052e-01 -2.516632e+00 2.361450e+00
3.763162e+01 1.913043e-01 -6.327261e-03 6.630527e-01 -2.516846e+00 2.362015e+00
3.766519e+01 1.956522e-01 -6.316470e-03 6.630894e-01 -2.518005e+00 2.363403e+00
3.766519e+01 1.956522e-01 -6.325945e-03 6.631071e-01 -2.517410e+00 2.363281e+00
3.766705e+01 1.956522e-01 -6.300494e-03 6.631330e-01 -2.517624e+00 2.363708e+00
3.766705e+01 1.956522e-01 -6.261748e-03 6.631661e-01 -2.518158e+00 2.364594e+00
3.766705e+01 1.956522e-01 -6.317468e-03 6.632064e-01 -2.518066e+00 2.364807e+00
3.766705e+01 1.956522e-01 -6.286501e-03 6.632320e-01 -2.517929e+00 2.365082e+00
3.766643e+01 1.956522e-01 -6.276887e-03 6.632399e-01 -2.518356e+00 2.365891e+00
3.771674e+01 1.956522e-01 -6.275352e-03 6.632838e-01 -2.519028e+00 2.366745e+00
3.771674e+01 1.956522e-01 -6.267164e-03 6.633130e-01 -2.518463e+00 2.366592e+00
3.767957e+01 1.913043e-01 -6.273756e-03 6.633579e-01 -2.518768e+00 2.367142e+00
3.767957e+01 1.913043e-01 -6.259375e-03 6.633681e-01 -2.519485e+00 2.368118e+00
3.770963e+01 1.913043e-01 -6.277097e-03 6.634011e-01 -2.519119e+00 2.368042e+00
3.763594e+01 1.913043e-01 -6.242809e-03 6.634151e-01 -2.520065e+00 2.369019e+00
3.763594e+01 1.913043e-01 -6.238720e-03 6.634714e-01 -2.520798e+00 2.370193e+00
3.773491e+01 1.956522e-01 -6.236686e-03 6.634858e-01 -2.520355e+00 2.369919e+00
3.776436e+01 1.956522e-01 -6.248833e-03 6.635440e-01 -2.521744e+00 2.371628e+00
3.770596e+01 1.913043e-01 -6.278732e-03 6.635743e-01 -2.520187e+00 2.370300e+00
3.767528e+01 1.913043e-01 -6.250638e-03 6.635775e-01 -2.520798e+00 2.371323e+00
3.767354e+01 1.913043e-01 -6.230044e-03 6.635849e-01 -2.520355e+00 2.371124e+00
3.771182e+01 1.913043e-01 -6.219861e-03 6.636267e-01 -2.520721e+00 2.371780e+00
3.771188e+01 1.913043e-01 -6.242221e-03 6.636659e-01 -2.520889e+00 2.371964e+00
3.776964e+01 1.913043e-01 -6.223332e-03 6.636875e-01 -2.521744e+00 2.373138e+00
3.776964e+01 1.913043e-01 -6.218944e-03 6.637131e-01 -2.521347e+00 2.372849e+00
3.774445e+01 1.913043e-01 -6.216191e-03 6.637459e-01 -2.522247e+00 2.374298e+00
3.774445e+01 1.913043e-01 -6.224489e-03 6.637963e-01 -2.522095e+00 2.374329e+00
3.774445e+01 1.913043e-01 -6.200504e-03 6.637997e-01 -2.521957e+00 2.374313e+00
3.778163e+01 1.913043e-01 -6.189254e-03 6.638594e-01 -2.522598e+00 2.375244e+00
3.777637e+01 1.913043e-01 -6.207435e-03 6.638510e-01 -2.522034e+00 2.375153e+00
3.778993e+01 1.913043e-01 -6.191887e-03 6.638772e-01 -2.522339e+00 2.375702e+00
3.778639e+01 1.913043e-01 -6.185355e-03 6.639421e-01 -2.523865e+00 2.377380e+00
3.767757e+01 1.913043e-01 -6.180159e-03 6.639452e-01 -2.523056e+00 2.376907e+00
3.770006e+01 1.913043e-01 -6.160532e-03 6.639577e-01 -2.522827e+00 2.377029e+00
3.769247e+01 1.913043e-01 -6.173118e-03 6.639877e-01 -2.523148e+00 2.377594e+00
3.769254e+01 1.913043e-01 -6.141593e-03 6.640318e-01 -2.524414e+00 2.378815e+00
3.769191e+01 1.913043e-01 -6.139020e-03 6.640532e-01 -2.523514e+00 2.378494e+00
3.772742e+01 1.913043e-01 -6.133495e-03 6.640908e-01 -2.524429e+00 2.379410e+00
3.772742e+01 1.913043e-01 -6.134103e-03 6.641192e-01 -2.524445e+00 2.379791e+00
3.772418e+01 1.913043e-01 -6.146200e-03 6.641422e-01 -2.524063e+00 2.379837e+00
3.768440e+01 1.869565e-01 -6.141024e-03 6.641844e-01 -2.524307e+00 2.380371e+00
3.769971e+01 1.869565e-01 -6.135200e-03 6.641873e-01 -2.524582e+00 2.380981e+00
3.769971e+01 1.869565e-01 -6.108961e-03 6.642181e-01 -2.524872e+00 2.381546e+00
3.769647e+01 1.869565e-01 -6.106378e-03 6.642671e-01 -2.525452e+00 2.382248e+00
3.773264e+01 1.913043e-01 -6.114007e-03 6.643064e-01 -2.525864e+00 2.382874e+00
3.773911e+01 1.913043e-01 -6.082193e-03 6.643384e-01 -2.526611e+00 2.383896e+00
3.773911e+01 1.913043e-01 -6.106049e-03 6.643658e-01 -2.526825e+00 2.384354e+00
3.773059e+01 1.913043e-01 -6.092266e-03 6.643729e-01 -2.526123e+00 2.383820e+00
3.783400e+01 1.913043e-01 -6.102628e-03 6.644386e-01 -2.526352e+00 2.384415e+00
3.783076e+01 1.913043e-01 -6.109280e-03 6.644551e-01 -2.526337e+00 2.384628e+00
3.776729e+01 1.913043e-01 -6.070445e-03 6.644656e-01 -2.527405e+00 2.385864e+00
3.776932e+01 1.913043e-01 -6.075431e-03 6.645092e-01 -2.527390e+00 2.386017e+00
3.776404e+01 1.913043e-01 -6.084397e-03 6.645374e-01 -2.527405e+00 2.386169e+00
3.776404e+01 1.913043e-01 -6.068490e-03 6.645747e-01 -2.528137e+00 2.387085e+00
3.782578e+01 1.913043e-01 -6.056792e-03 6.645604e-01 -2.527237e+00 2.386765e+00
3.782578e+01 1.913043e-01 -6.052424e-03 6.645936e-01 -2.527451e+00 2.387238e+00
3.776404e+01 1.913043e-01 -6.037713e-03 6.646502e-01 -2.528214e+00 2.388046e+00
3.766403e+01 1.913043e-01 -6.066037e-03 6.646747e-01 -2.527939e+00 2.388184e+00
3.766229e+01 1.913043e-01 -6.039319e-03 6.646993e-01 -2.528137e+00 2.388672e+00
3.765906e+01 1.913043e-01 -6.020919e-03 6.647443e-01 -2.529633e+00 2.390137e+00
3.772191e+01 1.913043e-01 -6.050339e-03 6.647680e-01 -2.528427e+00 2.389526e+00
3.772191e+01 1.913043e-01 -6.038292e-03 6.648001e-01 -2.528854e+00 2.390137e+00
3.770596e+01 1.913043e-01 -6.026234e-03 6.647943e-01 -2.528793e+00 2.390427e+00
3.770596e+01 1.913043e-01 -6.024768e-03 6.648624e-01 -2.529800e+00 2.391556e+00
3.772121e+01 1.913043e-01 -6.003236e-03 6.648719e-01 -2.530045e+00 2.392349e+00
3.772121e+01 1.913043e-01 -6.011833e-03 6.649139e-01 -2.529709e+00 2.392136e+00
3.772121e+01 1.913043e-01 -6.004443e-03 6.649208e-01 -2.529373e+00 2.392197e+00
3.772682e+01 1.913043e-01 -5.988756e-03 6.649597e-01 -2.530457e+00 2.393311e+00
3.772682e+01 1.913043e-01 -5.980179e-03 6.649963e-01 -2.530289e+00 2.393799e+00
3.776880e+01 1.913043e-01 -5.995657e-03 6.650103e-01 -2.529831e+00 2.393600e+00
3.776820e+01 1.913043e-01 -5.989663e-03 6.650296e-01 -2.530045e+00 2.394104e+00
3.775696e+01 1.913043e-01 -5.965478e-03 6.650595e-01 -2.530197e+00 2.394531e+00
3.782846e+01 1.913043e-01 -5.953750e-03 6.650830e-01 -2.531158e+00 2.395737e+00
3.782846e+01 1.913043e-01 -5.958019e-03 6.650920e-01 -2.530472e+00 2.395401e+00
3.781316e+01 1.913043e-01 -5.962177e-03 6.651442e-01 -2.530640e+00 2.395813e+00
3.789447e+01 1.913043e-01 -5.955216e-03 6.651745e-01 -2.530823e+00 2.396301e+00
3.789447e+01 1.913043e-01 -5.928598e-03 6.652061e-01 -2.531281e+00 2.396912e+00
3.783273e+01 1.913043e-01 -5.930822e-03 6.652306e-01 -2.531113e+00 2.397034e+00
3.781383e+01 1.913043e-01 -5.930922e-03 6.652761e-01 -2.532486e+00 2.398499e+00
3.780350e+01 1.913043e-01 -5.951706e-03 6.652989e-01 -2.531311e+00 2.397827e+00
3.780910e+01 1.913043e-01 -5.909619e-03 6.653188e-01 -2.532410e+00 2.398819e+00
3.780270e+01 1.869565e-01 -5.938372e-03 6.653347e-01 -2.532135e+00 2.399124e+00
3.780264e+01 1.869565e-01 -5.896465e-03 6.653498e-01 -2.531860e+00 2.399063e+00
3.775264e+01 1.869565e-01 -5.896924e-03 6.653921e-01 -2.532455e+00 2.399902e+00
3.782819e+01 1.869565e-01 -5.927830e-03 6.654263e-01 -2.532578e+00 2.400299e+00
3.782819e+01 1.869565e-01 -5.904134e-03 6.654426e-01 -2.532333e+00 2.400238e+00
3.773598e+01 1.869565e-01 -5.893922e-03 6.654594e-01 -2.532516e+00 2.400803e+00
3.776604e+01 1.869565e-01 -5.915992e-03 6.655006e-01 -2.532379e+00 2.400970e+00
3.770590e+01 1.869565e-01 -5.857590e-03 6.655271e-01 -2.533356e+00 2.401962e+00
3.766824e+01 1.869565e-01 -5.877177e-03 6.655656e-01 -2.533722e+00 2.402634e+00
3.766824e+01 1.869565e-01 -5.895378e-03 6.655994e-01 -2.533539e+00 2.402863e+00
3.764493e+01 1.869565e-01 -5.877526e-03 6.655866e-01 -2.532944e+00 2.402527e+00
3.764493e+01 1.869565e-01 -5.876489e-03 6.656300e-01 -2.533020e+00 2.402786e+00
3.758299e+01 1.869565e-01 -5.873846e-03 6.656641e-01 -2.534103e+00 2.404037e+00
3.760826e+01 1.869565e-01 -5.844405e-03 6.656738e-01 -2.533829e+00 2.404068e+00
3.756401e+01 1.869565e-01 -5.861180e-03 6.657231e-01 -2.534607e+00 2.405151e+00
3.756787e+01 1.869565e-01 -5.852464e-03 6.657369e-01 -2.534378e+00 2.404892e+00
3.756787e+01 1.869565e-01 -5.864491e-03 6.657621e-01 -2.534134e+00 2.404922e+00
3.759439e+01 1.869565e-01 -5.890032e-03 6.657767e-01 -2.533829e+00 2.404999e+00
3.759445e+01 1.869565e-01 -5.858896e-03 6.658055e-01 -2.533966e+00 2.405502e+00
3.764769e+01 1.869565e-01 -5.872450e-03 6.658491e-01 -2.534256e+00 2.405991e+00
3.764445e+01 1.869565e-01 -5.843318e-03 6.658864e-01 -2.535461e+00 2.407425e+00
3.754141e+01 1.869565e-01 -5.824798e-03 6.658828e-01 -2.534531e+00 2.406769e+00
3.762288e+01 1.869565e-01 -5.820640e-03 6.659178e-01 -2.535568e+00 2.408051e+00
3.752287e+01 1.869565e-01 -5.832807e-03 6.659619e-01 -2.535248e+00 2.408051e+00
3.757611e+01 1.869565e-01 -5.846919e-03 6.659904e-01 -2.535370e+00 2.408096e+00
3.756461e+01 1.826087e-01 -5.836218e-03 6.659830e-01 -2.535217e+00 2.408356e+00
3.756461e+01 1.826087e-01 -5.843298e-03 6.660439e-01 -2.535690e+00 2.408981e+00
3.753226e+01 1.826087e-01 -5.836477e-03 6.660551e-01 -2.535568e+00 2.409256e+00
3.754700e+01 1.869565e-01 -5.799985e-03 6.661110e-01 -2.538208e+00 2.411987e+00
3.751585e+01 1.869565e-01 -5.824170e-03 6.661108e-01 -2.535721e+00 2.409882e+00
3.746828e+01 1.869565e-01 -5.828259e-03 6.661615e-01 -2.536987e+00 2.411255e+00
3.751422e+01 1.869565e-01 -5.839818e-03 6.661946e-01 -2.536591e+00 2.411194e+00
3.743556e+01 1.826087e-01 -5.815972e-03 6.661904e-01 -2.536484e+00 2.411438e+00
3.750385e+01 1.826087e-01 -5.795817e-03 6.662365e-01 -2.537552e+00 2.412781e+00
3.739839e+01 1.782609e-01 -5.839180e-03 6.662343e-01 -2.536453e+00 2.411942e+00
3.739250e+01 1.782609e-01 -5.818844e-03 6.662755e-01 -2.537079e+00 2.412796e+00
3.745425e+01 1.782609e-01 -5.806079e-03 6.663061e-01 -2.537140e+00 2.413132e+00
3.737067e+01 1.739130e-01 -5.801641e-03 6.663237e-01 -2.537720e+00 2.413712e+00
3.733229e+01 1.739130e-01 -5.789643e-03 6.663599e-01 -2.537186e+00 2.413544e+00
3.732906e+01 1.739130e-01 -5.807385e-03 6.663852e-01 -2.537354e+00 2.414017e+00
3.736133e+01 1.739130e-01 -5.797143e-03 6.664037e-01 -2.537460e+00 2.414413e+00
3.731874e+01 1.739130e-01 -5.798669e-03 6.664360e-01 -2.538116e+00 2.415009e+00
3.731874e+01 1.739130e-01 -5.803286e-03 6.664843e-01 -2.538223e+00 2.415604e+00
3.732005e+01 1.739130e-01 -5.780548e-03 6.664898e-01 -2.538025e+00 2.415604e+00
3.735593e+01 1.739130e-01 -5.785265e-03 6.665222e-01 -2.539856e+00 2.417572e+00
3.737306e+01 1.739130e-01 -5.779082e-03 6.665249e-01 -2.538788e+00 2.416702e+00
3.735452e+01 1.739130e-01 -5.815833e-03 6.665764e-01 -2.538284e+00 2.416504e+00
3.727602e+01 1.739130e-01 -5.777726e-03 6.665717e-01 -2.538681e+00 2.417160e+00
3.727602e+01 1.739130e-01 -5.786811e-03 6.666151e-01 -2.538498e+00 2.417175e+00
3.733777e+01 1.739130e-01 -5.792855e-03 6.666464e-01 -2.538681e+00 2.417542e+00
3.733783e+01 1.739130e-01 -5.785983e-03 6.666762e-01 -2.538818e+00 2.417892e+00
3.727602e+01 1.739130e-01 -5.769777e-03 6.666920e-01 -2.539597e+00 2.418716e+00
3.733783e+01 1.739130e-01 -5.784397e-03 6.667140e-01 -2.539078e+00 2.418533e+00
3.733777e+01 1.739130e-01 -5.790760e-03 6.667498e-01 -2.539536e+00 2.419159e+00
3.737498e+01 1.739130e-01 -5.772829e-03 6.667776e-01 -2.540314e+00 2.420181e+00
3.737822e+01 1.739130e-01 -5.751546e-03 6.668008e-01 -2.541260e+00 2.421082e+00
3.737822e+01 1.739130e-01 -5.757370e-03 6.668314e-01 -2.540863e+00 2.421127e+00
3.737822e+01 1.739130e-01 -5.778095e-03 6.668660e-01 -2.540649e+00 2.421097e+00
3.730502e+01 1.739130e-01 -5.783510e-03 6.668775e-01 -2.539581e+00 2.420334e+00
3.731453e+01 1.739130e-01 -5.761310e-03 6.669170e-01 -2.540619e+00 2.421448e+00
3.731627e+01 1.739130e-01 -5.769887e-03 6.669324e-01 -2.540131e+00 2.421021e+00
3.731453e+01 1.739130e-01 -5.757590e-03 6.669578e-01 -2.540421e+00 2.421768e+00
3.731453e+01 1.739130e-01 -5.750888e-03 6.669707e-01 -2.540894e+00 2.422195e+00
3.727734e+01 1.739130e-01 -5.751397e-03 6.670030e-01 -2.540390e+00 2.421967e+00
3.727417e+01 1.739130e-01 -5.781057e-03 6.670517e-01 -2.540924e+00 2.422577e+00
3.727417e+01 1.739130e-01 -5.779860e-03 6.670596e-01 -2.540924e+00 2.422836e+00
3.727417e+01 1.739130e-01 -5.771233e-03 6.670850e-01 -2.542023e+00 2.424118e+00
3.728542e+01 1.739130e-01 -5.786542e-03 6.671298e-01 -2.541931e+00 2.423981e+00
3.732524e+01 1.739130e-01 -5.765578e-03 6.671549e-01 -2.541199e+00 2.423676e+00
3.732524e+01 1.739130e-01 -5.756852e-03 6.671957e-01 -2.542496e+00 2.425064e+00
3.732524e+01 1.739130e-01 -5.758458e-03 6.671896e-01 -2.542068e+00 2.424759e+00
3.736278e+01 1.739130e-01 -5.733286e-03 6.672349e-01 -2.543930e+00 2.426727e+00
3.734938e+01 1.739130e-01 -5.764152e-03 6.672274e-01 -2.542313e+00 2.425095e+00
3.735429e+01 1.739130e-01 -5.756463e-03 6.672690e-01 -2.542816e+00 2.425888e+00
3.737944e+01 1.739130e-01 -5.751476e-03 6.672892e-01 -2.542480e+00 2.425735e+00
3.738268e+01 1.739130e-01 -5.770794e-03 6.673143e-01 -2.542328e+00 2.425613e+00
3.740431e+01 1.739130e-01 -5.782632e-03 6.673557e-01 -2.542358e+00 2.425858e+00
3.740465e+01 1.739130e-01 -5.749123e-03 6.673860e-01 -2.543762e+00 2.427368e+00
3.737950e+01 1.739130e-01 -5.755097e-03 6.673937e-01 -2.543411e+00 2.427292e+00
3.743472e+01 1.739130e-01 -5.763025e-03 6.674509e-01 -2.542999e+00 2.426849e+00
3.743472e+01 1.739130e-01 -5.769777e-03 6.674472e-01 -2.542877e+00 2.426956e+00
3.745628e+01 1.739130e-01 -5.738272e-03 6.674840e-01 -2.544022e+00 2.428116e+00
3.740926e+01 1.739130e-01 -5.722804e-03 6.675151e-01 -2.544647e+00 2.429047e+00
3.736766e+01 1.739130e-01 -5.734432e-03 6.675474e-01 -2.544205e+00 2.428879e+00
3.728819e+01 1.739130e-01 -5.734632e-03 6.675725e-01 -2.544937e+00 2.429794e+00
3.740068e+01 1.739130e-01 -5.761290e-03 6.675674e-01 -2.543365e+00 2.428329e+00
3.742583e+01 1.739130e-01 -5.739648e-03 6.675744e-01 -2.543579e+00 2.428680e+00
3.739894e+01 1.739130e-01 -5.723971e-03 6.676503e-01 -2.544891e+00 2.430115e+00
3.742409e+01 1.739130e-01 -5.732268e-03 6.676558e-01 -2.544693e+00 2.429977e+00
3.739401e+01 1.739130e-01 -5.726045e-03 6.677034e-01 -2.544861e+00 2.430374e+00
3.734637e+01 1.739130e-01 -5.714506e-03 6.676947e-01 -2.545120e+00 2.430893e+00
3.741458e+01 1.739130e-01 -5.729875e-03 6.677452e-01 -2.544449e+00 2.430313e+00
3.741458e+01 1.739130e-01 -5.731650e-03 6.677805e-01 -2.545578e+00 2.431778e+00
3.739209e+01 1.739130e-01 -5.696904e-03 6.677836e-01 -2.545868e+00 2.432053e+00
3.739215e+01 1.739130e-01 -5.725756e-03 6.678150e-01 -2.545166e+00 2.431442e+00
3.739548e+01 1.739130e-01 -5.699427e-03 6.678382e-01 -2.544983e+00 2.431671e+00
3.737299e+01 1.739130e-01 -5.694899e-03 6.678936e-01 -2.546326e+00 2.432983e+00
3.737299e+01 1.739130e-01 -5.700913e-03 6.679007e-01 -2.546097e+00 2.432953e+00
3.734064e+01 1.739130e-01 -5.713599e-03 6.679193e-01 -2.545441e+00 2.432648e+00
3.739320e+01 1.739130e-01 -5.688586e-03 6.679481e-01 -2.546509e+00 2.433716e+00
3.739668e+01 1.739130e-01 -5.689594e-03 6.679759e-01 -2.546753e+00 2.434250e+00
3.735956e+01 1.739130e-01 -5.712901e-03 6.680113e-01 -2.546204e+00 2.433853e+00
3.736258e+01 1.739130e-01 -5.701531e-03 6.680177e-01 -2.546341e+00 2.434143e+00
3.732707e+01 1.739130e-01 -5.669099e-03 6.680602e-01 -2.547073e+00 2.435013e+00
3.722708e+01 1.739130e-01 -5.663753e-03 6.680645e-01 -2.546814e+00 2.434891e+00
3.722708e+01 1.739130e-01 -5.666795e-03 6.681144e-01 -2.547592e+00 2.436005e+00
3.722708e+01 1.739130e-01 -5.659405e-03 6.681058e-01 -2.546906e+00 2.435455e+00
3.722708e+01 1.739130e-01 -5.669737e-03 6.681332e-01 -2.546646e+00 2.435501e+00
3.722534e+01 1.739130e-01 -5.669049e-03 6.681835e-01 -2.547455e+00 2.436432e+00
3.719528e+01 1.739130e-01 -5.660402e-03 6.682126e-01 -2.547653e+00 2.436874e+00
3.720653e+01 1.739130e-01 -5.682054e-03 6.682348e-01 -2.547256e+00 2.436478e+00
3.723167e+01 1.739130e-01 -5.667054e-03 6.682709e-01 -2.547546e+00 2.436859e+00
3.721776e+01 1.739130e-01 -5.654738e-03 6.682877e-01 -2.548141e+00 2.437546e+00
3.722099e+01 1.739130e-01 -5.638691e-03 6.683143e-01 -2.549088e+00 2.438751e+00
3.722659e+01 1.739130e-01 -5.642959e-03 6.683393e-01 -2.547867e+00 2.437683e+00
3.725667e+01 1.739130e-01 -5.653192e-03 6.684043e-01 -2.548874e+00 2.438904e+00
3.724542e+01 1.739130e-01 -5.646221e-03 6.684013e-01 -2.548584e+00 2.438766e+00
3.730716e+01 1.739130e-01 -5.639539e-03 6.684196e-01 -2.548462e+00 2.438873e+00
3.724536e+01 1.739130e-01 -5.629316e-03 6.684455e-01 -2.549103e+00 2.439682e+00
3.724710e+01 1.739130e-01 -5.638482e-03 6.684857e-01 -2.548538e+00 2.439224e+00
3.729898e+01 1.739130e-01 -5.645114e-03 6.684800e-01 -2.548935e+00 2.439789e+00
3.728368e+01 1.739130e-01 -5.636696e-03 6.685258e-01 -2.549225e+00 2.440430e+00
3.727893e+01 1.739130e-01 -5.623073e-03 6.685188e-01 -2.548889e+00 2.440018e+00
3.727893e+01 1.739130e-01 -5.628419e-03 6.685607e-01 -2.549332e+00 2.440628e+00
3.740240e+01 1.739130e-01 -5.624220e-03 6.685809e-01 -2.548859e+00 2.440552e+00
3.737073e+01 1.739130e-01 -5.590012e-03 6.686129e-01 -2.550186e+00 2.441864e+00
3.743246e+01 1.739130e-01 -5.622874e-03 6.686396e-01 -2.549057e+00 2.441010e+00
3.743246e+01 1.739130e-01 -5.607056e-03 6.686793e-01 -2.549713e+00 2.441818e+00
3.742122e+01 1.739130e-01 -5.617927e-03 6.686880e-01 -2.549713e+00 2.441711e+00
3.742122e+01 1.739130e-01 -5.614257e-03 6.687406e-01 -2.549881e+00 2.442169e+00
3.741954e+01 1.739130e-01 -5.630054e-03 6.687485e-01 -2.549805e+00 2.442276e+00
3.742451e+01 1.739130e-01 -5.586223e-03 6.687801e-01 -2.550629e+00 2.443130e+00
3.742451e+01 1.739130e-01 -5.614137e-03 6.687893e-01 -2.550095e+00 2.442856e+00
3.742979e+01 1.739130e-01 -5.593603e-03 6.688307e-01 -2.550751e+00 2.443741e+00
3.741980e+01 1.739130e-01 -5.607376e-03 6.688680e-01 -2.551147e+00 2.444153e+00
3.745137e+01 1.739130e-01 -5.615005e-03 6.688779e-01 -2.550369e+00 2.443619e+00
3.745137e+01 1.739130e-01 -5.598101e-03 6.688855e-01 -2.550552e+00 2.443939e+00
3.746667e+01 1.739130e-01 -5.614058e-03 6.689412e-01 -2.551331e+00 2.444794e+00
3.752843e+01 1.739130e-01 -5.614716e-03 6.689530e-01 -2.550812e+00 2.444458e+00
3.752843e+01 1.739130e-01 -5.604932e-03 6.689824e-01 -2.551331e+00 2.444992e+00
3.752843e+01 1.739130e-01 -5.587838e-03 6.689958e-01 -2.551025e+00 2.445023e+00
3.752843e+01 1.739130e-01 -5.612601e-03 6.690419e-01 -2.551422e+00 2.445511e+00
3.752843e+01 1.739130e-01 -5.591658e-03 6.690571e-01 -2.551407e+00 2.445663e+00
3.754320e+01 1.739130e-01 -5.620390e-03 6.690877e-01 -2.551605e+00 2.445923e+00
3.750743e+01 1.739130e-01 -5.608283e-03 6.691360e-01 -2.551849e+00 2.446365e+00
3.753996e+01 1.739130e-01 -5.575462e-03 6.691315e-01 -2.552048e+00 2.446762e+00
3.751868e+01 1.739130e-01 -5.587659e-03 6.691837e-01 -2.552078e+00 2.446930e+00
3.745143e+01 1.739130e-01 -5.581136e-03 6.691941e-01 -2.552200e+00 2.447006e+00
3.745087e+01 1.739130e-01 -5.578015e-03 6.692198e-01 -2.552567e+00 2.447632e+00
3.745087e+01 1.739130e-01 -5.568830e-03 6.692791e-01 -2.552612e+00 2.447952e+00
3.745149e+01 1.739130e-01 -5.587310e-03 6.692956e-01 -2.552429e+00 2.447906e+00
3.745909e+01 1.739130e-01 -5.553681e-03 6.693241e-01 -2.554108e+00 2.449799e+00
3.745909e+01 1.739130e-01 -5.584338e-03 6.693248e-01 -2.552628e+00 2.448425e+00
3.751923e+01 1.739130e-01 -5.556413e-03 6.693791e-01 -2.553741e+00 2.449478e+00
3.749408e+01 1.739130e-01 -5.535230e-03 6.694014e-01 -2.553711e+00 2.449799e+00
3.748586e+01 1.739130e-01 -5.553202e-03 6.694282e-01 -2.553162e+00 2.449615e+00
3.751593e+01 1.739130e-01 -5.570096e-03 6.694370e-01 -2.553146e+00 2.449524e+00
3.751593e+01 1.739130e-01 -5.562616e-03 6.694872e-01 -2.553467e+00 2.449890e+00
3.751593e+01 1.739130e-01 -5.543029e-03 6.695047e-01 -2.553680e+00 2.450363e+00
3.748586e+01 1.739130e-01 -5.560622e-03 6.695414e-01 -2.554199e+00 2.450958e+00
3.751700e+01 1.739130e-01 -5.527082e-03 6.695590e-01 -2.554214e+00 2.451004e+00
3.748749e+01 1.739130e-01 -5.552264e-03 6.695703e-01 -2.553619e+00 2.450729e+00
3.749571e+01 1.739130e-01 -5.543708e-03 6.696036e-01 -2.554825e+00 2.451920e+00
3.748637e+01 1.739130e-01 -5.538721e-03 6.696232e-01 -2.553696e+00 2.451141e+00
3.749286e+01 1.739130e-01 -5.532358e-03 6.696711e-01 -2.554886e+00 2.452316e+00
3.744258e+01 1.739130e-01 -5.521019e-03 6.696836e-01 -2.555267e+00 2.452896e+00
3.746060e+01 1.739130e-01 -5.548774e-03 6.696965e-01 -2.553772e+00 2.451645e+00
3.746605e+01 1.739130e-01 -5.536507e-03 6.697073e-01 -2.553909e+00 2.451828e+00
3.740604e+01 1.739130e-01 -5.538821e-03 6.697574e-01 -2.554062e+00 2.452072e+00
3.740430e+01 1.739130e-01 -5.577077e-03 6.698029e-01 -2.555222e+00 2.453217e+00
3.741309e+01 1.739130e-01 -5.564501e-03 6.698207e-01 -2.554947e+00 2.453003e+00
3.734959e+01 1.739130e-01 -5.553631e-03 6.698234e-01 -2.554871e+00 2.452942e+00
3.740782e+01 1.739130e-01 -5.553401e-03 6.698604e-01 -2.554779e+00 2.453186e+00
3.741280e+01 1.739130e-01 -5.535530e-03 6.698933e-01 -2.555527e+00 2.454178e+00
3.742157e+01 1.782609e-01 -5.539658e-03 6.699308e-01 -2.555466e+00 2.454147e+00
3.735948e+01 1.782609e-01 -5.533475e-03 6.699418e-01 -2.555557e+00 2.454285e+00
3.741945e+01 1.782609e-01 -5.534752e-03 6.699654e-01 -2.554916e+00 2.453995e+00
3.736122e+01 1.782609e-01 -5.523941e-03 6.700097e-01 -2.555756e+00 2.454803e+00
3.741945e+01 1.782609e-01 -5.542790e-03 6.700255e-01 -2.555405e+00 2.454819e+00
3.741418e+01 1.782609e-01 -5.531999e-03 6.700414e-01 -2.555237e+00 2.454727e+00
3.740921e+01 1.782609e-01 -5.527930e-03 6.700856e-01 -2.555420e+00 2.455124e+00
3.740921e+01 1.782609e-01 -5.530403e-03 6.701183e-01 -2.555573e+00 2.455643e+00
3.742128e+01 1.782609e-01 -5.523043e-03 6.701406e-01 -2.555557e+00 2.455658e+00
3.743253e+01 1.782609e-01 -5.515514e-03 6.701791e-01 -2.556549e+00 2.456757e+00
3.743259e+01 1.782609e-01 -5.509879e-03 6.701975e-01 -2.555954e+00 2.456436e+00
3.744566e+01 1.782609e-01 -5.523991e-03 6.702279e-01 -2.555557e+00 2.456131e+00
3.739397e+01 1.782609e-01 -5.520640e-03 6.702543e-01 -2.556152e+00 2.456696e+00
3.745248e+01 1.782609e-01 -5.500933e-03 6.702809e-01 -2.555923e+00 2.456909e+00
3.746725e+01 1.782609e-01 -5.508632e-03 6.703123e-01 -2.556915e+00 2.458008e+00
3.746779e+01 1.782609e-01 -5.506917e-03 6.703391e-01 -2.555862e+00 2.457214e+00
3.748149e+01 1.782609e-01 -5.475342e-03 6.703515e-01 -2.556717e+00 2.457962e+00
3.749133e+01 1.782609e-01 -5.490601e-03 6.703807e-01 -2.555908e+00 2.457489e+00
3.756839e+01 1.782609e-01 -5.483769e-03 6.703947e-01 -2.556366e+00 2.458176e+00
3.756839e+01 1.782609e-01 -5.495578e-03 6.704472e-01 -2.556793e+00 2.458572e+00
3.752141e+01 1.782609e-01 -5.502599e-03 6.704413e-01 -2.556183e+00 2.458298e+00
3.752141e+01 1.782609e-01 -5.493114e-03 6.704799e-01 -2.556702e+00 2.459076e+00
3.758316e+01 1.782609e-01 -5.485794e-03 6.705426e-01 -2.557388e+00 2.459717e+00
3.756187e+01 1.782609e-01 -5.494022e-03 6.705450e-01 -2.556793e+00 2.459198e+00
3.756187e+01 1.782609e-01 -5.490242e-03 6.705593e-01 -2.556641e+00 2.459305e+00
3.756187e+01 1.782609e-01 -5.481775e-03 6.706181e-01 -2.558167e+00 2.460892e+00
3.756187e+01 1.782609e-01 -5.491439e-03 6.706190e-01 -2.557510e+00 2.460403e+00
3.756187e+01 1.782609e-01 -5.501711e-03 6.706645e-01 -2.557037e+00 2.459976e+00
3.756187e+01 1.782609e-01 -5.487769e-03 6.707087e-01 -2.558350e+00 2.461349e+00
3.756187e+01 1.782609e-01 -5.488367e-03 6.707512e-01 -2.558517e+00 2.461609e+00
3.759367e+01 1.782609e-01 -5.510298e-03 6.707700e-01 -2.557587e+00 2.460770e+00
3.759367e+01 1.782609e-01 -5.484687e-03 6.707650e-01 -2.557648e+00 2.460892e+00
3.753845e+01 1.782609e-01 -5.496316e-03 6.708117e-01 -2.558578e+00 2.461929e+00
3.753908e+01 1.782609e-01 -5.501631e-03 6.708301e-01 -2.557739e+00 2.461243e+00
3.761830e+01 1.782609e-01 -5.498500e-03 6.708818e-01 -2.559799e+00 2.463470e+00
3.761830e+01 1.782609e-01 -5.500764e-03 6.709178e-01 -2.559113e+00 2.462753e+00
3.765273e+01 1.826087e-01 -5.507096e-03 6.709400e-01 -2.559128e+00 2.462921e+00
3.765446e+01 1.782609e-01 -5.480638e-03 6.709591e-01 -2.559204e+00 2.463181e+00
3.770593e+01 1.826087e-01 -5.462218e-03 6.709683e-01 -2.558502e+00 2.462540e+00
3.764720e+01 1.826087e-01 -5.511903e-03 6.709956e-01 -2.558243e+00 2.462433e+00
3.768889e+01 1.826087e-01 -5.466287e-03 6.710340e-01 -2.559311e+00 2.463425e+00
3.760349e+01 1.826087e-01 -5.496256e-03 6.710624e-01 -2.559082e+00 2.463440e+00
3.762717e+01 1.826087e-01 -5.476689e-03 6.710551e-01 -2.558578e+00 2.463135e+00
3.762543e+01 1.826087e-01 -5.492147e-03 6.711028e-01 -2.559143e+00 2.463730e+00
3.762543e+01 1.826087e-01 -5.477407e-03 6.711429e-01 -2.559189e+00 2.463776e+00
3.762543e+01 1.826087e-01 -5.497433e-03 6.711946e-01 -2.559738e+00 2.464539e+00
3.767795e+01 1.826087e-01 -5.502429e-03 6.712034e-01 -2.560089e+00 2.464935e+00
3.767795e+01 1.826087e-01 -5.490162e-03 6.712377e-01 -2.559982e+00 2.465012e+00
3.764403e+01 1.826087e-01 -5.488527e-03 6.712733e-01 -2.561508e+00 2.466583e+00
3.764403e+01 1.826087e-01 -5.511265e-03 6.712734e-01 -2.559357e+00 2.464508e+00
3.767346e+01 1.826087e-01 -5.484248e-03 6.713122e-01 -2.560043e+00 2.465302e+00
3.767340e+01 1.826087e-01 -5.508044e-03 6.713284e-01 -2.559753e+00 2.464996e+00
3.773085e+01 1.826087e-01 -5.507824e-03 6.713583e-01 -2.560516e+00 2.465836e+00
3.773085e+01 1.826087e-01 -5.525237e-03 6.713764e-01 -2.560059e+00 2.465454e+00
3.772264e+01 1.826087e-01 -5.513110e-03 6.714088e-01 -2.560196e+00 2.465637e+00
3.775975e+01 1.826087e-01 -5.549851e-03 6.714433e-01 -2.560196e+00 2.465714e+00
3.757430e+01 1.826087e-01 -5.536477e-03 6.714658e-01 -2.560425e+00 2.466080e+00
3.757376e+01 1.826087e-01 -5.523073e-03 6.714998e-01 -2.560547e+00 2.466217e+00
3.750650e+01 1.826087e-01 -5.527122e-03 6.715368e-01 -2.560944e+00 2.466736e+00
3.752791e+01 1.826087e-01 -5.529426e-03 6.715522e-01 -2.560974e+00 2.466660e+00
3.749994e+01 1.826087e-01 -5.524001e-03 6.715554e-01 -2.560806e+00 2.466415e+00
3.749994e+01 1.826087e-01 -5.526035e-03 6.715832e-01 -2.560852e+00 2.466568e+00
3.752116e+01 1.826087e-01 -5.501382e-03 6.716141e-01 -2.562225e+00 2.467972e+00
3.753709e+01 1.826087e-01 -5.536776e-03 6.716278e-01 -2.560898e+00 2.466812e+00
3.755838e+01 1.826087e-01 -5.522405e-03 6.716607e-01 -2.561295e+00 2.467178e+00
3.753709e+01 1.826087e-01 -5.551786e-03 6.716938e-01 -2.561005e+00 2.467087e+00
3.768265e+01 1.826087e-01 -5.515753e-03 6.717047e-01 -2.561737e+00 2.467743e+00
3.755133e+01 1.826087e-01 -5.542242e-03 6.717294e-01 -2.561096e+00 2.467300e+00
3.757263e+01 1.826087e-01 -5.522196e-03 6.717720e-01 -2.562103e+00 2.468277e+00
3.755133e+01 1.826087e-01 -5.532119e-03 6.718029e-01 -2.561249e+00 2.467606e+00
3.755133e+01 1.826087e-01 -5.546999e-03 6.718210e-01 -2.561401e+00 2.467758e+00
3.754175e+01 1.782609e-01 -5.523053e-03 6.718660e-01 -2.562881e+00 2.469223e+00
3.753647e+01 1.782609e-01 -5.539479e-03 6.718961e-01 -2.561646e+00 2.468094e+00
3.757089e+01 1.826087e-01 -5.524120e-03 6.718971e-01 -2.562057e+00 2.468521e+00
3.767068e+01 1.782609e-01 -5.502240e-03 6.719556e-01 -2.563660e+00 2.470169e+00
3.767416e+01 1.782609e-01 -5.508702e-03 6.719419e-01 -2.562836e+00 2.469421e+00
3.766919e+01 1.782609e-01 -5.536996e-03 6.719644e-01 -2.561569e+00 2.468094e+00
3.751575e+01 1.782609e-01 -5.550639e-03 6.720015e-01 -2.561890e+00 2.468567e+00
3.755341e+01 1.826087e-01 -5.522315e-03 6.720123e-01 -2.562103e+00 2.468857e+00
3.748718e+01 1.782609e-01 -5.513080e-03 6.720702e-01 -2.563629e+00 2.470337e+00
3.749713e+01 1.782609e-01 -5.524549e-03 6.720687e-01 -2.562637e+00 2.469360e+00
3.759541e+01 1.782609e-01 -5.495328e-03 6.721302e-01 -2.564438e+00 2.471130e+00
3.748042e+01 1.782609e-01 -5.541882e-03 6.721414e-01 -2.562775e+00 2.469604e+00
3.751659e+01 1.826087e-01 -5.519254e-03 6.721259e-01 -2.562363e+00 2.469284e+00
3.751659e+01 1.826087e-01 -5.525108e-03 6.721711e-01 -2.562744e+00 2.469620e+00
3.751659e+01 1.826087e-01 -5.520450e-03 6.722046e-01 -2.563354e+00 2.470367e+00
3.750838e+01 1.826087e-01 -5.546191e-03 6.722311e-01 -2.562683e+00 2.469727e+00
3.751659e+01 1.826087e-01 -5.511455e-03 6.722522e-01 -2.564514e+00 2.471634e+00
3.754173e+01 1.826087e-01 -5.524928e-03 6.722873e-01 -2.562836e+00 2.470016e+00
3.754173e+01 1.826087e-01 -5.542271e-03 6.723082e-01 -2.563751e+00 2.470932e+00
3.758179e+01 1.826087e-01 -5.539030e-03 6.723472e-01 -2.563828e+00 2.471146e+00
3.767966e+01 1.869565e-01 -5.504264e-03 6.723599e-01 -2.564117e+00 2.471191e+00
3.767082e+01 1.869565e-01 -5.530802e-03 6.723876e-01 -2.563797e+00 2.471039e+00
3.766676e+01 1.869565e-01 -5.533465e-03 6.724134e-01 -2.563385e+00 2.470856e+00
3.768004e+01 1.869565e-01 -5.547747e-03 6.724252e-01 -2.563492e+00 2.470901e+00
3.769418e+01 1.869565e-01 -5.528489e-03 6.724674e-01 -2.564728e+00 2.472275e+00
3.767888e+01 1.869565e-01 -5.542551e-03 6.724955e-01 -2.563705e+00 2.471313e+00
3.767950e+01 1.869565e-01 -5.549053e-03 6.725089e-01 -2.563629e+00 2.471222e+00
3.768004e+01 1.869565e-01 -5.535400e-03 6.725173e-01 -2.563782e+00 2.471390e+00
3.758786e+01 1.869565e-01 -5.528818e-03 6.725661e-01 -2.565216e+00 2.472794e+00
3.761302e+01 1.869565e-01 -5.549183e-03 6.725841e-01 -2.564484e+00 2.472244e+00
3.762741e+01 1.869565e-01 -5.566566e-03 6.726099e-01 -2.563950e+00 2.471802e+00
3.763542e+01 1.869565e-01 -5.563374e-03 6.726301e-01 -2.564178e+00 2.472092e+00
3.757695e+01 1.869565e-01 -5.531301e-03 6.726705e-01 -2.565125e+00 2.473007e+00
3.757695e+01 1.869565e-01 -5.544176e-03 6.726769e-01 -2.564362e+00 2.472580e+00
3.757695e+01 1.869565e-01 -5.543558e-03 6.727097e-01 -2.564224e+00 2.472458e+00
3.757632e+01 1.869565e-01 -5.528279e-03 6.727364e-01 -2.564194e+00 2.472549e+00
3.757632e+01 1.869565e-01 -5.541085e-03 6.727760e-01 -2.564529e+00 2.472946e+00
3.757632e+01 1.869565e-01 -5.541394e-03 6.727995e-01 -2.564270e+00 2.472794e+00
3.753992e+01 1.869565e-01 -5.532368e-03 6.728213e-01 -2.564682e+00 2.473236e+00
3.751982e+01 1.869565e-01 -5.534203e-03 6.728544e-01 -2.564865e+00 2.473526e+00
3.756801e+01 1.869565e-01 -5.550290e-03 6.728619e-01 -2.564438e+00 2.473160e+00
3.755328e+01 1.869565e-01 -5.570794e-03 6.728801e-01 -2.564651e+00 2.473434e+00
3.756801e+01 1.869565e-01 -5.545602e-03 6.729072e-01 -2.564987e+00 2.473663e+00
3.753185e+01 1.826087e-01 -5.552803e-03 6.729406e-01 -2.565384e+00 2.474243e+00
3.753011e+01 1.826087e-01 -5.545722e-03 6.729480e-01 -2.565002e+00 2.473846e+00
3.753064e+01 1.826087e-01 -5.561559e-03 6.729760e-01 -2.564911e+00 2.473969e+00
3.754189e+01 1.826087e-01 -5.554419e-03 6.730326e-01 -2.565887e+00 2.474960e+00
3.741672e+01 1.826087e-01 -5.550130e-03 6.730142e-01 -2.565033e+00 2.474197e+00
3.739157e+01 1.826087e-01 -5.572101e-03 6.730984e-01 -2.566711e+00 2.475891e+00
3.751674e+01 1.826087e-01 -5.561529e-03 6.730916e-01 -2.565552e+00 2.475113e+00
3.753035e+01 1.826087e-01 -5.564960e-03 6.731138e-01 -2.565567e+00 2.475067e+00
3.753035e+01 1.826087e-01 -5.556463e-03 6.731315e-01 -2.565613e+00 2.475128e+00
3.751848e+01 1.826087e-01 -5.553342e-03 6.732025e-01 -2.567001e+00 2.476578e+00
3.749417e+01 1.826087e-01 -5.571124e-03 6.731981e-01 -2.565674e+00 2.475372e+00
3.749355e+01 1.826087e-01 -5.565658e-03 6.732046e-01 -2.565796e+00 2.475479e+00
3.749355e+01 1.826087e-01 -5.562686e-03 6.732358e-01 -2.565857e+00 2.475586e+00
3.749355e+01 1.826087e-01 -5.562656e-03 6.732736e-01 -2.566742e+00 2.476471e+00
3.749355e+01 1.826087e-01 -5.550360e-03 6.732713e-01 -2.566101e+00 2.475861e+00
3.740527e+01 1.826087e-01 -5.567284e-03 6.733153e-01 -2.566803e+00 2.476593e+00
3.739180e+01 1.826087e-01 -5.583450e-03 6.733178e-01 -2.566101e+00 2.476028e+00
3.749355e+01 1.826087e-01 -5.575402e-03 6.733674e-01 -2.566238e+00 2.476273e+00
3.749529e+01 1.826087e-01 -5.581206e-03 6.733903e-01 -2.566406e+00 2.476517e+00
3.749355e+01 1.826087e-01 -5.563175e-03 6.734099e-01 -2.566696e+00 2.476837e+00
3.749495e+01 1.826087e-01 -5.557181e-03 6.734329e-01 -2.567001e+00 2.477020e+00
3.739494e+01 1.826087e-01 -5.549522e-03 6.734450e-01 -2.566605e+00 2.476883e+00
