4.213461e+02 7.468514e-01 -9.271114e-03 5.817135e-01 -9.994354e-01 9.967194e-01
3.164594e+02 4.811083e-01 -1.171767e-02 5.818861e-01 -1.172974e+00 1.036789e+00
3.142891e+02 4.811083e-01 -1.251849e-02 5.820351e-01 -1.212341e+00 1.045334e+00
3.132697e+02 4.811083e-01 -1.262669e-02 5.820364e-01 -1.228928e+00 1.041931e+00
3.134642e+02 4.811083e-01 -1.259928e-02 5.819695e-01 -1.221115e+00 1.042435e+00
3.128111e+02 4.811083e-01 -1.259040e-02 5.819174e-01 -1.222275e+00 1.047287e+00
3.130145e+02 4.811083e-01 -1.257249e-02 5.818829e-01 -1.220520e+00 1.053055e+00
3.127528e+02 4.811083e-01 -1.254949e-02 5.818732e-01 -1.226135e+00 1.057648e+00
3.130308e+02 4.811083e-01 -1.252120e-02 5.818304e-01 -1.226944e+00 1.063293e+00
3.124559e+02 4.811083e-01 -1.249365e-02 5.818013e-01 -1.224915e+00 1.069000e+00
3.104740e+02 4.811083e-01 -1.247577e-02 5.818001e-01 -1.223755e+00 1.072464e+00
3.111261e+02 4.811083e-01 -1.244613e-02 5.817653e-01 -1.232788e+00 1.076752e+00
3.099494e+02 4.811083e-01 -1.242787e-02 5.817544e-01 -1.222580e+00 1.079590e+00
3.100911e+02 4.811083e-01 -1.239846e-02 5.817618e-01 -1.228287e+00 1.085999e+00
3.101763e+02 4.811083e-01 -1.237230e-02 5.817672e-01 -1.228928e+00 1.091888e+00
3.100076e+02 4.811083e-01 -1.233446e-02 5.817737e-01 -1.236526e+00 1.098068e+00
3.110157e+02 4.811083e-01 -1.230371e-02 5.817801e-01 -1.233276e+00 1.103790e+00
3.110672e+02 4.811083e-01 -1.227117e-02 5.818007e-01 -1.234634e+00 1.111069e+00
3.114365e+02 4.811083e-01 -1.224279e-02 5.818308e-01 -1.238297e+00 1.117279e+00
3.105869e+02 4.811083e-01 -1.220742e-02 5.818283e-01 -1.233063e+00 1.117661e+00
3.105582e+02 4.811083e-01 -1.217497e-02 5.818632e-01 -1.238647e+00 1.125443e+00
3.097812e+02 4.811083e-01 -1.213966e-02 5.818868e-01 -1.238861e+00 1.132202e+00
3.095207e+02 4.811083e-01 -1.211183e-02 5.819357e-01 -1.243729e+00 1.138275e+00
3.096720e+02 4.811083e-01 -1.208265e-02 5.819728e-01 -1.244308e+00 1.143295e+00
3.109041e+02 4.811083e-01 -1.203304e-02 5.820216e-01 -1.253677e+00 1.150589e+00
3.090951e+02 4.811083e-01 -1.199781e-02 5.820485e-01 -1.248611e+00 1.152908e+00
3.107880e+02 4.811083e-01 -1.194485e-02 5.821055e-01 -1.251602e+00 1.159241e+00
3.091582e+02 4.811083e-01 -1.191345e-02 5.821439e-01 -1.249023e+00 1.168472e+00
3.087869e+02 4.811083e-01 -1.185823e-02 5.822261e-01 -1.247665e+00 1.170959e+00
3.080129e+02 4.811083e-01 -1.181632e-02 5.822795e-01 -1.252075e+00 1.178314e+00
3.088987e+02 4.811083e-01 -1.178490e-02 5.823336e-01 -1.262787e+00 1.191605e+00
3.086364e+02 4.811083e-01 -1.173712e-02 5.824416e-01 -1.254120e+00 1.192871e+00
3.081482e+02 4.811083e-01 -1.169496e-02 5.825052e-01 -1.263733e+00 1.199051e+00
3.082927e+02 4.811083e-01 -1.164484e-02 5.825797e-01 -1.266296e+00 1.207077e+00
3.083517e+02 4.811083e-01 -1.162388e-02 5.826302e-01 -1.269562e+00 1.216949e+00
3.079126e+02 4.811083e-01 -1.156126e-02 5.827326e-01 -1.269577e+00 1.222305e+00
3.080844e+02 4.811083e-01 -1.151637e-02 5.828226e-01 -1.273758e+00 1.233948e+00
3.080045e+02 4.811083e-01 -1.146209e-02 5.829295e-01 -1.276474e+00 1.240326e+00
3.080192e+02 4.811083e-01 -1.141131e-02 5.830234e-01 -1.268005e+00 1.244385e+00
3.076360e+02 4.811083e-01 -1.136078e-02 5.831468e-01 -1.272888e+00 1.253433e+00
3.072089e+02 4.811083e-01 -1.132034e-02 5.832478e-01 -1.277039e+00 1.265427e+00
3.067674e+02 4.811083e-01 -1.124935e-02 5.833802e-01 -1.280365e+00 1.276031e+00
3.077855e+02 4.811083e-01 -1.119915e-02 5.835113e-01 -1.282516e+00 1.280975e+00
3.073802e+02 4.811083e-01 -1.112589e-02 5.836160e-01 -1.287308e+00 1.289017e+00
3.066346e+02 4.811083e-01 -1.106568e-02 5.837355e-01 -1.292664e+00 1.299088e+00
3.067987e+02 4.811083e-01 -1.100273e-02 5.839002e-01 -1.297821e+00 1.307358e+00
3.063864e+02 4.811083e-01 -1.094107e-02 5.840411e-01 -1.297318e+00 1.314835e+00
3.070503e+02 4.811083e-01 -1.086917e-02 5.841984e-01 -1.297928e+00 1.323929e+00
3.063760e+02 4.811083e-01 -1.081033e-02 5.843471e-01 -1.300217e+00 1.333664e+00
3.060607e+02 4.811083e-01 -1.073908e-02 5.845258e-01 -1.309387e+00 1.344788e+00
3.055241e+02 4.811083e-01 -1.066872e-02 5.846989e-01 -1.315628e+00 1.355286e+00
3.044747e+02 4.811083e-01 -1.059294e-02 5.848935e-01 -1.311340e+00 1.367050e+00
3.041828e+02 4.811083e-01 -1.053461e-02 5.850658e-01 -1.324783e+00 1.382553e+00
3.054640e+02 4.811083e-01 -1.044403e-02 5.852830e-01 -1.335281e+00 1.387558e+00
3.043858e+02 4.811083e-01 -1.038322e-02 5.854757e-01 -1.329468e+00 1.399597e+00
3.043246e+02 4.811083e-01 -1.029782e-02 5.857135e-01 -1.335831e+00 1.411224e+00
3.041371e+02 4.811083e-01 -1.021540e-02 5.859499e-01 -1.342194e+00 1.423370e+00
3.023770e+02 4.811083e-01 -1.014689e-02 5.861874e-01 -1.347229e+00 1.437485e+00
3.030721e+02 4.811083e-01 -1.005030e-02 5.864510e-01 -1.355408e+00 1.451218e+00
3.027139e+02 4.811083e-01 -9.960118e-03 5.866975e-01 -1.352417e+00 1.461670e+00
3.021340e+02 4.811083e-01 -9.885534e-03 5.869885e-01 -1.358932e+00 1.473343e+00
3.018996e+02 4.811083e-01 -9.801631e-03 5.872676e-01 -1.362915e+00 1.485733e+00
3.001771e+02 4.811083e-01 -9.682409e-03 5.875457e-01 -1.371964e+00 1.504883e+00
3.000823e+02 4.811083e-01 -9.605432e-03 5.878997e-01 -1.376724e+00 1.516617e+00
2.997251e+02 4.811083e-01 -9.497169e-03 5.882290e-01 -1.385025e+00 1.533997e+00
2.990203e+02 4.811083e-01 -9.388817e-03 5.885739e-01 -1.394272e+00 1.549622e+00
2.980157e+02 4.823678e-01 -9.288592e-03 5.889300e-01 -1.402359e+00 1.563751e+00
2.972164e+02 4.823678e-01 -9.159359e-03 5.893089e-01 -1.408798e+00 1.579376e+00
2.967794e+02 4.823678e-01 -9.063573e-03 5.897117e-01 -1.419724e+00 1.599503e+00
2.961231e+02 4.823678e-01 -8.951818e-03 5.901420e-01 -1.426025e+00 1.610550e+00
2.952936e+02 4.861461e-01 -8.846932e-03 5.905413e-01 -1.426468e+00 1.626816e+00
2.934051e+02 4.823678e-01 -8.745037e-03 5.909845e-01 -1.438919e+00 1.647644e+00
2.934084e+02 4.861461e-01 -8.600817e-03 5.914528e-01 -1.446823e+00 1.664413e+00
2.919644e+02 4.848866e-01 -8.477282e-03 5.919667e-01 -1.454117e+00 1.683304e+00
2.902368e+02 4.785894e-01 -8.377522e-03 5.924639e-01 -1.466476e+00 1.704285e+00
2.895831e+02 4.722922e-01 -8.270956e-03 5.930306e-01 -1.473938e+00 1.719788e+00
2.879734e+02 4.823678e-01 -8.138717e-03 5.935883e-01 -1.486984e+00 1.741135e+00
2.866097e+02 4.685139e-01 -8.021434e-03 5.941701e-01 -1.496277e+00 1.761108e+00
2.854059e+02 4.760705e-01 -7.887678e-03 5.947385e-01 -1.503967e+00 1.778610e+00
2.837588e+02 4.735516e-01 -7.765004e-03 5.953160e-01 -1.511688e+00 1.798477e+00
2.819237e+02 4.735516e-01 -7.636995e-03 5.959400e-01 -1.521729e+00 1.821243e+00
2.814296e+02 4.634761e-01 -7.493945e-03 5.965724e-01 -1.530182e+00 1.835098e+00
2.794048e+02 4.622166e-01 -7.362073e-03 5.972420e-01 -1.543762e+00 1.856934e+00
2.784520e+02 4.584383e-01 -7.225825e-03 5.979136e-01 -1.557144e+00 1.878815e+00
2.766233e+02 4.584383e-01 -7.185885e-03 5.985919e-01 -1.565582e+00 1.900528e+00
2.745093e+02 4.534005e-01 -6.991267e-03 5.992871e-01 -1.577026e+00 1.922577e+00
2.738367e+02 4.596977e-01 -6.937225e-03 5.999829e-01 -1.594666e+00 1.944092e+00
2.715515e+02 4.508816e-01 -6.815503e-03 6.007269e-01 -1.600754e+00 1.962326e+00
2.698684e+02 4.420655e-01 -6.692196e-03 6.014391e-01 -1.609634e+00 1.980804e+00
2.684434e+02 4.370277e-01 -6.556233e-03 6.021447e-01 -1.619461e+00 1.996536e+00
2.669014e+02 4.458438e-01 -6.494716e-03 6.028689e-01 -1.636078e+00 2.023148e+00
2.653118e+02 4.420655e-01 -6.404681e-03 6.036161e-01 -1.646698e+00 2.038971e+00
2.633282e+02 4.244332e-01 -6.255465e-03 6.043079e-01 -1.653107e+00 2.052658e+00
2.606476e+02 4.130982e-01 -6.100457e-03 6.050130e-01 -1.667877e+00 2.070450e+00
2.595282e+02 4.231738e-01 -6.058798e-03 6.056977e-01 -1.673157e+00 2.087997e+00
2.589058e+02 4.219144e-01 -6.023689e-03 6.064232e-01 -1.684769e+00 2.108414e+00
2.569244e+02 4.105793e-01 -5.938960e-03 6.071052e-01 -1.691406e+00 2.122742e+00
2.554415e+02 4.080605e-01 -5.824191e-03 6.077510e-01 -1.702057e+00 2.139145e+00
2.538512e+02 4.181360e-01 -5.800930e-03 6.083956e-01 -1.712585e+00 2.156662e+00
2.525420e+02 4.231738e-01 -5.728704e-03 6.090395e-01 -1.727554e+00 2.178207e+00
2.518838e+02 4.055416e-01 -5.722832e-03 6.096269e-01 -1.730621e+00 2.182236e+00
2.510733e+02 4.080605e-01 -5.657273e-03 6.102650e-01 -1.734695e+00 2.197968e+00
2.491489e+02 4.080605e-01 -5.591460e-03 6.108691e-01 -1.749390e+00 2.215485e+00
2.485797e+02 3.967254e-01 -5.600989e-03 6.114725e-01 -1.754303e+00 2.226410e+00
2.482571e+02 4.030227e-01 -5.647293e-03 6.120306e-01 -1.762131e+00 2.242416e+00
2.463059e+02 4.017632e-01 -5.589035e-03 6.125519e-01 -1.771072e+00 2.264740e+00
2.452694e+02 3.954660e-01 -5.617623e-03 6.130759e-01 -1.778305e+00 2.279037e+00
2.440825e+02 4.030227e-01 -5.597363e-03 6.135190e-01 -1.786957e+00 2.299622e+00
2.429854e+02 3.992443e-01 -5.597171e-03 6.140119e-01 -1.796188e+00 2.312790e+00
2.425916e+02 3.879093e-01 -5.557946e-03 6.144889e-01 -1.802734e+00 2.321671e+00
2.423278e+02 3.929471e-01 -5.598949e-03 6.149238e-01 -1.807419e+00 2.339233e+00
2.408936e+02 3.979849e-01 -5.611747e-03 6.153948e-01 -1.814423e+00 2.353790e+00
2.398668e+02 3.929471e-01 -5.641193e-03 6.157868e-01 -1.818451e+00 2.367035e+00
2.391683e+02 3.942065e-01 -5.700071e-03 6.162199e-01 -1.827148e+00 2.380981e+00
2.378941e+02 3.879093e-01 -5.697852e-03 6.166138e-01 -1.832336e+00 2.389755e+00
2.369339e+02 3.853904e-01 -5.718862e-03 6.169579e-01 -1.837921e+00 2.405304e+00
2.360231e+02 3.853904e-01 -5.728543e-03 6.173285e-01 -1.843063e+00 2.410904e+00
2.355494e+02 3.866499e-01 -5.727351e-03 6.176825e-01 -1.849426e+00 2.422958e+00
2.347121e+02 3.866499e-01 -5.642983e-03 6.180689e-01 -1.854492e+00 2.434006e+00
2.342775e+02 3.740554e-01 -5.684352e-03 6.184631e-01 -1.860336e+00 2.441757e+00
2.336176e+02 3.765743e-01 -5.628077e-03 6.187577e-01 -1.864655e+00 2.452286e+00
2.324589e+02 3.790932e-01 -5.522038e-03 6.190909e-01 -1.871704e+00 2.460953e+00
2.315820e+02 3.778338e-01 -5.562215e-03 6.193430e-01 -1.875992e+00 2.472198e+00
2.312358e+02 3.727960e-01 -5.506311e-03 6.196419e-01 -1.878510e+00 2.478012e+00
2.299366e+02 3.765743e-01 -5.452036e-03 6.199758e-01 -1.882950e+00 2.483688e+00
2.299637e+02 3.715365e-01 -5.349217e-03 6.202866e-01 -1.887772e+00 2.493591e+00
2.291475e+02 3.702771e-01 -5.357416e-03 6.205818e-01 -1.891479e+00 2.497940e+00
2.287618e+02 3.702771e-01 -5.188926e-03 6.208686e-01 -1.895660e+00 2.508469e+00
2.283310e+02 3.677582e-01 -5.107193e-03 6.211657e-01 -1.899368e+00 2.511932e+00
2.285803e+02 3.690176e-01 -5.041858e-03 6.214167e-01 -1.904037e+00 2.517960e+00
2.282151e+02 3.740554e-01 -4.992178e-03 6.216789e-01 -1.905823e+00 2.521072e+00
2.286779e+02 3.715365e-01 -4.959714e-03 6.219512e-01 -1.913544e+00 2.530075e+00
2.271316e+02 3.690176e-01 -4.814793e-03 6.222017e-01 -1.913696e+00 2.531754e+00
2.282068e+02 3.690176e-01 -4.740879e-03 6.225120e-01 -1.919830e+00 2.545883e+00
2.264659e+02 3.677582e-01 -4.613928e-03 6.228084e-01 -1.921585e+00 2.541763e+00
2.254050e+02 3.677582e-01 -4.552473e-03 6.230298e-01 -1.922775e+00 2.545349e+00
2.257682e+02 3.652393e-01 -4.466052e-03 6.232593e-01 -1.927368e+00 2.547775e+00
2.263655e+02 3.639798e-01 -4.431109e-03 6.235685e-01 -1.930832e+00 2.556305e+00
2.252877e+02 3.602015e-01 -4.329062e-03 6.237491e-01 -1.930634e+00 2.556488e+00
2.252905e+02 3.551637e-01 -4.245703e-03 6.239961e-01 -1.933380e+00 2.565384e+00
2.247180e+02 3.602015e-01 -4.123392e-03 6.242772e-01 -1.937332e+00 2.567200e+00
2.247164e+02 3.627204e-01 -4.085890e-03 6.245160e-01 -1.939682e+00 2.566360e+00
2.244392e+02 3.614610e-01 -4.001268e-03 6.247091e-01 -1.943848e+00 2.568039e+00
2.236075e+02 3.602015e-01 -4.010646e-03 6.249569e-01 -1.944031e+00 2.574890e+00
2.235192e+02 3.602015e-01 -3.863894e-03 6.252454e-01 -1.949158e+00 2.577545e+00
2.230895e+02 3.639798e-01 -3.747902e-03 6.254667e-01 -1.953537e+00 2.580841e+00
2.235398e+02 3.652393e-01 -3.715464e-03 6.257146e-01 -1.954926e+00 2.583893e+00
2.228205e+02 3.602015e-01 -3.687670e-03 6.259983e-01 -1.956970e+00 2.586166e+00
2.225215e+02 3.551637e-01 -3.666843e-03 6.261618e-01 -1.958801e+00 2.584900e+00
2.220422e+02 3.551637e-01 -3.628256e-03 6.264620e-01 -1.960495e+00 2.588455e+00
2.219745e+02 3.564232e-01 -3.533760e-03 6.266935e-01 -1.963623e+00 2.594986e+00
2.219732e+02 3.501259e-01 -3.490610e-03 6.269758e-01 -1.965530e+00 2.598755e+00
2.222887e+02 3.551637e-01 -3.453662e-03 6.272088e-01 -1.966919e+00 2.598724e+00
2.218313e+02 3.513854e-01 -3.328015e-03 6.274393e-01 -1.970306e+00 2.600586e+00
2.210753e+02 3.488665e-01 -3.313653e-03 6.276691e-01 -1.972687e+00 2.600128e+00
2.206332e+02 3.463476e-01 -3.265041e-03 6.279288e-01 -1.973953e+00 2.606720e+00
2.204528e+02 3.450882e-01 -3.224945e-03 6.281568e-01 -1.975388e+00 2.607666e+00
2.199469e+02 3.476071e-01 -3.181656e-03 6.283431e-01 -1.978958e+00 2.606979e+00
2.209018e+02 3.513854e-01 -3.109993e-03 6.286232e-01 -1.982208e+00 2.610641e+00
2.200580e+02 3.463476e-01 -2.950385e-03 6.288205e-01 -1.982376e+00 2.616928e+00
2.194828e+02 3.501259e-01 -2.985891e-03 6.290171e-01 -1.985779e+00 2.620712e+00
2.194802e+02 3.476071e-01 -2.906069e-03 6.292402e-01 -1.989304e+00 2.625610e+00
2.193560e+02 3.476071e-01 -2.963568e-03 6.294945e-01 -1.993774e+00 2.629913e+00
2.195345e+02 3.438287e-01 -2.991835e-03 6.297076e-01 -1.994553e+00 2.636398e+00
2.186548e+02 3.463476e-01 -2.900693e-03 6.299641e-01 -1.995087e+00 2.639572e+00
2.181934e+02 3.526448e-01 -2.787107e-03 6.301645e-01 -2.000854e+00 2.645493e+00
2.187401e+02 3.526448e-01 -2.795292e-03 6.303651e-01 -2.002762e+00 2.650269e+00
2.180553e+02 3.450882e-01 -2.703659e-03 6.306225e-01 -2.005875e+00 2.653244e+00
2.177137e+02 3.413098e-01 -2.659651e-03 6.307974e-01 -2.008347e+00 2.658478e+00
2.176277e+02 3.438287e-01 -2.658865e-03 6.309664e-01 -2.009995e+00 2.661423e+00
2.174965e+02 3.413098e-01 -2.678531e-03 6.311417e-01 -2.012985e+00 2.664703e+00
2.175016e+02 3.387909e-01 -2.595387e-03 6.314221e-01 -2.015381e+00 2.669754e+00
2.171411e+02 3.350126e-01 -2.526917e-03 6.316550e-01 -2.017838e+00 2.671738e+00
2.171327e+02 3.413098e-01 -2.492943e-03 6.318366e-01 -2.021515e+00 2.677505e+00
2.170315e+02 3.425693e-01 -2.456366e-03 6.320666e-01 -2.023529e+00 2.681610e+00
2.164801e+02 3.413098e-01 -2.483132e-03 6.323216e-01 -2.025467e+00 2.684280e+00
2.165338e+02 3.413098e-01 -2.470848e-03 6.325294e-01 -2.029678e+00 2.688675e+00
2.163733e+02 3.387909e-01 -2.483436e-03 6.327893e-01 -2.030441e+00 2.693604e+00
2.164055e+02 3.387909e-01 -2.465449e-03 6.329915e-01 -2.035599e+00 2.697662e+00
2.167511e+02 3.387909e-01 -2.494979e-03 6.332078e-01 -2.037659e+00 2.699280e+00
2.158854e+02 3.413098e-01 -2.482498e-03 6.334751e-01 -2.041443e+00 2.705139e+00
2.151981e+02 3.350126e-01 -2.424192e-03 6.337333e-01 -2.048264e+00 2.709778e+00
2.159196e+02 3.400504e-01 -2.444796e-03 6.339505e-01 -2.050858e+00 2.714218e+00
2.152431e+02 3.362720e-01 -2.541220e-03 6.341790e-01 -2.054459e+00 2.719635e+00
2.148442e+02 3.350126e-01 -2.500762e-03 6.344181e-01 -2.054703e+00 2.723511e+00
2.147142e+02 3.400504e-01 -2.469615e-03 6.346746e-01 -2.059708e+00 2.729523e+00
2.146025e+02 3.413098e-01 -2.447493e-03 6.349694e-01 -2.063980e+00 2.733154e+00
2.139772e+02 3.299748e-01 -2.494890e-03 6.352344e-01 -2.065491e+00 2.736755e+00
2.143357e+02 3.274559e-01 -2.501803e-03 6.354343e-01 -2.068054e+00 2.740875e+00
2.138842e+02 3.274559e-01 -2.552983e-03 6.357144e-01 -2.071121e+00 2.744141e+00
2.132284e+02 3.299748e-01 -2.485294e-03 6.359357e-01 -2.075165e+00 2.752014e+00
2.127638e+02 3.299748e-01 -2.482217e-03 6.362356e-01 -2.078705e+00 2.758087e+00
2.123141e+02 3.299748e-01 -2.500878e-03 6.364932e-01 -2.083847e+00 2.761642e+00
2.129022e+02 3.324937e-01 -2.508506e-03 6.367485e-01 -2.088013e+00 2.766205e+00
2.132584e+02 3.400504e-01 -2.524090e-03 6.370068e-01 -2.093231e+00 2.775131e+00
2.126720e+02 3.400504e-01 -2.418485e-03 6.372536e-01 -2.094818e+00 2.775360e+00
2.115649e+02 3.350126e-01 -2.455013e-03 6.374654e-01 -2.099442e+00 2.779510e+00
2.128287e+02 3.387909e-01 -2.478506e-03 6.377556e-01 -2.100433e+00 2.783798e+00
2.125828e+02 3.350126e-01 -2.471142e-03 6.379908e-01 -2.103653e+00 2.789139e+00
2.130714e+02 3.413098e-01 -2.461282e-03 6.382805e-01 -2.106491e+00 2.793533e+00
2.122814e+02 3.413098e-01 -2.387364e-03 6.385886e-01 -2.111649e+00 2.801178e+00
2.117884e+02 3.362720e-01 -2.398131e-03 6.388605e-01 -2.113983e+00 2.805557e+00
2.120519e+02 3.287154e-01 -2.378558e-03 6.391394e-01 -2.117615e+00 2.809891e+00
2.112698e+02 3.224181e-01 -2.402141e-03 6.393857e-01 -2.121521e+00 2.814713e+00
2.112347e+02 3.287154e-01 -2.438249e-03 6.396913e-01 -2.123367e+00 2.819244e+00
2.104714e+02 3.236776e-01 -2.429461e-03 6.399639e-01 -2.128891e+00 2.825165e+00
2.108007e+02 3.249370e-01 -2.356208e-03 6.402343e-01 -2.134262e+00 2.829926e+00
2.106674e+02 3.375315e-01 -2.319604e-03 6.405360e-01 -2.140686e+00 2.837570e+00
2.101599e+02 3.287154e-01 -2.357436e-03 6.408355e-01 -2.144547e+00 2.844498e+00
2.100768e+02 3.236776e-01 -2.304189e-03 6.411158e-01 -2.145981e+00 2.844925e+00
2.101108e+02 3.173804e-01 -2.335841e-03 6.414027e-01 -2.150345e+00 2.850555e+00
2.093343e+02 3.249370e-01 -2.329852e-03 6.417094e-01 -2.156296e+00 2.858185e+00
2.093450e+02 3.186398e-01 -2.290421e-03 6.419831e-01 -2.159912e+00 2.862091e+00
2.099720e+02 3.312343e-01 -2.198025e-03 6.422930e-01 -2.161606e+00 2.866989e+00
2.089287e+02 3.173804e-01 -2.245252e-03 6.426218e-01 -2.169220e+00 2.874008e+00
2.096678e+02 3.287154e-01 -2.251835e-03 6.429260e-01 -2.173035e+00 2.878174e+00
2.089314e+02 3.198992e-01 -2.281071e-03 6.432450e-01 -2.176926e+00 2.884552e+00
2.083090e+02 3.161209e-01 -2.231717e-03 6.435658e-01 -2.181763e+00 2.890305e+00
2.085180e+02 3.161209e-01 -2.205366e-03 6.438789e-01 -2.186417e+00 2.897415e+00
2.083746e+02 3.148615e-01 -2.193738e-03 6.442212e-01 -2.190994e+00 2.902603e+00
2.074459e+02 3.110831e-01 -2.212359e-03 6.445400e-01 -2.194107e+00 2.908890e+00
2.086562e+02 3.073048e-01 -2.181341e-03 6.448997e-01 -2.197342e+00 2.912109e+00
2.081242e+02 3.085642e-01 -2.162193e-03 6.452203e-01 -2.202087e+00 2.919006e+00
2.085891e+02 3.211587e-01 -2.176912e-03 6.455967e-01 -2.209229e+00 2.926575e+00
2.079430e+02 3.173804e-01 -2.123477e-03 6.459351e-01 -2.210434e+00 2.929718e+00
2.076076e+02 3.022670e-01 -2.083135e-03 6.462855e-01 -2.215607e+00 2.937210e+00
2.074341e+02 3.085642e-01 -2.064817e-03 6.465791e-01 -2.217697e+00 2.939575e+00
2.076368e+02 3.110831e-01 -2.064800e-03 6.469123e-01 -2.221588e+00 2.944778e+00
2.072023e+02 3.073048e-01 -2.042941e-03 6.472494e-01 -2.229950e+00 2.954636e+00
2.072728e+02 3.186398e-01 -2.054573e-03 6.476317e-01 -2.233612e+00 2.959015e+00
2.064201e+02 3.098237e-01 -2.047674e-03 6.480160e-01 -2.237244e+00 2.965927e+00
2.055823e+02 3.035264e-01 -2.083800e-03 6.484115e-01 -2.242020e+00 2.973145e+00
2.051665e+02 2.972292e-01 -2.113050e-03 6.487823e-01 -2.246735e+00 2.978424e+00
2.055726e+02 3.022670e-01 -2.015714e-03 6.491344e-01 -2.253082e+00 2.984451e+00
2.059582e+02 3.085642e-01 -2.007846e-03 6.495181e-01 -2.259460e+00 2.990524e+00
2.052922e+02 2.984887e-01 -2.055185e-03 6.499241e-01 -2.264587e+00 2.999313e+00
2.050891e+02 3.022670e-01 -2.037524e-03 6.503460e-01 -2.272858e+00 3.006454e+00
2.048567e+02 3.035264e-01 -2.121374e-03 6.507677e-01 -2.276871e+00 3.011703e+00
2.050270e+02 2.984887e-01 -2.170298e-03 6.511790e-01 -2.279877e+00 3.017914e+00
2.046720e+02 2.997481e-01 -2.162135e-03 6.516091e-01 -2.285187e+00 3.025131e+00
2.042574e+02 2.921914e-01 -2.208510e-03 6.520051e-01 -2.289703e+00 3.029602e+00
2.029860e+02 2.858942e-01 -2.216548e-03 6.524567e-01 -2.296524e+00 3.037476e+00
2.023188e+02 2.959698e-01 -2.234950e-03 6.528864e-01 -2.303680e+00 3.045349e+00
2.029153e+02 2.984887e-01 -2.289877e-03 6.533389e-01 -2.310104e+00 3.052673e+00
2.022582e+02 2.947103e-01 -2.338216e-03 6.537443e-01 -2.314301e+00 3.058792e+00
2.017193e+02 2.972292e-01 -2.364206e-03 6.541904e-01 -2.321167e+00 3.067413e+00
2.011019e+02 2.947103e-01 -2.432730e-03 6.546308e-01 -2.326447e+00 3.072784e+00
2.007311e+02 2.846348e-01 -2.504804e-03 6.550866e-01 -2.332428e+00 3.080032e+00
2.007319e+02 2.833753e-01 -2.434641e-03 6.555361e-01 -2.338089e+00 3.086105e+00
1.999635e+02 2.871537e-01 -2.467275e-03 6.559868e-01 -2.345184e+00 3.093475e+00
1.999379e+02 2.871537e-01 -2.498958e-03 6.564434e-01 -2.353775e+00 3.102493e+00
1.992669e+02 2.858942e-01 -2.510511e-03 6.569355e-01 -2.356476e+00 3.109268e+00
1.991133e+02 2.821159e-01 -2.585416e-03 6.573811e-01 -2.364761e+00 3.116623e+00
1.991714e+02 2.808564e-01 -2.661933e-03 6.578682e-01 -2.368103e+00 3.124924e+00
1.975529e+02 2.795970e-01 -2.658468e-03 6.583517e-01 -2.374222e+00 3.131210e+00
1.976131e+02 2.745592e-01 -2.768240e-03 6.588558e-01 -2.380798e+00 3.138626e+00
1.969773e+02 2.783375e-01 -2.832213e-03 6.593367e-01 -2.390533e+00 3.147049e+00
1.965249e+02 2.758186e-01 -2.929500e-03 6.598127e-01 -2.395538e+00 3.152512e+00
1.964176e+02 2.758186e-01 -2.935421e-03 6.603244e-01 -2.400635e+00 3.159332e+00
1.962847e+02 2.720403e-01 -2.985413e-03 6.607796e-01 -2.406845e+00 3.166946e+00
1.957773e+02 2.758186e-01 -3.038705e-03 6.613281e-01 -2.416367e+00 3.177567e+00
1.952491e+02 2.795970e-01 -3.109596e-03 6.618691e-01 -2.424957e+00 3.185745e+00
1.952859e+02 2.758186e-01 -3.173234e-03 6.623541e-01 -2.429642e+00 3.190643e+00
1.946562e+02 2.795970e-01 -3.182603e-03 6.628693e-01 -2.439316e+00 3.200760e+00
1.944536e+02 2.758186e-01 -3.215001e-03 6.634269e-01 -2.445190e+00 3.208191e+00
1.939069e+02 2.770781e-01 -3.227709e-03 6.639478e-01 -2.453156e+00 3.215378e+00
1.937525e+02 2.770781e-01 -3.291911e-03 6.644864e-01 -2.458511e+00 3.222153e+00
1.933486e+02 2.745592e-01 -3.322241e-03 6.650400e-01 -2.467194e+00 3.232346e+00
1.921767e+02 2.695214e-01 -3.377698e-03 6.655368e-01 -2.473618e+00 3.239319e+00
1.918466e+02 2.745592e-01 -3.401415e-03 6.660468e-01 -2.483780e+00 3.247940e+00
1.916338e+02 2.707809e-01 -3.407725e-03 6.665961e-01 -2.489548e+00 3.253860e+00
1.903093e+02 2.644836e-01 -3.451469e-03 6.671548e-01 -2.499847e+00 3.266296e+00
1.902446e+02 2.644836e-01 -3.512589e-03 6.676939e-01 -2.506088e+00 3.271500e+00
1.891452e+02 2.556675e-01 -3.520342e-03 6.682283e-01 -2.514221e+00 3.280914e+00
1.881672e+02 2.506297e-01 -3.582466e-03 6.687743e-01 -2.523346e+00 3.290268e+00
1.888520e+02 2.594458e-01 -3.658148e-03 6.693329e-01 -2.529221e+00 3.295776e+00
1.884838e+02 2.531486e-01 -3.697718e-03 6.699273e-01 -2.539139e+00 3.305557e+00
1.875700e+02 2.544081e-01 -3.740828e-03 6.704914e-01 -2.546204e+00 3.313385e+00
1.872739e+02 2.531486e-01 -3.856026e-03 6.710899e-01 -2.554016e+00 3.322464e+00
1.862592e+02 2.506297e-01 -3.907746e-03 6.716203e-01 -2.563416e+00 3.331924e+00
1.855469e+02 2.506297e-01 -3.934164e-03 6.722623e-01 -2.571594e+00 3.339478e+00
1.861429e+02 2.481108e-01 -3.998718e-03 6.728104e-01 -2.578156e+00 3.348755e+00
1.854295e+02 2.468514e-01 -4.100537e-03 6.733924e-01 -2.588150e+00 3.355423e+00
1.842681e+02 2.392947e-01 -4.193046e-03 6.739926e-01 -2.594788e+00 3.363754e+00
1.840293e+02 2.430730e-01 -4.241698e-03 6.746337e-01 -2.603806e+00 3.374207e+00
1.831582e+02 2.392947e-01 -4.296128e-03 6.752665e-01 -2.611191e+00 3.382462e+00
1.834788e+02 2.455919e-01 -4.266888e-03 6.759121e-01 -2.620728e+00 3.391037e+00
1.840404e+02 2.455919e-01 -4.416319e-03 6.765309e-01 -2.628967e+00 3.400070e+00
1.830969e+02 2.455919e-01 -4.404065e-03 6.771649e-01 -2.639542e+00 3.409882e+00
1.819448e+02 2.430730e-01 -4.507161e-03 6.777527e-01 -2.649414e+00 3.420334e+00
1.811835e+02 2.405542e-01 -4.564396e-03 6.783867e-01 -2.657288e+00 3.428909e+00
1.804263e+02 2.405542e-01 -4.505259e-03 6.790388e-01 -2.665024e+00 3.436890e+00
1.799610e+02 2.418136e-01 -4.599924e-03 6.796723e-01 -2.672531e+00 3.446671e+00
1.789941e+02 2.367758e-01 -4.641204e-03 6.802725e-01 -2.683197e+00 3.456741e+00
1.788433e+02 2.405542e-01 -4.671753e-03 6.809261e-01 -2.693726e+00 3.466019e+00
1.779369e+02 2.380353e-01 -4.697711e-03 6.815696e-01 -2.702332e+00 3.476105e+00
1.777270e+02 2.405542e-01 -4.698591e-03 6.821582e-01 -2.710861e+00 3.484451e+00
1.774230e+02 2.367758e-01 -4.714202e-03 6.827996e-01 -2.718597e+00 3.492859e+00
1.767366e+02 2.367758e-01 -4.689119e-03 6.834408e-01 -2.724915e+00 3.500000e+00
1.762263e+02 2.392947e-01 -4.724210e-03 6.840511e-01 -2.736374e+00 3.511108e+00
1.749034e+02 2.392947e-01 -4.753923e-03 6.846701e-01 -2.743042e+00 3.517761e+00
1.749370e+02 2.443325e-01 -4.743429e-03 6.853520e-01 -2.754425e+00 3.528519e+00
1.739984e+02 2.418136e-01 -4.739852e-03 6.859506e-01 -2.766006e+00 3.538818e+00
1.735638e+02 2.443325e-01 -4.768561e-03 6.865936e-01 -2.773788e+00 3.547531e+00
1.728850e+02 2.418136e-01 -4.818973e-03 6.872275e-01 -2.780594e+00 3.555084e+00
1.723001e+02 2.430730e-01 -4.700694e-03 6.879119e-01 -2.792892e+00 3.567078e+00
1.717891e+02 2.443325e-01 -4.650559e-03 6.885544e-01 -2.802444e+00 3.575226e+00
1.707325e+02 2.430730e-01 -4.630871e-03 6.891878e-01 -2.811996e+00 3.584045e+00
1.712875e+02 2.405542e-01 -4.657316e-03 6.898461e-01 -2.817719e+00 3.591797e+00
1.703320e+02 2.443325e-01 -4.669752e-03 6.904860e-01 -2.829300e+00 3.601761e+00
1.702401e+02 2.418136e-01 -4.594749e-03 6.910771e-01 -2.839951e+00 3.611160e+00
1.696195e+02 2.430730e-01 -4.593288e-03 6.917497e-01 -2.848740e+00 3.618683e+00
1.690846e+02 2.418136e-01 -4.525877e-03 6.923821e-01 -2.859329e+00 3.630447e+00
1.686362e+02 2.342569e-01 -4.498887e-03 6.929943e-01 -2.865173e+00 3.637024e+00
1.679994e+02 2.355164e-01 -4.477881e-03 6.935976e-01 -2.875641e+00 3.647552e+00
1.676129e+02 2.329975e-01 -4.455522e-03 6.943022e-01 -2.885590e+00 3.656769e+00
1.670884e+02 2.355164e-01 -4.472598e-03 6.949094e-01 -2.895737e+00 3.666077e+00
1.664854e+02 2.355164e-01 -4.470999e-03 6.955310e-01 -2.903671e+00 3.673721e+00
1.663566e+02 2.367758e-01 -4.343664e-03 6.961818e-01 -2.916763e+00 3.685410e+00
1.655128e+02 2.342569e-01 -4.354216e-03 6.967947e-01 -2.925354e+00 3.694122e+00
1.651216e+02 2.380353e-01 -4.314419e-03 6.974348e-01 -2.931396e+00 3.700272e+00
1.645441e+02 2.342569e-01 -4.256791e-03 6.980999e-01 -2.942307e+00 3.710999e+00
1.644731e+02 2.355164e-01 -4.257452e-03 6.987454e-01 -2.950562e+00 3.719101e+00
1.640610e+02 2.342569e-01 -4.216445e-03 6.993760e-01 -2.961487e+00 3.729172e+00
1.638363e+02 2.342569e-01 -4.161144e-03 7.000062e-01 -2.970825e+00 3.738007e+00
1.634385e+02 2.367758e-01 -4.029303e-03 7.006759e-01 -2.979126e+00 3.745483e+00
1.629195e+02 2.304786e-01 -4.009958e-03 7.013023e-01 -2.989960e+00 3.755249e+00
1.621302e+02 2.267003e-01 -3.886396e-03 7.019014e-01 -3.001541e+00 3.766129e+00
1.626232e+02 2.304786e-01 -3.887638e-03 7.025822e-01 -3.011032e+00 3.774216e+00
1.619315e+02 2.267003e-01 -3.875581e-03 7.032137e-01 -3.020905e+00 3.785004e+00
1.610146e+02 2.254408e-01 -3.902673e-03 7.038511e-01 -3.031448e+00 3.796143e+00
1.606338e+02 2.317380e-01 -3.816979e-03 7.044826e-01 -3.036118e+00 3.801666e+00
1.594355e+02 2.241814e-01 -3.664735e-03 7.051111e-01 -3.048096e+00 3.812729e+00
1.599042e+02 2.254408e-01 -3.660435e-03 7.057768e-01 -3.058182e+00 3.820877e+00
1.601013e+02 2.279597e-01 -3.652968e-03 7.064152e-01 -3.064911e+00 3.828094e+00
1.594030e+02 2.254408e-01 -3.650494e-03 7.070367e-01 -3.075119e+00 3.838837e+00
1.593825e+02 2.229219e-01 -3.580015e-03 7.076660e-01 -3.086227e+00 3.849167e+00
1.588899e+02 2.241814e-01 -3.506610e-03 7.082562e-01 -3.095490e+00 3.858337e+00
1.584659e+02 2.267003e-01 -3.443480e-03 7.088808e-01 -3.101959e+00 3.866058e+00
1.582441e+02 2.254408e-01 -3.453912e-03 7.094814e-01 -3.108063e+00 3.872513e+00
1.581029e+02 2.267003e-01 -3.434969e-03 7.101255e-01 -3.116959e+00 3.880753e+00
1.573655e+02 2.204030e-01 -3.419728e-03 7.107813e-01 -3.128296e+00 3.892105e+00
1.567626e+02 2.254408e-01 -3.387925e-03 7.114022e-01 -3.136292e+00 3.899246e+00
1.575994e+02 2.178841e-01 -3.323594e-03 7.119962e-01 -3.147095e+00 3.908463e+00
1.568426e+02 2.191436e-01 -3.383597e-03 7.126374e-01 -3.155304e+00 3.917114e+00
1.562358e+02 2.153652e-01 -3.369317e-03 7.132275e-01 -3.166397e+00 3.928741e+00
1.560950e+02 2.153652e-01 -3.390126e-03 7.138519e-01 -3.173172e+00 3.935486e+00
1.565150e+02 2.178841e-01 -3.262648e-03 7.144738e-01 -3.180161e+00 3.942719e+00
1.560147e+02 2.166247e-01 -3.309291e-03 7.151080e-01 -3.190140e+00 3.952469e+00
1.555848e+02 2.178841e-01 -3.322544e-03 7.157111e-01 -3.198044e+00 3.960495e+00
1.550830e+02 2.128463e-01 -3.219185e-03 7.163099e-01 -3.206726e+00 3.968826e+00
1.543441e+02 2.128463e-01 -3.227531e-03 7.169514e-01 -3.214294e+00 3.976212e+00
1.546112e+02 2.078086e-01 -3.280515e-03 7.175679e-01 -3.225891e+00 3.986389e+00
1.543615e+02 2.078086e-01 -3.209035e-03 7.181335e-01 -3.233917e+00 3.996246e+00
1.545147e+02 2.090680e-01 -3.091805e-03 7.187382e-01 -3.243927e+00 4.004532e+00
1.543725e+02 2.141058e-01 -3.054026e-03 7.193274e-01 -3.250290e+00 4.010849e+00
1.540865e+02 2.115869e-01 -3.024607e-03 7.199740e-01 -3.259964e+00 4.021271e+00
1.531168e+02 2.078086e-01 -3.050186e-03 7.205701e-01 -3.270599e+00 4.030396e+00
1.534609e+02 2.103275e-01 -2.994916e-03 7.211904e-01 -3.278778e+00 4.040024e+00
1.532050e+02 2.090680e-01 -2.933238e-03 7.217994e-01 -3.286041e+00 4.047974e+00
1.531247e+02 2.103275e-01 -2.890516e-03 7.223841e-01 -3.292572e+00 4.053040e+00
1.523087e+02 2.065491e-01 -2.846133e-03 7.229931e-01 -3.302490e+00 4.063873e+00
1.516158e+02 2.078086e-01 -2.924119e-03 7.235685e-01 -3.308853e+00 4.071152e+00
1.515160e+02 2.015113e-01 -2.853474e-03 7.241603e-01 -3.319321e+00 4.081696e+00
1.514193e+02 2.052897e-01 -2.797400e-03 7.247393e-01 -3.326050e+00 4.088577e+00
1.520385e+02 2.002519e-01 -2.751472e-03 7.253159e-01 -3.335541e+00 4.097946e+00
1.514286e+02 2.052897e-01 -2.712974e-03 7.259403e-01 -3.342712e+00 4.105576e+00
1.517531e+02 2.040302e-01 -2.633666e-03 7.265044e-01 -3.351013e+00 4.113113e+00
1.519422e+02 2.052897e-01 -2.595035e-03 7.270916e-01 -3.361221e+00 4.122864e+00
1.515669e+02 2.027708e-01 -2.585452e-03 7.276835e-01 -3.368973e+00 4.131332e+00
1.510160e+02 2.040302e-01 -2.593123e-03 7.282711e-01 -3.375565e+00 4.139297e+00
1.516247e+02 2.040302e-01 -2.623069e-03 7.288066e-01 -3.385086e+00 4.148926e+00
1.517174e+02 2.040302e-01 -2.605810e-03 7.293546e-01 -3.393723e+00 4.157623e+00
1.510045e+02 2.027708e-01 -2.573270e-03 7.299345e-01 -3.400955e+00 4.165329e+00
1.507579e+02 2.015113e-01 -2.610807e-03 7.304508e-01 -3.407394e+00 4.171982e+00
1.511555e+02 2.002519e-01 -2.543306e-03 7.310714e-01 -3.415436e+00 4.180115e+00
1.510619e+02 2.002519e-01 -2.557653e-03 7.316276e-01 -3.423172e+00 4.188766e+00
1.509995e+02 1.964736e-01 -2.499945e-03 7.321831e-01 -3.432678e+00 4.197189e+00
1.513001e+02 2.002519e-01 -2.507764e-03 7.327226e-01 -3.437790e+00 4.203354e+00
1.517236e+02 2.015113e-01 -2.476144e-03 7.332976e-01 -3.447784e+00 4.212662e+00
1.513307e+02 1.989924e-01 -2.580446e-03 7.338705e-01 -3.453964e+00 4.220016e+00
1.506276e+02 2.015113e-01 -2.562342e-03 7.343862e-01 -3.460632e+00 4.227127e+00
1.510381e+02 2.040302e-01 -2.522898e-03 7.349428e-01 -3.470291e+00 4.238480e+00
1.506629e+02 1.977330e-01 -2.550835e-03 7.354991e-01 -3.477417e+00 4.245926e+00
1.508932e+02 2.015113e-01 -2.587608e-03 7.360243e-01 -3.482086e+00 4.250916e+00
1.504833e+02 1.964736e-01 -2.601545e-03 7.365449e-01 -3.490997e+00 4.260529e+00
1.507505e+02 2.027708e-01 -2.584192e-03 7.371025e-01 -3.496948e+00 4.267212e+00
1.508003e+02 2.015113e-01 -2.643539e-03 7.376437e-01 -3.504074e+00 4.275421e+00
1.506499e+02 2.027708e-01 -2.667792e-03 7.381546e-01 -3.511520e+00 4.282333e+00
1.504260e+02 2.002519e-01 -2.755317e-03 7.387054e-01 -3.518417e+00 4.290237e+00
1.499834e+02 1.989924e-01 -2.777613e-03 7.392285e-01 -3.527115e+00 4.297989e+00
1.497687e+02 2.015113e-01 -2.715104e-03 7.397875e-01 -3.534058e+00 4.306580e+00
1.498624e+02 2.015113e-01 -2.709165e-03 7.403118e-01 -3.540833e+00 4.313721e+00
1.499098e+02 2.027708e-01 -2.745189e-03 7.408195e-01 -3.546295e+00 4.320282e+00
1.496191e+02 2.052897e-01 -2.777135e-03 7.413751e-01 -3.553604e+00 4.327789e+00
1.495397e+02 2.040302e-01 -2.781119e-03 7.418753e-01 -3.560608e+00 4.335648e+00
1.488771e+02 1.977330e-01 -2.798365e-03 7.423811e-01 -3.569656e+00 4.345734e+00
1.487878e+02 2.002519e-01 -2.815512e-03 7.429472e-01 -3.575150e+00 4.350311e+00
1.485018e+02 2.027708e-01 -2.846052e-03 7.434558e-01 -3.580490e+00 4.356491e+00
1.484178e+02 2.002519e-01 -2.855667e-03 7.439596e-01 -3.587601e+00 4.364120e+00
1.486261e+02 1.964736e-01 -2.818232e-03 7.445132e-01 -3.595139e+00 4.372971e+00
1.485445e+02 1.964736e-01 -2.778761e-03 7.449936e-01 -3.600510e+00 4.378937e+00
1.478830e+02 1.914358e-01 -2.868442e-03 7.455195e-01 -3.609146e+00 4.388626e+00
1.482439e+02 1.964736e-01 -2.916849e-03 7.460143e-01 -3.613281e+00 4.393723e+00
1.476426e+02 1.964736e-01 -2.913888e-03 7.465518e-01 -3.618958e+00 4.400162e+00
1.481389e+02 1.952141e-01 -2.955297e-03 7.470877e-01 -3.626724e+00 4.408920e+00
1.488026e+02 1.989924e-01 -2.980711e-03 7.475788e-01 -3.632553e+00 4.416107e+00
1.481296e+02 1.977330e-01 -2.998421e-03 7.480675e-01 -3.636734e+00 4.421768e+00
1.485856e+02 1.977330e-01 -3.034177e-03 7.485848e-01 -3.643356e+00 4.429428e+00
1.493433e+02 1.977330e-01 -3.115579e-03 7.490989e-01 -3.648834e+00 4.436096e+00
1.492790e+02 1.964736e-01 -3.126489e-03 7.495801e-01 -3.657715e+00 4.444901e+00
1.485043e+02 1.977330e-01 -3.139939e-03 7.501151e-01 -3.664597e+00 4.452377e+00
1.492592e+02 1.977330e-01 -3.175293e-03 7.506061e-01 -3.668823e+00 4.458740e+00
1.498975e+02 1.977330e-01 -3.152224e-03 7.511252e-01 -3.675247e+00 4.465256e+00
1.492876e+02 1.952141e-01 -3.239704e-03 7.516464e-01 -3.682785e+00 4.473724e+00
1.485103e+02 1.952141e-01 -3.219587e-03 7.521074e-01 -3.688232e+00 4.480133e+00
1.481036e+02 1.964736e-01 -3.258683e-03 7.525706e-01 -3.692505e+00 4.486145e+00
1.484813e+02 1.952141e-01 -3.251180e-03 7.530484e-01 -3.697495e+00 4.492386e+00
1.486858e+02 1.926952e-01 -3.260763e-03 7.535524e-01 -3.704254e+00 4.500534e+00
1.484555e+02 1.952141e-01 -3.256320e-03 7.540188e-01 -3.711609e+00 4.507980e+00
1.486542e+02 1.914358e-01 -3.229098e-03 7.545342e-01 -3.716507e+00 4.515717e+00
1.484820e+02 1.926952e-01 -3.249586e-03 7.549871e-01 -3.720444e+00 4.521088e+00
1.486362e+02 1.914358e-01 -3.170756e-03 7.554620e-01 -3.726196e+00 4.527786e+00
1.487880e+02 1.914358e-01 -3.275053e-03 7.559204e-01 -3.731079e+00 4.534119e+00
1.480512e+02 1.914358e-01 -3.277875e-03 7.564067e-01 -3.735321e+00 4.540314e+00
1.481803e+02 1.939547e-01 -3.221476e-03 7.568617e-01 -3.741577e+00 4.546539e+00
1.483889e+02 1.952141e-01 -3.350633e-03 7.573529e-01 -3.746399e+00 4.552612e+00
1.481137e+02 1.952141e-01 -3.364695e-03 7.578169e-01 -3.751495e+00 4.559113e+00
1.483961e+02 1.926952e-01 -3.363735e-03 7.582683e-01 -3.757370e+00 4.566696e+00
1.483451e+02 1.977330e-01 -3.390269e-03 7.587553e-01 -3.763687e+00 4.572205e+00
1.480094e+02 1.989924e-01 -3.429874e-03 7.592335e-01 -3.766953e+00 4.578079e+00
1.484361e+02 1.989924e-01 -3.346815e-03 7.596834e-01 -3.772690e+00 4.585770e+00
1.477901e+02 1.989924e-01 -3.363176e-03 7.600892e-01 -3.775436e+00 4.591156e+00
1.477742e+02 1.964736e-01 -3.426395e-03 7.605900e-01 -3.780533e+00 4.597900e+00
1.482062e+02 1.989924e-01 -3.431839e-03 7.610052e-01 -3.783951e+00 4.602509e+00
1.483382e+02 1.989924e-01 -3.450563e-03 7.614371e-01 -3.788284e+00 4.608414e+00
1.477972e+02 1.977330e-01 -3.468546e-03 7.619185e-01 -3.794861e+00 4.616699e+00
1.475944e+02 1.952141e-01 -3.416888e-03 7.623791e-01 -3.799683e+00 4.622742e+00
1.478356e+02 1.989924e-01 -3.468885e-03 7.628023e-01 -3.803940e+00 4.628479e+00
1.476463e+02 1.977330e-01 -3.433786e-03 7.632370e-01 -3.807724e+00 4.633850e+00
1.469702e+02 1.952141e-01 -3.484577e-03 7.636675e-01 -3.811127e+00 4.638916e+00
1.474941e+02 1.952141e-01 -3.482148e-03 7.641124e-01 -3.816956e+00 4.646057e+00
1.471450e+02 1.952141e-01 -3.551346e-03 7.645457e-01 -3.821655e+00 4.652100e+00
1.470668e+02 1.977330e-01 -3.522190e-03 7.649745e-01 -3.825150e+00 4.657303e+00
1.472981e+02 1.989924e-01 -3.550319e-03 7.654015e-01 -3.828934e+00 4.662598e+00
1.474902e+02 1.989924e-01 -3.536681e-03 7.658413e-01 -3.833191e+00 4.669510e+00
1.475001e+02 1.977330e-01 -3.533457e-03 7.662286e-01 -3.837387e+00 4.676010e+00
1.474674e+02 1.952141e-01 -3.544933e-03 7.666440e-01 -3.841339e+00 4.681396e+00
1.474813e+02 1.964736e-01 -3.558379e-03 7.670797e-01 -3.843369e+00 4.686493e+00
1.478091e+02 1.977330e-01 -3.557156e-03 7.674924e-01 -3.846909e+00 4.691452e+00
1.474373e+02 1.952141e-01 -3.622634e-03 7.679032e-01 -3.851608e+00 4.697525e+00
1.473039e+02 1.926952e-01 -3.639902e-03 7.682995e-01 -3.856430e+00 4.704086e+00
1.476194e+02 1.926952e-01 -3.667624e-03 7.686937e-01 -3.860107e+00 4.709457e+00
1.473487e+02 1.914358e-01 -3.671116e-03 7.691072e-01 -3.863770e+00 4.715195e+00
1.475965e+02 1.939547e-01 -3.642474e-03 7.694962e-01 -3.865936e+00 4.719391e+00
1.474468e+02 1.914358e-01 -3.661609e-03 7.698908e-01 -3.871613e+00 4.727768e+00
1.478550e+02 1.952141e-01 -3.693708e-03 7.702712e-01 -3.872162e+00 4.730698e+00
1.470703e+02 1.952141e-01 -3.700165e-03 7.706551e-01 -3.876556e+00 4.736862e+00
1.471880e+02 1.977330e-01 -3.703014e-03 7.710444e-01 -3.879089e+00 4.742035e+00
1.470685e+02 1.964736e-01 -3.723002e-03 7.714530e-01 -3.883575e+00 4.748077e+00
1.474006e+02 1.964736e-01 -3.720362e-03 7.718385e-01 -3.887466e+00 4.754135e+00
1.475404e+02 1.939547e-01 -3.735845e-03 7.722436e-01 -3.890839e+00 4.760590e+00
1.475460e+02 1.939547e-01 -3.742864e-03 7.726016e-01 -3.892639e+00 4.764801e+00
1.473876e+02 1.939547e-01 -3.784698e-03 7.729824e-01 -3.896011e+00 4.770248e+00
1.475674e+02 1.939547e-01 -3.829706e-03 7.734001e-01 -3.898788e+00 4.775955e+00
1.480514e+02 1.939547e-01 -3.818547e-03 7.737774e-01 -3.903442e+00 4.782028e+00
1.483401e+02 1.939547e-01 -3.874620e-03 7.741635e-01 -3.907883e+00 4.788620e+00
1.482562e+02 1.939547e-01 -3.957573e-03 7.745361e-01 -3.910233e+00 4.793182e+00
1.483355e+02 1.939547e-01 -3.985281e-03 7.749177e-01 -3.913666e+00 4.798248e+00
1.481734e+02 1.964736e-01 -3.993413e-03 7.752635e-01 -3.915726e+00 4.802658e+00
1.477936e+02 1.939547e-01 -4.052117e-03 7.756776e-01 -3.919907e+00 4.809036e+00
1.480079e+02 1.952141e-01 -4.100890e-03 7.760390e-01 -3.923935e+00 4.815338e+00
1.480796e+02 1.952141e-01 -4.120449e-03 7.764076e-01 -3.926178e+00 4.820007e+00
1.475910e+02 1.964736e-01 -4.183400e-03 7.767904e-01 -3.929688e+00 4.825607e+00
1.474339e+02 1.939547e-01 -4.195377e-03 7.771300e-01 -3.932175e+00 4.831680e+00
1.471912e+02 1.964736e-01 -4.253893e-03 7.775160e-01 -3.935745e+00 4.837234e+00
1.469738e+02 1.964736e-01 -4.289341e-03 7.778380e-01 -3.937012e+00 4.841141e+00
1.473648e+02 1.964736e-01 -4.340252e-03 7.782234e-01 -3.940369e+00 4.847290e+00
1.472098e+02 1.964736e-01 -4.439700e-03 7.785529e-01 -3.940781e+00 4.850372e+00
1.470380e+02 1.964736e-01 -4.479104e-03 7.789179e-01 -3.944092e+00 4.855637e+00
1.472426e+02 1.964736e-01 -4.545052e-03 7.792939e-01 -3.945709e+00 4.861450e+00
1.469550e+02 1.964736e-01 -4.587095e-03 7.796307e-01 -3.949341e+00 4.867218e+00
1.476107e+02 1.964736e-01 -4.609829e-03 7.800121e-01 -3.951187e+00 4.871384e+00
1.478628e+02 1.952141e-01 -4.641186e-03 7.803436e-01 -3.954208e+00 4.876205e+00
1.477018e+02 1.964736e-01 -4.670922e-03 7.807151e-01 -3.957352e+00 4.882233e+00
1.469504e+02 1.939547e-01 -4.683993e-03 7.810521e-01 -3.960175e+00 4.887848e+00
1.470817e+02 1.952141e-01 -4.702690e-03 7.813935e-01 -3.962112e+00 4.892532e+00
1.469463e+02 1.926952e-01 -4.694643e-03 7.817340e-01 -3.963760e+00 4.896942e+00
1.477007e+02 1.914358e-01 -4.689329e-03 7.821032e-01 -3.967102e+00 4.901611e+00
1.479529e+02 1.926952e-01 -4.692053e-03 7.824376e-01 -3.968826e+00 4.907104e+00
1.483685e+02 1.926952e-01 -4.764136e-03 7.827689e-01 -3.972260e+00 4.912811e+00
1.479659e+02 1.914358e-01 -4.795792e-03 7.831205e-01 -3.974777e+00 4.917831e+00
1.482813e+02 1.939547e-01 -4.773947e-03 7.834590e-01 -3.975708e+00 4.921219e+00
1.480130e+02 1.939547e-01 -4.813449e-03 7.838174e-01 -3.980042e+00 4.927902e+00
1.481625e+02 1.914358e-01 -4.864321e-03 7.841313e-01 -3.980164e+00 4.931198e+00
1.480943e+02 1.901763e-01 -4.850835e-03 7.844524e-01 -3.982452e+00 4.936188e+00
1.480301e+02 1.926952e-01 -4.899130e-03 7.847829e-01 -3.984375e+00 4.940735e+00
1.476754e+02 1.926952e-01 -4.916795e-03 7.850910e-01 -3.985565e+00 4.943863e+00
1.477102e+02 1.939547e-01 -4.947920e-03 7.853838e-01 -3.988266e+00 4.950623e+00
1.473434e+02 1.914358e-01 -4.979679e-03 7.856958e-01 -3.988770e+00 4.952911e+00
1.473532e+02 1.914358e-01 -5.029912e-03 7.860348e-01 -3.991089e+00 4.957825e+00
1.472758e+02 1.901763e-01 -5.090845e-03 7.863197e-01 -3.992783e+00 4.961243e+00
1.477040e+02 1.914358e-01 -5.078819e-03 7.866500e-01 -3.996613e+00 4.967850e+00
1.483460e+02 1.926952e-01 -5.079140e-03 7.869416e-01 -3.996780e+00 4.970581e+00
1.467975e+02 1.926952e-01 -5.126181e-03 7.872652e-01 -3.999802e+00 4.976593e+00
1.468203e+02 1.926952e-01 -5.147870e-03 7.875875e-01 -4.001694e+00 4.981384e+00
1.469622e+02 1.926952e-01 -5.175239e-03 7.878832e-01 -4.002579e+00 4.984604e+00
1.470792e+02 1.914358e-01 -5.281247e-03 7.882009e-01 -4.005280e+00 4.989304e+00
1.472110e+02 1.926952e-01 -5.279483e-03 7.885403e-01 -4.007706e+00 4.993942e+00
1.470191e+02 1.914358e-01 -5.405965e-03 7.888309e-01 -4.009674e+00 4.997955e+00
1.478854e+02 1.914358e-01 -5.427976e-03 7.891108e-01 -4.012177e+00 5.003265e+00
1.463683e+02 1.901763e-01 -5.527049e-03 7.894281e-01 -4.013596e+00 5.007492e+00
1.472996e+02 1.901763e-01 -5.539204e-03 7.897063e-01 -4.014969e+00 5.011429e+00
1.469423e+02 1.901763e-01 -5.595425e-03 7.900246e-01 -4.017746e+00 5.016708e+00
1.473528e+02 1.914358e-01 -5.621857e-03 7.903347e-01 -4.019470e+00 5.021347e+00
1.476776e+02 1.914358e-01 -5.661694e-03 7.906199e-01 -4.021271e+00 5.025909e+00
1.485426e+02 1.914358e-01 -5.688291e-03 7.909471e-01 -4.023666e+00 5.029388e+00
1.471817e+02 1.889169e-01 -5.679485e-03 7.912707e-01 -4.025024e+00 5.034348e+00
1.480574e+02 1.889169e-01 -5.801859e-03 7.915601e-01 -4.027451e+00 5.038803e+00
1.478897e+02 1.863980e-01 -5.844665e-03 7.918699e-01 -4.027725e+00 5.042862e+00
1.484919e+02 1.863980e-01 -5.833939e-03 7.921403e-01 -4.030518e+00 5.047943e+00
1.487970e+02 1.863980e-01 -5.833578e-03 7.924670e-01 -4.032944e+00 5.051971e+00
1.481958e+02 1.851385e-01 -5.927832e-03 7.927670e-01 -4.034561e+00 5.056503e+00
1.481838e+02 1.838791e-01 -5.922053e-03 7.930734e-01 -4.035782e+00 5.060516e+00
1.485580e+02 1.838791e-01 -5.973162e-03 7.933691e-01 -4.038162e+00 5.065125e+00
1.489361e+02 1.863980e-01 -6.052318e-03 7.936468e-01 -4.038223e+00 5.068649e+00
1.490984e+02 1.838791e-01 -6.054073e-03 7.939066e-01 -4.040665e+00 5.072891e+00
1.498009e+02 1.851385e-01 -6.139231e-03 7.942138e-01 -4.042313e+00 5.077148e+00
1.498487e+02 1.863980e-01 -6.151721e-03 7.944988e-01 -4.044067e+00 5.081573e+00
1.488987e+02 1.876574e-01 -6.203071e-03 7.947922e-01 -4.046051e+00 5.086639e+00
1.499120e+02 1.914358e-01 -6.237790e-03 7.950970e-01 -4.047470e+00 5.089127e+00
1.494764e+02 1.914358e-01 -6.291243e-03 7.953998e-01 -4.048508e+00 5.093613e+00
1.500085e+02 1.914358e-01 -6.277525e-03 7.956793e-01 -4.050598e+00 5.097702e+00
1.494354e+02 1.901763e-01 -6.360115e-03 7.959190e-01 -4.052750e+00 5.103378e+00
1.498979e+02 1.901763e-01 -6.422986e-03 7.962110e-01 -4.054291e+00 5.106949e+00
1.497269e+02 1.914358e-01 -6.462863e-03 7.964823e-01 -4.054932e+00 5.109894e+00
1.495991e+02 1.914358e-01 -6.530257e-03 7.967673e-01 -4.056137e+00 5.114395e+00
1.494007e+02 1.901763e-01 -6.590582e-03 7.970115e-01 -4.058075e+00 5.118744e+00
1.492211e+02 1.889169e-01 -6.596571e-03 7.973011e-01 -4.059616e+00 5.123001e+00
1.493964e+02 1.889169e-01 -6.626534e-03 7.975888e-01 -4.062302e+00 5.127014e+00
1.491900e+02 1.876574e-01 -6.693902e-03 7.978575e-01 -4.061569e+00 5.130219e+00
1.491760e+02 1.863980e-01 -6.722968e-03 7.981240e-01 -4.063385e+00 5.135025e+00
1.495531e+02 1.876574e-01 -6.834763e-03 7.983679e-01 -4.064941e+00 5.138687e+00
1.495625e+02 1.876574e-01 -6.833267e-03 7.986748e-01 -4.066483e+00 5.142380e+00
1.498068e+02 1.876574e-01 -6.874556e-03 7.989538e-01 -4.068436e+00 5.146744e+00
1.499716e+02 1.889169e-01 -6.910986e-03 7.992139e-01 -4.070450e+00 5.150650e+00
1.508557e+02 1.939547e-01 -6.922310e-03 7.994687e-01 -4.072342e+00 5.154892e+00
1.507411e+02 1.952141e-01 -6.972632e-03 7.997411e-01 -4.073212e+00 5.159271e+00
1.502108e+02 1.939547e-01 -7.050253e-03 8.000142e-01 -4.074753e+00 5.162521e+00
1.501667e+02 1.939547e-01 -7.067811e-03 8.002876e-01 -4.076218e+00 5.166367e+00
1.500130e+02 1.939547e-01 -7.094895e-03 8.005404e-01 -4.077194e+00 5.170303e+00
1.502213e+02 1.926952e-01 -7.123260e-03 8.008472e-01 -4.079041e+00 5.174377e+00
1.509095e+02 1.939547e-01 -7.153394e-03 8.011060e-01 -4.080414e+00 5.177551e+00
1.499941e+02 1.914358e-01 -7.216286e-03 8.013797e-01 -4.082123e+00 5.182724e+00
1.505357e+02 1.901763e-01 -7.252877e-03 8.016488e-01 -4.082840e+00 5.186020e+00
1.514034e+02 1.914358e-01 -7.288164e-03 8.019286e-01 -4.083588e+00 5.189316e+00
1.512281e+02 1.914358e-01 -7.296693e-03 8.021648e-01 -4.084885e+00 5.192856e+00
1.513947e+02 1.914358e-01 -7.315180e-03 8.024370e-01 -4.086044e+00 5.197342e+00
1.510713e+02 1.914358e-01 -7.353937e-03 8.026720e-01 -4.086761e+00 5.201019e+00
1.515534e+02 1.914358e-01 -7.391992e-03 8.029435e-01 -4.088364e+00 5.204178e+00
1.507791e+02 1.914358e-01 -7.420974e-03 8.032011e-01 -4.088791e+00 5.208160e+00
1.511345e+02 1.939547e-01 -7.485367e-03 8.034563e-01 -4.090225e+00 5.211639e+00
1.507080e+02 1.939547e-01 -7.470988e-03 8.037185e-01 -4.090714e+00 5.215836e+00
1.500639e+02 1.926952e-01 -7.487676e-03 8.039992e-01 -4.092026e+00 5.219757e+00
1.500704e+02 1.926952e-01 -7.513004e-03 8.042269e-01 -4.093765e+00 5.223969e+00
1.505906e+02 1.914358e-01 -7.543928e-03 8.044992e-01 -4.095871e+00 5.228394e+00
1.501778e+02 1.926952e-01 -7.570351e-03 8.047733e-01 -4.096222e+00 5.231491e+00
1.501628e+02 1.914358e-01 -7.565296e-03 8.050201e-01 -4.097733e+00 5.235352e+00
1.507054e+02 1.914358e-01 -7.602664e-03 8.052749e-01 -4.099548e+00 5.238510e+00
1.509047e+02 1.914358e-01 -7.589164e-03 8.055087e-01 -4.101181e+00 5.242767e+00
1.504331e+02 1.889169e-01 -7.670522e-03 8.057870e-01 -4.101822e+00 5.245819e+00
1.502556e+02 1.889169e-01 -7.711641e-03 8.060768e-01 -4.103409e+00 5.249893e+00
1.509905e+02 1.901763e-01 -7.707046e-03 8.063210e-01 -4.103577e+00 5.252167e+00
1.506705e+02 1.914358e-01 -7.719893e-03 8.065729e-01 -4.103867e+00 5.255875e+00
1.510192e+02 1.851385e-01 -7.748656e-03 8.068261e-01 -4.104874e+00 5.259064e+00
1.506416e+02 1.876574e-01 -7.758753e-03 8.070730e-01 -4.105972e+00 5.263443e+00
1.502928e+02 1.826196e-01 -7.803082e-03 8.073396e-01 -4.106964e+00 5.266602e+00
1.505950e+02 1.876574e-01 -7.783586e-03 8.075814e-01 -4.108826e+00 5.271179e+00
1.504061e+02 1.826196e-01 -7.868717e-03 8.078369e-01 -4.109222e+00 5.274109e+00
1.512626e+02 1.838791e-01 -7.824222e-03 8.081137e-01 -4.111084e+00 5.278397e+00
1.509829e+02 1.851385e-01 -7.868275e-03 8.083547e-01 -4.112030e+00 5.282440e+00
1.512858e+02 1.801008e-01 -7.906821e-03 8.086009e-01 -4.112793e+00 5.285645e+00
1.513000e+02 1.801008e-01 -7.925121e-03 8.088718e-01 -4.113953e+00 5.289017e+00
1.516383e+02 1.826196e-01 -7.949650e-03 8.091161e-01 -4.113831e+00 5.292511e+00
1.515896e+02 1.851385e-01 -7.948280e-03 8.093486e-01 -4.114609e+00 5.295441e+00
1.511207e+02 1.851385e-01 -7.997660e-03 8.095930e-01 -4.115341e+00 5.298416e+00
1.517103e+02 1.851385e-01 -7.999486e-03 8.098438e-01 -4.116348e+00 5.301758e+00
1.514058e+02 1.851385e-01 -8.033844e-03 8.100936e-01 -4.118500e+00 5.305191e+00
1.511202e+02 1.851385e-01 -8.077959e-03 8.103613e-01 -4.118591e+00 5.308853e+00
1.516446e+02 1.876574e-01 -8.054028e-03 8.106073e-01 -4.119690e+00 5.312637e+00
1.518302e+02 1.876574e-01 -8.088038e-03 8.108739e-01 -4.120605e+00 5.315933e+00
1.519303e+02 1.876574e-01 -8.119779e-03 8.111252e-01 -4.121994e+00 5.319321e+00
1.522687e+02 1.889169e-01 -8.143768e-03 8.113507e-01 -4.122604e+00 5.323044e+00
1.519624e+02 1.876574e-01 -8.145438e-03 8.115986e-01 -4.123367e+00 5.325806e+00
1.523817e+02 1.876574e-01 -8.149850e-03 8.118535e-01 -4.124191e+00 5.329041e+00
1.524022e+02 1.939547e-01 -8.184556e-03 8.120885e-01 -4.125626e+00 5.333130e+00
1.524085e+02 1.914358e-01 -8.206933e-03 8.123198e-01 -4.125595e+00 5.335342e+00
1.520864e+02 1.863980e-01 -8.240041e-03 8.125610e-01 -4.126892e+00 5.337906e+00
1.521912e+02 1.889169e-01 -8.240224e-03 8.127964e-01 -4.126678e+00 5.340927e+00
1.525412e+02 1.851385e-01 -8.288488e-03 8.130456e-01 -4.128387e+00 5.343552e+00
1.519989e+02 1.838791e-01 -8.303465e-03 8.132780e-01 -4.128799e+00 5.347015e+00
1.519285e+02 1.876574e-01 -8.308489e-03 8.135221e-01 -4.131226e+00 5.351639e+00
1.522178e+02 1.863980e-01 -8.340565e-03 8.137527e-01 -4.131775e+00 5.354126e+00
1.519962e+02 1.889169e-01 -8.326418e-03 8.139754e-01 -4.132599e+00 5.358017e+00
1.525925e+02 1.914358e-01 -8.350862e-03 8.142005e-01 -4.133728e+00 5.361435e+00
1.520408e+02 1.863980e-01 -8.334559e-03 8.144250e-01 -4.134491e+00 5.364334e+00
1.517883e+02 1.863980e-01 -8.379402e-03 8.146728e-01 -4.134949e+00 5.367096e+00
1.521167e+02 1.889169e-01 -8.353854e-03 8.148970e-01 -4.136917e+00 5.371002e+00
1.522160e+02 1.863980e-01 -8.363862e-03 8.151059e-01 -4.136917e+00 5.373535e+00
1.526010e+02 1.863980e-01 -8.347339e-03 8.153522e-01 -4.137375e+00 5.376022e+00
1.526471e+02 1.863980e-01 -8.353104e-03 8.155799e-01 -4.139435e+00 5.378906e+00
1.527431e+02 1.851385e-01 -8.395371e-03 8.157954e-01 -4.140656e+00 5.382889e+00
