1.126805e+02 5.695652e-01 4.066757e-02 5.770358e-01 -9.907379e-01 9.998169e-01
1.017730e+02 5.739130e-01 3.867298e-02 5.766031e-01 -9.908142e-01 1.001007e+00
9.240662e+01 5.260870e-01 3.580716e-02 5.760581e-01 -9.908600e-01 1.002106e+00
8.573972e+01 4.652174e-01 3.349112e-02 5.757198e-01 -9.909668e-01 1.003052e+00
7.945512e+01 4.217391e-01 3.161909e-02 5.755081e-01 -9.918823e-01 1.003860e+00
7.471875e+01 3.782609e-01 3.012653e-02 5.754125e-01 -9.927368e-01 1.004547e+00
7.193593e+01 3.434783e-01 2.896610e-02 5.753783e-01 -9.935760e-01 1.005142e+00
7.003072e+01 3.130435e-01 2.802150e-02 5.753964e-01 -9.944000e-01 1.005661e+00
6.907687e+01 2.826087e-01 2.728394e-02 5.754433e-01 -9.952087e-01 1.006104e+00
6.878102e+01 2.826087e-01 2.667071e-02 5.755058e-01 -9.960480e-01 1.006454e+00
6.851468e+01 2.695652e-01 2.614814e-02 5.755944e-01 -9.968872e-01 1.006760e+00
6.831258e+01 2.869565e-01 2.570894e-02 5.756713e-01 -9.977570e-01 1.007019e+00
6.855006e+01 2.869565e-01 2.533560e-02 5.757824e-01 -9.986115e-01 1.007248e+00
6.814833e+01 3.000000e-01 2.500388e-02 5.758916e-01 -9.994965e-01 1.007462e+00
6.784416e+01 3.043478e-01 2.470475e-02 5.760075e-01 -1.000381e+00 1.007660e+00
6.760794e+01 2.913043e-01 2.444476e-02 5.761171e-01 -1.001266e+00 1.007812e+00
6.742537e+01 2.826087e-01 2.420043e-02 5.762409e-01 -1.002182e+00 1.007935e+00
6.701927e+01 2.695652e-01 2.398937e-02 5.763639e-01 -1.003098e+00 1.008041e+00
6.654518e+01 2.608696e-01 2.378776e-02 5.764883e-01 -1.004013e+00 1.008133e+00
6.608670e+01 2.565217e-01 2.360269e-02 5.766152e-01 -1.004944e+00 1.008194e+00
6.571719e+01 2.652174e-01 2.344529e-02 5.767423e-01 -1.005875e+00 1.008255e+00
6.564514e+01 2.826087e-01 2.330300e-02 5.768783e-01 -1.006805e+00 1.008301e+00
6.547881e+01 2.869565e-01 2.316337e-02 5.770218e-01 -1.007751e+00 1.008331e+00
6.507880e+01 2.782609e-01 2.303805e-02 5.771593e-01 -1.008667e+00 1.008331e+00
6.498100e+01 2.782609e-01 2.291860e-02 5.773010e-01 -1.009613e+00 1.008316e+00
6.470386e+01 2.739130e-01 2.281723e-02 5.774432e-01 -1.010559e+00 1.008301e+00
6.464110e+01 2.826087e-01 2.272990e-02 5.775868e-01 -1.011505e+00 1.008255e+00
6.456664e+01 2.913043e-01 2.262670e-02 5.777338e-01 -1.012436e+00 1.008224e+00
6.425166e+01 2.739130e-01 2.254909e-02 5.778854e-01 -1.013367e+00 1.008179e+00
6.421111e+01 2.869565e-01 2.246329e-02 5.780421e-01 -1.014343e+00 1.008118e+00
6.390816e+01 2.913043e-01 2.240213e-02 5.782039e-01 -1.015274e+00 1.008041e+00
6.381973e+01 2.956522e-01 2.231513e-02 5.783579e-01 -1.016205e+00 1.007950e+00
6.322684e+01 2.826087e-01 2.226270e-02 5.785199e-01 -1.017151e+00 1.007843e+00
6.308090e+01 2.826087e-01 2.220994e-02 5.786956e-01 -1.018097e+00 1.007721e+00
6.284669e+01 2.739130e-01 2.214331e-02 5.788680e-01 -1.019028e+00 1.007584e+00
6.269705e+01 2.739130e-01 2.208486e-02 5.790409e-01 -1.019974e+00 1.007462e+00
6.269911e+01 2.695652e-01 2.203625e-02 5.792142e-01 -1.020920e+00 1.007309e+00
6.232149e+01 2.652174e-01 2.199116e-02 5.794031e-01 -1.025635e+00 1.007187e+00
6.230873e+01 2.695652e-01 2.194919e-02 5.795853e-01 -1.029587e+00 1.007034e+00
6.192413e+01 2.565217e-01 2.190954e-02 5.797740e-01 -1.033661e+00 1.006866e+00
6.177425e+01 2.521739e-01 2.185474e-02 5.799649e-01 -1.038376e+00 1.006699e+00
6.129233e+01 2.478261e-01 2.182085e-02 5.801621e-01 -1.043167e+00 1.006516e+00
6.117867e+01 2.478261e-01 2.177700e-02 5.803692e-01 -1.048233e+00 1.006317e+00
6.101692e+01 2.434783e-01 2.173973e-02 5.805630e-01 -1.053146e+00 1.006897e+00
6.087434e+01 2.391304e-01 2.169478e-02 5.807728e-01 -1.058395e+00 1.007599e+00
6.086383e+01 2.434783e-01 2.164720e-02 5.809675e-01 -1.064972e+00 1.008286e+00
6.069164e+01 2.521739e-01 2.160644e-02 5.811866e-01 -1.072189e+00 1.008972e+00
6.029930e+01 2.521739e-01 2.157588e-02 5.813993e-01 -1.079498e+00 1.009674e+00
6.006448e+01 2.565217e-01 2.152827e-02 5.816166e-01 -1.086975e+00 1.010345e+00
5.986992e+01 2.521739e-01 2.148973e-02 5.818342e-01 -1.094162e+00 1.011047e+00
5.929001e+01 2.260870e-01 2.145269e-02 5.820605e-01 -1.101669e+00 1.011734e+00
5.917284e+01 2.347826e-01 2.140766e-02 5.822921e-01 -1.109238e+00 1.012375e+00
5.907019e+01 2.304348e-01 2.138081e-02 5.825186e-01 -1.116501e+00 1.013046e+00
5.889171e+01 2.260870e-01 2.135372e-02 5.827578e-01 -1.124084e+00 1.013687e+00
5.892851e+01 2.347826e-01 2.131547e-02 5.829879e-01 -1.131699e+00 1.014359e+00
5.876399e+01 2.304348e-01 2.129738e-02 5.832360e-01 -1.139099e+00 1.014999e+00
5.855934e+01 2.304348e-01 2.125974e-02 5.834734e-01 -1.146255e+00 1.015656e+00
5.811714e+01 2.260870e-01 2.123247e-02 5.837150e-01 -1.153717e+00 1.016296e+00
5.789577e+01 2.217391e-01 2.119226e-02 5.839690e-01 -1.161163e+00 1.016953e+00
5.772401e+01 2.173913e-01 2.117824e-02 5.842285e-01 -1.168488e+00 1.017578e+00
5.746515e+01 2.173913e-01 2.114602e-02 5.844809e-01 -1.176102e+00 1.018204e+00
5.722482e+01 2.130435e-01 2.109917e-02 5.847420e-01 -1.183868e+00 1.018829e+00
5.722478e+01 2.086957e-01 2.106480e-02 5.849987e-01 -1.191437e+00 1.019440e+00
5.717473e+01 2.130435e-01 2.102844e-02 5.852615e-01 -1.199066e+00 1.020050e+00
5.724327e+01 2.173913e-01 2.099554e-02 5.855433e-01 -1.206589e+00 1.020660e+00
5.694054e+01 2.260870e-01 2.095979e-02 5.858176e-01 -1.214050e+00 1.021255e+00
5.672806e+01 2.260870e-01 2.091627e-02 5.860797e-01 -1.221420e+00 1.021851e+00
5.644325e+01 2.173913e-01 2.091046e-02 5.863605e-01 -1.228806e+00 1.022430e+00
5.632709e+01 2.130435e-01 2.086394e-02 5.866288e-01 -1.236053e+00 1.023010e+00
5.616092e+01 2.173913e-01 2.081719e-02 5.869192e-01 -1.243668e+00 1.023590e+00
5.588934e+01 2.173913e-01 2.079450e-02 5.871995e-01 -1.250763e+00 1.024185e+00
5.590694e+01 2.130435e-01 2.075440e-02 5.874872e-01 -1.257919e+00 1.024765e+00
5.537485e+01 2.043478e-01 2.072084e-02 5.877809e-01 -1.265015e+00 1.025330e+00
5.529221e+01 2.043478e-01 2.070096e-02 5.880653e-01 -1.272217e+00 1.025894e+00
5.494356e+01 2.043478e-01 2.066745e-02 5.883577e-01 -1.279282e+00 1.026459e+00
5.484956e+01 2.043478e-01 2.063890e-02 5.886490e-01 -1.286713e+00 1.027023e+00
5.476332e+01 2.043478e-01 2.059003e-02 5.889614e-01 -1.293655e+00 1.027573e+00
5.465459e+01 2.086957e-01 2.056244e-02 5.892554e-01 -1.300827e+00 1.028122e+00
5.454796e+01 2.086957e-01 2.053953e-02 5.895572e-01 -1.307968e+00 1.028687e+00
5.430891e+01 2.043478e-01 2.050230e-02 5.898637e-01 -1.314941e+00 1.029236e+00
5.411295e+01 2.043478e-01 2.047755e-02 5.901673e-01 -1.321671e+00 1.029785e+00
5.392363e+01 2.043478e-01 2.046099e-02 5.904717e-01 -1.328369e+00 1.030334e+00
5.359923e+01 2.043478e-01 2.045087e-02 5.907841e-01 -1.335098e+00 1.030884e+00
5.308911e+01 2.000000e-01 2.044205e-02 5.910862e-01 -1.341690e+00 1.031448e+00
5.276166e+01 1.956522e-01 2.041237e-02 5.914143e-01 -1.348343e+00 1.031982e+00
5.259239e+01 1.913043e-01 2.041663e-02 5.917123e-01 -1.354950e+00 1.032532e+00
5.251399e+01 1.913043e-01 2.038488e-02 5.920300e-01 -1.361572e+00 1.033066e+00
5.231281e+01 1.956522e-01 2.039417e-02 5.923501e-01 -1.368103e+00 1.034805e+00
5.221738e+01 2.000000e-01 2.037139e-02 5.926670e-01 -1.374786e+00 1.037872e+00
5.200209e+01 2.000000e-01 2.036902e-02 5.929728e-01 -1.381165e+00 1.040497e+00
5.188005e+01 2.043478e-01 2.034211e-02 5.932975e-01 -1.387604e+00 1.043427e+00
5.189171e+01 2.043478e-01 2.032751e-02 5.936238e-01 -1.394196e+00 1.046173e+00
5.182277e+01 2.043478e-01 2.032555e-02 5.939359e-01 -1.400681e+00 1.048981e+00
5.170984e+01 2.043478e-01 2.029708e-02 5.942675e-01 -1.407043e+00 1.051834e+00
5.123306e+01 2.000000e-01 2.027344e-02 5.946033e-01 -1.413422e+00 1.054626e+00
5.107994e+01 2.000000e-01 2.025114e-02 5.949301e-01 -1.419968e+00 1.057236e+00
5.093718e+01 2.000000e-01 2.024271e-02 5.952525e-01 -1.426361e+00 1.060013e+00
5.060553e+01 2.000000e-01 2.022484e-02 5.955726e-01 -1.432541e+00 1.062622e+00
5.041238e+01 2.043478e-01 2.020892e-02 5.959249e-01 -1.438751e+00 1.065277e+00
5.023264e+01 2.043478e-01 2.017417e-02 5.962228e-01 -1.444870e+00 1.068100e+00
5.011407e+01 2.043478e-01 2.015657e-02 5.965544e-01 -1.450790e+00 1.070694e+00
4.997722e+01 2.043478e-01 2.012947e-02 5.968907e-01 -1.456818e+00 1.073441e+00
4.966798e+01 2.043478e-01 2.012592e-02 5.972086e-01 -1.462524e+00 1.076126e+00
4.935789e+01 2.043478e-01 2.010225e-02 5.975414e-01 -1.468353e+00 1.078766e+00
4.922110e+01 2.043478e-01 2.010653e-02 5.978523e-01 -1.474182e+00 1.081406e+00
4.893195e+01 1.956522e-01 2.009461e-02 5.981797e-01 -1.479965e+00 1.084030e+00
4.886024e+01 1.956522e-01 2.008857e-02 5.984899e-01 -1.485672e+00 1.086777e+00
4.868250e+01 1.913043e-01 2.008217e-02 5.988251e-01 -1.491394e+00 1.089340e+00
4.850903e+01 1.913043e-01 2.009479e-02 5.991515e-01 -1.497055e+00 1.094559e+00
4.833563e+01 1.869565e-01 2.005484e-02 5.994633e-01 -1.502762e+00 1.103546e+00
4.815105e+01 1.869565e-01 2.007475e-02 5.997951e-01 -1.508209e+00 1.112350e+00
4.817769e+01 1.913043e-01 2.007447e-02 6.001375e-01 -1.513657e+00 1.121109e+00
4.790254e+01 1.913043e-01 2.007101e-02 6.004608e-01 -1.519180e+00 1.129852e+00
4.793718e+01 1.956522e-01 2.005386e-02 6.007631e-01 -1.524536e+00 1.138611e+00
4.778133e+01 1.956522e-01 2.005522e-02 6.010885e-01 -1.529633e+00 1.147064e+00
4.772839e+01 1.956522e-01 2.005027e-02 6.014130e-01 -1.534714e+00 1.155487e+00
4.763084e+01 2.000000e-01 2.005259e-02 6.017242e-01 -1.539764e+00 1.163864e+00
4.748434e+01 2.000000e-01 2.002880e-02 6.020391e-01 -1.544800e+00 1.172287e+00
4.738364e+01 2.000000e-01 2.002842e-02 6.023599e-01 -1.549637e+00 1.180588e+00
4.720155e+01 2.000000e-01 2.004511e-02 6.026724e-01 -1.554779e+00 1.188751e+00
4.687753e+01 2.000000e-01 2.001975e-02 6.029925e-01 -1.559235e+00 1.197098e+00
4.673811e+01 2.000000e-01 2.002991e-02 6.033090e-01 -1.563980e+00 1.205307e+00
4.652213e+01 2.000000e-01 2.001625e-02 6.036250e-01 -1.568817e+00 1.213531e+00
4.640210e+01 2.000000e-01 2.001325e-02 6.039286e-01 -1.573547e+00 1.221588e+00
4.630719e+01 2.043478e-01 1.999804e-02 6.042707e-01 -1.578400e+00 1.229752e+00
4.634235e+01 2.043478e-01 2.001572e-02 6.045818e-01 -1.583130e+00 1.237854e+00
4.603531e+01 2.000000e-01 2.000302e-02 6.048852e-01 -1.587769e+00 1.245804e+00
4.582980e+01 1.956522e-01 1.998875e-02 6.052145e-01 -1.592484e+00 1.253754e+00
4.576468e+01 1.956522e-01 1.999249e-02 6.055139e-01 -1.597168e+00 1.261566e+00
4.553920e+01 1.956522e-01 1.995391e-02 6.058215e-01 -1.602036e+00 1.269547e+00
4.554422e+01 1.956522e-01 1.996429e-02 6.061361e-01 -1.606674e+00 1.277222e+00
4.565733e+01 1.956522e-01 1.995639e-02 6.064431e-01 -1.611176e+00 1.284714e+00
4.563518e+01 1.956522e-01 1.992892e-02 6.067416e-01 -1.615829e+00 1.292435e+00
4.554848e+01 1.913043e-01 1.993093e-02 6.070662e-01 -1.620270e+00 1.299927e+00
4.552856e+01 1.913043e-01 1.993868e-02 6.073749e-01 -1.624496e+00 1.307190e+00
4.538925e+01 1.913043e-01 1.992350e-02 6.076760e-01 -1.628799e+00 1.314590e+00
4.517171e+01 1.913043e-01 1.993019e-02 6.079880e-01 -1.633011e+00 1.321869e+00
4.500151e+01 1.913043e-01 1.991954e-02 6.082700e-01 -1.637344e+00 1.329071e+00
4.481320e+01 1.913043e-01 1.988776e-02 6.085727e-01 -1.641678e+00 1.336365e+00
4.481265e+01 1.913043e-01 1.987894e-02 6.088714e-01 -1.646057e+00 1.343628e+00
4.480281e+01 1.913043e-01 1.986389e-02 6.091604e-01 -1.650299e+00 1.350784e+00
4.460176e+01 1.913043e-01 1.985429e-02 6.094585e-01 -1.654419e+00 1.357864e+00
4.460945e+01 1.913043e-01 1.985158e-02 6.097491e-01 -1.658417e+00 1.364868e+00
4.434972e+01 1.869565e-01 1.984280e-02 6.100568e-01 -1.662338e+00 1.371872e+00
4.431647e+01 1.869565e-01 1.983244e-02 6.103321e-01 -1.666199e+00 1.378845e+00
4.432289e+01 1.869565e-01 1.980982e-02 6.106248e-01 -1.670105e+00 1.385864e+00
4.423128e+01 1.869565e-01 1.982295e-02 6.108969e-01 -1.674423e+00 1.392715e+00
4.420345e+01 1.869565e-01 1.981171e-02 6.112030e-01 -1.677612e+00 1.399689e+00
4.399387e+01 1.869565e-01 1.980868e-02 6.114783e-01 -1.681320e+00 1.406570e+00
4.406558e+01 1.913043e-01 1.980112e-02 6.117514e-01 -1.684921e+00 1.413391e+00
4.397015e+01 1.913043e-01 1.980941e-02 6.120418e-01 -1.689529e+00 1.420364e+00
4.384807e+01 1.913043e-01 1.980936e-02 6.123111e-01 -1.692108e+00 1.426788e+00
4.372635e+01 1.913043e-01 1.979025e-02 6.125902e-01 -1.695328e+00 1.433380e+00
4.356902e+01 1.956522e-01 1.978403e-02 6.128643e-01 -1.698853e+00 1.439972e+00
4.351056e+01 1.956522e-01 1.979050e-02 6.131492e-01 -1.702209e+00 1.446426e+00
4.327321e+01 1.956522e-01 1.978548e-02 6.134175e-01 -1.705582e+00 1.452881e+00
4.330650e+01 1.956522e-01 1.976614e-02 6.136719e-01 -1.708984e+00 1.459351e+00
4.335519e+01 1.956522e-01 1.975292e-02 6.139385e-01 -1.712296e+00 1.465515e+00
4.318562e+01 1.956522e-01 1.976835e-02 6.142128e-01 -1.715485e+00 1.471649e+00
4.318956e+01 1.956522e-01 1.977056e-02 6.144960e-01 -1.718979e+00 1.477753e+00
4.328474e+01 1.956522e-01 1.977498e-02 6.147519e-01 -1.721909e+00 1.483887e+00
4.326823e+01 2.000000e-01 1.975387e-02 6.150243e-01 -1.725159e+00 1.489990e+00
4.337152e+01 2.000000e-01 1.974003e-02 6.152764e-01 -1.728348e+00 1.496094e+00
4.317584e+01 2.000000e-01 1.973847e-02 6.155535e-01 -1.731613e+00 1.502121e+00
4.311511e+01 2.000000e-01 1.971634e-02 6.157985e-01 -1.734772e+00 1.507950e+00
4.313747e+01 2.000000e-01 1.971613e-02 6.160921e-01 -1.738052e+00 1.513855e+00
4.306331e+01 1.956522e-01 1.969266e-02 6.163519e-01 -1.741135e+00 1.519623e+00
4.294647e+01 1.956522e-01 1.971545e-02 6.165764e-01 -1.744080e+00 1.525146e+00
4.292436e+01 1.956522e-01 1.968082e-02 6.168347e-01 -1.747162e+00 1.530884e+00
4.289879e+01 1.956522e-01 1.968613e-02 6.170867e-01 -1.750031e+00 1.536392e+00
4.286400e+01 1.956522e-01 1.965967e-02 6.173369e-01 -1.753052e+00 1.542038e+00
4.279657e+01 1.956522e-01 1.966640e-02 6.175731e-01 -1.755966e+00 1.547562e+00
4.285378e+01 1.956522e-01 1.964272e-02 6.178350e-01 -1.759171e+00 1.552994e+00
4.290022e+01 1.956522e-01 1.964800e-02 6.180775e-01 -1.761688e+00 1.558441e+00
4.272522e+01 1.956522e-01 1.963031e-02 6.183154e-01 -1.764557e+00 1.563950e+00
4.263116e+01 1.913043e-01 1.961925e-02 6.185512e-01 -1.767441e+00 1.569382e+00
4.252785e+01 1.913043e-01 1.961177e-02 6.187923e-01 -1.770218e+00 1.574615e+00
4.250078e+01 1.913043e-01 1.959118e-02 6.190191e-01 -1.772980e+00 1.579849e+00
4.225183e+01 1.913043e-01 1.958887e-02 6.192575e-01 -1.775772e+00 1.585098e+00
4.223952e+01 1.913043e-01 1.959732e-02 6.194479e-01 -1.778351e+00 1.590103e+00
4.208093e+01 1.913043e-01 1.959116e-02 6.197020e-01 -1.781067e+00 1.595154e+00
4.201871e+01 1.913043e-01 1.957042e-02 6.199445e-01 -1.783646e+00 1.600174e+00
4.188069e+01 1.913043e-01 1.957896e-02 6.201766e-01 -1.786148e+00 1.605179e+00
4.178918e+01 1.913043e-01 1.954703e-02 6.204043e-01 -1.788727e+00 1.610077e+00
4.180823e+01 1.913043e-01 1.956070e-02 6.206463e-01 -1.791412e+00 1.614868e+00
4.159587e+01 1.869565e-01 1.956170e-02 6.208579e-01 -1.794220e+00 1.619858e+00
4.162178e+01 1.869565e-01 1.953571e-02 6.210600e-01 -1.796265e+00 1.624481e+00
4.160677e+01 1.869565e-01 1.953655e-02 6.213140e-01 -1.798737e+00 1.629242e+00
4.152182e+01 1.869565e-01 1.953321e-02 6.215251e-01 -1.801636e+00 1.634033e+00
4.147630e+01 1.869565e-01 1.951041e-02 6.216999e-01 -1.803650e+00 1.638718e+00
4.136751e+01 1.869565e-01 1.951567e-02 6.219477e-01 -1.805969e+00 1.643311e+00
4.138664e+01 1.869565e-01 1.952093e-02 6.221495e-01 -1.808228e+00 1.647812e+00
4.130933e+01 1.869565e-01 1.950344e-02 6.223966e-01 -1.811020e+00 1.652405e+00
4.126265e+01 1.869565e-01 1.948838e-02 6.225785e-01 -1.812881e+00 1.656937e+00
4.120535e+01 1.869565e-01 1.949198e-02 6.227998e-01 -1.815338e+00 1.661301e+00
4.117058e+01 1.869565e-01 1.947403e-02 6.230073e-01 -1.817230e+00 1.665817e+00
4.113008e+01 1.869565e-01 1.946966e-02 6.232035e-01 -1.819473e+00 1.670258e+00
4.117455e+01 1.869565e-01 1.945802e-02 6.234178e-01 -1.821640e+00 1.674667e+00
4.126091e+01 1.869565e-01 1.947489e-02 6.236533e-01 -1.824310e+00 1.679092e+00
4.117415e+01 1.869565e-01 1.943940e-02 6.238323e-01 -1.825821e+00 1.683289e+00
4.120062e+01 1.869565e-01 1.945003e-02 6.240134e-01 -1.827896e+00 1.687546e+00
4.119762e+01 1.869565e-01 1.944364e-02 6.242388e-01 -1.829971e+00 1.691772e+00
4.117416e+01 1.869565e-01 1.941474e-02 6.244056e-01 -1.832123e+00 1.696045e+00
4.139775e+01 1.869565e-01 1.941805e-02 6.246156e-01 -1.834106e+00 1.700256e+00
4.138989e+01 1.869565e-01 1.940731e-02 6.248011e-01 -1.836655e+00 1.704575e+00
4.133760e+01 1.869565e-01 1.941456e-02 6.250002e-01 -1.838074e+00 1.708481e+00
4.139285e+01 1.869565e-01 1.938976e-02 6.251911e-01 -1.840195e+00 1.712723e+00
4.137167e+01 1.869565e-01 1.938583e-02 6.253649e-01 -1.842270e+00 1.716888e+00
4.131815e+01 1.869565e-01 1.939066e-02 6.255767e-01 -1.844315e+00 1.720947e+00
4.130965e+01 1.869565e-01 1.937230e-02 6.257402e-01 -1.846146e+00 1.725037e+00
4.123399e+01 1.869565e-01 1.936747e-02 6.259187e-01 -1.848114e+00 1.729111e+00
4.112265e+01 1.869565e-01 1.935635e-02 6.261228e-01 -1.849991e+00 1.732986e+00
4.109314e+01 1.869565e-01 1.936863e-02 6.262996e-01 -1.852997e+00 1.737732e+00
4.111824e+01 1.869565e-01 1.937250e-02 6.264884e-01 -1.853867e+00 1.740738e+00
4.111699e+01 1.869565e-01 1.936009e-02 6.266607e-01 -1.855484e+00 1.744370e+00
4.109578e+01 1.869565e-01 1.934477e-02 6.268438e-01 -1.856979e+00 1.748169e+00
4.098399e+01 1.869565e-01 1.934989e-02 6.270281e-01 -1.859390e+00 1.752213e+00
4.109122e+01 1.913043e-01 1.933222e-02 6.271836e-01 -1.860458e+00 1.755692e+00
4.112425e+01 1.913043e-01 1.932190e-02 6.273820e-01 -1.862442e+00 1.759491e+00
4.100827e+01 1.913043e-01 1.930994e-02 6.275382e-01 -1.864182e+00 1.763535e+00
4.096191e+01 1.913043e-01 1.930459e-02 6.276737e-01 -1.865875e+00 1.767273e+00
4.091713e+01 1.913043e-01 1.932433e-02 6.278719e-01 -1.867630e+00 1.771149e+00
4.084218e+01 1.956522e-01 1.930909e-02 6.280192e-01 -1.869293e+00 1.774994e+00
4.089441e+01 1.956522e-01 1.931015e-02 6.282015e-01 -1.870880e+00 1.778748e+00
4.063448e+01 1.869565e-01 1.933593e-02 6.283669e-01 -1.873016e+00 1.782135e+00
4.060388e+01 1.869565e-01 1.931924e-02 6.285205e-01 -1.873886e+00 1.785934e+00
4.067488e+01 1.869565e-01 1.934718e-02 6.286713e-01 -1.876236e+00 1.789246e+00
4.065102e+01 1.869565e-01 1.934258e-02 6.288196e-01 -1.876801e+00 1.792908e+00
4.064630e+01 1.869565e-01 1.933927e-02 6.289563e-01 -1.878281e+00 1.796417e+00
4.051888e+01 1.869565e-01 1.934066e-02 6.291187e-01 -1.880173e+00 1.799789e+00
4.050763e+01 1.869565e-01 1.935672e-02 6.292778e-01 -1.881439e+00 1.803284e+00
4.045515e+01 1.869565e-01 1.936584e-02 6.294179e-01 -1.883194e+00 1.807022e+00
4.046423e+01 1.913043e-01 1.937218e-02 6.295910e-01 -1.884232e+00 1.809814e+00
4.037514e+01 1.913043e-01 1.937290e-02 6.297047e-01 -1.885345e+00 1.812973e+00
4.036092e+01 1.913043e-01 1.938013e-02 6.298678e-01 -1.886673e+00 1.816208e+00
4.032277e+01 1.913043e-01 1.936459e-02 6.300129e-01 -1.888046e+00 1.819366e+00
4.035274e+01 1.913043e-01 1.935358e-02 6.301452e-01 -1.889481e+00 1.822556e+00
4.035274e+01 1.913043e-01 1.934842e-02 6.302861e-01 -1.890717e+00 1.825607e+00
4.025221e+01 1.913043e-01 1.933851e-02 6.304469e-01 -1.891937e+00 1.828613e+00
4.023982e+01 1.913043e-01 1.935611e-02 6.305911e-01 -1.894821e+00 1.832642e+00
4.029347e+01 1.913043e-01 1.933416e-02 6.307484e-01 -1.894333e+00 1.834473e+00
4.024986e+01 1.913043e-01 1.933326e-02 6.308773e-01 -1.895538e+00 1.837402e+00
4.021783e+01 1.913043e-01 1.932119e-02 6.310090e-01 -1.896942e+00 1.840332e+00
4.020274e+01 1.913043e-01 1.931924e-02 6.311432e-01 -1.898071e+00 1.843216e+00
4.019861e+01 1.956522e-01 1.930864e-02 6.312637e-01 -1.899277e+00 1.846100e+00
4.019077e+01 1.956522e-01 1.929332e-02 6.314131e-01 -1.900482e+00 1.848969e+00
4.023648e+01 1.913043e-01 1.928225e-02 6.315282e-01 -1.901917e+00 1.851746e+00
4.022620e+01 1.913043e-01 1.928691e-02 6.316923e-01 -1.902954e+00 1.854568e+00
4.020543e+01 1.913043e-01 1.927843e-02 6.317940e-01 -1.903961e+00 1.857346e+00
4.009003e+01 1.869565e-01 1.924761e-02 6.319582e-01 -1.905548e+00 1.860123e+00
4.009230e+01 1.869565e-01 1.926378e-02 6.320960e-01 -1.906860e+00 1.862885e+00
4.009424e+01 1.869565e-01 1.925433e-02 6.322346e-01 -1.907715e+00 1.865540e+00
4.019162e+01 1.913043e-01 1.922491e-02 6.323451e-01 -1.908844e+00 1.868408e+00
4.017346e+01 1.869565e-01 1.922792e-02 6.324627e-01 -1.911041e+00 1.871216e+00
4.020782e+01 1.913043e-01 1.920452e-02 6.326086e-01 -1.911163e+00 1.873718e+00
4.024628e+01 1.913043e-01 1.920629e-02 6.327390e-01 -1.912888e+00 1.876389e+00
4.024771e+01 1.913043e-01 1.918393e-02 6.328577e-01 -1.913483e+00 1.879013e+00
4.019121e+01 1.913043e-01 1.919055e-02 6.329916e-01 -1.914642e+00 1.881699e+00
4.026686e+01 1.913043e-01 1.918645e-02 6.331237e-01 -1.916061e+00 1.884277e+00
4.022386e+01 1.913043e-01 1.917155e-02 6.332458e-01 -1.916885e+00 1.886841e+00
4.017517e+01 1.913043e-01 1.915352e-02 6.333617e-01 -1.918137e+00 1.889511e+00
4.008609e+01 1.913043e-01 1.913725e-02 6.334979e-01 -1.919266e+00 1.892059e+00
4.012086e+01 1.913043e-01 1.913655e-02 6.336319e-01 -1.920410e+00 1.894592e+00
4.013229e+01 1.913043e-01 1.913064e-02 6.337541e-01 -1.922012e+00 1.897446e+00
4.010402e+01 1.913043e-01 1.911283e-02 6.338525e-01 -1.922531e+00 1.899414e+00
4.009103e+01 1.913043e-01 1.909089e-02 6.339719e-01 -1.923447e+00 1.901886e+00
4.003522e+01 1.913043e-01 1.909481e-02 6.340905e-01 -1.924988e+00 1.904541e+00
4.002875e+01 1.913043e-01 1.907799e-02 6.342094e-01 -1.925354e+00 1.906464e+00
3.999638e+01 1.913043e-01 1.906678e-02 6.343252e-01 -1.926437e+00 1.908875e+00
4.009293e+01 1.913043e-01 1.905765e-02 6.344637e-01 -1.928238e+00 1.911545e+00
4.012943e+01 1.913043e-01 1.902367e-02 6.345527e-01 -1.928619e+00 1.913483e+00
4.003264e+01 1.913043e-01 1.902480e-02 6.346701e-01 -1.929703e+00 1.915695e+00
4.006645e+01 1.956522e-01 1.899353e-02 6.347669e-01 -1.930801e+00 1.917877e+00
4.002303e+01 1.913043e-01 1.898671e-02 6.348879e-01 -1.931839e+00 1.919998e+00
4.001157e+01 1.913043e-01 1.897643e-02 6.350133e-01 -1.932800e+00 1.922119e+00
3.997556e+01 1.913043e-01 1.894951e-02 6.351012e-01 -1.933899e+00 1.924164e+00
4.003929e+01 1.913043e-01 1.891816e-02 6.352149e-01 -1.934753e+00 1.926407e+00
4.010112e+01 1.913043e-01 1.892224e-02 6.353327e-01 -1.935623e+00 1.928452e+00
4.003520e+01 1.913043e-01 1.892952e-02 6.354413e-01 -1.937805e+00 1.931168e+00
3.992639e+01 1.913043e-01 1.890577e-02 6.355657e-01 -1.937592e+00 1.932709e+00
3.997363e+01 1.913043e-01 1.888856e-02 6.356609e-01 -1.938278e+00 1.934708e+00
4.006709e+01 1.913043e-01 1.889436e-02 6.357574e-01 -1.939270e+00 1.936859e+00
4.007515e+01 1.913043e-01 1.887658e-02 6.358540e-01 -1.940399e+00 1.938904e+00
4.007341e+01 1.913043e-01 1.887303e-02 6.359456e-01 -1.940918e+00 1.940857e+00
4.005302e+01 1.913043e-01 1.884902e-02 6.360628e-01 -1.941803e+00 1.942978e+00
4.002681e+01 1.913043e-01 1.883752e-02 6.361414e-01 -1.942734e+00 1.945084e+00
3.990460e+01 1.913043e-01 1.885027e-02 6.362346e-01 -1.944031e+00 1.947327e+00
3.990286e+01 1.913043e-01 1.882905e-02 6.363725e-01 -1.944321e+00 1.949051e+00
3.989842e+01 1.913043e-01 1.882305e-02 6.364428e-01 -1.945877e+00 1.951492e+00
3.984474e+01 1.913043e-01 1.882264e-02 6.365213e-01 -1.945816e+00 1.952759e+00
3.985341e+01 1.913043e-01 1.882384e-02 6.366573e-01 -1.946899e+00 1.954880e+00
3.988072e+01 1.913043e-01 1.881013e-02 6.367644e-01 -1.947800e+00 1.956558e+00
3.987560e+01 1.913043e-01 1.879408e-02 6.368421e-01 -1.948166e+00 1.958359e+00
3.987560e+01 1.913043e-01 1.877898e-02 6.369327e-01 -1.949005e+00 1.960342e+00
3.987260e+01 1.913043e-01 1.877326e-02 6.370131e-01 -1.950211e+00 1.962143e+00
3.992178e+01 1.913043e-01 1.877310e-02 6.371100e-01 -1.950592e+00 1.963974e+00
3.990596e+01 1.913043e-01 1.877478e-02 6.372250e-01 -1.952621e+00 1.966431e+00
3.985983e+01 1.913043e-01 1.873610e-02 6.372809e-01 -1.952072e+00 1.967560e+00
3.992201e+01 1.913043e-01 1.873827e-02 6.373702e-01 -1.952850e+00 1.969360e+00
3.989029e+01 1.913043e-01 1.875182e-02 6.374937e-01 -1.954086e+00 1.971375e+00
3.985439e+01 1.913043e-01 1.872958e-02 6.375302e-01 -1.954575e+00 1.973007e+00
3.980656e+01 1.956522e-01 1.870331e-02 6.376798e-01 -1.955215e+00 1.974564e+00
3.979781e+01 1.956522e-01 1.870643e-02 6.377739e-01 -1.955856e+00 1.976410e+00
3.984647e+01 1.956522e-01 1.868874e-02 6.378282e-01 -1.956635e+00 1.978180e+00
3.986205e+01 1.956522e-01 1.868902e-02 6.379227e-01 -1.957352e+00 1.979904e+00
3.985561e+01 1.956522e-01 1.868112e-02 6.380148e-01 -1.958038e+00 1.981598e+00
3.984576e+01 1.956522e-01 1.866154e-02 6.380910e-01 -1.958801e+00 1.983322e+00
3.967245e+01 1.913043e-01 1.864616e-02 6.381836e-01 -1.959457e+00 1.985077e+00
3.971057e+01 1.913043e-01 1.868285e-02 6.382554e-01 -1.960617e+00 1.986664e+00
3.950208e+01 1.913043e-01 1.863638e-02 6.383397e-01 -1.960907e+00 1.988251e+00
3.954332e+01 1.913043e-01 1.863718e-02 6.384133e-01 -1.961655e+00 1.989792e+00
3.947360e+01 1.913043e-01 1.862605e-02 6.385241e-01 -1.961823e+00 1.991440e+00
3.945091e+01 1.913043e-01 1.861814e-02 6.386121e-01 -1.962463e+00 1.993134e+00
3.948869e+01 1.913043e-01 1.860344e-02 6.386785e-01 -1.963562e+00 1.994904e+00
3.941737e+01 1.913043e-01 1.860266e-02 6.387600e-01 -1.964096e+00 1.996307e+00
3.936880e+01 1.913043e-01 1.860386e-02 6.388435e-01 -1.964676e+00 1.997879e+00
3.935532e+01 1.913043e-01 1.859228e-02 6.389175e-01 -1.964783e+00 1.999512e+00
3.922472e+01 1.869565e-01 1.858702e-02 6.390460e-01 -1.966110e+00 2.001236e+00
3.931288e+01 1.913043e-01 1.855924e-02 6.390752e-01 -1.966858e+00 2.002563e+00
3.927576e+01 1.913043e-01 1.854866e-02 6.391636e-01 -1.967224e+00 2.003265e+00
3.926703e+01 1.913043e-01 1.854111e-02 6.392397e-01 -1.967560e+00 2.004242e+00
3.926212e+01 1.913043e-01 1.851637e-02 6.392973e-01 -1.967651e+00 2.004990e+00
3.927788e+01 1.869565e-01 1.851324e-02 6.393546e-01 -1.968262e+00 2.006165e+00
3.926936e+01 1.869565e-01 1.850157e-02 6.394533e-01 -1.969467e+00 2.007980e+00
3.923610e+01 1.869565e-01 1.848577e-02 6.395341e-01 -1.969788e+00 2.008789e+00
3.936095e+01 1.869565e-01 1.847325e-02 6.395627e-01 -1.970047e+00 2.009720e+00
3.934970e+01 1.869565e-01 1.847483e-02 6.396596e-01 -1.971024e+00 2.010895e+00
3.934323e+01 1.869565e-01 1.844447e-02 6.397401e-01 -1.971207e+00 2.012054e+00
3.934647e+01 1.869565e-01 1.846475e-02 6.398070e-01 -1.972305e+00 2.013733e+00
3.934299e+01 1.869565e-01 1.843528e-02 6.398532e-01 -1.972260e+00 2.014450e+00
3.933453e+01 1.869565e-01 1.843499e-02 6.399127e-01 -1.972809e+00 2.015625e+00
3.937622e+01 1.869565e-01 1.843685e-02 6.400050e-01 -1.973648e+00 2.016830e+00
3.939543e+01 1.869565e-01 1.842323e-02 6.400553e-01 -1.974030e+00 2.018066e+00
3.935345e+01 1.869565e-01 1.841689e-02 6.401596e-01 -1.974594e+00 2.019241e+00
3.935355e+01 1.869565e-01 1.841716e-02 6.402080e-01 -1.975189e+00 2.020416e+00
3.934416e+01 1.869565e-01 1.839690e-02 6.402451e-01 -1.975693e+00 2.021484e+00
3.934033e+01 1.869565e-01 1.840718e-02 6.403226e-01 -1.977173e+00 2.023285e+00
3.928265e+01 1.869565e-01 1.838546e-02 6.404152e-01 -1.976562e+00 2.023682e+00
3.929004e+01 1.869565e-01 1.839993e-02 6.404404e-01 -1.977036e+00 2.024780e+00
3.928476e+01 1.869565e-01 1.839310e-02 6.405128e-01 -1.978073e+00 2.025909e+00
3.926804e+01 1.869565e-01 1.839552e-02 6.405580e-01 -1.978073e+00 2.026901e+00
3.923550e+01 1.869565e-01 1.838369e-02 6.406678e-01 -1.978546e+00 2.028091e+00
3.926955e+01 1.869565e-01 1.838555e-02 6.407197e-01 -1.978745e+00 2.029037e+00
3.925635e+01 1.869565e-01 1.838418e-02 6.407874e-01 -1.980118e+00 2.030624e+00
3.920691e+01 1.869565e-01 1.836689e-02 6.408131e-01 -1.979538e+00 2.031158e+00
3.913640e+01 1.869565e-01 1.836401e-02 6.408684e-01 -1.980026e+00 2.032288e+00
3.912946e+01 1.869565e-01 1.835684e-02 6.409331e-01 -1.980408e+00 2.033249e+00
3.909535e+01 1.869565e-01 1.835434e-02 6.409942e-01 -1.980972e+00 2.034439e+00
3.908685e+01 1.869565e-01 1.833954e-02 6.410536e-01 -1.981979e+00 2.035950e+00
3.912402e+01 1.913043e-01 1.835650e-02 6.411409e-01 -1.981842e+00 2.036423e+00
3.913080e+01 1.913043e-01 1.831897e-02 6.411821e-01 -1.982437e+00 2.037613e+00
3.902130e+01 1.913043e-01 1.835628e-02 6.412197e-01 -1.983246e+00 2.038559e+00
3.913759e+01 1.956522e-01 1.832340e-02 6.413044e-01 -1.983536e+00 2.039764e+00
3.912460e+01 1.956522e-01 1.835413e-02 6.413856e-01 -1.984787e+00 2.041702e+00
3.909129e+01 1.956522e-01 1.833351e-02 6.413971e-01 -1.983871e+00 2.041519e+00
3.908482e+01 1.956522e-01 1.833382e-02 6.414518e-01 -1.984787e+00 2.042725e+00
3.914156e+01 1.956522e-01 1.832068e-02 6.414887e-01 -1.984650e+00 2.043488e+00
3.911055e+01 1.956522e-01 1.832725e-02 6.415604e-01 -1.986099e+00 2.045319e+00
3.913393e+01 1.956522e-01 1.831150e-02 6.416269e-01 -1.985367e+00 2.045425e+00
3.912872e+01 1.956522e-01 1.831899e-02 6.416893e-01 -1.986176e+00 2.046463e+00
3.914879e+01 1.956522e-01 1.831115e-02 6.417387e-01 -1.986237e+00 2.047363e+00
3.919463e+01 1.956522e-01 1.828668e-02 6.418115e-01 -1.987579e+00 2.049026e+00
3.919478e+01 1.956522e-01 1.828592e-02 6.418604e-01 -1.987106e+00 2.049332e+00
3.920004e+01 1.956522e-01 1.828758e-02 6.418819e-01 -1.987518e+00 2.050278e+00
3.920955e+01 1.956522e-01 1.828257e-02 6.419681e-01 -1.988068e+00 2.051224e+00
3.922446e+01 1.956522e-01 1.829209e-02 6.420122e-01 -1.988937e+00 2.052521e+00
3.916167e+01 1.956522e-01 1.826624e-02 6.420618e-01 -1.988663e+00 2.053070e+00
3.919522e+01 1.913043e-01 1.825763e-02 6.421356e-01 -1.989212e+00 2.054169e+00
3.924196e+01 1.913043e-01 1.826480e-02 6.421696e-01 -1.990189e+00 2.055450e+00
3.923077e+01 1.913043e-01 1.823826e-02 6.422068e-01 -1.990677e+00 2.056549e+00
3.922783e+01 1.913043e-01 1.824384e-02 6.422898e-01 -1.990265e+00 2.056778e+00
3.918987e+01 1.913043e-01 1.823864e-02 6.423450e-01 -1.990997e+00 2.057938e+00
3.916533e+01 1.913043e-01 1.822339e-02 6.423994e-01 -1.991623e+00 2.058899e+00
3.925745e+01 1.956522e-01 1.822491e-02 6.424372e-01 -1.991302e+00 2.059601e+00
3.927873e+01 1.956522e-01 1.822198e-02 6.425030e-01 -1.992630e+00 2.061249e+00
3.929477e+01 1.956522e-01 1.822150e-02 6.425413e-01 -1.992142e+00 2.061493e+00
3.925755e+01 1.956522e-01 1.821055e-02 6.426279e-01 -1.992462e+00 2.062317e+00
3.925755e+01 1.956522e-01 1.818788e-02 6.426610e-01 -1.992950e+00 2.063263e+00
3.924611e+01 1.956522e-01 1.818853e-02 6.427289e-01 -1.993439e+00 2.064163e+00
3.931160e+01 1.956522e-01 1.818869e-02 6.427836e-01 -1.994507e+00 2.065475e+00
3.934663e+01 1.956522e-01 1.816718e-02 6.428331e-01 -1.994675e+00 2.066330e+00
3.935039e+01 1.913043e-01 1.817143e-02 6.428840e-01 -1.995102e+00 2.067215e+00
3.938432e+01 1.956522e-01 1.815263e-02 6.429314e-01 -1.994843e+00 2.067551e+00
3.934355e+01 1.956522e-01 1.814003e-02 6.429845e-01 -1.995270e+00 2.068451e+00
3.934181e+01 1.956522e-01 1.812316e-02 6.430573e-01 -1.996002e+00 2.069595e+00
3.928459e+01 1.956522e-01 1.813888e-02 6.431129e-01 -1.996979e+00 2.070938e+00
3.928459e+01 1.956522e-01 1.814348e-02 6.431423e-01 -1.996933e+00 2.071289e+00
3.937077e+01 2.000000e-01 1.810651e-02 6.431880e-01 -1.997086e+00 2.071838e+00
3.934416e+01 2.000000e-01 1.808681e-02 6.432542e-01 -1.997574e+00 2.072510e+00
3.934416e+01 2.000000e-01 1.811348e-02 6.433097e-01 -1.997742e+00 2.073227e+00
3.935063e+01 2.000000e-01 1.809675e-02 6.433629e-01 -1.998459e+00 2.074646e+00
3.930406e+01 2.000000e-01 1.807979e-02 6.433926e-01 -1.998215e+00 2.074707e+00
3.929584e+01 2.000000e-01 1.806739e-02 6.434520e-01 -1.998627e+00 2.075562e+00
3.929521e+01 2.000000e-01 1.806628e-02 6.434943e-01 -1.999115e+00 2.076416e+00
3.929521e+01 2.000000e-01 1.805042e-02 6.435516e-01 -1.999969e+00 2.077682e+00
3.936745e+01 2.000000e-01 1.804307e-02 6.435974e-01 -2.000351e+00 2.078568e+00
3.936682e+01 2.000000e-01 1.805756e-02 6.436606e-01 -2.000809e+00 2.079315e+00
3.940042e+01 2.000000e-01 1.804152e-02 6.436809e-01 -2.000168e+00 2.079605e+00
3.941443e+01 2.000000e-01 1.803196e-02 6.437410e-01 -2.000900e+00 2.080872e+00
3.937553e+01 2.000000e-01 1.804471e-02 6.437695e-01 -2.000748e+00 2.081512e+00
3.944168e+01 2.000000e-01 1.806388e-02 6.438327e-01 -2.000320e+00 2.082001e+00
3.942938e+01 2.000000e-01 1.806569e-02 6.438939e-01 -2.002640e+00 2.084808e+00
3.943115e+01 2.000000e-01 1.804594e-02 6.439059e-01 -2.000488e+00 2.083527e+00
3.943059e+01 2.000000e-01 1.804985e-02 6.439572e-01 -2.001373e+00 2.084976e+00
3.943884e+01 2.000000e-01 1.805077e-02 6.440015e-01 -2.001587e+00 2.085754e+00
3.946892e+01 2.000000e-01 1.803610e-02 6.440326e-01 -2.001556e+00 2.086502e+00
3.946011e+01 2.000000e-01 1.806129e-02 6.440899e-01 -2.002167e+00 2.087830e+00
3.942293e+01 2.000000e-01 1.804374e-02 6.441150e-01 -2.000946e+00 2.087402e+00
3.936342e+01 2.000000e-01 1.804456e-02 6.441901e-01 -2.001648e+00 2.088684e+00
3.936342e+01 2.000000e-01 1.805048e-02 6.442215e-01 -2.001984e+00 2.089554e+00
3.932458e+01 2.000000e-01 1.804816e-02 6.442578e-01 -2.001648e+00 2.089981e+00
3.926498e+01 2.000000e-01 1.803244e-02 6.442984e-01 -2.001984e+00 2.090836e+00
3.926445e+01 2.000000e-01 1.803865e-02 6.443144e-01 -2.002457e+00 2.091599e+00
3.920505e+01 2.000000e-01 1.804079e-02 6.443779e-01 -2.002472e+00 2.092361e+00
3.906410e+01 2.000000e-01 1.802563e-02 6.444283e-01 -2.002838e+00 2.093277e+00
3.911153e+01 2.000000e-01 1.802679e-02 6.444466e-01 -2.002625e+00 2.094101e+00
3.902081e+01 2.000000e-01 1.801897e-02 6.445484e-01 -2.003723e+00 2.095428e+00
3.902028e+01 2.000000e-01 1.803035e-02 6.445252e-01 -2.003296e+00 2.095428e+00
3.905020e+01 2.000000e-01 1.801608e-02 6.445867e-01 -2.003296e+00 2.096268e+00
3.903610e+01 2.000000e-01 1.803046e-02 6.446188e-01 -2.004028e+00 2.097000e+00
3.899403e+01 2.000000e-01 1.801810e-02 6.446598e-01 -2.004303e+00 2.097885e+00
3.899403e+01 2.000000e-01 1.802078e-02 6.447347e-01 -2.004593e+00 2.099182e+00
3.896222e+01 2.000000e-01 1.798792e-02 6.447306e-01 -2.003906e+00 2.099014e+00
3.897781e+01 2.000000e-01 1.799200e-02 6.447944e-01 -2.004242e+00 2.099792e+00
3.893961e+01 2.000000e-01 1.798873e-02 6.448319e-01 -2.005203e+00 2.100937e+00
3.892746e+01 2.000000e-01 1.797388e-02 6.448767e-01 -2.004776e+00 2.101273e+00
3.897620e+01 2.000000e-01 1.795484e-02 6.449008e-01 -2.004929e+00 2.101974e+00
3.898163e+01 2.000000e-01 1.794788e-02 6.449481e-01 -2.005219e+00 2.102737e+00
3.890535e+01 2.000000e-01 1.794344e-02 6.449850e-01 -2.006149e+00 2.104095e+00
3.893454e+01 2.000000e-01 1.794283e-02 6.450627e-01 -2.006134e+00 2.104431e+00
3.892329e+01 2.000000e-01 1.791715e-02 6.450600e-01 -2.005692e+00 2.104736e+00
3.894267e+01 2.000000e-01 1.791239e-02 6.450984e-01 -2.006012e+00 2.105515e+00
3.894276e+01 2.000000e-01 1.791096e-02 6.451709e-01 -2.007477e+00 2.107117e+00
3.894276e+01 2.000000e-01 1.790300e-02 6.452096e-01 -2.006622e+00 2.107117e+00
3.889809e+01 2.000000e-01 1.790534e-02 6.452213e-01 -2.007111e+00 2.107971e+00
3.890070e+01 2.000000e-01 1.789056e-02 6.452568e-01 -2.006638e+00 2.108109e+00
3.883769e+01 2.000000e-01 1.789925e-02 6.453195e-01 -2.007401e+00 2.109161e+00
3.883446e+01 2.000000e-01 1.787294e-02 6.453500e-01 -2.007828e+00 2.110153e+00
3.883768e+01 2.000000e-01 1.787567e-02 6.453826e-01 -2.007614e+00 2.110153e+00
3.878513e+01 2.000000e-01 1.786051e-02 6.454358e-01 -2.007690e+00 2.111069e+00
3.880318e+01 2.000000e-01 1.786515e-02 6.454485e-01 -2.007721e+00 2.111496e+00
3.885368e+01 2.000000e-01 1.783547e-02 6.454865e-01 -2.007828e+00 2.112198e+00
3.880725e+01 2.000000e-01 1.785342e-02 6.455476e-01 -2.008621e+00 2.113388e+00
3.878967e+01 2.000000e-01 1.782691e-02 6.455723e-01 -2.008286e+00 2.113586e+00
3.860271e+01 2.000000e-01 1.782119e-02 6.456029e-01 -2.008545e+00 2.114227e+00
3.857426e+01 2.000000e-01 1.782489e-02 6.456379e-01 -2.009293e+00 2.115097e+00
3.857103e+01 2.000000e-01 1.783384e-02 6.456852e-01 -2.009491e+00 2.115967e+00
3.856461e+01 2.000000e-01 1.781967e-02 6.457083e-01 -2.009567e+00 2.116669e+00
3.856982e+01 2.000000e-01 1.780838e-02 6.457734e-01 -2.009064e+00 2.116821e+00
3.861313e+01 2.000000e-01 1.780267e-02 6.458049e-01 -2.009583e+00 2.117783e+00
3.860225e+01 2.000000e-01 1.777613e-02 6.458345e-01 -2.009842e+00 2.118408e+00
3.862062e+01 2.000000e-01 1.780195e-02 6.458784e-01 -2.009659e+00 2.118912e+00
3.868271e+01 2.043478e-01 1.778467e-02 6.459001e-01 -2.009903e+00 2.119629e+00
3.860809e+01 2.000000e-01 1.778291e-02 6.459504e-01 -2.011063e+00 2.121124e+00
3.862462e+01 2.000000e-01 1.777294e-02 6.459751e-01 -2.010910e+00 2.121353e+00
3.863458e+01 2.000000e-01 1.775581e-02 6.460098e-01 -2.010513e+00 2.121582e+00
3.861281e+01 2.000000e-01 1.778993e-02 6.460205e-01 -2.010666e+00 2.122147e+00
3.859694e+01 1.956522e-01 1.773977e-02 6.461073e-01 -2.011520e+00 2.123520e+00
3.854396e+01 1.956522e-01 1.773113e-02 6.461205e-01 -2.010849e+00 2.123474e+00
3.855104e+01 1.956522e-01 1.774840e-02 6.461471e-01 -2.011810e+00 2.124603e+00
3.858592e+01 1.956522e-01 1.775152e-02 6.461807e-01 -2.011246e+00 2.124680e+00
3.864105e+01 2.000000e-01 1.772874e-02 6.462390e-01 -2.012192e+00 2.125931e+00
3.864105e+01 2.000000e-01 1.770659e-02 6.462590e-01 -2.012024e+00 2.126297e+00
3.862981e+01 2.000000e-01 1.770440e-02 6.463207e-01 -2.012054e+00 2.126511e+00
3.864511e+01 2.000000e-01 1.769408e-02 6.463362e-01 -2.012177e+00 2.127090e+00
3.863977e+01 1.956522e-01 1.768881e-02 6.463428e-01 -2.012222e+00 2.127579e+00
3.864301e+01 1.956522e-01 1.768242e-02 6.464046e-01 -2.012070e+00 2.127853e+00
3.864301e+01 1.956522e-01 1.764832e-02 6.464267e-01 -2.013321e+00 2.129288e+00
3.863747e+01 1.956522e-01 1.767741e-02 6.464659e-01 -2.013184e+00 2.129440e+00
3.857753e+01 1.956522e-01 1.764468e-02 6.464975e-01 -2.012711e+00 2.129517e+00
3.858279e+01 1.956522e-01 1.762803e-02 6.465232e-01 -2.012726e+00 2.130081e+00
3.874236e+01 2.000000e-01 1.762917e-02 6.465560e-01 -2.012878e+00 2.130569e+00
3.874034e+01 2.000000e-01 1.763660e-02 6.465960e-01 -2.013916e+00 2.131866e+00
3.873830e+01 2.000000e-01 1.762579e-02 6.466368e-01 -2.013779e+00 2.132004e+00
3.869391e+01 2.000000e-01 1.760494e-02 6.466810e-01 -2.013535e+00 2.132034e+00
3.867024e+01 2.000000e-01 1.757423e-02 6.467224e-01 -2.013901e+00 2.132812e+00
3.857774e+01 2.000000e-01 1.758828e-02 6.467474e-01 -2.014008e+00 2.133377e+00
3.858302e+01 2.000000e-01 1.757880e-02 6.467655e-01 -2.013885e+00 2.133759e+00
3.854224e+01 2.000000e-01 1.757308e-02 6.467830e-01 -2.014069e+00 2.134247e+00
3.853401e+01 2.000000e-01 1.755982e-02 6.468084e-01 -2.015213e+00 2.135590e+00
3.849371e+01 2.000000e-01 1.755699e-02 6.468765e-01 -2.014984e+00 2.135620e+00
3.849196e+01 2.000000e-01 1.754733e-02 6.468956e-01 -2.015213e+00 2.136139e+00
3.849196e+01 2.000000e-01 1.751391e-02 6.469158e-01 -2.014893e+00 2.136307e+00
3.848071e+01 2.000000e-01 1.752121e-02 6.469646e-01 -2.015366e+00 2.136887e+00
3.844135e+01 1.956522e-01 1.753984e-02 6.470010e-01 -2.015625e+00 2.137756e+00
3.843080e+01 1.956522e-01 1.753276e-02 6.470356e-01 -2.015717e+00 2.137985e+00
3.847946e+01 1.956522e-01 1.749525e-02 6.470685e-01 -2.016129e+00 2.138580e+00
3.845151e+01 1.913043e-01 1.748294e-02 6.470995e-01 -2.016266e+00 2.139221e+00
3.845151e+01 1.913043e-01 1.749917e-02 6.471093e-01 -2.017334e+00 2.140579e+00
3.835161e+01 1.913043e-01 1.747871e-02 6.471586e-01 -2.016953e+00 2.140274e+00
3.830717e+01 1.913043e-01 1.744941e-02 6.471909e-01 -2.017197e+00 2.140884e+00
3.830447e+01 1.913043e-01 1.745383e-02 6.472419e-01 -2.017426e+00 2.141357e+00
3.837311e+01 1.913043e-01 1.744123e-02 6.472534e-01 -2.017502e+00 2.141769e+00
3.837613e+01 1.913043e-01 1.742674e-02 6.472833e-01 -2.017502e+00 2.142120e+00
3.834818e+01 1.913043e-01 1.742353e-02 6.473306e-01 -2.018066e+00 2.142792e+00
3.837073e+01 1.913043e-01 1.739951e-02 6.473667e-01 -2.018112e+00 2.143188e+00
3.829253e+01 1.913043e-01 1.742135e-02 6.473839e-01 -2.018509e+00 2.143707e+00
3.828203e+01 1.913043e-01 1.739627e-02 6.474191e-01 -2.019073e+00 2.144745e+00
3.828146e+01 1.913043e-01 1.737413e-02 6.474328e-01 -2.018951e+00 2.144714e+00
3.833730e+01 1.913043e-01 1.736760e-02 6.475043e-01 -2.019211e+00 2.145309e+00
3.833904e+01 1.913043e-01 1.735236e-02 6.475282e-01 -2.018875e+00 2.145447e+00
3.833957e+01 1.913043e-01 1.736954e-02 6.475432e-01 -2.019150e+00 2.146011e+00
3.827290e+01 1.869565e-01 1.732530e-02 6.475589e-01 -2.019928e+00 2.146698e+00
3.829356e+01 1.869565e-01 1.732759e-02 6.475940e-01 -2.020294e+00 2.147598e+00
3.829410e+01 1.869565e-01 1.732233e-02 6.476394e-01 -2.019714e+00 2.147476e+00
3.828883e+01 1.869565e-01 1.734382e-02 6.476846e-01 -2.021255e+00 2.149200e+00
3.830008e+01 1.869565e-01 1.731191e-02 6.476868e-01 -2.020309e+00 2.148483e+00
3.829510e+01 1.869565e-01 1.729783e-02 6.477209e-01 -2.020218e+00 2.148987e+00
3.828232e+01 1.869565e-01 1.730457e-02 6.477668e-01 -2.021072e+00 2.150162e+00
3.828729e+01 1.869565e-01 1.730325e-02 6.478013e-01 -2.021652e+00 2.150696e+00
3.827705e+01 1.869565e-01 1.728552e-02 6.478372e-01 -2.021133e+00 2.150528e+00
3.827382e+01 1.869565e-01 1.727424e-02 6.478747e-01 -2.020767e+00 2.150818e+00
3.820535e+01 1.869565e-01 1.726093e-02 6.478774e-01 -2.021210e+00 2.151398e+00
3.820535e+01 1.869565e-01 1.724577e-02 6.479275e-01 -2.021622e+00 2.152130e+00
3.811305e+01 1.869565e-01 1.725600e-02 6.479483e-01 -2.021530e+00 2.152374e+00
3.805130e+01 1.869565e-01 1.724416e-02 6.479680e-01 -2.021790e+00 2.152863e+00
3.805067e+01 1.869565e-01 1.723616e-02 6.480202e-01 -2.022400e+00 2.153976e+00
3.801964e+01 1.869565e-01 1.723435e-02 6.480420e-01 -2.021851e+00 2.153809e+00
3.803961e+01 1.869565e-01 1.720074e-02 6.480677e-01 -2.022171e+00 2.154419e+00
3.799835e+01 1.913043e-01 1.719715e-02 6.480892e-01 -2.023453e+00 2.156036e+00
3.799512e+01 1.913043e-01 1.721310e-02 6.481205e-01 -2.022324e+00 2.155319e+00
3.801366e+01 1.913043e-01 1.718559e-02 6.481481e-01 -2.022568e+00 2.155853e+00
3.800433e+01 1.913043e-01 1.717833e-02 6.481857e-01 -2.022537e+00 2.156250e+00
3.795229e+01 1.913043e-01 1.717665e-02 6.482131e-01 -2.022614e+00 2.156677e+00
3.797223e+01 1.913043e-01 1.717815e-02 6.482387e-01 -2.023254e+00 2.157227e+00
3.796817e+01 1.913043e-01 1.716106e-02 6.482690e-01 -2.022980e+00 2.157684e+00
3.798137e+01 1.913043e-01 1.717946e-02 6.483057e-01 -2.023178e+00 2.158188e+00
3.797751e+01 1.913043e-01 1.715305e-02 6.483677e-01 -2.023666e+00 2.158936e+00
3.795096e+01 1.913043e-01 1.714359e-02 6.483701e-01 -2.024170e+00 2.159500e+00
3.802199e+01 1.913043e-01 1.714540e-02 6.483946e-01 -2.023666e+00 2.159653e+00
3.806984e+01 1.913043e-01 1.711844e-02 6.484093e-01 -2.023804e+00 2.160156e+00
3.810602e+01 1.913043e-01 1.713337e-02 6.484778e-01 -2.024139e+00 2.160614e+00
3.811229e+01 1.913043e-01 1.711451e-02 6.485067e-01 -2.024231e+00 2.161133e+00
3.810640e+01 1.913043e-01 1.708837e-02 6.485147e-01 -2.025040e+00 2.162018e+00
3.810004e+01 1.913043e-01 1.710692e-02 6.485570e-01 -2.025375e+00 2.162796e+00
3.809618e+01 1.913043e-01 1.709618e-02 6.485897e-01 -2.025177e+00 2.162842e+00
3.811128e+01 1.913043e-01 1.709711e-02 6.486221e-01 -2.024704e+00 2.162720e+00
3.811009e+01 1.913043e-01 1.708534e-02 6.486331e-01 -2.025131e+00 2.163223e+00
3.813763e+01 1.913043e-01 1.708153e-02 6.486944e-01 -2.025833e+00 2.164490e+00
3.813918e+01 1.913043e-01 1.706977e-02 6.487244e-01 -2.025543e+00 2.164536e+00
3.808951e+01 1.913043e-01 1.706356e-02 6.487471e-01 -2.025864e+00 2.164932e+00
3.806943e+01 1.913043e-01 1.704487e-02 6.487872e-01 -2.025452e+00 2.165054e+00
3.811079e+01 1.913043e-01 1.702350e-02 6.488025e-01 -2.026169e+00 2.165894e+00
3.807684e+01 1.913043e-01 1.703395e-02 6.488470e-01 -2.026154e+00 2.166183e+00
3.807361e+01 1.913043e-01 1.702363e-02 6.488908e-01 -2.026367e+00 2.166519e+00
3.808211e+01 1.913043e-01 1.700722e-02 6.488936e-01 -2.026535e+00 2.167114e+00
3.808205e+01 1.913043e-01 1.701715e-02 6.489013e-01 -2.026276e+00 2.167313e+00
3.813054e+01 1.913043e-01 1.700195e-02 6.489646e-01 -2.027267e+00 2.168594e+00
3.810452e+01 1.913043e-01 1.699534e-02 6.490001e-01 -2.027512e+00 2.169083e+00
3.810971e+01 1.956522e-01 1.697460e-02 6.490331e-01 -2.026886e+00 2.168808e+00
3.806894e+01 1.956522e-01 1.699770e-02 6.490770e-01 -2.027313e+00 2.169586e+00
3.807358e+01 1.956522e-01 1.698626e-02 6.490938e-01 -2.027725e+00 2.170090e+00
3.811252e+01 1.956522e-01 1.698161e-02 6.491304e-01 -2.027756e+00 2.170364e+00
3.811823e+01 1.956522e-01 1.696468e-02 6.491687e-01 -2.027802e+00 2.170746e+00
3.816273e+01 1.956522e-01 1.696710e-02 6.492134e-01 -2.029205e+00 2.172501e+00
3.826163e+01 1.956522e-01 1.697924e-02 6.492391e-01 -2.028488e+00 2.172119e+00
3.828929e+01 1.956522e-01 1.694216e-02 6.492382e-01 -2.028687e+00 2.172440e+00
3.833206e+01 1.956522e-01 1.696441e-02 6.493170e-01 -2.028687e+00 2.172714e+00
3.833530e+01 1.956522e-01 1.694306e-02 6.493228e-01 -2.028458e+00 2.172913e+00
3.830838e+01 1.956522e-01 1.694160e-02 6.493691e-01 -2.029236e+00 2.173721e+00
3.830838e+01 1.956522e-01 1.693187e-02 6.493774e-01 -2.029037e+00 2.173767e+00
3.830664e+01 1.956522e-01 1.693049e-02 6.494279e-01 -2.029510e+00 2.174759e+00
3.829958e+01 1.956522e-01 1.694028e-02 6.494639e-01 -2.030121e+00 2.175598e+00
3.826181e+01 1.956522e-01 1.690664e-02 6.494757e-01 -2.029755e+00 2.175629e+00
3.826134e+01 1.956522e-01 1.694899e-02 6.495333e-01 -2.029251e+00 2.175507e+00
3.829559e+01 1.956522e-01 1.694374e-02 6.495750e-01 -2.029510e+00 2.176056e+00
3.830315e+01 1.956522e-01 1.692547e-02 6.495602e-01 -2.029953e+00 2.176743e+00
3.830209e+01 1.956522e-01 1.691688e-02 6.496221e-01 -2.030380e+00 2.177414e+00
3.826131e+01 1.956522e-01 1.691746e-02 6.496490e-01 -2.030548e+00 2.177902e+00
3.830023e+01 1.956522e-01 1.692789e-02 6.496779e-01 -2.030457e+00 2.178162e+00
3.828484e+01 1.956522e-01 1.692690e-02 6.497238e-01 -2.031082e+00 2.178955e+00
3.834657e+01 1.956522e-01 1.690568e-02 6.497201e-01 -2.030243e+00 2.178543e+00
3.824982e+01 1.956522e-01 1.689367e-02 6.497529e-01 -2.030380e+00 2.179001e+00
3.822852e+01 1.956522e-01 1.690995e-02 6.498064e-01 -2.031265e+00 2.180084e+00
3.830769e+01 1.956522e-01 1.692092e-02 6.498630e-01 -2.032227e+00 2.181381e+00
3.828111e+01 1.956522e-01 1.689064e-02 6.498631e-01 -2.031052e+00 2.180496e+00
3.824574e+01 1.956522e-01 1.689249e-02 6.498952e-01 -2.031586e+00 2.181107e+00
3.819347e+01 1.956522e-01 1.690998e-02 6.499173e-01 -2.030884e+00 2.180969e+00
3.819221e+01 1.956522e-01 1.687930e-02 6.499488e-01 -2.031067e+00 2.181442e+00
3.824075e+01 1.956522e-01 1.687448e-02 6.499776e-01 -2.031403e+00 2.181976e+00
3.825008e+01 1.956522e-01 1.689201e-02 6.500048e-01 -2.032196e+00 2.182907e+00
3.825008e+01 1.956522e-01 1.687629e-02 6.500356e-01 -2.031723e+00 2.182785e+00
3.823158e+01 1.913043e-01 1.687437e-02 6.500940e-01 -2.031967e+00 2.183182e+00
3.828491e+01 1.913043e-01 1.686085e-02 6.501279e-01 -2.032455e+00 2.183853e+00
3.824425e+01 1.913043e-01 1.685736e-02 6.501306e-01 -2.033585e+00 2.185120e+00
3.832578e+01 1.913043e-01 1.683463e-02 6.501838e-01 -2.032425e+00 2.184326e+00
3.826366e+01 1.913043e-01 1.683046e-02 6.501786e-01 -2.032974e+00 2.184952e+00
3.824063e+01 1.913043e-01 1.680929e-02 6.502332e-01 -2.032532e+00 2.184937e+00
3.814590e+01 1.913043e-01 1.682792e-02 6.502931e-01 -2.033264e+00 2.185837e+00
3.814590e+01 1.913043e-01 1.678385e-02 6.502699e-01 -2.032959e+00 2.185684e+00
3.818350e+01 1.913043e-01 1.681700e-02 6.503197e-01 -2.033295e+00 2.186142e+00
3.818288e+01 1.913043e-01 1.679056e-02 6.503563e-01 -2.034180e+00 2.187149e+00
3.818288e+01 1.913043e-01 1.677807e-02 6.503665e-01 -2.033615e+00 2.186829e+00
3.821312e+01 1.913043e-01 1.677548e-02 6.504336e-01 -2.034729e+00 2.188080e+00
3.821312e+01 1.913043e-01 1.676307e-02 6.504534e-01 -2.033798e+00 2.187561e+00
3.821312e+01 1.913043e-01 1.678107e-02 6.504841e-01 -2.034348e+00 2.188263e+00
3.816786e+01 1.913043e-01 1.676716e-02 6.505273e-01 -2.034927e+00 2.189056e+00
3.816786e+01 1.913043e-01 1.674501e-02 6.505210e-01 -2.034256e+00 2.188629e+00
3.816786e+01 1.913043e-01 1.675314e-02 6.505799e-01 -2.034714e+00 2.189270e+00
3.817671e+01 1.913043e-01 1.673983e-02 6.505928e-01 -2.034622e+00 2.189453e+00
3.813953e+01 1.913043e-01 1.672319e-02 6.506275e-01 -2.034775e+00 2.189835e+00
3.810239e+01 1.913043e-01 1.672951e-02 6.506863e-01 -2.035797e+00 2.190948e+00
3.817418e+01 1.913043e-01 1.673167e-02 6.507145e-01 -2.035416e+00 2.190735e+00
3.809213e+01 1.913043e-01 1.672566e-02 6.507416e-01 -2.035278e+00 2.191055e+00
3.811870e+01 1.913043e-01 1.673307e-02 6.507745e-01 -2.036240e+00 2.191864e+00
3.806342e+01 1.913043e-01 1.670035e-02 6.507787e-01 -2.035675e+00 2.191879e+00
3.812376e+01 1.913043e-01 1.672845e-02 6.508099e-01 -2.035980e+00 2.192612e+00
3.812314e+01 1.913043e-01 1.670331e-02 6.508439e-01 -2.036133e+00 2.192825e+00
3.813438e+01 1.913043e-01 1.672240e-02 6.508703e-01 -2.035721e+00 2.192841e+00
3.815332e+01 1.913043e-01 1.671231e-02 6.509299e-01 -2.036469e+00 2.193787e+00
3.812325e+01 1.913043e-01 1.673489e-02 6.509312e-01 -2.036331e+00 2.193863e+00
3.808707e+01 1.913043e-01 1.671043e-02 6.509635e-01 -2.036377e+00 2.194122e+00
3.811131e+01 1.913043e-01 1.670798e-02 6.509680e-01 -2.037201e+00 2.195023e+00
3.801953e+01 1.913043e-01 1.670852e-02 6.510169e-01 -2.036652e+00 2.194901e+00
3.795227e+01 1.913043e-01 1.670314e-02 6.510544e-01 -2.036484e+00 2.194992e+00
3.796352e+01 1.913043e-01 1.668516e-02 6.510786e-01 -2.036774e+00 2.195404e+00
3.795824e+01 1.913043e-01 1.669588e-02 6.511162e-01 -2.037186e+00 2.196075e+00
3.797850e+01 1.913043e-01 1.669616e-02 6.511233e-01 -2.037338e+00 2.196472e+00
3.805399e+01 1.913043e-01 1.670477e-02 6.511511e-01 -2.037018e+00 2.196381e+00
3.809399e+01 1.913043e-01 1.668860e-02 6.512008e-01 -2.037643e+00 2.197159e+00
3.801204e+01 1.913043e-01 1.669401e-02 6.512326e-01 -2.038071e+00 2.197876e+00
3.801204e+01 1.913043e-01 1.668825e-02 6.512604e-01 -2.037903e+00 2.198074e+00
3.815247e+01 1.913043e-01 1.668758e-02 6.513090e-01 -2.037506e+00 2.197861e+00
3.808812e+01 1.913043e-01 1.666588e-02 6.513351e-01 -2.037750e+00 2.198303e+00
3.825404e+01 1.913043e-01 1.669971e-02 6.513537e-01 -2.038589e+00 2.199387e+00
3.819133e+01 1.913043e-01 1.668746e-02 6.513638e-01 -2.037903e+00 2.198929e+00
3.820663e+01 1.913043e-01 1.667985e-02 6.514067e-01 -2.038681e+00 2.199799e+00
3.820663e+01 1.913043e-01 1.670295e-02 6.514622e-01 -2.038940e+00 2.200073e+00
3.813525e+01 1.913043e-01 1.668004e-02 6.514827e-01 -2.038940e+00 2.200409e+00
3.809918e+01 1.913043e-01 1.665970e-02 6.514728e-01 -2.038528e+00 2.200455e+00
3.810393e+01 1.913043e-01 1.667637e-02 6.515259e-01 -2.038742e+00 2.200851e+00
3.810393e+01 1.913043e-01 1.668365e-02 6.515842e-01 -2.039429e+00 2.201599e+00
3.809865e+01 1.913043e-01 1.670609e-02 6.516062e-01 -2.040436e+00 2.202850e+00
3.807787e+01 1.913043e-01 1.669214e-02 6.516466e-01 -2.039703e+00 2.202438e+00
3.800684e+01 1.913043e-01 1.667219e-02 6.516578e-01 -2.039963e+00 2.202942e+00
3.797794e+01 1.913043e-01 1.668304e-02 6.516979e-01 -2.039993e+00 2.203201e+00
3.804897e+01 1.913043e-01 1.668204e-02 6.517128e-01 -2.039536e+00 2.203018e+00
3.794072e+01 1.913043e-01 1.665772e-02 6.517664e-01 -2.040375e+00 2.203857e+00
3.793250e+01 1.913043e-01 1.667041e-02 6.517384e-01 -2.040039e+00 2.203735e+00
3.791725e+01 1.913043e-01 1.669319e-02 6.518124e-01 -2.040268e+00 2.204590e+00
3.790082e+01 1.913043e-01 1.667394e-02 6.518445e-01 -2.040253e+00 2.204590e+00
3.785019e+01 1.913043e-01 1.668060e-02 6.518687e-01 -2.040344e+00 2.204926e+00
3.783894e+01 1.913043e-01 1.667635e-02 6.519005e-01 -2.040970e+00 2.205658e+00
3.788737e+01 1.913043e-01 1.666919e-02 6.519211e-01 -2.040649e+00 2.205704e+00
3.789264e+01 1.913043e-01 1.665332e-02 6.519707e-01 -2.040848e+00 2.206131e+00
3.786848e+01 1.913043e-01 1.666650e-02 6.519810e-01 -2.041077e+00 2.206589e+00
3.789453e+01 1.913043e-01 1.666604e-02 6.520164e-01 -2.041458e+00 2.207047e+00
3.791389e+01 1.913043e-01 1.665793e-02 6.520704e-01 -2.042053e+00 2.207901e+00
3.784286e+01 1.913043e-01 1.668540e-02 6.520936e-01 -2.042603e+00 2.208847e+00
3.784340e+01 1.913043e-01 1.665529e-02 6.521019e-01 -2.041687e+00 2.208145e+00
3.784340e+01 1.913043e-01 1.665699e-02 6.521534e-01 -2.042175e+00 2.208817e+00
3.784340e+01 1.913043e-01 1.666525e-02 6.521634e-01 -2.042007e+00 2.209076e+00
3.784264e+01 1.913043e-01 1.666680e-02 6.522330e-01 -2.042816e+00 2.210083e+00
3.792506e+01 1.913043e-01 1.666797e-02 6.522432e-01 -2.042877e+00 2.210373e+00
3.792506e+01 1.913043e-01 1.665372e-02 6.522895e-01 -2.043259e+00 2.210953e+00
3.788788e+01 1.913043e-01 1.666764e-02 6.523387e-01 -2.042633e+00 2.210632e+00
3.788794e+01 1.913043e-01 1.666917e-02 6.523321e-01 -2.042877e+00 2.211121e+00
3.790324e+01 1.913043e-01 1.669134e-02 6.523873e-01 -2.043091e+00 2.211563e+00
3.788794e+01 1.913043e-01 1.666407e-02 6.524224e-01 -2.043640e+00 2.212280e+00
3.791125e+01 1.913043e-01 1.667824e-02 6.524599e-01 -2.043503e+00 2.212402e+00
3.788445e+01 1.913043e-01 1.664763e-02 6.525011e-01 -2.044235e+00 2.213242e+00
3.788121e+01 1.913043e-01 1.665711e-02 6.525250e-01 -2.043900e+00 2.213257e+00
3.787418e+01 1.913043e-01 1.666578e-02 6.525763e-01 -2.045364e+00 2.214905e+00
3.799951e+01 1.913043e-01 1.665409e-02 6.525746e-01 -2.044235e+00 2.214005e+00
3.797821e+01 1.913043e-01 1.665668e-02 6.526139e-01 -2.044479e+00 2.214478e+00
3.800281e+01 1.913043e-01 1.667940e-02 6.526622e-01 -2.045197e+00 2.215271e+00
3.796921e+01 1.913043e-01 1.665294e-02 6.526473e-01 -2.045227e+00 2.215424e+00
3.796535e+01 1.913043e-01 1.663349e-02 6.526944e-01 -2.044983e+00 2.215469e+00
3.796535e+01 1.913043e-01 1.663742e-02 6.527377e-01 -2.045197e+00 2.215881e+00
3.793529e+01 1.913043e-01 1.665681e-02 6.527956e-01 -2.046585e+00 2.217270e+00
3.793411e+01 1.913043e-01 1.664630e-02 6.528050e-01 -2.045609e+00 2.216690e+00
3.803763e+01 1.913043e-01 1.665618e-02 6.528563e-01 -2.046600e+00 2.217743e+00
3.804887e+01 1.913043e-01 1.665281e-02 6.528562e-01 -2.045898e+00 2.217422e+00
3.805240e+01 1.913043e-01 1.663294e-02 6.528998e-01 -2.046173e+00 2.217865e+00
3.806364e+01 1.913043e-01 1.664413e-02 6.529249e-01 -2.046661e+00 2.218475e+00
3.809082e+01 1.913043e-01 1.664836e-02 6.529767e-01 -2.047501e+00 2.219284e+00
3.812090e+01 1.913043e-01 1.665642e-02 6.529894e-01 -2.046860e+00 2.218918e+00
3.820708e+01 1.913043e-01 1.663981e-02 6.530226e-01 -2.047058e+00 2.219299e+00
3.821649e+01 1.913043e-01 1.663650e-02 6.530621e-01 -2.047485e+00 2.219849e+00
3.822176e+01 1.913043e-01 1.660932e-02 6.530801e-01 -2.047318e+00 2.220001e+00
3.814159e+01 1.913043e-01 1.662924e-02 6.531104e-01 -2.048569e+00 2.221420e+00
3.813188e+01 1.913043e-01 1.662279e-02 6.531565e-01 -2.047577e+00 2.220535e+00
3.819362e+01 1.913043e-01 1.663115e-02 6.531851e-01 -2.048935e+00 2.221924e+00
3.807404e+01 1.913043e-01 1.663341e-02 6.532266e-01 -2.047989e+00 2.221313e+00
3.808669e+01 1.913043e-01 1.661085e-02 6.532565e-01 -2.048752e+00 2.222122e+00
3.811502e+01 1.913043e-01 1.661837e-02 6.532923e-01 -2.048630e+00 2.222122e+00
3.808994e+01 1.913043e-01 1.660923e-02 6.532999e-01 -2.048508e+00 2.222366e+00
3.808987e+01 1.913043e-01 1.662589e-02 6.533625e-01 -2.049210e+00 2.223343e+00
3.797214e+01 1.913043e-01 1.659942e-02 6.533709e-01 -2.049210e+00 2.223251e+00
3.792125e+01 1.913043e-01 1.660521e-02 6.534098e-01 -2.049973e+00 2.224243e+00
3.791808e+01 1.913043e-01 1.660459e-02 6.534282e-01 -2.049408e+00 2.223892e+00
3.791808e+01 1.913043e-01 1.658807e-02 6.534970e-01 -2.050308e+00 2.224960e+00
3.791634e+01 1.913043e-01 1.659483e-02 6.535093e-01 -2.049881e+00 2.224579e+00
3.791904e+01 1.913043e-01 1.661970e-02 6.535558e-01 -2.050201e+00 2.225235e+00
3.791667e+01 1.913043e-01 1.661584e-02 6.535798e-01 -2.050415e+00 2.225632e+00
3.783342e+01 1.913043e-01 1.659318e-02 6.535938e-01 -2.050522e+00 2.225861e+00
3.783322e+01 1.913043e-01 1.657218e-02 6.536160e-01 -2.050507e+00 2.226074e+00
3.788264e+01 1.913043e-01 1.660234e-02 6.536490e-01 -2.050705e+00 2.226486e+00
3.783496e+01 1.913043e-01 1.658220e-02 6.536962e-01 -2.050949e+00 2.226822e+00
3.788507e+01 1.913043e-01 1.658869e-02 6.537220e-01 -2.051620e+00 2.227768e+00
3.788498e+01 1.913043e-01 1.658644e-02 6.537836e-01 -2.052155e+00 2.228348e+00
3.788435e+01 1.913043e-01 1.660006e-02 6.538018e-01 -2.051834e+00 2.228134e+00
3.786230e+01 1.913043e-01 1.659062e-02 6.538345e-01 -2.052185e+00 2.228760e+00
3.791231e+01 1.913043e-01 1.659919e-02 6.538803e-01 -2.052673e+00 2.229340e+00
3.791284e+01 1.913043e-01 1.659737e-02 6.539072e-01 -2.053360e+00 2.229996e+00
3.791284e+01 1.913043e-01 1.657372e-02 6.539104e-01 -2.052200e+00 2.229095e+00
3.791222e+01 1.913043e-01 1.657809e-02 6.539686e-01 -2.052460e+00 2.229538e+00
3.791168e+01 1.913043e-01 1.658008e-02 6.539945e-01 -2.052536e+00 2.229767e+00
3.793356e+01 1.913043e-01 1.659284e-02 6.540459e-01 -2.053726e+00 2.230972e+00
3.793356e+01 1.913043e-01 1.658847e-02 6.540829e-01 -2.053726e+00 2.231186e+00
3.793680e+01 1.913043e-01 1.657614e-02 6.540919e-01 -2.053177e+00 2.230759e+00
3.793680e+01 1.913043e-01 1.655967e-02 6.541230e-01 -2.053650e+00 2.231262e+00
3.791222e+01 1.913043e-01 1.656710e-02 6.541729e-01 -2.053802e+00 2.231537e+00
3.794228e+01 1.913043e-01 1.656012e-02 6.542097e-01 -2.054260e+00 2.232086e+00
3.792160e+01 1.913043e-01 1.655210e-02 6.542186e-01 -2.054367e+00 2.232208e+00
3.792513e+01 1.913043e-01 1.655858e-02 6.542744e-01 -2.055222e+00 2.233337e+00
3.768550e+01 1.913043e-01 1.656004e-02 6.542774e-01 -2.054565e+00 2.232834e+00
3.777708e+01 1.913043e-01 1.656107e-02 6.543176e-01 -2.056015e+00 2.234467e+00
3.764761e+01 1.913043e-01 1.656068e-02 6.543544e-01 -2.054794e+00 2.233337e+00
3.766910e+01 1.913043e-01 1.653836e-02 6.544048e-01 -2.055084e+00 2.233765e+00
3.766910e+01 1.913043e-01 1.651958e-02 6.544086e-01 -2.055618e+00 2.234283e+00
3.765842e+01 1.913043e-01 1.654855e-02 6.544594e-01 -2.056290e+00 2.235184e+00
3.766966e+01 1.913043e-01 1.652857e-02 6.544896e-01 -2.055786e+00 2.234787e+00
3.766966e+01 1.913043e-01 1.653150e-02 6.545320e-01 -2.056396e+00 2.235489e+00
3.765744e+01 1.913043e-01 1.652374e-02 6.545856e-01 -2.057114e+00 2.236252e+00
3.766068e+01 1.913043e-01 1.652433e-02 6.545804e-01 -2.056335e+00 2.235641e+00
3.769295e+01 1.913043e-01 1.649801e-02 6.546377e-01 -2.056519e+00 2.236023e+00
3.761859e+01 1.913043e-01 1.649883e-02 6.546423e-01 -2.056686e+00 2.236282e+00
3.760243e+01 1.913043e-01 1.651289e-02 6.546865e-01 -2.057755e+00 2.237289e+00
3.759723e+01 1.913043e-01 1.652337e-02 6.547207e-01 -2.057480e+00 2.237396e+00
3.759195e+01 1.913043e-01 1.649404e-02 6.547310e-01 -2.057098e+00 2.237122e+00
3.755489e+01 1.913043e-01 1.651345e-02 6.547743e-01 -2.057648e+00 2.237778e+00
3.756552e+01 1.913043e-01 1.651490e-02 6.548118e-01 -2.058182e+00 2.238403e+00
3.756166e+01 1.913043e-01 1.648352e-02 6.548177e-01 -2.057632e+00 2.237930e+00
3.757072e+01 1.913043e-01 1.647439e-02 6.548835e-01 -2.057861e+00 2.238312e+00
3.757010e+01 1.913043e-01 1.648734e-02 6.549177e-01 -2.058670e+00 2.239182e+00
3.749733e+01 1.913043e-01 1.644907e-02 6.549382e-01 -2.058426e+00 2.238998e+00
3.750908e+01 1.913043e-01 1.645435e-02 6.549731e-01 -2.059006e+00 2.239487e+00
3.754100e+01 1.913043e-01 1.644984e-02 6.549756e-01 -2.058990e+00 2.239731e+00
3.750381e+01 1.913043e-01 1.644666e-02 6.550083e-01 -2.059097e+00 2.239960e+00
3.757976e+01 1.913043e-01 1.644675e-02 6.550760e-01 -2.060379e+00 2.241241e+00
3.757274e+01 1.913043e-01 1.642423e-02 6.551103e-01 -2.059845e+00 2.240921e+00
3.762421e+01 1.956522e-01 1.644247e-02 6.551281e-01 -2.060135e+00 2.241333e+00
3.761893e+01 1.956522e-01 1.643854e-02 6.551614e-01 -2.059814e+00 2.241074e+00
3.760890e+01 1.956522e-01 1.642472e-02 6.551889e-01 -2.060089e+00 2.241455e+00
3.764529e+01 1.956522e-01 1.642022e-02 6.552275e-01 -2.060287e+00 2.241806e+00
3.765056e+01 1.956522e-01 1.643709e-02 6.552665e-01 -2.061234e+00 2.242661e+00
3.765056e+01 1.956522e-01 1.644077e-02 6.552981e-01 -2.061417e+00 2.243103e+00
3.765056e+01 1.956522e-01 1.643718e-02 6.553102e-01 -2.060837e+00 2.242722e+00
3.761478e+01 1.956522e-01 1.643834e-02 6.553549e-01 -2.061401e+00 2.243301e+00
3.757799e+01 1.956522e-01 1.641387e-02 6.553732e-01 -2.061295e+00 2.243332e+00
3.754582e+01 1.956522e-01 1.640891e-02 6.553919e-01 -2.062271e+00 2.244293e+00
3.753812e+01 1.956522e-01 1.642197e-02 6.554580e-01 -2.061722e+00 2.243942e+00
3.753812e+01 1.956522e-01 1.642328e-02 6.554959e-01 -2.062622e+00 2.244843e+00
3.756467e+01 1.956522e-01 1.639337e-02 6.555151e-01 -2.062561e+00 2.244888e+00
3.757591e+01 1.956522e-01 1.641197e-02 6.555667e-01 -2.063553e+00 2.245941e+00
3.757663e+01 1.956522e-01 1.643068e-02 6.555648e-01 -2.063034e+00 2.245682e+00
3.757600e+01 1.956522e-01 1.643423e-02 6.556109e-01 -2.062851e+00 2.245590e+00
3.757339e+01 1.956522e-01 1.641742e-02 6.556499e-01 -2.063110e+00 2.246078e+00
3.757866e+01 1.956522e-01 1.641051e-02 6.556639e-01 -2.063385e+00 2.246460e+00
3.757866e+01 1.956522e-01 1.643600e-02 6.557137e-01 -2.063309e+00 2.246506e+00
3.757346e+01 1.956522e-01 1.641563e-02 6.557326e-01 -2.063660e+00 2.246918e+00
3.757706e+01 1.956522e-01 1.641307e-02 6.557851e-01 -2.064453e+00 2.247833e+00
3.758406e+01 1.956522e-01 1.641926e-02 6.558100e-01 -2.063751e+00 2.247467e+00
3.757866e+01 1.956522e-01 1.640171e-02 6.558203e-01 -2.064041e+00 2.247879e+00
3.761598e+01 1.956522e-01 1.642537e-02 6.558733e-01 -2.064423e+00 2.248245e+00
3.761604e+01 1.956522e-01 1.639474e-02 6.559070e-01 -2.064651e+00 2.248688e+00
3.761610e+01 1.956522e-01 1.641865e-02 6.559177e-01 -2.064880e+00 2.249069e+00
3.758458e+01 1.956522e-01 1.641890e-02 6.559531e-01 -2.065262e+00 2.249512e+00
3.754739e+01 1.956522e-01 1.641735e-02 6.559815e-01 -2.064865e+00 2.249496e+00
3.754816e+01 1.956522e-01 1.642888e-02 6.560488e-01 -2.065491e+00 2.250229e+00
3.749146e+01 1.956522e-01 1.642418e-02 6.560718e-01 -2.065948e+00 2.250702e+00
3.747615e+01 1.956522e-01 1.642190e-02 6.560780e-01 -2.065903e+00 2.250809e+00
3.738275e+01 1.956522e-01 1.643194e-02 6.561116e-01 -2.065506e+00 2.250595e+00
3.733281e+01 1.956522e-01 1.642079e-02 6.561333e-01 -2.066223e+00 2.251221e+00
3.732957e+01 1.956522e-01 1.641479e-02 6.561744e-01 -2.065872e+00 2.251099e+00
3.733195e+01 1.956522e-01 1.642073e-02 6.562102e-01 -2.066162e+00 2.251328e+00
3.733195e+01 1.956522e-01 1.642204e-02 6.562631e-01 -2.066574e+00 2.251907e+00
3.741605e+01 1.956522e-01 1.641618e-02 6.562716e-01 -2.066925e+00 2.252151e+00
3.743564e+01 1.956522e-01 1.640634e-02 6.563025e-01 -2.066727e+00 2.252151e+00
3.745535e+01 1.956522e-01 1.641458e-02 6.563278e-01 -2.067017e+00 2.252487e+00
3.745598e+01 1.956522e-01 1.642377e-02 6.563525e-01 -2.067001e+00 2.252594e+00
3.742039e+01 1.956522e-01 1.642796e-02 6.564047e-01 -2.067719e+00 2.253342e+00
3.752370e+01 1.956522e-01 1.641612e-02 6.564185e-01 -2.067810e+00 2.253464e+00
3.760365e+01 1.956522e-01 1.640703e-02 6.564569e-01 -2.067612e+00 2.253403e+00
3.745308e+01 1.956522e-01 1.640142e-02 6.565190e-01 -2.068542e+00 2.254425e+00
3.744479e+01 1.956522e-01 1.642602e-02 6.565304e-01 -2.068161e+00 2.254120e+00
3.740584e+01 1.956522e-01 1.643102e-02 6.565541e-01 -2.068390e+00 2.254471e+00
3.739053e+01 1.956522e-01 1.640951e-02 6.565735e-01 -2.068634e+00 2.254578e+00
3.739053e+01 1.956522e-01 1.642345e-02 6.566550e-01 -2.069824e+00 2.255981e+00
3.740584e+01 1.956522e-01 1.643095e-02 6.566519e-01 -2.068832e+00 2.255020e+00
3.740646e+01 1.956522e-01 1.641141e-02 6.566768e-01 -2.069138e+00 2.255356e+00
3.744762e+01 1.956522e-01 1.640190e-02 6.567338e-01 -2.069443e+00 2.255737e+00
3.745085e+01 1.956522e-01 1.643331e-02 6.567665e-01 -2.070557e+00 2.256836e+00
3.740619e+01 1.956522e-01 1.642291e-02 6.567566e-01 -2.070206e+00 2.256592e+00
3.747890e+01 1.956522e-01 1.644001e-02 6.568194e-01 -2.070160e+00 2.256622e+00
3.740942e+01 1.956522e-01 1.643224e-02 6.568630e-01 -2.071396e+00 2.257736e+00
3.733302e+01 1.913043e-01 1.644728e-02 6.569022e-01 -2.071701e+00 2.258392e+00
3.735007e+01 1.913043e-01 1.643988e-02 6.569313e-01 -2.071136e+00 2.257675e+00
3.735007e+01 1.913043e-01 1.640819e-02 6.569398e-01 -2.070999e+00 2.257736e+00
3.735007e+01 1.913043e-01 1.641916e-02 6.569819e-01 -2.071747e+00 2.258499e+00
3.735181e+01 1.913043e-01 1.643644e-02 6.570222e-01 -2.071640e+00 2.258392e+00
3.737537e+01 1.913043e-01 1.643688e-02 6.570503e-01 -2.071945e+00 2.258820e+00
3.737605e+01 1.913043e-01 1.643818e-02 6.570794e-01 -2.072357e+00 2.259232e+00
3.741159e+01 1.913043e-01 1.642138e-02 6.571235e-01 -2.072449e+00 2.259567e+00
3.741159e+01 1.913043e-01 1.644788e-02 6.571610e-01 -2.072617e+00 2.259689e+00
3.741869e+01 1.913043e-01 1.643567e-02 6.571717e-01 -2.072922e+00 2.260025e+00
3.743921e+01 1.913043e-01 1.643098e-02 6.572162e-01 -2.073822e+00 2.260895e+00
3.748787e+01 1.913043e-01 1.645081e-02 6.572541e-01 -2.073410e+00 2.260559e+00
3.745276e+01 1.913043e-01 1.644836e-02 6.573171e-01 -2.074539e+00 2.261703e+00
3.733690e+01 1.913043e-01 1.643661e-02 6.573149e-01 -2.074326e+00 2.261536e+00
3.739505e+01 1.913043e-01 1.643654e-02 6.573509e-01 -2.074280e+00 2.261551e+00
3.745493e+01 1.913043e-01 1.644315e-02 6.573834e-01 -2.074265e+00 2.261688e+00
3.740627e+01 1.913043e-01 1.644115e-02 6.574068e-01 -2.074646e+00 2.262009e+00
3.740627e+01 1.913043e-01 1.641497e-02 6.574617e-01 -2.075058e+00 2.262497e+00
3.743968e+01 1.913043e-01 1.644131e-02 6.575005e-01 -2.074997e+00 2.262497e+00
3.739108e+01 1.913043e-01 1.642337e-02 6.575056e-01 -2.075882e+00 2.263321e+00
3.739102e+01 1.913043e-01 1.645995e-02 6.575621e-01 -2.075516e+00 2.263031e+00
3.752513e+01 1.913043e-01 1.642946e-02 6.575982e-01 -2.076172e+00 2.263809e+00
3.742821e+01 1.913043e-01 1.641719e-02 6.576292e-01 -2.076599e+00 2.264191e+00
3.739102e+01 1.913043e-01 1.642147e-02 6.576399e-01 -2.076172e+00 2.263840e+00
3.733458e+01 1.913043e-01 1.641901e-02 6.576756e-01 -2.077148e+00 2.264786e+00
3.733717e+01 1.913043e-01 1.642326e-02 6.577031e-01 -2.077011e+00 2.264648e+00
3.737904e+01 1.913043e-01 1.643710e-02 6.577496e-01 -2.077469e+00 2.265152e+00
3.736374e+01 1.913043e-01 1.643282e-02 6.577838e-01 -2.077774e+00 2.265656e+00
3.733662e+01 1.913043e-01 1.640250e-02 6.578315e-01 -2.078201e+00 2.266006e+00
3.733662e+01 1.913043e-01 1.642671e-02 6.578388e-01 -2.077515e+00 2.265411e+00
3.733911e+01 1.913043e-01 1.640253e-02 6.578811e-01 -2.077728e+00 2.265793e+00
3.739101e+01 1.913043e-01 1.638286e-02 6.579081e-01 -2.078003e+00 2.266113e+00
3.734235e+01 1.913043e-01 1.641569e-02 6.579349e-01 -2.078613e+00 2.266739e+00
3.724937e+01 1.913043e-01 1.638620e-02 6.579778e-01 -2.078857e+00 2.267059e+00
3.723291e+01 1.913043e-01 1.638404e-02 6.580252e-01 -2.078964e+00 2.267059e+00
3.721979e+01 1.913043e-01 1.638812e-02 6.580015e-01 -2.079163e+00 2.267410e+00
3.727013e+01 1.913043e-01 1.636629e-02 6.580586e-01 -2.079086e+00 2.267410e+00
3.720096e+01 1.913043e-01 1.637930e-02 6.581074e-01 -2.079620e+00 2.267975e+00
3.718739e+01 1.913043e-01 1.636574e-02 6.581386e-01 -2.080063e+00 2.268509e+00
3.717316e+01 1.913043e-01 1.636861e-02 6.581752e-01 -2.080322e+00 2.268784e+00
3.716321e+01 1.913043e-01 1.635533e-02 6.581918e-01 -2.079941e+00 2.268448e+00
3.725189e+01 1.913043e-01 1.633856e-02 6.582145e-01 -2.080200e+00 2.268890e+00
3.725941e+01 1.913043e-01 1.636649e-02 6.582733e-01 -2.081345e+00 2.270035e+00
3.731522e+01 1.913043e-01 1.637156e-02 6.583091e-01 -2.081573e+00 2.270325e+00
3.727998e+01 1.913043e-01 1.636156e-02 6.583321e-01 -2.080688e+00 2.269684e+00
3.732231e+01 1.913043e-01 1.635645e-02 6.583564e-01 -2.081467e+00 2.270508e+00
3.733699e+01 1.913043e-01 1.635516e-02 6.583984e-01 -2.081589e+00 2.270599e+00
3.733699e+01 1.913043e-01 1.633252e-02 6.584124e-01 -2.081635e+00 2.270660e+00
3.733699e+01 1.913043e-01 1.634500e-02 6.584440e-01 -2.081589e+00 2.270737e+00
3.730145e+01 1.913043e-01 1.631873e-02 6.584765e-01 -2.082169e+00 2.271255e+00
3.727568e+01 1.913043e-01 1.635220e-02 6.585137e-01 -2.082336e+00 2.271561e+00
3.732098e+01 1.956522e-01 1.632580e-02 6.585670e-01 -2.082748e+00 2.271988e+00
3.731998e+01 2.000000e-01 1.632372e-02 6.586003e-01 -2.083313e+00 2.272629e+00
3.735715e+01 2.000000e-01 1.633674e-02 6.586187e-01 -2.082672e+00 2.272156e+00
3.732091e+01 1.956522e-01 1.632959e-02 6.586528e-01 -2.082962e+00 2.272491e+00
3.732085e+01 1.956522e-01 1.632393e-02 6.586938e-01 -2.083237e+00 2.272858e+00
3.735463e+01 1.956522e-01 1.634006e-02 6.587417e-01 -2.083862e+00 2.273514e+00
3.735457e+01 1.956522e-01 1.631077e-02 6.587370e-01 -2.083694e+00 2.273453e+00
3.735457e+01 1.956522e-01 1.631854e-02 6.587955e-01 -2.083923e+00 2.273788e+00
3.735457e+01 1.956522e-01 1.633547e-02 6.588415e-01 -2.084427e+00 2.274384e+00
3.739279e+01 1.956522e-01 1.632768e-02 6.588652e-01 -2.084671e+00 2.274765e+00
3.743517e+01 1.956522e-01 1.633300e-02 6.589139e-01 -2.085510e+00 2.275620e+00
3.745645e+01 1.956522e-01 1.630824e-02 6.589205e-01 -2.084732e+00 2.274948e+00
3.745645e+01 1.956522e-01 1.633651e-02 6.589545e-01 -2.084961e+00 2.275253e+00
3.745819e+01 1.956522e-01 1.632676e-02 6.590061e-01 -2.085663e+00 2.275925e+00
3.755524e+01 1.956522e-01 1.630180e-02 6.590386e-01 -2.085510e+00 2.275925e+00
3.753993e+01 1.956522e-01 1.629541e-02 6.590485e-01 -2.085785e+00 2.276306e+00
3.763438e+01 1.956522e-01 1.630095e-02 6.590944e-01 -2.086166e+00 2.276688e+00
3.766000e+01 1.956522e-01 1.632655e-02 6.591155e-01 -2.087204e+00 2.277939e+00
3.761076e+01 1.956522e-01 1.630830e-02 6.591563e-01 -2.087540e+00 2.278137e+00
3.751909e+01 1.956522e-01 1.632642e-02 6.591983e-01 -2.087616e+00 2.278305e+00
3.753822e+01 1.956522e-01 1.631507e-02 6.592447e-01 -2.087418e+00 2.278458e+00
3.753386e+01 1.956522e-01 1.630451e-02 6.592631e-01 -2.086914e+00 2.277954e+00
3.753296e+01 1.956522e-01 1.630562e-02 6.592812e-01 -2.087265e+00 2.278336e+00
3.748074e+01 1.956522e-01 1.631301e-02 6.593331e-01 -2.087997e+00 2.279160e+00
3.751271e+01 1.956522e-01 1.631139e-02 6.593692e-01 -2.088440e+00 2.279602e+00
3.748456e+01 1.956522e-01 1.631003e-02 6.594034e-01 -2.087936e+00 2.279144e+00
3.742805e+01 1.956522e-01 1.630801e-02 6.594453e-01 -2.089417e+00 2.280685e+00
3.752342e+01 1.956522e-01 1.631415e-02 6.594663e-01 -2.088486e+00 2.279892e+00
3.750046e+01 1.956522e-01 1.629913e-02 6.595021e-01 -2.089279e+00 2.280731e+00
3.756029e+01 1.956522e-01 1.629922e-02 6.595289e-01 -2.088959e+00 2.280441e+00
3.753021e+01 1.956522e-01 1.630553e-02 6.595497e-01 -2.089523e+00 2.281021e+00
3.753084e+01 1.956522e-01 1.630060e-02 6.596089e-01 -2.089813e+00 2.281494e+00
3.754727e+01 1.956522e-01 1.628508e-02 6.596010e-01 -2.089691e+00 2.281372e+00
3.748552e+01 1.956522e-01 1.628905e-02 6.596685e-01 -2.090393e+00 2.282074e+00
3.750862e+01 1.956522e-01 1.629893e-02 6.596750e-01 -2.090256e+00 2.282043e+00
3.750938e+01 1.956522e-01 1.628895e-02 6.597218e-01 -2.090546e+00 2.282379e+00
3.755804e+01 1.956522e-01 1.629018e-02 6.597539e-01 -2.091125e+00 2.282867e+00
3.758258e+01 1.956522e-01 1.629021e-02 6.598017e-01 -2.091812e+00 2.283569e+00
3.758182e+01 1.956522e-01 1.628017e-02 6.598339e-01 -2.091415e+00 2.283249e+00
3.760281e+01 1.956522e-01 1.626350e-02 6.598819e-01 -2.091751e+00 2.283646e+00
3.744286e+01 1.956522e-01 1.625793e-02 6.598693e-01 -2.092316e+00 2.284225e+00
3.745816e+01 1.956522e-01 1.626952e-02 6.599494e-01 -2.092743e+00 2.284607e+00
3.747763e+01 1.956522e-01 1.628153e-02 6.599726e-01 -2.092712e+00 2.284943e+00
3.747763e+01 1.956522e-01 1.627370e-02 6.600042e-01 -2.093231e+00 2.285339e+00
3.749829e+01 1.956522e-01 1.624731e-02 6.600219e-01 -2.093369e+00 2.285477e+00
3.750357e+01 1.956522e-01 1.626680e-02 6.600517e-01 -2.093506e+00 2.285583e+00
3.745831e+01 1.956522e-01 1.623874e-02 6.601098e-01 -2.093628e+00 2.285873e+00
3.756865e+01 1.956522e-01 1.625987e-02 6.601402e-01 -2.094650e+00 2.286942e+00
3.748648e+01 1.956522e-01 1.625493e-02 6.601775e-01 -2.094818e+00 2.287033e+00
3.744308e+01 1.956522e-01 1.623793e-02 6.602011e-01 -2.094452e+00 2.286896e+00
3.749174e+01 1.956522e-01 1.625591e-02 6.602238e-01 -2.094742e+00 2.287277e+00
3.751132e+01 1.956522e-01 1.626453e-02 6.602635e-01 -2.095108e+00 2.287689e+00
3.760600e+01 2.000000e-01 1.624643e-02 6.602980e-01 -2.095657e+00 2.288193e+00
3.755249e+01 2.000000e-01 1.626634e-02 6.603398e-01 -2.095459e+00 2.288361e+00
3.751105e+01 1.956522e-01 1.624518e-02 6.603900e-01 -2.096100e+00 2.288803e+00
3.753857e+01 1.956522e-01 1.625125e-02 6.603979e-01 -2.095963e+00 2.288803e+00
3.762787e+01 1.956522e-01 1.624711e-02 6.604629e-01 -2.096252e+00 2.289139e+00
3.762550e+01 1.956522e-01 1.624248e-02 6.604662e-01 -2.096527e+00 2.289474e+00
3.778801e+01 1.956522e-01 1.624428e-02 6.605318e-01 -2.097504e+00 2.290436e+00
3.779195e+01 1.913043e-01 1.625578e-02 6.605683e-01 -2.097946e+00 2.291016e+00
3.780563e+01 1.913043e-01 1.626192e-02 6.605841e-01 -2.097534e+00 2.290771e+00
3.776395e+01 1.913043e-01 1.626706e-02 6.606590e-01 -2.097763e+00 2.290817e+00
3.776324e+01 1.913043e-01 1.625400e-02 6.606711e-01 -2.097900e+00 2.291092e+00
3.776324e+01 1.913043e-01 1.626705e-02 6.606878e-01 -2.098541e+00 2.291779e+00
3.769594e+01 1.913043e-01 1.625901e-02 6.607654e-01 -2.098511e+00 2.291840e+00
3.772217e+01 1.913043e-01 1.626054e-02 6.607686e-01 -2.099487e+00 2.292831e+00
3.790649e+01 1.956522e-01 1.627662e-02 6.607709e-01 -2.099426e+00 2.292908e+00
3.785950e+01 1.956522e-01 1.626622e-02 6.608112e-01 -2.099274e+00 2.292984e+00
3.790605e+01 1.956522e-01 1.628364e-02 6.608595e-01 -2.099365e+00 2.293182e+00
3.786533e+01 1.956522e-01 1.626133e-02 6.608811e-01 -2.099564e+00 2.293472e+00
3.789478e+01 1.956522e-01 1.627621e-02 6.609418e-01 -2.099884e+00 2.293900e+00
3.790941e+01 1.956522e-01 1.628503e-02 6.609777e-01 -2.100525e+00 2.294525e+00
3.790941e+01 1.956522e-01 1.627755e-02 6.609971e-01 -2.100647e+00 2.294708e+00
3.786415e+01 1.956522e-01 1.628650e-02 6.610447e-01 -2.101013e+00 2.295212e+00
3.791115e+01 1.956522e-01 1.628818e-02 6.610837e-01 -2.101685e+00 2.296005e+00
3.781583e+01 1.956522e-01 1.627286e-02 6.611176e-01 -2.101303e+00 2.295731e+00
3.781685e+01 2.000000e-01 1.627983e-02 6.611580e-01 -2.101547e+00 2.296127e+00
3.779045e+01 2.000000e-01 1.630244e-02 6.611796e-01 -2.101791e+00 2.296448e+00
3.784221e+01 2.000000e-01 1.630002e-02 6.612197e-01 -2.102951e+00 2.297729e+00
3.788266e+01 2.000000e-01 1.630396e-02 6.612372e-01 -2.102997e+00 2.297867e+00
3.777567e+01 2.000000e-01 1.629339e-02 6.613049e-01 -2.102570e+00 2.297546e+00
3.777567e+01 2.000000e-01 1.632129e-02 6.613538e-01 -2.102829e+00 2.297821e+00
3.773322e+01 2.000000e-01 1.632330e-02 6.613697e-01 -2.103195e+00 2.298264e+00
3.781735e+01 2.000000e-01 1.631604e-02 6.614244e-01 -2.104630e+00 2.299881e+00
3.787735e+01 2.000000e-01 1.628863e-02 6.614032e-01 -2.103455e+00 2.298767e+00
3.785677e+01 2.000000e-01 1.629882e-02 6.614827e-01 -2.104767e+00 2.300125e+00
3.786128e+01 2.000000e-01 1.629000e-02 6.614835e-01 -2.103989e+00 2.299438e+00
3.787892e+01 2.000000e-01 1.630921e-02 6.615259e-01 -2.104355e+00 2.299820e+00
3.787892e+01 2.000000e-01 1.631558e-02 6.615809e-01 -2.105698e+00 2.301300e+00
3.794286e+01 2.000000e-01 1.631084e-02 6.616128e-01 -2.104767e+00 2.300446e+00
3.786028e+01 1.956522e-01 1.631657e-02 6.616293e-01 -2.105011e+00 2.300766e+00
3.782475e+01 1.956522e-01 1.631686e-02 6.616776e-01 -2.105942e+00 2.301819e+00
3.788043e+01 1.956522e-01 1.633565e-02 6.617573e-01 -2.106308e+00 2.302094e+00
3.785413e+01 1.956522e-01 1.631531e-02 6.617280e-01 -2.105865e+00 2.301712e+00
3.785419e+01 1.956522e-01 1.633533e-02 6.618014e-01 -2.106216e+00 2.302078e+00
3.782336e+01 1.956522e-01 1.629800e-02 6.618227e-01 -2.106522e+00 2.302399e+00
3.794171e+01 1.956522e-01 1.631556e-02 6.618486e-01 -2.107391e+00 2.303116e+00
3.794887e+01 1.956522e-01 1.630709e-02 6.618658e-01 -2.107025e+00 2.302963e+00
3.794934e+01 1.956522e-01 1.631913e-02 6.619326e-01 -2.107651e+00 2.303635e+00
3.794940e+01 1.956522e-01 1.632449e-02 6.619588e-01 -2.107529e+00 2.303528e+00
3.794946e+01 1.956522e-01 1.634752e-02 6.619833e-01 -2.108063e+00 2.304062e+00
3.797850e+01 1.956522e-01 1.632963e-02 6.620289e-01 -2.108200e+00 2.304077e+00
3.797850e+01 1.956522e-01 1.635594e-02 6.620789e-01 -2.108826e+00 2.304764e+00
3.794145e+01 1.956522e-01 1.634822e-02 6.621212e-01 -2.109344e+00 2.305283e+00
3.795782e+01 1.956522e-01 1.635570e-02 6.621327e-01 -2.108734e+00 2.304810e+00
3.789716e+01 1.956522e-01 1.635690e-02 6.621817e-01 -2.109695e+00 2.305801e+00
3.794189e+01 1.956522e-01 1.637035e-02 6.622107e-01 -2.110352e+00 2.306412e+00
3.790628e+01 1.956522e-01 1.632940e-02 6.622825e-01 -2.110550e+00 2.306656e+00
3.788582e+01 1.956522e-01 1.634603e-02 6.622799e-01 -2.110138e+00 2.306320e+00
3.799350e+01 2.000000e-01 1.634043e-02 6.622879e-01 -2.109985e+00 2.306137e+00
3.793806e+01 2.000000e-01 1.635141e-02 6.623483e-01 -2.110397e+00 2.306458e+00
3.793806e+01 2.000000e-01 1.636563e-02 6.624116e-01 -2.111038e+00 2.307068e+00
3.793280e+01 2.000000e-01 1.634113e-02 6.624538e-01 -2.111496e+00 2.307556e+00
3.788562e+01 2.000000e-01 1.635656e-02 6.624736e-01 -2.111374e+00 2.307419e+00
3.788562e+01 2.000000e-01 1.634956e-02 6.624895e-01 -2.111618e+00 2.307755e+00
3.792416e+01 2.000000e-01 1.634751e-02 6.625244e-01 -2.112289e+00 2.308304e+00
3.789325e+01 1.956522e-01 1.633829e-02 6.625671e-01 -2.112289e+00 2.308456e+00
3.789249e+01 1.956522e-01 1.636263e-02 6.626364e-01 -2.112503e+00 2.308670e+00
3.788861e+01 1.956522e-01 1.636020e-02 6.626641e-01 -2.112915e+00 2.309326e+00
3.786610e+01 1.913043e-01 1.634281e-02 6.627171e-01 -2.113602e+00 2.309921e+00
3.792258e+01 1.913043e-01 1.634831e-02 6.627420e-01 -2.113708e+00 2.309937e+00
3.791049e+01 1.913043e-01 1.635862e-02 6.627742e-01 -2.113907e+00 2.310333e+00
3.785251e+01 1.913043e-01 1.635958e-02 6.628134e-01 -2.114319e+00 2.310684e+00
3.784230e+01 1.913043e-01 1.636506e-02 6.628519e-01 -2.114059e+00 2.310394e+00
3.787297e+01 1.913043e-01 1.634824e-02 6.628817e-01 -2.114426e+00 2.310867e+00
3.782095e+01 1.913043e-01 1.634620e-02 6.629018e-01 -2.114044e+00 2.310486e+00
3.783542e+01 1.956522e-01 1.636504e-02 6.629846e-01 -2.115982e+00 2.312439e+00
3.783542e+01 1.956522e-01 1.636916e-02 6.630133e-01 -2.115143e+00 2.311676e+00
3.787109e+01 1.956522e-01 1.635719e-02 6.630238e-01 -2.114761e+00 2.311386e+00
3.786581e+01 1.956522e-01 1.635487e-02 6.630729e-01 -2.115021e+00 2.311661e+00
3.790646e+01 1.956522e-01 1.635492e-02 6.631074e-01 -2.116348e+00 2.312912e+00
3.790897e+01 1.956522e-01 1.635376e-02 6.631414e-01 -2.115952e+00 2.312668e+00
3.790903e+01 1.956522e-01 1.636692e-02 6.631930e-01 -2.115875e+00 2.312561e+00
3.791354e+01 1.956522e-01 1.636736e-02 6.632217e-01 -2.115936e+00 2.312775e+00
3.795352e+01 1.956522e-01 1.638222e-02 6.632591e-01 -2.116318e+00 2.313156e+00
3.790526e+01 1.956522e-01 1.638912e-02 6.632839e-01 -2.116394e+00 2.313324e+00
3.780298e+01 1.956522e-01 1.636958e-02 6.633369e-01 -2.116837e+00 2.313675e+00
3.767427e+01 1.956522e-01 1.638309e-02 6.633893e-01 -2.118103e+00 2.315033e+00
3.768938e+01 1.956522e-01 1.637654e-02 6.634219e-01 -2.118073e+00 2.315109e+00
3.768944e+01 1.956522e-01 1.638833e-02 6.634716e-01 -2.117477e+00 2.314514e+00
3.765965e+01 1.956522e-01 1.638060e-02 6.634940e-01 -2.117874e+00 2.314987e+00
3.769531e+01 2.000000e-01 1.636909e-02 6.635605e-01 -2.118118e+00 2.315323e+00
3.765753e+01 2.000000e-01 1.640863e-02 6.635673e-01 -2.118210e+00 2.315384e+00
3.758771e+01 2.000000e-01 1.638849e-02 6.636010e-01 -2.118378e+00 2.315582e+00
3.757535e+01 2.000000e-01 1.638961e-02 6.636207e-01 -2.118515e+00 2.315857e+00
3.757205e+01 2.000000e-01 1.639880e-02 6.636741e-01 -2.118774e+00 2.316147e+00
3.757205e+01 2.000000e-01 1.638725e-02 6.637245e-01 -2.119385e+00 2.316772e+00
3.754846e+01 2.000000e-01 1.640111e-02 6.637965e-01 -2.120911e+00 2.318359e+00
3.754019e+01 2.000000e-01 1.640782e-02 6.637884e-01 -2.119766e+00 2.317169e+00
3.755556e+01 2.000000e-01 1.640909e-02 6.638245e-01 -2.119537e+00 2.317078e+00
3.753949e+01 2.000000e-01 1.641917e-02 6.638781e-01 -2.119980e+00 2.317612e+00
3.748589e+01 2.000000e-01 1.641649e-02 6.639267e-01 -2.120560e+00 2.318222e+00
3.738477e+01 2.000000e-01 1.641785e-02 6.639668e-01 -2.120361e+00 2.318283e+00
3.738477e+01 2.000000e-01 1.641363e-02 6.639901e-01 -2.120758e+00 2.318558e+00
3.736420e+01 2.000000e-01 1.643880e-02 6.640498e-01 -2.120941e+00 2.319077e+00
3.729221e+01 1.956522e-01 1.645174e-02 6.640755e-01 -2.121719e+00 2.319870e+00
3.731702e+01 1.956522e-01 1.642593e-02 6.641103e-01 -2.121048e+00 2.319336e+00
3.732758e+01 1.956522e-01 1.642420e-02 6.641509e-01 -2.121323e+00 2.319702e+00
3.732758e+01 1.956522e-01 1.645126e-02 6.642042e-01 -2.121643e+00 2.320084e+00
3.739812e+01 1.956522e-01 1.643443e-02 6.642408e-01 -2.122604e+00 2.320969e+00
3.737764e+01 1.956522e-01 1.644556e-02 6.642593e-01 -2.122238e+00 2.320786e+00
3.734756e+01 1.956522e-01 1.643845e-02 6.642954e-01 -2.122620e+00 2.321167e+00
3.736179e+01 1.956522e-01 1.646233e-02 6.643265e-01 -2.122498e+00 2.321152e+00
3.736185e+01 1.956522e-01 1.645700e-02 6.644168e-01 -2.123352e+00 2.322037e+00
3.729088e+01 1.956522e-01 1.644409e-02 6.644510e-01 -2.124039e+00 2.322662e+00
3.730618e+01 1.956522e-01 1.643681e-02 6.644734e-01 -2.123672e+00 2.322372e+00
3.729971e+01 1.956522e-01 1.643184e-02 6.645236e-01 -2.124252e+00 2.323074e+00
3.736534e+01 1.956522e-01 1.644277e-02 6.645534e-01 -2.125015e+00 2.323837e+00
3.730478e+01 1.956522e-01 1.644549e-02 6.645835e-01 -2.123749e+00 2.322495e+00
3.730217e+01 1.956522e-01 1.643134e-02 6.646267e-01 -2.124390e+00 2.323151e+00
3.730154e+01 1.956522e-01 1.644161e-02 6.646826e-01 -2.125610e+00 2.324463e+00
3.737672e+01 2.000000e-01 1.644214e-02 6.647478e-01 -2.125229e+00 2.324249e+00
3.730544e+01 2.000000e-01 1.643362e-02 6.647600e-01 -2.124832e+00 2.323898e+00
3.728391e+01 2.000000e-01 1.644077e-02 6.648020e-01 -2.125610e+00 2.324677e+00
3.726262e+01 2.000000e-01 1.642312e-02 6.648385e-01 -2.125366e+00 2.324493e+00
3.723746e+01 2.000000e-01 1.641773e-02 6.648542e-01 -2.125656e+00 2.324783e+00
3.725276e+01 2.000000e-01 1.641966e-02 6.649151e-01 -2.125931e+00 2.325119e+00
3.724779e+01 2.000000e-01 1.643263e-02 6.649514e-01 -2.126190e+00 2.325439e+00
3.724132e+01 2.000000e-01 1.640709e-02 6.649786e-01 -2.126541e+00 2.325821e+00
3.732365e+01 2.000000e-01 1.641574e-02 6.650192e-01 -2.127411e+00 2.326630e+00
3.733186e+01 1.956522e-01 1.641060e-02 6.650843e-01 -2.127029e+00 2.326309e+00
3.736229e+01 1.956522e-01 1.638728e-02 6.651094e-01 -2.127090e+00 2.326447e+00
3.737340e+01 1.956522e-01 1.642216e-02 6.651596e-01 -2.127441e+00 2.326813e+00
3.735983e+01 1.956522e-01 1.642409e-02 6.651844e-01 -2.127884e+00 2.327255e+00
3.735989e+01 1.956522e-01 1.638814e-02 6.652153e-01 -2.127838e+00 2.327347e+00
3.731906e+01 1.956522e-01 1.640321e-02 6.652874e-01 -2.128448e+00 2.327957e+00
3.740427e+01 1.956522e-01 1.640788e-02 6.652958e-01 -2.128418e+00 2.327988e+00
3.740027e+01 1.956522e-01 1.639144e-02 6.653570e-01 -2.129456e+00 2.329010e+00
3.731418e+01 1.956522e-01 1.639007e-02 6.653868e-01 -2.128754e+00 2.328308e+00
3.731592e+01 1.956522e-01 1.639023e-02 6.654418e-01 -2.129471e+00 2.329117e+00
