2.662112e+04 9.589000e-01 1.496981e-03 5.771939e-01 -9.999527e-01 9.999606e-01
1.933650e+03 1.455000e-01 -3.415388e-04 5.762045e-01 -1.345999e+00 1.284463e+00
1.562860e+03 1.118000e-01 -1.204583e-03 5.754866e-01 -1.396932e+00 1.328488e+00
1.351101e+03 9.780000e-02 -1.570391e-03 5.752531e-01 -1.507798e+00 1.397130e+00
1.224369e+03 8.650000e-02 -1.705749e-03 5.751973e-01 -1.645058e+00 1.469026e+00
1.130360e+03 8.140000e-02 -1.942113e-03 5.752181e-01 -1.706645e+00 1.488002e+00
1.083255e+03 7.760000e-02 -2.097523e-03 5.752609e-01 -1.748292e+00 1.514550e+00
1.020329e+03 7.250000e-02 -2.236867e-03 5.752876e-01 -1.778756e+00 1.547478e+00
9.761689e+02 6.840000e-02 -2.395526e-03 5.753274e-01 -1.839853e+00 1.552489e+00
9.737288e+02 6.680000e-02 -2.489433e-03 5.753626e-01 -1.897945e+00 1.577727e+00
9.254798e+02 6.260000e-02 -2.663218e-03 5.753871e-01 -1.943184e+00 1.609294e+00
8.868915e+02 6.000000e-02 -2.822942e-03 5.754115e-01 -1.986390e+00 1.634766e+00
8.659009e+02 5.850000e-02 -2.916757e-03 5.754302e-01 -2.020665e+00 1.666641e+00
8.472831e+02 5.690000e-02 -3.016378e-03 5.754459e-01 -2.055961e+00 1.717156e+00
8.553164e+02 5.920000e-02 -3.193297e-03 5.754658e-01 -2.085309e+00 1.770163e+00
8.186924e+02 5.390000e-02 -3.320521e-03 5.754774e-01 -2.113160e+00 1.850036e+00
8.194009e+02 5.520000e-02 -3.410157e-03 5.754952e-01 -2.139345e+00 1.895194e+00
7.992555e+02 5.320000e-02 -3.513269e-03 5.755084e-01 -2.164051e+00 1.953436e+00
7.899732e+02 5.240000e-02 -3.598163e-03 5.755189e-01 -2.184652e+00 1.995361e+00
7.714104e+02 5.180000e-02 -3.715207e-03 5.755332e-01 -2.205098e+00 2.043068e+00
7.650774e+02 5.130000e-02 -3.824518e-03 5.755461e-01 -2.225528e+00 2.097706e+00
7.562543e+02 4.990000e-02 -3.894758e-03 5.755591e-01 -2.239807e+00 2.124927e+00
7.523816e+02 5.000000e-02 -4.029929e-03 5.755779e-01 -2.256427e+00 2.158074e+00
7.409472e+02 5.040000e-02 -4.079790e-03 5.755861e-01 -2.273974e+00 2.200666e+00
7.370533e+02 4.970000e-02 -4.144305e-03 5.756129e-01 -2.287105e+00 2.238288e+00
7.271248e+02 4.840000e-02 -4.254614e-03 5.756307e-01 -2.297682e+00 2.263468e+00
7.201151e+02 4.890000e-02 -4.300402e-03 5.756422e-01 -2.313336e+00 2.279668e+00
7.131051e+02 4.820000e-02 -4.352193e-03 5.756639e-01 -2.329602e+00 2.313699e+00
7.130178e+02 4.810000e-02 -4.450121e-03 5.756886e-01 -2.337906e+00 2.342959e+00
7.000878e+02 4.800000e-02 -4.542929e-03 5.757152e-01 -2.348773e+00 2.366924e+00
6.968627e+02 4.800000e-02 -4.581267e-03 5.757425e-01 -2.359376e+00 2.396155e+00
6.960517e+02 4.720000e-02 -4.642506e-03 5.757688e-01 -2.392852e+00 2.414465e+00
6.924096e+02 4.730000e-02 -4.673968e-03 5.758021e-01 -2.429733e+00 2.438727e+00
6.870998e+02 4.600000e-02 -4.734510e-03 5.758278e-01 -2.463447e+00 2.464469e+00
6.752904e+02 4.710000e-02 -4.813464e-03 5.758648e-01 -2.493576e+00 2.481400e+00
6.775365e+02 4.690000e-02 -4.854755e-03 5.758982e-01 -2.523716e+00 2.519583e+00
6.734808e+02 4.690000e-02 -4.931813e-03 5.759384e-01 -2.557772e+00 2.528905e+00
6.617528e+02 4.610000e-02 -4.939976e-03 5.759694e-01 -2.583597e+00 2.556451e+00
6.656671e+02 4.660000e-02 -5.044358e-03 5.760037e-01 -2.615014e+00 2.579025e+00
6.621720e+02 4.650000e-02 -5.066613e-03 5.760452e-01 -2.645024e+00 2.601676e+00
6.566164e+02 4.560000e-02 -5.111307e-03 5.760904e-01 -2.673516e+00 2.620036e+00
6.594484e+02 4.480000e-02 -5.172456e-03 5.761316e-01 -2.703566e+00 2.645678e+00
6.482890e+02 4.600000e-02 -5.223453e-03 5.761753e-01 -2.728665e+00 2.664253e+00
6.496160e+02 4.540000e-02 -5.287063e-03 5.762150e-01 -2.754115e+00 2.693228e+00
6.459899e+02 4.600000e-02 -5.310831e-03 5.762576e-01 -2.786902e+00 2.712308e+00
6.422943e+02 4.470000e-02 -5.351559e-03 5.763048e-01 -2.807782e+00 2.732690e+00
6.412825e+02 4.410000e-02 -5.381742e-03 5.763509e-01 -2.835257e+00 2.754423e+00
6.377838e+02 4.440000e-02 -5.452633e-03 5.763946e-01 -2.856200e+00 2.771288e+00
6.348026e+02 4.380000e-02 -5.474706e-03 5.764400e-01 -2.881221e+00 2.789573e+00
6.284122e+02 4.260000e-02 -5.527345e-03 5.764891e-01 -2.908572e+00 2.808035e+00
6.263031e+02 4.400000e-02 -5.585753e-03 5.765373e-01 -2.936775e+00 2.824049e+00
6.353958e+02 4.360000e-02 -5.626729e-03 5.765879e-01 -2.962460e+00 2.840467e+00
6.191502e+02 4.350000e-02 -5.621940e-03 5.766378e-01 -2.986432e+00 2.865095e+00
6.207904e+02 4.320000e-02 -5.696019e-03 5.766922e-01 -3.010719e+00 2.882268e+00
6.207127e+02 4.230000e-02 -5.694217e-03 5.767413e-01 -3.039566e+00 2.897805e+00
6.158986e+02 4.250000e-02 -5.765448e-03 5.767938e-01 -3.064057e+00 2.914447e+00
6.179392e+02 4.310000e-02 -5.817988e-03 5.768579e-01 -3.090502e+00 2.929617e+00
6.165014e+02 4.380000e-02 -5.861113e-03 5.769099e-01 -3.113734e+00 2.937154e+00
6.153399e+02 4.300000e-02 -5.864452e-03 5.769647e-01 -3.147786e+00 2.954378e+00
6.121248e+02 4.300000e-02 -5.932372e-03 5.770236e-01 -3.175467e+00 2.976950e+00
6.041937e+02 4.220000e-02 -5.950625e-03 5.770851e-01 -3.196414e+00 2.982079e+00
6.107196e+02 4.270000e-02 -5.994637e-03 5.771486e-01 -3.231377e+00 2.997437e+00
6.070876e+02 4.280000e-02 -6.022102e-03 5.772062e-01 -3.259842e+00 3.012046e+00
6.026460e+02 4.320000e-02 -6.099884e-03 5.772654e-01 -3.296482e+00 3.034762e+00
6.014713e+02 4.210000e-02 -6.119321e-03 5.773332e-01 -3.328457e+00 3.044897e+00
5.950005e+02 4.240000e-02 -6.111618e-03 5.773997e-01 -3.364624e+00 3.056163e+00
5.924947e+02 4.230000e-02 -6.178300e-03 5.774689e-01 -3.394911e+00 3.066797e+00
5.922645e+02 4.210000e-02 -6.256508e-03 5.775363e-01 -3.425458e+00 3.079792e+00
5.858305e+02 4.170000e-02 -6.249806e-03 5.776022e-01 -3.457097e+00 3.089898e+00
5.866850e+02 4.270000e-02 -6.285171e-03 5.776732e-01 -3.487829e+00 3.100784e+00
5.883813e+02 4.130000e-02 -6.314369e-03 5.777433e-01 -3.514015e+00 3.114850e+00
5.852220e+02 4.220000e-02 -6.346317e-03 5.778162e-01 -3.550182e+00 3.119668e+00
5.884549e+02 4.280000e-02 -6.386318e-03 5.778780e-01 -3.575086e+00 3.130525e+00
5.798595e+02 4.150000e-02 -6.433588e-03 5.779580e-01 -3.607953e+00 3.139376e+00
5.786467e+02 4.230000e-02 -6.447912e-03 5.780307e-01 -3.633991e+00 3.156611e+00
5.784225e+02 4.130000e-02 -6.470557e-03 5.780989e-01 -3.657084e+00 3.165488e+00
5.828540e+02 4.160000e-02 -6.544135e-03 5.781656e-01 -3.692331e+00 3.170896e+00
5.734417e+02 4.180000e-02 -6.516474e-03 5.782409e-01 -3.706826e+00 3.180968e+00
5.816317e+02 4.190000e-02 -6.582465e-03 5.783121e-01 -3.732725e+00 3.184947e+00
5.823296e+02 4.150000e-02 -6.621590e-03 5.783838e-01 -3.760802e+00 3.192301e+00
5.789880e+02 4.220000e-02 -6.648978e-03 5.784565e-01 -3.784181e+00 3.202603e+00
5.735724e+02 4.130000e-02 -6.662947e-03 5.785305e-01 -3.803885e+00 3.224582e+00
5.722084e+02 4.170000e-02 -6.721796e-03 5.785926e-01 -3.827592e+00 3.216290e+00
5.785779e+02 4.080000e-02 -6.729507e-03 5.786710e-01 -3.859934e+00 3.227183e+00
5.689987e+02 4.190000e-02 -6.755243e-03 5.787474e-01 -3.876683e+00 3.232416e+00
5.771932e+02 4.140000e-02 -6.823710e-03 5.788186e-01 -3.902277e+00 3.245784e+00
5.683757e+02 4.080000e-02 -6.815732e-03 5.788930e-01 -3.920331e+00 3.245163e+00
5.644378e+02 4.120000e-02 -6.873286e-03 5.789637e-01 -3.938472e+00 3.259589e+00
5.789459e+02 4.070000e-02 -6.860705e-03 5.790361e-01 -3.958611e+00 3.262844e+00
5.668707e+02 4.060000e-02 -6.924878e-03 5.791083e-01 -3.978688e+00 3.269639e+00
5.752728e+02 4.180000e-02 -6.929653e-03 5.791915e-01 -3.996009e+00 3.273594e+00
5.655473e+02 4.010000e-02 -6.985775e-03 5.792552e-01 -4.014680e+00 3.279040e+00
5.669247e+02 4.050000e-02 -7.042771e-03 5.793347e-01 -4.029962e+00 3.294537e+00
