1.028209e+02 4.217391e-01 -2.129235e-02 5.705657e-01 -9.990692e-01 9.969788e-01
7.040103e+01 4.043478e-01 -2.140341e-02 5.663094e-01 -1.090225e+00 1.063263e+00
6.993777e+01 4.217391e-01 -2.121569e-02 5.662281e-01 -1.090225e+00 1.063263e+00
7.000647e+01 3.869565e-01 -2.087443e-02 5.671298e-01 -1.109024e+00 1.111237e+00
6.276904e+01 4.217391e-01 -3.134022e-02 5.859223e-01 -1.227768e+00 1.151245e+00
6.132179e+01 2.913043e-01 -3.234424e-02 5.870785e-01 -1.243835e+00 1.190598e+00
5.480226e+01 2.608696e-01 -3.481518e-02 5.998868e-01 -1.385010e+00 1.417419e+00
4.555901e+01 1.913043e-01 -4.242930e-02 6.246982e-01 -1.677460e+00 1.523529e+00
4.452928e+01 2.086957e-01 -3.948999e-02 6.372733e-01 -1.725067e+00 1.621872e+00
4.280836e+01 2.043478e-01 -3.912235e-02 6.409060e-01 -1.773163e+00 1.808548e+00
4.152722e+01 1.826087e-01 -3.910393e-02 6.418648e-01 -1.797073e+00 1.804504e+00
4.165718e+01 1.869565e-01 -4.337195e-02 6.439948e-01 -1.797073e+00 1.786804e+00
4.137607e+01 2.000000e-01 -4.145529e-02 6.462944e-01 -1.835785e+00 1.928391e+00
4.194145e+01 2.043478e-01 -1.015279e-02 6.925813e-01 -1.834702e+00 2.302902e+00
4.208432e+01 2.086957e-01 -2.174821e-02 6.895090e-01 -1.811279e+00 2.231277e+00
3.962915e+01 2.130435e-01 -1.985779e-02 6.916720e-01 -1.832382e+00 2.285873e+00
4.043970e+01 1.913043e-01 -1.907689e-02 6.880933e-01 -1.829666e+00 2.283920e+00
4.025464e+01 2.086957e-01 -1.743870e-02 6.873888e-01 -1.822250e+00 2.262634e+00
4.176498e+01 2.000000e-01 -1.921752e-02 6.884119e-01 -1.810883e+00 2.211533e+00
4.448145e+01 1.869565e-01 -3.265094e-02 6.938996e-01 -2.221985e+00 2.296768e+00
3.989246e+01 2.086957e-01 -4.435376e-02 6.981539e-01 -2.218613e+00 2.303101e+00
3.969679e+01 2.130435e-01 -4.548731e-02 6.993064e-01 -2.196625e+00 2.233612e+00
4.029971e+01 2.086957e-01 -4.472691e-02 7.004667e-01 -2.165955e+00 2.230637e+00
4.020818e+01 2.043478e-01 -4.433301e-02 7.013418e-01 -2.169312e+00 2.231720e+00
4.039566e+01 2.043478e-01 -4.425680e-02 7.014887e-01 -2.169312e+00 2.231720e+00
4.022891e+01 2.000000e-01 -4.081818e-02 7.115717e-01 -2.230789e+00 2.247467e+00
3.945334e+01 1.869565e-01 -4.099100e-02 7.127157e-01 -2.228516e+00 2.268631e+00
4.278529e+01 2.304348e-01 -4.645735e-02 7.176133e-01 -2.486115e+00 2.397171e+00
4.080281e+01 1.956522e-01 -6.724932e-02 7.363665e-01 -2.486115e+00 2.437973e+00
4.177841e+01 2.000000e-01 -5.991509e-02 7.382345e-01 -2.260971e+00 2.536346e+00
4.027359e+01 2.086957e-01 -6.609125e-02 7.381261e-01 -2.274384e+00 2.487228e+00
4.043712e+01 2.000000e-01 -6.776982e-02 7.373133e-01 -2.263779e+00 2.476181e+00
4.018764e+01 2.043478e-01 -6.767048e-02 7.374683e-01 -2.273727e+00 2.488998e+00
4.077234e+01 2.000000e-01 -6.753251e-02 7.376988e-01 -2.273727e+00 2.488998e+00
4.086552e+01 2.043478e-01 -6.733797e-02 7.377861e-01 -2.225937e+00 2.469635e+00
4.144397e+01 1.826087e-01 -6.748199e-02 7.375345e-01 -2.210617e+00 2.464645e+00
4.013635e+01 2.000000e-01 -6.764325e-02 7.392885e-01 -2.285385e+00 2.496582e+00
4.148463e+01 1.913043e-01 -6.826332e-02 7.402722e-01 -2.279907e+00 2.476776e+00
4.030209e+01 1.913043e-01 -6.748458e-02 7.406816e-01 -2.284363e+00 2.492996e+00
4.027187e+01 1.913043e-01 -6.730993e-02 7.407374e-01 -2.284470e+00 2.492996e+00
4.153290e+01 2.000000e-01 -7.130854e-02 7.412244e-01 -2.328476e+00 2.488663e+00
4.069836e+01 1.956522e-01 -7.023677e-02 7.411502e-01 -2.357727e+00 2.493607e+00
4.173148e+01 1.869565e-01 -7.117989e-02 7.405400e-01 -2.365494e+00 2.442429e+00
3.974522e+01 2.043478e-01 -7.695550e-02 7.371261e-01 -2.550064e+00 2.427597e+00
4.083116e+01 2.000000e-01 -7.695545e-02 7.373919e-01 -2.544937e+00 2.420715e+00
4.138902e+01 1.913043e-01 -7.353949e-02 7.386732e-01 -2.503204e+00 2.438660e+00
4.104576e+01 1.913043e-01 -7.232989e-02 7.387696e-01 -2.471497e+00 2.441208e+00
4.006621e+01 1.826087e-01 -7.205438e-02 7.384803e-01 -2.460449e+00 2.459381e+00
3.973090e+01 1.913043e-01 -7.209010e-02 7.352348e-01 -2.435181e+00 2.461090e+00
3.998947e+01 1.913043e-01 -7.119229e-02 7.359402e-01 -2.432709e+00 2.453812e+00
4.058380e+01 1.826087e-01 -7.082981e-02 7.375282e-01 -2.432709e+00 2.454086e+00
4.073308e+01 1.956522e-01 -7.178428e-02 7.372807e-01 -2.371460e+00 2.441681e+00
4.027837e+01 1.869565e-01 -7.279870e-02 7.358402e-01 -2.350372e+00 2.419983e+00
4.030524e+01 1.782609e-01 -7.235811e-02 7.371298e-01 -2.360092e+00 2.460403e+00
3.964079e+01 1.913043e-01 -7.179959e-02 7.390426e-01 -2.352753e+00 2.485153e+00
3.961160e+01 1.869565e-01 -7.109683e-02 7.395491e-01 -2.351990e+00 2.485153e+00
4.046692e+01 1.782609e-01 -7.105988e-02 7.401496e-01 -2.330643e+00 2.476303e+00
4.022253e+01 1.869565e-01 -7.031253e-02 7.409301e-01 -2.309280e+00 2.483322e+00
4.047087e+01 1.956522e-01 -6.394992e-02 7.438229e-01 -2.318527e+00 2.531342e+00
4.033327e+01 2.000000e-01 -6.419848e-02 7.439070e-01 -2.310532e+00 2.521393e+00
4.056802e+01 1.782609e-01 -6.441887e-02 7.439092e-01 -2.311920e+00 2.521393e+00
4.113910e+01 1.739130e-01 -6.459066e-02 7.446329e-01 -2.311127e+00 2.518250e+00
4.104510e+01 2.000000e-01 -6.561495e-02 7.440281e-01 -2.320328e+00 2.459763e+00
4.111633e+01 1.956522e-01 -6.636948e-02 7.524606e-01 -2.469955e+00 2.378220e+00
4.116016e+01 1.913043e-01 -6.529936e-02 7.535807e-01 -2.474625e+00 2.388046e+00
4.029463e+01 1.826087e-01 -6.528904e-02 7.534127e-01 -2.535690e+00 2.408707e+00
4.123401e+01 2.000000e-01 -6.638797e-02 7.536497e-01 -2.514511e+00 2.379623e+00
4.087215e+01 1.869565e-01 -6.857343e-02 7.552561e-01 -2.739227e+00 2.373596e+00
4.154993e+01 2.000000e-01 -7.034487e-02 7.564892e-01 -2.736084e+00 2.366257e+00
4.165977e+01 1.869565e-01 -6.867865e-02 7.572332e-01 -2.686523e+00 2.357254e+00
4.194467e+01 1.913043e-01 -6.830021e-02 7.574202e-01 -2.616684e+00 2.354767e+00
4.066220e+01 1.913043e-01 -5.563161e-02 7.613339e-01 -2.835571e+00 2.448257e+00
3.999446e+01 1.782609e-01 -5.299661e-02 7.613417e-01 -2.849731e+00 2.427338e+00
4.011798e+01 1.956522e-01 -5.335122e-02 7.612565e-01 -2.847015e+00 2.413025e+00
4.067754e+01 2.000000e-01 -5.482645e-02 7.607828e-01 -2.750687e+00 2.353821e+00
4.092818e+01 2.000000e-01 -5.454572e-02 7.614024e-01 -2.756927e+00 2.354385e+00
4.021336e+01 1.913043e-01 -5.428253e-02 7.614679e-01 -2.777863e+00 2.366592e+00
4.065108e+01 2.000000e-01 -5.420219e-02 7.609876e-01 -2.777863e+00 2.366592e+00
4.094490e+01 1.956522e-01 -5.467796e-02 7.613652e-01 -2.763977e+00 2.345047e+00
4.011928e+01 1.956522e-01 -5.580209e-02 7.636638e-01 -2.808121e+00 2.345108e+00
3.854655e+01 1.782609e-01 -5.538721e-02 7.655423e-01 -2.789001e+00 2.343750e+00
4.046544e+01 1.869565e-01 -5.394189e-02 7.674730e-01 -2.788162e+00 2.334091e+00
4.022726e+01 1.913043e-01 -5.147682e-02 7.705507e-01 -2.645081e+00 2.335831e+00
3.976299e+01 1.826087e-01 -5.158929e-02 7.709657e-01 -2.677597e+00 2.347107e+00
4.113297e+01 1.956522e-01 -4.675291e-02 7.660146e-01 -2.555328e+00 2.303696e+00
4.109435e+01 1.739130e-01 -4.743078e-02 7.666147e-01 -2.529861e+00 2.269348e+00
3.998828e+01 1.956522e-01 -5.313256e-02 7.768911e-01 -2.867188e+00 2.210388e+00
4.004842e+01 2.043478e-01 -5.314108e-02 7.773344e-01 -2.836838e+00 2.225128e+00
3.892632e+01 1.956522e-01 -5.328334e-02 7.771466e-01 -2.850632e+00 2.236221e+00
3.850410e+01 1.869565e-01 -5.995438e-02 7.752899e-01 -2.938690e+00 2.213425e+00
3.876810e+01 1.913043e-01 -6.176233e-02 7.754861e-01 -2.934982e+00 2.217545e+00
3.876534e+01 1.869565e-01 -6.141169e-02 7.760052e-01 -2.941345e+00 2.231079e+00
3.923767e+01 1.956522e-01 -6.132306e-02 7.762235e-01 -2.953766e+00 2.229782e+00
4.026411e+01 1.652174e-01 -5.874765e-02 7.843962e-01 -3.166306e+00 2.255737e+00
4.003864e+01 1.652174e-01 -5.835288e-02 7.844914e-01 -3.158295e+00 2.256729e+00
3.922234e+01 2.000000e-01 -5.853144e-02 7.841983e-01 -3.182251e+00 2.276489e+00
4.080237e+01 1.782609e-01 -6.802661e-02 7.884930e-01 -3.191513e+00 2.303421e+00
4.064145e+01 1.782609e-01 -7.312891e-02 7.920081e-01 -3.205536e+00 2.330643e+00
4.050562e+01 1.782609e-01 -7.271840e-02 7.923409e-01 -3.205536e+00 2.333893e+00
4.038754e+01 1.913043e-01 -6.783977e-02 7.956411e-01 -3.281433e+00 2.482056e+00
4.229156e+01 2.000000e-01 -6.994616e-02 7.974332e-01 -3.276535e+00 2.458328e+00
4.051439e+01 1.782609e-01 -6.883865e-02 7.982992e-01 -3.276535e+00 2.481445e+00
4.045601e+01 1.869565e-01 -6.447368e-02 7.961368e-01 -3.171265e+00 2.483704e+00
4.068939e+01 1.826087e-01 -6.495064e-02 7.958096e-01 -2.967712e+00 2.407227e+00
4.145273e+01 1.782609e-01 -6.428970e-02 7.962858e-01 -2.977066e+00 2.448441e+00
4.163818e+01 1.913043e-01 -6.313269e-02 7.967536e-01 -2.917130e+00 2.404190e+00
4.127248e+01 1.913043e-01 -6.270269e-02 7.966485e-01 -2.925980e+00 2.404358e+00
4.028954e+01 1.869565e-01 -6.259998e-02 7.960534e-01 -2.939087e+00 2.411148e+00
4.146147e+01 1.956522e-01 -6.341760e-02 7.959012e-01 -2.939087e+00 2.411148e+00
4.040450e+01 1.826087e-01 -6.431944e-02 7.950347e-01 -3.001831e+00 2.394791e+00
4.111426e+01 1.869565e-01 -7.023054e-02 7.994937e-01 -3.284531e+00 2.414169e+00
4.007454e+01 1.913043e-01 -7.153220e-02 8.007557e-01 -3.121124e+00 2.428452e+00
3.959201e+01 2.000000e-01 -7.086305e-02 8.011400e-01 -3.137405e+00 2.444489e+00
4.045668e+01 1.739130e-01 -6.913469e-02 8.028167e-01 -3.215805e+00 2.431290e+00
3.990883e+01 1.913043e-01 -6.889015e-02 8.028548e-01 -3.215363e+00 2.401428e+00
3.999185e+01 1.913043e-01 -8.185447e-02 8.017080e-01 -3.299576e+00 2.359451e+00
4.011304e+01 1.913043e-01 -8.385648e-02 8.038066e-01 -3.254868e+00 2.323730e+00
4.021034e+01 1.913043e-01 -8.108234e-02 8.045988e-01 -3.171524e+00 2.350952e+00
3.979341e+01 1.913043e-01 -8.010019e-02 8.052452e-01 -3.174454e+00 2.375031e+00
4.074776e+01 2.043478e-01 -5.018621e-02 8.144484e-01 -3.176895e+00 2.258133e+00
4.060104e+01 2.000000e-01 -4.904275e-02 8.147480e-01 -3.354797e+00 2.266052e+00
3.943997e+01 2.000000e-01 -4.984146e-02 8.163141e-01 -3.319901e+00 2.255554e+00
3.978821e+01 2.086957e-01 -4.901261e-02 8.167389e-01 -3.308228e+00 2.268127e+00
4.097269e+01 1.782609e-01 -4.946460e-02 8.170061e-01 -3.283768e+00 2.252197e+00
4.032191e+01 1.869565e-01 -5.104611e-02 8.163695e-01 -3.310608e+00 2.251648e+00
4.094855e+01 1.826087e-01 -5.199247e-02 8.164252e-01 -3.302689e+00 2.237289e+00
3.950787e+01 2.000000e-01 -5.076998e-02 8.165535e-01 -3.318237e+00 2.270020e+00
3.998483e+01 1.869565e-01 -5.046639e-02 8.169235e-01 -3.294952e+00 2.267349e+00
4.059848e+01 1.826087e-01 -4.991669e-02 8.181871e-01 -3.272308e+00 2.280991e+00
3.917828e+01 2.000000e-01 -5.031385e-02 8.183357e-01 -3.321365e+00 2.299408e+00
3.952182e+01 1.826087e-01 -4.949404e-02 8.201371e-01 -3.299103e+00 2.321457e+00
3.955991e+01 2.000000e-01 -5.021668e-02 8.196269e-01 -3.271225e+00 2.315994e+00
3.984529e+01 2.086957e-01 -5.615600e-02 8.206869e-01 -3.348999e+00 2.290359e+00
4.223170e+01 1.913043e-01 -5.148423e-02 8.235152e-01 -3.341446e+00 2.320206e+00
3.987057e+01 2.043478e-01 -4.555707e-02 8.261902e-01 -3.295609e+00 2.345123e+00
3.962909e+01 2.000000e-01 -4.819727e-02 8.272072e-01 -3.309189e+00 2.349136e+00
4.005499e+01 1.956522e-01 -4.995212e-02 8.270702e-01 -3.292099e+00 2.341904e+00
3.993556e+01 1.913043e-01 -5.019960e-02 8.273422e-01 -3.252991e+00 2.342072e+00
4.002354e+01 1.913043e-01 -4.981819e-02 8.278602e-01 -3.254837e+00 2.340820e+00
4.042445e+01 1.869565e-01 -4.963698e-02 8.280590e-01 -3.254837e+00 2.340820e+00
4.041965e+01 1.869565e-01 -4.948555e-02 8.281821e-01 -3.229401e+00 2.334213e+00
4.035286e+01 1.869565e-01 -4.947859e-02 8.281587e-01 -3.228760e+00 2.333450e+00
3.956844e+01 1.826087e-01 -5.388068e-02 8.260089e-01 -3.336029e+00 2.313049e+00
3.944150e+01 1.826087e-01 -5.397671e-02 8.261130e-01 -3.330154e+00 2.256012e+00
4.031996e+01 1.869565e-01 -5.254925e-02 8.280788e-01 -3.301849e+00 2.276535e+00
3.915747e+01 1.826087e-01 -5.181547e-02 8.286220e-01 -3.247421e+00 2.309433e+00
3.912880e+01 1.913043e-01 -5.162496e-02 8.283575e-01 -3.270065e+00 2.309433e+00
4.022014e+01 1.826087e-01 -5.210800e-02 8.285049e-01 -3.270065e+00 2.307510e+00
3.951352e+01 1.739130e-01 -5.215260e-02 8.291840e-01 -3.235687e+00 2.314133e+00
3.881779e+01 1.956522e-01 -5.300529e-02 8.303041e-01 -3.316040e+00 2.352173e+00
4.017372e+01 1.782609e-01 -5.386732e-02 8.313101e-01 -3.273514e+00 2.332031e+00
3.948015e+01 1.913043e-01 -5.541508e-02 8.321698e-01 -3.310333e+00 2.336960e+00
3.894583e+01 1.869565e-01 -5.641665e-02 8.325002e-01 -3.308990e+00 2.340714e+00
4.173444e+01 1.956522e-01 -4.982183e-02 8.408284e-01 -3.154892e+00 2.494171e+00
4.153383e+01 1.869565e-01 -5.277822e-02 8.403643e-01 -3.166656e+00 2.483704e+00
4.085040e+01 2.043478e-01 -5.277741e-02 8.405277e-01 -3.195755e+00 2.501175e+00
4.109732e+01 1.869565e-01 -5.494283e-02 8.397109e-01 -3.240494e+00 2.473358e+00
4.141890e+01 1.869565e-01 -5.683494e-02 8.386019e-01 -3.240494e+00 2.407578e+00
4.227171e+01 1.826087e-01 -5.752583e-02 8.384189e-01 -3.226364e+00 2.388672e+00
4.045035e+01 1.869565e-01 -5.728755e-02 8.378987e-01 -3.254898e+00 2.399948e+00
4.040416e+01 1.869565e-01 -5.812637e-02 8.373685e-01 -3.265503e+00 2.396622e+00
4.155331e+01 1.782609e-01 -5.797210e-02 8.381597e-01 -3.235229e+00 2.389069e+00
4.107283e+01 1.826087e-01 -5.792662e-02 8.390972e-01 -3.235443e+00 2.415970e+00
4.079558e+01 1.782609e-01 -5.830001e-02 8.472077e-01 -3.219040e+00 2.481216e+00
4.106538e+01 1.869565e-01 -5.773405e-02 8.472440e-01 -3.231262e+00 2.481216e+00
3.853123e+01 2.000000e-01 -6.755060e-02 8.471883e-01 -3.392059e+00 2.481750e+00
3.951497e+01 2.043478e-01 -7.605174e-02 8.529506e-01 -3.552704e+00 2.516907e+00
4.039163e+01 1.869565e-01 -7.515405e-02 8.538302e-01 -3.529022e+00 2.516907e+00
3.974393e+01 1.826087e-01 -7.172942e-02 8.513847e-01 -3.496353e+00 2.510468e+00
3.895720e+01 2.000000e-01 -7.064749e-02 8.510180e-01 -3.488052e+00 2.527939e+00
3.929033e+01 1.782609e-01 -7.078645e-02 8.515591e-01 -3.488052e+00 2.527939e+00
3.966299e+01 1.695652e-01 -6.476064e-02 8.532797e-01 -3.195389e+00 2.508560e+00
4.068484e+01 1.695652e-01 -6.677863e-02 8.546575e-01 -3.373810e+00 2.511612e+00
3.950691e+01 1.956522e-01 -7.840523e-02 8.608467e-01 -3.375916e+00 2.518951e+00
4.141133e+01 2.043478e-01 -7.792777e-02 8.651119e-01 -3.376297e+00 2.484558e+00
4.112321e+01 2.000000e-01 -7.351760e-02 8.664668e-01 -3.365143e+00 2.487045e+00
4.098993e+01 2.000000e-01 -6.998545e-02 8.667188e-01 -3.201782e+00 2.487686e+00
4.071309e+01 1.913043e-01 -6.887734e-02 8.667257e-01 -3.184265e+00 2.481888e+00
4.054883e+01 1.869565e-01 -6.872475e-02 8.668374e-01 -3.184265e+00 2.470840e+00
4.181969e+01 1.869565e-01 -6.894408e-02 8.672516e-01 -3.166061e+00 2.477463e+00
4.097504e+01 2.043478e-01 -7.034408e-02 8.696911e-01 -3.060272e+00 2.473892e+00
4.072139e+01 1.826087e-01 -6.810009e-02 8.710534e-01 -3.017990e+00 2.469574e+00
4.116476e+01 1.869565e-01 -6.989128e-02 8.712616e-01 -3.038193e+00 2.468781e+00
4.030963e+01 2.000000e-01 -7.349087e-02 8.707732e-01 -3.096863e+00 2.472275e+00
3.929623e+01 1.869565e-01 -7.102421e-02 8.697801e-01 -3.114349e+00 2.494919e+00
3.919360e+01 1.956522e-01 -7.121176e-02 8.698131e-01 -3.113007e+00 2.460938e+00
4.032076e+01 1.652174e-01 -7.196002e-02 8.702764e-01 -3.110718e+00 2.468475e+00
4.062625e+01 1.565217e-01 -7.273151e-02 8.704834e-01 -3.104462e+00 2.466156e+00
3.984660e+01 1.739130e-01 -7.521688e-02 8.705214e-01 -3.110687e+00 2.460587e+00
3.955261e+01 1.652174e-01 -6.841563e-02 8.699243e-01 -2.970779e+00 2.505722e+00
3.937686e+01 1.956522e-01 -6.726466e-02 8.707372e-01 -3.007355e+00 2.489700e+00
3.988063e+01 1.826087e-01 -6.833711e-02 8.717713e-01 -2.992950e+00 2.480560e+00
3.965825e+01 1.869565e-01 -6.832832e-02 8.720674e-01 -3.000717e+00 2.470169e+00
3.977031e+01 1.826087e-01 -6.879846e-02 8.724209e-01 -3.000717e+00 2.478287e+00
3.973932e+01 1.826087e-01 -6.901895e-02 8.724551e-01 -2.985153e+00 2.478378e+00
3.922797e+01 1.869565e-01 -6.911496e-02 8.735342e-01 -3.020096e+00 2.470779e+00
4.079530e+01 1.565217e-01 -7.013040e-02 8.742129e-01 -2.988678e+00 2.479004e+00
3.919563e+01 1.913043e-01 -6.953404e-02 8.742498e-01 -3.016037e+00 2.465378e+00
4.001527e+01 1.739130e-01 -7.573537e-02 8.786758e-01 -3.227936e+00 2.443390e+00
4.456493e+01 1.913043e-01 -7.489465e-02 8.830558e-01 -3.213516e+00 2.501205e+00
4.028885e+01 1.956522e-01 -7.268267e-02 8.856547e-01 -3.135452e+00 2.501205e+00
4.062204e+01 1.652174e-01 -7.393177e-02 8.861643e-01 -3.044174e+00 2.473083e+00
3.931660e+01 1.739130e-01 -7.381742e-02 8.874090e-01 -3.053436e+00 2.501541e+00
4.035257e+01 1.826087e-01 -7.245518e-02 8.886139e-01 -2.975357e+00 2.490173e+00
3.898752e+01 1.826087e-01 -7.127114e-02 8.890259e-01 -2.986588e+00 2.511337e+00
3.945259e+01 1.695652e-01 -7.218217e-02 8.884549e-01 -2.983597e+00 2.511124e+00
4.023431e+01 1.652174e-01 -7.556784e-02 8.866729e-01 -2.959351e+00 2.487457e+00
4.013319e+01 1.782609e-01 -7.598740e-02 8.871013e-01 -2.985580e+00 2.502869e+00
4.049464e+01 1.782609e-01 -7.560167e-02 8.880964e-01 -2.985580e+00 2.507248e+00
3.907231e+01 1.913043e-01 -7.512766e-02 8.885134e-01 -3.003372e+00 2.495834e+00
4.095172e+01 1.782609e-01 -7.519222e-02 8.893635e-01 -2.971985e+00 2.527878e+00
3.963538e+01 1.826087e-01 -7.455655e-02 8.894632e-01 -2.954849e+00 2.527588e+00
4.029808e+01 1.739130e-01 -7.467382e-02 8.895316e-01 -2.953903e+00 2.531570e+00
3.985651e+01 1.782609e-01 -7.403285e-02 8.902503e-01 -2.946320e+00 2.530090e+00
4.091869e+01 1.739130e-01 -7.495369e-02 8.900006e-01 -2.970764e+00 2.552979e+00
4.015576e+01 1.913043e-01 -8.353955e-02 8.950644e-01 -2.958786e+00 2.634781e+00
3.993985e+01 1.913043e-01 -8.575984e-02 9.002667e-01 -2.896729e+00 2.682602e+00
4.174452e+01 1.956522e-01 -8.049105e-02 9.098886e-01 -3.030014e+00 2.720718e+00
4.208240e+01 1.913043e-01 -7.983605e-02 9.116188e-01 -3.056702e+00 2.734024e+00
4.002066e+01 1.869565e-01 -7.906451e-02 9.141583e-01 -3.091705e+00 2.734024e+00
3.899339e+01 1.782609e-01 -7.448890e-02 9.162474e-01 -3.063095e+00 2.715866e+00
4.067616e+01 1.956522e-01 -7.521886e-02 9.166432e-01 -3.023376e+00 2.738770e+00
3.937317e+01 1.826087e-01 -7.566171e-02 9.162432e-01 -3.018631e+00 2.731445e+00
3.893614e+01 1.913043e-01 -7.550046e-02 9.164906e-01 -3.021255e+00 2.699188e+00
3.961038e+01 1.826087e-01 -7.796792e-02 9.161760e-01 -3.018433e+00 2.691254e+00
4.173277e+01 1.782609e-01 -8.533630e-02 9.180102e-01 -3.013397e+00 2.694809e+00
4.077919e+01 1.826087e-01 -7.612024e-02 9.177980e-01 -2.973633e+00 2.699829e+00
3.997607e+01 1.695652e-01 -8.436681e-02 9.122081e-01 -2.997314e+00 2.662231e+00
4.120363e+01 1.695652e-01 -9.420151e-02 9.213936e-01 -3.087234e+00 2.625351e+00
4.018628e+01 1.782609e-01 -8.305542e-02 9.285829e-01 -3.135040e+00 2.692581e+00
3.987614e+01 1.782609e-01 -8.218567e-02 9.284990e-01 -3.101746e+00 2.692581e+00
4.174167e+01 1.739130e-01 -8.101277e-02 9.293823e-01 -3.089584e+00 2.683945e+00
4.084741e+01 1.695652e-01 -7.772897e-02 9.305640e-01 -3.108414e+00 2.689224e+00
4.118398e+01 1.913043e-01 -7.339152e-02 9.315702e-01 -3.093567e+00 2.682343e+00
4.056450e+01 2.043478e-01 -7.413341e-02 9.346207e-01 -3.198242e+00 2.699905e+00
4.092776e+01 1.782609e-01 -7.494052e-02 9.365833e-01 -3.189178e+00 2.701141e+00
4.111653e+01 1.739130e-01 -7.479178e-02 9.368519e-01 -3.170593e+00 2.701141e+00
4.083444e+01 1.608696e-01 -7.403048e-02 9.396743e-01 -3.075729e+00 2.704575e+00
4.081483e+01 1.652174e-01 -6.539507e-02 9.460915e-01 -3.038284e+00 2.734467e+00
4.007803e+01 1.869565e-01 -6.455640e-02 9.460781e-01 -3.041855e+00 2.745880e+00
4.045288e+01 1.739130e-01 -6.320303e-02 9.461572e-01 -3.040070e+00 2.747589e+00
4.052585e+01 1.695652e-01 -6.909835e-02 9.460385e-01 -3.073166e+00 2.673920e+00
4.091943e+01 1.826087e-01 -7.390891e-02 9.456852e-01 -3.165604e+00 2.694229e+00
4.117616e+01 1.782609e-01 -7.541973e-02 9.468599e-01 -3.122406e+00 2.689072e+00
4.051111e+01 1.695652e-01 -7.592966e-02 9.480523e-01 -3.115189e+00 2.707947e+00
4.088435e+01 1.695652e-01 -7.610251e-02 9.493484e-01 -3.094147e+00 2.722778e+00
4.012070e+01 2.043478e-01 -5.306768e-02 9.609738e-01 -3.213974e+00 2.841034e+00
4.140225e+01 1.782609e-01 -5.178290e-02 9.638100e-01 -3.134140e+00 2.806564e+00
3.997852e+01 1.956522e-01 -5.357916e-02 9.637309e-01 -3.160828e+00 2.798203e+00
3.997704e+01 1.913043e-01 -5.351106e-02 9.645549e-01 -3.160828e+00 2.851120e+00
3.977092e+01 2.000000e-01 -5.165342e-02 9.655265e-01 -3.137512e+00 2.873947e+00
4.027888e+01 1.956522e-01 -5.017468e-02 9.667578e-01 -3.140533e+00 2.874084e+00
4.063000e+01 1.652174e-01 -4.906721e-02 9.670946e-01 -3.142639e+00 2.873505e+00
3.943867e+01 2.043478e-01 -4.918583e-02 9.672068e-01 -3.162964e+00 2.859238e+00
3.916655e+01 1.956522e-01 -4.897651e-02 9.674909e-01 -3.170639e+00 2.868118e+00
3.954169e+01 2.043478e-01 -4.838807e-02 9.676510e-01 -3.171097e+00 2.876373e+00
3.961134e+01 2.086957e-01 -4.824178e-02 9.676777e-01 -3.171844e+00 2.876251e+00
3.972433e+01 2.000000e-01 -4.817693e-02 9.677714e-01 -3.192505e+00 2.882401e+00
4.135257e+01 1.652174e-01 -5.115610e-02 9.678909e-01 -3.177673e+00 2.845276e+00
3.987294e+01 1.956522e-01 -5.334193e-02 9.673175e-01 -3.193130e+00 2.863251e+00
3.988823e+01 2.043478e-01 -5.888692e-02 9.697285e-01 -3.337799e+00 2.898376e+00
4.168405e+01 1.565217e-01 -5.804683e-02 9.710522e-01 -3.259842e+00 2.855118e+00
4.193082e+01 1.565217e-01 -5.809232e-02 9.713073e-01 -3.258575e+00 2.859055e+00
3.987514e+01 1.913043e-01 -6.135117e-02 9.713903e-01 -3.334427e+00 2.875031e+00
3.985870e+01 1.956522e-01 -6.116996e-02 9.716178e-01 -3.337952e+00 2.877319e+00
3.991187e+01 1.869565e-01 -6.132657e-02 9.715607e-01 -3.338257e+00 2.877319e+00
4.043690e+01 1.913043e-01 -6.215973e-02 9.711631e-01 -3.327774e+00 2.886322e+00
3.988969e+01 1.956522e-01 -6.020768e-02 9.764441e-01 -3.362488e+00 3.004242e+00
4.034789e+01 1.956522e-01 -6.001056e-02 9.767700e-01 -3.333054e+00 2.996063e+00
4.008385e+01 1.913043e-01 -5.900658e-02 9.768297e-01 -3.316086e+00 2.996460e+00
3.998241e+01 1.913043e-01 -5.839213e-02 9.767055e-01 -3.317535e+00 3.019943e+00
4.031953e+01 1.869565e-01 -6.066314e-02 9.765835e-01 -3.317139e+00 3.000015e+00
4.016548e+01 2.000000e-01 -6.992150e-02 9.761719e-01 -3.403305e+00 2.974945e+00
3.985951e+01 2.000000e-01 -6.848884e-02 9.768922e-01 -3.391708e+00 2.991867e+00
4.060168e+01 2.086957e-01 -7.124719e-02 9.754037e-01 -3.360092e+00 2.993118e+00
3.983284e+01 2.000000e-01 -7.290492e-02 9.756818e-01 -3.375549e+00 2.990723e+00
3.995160e+01 1.956522e-01 -7.214285e-02 9.759997e-01 -3.375549e+00 3.009415e+00
4.060948e+01 1.739130e-01 -6.338926e-02 9.785025e-01 -3.197250e+00 2.938751e+00
4.025542e+01 1.826087e-01 -6.357280e-02 9.801100e-01 -3.197250e+00 2.929031e+00
4.017241e+01 1.869565e-01 -6.402127e-02 9.796922e-01 -3.191803e+00 2.926147e+00
4.056064e+01 1.695652e-01 -6.404158e-02 9.801836e-01 -3.190979e+00 2.943192e+00
4.115721e+01 1.652174e-01 -6.486992e-02 9.799173e-01 -3.167816e+00 2.932114e+00
4.039783e+01 1.826087e-01 -6.487968e-02 9.792598e-01 -3.184616e+00 2.950241e+00
4.028531e+01 1.826087e-01 -6.573260e-02 9.787998e-01 -3.177567e+00 2.945679e+00
4.112656e+01 1.739130e-01 -6.670539e-02 9.799714e-01 -3.168427e+00 2.938019e+00
3.941707e+01 1.782609e-01 -6.555697e-02 9.824267e-01 -3.163757e+00 2.957047e+00
3.920634e+01 1.782609e-01 -6.305577e-02 9.835075e-01 -3.154465e+00 2.956497e+00
3.899428e+01 1.869565e-01 -6.210228e-02 9.841192e-01 -3.154465e+00 2.956497e+00
3.910666e+01 1.826087e-01 -5.608564e-02 9.853382e-01 -3.142349e+00 2.949921e+00
3.944865e+01 1.826087e-01 -5.698367e-02 9.853411e-01 -3.144592e+00 2.945251e+00
