8.291842e+01 4.217391e-01 3.453040e-02 5.839348e-01 -9.999968e-01 9.998197e-01
7.251299e+01 4.217391e-01 3.101929e-02 5.834734e-01 -1.032387e+00 1.018569e+00
7.187315e+01 4.217391e-01 3.162564e-02 5.833938e-01 -1.028506e+00 1.021630e+00
7.369936e+01 5.652174e-01 3.312215e-02 5.842592e-01 -1.029905e+00 1.044591e+00
6.378756e+01 3.913043e-01 3.258699e-02 5.900397e-01 -1.431649e+00 1.343188e+00
5.886530e+01 2.260870e-01 3.319640e-02 8.442229e-01 -4.803205e+00 4.154199e+00
4.850824e+01 2.000000e-01 4.359221e-02 9.968308e-01 -5.332696e+00 4.706052e+00
4.515369e+01 2.086957e-01 4.368260e-02 9.948011e-01 -5.305461e+00 4.681725e+00
4.425044e+01 2.086957e-01 3.898860e-02 9.950214e-01 -5.228851e+00 4.594096e+00
4.537745e+01 2.217391e-01 3.744638e-02 9.967758e-01 -5.229320e+00 4.591689e+00
4.193789e+01 2.086957e-01 3.670459e-02 9.979943e-01 -5.222717e+00 4.579718e+00
4.285727e+01 2.217391e-01 3.693954e-02 9.981906e-01 -5.216356e+00 4.571285e+00
4.034013e+01 1.913043e-01 3.694321e-02 1.000078e+00 -5.203535e+00 4.554474e+00
4.151969e+01 1.956522e-01 3.352080e-02 1.003815e+00 -5.176385e+00 4.517428e+00
4.046900e+01 2.000000e-01 3.369521e-02 1.004589e+00 -5.170323e+00 4.509324e+00
4.088676e+01 1.913043e-01 3.370569e-02 1.005392e+00 -5.169042e+00 4.506930e+00
4.068611e+01 2.086957e-01 3.385277e-02 1.008183e+00 -5.169357e+00 4.506533e+00
4.097375e+01 2.086957e-01 3.444928e-02 1.008507e+00 -5.168330e+00 4.504810e+00
4.166311e+01 2.000000e-01 3.298756e-02 1.017858e+00 -5.155091e+00 4.486074e+00
4.127870e+01 1.913043e-01 3.273554e-02 1.020291e+00 -5.146432e+00 4.474255e+00
4.132975e+01 1.956522e-01 3.011783e-02 1.020971e+00 -5.144168e+00 4.471759e+00
4.427812e+01 2.173913e-01 2.770940e-02 1.024301e+00 -5.138741e+00 4.465784e+00
4.041847e+01 1.913043e-01 2.996353e-02 1.026065e+00 -5.133305e+00 4.459964e+00
4.027479e+01 1.869565e-01 3.449997e-02 1.029013e+00 -5.131544e+00 4.458679e+00
4.079801e+01 1.782609e-01 3.501048e-02 1.032357e+00 -5.129591e+00 4.458255e+00
4.199767e+01 1.869565e-01 3.409767e-02 1.034734e+00 -5.129617e+00 4.458326e+00
4.083430e+01 1.826087e-01 3.241750e-02 1.036433e+00 -5.129722e+00 4.458503e+00
4.007450e+01 1.826087e-01 3.212671e-02 1.037260e+00 -5.129001e+00 4.457838e+00
4.160956e+01 1.913043e-01 3.121790e-02 1.038686e+00 -5.129178e+00 4.458597e+00
4.055443e+01 1.869565e-01 3.006517e-02 1.039422e+00 -5.128918e+00 4.458382e+00
4.078004e+01 1.913043e-01 2.807286e-02 1.039788e+00 -5.128689e+00 4.458144e+00
4.154858e+01 1.869565e-01 2.980570e-02 1.045720e+00 -5.128307e+00 4.457859e+00
4.207512e+01 1.956522e-01 3.093461e-02 1.046926e+00 -5.127718e+00 4.457298e+00
4.377675e+01 1.913043e-01 2.953719e-02 1.047246e+00 -5.127610e+00 4.457233e+00
4.107303e+01 1.913043e-01 2.923194e-02 1.047586e+00 -5.127525e+00 4.457167e+00
4.105332e+01 1.869565e-01 2.914880e-02 1.047688e+00 -5.127320e+00 4.457001e+00
4.086477e+01 1.869565e-01 2.949180e-02 1.047518e+00 -5.126767e+00 4.456591e+00
4.068603e+01 1.869565e-01 3.002864e-02 1.047805e+00 -5.126733e+00 4.456571e+00
4.027712e+01 1.913043e-01 3.058274e-02 1.048577e+00 -5.126385e+00 4.456228e+00
4.107955e+01 1.913043e-01 2.925024e-02 1.049913e+00 -5.125932e+00 4.455809e+00
4.154788e+01 1.956522e-01 2.831964e-02 1.052225e+00 -5.125516e+00 4.455599e+00
4.064999e+01 1.956522e-01 2.850088e-02 1.052964e+00 -5.124988e+00 4.455389e+00
4.212135e+01 1.869565e-01 2.925964e-02 1.053353e+00 -5.124349e+00 4.454860e+00
4.108922e+01 1.913043e-01 2.776759e-02 1.053891e+00 -5.124252e+00 4.454882e+00
4.077761e+01 2.000000e-01 2.617139e-02 1.054753e+00 -5.124240e+00 4.455023e+00
4.149696e+01 1.913043e-01 2.664298e-02 1.055151e+00 -5.124240e+00 4.455023e+00
4.114832e+01 1.913043e-01 2.620514e-02 1.055788e+00 -5.124241e+00 4.455055e+00
4.077564e+01 1.869565e-01 2.623711e-02 1.055780e+00 -5.123961e+00 4.454818e+00
4.188618e+01 1.913043e-01 2.565092e-02 1.056054e+00 -5.123401e+00 4.454336e+00
4.106752e+01 1.913043e-01 2.477985e-02 1.056734e+00 -5.123348e+00 4.454334e+00
4.103414e+01 1.826087e-01 2.353791e-02 1.057174e+00 -5.123211e+00 4.454205e+00
4.210146e+01 1.869565e-01 2.553627e-02 1.057842e+00 -5.122996e+00 4.454043e+00
4.167149e+01 1.869565e-01 2.536931e-02 1.059525e+00 -5.122246e+00 4.453467e+00
4.191688e+01 2.130435e-01 2.333092e-02 1.061417e+00 -5.122076e+00 4.453308e+00
4.310122e+01 1.956522e-01 2.227194e-02 1.061885e+00 -5.121719e+00 4.452989e+00
4.223481e+01 2.000000e-01 2.198191e-02 1.062369e+00 -5.121309e+00 4.452616e+00
4.352220e+01 2.043478e-01 2.104753e-02 1.063410e+00 -5.120599e+00 4.452011e+00
4.307734e+01 2.000000e-01 2.082237e-02 1.064522e+00 -5.120456e+00 4.451889e+00
4.190064e+01 1.913043e-01 2.012443e-02 1.066089e+00 -5.119983e+00 4.451472e+00
4.424663e+01 2.043478e-01 1.985269e-02 1.066366e+00 -5.119763e+00 4.451294e+00
4.363438e+01 2.043478e-01 2.043291e-02 1.066443e+00 -5.119617e+00 4.451186e+00
4.246385e+01 2.000000e-01 2.093787e-02 1.066751e+00 -5.119532e+00 4.451168e+00
4.331300e+01 1.869565e-01 1.986310e-02 1.071836e+00 -5.119626e+00 4.451349e+00
4.134740e+01 1.913043e-01 1.918228e-02 1.072391e+00 -5.119236e+00 4.450962e+00
4.290335e+01 1.913043e-01 2.353262e-02 1.074013e+00 -5.118423e+00 4.450153e+00
4.286135e+01 1.956522e-01 2.284846e-02 1.075252e+00 -5.117806e+00 4.449602e+00
4.384692e+01 1.913043e-01 2.039622e-02 1.076622e+00 -5.117521e+00 4.449373e+00
4.335197e+01 1.956522e-01 2.078174e-02 1.077640e+00 -5.117526e+00 4.449406e+00
4.374644e+01 1.956522e-01 2.123784e-02 1.078685e+00 -5.116990e+00 4.448903e+00
4.388353e+01 1.913043e-01 1.981912e-02 1.079965e+00 -5.116457e+00 4.448407e+00
4.131079e+01 1.913043e-01 1.893279e-02 1.080885e+00 -5.116304e+00 4.448263e+00
4.123353e+01 1.913043e-01 1.708422e-02 1.081972e+00 -5.115991e+00 4.447989e+00
4.339800e+01 1.913043e-01 1.925045e-02 1.085885e+00 -5.115083e+00 4.447109e+00
4.402714e+01 1.869565e-01 2.083149e-02 1.089436e+00 -5.114234e+00 4.446375e+00
4.319825e+01 1.869565e-01 1.794233e-02 1.090237e+00 -5.114076e+00 4.446237e+00
4.164812e+01 1.869565e-01 1.647197e-02 1.090953e+00 -5.114083e+00 4.446250e+00
4.207880e+01 1.739130e-01 1.474696e-02 1.095494e+00 -5.113581e+00 4.445731e+00
4.059594e+01 1.956522e-01 1.423117e-02 1.097306e+00 -5.112694e+00 4.444860e+00
4.164924e+01 2.000000e-01 1.474034e-02 1.099315e+00 -5.111915e+00 4.444141e+00
4.187389e+01 1.826087e-01 1.617979e-02 1.100294e+00 -5.111972e+00 4.444192e+00
4.261411e+01 1.826087e-01 1.603521e-02 1.103284e+00 -5.111652e+00 4.443836e+00
4.393043e+01 1.956522e-01 1.581210e-02 1.103904e+00 -5.111592e+00 4.443782e+00
4.218874e+01 1.826087e-01 1.566813e-02 1.104425e+00 -5.111508e+00 4.443699e+00
4.221540e+01 1.826087e-01 1.394150e-02 1.105248e+00 -5.111406e+00 4.443593e+00
4.885769e+01 2.260870e-01 9.324729e-03 1.109623e+00 -5.111393e+00 4.443575e+00
5.403280e+01 2.347826e-01 6.893774e-03 1.114298e+00 -5.110080e+00 4.442174e+00
4.304910e+01 1.956522e-01 1.072189e-02 1.115153e+00 -5.109577e+00 4.441793e+00
4.216048e+01 1.869565e-01 1.230029e-02 1.116729e+00 -5.108310e+00 4.440487e+00
4.192607e+01 1.913043e-01 1.142149e-02 1.117374e+00 -5.107927e+00 4.440187e+00
4.209800e+01 1.826087e-01 1.057115e-02 1.118606e+00 -5.107811e+00 4.440047e+00
4.242073e+01 1.826087e-01 8.647413e-03 1.120393e+00 -5.107615e+00 4.439864e+00
4.613785e+01 2.173913e-01 8.995405e-03 1.120818e+00 -5.107369e+00 4.439614e+00
4.473512e+01 1.869565e-01 1.038933e-02 1.123088e+00 -5.107056e+00 4.439306e+00
4.466949e+01 1.956522e-01 1.473678e-02 1.130687e+00 -5.106725e+00 4.438977e+00
4.426847e+01 2.000000e-01 1.613095e-02 1.133247e+00 -5.106410e+00 4.438545e+00
4.372198e+01 1.956522e-01 1.451192e-02 1.133471e+00 -5.106338e+00 4.438462e+00
4.397062e+01 1.913043e-01 1.445386e-02 1.134138e+00 -5.106144e+00 4.438241e+00
4.331696e+01 1.956522e-01 1.050564e-02 1.135843e+00 -5.105749e+00 4.437783e+00
4.303775e+01 2.000000e-01 1.520203e-02 1.137594e+00 -5.105678e+00 4.437704e+00
4.349152e+01 2.000000e-01 1.468816e-02 1.138147e+00 -5.105067e+00 4.437033e+00
4.446023e+01 1.869565e-01 1.664932e-02 1.138827e+00 -5.104966e+00 4.436918e+00
4.423715e+01 1.869565e-01 1.479742e-02 1.139689e+00 -5.104857e+00 4.436804e+00
4.342995e+01 2.043478e-01 1.377650e-02 1.140573e+00 -5.104854e+00 4.436804e+00
4.389519e+01 1.956522e-01 1.235134e-02 1.141139e+00 -5.104771e+00 4.436694e+00
4.311735e+01 1.956522e-01 1.208371e-02 1.142219e+00 -5.104484e+00 4.436386e+00
4.380016e+01 1.956522e-01 1.149263e-02 1.143049e+00 -5.104494e+00 4.436389e+00
4.338677e+01 2.130435e-01 1.225795e-02 1.144710e+00 -5.104427e+00 4.436294e+00
4.418953e+01 1.869565e-01 1.140219e-02 1.145988e+00 -5.104264e+00 4.436126e+00
4.327890e+01 2.000000e-01 1.500328e-02 1.149142e+00 -5.103994e+00 4.435817e+00
4.323073e+01 1.782609e-01 1.617749e-02 1.152805e+00 -5.103315e+00 4.435055e+00
4.443700e+01 1.913043e-01 1.300062e-02 1.154640e+00 -5.103102e+00 4.434812e+00
4.389944e+01 1.913043e-01 1.199755e-02 1.155822e+00 -5.103116e+00 4.439221e+00
4.304691e+01 1.739130e-01 1.252815e-02 1.156288e+00 -5.103030e+00 4.434711e+00
4.254197e+01 1.956522e-01 1.161257e-02 1.156581e+00 -5.102916e+00 4.434584e+00
4.487678e+01 2.043478e-01 1.189350e-02 1.157077e+00 -5.102925e+00 4.443308e+00
4.517774e+01 1.956522e-01 1.293455e-02 1.158693e+00 -5.102802e+00 4.459715e+00
4.564453e+01 1.956522e-01 1.152843e-02 1.159774e+00 -5.102762e+00 4.449055e+00
4.333837e+01 2.086957e-01 1.050087e-02 1.160702e+00 -5.102212e+00 4.433787e+00
4.300797e+01 2.000000e-01 1.259499e-02 1.161206e+00 -5.102033e+00 4.433571e+00
4.515448e+01 1.956522e-01 1.285382e-02 1.163012e+00 -5.102003e+00 4.433540e+00
4.466149e+01 1.913043e-01 1.478097e-02 1.165114e+00 -5.101861e+00 4.433360e+00
4.526717e+01 2.000000e-01 1.290426e-02 1.165414e+00 -5.101930e+00 4.454943e+00
4.242951e+01 1.913043e-01 1.411317e-02 1.166346e+00 -5.101851e+00 4.452524e+00
4.237898e+01 1.913043e-01 1.423578e-02 1.167244e+00 -5.101800e+00 4.447437e+00
4.523068e+01 2.000000e-01 1.288451e-02 1.168416e+00 -5.101747e+00 4.477539e+00
4.461206e+01 1.956522e-01 1.174086e-02 1.169859e+00 -5.101479e+00 4.475060e+00
4.301852e+01 2.130435e-01 1.357185e-02 1.171815e+00 -5.101281e+00 4.473967e+00
4.758491e+01 2.043478e-01 1.328560e-02 1.173123e+00 -5.101030e+00 4.463612e+00
4.266284e+01 1.869565e-01 1.389874e-02 1.173618e+00 -5.100968e+00 4.463599e+00
4.566878e+01 1.956522e-01 1.069672e-02 1.173714e+00 -5.100674e+00 4.432002e+00
4.342943e+01 1.956522e-01 9.994882e-03 1.175103e+00 -5.100326e+00 4.431626e+00
4.526126e+01 1.913043e-01 1.140672e-02 1.178507e+00 -5.100321e+00 4.433151e+00
4.258008e+01 2.086957e-01 1.079236e-02 1.179543e+00 -5.100356e+00 4.474778e+00
4.531962e+01 2.217391e-01 1.813272e-02 1.181844e+00 -5.100305e+00 4.477548e+00
4.416368e+01 2.130435e-01 1.840402e-02 1.184091e+00 -5.099813e+00 4.463254e+00
4.461092e+01 1.869565e-01 1.617811e-02 1.185133e+00 -5.099917e+00 4.483031e+00
4.436120e+01 2.173913e-01 1.387189e-02 1.189686e+00 -5.100371e+00 4.498475e+00
4.264025e+01 2.043478e-01 1.405300e-02 1.192023e+00 -5.100385e+00 4.533289e+00
4.342074e+01 1.913043e-01 1.354213e-02 1.192986e+00 -5.100207e+00 4.534915e+00
4.330960e+01 2.086957e-01 1.246066e-02 1.193756e+00 -5.100215e+00 4.548701e+00
4.339797e+01 2.000000e-01 1.283074e-02 1.195088e+00 -5.100169e+00 4.553547e+00
4.374643e+01 1.956522e-01 1.414194e-02 1.196523e+00 -5.100008e+00 4.551959e+00
4.335434e+01 2.173913e-01 1.392778e-02 1.197495e+00 -5.099849e+00 4.564570e+00
4.329639e+01 2.391304e-01 1.384837e-02 1.199195e+00 -5.099589e+00 4.569229e+00
4.326058e+01 2.043478e-01 1.354639e-02 1.199978e+00 -5.099470e+00 4.573791e+00
4.499918e+01 1.956522e-01 1.364136e-02 1.200870e+00 -5.099342e+00 4.575457e+00
4.397018e+01 1.913043e-01 1.580942e-02 1.201819e+00 -5.099332e+00 4.587947e+00
4.342414e+01 2.217391e-01 1.444096e-02 1.203232e+00 -5.099198e+00 4.585056e+00
4.383738e+01 1.956522e-01 1.459173e-02 1.203929e+00 -5.099198e+00 4.585056e+00
4.386187e+01 2.173913e-01 1.573202e-02 1.205648e+00 -5.099040e+00 4.598406e+00
4.432490e+01 2.043478e-01 1.718070e-02 1.206751e+00 -5.098773e+00 4.589277e+00
4.446960e+01 2.043478e-01 1.608689e-02 1.208367e+00 -5.098777e+00 4.588006e+00
4.540090e+01 2.043478e-01 1.395165e-02 1.213615e+00 -5.098626e+00 4.592960e+00
4.564642e+01 2.130435e-01 1.771905e-02 1.221611e+00 -5.098415e+00 4.694984e+00
4.486569e+01 2.086957e-01 1.964781e-02 1.226154e+00 -5.098478e+00 4.697415e+00
4.603309e+01 1.956522e-01 1.921308e-02 1.226604e+00 -5.098482e+00 4.699386e+00
4.792226e+01 2.086957e-01 2.069844e-02 1.227805e+00 -5.098321e+00 4.695690e+00
4.751624e+01 2.000000e-01 1.920949e-02 1.229240e+00 -5.098243e+00 4.711348e+00
4.633846e+01 2.000000e-01 1.924233e-02 1.230452e+00 -5.098258e+00 4.718500e+00
4.484077e+01 2.304348e-01 1.999976e-02 1.231947e+00 -5.098174e+00 4.723804e+00
4.603992e+01 2.000000e-01 1.969336e-02 1.233972e+00 -5.098018e+00 4.728903e+00
4.387352e+01 2.086957e-01 1.968833e-02 1.236777e+00 -5.098090e+00 4.758003e+00
4.417643e+01 1.956522e-01 2.341842e-02 1.243043e+00 -5.098059e+00 4.754031e+00
4.413172e+01 1.869565e-01 1.827172e-02 1.248914e+00 -5.097587e+00 4.720021e+00
4.441718e+01 2.000000e-01 1.944988e-02 1.251695e+00 -5.097005e+00 4.716846e+00
4.417074e+01 1.913043e-01 1.949890e-02 1.252954e+00 -5.096885e+00 4.728635e+00
4.447539e+01 1.913043e-01 1.581137e-02 1.255031e+00 -5.096893e+00 4.743256e+00
4.714039e+01 2.043478e-01 1.623697e-02 1.255987e+00 -5.096873e+00 4.751435e+00
4.640569e+01 2.043478e-01 1.497551e-02 1.256821e+00 -5.096931e+00 4.761279e+00
4.566603e+01 2.000000e-01 1.556600e-02 1.258499e+00 -5.096824e+00 4.736426e+00
4.487559e+01 2.086957e-01 1.454762e-02 1.260064e+00 -5.096784e+00 4.735788e+00
4.580600e+01 1.956522e-01 1.472150e-02 1.261184e+00 -5.096782e+00 4.737613e+00
4.815680e+01 2.043478e-01 1.426956e-02 1.264940e+00 -5.096726e+00 4.752949e+00
4.704829e+01 2.086957e-01 1.434232e-02 1.267037e+00 -5.096457e+00 4.761026e+00
4.814148e+01 2.000000e-01 1.753323e-02 1.269166e+00 -5.096703e+00 4.801111e+00
4.712540e+01 2.173913e-01 1.692049e-02 1.270815e+00 -5.096773e+00 4.801111e+00
4.678823e+01 2.217391e-01 1.661554e-02 1.271590e+00 -5.096772e+00 4.802698e+00
4.760210e+01 2.217391e-01 1.920826e-02 1.274303e+00 -5.096405e+00 4.793637e+00
4.665622e+01 2.217391e-01 2.001639e-02 1.275679e+00 -5.096196e+00 4.781237e+00
4.683235e+01 2.130435e-01 1.708481e-02 1.277401e+00 -5.096164e+00 4.808597e+00
4.707298e+01 2.217391e-01 1.836062e-02 1.279711e+00 -5.096088e+00 4.780899e+00
4.677931e+01 2.130435e-01 1.777268e-02 1.280570e+00 -5.096071e+00 4.783876e+00
4.615216e+01 2.130435e-01 1.828632e-02 1.281355e+00 -5.096054e+00 4.789855e+00
4.609652e+01 2.086957e-01 1.838523e-02 1.282806e+00 -5.096124e+00 4.800354e+00
4.593839e+01 2.043478e-01 1.902506e-02 1.283443e+00 -5.096122e+00 4.800354e+00
4.622319e+01 2.086957e-01 1.956453e-02 1.284564e+00 -5.096122e+00 4.817195e+00
4.711222e+01 2.043478e-01 1.771944e-02 1.286520e+00 -5.095967e+00 4.829217e+00
4.796049e+01 2.173913e-01 1.649365e-02 1.288394e+00 -5.095820e+00 4.853030e+00
4.725252e+01 2.130435e-01 1.588604e-02 1.289413e+00 -5.095766e+00 4.851565e+00
4.765306e+01 2.000000e-01 1.736885e-02 1.289745e+00 -5.095776e+00 4.859741e+00
4.626400e+01 2.043478e-01 1.892862e-02 1.290415e+00 -5.095779e+00 4.839935e+00
4.607994e+01 1.956522e-01 1.959200e-02 1.291955e+00 -5.095710e+00 4.829899e+00
4.578341e+01 2.000000e-01 2.061123e-02 1.292993e+00 -5.095665e+00 4.834308e+00
4.603471e+01 2.130435e-01 2.069926e-02 1.294254e+00 -5.095724e+00 4.869618e+00
4.540150e+01 2.000000e-01 2.037320e-02 1.296063e+00 -5.095713e+00 4.871867e+00
4.561593e+01 2.000000e-01 2.114417e-02 1.297909e+00 -5.095776e+00 4.873529e+00
4.774245e+01 2.217391e-01 2.218513e-02 1.302107e+00 -5.096037e+00 4.925222e+00
4.727812e+01 2.130435e-01 2.025687e-02 1.304679e+00 -5.096068e+00 4.934473e+00
4.672711e+01 2.000000e-01 2.180256e-02 1.307104e+00 -5.095995e+00 4.935545e+00
4.694882e+01 2.130435e-01 1.906142e-02 1.308951e+00 -5.095931e+00 4.963572e+00
4.688337e+01 2.043478e-01 1.798767e-02 1.309787e+00 -5.095962e+00 4.974378e+00
4.663373e+01 2.130435e-01 2.029612e-02 1.311045e+00 -5.096033e+00 4.984324e+00
4.647600e+01 2.130435e-01 2.113951e-02 1.312191e+00 -5.096011e+00 4.996502e+00
4.710906e+01 2.086957e-01 2.112587e-02 1.313217e+00 -5.095953e+00 4.991150e+00
4.769471e+01 2.130435e-01 1.859497e-02 1.317562e+00 -5.095859e+00 4.980706e+00
4.797680e+01 2.086957e-01 2.193616e-02 1.319141e+00 -5.095723e+00 4.988650e+00
4.845366e+01 2.130435e-01 2.347407e-02 1.319949e+00 -5.095620e+00 4.998332e+00
4.740778e+01 2.000000e-01 2.306077e-02 1.321852e+00 -5.095482e+00 4.997291e+00
4.713073e+01 2.043478e-01 2.309355e-02 1.322756e+00 -5.095479e+00 4.997291e+00
4.719594e+01 2.086957e-01 2.305095e-02 1.324253e+00 -5.095496e+00 5.032663e+00
4.790610e+01 2.130435e-01 2.332925e-02 1.325991e+00 -5.095531e+00 5.041051e+00
4.818742e+01 2.217391e-01 2.176278e-02 1.327800e+00 -5.095589e+00 5.050840e+00
4.936628e+01 2.217391e-01 2.179412e-02 1.329189e+00 -5.095591e+00 5.055740e+00
4.831041e+01 1.956522e-01 2.312786e-02 1.330023e+00 -5.095551e+00 5.066744e+00
4.814284e+01 2.217391e-01 2.267487e-02 1.330967e+00 -5.095565e+00 5.070252e+00
5.158659e+01 2.260870e-01 2.234321e-02 1.333128e+00 -5.095486e+00 5.080191e+00
4.796205e+01 2.000000e-01 2.441848e-02 1.333885e+00 -5.095446e+00 5.089238e+00
4.797312e+01 2.086957e-01 2.427888e-02 1.334970e+00 -5.095451e+00 5.091059e+00
4.776613e+01 2.130435e-01 2.366384e-02 1.335499e+00 -5.095431e+00 5.096512e+00
4.831368e+01 2.086957e-01 2.329851e-02 1.336053e+00 -5.095455e+00 5.103173e+00
4.784136e+01 2.043478e-01 2.233874e-02 1.336942e+00 -5.095467e+00 5.112475e+00
4.853991e+01 2.130435e-01 2.182182e-02 1.337715e+00 -5.095467e+00 5.112429e+00
5.144016e+01 2.173913e-01 2.231509e-02 1.339617e+00 -5.095347e+00 5.110272e+00
4.886649e+01 2.260870e-01 2.209278e-02 1.340217e+00 -5.095386e+00 5.123704e+00
4.819369e+01 2.043478e-01 2.277239e-02 1.340906e+00 -5.095232e+00 5.125519e+00
4.819514e+01 2.217391e-01 2.384964e-02 1.341933e+00 -5.095211e+00 5.128448e+00
4.952340e+01 2.130435e-01 2.331227e-02 1.343132e+00 -5.095199e+00 5.127907e+00
4.912434e+01 1.956522e-01 2.204355e-02 1.344046e+00 -5.101649e+00 5.141504e+00
