-1.908438e-01 1.609127e+00 -5.826172e+00 5.283691e+00 -1.206637e-04 1.608207e-02 -1.718750e-01 2.001953e-01
-8.430123e-02 1.877651e+00 -6.128418e+00 5.511719e+00 4.590645e-04 1.688561e-02 -2.475586e-01 3.125000e-01
-1.103700e-01 1.918163e+00 -6.145996e+00 5.426514e+00 2.008384e-04 1.709901e-02 -2.475586e-01 3.125000e-01
-1.480561e-01 1.928962e+00 -6.145508e+00 5.493652e+00 3.872671e-05 1.732389e-02 -3.122559e-01 2.922363e-01
-2.326678e-01 2.000299e+00 -6.152344e+00 5.814941e+00 1.416175e-04 1.778180e-02 -3.122559e-01 3.474121e-01
-2.844214e-01 1.996757e+00 -6.144043e+00 5.508789e+00 2.000094e-04 1.828926e-02 -3.752441e-01 4.565430e-01
-3.179022e-01 2.001604e+00 -6.144775e+00 5.554199e+00 1.670410e-04 1.821776e-02 -3.967285e-01 4.963379e-01
-3.203931e-01 2.018154e+00 -6.144531e+00 5.620117e+00 1.311016e-04 1.829792e-02 -3.867188e-01 5.209961e-01
-3.281525e-01 2.026093e+00 -6.146240e+00 5.659668e+00 1.080577e-04 1.854752e-02 -3.867188e-01 5.136719e-01
-3.254598e-01 2.019616e+00 -6.144531e+00 5.591797e+00 1.502637e-04 1.766352e-02 -3.867188e-01 5.117188e-01
-3.244533e-01 2.017590e+00 -6.141357e+00 5.624268e+00 1.411926e-04 1.787821e-02 -3.867188e-01 3.869629e-01
-3.721355e-01 2.061142e+00 -6.139648e+00 5.618896e+00 4.224417e-05 1.855468e-02 -3.305664e-01 3.623047e-01
-4.318397e-01 2.048513e+00 -6.117188e+00 5.250488e+00 1.372259e-04 2.003390e-02 -3.620605e-01 5.351562e-01
-4.800735e-01 2.061296e+00 -6.197266e+00 5.355225e+00 1.187228e-04 2.100278e-02 -3.471680e-01 5.507812e-01
-5.072444e-01 2.060645e+00 -6.509766e+00 5.420166e+00 8.244863e-05 1.982904e-02 -3.471680e-01 5.725098e-01
-5.261566e-01 2.067874e+00 -6.660400e+00 5.383545e+00 2.173608e-05 1.848333e-02 -3.305664e-01 5.683594e-01
-5.273991e-01 2.066547e+00 -6.660400e+00 5.383545e+00 5.731477e-05 1.887299e-02 -3.305664e-01 5.683594e-01
-5.810002e-01 2.054625e+00 -7.000000e+00 5.090576e+00 -5.418930e-05 1.988202e-02 -3.471680e-01 5.939941e-01
-6.048545e-01 2.052258e+00 -6.922119e+00 4.989258e+00 -1.888760e-04 1.795158e-02 -3.620605e-01 3.754883e-01
-5.870524e-01 2.057035e+00 -6.956055e+00 5.166992e+00 -1.280316e-04 1.783532e-02 -3.620605e-01 3.754883e-01
-5.732024e-01 2.059477e+00 -6.802734e+00 5.213623e+00 -1.234301e-04 1.756782e-02 -3.620605e-01 3.754883e-01
-5.631986e-01 2.060073e+00 -6.792236e+00 5.214355e+00 1.854123e-06 1.823768e-02 -3.620605e-01 5.893555e-01
-5.613913e-01 2.080105e+00 -6.934570e+00 5.537842e+00 -3.648581e-05 1.758804e-02 -2.238770e-01 3.754883e-01
-5.416908e-01 2.056719e+00 -6.578369e+00 5.475586e+00 2.147452e-04 2.030184e-02 -3.752441e-01 6.372070e-01
-5.488756e-01 2.069671e+00 -6.869873e+00 5.584717e+00 2.537148e-05 1.780318e-02 -1.999512e-01 3.869629e-01
-5.744540e-01 2.060773e+00 -6.649902e+00 5.449707e+00 2.343237e-06 1.752819e-02 -2.238770e-01 3.869629e-01
-5.731261e-01 2.066741e+00 -6.834717e+00 5.420898e+00 2.743373e-05 1.767803e-02 -1.999512e-01 3.869629e-01
-5.748363e-01 2.085569e+00 -6.854980e+00 5.455811e+00 -1.910319e-05 1.749171e-02 -1.999512e-01 3.869629e-01
-5.703131e-01 2.096962e+00 -6.803467e+00 5.452881e+00 -6.098139e-05 1.772878e-02 -2.475586e-01 3.754883e-01
-5.639301e-01 2.089222e+00 -6.722168e+00 5.487305e+00 5.574510e-06 1.803575e-02 -2.475586e-01 5.961914e-01
-5.687226e-01 2.071042e+00 -6.768066e+00 5.386719e+00 3.225549e-05 1.734346e-02 -2.238770e-01 3.969727e-01
-5.597597e-01 2.080758e+00 -6.748291e+00 5.347900e+00 9.614555e-05 1.819605e-02 -2.475586e-01 6.433105e-01
-5.483549e-01 2.092439e+00 -6.754639e+00 5.467529e+00 1.222177e-04 1.807472e-02 -2.109375e-01 6.601562e-01
-5.556288e-01 2.097298e+00 -6.761230e+00 5.565918e+00 7.474075e-05 1.802439e-02 -1.999512e-01 4.111328e-01
-5.559961e-01 2.097036e+00 -6.620361e+00 5.450684e+00 1.690062e-04 1.865723e-02 -2.238770e-01 6.252441e-01
-5.697235e-01 2.105743e+00 -6.888916e+00 5.534668e+00 2.948038e-05 1.700888e-02 -2.238770e-01 3.969727e-01
-5.883594e-01 2.110995e+00 -7.067627e+00 5.406738e+00 -2.476962e-05 1.745388e-02 -2.475586e-01 3.869629e-01
-5.781242e-01 2.114999e+00 -7.034912e+00 5.529297e+00 7.662609e-05 1.763648e-02 -1.999512e-01 3.869629e-01
-6.139973e-01 2.097443e+00 -7.042969e+00 5.367188e+00 3.743281e-05 1.825184e-02 -1.999512e-01 3.969727e-01
-6.439196e-01 2.093544e+00 -7.050293e+00 4.940186e+00 -1.490930e-05 1.855243e-02 -2.238770e-01 3.869629e-01
-6.387530e-01 2.110610e+00 -7.230957e+00 5.148682e+00 -1.148030e-04 1.785302e-02 -2.238770e-01 3.869629e-01
-6.124556e-01 2.105038e+00 -7.223389e+00 5.053955e+00 1.442469e-04 2.013836e-02 -1.999512e-01 6.457520e-01
-6.068990e-01 2.103581e+00 -7.356934e+00 5.033691e+00 8.809598e-05 1.845669e-02 -1.999512e-01 6.606445e-01
-6.199246e-01 2.107391e+00 -7.126465e+00 4.773193e+00 1.082433e-04 1.849624e-02 -2.238770e-01 6.418457e-01
-6.301868e-01 2.106626e+00 -7.059326e+00 4.874268e+00 2.062603e-05 1.814301e-02 -2.238770e-01 6.489258e-01
-6.312397e-01 2.087697e+00 -7.017822e+00 4.662842e+00 2.427409e-04 2.102472e-02 -2.238770e-01 6.503906e-01
-6.262791e-01 2.120004e+00 -7.223877e+00 4.672852e+00 9.948783e-06 1.900210e-02 -2.475586e-01 6.286621e-01
-6.284459e-01 2.100799e+00 -7.183594e+00 4.847900e+00 7.010111e-05 2.014116e-02 -2.475586e-01 6.752930e-01
-6.206023e-01 2.089087e+00 -6.825928e+00 4.590088e+00 1.327372e-04 1.989007e-02 -2.475586e-01 6.611328e-01
-6.151455e-01 2.097048e+00 -7.151855e+00 4.793457e+00 9.684973e-05 1.890257e-02 -2.238770e-01 6.418457e-01
-6.235449e-01 2.135253e+00 -7.368652e+00 4.649170e+00 -4.915594e-05 1.930793e-02 -2.475586e-01 6.372070e-01
-6.149110e-01 2.132899e+00 -7.372559e+00 4.583740e+00 4.408442e-05 1.961821e-02 -2.238770e-01 6.411133e-01
-6.485199e-01 2.116622e+00 -7.362549e+00 4.507568e+00 8.757912e-05 2.035754e-02 -2.475586e-01 6.518555e-01
-6.602575e-01 2.130603e+00 -7.616211e+00 4.511719e+00 -1.297504e-04 1.722258e-02 -2.238770e-01 3.754883e-01
-6.594353e-01 2.126840e+00 -7.566406e+00 4.486572e+00 -6.616738e-05 1.817605e-02 -2.238770e-01 6.479492e-01
-6.660356e-01 2.103996e+00 -7.352783e+00 4.453369e+00 -1.413053e-05 1.909083e-02 -2.475586e-01 6.520996e-01
-6.793371e-01 2.093630e+00 -7.377686e+00 4.337158e+00 7.286061e-05 1.983911e-02 -2.475586e-01 6.574707e-01
-6.562766e-01 2.115892e+00 -7.400391e+00 4.381836e+00 4.733824e-05 1.865734e-02 -2.475586e-01 6.425781e-01
-6.597608e-01 2.113229e+00 -7.282959e+00 4.367920e+00 4.355367e-05 1.913791e-02 -2.475586e-01 6.616211e-01
-6.719002e-01 2.126580e+00 -7.644043e+00 4.573242e+00 -2.642949e-05 1.903996e-02 -2.475586e-01 6.623535e-01
-6.628916e-01 2.122461e+00 -7.644043e+00 4.392334e+00 -2.362316e-05 1.856605e-02 -2.475586e-01 6.574707e-01
-6.620114e-01 2.101172e+00 -7.459717e+00 4.355957e+00 1.130460e-04 1.892662e-02 -2.238770e-01 6.699219e-01
-6.882528e-01 2.103375e+00 -7.430420e+00 4.377197e+00 -7.648907e-07 1.918697e-02 -2.475586e-01 6.691895e-01
-7.183709e-01 2.121319e+00 -7.961426e+00 4.379150e+00 -9.253617e-05 1.861627e-02 -2.475586e-01 6.662598e-01
-6.919555e-01 2.087942e+00 -7.539062e+00 4.452637e+00 1.387557e-06 1.760365e-02 -2.238770e-01 6.679688e-01
-7.059364e-01 2.076529e+00 -7.556885e+00 4.386719e+00 -4.863387e-05 1.691162e-02 -2.238770e-01 3.969727e-01
-7.295162e-01 2.090841e+00 -7.844238e+00 4.581055e+00 -9.811588e-05 1.783082e-02 -2.475586e-01 3.869629e-01
-7.083159e-01 2.090386e+00 -7.757080e+00 4.610107e+00 -2.660120e-05 1.744410e-02 -2.238770e-01 3.869629e-01
-7.356505e-01 2.088731e+00 -7.724365e+00 4.409424e+00 -1.358453e-04 1.709239e-02 -2.475586e-01 3.869629e-01
-7.375658e-01 2.080292e+00 -7.704834e+00 4.427246e+00 -2.047288e-04 1.652207e-02 -2.475586e-01 3.754883e-01
-6.907141e-01 2.066768e+00 -7.360596e+00 4.614502e+00 8.637888e-05 1.808638e-02 -2.475586e-01 6.647949e-01
-7.018551e-01 2.067706e+00 -7.500732e+00 4.480225e+00 1.263717e-05 1.728707e-02 -2.238770e-01 3.869629e-01
-7.141691e-01 2.078771e+00 -7.710938e+00 4.505127e+00 -9.620799e-05 1.711316e-02 -2.475586e-01 3.869629e-01
-7.219916e-01 2.082098e+00 -7.646973e+00 4.441650e+00 -1.846422e-04 1.665293e-02 -2.475586e-01 3.754883e-01
-7.197278e-01 2.089100e+00 -7.772217e+00 4.452881e+00 -1.200532e-04 1.671593e-02 -2.475586e-01 3.869629e-01
-6.844567e-01 2.068689e+00 -7.602051e+00 4.467285e+00 1.171792e-04 1.771879e-02 -2.238770e-01 6.896973e-01
-6.956758e-01 2.086748e+00 -7.508057e+00 4.634766e+00 4.727059e-05 1.808418e-02 -2.475586e-01 6.789551e-01
-7.475972e-01 2.112519e+00 -7.983154e+00 4.514893e+00 -2.375636e-04 1.724638e-02 -2.475586e-01 6.223145e-01
-7.251157e-01 2.109775e+00 -7.806885e+00 4.527100e+00 -1.524127e-04 1.646989e-02 -2.705078e-01 3.869629e-01
-7.324330e-01 2.103010e+00 -7.779785e+00 4.497803e+00 -1.405075e-04 1.650349e-02 -2.475586e-01 3.754883e-01
-6.480098e-01 2.089447e+00 -7.725586e+00 4.980713e+00 1.876428e-04 1.895210e-02 -2.238770e-01 4.465332e-01
-5.525541e-01 2.087499e+00 -7.024170e+00 5.407227e+00 5.121906e-04 2.176861e-02 -2.238770e-01 6.755371e-01
-6.687282e-01 2.073204e+00 -7.773926e+00 4.944824e+00 2.294308e-04 1.862873e-02 -2.238770e-01 4.125977e-01
-6.695863e-01 2.110163e+00 -7.942139e+00 5.088379e+00 1.021814e-04 1.766512e-02 -2.475586e-01 3.969727e-01
-6.486838e-01 2.133532e+00 -8.022461e+00 5.190918e+00 9.467300e-05 1.738413e-02 -2.475586e-01 4.055176e-01
-6.415446e-01 2.150845e+00 -7.785645e+00 5.056152e+00 4.042421e-04 1.981278e-02 -2.705078e-01 6.953125e-01
-6.899344e-01 2.164766e+00 -7.723877e+00 4.883057e+00 2.019658e-04 1.861365e-02 -2.475586e-01 6.748047e-01
-7.001687e-01 2.149073e+00 -7.961182e+00 4.837646e+00 1.199491e-04 1.800583e-02 -2.475586e-01 4.055176e-01
-7.052290e-01 2.148262e+00 -7.859131e+00 4.852295e+00 8.025802e-05 1.761014e-02 -2.475586e-01 3.969727e-01
-7.065171e-01 2.145461e+00 -7.816650e+00 4.857178e+00 1.350925e-04 1.784718e-02 -2.238770e-01 4.055176e-01
-7.004875e-01 2.151307e+00 -7.765869e+00 4.878662e+00 1.566742e-04 1.789324e-02 -2.475586e-01 6.936035e-01
-7.189231e-01 2.151016e+00 -8.068604e+00 4.812012e+00 3.069449e-05 1.690329e-02 -2.238770e-01 3.869629e-01
-7.307430e-01 2.160945e+00 -8.068604e+00 4.812012e+00 -3.385639e-05 1.693388e-02 -2.475586e-01 3.869629e-01
-7.294739e-01 2.147105e+00 -7.822754e+00 4.750244e+00 2.310976e-05 1.724780e-02 -2.475586e-01 3.969727e-01
-7.340986e-01 2.145972e+00 -7.791260e+00 4.761230e+00 -3.787857e-05 1.696871e-02 -2.475586e-01 3.969727e-01
-7.534623e-01 2.150009e+00 -8.055908e+00 4.717041e+00 -1.577184e-04 1.685317e-02 -2.705078e-01 3.869629e-01
-7.406991e-01 2.138338e+00 -8.010742e+00 4.698730e+00 -3.944824e-05 1.720911e-02 -2.475586e-01 3.969727e-01
-7.328149e-01 2.143119e+00 -8.028809e+00 4.786865e+00 -9.749148e-05 1.685066e-02 -2.475586e-01 3.969727e-01
-7.265729e-01 2.148983e+00 -8.021729e+00 4.842285e+00 -4.269859e-05 1.755455e-02 -2.705078e-01 6.386719e-01
-7.075239e-01 2.150333e+00 -8.047363e+00 4.833008e+00 3.175771e-05 1.747401e-02 -2.475586e-01 4.055176e-01
-7.046612e-01 2.144948e+00 -7.946777e+00 4.883301e+00 5.530281e-05 1.832097e-02 -2.705078e-01 6.406250e-01
-7.121861e-01 2.151682e+00 -8.084961e+00 4.722168e+00 6.386924e-05 1.841837e-02 -2.475586e-01 6.406250e-01
-7.133224e-01 2.142414e+00 -8.102051e+00 4.680908e+00 6.674148e-05 1.844668e-02 -2.475586e-01 6.386719e-01
-5.908148e-01 2.195226e+00 -7.920410e+00 5.400146e+00 3.234083e-04 1.889127e-02 -2.717285e-01 4.125977e-01
-6.189936e-01 2.165935e+00 -7.862793e+00 5.304688e+00 1.674209e-04 1.773368e-02 -2.592773e-01 3.969727e-01
-6.635942e-01 2.159587e+00 -7.983643e+00 5.085693e+00 9.804303e-05 1.849804e-02 -2.561035e-01 6.308594e-01
-6.721708e-01 2.138393e+00 -7.841309e+00 4.881104e+00 1.758520e-04 1.949149e-02 -2.238770e-01 6.623535e-01
-6.956783e-01 2.158769e+00 -7.999268e+00 4.826904e+00 5.028333e-05 1.833579e-02 -2.238770e-01 6.196289e-01
-7.027194e-01 2.155161e+00 -8.059570e+00 4.860107e+00 8.338349e-05 1.850718e-02 -2.238770e-01 6.293945e-01
-7.068656e-01 2.172386e+00 -8.283203e+00 4.759766e+00 1.847185e-05 1.805207e-02 -2.475586e-01 6.311035e-01
-7.057158e-01 2.174612e+00 -8.230469e+00 4.785889e+00 -5.461424e-05 1.735270e-02 -2.238770e-01 6.157227e-01
-7.189201e-01 2.181994e+00 -8.377686e+00 4.775391e+00 -9.340165e-05 1.690474e-02 -2.475586e-01 3.869629e-01
-7.311799e-01 2.204619e+00 -8.828613e+00 4.881592e+00 -8.241914e-05 1.681224e-02 -2.238770e-01 3.869629e-01
-7.196486e-01 2.198838e+00 -8.680176e+00 4.793213e+00 -4.015763e-05 1.659851e-02 -2.475586e-01 3.969727e-01
-6.915375e-01 2.183216e+00 -8.374023e+00 4.858887e+00 9.370345e-05 1.727408e-02 -2.238770e-01 6.228027e-01
-7.048897e-01 2.198614e+00 -8.546631e+00 5.005371e+00 1.817526e-05 1.703890e-02 -2.475586e-01 4.125977e-01
-7.109456e-01 2.208912e+00 -8.498291e+00 4.879395e+00 -6.419705e-05 1.632183e-02 -2.238770e-01 3.969727e-01
-7.256080e-01 2.207362e+00 -8.526611e+00 4.822266e+00 -4.110984e-05 1.674593e-02 -2.238770e-01 3.969727e-01
-7.268595e-01 2.195804e+00 -8.388916e+00 4.797607e+00 -2.057573e-05 1.687967e-02 -2.238770e-01 3.969727e-01
-7.286741e-01 2.217056e+00 -8.527832e+00 4.865967e+00 -7.638847e-05 1.613911e-02 -2.475586e-01 3.969727e-01
-7.306638e-01 2.212454e+00 -8.356689e+00 4.878906e+00 -6.214694e-05 1.716031e-02 -2.919922e-01 3.969727e-01
-7.180887e-01 2.214710e+00 -8.271240e+00 4.838623e+00 -6.792091e-06 1.697798e-02 -2.238770e-01 6.210938e-01
-7.140961e-01 2.205309e+00 -8.300781e+00 4.796875e+00 4.165966e-05 1.719660e-02 -2.238770e-01 6.374512e-01
-7.273961e-01 2.207164e+00 -8.370605e+00 4.820068e+00 -1.745026e-05 1.706498e-02 -2.238770e-01 6.247559e-01
-7.418023e-01 2.201440e+00 -8.323975e+00 4.799805e+00 -1.122620e-04 1.673301e-02 -2.475586e-01 3.969727e-01
-7.328289e-01 2.215100e+00 -8.340576e+00 4.818604e+00 -8.674832e-05 1.727701e-02 -2.475586e-01 6.213379e-01
-7.201320e-01 2.219670e+00 -8.215088e+00 4.877441e+00 -3.364132e-05 1.747463e-02 -2.475586e-01 6.198730e-01
-8.426834e-01 2.243425e+00 -9.247070e+00 4.765381e+00 -3.597536e-04 1.771477e-02 -2.475586e-01 6.269531e-01
-8.038468e-01 2.247381e+00 -9.144531e+00 4.828125e+00 -1.746362e-04 1.645120e-02 -2.475586e-01 4.055176e-01
-7.550137e-01 2.236155e+00 -8.623047e+00 5.045898e+00 1.754913e-05 1.699586e-02 -2.238770e-01 3.969727e-01
-7.591533e-01 2.249657e+00 -8.588379e+00 4.837891e+00 -1.073466e-04 1.664301e-02 -2.475586e-01 3.969727e-01
-7.447826e-01 2.254906e+00 -8.607422e+00 5.135498e+00 -2.699318e-05 1.706751e-02 -2.238770e-01 4.055176e-01
-7.491264e-01 2.260954e+00 -8.607422e+00 5.111816e+00 -2.337339e-05 1.715690e-02 -2.238770e-01 6.379395e-01
-7.488003e-01 2.259140e+00 -8.608154e+00 5.191650e+00 1.025058e-05 1.789593e-02 -2.238770e-01 6.379395e-01
-7.487113e-01 2.241031e+00 -8.523193e+00 4.908936e+00 -1.558053e-05 1.680661e-02 -2.475586e-01 4.055176e-01
-7.352534e-01 2.238015e+00 -8.418945e+00 4.929688e+00 -1.413400e-05 1.697346e-02 -2.475586e-01 4.055176e-01
-7.170169e-01 2.236666e+00 -8.388916e+00 5.355713e+00 1.623043e-04 1.826643e-02 -2.038574e-01 4.147949e-01
-6.950652e-01 2.258568e+00 -8.881592e+00 5.151611e+00 2.076722e-04 1.780827e-02 -2.238770e-01 4.125977e-01
-7.235049e-01 2.230048e+00 -8.788574e+00 5.176514e+00 1.305552e-04 1.720820e-02 -1.999512e-01 4.055176e-01
-7.549934e-01 2.256366e+00 -8.709961e+00 5.224121e+00 -1.176804e-04 1.647186e-02 -2.475586e-01 3.969727e-01
-7.585665e-01 2.261247e+00 -8.662354e+00 5.224121e+00 -1.357083e-04 1.625868e-02 -2.475586e-01 3.969727e-01
-7.779888e-01 2.260844e+00 -8.704834e+00 5.127197e+00 -1.296429e-04 1.726777e-02 -2.238770e-01 6.472168e-01
-7.362403e-01 2.248560e+00 -8.493408e+00 4.954102e+00 4.189728e-05 1.654380e-02 -2.238770e-01 4.189453e-01
-7.202784e-01 2.262303e+00 -8.439453e+00 5.201172e+00 -1.904595e-05 1.671245e-02 -2.705078e-01 3.969727e-01
-7.099986e-01 2.250134e+00 -8.367676e+00 5.145020e+00 7.464882e-05 1.630022e-02 -2.001953e-01 4.055176e-01
-7.143122e-01 2.256460e+00 -8.430420e+00 5.195068e+00 7.439559e-05 1.638755e-02 -2.238770e-01 4.055176e-01
-7.322334e-01 2.253618e+00 -8.410645e+00 5.087646e+00 3.544687e-05 1.760774e-02 -2.238770e-01 6.074219e-01
-7.263467e-01 2.278871e+00 -8.615723e+00 5.294678e+00 2.615892e-05 1.625973e-02 -2.238770e-01 3.969727e-01
-7.246130e-01 2.286954e+00 -8.661377e+00 5.402344e+00 4.701563e-05 1.632017e-02 -1.999512e-01 3.969727e-01
-7.343096e-01 2.276494e+00 -8.573242e+00 5.178467e+00 5.878905e-05 1.651245e-02 -2.238770e-01 3.969727e-01
-7.335213e-01 2.290391e+00 -8.715088e+00 5.311035e+00 3.576601e-05 1.637653e-02 -1.999512e-01 3.969727e-01
-7.992441e-01 2.278188e+00 -8.839600e+00 5.010254e+00 -1.690356e-04 1.784973e-02 -2.475586e-01 6.445312e-01
-7.516896e-01 2.269776e+00 -8.606445e+00 5.250488e+00 -6.538862e-06 1.752854e-02 -2.238770e-01 6.076660e-01
-7.433388e-01 2.281720e+00 -8.680176e+00 5.440918e+00 4.942998e-05 1.742374e-02 -2.238770e-01 6.445312e-01
-7.480600e-01 2.280153e+00 -8.680176e+00 5.369141e+00 -9.537719e-06 1.703588e-02 -1.999512e-01 6.530762e-01
-7.523689e-01 2.284285e+00 -8.612061e+00 5.405762e+00 -1.787347e-05 1.723884e-02 -2.238770e-01 6.442871e-01
-7.692859e-01 2.297056e+00 -8.703125e+00 5.284180e+00 -1.508673e-04 1.634911e-02 -2.475586e-01 3.969727e-01
-7.751009e-01 2.307096e+00 -8.980225e+00 5.369385e+00 -9.812628e-05 1.849729e-02 -2.919922e-01 6.616211e-01
-7.734616e-01 2.289992e+00 -8.779053e+00 5.223633e+00 -3.498031e-05 1.676239e-02 -2.238770e-01 4.055176e-01
-7.678857e-01 2.297747e+00 -8.701904e+00 5.258789e+00 -1.882394e-05 1.735709e-02 -2.475586e-01 6.547852e-01
-8.106547e-01 2.327022e+00 -8.798828e+00 5.086914e+00 -3.444610e-06 1.809080e-02 -2.238770e-01 6.633301e-01
-7.929560e-01 2.345665e+00 -8.903320e+00 5.586426e+00 1.660212e-05 1.702933e-02 -2.475586e-01 6.821289e-01
-7.907621e-01 2.350000e+00 -8.977051e+00 5.537354e+00 -1.078825e-06 1.694584e-02 -2.238770e-01 6.816406e-01
-7.859679e-01 2.348443e+00 -8.926514e+00 5.537354e+00 2.196676e-05 1.691125e-02 -2.238770e-01 6.816406e-01
-7.966574e-01 2.309100e+00 -8.734619e+00 5.361328e+00 1.136530e-04 1.845206e-02 -2.238770e-01 4.240723e-01
-7.967460e-01 2.337847e+00 -8.866943e+00 5.423096e+00 -3.401249e-06 1.731444e-02 -2.475586e-01 7.019043e-01
-7.984076e-01 2.354128e+00 -9.016113e+00 5.535156e+00 -5.648397e-05 1.634258e-02 -2.238770e-01 4.130859e-01
-8.023046e-01 2.365196e+00 -8.942871e+00 5.479492e+00 -6.953741e-05 1.720092e-02 -2.705078e-01 6.669922e-01
-8.046288e-01 2.357008e+00 -8.885742e+00 5.527832e+00 -9.433479e-05 1.672600e-02 -2.705078e-01 4.145508e-01
-7.855111e-01 2.357988e+00 -8.866211e+00 5.499512e+00 2.778062e-05 1.688516e-02 -2.475586e-01 4.118652e-01
-8.174806e-01 2.377472e+00 -9.098877e+00 5.256592e+00 2.832350e-05 1.705597e-02 -2.475586e-01 4.125977e-01
-8.711505e-01 2.397601e+00 -9.373535e+00 5.428711e+00 -5.537739e-05 1.721307e-02 -2.475586e-01 4.055176e-01
-8.418355e-01 2.393840e+00 -9.286865e+00 5.457275e+00 3.937193e-06 1.692702e-02 -2.475586e-01 4.125977e-01
-8.217663e-01 2.398122e+00 -9.187988e+00 5.791748e+00 1.136929e-05 1.700256e-02 -2.475586e-01 4.125977e-01
-8.231372e-01 2.404732e+00 -9.112793e+00 5.791748e+00 -2.551370e-06 1.669777e-02 -2.475586e-01 4.125977e-01
-8.237947e-01 2.405430e+00 -9.112793e+00 5.791748e+00 -1.332748e-05 1.694709e-02 -2.705078e-01 4.125977e-01
-8.432878e-01 2.401693e+00 -9.016357e+00 5.498291e+00 -1.437127e-04 1.802091e-02 -3.122559e-01 4.125977e-01
-8.517747e-01 2.416149e+00 -9.072754e+00 5.472656e+00 -2.109693e-04 1.759316e-02 -3.122559e-01 3.969727e-01
-8.161390e-01 2.421820e+00 -9.121094e+00 5.722168e+00 -1.289908e-04 1.712624e-02 -2.919922e-01 4.055176e-01
-8.011750e-01 2.395515e+00 -8.936768e+00 5.732910e+00 1.728722e-05 1.771614e-02 -2.705078e-01 7.092285e-01
-7.913975e-01 2.392085e+00 -8.989258e+00 5.841553e+00 3.980380e-05 1.675511e-02 -2.705078e-01 4.003906e-01
-8.482481e-01 2.376648e+00 -8.997314e+00 5.577393e+00 -2.720652e-05 1.721183e-02 -2.705078e-01 3.969727e-01
-8.519753e-01 2.391089e+00 -9.162598e+00 5.804932e+00 -6.472259e-05 1.706409e-02 -2.475586e-01 3.969727e-01
-8.196608e-01 2.395802e+00 -8.986572e+00 5.915771e+00 -2.235701e-06 1.719791e-02 -2.705078e-01 4.125977e-01
-8.362360e-01 2.398589e+00 -9.069824e+00 5.841553e+00 1.180499e-04 1.825977e-02 -2.705078e-01 6.279297e-01
-8.632314e-01 2.407053e+00 -9.069824e+00 5.841553e+00 -2.354857e-05 1.688998e-02 -2.475586e-01 4.189453e-01
-8.565514e-01 2.413912e+00 -9.117432e+00 5.836670e+00 -1.243598e-05 1.711708e-02 -2.475586e-01 4.189453e-01
-8.840202e-01 2.432082e+00 -9.328613e+00 5.865967e+00 -1.288711e-04 1.676123e-02 -2.475586e-01 4.125977e-01
-8.891285e-01 2.435933e+00 -9.328613e+00 5.865967e+00 -1.195744e-04 1.656880e-02 -2.919922e-01 3.754883e-01
-8.797490e-01 2.421569e+00 -9.275146e+00 5.817627e+00 -3.899208e-05 1.650819e-02 -2.475586e-01 3.969727e-01
-8.918358e-01 2.440691e+00 -9.261719e+00 6.093750e+00 3.883425e-06 1.698203e-02 -2.475586e-01 4.125977e-01
-8.928871e-01 2.438001e+00 -9.235352e+00 5.924561e+00 5.836584e-05 1.712107e-02 -2.475586e-01 4.189453e-01
-8.928468e-01 2.431950e+00 -9.088867e+00 5.868896e+00 4.951843e-06 1.698005e-02 -2.705078e-01 3.969727e-01
-9.115931e-01 2.440476e+00 -9.192871e+00 5.991943e+00 -3.133797e-05 1.665983e-02 -2.705078e-01 4.055176e-01
-9.142238e-01 2.433793e+00 -9.410400e+00 5.991943e+00 -6.100220e-05 1.643767e-02 -2.475586e-01 3.969727e-01
-9.151846e-01 2.437560e+00 -9.228516e+00 5.878174e+00 -4.866509e-05 1.658938e-02 -2.475586e-01 3.977051e-01
-9.258842e-01 2.451932e+00 -9.316162e+00 5.915527e+00 -1.134709e-04 1.633520e-02 -2.705078e-01 3.869629e-01
-9.062628e-01 2.451840e+00 -9.316162e+00 5.945801e+00 -7.806915e-05 1.666020e-02 -2.705078e-01 4.089355e-01
-9.095025e-01 2.431534e+00 -9.124756e+00 5.808594e+00 6.830075e-05 1.699468e-02 -2.705078e-01 3.969727e-01
-9.210900e-01 2.445309e+00 -9.326660e+00 5.895752e+00 -4.257545e-05 1.687984e-02 -2.475586e-01 4.067383e-01
-9.145643e-01 2.462633e+00 -9.324463e+00 6.314941e+00 1.135785e-04 1.780560e-02 -2.705078e-01 4.111328e-01
-9.328993e-01 2.441145e+00 -9.436279e+00 6.038818e+00 3.352684e-06 1.678589e-02 -2.475586e-01 3.969727e-01
-9.237968e-01 2.454470e+00 -9.433105e+00 6.345459e+00 1.432479e-05 1.632444e-02 -2.705078e-01 4.055176e-01
-9.347103e-01 2.456426e+00 -9.536377e+00 6.254150e+00 1.737048e-05 1.678523e-02 -2.705078e-01 3.969727e-01
-9.342464e-01 2.448541e+00 -9.536377e+00 6.112061e+00 2.873110e-05 1.704706e-02 -2.475586e-01 4.189453e-01
-9.636262e-01 2.496290e+00 -9.580078e+00 6.407227e+00 -1.780790e-04 1.692581e-02 -2.919922e-01 4.030762e-01
-9.338964e-01 2.460248e+00 -9.396729e+00 6.237549e+00 1.059989e-04 1.716115e-02 -2.475586e-01 4.189453e-01
-9.445064e-01 2.452316e+00 -9.497803e+00 6.154785e+00 1.401086e-05 1.732290e-02 -2.475586e-01 3.879395e-01
-9.247390e-01 2.458554e+00 -9.585938e+00 6.174072e+00 1.069980e-04 1.660683e-02 -2.475586e-01 3.869629e-01
-9.468248e-01 2.472945e+00 -9.816895e+00 6.195557e+00 2.101281e-05 1.732907e-02 -2.705078e-01 3.869629e-01
-9.498183e-01 2.464099e+00 -9.738525e+00 6.091797e+00 1.080941e-04 1.750397e-02 -2.238770e-01 4.189453e-01
-9.506248e-01 2.487181e+00 -9.776611e+00 6.297607e+00 -3.607127e-05 1.612014e-02 -2.475586e-01 3.754883e-01
-9.480718e-01 2.482704e+00 -9.694336e+00 6.296631e+00 4.351378e-05 1.688154e-02 -2.238770e-01 4.125977e-01
-9.634336e-01 2.488250e+00 -9.801514e+00 6.255371e+00 -2.463607e-05 1.619027e-02 -2.475586e-01 3.869629e-01
-9.655648e-01 2.471361e+00 -9.710693e+00 6.170898e+00 2.817261e-05 1.670262e-02 -2.475586e-01 3.969727e-01
-9.884827e-01 2.473516e+00 -9.691162e+00 6.069336e+00 -1.772933e-04 1.630837e-02 -2.705078e-01 3.837891e-01
-9.727887e-01 2.487864e+00 -9.722656e+00 6.291992e+00 -1.094262e-05 1.658119e-02 -2.705078e-01 4.125977e-01
-9.760788e-01 2.491596e+00 -9.819092e+00 6.299805e+00 -8.788438e-06 1.604241e-02 -2.475586e-01 3.869629e-01
-9.840831e-01 2.498040e+00 -9.904541e+00 6.522217e+00 4.371845e-05 1.747668e-02 -2.238770e-01 7.033691e-01
-1.020132e+00 2.527987e+00 -1.013110e+01 6.323242e+00 3.225723e-05 1.772523e-02 -2.705078e-01 7.016602e-01
-1.014825e+00 2.524453e+00 -9.933594e+00 6.448242e+00 1.214979e-05 1.613171e-02 -2.705078e-01 3.869629e-01
-1.070982e+00 2.538737e+00 -9.843750e+00 6.636963e+00 -1.441706e-04 1.734961e-02 -2.475586e-01 6.972656e-01
-1.054880e+00 2.522606e+00 -9.690674e+00 6.636963e+00 -5.914981e-05 1.606510e-02 -2.238770e-01 7.045898e-01
-1.044161e+00 2.516595e+00 -9.690674e+00 6.639648e+00 3.184443e-05 1.621469e-02 -2.705078e-01 7.128906e-01
-1.044161e+00 2.516595e+00 -9.690674e+00 6.639648e+00 3.184443e-05 1.621469e-02 -2.705078e-01 7.128906e-01
-1.048475e+00 2.522599e+00 -9.735840e+00 6.645996e+00 4.297957e-06 1.637161e-02 -2.705078e-01 7.050781e-01
-1.047085e+00 2.518058e+00 -9.715088e+00 6.578369e+00 -2.718918e-05 1.627365e-02 -2.475586e-01 7.119141e-01
-1.039168e+00 2.519970e+00 -9.757568e+00 6.602051e+00 1.607658e-05 1.720055e-02 -2.475586e-01 7.119141e-01
-1.031672e+00 2.521034e+00 -9.636230e+00 6.682373e+00 7.021731e-05 1.675884e-02 -2.475586e-01 3.869629e-01
-1.031375e+00 2.528158e+00 -9.785400e+00 6.620361e+00 -1.841808e-05 1.628113e-02 -2.705078e-01 3.869629e-01
-1.022205e+00 2.525797e+00 -9.724365e+00 6.611328e+00 2.814659e-05 1.646884e-02 -2.705078e-01 3.869629e-01
-1.041555e+00 2.546381e+00 -9.913086e+00 6.737305e+00 -3.915165e-05 1.734381e-02 -2.705078e-01 7.023926e-01
-1.061488e+00 2.542049e+00 -1.005225e+01 6.726807e+00 -5.232303e-05 1.688391e-02 -2.475586e-01 7.033691e-01
-1.049141e+00 2.543992e+00 -9.941406e+00 6.652100e+00 4.649530e-05 1.732844e-02 -2.705078e-01 7.075195e-01
-1.078676e+00 2.556778e+00 -1.009985e+01 6.461670e+00 -1.622713e-04 1.653377e-02 -2.919922e-01 4.433594e-01
-1.051882e+00 2.552641e+00 -1.005054e+01 6.687988e+00 5.456741e-05 1.701820e-02 -2.919922e-01 4.445801e-01
-1.041670e+00 2.565794e+00 -9.862305e+00 6.693848e+00 1.909452e-04 1.836203e-02 -3.122559e-01 7.248535e-01
-1.063390e+00 2.548034e+00 -9.800049e+00 6.661377e+00 1.259936e-04 1.724786e-02 -2.705078e-01 4.125977e-01
-1.071207e+00 2.553361e+00 -9.735107e+00 6.562012e+00 -2.378793e-05 1.629724e-02 -2.705078e-01 3.754883e-01
-1.050002e+00 2.550960e+00 -9.769287e+00 6.562012e+00 3.493695e-05 1.671013e-02 -2.705078e-01 3.869629e-01
-1.051426e+00 2.571847e+00 -9.893799e+00 6.633301e+00 -6.230130e-06 1.653053e-02 -3.122559e-01 3.764648e-01
-1.065960e+00 2.566192e+00 -9.934082e+00 6.501221e+00 -1.301407e-04 1.607508e-02 -3.122559e-01 3.754883e-01
-1.054546e+00 2.570333e+00 -9.885254e+00 6.585449e+00 -8.867009e-05 1.600652e-02 -3.122559e-01 3.754883e-01
