3.154052e+04 8.927000e-01 9.021885e-04 5.758185e-01 -9.999390e-01 9.999542e-01
2.268310e+03 2.135000e-01 -4.864989e-01 5.114487e+00 -9.247240e+01 9.230522e+01
1.844208e+03 1.725000e-01 -1.901823e+00 1.675916e+01 -2.346175e+02 2.363220e+02
1.657785e+03 1.509000e-01 -3.757623e+00 3.191144e+01 -3.980362e+02 3.997348e+02
1.517295e+03 1.393000e-01 -5.841200e+00 4.872434e+01 -5.717903e+02 5.734870e+02
1.435043e+03 1.328000e-01 -8.081201e+00 6.641836e+01 -7.513846e+02 7.530696e+02
1.359110e+03 1.293000e-01 -1.038195e+01 8.452378e+01 -9.342562e+02 9.359411e+02
1.323146e+03 1.231000e-01 -1.278346e+01 1.029124e+02 -1.118788e+03 1.120473e+03
1.298741e+03 1.217000e-01 -1.514812e+01 1.215732e+02 -1.304381e+03 1.306066e+03
1.267267e+03 1.216000e-01 -1.766419e+01 1.403153e+02 -1.490258e+03 1.491943e+03
1.240936e+03 1.180000e-01 -2.017530e+01 1.590903e+02 -1.676134e+03 1.677819e+03
1.210537e+03 1.155000e-01 -2.266864e+01 1.778942e+02 -1.862011e+03 1.863696e+03
1.198473e+03 1.169000e-01 -2.511503e+01 1.967477e+02 -2.047887e+03 2.049572e+03
1.191554e+03 1.170000e-01 -2.757566e+01 2.156415e+02 -2.233763e+03 2.235448e+03
1.162621e+03 1.150000e-01 -3.018920e+01 2.344745e+02 -2.419640e+03 2.421325e+03
1.151388e+03 1.147000e-01 -3.279511e+01 2.533510e+02 -2.605516e+03 2.607201e+03
1.147426e+03 1.144000e-01 -3.545638e+01 2.722640e+02 -2.791393e+03 2.793078e+03
1.147562e+03 1.157000e-01 -3.812568e+01 2.911667e+02 -2.977269e+03 2.978954e+03
1.129868e+03 1.116000e-01 -4.075057e+01 3.100777e+02 -3.163146e+03 3.164831e+03
1.129872e+03 1.145000e-01 -4.339395e+01 3.289815e+02 -3.349022e+03 3.350707e+03
1.126248e+03 1.125000e-01 -4.602301e+01 3.478383e+02 -3.534899e+03 3.536584e+03
1.124647e+03 1.130000e-01 -4.867038e+01 3.667313e+02 -3.720775e+03 3.722460e+03
1.112135e+03 1.131000e-01 -5.137761e+01 3.856521e+02 -3.906652e+03 3.908337e+03
1.113706e+03 1.127000e-01 -5.406629e+01 4.045937e+02 -4.092528e+03 4.094213e+03
1.097070e+03 1.100000e-01 -5.672839e+01 4.235562e+02 -4.278405e+03 4.280090e+03
1.096451e+03 1.090000e-01 -5.936431e+01 4.425655e+02 -4.464281e+03 4.465966e+03
1.107714e+03 1.122000e-01 -6.204816e+01 4.616161e+02 -4.650158e+03 4.651843e+03
1.086833e+03 1.094000e-01 -6.476815e+01 4.806953e+02 -4.836034e+03 4.837719e+03
1.090406e+03 1.105000e-01 -6.745566e+01 4.998165e+02 -5.021910e+03 5.023595e+03
1.087077e+03 1.099000e-01 -7.018299e+01 5.189635e+02 -5.207787e+03 5.209472e+03
1.082033e+03 1.095000e-01 -7.288775e+01 5.381524e+02 -5.393663e+03 5.395348e+03
1.074167e+03 1.087000e-01 -7.557182e+01 5.573517e+02 -5.579540e+03 5.581225e+03
1.082397e+03 1.105000e-01 -7.823181e+01 5.765744e+02 -5.765416e+03 5.767101e+03
1.076886e+03 1.072000e-01 -8.089838e+01 5.958416e+02 -5.951293e+03 5.952978e+03
1.073353e+03 1.072000e-01 -8.359645e+01 6.151448e+02 -6.137169e+03 6.138854e+03
1.058158e+03 1.051000e-01 -8.628989e+01 6.344552e+02 -6.323046e+03 6.324731e+03
1.058473e+03 1.050000e-01 -8.892994e+01 6.537447e+02 -6.508922e+03 6.510607e+03
1.057935e+03 1.057000e-01 -9.158972e+01 6.730207e+02 -6.694799e+03 6.696484e+03
1.058183e+03 1.065000e-01 -9.423014e+01 6.923110e+02 -6.880675e+03 6.882360e+03
1.056537e+03 1.060000e-01 -9.688777e+01 7.116125e+02 -7.066552e+03 7.068237e+03
1.057469e+03 1.085000e-01 -9.955501e+01 7.309276e+02 -7.252428e+03 7.254113e+03
1.052919e+03 1.050000e-01 -1.022802e+02 7.502545e+02 -7.438305e+03 7.439989e+03
1.053663e+03 1.056000e-01 -1.050101e+02 7.695746e+02 -7.624181e+03 7.625866e+03
1.041612e+03 1.047000e-01 -1.077579e+02 7.889069e+02 -7.810057e+03 7.811742e+03
1.052205e+03 1.072000e-01 -1.105357e+02 8.082528e+02 -7.995934e+03 7.997619e+03
1.039045e+03 1.036000e-01 -1.132259e+02 8.275928e+02 -8.181810e+03 8.183495e+03
1.041141e+03 1.042000e-01 -1.159198e+02 8.469217e+02 -8.367687e+03 8.369372e+03
1.038395e+03 1.041000e-01 -1.186150e+02 8.662678e+02 -8.553563e+03 8.555248e+03
1.030398e+03 1.039000e-01 -1.213009e+02 8.856229e+02 -8.739440e+03 8.741125e+03
1.023522e+03 1.012000e-01 -1.240541e+02 9.049557e+02 -8.925316e+03 8.927001e+03
1.027839e+03 1.017000e-01 -1.267542e+02 9.243012e+02 -9.111193e+03 9.112878e+03
1.025937e+03 1.027000e-01 -1.294993e+02 9.436374e+02 -9.297069e+03 9.298754e+03
1.037208e+03 1.047000e-01 -1.321968e+02 9.629644e+02 -9.482946e+03 9.484631e+03
1.023528e+03 1.030000e-01 -1.348970e+02 9.823050e+02 -9.668822e+03 9.670507e+03
1.025642e+03 1.015000e-01 -1.375598e+02 1.001666e+03 -9.854699e+03 9.856384e+03
