3.977601e-01 1.291058e+00 -3.726562e+00 4.820312e+00 1.889530e-04 1.634860e-02 -1.640625e-01 1.718750e-01
3.744830e-01 1.287417e+00 -3.761719e+00 4.996094e+00 7.657760e-05 1.475739e-02 -1.171875e-01 1.171875e-01
3.946462e-01 1.326250e+00 -3.593750e+00 4.996094e+00 2.049366e-05 1.404354e-02 -1.328125e-01 1.250000e-01
3.938428e-01 1.304802e+00 -3.648438e+00 4.906250e+00 1.191501e-04 1.431433e-02 -1.445312e-01 1.250000e-01
3.797695e-01 1.299315e+00 -3.968750e+00 4.281250e+00 1.077710e-04 1.450092e-02 -1.445312e-01 1.328125e-01
3.602967e-01 1.295843e+00 -4.054688e+00 4.394531e+00 2.995169e-04 1.599295e-02 -1.445312e-01 1.328125e-01
3.367295e-01 1.291197e+00 -4.027344e+00 4.394531e+00 1.664402e-04 1.584926e-02 -1.250000e-01 1.171875e-01
3.633890e-01 1.298200e+00 -3.597656e+00 4.906250e+00 1.914440e-04 1.589610e-02 -1.250000e-01 1.171875e-01
3.255415e-01 1.298620e+00 -3.988281e+00 4.738281e+00 2.578314e-04 1.618033e-02 -1.328125e-01 1.171875e-01
3.332544e-01 1.286962e+00 -3.988281e+00 4.996094e+00 1.521928e-04 1.603230e-02 -1.250000e-01 1.171875e-01
3.394159e-01 1.316900e+00 -3.730469e+00 4.738281e+00 1.705918e-04 1.561581e-02 -1.250000e-01 1.171875e-01
3.331558e-01 1.295543e+00 -3.781250e+00 4.820312e+00 2.364130e-04 1.606951e-02 -1.250000e-01 1.250000e-01
2.850955e-01 1.279188e+00 -3.625000e+00 4.996094e+00 2.234677e-04 1.548911e-02 -1.250000e-01 1.171875e-01
2.785506e-01 1.316816e+00 -3.730469e+00 4.738281e+00 2.336579e-04 1.491332e-02 -1.250000e-01 1.250000e-01
2.753211e-01 1.347272e+00 -4.089844e+00 4.996094e+00 1.323785e-04 1.465372e-02 -1.250000e-01 1.171875e-01
2.665869e-01 1.332210e+00 -3.558594e+00 4.820312e+00 1.643644e-04 1.401805e-02 -1.328125e-01 1.171875e-01
2.545062e-01 1.325470e+00 -4.066406e+00 4.093750e+00 1.278495e-04 1.410157e-02 -1.328125e-01 1.250000e-01
1.415934e-01 1.379820e+00 -4.179688e+00 4.246094e+00 -4.359149e-05 1.231838e-02 -1.289062e-01 1.054688e-01
1.012310e-01 1.348540e+00 -4.179688e+00 4.246094e+00 -5.953729e-05 1.201823e-02 -1.210938e-01 9.765625e-02
1.417583e-01 1.371174e+00 -3.390625e+00 4.953125e+00 1.347373e-05 1.196816e-02 -1.210938e-01 1.054688e-01
1.440381e-01 1.377124e+00 -4.179688e+00 4.863281e+00 5.868810e-05 1.198404e-02 -1.328125e-01 1.054688e-01
1.608588e-01 1.395507e+00 -4.085938e+00 4.953125e+00 4.376132e-05 1.247233e-02 -1.210938e-01 1.171875e-01
9.261438e-02 1.388507e+00 -4.261719e+00 4.382812e+00 1.355488e-04 1.267768e-02 -1.289062e-01 1.250000e-01
3.527481e-02 1.398120e+00 -4.121094e+00 4.890625e+00 2.412062e-04 1.299065e-02 -1.210938e-01 1.328125e-01
2.069627e-02 1.378475e+00 -4.148438e+00 4.769531e+00 1.623641e-04 1.288056e-02 -1.289062e-01 1.367188e-01
-2.065413e-02 1.369807e+00 -4.316406e+00 4.890625e+00 3.393909e-04 1.308651e-02 -1.289062e-01 1.523438e-01
-1.107533e-01 1.364984e+00 -4.437500e+00 3.992188e+00 1.205842e-04 1.240339e-02 -1.289062e-01 1.171875e-01
-1.222160e-01 1.347508e+00 -4.437500e+00 3.867188e+00 1.006567e-04 1.220956e-02 -1.289062e-01 1.093750e-01
-1.541277e-01 1.377345e+00 -4.542969e+00 4.519531e+00 7.450181e-05 1.204994e-02 -1.289062e-01 1.171875e-01
-2.158732e-01 1.430968e+00 -4.214844e+00 4.558594e+00 9.739206e-05 1.245070e-02 -1.679688e-01 1.445312e-01
-3.084925e-01 1.419001e+00 -4.671875e+00 3.308594e+00 5.096996e-05 1.181898e-02 -1.289062e-01 1.445312e-01
-3.346742e-01 1.424272e+00 -4.671875e+00 4.250000e+00 -5.966938e-05 1.209345e-02 -1.289062e-01 1.367188e-01
-3.189247e-01 1.434123e+00 -4.625000e+00 4.019531e+00 -1.304348e-04 1.217429e-02 -1.601562e-01 1.562500e-01
-3.106890e-01 1.432818e+00 -4.953125e+00 3.914062e+00 -1.995584e-04 1.237785e-02 -1.328125e-01 1.328125e-01
-3.162531e-01 1.391206e+00 -4.953125e+00 3.871094e+00 -5.806537e-05 1.282297e-02 -1.601562e-01 1.718750e-01
-3.060367e-01 1.424369e+00 -4.617188e+00 4.238281e+00 -1.234337e-04 1.320837e-02 -1.523438e-01 1.679688e-01
-3.055040e-01 1.416043e+00 -4.523438e+00 4.238281e+00 -8.812651e-06 1.432776e-02 -1.601562e-01 1.796875e-01
-3.115022e-01 1.411505e+00 -4.269531e+00 4.183594e+00 -2.031439e-04 1.341480e-02 -1.523438e-01 1.679688e-01
-2.931843e-01 1.418602e+00 -4.574219e+00 4.011719e+00 -2.717391e-05 1.444073e-02 -1.601562e-01 1.679688e-01
-3.056360e-01 1.396105e+00 -4.703125e+00 4.218750e+00 3.687349e-05 1.506053e-02 -1.601562e-01 1.796875e-01
-2.925001e-01 1.449751e+00 -4.960938e+00 3.925781e+00 -6.755737e-05 1.408766e-02 -1.523438e-01 1.679688e-01
-2.940815e-01 1.424329e+00 -4.699219e+00 4.246094e+00 4.313859e-05 1.490530e-02 -1.679688e-01 1.835938e-01
-2.952762e-01 1.419589e+00 -4.570312e+00 3.542969e+00 2.596618e-05 1.462903e-02 -1.679688e-01 1.992188e-01
-2.856266e-01 1.434418e+00 -4.527344e+00 4.207031e+00 -8.006869e-05 1.487283e-02 -2.382812e-01 2.148438e-01
-2.939858e-01 1.426211e+00 -4.996094e+00 3.503906e+00 2.162591e-05 1.494864e-02 -1.835938e-01 2.265625e-01
-2.929364e-01 1.408655e+00 -4.566406e+00 4.148438e+00 -7.191652e-05 1.408840e-02 -1.757812e-01 2.187500e-01
-2.940008e-01 1.437823e+00 -5.003906e+00 3.472656e+00 -7.823822e-05 1.414266e-02 -1.953125e-01 2.304688e-01
-3.990424e-01 1.532213e+00 -5.246094e+00 4.007812e+00 -3.623188e-06 1.765839e-02 -2.265625e-01 3.007812e-01
-4.800288e-01 1.618084e+00 -5.464844e+00 4.617188e+00 1.048083e-04 1.631187e-02 -2.304688e-01 3.085938e-01
-4.982794e-01 1.619945e+00 -5.195312e+00 3.515625e+00 1.318690e-04 2.016331e-02 -4.218750e-01 4.492188e-01
-5.034043e-01 1.558821e+00 -5.410156e+00 3.417969e+00 1.296988e-04 1.981535e-02 -2.421875e-01 3.554688e-01
-4.985606e-01 1.603334e+00 -4.363281e+00 4.179688e+00 1.252076e-04 1.661482e-02 -1.835938e-01 3.046875e-01
-5.117821e-01 1.608112e+00 -5.195312e+00 4.378906e+00 8.116319e-05 1.718869e-02 -2.421875e-01 3.320312e-01
-5.140507e-01 1.593440e+00 -4.843750e+00 3.664062e+00 5.642361e-05 1.633248e-02 -1.679688e-01 2.968750e-01
-5.044360e-01 1.606699e+00 -4.835938e+00 4.105469e+00 9.080616e-05 1.403536e-02 -1.914062e-01 2.109375e-01
-5.224789e-01 1.601916e+00 -4.699219e+00 3.730469e+00 -1.579484e-04 1.390332e-02 -1.679688e-01 2.265625e-01
-5.116191e-01 1.594498e+00 -4.843750e+00 3.730469e+00 -1.896513e-05 1.460821e-02 -1.875000e-01 3.164062e-01
-5.292819e-01 1.631976e+00 -5.031250e+00 3.746094e+00 1.020909e-04 1.481596e-02 -1.757812e-01 2.265625e-01
-5.553068e-01 1.592414e+00 -5.527344e+00 4.281250e+00 1.977468e-04 1.931715e-02 -2.421875e-01 3.398438e-01
-5.506493e-01 1.586615e+00 -5.492188e+00 3.195312e+00 3.497132e-04 1.864135e-02 -1.914062e-01 3.281250e-01
-5.612239e-01 1.602319e+00 -4.574219e+00 4.257812e+00 -3.843976e-05 1.600865e-02 -2.031250e-01 3.359375e-01
-5.588387e-01 1.619248e+00 -5.117188e+00 3.734375e+00 -9.186292e-05 1.306948e-02 -2.500000e-01 3.359375e-01
-5.588109e-01 1.642569e+00 -5.535156e+00 3.996094e+00 3.659043e-04 1.849404e-02 -2.617188e-01 3.554688e-01
-5.344459e-01 1.590618e+00 -4.843750e+00 3.753906e+00 -6.416063e-06 1.810030e-02 -2.617188e-01 3.554688e-01
-5.455336e-01 1.628580e+00 -5.082031e+00 3.996094e+00 4.032684e-05 1.744875e-02 -3.085938e-01 3.593750e-01
-5.682859e-01 1.586211e+00 -5.136719e+00 3.292969e+00 -5.219656e-05 1.597172e-02 -2.773438e-01 3.828125e-01
-5.427979e-01 1.592714e+00 -4.824219e+00 3.574219e+00 7.991772e-05 1.718811e-02 -2.773438e-01 3.789062e-01
-5.637705e-01 1.596033e+00 -4.875000e+00 4.039062e+00 1.811594e-04 1.731705e-02 -2.109375e-01 3.476562e-01
-6.050311e-01 1.763157e+00 -6.105469e+00 5.714844e+00 3.935500e-04 1.562489e-02 -1.992188e-01 3.593750e-01
-6.130621e-01 1.760345e+00 -6.324219e+00 5.699219e+00 2.349223e-04 1.648656e-02 -3.593750e-01 3.671875e-01
-6.347251e-01 1.711059e+00 -6.046875e+00 5.167969e+00 1.789327e-04 1.648261e-02 -1.992188e-01 3.515625e-01
-6.499873e-01 1.673101e+00 -5.558594e+00 5.714844e+00 1.778570e-04 1.629710e-02 -2.070312e-01 3.476562e-01
-6.642536e-01 1.696080e+00 -7.265625e+00 5.957031e+00 2.133341e-04 1.593425e-02 -1.953125e-01 2.460938e-01
-6.543318e-01 1.757376e+00 -6.382812e+00 6.222656e+00 1.441538e-04 1.420090e-02 -1.953125e-01 3.046875e-01
-6.723352e-01 1.675497e+00 -5.960938e+00 5.488281e+00 1.855752e-04 1.444231e-02 -1.914062e-01 2.500000e-01
-6.512473e-01 1.740432e+00 -6.156250e+00 5.812500e+00 1.267739e-04 1.366166e-02 -1.914062e-01 2.578125e-01
-6.857239e-01 1.842316e+00 -6.343750e+00 6.179688e+00 3.156892e-04 2.104221e-02 -4.687500e-01 6.835938e-01
-7.183669e-01 1.804857e+00 -5.851562e+00 5.656250e+00 3.043101e-04 1.783997e-02 -2.109375e-01 4.140625e-01
-7.119275e-01 1.811066e+00 -6.292969e+00 6.230469e+00 2.824011e-04 1.727172e-02 -2.109375e-01 4.101562e-01
-7.392503e-01 1.774689e+00 -5.878906e+00 5.511719e+00 1.773475e-04 1.688022e-02 -2.109375e-01 4.062500e-01
-7.745101e-01 1.750852e+00 -7.152344e+00 5.679688e+00 2.248075e-04 1.583904e-02 -1.992188e-01 3.867188e-01
-7.643871e-01 1.798634e+00 -6.078125e+00 6.031250e+00 7.529438e-05 1.683434e-02 -2.617188e-01 4.023438e-01
-7.688307e-01 1.734011e+00 -7.148438e+00 5.152344e+00 -1.068086e-05 1.418007e-02 -2.617188e-01 3.007812e-01
-7.504426e-01 1.759045e+00 -5.886719e+00 5.683594e+00 2.678706e-04 1.726210e-02 -1.835938e-01 3.476562e-01
-7.640295e-01 1.759384e+00 -6.285156e+00 5.792969e+00 2.267889e-04 1.590954e-02 -1.992188e-01 3.867188e-01
-7.724688e-01 1.856885e+00 -6.406250e+00 6.191406e+00 1.956144e-04 1.742986e-02 -2.109375e-01 5.468750e-01
-8.031328e-01 1.789720e+00 -6.406250e+00 5.968750e+00 1.742716e-04 1.527613e-02 -2.109375e-01 2.695312e-01
-7.980074e-01 1.804007e+00 -6.367188e+00 5.980469e+00 2.924970e-06 1.362484e-02 -2.109375e-01 4.062500e-01
-8.116286e-01 1.873104e+00 -6.402344e+00 6.269531e+00 4.887530e-05 1.510970e-02 -2.773438e-01 4.062500e-01
-7.896141e-01 1.838490e+00 -6.238281e+00 5.648438e+00 6.074502e-05 1.634099e-02 -3.125000e-01 5.468750e-01
-8.006199e-01 1.705892e+00 -7.289062e+00 5.753906e+00 2.062575e-04 1.678838e-02 -1.835938e-01 3.632812e-01
-8.171735e-01 1.767584e+00 -6.441406e+00 5.859375e+00 -6.265097e-05 1.211276e-02 -1.718750e-01 1.718750e-01
-8.384544e-01 1.703364e+00 -6.042969e+00 5.464844e+00 6.887832e-06 1.338948e-02 -2.109375e-01 4.062500e-01
-7.937974e-01 1.778688e+00 -6.398438e+00 5.812500e+00 2.372245e-04 1.624114e-02 -2.109375e-01 4.062500e-01
-7.881989e-01 1.787707e+00 -6.613281e+00 5.867188e+00 2.641908e-07 1.414056e-02 -3.359375e-01 3.984375e-01
-8.572416e-01 1.813291e+00 -6.347656e+00 5.210938e+00 1.536270e-04 1.678650e-02 -2.070312e-01 5.585938e-01
-7.905100e-01 1.772191e+00 -6.222656e+00 5.351562e+00 1.794044e-04 1.536531e-02 -3.320312e-01 5.507812e-01
-8.581231e-01 1.891698e+00 -6.511719e+00 5.894531e+00 1.707805e-05 1.359825e-02 -2.031250e-01 5.429688e-01
-8.221128e-01 1.818637e+00 -6.226562e+00 5.203125e+00 1.587598e-04 1.847074e-02 -2.851562e-01 5.390625e-01
-8.294269e-01 1.778385e+00 -6.589844e+00 5.496094e+00 -2.985356e-05 1.386389e-02 -2.031250e-01 5.351562e-01
-8.760808e-01 1.808404e+00 -6.613281e+00 5.925781e+00 4.344052e-05 1.231275e-02 -1.679688e-01 2.578125e-01
-8.796715e-01 1.812013e+00 -6.660156e+00 5.554688e+00 -6.738753e-05 1.169957e-02 -1.953125e-01 3.476562e-01
-8.259674e-01 1.866232e+00 -5.707031e+00 5.660156e+00 1.915950e-04 1.426177e-02 -2.031250e-01 5.390625e-01
-8.374053e-01 1.835820e+00 -7.488281e+00 6.308594e+00 3.283514e-05 1.574177e-02 -2.265625e-01 3.984375e-01
-8.626757e-01 1.841921e+00 -6.640625e+00 5.691406e+00 2.830616e-06 1.119650e-02 -1.875000e-01 2.187500e-01
-8.442223e-01 1.781752e+00 -6.656250e+00 5.480469e+00 3.222562e-04 1.740418e-02 -3.710938e-01 5.468750e-01
-8.507283e-01 1.841292e+00 -7.460938e+00 5.191406e+00 -1.073181e-04 1.676851e-02 -4.843750e-01 5.507812e-01
-8.489464e-01 1.833422e+00 -7.484375e+00 5.898438e+00 2.207880e-05 1.540388e-02 -4.218750e-01 7.968750e-01
-8.590742e-01 1.803853e+00 -6.781250e+00 5.898438e+00 1.304348e-04 2.371135e-02 -4.218750e-01 7.968750e-01
-8.452573e-01 1.783432e+00 -6.503906e+00 5.605469e+00 1.739697e-04 1.375430e-02 -1.757812e-01 2.773438e-01
-8.603934e-01 1.797844e+00 -6.328125e+00 5.542969e+00 -2.070124e-05 1.339721e-02 -2.812500e-01 3.046875e-01
-9.055772e-01 1.868063e+00 -7.402344e+00 6.281250e+00 5.470637e-05 1.282121e-02 -2.031250e-01 3.984375e-01
-8.637356e-01 1.821407e+00 -7.367188e+00 5.359375e+00 1.526646e-04 1.404668e-02 -3.945312e-01 3.632812e-01
-9.033562e-01 1.829734e+00 -6.394531e+00 5.632812e+00 6.302838e-05 1.654494e-02 -2.656250e-01 2.968750e-01
-9.086558e-01 1.840544e+00 -6.761719e+00 6.062500e+00 7.438859e-05 1.554461e-02 -4.257812e-01 3.007812e-01
-8.879311e-01 1.841286e+00 -6.414062e+00 5.968750e+00 -1.660628e-06 1.528150e-02 -4.218750e-01 5.078125e-01
-8.560625e-01 1.860230e+00 -6.320312e+00 5.839844e+00 -6.304725e-05 1.198656e-02 -2.343750e-01 2.968750e-01
-8.717159e-01 1.773901e+00 -5.730469e+00 5.406250e+00 2.726827e-04 1.641373e-02 -2.031250e-01 3.984375e-01
-8.718737e-01 1.779280e+00 -6.179688e+00 5.433594e+00 1.668931e-04 1.593889e-02 -3.828125e-01 3.984375e-01
-9.235041e-01 1.789002e+00 -6.433594e+00 5.089844e+00 -1.153193e-04 1.244084e-02 -1.914062e-01 2.656250e-01
-8.535039e-01 1.863087e+00 -6.335938e+00 5.746094e+00 4.447086e-04 1.903077e-02 -4.218750e-01 5.156250e-01
-8.928022e-01 1.842525e+00 -6.472656e+00 5.414062e+00 -3.549592e-05 1.793172e-02 -4.023438e-01 3.867188e-01
-9.196077e-01 1.849371e+00 -6.718750e+00 6.101562e+00 2.938179e-05 1.888760e-02 -3.437500e-01 3.867188e-01
-8.840321e-01 1.866262e+00 -6.617188e+00 5.839844e+00 -5.736715e-05 1.504231e-02 -1.796875e-01 2.187500e-01
-9.151606e-01 1.986073e+00 -6.660156e+00 6.550781e+00 1.437953e-05 1.495633e-02 -4.023438e-01 3.554688e-01
-8.805641e-01 1.816702e+00 -6.527344e+00 5.722656e+00 1.419837e-04 1.869673e-02 -3.437500e-01 2.890625e-01
-8.830836e-01 1.830559e+00 -6.402344e+00 6.078125e+00 -2.661723e-04 1.385221e-02 -3.437500e-01 2.539062e-01
-8.851758e-01 1.835529e+00 -5.859375e+00 6.097656e+00 1.138474e-04 1.659797e-02 -2.343750e-01 3.554688e-01
-9.098930e-01 1.857974e+00 -5.871094e+00 5.804688e+00 -1.977657e-05 1.623436e-02 -3.828125e-01 3.789062e-01
-9.015426e-01 1.973894e+00 -7.656250e+00 6.515625e+00 -1.081295e-05 1.260025e-02 -3.437500e-01 3.242188e-01
-9.012878e-01 1.895541e+00 -6.472656e+00 6.113281e+00 1.970297e-04 1.619334e-02 -3.437500e-01 3.242188e-01
-8.959863e-01 1.903721e+00 -6.550781e+00 6.011719e+00 3.492980e-05 1.346263e-02 -3.281250e-01 2.539062e-01
-8.966931e-01 1.912024e+00 -6.601562e+00 6.234375e+00 1.911798e-04 1.702234e-02 -3.710938e-01 3.476562e-01
-9.147089e-01 1.891910e+00 -6.597656e+00 6.367188e+00 4.396890e-05 1.747369e-02 -3.945312e-01 3.945312e-01
-9.270508e-01 1.921714e+00 -6.699219e+00 5.933594e+00 3.904174e-04 1.831106e-02 -3.945312e-01 4.062500e-01
-9.232824e-01 1.842019e+00 -6.625000e+00 5.484375e+00 -1.369452e-04 1.493430e-02 -3.437500e-01 3.398438e-01
-9.560367e-01 1.895799e+00 -6.582031e+00 5.921875e+00 -9.235356e-05 1.427957e-02 -3.593750e-01 2.812500e-01
-9.548443e-01 1.903847e+00 -7.425781e+00 6.218750e+00 1.460032e-04 1.916981e-02 -4.335938e-01 6.679688e-01
-9.772879e-01 2.044822e+00 -7.820312e+00 5.652344e+00 3.178593e-04 2.228310e-02 -4.101562e-01 4.453125e-01
-9.831669e-01 2.006577e+00 -6.816406e+00 6.417969e+00 2.954031e-04 1.987116e-02 -3.710938e-01 3.710938e-01
-1.017551e+00 2.064380e+00 -6.925781e+00 6.421875e+00 5.014908e-04 2.665213e-02 -4.375000e-01 8.125000e-01
-9.961068e-01 1.956494e+00 -6.910156e+00 6.562500e+00 1.238866e-04 1.916250e-02 -4.023438e-01 3.945312e-01
-1.033431e+00 1.991666e+00 -7.578125e+00 5.937500e+00 1.412100e-04 2.383146e-02 -4.375000e-01 8.046875e-01
-1.036738e+00 1.960216e+00 -6.812500e+00 5.769531e+00 2.056914e-04 2.070717e-02 -4.023438e-01 3.984375e-01
-1.063605e+00 2.022399e+00 -7.628906e+00 6.246094e+00 2.860809e-04 1.996789e-02 -3.710938e-01 5.664062e-01
-1.032631e+00 1.913510e+00 -7.023438e+00 5.660156e+00 7.199200e-05 2.324559e-02 -4.101562e-01 5.234375e-01
-9.938349e-01 1.897204e+00 -7.398438e+00 4.800781e+00 2.933084e-04 2.512810e-02 -4.101562e-01 4.570312e-01
-1.007560e+00 1.944123e+00 -8.253906e+00 4.363281e+00 1.334541e-04 2.102060e-02 -4.296875e-01 4.570312e-01
-1.050401e+00 1.963768e+00 -7.078125e+00 5.605469e+00 4.225166e-05 1.648612e-02 -3.437500e-01 3.515625e-01
-1.024072e+00 1.907558e+00 -6.703125e+00 5.460938e+00 1.326427e-04 2.051570e-02 -3.945312e-01 3.984375e-01
-1.045393e+00 1.917090e+00 -7.003906e+00 5.460938e+00 1.146777e-04 2.042764e-02 -4.101562e-01 4.062500e-01
-1.034161e+00 1.924950e+00 -7.230469e+00 5.437500e+00 -1.652325e-04 1.516735e-02 -3.281250e-01 2.031250e-01
-1.029189e+00 1.888899e+00 -7.117188e+00 5.628906e+00 1.868207e-04 1.995856e-02 -4.023438e-01 4.257812e-01
-1.055413e+00 1.985542e+00 -7.539062e+00 5.656250e+00 -8.527702e-05 1.715991e-02 -3.828125e-01 3.867188e-01
-1.046223e+00 1.928101e+00 -7.503906e+00 5.441406e+00 4.349713e-05 1.560346e-02 -3.710938e-01 3.789062e-01
-1.062181e+00 1.851647e+00 -7.496094e+00 5.277344e+00 -4.117603e-05 1.851883e-02 -3.945312e-01 3.867188e-01
-1.083405e+00 1.945402e+00 -7.460938e+00 4.769531e+00 1.375302e-04 1.797889e-02 -3.828125e-01 4.140625e-01
-1.072276e+00 1.891034e+00 -7.929688e+00 5.171875e+00 1.250000e-04 1.976136e-02 -4.296875e-01 7.890625e-01
-1.085141e+00 1.911514e+00 -7.960938e+00 4.882812e+00 -7.087862e-05 1.872813e-02 -3.828125e-01 3.828125e-01
-1.049376e+00 1.944214e+00 -6.945312e+00 5.628906e+00 -3.623188e-06 1.848855e-02 -3.828125e-01 3.750000e-01
-1.045066e+00 1.980344e+00 -6.957031e+00 4.941406e+00 1.154325e-04 1.861902e-02 -4.296875e-01 7.851562e-01
-1.094044e+00 1.851000e+00 -7.113281e+00 5.160156e+00 2.547932e-04 2.077874e-02 -3.710938e-01 3.984375e-01
-1.094808e+00 1.866979e+00 -7.074219e+00 4.976562e+00 -4.998868e-05 1.911820e-02 -3.828125e-01 3.750000e-01
-1.048091e+00 1.980742e+00 -8.910156e+00 8.273438e+00 1.025060e-04 1.632803e-02 -3.593750e-01 3.867188e-01
-1.177970e+00 2.072913e+00 -9.406250e+00 9.148438e+00 1.150834e-03 2.867498e-02 -4.023438e-01 1.734375e+00
-1.225455e+00 1.956270e+00 -9.402344e+00 8.234375e+00 9.896777e-04 4.068012e-02 -7.343750e-01 1.714844e+00
-1.245131e+00 1.893185e+00 -9.402344e+00 8.234375e+00 6.423611e-05 2.231826e-02 -7.343750e-01 1.714844e+00
-1.251763e+00 1.832156e+00 -8.191406e+00 4.296875e+00 -1.490225e-04 1.619814e-02 -3.085938e-01 3.437500e-01
-1.269677e+00 2.009417e+00 -9.230469e+00 5.101562e+00 9.039100e-06 2.033019e-02 -3.710938e-01 6.328125e-01
-1.382014e+00 2.049096e+00 -9.804688e+00 5.210938e+00 6.570803e-05 1.933596e-02 -3.710938e-01 3.203125e-01
-1.329802e+00 1.881976e+00 -9.804688e+00 5.144531e+00 -2.053706e-04 1.820907e-02 -3.281250e-01 3.281250e-01
-1.354952e+00 1.983197e+00 -8.167969e+00 5.125000e+00 -4.008152e-05 1.700844e-02 -3.593750e-01 2.460938e-01
-1.318009e+00 2.011534e+00 -8.523438e+00 4.882812e+00 -1.801970e-04 1.561603e-02 -3.593750e-01 2.421875e-01
-1.351064e+00 1.898788e+00 -9.632812e+00 4.136719e+00 1.575710e-05 2.068243e-02 -3.710938e-01 2.617188e-01
-1.371334e+00 1.943966e+00 -8.285156e+00 5.011719e+00 -2.574917e-04 1.924740e-02 -3.320312e-01 5.703125e-01
-1.351302e+00 1.914137e+00 -8.238281e+00 5.019531e+00 4.681839e-05 2.162145e-02 -3.710938e-01 5.625000e-01
-1.276230e+00 2.014285e+00 -8.191406e+00 4.867188e+00 -4.481809e-05 2.540740e-02 -3.437500e-01 5.781250e-01
-1.356525e+00 1.907093e+00 -7.976562e+00 5.019531e+00 -1.641757e-04 2.715853e-02 -3.320312e-01 5.781250e-01
-1.370952e+00 1.917531e+00 -8.785156e+00 5.062500e+00 2.112206e-04 2.188756e-02 -3.710938e-01 5.703125e-01
-1.457340e+00 2.011342e+00 -8.589844e+00 4.222656e+00 3.456559e-04 2.032499e-02 -3.710938e-01 4.218750e-01
-1.446325e+00 1.917354e+00 -8.488281e+00 4.191406e+00 2.541327e-04 1.993682e-02 -3.945312e-01 5.585938e-01
-1.434933e+00 1.956201e+00 -9.328125e+00 4.890625e+00 5.702748e-05 1.528406e-02 -3.281250e-01 3.125000e-01
-1.452596e+00 1.930413e+00 -8.652344e+00 4.843750e+00 1.067142e-04 1.678551e-02 -3.828125e-01 4.062500e-01
-1.401907e+00 1.974451e+00 -8.660156e+00 8.414062e+00 2.536421e-04 1.807619e-02 -4.335938e-01 9.296875e-01
-1.412647e+00 2.044858e+00 -9.105469e+00 8.453125e+00 9.314236e-04 2.767085e-02 -4.453125e-01 1.730469e+00
-1.380443e+00 1.972242e+00 -7.464844e+00 4.078125e+00 1.688934e-04 2.059419e-02 -3.437500e-01 3.984375e-01
-1.462084e+00 1.946499e+00 -7.628906e+00 3.863281e+00 2.196747e-04 1.733199e-02 -3.359375e-01 3.828125e-01
-1.467997e+00 2.025806e+00 -7.496094e+00 4.351562e+00 4.009096e-04 1.367997e-02 -3.945312e-01 5.195312e-01
-1.459407e+00 1.976972e+00 -9.203125e+00 3.742188e+00 3.647720e-04 1.793396e-02 -3.945312e-01 4.062500e-01
-1.462168e+00 1.936689e+00 -7.585938e+00 4.214844e+00 4.853563e-05 1.566022e-02 -3.085938e-01 3.984375e-01
-1.492012e+00 1.921970e+00 -8.777344e+00 3.890625e+00 1.263964e-04 1.882483e-02 -4.296875e-01 7.421875e-01
-1.469259e+00 1.892253e+00 -7.859375e+00 4.203125e+00 8.429574e-05 1.457742e-02 -3.710938e-01 2.539062e-01
-1.500500e+00 1.904609e+00 -8.183594e+00 4.187500e+00 -6.170743e-05 1.427231e-02 -3.281250e-01 4.023438e-01
-1.467450e+00 1.912564e+00 -8.785156e+00 4.082031e+00 1.107714e-04 1.592636e-02 -3.710938e-01 2.578125e-01
-1.497688e+00 1.939145e+00 -7.535156e+00 4.039062e+00 7.010492e-05 1.965082e-02 -6.171875e-01 4.023438e-01
-1.518586e+00 2.039315e+00 -8.230469e+00 4.160156e+00 1.712523e-04 1.439378e-02 -3.437500e-01 3.984375e-01
-1.468773e+00 1.829873e+00 -8.664062e+00 4.281250e+00 7.869112e-06 1.654077e-02 -3.710938e-01 3.984375e-01
-1.489598e+00 1.971521e+00 -8.359375e+00 3.761719e+00 4.917723e-05 1.507757e-02 -3.710938e-01 3.789062e-01
-1.490228e+00 2.009943e+00 -8.054688e+00 4.890625e+00 5.217769e-04 2.165905e-02 -4.375000e-01 6.523438e-01
-1.479309e+00 2.003303e+00 -8.054688e+00 4.363281e+00 1.084692e-04 1.873428e-02 -4.375000e-01 6.523438e-01
-1.454719e+00 1.946081e+00 -8.039062e+00 4.300781e+00 -8.646588e-05 1.726794e-02 -4.023438e-01 5.976562e-01
-1.465777e+00 1.931389e+00 -7.808594e+00 4.585938e+00 2.669082e-04 2.084698e-02 -4.062500e-01 4.375000e-01
-1.506084e+00 1.924640e+00 -7.265625e+00 4.546875e+00 -2.251283e-05 1.690241e-02 -3.828125e-01 3.789062e-01
-1.478314e+00 1.962581e+00 -8.023438e+00 4.566406e+00 2.100317e-04 1.669024e-02 -3.593750e-01 3.984375e-01
-1.475426e+00 1.886760e+00 -8.019531e+00 4.421875e+00 -1.458711e-04 1.496758e-02 -4.335938e-01 3.828125e-01
-1.456011e+00 1.945071e+00 -7.539062e+00 4.644531e+00 1.094505e-05 1.890720e-02 -5.117188e-01 3.984375e-01
-1.465481e+00 1.992207e+00 -8.359375e+00 4.367188e+00 2.217316e-04 1.866136e-02 -5.117188e-01 3.984375e-01
-1.462087e+00 1.997647e+00 -8.359375e+00 4.464844e+00 3.520343e-04 2.023803e-02 -4.375000e-01 7.187500e-01
-1.471190e+00 1.954980e+00 -8.199219e+00 4.546875e+00 1.197917e-04 1.603322e-02 -3.710938e-01 3.671875e-01
-1.501548e+00 1.956979e+00 -7.476562e+00 4.640625e+00 5.919761e-05 1.864148e-02 -3.828125e-01 4.335938e-01
-1.479038e+00 2.013347e+00 -8.242188e+00 4.574219e+00 1.518154e-04 1.804153e-02 -3.593750e-01 5.976562e-01
-1.472830e+00 1.859818e+00 -8.250000e+00 4.355469e+00 8.121981e-05 1.957348e-02 -3.593750e-01 5.976562e-01
-1.458532e+00 1.899877e+00 -7.394531e+00 4.527344e+00 -2.777778e-04 1.644176e-02 -3.593750e-01 3.671875e-01
-1.487337e+00 1.872499e+00 -7.789062e+00 4.644531e+00 1.430027e-04 2.013099e-02 -3.828125e-01 3.945312e-01
-1.457320e+00 1.910782e+00 -8.019531e+00 4.214844e+00 1.192822e-04 1.792602e-02 -3.828125e-01 4.335938e-01
-1.494671e+00 1.963417e+00 -7.515625e+00 4.378906e+00 -3.523551e-04 1.260474e-02 -3.593750e-01 3.515625e-01
-1.445666e+00 1.892349e+00 -7.957031e+00 4.609375e+00 4.266682e-05 1.586594e-02 -3.945312e-01 4.375000e-01
-1.472384e+00 1.866177e+00 -7.335938e+00 4.671875e+00 7.731356e-05 1.839683e-02 -3.945312e-01 4.375000e-01
-1.484185e+00 2.005874e+00 -7.988281e+00 4.738281e+00 -1.016946e-04 1.697329e-02 -3.945312e-01 4.375000e-01
-1.476066e+00 1.949550e+00 -8.066406e+00 4.531250e+00 -6.227355e-07 1.570962e-02 -4.023438e-01 4.921875e-01
-1.461594e+00 1.877904e+00 -7.992188e+00 4.414062e+00 -1.870094e-04 1.482001e-02 -3.281250e-01 2.539062e-01
-1.489140e+00 1.968369e+00 -7.546875e+00 4.546875e+00 1.222449e-04 1.653201e-02 -3.945312e-01 4.843750e-01
-1.511433e+00 2.005703e+00 -8.039062e+00 4.546875e+00 1.226223e-04 1.688706e-02 -3.945312e-01 4.375000e-01
-1.505693e+00 1.912485e+00 -7.335938e+00 4.597656e+00 1.533816e-04 1.872497e-02 -3.828125e-01 6.250000e-01
-1.456078e+00 1.970767e+00 -8.007812e+00 4.558594e+00 -1.403042e-04 1.705960e-02 -3.437500e-01 5.664062e-01
-1.485032e+00 1.979575e+00 -8.007812e+00 4.597656e+00 -3.459013e-05 1.560994e-02 -3.593750e-01 6.250000e-01
-1.538656e+00 2.107205e+00 -7.433594e+00 5.089844e+00 1.694501e-03 3.201456e-02 -6.093750e-01 7.656250e-01
-1.535441e+00 1.973898e+00 -7.429688e+00 4.972656e+00 4.120622e-04 2.053263e-02 -4.335938e-01 7.421875e-01
-1.589620e+00 1.963819e+00 -7.429688e+00 4.628906e+00 -6.689689e-05 1.696224e-02 -3.828125e-01 6.289062e-01
-1.551432e+00 1.983171e+00 -8.078125e+00 4.949219e+00 -2.759662e-04 1.560806e-02 -3.203125e-01 3.710938e-01
-1.515674e+00 1.926640e+00 -7.554688e+00 4.679688e+00 1.185273e-04 2.125066e-02 -4.531250e-01 4.140625e-01
-1.596524e+00 2.010137e+00 -7.945312e+00 5.378906e+00 1.780269e-04 2.253777e-02 -4.609375e-01 6.328125e-01
-1.552000e+00 2.022044e+00 -8.046875e+00 7.441406e+00 2.207126e-04 1.898253e-02 -3.945312e-01 6.289062e-01
-1.497344e+00 2.122920e+00 -8.281250e+00 7.292969e+00 -1.714598e-04 1.723300e-02 -3.710938e-01 3.632812e-01
-1.488522e+00 1.996973e+00 -7.777344e+00 6.558594e+00 1.322841e-04 2.356410e-02 -5.234375e-01 3.867188e-01
-1.501365e+00 2.010143e+00 -7.542969e+00 6.359375e+00 5.416855e-04 2.925114e-02 -5.234375e-01 8.007812e-01
-1.488456e+00 2.041803e+00 -7.917969e+00 5.949219e+00 3.290308e-04 2.327725e-02 -4.414062e-01 8.320312e-01
-1.484700e+00 2.129455e+00 -7.550781e+00 6.019531e+00 9.719392e-04 3.070202e-02 -5.468750e-01 8.320312e-01
-1.501770e+00 2.083746e+00 -7.867188e+00 6.359375e+00 5.484224e-04 2.427104e-02 -4.492188e-01 8.320312e-01
-1.544679e+00 2.030685e+00 -7.808594e+00 6.347656e+00 3.363149e-04 2.040896e-02 -3.710938e-01 3.867188e-01
-1.516195e+00 1.990653e+00 -7.480469e+00 6.035156e+00 2.523022e-04 2.051963e-02 -3.710938e-01 3.750000e-01
-1.522693e+00 1.927547e+00 -6.976562e+00 5.718750e+00 7.482261e-05 3.338175e-02 -1.359375e+00 1.082031e+00
-1.560111e+00 2.029261e+00 -7.074219e+00 5.632812e+00 2.173724e-04 2.074916e-02 -5.195312e-01 4.101562e-01
-1.558178e+00 2.011227e+00 -7.378906e+00 5.800781e+00 -3.506190e-05 2.353626e-02 -5.195312e-01 8.359375e-01
-1.519208e+00 2.038232e+00 -7.511719e+00 5.714844e+00 1.159609e-04 2.030708e-02 -3.593750e-01 6.718750e-01
-1.535203e+00 2.007408e+00 -7.171875e+00 5.785156e+00 2.417157e-04 2.249632e-02 -5.312500e-01 6.953125e-01
-1.485943e+00 1.962091e+00 -6.613281e+00 5.011719e+00 1.707805e-05 2.226576e-02 -3.593750e-01 6.679688e-01
-1.539515e+00 1.975842e+00 -7.460938e+00 5.394531e+00 7.001057e-05 2.078183e-02 -3.945312e-01 7.265625e-01
-1.556397e+00 2.025089e+00 -7.269531e+00 5.523438e+00 1.314349e-04 2.188612e-02 -3.710938e-01 6.953125e-01
-1.550831e+00 1.912952e+00 -7.082031e+00 5.718750e+00 -3.734526e-05 2.177769e-02 -3.710938e-01 6.718750e-01
-1.564040e+00 1.962231e+00 -7.324219e+00 5.718750e+00 1.765361e-04 2.146550e-02 -3.710938e-01 6.718750e-01
-1.551072e+00 2.003267e+00 -7.539062e+00 5.609375e+00 -4.242150e-04 2.024250e-02 -3.710938e-01 6.601562e-01
-1.576829e+00 1.930907e+00 -7.539062e+00 4.867188e+00 3.900400e-04 2.382604e-02 -4.882812e-01 6.718750e-01
-1.553644e+00 2.029332e+00 -7.167969e+00 5.445312e+00 -5.849940e-06 1.739210e-02 -3.710938e-01 6.718750e-01
-1.597725e+00 1.984660e+00 -6.949219e+00 5.320312e+00 -6.916138e-05 1.947023e-02 -4.687500e-01 3.789062e-01
-1.541468e+00 1.903442e+00 -6.820312e+00 5.375000e+00 -1.554008e-04 2.270480e-02 -3.671875e-01 6.250000e-01
-1.565003e+00 1.982092e+00 -7.234375e+00 5.507812e+00 2.192218e-04 2.493307e-02 -5.781250e-01 6.718750e-01
-1.570907e+00 1.994624e+00 -6.812500e+00 5.632812e+00 -1.210371e-04 1.822796e-02 -4.453125e-01 6.367188e-01
-1.531779e+00 1.934681e+00 -7.539062e+00 5.246094e+00 1.588919e-04 2.176063e-02 -3.945312e-01 4.453125e-01
-1.530961e+00 1.991102e+00 -7.398438e+00 5.488281e+00 5.055103e-04 3.130045e-02 -4.960938e-01 9.296875e-01
-1.517832e+00 1.966793e+00 -7.601562e+00 5.351562e+00 -1.058273e-04 1.650425e-02 -3.710938e-01 5.742188e-01
-1.560933e+00 1.940521e+00 -7.078125e+00 5.488281e+00 9.131567e-05 1.672588e-02 -3.828125e-01 4.335938e-01
-1.573634e+00 2.013676e+00 -7.132812e+00 4.671875e+00 9.137228e-05 1.853157e-02 -3.828125e-01 4.414062e-01
-1.552705e+00 1.922650e+00 -6.886719e+00 4.996094e+00 -6.076389e-06 2.025054e-02 -3.828125e-01 6.601562e-01
-1.599082e+00 2.045086e+00 -7.433594e+00 5.218750e+00 -5.625189e-04 1.693146e-02 -3.828125e-01 6.328125e-01
-1.601033e+00 1.982476e+00 -8.023438e+00 5.160156e+00 -9.349524e-04 1.510250e-02 -2.734375e-01 3.632812e-01
-1.594436e+00 1.982599e+00 -7.527344e+00 5.187500e+00 -2.424517e-04 1.889337e-02 -5.351562e-01 6.992188e-01
-1.605456e+00 1.984977e+00 -7.347656e+00 4.453125e+00 1.095637e-04 2.108761e-02 -4.414062e-01 8.203125e-01
-1.618165e+00 2.000732e+00 -8.156250e+00 5.414062e+00 -1.375679e-04 1.819216e-02 -4.062500e-01 3.320312e-01
-1.622173e+00 2.081109e+00 -7.683594e+00 5.453125e+00 1.146211e-04 1.871002e-02 -3.828125e-01 6.992188e-01
-1.592743e+00 2.069292e+00 -7.800781e+00 5.503906e+00 7.182216e-05 1.978808e-02 -4.296875e-01 6.992188e-01
-1.601702e+00 2.018517e+00 -7.660156e+00 5.398438e+00 -7.854016e-05 1.782303e-02 -3.710938e-01 6.757812e-01
-1.537069e+00 2.053751e+00 -7.613281e+00 5.792969e+00 5.128510e-04 2.460641e-02 -4.335938e-01 7.187500e-01
-1.521611e+00 2.126559e+00 -7.449219e+00 6.242188e+00 7.812689e-04 2.773035e-02 -4.726562e-01 7.109375e-01
-1.565437e+00 2.088275e+00 -7.570312e+00 6.234375e+00 2.330352e-04 2.547148e-02 -3.906250e-01 6.953125e-01
-1.561081e+00 2.065711e+00 -7.726562e+00 6.328125e+00 2.488111e-04 2.329746e-02 -3.906250e-01 6.953125e-01
-1.549076e+00 2.134489e+00 -7.695312e+00 6.328125e+00 1.975770e-04 1.926818e-02 -3.437500e-01 6.953125e-01
-1.545562e+00 2.093096e+00 -7.679688e+00 5.941406e+00 -1.568161e-04 2.228635e-02 -3.437500e-01 6.718750e-01
-1.566646e+00 2.062140e+00 -7.925781e+00 6.328125e+00 -1.061292e-04 2.256212e-02 -3.906250e-01 5.429688e-01
-1.559644e+00 2.049254e+00 -7.562500e+00 5.183594e+00 -2.740036e-04 1.850796e-02 -2.890625e-01 3.320312e-01
-1.592078e+00 2.110518e+00 -7.562500e+00 5.523438e+00 1.707805e-04 1.966898e-02 -3.593750e-01 3.867188e-01
-1.584917e+00 2.088439e+00 -8.089844e+00 5.953125e+00 2.306008e-04 2.184630e-02 -3.593750e-01 6.757812e-01
-1.613260e+00 2.107014e+00 -7.539062e+00 5.890625e+00 3.627906e-04 2.171501e-02 -3.593750e-01 6.757812e-01
-1.590430e+00 2.076223e+00 -7.656250e+00 5.890625e+00 -4.014757e-04 1.990136e-02 -2.890625e-01 3.476562e-01
-1.569102e+00 2.008353e+00 -8.089844e+00 5.523438e+00 -2.195614e-04 2.372088e-02 -3.632812e-01 3.710938e-01
-1.541627e+00 2.078197e+00 -7.488281e+00 5.953125e+00 -3.012341e-04 1.743775e-02 -3.437500e-01 3.476562e-01
-1.570092e+00 2.062639e+00 -8.027344e+00 6.011719e+00 2.571520e-04 2.035484e-02 -3.828125e-01 4.335938e-01
-1.572069e+00 2.012646e+00 -7.324219e+00 5.449219e+00 -9.456144e-05 1.939340e-02 -4.062500e-01 6.953125e-01
-1.541715e+00 2.107925e+00 -7.558594e+00 5.957031e+00 1.260568e-04 2.082356e-02 -3.593750e-01 3.750000e-01
-1.565455e+00 2.131688e+00 -7.488281e+00 5.957031e+00 2.314123e-04 2.493165e-02 -6.171875e-01 6.406250e-01
-1.574345e+00 2.077122e+00 -8.011719e+00 5.988281e+00 -8.795667e-05 2.291387e-02 -3.710938e-01 4.453125e-01
-1.580735e+00 2.079808e+00 -7.660156e+00 5.695312e+00 1.595713e-04 2.020198e-02 -4.023438e-01 6.914062e-01
-1.592917e+00 2.073739e+00 -7.644531e+00 5.894531e+00 8.661685e-06 1.844958e-02 -3.945312e-01 6.367188e-01
-1.563166e+00 2.082325e+00 -7.867188e+00 5.371094e+00 -3.647720e-04 1.709865e-02 -3.593750e-01 4.179688e-01
-1.546861e+00 2.155425e+00 -7.308594e+00 5.769531e+00 -1.796498e-05 1.544008e-02 -3.945312e-01 4.531250e-01
-1.585943e+00 2.064671e+00 -7.601562e+00 5.820312e+00 3.316916e-04 2.191089e-02 -3.828125e-01 6.406250e-01
-1.556672e+00 2.052862e+00 -7.472656e+00 5.707031e+00 -6.216033e-05 2.571922e-02 -4.023438e-01 6.093750e-01
-1.577090e+00 2.080019e+00 -7.574219e+00 5.160156e+00 -5.015851e-05 1.885850e-02 -4.023438e-01 6.093750e-01
-1.577165e+00 2.047873e+00 -7.312500e+00 5.574219e+00 4.510115e-06 2.137791e-02 -4.375000e-01 4.453125e-01
-1.568923e+00 1.930534e+00 -7.550781e+00 5.273438e+00 1.988602e-04 2.069659e-02 -3.945312e-01 6.054688e-01
-1.597641e+00 2.094477e+00 -7.746094e+00 4.769531e+00 2.532835e-04 2.227980e-02 -4.960938e-01 6.093750e-01
-1.574140e+00 2.047763e+00 -7.781250e+00 5.406250e+00 6.739697e-04 2.480021e-02 -3.828125e-01 6.093750e-01
-1.540389e+00 2.068206e+00 -7.921875e+00 5.246094e+00 -2.775891e-05 2.153054e-02 -4.335938e-01 7.109375e-01
-1.593730e+00 2.065085e+00 -7.593750e+00 5.351562e+00 3.895494e-04 2.122736e-02 -3.945312e-01 5.820312e-01
-1.606894e+00 2.030275e+00 -7.875000e+00 5.433594e+00 2.326766e-04 2.056533e-02 -3.828125e-01 6.093750e-01
-1.556946e+00 2.062113e+00 -7.773438e+00 5.097656e+00 3.612432e-04 2.517491e-02 -5.625000e-01 7.734375e-01
-1.598166e+00 2.067602e+00 -7.675781e+00 5.238281e+00 3.457126e-04 2.265530e-02 -3.828125e-01 6.015625e-01
-1.601962e+00 2.089980e+00 -7.929688e+00 5.093750e+00 6.489659e-05 1.994079e-02 -6.445312e-01 6.445312e-01
-1.579350e+00 2.048920e+00 -7.585938e+00 4.816406e+00 2.295630e-04 2.018372e-02 -3.710938e-01 6.093750e-01
-1.612073e+00 2.012591e+00 -7.703125e+00 5.671875e+00 -7.104846e-05 1.825773e-02 -3.828125e-01 4.335938e-01
-1.607490e+00 2.049920e+00 -7.769531e+00 5.773438e+00 5.031892e-04 2.480989e-02 -5.781250e-01 7.539062e-01
-1.601481e+00 2.100958e+00 -7.773438e+00 5.710938e+00 -1.863678e-04 2.248203e-02 -4.453125e-01 7.187500e-01
-1.602172e+00 2.092263e+00 -7.515625e+00 5.367188e+00 -1.691576e-04 1.888210e-02 -3.828125e-01 4.335938e-01
-1.565248e+00 2.019598e+00 -7.566406e+00 5.503906e+00 -7.733243e-05 1.900403e-02 -3.710938e-01 4.726562e-01
-1.596812e+00 2.069390e+00 -7.804688e+00 5.292969e+00 8.527702e-05 1.878099e-02 -3.945312e-01 4.882812e-01
-1.602855e+00 2.135060e+00 -7.882812e+00 5.574219e+00 3.951540e-05 1.696340e-02 -3.828125e-01 4.335938e-01
-1.576400e+00 2.007806e+00 -7.882812e+00 4.796875e+00 2.864583e-05 2.042509e-02 -3.906250e-01 5.820312e-01
-1.597942e+00 2.081755e+00 -7.671875e+00 4.726562e+00 2.169195e-04 2.194415e-02 -3.828125e-01 5.820312e-01
-1.605887e+00 2.076692e+00 -7.542969e+00 5.433594e+00 2.894399e-04 2.152034e-02 -5.625000e-01 5.859375e-01
-1.617581e+00 2.075643e+00 -7.667969e+00 5.308594e+00 -4.828087e-04 1.722200e-02 -3.789062e-01 3.906250e-01
-1.622834e+00 2.063514e+00 -7.558594e+00 5.066406e+00 9.520305e-05 1.922679e-02 -3.828125e-01 5.156250e-01
-1.620295e+00 2.091697e+00 -7.878906e+00 5.035156e+00 -2.341863e-04 1.452178e-02 -3.945312e-01 4.882812e-01
-1.621248e+00 2.027231e+00 -7.878906e+00 5.132812e+00 -1.113376e-06 1.920676e-02 -4.296875e-01 6.093750e-01
-1.637747e+00 2.032521e+00 -7.597656e+00 4.996094e+00 -1.062802e-04 1.681078e-02 -3.945312e-01 4.882812e-01
-1.594458e+00 1.982477e+00 -7.601562e+00 5.371094e+00 -2.949502e-05 1.890339e-02 -3.945312e-01 4.843750e-01
-1.632523e+00 2.105043e+00 -7.808594e+00 5.542969e+00 4.717693e-05 1.828136e-02 -3.828125e-01 4.843750e-01
-1.622661e+00 2.022848e+00 -7.820312e+00 5.148438e+00 5.064915e-05 1.807229e-02 -3.945312e-01 4.882812e-01
-1.619616e+00 2.002360e+00 -7.101562e+00 5.347656e+00 4.200634e-05 2.099380e-02 -3.945312e-01 4.882812e-01
-1.622655e+00 2.006708e+00 -7.824219e+00 5.042969e+00 3.145758e-04 2.241450e-02 -5.312500e-01 4.843750e-01
-1.655821e+00 2.093844e+00 -7.855469e+00 5.042969e+00 3.198030e-04 1.981202e-02 -3.828125e-01 4.335938e-01
-1.625025e+00 2.008280e+00 -7.921875e+00 4.867188e+00 1.170554e-04 2.038543e-02 -3.710938e-01 4.218750e-01
-1.637769e+00 2.059472e+00 -7.843750e+00 5.136719e+00 -1.854997e-04 1.722005e-02 -4.023438e-01 4.882812e-01
-1.622468e+00 1.979642e+00 -7.937500e+00 5.058594e+00 -2.127868e-04 1.920152e-02 -4.921875e-01 5.585938e-01
-1.644339e+00 2.078225e+00 -7.687500e+00 4.945312e+00 2.924970e-06 1.807374e-02 -2.695312e-01 3.164062e-01
-1.622613e+00 2.055106e+00 -7.257812e+00 4.824219e+00 1.176027e-04 2.118973e-02 -5.312500e-01 5.507812e-01
-1.626301e+00 2.051949e+00 -7.871094e+00 4.621094e+00 8.895682e-05 1.963081e-02 -3.710938e-01 4.101562e-01
-1.617064e+00 2.038900e+00 -7.355469e+00 4.515625e+00 9.322162e-06 1.751702e-02 -3.828125e-01 4.726562e-01
-1.619994e+00 2.058959e+00 -7.933594e+00 5.093750e+00 -1.019022e-06 1.830674e-02 -3.828125e-01 4.726562e-01
-1.640472e+00 2.011726e+00 -7.945312e+00 4.929688e+00 4.244037e-05 1.827232e-02 -3.710938e-01 5.585938e-01
-1.649844e+00 2.079581e+00 -7.945312e+00 5.191406e+00 2.005963e-04 1.739823e-02 -3.437500e-01 3.632812e-01
-1.631023e+00 2.083684e+00 -7.640625e+00 5.191406e+00 -3.866621e-04 1.538403e-02 -3.710938e-01 4.609375e-01
-1.656246e+00 2.032088e+00 -7.859375e+00 5.199219e+00 -6.642512e-06 1.941349e-02 -3.828125e-01 4.726562e-01
-1.635928e+00 2.038855e+00 -8.046875e+00 4.523438e+00 1.801215e-04 2.221464e-02 -5.273438e-01 5.703125e-01
-1.627488e+00 1.994995e+00 -8.007812e+00 4.542969e+00 -1.484375e-04 1.756293e-02 -3.710938e-01 5.585938e-01
-1.633755e+00 2.078249e+00 -7.890625e+00 5.113281e+00 -1.165836e-04 1.803755e-02 -3.710938e-01 5.625000e-01
-1.644574e+00 2.086956e+00 -7.992188e+00 5.343750e+00 -1.887077e-06 2.089276e-02 -3.593750e-01 4.062500e-01
-1.617065e+00 2.048868e+00 -7.589844e+00 5.343750e+00 -7.774758e-05 1.826439e-02 -3.828125e-01 4.218750e-01
-1.615370e+00 2.076964e+00 -7.890625e+00 5.343750e+00 -8.235205e-05 1.825102e-02 -3.945312e-01 4.843750e-01
-1.632896e+00 2.100077e+00 -8.230469e+00 5.238281e+00 -3.596769e-05 1.739149e-02 -3.710938e-01 4.609375e-01
-1.641094e+00 2.112276e+00 -8.230469e+00 5.476562e+00 9.893946e-05 1.953053e-02 -5.468750e-01 7.578125e-01
-1.604649e+00 1.974853e+00 -7.164062e+00 4.929688e+00 -1.238866e-04 2.240902e-02 -5.429688e-01 3.906250e-01
-1.644185e+00 2.055533e+00 -7.898438e+00 5.042969e+00 -1.837258e-04 1.993086e-02 -5.429688e-01 5.585938e-01
-1.625701e+00 2.042374e+00 -7.789062e+00 5.160156e+00 7.763436e-05 1.721894e-02 -3.945312e-01 4.765625e-01
-1.604914e+00 2.021101e+00 -7.796875e+00 4.789062e+00 -5.521588e-05 1.868253e-02 -3.945312e-01 5.507812e-01
-1.613629e+00 2.026402e+00 -8.015625e+00 5.640625e+00 7.052008e-05 2.045059e-02 -5.078125e-01 4.609375e-01
-1.640233e+00 2.062430e+00 -7.515625e+00 5.589844e+00 7.521890e-05 1.933395e-02 -3.828125e-01 5.468750e-01
-1.657014e+00 2.091891e+00 -7.859375e+00 5.000000e+00 -1.562123e-04 1.924370e-02 -5.078125e-01 5.390625e-01
-1.620810e+00 2.061772e+00 -7.789062e+00 5.234375e+00 1.572690e-04 2.086015e-02 -3.945312e-01 6.171875e-01
-1.612926e+00 2.055043e+00 -7.824219e+00 5.183594e+00 -2.887228e-05 2.069780e-02 -5.664062e-01 5.390625e-01
-1.640877e+00 2.054114e+00 -7.671875e+00 5.210938e+00 1.154136e-04 1.929369e-02 -4.453125e-01 5.390625e-01
-1.623244e+00 2.021205e+00 -8.078125e+00 5.195312e+00 1.145456e-04 2.073218e-02 -3.828125e-01 4.726562e-01
-1.640277e+00 2.035474e+00 -7.671875e+00 5.500000e+00 5.431008e-04 2.695341e-02 -5.507812e-01 7.187500e-01
-1.645932e+00 2.052554e+00 -8.132812e+00 5.230469e+00 8.942859e-05 1.993070e-02 -3.945312e-01 4.882812e-01
-1.640270e+00 2.029266e+00 -7.910156e+00 5.242188e+00 1.113376e-05 1.780371e-02 -3.398438e-01 5.390625e-01
-1.686866e+00 2.072083e+00 -7.882812e+00 5.171875e+00 5.370999e-04 2.196045e-02 -5.234375e-01 6.328125e-01
-1.605351e+00 2.012776e+00 -7.726562e+00 4.523438e+00 -1.918780e-04 1.917387e-02 -3.828125e-01 4.726562e-01
-1.615214e+00 2.039243e+00 -7.816406e+00 4.839844e+00 -8.531476e-05 1.965701e-02 -4.843750e-01 4.609375e-01
-1.639765e+00 2.078534e+00 -7.847656e+00 5.503906e+00 -4.604469e-05 1.872800e-02 -4.843750e-01 5.351562e-01
-1.657639e+00 2.046202e+00 -7.964844e+00 5.273438e+00 1.719127e-05 1.912137e-02 -5.664062e-01 5.273438e-01
-1.644939e+00 1.991671e+00 -7.929688e+00 4.976562e+00 1.332277e-05 2.182038e-02 -4.453125e-01 5.468750e-01
-1.653570e+00 2.090633e+00 -7.929688e+00 4.730469e+00 1.480412e-04 2.075729e-02 -3.593750e-01 4.609375e-01
-1.659936e+00 2.066208e+00 -8.007812e+00 5.718750e+00 -9.876963e-05 1.855571e-02 -3.828125e-01 5.273438e-01
-1.616777e+00 2.069048e+00 -7.492188e+00 4.882812e+00 1.908213e-04 1.854997e-02 -5.546875e-01 5.585938e-01
-1.658837e+00 2.001564e+00 -7.757812e+00 5.210938e+00 -2.371490e-04 2.177226e-02 -3.945312e-01 5.976562e-01
-1.655784e+00 2.114403e+00 -8.125000e+00 5.339844e+00 -1.785364e-04 2.012726e-02 -4.140625e-01 5.585938e-01
-1.604019e+00 1.998371e+00 -7.906250e+00 4.738281e+00 9.584466e-05 1.942395e-02 -3.085938e-01 3.750000e-01
-1.606652e+00 2.032161e+00 -7.703125e+00 5.089844e+00 -1.779514e-05 1.794900e-02 -3.828125e-01 5.273438e-01
-1.594598e+00 2.004152e+00 -7.878906e+00 5.128906e+00 1.983318e-04 2.236827e-02 -5.273438e-01 5.273438e-01
-1.627945e+00 2.033166e+00 -7.914062e+00 5.140625e+00 2.183915e-04 2.208036e-02 -4.453125e-01 7.148438e-01
-1.667293e+00 2.049714e+00 -7.957031e+00 4.671875e+00 1.594580e-05 1.991768e-02 -3.828125e-01 5.859375e-01
-1.615660e+00 2.052154e+00 -7.910156e+00 5.656250e+00 -2.344694e-04 1.681552e-02 -4.453125e-01 5.078125e-01
-1.632141e+00 1.961547e+00 -7.371094e+00 4.781250e+00 -5.229091e-05 2.280918e-02 -3.945312e-01 5.351562e-01
-1.653992e+00 1.960188e+00 -7.804688e+00 4.968750e+00 3.408062e-05 2.158052e-02 -3.828125e-01 5.273438e-01
-1.648689e+00 2.000515e+00 -7.886719e+00 5.496094e+00 -2.599449e-04 2.054714e-02 -3.828125e-01 4.648438e-01
-1.661297e+00 1.898552e+00 -7.906250e+00 4.824219e+00 -1.353034e-04 2.052697e-02 -3.828125e-01 4.648438e-01
-1.648492e+00 2.029097e+00 -7.882812e+00 4.613281e+00 -1.388134e-04 1.768560e-02 -4.453125e-01 7.148438e-01
-1.612174e+00 2.047520e+00 -7.847656e+00 5.433594e+00 -1.557782e-04 1.433610e-02 -3.710938e-01 5.273438e-01
-1.617495e+00 2.065167e+00 -7.417969e+00 5.472656e+00 -1.330389e-04 1.882958e-02 -2.695312e-01 4.531250e-01
-1.605361e+00 1.975824e+00 -7.757812e+00 5.093750e+00 3.087258e-05 2.137660e-02 -3.710938e-01 5.273438e-01
-1.648410e+00 2.104817e+00 -8.023438e+00 4.820312e+00 1.991999e-04 2.459780e-02 -3.945312e-01 6.835938e-01
-1.610363e+00 1.986097e+00 -8.136719e+00 5.261719e+00 1.606846e-04 2.254454e-02 -3.945312e-01 6.835938e-01
-1.641356e+00 2.046089e+00 -7.199219e+00 5.648438e+00 4.798838e-05 1.978318e-02 -3.945312e-01 5.390625e-01
-1.652153e+00 2.094551e+00 -8.382812e+00 5.507812e+00 7.517172e-04 2.479637e-02 -4.453125e-01 7.734375e-01
-1.627879e+00 2.023418e+00 -7.796875e+00 4.980469e+00 3.930782e-04 2.196788e-02 -4.023438e-01 6.445312e-01
-1.653169e+00 2.022954e+00 -8.144531e+00 5.332031e+00 2.141267e-04 2.128775e-02 -4.023438e-01 6.445312e-01
-1.629671e+00 2.040756e+00 -7.679688e+00 5.359375e+00 -1.188859e-04 1.923480e-02 -3.710938e-01 4.492188e-01
-1.670004e+00 2.031364e+00 -8.367188e+00 5.656250e+00 -1.232828e-04 1.854444e-02 -3.710938e-01 4.492188e-01
-1.663647e+00 2.095090e+00 -8.453125e+00 5.542969e+00 -2.451313e-05 1.584419e-02 -3.085938e-01 3.125000e-01
-1.635372e+00 1.984025e+00 -7.386719e+00 5.324219e+00 2.329597e-04 2.195459e-02 -5.312500e-01 6.914062e-01
-1.694799e+00 1.990432e+00 -7.988281e+00 5.195312e+00 -1.076578e-04 2.455237e-02 -5.312500e-01 6.367188e-01
-1.696712e+00 1.971259e+00 -8.933594e+00 4.914062e+00 1.688179e-04 2.466239e-02 -5.273438e-01 6.367188e-01
-1.686991e+00 2.112990e+00 -7.968750e+00 4.929688e+00 1.328880e-04 2.171880e-02 -4.023438e-01 6.289062e-01
-1.680375e+00 1.960374e+00 -7.910156e+00 5.257812e+00 -3.940217e-04 2.158434e-02 -3.554688e-01 3.789062e-01
-1.707335e+00 1.989050e+00 -7.812500e+00 5.496094e+00 1.802159e-05 2.239268e-02 -3.945312e-01 6.289062e-01
-1.706458e+00 1.984021e+00 -7.734375e+00 4.730469e+00 -2.172781e-04 2.026661e-02 -3.710938e-01 5.078125e-01
-1.694406e+00 2.030704e+00 -7.917969e+00 5.578125e+00 1.465127e-04 2.075514e-02 -4.023438e-01 6.367188e-01
-1.703252e+00 1.979318e+00 -8.066406e+00 5.019531e+00 2.307896e-04 2.289436e-02 -3.945312e-01 6.953125e-01
-1.727418e+00 2.034765e+00 -8.007812e+00 5.328125e+00 -2.423573e-04 1.955659e-02 -3.828125e-01 5.195312e-01
-1.710642e+00 1.974904e+00 -8.042969e+00 4.796875e+00 9.956220e-04 2.469632e-02 -4.023438e-01 6.367188e-01
-1.674117e+00 1.992887e+00 -8.246094e+00 5.417969e+00 2.332428e-04 2.215175e-02 -5.507812e-01 6.054688e-01
-1.725237e+00 2.069278e+00 -8.351562e+00 5.535156e+00 6.750075e-05 1.935383e-02 -4.023438e-01 6.367188e-01
-1.695111e+00 1.969815e+00 -7.976562e+00 5.492188e+00 -8.112545e-05 2.083743e-02 -3.945312e-01 5.468750e-01
-1.707423e+00 2.021542e+00 -7.988281e+00 5.308594e+00 1.804046e-05 2.401871e-02 -3.828125e-01 6.054688e-01
-1.702534e+00 1.959322e+00 -8.019531e+00 5.691406e+00 2.192406e-04 2.445242e-02 -3.828125e-01 6.015625e-01
-1.688124e+00 2.001416e+00 -7.996094e+00 5.878906e+00 -2.052197e-04 2.165959e-02 -4.023438e-01 6.367188e-01
-1.685880e+00 2.025488e+00 -8.109375e+00 5.554688e+00 5.431008e-05 1.882835e-02 -3.984375e-01 6.757812e-01
-1.703679e+00 2.022452e+00 -8.089844e+00 5.390625e+00 -4.222335e-04 1.449244e-02 -2.460938e-01 3.164062e-01
-1.690606e+00 1.989741e+00 -7.925781e+00 5.777344e+00 -1.329635e-04 1.950004e-02 -3.945312e-01 6.093750e-01
-1.699161e+00 2.068317e+00 -7.601562e+00 5.578125e+00 -1.762530e-05 2.243695e-02 -6.054688e-01 6.132812e-01
-1.697424e+00 2.015640e+00 -8.171875e+00 5.550781e+00 5.161156e-05 2.149621e-02 -5.976562e-01 6.757812e-01
-1.705201e+00 1.958676e+00 -8.003906e+00 5.550781e+00 -8.723958e-05 2.292522e-02 -6.289062e-01 8.164062e-01
-1.664099e+00 1.980900e+00 -8.078125e+00 5.644531e+00 -8.569218e-05 2.239463e-02 -3.710938e-01 5.156250e-01
-1.644706e+00 1.960142e+00 -7.933594e+00 5.121094e+00 -3.953427e-05 2.359739e-02 -4.101562e-01 6.132812e-01
-1.711859e+00 2.066023e+00 -8.113281e+00 5.429688e+00 7.403948e-04 2.446558e-02 -3.945312e-01 6.132812e-01
-1.668971e+00 1.913227e+00 -7.765625e+00 5.644531e+00 5.698973e-04 2.918725e-02 -4.023438e-01 7.031250e-01
-1.680532e+00 2.001495e+00 -7.941406e+00 5.644531e+00 2.097109e-04 2.179972e-02 -3.710938e-01 5.156250e-01
-1.700413e+00 2.008088e+00 -8.105469e+00 5.628906e+00 -8.971165e-05 1.827529e-02 -3.828125e-01 5.820312e-01
-1.673575e+00 1.935532e+00 -7.679688e+00 5.039062e+00 -1.475694e-04 2.006043e-02 -3.945312e-01 6.835938e-01
-1.691474e+00 1.998774e+00 -7.679688e+00 5.550781e+00 -2.755133e-05 2.021300e-02 -4.023438e-01 7.031250e-01
-1.681565e+00 2.027925e+00 -8.046875e+00 5.550781e+00 2.813066e-04 2.128121e-02 -3.945312e-01 6.132812e-01
-1.704865e+00 1.982739e+00 -7.875000e+00 5.531250e+00 -3.906250e-06 2.142848e-02 -4.453125e-01 7.109375e-01
-1.693211e+00 1.980297e+00 -7.789062e+00 4.964844e+00 5.497056e-04 2.722563e-02 -4.453125e-01 7.109375e-01
-1.706237e+00 1.942142e+00 -7.109375e+00 5.320312e+00 2.451691e-04 2.071513e-02 -3.710938e-01 5.195312e-01
-1.721046e+00 1.973206e+00 -7.968750e+00 5.640625e+00 -3.043856e-05 1.983431e-02 -3.828125e-01 4.960938e-01
-1.704689e+00 2.001191e+00 -7.558594e+00 5.031250e+00 1.186783e-04 1.941858e-02 -6.406250e-01 6.093750e-01
-1.727247e+00 2.066161e+00 -7.898438e+00 5.636719e+00 -2.312991e-04 1.641624e-02 -3.945312e-01 6.171875e-01
-1.676648e+00 1.934741e+00 -7.484375e+00 5.367188e+00 -1.470033e-04 2.088233e-02 -3.359375e-01 4.179688e-01
-1.705208e+00 2.022768e+00 -7.890625e+00 5.035156e+00 -1.051102e-05 1.933086e-02 -4.882812e-01 6.171875e-01
-1.682440e+00 1.959921e+00 -7.894531e+00 5.429688e+00 -1.212447e-04 2.160004e-02 -6.171875e-01 4.765625e-01
-1.683697e+00 1.989817e+00 -7.843750e+00 5.660156e+00 -1.909722e-05 1.666020e-02 -3.437500e-01 2.929688e-01
-1.661517e+00 2.116208e+00 -7.960938e+00 5.578125e+00 7.712485e-05 2.164226e-02 -5.976562e-01 6.132812e-01
-1.705219e+00 2.012237e+00 -8.042969e+00 5.644531e+00 6.358507e-04 2.703791e-02 -5.507812e-01 7.460938e-01
-1.718491e+00 1.989910e+00 -8.003906e+00 5.105469e+00 1.038270e-04 2.067893e-02 -3.828125e-01 6.132812e-01
-1.710466e+00 2.022338e+00 -8.003906e+00 5.753906e+00 1.507775e-05 1.830293e-02 -3.945312e-01 6.171875e-01
-1.712289e+00 2.007847e+00 -9.460938e+00 5.757812e+00 7.029363e-05 2.343688e-02 -5.859375e-01 6.289062e-01
-1.726651e+00 2.103277e+00 -9.707031e+00 7.347656e+00 5.045101e-04 2.525695e-02 -3.984375e-01 5.703125e-01
-1.716609e+00 2.011095e+00 -9.656250e+00 5.199219e+00 8.142739e-04 3.802162e-02 -7.851562e-01 1.230469e+00
-1.706333e+00 1.947580e+00 -9.351562e+00 5.078125e+00 -3.157080e-05 2.350009e-02 -4.023438e-01 6.796875e-01
-1.713518e+00 1.935994e+00 -8.804688e+00 5.460938e+00 1.097335e-04 2.751422e-02 -3.945312e-01 6.835938e-01
-1.729776e+00 1.920702e+00 -9.242188e+00 5.460938e+00 5.197011e-04 2.698687e-02 -4.101562e-01 7.656250e-01
-1.719691e+00 1.951162e+00 -8.281250e+00 5.320312e+00 -6.684971e-04 2.496907e-02 -3.789062e-01 4.843750e-01
-1.703799e+00 1.974158e+00 -9.324219e+00 5.144531e+00 -2.328087e-04 2.292782e-02 -5.585938e-01 7.539062e-01
-1.726014e+00 2.057004e+00 -8.539062e+00 5.179688e+00 1.918214e-04 2.102668e-02 -4.101562e-01 7.656250e-01
-1.716109e+00 2.032587e+00 -9.359375e+00 5.359375e+00 -5.081899e-05 2.152014e-02 -3.945312e-01 6.953125e-01
-1.778372e+00 2.010326e+00 -9.093750e+00 4.933594e+00 1.975015e-04 2.130709e-02 -3.828125e-01 6.835938e-01
-1.727880e+00 2.035170e+00 -9.027344e+00 5.500000e+00 8.274834e-05 2.164592e-02 -3.437500e-01 4.570312e-01
-1.776546e+00 1.939562e+00 -8.417969e+00 4.613281e+00 -3.698294e-04 2.117865e-02 -3.710938e-01 5.898438e-01
-1.758875e+00 1.995638e+00 -9.222656e+00 4.652344e+00 1.152438e-04 2.124047e-02 -3.750000e-01 4.804688e-01
-1.705811e+00 1.936019e+00 -8.484375e+00 4.769531e+00 -2.738149e-05 2.241606e-02 -3.828125e-01 6.640625e-01
-1.713129e+00 1.935615e+00 -8.886719e+00 4.328125e+00 -5.152665e-04 2.575074e-02 -3.710938e-01 6.328125e-01
-1.734605e+00 1.960823e+00 -8.464844e+00 5.460938e+00 -5.994301e-04 2.176350e-02 -3.710938e-01 4.726562e-01
-1.785778e+00 2.156531e+00 -1.110156e+01 7.390625e+00 1.419648e-04 2.661743e-02 -4.414062e-01 8.085938e-01
-1.800149e+00 2.159118e+00 -1.018359e+01 7.230469e+00 3.846052e-04 2.811271e-02 -3.867188e-01 8.320312e-01
-1.826842e+00 2.094790e+00 -9.164062e+00 5.054688e+00 2.211088e-04 2.872530e-02 -4.179688e-01 7.343750e-01
-1.845999e+00 2.086617e+00 -1.061719e+01 4.605469e+00 1.657609e-04 2.372177e-02 -3.750000e-01 5.664062e-01
-1.886389e+00 2.169908e+00 -1.005469e+01 4.675781e+00 -2.062387e-04 2.011063e-02 -3.593750e-01 6.289062e-01
-1.756030e+00 2.135059e+00 -1.036328e+01 5.750000e+00 -6.555707e-05 3.023456e-02 -3.906250e-01 6.953125e-01
-1.768159e+00 2.222811e+00 -1.008203e+01 6.054688e+00 4.781288e-04 2.874607e-02 -4.023438e-01 1.750000e+00
-1.811900e+00 2.127162e+00 -9.218750e+00 6.058594e+00 3.996641e-04 2.651259e-02 -3.710938e-01 7.343750e-01
-1.832941e+00 2.190942e+00 -9.285156e+00 6.058594e+00 4.828087e-04 2.830949e-02 -4.296875e-01 7.304688e-01
-1.775089e+00 2.216119e+00 -8.738281e+00 6.058594e+00 -1.911043e-04 2.360969e-02 -7.265625e-01 7.304688e-01
-1.791128e+00 2.094482e+00 -8.867188e+00 5.886719e+00 4.305367e-04 3.396643e-02 -5.976562e-01 6.992188e-01
-1.800632e+00 2.156124e+00 -9.910156e+00 6.312500e+00 5.878246e-05 2.674041e-02 -8.046875e-01 7.500000e-01
-1.798438e+00 2.163763e+00 -9.843750e+00 6.382812e+00 1.241508e-04 2.483750e-02 -3.906250e-01 6.875000e-01
-1.820708e+00 2.119943e+00 -8.921875e+00 6.382812e+00 6.099034e-04 3.010497e-02 -5.429688e-01 6.835938e-01
-1.826467e+00 2.145314e+00 -9.503906e+00 6.382812e+00 -6.248113e-05 2.362772e-02 -6.640625e-01 6.875000e-01
-1.798096e+00 2.118403e+00 -8.937500e+00 5.421875e+00 -1.316048e-04 2.345535e-02 -3.710938e-01 7.500000e-01
-1.800252e+00 2.129021e+00 -8.953125e+00 5.265625e+00 -3.107073e-04 2.399503e-02 -3.710938e-01 7.500000e-01
-1.777105e+00 2.090479e+00 -9.058594e+00 5.265625e+00 1.995396e-04 2.649840e-02 -5.390625e-01 6.679688e-01
-1.781055e+00 2.119543e+00 -9.390625e+00 6.710938e+00 -5.244188e-05 2.404765e-02 -4.375000e-01 7.617188e-01
-1.826563e+00 2.096462e+00 -8.648438e+00 5.574219e+00 -1.413798e-04 2.203844e-02 -5.390625e-01 7.539062e-01
-1.783102e+00 2.133390e+00 -8.957031e+00 5.156250e+00 -2.943841e-04 2.753756e-02 -3.789062e-01 7.500000e-01
-1.801853e+00 2.090799e+00 -9.703125e+00 4.460938e+00 -5.524419e-04 2.565536e-02 -4.101562e-01 5.585938e-01
-1.771689e+00 2.196077e+00 -9.296875e+00 4.871094e+00 -2.079748e-04 2.412907e-02 -4.101562e-01 7.617188e-01
-1.736200e+00 2.125370e+00 -8.972656e+00 4.890625e+00 1.171120e-04 2.461509e-02 -3.710938e-01 5.898438e-01
-1.765555e+00 2.165449e+00 -9.042969e+00 4.996094e+00 -3.029703e-04 2.377591e-02 -3.593750e-01 6.757812e-01
-1.741516e+00 2.152583e+00 -9.214844e+00 6.703125e+00 -1.334541e-04 2.258214e-02 -4.140625e-01 7.773438e-01
-1.762552e+00 2.166282e+00 -9.691406e+00 5.816406e+00 -1.743471e-04 1.879358e-02 -3.437500e-01 5.507812e-01
-1.782939e+00 2.109071e+00 -9.582031e+00 5.027344e+00 1.118093e-04 2.762733e-02 -3.945312e-01 6.875000e-01
-1.783071e+00 2.086321e+00 -9.050781e+00 6.703125e+00 4.510115e-05 2.461350e-02 -5.234375e-01 4.609375e-01
-1.751996e+00 2.119361e+00 -9.210938e+00 6.691406e+00 -7.152023e-05 2.227135e-02 -3.945312e-01 3.671875e-01
-1.758279e+00 2.193291e+00 -8.843750e+00 4.847656e+00 -8.582428e-05 2.157254e-02 -3.750000e-01 5.937500e-01
-1.782402e+00 2.176104e+00 -9.652344e+00 6.691406e+00 5.698030e-04 2.750657e-02 -4.375000e-01 7.578125e-01
-1.797151e+00 2.077184e+00 -8.914062e+00 5.738281e+00 1.818388e-04 3.022656e-02 -7.187500e-01 6.835938e-01
-1.764709e+00 2.155109e+00 -9.609375e+00 5.160156e+00 -1.644965e-04 2.464754e-02 -7.187500e-01 5.664062e-01
-1.807844e+00 2.104322e+00 -8.316406e+00 5.304688e+00 2.816463e-04 2.778745e-02 -4.765625e-01 6.757812e-01
-1.799927e+00 2.061783e+00 -8.929688e+00 5.144531e+00 -2.779665e-04 2.261589e-02 -3.828125e-01 4.296875e-01
-1.780680e+00 2.069177e+00 -9.671875e+00 4.781250e+00 3.806235e-04 2.844885e-02 -4.765625e-01 5.507812e-01
-1.765867e+00 2.204329e+00 -9.671875e+00 6.359375e+00 -1.524004e-04 1.751467e-02 -4.023438e-01 5.937500e-01
-1.792414e+00 2.111702e+00 -9.062500e+00 6.773438e+00 1.462485e-05 2.731998e-02 -8.828125e-01 5.937500e-01
-1.763763e+00 2.058591e+00 -9.062500e+00 6.652344e+00 1.903117e-04 2.558740e-02 -3.906250e-01 7.617188e-01
-1.780721e+00 2.138297e+00 -8.636719e+00 6.785156e+00 -2.080314e-04 2.306459e-02 -6.132812e-01 5.937500e-01
-1.770436e+00 2.032103e+00 -9.722656e+00 6.683594e+00 3.450332e-04 2.796189e-02 -6.640625e-01 5.937500e-01
-1.747114e+00 2.074002e+00 -9.558594e+00 5.683594e+00 -1.704974e-04 2.631297e-02 -6.015625e-01 5.976562e-01
-1.808716e+00 2.174259e+00 -8.976562e+00 6.640625e+00 -2.983469e-04 2.064790e-02 -2.617188e-01 3.593750e-01
-1.806009e+00 2.167939e+00 -8.980469e+00 6.386719e+00 -1.754038e-04 2.037674e-02 -3.359375e-01 3.671875e-01
-1.779590e+00 2.154992e+00 -9.007812e+00 6.800781e+00 -3.094807e-04 2.140692e-02 -3.710938e-01 6.640625e-01
-1.734485e+00 2.139774e+00 -9.699219e+00 6.164062e+00 -1.678178e-04 2.601086e-02 -4.218750e-01 6.953125e-01
-1.778008e+00 2.141686e+00 -9.421875e+00 6.796875e+00 2.738149e-04 2.327129e-02 -5.234375e-01 5.703125e-01
-1.759108e+00 2.101486e+00 -9.203125e+00 6.320312e+00 6.604771e-06 2.276207e-02 -4.335938e-01 1.792969e+00
-1.774680e+00 2.152687e+00 -9.074219e+00 6.722656e+00 8.159722e-05 2.206232e-02 -4.140625e-01 7.851562e-01
-1.744297e+00 2.161146e+00 -9.656250e+00 6.183594e+00 -1.272834e-04 2.414523e-02 -6.132812e-01 5.898438e-01
-1.751236e+00 2.166461e+00 -8.613281e+00 6.722656e+00 2.374887e-04 2.226779e-02 -3.945312e-01 7.851562e-01
-1.766917e+00 2.114418e+00 -9.023438e+00 5.210938e+00 7.961579e-04 3.327007e-02 -7.304688e-01 7.851562e-01
-1.762842e+00 2.134709e+00 -9.378906e+00 5.191406e+00 -2.434330e-06 2.632394e-02 -7.304688e-01 5.781250e-01
-1.782413e+00 2.148584e+00 -8.929688e+00 6.707031e+00 9.246679e-05 2.446196e-02 -7.265625e-01 6.992188e-01
-1.775295e+00 2.152029e+00 -9.554688e+00 5.535156e+00 -2.290723e-04 1.974487e-02 -4.179688e-01 5.859375e-01
-1.750455e+00 2.168261e+00 -8.972656e+00 5.902344e+00 1.631190e-04 2.351027e-02 -3.828125e-01 7.656250e-01
-1.753323e+00 2.127937e+00 -9.605469e+00 4.574219e+00 3.432594e-04 2.954546e-02 -5.859375e-01 6.718750e-01
-1.759460e+00 2.144343e+00 -8.855469e+00 6.726562e+00 2.540950e-04 2.326392e-02 -3.945312e-01 7.695312e-01
-1.731323e+00 2.106990e+00 -9.148438e+00 6.726562e+00 -2.730601e-04 2.493237e-02 -7.031250e-01 4.453125e-01
-1.466593e+00 2.400742e+00 -9.812500e+00 7.972656e+00 1.248188e-03 4.853838e-02 -1.175781e+00 1.648438e+00
-1.449253e+00 2.456961e+00 -9.863281e+00 8.203125e+00 1.847920e-03 5.816856e-02 -8.632812e-01 1.464844e+00
-1.458000e+00 2.465007e+00 -9.394531e+00 7.906250e+00 9.001359e-04 4.490466e-02 -1.230469e+00 9.062500e-01
-1.496437e+00 2.306975e+00 -9.464844e+00 8.257812e+00 1.444426e-03 4.851066e-02 -1.230469e+00 1.460938e+00
-1.507888e+00 2.421849e+00 -9.464844e+00 7.449219e+00 1.302555e-03 3.937536e-02 -7.500000e-01 1.679688e+00
-1.525961e+00 2.315419e+00 -9.613281e+00 7.175781e+00 5.516870e-04 3.803916e-02 -4.570312e-01 8.593750e-01
-1.516120e+00 2.319409e+00 -9.007812e+00 7.453125e+00 1.494188e-03 5.563492e-02 -9.843750e-01 1.828125e+00
-1.564708e+00 2.311039e+00 -9.765625e+00 6.718750e+00 1.228431e-03 3.446697e-02 -8.281250e-01 1.679688e+00
-1.573046e+00 2.298594e+00 -9.085938e+00 7.734375e+00 1.356526e-03 3.978838e-02 -4.765625e-01 1.710938e+00
-1.587644e+00 2.308699e+00 -9.222656e+00 7.351562e+00 1.350204e-03 3.663834e-02 -1.292969e+00 1.679688e+00
-1.638017e+00 2.349634e+00 -9.082031e+00 7.226562e+00 1.123302e-03 3.475543e-02 -7.226562e-01 1.667969e+00
-1.630640e+00 2.325432e+00 -9.644531e+00 7.441406e+00 6.039780e-04 2.729276e-02 -5.742188e-01 5.976562e-01
-1.677862e+00 2.257831e+00 -9.304688e+00 6.582031e+00 9.316501e-04 3.499456e-02 -4.218750e-01 1.683594e+00
-1.698044e+00 2.240624e+00 -9.535156e+00 6.554688e+00 5.601223e-04 3.181790e-02 -5.507812e-01 1.664062e+00
-1.734382e+00 2.221837e+00 -8.703125e+00 7.015625e+00 -2.012568e-04 2.460041e-02 -3.828125e-01 6.445312e-01
-1.727178e+00 2.237744e+00 -9.222656e+00 6.250000e+00 8.184254e-05 2.913507e-02 -4.453125e-01 1.671875e+00
-1.723946e+00 2.217703e+00 -9.304688e+00 5.941406e+00 1.526079e-04 2.732149e-02 -5.273438e-01 6.562500e-01
-1.723344e+00 2.179766e+00 -9.039062e+00 6.726562e+00 3.190482e-04 2.379237e-02 -7.460938e-01 7.265625e-01
-1.764262e+00 2.105140e+00 -9.484375e+00 5.734375e+00 3.176140e-04 2.913913e-02 -5.273438e-01 6.484375e-01
-1.730744e+00 2.274631e+00 -8.902344e+00 6.203125e+00 1.036383e-04 2.395436e-02 -4.882812e-01 6.523438e-01
-1.735773e+00 2.327618e+00 -9.351562e+00 6.222656e+00 1.718939e-04 2.236682e-02 -3.593750e-01 6.328125e-01
-1.751571e+00 2.237388e+00 -9.066406e+00 5.757812e+00 2.604167e-05 2.316512e-02 -3.710938e-01 5.898438e-01
-1.725571e+00 2.164937e+00 -8.996094e+00 5.742188e+00 5.897117e-05 2.449886e-02 -3.593750e-01 5.820312e-01
-1.728089e+00 2.185433e+00 -9.058594e+00 6.000000e+00 2.392437e-04 2.348922e-02 -3.828125e-01 6.718750e-01
-1.766333e+00 2.224150e+00 -9.652344e+00 5.660156e+00 -2.865527e-04 2.230964e-02 -3.710938e-01 6.484375e-01
-1.769229e+00 2.144976e+00 -8.636719e+00 6.050781e+00 -1.022796e-04 2.338944e-02 -3.437500e-01 5.585938e-01
-1.723024e+00 2.144160e+00 -8.679688e+00 5.429688e+00 4.634662e-04 3.192881e-02 -4.179688e-01 1.664062e+00
-1.742190e+00 2.189985e+00 -8.644531e+00 5.988281e+00 4.434820e-04 2.288707e-02 -3.593750e-01 4.765625e-01
-1.745256e+00 2.242530e+00 -9.046875e+00 5.660156e+00 9.836390e-04 3.229767e-02 -4.414062e-01 1.691406e+00
-1.733126e+00 2.337191e+00 -9.730469e+00 5.660156e+00 8.868320e-04 3.309917e-02 -5.429688e-01 1.671875e+00
-1.745098e+00 2.294269e+00 -9.054688e+00 5.988281e+00 1.108186e-03 3.031935e-02 -4.218750e-01 1.671875e+00
-1.742913e+00 2.188613e+00 -9.355469e+00 5.675781e+00 1.603450e-04 2.601594e-02 -4.218750e-01 1.671875e+00
-1.751771e+00 2.266907e+00 -8.664062e+00 6.230469e+00 -1.285666e-04 2.377643e-02 -3.828125e-01 6.718750e-01
-1.779726e+00 2.096360e+00 -9.089844e+00 5.679688e+00 3.580163e-04 2.741128e-02 -4.296875e-01 6.992188e-01
-1.781318e+00 2.191343e+00 -9.089844e+00 5.601562e+00 1.435311e-04 2.299029e-02 -3.710938e-01 6.679688e-01
-1.751150e+00 2.101330e+00 -9.121094e+00 6.152344e+00 3.790195e-04 3.092730e-02 -4.296875e-01 6.992188e-01
-1.755766e+00 2.177023e+00 -8.695312e+00 6.199219e+00 -3.552423e-04 2.981064e-02 -5.742188e-01 1.015625e+00
-1.759341e+00 2.206577e+00 -9.652344e+00 5.535156e+00 3.122169e-04 2.400226e-02 -3.554688e-01 4.960938e-01
-1.761086e+00 2.197544e+00 -9.421875e+00 5.597656e+00 3.881718e-05 2.294854e-02 -3.437500e-01 4.960938e-01
-1.763851e+00 2.172874e+00 -8.726562e+00 5.472656e+00 1.523626e-04 3.078215e-02 -6.054688e-01 1.679688e+00
-1.736763e+00 2.153100e+00 -8.953125e+00 5.968750e+00 -4.784684e-04 2.292221e-02 -3.828125e-01 7.031250e-01
-1.734971e+00 2.236149e+00 -9.054688e+00 6.175781e+00 1.196596e-04 2.221310e-02 -4.687500e-01 7.031250e-01
-1.794731e+00 2.173066e+00 -9.566406e+00 5.472656e+00 1.305291e-04 2.618725e-02 -6.171875e-01 6.992188e-01
-1.771457e+00 2.228316e+00 -9.277344e+00 5.894531e+00 -3.310877e-04 2.223620e-02 -3.710938e-01 6.015625e-01
-1.751700e+00 2.197635e+00 -9.105469e+00 5.468750e+00 1.018078e-04 2.112539e-02 -3.710938e-01 6.718750e-01
-1.775797e+00 2.147392e+00 -8.902344e+00 5.699219e+00 -8.865489e-05 2.461805e-02 -4.218750e-01 1.675781e+00
-1.787779e+00 2.195901e+00 -8.894531e+00 5.640625e+00 -1.118093e-04 2.258138e-02 -3.710938e-01 6.679688e-01
-1.769764e+00 2.206168e+00 -9.437500e+00 5.777344e+00 1.013361e-04 2.174003e-02 -3.945312e-01 6.835938e-01
-1.770698e+00 2.149370e+00 -9.093750e+00 5.812500e+00 -1.659118e-04 2.397583e-02 -4.062500e-01 6.523438e-01
-1.757729e+00 2.244234e+00 -9.695312e+00 6.101562e+00 -2.533967e-04 1.883917e-02 -4.101562e-01 6.093750e-01
-1.754273e+00 2.224550e+00 -8.878906e+00 6.148438e+00 1.137341e-04 2.727913e-02 -6.367188e-01 7.109375e-01
-1.779994e+00 2.179974e+00 -8.902344e+00 5.718750e+00 -9.358016e-05 2.390928e-02 -3.945312e-01 7.031250e-01
-1.801305e+00 2.229547e+00 -8.902344e+00 5.656250e+00 8.018191e-04 3.391112e-02 -6.523438e-01 7.812500e-01
-1.724739e+00 2.172981e+00 -8.910156e+00 6.269531e+00 8.272947e-05 2.427823e-02 -4.179688e-01 7.031250e-01
-1.770861e+00 2.137242e+00 -9.707031e+00 6.269531e+00 -1.403986e-05 2.537709e-02 -4.960938e-01 1.726562e+00
-1.733810e+00 2.183675e+00 -9.460938e+00 6.058594e+00 2.007850e-04 2.323114e-02 -4.609375e-01 6.796875e-01
-1.756053e+00 2.216678e+00 -9.207031e+00 6.066406e+00 1.371905e-04 2.218742e-02 -3.828125e-01 6.796875e-01
-1.684180e+00 2.187687e+00 -9.144531e+00 5.632812e+00 4.727129e-05 2.368000e-02 -3.710938e-01 6.250000e-01
-1.744874e+00 2.190821e+00 -9.523438e+00 5.589844e+00 1.620999e-04 2.951597e-02 -9.609375e-01 7.343750e-01
-1.757079e+00 2.182989e+00 -8.953125e+00 6.160156e+00 -1.129416e-04 1.911074e-02 -3.984375e-01 7.031250e-01
-1.734548e+00 2.233104e+00 -9.199219e+00 6.160156e+00 -9.850543e-05 2.437012e-02 -9.609375e-01 7.343750e-01
-1.765890e+00 2.249139e+00 -9.164062e+00 5.886719e+00 3.079710e-04 2.765420e-02 -4.804688e-01 4.609375e-01
-1.762035e+00 2.158487e+00 -9.164062e+00 6.210938e+00 -2.418290e-04 2.294581e-02 -3.789062e-01 4.648438e-01
-1.724975e+00 2.102646e+00 -9.667969e+00 5.781250e+00 -1.517210e-04 2.091156e-02 -3.750000e-01 4.960938e-01
-1.764132e+00 2.198601e+00 -8.843750e+00 5.644531e+00 -5.774457e-05 2.103439e-02 -4.335938e-01 7.460938e-01
-1.756498e+00 2.238194e+00 -9.246094e+00 5.777344e+00 3.070841e-04 2.451417e-02 -6.171875e-01 4.960938e-01
-1.794321e+00 2.249919e+00 -9.195312e+00 6.156250e+00 5.755586e-06 2.049925e-02 -4.335938e-01 7.304688e-01
-1.741022e+00 2.204349e+00 -9.183594e+00 5.703125e+00 -1.809707e-04 2.202104e-02 -3.242188e-01 4.843750e-01
-1.751913e+00 2.144812e+00 -9.617188e+00 5.820312e+00 5.059254e-05 3.036771e-02 -6.445312e-01 6.875000e-01
-1.756248e+00 2.169690e+00 -9.601562e+00 5.859375e+00 7.489810e-05 2.333045e-02 -4.140625e-01 6.250000e-01
-1.756212e+00 2.124220e+00 -9.359375e+00 6.261719e+00 4.157231e-04 2.913907e-02 -6.250000e-01 6.679688e-01
-1.781431e+00 2.216327e+00 -9.593750e+00 6.308594e+00 5.290421e-04 2.648053e-02 -3.984375e-01 7.109375e-01
-1.758537e+00 2.261139e+00 -9.019531e+00 6.355469e+00 -1.401155e-04 2.102141e-02 -3.984375e-01 7.109375e-01
-1.822655e+00 2.247431e+00 -9.117188e+00 5.539062e+00 4.205918e-04 2.724231e-02 -4.335938e-01 8.281250e-01
-1.781216e+00 2.214448e+00 -8.988281e+00 5.949219e+00 -5.750868e-04 2.308294e-02 -4.375000e-01 6.250000e-01
-1.818457e+00 2.158590e+00 -9.542969e+00 5.406250e+00 -1.791969e-04 2.257413e-02 -3.828125e-01 6.953125e-01
-1.786313e+00 2.223941e+00 -9.632812e+00 5.972656e+00 3.887379e-06 2.373221e-02 -8.242188e-01 6.250000e-01
-1.811818e+00 2.227930e+00 -9.011719e+00 5.644531e+00 -1.049781e-04 2.744953e-02 -5.273438e-01 7.031250e-01
-1.765479e+00 2.165257e+00 -8.816406e+00 5.628906e+00 9.303291e-05 2.369005e-02 -6.210938e-01 6.796875e-01
-1.787245e+00 2.215594e+00 -9.144531e+00 5.945312e+00 1.362470e-04 2.453610e-02 -3.710938e-01 6.757812e-01
-1.793060e+00 2.239634e+00 -9.660156e+00 5.945312e+00 7.329408e-05 2.396371e-02 -6.445312e-01 9.570312e-01
-1.787726e+00 2.250572e+00 -9.671875e+00 5.726562e+00 -7.937047e-05 2.198883e-02 -6.054688e-01 7.109375e-01
-1.820082e+00 2.171375e+00 -9.242188e+00 6.113281e+00 -1.915383e-05 2.217202e-02 -3.710938e-01 6.171875e-01
-1.827562e+00 2.180661e+00 -8.828125e+00 5.996094e+00 -1.204899e-04 2.338209e-02 -3.945312e-01 7.109375e-01
-1.763154e+00 2.190538e+00 -9.667969e+00 6.234375e+00 -1.425498e-04 2.327051e-02 -5.390625e-01 7.148438e-01
-1.772703e+00 2.150549e+00 -9.531250e+00 5.519531e+00 6.348128e-04 2.623638e-02 -7.070312e-01 7.460938e-01
-1.790077e+00 2.134110e+00 -9.152344e+00 6.234375e+00 1.298120e-04 2.717972e-02 -5.390625e-01 7.460938e-01
-1.779129e+00 2.122025e+00 -9.652344e+00 6.226562e+00 -4.513889e-04 2.353286e-02 -3.593750e-01 6.054688e-01
-1.800193e+00 2.140127e+00 -9.519531e+00 6.289062e+00 1.070916e-04 2.413354e-02 -3.710938e-01 6.953125e-01
-1.781274e+00 2.224505e+00 -9.164062e+00 6.289062e+00 7.274683e-05 2.826383e-02 -5.234375e-01 6.992188e-01
-1.777623e+00 2.142021e+00 -9.519531e+00 5.972656e+00 -2.740036e-04 2.463666e-02 -4.296875e-01 6.953125e-01
-1.826693e+00 2.159025e+00 -9.507812e+00 5.652344e+00 3.713768e-04 2.695397e-02 -6.328125e-01 6.796875e-01
-1.732562e+00 2.152678e+00 -8.816406e+00 5.742188e+00 -1.943123e-04 2.268049e-02 -4.609375e-01 6.523438e-01
-1.752732e+00 2.179821e+00 -8.777344e+00 6.191406e+00 1.697237e-04 2.491220e-02 -4.687500e-01 7.187500e-01
-1.759934e+00 2.222348e+00 -9.703125e+00 5.679688e+00 -2.349600e-04 2.080989e-02 -3.828125e-01 6.601562e-01
-1.824986e+00 2.389247e+00 -9.449219e+00 7.054688e+00 2.407911e-05 2.300345e-02 -4.843750e-01 1.644531e+00
-1.860834e+00 2.273322e+00 -9.875000e+00 6.660156e+00 -1.080163e-04 2.562905e-02 -4.179688e-01 2.085938e+00
-1.832294e+00 2.368588e+00 -9.781250e+00 6.632812e+00 3.926064e-04 2.914932e-02 -4.218750e-01 2.093750e+00
-1.875625e+00 2.381813e+00 -9.332031e+00 6.656250e+00 5.372509e-04 3.319123e-02 -4.218750e-01 2.093750e+00
-1.865234e+00 2.284386e+00 -9.480469e+00 5.960938e+00 -1.322652e-04 2.337329e-02 -4.023438e-01 8.437500e-01
-1.887032e+00 2.282613e+00 -8.992188e+00 6.550781e+00 -5.332880e-05 2.641491e-02 -3.593750e-01 6.367188e-01
-1.842892e+00 2.277135e+00 -9.816406e+00 6.375000e+00 -1.707050e-04 2.366565e-02 -3.710938e-01 6.562500e-01
-1.823066e+00 2.309036e+00 -9.796875e+00 5.769531e+00 -2.017286e-04 2.108884e-02 -6.445312e-01 6.250000e-01
-1.849463e+00 2.320004e+00 -9.277344e+00 6.351562e+00 -2.718712e-04 2.172297e-02 -6.328125e-01 9.179688e-01
-1.846850e+00 2.269727e+00 -9.261719e+00 6.027344e+00 -1.071860e-04 2.216612e-02 -5.546875e-01 8.320312e-01
-1.889227e+00 2.236857e+00 -8.988281e+00 6.175781e+00 3.519399e-05 2.890584e-02 -5.781250e-01 8.320312e-01
-1.838865e+00 2.310519e+00 -9.757812e+00 6.679688e+00 1.364168e-04 2.340940e-02 -5.976562e-01 8.320312e-01
-1.867420e+00 2.253379e+00 -9.417969e+00 5.992188e+00 -1.548536e-04 2.099109e-02 -3.828125e-01 6.757812e-01
-1.833035e+00 2.277308e+00 -9.710938e+00 6.214844e+00 6.899155e-05 2.654736e-02 -5.625000e-01 6.523438e-01
-1.854659e+00 2.258175e+00 -9.761719e+00 6.183594e+00 -2.365451e-04 2.906028e-02 -5.195312e-01 7.421875e-01
-1.862083e+00 2.281135e+00 -9.761719e+00 6.699219e+00 -2.217316e-04 1.896574e-02 -3.710938e-01 6.445312e-01
-1.822101e+00 2.261458e+00 -1.139453e+01 6.148438e+00 -4.270456e-04 2.443546e-02 -5.351562e-01 6.406250e-01
-1.867785e+00 2.265517e+00 -1.139453e+01 6.699219e+00 2.853261e-04 2.736122e-02 -5.468750e-01 6.757812e-01
-1.824222e+00 2.309122e+00 -9.648438e+00 6.617188e+00 -7.397343e-05 2.947375e-02 -7.968750e-01 6.562500e-01
-1.832794e+00 2.306248e+00 -9.710938e+00 5.621094e+00 -2.215429e-04 2.475871e-02 -4.765625e-01 5.976562e-01
-1.844207e+00 2.195039e+00 -9.703125e+00 6.234375e+00 7.699275e-05 2.074983e-02 -4.921875e-01 4.804688e-01
-1.836782e+00 2.340164e+00 -9.660156e+00 6.539062e+00 6.817067e-04 2.622479e-02 -3.828125e-01 6.640625e-01
-1.845086e+00 2.275565e+00 -1.010156e+01 6.445312e+00 -1.113376e-06 2.199038e-02 -3.828125e-01 6.757812e-01
-1.852043e+00 2.317023e+00 -9.757812e+00 6.031250e+00 -1.203578e-04 1.979836e-02 -4.726562e-01 6.640625e-01
-1.853202e+00 2.287893e+00 -1.011719e+01 6.210938e+00 -4.878095e-04 2.117257e-02 -3.437500e-01 5.195312e-01
-1.839995e+00 2.279977e+00 -9.746094e+00 6.617188e+00 1.342089e-04 2.549532e-02 -5.820312e-01 6.757812e-01
-1.828295e+00 2.340890e+00 -1.013672e+01 6.617188e+00 6.514191e-05 2.168405e-02 -6.406250e-01 6.757812e-01
-1.826196e+00 2.237046e+00 -9.714844e+00 6.515625e+00 1.105827e-04 2.421398e-02 -3.593750e-01 8.203125e-01
-1.824996e+00 2.226026e+00 -9.515625e+00 5.640625e+00 2.389040e-04 2.705434e-02 -6.992188e-01 8.437500e-01
-1.833975e+00 2.184251e+00 -9.445312e+00 6.054688e+00 -4.511058e-04 2.775230e-02 -6.328125e-01 8.671875e-01
-1.820592e+00 2.256936e+00 -9.656250e+00 6.488281e+00 1.978601e-04 2.854013e-02 -6.992188e-01 8.203125e-01
-1.843365e+00 2.241840e+00 -9.304688e+00 6.054688e+00 1.089787e-04 2.778945e-02 -6.992188e-01 7.265625e-01
-1.860496e+00 2.221561e+00 -9.800781e+00 6.312500e+00 2.456031e-04 2.377803e-02 -6.992188e-01 8.437500e-01
-1.843015e+00 2.264696e+00 -1.028516e+01 5.433594e+00 2.843259e-04 2.698795e-02 -3.789062e-01 6.093750e-01
-1.813188e+00 2.283540e+00 -9.410156e+00 6.101562e+00 -1.588919e-05 2.150549e-02 -4.453125e-01 7.734375e-01
-1.825301e+00 2.149711e+00 -1.019922e+01 5.230469e+00 2.792874e-04 2.713455e-02 -3.710938e-01 6.132812e-01
-1.866974e+00 2.215891e+00 -9.773438e+00 6.152344e+00 7.623792e-05 2.881690e-02 -6.210938e-01 6.132812e-01
-1.808676e+00 2.273054e+00 -9.890625e+00 6.199219e+00 1.274909e-04 2.637603e-02 -6.835938e-01 6.328125e-01
-1.836371e+00 2.166323e+00 -9.628906e+00 5.910156e+00 1.041667e-05 2.567087e-02 -3.945312e-01 7.031250e-01
-1.825807e+00 2.205178e+00 -9.878906e+00 6.339844e+00 -2.656250e-04 2.244975e-02 -3.710938e-01 6.445312e-01
-1.860140e+00 2.285063e+00 -1.027734e+01 6.203125e+00 9.575030e-05 2.120663e-02 -5.000000e-01 6.757812e-01
-1.864580e+00 2.293127e+00 -9.792969e+00 6.417969e+00 3.621301e-04 2.892881e-02 -6.718750e-01 7.031250e-01
-1.868896e+00 2.243296e+00 -9.898438e+00 6.062500e+00 -2.449426e-05 2.155958e-02 -3.593750e-01 5.859375e-01
-1.853360e+00 2.240789e+00 -9.726562e+00 6.550781e+00 -8.416365e-06 2.041710e-02 -3.828125e-01 6.953125e-01
-1.846660e+00 2.205444e+00 -9.109375e+00 5.890625e+00 7.260530e-04 2.862858e-02 -6.210938e-01 6.562500e-01
-1.820740e+00 2.339280e+00 -1.001562e+01 6.546875e+00 -1.041667e-04 1.752883e-02 -3.828125e-01 6.757812e-01
-1.834928e+00 2.222815e+00 -9.917969e+00 6.082031e+00 -3.011775e-04 1.860371e-02 -3.593750e-01 6.406250e-01
-1.837406e+00 2.267850e+00 -1.023438e+01 6.316406e+00 2.900438e-04 2.266357e-02 -3.750000e-01 6.093750e-01
-1.846304e+00 2.202622e+00 -9.398438e+00 6.414062e+00 1.673838e-05 2.396961e-02 -5.156250e-01 6.757812e-01
-1.850110e+00 2.196548e+00 -9.437500e+00 6.085938e+00 -2.260341e-04 2.108264e-02 -3.828125e-01 6.757812e-01
-1.797891e+00 2.234817e+00 -1.000000e+01 5.824219e+00 3.104242e-05 2.589655e-02 -6.406250e-01 6.406250e-01
-1.825432e+00 2.195783e+00 -9.972656e+00 5.433594e+00 4.001547e-04 3.080621e-02 -6.484375e-01 6.406250e-01
-1.790687e+00 2.235974e+00 -9.402344e+00 5.824219e+00 3.711881e-04 2.831370e-02 -6.484375e-01 6.757812e-01
-1.841547e+00 2.215839e+00 -9.687500e+00 5.875000e+00 4.906401e-06 2.584519e-02 -6.406250e-01 6.210938e-01
-1.797885e+00 2.248784e+00 -9.609375e+00 6.074219e+00 4.406325e-05 2.051545e-02 -3.828125e-01 6.757812e-01
-1.769313e+00 2.221537e+00 -9.558594e+00 6.390625e+00 3.506190e-05 2.701551e-02 -5.937500e-01 1.691406e+00
-1.832276e+00 2.103072e+00 -9.304688e+00 5.496094e+00 2.714372e-04 2.854186e-02 -6.445312e-01 6.757812e-01
-1.807477e+00 2.332098e+00 -9.640625e+00 6.066406e+00 1.033364e-04 2.546570e-02 -7.500000e-01 8.710938e-01
-1.857335e+00 2.275292e+00 -9.566406e+00 6.058594e+00 -1.345486e-04 1.799192e-02 -6.757812e-01 6.562500e-01
-1.858527e+00 2.244369e+00 -9.578125e+00 6.058594e+00 -1.057518e-04 2.077120e-02 -3.828125e-01 6.171875e-01
-1.855211e+00 2.217862e+00 -9.652344e+00 5.863281e+00 1.270003e-04 3.140835e-02 -5.585938e-01 6.601562e-01
-1.836288e+00 2.242940e+00 -1.002734e+01 6.207031e+00 -1.798007e-04 2.138670e-02 -3.632812e-01 6.054688e-01
-1.812783e+00 2.155514e+00 -8.609375e+00 6.207031e+00 -1.021852e-04 2.364741e-02 -3.828125e-01 6.757812e-01
-1.826463e+00 2.171587e+00 -1.007422e+01 6.015625e+00 2.304121e-04 2.647073e-02 -6.406250e-01 7.265625e-01
-1.827596e+00 2.238072e+00 -9.046875e+00 6.398438e+00 -1.215278e-04 2.181233e-02 -3.828125e-01 6.718750e-01
-1.837276e+00 2.241133e+00 -9.718750e+00 6.292969e+00 1.334164e-04 2.207520e-02 -3.828125e-01 6.718750e-01
-1.826279e+00 2.279636e+00 -1.008203e+01 6.394531e+00 6.123566e-05 2.380565e-02 -3.984375e-01 6.718750e-01
-1.817525e+00 2.216431e+00 -1.017969e+01 6.050781e+00 -1.392852e-04 2.648584e-02 -6.132812e-01 9.804688e-01
-1.822610e+00 2.137412e+00 -9.449219e+00 6.210938e+00 3.519399e-05 2.470807e-02 -3.710938e-01 6.132812e-01
-1.847522e+00 2.223729e+00 -9.144531e+00 6.406250e+00 3.315784e-04 2.786470e-02 -3.945312e-01 6.953125e-01
-1.843479e+00 2.246431e+00 -1.000781e+01 5.773438e+00 -9.650513e-05 1.942047e-02 -3.710938e-01 4.335938e-01
-1.825906e+00 2.287315e+00 -1.006641e+01 6.085938e+00 5.620660e-04 3.403877e-02 -6.757812e-01 1.703125e+00
-1.796543e+00 2.288939e+00 -1.006641e+01 6.347656e+00 7.016153e-04 3.616311e-02 -6.757812e-01 1.703125e+00
-1.838552e+00 2.273911e+00 -9.546875e+00 6.277344e+00 -9.926027e-06 2.273257e-02 -4.335938e-01 7.187500e-01
-1.799258e+00 2.288010e+00 -9.570312e+00 5.945312e+00 -4.001547e-04 2.876701e-02 -8.046875e-01 9.921875e-01
-1.845692e+00 2.181439e+00 -8.976562e+00 6.382812e+00 -2.608884e-04 1.712568e-02 -3.710938e-01 6.445312e-01
-1.839919e+00 2.251810e+00 -9.582031e+00 6.382812e+00 -2.112583e-04 2.380219e-02 -3.710938e-01 6.132812e-01
-1.864112e+00 2.276126e+00 -9.281250e+00 6.382812e+00 2.411685e-05 2.155599e-02 -4.335938e-01 7.304688e-01
-1.826196e+00 2.193798e+00 -9.550781e+00 5.015625e+00 -2.681537e-04 2.169894e-02 -6.835938e-01 6.171875e-01
-1.808501e+00 2.212635e+00 -1.014453e+01 6.546875e+00 1.719694e-04 2.404925e-02 -3.945312e-01 6.132812e-01
-1.810790e+00 2.287203e+00 -1.005859e+01 6.199219e+00 7.931386e-05 2.254939e-02 -6.367188e-01 7.304688e-01
-1.795452e+00 2.204711e+00 -9.554688e+00 6.242188e+00 1.167535e-04 2.533119e-02 -5.546875e-01 6.367188e-01
-1.821459e+00 2.196802e+00 -1.039453e+01 6.242188e+00 1.676668e-04 3.411537e-02 -6.992188e-01 7.500000e-01
-1.852798e+00 2.204836e+00 -1.039453e+01 6.156250e+00 -1.208484e-04 2.305869e-02 -6.992188e-01 7.500000e-01
-1.822880e+00 2.190864e+00 -1.022656e+01 6.003906e+00 -4.564840e-04 2.694269e-02 -4.765625e-01 6.054688e-01
-1.824981e+00 2.204235e+00 -1.022656e+01 6.273438e+00 -4.984715e-04 2.401855e-02 -3.906250e-01 6.132812e-01
-1.814050e+00 2.273102e+00 -9.765625e+00 6.394531e+00 -7.019928e-05 2.743581e-02 -4.765625e-01 6.718750e-01
-1.842370e+00 2.341183e+00 -8.570312e+00 6.187500e+00 -2.215995e-04 1.425132e-02 -3.789062e-01 5.585938e-01
-1.853269e+00 2.235639e+00 -9.917969e+00 5.964844e+00 3.165572e-04 2.405580e-02 -3.945312e-01 6.992188e-01
-1.817051e+00 2.201488e+00 -1.014062e+01 6.125000e+00 4.996415e-04 3.202220e-02 -7.070312e-01 6.992188e-01
-1.844228e+00 2.188623e+00 -1.025781e+01 6.339844e+00 -2.278646e-04 2.752079e-02 -5.742188e-01 6.914062e-01
-1.815637e+00 2.180532e+00 -9.828125e+00 6.117188e+00 -7.674743e-05 2.866028e-02 -6.953125e-01 6.914062e-01
-1.818897e+00 2.320826e+00 -1.012109e+01 5.878906e+00 -1.744603e-04 2.217014e-02 -4.804688e-01 6.679688e-01
-1.822466e+00 2.220880e+00 -9.449219e+00 6.238281e+00 -2.787213e-05 2.969469e-02 -7.734375e-01 9.179688e-01
-1.833264e+00 2.283535e+00 -9.339844e+00 6.378906e+00 1.330389e-05 1.997640e-02 -3.828125e-01 6.914062e-01
-1.860829e+00 2.248111e+00 -9.796875e+00 6.691406e+00 -6.272645e-05 1.939800e-02 -3.945312e-01 6.992188e-01
-1.860436e+00 2.191888e+00 -9.445312e+00 6.148438e+00 -3.979846e-05 2.391502e-02 -4.140625e-01 6.562500e-01
-1.831513e+00 2.264429e+00 -9.699219e+00 6.117188e+00 2.541893e-05 2.108908e-02 -4.140625e-01 6.562500e-01
-1.792487e+00 2.229781e+00 -9.613281e+00 5.472656e+00 -1.019022e-05 2.333850e-02 -3.828125e-01 6.718750e-01
-1.871736e+00 2.249929e+00 -1.015625e+01 6.445312e+00 1.679499e-04 2.140712e-02 -3.710938e-01 6.562500e-01
-1.857897e+00 2.224199e+00 -9.957031e+00 6.296875e+00 1.964447e-04 2.926816e-02 -6.093750e-01 6.718750e-01
-1.838547e+00 2.185551e+00 -1.021875e+01 6.230469e+00 1.861602e-04 2.398964e-02 -3.828125e-01 6.718750e-01
-1.858531e+00 2.241042e+00 -9.652344e+00 6.296875e+00 8.057820e-05 2.308968e-02 -6.093750e-01 6.718750e-01
-1.830049e+00 2.253296e+00 -9.613281e+00 5.707031e+00 8.869263e-06 1.955377e-02 -3.710938e-01 6.562500e-01
-1.840419e+00 2.252684e+00 -9.378906e+00 6.113281e+00 -2.104091e-05 2.298862e-02 -3.710938e-01 6.562500e-01
-1.809943e+00 2.230481e+00 -1.021875e+01 6.445312e+00 1.450219e-04 2.476229e-02 -6.093750e-01 6.562500e-01
-1.791725e+00 2.233182e+00 -9.417969e+00 6.039062e+00 -3.368433e-05 2.857363e-02 -5.390625e-01 6.718750e-01
-1.838716e+00 2.291117e+00 -9.996094e+00 6.773438e+00 4.389342e-05 2.326094e-02 -4.023438e-01 6.289062e-01
-1.861990e+00 2.318063e+00 -1.010156e+01 6.433594e+00 1.744414e-04 2.852347e-02 -6.328125e-01 6.718750e-01
-1.832916e+00 2.204374e+00 -9.804688e+00 6.960938e+00 -2.022569e-04 2.318793e-02 -6.992188e-01 4.765625e-01
-1.827889e+00 2.299210e+00 -1.007422e+01 6.304688e+00 1.368131e-05 2.112691e-02 -4.843750e-01 6.914062e-01
-1.849172e+00 2.327405e+00 -1.016797e+01 6.320312e+00 -1.143946e-04 1.515889e-02 -3.828125e-01 6.757812e-01
-1.820613e+00 2.213736e+00 -9.289062e+00 6.820312e+00 -3.142927e-04 2.282044e-02 -3.750000e-01 5.742188e-01
-1.838600e+00 2.261160e+00 -9.527344e+00 6.382812e+00 -2.830050e-04 2.121255e-02 -7.070312e-01 6.757812e-01
-1.840534e+00 2.222825e+00 -9.351562e+00 6.183594e+00 2.041818e-05 2.362216e-02 -7.695312e-01 8.828125e-01
-1.783623e+00 2.206469e+00 -9.402344e+00 6.691406e+00 -1.202068e-04 2.626459e-02 -4.335938e-01 7.304688e-01
-1.824539e+00 2.199186e+00 -1.033203e+01 6.691406e+00 2.179574e-05 2.266009e-02 -3.750000e-01 3.789062e-01
-1.802975e+00 2.190369e+00 -1.008984e+01 6.183594e+00 6.123566e-05 2.478667e-02 -3.945312e-01 6.953125e-01
-1.842976e+00 2.240863e+00 -9.816406e+00 6.175781e+00 -1.827634e-04 2.074407e-02 -3.554688e-01 5.195312e-01
-1.835811e+00 2.188209e+00 -9.332031e+00 6.093750e+00 2.443765e-05 2.228261e-02 -7.070312e-01 6.289062e-01
-1.832180e+00 2.201077e+00 -1.023438e+01 6.089844e+00 2.002000e-04 2.679696e-02 -3.906250e-01 6.679688e-01
-1.831388e+00 2.117049e+00 -1.025391e+01 6.320312e+00 -1.602129e-04 3.670742e-02 -7.578125e-01 6.445312e-01
-1.867366e+00 2.168044e+00 -9.308594e+00 6.640625e+00 -6.516078e-04 2.791389e-02 -7.578125e-01 6.132812e-01
-1.816334e+00 2.238624e+00 -1.032812e+01 6.761719e+00 -5.552725e-04 2.143151e-02 -3.828125e-01 6.328125e-01
-1.836772e+00 2.311833e+00 -1.019141e+01 6.824219e+00 1.241414e-03 3.176061e-02 -4.414062e-01 1.679688e+00
-1.854412e+00 2.231339e+00 -9.691406e+00 6.335938e+00 -8.265399e-06 3.049184e-02 -5.703125e-01 7.578125e-01
-1.824732e+00 2.276863e+00 -1.027344e+01 6.238281e+00 1.219052e-05 2.665794e-02 -7.109375e-01 7.460938e-01
-1.832964e+00 2.204899e+00 -9.515625e+00 5.750000e+00 -2.703238e-04 2.247325e-02 -3.984375e-01 4.960938e-01
-1.830628e+00 2.307971e+00 -1.034375e+01 6.835938e+00 -2.050498e-04 2.267130e-02 -4.218750e-01 6.289062e-01
-1.836729e+00 2.245977e+00 -1.012500e+01 6.140625e+00 2.015587e-04 2.099103e-02 -4.101562e-01 6.914062e-01
-1.828130e+00 2.214801e+00 -1.034766e+01 6.281250e+00 -3.457126e-04 2.164442e-02 -3.437500e-01 3.710938e-01
-1.868763e+00 2.219353e+00 -1.028906e+01 5.937500e+00 2.840995e-04 2.583724e-02 -3.945312e-01 6.953125e-01
-1.835044e+00 2.171326e+00 -1.016406e+01 6.660156e+00 -3.447879e-04 2.927176e-02 -7.187500e-01 7.695312e-01
-1.833161e+00 2.276329e+00 -1.042578e+01 5.914062e+00 6.816123e-04 3.193986e-02 -7.187500e-01 7.695312e-01
-1.853126e+00 2.182943e+00 -1.036328e+01 6.660156e+00 3.512606e-04 2.314778e-02 -4.414062e-01 7.148438e-01
-1.855518e+00 2.135322e+00 -9.695312e+00 5.394531e+00 1.013361e-05 2.280558e-02 -3.789062e-01 5.390625e-01
-1.836856e+00 2.227219e+00 -1.059375e+01 6.312500e+00 -3.910213e-04 2.669793e-02 -4.765625e-01 8.476562e-01
-1.800879e+00 2.270107e+00 -1.039062e+01 6.875000e+00 2.411685e-05 2.867853e-02 -8.437500e-01 9.296875e-01
-1.813686e+00 2.238579e+00 -1.035547e+01 6.253906e+00 7.965353e-04 2.989079e-02 -4.179688e-01 6.796875e-01
-1.812092e+00 2.192116e+00 -1.018359e+01 6.253906e+00 2.405080e-04 2.681263e-02 -4.804688e-01 7.851562e-01
-1.832549e+00 2.212381e+00 -1.044141e+01 6.402344e+00 -6.198105e-04 2.276520e-02 -3.750000e-01 4.804688e-01
-1.813383e+00 2.198648e+00 -1.058203e+01 5.648438e+00 2.368282e-05 2.189463e-02 -3.710938e-01 5.976562e-01
-1.821825e+00 2.310319e+00 -9.328125e+00 6.417969e+00 9.720335e-04 3.715997e-02 -6.484375e-01 1.667969e+00
-1.834311e+00 2.271134e+00 -1.003906e+01 6.312500e+00 8.982488e-04 3.862855e-02 -6.484375e-01 1.667969e+00
-1.806579e+00 2.203645e+00 -1.049219e+01 6.421875e+00 9.293856e-05 3.234046e-02 -6.484375e-01 1.117188e+00
-1.829998e+00 2.254169e+00 -9.996094e+00 6.343750e+00 3.208975e-04 2.611700e-02 -3.945312e-01 6.953125e-01
-1.829544e+00 2.266028e+00 -1.020312e+01 6.347656e+00 -4.613904e-05 2.398057e-02 -4.531250e-01 7.460938e-01
-1.851158e+00 2.187817e+00 -1.059766e+01 6.347656e+00 -6.053744e-05 2.991746e-02 -7.265625e-01 7.109375e-01
-1.848651e+00 2.224739e+00 -1.041797e+01 5.929688e+00 7.661534e-06 2.645961e-02 -4.101562e-01 6.679688e-01
-1.839120e+00 2.200265e+00 -1.046094e+01 6.316406e+00 -2.351676e-04 2.029821e-02 -4.335938e-01 5.859375e-01
-1.829933e+00 2.304891e+00 -9.550781e+00 6.343750e+00 9.275928e-04 3.305884e-02 -4.296875e-01 7.304688e-01
-1.818936e+00 2.186049e+00 -9.988281e+00 6.898438e+00 -7.780420e-05 3.077556e-02 -7.226562e-01 7.343750e-01
-1.830094e+00 2.285728e+00 -9.925781e+00 6.132812e+00 -3.169912e-04 2.020989e-02 -3.984375e-01 6.953125e-01
-1.856171e+00 2.362081e+00 -1.050391e+01 6.871094e+00 2.679650e-04 2.690211e-02 -8.242188e-01 8.242188e-01
-1.855747e+00 2.248833e+00 -9.726562e+00 6.429688e+00 2.135039e-04 2.236306e-02 -3.984375e-01 6.953125e-01
-1.833000e+00 2.175116e+00 -8.917969e+00 6.042969e+00 4.776193e-04 2.604923e-02 -3.828125e-01 6.250000e-01
-1.877857e+00 2.255131e+00 -1.020703e+01 6.792969e+00 1.708937e-04 2.567751e-02 -4.531250e-01 6.250000e-01
-1.860641e+00 2.250822e+00 -1.056641e+01 5.675781e+00 2.840051e-05 3.294610e-02 -6.875000e-01 1.050781e+00
-1.810099e+00 2.179701e+00 -1.029688e+01 5.675781e+00 -1.811594e-05 3.158699e-02 -5.585938e-01 1.050781e+00
-1.826724e+00 2.265682e+00 -9.660156e+00 6.078125e+00 -3.217467e-04 2.886898e-02 -5.585938e-01 1.050781e+00
-1.834504e+00 2.193530e+00 -1.015625e+01 6.078125e+00 -1.791780e-04 2.446168e-02 -4.960938e-01 5.820312e-01
-1.813256e+00 2.292205e+00 -1.056641e+01 6.839844e+00 -1.796875e-04 2.501986e-02 -5.390625e-01 6.718750e-01
-1.821874e+00 2.318147e+00 -1.005469e+01 6.097656e+00 4.376132e-04 2.772578e-02 -7.421875e-01 7.460938e-01
-1.824157e+00 2.241578e+00 -1.005469e+01 6.097656e+00 -2.902325e-04 1.997873e-02 -3.476562e-01 4.375000e-01
-1.833210e+00 2.214402e+00 -9.792969e+00 6.367188e+00 1.086390e-04 2.672487e-02 -7.421875e-01 7.460938e-01
-1.843168e+00 2.274043e+00 -9.718750e+00 6.449219e+00 3.495622e-04 2.737274e-02 -7.343750e-01 8.125000e-01
-1.839045e+00 2.251441e+00 -1.019141e+01 5.890625e+00 3.356167e-04 2.794080e-02 -3.671875e-01 5.898438e-01
-1.785738e+00 2.277876e+00 -1.029297e+01 6.273438e+00 -2.659269e-04 2.167923e-02 -4.687500e-01 7.734375e-01
-1.803631e+00 2.250873e+00 -1.059766e+01 5.722656e+00 1.755925e-04 2.424773e-02 -4.023438e-01 6.953125e-01
-1.852681e+00 2.270471e+00 -1.031250e+01 6.277344e+00 -7.369037e-05 2.455148e-02 -4.335938e-01 5.507812e-01
-1.833240e+00 2.233468e+00 -9.484375e+00 5.726562e+00 -3.838315e-04 2.449758e-02 -3.710938e-01 6.250000e-01
