-6.941175e-02 3.680380e+00 -2.520703e+01 2.885938e+01 2.376971e-04 8.658365e-03 -1.484375e-01 1.289062e-01
-7.582986e-02 3.690785e+00 -2.520703e+01 2.885938e+01 2.269055e-04 8.583005e-03 -1.406250e-01 1.171875e-01
-7.136555e-02 3.689481e+00 -2.520703e+01 2.885938e+01 2.272507e-04 8.570285e-03 -1.406250e-01 1.171875e-01
-7.750145e-02 3.679142e+00 -2.520703e+01 2.885938e+01 2.276600e-04 8.561470e-03 -1.406250e-01 1.171875e-01
-7.454032e-02 3.671448e+00 -2.520703e+01 2.885938e+01 2.284373e-04 8.592630e-03 -1.406250e-01 1.171875e-01
-6.944020e-02 3.684674e+00 -2.520703e+01 2.885938e+01 2.269946e-04 8.583736e-03 -1.406250e-01 1.171875e-01
-7.298968e-02 3.693277e+00 -2.520703e+01 2.885938e+01 2.285333e-04 8.586944e-03 -1.406250e-01 1.171875e-01
-7.366175e-02 3.695135e+00 -2.520703e+01 2.885938e+01 2.267843e-04 8.581528e-03 -1.406250e-01 1.171875e-01
-7.387220e-02 3.680680e+00 -2.520703e+01 2.885938e+01 2.287323e-04 8.582507e-03 -1.406250e-01 1.171875e-01
-7.669830e-02 3.685816e+00 -2.520703e+01 2.885938e+01 2.289220e-04 8.591150e-03 -1.406250e-01 1.171875e-01
-7.528655e-02 3.689351e+00 -2.520703e+01 2.885938e+01 2.280189e-04 8.582875e-03 -1.406250e-01 1.171875e-01
-8.302324e-02 3.693256e+00 -2.520703e+01 2.885938e+01 2.298046e-04 8.579924e-03 -1.406250e-01 1.171875e-01
-7.487674e-02 3.686316e+00 -2.520703e+01 2.885938e+01 2.301521e-04 8.590305e-03 -1.406250e-01 1.171875e-01
-7.364419e-02 3.696563e+00 -2.520703e+01 2.382812e+01 2.281127e-04 8.581231e-03 -1.406250e-01 1.171875e-01
-8.155382e-02 3.682164e+00 -2.484766e+01 2.885938e+01 2.302573e-04 8.573952e-03 -1.406250e-01 1.171875e-01
-6.721113e-02 3.687462e+00 -2.520703e+01 2.885938e+01 2.284465e-04 8.597635e-03 -1.406250e-01 1.171875e-01
-7.214506e-02 3.684346e+00 -2.520703e+01 2.382812e+01 2.258812e-04 8.597145e-03 -1.406250e-01 1.171875e-01
-7.535870e-02 3.690947e+00 -2.520703e+01 2.885938e+01 2.273261e-04 8.592320e-03 -1.406250e-01 1.171875e-01
-7.659462e-02 3.689780e+00 -2.520703e+01 2.885938e+01 2.285882e-04 8.599236e-03 -1.406250e-01 1.171875e-01
-7.637789e-02 3.682667e+00 -2.484766e+01 2.885938e+01 2.317731e-04 8.596846e-03 -1.406250e-01 1.171875e-01
-1.405715e-01 3.706999e+00 -2.520703e+01 2.882031e+01 1.949604e-04 8.430876e-03 -1.406250e-01 1.171875e-01
-4.997566e-01 4.112493e+00 -2.599609e+01 2.881250e+01 6.696527e-05 8.133350e-03 -1.406250e-01 1.054688e-01
-7.065751e-01 4.736950e+00 -2.717969e+01 2.876562e+01 -6.486410e-06 8.258494e-03 -1.406250e-01 9.765625e-02
-8.737585e-01 5.291879e+00 -2.895703e+01 2.988281e+01 -3.972783e-05 8.265090e-03 -1.406250e-01 9.765625e-02
-1.001042e+00 5.706084e+00 -3.014453e+01 3.156250e+01 -4.561521e-05 8.183503e-03 -1.484375e-01 9.765625e-02
-1.088321e+00 6.027373e+00 -3.069922e+01 3.264844e+01 -4.686814e-05 8.131527e-03 -1.484375e-01 9.765625e-02
-1.198171e+00 6.234010e+00 -3.190234e+01 3.296094e+01 -3.015712e-05 8.041628e-03 -1.523438e-01 1.093750e-01
-1.302786e+00 6.383369e+00 -3.160547e+01 3.381641e+01 -1.281049e-05 7.919260e-03 -1.523438e-01 1.093750e-01
-1.424235e+00 6.451384e+00 -3.255078e+01 3.430859e+01 -2.252067e-06 7.823206e-03 -1.523438e-01 1.093750e-01
-1.507419e+00 6.534957e+00 -3.266797e+01 3.432422e+01 -9.877085e-06 7.755417e-03 -1.523438e-01 1.210938e-01
-1.540892e+00 6.591162e+00 -3.431250e+01 3.421484e+01 -5.025424e-06 7.738051e-03 -1.523438e-01 1.210938e-01
-1.566446e+00 6.671254e+00 -3.475000e+01 3.476953e+01 -7.119732e-06 7.805130e-03 -1.523438e-01 1.210938e-01
-1.635899e+00 6.731920e+00 -3.647656e+01 3.527734e+01 -1.570045e-05 7.803739e-03 -1.523438e-01 1.328125e-01
-1.710382e+00 6.831523e+00 -3.688672e+01 3.580078e+01 -3.019827e-05 7.827385e-03 -1.484375e-01 1.328125e-01
-1.766365e+00 6.905656e+00 -3.713281e+01 3.659766e+01 -2.934546e-05 7.789413e-03 -1.484375e-01 1.328125e-01
-1.813404e+00 6.975593e+00 -3.862891e+01 3.670312e+01 -1.774903e-05 7.599844e-03 -1.484375e-01 1.484375e-01
-1.834328e+00 7.057265e+00 -3.983594e+01 3.674609e+01 -2.034862e-05 7.702694e-03 -1.484375e-01 1.484375e-01
-1.873502e+00 7.153522e+00 -4.046875e+01 3.669141e+01 -2.213885e-05 7.720487e-03 -1.562500e-01 1.484375e-01
-1.908769e+00 7.225377e+00 -4.119141e+01 3.637500e+01 -2.359069e-05 7.740585e-03 -1.484375e-01 1.562500e-01
-1.942081e+00 7.294581e+00 -4.169141e+01 3.598828e+01 -2.802852e-05 7.911134e-03 -1.484375e-01 1.562500e-01
-1.970449e+00 7.376335e+00 -4.193359e+01 3.618359e+01 -3.592332e-05 7.841728e-03 -1.562500e-01 1.640625e-01
-1.962671e+00 7.472706e+00 -4.311719e+01 3.652344e+01 -2.854523e-05 7.921336e-03 -1.562500e-01 1.757812e-01
-1.944206e+00 7.577571e+00 -4.326172e+01 3.710156e+01 -2.754381e-05 8.249313e-03 -1.640625e-01 1.757812e-01
-1.946220e+00 7.733533e+00 -4.324219e+01 3.741406e+01 -3.923855e-05 8.370059e-03 -1.796875e-01 1.796875e-01
-1.933655e+00 7.879955e+00 -4.386328e+01 3.882031e+01 -3.183302e-05 7.535876e-03 -1.718750e-01 1.835938e-01
-1.922248e+00 8.040962e+00 -4.677344e+01 3.904297e+01 -3.321170e-05 7.415202e-03 -1.757812e-01 1.875000e-01
-1.951813e+00 8.124860e+00 -4.990625e+01 3.886719e+01 -2.430403e-05 7.599834e-03 -1.796875e-01 1.875000e-01
-1.997952e+00 8.271203e+00 -5.075781e+01 4.093750e+01 -1.430348e-05 7.355788e-03 -1.914062e-01 1.953125e-01
-2.003974e+00 8.399961e+00 -5.251562e+01 4.119531e+01 -1.123747e-05 7.060540e-03 -1.953125e-01 1.953125e-01
-2.027231e+00 8.527567e+00 -4.787500e+01 4.237891e+01 5.302074e-06 6.992191e-03 -2.031250e-01 2.031250e-01
-2.021646e+00 8.662366e+00 -5.243359e+01 4.532031e+01 3.020285e-06 6.871377e-03 -1.718750e-01 1.953125e-01
-2.039022e+00 8.752509e+00 -5.278516e+01 4.578516e+01 -8.610440e-06 7.773502e-03 -2.578125e-01 2.578125e-01
-2.045981e+00 8.838874e+00 -5.343750e+01 4.425000e+01 -1.573017e-05 8.247750e-03 -2.890625e-01 2.890625e-01
-2.074328e+00 8.986599e+00 -5.447656e+01 4.802344e+01 -6.575578e-06 9.250160e-03 -2.656250e-01 2.656250e-01
-2.090166e+00 9.095183e+00 -5.382812e+01 4.882422e+01 -4.433257e-06 7.452175e-03 -2.148438e-01 2.148438e-01
-2.109904e+00 9.210557e+00 -5.657422e+01 4.978125e+01 -1.668130e-05 9.858750e-03 -3.476562e-01 3.476562e-01
-2.126407e+00 9.336658e+00 -5.744141e+01 5.055859e+01 -2.080590e-05 8.126523e-03 -2.460938e-01 2.460938e-01
-2.147483e+00 9.462727e+00 -5.842188e+01 5.185547e+01 -1.772159e-05 8.225554e-03 -2.812500e-01 2.812500e-01
-2.125087e+00 9.573898e+00 -5.851953e+01 5.203906e+01 -2.660183e-05 7.518166e-03 -2.421875e-01 2.421875e-01
-2.143057e+00 9.649705e+00 -5.454297e+01 5.215234e+01 -4.558549e-05 8.695643e-03 -3.671875e-01 3.671875e-01
-2.147255e+00 9.730489e+00 -5.869141e+01 5.288672e+01 -2.301681e-05 7.662861e-03 -3.203125e-01 3.203125e-01
-2.162721e+00 9.779778e+00 -5.862109e+01 5.278125e+01 -2.855438e-05 7.369841e-03 -3.203125e-01 3.203125e-01
-2.161751e+00 9.855959e+00 -5.958203e+01 5.266797e+01 -5.064978e-05 7.904668e-03 -4.023438e-01 4.023438e-01
-2.169531e+00 9.952786e+00 -6.080859e+01 5.285156e+01 -3.857322e-05 9.014477e-03 -3.398438e-01 3.398438e-01
-2.176306e+00 1.004734e+01 -6.304297e+01 5.194531e+01 -2.107112e-05 8.802001e-03 -3.515625e-01 3.515625e-01
-2.196600e+00 1.010911e+01 -6.475000e+01 5.158203e+01 -1.972445e-05 1.062074e-02 -4.531250e-01 4.531250e-01
-2.229881e+00 1.020658e+01 -6.513281e+01 5.032422e+01 -1.858127e-05 9.332530e-03 -4.023438e-01 4.023438e-01
-2.218292e+00 1.034144e+01 -6.451953e+01 5.088281e+01 -1.724146e-05 9.118126e-03 -3.906250e-01 3.906250e-01
-2.249568e+00 1.042485e+01 -6.403125e+01 5.142969e+01 -2.983703e-05 8.562270e-03 -5.351562e-01 5.351562e-01
-2.284747e+00 1.049359e+01 -6.341406e+01 5.176172e+01 -9.138590e-06 7.690011e-03 -2.656250e-01 2.656250e-01
-2.282775e+00 1.055018e+01 -6.305078e+01 5.231250e+01 -1.055156e-05 6.388863e-03 -2.304688e-01 2.070312e-01
-2.296419e+00 1.059848e+01 -6.171484e+01 5.256641e+01 -1.204913e-06 7.366102e-03 -4.062500e-01 4.062500e-01
-2.298583e+00 1.062467e+01 -6.082031e+01 5.246875e+01 6.058860e-07 5.640961e-03 -2.304688e-01 1.992188e-01
-2.305293e+00 1.071591e+01 -6.054688e+01 5.166797e+01 -1.297053e-05 5.730126e-03 -2.929688e-01 2.929688e-01
-2.298342e+00 1.079978e+01 -6.059766e+01 5.153906e+01 -7.725618e-06 5.192142e-03 -2.031250e-01 2.031250e-01
-2.308553e+00 1.084961e+01 -6.071484e+01 5.152344e+01 -3.036289e-06 5.320405e-03 -2.226562e-01 2.226562e-01
-2.311480e+00 1.092345e+01 -6.095312e+01 5.192969e+01 -7.682177e-07 4.786858e-03 -1.914062e-01 2.070312e-01
-2.306732e+00 1.096705e+01 -6.130859e+01 5.197266e+01 -3.985129e-06 4.412694e-03 -1.679688e-01 2.187500e-01
-2.297155e+00 1.103779e+01 -6.151172e+01 5.180078e+01 1.742208e-06 4.472901e-03 -1.679688e-01 2.187500e-01
-2.303331e+00 1.107847e+01 -6.159375e+01 5.163672e+01 -2.217771e-07 4.231244e-03 -1.679688e-01 2.187500e-01
-2.316565e+00 1.113594e+01 -6.186328e+01 5.141797e+01 -1.915972e-06 4.228628e-03 -1.679688e-01 2.187500e-01
-2.329342e+00 1.118670e+01 -6.185156e+01 5.142969e+01 -4.595588e-07 4.244163e-03 -1.757812e-01 2.031250e-01
-2.351100e+00 1.124822e+01 -6.179297e+01 5.158594e+01 -2.547008e-06 5.974501e-03 -4.765625e-01 4.765625e-01
-2.372164e+00 1.129089e+01 -6.144922e+01 5.163672e+01 7.154028e-06 4.784502e-03 -2.031250e-01 2.148438e-01
-2.362114e+00 1.135787e+01 -6.050781e+01 5.205859e+01 6.490983e-06 4.348463e-03 -2.109375e-01 2.109375e-01
-2.378533e+00 1.140078e+01 -6.028516e+01 5.271875e+01 4.161179e-06 5.309741e-03 -3.828125e-01 3.828125e-01
-2.375367e+00 1.148799e+01 -5.941016e+01 5.332812e+01 -7.316359e-08 6.704272e-03 -5.703125e-01 5.703125e-01
-2.402483e+00 1.152127e+01 -5.945703e+01 5.426953e+01 -7.508414e-06 4.998341e-03 -2.265625e-01 2.265625e-01
-2.400196e+00 1.155474e+01 -5.945312e+01 5.106641e+01 -2.023431e-06 4.257386e-03 -2.226562e-01 2.109375e-01
-2.411257e+00 1.162690e+01 -5.940234e+01 5.485547e+01 -2.789362e-06 7.532182e-03 -7.265625e-01 7.265625e-01
-2.406253e+00 1.167227e+01 -5.933594e+01 5.532031e+01 1.289508e-06 4.564902e-03 -2.343750e-01 2.343750e-01
-2.432476e+00 1.170841e+01 -5.932812e+01 5.538672e+01 4.366952e-07 4.251862e-03 -2.265625e-01 2.031250e-01
-2.434979e+00 1.180579e+01 -5.938281e+01 5.537891e+01 6.772205e-06 3.849719e-03 -2.109375e-01 2.109375e-01
-2.472905e+00 1.187601e+01 -5.983203e+01 5.534766e+01 5.192329e-06 3.871860e-03 -2.421875e-01 2.148438e-01
-2.475665e+00 1.192005e+01 -6.035938e+01 5.540234e+01 4.559006e-06 3.867101e-03 -2.421875e-01 2.187500e-01
-2.463021e+00 1.200287e+01 -6.048047e+01 5.519922e+01 7.638736e-06 3.800297e-03 -2.421875e-01 2.187500e-01
-2.479952e+00 1.205280e+01 -6.090234e+01 5.522266e+01 -2.014285e-06 3.989334e-03 -2.421875e-01 2.187500e-01
-2.481352e+00 1.213072e+01 -6.140625e+01 5.533984e+01 7.256914e-06 4.329538e-03 -2.421875e-01 2.343750e-01
-2.492123e+00 1.216733e+01 -6.151172e+01 5.326562e+01 5.670179e-06 8.456004e-03 -6.367188e-01 6.367188e-01
-2.494308e+00 1.225085e+01 -6.175391e+01 5.575781e+01 -2.759639e-06 7.025006e-03 -5.742188e-01 5.742188e-01
