4.093427e+02 7.380353e-01 -9.271114e-03 5.817135e-01 -9.994354e-01 9.967194e-01
3.128714e+02 4.811083e-01 -1.165663e-02 5.818886e-01 -1.173172e+00 1.037659e+00
3.101274e+02 4.811083e-01 -1.247881e-02 5.820429e-01 -1.212982e+00 1.045761e+00
3.106821e+02 4.811083e-01 -1.258918e-02 5.820489e-01 -1.228836e+00 1.042679e+00
3.100887e+02 4.811083e-01 -1.256612e-02 5.819887e-01 -1.220779e+00 1.039673e+00
3.103453e+02 4.811083e-01 -1.255437e-02 5.819394e-01 -1.221558e+00 1.044159e+00
3.105540e+02 4.811083e-01 -1.252787e-02 5.819071e-01 -1.219025e+00 1.049118e+00
3.102199e+02 4.811083e-01 -1.251697e-02 5.818996e-01 -1.225021e+00 1.053436e+00
3.103092e+02 4.811083e-01 -1.248949e-02 5.818579e-01 -1.225876e+00 1.058304e+00
3.095552e+02 4.811083e-01 -1.246890e-02 5.818325e-01 -1.225189e+00 1.063736e+00
3.087499e+02 4.811083e-01 -1.245927e-02 5.818365e-01 -1.226410e+00 1.067337e+00
3.092856e+02 4.811083e-01 -1.243396e-02 5.818037e-01 -1.235291e+00 1.071121e+00
3.084961e+02 4.811083e-01 -1.242168e-02 5.817963e-01 -1.225662e+00 1.073685e+00
3.081211e+02 4.811083e-01 -1.240117e-02 5.818066e-01 -1.231628e+00 1.079376e+00
3.083238e+02 4.811083e-01 -1.238351e-02 5.818124e-01 -1.232697e+00 1.084717e+00
3.077702e+02 4.811083e-01 -1.235094e-02 5.818181e-01 -1.240982e+00 1.090485e+00
3.080070e+02 4.811083e-01 -1.232525e-02 5.818240e-01 -1.236023e+00 1.095581e+00
3.070547e+02 4.811083e-01 -1.229342e-02 5.818419e-01 -1.238205e+00 1.102692e+00
3.075640e+02 4.811083e-01 -1.226525e-02 5.818704e-01 -1.242126e+00 1.108734e+00
3.075879e+02 4.811083e-01 -1.223115e-02 5.818659e-01 -1.235535e+00 1.108826e+00
3.073377e+02 4.811083e-01 -1.220128e-02 5.819001e-01 -1.241638e+00 1.116760e+00
3.074095e+02 4.811083e-01 -1.217022e-02 5.819205e-01 -1.241257e+00 1.123001e+00
3.069543e+02 4.811083e-01 -1.214000e-02 5.819667e-01 -1.245865e+00 1.128891e+00
3.059988e+02 4.811083e-01 -1.210578e-02 5.820025e-01 -1.245880e+00 1.133545e+00
3.087308e+02 4.811083e-01 -1.205618e-02 5.820514e-01 -1.255447e+00 1.140610e+00
3.072511e+02 4.811083e-01 -1.202099e-02 5.820754e-01 -1.249512e+00 1.142410e+00
3.087265e+02 4.811083e-01 -1.197174e-02 5.821282e-01 -1.252426e+00 1.148361e+00
3.060749e+02 4.811083e-01 -1.193945e-02 5.821612e-01 -1.249084e+00 1.157379e+00
3.066681e+02 4.811083e-01 -1.189010e-02 5.822434e-01 -1.248291e+00 1.160339e+00
3.060414e+02 4.811083e-01 -1.184648e-02 5.822910e-01 -1.252243e+00 1.167053e+00
3.065187e+02 4.811083e-01 -1.180980e-02 5.823400e-01 -1.261795e+00 1.179382e+00
3.059856e+02 4.811083e-01 -1.176722e-02 5.824447e-01 -1.253494e+00 1.180313e+00
3.059103e+02 4.811083e-01 -1.171967e-02 5.825026e-01 -1.262421e+00 1.185898e+00
3.065797e+02 4.811083e-01 -1.166771e-02 5.825702e-01 -1.264954e+00 1.193329e+00
3.049056e+02 4.811083e-01 -1.164017e-02 5.826119e-01 -1.267365e+00 1.202393e+00
3.054586e+02 4.811083e-01 -1.157919e-02 5.827072e-01 -1.267654e+00 1.207001e+00
3.048390e+02 4.811083e-01 -1.153317e-02 5.827879e-01 -1.271286e+00 1.217239e+00
3.051661e+02 4.811083e-01 -1.147745e-02 5.828885e-01 -1.274734e+00 1.222809e+00
3.061546e+02 4.811083e-01 -1.141769e-02 5.829707e-01 -1.266037e+00 1.226746e+00
3.054646e+02 4.811083e-01 -1.136404e-02 5.830780e-01 -1.269379e+00 1.235245e+00
3.059520e+02 4.811083e-01 -1.132254e-02 5.831666e-01 -1.273422e+00 1.246536e+00
3.046103e+02 4.811083e-01 -1.125403e-02 5.832807e-01 -1.275940e+00 1.256790e+00
3.055838e+02 4.811083e-01 -1.120278e-02 5.834006e-01 -1.277893e+00 1.261154e+00
3.058859e+02 4.811083e-01 -1.112898e-02 5.834871e-01 -1.281677e+00 1.268433e+00
3.051119e+02 4.811083e-01 -1.106423e-02 5.835892e-01 -1.285233e+00 1.278275e+00
3.054480e+02 4.811083e-01 -1.100370e-02 5.837364e-01 -1.290039e+00 1.286118e+00
3.047784e+02 4.811083e-01 -1.094301e-02 5.838608e-01 -1.289719e+00 1.293472e+00
3.054204e+02 4.811083e-01 -1.086909e-02 5.840014e-01 -1.289688e+00 1.301727e+00
3.048633e+02 4.811083e-01 -1.080667e-02 5.841323e-01 -1.291534e+00 1.310699e+00
3.048689e+02 4.811083e-01 -1.073814e-02 5.842927e-01 -1.299957e+00 1.320786e+00
3.043958e+02 4.811083e-01 -1.066705e-02 5.844462e-01 -1.306747e+00 1.330719e+00
3.029969e+02 4.811083e-01 -1.059743e-02 5.846184e-01 -1.302063e+00 1.341080e+00
3.024267e+02 4.811083e-01 -1.054152e-02 5.847662e-01 -1.314392e+00 1.354446e+00
3.036331e+02 4.811083e-01 -1.046289e-02 5.849621e-01 -1.324783e+00 1.359146e+00
3.026716e+02 4.811083e-01 -1.041057e-02 5.851293e-01 -1.318771e+00 1.369461e+00
3.025728e+02 4.811083e-01 -1.033798e-02 5.853382e-01 -1.323715e+00 1.379044e+00
3.026488e+02 4.811083e-01 -1.027628e-02 5.855445e-01 -1.328888e+00 1.388657e+00
3.016477e+02 4.811083e-01 -1.023021e-02 5.857498e-01 -1.334213e+00 1.399628e+00
3.020446e+02 4.811083e-01 -1.015124e-02 5.859741e-01 -1.341110e+00 1.411026e+00
3.019161e+02 4.811083e-01 -1.007936e-02 5.861876e-01 -1.338486e+00 1.419235e+00
3.021453e+02 4.811083e-01 -1.002023e-02 5.864400e-01 -1.344711e+00 1.429153e+00
3.019499e+02 4.811083e-01 -9.950869e-03 5.866753e-01 -1.347092e+00 1.439957e+00
3.000765e+02 4.811083e-01 -9.855592e-03 5.869142e-01 -1.355682e+00 1.457031e+00
3.006557e+02 4.811083e-01 -9.790949e-03 5.872313e-01 -1.360977e+00 1.467590e+00
2.991102e+02 4.811083e-01 -9.705871e-03 5.875219e-01 -1.368546e+00 1.482620e+00
2.982921e+02 4.811083e-01 -9.623897e-03 5.878230e-01 -1.377502e+00 1.495255e+00
2.982670e+02 4.811083e-01 -9.554637e-03 5.881274e-01 -1.384933e+00 1.506470e+00
2.977650e+02 4.811083e-01 -9.453822e-03 5.884509e-01 -1.391541e+00 1.518799e+00
2.971436e+02 4.811083e-01 -9.383414e-03 5.887944e-01 -1.402145e+00 1.536072e+00
2.973254e+02 4.823678e-01 -9.279996e-03 5.891740e-01 -1.409195e+00 1.546768e+00
2.965099e+02 4.811083e-01 -9.180535e-03 5.895142e-01 -1.409409e+00 1.560516e+00
2.952296e+02 4.811083e-01 -9.084151e-03 5.898957e-01 -1.420288e+00 1.578461e+00
2.940685e+02 4.836272e-01 -8.947701e-03 5.902957e-01 -1.427475e+00 1.592773e+00
2.923764e+02 4.823678e-01 -8.831061e-03 5.907253e-01 -1.433899e+00 1.609802e+00
2.915270e+02 4.823678e-01 -8.726755e-03 5.911430e-01 -1.445084e+00 1.627914e+00
2.914659e+02 4.836272e-01 -8.621073e-03 5.916262e-01 -1.452881e+00 1.642029e+00
2.901341e+02 4.836272e-01 -8.508184e-03 5.920977e-01 -1.463882e+00 1.661636e+00
2.897527e+02 4.823678e-01 -8.392673e-03 5.926070e-01 -1.472977e+00 1.680176e+00
2.879316e+02 4.811083e-01 -8.275314e-03 5.930995e-01 -1.480560e+00 1.696442e+00
2.867376e+02 4.836272e-01 -8.161979e-03 5.936001e-01 -1.487854e+00 1.715851e+00
2.844915e+02 4.722922e-01 -8.039158e-03 5.941547e-01 -1.496033e+00 1.738159e+00
2.844236e+02 4.811083e-01 -7.892608e-03 5.947208e-01 -1.503082e+00 1.752670e+00
2.824696e+02 4.760705e-01 -7.766442e-03 5.953068e-01 -1.515121e+00 1.772949e+00
2.810488e+02 4.735516e-01 -7.628202e-03 5.958973e-01 -1.526932e+00 1.793259e+00
2.791573e+02 4.697733e-01 -7.576152e-03 5.965106e-01 -1.534363e+00 1.814911e+00
2.772116e+02 4.685139e-01 -7.394163e-03 5.971416e-01 -1.545059e+00 1.836014e+00
2.767923e+02 4.672544e-01 -7.337347e-03 5.977818e-01 -1.561981e+00 1.857117e+00
2.740819e+02 4.559194e-01 -7.211437e-03 5.984659e-01 -1.568024e+00 1.875916e+00
2.737875e+02 4.534005e-01 -7.077841e-03 5.991338e-01 -1.576401e+00 1.895203e+00
2.729651e+02 4.571788e-01 -6.931545e-03 5.998078e-01 -1.585800e+00 1.911560e+00
2.712436e+02 4.672544e-01 -6.842413e-03 6.005004e-01 -1.602356e+00 1.939911e+00
2.689653e+02 4.534005e-01 -6.744563e-03 6.012310e-01 -1.612549e+00 1.956726e+00
2.680493e+02 4.445844e-01 -6.594181e-03 6.019271e-01 -1.620651e+00 1.972260e+00
2.659895e+02 4.395466e-01 -6.450717e-03 6.026328e-01 -1.634781e+00 1.989761e+00
2.642300e+02 4.332494e-01 -6.371989e-03 6.033267e-01 -1.640137e+00 2.009659e+00
2.622238e+02 4.357683e-01 -6.309020e-03 6.040597e-01 -1.651978e+00 2.030624e+00
2.614169e+02 4.307305e-01 -6.209519e-03 6.047540e-01 -1.658157e+00 2.045471e+00
2.590742e+02 4.244332e-01 -6.072301e-03 6.054259e-01 -1.669067e+00 2.062744e+00
2.567506e+02 4.244332e-01 -6.010016e-03 6.061036e-01 -1.680161e+00 2.080887e+00
2.569394e+02 4.370277e-01 -5.931485e-03 6.067750e-01 -1.695908e+00 2.102936e+00
2.539282e+02 4.168766e-01 -5.892822e-03 6.074051e-01 -1.699585e+00 2.108139e+00
2.527439e+02 4.118388e-01 -5.808302e-03 6.080632e-01 -1.704269e+00 2.123703e+00
2.514160e+02 4.206549e-01 -5.714325e-03 6.087166e-01 -1.720459e+00 2.143692e+00
2.505889e+02 4.080605e-01 -5.681878e-03 6.093675e-01 -1.724808e+00 2.154205e+00
2.502851e+02 4.080605e-01 -5.700665e-03 6.099973e-01 -1.733566e+00 2.166122e+00
2.483780e+02 4.093199e-01 -5.618829e-03 6.105900e-01 -1.743820e+00 2.184982e+00
2.472793e+02 4.055416e-01 -5.613582e-03 6.111804e-01 -1.751251e+00 2.195847e+00
2.460317e+02 4.042821e-01 -5.564702e-03 6.116922e-01 -1.760086e+00 2.213882e+00
2.451069e+02 4.042821e-01 -5.541044e-03 6.122536e-01 -1.770340e+00 2.230133e+00
2.445438e+02 4.017632e-01 -5.477115e-03 6.127949e-01 -1.777008e+00 2.241867e+00
2.435201e+02 3.929471e-01 -5.495776e-03 6.132998e-01 -1.782379e+00 2.261505e+00
2.429611e+02 3.992443e-01 -5.481728e-03 6.138403e-01 -1.790955e+00 2.279373e+00
2.423320e+02 3.967254e-01 -5.497058e-03 6.142947e-01 -1.795624e+00 2.295242e+00
2.407611e+02 3.967254e-01 -5.542071e-03 6.148026e-01 -1.806458e+00 2.311539e+00
2.402690e+02 3.929471e-01 -5.527393e-03 6.152481e-01 -1.813477e+00 2.324112e+00
2.394598e+02 3.992443e-01 -5.540320e-03 6.156308e-01 -1.820084e+00 2.342224e+00
2.389308e+02 3.891688e-01 -5.548939e-03 6.160553e-01 -1.826340e+00 2.350754e+00
2.371248e+02 3.904282e-01 -5.544272e-03 6.164594e-01 -1.834122e+00 2.365067e+00
2.359126e+02 3.942065e-01 -5.487198e-03 6.168863e-01 -1.840256e+00 2.378357e+00
2.356878e+02 3.904282e-01 -5.542593e-03 6.173160e-01 -1.847183e+00 2.388733e+00
2.350869e+02 3.942065e-01 -5.504815e-03 6.176552e-01 -1.851517e+00 2.400879e+00
2.341257e+02 3.879093e-01 -5.421340e-03 6.180127e-01 -1.858688e+00 2.411987e+00
2.330016e+02 3.853904e-01 -5.508025e-03 6.182970e-01 -1.864090e+00 2.424454e+00
2.328131e+02 3.853904e-01 -5.494316e-03 6.186327e-01 -1.867599e+00 2.433395e+00
2.319613e+02 3.853904e-01 -5.504837e-03 6.189954e-01 -1.873108e+00 2.440796e+00
2.308228e+02 3.853904e-01 -5.470805e-03 6.193381e-01 -1.878510e+00 2.452103e+00
2.305771e+02 3.853904e-01 -5.510852e-03 6.196644e-01 -1.883026e+00 2.458267e+00
2.299162e+02 3.753149e-01 -5.398651e-03 6.199721e-01 -1.888229e+00 2.472839e+00
2.290750e+02 3.765743e-01 -5.372224e-03 6.202951e-01 -1.892426e+00 2.478378e+00
2.279845e+02 3.753149e-01 -5.327050e-03 6.205616e-01 -1.897949e+00 2.486725e+00
2.280003e+02 3.690176e-01 -5.325264e-03 6.208470e-01 -1.900833e+00 2.490784e+00
2.278216e+02 3.753149e-01 -5.294402e-03 6.211362e-01 -1.908875e+00 2.502350e+00
2.270149e+02 3.664987e-01 -5.203484e-03 6.214005e-01 -1.911026e+00 2.505585e+00
2.284090e+02 3.664987e-01 -5.155961e-03 6.217237e-01 -1.917938e+00 2.520767e+00
2.255356e+02 3.690176e-01 -5.032556e-03 6.220260e-01 -1.921661e+00 2.518509e+00
2.252170e+02 3.664987e-01 -4.981278e-03 6.222485e-01 -1.923935e+00 2.523499e+00
2.249798e+02 3.652393e-01 -4.888578e-03 6.224871e-01 -1.928467e+00 2.528336e+00
2.253368e+02 3.639798e-01 -4.839331e-03 6.228192e-01 -1.933167e+00 2.537949e+00
2.259108e+02 3.627204e-01 -4.732502e-03 6.230152e-01 -1.933151e+00 2.539749e+00
2.249334e+02 3.664987e-01 -4.660450e-03 6.232819e-01 -1.936981e+00 2.549423e+00
2.236319e+02 3.652393e-01 -4.545592e-03 6.235729e-01 -1.940765e+00 2.552490e+00
2.243052e+02 3.664987e-01 -4.524108e-03 6.238169e-01 -1.944641e+00 2.552811e+00
2.236288e+02 3.614610e-01 -4.440343e-03 6.240182e-01 -1.948944e+00 2.556503e+00
2.230883e+02 3.690176e-01 -4.460813e-03 6.242704e-01 -1.949524e+00 2.564697e+00
2.228655e+02 3.639798e-01 -4.324293e-03 6.245570e-01 -1.955627e+00 2.568802e+00
2.222591e+02 3.652393e-01 -4.188589e-03 6.247832e-01 -1.959747e+00 2.572037e+00
2.225535e+02 3.627204e-01 -4.152244e-03 6.250244e-01 -1.961945e+00 2.576309e+00
2.223280e+02 3.664987e-01 -4.097563e-03 6.253034e-01 -1.964539e+00 2.579910e+00
2.212255e+02 3.627204e-01 -4.047553e-03 6.254555e-01 -1.966385e+00 2.579559e+00
2.210635e+02 3.539043e-01 -3.997459e-03 6.257404e-01 -1.968658e+00 2.583054e+00
2.212940e+02 3.639798e-01 -3.892282e-03 6.259648e-01 -1.972366e+00 2.591080e+00
2.204624e+02 3.576826e-01 -3.813090e-03 6.262452e-01 -1.974014e+00 2.595291e+00
2.200817e+02 3.602015e-01 -3.769618e-03 6.264756e-01 -1.976379e+00 2.595642e+00
2.196942e+02 3.551637e-01 -3.636401e-03 6.267027e-01 -1.979340e+00 2.597931e+00
2.195917e+02 3.576826e-01 -3.601356e-03 6.269353e-01 -1.982758e+00 2.598480e+00
2.196010e+02 3.564232e-01 -3.530094e-03 6.271906e-01 -1.983688e+00 2.605301e+00
2.196526e+02 3.564232e-01 -3.454756e-03 6.274089e-01 -1.985489e+00 2.606796e+00
2.191367e+02 3.551637e-01 -3.390595e-03 6.275915e-01 -1.989014e+00 2.606354e+00
2.187772e+02 3.513854e-01 -3.288160e-03 6.278674e-01 -1.992249e+00 2.610535e+00
2.188411e+02 3.539043e-01 -3.118147e-03 6.280646e-01 -1.992874e+00 2.613312e+00
2.185807e+02 3.526448e-01 -3.115758e-03 6.282576e-01 -1.995804e+00 2.613220e+00
2.189374e+02 3.539043e-01 -3.016904e-03 6.284661e-01 -1.998810e+00 2.616730e+00
2.181337e+02 3.551637e-01 -3.050499e-03 6.287239e-01 -2.003372e+00 2.619171e+00
2.186455e+02 3.463476e-01 -3.044425e-03 6.289401e-01 -2.003250e+00 2.623108e+00
2.178471e+02 3.526448e-01 -2.945978e-03 6.291854e-01 -2.000717e+00 2.624115e+00
2.176310e+02 3.513854e-01 -2.821965e-03 6.293767e-01 -2.004669e+00 2.626389e+00
2.178428e+02 3.539043e-01 -2.816513e-03 6.295682e-01 -2.005371e+00 2.629074e+00
2.168804e+02 3.501259e-01 -2.702199e-03 6.298239e-01 -2.008224e+00 2.629486e+00
2.160945e+02 3.413098e-01 -2.616594e-03 6.300070e-01 -2.009399e+00 2.633575e+00
2.165742e+02 3.463476e-01 -2.567862e-03 6.301755e-01 -2.010284e+00 2.633408e+00
2.154563e+02 3.501259e-01 -2.538090e-03 6.303460e-01 -2.011703e+00 2.633804e+00
2.156196e+02 3.476071e-01 -2.441353e-03 6.306265e-01 -2.013123e+00 2.636383e+00
2.161896e+02 3.488665e-01 -2.319340e-03 6.308548e-01 -2.014389e+00 2.637543e+00
2.154200e+02 3.488665e-01 -2.275605e-03 6.310297e-01 -2.017426e+00 2.637955e+00
2.157882e+02 3.513854e-01 -2.233852e-03 6.312393e-01 -2.018768e+00 2.640228e+00
2.163007e+02 3.526448e-01 -2.218785e-03 6.314723e-01 -2.019638e+00 2.640625e+00
2.155515e+02 3.413098e-01 -2.201200e-03 6.316543e-01 -2.023453e+00 2.642395e+00
2.159207e+02 3.463476e-01 -2.199690e-03 6.318751e-01 -2.022720e+00 2.644897e+00
2.149500e+02 3.476071e-01 -2.171535e-03 6.320448e-01 -2.025818e+00 2.647675e+00
2.148729e+02 3.413098e-01 -2.194787e-03 6.322287e-01 -2.027374e+00 2.648880e+00
2.148123e+02 3.450882e-01 -2.183387e-03 6.324622e-01 -2.029373e+00 2.654312e+00
2.146456e+02 3.387909e-01 -2.126902e-03 6.326863e-01 -2.034821e+00 2.658066e+00
2.144851e+02 3.324937e-01 -2.126237e-03 6.328679e-01 -2.037308e+00 2.661942e+00
2.147234e+02 3.387909e-01 -2.196502e-03 6.330675e-01 -2.040817e+00 2.666718e+00
2.148596e+02 3.400504e-01 -2.166185e-03 6.332695e-01 -2.040451e+00 2.670059e+00
2.138089e+02 3.425693e-01 -2.131006e-03 6.334918e-01 -2.045319e+00 2.675430e+00
2.143154e+02 3.413098e-01 -2.074941e-03 6.337519e-01 -2.048553e+00 2.678070e+00
2.138672e+02 3.274559e-01 -2.106476e-03 6.339855e-01 -2.050156e+00 2.682053e+00
2.134730e+02 3.287154e-01 -2.089659e-03 6.341646e-01 -2.052002e+00 2.685455e+00
2.133116e+02 3.261965e-01 -2.127826e-03 6.344150e-01 -2.054657e+00 2.688553e+00
2.133923e+02 3.312343e-01 -2.048835e-03 6.346037e-01 -2.058685e+00 2.695984e+00
2.130056e+02 3.287154e-01 -2.034684e-03 6.348727e-01 -2.062210e+00 2.701859e+00
2.124582e+02 3.249370e-01 -2.020823e-03 6.350950e-01 -2.066269e+00 2.704132e+00
2.117803e+02 3.324937e-01 -2.011266e-03 6.353177e-01 -2.069519e+00 2.708344e+00
2.126276e+02 3.362720e-01 -2.013553e-03 6.355427e-01 -2.075836e+00 2.716843e+00
2.115040e+02 3.350126e-01 -1.918446e-03 6.357696e-01 -2.076889e+00 2.716599e+00
2.113443e+02 3.324937e-01 -1.936803e-03 6.359505e-01 -2.081955e+00 2.720230e+00
2.108788e+02 3.324937e-01 -1.943207e-03 6.362076e-01 -2.081589e+00 2.723755e+00
2.113043e+02 3.236776e-01 -1.928882e-03 6.364140e-01 -2.084778e+00 2.728607e+00
2.109655e+02 3.350126e-01 -1.914945e-03 6.366665e-01 -2.087158e+00 2.732254e+00
2.108689e+02 3.362720e-01 -1.841174e-03 6.369412e-01 -2.091293e+00 2.739441e+00
2.101763e+02 3.299748e-01 -1.815229e-03 6.371779e-01 -2.093307e+00 2.743073e+00
2.100743e+02 3.299748e-01 -1.781389e-03 6.374287e-01 -2.096710e+00 2.746796e+00
2.095129e+02 3.186398e-01 -1.797027e-03 6.376457e-01 -2.100388e+00 2.750870e+00
2.092527e+02 3.249370e-01 -1.823807e-03 6.379232e-01 -2.102280e+00 2.755035e+00
2.086160e+02 3.224181e-01 -1.816100e-03 6.381611e-01 -2.106995e+00 2.759888e+00
2.094823e+02 3.287154e-01 -1.745584e-03 6.384101e-01 -2.111908e+00 2.763962e+00
2.087995e+02 3.299748e-01 -1.704059e-03 6.386813e-01 -2.117630e+00 2.771332e+00
2.092588e+02 3.287154e-01 -1.720005e-03 6.389523e-01 -2.121674e+00 2.777954e+00
2.095137e+02 3.337531e-01 -1.678159e-03 6.392104e-01 -2.122482e+00 2.777924e+00
2.090009e+02 3.274559e-01 -1.705827e-03 6.394620e-01 -2.126968e+00 2.782944e+00
2.090481e+02 3.274559e-01 -1.702237e-03 6.397312e-01 -2.131592e+00 2.789597e+00
2.084135e+02 3.261965e-01 -1.645426e-03 6.399756e-01 -2.135056e+00 2.792542e+00
2.094621e+02 3.337531e-01 -1.557133e-03 6.402481e-01 -2.136230e+00 2.797333e+00
2.091332e+02 3.224181e-01 -1.614315e-03 6.405386e-01 -2.142212e+00 2.803070e+00
2.086461e+02 3.312343e-01 -1.618508e-03 6.408002e-01 -2.145172e+00 2.806961e+00
2.086023e+02 3.224181e-01 -1.633173e-03 6.410765e-01 -2.148361e+00 2.812134e+00
2.076961e+02 3.236776e-01 -1.580787e-03 6.413600e-01 -2.152161e+00 2.816956e+00
2.078933e+02 3.274559e-01 -1.561853e-03 6.416221e-01 -2.156677e+00 2.824051e+00
2.073792e+02 3.274559e-01 -1.540767e-03 6.419255e-01 -2.160095e+00 2.828049e+00
2.077736e+02 3.261965e-01 -1.559862e-03 6.421976e-01 -2.162827e+00 2.833954e+00
2.069772e+02 3.186398e-01 -1.522574e-03 6.425074e-01 -2.165573e+00 2.836151e+00
2.060900e+02 3.161209e-01 -1.500858e-03 6.427751e-01 -2.169083e+00 2.841461e+00
2.062952e+02 3.186398e-01 -1.529375e-03 6.430936e-01 -2.176163e+00 2.848206e+00
2.064095e+02 3.161209e-01 -1.479294e-03 6.433844e-01 -2.177353e+00 2.851074e+00
2.068678e+02 3.123426e-01 -1.422881e-03 6.436805e-01 -2.182220e+00 2.858185e+00
2.060656e+02 3.098237e-01 -1.397526e-03 6.439187e-01 -2.183426e+00 2.859467e+00
2.067386e+02 3.136020e-01 -1.376341e-03 6.441952e-01 -2.186401e+00 2.864899e+00
2.059975e+02 3.198992e-01 -1.346824e-03 6.444746e-01 -2.194321e+00 2.873169e+00
2.059987e+02 3.186398e-01 -1.343497e-03 6.447904e-01 -2.198013e+00 2.877228e+00
2.048181e+02 3.073048e-01 -1.327604e-03 6.451105e-01 -2.201050e+00 2.882996e+00
2.046651e+02 3.010076e-01 -1.356331e-03 6.454504e-01 -2.205231e+00 2.889267e+00
2.049956e+02 3.047859e-01 -1.361524e-03 6.457593e-01 -2.209381e+00 2.894119e+00
2.051907e+02 3.047859e-01 -1.253293e-03 6.460432e-01 -2.213730e+00 2.898331e+00
2.042720e+02 3.022670e-01 -1.222534e-03 6.463594e-01 -2.219818e+00 2.903976e+00
2.039013e+02 3.010076e-01 -1.251524e-03 6.466983e-01 -2.223984e+00 2.911301e+00
2.038803e+02 3.022670e-01 -1.218247e-03 6.470513e-01 -2.231461e+00 2.918060e+00
2.036365e+02 3.022670e-01 -1.275674e-03 6.473956e-01 -2.234528e+00 2.922379e+00
2.043188e+02 3.073048e-01 -1.302735e-03 6.477251e-01 -2.236679e+00 2.927155e+00
2.045321e+02 3.098237e-01 -1.279273e-03 6.480939e-01 -2.241882e+00 2.933273e+00
2.047523e+02 3.060453e-01 -1.280533e-03 6.484227e-01 -2.244629e+00 2.937332e+00
2.042181e+02 3.022670e-01 -1.269610e-03 6.487958e-01 -2.251450e+00 2.944901e+00
2.035757e+02 3.035264e-01 -1.251699e-03 6.491532e-01 -2.256424e+00 2.951080e+00
2.039179e+02 3.123426e-01 -1.261692e-03 6.495341e-01 -2.261307e+00 2.957489e+00
2.030106e+02 3.085642e-01 -1.271490e-03 6.498698e-01 -2.263626e+00 2.962524e+00
2.028272e+02 2.959698e-01 -1.312345e-03 6.502517e-01 -2.270798e+00 2.970596e+00
2.027171e+02 3.022670e-01 -1.329609e-03 6.506265e-01 -2.275665e+00 2.975220e+00
2.020914e+02 2.934509e-01 -1.379650e-03 6.510135e-01 -2.281342e+00 2.982162e+00
2.024258e+02 3.010076e-01 -1.305182e-03 6.513917e-01 -2.286774e+00 2.987564e+00
2.023084e+02 3.047859e-01 -1.300855e-03 6.517826e-01 -2.293503e+00 2.994263e+00
2.023146e+02 2.984887e-01 -1.314426e-03 6.521750e-01 -2.301208e+00 3.002075e+00
2.006882e+02 2.934509e-01 -1.305374e-03 6.525834e-01 -2.303314e+00 3.007523e+00
2.008559e+02 2.959698e-01 -1.365204e-03 6.529502e-01 -2.309006e+00 3.013412e+00
2.003740e+02 2.934509e-01 -1.393033e-03 6.533630e-01 -2.311462e+00 3.020523e+00
2.005767e+02 2.921914e-01 -1.362833e-03 6.537691e-01 -2.316040e+00 3.025482e+00
2.000851e+02 2.846348e-01 -1.426105e-03 6.541917e-01 -2.322098e+00 3.032333e+00
1.992844e+02 2.921914e-01 -1.469153e-03 6.545953e-01 -2.329285e+00 3.038849e+00
1.998117e+02 2.896725e-01 -1.536913e-03 6.549998e-01 -2.334091e+00 3.043442e+00
1.991988e+02 2.884131e-01 -1.555995e-03 6.554465e-01 -2.338867e+00 3.049576e+00
1.983013e+02 2.795970e-01 -1.594894e-03 6.558325e-01 -2.343872e+00 3.055649e+00
1.980518e+02 2.884131e-01 -1.635857e-03 6.563059e-01 -2.351807e+00 3.066116e+00
1.984319e+02 2.884131e-01 -1.699723e-03 6.567652e-01 -2.358597e+00 3.072754e+00
1.979434e+02 2.770781e-01 -1.754046e-03 6.571781e-01 -2.362030e+00 3.076736e+00
1.975116e+02 2.871537e-01 -1.757364e-03 6.576173e-01 -2.369629e+00 3.086044e+00
1.972648e+02 2.821159e-01 -1.807173e-03 6.581035e-01 -2.374054e+00 3.092560e+00
1.965056e+02 2.745592e-01 -1.801408e-03 6.585486e-01 -2.380661e+00 3.098923e+00
1.958274e+02 2.720403e-01 -1.834498e-03 6.590112e-01 -2.384384e+00 3.104050e+00
1.948331e+02 2.707809e-01 -1.835551e-03 6.594905e-01 -2.391647e+00 3.113724e+00
1.946156e+02 2.657431e-01 -1.883244e-03 6.599128e-01 -2.396957e+00 3.119843e+00
1.936386e+02 2.682620e-01 -1.893948e-03 6.603488e-01 -2.405380e+00 3.127335e+00
1.939000e+02 2.682620e-01 -1.893505e-03 6.608292e-01 -2.410400e+00 3.132568e+00
1.935436e+02 2.682620e-01 -1.925193e-03 6.613132e-01 -2.418854e+00 3.143555e+00
1.936797e+02 2.682620e-01 -1.983830e-03 6.617887e-01 -2.424347e+00 3.148163e+00
1.926539e+02 2.670025e-01 -2.003112e-03 6.622638e-01 -2.432266e+00 3.157196e+00
1.917164e+02 2.644836e-01 -2.075700e-03 6.627565e-01 -2.440765e+00 3.165543e+00
1.917305e+02 2.670025e-01 -2.162327e-03 6.632562e-01 -2.446075e+00 3.170441e+00
1.919324e+02 2.632242e-01 -2.203477e-03 6.637902e-01 -2.455551e+00 3.178879e+00
1.911451e+02 2.619647e-01 -2.251013e-03 6.642910e-01 -2.461655e+00 3.186234e+00
1.909611e+02 2.644836e-01 -2.361875e-03 6.648268e-01 -2.468658e+00 3.194550e+00
1.901749e+02 2.594458e-01 -2.417132e-03 6.653030e-01 -2.477325e+00 3.203506e+00
1.902656e+02 2.657431e-01 -2.433859e-03 6.658835e-01 -2.484955e+00 3.210297e+00
1.907749e+02 2.657431e-01 -2.488491e-03 6.663786e-01 -2.491028e+00 3.218933e+00
1.894400e+02 2.607053e-01 -2.598969e-03 6.668908e-01 -2.500992e+00 3.224869e+00
1.886342e+02 2.607053e-01 -2.677964e-03 6.674400e-01 -2.505676e+00 3.231918e+00
1.880541e+02 2.581864e-01 -2.732395e-03 6.680164e-01 -2.511597e+00 3.240753e+00
1.872486e+02 2.493703e-01 -2.796869e-03 6.685848e-01 -2.517227e+00 3.247940e+00
1.876600e+02 2.581864e-01 -2.788223e-03 6.691535e-01 -2.525284e+00 3.255219e+00
1.872820e+02 2.544081e-01 -2.941954e-03 6.697080e-01 -2.532913e+00 3.263702e+00
1.867912e+02 2.506297e-01 -2.916639e-03 6.702843e-01 -2.542633e+00 3.272903e+00
1.860518e+02 2.506297e-01 -3.024192e-03 6.708245e-01 -2.551285e+00 3.282593e+00
1.861631e+02 2.518892e-01 -3.074188e-03 6.714038e-01 -2.558945e+00 3.290894e+00
1.853195e+02 2.531486e-01 -3.025956e-03 6.720050e-01 -2.565720e+00 3.297577e+00
1.849351e+02 2.430730e-01 -3.144909e-03 6.725799e-01 -2.572266e+00 3.305954e+00
1.847202e+02 2.443325e-01 -3.218426e-03 6.731299e-01 -2.582336e+00 3.315704e+00
1.845612e+02 2.481108e-01 -3.257146e-03 6.737365e-01 -2.591721e+00 3.324371e+00
1.839766e+02 2.430730e-01 -3.317847e-03 6.743315e-01 -2.599533e+00 3.333359e+00
1.825991e+02 2.430730e-01 -3.359649e-03 6.748831e-01 -2.607147e+00 3.340775e+00
1.823297e+02 2.405542e-01 -3.408515e-03 6.754862e-01 -2.614487e+00 3.349274e+00
1.817962e+02 2.405542e-01 -3.418058e-03 6.760918e-01 -2.620117e+00 3.355881e+00
1.812048e+02 2.380353e-01 -3.507963e-03 6.766614e-01 -2.631668e+00 3.366241e+00
1.821365e+02 2.455919e-01 -3.593371e-03 6.772392e-01 -2.637314e+00 3.372208e+00
1.820722e+02 2.506297e-01 -3.593675e-03 6.778788e-01 -2.648163e+00 3.382553e+00
1.807693e+02 2.493703e-01 -3.621312e-03 6.784470e-01 -2.658707e+00 3.391602e+00
1.801130e+02 2.418136e-01 -3.734773e-03 6.790577e-01 -2.666656e+00 3.400192e+00
1.790094e+02 2.430730e-01 -3.817551e-03 6.796532e-01 -2.672806e+00 3.406937e+00
1.783506e+02 2.418136e-01 -3.762763e-03 6.802999e-01 -2.685104e+00 3.419830e+00
1.781224e+02 2.418136e-01 -3.740583e-03 6.809208e-01 -2.693741e+00 3.427963e+00
1.774603e+02 2.405542e-01 -3.773717e-03 6.815335e-01 -2.703751e+00 3.437012e+00
1.769855e+02 2.367758e-01 -3.835703e-03 6.821420e-01 -2.708954e+00 3.444077e+00
1.772008e+02 2.380353e-01 -3.907264e-03 6.827462e-01 -2.720001e+00 3.453842e+00
1.761228e+02 2.380353e-01 -3.881274e-03 6.833152e-01 -2.730942e+00 3.463074e+00
1.757807e+02 2.329975e-01 -3.938272e-03 6.839559e-01 -2.739807e+00 3.470657e+00
1.750304e+02 2.329975e-01 -3.910139e-03 6.845675e-01 -2.751266e+00 3.482239e+00
1.744501e+02 2.317380e-01 -3.907884e-03 6.851544e-01 -2.758026e+00 3.489487e+00
1.744947e+02 2.342569e-01 -3.920124e-03 6.857283e-01 -2.768326e+00 3.499557e+00
1.730744e+02 2.317380e-01 -3.913475e-03 6.864085e-01 -2.777634e+00 3.507858e+00
1.730230e+02 2.355164e-01 -3.920357e-03 6.869987e-01 -2.788330e+00 3.517578e+00
1.721939e+02 2.367758e-01 -3.922281e-03 6.875985e-01 -2.795609e+00 3.524551e+00
1.716548e+02 2.355164e-01 -3.824588e-03 6.882451e-01 -2.808151e+00 3.535767e+00
1.719736e+02 2.380353e-01 -3.838137e-03 6.888498e-01 -2.816498e+00 3.544235e+00
1.714302e+02 2.418136e-01 -3.821163e-03 6.894833e-01 -2.821594e+00 3.549789e+00
1.704399e+02 2.418136e-01 -3.773190e-03 6.901317e-01 -2.832626e+00 3.560089e+00
1.700646e+02 2.392947e-01 -3.836775e-03 6.907657e-01 -2.840897e+00 3.568237e+00
1.693508e+02 2.405542e-01 -3.829702e-03 6.913850e-01 -2.852325e+00 3.578110e+00
1.696927e+02 2.418136e-01 -3.808160e-03 6.920006e-01 -2.861069e+00 3.586258e+00
1.699054e+02 2.430730e-01 -3.685763e-03 6.926674e-01 -2.869431e+00 3.593506e+00
1.680250e+02 2.392947e-01 -3.701089e-03 6.933030e-01 -2.882065e+00 3.603714e+00
1.670390e+02 2.342569e-01 -3.613002e-03 6.939040e-01 -2.896271e+00 3.615540e+00
1.680475e+02 2.430730e-01 -3.606089e-03 6.945684e-01 -2.907394e+00 3.623260e+00
1.669828e+02 2.355164e-01 -3.607089e-03 6.952023e-01 -2.918503e+00 3.633759e+00
1.665486e+02 2.355164e-01 -3.621946e-03 6.958374e-01 -2.930771e+00 3.644867e+00
1.661440e+02 2.367758e-01 -3.574888e-03 6.964497e-01 -2.937653e+00 3.650299e+00
1.659596e+02 2.342569e-01 -3.435036e-03 6.970789e-01 -2.951172e+00 3.661758e+00
1.654395e+02 2.405542e-01 -3.389572e-03 6.977308e-01 -2.962143e+00 3.668823e+00
1.653915e+02 2.380353e-01 -3.373251e-03 6.983462e-01 -2.971207e+00 3.676651e+00
1.646455e+02 2.355164e-01 -3.350485e-03 6.989388e-01 -2.983292e+00 3.687576e+00
1.642751e+02 2.367758e-01 -3.310121e-03 6.995474e-01 -2.995316e+00 3.697342e+00
1.641387e+02 2.418136e-01 -3.255016e-03 7.001277e-01 -3.005615e+00 3.706177e+00
1.638225e+02 2.329975e-01 -3.187417e-03 7.007304e-01 -3.009537e+00 3.713455e+00
1.636351e+02 2.279597e-01 -3.177307e-03 7.013010e-01 -3.012741e+00 3.719315e+00
1.628169e+02 2.254408e-01 -3.110243e-03 7.019205e-01 -3.019974e+00 3.727722e+00
1.622789e+02 2.267003e-01 -3.096105e-03 7.025622e-01 -3.029343e+00 3.739746e+00
1.618205e+02 2.254408e-01 -3.035950e-03 7.031758e-01 -3.035721e+00 3.747040e+00
1.613970e+02 2.279597e-01 -2.968725e-03 7.037450e-01 -3.044968e+00 3.756042e+00
1.609584e+02 2.254408e-01 -2.993585e-03 7.043603e-01 -3.052643e+00 3.764206e+00
1.602123e+02 2.216625e-01 -2.969641e-03 7.049362e-01 -3.062271e+00 3.775894e+00
1.601550e+02 2.216625e-01 -2.969453e-03 7.055562e-01 -3.069031e+00 3.783478e+00
1.596708e+02 2.254408e-01 -2.832673e-03 7.061749e-01 -3.075455e+00 3.791275e+00
1.591420e+02 2.292191e-01 -2.879124e-03 7.067877e-01 -3.084015e+00 3.800751e+00
1.589755e+02 2.279597e-01 -2.881535e-03 7.073796e-01 -3.091232e+00 3.809311e+00
1.587495e+02 2.241814e-01 -2.774447e-03 7.079781e-01 -3.098663e+00 3.817276e+00
1.580837e+02 2.229219e-01 -2.790152e-03 7.086154e-01 -3.105774e+00 3.825058e+00
1.577244e+02 2.241814e-01 -2.818067e-03 7.092132e-01 -3.116394e+00 3.835220e+00
1.576102e+02 2.216625e-01 -2.709357e-03 7.097911e-01 -3.124359e+00 3.845688e+00
1.571429e+02 2.267003e-01 -2.648706e-03 7.103923e-01 -3.133698e+00 3.853287e+00
1.568880e+02 2.267003e-01 -2.645263e-03 7.109910e-01 -3.140610e+00 3.860428e+00
1.562802e+02 2.216625e-01 -2.603747e-03 7.116588e-01 -3.151215e+00 3.871918e+00
1.555665e+02 2.216625e-01 -2.613897e-03 7.122743e-01 -3.162521e+00 3.881470e+00
1.553622e+02 2.178841e-01 -2.523014e-03 7.129056e-01 -3.171371e+00 3.891632e+00
1.549259e+02 2.166247e-01 -2.480931e-03 7.135344e-01 -3.180038e+00 3.899963e+00
1.554227e+02 2.178841e-01 -2.410402e-03 7.141305e-01 -3.186752e+00 3.905594e+00
1.551473e+02 2.191436e-01 -2.402842e-03 7.147492e-01 -3.196671e+00 3.916214e+00
1.543323e+02 2.166247e-01 -2.475344e-03 7.153431e-01 -3.204758e+00 3.923767e+00
1.543516e+02 2.178841e-01 -2.380956e-03 7.159501e-01 -3.215454e+00 3.934830e+00
1.544230e+02 2.166247e-01 -2.323114e-03 7.165571e-01 -3.222931e+00 3.942368e+00
1.541125e+02 2.191436e-01 -2.258180e-03 7.171610e-01 -3.233734e+00 3.952042e+00
1.532214e+02 2.128463e-01 -2.233030e-03 7.178106e-01 -3.241806e+00 3.960236e+00
1.529621e+02 2.103275e-01 -2.126942e-03 7.184045e-01 -3.250870e+00 3.968124e+00
1.528607e+02 2.141058e-01 -2.099354e-03 7.190199e-01 -3.261734e+00 3.978622e+00
1.532616e+02 2.141058e-01 -2.099734e-03 7.196497e-01 -3.270477e+00 3.987015e+00
1.528091e+02 2.115869e-01 -2.086788e-03 7.202661e-01 -3.278763e+00 3.995163e+00
1.521604e+02 2.115869e-01 -2.108223e-03 7.208380e-01 -3.289383e+00 4.005737e+00
1.519812e+02 2.128463e-01 -2.061607e-03 7.214138e-01 -3.297821e+00 4.013458e+00
1.512094e+02 2.115869e-01 -2.034295e-03 7.220174e-01 -3.304672e+00 4.020264e+00
1.511835e+02 2.090680e-01 -2.044472e-03 7.225517e-01 -3.312225e+00 4.027405e+00
1.502666e+02 2.052897e-01 -1.950401e-03 7.231982e-01 -3.320526e+00 4.035095e+00
1.507123e+02 2.065491e-01 -1.964615e-03 7.237829e-01 -3.328491e+00 4.043762e+00
1.509294e+02 2.065491e-01 -1.847917e-03 7.243477e-01 -3.338058e+00 4.052216e+00
1.504723e+02 2.078086e-01 -1.823816e-03 7.249088e-01 -3.342819e+00 4.057816e+00
1.501451e+02 2.078086e-01 -1.752832e-03 7.254838e-01 -3.353317e+00 4.067596e+00
1.494452e+02 2.052897e-01 -1.813527e-03 7.260675e-01 -3.359818e+00 4.074570e+00
1.495714e+02 2.040302e-01 -1.801095e-03 7.266103e-01 -3.366608e+00 4.081787e+00
1.493547e+02 2.052897e-01 -1.729057e-03 7.271859e-01 -3.376343e+00 4.092682e+00
1.489054e+02 2.015113e-01 -1.724757e-03 7.277554e-01 -3.384094e+00 4.099197e+00
1.487531e+02 2.015113e-01 -1.722546e-03 7.282905e-01 -3.389282e+00 4.104614e+00
1.489161e+02 2.002519e-01 -1.684558e-03 7.288308e-01 -3.399872e+00 4.114685e+00
1.488887e+02 1.977330e-01 -1.619919e-03 7.294073e-01 -3.405396e+00 4.121140e+00
1.485943e+02 1.952141e-01 -1.638929e-03 7.299593e-01 -3.412979e+00 4.128723e+00
1.486800e+02 1.989924e-01 -1.608183e-03 7.304687e-01 -3.421158e+00 4.135971e+00
1.483926e+02 1.977330e-01 -1.679891e-03 7.310296e-01 -3.429092e+00 4.144257e+00
1.486437e+02 1.977330e-01 -1.643368e-03 7.315516e-01 -3.437546e+00 4.151825e+00
1.479973e+02 1.964736e-01 -1.561836e-03 7.321226e-01 -3.445190e+00 4.160446e+00
1.480625e+02 1.964736e-01 -1.523200e-03 7.326621e-01 -3.452530e+00 4.167206e+00
1.481747e+02 1.926952e-01 -1.554476e-03 7.331910e-01 -3.459869e+00 4.174744e+00
1.475680e+02 1.939547e-01 -1.624724e-03 7.337625e-01 -3.470169e+00 4.182663e+00
1.478157e+02 1.952141e-01 -1.640460e-03 7.342881e-01 -3.479919e+00 4.191620e+00
1.485175e+02 1.952141e-01 -1.641662e-03 7.348145e-01 -3.491165e+00 4.202499e+00
1.480799e+02 1.939547e-01 -1.652361e-03 7.353765e-01 -3.498322e+00 4.207657e+00
1.475779e+02 1.989924e-01 -1.686299e-03 7.359145e-01 -3.505630e+00 4.213608e+00
1.475950e+02 2.002519e-01 -1.662315e-03 7.364306e-01 -3.514053e+00 4.221878e+00
1.474946e+02 1.926952e-01 -1.621500e-03 7.370003e-01 -3.523514e+00 4.231018e+00
1.476967e+02 1.964736e-01 -1.548975e-03 7.374909e-01 -3.530014e+00 4.236740e+00
1.473492e+02 1.939547e-01 -1.629966e-03 7.380222e-01 -3.540054e+00 4.246780e+00
1.477898e+02 1.964736e-01 -1.670692e-03 7.385322e-01 -3.544754e+00 4.251541e+00
1.476344e+02 1.964736e-01 -1.688130e-03 7.390891e-01 -3.551331e+00 4.258163e+00
1.482593e+02 1.989924e-01 -1.696271e-03 7.396512e-01 -3.560471e+00 4.267349e+00
1.475452e+02 1.977330e-01 -1.710739e-03 7.401575e-01 -3.566833e+00 4.274277e+00
1.474564e+02 1.989924e-01 -1.738274e-03 7.406630e-01 -3.572586e+00 4.280045e+00
1.472414e+02 1.977330e-01 -1.779616e-03 7.411913e-01 -3.580612e+00 4.288025e+00
1.473067e+02 1.964736e-01 -1.857576e-03 7.417225e-01 -3.587860e+00 4.295227e+00
1.478024e+02 1.964736e-01 -1.894140e-03 7.422209e-01 -3.598099e+00 4.303864e+00
1.477677e+02 1.952141e-01 -1.919517e-03 7.427653e-01 -3.606155e+00 4.311752e+00
1.463127e+02 1.977330e-01 -1.981696e-03 7.432810e-01 -3.611984e+00 4.317657e+00
1.460425e+02 2.015113e-01 -1.969152e-03 7.438203e-01 -3.620224e+00 4.324783e+00
1.467482e+02 1.964736e-01 -2.080817e-03 7.443680e-01 -3.629089e+00 4.333649e+00
1.465759e+02 2.002519e-01 -2.059195e-03 7.448657e-01 -3.636429e+00 4.340820e+00
1.470475e+02 2.002519e-01 -2.129836e-03 7.453511e-01 -3.642731e+00 4.347656e+00
1.470107e+02 1.952141e-01 -2.110558e-03 7.458628e-01 -3.649429e+00 4.354218e+00
1.470590e+02 2.002519e-01 -2.139039e-03 7.463878e-01 -3.657394e+00 4.362717e+00
1.465287e+02 1.964736e-01 -2.162653e-03 7.468799e-01 -3.666168e+00 4.370529e+00
1.468974e+02 1.964736e-01 -2.164855e-03 7.474207e-01 -3.672928e+00 4.378571e+00
1.470188e+02 1.977330e-01 -2.201133e-03 7.479157e-01 -3.678101e+00 4.384277e+00
1.465905e+02 1.989924e-01 -2.121360e-03 7.484208e-01 -3.685959e+00 4.391769e+00
1.465820e+02 1.989924e-01 -2.236464e-03 7.489122e-01 -3.692703e+00 4.398605e+00
1.464593e+02 1.964736e-01 -2.242207e-03 7.494380e-01 -3.698441e+00 4.406174e+00
1.463266e+02 1.939547e-01 -2.170905e-03 7.499342e-01 -3.706009e+00 4.412750e+00
1.467878e+02 1.952141e-01 -2.266218e-03 7.504731e-01 -3.712799e+00 4.419617e+00
1.468907e+02 1.989924e-01 -2.233003e-03 7.509702e-01 -3.718918e+00 4.426682e+00
1.456431e+02 1.952141e-01 -2.189210e-03 7.514604e-01 -3.726624e+00 4.435410e+00
1.458314e+02 1.989924e-01 -2.216061e-03 7.519858e-01 -3.733337e+00 4.441330e+00
1.454109e+02 1.964736e-01 -2.273921e-03 7.524962e-01 -3.738159e+00 4.447296e+00
1.450248e+02 1.952141e-01 -2.190808e-03 7.529842e-01 -3.745453e+00 4.455978e+00
1.456594e+02 1.926952e-01 -2.201852e-03 7.534328e-01 -3.750000e+00 4.462189e+00
1.455336e+02 1.939547e-01 -2.242453e-03 7.539735e-01 -3.756104e+00 4.469574e+00
1.457578e+02 1.952141e-01 -2.242002e-03 7.544307e-01 -3.760422e+00 4.474472e+00
1.453881e+02 1.939547e-01 -2.268880e-03 7.548974e-01 -3.765869e+00 4.480759e+00
1.456013e+02 1.952141e-01 -2.280740e-03 7.554227e-01 -3.773773e+00 4.489838e+00
1.454718e+02 1.926952e-01 -2.245060e-03 7.559226e-01 -3.780060e+00 4.496719e+00
1.455850e+02 1.939547e-01 -2.292605e-03 7.563901e-01 -3.785202e+00 4.502502e+00
1.457012e+02 1.939547e-01 -2.223041e-03 7.568649e-01 -3.789566e+00 4.508224e+00
1.452328e+02 1.952141e-01 -2.287876e-03 7.573326e-01 -3.794159e+00 4.513611e+00
1.454794e+02 1.952141e-01 -2.281709e-03 7.578132e-01 -3.801117e+00 4.521240e+00
1.456715e+02 1.977330e-01 -2.362598e-03 7.582841e-01 -3.806259e+00 4.527374e+00
1.452643e+02 1.939547e-01 -2.336676e-03 7.587551e-01 -3.811050e+00 4.532486e+00
1.450860e+02 1.939547e-01 -2.340302e-03 7.592178e-01 -3.816147e+00 4.538467e+00
1.452816e+02 1.926952e-01 -2.335827e-03 7.596900e-01 -3.821609e+00 4.546494e+00
1.450243e+02 1.926952e-01 -2.339502e-03 7.601189e-01 -3.827042e+00 4.552719e+00
1.448594e+02 1.952141e-01 -2.363563e-03 7.605666e-01 -3.832413e+00 4.558533e+00
1.441471e+02 1.926952e-01 -2.384417e-03 7.610452e-01 -3.835541e+00 4.563721e+00
1.447158e+02 1.964736e-01 -2.360133e-03 7.614881e-01 -3.840591e+00 4.569336e+00
1.436077e+02 1.939547e-01 -2.401873e-03 7.619269e-01 -3.846161e+00 4.575287e+00
1.436574e+02 1.939547e-01 -2.413756e-03 7.623459e-01 -3.852432e+00 4.582092e+00
1.433326e+02 1.939547e-01 -2.429966e-03 7.627734e-01 -3.857452e+00 4.587906e+00
1.434037e+02 1.926952e-01 -2.429139e-03 7.632169e-01 -3.862701e+00 4.594055e+00
1.437282e+02 1.952141e-01 -2.390361e-03 7.636292e-01 -3.866760e+00 4.598770e+00
1.435309e+02 1.889169e-01 -2.433614e-03 7.640558e-01 -3.873978e+00 4.607727e+00
1.431964e+02 1.939547e-01 -2.476188e-03 7.644579e-01 -3.875732e+00 4.611618e+00
1.439484e+02 1.952141e-01 -2.483534e-03 7.648640e-01 -3.882156e+00 4.617950e+00
1.441126e+02 1.952141e-01 -2.499820e-03 7.652800e-01 -3.885590e+00 4.623581e+00
1.439181e+02 1.939547e-01 -2.550817e-03 7.657119e-01 -3.891937e+00 4.629669e+00
1.443126e+02 1.939547e-01 -2.508613e-03 7.661189e-01 -3.897675e+00 4.636642e+00
1.439123e+02 1.914358e-01 -2.535464e-03 7.665501e-01 -3.902359e+00 4.643158e+00
1.436631e+02 1.939547e-01 -2.570970e-03 7.669362e-01 -3.905899e+00 4.647705e+00
1.441441e+02 1.939547e-01 -2.615612e-03 7.673467e-01 -3.910553e+00 4.653763e+00
1.438830e+02 1.914358e-01 -2.650166e-03 7.677908e-01 -3.914413e+00 4.659821e+00
1.433221e+02 1.876574e-01 -2.625954e-03 7.681988e-01 -3.920822e+00 4.666794e+00
1.435332e+02 1.863980e-01 -2.665416e-03 7.686150e-01 -3.926605e+00 4.673538e+00
1.442643e+02 1.889169e-01 -2.730327e-03 7.690195e-01 -3.929916e+00 4.678223e+00
1.448651e+02 1.889169e-01 -2.742822e-03 7.694351e-01 -3.934631e+00 4.683884e+00
1.444635e+02 1.901763e-01 -2.753173e-03 7.698156e-01 -3.937653e+00 4.688004e+00
1.442831e+02 1.889169e-01 -2.788371e-03 7.702612e-01 -3.943253e+00 4.694702e+00
1.438582e+02 1.901763e-01 -2.849022e-03 7.706488e-01 -3.947998e+00 4.700836e+00
1.440562e+02 1.889169e-01 -2.876280e-03 7.710511e-01 -3.951828e+00 4.706284e+00
1.438783e+02 1.901763e-01 -2.945433e-03 7.714598e-01 -3.956635e+00 4.711975e+00
1.441462e+02 1.914358e-01 -2.969234e-03 7.718368e-01 -3.961014e+00 4.718536e+00
1.442845e+02 1.889169e-01 -3.019780e-03 7.722526e-01 -3.965591e+00 4.724091e+00
1.435285e+02 1.901763e-01 -3.028800e-03 7.726103e-01 -3.968048e+00 4.728226e+00
1.432218e+02 1.901763e-01 -3.034592e-03 7.730253e-01 -3.972488e+00 4.735138e+00
1.436552e+02 1.926952e-01 -3.113793e-03 7.733827e-01 -3.974350e+00 4.738358e+00
1.436530e+02 1.914358e-01 -3.135402e-03 7.737747e-01 -3.978409e+00 4.743469e+00
1.436736e+02 1.889169e-01 -3.203980e-03 7.741845e-01 -3.982010e+00 4.750076e+00
1.434750e+02 1.876574e-01 -3.233649e-03 7.745569e-01 -3.986740e+00 4.755997e+00
1.440875e+02 1.901763e-01 -3.254025e-03 7.749669e-01 -3.989883e+00 4.760468e+00
1.435924e+02 1.914358e-01 -3.282412e-03 7.753400e-01 -3.994110e+00 4.765488e+00
1.445328e+02 1.914358e-01 -3.289356e-03 7.757471e-01 -3.998886e+00 4.772217e+00
1.446060e+02 1.926952e-01 -3.273347e-03 7.761129e-01 -4.000748e+00 4.777222e+00
1.442858e+02 1.901763e-01 -3.286798e-03 7.764788e-01 -4.002563e+00 4.782669e+00
1.445038e+02 1.926952e-01 -3.266037e-03 7.768269e-01 -4.000519e+00 4.786911e+00
1.440475e+02 1.914358e-01 -3.276705e-03 7.772256e-01 -4.004364e+00 4.792358e+00
1.442725e+02 1.914358e-01 -3.305017e-03 7.775902e-01 -4.003815e+00 4.797592e+00
1.440934e+02 1.901763e-01 -3.362252e-03 7.779374e-01 -4.001480e+00 4.802902e+00
1.446444e+02 1.914358e-01 -3.402214e-03 7.783104e-01 -4.003586e+00 4.808380e+00
1.446044e+02 1.914358e-01 -3.362270e-03 7.786661e-01 -4.001312e+00 4.811417e+00
1.441158e+02 1.939547e-01 -3.412646e-03 7.790420e-01 -4.004517e+00 4.818069e+00
1.448530e+02 1.914358e-01 -3.444927e-03 7.793853e-01 -4.003601e+00 4.821701e+00
1.446589e+02 1.914358e-01 -3.431727e-03 7.797350e-01 -4.004028e+00 4.826935e+00
1.451237e+02 1.914358e-01 -3.458190e-03 7.800876e-01 -4.004135e+00 4.831757e+00
1.443108e+02 1.901763e-01 -3.425131e-03 7.804129e-01 -4.001801e+00 4.833984e+00
1.445978e+02 1.876574e-01 -3.441967e-03 7.807410e-01 -4.005219e+00 4.841751e+00
1.440985e+02 1.889169e-01 -3.427704e-03 7.810676e-01 -4.001205e+00 4.843506e+00
1.443037e+02 1.889169e-01 -3.437135e-03 7.814285e-01 -4.002457e+00 4.849625e+00
1.443613e+02 1.889169e-01 -3.451192e-03 7.817228e-01 -4.002640e+00 4.853226e+00
1.442005e+02 1.876574e-01 -3.436862e-03 7.820851e-01 -4.008224e+00 4.860580e+00
1.443754e+02 1.889169e-01 -3.420452e-03 7.823955e-01 -4.004868e+00 4.863113e+00
1.441209e+02 1.863980e-01 -3.435916e-03 7.827296e-01 -4.000931e+00 4.869080e+00
1.436661e+02 1.863980e-01 -3.435469e-03 7.830750e-01 -4.004883e+00 4.874542e+00
1.438863e+02 1.863980e-01 -3.479366e-03 7.833881e-01 -4.002975e+00 4.877655e+00
1.435921e+02 1.851385e-01 -3.547997e-03 7.837138e-01 -4.001205e+00 4.882629e+00
1.434000e+02 1.851385e-01 -3.552690e-03 7.840661e-01 -4.001236e+00 4.887589e+00
1.430852e+02 1.851385e-01 -3.655389e-03 7.843745e-01 -4.006210e+00 4.892136e+00
1.430039e+02 1.851385e-01 -3.629332e-03 7.846705e-01 -4.005676e+00 4.896729e+00
1.432191e+02 1.851385e-01 -3.717746e-03 7.850033e-01 -4.004288e+00 4.901886e+00
1.430745e+02 1.863980e-01 -3.701321e-03 7.852909e-01 -4.003845e+00 4.905136e+00
1.427345e+02 1.851385e-01 -3.756266e-03 7.856228e-01 -4.004974e+00 4.911194e+00
1.428268e+02 1.838791e-01 -3.738792e-03 7.859447e-01 -4.005203e+00 4.916000e+00
1.428326e+02 1.838791e-01 -3.749683e-03 7.862415e-01 -4.005859e+00 4.920547e+00
1.428137e+02 1.838791e-01 -3.720367e-03 7.865784e-01 -4.007889e+00 4.924591e+00
1.432060e+02 1.838791e-01 -3.709922e-03 7.869140e-01 -4.008011e+00 4.929443e+00
1.432918e+02 1.863980e-01 -3.771770e-03 7.872176e-01 -4.010193e+00 4.934311e+00
1.434934e+02 1.838791e-01 -3.777736e-03 7.875449e-01 -4.008911e+00 4.938995e+00
1.441564e+02 1.838791e-01 -3.741141e-03 7.878306e-01 -4.010880e+00 4.944351e+00
1.438314e+02 1.838791e-01 -3.710043e-03 7.881864e-01 -4.012390e+00 4.948517e+00
1.442678e+02 1.838791e-01 -3.758449e-03 7.885103e-01 -4.013626e+00 4.953354e+00
1.447636e+02 1.826196e-01 -3.711208e-03 7.888345e-01 -4.014343e+00 4.957031e+00
1.440429e+02 1.826196e-01 -3.769667e-03 7.891577e-01 -4.016418e+00 4.962326e+00
1.445236e+02 1.826196e-01 -3.818270e-03 7.894558e-01 -4.015625e+00 4.965363e+00
1.438104e+02 1.813602e-01 -3.805168e-03 7.897366e-01 -4.017502e+00 4.969559e+00
1.440520e+02 1.813602e-01 -3.871838e-03 7.900644e-01 -4.019073e+00 4.974319e+00
1.441713e+02 1.813602e-01 -3.856798e-03 7.903579e-01 -4.020782e+00 4.979172e+00
1.445455e+02 1.851385e-01 -3.911814e-03 7.906696e-01 -4.022095e+00 4.984070e+00
1.442572e+02 1.838791e-01 -3.951017e-03 7.909874e-01 -4.023514e+00 4.986954e+00
1.443628e+02 1.838791e-01 -3.981128e-03 7.913163e-01 -4.024643e+00 4.992233e+00
1.437874e+02 1.838791e-01 -3.945654e-03 7.916120e-01 -4.026520e+00 4.995926e+00
1.450262e+02 1.851385e-01 -3.986733e-03 7.918642e-01 -4.027893e+00 5.002121e+00
1.444702e+02 1.851385e-01 -4.014995e-03 7.921694e-01 -4.028366e+00 5.005692e+00
1.444340e+02 1.863980e-01 -4.009641e-03 7.924545e-01 -4.028625e+00 5.008682e+00
1.447964e+02 1.863980e-01 -4.040038e-03 7.927589e-01 -4.029465e+00 5.013458e+00
1.455915e+02 1.863980e-01 -4.080746e-03 7.930189e-01 -4.030746e+00 5.017654e+00
1.455437e+02 1.863980e-01 -4.062200e-03 7.933237e-01 -4.032181e+00 5.021759e+00
1.449648e+02 1.851385e-01 -4.084376e-03 7.936214e-01 -4.034531e+00 5.025558e+00
1.455407e+02 1.851385e-01 -4.118359e-03 7.939052e-01 -4.033554e+00 5.029251e+00
1.449008e+02 1.876574e-01 -4.137217e-03 7.941847e-01 -4.034821e+00 5.034363e+00
1.453328e+02 1.876574e-01 -4.204692e-03 7.944368e-01 -4.036041e+00 5.038162e+00
1.457229e+02 1.863980e-01 -4.169284e-03 7.947626e-01 -4.037582e+00 5.041702e+00
1.459682e+02 1.889169e-01 -4.191867e-03 7.950530e-01 -4.038742e+00 5.046249e+00
1.458982e+02 1.876574e-01 -4.209555e-03 7.953297e-01 -4.040787e+00 5.050125e+00
1.458229e+02 1.889169e-01 -4.196319e-03 7.955901e-01 -4.042419e+00 5.054413e+00
1.455079e+02 1.901763e-01 -4.220669e-03 7.958820e-01 -4.043350e+00 5.059006e+00
1.458071e+02 1.901763e-01 -4.269273e-03 7.961682e-01 -4.044479e+00 5.062057e+00
1.457959e+02 1.889169e-01 -4.274600e-03 7.964590e-01 -4.045990e+00 5.065674e+00
1.457976e+02 1.901763e-01 -4.282535e-03 7.967266e-01 -4.047241e+00 5.070786e+00
1.458801e+02 1.914358e-01 -4.299165e-03 7.970397e-01 -4.047897e+00 5.073135e+00
1.454390e+02 1.926952e-01 -4.318251e-03 7.973221e-01 -4.049133e+00 5.075912e+00
1.459342e+02 1.926952e-01 -4.312740e-03 7.976003e-01 -4.050934e+00 5.080948e+00
1.455808e+02 1.914358e-01 -4.326271e-03 7.978787e-01 -4.051743e+00 5.083725e+00
1.457575e+02 1.901763e-01 -4.355757e-03 7.981678e-01 -4.053009e+00 5.087189e+00
1.462469e+02 1.926952e-01 -4.363165e-03 7.984240e-01 -4.054413e+00 5.090668e+00
1.461417e+02 1.901763e-01 -4.386743e-03 7.986997e-01 -4.055756e+00 5.094879e+00
1.465635e+02 1.901763e-01 -4.388797e-03 7.989557e-01 -4.057022e+00 5.098648e+00
1.466972e+02 1.914358e-01 -4.389369e-03 7.992387e-01 -4.058487e+00 5.101822e+00
1.467596e+02 1.914358e-01 -4.429577e-03 7.995198e-01 -4.059784e+00 5.106171e+00
1.466826e+02 1.901763e-01 -4.460014e-03 7.997936e-01 -4.061829e+00 5.109634e+00
1.466275e+02 1.914358e-01 -4.468432e-03 8.000773e-01 -4.062866e+00 5.113998e+00
1.462412e+02 1.901763e-01 -4.452240e-03 8.003624e-01 -4.063828e+00 5.117249e+00
1.462122e+02 1.901763e-01 -4.468677e-03 8.005979e-01 -4.065262e+00 5.121353e+00
1.465479e+02 1.914358e-01 -4.520991e-03 8.008871e-01 -4.067581e+00 5.125916e+00
1.465910e+02 1.914358e-01 -4.541533e-03 8.011655e-01 -4.067368e+00 5.128952e+00
1.463970e+02 1.901763e-01 -4.559614e-03 8.014186e-01 -4.069412e+00 5.133057e+00
1.462097e+02 1.889169e-01 -4.587608e-03 8.016984e-01 -4.071838e+00 5.136658e+00
1.466574e+02 1.876574e-01 -4.589676e-03 8.019375e-01 -4.072998e+00 5.140457e+00
1.461913e+02 1.876574e-01 -4.672498e-03 8.022347e-01 -4.074417e+00 5.143753e+00
1.466439e+02 1.889169e-01 -4.721347e-03 8.025301e-01 -4.075897e+00 5.147751e+00
1.461089e+02 1.901763e-01 -4.712925e-03 8.027945e-01 -4.076431e+00 5.150421e+00
1.466046e+02 1.889169e-01 -4.762618e-03 8.030551e-01 -4.077393e+00 5.153931e+00
1.465133e+02 1.889169e-01 -4.776488e-03 8.033168e-01 -4.079056e+00 5.157608e+00
1.462743e+02 1.901763e-01 -4.824439e-03 8.035749e-01 -4.080811e+00 5.162247e+00
1.462514e+02 1.889169e-01 -4.871434e-03 8.038544e-01 -4.082306e+00 5.165955e+00
1.466362e+02 1.901763e-01 -4.870175e-03 8.041160e-01 -4.084579e+00 5.170654e+00
1.471959e+02 1.914358e-01 -4.935497e-03 8.043795e-01 -4.085220e+00 5.173630e+00
1.467492e+02 1.914358e-01 -4.901492e-03 8.046687e-01 -4.088013e+00 5.178696e+00
1.473041e+02 1.876574e-01 -4.962134e-03 8.049227e-01 -4.089523e+00 5.183228e+00
1.474257e+02 1.876574e-01 -4.998542e-03 8.051852e-01 -4.090729e+00 5.186523e+00
1.473307e+02 1.889169e-01 -5.028202e-03 8.054717e-01 -4.092209e+00 5.190109e+00
1.478088e+02 1.901763e-01 -5.055397e-03 8.057370e-01 -4.093079e+00 5.194092e+00
1.473007e+02 1.914358e-01 -5.061877e-03 8.059765e-01 -4.094376e+00 5.197372e+00
1.477611e+02 1.914358e-01 -5.158730e-03 8.062237e-01 -4.095062e+00 5.200241e+00
1.476687e+02 1.901763e-01 -5.172011e-03 8.064888e-01 -4.096649e+00 5.204269e+00
1.474783e+02 1.914358e-01 -5.202425e-03 8.067433e-01 -4.099014e+00 5.207611e+00
1.471812e+02 1.914358e-01 -5.250908e-03 8.070213e-01 -4.099075e+00 5.211563e+00
1.476066e+02 1.914358e-01 -5.246273e-03 8.072790e-01 -4.100113e+00 5.215500e+00
1.478952e+02 1.901763e-01 -5.327403e-03 8.075578e-01 -4.101196e+00 5.219131e+00
1.478348e+02 1.901763e-01 -5.379257e-03 8.078070e-01 -4.102890e+00 5.222626e+00
1.482458e+02 1.901763e-01 -5.422765e-03 8.080342e-01 -4.103806e+00 5.226151e+00
1.482143e+02 1.901763e-01 -5.410659e-03 8.082969e-01 -4.104797e+00 5.229401e+00
1.476589e+02 1.901763e-01 -5.455819e-03 8.085510e-01 -4.106155e+00 5.232956e+00
1.472736e+02 1.889169e-01 -5.527317e-03 8.087841e-01 -4.107697e+00 5.237030e+00
1.473135e+02 1.889169e-01 -5.561661e-03 8.090238e-01 -4.108261e+00 5.239777e+00
1.476577e+02 1.876574e-01 -5.595671e-03 8.092686e-01 -4.109787e+00 5.242416e+00
1.477852e+02 1.876574e-01 -5.627564e-03 8.095144e-01 -4.110291e+00 5.245865e+00
1.481867e+02 1.876574e-01 -5.668437e-03 8.097691e-01 -4.112259e+00 5.248947e+00
1.474737e+02 1.889169e-01 -5.703728e-03 8.100050e-01 -4.112457e+00 5.252197e+00
1.483123e+02 1.926952e-01 -5.720988e-03 8.102578e-01 -4.115707e+00 5.257690e+00
1.483559e+02 1.914358e-01 -5.768639e-03 8.104995e-01 -4.116196e+00 5.259750e+00
1.484259e+02 1.914358e-01 -5.798322e-03 8.107255e-01 -4.116653e+00 5.263580e+00
1.478354e+02 1.901763e-01 -5.849274e-03 8.109637e-01 -4.117966e+00 5.267395e+00
1.479436e+02 1.889169e-01 -5.875630e-03 8.112027e-01 -4.118683e+00 5.269989e+00
1.482547e+02 1.914358e-01 -5.940751e-03 8.114704e-01 -4.119537e+00 5.273346e+00
1.482764e+02 1.926952e-01 -5.950472e-03 8.116984e-01 -4.121658e+00 5.277206e+00
1.481333e+02 1.926952e-01 -5.987536e-03 8.119198e-01 -4.121811e+00 5.280197e+00
1.483013e+02 1.926952e-01 -6.019965e-03 8.121772e-01 -4.122711e+00 5.283127e+00
1.479062e+02 1.901763e-01 -6.027311e-03 8.124105e-01 -4.124527e+00 5.286514e+00
1.485014e+02 1.926952e-01 -6.126817e-03 8.126486e-01 -4.125305e+00 5.290405e+00
1.482410e+02 1.901763e-01 -6.133225e-03 8.128632e-01 -4.125793e+00 5.293457e+00
1.481188e+02 1.889169e-01 -6.142415e-03 8.131217e-01 -4.126175e+00 5.296860e+00
