-2.892972e-01 3.540904e+00 -2.659766e+01 2.762500e+01 1.569702e-04 7.956999e-03 -1.562500e-01 1.250000e-01
-2.905724e-01 3.543205e+00 -2.659766e+01 2.762500e+01 1.581248e-04 7.975717e-03 -1.562500e-01 1.250000e-01
-2.839524e-01 3.547267e+00 -2.659766e+01 2.762500e+01 1.558247e-04 7.953274e-03 -1.562500e-01 1.250000e-01
-2.852728e-01 3.544257e+00 -2.659766e+01 2.762500e+01 1.565747e-04 7.953742e-03 -1.562500e-01 1.250000e-01
-2.866304e-01 3.533420e+00 -2.659766e+01 2.762500e+01 1.569473e-04 7.951908e-03 -1.562500e-01 1.250000e-01
-2.871876e-01 3.543224e+00 -2.659766e+01 2.762500e+01 1.577613e-04 7.985605e-03 -1.562500e-01 1.250000e-01
-2.949229e-01 3.542988e+00 -2.659766e+01 2.762500e+01 1.562866e-04 7.949344e-03 -1.562500e-01 1.250000e-01
-2.888089e-01 3.540799e+00 -2.659766e+01 2.762500e+01 1.572766e-04 7.965583e-03 -1.562500e-01 1.250000e-01
-2.834604e-01 3.540156e+00 -2.659766e+01 2.491406e+01 1.580654e-04 7.974752e-03 -1.562500e-01 1.250000e-01
-2.881218e-01 3.544297e+00 -2.659766e+01 2.762500e+01 1.560602e-04 7.942805e-03 -1.562500e-01 1.250000e-01
-2.865377e-01 3.542325e+00 -2.659766e+01 2.762500e+01 1.564466e-04 7.945874e-03 -1.562500e-01 1.250000e-01
-2.868305e-01 3.543372e+00 -2.659766e+01 2.762500e+01 1.561403e-04 7.952196e-03 -1.562500e-01 1.250000e-01
-2.845623e-01 3.541104e+00 -2.659766e+01 2.762500e+01 1.580082e-04 7.985344e-03 -1.562500e-01 1.250000e-01
-2.775259e-01 3.534395e+00 -2.659766e+01 2.762500e+01 1.565152e-04 7.962192e-03 -1.562500e-01 1.250000e-01
-2.934062e-01 3.539449e+00 -2.659766e+01 2.762500e+01 1.564626e-04 7.961063e-03 -1.562500e-01 1.250000e-01
-2.912222e-01 3.537508e+00 -2.659766e+01 2.762500e+01 1.550565e-04 7.940158e-03 -1.562500e-01 1.250000e-01
-2.891484e-01 3.540424e+00 -2.659766e+01 2.762500e+01 1.566250e-04 7.963760e-03 -1.562500e-01 1.250000e-01
-2.912710e-01 3.543273e+00 -2.659766e+01 2.762500e+01 1.581111e-04 7.991370e-03 -1.562500e-01 1.250000e-01
-2.856115e-01 3.536372e+00 -2.659766e+01 2.762500e+01 1.579831e-04 7.983592e-03 -1.562500e-01 1.250000e-01
-2.885253e-01 3.543328e+00 -2.659766e+01 2.762500e+01 1.569451e-04 7.973466e-03 -1.562500e-01 1.250000e-01
-2.803935e-01 3.531387e+00 -2.659766e+01 2.762500e+01 1.562180e-04 7.961164e-03 -1.562500e-01 1.250000e-01
-2.936640e-01 3.543530e+00 -2.659766e+01 2.762500e+01 1.568627e-04 7.957306e-03 -1.562500e-01 1.250000e-01
-2.910290e-01 3.551068e+00 -2.659766e+01 2.762500e+01 1.570182e-04 7.963039e-03 -1.562500e-01 1.250000e-01
-2.898593e-01 3.532882e+00 -2.659766e+01 2.762500e+01 1.568239e-04 7.959074e-03 -1.562500e-01 1.250000e-01
-2.876755e-01 3.539323e+00 -2.659766e+01 2.762500e+01 1.576653e-04 7.971510e-03 -1.562500e-01 1.250000e-01
-2.796906e-01 3.535224e+00 -2.659766e+01 2.762500e+01 1.555664e-04 7.936623e-03 -1.562500e-01 1.250000e-01
-2.841733e-01 3.541898e+00 -2.659766e+01 2.762500e+01 1.576355e-04 7.964608e-03 -1.562500e-01 1.250000e-01
-2.873952e-01 3.549383e+00 -2.659766e+01 2.762500e+01 1.586735e-04 7.993939e-03 -1.562500e-01 1.250000e-01
-2.905545e-01 3.541951e+00 -2.659766e+01 2.762500e+01 1.568765e-04 7.946964e-03 -1.562500e-01 1.250000e-01
-2.834326e-01 3.532493e+00 -2.659766e+01 2.762500e+01 1.596498e-04 8.008420e-03 -1.562500e-01 1.250000e-01
-2.826850e-01 3.536349e+00 -2.659766e+01 2.762500e+01 1.574618e-04 7.979920e-03 -1.562500e-01 1.250000e-01
-2.908635e-01 3.530019e+00 -2.659766e+01 2.762500e+01 1.561974e-04 7.953396e-03 -1.562500e-01 1.250000e-01
-2.813854e-01 3.537890e+00 -2.659766e+01 2.762500e+01 1.556281e-04 7.942897e-03 -1.562500e-01 1.250000e-01
-2.910498e-01 3.541109e+00 -2.659766e+01 2.762500e+01 1.560762e-04 7.950767e-03 -1.562500e-01 1.250000e-01
-2.817560e-01 3.537396e+00 -2.659766e+01 2.762500e+01 1.568216e-04 7.966271e-03 -1.562500e-01 1.250000e-01
-2.816170e-01 3.539069e+00 -2.659766e+01 2.762500e+01 1.573520e-04 7.970505e-03 -1.562500e-01 1.250000e-01
-2.874878e-01 3.535562e+00 -2.659766e+01 2.762500e+01 1.577681e-04 7.972743e-03 -1.562500e-01 1.250000e-01
-2.858059e-01 3.536290e+00 -2.659766e+01 2.762500e+01 1.567599e-04 7.957981e-03 -1.562500e-01 1.250000e-01
-2.867304e-01 3.542410e+00 -2.659766e+01 2.762500e+01 1.572148e-04 7.966910e-03 -1.562500e-01 1.250000e-01
-2.856292e-01 3.541567e+00 -2.659766e+01 2.762500e+01 1.571142e-04 7.971181e-03 -1.562500e-01 1.250000e-01
-2.857933e-01 3.536255e+00 -2.659766e+01 2.491406e+01 1.564466e-04 7.966173e-03 -1.562500e-01 1.250000e-01
-2.839013e-01 3.541450e+00 -2.659766e+01 2.762500e+01 1.560145e-04 7.954718e-03 -1.562500e-01 1.250000e-01
-2.869299e-01 3.539457e+00 -2.659766e+01 2.762500e+01 1.564192e-04 7.952166e-03 -1.562500e-01 1.250000e-01
-2.870149e-01 3.537672e+00 -2.659766e+01 2.762500e+01 1.571211e-04 7.963374e-03 -1.562500e-01 1.250000e-01
-2.822266e-01 3.544525e+00 -2.659766e+01 2.762500e+01 1.576630e-04 7.981693e-03 -1.562500e-01 1.250000e-01
-2.955153e-01 3.538319e+00 -2.659766e+01 2.762500e+01 1.579419e-04 7.991731e-03 -1.562500e-01 1.250000e-01
-2.867399e-01 3.538555e+00 -2.659766e+01 2.762500e+01 1.586187e-04 7.995244e-03 -1.562500e-01 1.250000e-01
-2.891735e-01 3.540049e+00 -2.659766e+01 2.762500e+01 1.551960e-04 7.943583e-03 -1.562500e-01 1.250000e-01
-2.882865e-01 3.537057e+00 -2.659766e+01 2.762500e+01 1.573749e-04 7.973693e-03 -1.562500e-01 1.250000e-01
-2.897724e-01 3.540795e+00 -2.659766e+01 2.762500e+01 1.581523e-04 7.974252e-03 -1.562500e-01 1.250000e-01
-2.874011e-01 3.542577e+00 -2.659766e+01 2.762500e+01 1.565701e-04 7.959306e-03 -1.562500e-01 1.250000e-01
-2.898102e-01 3.537677e+00 -2.659766e+01 2.762500e+01 1.576355e-04 7.977803e-03 -1.562500e-01 1.250000e-01
-2.887894e-01 3.538983e+00 -2.659766e+01 2.762500e+01 1.567187e-04 7.964188e-03 -1.562500e-01 1.250000e-01
-2.860571e-01 3.536697e+00 -2.659766e+01 2.762500e+01 1.578802e-04 7.977658e-03 -1.562500e-01 1.250000e-01
-2.865764e-01 3.538756e+00 -2.659766e+01 2.762500e+01 1.554886e-04 7.948063e-03 -1.562500e-01 1.250000e-01
-2.869790e-01 3.545595e+00 -2.659766e+01 2.762500e+01 1.561311e-04 7.943881e-03 -1.562500e-01 1.250000e-01
-2.919862e-01 3.539585e+00 -2.659766e+01 2.762500e+01 1.572011e-04 7.984893e-03 -1.562500e-01 1.250000e-01
-2.859090e-01 3.551433e+00 -2.659766e+01 2.762500e+01 1.569268e-04 7.966546e-03 -1.562500e-01 1.250000e-01
-2.875252e-01 3.539514e+00 -2.659766e+01 2.762500e+01 1.579648e-04 7.980267e-03 -1.562500e-01 1.250000e-01
-2.854875e-01 3.538420e+00 -2.659766e+01 2.762500e+01 1.565838e-04 7.952898e-03 -1.562500e-01 1.250000e-01
-2.851996e-01 3.548859e+00 -2.659766e+01 2.762500e+01 1.555504e-04 7.945267e-03 -1.562500e-01 1.250000e-01
-2.778519e-01 3.539530e+00 -2.659766e+01 2.762500e+01 1.575624e-04 7.970840e-03 -1.562500e-01 1.250000e-01
-2.846803e-01 3.545940e+00 -2.659766e+01 2.762500e+01 1.568124e-04 7.964179e-03 -1.562500e-01 1.250000e-01
-2.847173e-01 3.542487e+00 -2.364453e+01 2.762500e+01 1.576241e-04 7.976561e-03 -1.562500e-01 1.250000e-01
-2.944388e-01 3.540583e+00 -2.659766e+01 2.762500e+01 1.572674e-04 7.966973e-03 -1.562500e-01 1.250000e-01
-2.818160e-01 3.539934e+00 -2.659766e+01 2.762500e+01 1.568422e-04 7.965166e-03 -1.562500e-01 1.250000e-01
-2.840086e-01 3.539916e+00 -2.659766e+01 2.762500e+01 1.556670e-04 7.948466e-03 -1.562500e-01 1.250000e-01
-2.821336e-01 3.541219e+00 -2.659766e+01 2.762500e+01 1.565564e-04 7.956697e-03 -1.562500e-01 1.250000e-01
-2.837174e-01 3.542883e+00 -2.659766e+01 2.762500e+01 1.565198e-04 7.953032e-03 -1.562500e-01 1.250000e-01
-2.842338e-01 3.549717e+00 -2.659766e+01 2.762500e+01 1.560076e-04 7.951817e-03 -1.562500e-01 1.250000e-01
-2.803185e-01 3.535810e+00 -2.659766e+01 2.762500e+01 1.565198e-04 7.952873e-03 -1.562500e-01 1.250000e-01
-2.825740e-01 3.541406e+00 -2.659766e+01 2.762500e+01 1.568330e-04 7.958806e-03 -1.562500e-01 1.250000e-01
-2.869241e-01 3.541928e+00 -2.659766e+01 2.762500e+01 1.560808e-04 7.947499e-03 -1.562500e-01 1.250000e-01
-2.864715e-01 3.543389e+00 -2.659766e+01 2.762500e+01 1.570639e-04 7.964942e-03 -1.562500e-01 1.250000e-01
-2.890992e-01 3.544166e+00 -2.659766e+01 2.762500e+01 1.562683e-04 7.966342e-03 -1.562500e-01 1.250000e-01
-2.863722e-01 3.547461e+00 -2.659766e+01 2.762500e+01 1.559459e-04 7.957474e-03 -1.562500e-01 1.250000e-01
-2.809283e-01 3.544791e+00 -2.659766e+01 2.762500e+01 1.562020e-04 7.966872e-03 -1.562500e-01 1.250000e-01
-2.786059e-01 3.541993e+00 -2.659766e+01 2.762500e+01 1.566455e-04 7.973042e-03 -1.562500e-01 1.250000e-01
-2.864919e-01 3.543020e+00 -2.659766e+01 2.762500e+01 1.573109e-04 7.961026e-03 -1.562500e-01 1.250000e-01
-2.832719e-01 3.538763e+00 -2.659766e+01 2.762500e+01 1.575212e-04 7.967587e-03 -1.562500e-01 1.250000e-01
-2.862600e-01 3.538968e+00 -2.659766e+01 2.491406e+01 1.563895e-04 7.965251e-03 -1.562500e-01 1.250000e-01
-2.819388e-01 3.539636e+00 -2.659766e+01 2.762500e+01 1.567896e-04 7.968909e-03 -1.562500e-01 1.250000e-01
-2.849357e-01 3.549749e+00 -2.659766e+01 2.762500e+01 1.578505e-04 7.973981e-03 -1.562500e-01 1.250000e-01
-2.913530e-01 3.547612e+00 -2.659766e+01 2.762500e+01 1.574458e-04 7.981425e-03 -1.562500e-01 1.250000e-01
-2.864783e-01 3.551998e+00 -2.659766e+01 2.762500e+01 1.569245e-04 7.966394e-03 -1.562500e-01 1.250000e-01
-2.838512e-01 3.535172e+00 -2.659766e+01 2.762500e+01 1.560465e-04 7.945700e-03 -1.562500e-01 1.250000e-01
-2.902492e-01 3.525295e+00 -2.659766e+01 2.762500e+01 1.558179e-04 7.928562e-03 -1.562500e-01 1.250000e-01
-2.890133e-01 3.536824e+00 -2.659766e+01 2.762500e+01 1.581248e-04 7.972138e-03 -1.562500e-01 1.250000e-01
-2.852049e-01 3.538944e+00 -2.659766e+01 2.762500e+01 1.577247e-04 7.984903e-03 -1.562500e-01 1.250000e-01
-2.917592e-01 3.543039e+00 -2.659766e+01 2.762500e+01 1.553057e-04 7.940992e-03 -1.562500e-01 1.250000e-01
-2.910253e-01 3.539069e+00 -2.659766e+01 2.762500e+01 1.583054e-04 7.983213e-03 -1.562500e-01 1.250000e-01
-2.878115e-01 3.536718e+00 -2.659766e+01 2.762500e+01 1.564306e-04 7.944899e-03 -1.562500e-01 1.250000e-01
-2.863898e-01 3.538587e+00 -2.659766e+01 2.762500e+01 1.565838e-04 7.963859e-03 -1.562500e-01 1.250000e-01
-2.823925e-01 3.537271e+00 -2.659766e+01 2.762500e+01 1.567713e-04 7.961538e-03 -1.562500e-01 1.250000e-01
-2.821938e-01 3.552371e+00 -2.659766e+01 2.762500e+01 1.567164e-04 7.948055e-03 -1.562500e-01 1.250000e-01
-2.860691e-01 3.536549e+00 -2.659766e+01 2.762500e+01 1.569611e-04 7.967772e-03 -1.562500e-01 1.250000e-01
-2.947864e-01 3.542712e+00 -2.659766e+01 2.762500e+01 1.585204e-04 7.989317e-03 -1.562500e-01 1.250000e-01
-2.885222e-01 3.541327e+00 -2.659766e+01 2.762500e+01 1.575532e-04 7.984403e-03 -1.562500e-01 1.250000e-01
-2.900870e-01 3.536808e+00 -2.659766e+01 2.762500e+01 1.567187e-04 7.960052e-03 -1.562500e-01 1.250000e-01
-2.796916e-01 3.536597e+00 -2.659766e+01 2.762500e+01 1.585684e-04 7.994774e-03 -1.562500e-01 1.250000e-01
