9.514584e+01 5.782609e-01 -2.616234e-03 5.942328e-01 -9.987030e-01 9.967194e-01
6.266856e+01 3.173913e-01 -8.381573e-03 5.957025e-01 -1.158493e+00 1.187241e+00
4.466733e+01 2.000000e-01 -1.888463e-02 6.157454e-01 -1.509598e+00 1.951508e+00
4.238927e+01 2.000000e-01 -2.314624e-02 6.404407e-01 -2.329910e+00 2.256897e+00
4.046948e+01 1.869565e-01 -2.033739e-02 6.589341e-01 -2.330765e+00 2.265015e+00
3.977953e+01 1.869565e-01 -3.500707e-02 6.597923e-01 -2.502014e+00 2.271912e+00
3.965579e+01 1.913043e-01 -3.330025e-02 6.619548e-01 -2.433502e+00 2.315323e+00
4.108443e+01 2.086957e-01 -4.577219e-02 6.757987e-01 -2.504288e+00 2.524338e+00
3.979280e+01 2.217391e-01 -4.955286e-02 6.790735e-01 -2.504288e+00 2.486603e+00
3.952043e+01 2.173913e-01 -5.015228e-02 6.783369e-01 -2.486877e+00 2.453232e+00
3.973567e+01 2.173913e-01 -5.022645e-02 6.781224e-01 -2.486877e+00 2.437149e+00
3.873428e+01 2.173913e-01 -4.704761e-02 6.783418e-01 -2.492844e+00 2.428848e+00
4.002835e+01 2.043478e-01 -4.634478e-02 6.777301e-01 -2.523956e+00 2.365234e+00
4.062326e+01 2.000000e-01 -4.666484e-02 6.778299e-01 -2.428909e+00 2.395676e+00
4.032265e+01 2.043478e-01 -4.832604e-02 6.820526e-01 -2.451782e+00 2.395676e+00
4.138904e+01 2.043478e-01 -5.281605e-02 6.799755e-01 -2.513718e+00 2.335281e+00
3.950833e+01 2.000000e-01 -5.106111e-02 6.798117e-01 -2.442184e+00 2.294327e+00
3.982323e+01 1.913043e-01 -5.299012e-02 6.790342e-01 -2.438873e+00 2.261414e+00
4.008992e+01 2.000000e-01 -4.963536e-02 6.797924e-01 -2.443604e+00 2.182541e+00
3.917703e+01 1.956522e-01 -4.873414e-02 6.799540e-01 -2.409180e+00 2.141296e+00
3.883131e+01 2.000000e-01 -4.885363e-02 6.803816e-01 -2.428589e+00 2.154907e+00
3.868405e+01 2.043478e-01 -4.834500e-02 6.807866e-01 -2.431198e+00 2.154907e+00
3.847992e+01 1.956522e-01 -4.810241e-02 6.808168e-01 -2.452545e+00 2.161758e+00
4.070268e+01 1.913043e-01 -3.120348e-02 6.899488e-01 -2.575790e+00 2.149323e+00
3.923750e+01 1.869565e-01 -3.343664e-02 6.880822e-01 -2.513977e+00 2.030212e+00
3.910112e+01 1.913043e-01 -3.599014e-02 6.890325e-01 -2.517151e+00 2.041656e+00
3.862245e+01 1.956522e-01 -4.782270e-02 6.839652e-01 -2.652328e+00 1.971970e+00
3.817824e+01 2.000000e-01 -4.956710e-02 6.825698e-01 -2.315277e+00 1.827850e+00
3.908533e+01 1.956522e-01 -5.007555e-02 6.838015e-01 -2.365372e+00 1.880768e+00
3.888234e+01 1.826087e-01 -4.953174e-02 6.851182e-01 -2.377335e+00 1.893768e+00
3.850087e+01 1.956522e-01 -4.908567e-02 6.862295e-01 -2.391403e+00 1.916473e+00
3.798032e+01 1.913043e-01 -4.978733e-02 6.859183e-01 -2.389450e+00 1.917953e+00
3.829636e+01 1.913043e-01 -4.986195e-02 6.858594e-01 -2.391678e+00 1.918686e+00
3.818063e+01 1.956522e-01 -4.932065e-02 6.860039e-01 -2.391678e+00 1.918686e+00
3.866237e+01 1.739130e-01 -4.777611e-02 6.871390e-01 -2.403305e+00 1.939911e+00
3.777263e+01 1.826087e-01 -3.507643e-02 6.879968e-01 -2.307816e+00 1.900284e+00
3.858922e+01 1.782609e-01 -2.846251e-02 6.890724e-01 -2.332718e+00 1.913757e+00
3.772418e+01 1.956522e-01 -2.896721e-02 6.890752e-01 -2.332718e+00 1.913757e+00
3.857863e+01 1.956522e-01 -2.960263e-02 6.919959e-01 -2.277527e+00 1.992538e+00
3.793015e+01 1.782609e-01 -3.023886e-02 6.908276e-01 -2.287918e+00 1.947922e+00
3.865457e+01 1.782609e-01 -2.911163e-02 6.907485e-01 -2.298645e+00 1.938858e+00
3.772916e+01 1.869565e-01 -2.785865e-02 6.908341e-01 -2.298645e+00 1.938858e+00
3.788254e+01 1.869565e-01 -2.753891e-02 6.906139e-01 -2.280960e+00 1.906189e+00
3.777866e+01 1.826087e-01 -2.724696e-02 6.905641e-01 -2.271622e+00 1.902740e+00
3.814561e+01 1.782609e-01 -2.731414e-02 6.907483e-01 -2.288345e+00 1.929443e+00
3.810522e+01 1.869565e-01 -2.754378e-02 6.905350e-01 -2.269791e+00 1.901779e+00
3.826843e+01 1.869565e-01 -2.740371e-02 6.909081e-01 -2.287079e+00 1.910782e+00
3.914082e+01 1.956522e-01 -3.394978e-02 6.953084e-01 -2.296265e+00 1.911209e+00
3.859808e+01 1.869565e-01 -3.949566e-02 6.988401e-01 -2.332474e+00 1.901398e+00
3.847131e+01 1.869565e-01 -4.047615e-02 6.993547e-01 -2.333740e+00 1.897430e+00
3.920453e+01 1.869565e-01 -3.854064e-02 7.010570e-01 -2.370071e+00 1.951950e+00
3.875198e+01 1.956522e-01 -3.804367e-02 7.011788e-01 -2.334686e+00 1.946045e+00
4.111928e+01 1.869565e-01 -3.331837e-02 7.018001e-01 -2.324203e+00 2.064728e+00
4.107478e+01 1.782609e-01 -3.851786e-02 7.003618e-01 -2.342209e+00 1.991226e+00
3.882472e+01 1.869565e-01 -4.066334e-02 6.992152e-01 -2.308823e+00 1.916763e+00
3.874065e+01 1.913043e-01 -4.189282e-02 6.993277e-01 -2.273056e+00 1.906555e+00
3.860768e+01 1.956522e-01 -4.172331e-02 6.987116e-01 -2.220963e+00 1.867477e+00
3.956230e+01 1.826087e-01 -4.140780e-02 6.986561e-01 -2.265823e+00 1.906784e+00
3.788190e+01 1.913043e-01 -4.292601e-02 7.031943e-01 -2.352814e+00 1.975830e+00
3.741687e+01 1.869565e-01 -4.404214e-02 7.052620e-01 -2.367477e+00 1.979614e+00
3.808914e+01 1.826087e-01 -4.393138e-02 7.055935e-01 -2.375839e+00 1.983826e+00
3.700856e+01 1.869565e-01 -4.308115e-02 7.054438e-01 -2.375534e+00 1.982071e+00
3.775923e+01 1.956522e-01 -3.762362e-02 7.051309e-01 -2.355240e+00 1.977112e+00
3.824622e+01 1.913043e-01 -3.003505e-02 7.052574e-01 -2.345062e+00 1.956741e+00
3.808798e+01 1.956522e-01 -3.034270e-02 7.054867e-01 -2.356781e+00 1.965103e+00
3.763013e+01 1.826087e-01 -3.110503e-02 7.066571e-01 -2.364822e+00 1.967712e+00
3.894919e+01 1.913043e-01 -3.166046e-02 7.066940e-01 -2.377304e+00 1.995514e+00
3.737376e+01 1.826087e-01 -3.342669e-02 7.065164e-01 -2.376099e+00 1.995514e+00
4.103984e+01 1.913043e-01 -4.665713e-02 7.187562e-01 -2.430801e+00 1.989136e+00
3.926630e+01 1.913043e-01 -4.957182e-02 7.192188e-01 -2.433304e+00 1.973511e+00
3.940492e+01 1.869565e-01 -4.241146e-02 7.224241e-01 -2.461639e+00 1.929932e+00
4.163353e+01 1.913043e-01 -4.106514e-02 7.166718e-01 -2.400665e+00 1.758240e+00
4.083614e+01 1.869565e-01 -3.976767e-02 7.189850e-01 -2.395874e+00 1.758575e+00
3.920699e+01 1.826087e-01 -4.101860e-02 7.175309e-01 -2.350311e+00 1.757751e+00
3.943436e+01 1.826087e-01 -4.239763e-02 7.176512e-01 -2.360504e+00 1.762085e+00
3.937877e+01 1.782609e-01 -4.249077e-02 7.175429e-01 -2.360306e+00 1.763199e+00
4.056142e+01 1.739130e-01 -4.295142e-02 7.215028e-01 -2.393997e+00 1.772232e+00
3.913557e+01 1.913043e-01 -4.217180e-02 7.209544e-01 -2.355743e+00 1.782654e+00
3.879402e+01 2.000000e-01 -4.218938e-02 7.208827e-01 -2.355743e+00 1.785522e+00
3.912436e+01 2.000000e-01 -4.308988e-02 7.209860e-01 -2.373016e+00 1.785522e+00
3.855690e+01 1.913043e-01 -4.412396e-02 7.220146e-01 -2.347748e+00 1.768814e+00
3.914165e+01 1.739130e-01 -4.807427e-02 7.226952e-01 -2.381104e+00 1.772293e+00
3.913925e+01 1.869565e-01 -4.822594e-02 7.229118e-01 -2.381104e+00 1.774567e+00
3.838071e+01 1.869565e-01 -4.900151e-02 7.227510e-01 -2.368271e+00 1.776047e+00
3.838531e+01 1.913043e-01 -4.639257e-02 7.231563e-01 -2.363037e+00 1.780975e+00
4.003616e+01 1.826087e-01 -4.607382e-02 7.234353e-01 -2.402390e+00 1.787491e+00
3.883939e+01 1.913043e-01 -4.393770e-02 7.260483e-01 -2.454285e+00 1.776398e+00
3.886728e+01 1.869565e-01 -4.300104e-02 7.268736e-01 -2.442764e+00 1.770248e+00
3.872661e+01 1.956522e-01 -4.362461e-02 7.268830e-01 -2.443924e+00 1.778275e+00
3.849396e+01 1.956522e-01 -4.387389e-02 7.275300e-01 -2.425552e+00 1.792969e+00
3.903502e+01 1.869565e-01 -4.415393e-02 7.283116e-01 -2.444550e+00 1.792969e+00
3.898761e+01 1.956522e-01 -4.381593e-02 7.284799e-01 -2.435989e+00 1.786606e+00
3.945229e+01 1.869565e-01 -4.405220e-02 7.285628e-01 -2.444778e+00 1.806763e+00
3.852063e+01 1.869565e-01 -4.406699e-02 7.278048e-01 -2.444778e+00 1.812271e+00
3.804320e+01 1.956522e-01 -4.487923e-02 7.287469e-01 -2.409317e+00 1.795532e+00
3.834909e+01 1.826087e-01 -4.613531e-02 7.307043e-01 -2.383377e+00 1.763458e+00
3.835396e+01 1.826087e-01 -4.583049e-02 7.314383e-01 -2.390625e+00 1.766739e+00
3.806134e+01 1.956522e-01 -4.501711e-02 7.322719e-01 -2.390671e+00 1.766739e+00
3.822125e+01 1.913043e-01 -4.507633e-02 7.328332e-01 -2.387344e+00 1.768845e+00
3.823244e+01 1.913043e-01 -4.477106e-02 7.331008e-01 -2.383942e+00 1.768326e+00
4.271918e+01 2.000000e-01 -2.816649e-02 7.400292e-01 -2.321228e+00 1.904602e+00
3.964246e+01 1.826087e-01 -2.778996e-02 7.427585e-01 -2.362793e+00 1.854889e+00
3.913649e+01 1.913043e-01 -3.306912e-02 7.435255e-01 -2.387726e+00 1.889175e+00
3.935640e+01 1.826087e-01 -3.673204e-02 7.439179e-01 -2.389618e+00 1.889099e+00
3.909540e+01 1.652174e-01 -3.731374e-02 7.412273e-01 -2.395233e+00 1.862503e+00
3.862340e+01 1.739130e-01 -3.886528e-02 7.383602e-01 -2.362717e+00 1.856918e+00
3.836423e+01 1.782609e-01 -4.066377e-02 7.369475e-01 -2.334534e+00 1.856674e+00
3.858765e+01 1.739130e-01 -4.033499e-02 7.370521e-01 -2.346405e+00 1.856750e+00
3.776373e+01 1.826087e-01 -4.113736e-02 7.368209e-01 -2.337143e+00 1.858475e+00
3.822899e+01 1.826087e-01 -4.123392e-02 7.370614e-01 -2.347534e+00 1.862381e+00
3.851740e+01 1.782609e-01 -4.030547e-02 7.377456e-01 -2.396835e+00 1.862381e+00
3.869095e+01 1.782609e-01 -3.815495e-02 7.383459e-01 -2.397247e+00 1.839722e+00
3.841806e+01 1.869565e-01 -2.348407e-02 7.343204e-01 -2.189514e+00 1.864868e+00
3.835852e+01 1.782609e-01 -2.797448e-02 7.365640e-01 -2.382217e+00 1.879913e+00
3.742545e+01 1.913043e-01 -4.155233e-02 7.414189e-01 -2.371628e+00 1.886719e+00
3.760036e+01 1.913043e-01 -4.103218e-02 7.418446e-01 -2.365189e+00 1.887512e+00
3.782448e+01 1.913043e-01 -3.910590e-02 7.429418e-01 -2.361328e+00 1.894760e+00
3.795833e+01 1.869565e-01 -3.804256e-02 7.439956e-01 -2.350433e+00 1.894287e+00
3.740024e+01 2.043478e-01 -3.806094e-02 7.439478e-01 -2.324829e+00 1.889984e+00
3.748917e+01 2.043478e-01 -3.765998e-02 7.447485e-01 -2.342545e+00 1.894791e+00
3.792758e+01 1.782609e-01 -3.210767e-02 7.482241e-01 -2.384079e+00 1.937851e+00
3.842068e+01 1.652174e-01 -2.879241e-02 7.498164e-01 -2.370316e+00 1.939148e+00
3.809651e+01 1.782609e-01 -2.894902e-02 7.491335e-01 -2.344604e+00 1.940216e+00
3.837880e+01 1.739130e-01 -2.908131e-02 7.490797e-01 -2.335587e+00 1.943527e+00
3.896654e+01 1.739130e-01 -2.971393e-02 7.491486e-01 -2.337509e+00 1.948029e+00
3.787250e+01 1.782609e-01 -2.904639e-02 7.487237e-01 -2.312256e+00 1.953003e+00
3.798448e+01 1.826087e-01 -2.626498e-02 7.506089e-01 -2.291870e+00 1.953842e+00
3.852414e+01 1.695652e-01 -3.012164e-02 7.520693e-01 -2.345474e+00 1.957626e+00
3.806299e+01 1.782609e-01 -2.984498e-02 7.526742e-01 -2.345032e+00 1.970917e+00
3.875917e+01 1.739130e-01 -2.872331e-02 7.539065e-01 -2.366013e+00 1.973404e+00
3.903548e+01 1.782609e-01 -2.861952e-02 7.543408e-01 -2.366699e+00 1.973434e+00
3.828976e+01 1.695652e-01 -2.848881e-02 7.544109e-01 -2.369751e+00 1.978592e+00
3.836050e+01 1.782609e-01 -2.783401e-02 7.526592e-01 -2.313660e+00 1.980560e+00
3.835545e+01 1.826087e-01 -2.770724e-02 7.517512e-01 -2.291840e+00 2.001083e+00
3.821280e+01 1.782609e-01 -2.626779e-02 7.515364e-01 -2.293701e+00 2.005814e+00
3.838206e+01 1.652174e-01 -3.624938e-02 7.552289e-01 -2.401886e+00 2.006378e+00
3.745892e+01 1.739130e-01 -3.569097e-02 7.558582e-01 -2.329926e+00 2.006378e+00
3.695714e+01 1.782609e-01 -3.623414e-02 7.567646e-01 -2.365936e+00 2.037155e+00
3.732114e+01 1.869565e-01 -3.669155e-02 7.570251e-01 -2.365936e+00 2.037155e+00
3.795877e+01 2.043478e-01 -4.095564e-02 7.567612e-01 -2.391830e+00 2.050613e+00
3.739062e+01 1.956522e-01 -3.731125e-02 7.573456e-01 -2.389099e+00 2.050003e+00
3.878421e+01 1.913043e-01 -3.535293e-02 7.700582e-01 -2.365311e+00 2.073959e+00
3.999396e+01 1.695652e-01 -3.869848e-02 7.787390e-01 -2.532059e+00 2.079956e+00
4.046979e+01 1.739130e-01 -3.886039e-02 7.784679e-01 -2.524506e+00 2.082932e+00
3.892793e+01 1.913043e-01 -3.839796e-02 7.783449e-01 -2.519836e+00 2.082932e+00
3.840564e+01 1.826087e-01 -3.772925e-02 7.783168e-01 -2.499466e+00 2.084991e+00
3.807466e+01 1.826087e-01 -3.816777e-02 7.779991e-01 -2.497635e+00 2.087036e+00
3.924831e+01 1.608696e-01 -3.876568e-02 7.767011e-01 -2.497726e+00 2.089066e+00
3.920851e+01 1.608696e-01 -3.837203e-02 7.746998e-01 -2.487259e+00 2.090134e+00
3.830531e+01 1.826087e-01 -3.972347e-02 7.741153e-01 -2.457382e+00 2.100739e+00
3.871548e+01 1.956522e-01 -4.566637e-02 7.730325e-01 -2.388550e+00 2.102402e+00
3.806747e+01 1.913043e-01 -4.568175e-02 7.737084e-01 -2.409119e+00 2.114990e+00
3.814949e+01 1.913043e-01 -4.696529e-02 7.738765e-01 -2.503510e+00 2.119659e+00
3.894620e+01 1.913043e-01 -4.065434e-02 7.718486e-01 -2.384262e+00 2.134903e+00
3.878377e+01 1.782609e-01 -4.836591e-02 7.784476e-01 -2.726318e+00 2.155273e+00
3.863164e+01 1.826087e-01 -4.996501e-02 7.799080e-01 -2.717041e+00 2.156525e+00
3.898991e+01 1.826087e-01 -5.076968e-02 7.800842e-01 -2.700638e+00 2.156601e+00
3.833549e+01 1.869565e-01 -4.983740e-02 7.799139e-01 -2.670471e+00 2.156158e+00
3.795564e+01 1.695652e-01 -5.005117e-02 7.806535e-01 -2.667282e+00 2.163315e+00
3.795412e+01 1.695652e-01 -4.988209e-02 7.815087e-01 -2.623154e+00 2.163315e+00
3.814517e+01 1.652174e-01 -5.000343e-02 7.812995e-01 -2.623016e+00 2.167435e+00
3.800786e+01 1.913043e-01 -5.017066e-02 7.808534e-01 -2.614120e+00 2.167435e+00
3.751047e+01 1.956522e-01 -5.019652e-02 7.805773e-01 -2.574280e+00 2.167465e+00
3.766003e+01 1.826087e-01 -4.700278e-02 7.811263e-01 -2.570755e+00 2.167847e+00
3.783629e+01 1.869565e-01 -4.750939e-02 7.889536e-01 -2.537292e+00 2.207886e+00
3.796239e+01 1.913043e-01 -4.867522e-02 7.899439e-01 -2.544083e+00 2.208374e+00
3.847913e+01 1.739130e-01 -4.395708e-02 7.923620e-01 -2.618973e+00 2.304550e+00
3.808650e+01 1.739130e-01 -2.078183e-02 7.989686e-01 -2.618973e+00 2.304550e+00
3.828349e+01 1.695652e-01 -8.806715e-03 8.049425e-01 -2.629059e+00 2.331802e+00
3.857370e+01 1.782609e-01 -2.003274e-02 8.111549e-01 -2.803131e+00 2.276459e+00
3.828862e+01 1.826087e-01 -1.824036e-02 8.107187e-01 -2.760788e+00 2.277161e+00
3.800055e+01 1.869565e-01 -1.958935e-02 8.109812e-01 -2.731171e+00 2.275177e+00
3.822752e+01 1.695652e-01 -2.672748e-02 8.113227e-01 -2.682022e+00 2.298676e+00
3.749939e+01 1.869565e-01 -2.865817e-02 8.119738e-01 -2.668060e+00 2.300705e+00
3.746152e+01 1.913043e-01 -3.009775e-02 8.119193e-01 -2.662323e+00 2.300797e+00
3.744322e+01 1.956522e-01 -2.942360e-02 8.119188e-01 -2.661270e+00 2.303543e+00
3.745189e+01 1.869565e-01 -2.865221e-02 8.110839e-01 -2.648376e+00 2.320923e+00
3.783704e+01 1.826087e-01 -2.910582e-02 8.101394e-01 -2.591812e+00 2.318665e+00
3.768378e+01 1.913043e-01 -3.017796e-02 8.101540e-01 -2.571976e+00 2.314438e+00
4.199590e+01 2.086957e-01 -3.674943e-02 8.126723e-01 -2.592209e+00 2.314438e+00
3.789700e+01 1.956522e-01 -4.161847e-02 8.176454e-01 -2.614792e+00 2.297287e+00
3.777905e+01 1.869565e-01 -3.475870e-02 8.207741e-01 -2.605759e+00 2.324417e+00
3.798222e+01 1.826087e-01 -3.410938e-02 8.213939e-01 -2.592987e+00 2.324326e+00
3.814330e+01 1.869565e-01 -3.487658e-02 8.211214e-01 -2.589539e+00 2.327072e+00
3.812010e+01 2.043478e-01 -3.389385e-02 8.213793e-01 -2.561615e+00 2.326294e+00
3.797441e+01 1.695652e-01 -3.415920e-02 8.208864e-01 -2.565186e+00 2.341827e+00
3.784944e+01 1.782609e-01 -3.421140e-02 8.205029e-01 -2.559631e+00 2.341827e+00
3.951335e+01 1.869565e-01 -4.105068e-02 8.307655e-01 -2.682251e+00 2.408554e+00
3.854584e+01 1.869565e-01 -2.730860e-02 8.268281e-01 -2.526718e+00 2.401917e+00
3.828145e+01 1.869565e-01 -3.441536e-02 8.265920e-01 -2.507812e+00 2.401001e+00
3.807260e+01 1.913043e-01 -3.479246e-02 8.269173e-01 -2.501648e+00 2.401703e+00
3.765347e+01 1.913043e-01 -3.506257e-02 8.268242e-01 -2.491074e+00 2.399445e+00
3.859265e+01 1.739130e-01 -3.636251e-02 8.268964e-01 -2.462387e+00 2.398346e+00
3.836131e+01 1.739130e-01 -3.459508e-02 8.272782e-01 -2.436829e+00 2.396347e+00
3.873421e+01 1.695652e-01 -3.655480e-02 8.296305e-01 -2.506943e+00 2.426041e+00
3.810620e+01 1.782609e-01 -5.074641e-02 8.345964e-01 -2.506943e+00 2.431091e+00
3.836584e+01 1.739130e-01 -5.219239e-02 8.347041e-01 -2.493332e+00 2.432327e+00
3.762994e+01 1.913043e-01 -4.941707e-02 8.343015e-01 -2.444519e+00 2.434662e+00
3.785283e+01 1.782609e-01 -4.953398e-02 8.345413e-01 -2.455643e+00 2.435822e+00
3.935423e+01 1.565217e-01 -5.001960e-02 8.347390e-01 -2.478165e+00 2.440430e+00
3.784686e+01 1.652174e-01 -4.905024e-02 8.351693e-01 -2.473999e+00 2.442902e+00
3.860547e+01 1.565217e-01 -4.741819e-02 8.357168e-01 -2.456787e+00 2.443008e+00
3.718030e+01 1.913043e-01 -4.531338e-02 8.357759e-01 -2.425766e+00 2.445847e+00
3.739484e+01 1.826087e-01 -4.495104e-02 8.358704e-01 -2.417969e+00 2.447983e+00
3.736465e+01 1.826087e-01 -4.570481e-02 8.356717e-01 -2.416153e+00 2.448364e+00
3.882616e+01 1.826087e-01 -4.069574e-02 8.350789e-01 -2.413742e+00 2.430161e+00
3.855069e+01 1.869565e-01 -3.878220e-02 8.354521e-01 -2.401962e+00 2.425613e+00
3.865460e+01 1.826087e-01 -3.885824e-02 8.355037e-01 -2.406143e+00 2.426102e+00
3.876894e+01 1.869565e-01 -3.932880e-02 8.356715e-01 -2.406860e+00 2.427399e+00
3.849107e+01 1.869565e-01 -3.862038e-02 8.364017e-01 -2.423416e+00 2.427399e+00
3.826547e+01 1.739130e-01 -3.710656e-02 8.373491e-01 -2.423416e+00 2.426758e+00
3.886700e+01 1.739130e-01 -3.797281e-02 8.382576e-01 -2.420914e+00 2.428589e+00
3.774132e+01 1.695652e-01 -3.811939e-02 8.390386e-01 -2.424789e+00 2.430237e+00
3.789207e+01 1.826087e-01 -3.792670e-02 8.396027e-01 -2.432312e+00 2.427582e+00
3.865530e+01 1.695652e-01 -3.919573e-02 8.402757e-01 -2.414703e+00 2.427063e+00
3.798186e+01 1.695652e-01 -3.686306e-02 8.423194e-01 -2.413284e+00 2.427872e+00
3.865620e+01 1.739130e-01 -3.597366e-02 8.466460e-01 -2.389984e+00 2.428207e+00
3.785446e+01 1.826087e-01 -6.027004e-02 8.549571e-01 -2.622787e+00 2.431168e+00
3.998328e+01 1.869565e-01 -5.330163e-02 8.583606e-01 -2.593781e+00 2.428268e+00
3.851382e+01 2.000000e-01 -4.846316e-02 8.631434e-01 -2.659119e+00 2.415344e+00
3.868837e+01 1.608696e-01 -4.465013e-02 8.672823e-01 -2.645309e+00 2.429291e+00
3.837303e+01 1.652174e-01 -4.487776e-02 8.673515e-01 -2.631516e+00 2.429276e+00
3.955576e+01 1.608696e-01 -4.997061e-02 8.665432e-01 -2.648972e+00 2.431793e+00
3.885947e+01 1.652174e-01 -4.960612e-02 8.666621e-01 -2.632263e+00 2.431931e+00
3.827518e+01 1.608696e-01 -3.654858e-02 8.673045e-01 -2.599396e+00 2.428192e+00
3.868810e+01 1.782609e-01 -3.981785e-02 8.673711e-01 -2.596634e+00 2.429214e+00
4.053510e+01 2.086957e-01 -5.408639e-02 8.915452e-01 -4.005371e+00 2.439560e+00
3.968582e+01 2.000000e-01 -4.584551e-02 9.027308e-01 -3.857437e+00 2.541733e+00
4.063150e+01 1.869565e-01 -5.194632e-02 9.038506e-01 -3.857132e+00 2.546463e+00
3.912172e+01 1.913043e-01 -4.757197e-02 9.030269e-01 -3.857193e+00 2.546326e+00
3.887648e+01 1.913043e-01 -5.015164e-02 9.035649e-01 -3.852234e+00 2.545792e+00
4.063162e+01 1.913043e-01 -4.973220e-02 9.045880e-01 -3.858704e+00 2.546051e+00
4.014163e+01 1.913043e-01 -4.098280e-02 9.060085e-01 -3.858704e+00 2.571167e+00
3.998158e+01 1.956522e-01 -3.362398e-02 9.059520e-01 -3.817490e+00 2.575516e+00
3.930690e+01 1.956522e-01 -3.415925e-02 9.051111e-01 -3.815628e+00 2.578751e+00
4.051161e+01 1.739130e-01 -3.719557e-02 9.053623e-01 -3.803268e+00 2.577881e+00
4.039845e+01 1.826087e-01 -4.135569e-02 9.053554e-01 -3.796234e+00 2.575439e+00
3.958507e+01 1.913043e-01 -4.030496e-02 9.059260e-01 -3.789703e+00 2.573303e+00
4.054517e+01 1.956522e-01 -4.072465e-02 9.094014e-01 -3.788116e+00 2.573853e+00
3.984312e+01 1.695652e-01 -4.104440e-02 9.110588e-01 -3.757660e+00 2.576111e+00
3.925621e+01 1.782609e-01 -4.214116e-02 9.116191e-01 -3.753098e+00 2.576111e+00
3.932692e+01 1.739130e-01 -3.660981e-02 9.111085e-01 -3.755600e+00 2.577209e+00
3.972530e+01 2.000000e-01 -3.824136e-02 9.114173e-01 -3.737503e+00 2.576904e+00
3.933261e+01 1.956522e-01 -3.318036e-02 9.131419e-01 -3.723816e+00 2.564072e+00
3.874841e+01 1.913043e-01 -3.284757e-02 9.128606e-01 -3.727203e+00 2.562088e+00
3.983156e+01 1.956522e-01 -3.320844e-02 9.133502e-01 -3.728912e+00 2.563171e+00
3.926465e+01 1.869565e-01 -3.326088e-02 9.136529e-01 -3.728912e+00 2.563721e+00
4.005234e+01 1.913043e-01 -3.890126e-02 9.145585e-01 -3.761505e+00 2.564987e+00
3.967314e+01 2.000000e-01 -4.091284e-02 9.148941e-01 -3.754242e+00 2.566910e+00
4.138208e+01 1.782609e-01 -4.854645e-02 9.148412e-01 -3.713669e+00 2.586487e+00
3.962700e+01 1.956522e-01 -4.775772e-02 9.155683e-01 -3.712952e+00 2.594437e+00
3.978731e+01 1.956522e-01 -4.883920e-02 9.164810e-01 -3.695892e+00 2.594879e+00
3.966568e+01 1.782609e-01 -4.747471e-02 9.172636e-01 -3.693497e+00 2.598175e+00
3.993517e+01 1.913043e-01 -4.600031e-02 9.182581e-01 -3.687347e+00 2.598663e+00
4.036386e+01 1.826087e-01 -4.532332e-02 9.187839e-01 -3.677750e+00 2.598923e+00
3.980084e+01 1.826087e-01 -4.533209e-02 9.188797e-01 -3.677750e+00 2.600418e+00
4.052002e+01 1.782609e-01 -4.687903e-02 9.185682e-01 -3.668442e+00 2.600143e+00
4.038045e+01 1.826087e-01 -4.880456e-02 9.193310e-01 -3.672073e+00 2.599609e+00
4.048788e+01 1.826087e-01 -4.800114e-02 9.204472e-01 -3.672073e+00 2.599747e+00
3.984758e+01 1.869565e-01 -4.882359e-02 9.209309e-01 -3.683289e+00 2.599960e+00
4.016435e+01 1.739130e-01 -4.901693e-02 9.213080e-01 -3.683289e+00 2.601181e+00
3.937270e+01 2.000000e-01 -4.851134e-02 9.205788e-01 -3.683426e+00 2.597778e+00
3.912965e+01 1.913043e-01 -4.464831e-02 9.224904e-01 -3.691345e+00 2.600677e+00
3.969658e+01 1.956522e-01 -4.089362e-02 9.234719e-01 -3.689148e+00 2.604721e+00
3.924126e+01 2.043478e-01 -3.716743e-02 9.271658e-01 -3.678757e+00 2.603546e+00
3.840930e+01 2.086957e-01 -4.402023e-02 9.298495e-01 -3.670837e+00 2.605133e+00
3.854427e+01 2.086957e-01 -4.475151e-02 9.300887e-01 -3.670563e+00 2.605133e+00
3.925525e+01 2.043478e-01 -4.565763e-02 9.304901e-01 -3.669785e+00 2.604950e+00
3.911951e+01 2.043478e-01 -4.617651e-02 9.306120e-01 -3.677673e+00 2.600891e+00
3.900844e+01 2.043478e-01 -4.610724e-02 9.306474e-01 -3.678940e+00 2.599030e+00
3.888330e+01 2.130435e-01 -4.607516e-02 9.307415e-01 -3.678940e+00 2.598526e+00
3.962117e+01 1.913043e-01 -4.685378e-02 9.311046e-01 -3.680817e+00 2.597046e+00
4.131084e+01 2.000000e-01 -4.782542e-02 9.334022e-01 -3.680817e+00 2.601593e+00
3.973355e+01 2.043478e-01 -4.770922e-02 9.361289e-01 -3.640259e+00 2.598877e+00
3.988792e+01 2.000000e-01 -4.881010e-02 9.372220e-01 -3.638565e+00 2.599075e+00
4.059615e+01 1.913043e-01 -4.527692e-02 9.475652e-01 -3.623932e+00 2.837921e+00
4.019440e+01 1.869565e-01 -4.614925e-02 9.475217e-01 -3.628448e+00 2.832047e+00
4.013449e+01 1.869565e-01 -4.675686e-02 9.474611e-01 -3.630524e+00 2.821548e+00
4.050925e+01 1.826087e-01 -4.718612e-02 9.475463e-01 -3.630524e+00 2.821548e+00
4.111530e+01 1.869565e-01 -5.028520e-02 9.535222e-01 -3.704529e+00 2.846390e+00
4.076558e+01 1.869565e-01 -4.911078e-02 9.548540e-01 -3.705521e+00 2.846390e+00
4.039754e+01 1.826087e-01 -4.830262e-02 9.547716e-01 -3.706345e+00 2.844864e+00
4.049551e+01 1.826087e-01 -4.796104e-02 9.547143e-01 -3.705017e+00 2.849548e+00
4.116371e+01 1.869565e-01 -4.762481e-02 9.547973e-01 -3.704803e+00 2.860947e+00
4.153838e+01 1.826087e-01 -5.216916e-02 9.561454e-01 -3.707718e+00 2.864243e+00
4.128391e+01 1.913043e-01 -5.152573e-02 9.566711e-01 -3.707535e+00 2.863251e+00
4.149171e+01 1.869565e-01 -5.550624e-02 9.584899e-01 -3.713608e+00 2.813934e+00
4.201620e+01 2.043478e-01 -4.501054e-02 9.619960e-01 -3.758774e+00 2.835739e+00
4.096014e+01 1.913043e-01 -4.163201e-02 9.630366e-01 -3.759521e+00 2.855118e+00
4.007913e+01 1.913043e-01 -4.251278e-02 9.632337e-01 -3.757339e+00 2.860153e+00
4.005914e+01 1.913043e-01 -4.432235e-02 9.632806e-01 -3.751297e+00 2.845795e+00
4.032509e+01 1.956522e-01 -4.485495e-02 9.634124e-01 -3.746170e+00 2.841858e+00
4.034953e+01 1.913043e-01 -4.522228e-02 9.634120e-01 -3.741119e+00 2.827393e+00
4.045285e+01 1.869565e-01 -4.614586e-02 9.637226e-01 -3.738480e+00 2.824051e+00
3.944250e+01 1.869565e-01 -4.607526e-02 9.639907e-01 -3.747406e+00 2.818039e+00
3.955095e+01 1.913043e-01 -4.684145e-02 9.642424e-01 -3.747406e+00 2.812027e+00
3.908357e+01 1.739130e-01 -4.691540e-02 9.645061e-01 -3.741272e+00 2.809845e+00
4.109212e+01 1.826087e-01 -4.738206e-02 9.647936e-01 -3.743011e+00 2.782089e+00
3.966833e+01 1.782609e-01 -4.772421e-02 9.652757e-01 -3.756638e+00 2.828156e+00
4.036237e+01 1.913043e-01 -4.783876e-02 9.656572e-01 -3.756638e+00 2.828156e+00
4.223929e+01 1.956522e-01 -4.826853e-02 9.657141e-01 -3.746765e+00 2.785629e+00
3.981007e+01 1.782609e-01 -4.745937e-02 9.656678e-01 -3.745331e+00 2.815353e+00
3.917503e+01 1.956522e-01 -5.416131e-02 9.685831e-01 -3.756927e+00 2.823471e+00
3.924846e+01 1.913043e-01 -5.407016e-02 9.687694e-01 -3.756912e+00 2.823761e+00
3.976350e+01 1.913043e-01 -5.584585e-02 9.688761e-01 -3.756897e+00 2.823761e+00
3.982365e+01 1.956522e-01 -5.806915e-02 9.692186e-01 -3.752869e+00 2.817841e+00
3.960461e+01 1.739130e-01 -5.293283e-02 9.683521e-01 -3.742310e+00 2.829437e+00
3.868564e+01 1.739130e-01 -5.518053e-02 9.703877e-01 -3.755066e+00 2.842957e+00
4.108972e+01 1.869565e-01 -3.244407e-02 9.724032e-01 -3.728271e+00 2.982849e+00
4.081001e+01 1.869565e-01 -3.523084e-02 9.727562e-01 -3.728271e+00 2.946991e+00
4.056046e+01 1.608696e-01 -3.780089e-02 9.738759e-01 -3.721741e+00 2.912277e+00
4.025755e+01 1.565217e-01 -3.777817e-02 9.737312e-01 -3.718262e+00 2.911652e+00
4.034731e+01 1.652174e-01 -4.060936e-02 9.733852e-01 -3.715302e+00 2.887466e+00
4.056621e+01 1.695652e-01 -4.465748e-02 9.737518e-01 -3.711914e+00 2.865372e+00
4.125307e+01 1.826087e-01 -4.360881e-02 9.739333e-01 -3.716949e+00 2.841034e+00
4.026944e+01 1.652174e-01 -4.180998e-02 9.737476e-01 -3.722855e+00 2.873886e+00
3.929611e+01 1.869565e-01 -5.260040e-02 9.747643e-01 -3.761856e+00 2.862686e+00
4.091844e+01 1.913043e-01 -4.785370e-02 9.803461e-01 -3.764221e+00 3.035812e+00
4.136859e+01 1.869565e-01 -5.278999e-02 9.809210e-01 -3.751953e+00 2.994080e+00
4.057574e+01 1.782609e-01 -6.510207e-02 9.822495e-01 -3.752640e+00 3.118378e+00
4.093874e+01 2.043478e-01 -5.688733e-02 9.816455e-01 -3.736374e+00 3.126602e+00
3.970576e+01 1.782609e-01 -6.397148e-02 9.800714e-01 -3.735809e+00 2.706482e+00
3.910254e+01 1.826087e-01 -6.357895e-02 9.808006e-01 -3.734940e+00 2.749771e+00
3.921288e+01 1.826087e-01 -5.825215e-02 9.834597e-01 -3.724258e+00 2.808762e+00
3.934357e+01 1.826087e-01 -5.869192e-02 9.837566e-01 -3.726898e+00 2.788803e+00
3.940894e+01 1.826087e-01 -5.839502e-02 9.838450e-01 -3.728485e+00 2.784988e+00
3.975566e+01 1.826087e-01 -5.852938e-02 9.838175e-01 -3.729111e+00 2.800735e+00
3.926653e+01 1.869565e-01 -5.253537e-02 9.848875e-01 -3.727386e+00 2.800735e+00
3.956155e+01 1.869565e-01 -4.803302e-02 9.854596e-01 -3.712463e+00 2.782089e+00
3.990750e+01 1.913043e-01 -5.077743e-02 9.866560e-01 -3.730362e+00 2.704803e+00
3.935344e+01 1.826087e-01 -4.573396e-02 9.867701e-01 -3.729111e+00 2.749466e+00
4.162112e+01 2.086957e-01 -5.304673e-02 9.880036e-01 -3.721359e+00 2.743744e+00
4.058852e+01 1.826087e-01 -5.587380e-02 9.925995e-01 -3.701767e+00 2.862503e+00
4.123653e+01 1.869565e-01 -5.711385e-02 9.929892e-01 -3.702164e+00 2.754517e+00
4.299113e+01 2.000000e-01 -4.729730e-02 9.925558e-01 -3.706894e+00 2.668457e+00
3.971590e+01 1.826087e-01 -4.322666e-02 9.923901e-01 -3.695633e+00 2.676529e+00
3.951274e+01 1.826087e-01 -4.444007e-02 9.935084e-01 -3.698212e+00 2.652191e+00
3.926303e+01 1.826087e-01 -4.476167e-02 9.939178e-01 -3.700089e+00 2.651047e+00
