2.048000e+03 8.248000e-01 8.623283e-04 5.779869e-01 -9.997559e-01 9.997559e-01
1.249172e+03 8.340000e-02 -1.279330e-02 5.768481e-01 -1.579590e+00 1.800293e+00
1.091392e+03 7.940000e-02 -1.624413e-02 5.771656e-01 -2.062500e+00 2.303955e+00
9.068167e+02 6.610000e-02 -1.819993e-02 5.778494e-01 -2.573730e+00 2.601074e+00
8.379539e+02 6.080000e-02 -2.018406e-02 5.788809e-01 -2.530518e+00 2.615234e+00
6.936350e+02 5.360000e-02 -2.178375e-02 5.797467e-01 -2.858154e+00 2.903320e+00
6.998872e+02 5.520000e-02 -2.296353e-02 5.804892e-01 -3.044922e+00 2.915283e+00
6.712073e+02 5.240000e-02 -2.362156e-02 5.809730e-01 -3.362061e+00 2.987549e+00
7.170405e+02 5.150000e-02 -2.466222e-02 5.817108e-01 -3.690674e+00 3.002686e+00
6.932063e+02 5.220000e-02 -2.538112e-02 5.825669e-01 -3.827637e+00 3.061523e+00
6.333955e+02 4.760000e-02 -2.572215e-02 5.830755e-01 -4.115234e+00 3.053711e+00
6.582798e+02 4.690000e-02 -2.659359e-02 5.838030e-01 -4.364502e+00 3.083740e+00
6.432351e+02 4.610000e-02 -2.717846e-02 5.844897e-01 -4.516602e+00 3.000000e+00
6.349478e+02 4.680000e-02 -2.775380e-02 5.851341e-01 -4.696289e+00 3.150391e+00
5.924600e+02 4.450000e-02 -2.824702e-02 5.858585e-01 -5.067383e+00 3.168457e+00
5.931682e+02 4.380000e-02 -2.887119e-02 5.866981e-01 -5.212158e+00 3.148682e+00
6.181833e+02 4.470000e-02 -2.917126e-02 5.872995e-01 -5.465820e+00 3.242432e+00
5.408508e+02 4.220000e-02 -2.944613e-02 5.879344e-01 -5.598633e+00 3.294434e+00
5.580698e+02 4.270000e-02 -3.011435e-02 5.886568e-01 -5.803467e+00 3.371094e+00
5.725972e+02 4.280000e-02 -3.024128e-02 5.893417e-01 -5.923584e+00 3.369629e+00
5.193284e+02 4.130000e-02 -3.066487e-02 5.899946e-01 -5.979980e+00 3.432129e+00
5.526091e+02 4.160000e-02 -3.091500e-02 5.905248e-01 -5.980957e+00 3.483398e+00
6.205242e+02 4.530000e-02 -3.148767e-02 5.914348e-01 -6.149902e+00 3.532959e+00
5.422021e+02 4.080000e-02 -3.214975e-02 5.928500e-01 -6.253906e+00 3.653564e+00
5.204976e+02 4.030000e-02 -3.230695e-02 5.936139e-01 -6.295654e+00 3.750244e+00
5.836108e+02 4.090000e-02 -3.252879e-02 5.941199e-01 -6.371094e+00 3.790771e+00
