-3.370802e-01 1.380139e+00 -5.747634e+00 4.941966e+00 3.796910e-04 8.916381e-03 -9.539239e-02 1.238729e-01
-3.479528e-01 1.373757e+00 -5.691073e+00 4.982089e+00 3.238462e-04 9.167809e-03 -9.936839e-02 1.249365e-01
-3.572591e-01 1.369408e+00 -5.613527e+00 5.016813e+00 2.622977e-04 9.395855e-03 -1.033152e-01 1.259097e-01
-3.637767e-01 1.366653e+00 -5.478799e+00 5.057752e+00 1.973329e-04 9.603735e-03 -1.085311e-01 1.262238e-01
-3.665510e-01 1.363559e+00 -5.474385e+00 5.105206e+00 1.298814e-04 9.797464e-03 -1.100182e-01 1.262285e-01
-3.650448e-01 1.358763e+00 -5.442890e+00 5.127014e+00 6.357352e-05 9.975117e-03 -1.152123e-01 1.262285e-01
-3.593055e-01 1.352323e+00 -5.387909e+00 5.131473e+00 -1.693611e-06 1.014237e-02 -1.181686e-01 1.262285e-01
-3.500044e-01 1.344212e+00 -5.344101e+00 5.132762e+00 -6.444100e-05 1.030094e-02 -1.202633e-01 1.262281e-01
-3.377027e-01 1.335328e+00 -5.251396e+00 5.120886e+00 -1.211127e-04 1.045612e-02 -1.212255e-01 1.261952e-01
-3.230750e-01 1.326241e+00 -5.206467e+00 5.066013e+00 -1.737698e-04 1.060521e-02 -1.242986e-01 1.261613e-01
-3.070029e-01 1.316726e+00 -5.151288e+00 5.045075e+00 -2.195499e-04 1.074432e-02 -1.253069e-01 1.257671e-01
-2.898628e-01 1.307964e+00 -5.082838e+00 5.120210e+00 -2.559951e-04 1.087648e-02 -1.258248e-01 1.250819e-01
-2.721457e-01 1.299756e+00 -4.956350e+00 5.153985e+00 -2.823891e-04 1.100113e-02 -1.262161e-01 1.244029e-01
-2.541027e-01 1.292002e+00 -4.941996e+00 5.203195e+00 -2.987306e-04 1.112185e-02 -1.262277e-01 1.240429e-01
-2.362018e-01 1.286363e+00 -4.910833e+00 5.229337e+00 -3.080952e-04 1.122752e-02 -1.262285e-01 1.233916e-01
-2.190151e-01 1.281451e+00 -4.919372e+00 5.263254e+00 -3.058580e-04 1.132311e-02 -1.262285e-01 1.231946e-01
-2.029922e-01 1.277308e+00 -4.928002e+00 5.289201e+00 -2.962281e-04 1.140913e-02 -1.262284e-01 1.227660e-01
-1.887167e-01 1.273707e+00 -4.942307e+00 5.303882e+00 -2.799445e-04 1.147684e-02 -1.262217e-01 1.223867e-01
-1.758667e-01 1.269864e+00 -4.952938e+00 5.300243e+00 -2.578100e-04 1.153724e-02 -1.262281e-01 1.220784e-01
-1.647374e-01 1.266674e+00 -4.976102e+00 5.290129e+00 -2.331993e-04 1.158772e-02 -1.262219e-01 1.220487e-01
-1.562385e-01 1.262104e+00 -4.980349e+00 5.257473e+00 -2.075246e-04 1.162647e-02 -1.261705e-01 1.220309e-01
-1.502891e-01 1.256407e+00 -5.030051e+00 5.243444e+00 -1.818975e-04 1.165420e-02 -1.259211e-01 1.220389e-01
-1.460440e-01 1.250135e+00 -5.051154e+00 5.170692e+00 -1.565031e-04 1.168001e-02 -1.255818e-01 1.222203e-01
-1.439482e-01 1.242967e+00 -5.132628e+00 5.148212e+00 -1.344897e-04 1.169223e-02 -1.253127e-01 1.224384e-01
-1.439281e-01 1.234496e+00 -5.184555e+00 5.040755e+00 -1.149801e-04 1.169821e-02 -1.251838e-01 1.225358e-01
-1.452309e-01 1.225842e+00 -5.241527e+00 5.010683e+00 -9.797241e-05 1.169861e-02 -1.250215e-01 1.227905e-01
-1.488584e-01 1.216242e+00 -5.289196e+00 4.926940e+00 -8.603653e-05 1.168855e-02 -1.249849e-01 1.233973e-01
-1.536046e-01 1.207370e+00 -5.383277e+00 4.854903e+00 -7.614845e-05 1.167138e-02 -1.250440e-01 1.236505e-01
-1.584900e-01 1.198772e+00 -5.413168e+00 4.743866e+00 -6.905158e-05 1.165530e-02 -1.250781e-01 1.239896e-01
-1.645831e-01 1.191452e+00 -5.482498e+00 4.674793e+00 -6.499661e-05 1.162786e-02 -1.252786e-01 1.246615e-01
-1.705185e-01 1.184811e+00 -5.509208e+00 4.569259e+00 -6.190191e-05 1.159977e-02 -1.254210e-01 1.247402e-01
-1.763201e-01 1.180397e+00 -5.559633e+00 4.512036e+00 -6.049998e-05 1.156754e-02 -1.255503e-01 1.250626e-01
-1.833664e-01 1.177098e+00 -5.575493e+00 4.432587e+00 -6.220444e-05 1.152864e-02 -1.257653e-01 1.255486e-01
-1.901347e-01 1.175806e+00 -5.639362e+00 4.419545e+00 -6.299610e-05 1.148250e-02 -1.259220e-01 1.257302e-01
-1.960075e-01 1.176287e+00 -5.674004e+00 4.475529e+00 -6.463833e-05 1.143833e-02 -1.259742e-01 1.260510e-01
-2.013193e-01 1.178291e+00 -5.679922e+00 4.540786e+00 -6.563640e-05 1.139356e-02 -1.261174e-01 1.261340e-01
-2.067077e-01 1.183188e+00 -5.720802e+00 4.646761e+00 -6.746445e-05 1.133639e-02 -1.261316e-01 1.262280e-01
-2.112223e-01 1.189477e+00 -5.746460e+00 4.659107e+00 -6.742608e-05 1.128813e-02 -1.262045e-01 1.262030e-01
-2.152849e-01 1.196691e+00 -5.760448e+00 4.764340e+00 -6.681384e-05 1.123519e-02 -1.262231e-01 1.261446e-01
-2.194287e-01 1.205750e+00 -5.792237e+00 4.828963e+00 -6.660623e-05 1.117976e-02 -1.262249e-01 1.261991e-01
-2.225726e-01 1.216059e+00 -5.797181e+00 4.877158e+00 -6.350846e-05 1.112724e-02 -1.262285e-01 1.262281e-01
-2.253710e-01 1.227244e+00 -5.813828e+00 4.888957e+00 -6.072668e-05 1.106844e-02 -1.262092e-01 1.262283e-01
-2.293095e-01 1.239014e+00 -5.835563e+00 4.945480e+00 -6.065876e-05 1.100943e-02 -1.262143e-01 1.262195e-01
-2.324204e-01 1.252112e+00 -5.872892e+00 5.043586e+00 -5.882497e-05 1.094940e-02 -1.262283e-01 1.262016e-01
-2.349479e-01 1.264784e+00 -5.897554e+00 5.066535e+00 -5.755174e-05 1.089666e-02 -1.262266e-01 1.262267e-01
-2.376421e-01 1.278347e+00 -5.913413e+00 5.140458e+00 -5.585143e-05 1.084168e-02 -1.262278e-01 1.262104e-01
-2.391669e-01 1.291942e+00 -5.928931e+00 5.189808e+00 -5.213858e-05 1.078627e-02 -1.262221e-01 1.262174e-01
-2.399638e-01 1.305355e+00 -5.940729e+00 5.223306e+00 -4.547586e-05 1.073821e-02 -1.262263e-01 1.262285e-01
-2.401129e-01 1.319579e+00 -5.952749e+00 5.268174e+00 -3.788600e-05 1.069096e-02 -1.262284e-01 1.262252e-01
-2.420277e-01 1.333359e+00 -5.986017e+00 5.306365e+00 -3.562532e-05 1.064427e-02 -1.262254e-01 1.262132e-01
-2.453217e-01 1.346835e+00 -6.010151e+00 5.347455e+00 -3.799102e-05 1.059758e-02 -1.262251e-01 1.262284e-01
-2.482211e-01 1.360476e+00 -6.030895e+00 5.421980e+00 -3.882511e-05 1.054888e-02 -1.262082e-01 1.262247e-01
-2.492297e-01 1.373516e+00 -6.064600e+00 5.460855e+00 -3.568792e-05 1.050900e-02 -1.262034e-01 1.262281e-01
-2.501583e-01 1.386188e+00 -6.089730e+00 5.468314e+00 -3.277549e-05 1.046847e-02 -1.262234e-01 1.262285e-01
-2.509534e-01 1.398506e+00 -6.101667e+00 5.507315e+00 -2.909240e-05 1.043814e-02 -1.261595e-01 1.262285e-01
-2.523304e-01 1.411052e+00 -6.126525e+00 5.567923e+00 -2.784050e-05 1.040183e-02 -1.262067e-01 1.262025e-01
-2.530903e-01 1.422835e+00 -6.135127e+00 5.592873e+00 -2.372236e-05 1.037441e-02 -1.262132e-01 1.262282e-01
-2.536976e-01 1.434713e+00 -6.158330e+00 5.630493e+00 -2.022742e-05 1.033692e-02 -1.262285e-01 1.262284e-01
-2.540152e-01 1.445630e+00 -6.172193e+00 5.651330e+00 -1.528665e-05 1.030997e-02 -1.262215e-01 1.262271e-01
-2.559930e-01 1.456089e+00 -6.211132e+00 5.697360e+00 -1.820590e-05 1.028405e-02 -1.262264e-01 1.262270e-01
-2.586605e-01 1.466889e+00 -6.219622e+00 5.726933e+00 -2.187249e-05 1.025956e-02 -1.262195e-01 1.262245e-01
-2.590057e-01 1.476935e+00 -6.236972e+00 5.764065e+00 -1.885228e-05 1.024283e-02 -1.262278e-01 1.262285e-01
-2.605286e-01 1.486699e+00 -6.258957e+00 5.779661e+00 -2.017003e-05 1.022327e-02 -1.262160e-01 1.262285e-01
-2.630338e-01 1.496440e+00 -6.284007e+00 5.807504e+00 -2.410647e-05 1.020067e-02 -1.262272e-01 1.262280e-01
-2.635296e-01 1.505380e+00 -6.296378e+00 5.854128e+00 -2.263708e-05 1.018252e-02 -1.262239e-01 1.262279e-01
-2.633296e-01 1.513862e+00 -6.302523e+00 5.873045e+00 -1.920536e-05 1.017022e-02 -1.262282e-01 1.262196e-01
-2.636911e-01 1.522491e+00 -6.310999e+00 5.893248e+00 -1.725291e-05 1.015427e-02 -1.262231e-01 1.262250e-01
-2.649058e-01 1.530825e+00 -6.329025e+00 5.917544e+00 -1.868529e-05 1.013952e-02 -1.262284e-01 1.261902e-01
-2.652872e-01 1.538379e+00 -6.337393e+00 5.956815e+00 -1.737714e-05 1.013033e-02 -1.262277e-01 1.261343e-01
-2.657348e-01 1.546314e+00 -6.351093e+00 5.975648e+00 -1.563636e-05 1.011631e-02 -1.262279e-01 1.261641e-01
-2.658916e-01 1.553358e+00 -6.351563e+00 5.992440e+00 -1.228882e-05 1.010710e-02 -1.262251e-01 1.261785e-01
-2.648092e-01 1.560509e+00 -6.351244e+00 6.002206e+00 -5.318708e-06 1.009747e-02 -1.262258e-01 1.262279e-01
-2.650212e-01 1.567288e+00 -6.358924e+00 6.029956e+00 -4.215773e-06 1.008639e-02 -1.262268e-01 1.262285e-01
-2.668340e-01 1.574319e+00 -6.368303e+00 6.058513e+00 -8.425859e-06 1.008230e-02 -1.262285e-01 1.262275e-01
-2.684976e-01 1.580830e+00 -6.392416e+00 6.073133e+00 -1.301857e-05 1.007663e-02 -1.262284e-01 1.262285e-01
-2.681096e-01 1.586738e+00 -6.418401e+00 6.094375e+00 -9.804103e-06 1.006709e-02 -1.262252e-01 1.262252e-01
-2.678158e-01 1.592487e+00 -6.428576e+00 6.113416e+00 -7.528338e-06 1.006185e-02 -1.262196e-01 1.262268e-01
-2.685846e-01 1.598416e+00 -6.440918e+00 6.131671e+00 -9.050361e-06 1.005513e-02 -1.262192e-01 1.262265e-01
-2.689560e-01 1.603977e+00 -6.470085e+00 6.147435e+00 -8.941935e-06 1.005358e-02 -1.262111e-01 1.262127e-01
-2.690983e-01 1.609315e+00 -6.485771e+00 6.157790e+00 -7.866907e-06 1.005082e-02 -1.262021e-01 1.262004e-01
-2.689001e-01 1.614341e+00 -6.494714e+00 6.176532e+00 -5.945724e-06 1.004645e-02 -1.261968e-01 1.261990e-01
-2.690780e-01 1.618965e+00 -6.512096e+00 6.198405e+00 -5.618746e-06 1.004295e-02 -1.262117e-01 1.262116e-01
-2.693724e-01 1.623943e+00 -6.524135e+00 6.211840e+00 -5.995571e-06 1.004055e-02 -1.262267e-01 1.262263e-01
-2.705163e-01 1.628759e+00 -6.547349e+00 6.237235e+00 -1.034642e-05 1.003968e-02 -1.262170e-01 1.262284e-01
-2.716439e-01 1.633244e+00 -6.570444e+00 6.260106e+00 -1.429415e-05 1.003991e-02 -1.262141e-01 1.262256e-01
-2.713349e-01 1.637344e+00 -6.580631e+00 6.271751e+00 -1.253281e-05 1.003562e-02 -1.261812e-01 1.262180e-01
-2.706023e-01 1.641532e+00 -6.585925e+00 6.273712e+00 -9.501964e-06 1.003677e-02 -1.262078e-01 1.262284e-01
-2.697443e-01 1.645375e+00 -6.591440e+00 6.285887e+00 -4.145594e-06 1.003489e-02 -1.262218e-01 1.262280e-01
-2.698167e-01 1.649184e+00 -6.606484e+00 6.296274e+00 -3.752868e-06 1.003266e-02 -1.262242e-01 1.262175e-01
-2.695764e-01 1.652657e+00 -6.616527e+00 6.318387e+00 -2.478080e-06 1.003090e-02 -1.262270e-01 1.262054e-01
-2.694980e-01 1.656211e+00 -6.630488e+00 6.322962e+00 -1.582194e-06 1.003381e-02 -1.262257e-01 1.262205e-01
-2.707768e-01 1.659916e+00 -6.656348e+00 6.350308e+00 -7.370103e-06 1.004165e-02 -1.262267e-01 1.262277e-01
-2.719050e-01 1.663272e+00 -6.668197e+00 6.360337e+00 -1.208391e-05 1.003837e-02 -1.262131e-01 1.262268e-01
-2.705367e-01 1.666175e+00 -6.662968e+00 6.365122e+00 -4.809434e-06 1.004973e-02 -1.262281e-01 1.262276e-01
-2.689460e-01 1.668964e+00 -6.666333e+00 6.363155e+00 2.970890e-06 1.003807e-02 -1.262285e-01 1.262269e-01
-2.690274e-01 1.671926e+00 -6.680284e+00 6.370839e+00 1.625778e-06 1.003744e-02 -1.262284e-01 1.262272e-01
-2.695555e-01 1.674748e+00 -6.693817e+00 6.391637e+00 -3.394747e-06 1.004144e-02 -1.262266e-01 1.262280e-01
-2.704678e-01 1.677715e+00 -6.712377e+00 6.404834e+00 -8.594803e-06 1.004766e-02 -1.262285e-01 1.262278e-01
-2.703041e-01 1.680319e+00 -6.720459e+00 6.415625e+00 -7.840240e-06 1.004780e-02 -1.262274e-01 1.262248e-01
-2.704165e-01 1.682496e+00 -6.738063e+00 6.431620e+00 -8.848819e-06 1.004975e-02 -1.262266e-01 1.262237e-01
-2.706166e-01 1.685078e+00 -6.739418e+00 6.435241e+00 -9.055250e-06 1.005129e-02 -1.262195e-01 1.262284e-01
-2.698673e-01 1.687494e+00 -6.747839e+00 6.439857e+00 -5.314748e-06 1.005516e-02 -1.262121e-01 1.262257e-01
-2.697023e-01 1.689790e+00 -6.756113e+00 6.454382e+00 -6.452388e-06 1.006151e-02 -1.262148e-01 1.262272e-01
-2.700579e-01 1.691922e+00 -6.767730e+00 6.463865e+00 -9.437646e-06 1.006223e-02 -1.262177e-01 1.262274e-01
-2.698430e-01 1.694085e+00 -6.774971e+00 6.466205e+00 -9.811433e-06 1.006604e-02 -1.262179e-01 1.262263e-01
-2.682585e-01 1.695702e+00 -6.775209e+00 6.473698e+00 -2.308536e-06 1.006933e-02 -1.262138e-01 1.262228e-01
-2.674028e-01 1.697662e+00 -6.783877e+00 6.481734e+00 -5.122125e-07 1.007214e-02 -1.262081e-01 1.262031e-01
-2.675570e-01 1.699782e+00 -6.796640e+00 6.491537e+00 -3.838439e-06 1.007728e-02 -1.262021e-01 1.261960e-01
-2.673402e-01 1.701515e+00 -6.799601e+00 6.496014e+00 -4.276329e-06 1.008307e-02 -1.262024e-01 1.262062e-01
-2.665381e-01 1.703228e+00 -6.803589e+00 6.498164e+00 -1.238881e-06 1.008486e-02 -1.261823e-01 1.261856e-01
-2.659105e-01 1.704937e+00 -6.808106e+00 6.504488e+00 3.735433e-07 1.008957e-02 -1.261719e-01 1.261597e-01
-2.649371e-01 1.706608e+00 -6.815103e+00 6.510525e+00 3.689226e-06 1.009464e-02 -1.261825e-01 1.261181e-01
-2.651283e-01 1.708208e+00 -6.823556e+00 6.513647e+00 -2.171238e-07 1.009906e-02 -1.261481e-01 1.261430e-01
-2.660657e-01 1.710431e+00 -6.837196e+00 6.528945e+00 -7.072637e-06 1.010370e-02 -1.261836e-01 1.261628e-01
-2.658918e-01 1.711979e+00 -6.847439e+00 6.534892e+00 -6.306386e-06 1.010911e-02 -1.261696e-01 1.261455e-01
-2.652104e-01 1.713361e+00 -6.853865e+00 6.537630e+00 -4.553647e-06 1.011467e-02 -1.261616e-01 1.261304e-01
-2.644201e-01 1.714664e+00 -6.858141e+00 6.547794e+00 -4.296067e-06 1.012024e-02 -1.261694e-01 1.261336e-01
-2.641037e-01 1.716089e+00 -6.860206e+00 6.554427e+00 -5.303032e-06 1.012587e-02 -1.261705e-01 1.261292e-01
-2.638087e-01 1.717454e+00 -6.867874e+00 6.563410e+00 -6.218910e-06 1.013200e-02 -1.261831e-01 1.261348e-01
-2.638105e-01 1.718596e+00 -6.879263e+00 6.569734e+00 -1.019119e-05 1.014066e-02 -1.261979e-01 1.261396e-01
-2.629681e-01 1.719807e+00 -6.877405e+00 6.573529e+00 -7.206162e-06 1.014625e-02 -1.262011e-01 1.261466e-01
-2.624313e-01 1.720929e+00 -6.894213e+00 6.577217e+00 -5.782430e-06 1.015171e-02 -1.261998e-01 1.261009e-01
-2.630528e-01 1.722467e+00 -6.894528e+00 6.587403e+00 -1.319815e-05 1.015700e-02 -1.262229e-01 1.261431e-01
-2.622604e-01 1.723329e+00 -6.904058e+00 6.595180e+00 -9.832647e-06 1.016415e-02 -1.262264e-01 1.261186e-01
-2.613313e-01 1.724469e+00 -6.906811e+00 6.597561e+00 -6.643870e-06 1.017183e-02 -1.262274e-01 1.260954e-01
-2.600429e-01 1.725453e+00 -6.902407e+00 6.591635e+00 -7.812943e-07 1.017560e-02 -1.262114e-01 1.260832e-01
-2.593977e-01 1.726457e+00 -6.905029e+00 6.594939e+00 1.092090e-06 1.018176e-02 -1.262197e-01 1.261298e-01
-2.589082e-01 1.727552e+00 -6.907578e+00 6.605612e+00 -1.324991e-06 1.018829e-02 -1.262276e-01 1.261078e-01
-2.578893e-01 1.728249e+00 -6.915655e+00 6.604602e+00 3.026512e-06 1.019804e-02 -1.262266e-01 1.261252e-01
-2.579997e-01 1.729185e+00 -6.923574e+00 6.608775e+00 -1.321130e-06 1.020101e-02 -1.262279e-01 1.261058e-01
-2.582466e-01 1.730249e+00 -6.928122e+00 6.626916e+00 -6.886563e-06 1.021177e-02 -1.262141e-01 1.260878e-01
-2.576746e-01 1.731039e+00 -6.935814e+00 6.627601e+00 -7.361177e-06 1.021818e-02 -1.262100e-01 1.261239e-01
-2.567917e-01 1.731742e+00 -6.936053e+00 6.629837e+00 -4.368258e-06 1.022401e-02 -1.262152e-01 1.261499e-01
-2.557585e-01 1.732316e+00 -6.935892e+00 6.629943e+00 -7.657379e-07 1.023170e-02 -1.262183e-01 1.261513e-01
-2.557644e-01 1.733330e+00 -6.946283e+00 6.630037e+00 -3.427279e-06 1.024036e-02 -1.261757e-01 1.261531e-01
-2.559911e-01 1.734381e+00 -6.955345e+00 6.640392e+00 -8.935638e-06 1.025074e-02 -1.261926e-01 1.261564e-01
-2.554325e-01 1.735338e+00 -6.959057e+00 6.652498e+00 -9.282908e-06 1.026120e-02 -1.262047e-01 1.261417e-01
-2.538456e-01 1.735961e+00 -6.948557e+00 6.646608e+00 1.731064e-06 1.025985e-02 -1.261986e-01 1.261862e-01
-2.533101e-01 1.736215e+00 -6.953638e+00 6.643647e+00 1.190034e-06 1.026980e-02 -1.261627e-01 1.262174e-01
-2.533484e-01 1.736802e+00 -6.964940e+00 6.659961e+00 -3.645312e-06 1.028058e-02 -1.261771e-01 1.262153e-01
-2.534987e-01 1.737506e+00 -6.974367e+00 6.660935e+00 -8.747623e-06 1.029483e-02 -1.262069e-01 1.261862e-01
-2.530913e-01 1.738348e+00 -6.976396e+00 6.669535e+00 -1.049404e-05 1.029993e-02 -1.262227e-01 1.261919e-01
-2.525668e-01 1.739009e+00 -6.977908e+00 6.670222e+00 -9.578604e-06 1.030968e-02 -1.262168e-01 1.261996e-01
-2.523585e-01 1.740094e+00 -6.984314e+00 6.678595e+00 -1.188299e-05 1.031850e-02 -1.262224e-01 1.261816e-01
-2.511336e-01 1.740433e+00 -6.982750e+00 6.673661e+00 -4.811866e-06 1.032280e-02 -1.262106e-01 1.262241e-01
-2.495185e-01 1.740923e+00 -6.976371e+00 6.663709e+00 5.130103e-06 1.033324e-02 -1.261816e-01 1.262280e-01
-2.489475e-01 1.741476e+00 -6.983328e+00 6.670882e+00 5.996595e-06 1.033959e-02 -1.261784e-01 1.262082e-01
-2.491252e-01 1.742093e+00 -7.003237e+00 6.675039e+00 -2.809497e-06 1.036240e-02 -1.262283e-01 1.262198e-01
-2.488300e-01 1.743018e+00 -6.997010e+00 6.689779e+00 -6.217782e-06 1.035107e-02 -1.262276e-01 1.262262e-01
-2.482393e-01 1.743498e+00 -6.999763e+00 6.690956e+00 -4.153644e-06 1.036156e-02 -1.262206e-01 1.262254e-01
-2.478513e-01 1.743825e+00 -6.999542e+00 6.691882e+00 -4.725316e-06 1.037396e-02 -1.262285e-01 1.262246e-01
-2.474341e-01 1.744332e+00 -7.001630e+00 6.694286e+00 -4.792894e-06 1.038681e-02 -1.262270e-01 1.262186e-01
-2.469292e-01 1.744946e+00 -7.005370e+00 6.696209e+00 -4.571944e-06 1.039401e-02 -1.262254e-01 1.262149e-01
-2.465585e-01 1.745700e+00 -7.009396e+00 6.701630e+00 -4.340042e-06 1.040225e-02 -1.262249e-01 1.262062e-01
-2.457571e-01 1.746117e+00 -7.006007e+00 6.703756e+00 -6.167777e-07 1.041209e-02 -1.262215e-01 1.261597e-01
-2.450264e-01 1.746338e+00 -7.009160e+00 6.701727e+00 2.310270e-06 1.041915e-02 -1.262265e-01 1.261589e-01
-2.450534e-01 1.746984e+00 -7.010229e+00 6.701672e+00 -2.775637e-06 1.042995e-02 -1.262276e-01 1.261959e-01
-2.454303e-01 1.747904e+00 -7.029814e+00 6.716334e+00 -1.095011e-05 1.044281e-02 -1.262221e-01 1.262191e-01
-2.447618e-01 1.748300e+00 -7.029326e+00 6.719917e+00 -9.049737e-06 1.044895e-02 -1.262218e-01 1.262127e-01
-2.442661e-01 1.748278e+00 -7.026168e+00 6.718159e+00 -5.753783e-06 1.045842e-02 -1.262284e-01 1.261610e-01
-2.440946e-01 1.749193e+00 -7.031006e+00 6.719516e+00 -8.748696e-06 1.046915e-02 -1.262245e-01 1.262053e-01
-2.436426e-01 1.749750e+00 -7.034083e+00 6.725572e+00 -9.695240e-06 1.047903e-02 -1.262212e-01 1.262010e-01
-2.430247e-01 1.750026e+00 -7.032168e+00 6.731952e+00 -8.999888e-06 1.048852e-02 -1.262199e-01 1.261777e-01
-2.424441e-01 1.750167e+00 -7.033817e+00 6.733292e+00 -7.325297e-06 1.049649e-02 -1.262192e-01 1.261812e-01
-2.418304e-01 1.750318e+00 -7.028756e+00 6.731887e+00 -2.341655e-06 1.050221e-02 -1.262285e-01 1.261093e-01
-2.416115e-01 1.750641e+00 -7.031640e+00 6.726769e+00 -1.364925e-06 1.051027e-02 -1.262256e-01 1.261249e-01
-2.414083e-01 1.751269e+00 -7.035312e+00 6.732159e+00 -2.723066e-06 1.052135e-02 -1.262248e-01 1.261562e-01
-2.413255e-01 1.752481e+00 -7.045070e+00 6.740212e+00 -5.900656e-06 1.053613e-02 -1.262278e-01 1.261982e-01
-2.407775e-01 1.752726e+00 -7.037842e+00 6.737776e+00 -4.981018e-06 1.054141e-02 -1.262283e-01 1.261960e-01
-2.406545e-01 1.752914e+00 -7.043353e+00 6.750424e+00 -7.601875e-06 1.055524e-02 -1.262250e-01 1.262138e-01
-2.407050e-01 1.753874e+00 -7.048510e+00 6.756759e+00 -1.177023e-05 1.056600e-02 -1.261826e-01 1.262285e-01
-2.403041e-01 1.754594e+00 -7.050097e+00 6.755482e+00 -1.030907e-05 1.057861e-02 -1.261852e-01 1.262285e-01
-2.395551e-01 1.754789e+00 -7.042306e+00 6.752299e+00 -4.077528e-06 1.058037e-02 -1.261967e-01 1.262279e-01
-2.391704e-01 1.754806e+00 -7.043044e+00 6.754040e+00 -3.092999e-06 1.059081e-02 -1.261968e-01 1.262284e-01
-2.383434e-01 1.754889e+00 -7.042095e+00 6.748540e+00 3.966732e-06 1.060006e-02 -1.262143e-01 1.262283e-01
-2.379004e-01 1.755383e+00 -7.039521e+00 6.754597e+00 5.890773e-06 1.060718e-02 -1.262222e-01 1.262272e-01
-2.375678e-01 1.756064e+00 -7.041269e+00 6.753211e+00 5.088652e-06 1.062032e-02 -1.262006e-01 1.262212e-01
-2.371804e-01 1.756608e+00 -7.044954e+00 6.757345e+00 4.189135e-06 1.062462e-02 -1.262085e-01 1.262132e-01
-2.378854e-01 1.757460e+00 -7.061022e+00 6.769859e+00 -7.696261e-06 1.064276e-02 -1.261499e-01 1.262249e-01
-2.378579e-01 1.757603e+00 -7.062066e+00 6.770499e+00 -8.024999e-06 1.065133e-02 -1.261452e-01 1.262274e-01
-2.374897e-01 1.757988e+00 -7.062090e+00 6.768971e+00 -6.653049e-06 1.065895e-02 -1.261297e-01 1.262244e-01
-2.378953e-01 1.758745e+00 -7.063785e+00 6.778146e+00 -1.232728e-05 1.067027e-02 -1.261505e-01 1.262282e-01
-2.377476e-01 1.758996e+00 -7.058234e+00 6.775282e+00 -8.015477e-06 1.068025e-02 -1.261454e-01 1.262277e-01
-2.371263e-01 1.758867e+00 -7.058544e+00 6.771999e+00 -8.960888e-07 1.068889e-02 -1.261450e-01 1.262280e-01
-2.369234e-01 1.759308e+00 -7.062711e+00 6.773645e+00 3.116893e-07 1.069651e-02 -1.261661e-01 1.262284e-01
-2.370627e-01 1.760665e+00 -7.071521e+00 6.776641e+00 -7.673995e-06 1.070826e-02 -1.261705e-01 1.262283e-01
-2.370424e-01 1.761010e+00 -7.073848e+00 6.789026e+00 -1.168429e-05 1.071655e-02 -1.262145e-01 1.262276e-01
-2.363686e-01 1.761227e+00 -7.059357e+00 6.782061e+00 -1.537085e-06 1.072742e-02 -1.261936e-01 1.262284e-01
-2.360887e-01 1.761334e+00 -7.065478e+00 6.783795e+00 2.323341e-06 1.073230e-02 -1.262000e-01 1.262237e-01
-2.358918e-01 1.761840e+00 -7.064372e+00 6.785790e+00 4.219717e-06 1.074448e-02 -1.262042e-01 1.262223e-01
-2.355468e-01 1.762459e+00 -7.066518e+00 6.785679e+00 7.129070e-06 1.075652e-02 -1.262074e-01 1.262216e-01
-2.356814e-01 1.763129e+00 -7.062093e+00 6.789116e+00 3.060224e-06 1.076966e-02 -1.262241e-01 1.262214e-01
-2.365438e-01 1.764369e+00 -7.078713e+00 6.802650e+00 -1.544463e-05 1.078629e-02 -1.262168e-01 1.262271e-01
-2.369563e-01 1.765376e+00 -7.088440e+00 6.812895e+00 -2.224698e-05 1.078999e-02 -1.262121e-01 1.262122e-01
-2.363729e-01 1.765248e+00 -7.079084e+00 6.806348e+00 -1.361217e-05 1.079343e-02 -1.262169e-01 1.262268e-01
-2.361828e-01 1.765626e+00 -7.080319e+00 6.807494e+00 -9.583483e-06 1.080547e-02 -1.262142e-01 1.262231e-01
-2.359771e-01 1.765646e+00 -7.078234e+00 6.807053e+00 -1.676794e-06 1.081504e-02 -1.262257e-01 1.262210e-01
-2.355611e-01 1.765715e+00 -7.069978e+00 6.802572e+00 8.677116e-06 1.082546e-02 -1.262280e-01 1.262281e-01
-2.353316e-01 1.766177e+00 -7.065722e+00 6.799474e+00 1.206415e-05 1.083212e-02 -1.262284e-01 1.262280e-01
-2.353155e-01 1.766865e+00 -7.066721e+00 6.800813e+00 1.258111e-05 1.084355e-02 -1.262281e-01 1.262285e-01
-2.356159e-01 1.767561e+00 -7.073794e+00 6.810982e+00 5.803076e-06 1.084877e-02 -1.262192e-01 1.262205e-01
-2.361618e-01 1.768766e+00 -7.081949e+00 6.823842e+00 -5.635065e-06 1.086533e-02 -1.261894e-01 1.262132e-01
-2.367109e-01 1.770160e+00 -7.086135e+00 6.833946e+00 -1.718896e-05 1.087669e-02 -1.262053e-01 1.262163e-01
-2.368394e-01 1.771017e+00 -7.093417e+00 6.831282e+00 -1.938512e-05 1.088154e-02 -1.261941e-01 1.262235e-01
-2.365305e-01 1.770751e+00 -7.090883e+00 6.828969e+00 -1.231298e-05 1.088836e-02 -1.261744e-01 1.262283e-01
-2.362409e-01 1.770743e+00 -7.083030e+00 6.824513e+00 -3.245232e-06 1.089807e-02 -1.261059e-01 1.262281e-01
-2.363384e-01 1.771016e+00 -7.078799e+00 6.826347e+00 4.180527e-07 1.090853e-02 -1.261229e-01 1.262144e-01
-2.361509e-01 1.771538e+00 -7.076564e+00 6.828543e+00 1.341325e-06 1.091796e-02 -1.261167e-01 1.262008e-01
-2.362139e-01 1.771898e+00 -7.076175e+00 6.827172e+00 5.419060e-06 1.092606e-02 -1.261032e-01 1.261831e-01
-2.369994e-01 1.772800e+00 -7.089270e+00 6.833072e+00 -1.134659e-06 1.094011e-02 -1.260994e-01 1.262087e-01
-2.371666e-01 1.773724e+00 -7.090995e+00 6.840369e+00 -6.136277e-06 1.094678e-02 -1.261295e-01 1.262211e-01
-2.372983e-01 1.774308e+00 -7.090267e+00 6.842166e+00 -7.694910e-06 1.095629e-02 -1.261410e-01 1.262248e-01
-2.374444e-01 1.775164e+00 -7.090696e+00 6.843048e+00 -4.580193e-06 1.096705e-02 -1.261134e-01 1.262160e-01
-2.378002e-01 1.775539e+00 -7.088075e+00 6.842098e+00 -3.260925e-06 1.097368e-02 -1.261189e-01 1.262181e-01
-2.380980e-01 1.776073e+00 -7.085868e+00 6.840276e+00 -4.649236e-06 1.099207e-02 -1.260918e-01 1.262057e-01
-2.381310e-01 1.776552e+00 -7.097506e+00 6.845117e+00 -3.693935e-06 1.098687e-02 -1.261418e-01 1.262250e-01
-2.380117e-01 1.776769e+00 -7.088767e+00 6.845001e+00 1.427178e-06 1.099778e-02 -1.260416e-01 1.261799e-01
-2.378483e-01 1.777034e+00 -7.083505e+00 6.843806e+00 9.347700e-06 1.101508e-02 -1.260309e-01 1.261760e-01
-2.378403e-01 1.777579e+00 -7.080947e+00 6.841802e+00 1.451790e-05 1.101871e-02 -1.259100e-01 1.261411e-01
-2.380121e-01 1.778344e+00 -7.084238e+00 6.846573e+00 1.215945e-05 1.103080e-02 -1.259331e-01 1.261369e-01
-2.385706e-01 1.779400e+00 -7.089281e+00 6.856685e+00 1.616622e-06 1.104460e-02 -1.260087e-01 1.261693e-01
-2.395341e-01 1.780690e+00 -7.099233e+00 6.861629e+00 -1.336317e-05 1.104906e-02 -1.261256e-01 1.262242e-01
-2.396902e-01 1.781529e+00 -7.102024e+00 6.865875e+00 -1.179930e-05 1.105645e-02 -1.261152e-01 1.262207e-01
-2.397923e-01 1.781871e+00 -7.100892e+00 6.866186e+00 -6.791732e-06 1.106531e-02 -1.260792e-01 1.262065e-01
-2.404321e-01 1.783101e+00 -7.104496e+00 6.865025e+00 -7.735025e-06 1.107508e-02 -1.261552e-01 1.262284e-01
-2.405194e-01 1.784002e+00 -7.101559e+00 6.872575e+00 -9.544671e-06 1.108159e-02 -1.261500e-01 1.262279e-01
-2.405341e-01 1.784382e+00 -7.100556e+00 6.874644e+00 -8.035347e-06 1.109084e-02 -1.261087e-01 1.262179e-01
-2.409631e-01 1.784990e+00 -7.100227e+00 6.881542e+00 -9.751378e-06 1.109924e-02 -1.261202e-01 1.262218e-01
-2.408436e-01 1.785427e+00 -7.097549e+00 6.877425e+00 -1.195690e-06 1.110592e-02 -1.259974e-01 1.261632e-01
-2.406674e-01 1.785633e+00 -7.094498e+00 6.874332e+00 6.582522e-06 1.111630e-02 -1.259739e-01 1.261597e-01
-2.409928e-01 1.786289e+00 -7.094092e+00 6.872220e+00 8.474881e-06 1.112450e-02 -1.259671e-01 1.261646e-01
-2.414639e-01 1.786945e+00 -7.092252e+00 6.869941e+00 1.210465e-05 1.112892e-02 -1.259258e-01 1.261983e-01
-2.422722e-01 1.787964e+00 -7.099818e+00 6.876907e+00 1.827135e-06 1.114643e-02 -1.260566e-01 1.262001e-01
-2.429066e-01 1.789327e+00 -7.111855e+00 6.882314e+00 -9.136881e-06 1.115763e-02 -1.260792e-01 1.262103e-01
-2.435081e-01 1.790466e+00 -7.112356e+00 6.896359e+00 -1.573385e-05 1.115907e-02 -1.261711e-01 1.262270e-01
-2.437410e-01 1.791487e+00 -7.108832e+00 6.901407e+00 -1.435209e-05 1.116848e-02 -1.261359e-01 1.262268e-01
-2.438103e-01 1.791978e+00 -7.104459e+00 6.894197e+00 -5.861120e-06 1.118332e-02 -1.260849e-01 1.262121e-01
-2.436001e-01 1.791905e+00 -7.095974e+00 6.893559e+00 7.700732e-06 1.118935e-02 -1.259551e-01 1.261864e-01
-2.434551e-01 1.792414e+00 -7.086874e+00 6.890451e+00 1.768098e-05 1.119613e-02 -1.258734e-01 1.262257e-01
-2.438242e-01 1.793088e+00 -7.089095e+00 6.891775e+00 1.664274e-05 1.120495e-02 -1.259566e-01 1.262261e-01
-2.443757e-01 1.794411e+00 -7.094121e+00 6.891823e+00 2.435286e-06 1.122538e-02 -1.260806e-01 1.262168e-01
-2.452721e-01 1.795526e+00 -7.106025e+00 6.907658e+00 -6.540718e-06 1.122018e-02 -1.261394e-01 1.262275e-01
-2.460566e-01 1.796532e+00 -7.109187e+00 6.909536e+00 -8.774721e-06 1.122670e-02 -1.261766e-01 1.262274e-01
-2.464102e-01 1.797480e+00 -7.117094e+00 6.910180e+00 -9.887465e-06 1.123739e-02 -1.261963e-01 1.262246e-01
-2.467653e-01 1.798141e+00 -7.113387e+00 6.908499e+00 -6.938194e-06 1.124636e-02 -1.261698e-01 1.262280e-01
-2.469262e-01 1.798552e+00 -7.109277e+00 6.906461e+00 2.322623e-06 1.125412e-02 -1.261374e-01 1.262277e-01
-2.471732e-01 1.799470e+00 -7.109208e+00 6.918214e+00 -1.373979e-06 1.126717e-02 -1.261868e-01 1.262243e-01
-2.476319e-01 1.799976e+00 -7.111804e+00 6.916265e+00 1.753346e-06 1.127413e-02 -1.261855e-01 1.262243e-01
-2.483123e-01 1.800750e+00 -7.111076e+00 6.917532e+00 3.282232e-06 1.128013e-02 -1.261831e-01 1.262250e-01
-2.485101e-01 1.801719e+00 -7.107740e+00 6.920656e+00 6.552308e-06 1.129272e-02 -1.261813e-01 1.262251e-01
-2.487964e-01 1.803125e+00 -7.114560e+00 6.925542e+00 2.997519e-07 1.130162e-02 -1.262040e-01 1.262229e-01
-2.492729e-01 1.804139e+00 -7.116117e+00 6.930160e+00 -6.049075e-06 1.130658e-02 -1.262206e-01 1.262195e-01
-2.497627e-01 1.804958e+00 -7.110686e+00 6.929551e+00 -1.793554e-06 1.131256e-02 -1.262177e-01 1.262270e-01
-2.500554e-01 1.805523e+00 -7.109321e+00 6.925983e+00 8.562380e-06 1.132643e-02 -1.261931e-01 1.262283e-01
-2.504593e-01 1.806325e+00 -7.113605e+00 6.929060e+00 9.417267e-06 1.132975e-02 -1.262040e-01 1.262261e-01
-2.509508e-01 1.807493e+00 -7.129972e+00 6.932761e+00 4.966944e-06 1.133600e-02 -1.262219e-01 1.262284e-01
-2.512207e-01 1.808498e+00 -7.139131e+00 6.938742e+00 6.226984e-06 1.135066e-02 -1.262218e-01 1.262282e-01
-2.519646e-01 1.809673e+00 -7.153263e+00 6.944162e+00 -1.219108e-06 1.136004e-02 -1.262256e-01 1.262250e-01
-2.526590e-01 1.810939e+00 -7.163262e+00 6.944454e+00 -4.471283e-06 1.136123e-02 -1.262254e-01 1.262284e-01
-2.529238e-01 1.811433e+00 -7.165369e+00 6.941505e+00 4.094933e-06 1.137098e-02 -1.262238e-01 1.262271e-01
-2.536899e-01 1.812801e+00 -7.183181e+00 6.945941e+00 4.772507e-07 1.137751e-02 -1.262260e-01 1.262285e-01
-2.543485e-01 1.813972e+00 -7.187960e+00 6.949011e+00 -3.793936e-06 1.138581e-02 -1.262274e-01 1.262285e-01
-2.544554e-01 1.814881e+00 -7.199449e+00 6.952243e+00 -2.583214e-06 1.139828e-02 -1.262239e-01 1.262280e-01
-2.545330e-01 1.815203e+00 -7.204772e+00 6.954003e+00 3.360309e-06 1.140799e-02 -1.262268e-01 1.262201e-01
-2.553280e-01 1.816599e+00 -7.232819e+00 6.961935e+00 -4.541340e-06 1.141988e-02 -1.262196e-01 1.262147e-01
-2.561282e-01 1.817718e+00 -7.235045e+00 6.966076e+00 -1.136742e-05 1.142156e-02 -1.261902e-01 1.262257e-01
-2.563935e-01 1.818752e+00 -7.249599e+00 6.966644e+00 -5.445175e-06 1.143015e-02 -1.262046e-01 1.262198e-01
-2.564315e-01 1.819987e+00 -7.264158e+00 6.969017e+00 -5.932223e-06 1.144013e-02 -1.261703e-01 1.262262e-01
-2.568823e-01 1.820434e+00 -7.279842e+00 6.973785e+00 -7.917630e-07 1.144564e-02 -1.261893e-01 1.262204e-01
-2.570571e-01 1.820795e+00 -7.284838e+00 6.968453e+00 8.875144e-06 1.145557e-02 -1.262190e-01 1.262008e-01
-2.570917e-01 1.821767e+00 -7.287401e+00 6.968774e+00 1.259892e-05 1.146325e-02 -1.262181e-01 1.261995e-01
-2.577968e-01 1.823238e+00 -7.304117e+00 6.980176e+00 3.378850e-06 1.147819e-02 -1.261935e-01 1.261843e-01
-2.583631e-01 1.825046e+00 -7.330646e+00 6.981875e+00 -1.689426e-06 1.147558e-02 -1.261387e-01 1.262016e-01
-2.586276e-01 1.825642e+00 -7.341910e+00 6.978426e+00 4.779404e-06 1.149545e-02 -1.261480e-01 1.261980e-01
-2.590570e-01 1.826068e+00 -7.344828e+00 6.980789e+00 6.717210e-06 1.149426e-02 -1.261384e-01 1.261599e-01
-2.594067e-01 1.827272e+00 -7.369009e+00 6.985534e+00 8.036362e-06 1.150394e-02 -1.261249e-01 1.261546e-01
-2.598614e-01 1.829553e+00 -7.388698e+00 6.989954e+00 -4.328201e-07 1.151326e-02 -1.260558e-01 1.262174e-01
-2.603039e-01 1.830669e+00 -7.397475e+00 6.996684e+00 -5.982002e-06 1.151627e-02 -1.260727e-01 1.262235e-01
-2.608785e-01 1.831765e+00 -7.399903e+00 6.999591e+00 -6.533073e-06 1.152384e-02 -1.260312e-01 1.262113e-01
-2.614223e-01 1.832743e+00 -7.416277e+00 6.998117e+00 -3.730488e-06 1.153389e-02 -1.260058e-01 1.262020e-01
-2.623055e-01 1.833949e+00 -7.434590e+00 7.003130e+00 -9.855659e-06 1.154904e-02 -1.260698e-01 1.262222e-01
-2.627805e-01 1.834596e+00 -7.444793e+00 6.998109e+00 -2.712860e-06 1.155671e-02 -1.259691e-01 1.261848e-01
-2.625148e-01 1.835116e+00 -7.454802e+00 6.998029e+00 1.358469e-05 1.156214e-02 -1.260525e-01 1.261504e-01
-2.632974e-01 1.836374e+00 -7.456975e+00 7.006120e+00 1.055035e-05 1.156504e-02 -1.260302e-01 1.261495e-01
-2.639295e-01 1.837836e+00 -7.477845e+00 7.013306e+00 5.091163e-06 1.157675e-02 -1.260232e-01 1.261739e-01
-2.640691e-01 1.839166e+00 -7.499618e+00 7.018725e+00 1.285474e-07 1.158269e-02 -1.259509e-01 1.261807e-01
-2.646476e-01 1.840509e+00 -7.511259e+00 7.024128e+00 -4.702729e-06 1.158680e-02 -1.260362e-01 1.262144e-01
-2.647623e-01 1.841372e+00 -7.518516e+00 7.026556e+00 1.970269e-06 1.160207e-02 -1.258979e-01 1.261543e-01
-2.649857e-01 1.842119e+00 -7.527308e+00 7.023454e+00 1.230676e-05 1.160752e-02 -1.260210e-01 1.261144e-01
-2.652161e-01 1.842805e+00 -7.535175e+00 7.021826e+00 1.588531e-05 1.161681e-02 -1.260808e-01 1.261568e-01
-2.660049e-01 1.844062e+00 -7.559220e+00 7.028283e+00 9.098641e-06 1.162510e-02 -1.260658e-01 1.261646e-01
-2.669689e-01 1.845844e+00 -7.567223e+00 7.035481e+00 9.852417e-07 1.163202e-02 -1.260337e-01 1.261936e-01
-2.677042e-01 1.847123e+00 -7.588363e+00 7.039140e+00 -4.122218e-06 1.163790e-02 -1.259916e-01 1.261983e-01
-2.679952e-01 1.847868e+00 -7.593604e+00 7.041157e+00 4.620237e-06 1.165956e-02 -1.261004e-01 1.261306e-01
-2.680481e-01 1.849072e+00 -7.600737e+00 7.036222e+00 1.539274e-05 1.165983e-02 -1.260923e-01 1.261211e-01
-2.688238e-01 1.850395e+00 -7.620058e+00 7.040461e+00 1.033371e-05 1.166199e-02 -1.260840e-01 1.261599e-01
-2.696450e-01 1.852074e+00 -7.636502e+00 7.044603e+00 -2.907011e-06 1.166459e-02 -1.260610e-01 1.261703e-01
-2.701546e-01 1.853589e+00 -7.641106e+00 7.049402e+00 -5.460926e-06 1.168008e-02 -1.260591e-01 1.262173e-01
-2.700641e-01 1.854349e+00 -7.649801e+00 7.048342e+00 5.161422e-06 1.168641e-02 -1.260736e-01 1.261969e-01
-2.698000e-01 1.855176e+00 -7.654093e+00 7.052957e+00 1.374074e-05 1.170572e-02 -1.261667e-01 1.261824e-01
-2.708296e-01 1.856897e+00 -7.665475e+00 7.054624e+00 6.082617e-06 1.170014e-02 -1.261266e-01 1.261715e-01
-2.722967e-01 1.858851e+00 -7.694056e+00 7.062180e+00 -1.386707e-05 1.171214e-02 -1.261339e-01 1.262258e-01
-2.733484e-01 1.860150e+00 -7.708157e+00 7.071622e+00 -2.105790e-05 1.170762e-02 -1.261767e-01 1.262285e-01
-2.736710e-01 1.860766e+00 -7.721446e+00 7.069489e+00 -1.094190e-05 1.172172e-02 -1.261480e-01 1.262211e-01
-2.739682e-01 1.861456e+00 -7.732310e+00 7.070783e+00 -2.219127e-06 1.173436e-02 -1.261588e-01 1.262246e-01
-2.742969e-01 1.862450e+00 -7.735014e+00 7.072857e+00 3.831748e-06 1.173669e-02 -1.261657e-01 1.262237e-01
-2.743222e-01 1.863662e+00 -7.750643e+00 7.079058e+00 7.682678e-06 1.174786e-02 -1.262037e-01 1.262172e-01
-2.744379e-01 1.865051e+00 -7.758619e+00 7.079034e+00 8.583161e-06 1.175227e-02 -1.262157e-01 1.262251e-01
-2.751843e-01 1.866102e+00 -7.769533e+00 7.078253e+00 9.150344e-06 1.175849e-02 -1.262177e-01 1.262270e-01
-2.754314e-01 1.867348e+00 -7.776489e+00 7.080949e+00 1.296467e-05 1.176629e-02 -1.262158e-01 1.262266e-01
-2.762548e-01 1.868942e+00 -7.785392e+00 7.086811e+00 4.154292e-06 1.177053e-02 -1.262156e-01 1.262261e-01
-2.768872e-01 1.870132e+00 -7.804487e+00 7.093459e+00 3.052079e-06 1.178479e-02 -1.262231e-01 1.262253e-01
-2.771491e-01 1.871365e+00 -7.816633e+00 7.098951e+00 8.922589e-06 1.180048e-02 -1.262277e-01 1.262178e-01
-2.774637e-01 1.872731e+00 -7.834230e+00 7.102651e+00 7.937967e-06 1.180109e-02 -1.262242e-01 1.262271e-01
-2.777374e-01 1.874048e+00 -7.840034e+00 7.100444e+00 6.420777e-06 1.181743e-02 -1.262214e-01 1.262281e-01
-2.781850e-01 1.875371e+00 -7.844907e+00 7.099625e+00 1.638729e-05 1.182743e-02 -1.262201e-01 1.262283e-01
-2.788097e-01 1.877176e+00 -7.855663e+00 7.106289e+00 1.069172e-05 1.181975e-02 -1.262273e-01 1.262284e-01
-2.799826e-01 1.879361e+00 -7.873459e+00 7.115781e+00 -6.283454e-06 1.182996e-02 -1.262284e-01 1.262285e-01
-2.811322e-01 1.880883e+00 -7.904759e+00 7.118194e+00 -2.127635e-05 1.183281e-02 -1.262157e-01 1.262130e-01
-2.807509e-01 1.881427e+00 -7.901884e+00 7.122537e+00 -7.790663e-06 1.185142e-02 -1.262266e-01 1.262220e-01
-2.806023e-01 1.881707e+00 -7.899740e+00 7.125077e+00 2.628701e-06 1.185435e-02 -1.262239e-01 1.262285e-01
-2.812203e-01 1.883254e+00 -7.915842e+00 7.124863e+00 -1.131768e-06 1.185873e-02 -1.262252e-01 1.262278e-01
-2.818989e-01 1.884070e+00 -7.925582e+00 7.119950e+00 9.229038e-06 1.186528e-02 -1.262283e-01 1.262187e-01
-2.825402e-01 1.885473e+00 -7.947516e+00 7.121656e+00 -4.623009e-07 1.188099e-02 -1.262278e-01 1.262259e-01
-2.828871e-01 1.887251e+00 -7.949365e+00 7.138990e+00 -2.848947e-06 1.187983e-02 -1.262229e-01 1.262172e-01
-2.831295e-01 1.888400e+00 -7.964029e+00 7.137951e+00 7.086761e-06 1.189235e-02 -1.262260e-01 1.262071e-01
-2.835248e-01 1.889645e+00 -7.966252e+00 7.132001e+00 1.481160e-05 1.189833e-02 -1.262260e-01 1.262244e-01
-2.839397e-01 1.891020e+00 -7.979177e+00 7.138084e+00 1.611205e-05 1.190514e-02 -1.262181e-01 1.262256e-01
-2.847927e-01 1.893162e+00 -8.011586e+00 7.153467e+00 -1.093932e-06 1.192653e-02 -1.262140e-01 1.262177e-01
-2.859890e-01 1.895094e+00 -8.013403e+00 7.152672e+00 -1.759063e-05 1.191599e-02 -1.262239e-01 1.262285e-01
-2.861560e-01 1.896097e+00 -8.029418e+00 7.156306e+00 -7.431437e-06 1.192573e-02 -1.262285e-01 1.262202e-01
-2.861959e-01 1.897191e+00 -8.033284e+00 7.159595e+00 -7.600587e-07 1.192766e-02 -1.262282e-01 1.262072e-01
-2.864336e-01 1.898440e+00 -8.042371e+00 7.162815e+00 2.274424e-06 1.193592e-02 -1.262284e-01 1.262096e-01
-2.865909e-01 1.899341e+00 -8.049276e+00 7.162483e+00 8.815841e-06 1.194512e-02 -1.262232e-01 1.262265e-01
-2.871700e-01 1.900346e+00 -8.054205e+00 7.162791e+00 1.543693e-05 1.195226e-02 -1.262063e-01 1.262283e-01
-2.871888e-01 1.901565e+00 -8.064910e+00 7.163465e+00 2.630090e-05 1.196920e-02 -1.261848e-01 1.262272e-01
-2.876584e-01 1.903733e+00 -8.072547e+00 7.175385e+00 2.102249e-05 1.196964e-02 -1.261681e-01 1.262285e-01
-2.888370e-01 1.905652e+00 -8.095074e+00 7.178083e+00 6.949325e-06 1.196933e-02 -1.261908e-01 1.262271e-01
-2.897354e-01 1.907280e+00 -8.105526e+00 7.180731e+00 -2.174916e-06 1.197963e-02 -1.262176e-01 1.262159e-01
-2.900144e-01 1.908511e+00 -8.121998e+00 7.186329e+00 -4.729932e-07 1.198683e-02 -1.262050e-01 1.262173e-01
-2.905158e-01 1.909859e+00 -8.125963e+00 7.188192e+00 3.064934e-06 1.199508e-02 -1.261850e-01 1.262285e-01
-2.911429e-01 1.911375e+00 -8.140290e+00 7.191648e+00 1.123566e-07 1.200116e-02 -1.261980e-01 1.262279e-01
-2.920445e-01 1.913225e+00 -8.150643e+00 7.200828e+00 -1.068262e-05 1.201461e-02 -1.262126e-01 1.262283e-01
-2.921801e-01 1.914544e+00 -8.162181e+00 7.200998e+00 -5.510275e-06 1.202190e-02 -1.261656e-01 1.262262e-01
-2.919593e-01 1.914920e+00 -8.163384e+00 7.198068e+00 1.083188e-05 1.202839e-02 -1.261311e-01 1.262285e-01
-2.925211e-01 1.916364e+00 -8.175089e+00 7.201310e+00 1.282309e-05 1.204243e-02 -1.261411e-01 1.262272e-01
-2.929932e-01 1.917772e+00 -8.183914e+00 7.202122e+00 1.557002e-05 1.203934e-02 -1.261112e-01 1.262127e-01
-2.940415e-01 1.919412e+00 -8.192919e+00 7.206389e+00 7.793393e-06 1.204609e-02 -1.261400e-01 1.262234e-01
-2.948038e-01 1.920861e+00 -8.210093e+00 7.210535e+00 2.816676e-06 1.205226e-02 -1.261346e-01 1.262240e-01
-2.960133e-01 1.922867e+00 -8.234065e+00 7.220519e+00 -1.401758e-05 1.206964e-02 -1.261911e-01 1.262100e-01
-2.963078e-01 1.924173e+00 -8.233347e+00 7.222124e+00 -9.209094e-06 1.206652e-02 -1.261403e-01 1.262071e-01
-2.957194e-01 1.925218e+00 -8.234935e+00 7.221295e+00 -9.033074e-07 1.208305e-02 -1.261104e-01 1.262236e-01
-2.963068e-01 1.927534e+00 -8.250504e+00 7.234180e+00 -1.235228e-05 1.209911e-02 -1.261567e-01 1.262269e-01
-2.971151e-01 1.929196e+00 -8.264240e+00 7.237847e+00 -1.641846e-05 1.208931e-02 -1.262731e-01 1.262276e-01
-2.975125e-01 1.929909e+00 -8.269929e+00 7.228460e+00 5.717241e-06 1.210396e-02 -1.263566e-01 1.262242e-01
-2.975029e-01 1.930153e+00 -8.270398e+00 7.224751e+00 2.772732e-05 1.211041e-02 -1.264312e-01 1.261679e-01
-2.980184e-01 1.931797e+00 -8.288534e+00 7.228508e+00 2.340232e-05 1.211634e-02 -1.266765e-01 1.261466e-01
-2.986885e-01 1.933602e+00 -8.304569e+00 7.234776e+00 1.495835e-05 1.211851e-02 -1.267986e-01 1.261701e-01
-2.994810e-01 1.935437e+00 -8.313495e+00 7.244191e+00 6.667754e-06 1.212328e-02 -1.270943e-01 1.262168e-01
-3.004172e-01 1.937528e+00 -8.334038e+00 7.249710e+00 3.105566e-07 1.213075e-02 -1.272414e-01 1.262183e-01
-3.012852e-01 1.939231e+00 -8.343536e+00 7.253752e+00 -6.099413e-06 1.213536e-02 -1.273230e-01 1.262254e-01
-3.017612e-01 1.940670e+00 -8.347676e+00 7.258444e+00 -5.337574e-06 1.214557e-02 -1.276200e-01 1.262228e-01
-3.018615e-01 1.941499e+00 -8.357194e+00 7.257254e+00 6.638926e-06 1.215945e-02 -1.277281e-01 1.261877e-01
-3.018377e-01 1.942496e+00 -8.363814e+00 7.261788e+00 1.824617e-05 1.216374e-02 -1.279241e-01 1.261794e-01
-3.021026e-01 1.944264e+00 -8.367528e+00 7.264027e+00 1.333117e-05 1.217133e-02 -1.280521e-01 1.261988e-01
-3.027348e-01 1.945720e+00 -8.378966e+00 7.269395e+00 1.355204e-05 1.217986e-02 -1.282210e-01 1.261534e-01
-3.035479e-01 1.947313e+00 -8.399597e+00 7.266471e+00 1.064373e-05 1.218496e-02 -1.283407e-01 1.261839e-01
-3.044216e-01 1.949060e+00 -8.406936e+00 7.275970e+00 -5.155781e-06 1.219063e-02 -1.285204e-01 1.262122e-01
-3.045313e-01 1.950536e+00 -8.414056e+00 7.280957e+00 -5.077937e-06 1.219659e-02 -1.287670e-01 1.262062e-01
-3.047903e-01 1.951936e+00 -8.425156e+00 7.281874e+00 -2.449553e-06 1.220979e-02 -1.291101e-01 1.261913e-01
-3.048608e-01 1.953043e+00 -8.426633e+00 7.286026e+00 1.667744e-06 1.221731e-02 -1.292602e-01 1.261812e-01
-3.048841e-01 1.953792e+00 -8.434981e+00 7.282459e+00 1.857325e-05 1.222331e-02 -1.292973e-01 1.261513e-01
-3.055435e-01 1.955422e+00 -8.439142e+00 7.284393e+00 2.130460e-05 1.223207e-02 -1.294176e-01 1.261002e-01
-3.069435e-01 1.957478e+00 -8.466611e+00 7.294148e+00 1.322094e-05 1.223429e-02 -1.295643e-01 1.261343e-01
-3.078512e-01 1.959111e+00 -8.470919e+00 7.293585e+00 7.721052e-06 1.223790e-02 -1.298733e-01 1.261418e-01
-3.082673e-01 1.960804e+00 -8.482887e+00 7.303712e+00 9.691692e-07 1.225120e-02 -1.300345e-01 1.261581e-01
-3.090616e-01 1.962609e+00 -8.487828e+00 7.301279e+00 -1.278179e-06 1.226047e-02 -1.302562e-01 1.261911e-01
-3.092859e-01 1.963501e+00 -8.497873e+00 7.299624e+00 1.473203e-05 1.226461e-02 -1.303545e-01 1.261202e-01
-3.100123e-01 1.965415e+00 -8.505996e+00 7.306746e+00 3.876105e-06 1.227425e-02 -1.307542e-01 1.261999e-01
-3.109777e-01 1.967574e+00 -8.523671e+00 7.315057e+00 -7.324287e-06 1.227784e-02 -1.308390e-01 1.261925e-01
-3.114441e-01 1.968577e+00 -8.533569e+00 7.314309e+00 4.911371e-06 1.228276e-02 -1.309456e-01 1.261561e-01
-3.118885e-01 1.970427e+00 -8.541836e+00 7.315275e+00 -4.395246e-06 1.230045e-02 -1.311391e-01 1.261784e-01
-3.119184e-01 1.971485e+00 -8.544986e+00 7.327087e+00 6.287036e-06 1.231373e-02 -1.312827e-01 1.261992e-01
-3.123671e-01 1.972597e+00 -8.548574e+00 7.320100e+00 2.294799e-05 1.230954e-02 -1.314113e-01 1.260478e-01
-3.136500e-01 1.974957e+00 -8.557596e+00 7.321164e+00 7.382843e-06 1.230999e-02 -1.316506e-01 1.261756e-01
-3.139525e-01 1.976884e+00 -8.573965e+00 7.326545e+00 1.774318e-06 1.231596e-02 -1.319157e-01 1.261666e-01
-3.142590e-01 1.978534e+00 -8.584095e+00 7.334284e+00 -1.785020e-06 1.232484e-02 -1.321688e-01 1.261770e-01
-3.146104e-01 1.980163e+00 -8.594158e+00 7.338874e+00 -3.323203e-06 1.233213e-02 -1.323008e-01 1.261737e-01
-3.150111e-01 1.981414e+00 -8.603528e+00 7.343849e+00 -1.308670e-06 1.233920e-02 -1.324053e-01 1.261682e-01
-3.158333e-01 1.983025e+00 -8.609293e+00 7.342761e+00 -1.372442e-06 1.234910e-02 -1.325492e-01 1.261699e-01
-3.159426e-01 1.984274e+00 -8.617757e+00 7.345235e+00 1.583425e-06 1.235413e-02 -1.327004e-01 1.261845e-01
-3.156342e-01 1.985035e+00 -8.615369e+00 7.345501e+00 2.327597e-05 1.238932e-02 -1.328350e-01 1.260413e-01
-3.162685e-01 1.987282e+00 -8.634303e+00 7.350850e+00 1.606927e-05 1.238266e-02 -1.331070e-01 1.261440e-01
-3.178923e-01 1.989125e+00 -8.650621e+00 7.357852e+00 -8.835160e-08 1.237869e-02 -1.331660e-01 1.261732e-01
-3.183004e-01 1.990671e+00 -8.656210e+00 7.360563e+00 2.682959e-06 1.238269e-02 -1.332851e-01 1.261820e-01
-3.184933e-01 1.992105e+00 -8.665123e+00 7.372185e+00 2.543461e-06 1.240009e-02 -1.335950e-01 1.262007e-01
-3.188698e-01 1.993641e+00 -8.670306e+00 7.368478e+00 3.288220e-06 1.240299e-02 -1.336285e-01 1.261928e-01
-3.196019e-01 1.994908e+00 -8.677999e+00 7.368520e+00 1.293196e-05 1.241437e-02 -1.337356e-01 1.261380e-01
-3.203791e-01 1.996645e+00 -8.688088e+00 7.373225e+00 8.790116e-06 1.241987e-02 -1.339336e-01 1.261361e-01
-3.206868e-01 1.998054e+00 -8.692523e+00 7.373327e+00 1.736432e-05 1.243482e-02 -1.340957e-01 1.260911e-01
-3.215736e-01 1.999950e+00 -8.702788e+00 7.376831e+00 9.095699e-06 1.243610e-02 -1.344622e-01 1.261560e-01
-3.226058e-01 2.001907e+00 -8.716922e+00 7.381934e+00 -4.099365e-06 1.244068e-02 -1.345046e-01 1.261632e-01
-3.236301e-01 2.003916e+00 -8.737721e+00 7.382305e+00 -1.608481e-05 1.245108e-02 -1.348707e-01 1.262163e-01
-3.239013e-01 2.005132e+00 -8.738423e+00 7.384287e+00 -8.590077e-06 1.245004e-02 -1.348952e-01 1.262053e-01
-3.238022e-01 2.005776e+00 -8.737307e+00 7.381363e+00 1.943615e-05 1.246617e-02 -1.349302e-01 1.260119e-01
-3.240170e-01 2.007010e+00 -8.747816e+00 7.383325e+00 2.645156e-05 1.247200e-02 -1.349878e-01 1.260288e-01
-3.243788e-01 2.008934e+00 -8.758140e+00 7.385447e+00 1.451458e-05 1.248046e-02 -1.353491e-01 1.261198e-01
-3.242940e-01 2.010287e+00 -8.756382e+00 7.395048e+00 2.382180e-05 1.249974e-02 -1.353469e-01 1.260480e-01
-3.252159e-01 2.012452e+00 -8.771972e+00 7.398102e+00 9.051652e-06 1.249438e-02 -1.356739e-01 1.261203e-01
-3.259642e-01 2.014652e+00 -8.782873e+00 7.409310e+00 -3.340618e-06 1.249141e-02 -1.358706e-01 1.261678e-01
-3.262858e-01 2.015965e+00 -8.791853e+00 7.406496e+00 3.588519e-07 1.250944e-02 -1.360481e-01 1.261808e-01
-3.272499e-01 2.017618e+00 -8.804371e+00 7.409970e+00 7.520237e-06 1.251485e-02 -1.361434e-01 1.261246e-01
-3.278147e-01 2.019093e+00 -8.805374e+00 7.410429e+00 8.036222e-06 1.252489e-02 -1.363499e-01 1.261115e-01
-3.282022e-01 2.021308e+00 -8.815393e+00 7.417430e+00 -5.925412e-06 1.254272e-02 -1.366905e-01 1.262179e-01
-3.285736e-01 2.022944e+00 -8.824975e+00 7.425195e+00 -4.329674e-06 1.255505e-02 -1.367460e-01 1.262014e-01
-3.292705e-01 2.023865e+00 -8.834863e+00 7.421617e+00 1.097940e-05 1.255075e-02 -1.367696e-01 1.261487e-01
-3.300738e-01 2.025577e+00 -8.841993e+00 7.426392e+00 5.435282e-06 1.255180e-02 -1.369790e-01 1.261292e-01
-3.298338e-01 2.026946e+00 -8.843932e+00 7.428216e+00 6.898763e-06 1.255811e-02 -1.371815e-01 1.261381e-01
-3.307313e-01 2.028768e+00 -8.859998e+00 7.435255e+00 2.352669e-07 1.258500e-02 -1.374919e-01 1.261801e-01
-3.319095e-01 2.030447e+00 -8.861869e+00 7.435013e+00 7.546498e-06 1.256805e-02 -1.375406e-01 1.263510e-01
-3.325617e-01 2.031654e+00 -8.872673e+00 7.431969e+00 9.246394e-06 1.257588e-02 -1.375217e-01 1.265928e-01
-3.328978e-01 2.033300e+00 -8.876815e+00 7.449497e+00 1.366668e-05 1.258971e-02 -1.377091e-01 1.266839e-01
-3.334850e-01 2.035021e+00 -8.881241e+00 7.450907e+00 9.379290e-06 1.259876e-02 -1.380726e-01 1.269062e-01
-3.341540e-01 2.036758e+00 -8.892089e+00 7.461278e+00 2.389699e-06 1.260374e-02 -1.381540e-01 1.272870e-01
-3.342937e-01 2.038383e+00 -8.896150e+00 7.467570e+00 3.822215e-06 1.261170e-02 -1.384909e-01 1.273702e-01
-3.349497e-01 2.040269e+00 -8.908541e+00 7.476632e+00 -6.080762e-06 1.263085e-02 -1.385128e-01 1.276349e-01
-3.357526e-01 2.041432e+00 -8.910326e+00 7.480360e+00 2.500026e-06 1.262619e-02 -1.387073e-01 1.277121e-01
-3.361968e-01 2.042716e+00 -8.918522e+00 7.481946e+00 1.375798e-05 1.263720e-02 -1.388118e-01 1.278354e-01
-3.360771e-01 2.044158e+00 -8.920493e+00 7.485272e+00 2.240141e-05 1.264153e-02 -1.388560e-01 1.280347e-01
-3.364319e-01 2.045920e+00 -8.933598e+00 7.502480e+00 1.797452e-05 1.264973e-02 -1.390331e-01 1.283397e-01
-3.380400e-01 2.048139e+00 -8.949201e+00 7.511298e+00 2.912754e-06 1.265692e-02 -1.393218e-01 1.284008e-01
-3.390948e-01 2.050507e+00 -8.958305e+00 7.527236e+00 -1.453084e-05 1.267551e-02 -1.394850e-01 1.287800e-01
-3.390636e-01 2.052034e+00 -8.972644e+00 7.531812e+00 -1.230618e-05 1.267541e-02 -1.398494e-01 1.290608e-01
-3.388859e-01 2.053094e+00 -8.971579e+00 7.531500e+00 -2.172027e-06 1.268884e-02 -1.398527e-01 1.291667e-01
-3.389577e-01 2.053802e+00 -8.966164e+00 7.538817e+00 1.316675e-05 1.271380e-02 -1.399021e-01 1.292801e-01
-3.395965e-01 2.055249e+00 -8.971405e+00 7.541732e+00 2.107424e-05 1.271429e-02 -1.399091e-01 1.293950e-01
-3.401261e-01 2.056422e+00 -8.973913e+00 7.541589e+00 3.103356e-05 1.271027e-02 -1.401305e-01 1.296707e-01
-3.412227e-01 2.058301e+00 -8.986782e+00 7.545655e+00 2.313939e-05 1.271773e-02 -1.403716e-01 1.297806e-01
-3.426171e-01 2.061064e+00 -9.013699e+00 7.562912e+00 3.054907e-06 1.272640e-02 -1.405858e-01 1.302336e-01
-3.436256e-01 2.063769e+00 -9.023268e+00 7.567184e+00 -1.958395e-05 1.273240e-02 -1.409202e-01 1.303865e-01
-3.434744e-01 2.064634e+00 -9.019994e+00 7.572942e+00 -2.546637e-07 1.274629e-02 -1.409062e-01 1.305701e-01
-3.431680e-01 2.064965e+00 -9.017795e+00 7.574042e+00 2.710515e-05 1.276054e-02 -1.407914e-01 1.305078e-01
-3.439851e-01 2.066696e+00 -9.027621e+00 7.578986e+00 2.048857e-05 1.275731e-02 -1.411328e-01 1.307544e-01
-3.452639e-01 2.068991e+00 -9.040364e+00 7.587729e+00 3.306771e-06 1.277003e-02 -1.413977e-01 1.312347e-01
-3.456950e-01 2.070374e+00 -9.044424e+00 7.591303e+00 8.300896e-06 1.280438e-02 -1.414671e-01 1.313036e-01
-3.460859e-01 2.071741e+00 -9.045635e+00 7.598383e+00 1.643939e-05 1.278563e-02 -1.415926e-01 1.314442e-01
-3.464575e-01 2.073500e+00 -9.048382e+00 7.605428e+00 1.765732e-05 1.279081e-02 -1.416492e-01 1.315625e-01
-3.469803e-01 2.075342e+00 -9.053660e+00 7.615210e+00 1.275212e-05 1.279431e-02 -1.419107e-01 1.318576e-01
-3.476787e-01 2.077227e+00 -9.070514e+00 7.621927e+00 -2.469525e-07 1.279847e-02 -1.420536e-01 1.319871e-01
-3.484458e-01 2.079273e+00 -9.075348e+00 7.634548e+00 -5.953877e-06 1.281393e-02 -1.423349e-01 1.322763e-01
-3.490789e-01 2.081361e+00 -9.085955e+00 7.638447e+00 -8.717101e-06 1.281974e-02 -1.424742e-01 1.325728e-01
-3.496043e-01 2.082563e+00 -9.086667e+00 7.641361e+00 -5.426098e-06 1.282146e-02 -1.427621e-01 1.327358e-01
-3.498579e-01 2.083678e+00 -9.082670e+00 7.644787e+00 5.233008e-06 1.283794e-02 -1.428067e-01 1.329771e-01
-3.492577e-01 2.083894e+00 -9.083661e+00 7.646529e+00 3.219005e-05 1.286398e-02 -1.428088e-01 1.329302e-01
-3.491438e-01 2.085749e+00 -9.083821e+00 7.666933e+00 3.407996e-05 1.285612e-02 -1.428025e-01 1.332022e-01
-3.498009e-01 2.088536e+00 -9.108201e+00 7.669224e+00 1.613397e-05 1.286328e-02 -1.432390e-01 1.335740e-01
-3.514970e-01 2.090971e+00 -9.128161e+00 7.685857e+00 -1.876726e-06 1.286637e-02 -1.435800e-01 1.336963e-01
-3.528136e-01 2.092729e+00 -9.134300e+00 7.687247e+00 -5.066528e-06 1.287770e-02 -1.436705e-01 1.339478e-01
-3.538451e-01 2.094210e+00 -9.135434e+00 7.689573e+00 -9.089543e-06 1.288251e-02 -1.438522e-01 1.340487e-01
-3.546006e-01 2.095647e+00 -9.145311e+00 7.690681e+00 -8.040736e-06 1.288835e-02 -1.439592e-01 1.343425e-01
-3.548401e-01 2.096819e+00 -9.148684e+00 7.700080e+00 2.105699e-06 1.289922e-02 -1.439434e-01 1.344330e-01
-3.554822e-01 2.098680e+00 -9.153991e+00 7.703318e+00 -3.886646e-06 1.290541e-02 -1.443308e-01 1.346082e-01
-3.557010e-01 2.099694e+00 -9.146954e+00 7.705431e+00 1.272459e-05 1.291601e-02 -1.442508e-01 1.349583e-01
-3.556891e-01 2.101238e+00 -9.150405e+00 7.705705e+00 1.604744e-05 1.292445e-02 -1.444716e-01 1.350559e-01
-3.560677e-01 2.102979e+00 -9.160125e+00 7.715255e+00 9.066135e-06 1.292504e-02 -1.446436e-01 1.353620e-01
-3.563554e-01 2.104385e+00 -9.167196e+00 7.726726e+00 1.695222e-05 1.294327e-02 -1.446314e-01 1.354051e-01
-3.568461e-01 2.105954e+00 -9.175468e+00 7.726125e+00 1.364958e-05 1.294622e-02 -1.446352e-01 1.356432e-01
-3.578071e-01 2.108225e+00 -9.185792e+00 7.741202e+00 2.705711e-06 1.295584e-02 -1.451210e-01 1.359448e-01
-3.585051e-01 2.109808e+00 -9.198407e+00 7.746658e+00 2.753075e-06 1.296484e-02 -1.452460e-01 1.361149e-01
-3.589917e-01 2.111655e+00 -9.204638e+00 7.757206e+00 -1.249882e-07 1.297177e-02 -1.454991e-01 1.362806e-01
-3.595605e-01 2.112878e+00 -9.212085e+00 7.760377e+00 2.478714e-06 1.298151e-02 -1.456865e-01 1.364447e-01
-3.598689e-01 2.114363e+00 -9.219275e+00 7.767840e+00 6.259661e-06 1.299224e-02 -1.459232e-01 1.366539e-01
-3.597842e-01 2.115701e+00 -9.223329e+00 7.770971e+00 2.198054e-05 1.300982e-02 -1.459412e-01 1.369401e-01
-3.607491e-01 2.117373e+00 -9.225801e+00 7.778637e+00 1.917585e-05 1.301929e-02 -1.459516e-01 1.371770e-01
-3.620705e-01 2.119351e+00 -9.245037e+00 7.784134e+00 6.984677e-06 1.301665e-02 -1.462436e-01 1.373149e-01
-3.624936e-01 2.121171e+00 -9.259041e+00 7.786877e+00 1.340653e-06 1.302946e-02 -1.464880e-01 1.375188e-01
-3.627524e-01 2.123018e+00 -9.261097e+00 7.805623e+00 -1.509963e-06 1.303165e-02 -1.465666e-01 1.376718e-01
-3.627741e-01 2.124345e+00 -9.267781e+00 7.806522e+00 7.613099e-06 1.305478e-02 -1.466774e-01 1.379760e-01
-3.633898e-01 2.126336e+00 -9.280270e+00 7.816688e+00 -2.423437e-06 1.306428e-02 -1.472187e-01 1.380234e-01
-3.638389e-01 2.127345e+00 -9.287481e+00 7.819326e+00 6.908423e-06 1.306648e-02 -1.472074e-01 1.383240e-01
-3.638038e-01 2.127972e+00 -9.293343e+00 7.818783e+00 3.149863e-05 1.307919e-02 -1.469065e-01 1.384308e-01
-3.642139e-01 2.129825e+00 -9.315045e+00 7.820492e+00 2.608625e-05 1.307615e-02 -1.471674e-01 1.385962e-01
-3.654347e-01 2.132112e+00 -9.335657e+00 7.835662e+00 5.501888e-06 1.309800e-02 -1.474538e-01 1.388756e-01
-3.663893e-01 2.134276e+00 -9.344117e+00 7.848118e+00 -2.980820e-06 1.310163e-02 -1.476928e-01 1.391289e-01
-3.671517e-01 2.135596e+00 -9.350349e+00 7.843911e+00 9.112836e-06 1.311537e-02 -1.476265e-01 1.392705e-01
-3.684476e-01 2.137381e+00 -9.382626e+00 7.846168e+00 5.312483e-07 1.312480e-02 -1.478408e-01 1.394871e-01
-3.688085e-01 2.139031e+00 -9.388913e+00 7.858912e+00 -2.304150e-06 1.311782e-02 -1.481744e-01 1.397234e-01
-3.685849e-01 2.140262e+00 -9.395783e+00 7.860055e+00 1.467072e-05 1.313573e-02 -1.481630e-01 1.400197e-01
-3.689277e-01 2.141278e+00 -9.411474e+00 7.860832e+00 3.250804e-05 1.314359e-02 -1.481079e-01 1.401103e-01
-3.696917e-01 2.143670e+00 -9.427436e+00 7.872317e+00 1.570253e-05 1.316106e-02 -1.484257e-01 1.401838e-01
-3.706269e-01 2.145978e+00 -9.444778e+00 7.880623e+00 -5.810388e-07 1.315754e-02 -1.488688e-01 1.407219e-01
-3.714992e-01 2.147600e+00 -9.462834e+00 7.884322e+00 3.111972e-06 1.315448e-02 -1.490336e-01 1.408981e-01
-3.720177e-01 2.149401e+00 -9.471334e+00 7.886246e+00 6.704121e-06 1.316636e-02 -1.490694e-01 1.410842e-01
-3.723790e-01 2.151211e+00 -9.481064e+00 7.891544e+00 -2.216957e-06 1.319509e-02 -1.491387e-01 1.411513e-01
-3.727448e-01 2.153105e+00 -9.509083e+00 7.906822e+00 -2.001686e-05 1.318625e-02 -1.498087e-01 1.414852e-01
-3.728650e-01 2.154017e+00 -9.520662e+00 7.909597e+00 -8.074286e-06 1.318989e-02 -1.497565e-01 1.415393e-01
-3.725536e-01 2.154770e+00 -9.524383e+00 7.918758e+00 8.626933e-06 1.320252e-02 -1.495331e-01 1.417833e-01
-3.726370e-01 2.156254e+00 -9.541613e+00 7.924382e+00 1.417067e-05 1.321979e-02 -1.496520e-01 1.419192e-01
-3.731553e-01 2.157898e+00 -9.554832e+00 7.922988e+00 1.918821e-05 1.322433e-02 -1.497782e-01 1.421428e-01
-3.741645e-01 2.159484e+00 -9.561709e+00 7.931391e+00 2.246508e-05 1.322057e-02 -1.497854e-01 1.423111e-01
-3.750743e-01 2.160840e+00 -9.579752e+00 7.934493e+00 2.333018e-05 1.323601e-02 -1.498250e-01 1.425903e-01
-3.759614e-01 2.162964e+00 -9.603027e+00 7.935820e+00 1.098720e-05 1.323706e-02 -1.503309e-01 1.427898e-01
-3.765309e-01 2.165013e+00 -9.610121e+00 7.946696e+00 2.303523e-06 1.325422e-02 -1.504107e-01 1.430375e-01
-3.772584e-01 2.166874e+00 -9.634312e+00 7.957722e+00 -6.899981e-06 1.327045e-02 -1.509493e-01 1.431088e-01
-3.774369e-01 2.167431e+00 -9.636191e+00 7.955898e+00 1.470572e-05 1.328215e-02 -1.506922e-01 1.433279e-01
-3.782578e-01 2.169190e+00 -9.657585e+00 7.962948e+00 8.457298e-06 1.328148e-02 -1.510838e-01 1.436742e-01
-3.786352e-01 2.170962e+00 -9.668595e+00 7.964146e+00 9.448967e-06 1.328393e-02 -1.512310e-01 1.437708e-01
-3.791893e-01 2.172995e+00 -9.679152e+00 7.983137e+00 -1.336276e-06 1.329707e-02 -1.515335e-01 1.440462e-01
-3.798494e-01 2.174660e+00 -9.693696e+00 7.984443e+00 -2.200015e-06 1.329969e-02 -1.515638e-01 1.443028e-01
-3.802937e-01 2.176006e+00 -9.701626e+00 7.985514e+00 6.162025e-06 1.330881e-02 -1.516099e-01 1.444779e-01
-3.810294e-01 2.177430e+00 -9.715583e+00 7.985381e+00 1.533845e-05 1.331472e-02 -1.516839e-01 1.447348e-01
-3.815442e-01 2.178955e+00 -9.736524e+00 7.991034e+00 1.709285e-05 1.332338e-02 -1.518786e-01 1.448031e-01
-3.823943e-01 2.181655e+00 -9.739893e+00 8.005352e+00 -1.379823e-06 1.336353e-02 -1.525774e-01 1.451278e-01
-3.827382e-01 2.183222e+00 -9.764582e+00 8.010506e+00 -5.177197e-06 1.335783e-02 -1.524062e-01 1.453148e-01
-3.822217e-01 2.183318e+00 -9.769433e+00 8.010922e+00 1.859663e-05 1.337021e-02 -1.523545e-01 1.454110e-01
-3.827203e-01 2.184791e+00 -9.791512e+00 8.020142e+00 2.409526e-05 1.336610e-02 -1.522528e-01 1.456257e-01
-3.841401e-01 2.187397e+00 -9.796557e+00 8.020888e+00 8.766134e-06 1.338419e-02 -1.530231e-01 1.456865e-01
-3.847893e-01 2.189423e+00 -9.817866e+00 8.029565e+00 -8.770418e-06 1.337840e-02 -1.532624e-01 1.460979e-01
-3.846665e-01 2.190265e+00 -9.825573e+00 8.035929e+00 7.555889e-07 1.338633e-02 -1.531708e-01 1.463673e-01
-3.848182e-01 2.190978e+00 -9.838220e+00 8.035162e+00 1.855041e-05 1.339389e-02 -1.530613e-01 1.464940e-01
-3.850460e-01 2.191843e+00 -9.844796e+00 8.037197e+00 2.642008e-05 1.340671e-02 -1.529190e-01 1.466794e-01
-3.864859e-01 2.194339e+00 -9.859589e+00 8.045269e+00 1.156007e-05 1.341782e-02 -1.536125e-01 1.467848e-01
-3.876362e-01 2.196657e+00 -9.875586e+00 8.051912e+00 1.095344e-06 1.341931e-02 -1.536866e-01 1.470902e-01
-3.877432e-01 2.198562e+00 -9.894306e+00 8.063256e+00 5.154244e-06 1.342963e-02 -1.538210e-01 1.472250e-01
-3.880222e-01 2.199960e+00 -9.905360e+00 8.064845e+00 5.680372e-06 1.343133e-02 -1.540267e-01 1.475391e-01
-3.885928e-01 2.201299e+00 -9.923514e+00 8.066935e+00 7.787538e-06 1.344211e-02 -1.543269e-01 1.477793e-01
-3.888877e-01 2.202806e+00 -9.927859e+00 8.074699e+00 5.766906e-06 1.345264e-02 -1.543791e-01 1.479052e-01
-3.895756e-01 2.204716e+00 -9.938656e+00 8.082233e+00 3.615723e-06 1.346369e-02 -1.544449e-01 1.480518e-01
-3.900849e-01 2.206073e+00 -9.963575e+00 8.083610e+00 1.494456e-06 1.347465e-02 -1.546918e-01 1.484451e-01
-3.902584e-01 2.206549e+00 -9.965666e+00 8.085581e+00 2.535158e-05 1.350083e-02 -1.547837e-01 1.484267e-01
-3.911658e-01 2.208463e+00 -9.978450e+00 8.095693e+00 1.312600e-05 1.350054e-02 -1.542980e-01 1.487388e-01
-3.926193e-01 2.210844e+00 -9.991953e+00 8.098052e+00 -1.849260e-06 1.349570e-02 -1.551680e-01 1.491488e-01
-3.927880e-01 2.212196e+00 -1.000561e+01 8.101016e+00 1.765780e-06 1.349975e-02 -1.553409e-01 1.494072e-01
-3.933811e-01 2.213629e+00 -1.001708e+01 8.105799e+00 3.657089e-06 1.350802e-02 -1.553062e-01 1.495618e-01
-3.942257e-01 2.214568e+00 -1.003598e+01 8.104272e+00 2.373519e-05 1.352233e-02 -1.552903e-01 1.494741e-01
-3.945985e-01 2.216480e+00 -1.004542e+01 8.108642e+00 2.061170e-05 1.351536e-02 -1.555284e-01 1.495451e-01
-3.950610e-01 2.218946e+00 -1.005895e+01 8.124923e+00 2.759644e-06 1.352898e-02 -1.556464e-01 1.503861e-01
-3.951438e-01 2.220447e+00 -1.006844e+01 8.135449e+00 -5.098558e-06 1.354891e-02 -1.561216e-01 1.512651e-01
-3.953815e-01 2.221987e+00 -1.007528e+01 8.142199e+00 -1.047395e-05 1.356228e-02 -1.561743e-01 1.517320e-01
-3.956691e-01 2.223268e+00 -1.009086e+01 8.143872e+00 -2.209860e-07 1.356150e-02 -1.563151e-01 1.516737e-01
-3.956098e-01 2.223880e+00 -1.009840e+01 8.144553e+00 1.460758e-05 1.358464e-02 -1.561946e-01 1.518301e-01
-3.956879e-01 2.224759e+00 -1.010422e+01 8.144513e+00 3.172906e-05 1.358442e-02 -1.560955e-01 1.518392e-01
-3.964592e-01 2.226534e+00 -1.012113e+01 8.153334e+00 3.241018e-05 1.358441e-02 -1.561820e-01 1.520024e-01
-3.978879e-01 2.229560e+00 -1.013435e+01 8.159860e+00 8.404174e-06 1.358938e-02 -1.570297e-01 1.527091e-01
-3.989138e-01 2.232107e+00 -1.016202e+01 8.164028e+00 -6.925361e-06 1.360343e-02 -1.574175e-01 1.534155e-01
-3.994944e-01 2.233167e+00 -1.016582e+01 8.165693e+00 8.949280e-07 1.361943e-02 -1.575487e-01 1.534815e-01
-3.996295e-01 2.234425e+00 -1.017002e+01 8.167361e+00 5.692954e-06 1.361075e-02 -1.574026e-01 1.536450e-01
-4.002996e-01 2.236095e+00 -1.018441e+01 8.173614e+00 3.336409e-06 1.362375e-02 -1.574487e-01 1.541277e-01
-4.005623e-01 2.237919e+00 -1.020282e+01 8.186716e+00 -2.224715e-06 1.363299e-02 -1.580111e-01 1.542797e-01
-4.003909e-01 2.238777e+00 -1.020479e+01 8.188817e+00 7.382717e-06 1.365103e-02 -1.575011e-01 1.546445e-01
-4.008758e-01 2.240095e+00 -1.021025e+01 8.188142e+00 1.902570e-05 1.365294e-02 -1.574207e-01 1.547046e-01
-4.022119e-01 2.242256e+00 -1.021837e+01 8.198576e+00 1.048691e-05 1.366034e-02 -1.577813e-01 1.549481e-01
-4.032280e-01 2.244254e+00 -1.024174e+01 8.202347e+00 -1.338959e-05 1.367124e-02 -1.589416e-01 1.554040e-01
-4.036934e-01 2.245601e+00 -1.025539e+01 8.203990e+00 -1.278696e-05 1.367157e-02 -1.587713e-01 1.558701e-01
-4.041187e-01 2.245896e+00 -1.026246e+01 8.201394e+00 1.064618e-05 1.367659e-02 -1.582524e-01 1.558851e-01
-4.041099e-01 2.246361e+00 -1.026494e+01 8.202910e+00 3.665025e-05 1.368968e-02 -1.578041e-01 1.557833e-01
-4.038911e-01 2.248421e+00 -1.027891e+01 8.205622e+00 2.157589e-05 1.370219e-02 -1.586622e-01 1.568057e-01
-4.047281e-01 2.251136e+00 -1.029037e+01 8.224681e+00 -4.486395e-06 1.371522e-02 -1.590711e-01 1.572250e-01
-4.049104e-01 2.252161e+00 -1.030074e+01 8.226315e+00 1.094977e-05 1.374849e-02 -1.589222e-01 1.572475e-01
-4.053816e-01 2.254031e+00 -1.031265e+01 8.227862e+00 8.550549e-06 1.373570e-02 -1.595039e-01 1.575646e-01
-4.062709e-01 2.256117e+00 -1.032712e+01 8.239008e+00 -4.662648e-06 1.373503e-02 -1.598476e-01 1.578029e-01
-4.066575e-01 2.257280e+00 -1.033276e+01 8.242014e+00 5.150496e-06 1.373534e-02 -1.596758e-01 1.580043e-01
-4.065915e-01 2.258245e+00 -1.033967e+01 8.243546e+00 2.032866e-05 1.374180e-02 -1.595334e-01 1.580552e-01
-4.072386e-01 2.259315e+00 -1.035286e+01 8.240922e+00 3.421347e-05 1.375657e-02 -1.593449e-01 1.583088e-01
-4.087275e-01 2.262243e+00 -1.037117e+01 8.250948e+00 8.882328e-06 1.375689e-02 -1.604546e-01 1.585491e-01
-4.098099e-01 2.264664e+00 -1.037748e+01 8.257789e+00 -1.948317e-05 1.377641e-02 -1.610084e-01 1.593003e-01
-4.102394e-01 2.265853e+00 -1.039482e+01 8.261179e+00 -1.303754e-05 1.377879e-02 -1.609655e-01 1.594212e-01
-4.104326e-01 2.265984e+00 -1.039466e+01 8.260346e+00 1.188486e-05 1.378874e-02 -1.605103e-01 1.595094e-01
-4.102897e-01 2.267017e+00 -1.039715e+01 8.267714e+00 1.990097e-05 1.380160e-02 -1.603969e-01 1.596926e-01
-4.104805e-01 2.268193e+00 -1.041209e+01 8.271052e+00 2.409764e-05 1.380364e-02 -1.604277e-01 1.599749e-01
-4.110767e-01 2.269746e+00 -1.041517e+01 8.274738e+00 2.827092e-05 1.381696e-02 -1.603607e-01 1.602338e-01
-4.122356e-01 2.272305e+00 -1.043378e+01 8.283273e+00 1.815393e-05 1.382212e-02 -1.607895e-01 1.605521e-01
-4.132732e-01 2.274037e+00 -1.044856e+01 8.281853e+00 5.825692e-06 1.383673e-02 -1.612727e-01 1.608287e-01
-4.136790e-01 2.275797e+00 -1.046710e+01 8.287936e+00 1.825658e-06 1.384144e-02 -1.614242e-01 1.611142e-01
-4.142540e-01 2.277881e+00 -1.047673e+01 8.294886e+00 -1.914329e-05 1.385167e-02 -1.622851e-01 1.613411e-01
-4.144104e-01 2.278914e+00 -1.047731e+01 8.293469e+00 -2.170031e-06 1.385281e-02 -1.619833e-01 1.613863e-01
-4.146927e-01 2.279815e+00 -1.048839e+01 8.296901e+00 4.032333e-06 1.385329e-02 -1.619886e-01 1.615669e-01
-4.145296e-01 2.280902e+00 -1.049136e+01 8.299507e+00 1.295771e-05 1.387763e-02 -1.619617e-01 1.618348e-01
-4.147462e-01 2.281905e+00 -1.049345e+01 8.303017e+00 2.071335e-05 1.387831e-02 -1.623567e-01 1.624421e-01
-4.156318e-01 2.283642e+00 -1.050817e+01 8.307304e+00 1.323571e-05 1.388335e-02 -1.623486e-01 1.625699e-01
-4.166116e-01 2.285411e+00 -1.052033e+01 8.313845e+00 8.413857e-06 1.388886e-02 -1.625342e-01 1.626816e-01
-4.172963e-01 2.287392e+00 -1.052522e+01 8.317758e+00 1.819248e-06 1.390412e-02 -1.627083e-01 1.628853e-01
-4.176773e-01 2.288820e+00 -1.053680e+01 8.321437e+00 6.632855e-06 1.390020e-02 -1.627269e-01 1.630824e-01
-4.180966e-01 2.290364e+00 -1.053991e+01 8.322858e+00 5.454107e-06 1.391938e-02 -1.627991e-01 1.632057e-01
-4.185907e-01 2.292154e+00 -1.055047e+01 8.333669e+00 1.586576e-06 1.392147e-02 -1.632511e-01 1.635108e-01
-4.184091e-01 2.293389e+00 -1.056080e+01 8.334877e+00 1.760227e-05 1.395091e-02 -1.635712e-01 1.639311e-01
-4.188501e-01 2.294229e+00 -1.056723e+01 8.339361e+00 2.860446e-05 1.394008e-02 -1.640970e-01 1.641191e-01
-4.200392e-01 2.295882e+00 -1.058284e+01 8.340691e+00 2.288161e-05 1.393847e-02 -1.643486e-01 1.642617e-01
-4.211865e-01 2.297974e+00 -1.059238e+01 8.345305e+00 3.341945e-06 1.395936e-02 -1.640858e-01 1.644924e-01
-4.218188e-01 2.299628e+00 -1.060004e+01 8.346997e+00 2.571918e-06 1.396834e-02 -1.640792e-01 1.645638e-01
-4.222334e-01 2.300860e+00 -1.060996e+01 8.350446e+00 4.150698e-06 1.396710e-02 -1.642057e-01 1.648034e-01
-4.227531e-01 2.303141e+00 -1.062083e+01 8.358550e+00 -1.476868e-05 1.398740e-02 -1.646495e-01 1.648403e-01
