6.950342e+01 3.697917e-01 -4.012868e-02 6.066720e-01 -9.985352e-01 9.951172e-01
5.692212e+01 3.697917e-01 -5.571660e-02 5.967058e-01 -1.057129e+00 9.572754e-01
5.447998e+01 3.697917e-01 -6.077865e-02 5.942706e-01 -1.067871e+00 9.724121e-01
5.436182e+01 3.697917e-01 -6.139828e-02 5.944866e-01 -1.066162e+00 9.902344e-01
5.381445e+01 3.697917e-01 -6.139673e-02 5.953161e-01 -1.062256e+00 1.007324e+00
5.351416e+01 3.697917e-01 -6.107688e-02 5.962032e-01 -1.057617e+00 1.022217e+00
5.291650e+01 3.697917e-01 -6.133338e-02 5.971234e-01 -1.053223e+00 1.037354e+00
5.329126e+01 3.697917e-01 -6.042790e-02 5.988170e-01 -1.045410e+00 1.052979e+00
5.443604e+01 3.697917e-01 -6.073848e-02 6.000411e-01 -1.037354e+00 1.070068e+00
5.385571e+01 3.697917e-01 -6.010804e-02 6.015921e-01 -1.031006e+00 1.085205e+00
5.424170e+01 3.697917e-01 -6.071376e-02 6.026798e-01 -1.027344e+00 1.100586e+00
5.354053e+01 3.697917e-01 -6.089454e-02 6.038088e-01 -1.015869e+00 1.117432e+00
5.413135e+01 3.697917e-01 -6.163006e-02 6.046416e-01 -1.012451e+00 1.132324e+00
5.474512e+01 3.697917e-01 -6.223732e-02 6.055599e-01 -1.005859e+00 1.149170e+00
5.454785e+01 3.697917e-01 -6.319379e-02 6.066757e-01 -1.007568e+00 1.160889e+00
5.361182e+01 3.750000e-01 -6.371298e-02 6.079111e-01 -9.963379e-01 1.175781e+00
5.362891e+01 3.541667e-01 -6.425070e-02 6.092256e-01 -9.975586e-01 1.187988e+00
5.422290e+01 3.645833e-01 -6.481161e-02 6.106511e-01 -1.001953e+00 1.201660e+00
5.310718e+01 3.697917e-01 -6.545750e-02 6.118809e-01 -1.004150e+00 1.209473e+00
5.334131e+01 3.541667e-01 -6.614202e-02 6.129488e-01 -1.008789e+00 1.220703e+00
5.338428e+01 3.593750e-01 -6.683118e-02 6.139481e-01 -1.011230e+00 1.228027e+00
5.225977e+01 3.489583e-01 -6.727774e-02 6.153232e-01 -1.015381e+00 1.237305e+00
5.258862e+01 3.593750e-01 -6.772739e-02 6.169293e-01 -1.019043e+00 1.245605e+00
5.250293e+01 3.645833e-01 -6.840419e-02 6.182143e-01 -1.024658e+00 1.253174e+00
5.231763e+01 3.697917e-01 -6.893264e-02 6.199992e-01 -1.034912e+00 1.260742e+00
5.208374e+01 3.645833e-01 -6.914433e-02 6.215810e-01 -1.040039e+00 1.269043e+00
5.216895e+01 3.645833e-01 -6.916288e-02 6.233976e-01 -1.049072e+00 1.276123e+00
5.228882e+01 3.593750e-01 -6.989221e-02 6.248289e-01 -1.055420e+00 1.284180e+00
5.290820e+01 3.697917e-01 -7.044230e-02 6.267467e-01 -1.065430e+00 1.291016e+00
5.228003e+01 3.697917e-01 -7.091513e-02 6.281197e-01 -1.070557e+00 1.299072e+00
5.176099e+01 3.593750e-01 -7.107274e-02 6.301971e-01 -1.075195e+00 1.307617e+00
5.165430e+01 3.645833e-01 -7.162282e-02 6.318801e-01 -1.084473e+00 1.314697e+00
5.173730e+01 3.645833e-01 -7.183143e-02 6.335081e-01 -1.091309e+00 1.322754e+00
5.253589e+01 3.645833e-01 -7.243251e-02 6.351575e-01 -1.096924e+00 1.330566e+00
5.214575e+01 3.645833e-01 -7.289297e-02 6.371893e-01 -1.104004e+00 1.337646e+00
5.152026e+01 3.697917e-01 -7.320201e-02 6.390116e-01 -1.115479e+00 1.343262e+00
5.146411e+01 3.697917e-01 -7.395607e-02 6.409212e-01 -1.120117e+00 1.350586e+00
5.212427e+01 3.697917e-01 -7.434082e-02 6.426581e-01 -1.131348e+00 1.359863e+00
5.179907e+01 3.645833e-01 -7.494808e-02 6.446306e-01 -1.132568e+00 1.365967e+00
5.180396e+01 3.645833e-01 -7.501452e-02 6.467860e-01 -1.140381e+00 1.373535e+00
5.152905e+01 3.645833e-01 -7.537146e-02 6.490179e-01 -1.149170e+00 1.380371e+00
5.156860e+01 3.645833e-01 -7.569132e-02 6.512189e-01 -1.159180e+00 1.387207e+00
5.153931e+01 3.645833e-01 -7.607916e-02 6.535005e-01 -1.166016e+00 1.395508e+00
5.159180e+01 3.645833e-01 -7.719479e-02 6.558059e-01 -1.178955e+00 1.402588e+00
5.176831e+01 3.645833e-01 -7.795348e-02 6.579926e-01 -1.184326e+00 1.409424e+00
5.205688e+01 3.697917e-01 -7.830424e-02 6.601215e-01 -1.190430e+00 1.418945e+00
5.153271e+01 3.645833e-01 -7.899031e-02 6.623958e-01 -1.193604e+00 1.425293e+00
5.198047e+01 3.697917e-01 -7.927462e-02 6.645647e-01 -1.201172e+00 1.432129e+00
5.111987e+01 3.645833e-01 -8.046906e-02 6.667191e-01 -1.209229e+00 1.437744e+00
5.157593e+01 3.697917e-01 -8.077964e-02 6.690493e-01 -1.216553e+00 1.444092e+00
5.146875e+01 3.697917e-01 -8.132046e-02 6.714419e-01 -1.224121e+00 1.450684e+00
5.140991e+01 3.854167e-01 -8.170367e-02 6.739382e-01 -1.235107e+00 1.457520e+00
5.129614e+01 3.802083e-01 -8.243918e-02 6.763463e-01 -1.239502e+00 1.463623e+00
5.090137e+01 3.645833e-01 -8.313915e-02 6.787210e-01 -1.248535e+00 1.468018e+00
5.086279e+01 3.593750e-01 -8.333076e-02 6.812533e-01 -1.253662e+00 1.475586e+00
5.084546e+01 3.645833e-01 -8.394884e-02 6.839004e-01 -1.265381e+00 1.480225e+00
5.079883e+01 3.541667e-01 -8.430114e-02 6.864358e-01 -1.269775e+00 1.488281e+00
5.038037e+01 3.541667e-01 -8.471525e-02 6.889435e-01 -1.280029e+00 1.493164e+00
4.968115e+01 3.489583e-01 -8.579380e-02 6.914513e-01 -1.286865e+00 1.499023e+00
5.004517e+01 3.385417e-01 -8.623109e-02 6.938944e-01 -1.294434e+00 1.504639e+00
4.985034e+01 3.541667e-01 -8.649531e-02 6.967395e-01 -1.301025e+00 1.510986e+00
4.997314e+01 3.489583e-01 -8.699441e-02 6.991909e-01 -1.309082e+00 1.516113e+00
4.945093e+01 3.750000e-01 -8.723855e-02 7.020253e-01 -1.319092e+00 1.521973e+00
5.009912e+01 3.593750e-01 -8.828465e-02 7.046211e-01 -1.326904e+00 1.525391e+00
5.017676e+01 3.541667e-01 -8.939719e-02 7.075052e-01 -1.338135e+00 1.533447e+00
4.965723e+01 3.593750e-01 -8.913296e-02 7.101478e-01 -1.342041e+00 1.535645e+00
4.859082e+01 3.697917e-01 -8.942500e-02 7.130298e-01 -1.349609e+00 1.540527e+00
4.938403e+01 3.593750e-01 -9.079250e-02 7.159507e-01 -1.357910e+00 1.544189e+00
4.961108e+01 3.489583e-01 -9.111081e-02 7.190674e-01 -1.368408e+00 1.549561e+00
4.945264e+01 3.697917e-01 -9.119270e-02 7.217161e-01 -1.375000e+00 1.553467e+00
4.929272e+01 3.593750e-01 -9.169798e-02 7.244400e-01 -1.384277e+00 1.557861e+00
4.825146e+01 3.697917e-01 -9.219244e-02 7.274057e-01 -1.390381e+00 1.563232e+00
4.892603e+01 3.645833e-01 -9.309638e-02 7.304623e-01 -1.401123e+00 1.566895e+00
4.887402e+01 3.645833e-01 -9.285533e-02 7.335397e-01 -1.411133e+00 1.570312e+00
4.867505e+01 3.541667e-01 -9.351204e-02 7.367955e-01 -1.420654e+00 1.575439e+00
4.825635e+01 3.437500e-01 -9.399878e-02 7.394188e-01 -1.428711e+00 1.578857e+00
4.824219e+01 3.489583e-01 -9.416566e-02 7.424727e-01 -1.438477e+00 1.583740e+00
4.784961e+01 3.437500e-01 -9.472193e-02 7.455204e-01 -1.446777e+00 1.586426e+00
4.817017e+01 3.750000e-01 -9.491508e-02 7.486441e-01 -1.458252e+00 1.591553e+00
4.803809e+01 3.593750e-01 -9.515458e-02 7.513520e-01 -1.459961e+00 1.594727e+00
4.813477e+01 3.802083e-01 -9.554552e-02 7.547371e-01 -1.469971e+00 1.596924e+00
4.738354e+01 3.385417e-01 -9.646182e-02 7.571995e-01 -1.481445e+00 1.602783e+00
4.754053e+01 3.437500e-01 -9.666115e-02 7.603691e-01 -1.485840e+00 1.605225e+00
4.758521e+01 3.697917e-01 -9.718033e-02 7.631817e-01 -1.495605e+00 1.606689e+00
4.772144e+01 3.593750e-01 -9.769333e-02 7.660753e-01 -1.505127e+00 1.609131e+00
4.692090e+01 3.229167e-01 -9.799001e-02 7.685334e-01 -1.510986e+00 1.614502e+00
4.654224e+01 3.385417e-01 -9.844121e-02 7.718575e-01 -1.517578e+00 1.616455e+00
4.699512e+01 3.541667e-01 -9.898203e-02 7.746457e-01 -1.527344e+00 1.618896e+00
4.679053e+01 3.072917e-01 -9.925707e-02 7.771429e-01 -1.532959e+00 1.623535e+00
4.670142e+01 3.020833e-01 -9.984115e-02 7.804922e-01 -1.541260e+00 1.626709e+00
4.697559e+01 3.489583e-01 -1.001255e-01 7.834057e-01 -1.552246e+00 1.627441e+00
4.631860e+01 3.072917e-01 -1.005427e-01 7.860398e-01 -1.561279e+00 1.632812e+00
4.635400e+01 3.020833e-01 -1.004932e-01 7.890273e-01 -1.564941e+00 1.634521e+00
4.640259e+01 3.072917e-01 -1.009583e-01 7.916644e-01 -1.572754e+00 1.636475e+00
4.690918e+01 3.437500e-01 -1.008393e-01 7.949936e-01 -1.585693e+00 1.638916e+00
4.664722e+01 3.385417e-01 -1.015316e-01 7.973485e-01 -1.593994e+00 1.642822e+00
4.708228e+01 3.489583e-01 -1.024680e-01 7.997754e-01 -1.601562e+00 1.642822e+00
4.664502e+01 3.125000e-01 -1.025993e-01 8.025861e-01 -1.604492e+00 1.644775e+00
4.703589e+01 3.281250e-01 -1.033611e-01 8.047018e-01 -1.612793e+00 1.647949e+00
4.696582e+01 3.281250e-01 -1.042882e-01 8.071991e-01 -1.616455e+00 1.648438e+00
4.684985e+01 3.333333e-01 -1.043964e-01 8.100416e-01 -1.623779e+00 1.650391e+00
4.728882e+01 3.489583e-01 -1.046343e-01 8.126640e-01 -1.636230e+00 1.651611e+00
4.679102e+01 3.437500e-01 -1.048615e-01 8.152945e-01 -1.641113e+00 1.652832e+00
4.686621e+01 3.385417e-01 -1.050948e-01 8.181886e-01 -1.647949e+00 1.655273e+00
4.673779e+01 3.385417e-01 -1.051242e-01 8.208454e-01 -1.656982e+00 1.657471e+00
4.727930e+01 3.437500e-01 -1.051752e-01 8.236945e-01 -1.663818e+00 1.658447e+00
4.647339e+01 3.333333e-01 -1.055136e-01 8.257562e-01 -1.671631e+00 1.661133e+00
4.702588e+01 3.489583e-01 -1.059570e-01 8.287415e-01 -1.676514e+00 1.661621e+00
4.631934e+01 3.385417e-01 -1.063727e-01 8.312148e-01 -1.685303e+00 1.661621e+00
4.687866e+01 3.333333e-01 -1.068332e-01 8.338857e-01 -1.694580e+00 1.664307e+00
4.641211e+01 3.385417e-01 -1.068841e-01 8.368051e-01 -1.702637e+00 1.662598e+00
4.597681e+01 3.229167e-01 -1.071175e-01 8.394468e-01 -1.710205e+00 1.665039e+00
4.654077e+01 3.333333e-01 -1.074852e-01 8.421037e-01 -1.718750e+00 1.666992e+00
4.695435e+01 3.541667e-01 -1.077216e-01 8.448752e-01 -1.728271e+00 1.666260e+00
4.577344e+01 3.385417e-01 -1.078962e-01 8.470319e-01 -1.735596e+00 1.669434e+00
4.690356e+01 3.593750e-01 -1.076181e-01 8.499760e-01 -1.745361e+00 1.667480e+00
4.575708e+01 3.333333e-01 -1.075100e-01 8.526191e-01 -1.748535e+00 1.666016e+00
4.586597e+01 3.281250e-01 -1.076289e-01 8.552516e-01 -1.755859e+00 1.668701e+00
4.588550e+01 3.281250e-01 -1.077263e-01 8.579374e-01 -1.765381e+00 1.669189e+00
4.566113e+01 3.281250e-01 -1.078144e-01 8.602296e-01 -1.772705e+00 1.669189e+00
4.575684e+01 3.385417e-01 -1.080029e-01 8.632746e-01 -1.782715e+00 1.668701e+00
4.607495e+01 3.281250e-01 -1.079364e-01 8.655093e-01 -1.786621e+00 1.667969e+00
4.548999e+01 3.333333e-01 -1.082795e-01 8.673548e-01 -1.789551e+00 1.671387e+00
4.555542e+01 3.333333e-01 -1.083057e-01 8.703803e-01 -1.795898e+00 1.671631e+00
4.610913e+01 3.281250e-01 -1.079998e-01 8.731463e-01 -1.803711e+00 1.669922e+00
4.567090e+01 3.385417e-01 -1.081682e-01 8.758236e-01 -1.811279e+00 1.678955e+00
4.506934e+01 3.072917e-01 -1.076660e-01 8.785744e-01 -1.820557e+00 1.694336e+00
4.578369e+01 3.281250e-01 -1.081914e-01 8.806297e-01 -1.819092e+00 1.688965e+00
4.642871e+01 3.229167e-01 -1.081095e-01 8.832453e-01 -1.829102e+00 1.699463e+00
4.603467e+01 3.229167e-01 -1.078066e-01 8.857788e-01 -1.832275e+00 1.704590e+00
4.573364e+01 3.177083e-01 -1.080817e-01 8.885943e-01 -1.840088e+00 1.710693e+00
4.533008e+01 3.229167e-01 -1.078514e-01 8.912504e-01 -1.846191e+00 1.712891e+00
4.521289e+01 3.177083e-01 -1.077201e-01 8.932297e-01 -1.852295e+00 1.721924e+00
4.535205e+01 2.968750e-01 -1.079766e-01 8.957885e-01 -1.859375e+00 1.733398e+00
4.529980e+01 3.020833e-01 -1.075069e-01 8.982699e-01 -1.861816e+00 1.739258e+00
4.565845e+01 3.020833e-01 -1.075331e-01 9.009295e-01 -1.870605e+00 1.741943e+00
4.558350e+01 3.020833e-01 -1.073183e-01 9.031404e-01 -1.875977e+00 1.750488e+00
4.648730e+01 3.177083e-01 -1.078653e-01 9.058636e-01 -1.884766e+00 1.755127e+00
4.645728e+01 3.125000e-01 -1.076166e-01 9.081832e-01 -1.889893e+00 1.765381e+00
4.606982e+01 3.177083e-01 -1.076274e-01 9.102164e-01 -1.892578e+00 1.776855e+00
4.570972e+01 3.072917e-01 -1.074281e-01 9.129843e-01 -1.897705e+00 1.777588e+00
4.615039e+01 3.125000e-01 -1.081481e-01 9.150800e-01 -1.905029e+00 1.778809e+00
4.543384e+01 2.916667e-01 -1.085777e-01 9.175564e-01 -1.912109e+00 1.792480e+00
4.563013e+01 2.916667e-01 -1.088203e-01 9.193631e-01 -1.915039e+00 1.788574e+00
4.628638e+01 3.020833e-01 -1.096578e-01 9.216739e-01 -1.923584e+00 1.803467e+00
4.630200e+01 2.864583e-01 -1.098370e-01 9.235276e-01 -1.927979e+00 1.802979e+00
4.534497e+01 2.916667e-01 -1.103037e-01 9.250533e-01 -1.929932e+00 1.803223e+00
4.559521e+01 2.864583e-01 -1.107719e-01 9.275571e-01 -1.935059e+00 1.808594e+00
4.577734e+01 2.916667e-01 -1.118458e-01 9.288949e-01 -1.940918e+00 1.823975e+00
4.566162e+01 2.968750e-01 -1.133245e-01 9.294782e-01 -1.939453e+00 1.813965e+00
4.534790e+01 2.916667e-01 -1.141558e-01 9.318267e-01 -1.943115e+00 1.819580e+00
4.479517e+01 2.916667e-01 -1.147801e-01 9.334879e-01 -1.949219e+00 1.826904e+00
4.497949e+01 2.864583e-01 -1.147600e-01 9.353204e-01 -1.954346e+00 1.834473e+00
4.438379e+01 2.916667e-01 -1.148975e-01 9.371032e-01 -1.955811e+00 1.840088e+00
4.417798e+01 2.916667e-01 -1.154368e-01 9.388903e-01 -1.958740e+00 1.841309e+00
4.510498e+01 2.812500e-01 -1.163145e-01 9.404969e-01 -1.967773e+00 1.853760e+00
4.530078e+01 2.864583e-01 -1.166869e-01 9.424031e-01 -1.970215e+00 1.852539e+00
4.404688e+01 2.812500e-01 -1.170948e-01 9.440618e-01 -1.971191e+00 1.851562e+00
4.525830e+01 2.812500e-01 -1.170222e-01 9.465815e-01 -1.978027e+00 1.857178e+00
4.340601e+01 2.760417e-01 -1.178318e-01 9.471771e-01 -1.981689e+00 1.862061e+00
4.350806e+01 2.760417e-01 -1.190386e-01 9.484909e-01 -1.982666e+00 1.861572e+00
4.505518e+01 2.760417e-01 -1.193384e-01 9.503702e-01 -1.989502e+00 1.869385e+00
4.496484e+01 2.656250e-01 -1.196629e-01 9.517040e-01 -1.994629e+00 1.876465e+00
4.447168e+01 2.656250e-01 -1.200523e-01 9.538050e-01 -1.998047e+00 1.882080e+00
4.461255e+01 2.552083e-01 -1.198468e-01 9.557476e-01 -2.004883e+00 1.890625e+00
4.345947e+01 2.656250e-01 -1.201589e-01 9.570833e-01 -2.008301e+00 1.894043e+00
4.361377e+01 2.708333e-01 -1.204278e-01 9.589892e-01 -2.009277e+00 1.894531e+00
4.324121e+01 2.708333e-01 -1.204942e-01 9.606448e-01 -2.014160e+00 1.899658e+00
4.344360e+01 2.708333e-01 -1.209485e-01 9.620918e-01 -2.017822e+00 1.905762e+00
4.456934e+01 2.708333e-01 -1.213904e-01 9.638228e-01 -2.024170e+00 1.910889e+00
4.453320e+01 2.708333e-01 -1.218076e-01 9.649214e-01 -2.028564e+00 1.915527e+00
4.456714e+01 2.656250e-01 -1.215604e-01 9.669456e-01 -2.038574e+00 1.930176e+00
4.362939e+01 2.604167e-01 -1.221661e-01 9.680802e-01 -2.036865e+00 1.926758e+00
4.346387e+01 2.760417e-01 -1.225895e-01 9.695059e-01 -2.045898e+00 1.938721e+00
4.289551e+01 2.760417e-01 -1.238504e-01 9.708734e-01 -2.041260e+00 1.935791e+00
4.293164e+01 2.708333e-01 -1.237252e-01 9.727187e-01 -2.049316e+00 1.942383e+00
4.396997e+01 2.604167e-01 -1.237793e-01 9.742065e-01 -2.053467e+00 1.945068e+00
4.300781e+01 2.708333e-01 -1.239508e-01 9.757819e-01 -2.056396e+00 1.949707e+00
4.398511e+01 2.656250e-01 -1.241440e-01 9.779737e-01 -2.065918e+00 1.957520e+00
4.303687e+01 2.760417e-01 -1.248548e-01 9.791433e-01 -2.063965e+00 1.953613e+00
4.316650e+01 2.760417e-01 -1.247481e-01 9.806467e-01 -2.072021e+00 1.958496e+00
4.247900e+01 2.708333e-01 -1.256150e-01 9.818244e-01 -2.077148e+00 1.966064e+00
4.241870e+01 2.708333e-01 -1.260059e-01 9.829000e-01 -2.072021e+00 1.966064e+00
4.254541e+01 2.708333e-01 -1.262748e-01 9.842986e-01 -2.077148e+00 1.970215e+00
4.240894e+01 2.656250e-01 -1.266410e-01 9.861996e-01 -2.085693e+00 1.975342e+00
4.148022e+01 2.656250e-01 -1.273997e-01 9.872090e-01 -2.087646e+00 1.986328e+00
4.427075e+01 2.708333e-01 -1.274260e-01 9.891042e-01 -2.092285e+00 1.987793e+00
4.433960e+01 2.760417e-01 -1.283299e-01 9.901825e-01 -2.095459e+00 1.987061e+00
4.235986e+01 2.656250e-01 -1.290268e-01 9.916106e-01 -2.096924e+00 1.985596e+00
4.219238e+01 2.604167e-01 -1.290608e-01 9.931017e-01 -2.099365e+00 1.990479e+00
4.242358e+01 2.656250e-01 -1.283376e-01 9.950347e-01 -2.103516e+00 1.994873e+00
4.270459e+01 2.656250e-01 -1.285045e-01 9.962043e-01 -2.108398e+00 2.001221e+00
4.216431e+01 2.656250e-01 -1.279869e-01 9.978807e-01 -2.112549e+00 2.008301e+00
4.292920e+01 2.500000e-01 -1.276979e-01 9.993928e-01 -2.114990e+00 2.007568e+00
4.214697e+01 2.552083e-01 -1.281290e-01 1.000503e+00 -2.119873e+00 2.011230e+00
4.144580e+01 2.604167e-01 -1.282465e-01 1.002209e+00 -2.127686e+00 2.017090e+00
4.291675e+01 2.604167e-01 -1.284968e-01 1.003353e+00 -2.125732e+00 2.018066e+00
4.195605e+01 2.552083e-01 -1.288506e-01 1.004547e+00 -2.128418e+00 2.020752e+00
4.242651e+01 2.604167e-01 -1.290330e-01 1.005849e+00 -2.130615e+00 2.024414e+00
4.178345e+01 2.552083e-01 -1.292972e-01 1.006864e+00 -2.133545e+00 2.027100e+00
4.337476e+01 2.604167e-01 -1.291102e-01 1.008650e+00 -2.141602e+00 2.035156e+00
4.211401e+01 2.552083e-01 -1.298504e-01 1.009306e+00 -2.146729e+00 2.038818e+00
4.249561e+01 2.656250e-01 -1.308007e-01 1.010284e+00 -2.147461e+00 2.038574e+00
4.249731e+01 2.552083e-01 -1.302892e-01 1.012005e+00 -2.147705e+00 2.039795e+00
4.256396e+01 2.656250e-01 -1.313693e-01 1.012935e+00 -2.156006e+00 2.045410e+00
4.229834e+01 2.708333e-01 -1.317927e-01 1.013737e+00 -2.153076e+00 2.048340e+00
4.323462e+01 2.604167e-01 -1.321867e-01 1.015468e+00 -2.158203e+00 2.049805e+00
4.650317e+01 2.916667e-01 -1.333394e-01 1.016004e+00 -2.166748e+00 2.061279e+00
4.195190e+01 2.552083e-01 -1.339158e-01 1.016813e+00 -2.163818e+00 2.055176e+00
4.215991e+01 2.656250e-01 -1.349109e-01 1.017805e+00 -2.167725e+00 2.059326e+00
4.204028e+01 2.604167e-01 -1.346389e-01 1.019441e+00 -2.170166e+00 2.062500e+00
4.438037e+01 2.812500e-01 -1.351689e-01 1.020375e+00 -2.172119e+00 2.062988e+00
4.191553e+01 2.656250e-01 -1.354254e-01 1.021526e+00 -2.178223e+00 2.071777e+00
4.337891e+01 2.708333e-01 -1.353513e-01 1.023054e+00 -2.177002e+00 2.065186e+00
4.461133e+01 2.864583e-01 -1.357715e-01 1.024169e+00 -2.182373e+00 2.069580e+00
4.308765e+01 2.708333e-01 -1.361857e-01 1.025019e+00 -2.183594e+00 2.071777e+00
4.333496e+01 2.708333e-01 -1.364035e-01 1.026481e+00 -2.188477e+00 2.073730e+00
4.385303e+01 2.812500e-01 -1.365735e-01 1.027051e+00 -2.192871e+00 2.077881e+00
4.171875e+01 2.604167e-01 -1.366987e-01 1.028100e+00 -2.195557e+00 2.085205e+00
4.520654e+01 2.812500e-01 -1.368207e-01 1.029744e+00 -2.200684e+00 2.085449e+00
4.337305e+01 2.760417e-01 -1.371050e-01 1.030740e+00 -2.202148e+00 2.084229e+00
4.173560e+01 2.604167e-01 -1.371452e-01 1.031902e+00 -2.208252e+00 2.089844e+00
4.610596e+01 2.968750e-01 -1.378004e-01 1.032794e+00 -2.213623e+00 2.098877e+00
4.591870e+01 2.968750e-01 -1.378359e-01 1.034037e+00 -2.217773e+00 2.103027e+00
4.562671e+01 2.916667e-01 -1.388882e-01 1.034233e+00 -2.218506e+00 2.101074e+00
4.198267e+01 2.604167e-01 -1.392590e-01 1.035082e+00 -2.223633e+00 2.103271e+00
4.314819e+01 2.708333e-01 -1.396361e-01 1.036257e+00 -2.220215e+00 2.101807e+00
4.421924e+01 2.864583e-01 -1.400085e-01 1.037295e+00 -2.220947e+00 2.097900e+00
4.480762e+01 2.864583e-01 -1.397087e-01 1.038528e+00 -2.225098e+00 2.104248e+00
4.425171e+01 2.864583e-01 -1.402356e-01 1.038793e+00 -2.228516e+00 2.104736e+00
4.360278e+01 2.760417e-01 -1.399389e-01 1.040156e+00 -2.236328e+00 2.113037e+00
4.515503e+01 2.916667e-01 -1.400193e-01 1.041186e+00 -2.234131e+00 2.109863e+00
4.496045e+01 2.864583e-01 -1.409958e-01 1.041099e+00 -2.237061e+00 2.112061e+00
4.456592e+01 2.864583e-01 -1.407254e-01 1.042514e+00 -2.241211e+00 2.117676e+00
4.507275e+01 2.864583e-01 -1.408274e-01 1.043528e+00 -2.241699e+00 2.118164e+00
4.471973e+01 2.864583e-01 -1.411674e-01 1.044034e+00 -2.244385e+00 2.117676e+00
4.459473e+01 2.864583e-01 -1.423263e-01 1.044657e+00 -2.247803e+00 2.120361e+00
4.640576e+01 2.968750e-01 -1.430432e-01 1.045263e+00 -2.254150e+00 2.129395e+00
4.420825e+01 2.760417e-01 -1.442160e-01 1.045223e+00 -2.249756e+00 2.122559e+00
4.402710e+01 2.760417e-01 -1.446394e-01 1.045888e+00 -2.251221e+00 2.126953e+00
4.407910e+01 2.760417e-01 -1.457133e-01 1.046591e+00 -2.256348e+00 2.124756e+00
4.444653e+01 2.812500e-01 -1.463561e-01 1.047116e+00 -2.253418e+00 2.121826e+00
4.660547e+01 3.072917e-01 -1.462526e-01 1.047867e+00 -2.262451e+00 2.134766e+00
4.405566e+01 2.812500e-01 -1.474192e-01 1.047970e+00 -2.259766e+00 2.129395e+00
4.393848e+01 2.864583e-01 -1.479199e-01 1.048701e+00 -2.260010e+00 2.125977e+00
4.387939e+01 2.812500e-01 -1.475181e-01 1.049929e+00 -2.265381e+00 2.131836e+00
4.670557e+01 3.072917e-01 -1.475104e-01 1.051034e+00 -2.272705e+00 2.141357e+00
4.454468e+01 2.864583e-01 -1.483649e-01 1.051161e+00 -2.270752e+00 2.133057e+00
4.648706e+01 3.072917e-01 -1.491205e-01 1.051670e+00 -2.277344e+00 2.142334e+00
4.501855e+01 2.864583e-01 -1.503195e-01 1.052009e+00 -2.272949e+00 2.131348e+00
4.522241e+01 2.916667e-01 -1.501434e-01 1.053075e+00 -2.278809e+00 2.136719e+00
4.420288e+01 2.708333e-01 -1.509546e-01 1.053367e+00 -2.280029e+00 2.138428e+00
4.418457e+01 2.760417e-01 -1.507568e-01 1.054450e+00 -2.282715e+00 2.135986e+00
4.491650e+01 2.812500e-01 -1.511400e-01 1.055147e+00 -2.284424e+00 2.137207e+00
4.548364e+01 2.864583e-01 -1.504509e-01 1.056505e+00 -2.289795e+00 2.142090e+00
4.512427e+01 2.812500e-01 -1.506224e-01 1.057228e+00 -2.291260e+00 2.141113e+00
4.572656e+01 2.916667e-01 -1.502562e-01 1.058050e+00 -2.297119e+00 2.148438e+00
4.426929e+01 2.760417e-01 -1.507955e-01 1.058331e+00 -2.295898e+00 2.145264e+00
4.452466e+01 2.760417e-01 -1.508326e-01 1.059383e+00 -2.301270e+00 2.151123e+00
4.511621e+01 2.812500e-01 -1.516005e-01 1.059613e+00 -2.299072e+00 2.151367e+00
4.512231e+01 2.812500e-01 -1.510118e-01 1.060879e+00 -2.304199e+00 2.152344e+00
4.560669e+01 2.968750e-01 -1.518014e-01 1.061311e+00 -2.305908e+00 2.155762e+00
4.469604e+01 2.708333e-01 -1.526682e-01 1.061429e+00 -2.312500e+00 2.163330e+00
4.507349e+01 2.864583e-01 -1.539368e-01 1.061455e+00 -2.309082e+00 2.151367e+00
4.518311e+01 2.864583e-01 -1.540048e-01 1.062313e+00 -2.312256e+00 2.152832e+00
4.505713e+01 2.760417e-01 -1.534996e-01 1.063300e+00 -2.317383e+00 2.158203e+00
4.576978e+01 2.916667e-01 -1.545317e-01 1.063788e+00 -2.317627e+00 2.154785e+00
4.593237e+01 2.968750e-01 -1.548748e-01 1.064054e+00 -2.322021e+00 2.157471e+00
4.587939e+01 2.968750e-01 -1.558343e-01 1.064725e+00 -2.322998e+00 2.156250e+00
4.558228e+01 2.968750e-01 -1.568804e-01 1.064475e+00 -2.326416e+00 2.154053e+00
4.549585e+01 2.916667e-01 -1.567676e-01 1.065772e+00 -2.328125e+00 2.152588e+00
4.545874e+01 2.812500e-01 -1.567754e-01 1.066545e+00 -2.331299e+00 2.154785e+00
4.542188e+01 2.916667e-01 -1.576144e-01 1.066433e+00 -2.330811e+00 2.153320e+00
4.474805e+01 2.708333e-01 -1.581753e-01 1.067348e+00 -2.333740e+00 2.156982e+00
4.491846e+01 2.708333e-01 -1.575572e-01 1.068560e+00 -2.340820e+00 2.159180e+00
4.545312e+01 2.812500e-01 -1.583113e-01 1.068829e+00 -2.339844e+00 2.155762e+00
4.542578e+01 2.864583e-01 -1.590066e-01 1.069484e+00 -2.342773e+00 2.157715e+00
4.489990e+01 2.708333e-01 -1.594764e-01 1.069954e+00 -2.344482e+00 2.161377e+00
4.538428e+01 2.864583e-01 -1.597700e-01 1.071380e+00 -2.349365e+00 2.161133e+00
4.552441e+01 3.020833e-01 -1.608516e-01 1.071720e+00 -2.354736e+00 2.165039e+00
4.580103e+01 2.968750e-01 -1.601130e-01 1.072923e+00 -2.355225e+00 2.165039e+00
4.540430e+01 2.812500e-01 -1.606523e-01 1.073438e+00 -2.354492e+00 2.160889e+00
4.529150e+01 2.968750e-01 -1.612178e-01 1.074066e+00 -2.360840e+00 2.167236e+00
4.535645e+01 2.968750e-01 -1.614527e-01 1.075158e+00 -2.363525e+00 2.168945e+00
4.551831e+01 2.968750e-01 -1.619935e-01 1.075487e+00 -2.365234e+00 2.168457e+00
4.335596e+01 2.552083e-01 -1.629051e-01 1.076138e+00 -2.368896e+00 2.178467e+00
4.496582e+01 2.864583e-01 -1.631678e-01 1.077391e+00 -2.367188e+00 2.166260e+00
4.473438e+01 2.864583e-01 -1.631292e-01 1.078281e+00 -2.370850e+00 2.167725e+00
4.459595e+01 2.708333e-01 -1.639389e-01 1.078862e+00 -2.374268e+00 2.170654e+00
4.537769e+01 2.968750e-01 -1.638415e-01 1.079862e+00 -2.378662e+00 2.173340e+00
4.536694e+01 3.072917e-01 -1.631230e-01 1.081590e+00 -2.382812e+00 2.176514e+00
4.525879e+01 3.020833e-01 -1.634645e-01 1.082010e+00 -2.385254e+00 2.179199e+00
4.496753e+01 2.968750e-01 -1.643175e-01 1.082444e+00 -2.382080e+00 2.175049e+00
4.478906e+01 2.968750e-01 -1.649479e-01 1.083025e+00 -2.385742e+00 2.173340e+00
4.456372e+01 2.708333e-01 -1.650020e-01 1.084006e+00 -2.388428e+00 2.179199e+00
4.470532e+01 2.708333e-01 -1.647161e-01 1.085424e+00 -2.399414e+00 2.186523e+00
4.461914e+01 3.072917e-01 -1.653929e-01 1.085920e+00 -2.398926e+00 2.184814e+00
4.500391e+01 2.916667e-01 -1.658642e-01 1.086726e+00 -2.397705e+00 2.182861e+00
4.534912e+01 3.020833e-01 -1.652029e-01 1.087673e+00 -2.401123e+00 2.187500e+00
4.507910e+01 2.968750e-01 -1.650360e-01 1.088701e+00 -2.401367e+00 2.184814e+00
4.488159e+01 2.864583e-01 -1.652508e-01 1.089522e+00 -2.404785e+00 2.189453e+00
4.456567e+01 2.968750e-01 -1.663726e-01 1.089304e+00 -2.405029e+00 2.188477e+00
4.513062e+01 3.020833e-01 -1.659353e-01 1.091103e+00 -2.410400e+00 2.192627e+00
4.445996e+01 2.916667e-01 -1.659260e-01 1.091653e+00 -2.409180e+00 2.191895e+00
4.438110e+01 2.604167e-01 -1.662134e-01 1.092234e+00 -2.418213e+00 2.202881e+00
4.492456e+01 2.864583e-01 -1.669922e-01 1.092789e+00 -2.412598e+00 2.191650e+00
4.483423e+01 2.708333e-01 -1.668269e-01 1.093862e+00 -2.417725e+00 2.197754e+00
4.444873e+01 2.864583e-01 -1.673538e-01 1.094278e+00 -2.417236e+00 2.195068e+00
4.449585e+01 2.656250e-01 -1.673924e-01 1.095173e+00 -2.423584e+00 2.200928e+00
4.511450e+01 2.864583e-01 -1.673105e-01 1.096156e+00 -2.422607e+00 2.197510e+00
4.510449e+01 2.916667e-01 -1.671390e-01 1.097007e+00 -2.425537e+00 2.199707e+00
4.508423e+01 2.916667e-01 -1.679131e-01 1.097219e+00 -2.427734e+00 2.204346e+00
4.466138e+01 3.020833e-01 -1.671266e-01 1.098654e+00 -2.431152e+00 2.208740e+00
4.476392e+01 3.072917e-01 -1.673151e-01 1.099500e+00 -2.432861e+00 2.210693e+00
4.448560e+01 2.864583e-01 -1.688047e-01 1.099732e+00 -2.429932e+00 2.204102e+00
4.421851e+01 2.916667e-01 -1.688279e-01 1.100357e+00 -2.436279e+00 2.210938e+00
4.493188e+01 2.864583e-01 -1.690736e-01 1.101183e+00 -2.435547e+00 2.206299e+00
4.542725e+01 2.916667e-01 -1.683751e-01 1.102480e+00 -2.439209e+00 2.211182e+00
4.465625e+01 3.020833e-01 -1.689577e-01 1.103177e+00 -2.444824e+00 2.218994e+00
4.441016e+01 2.916667e-01 -1.686131e-01 1.104366e+00 -2.441406e+00 2.213379e+00
4.477173e+01 2.916667e-01 -1.689824e-01 1.104905e+00 -2.442383e+00 2.212402e+00
4.493481e+01 2.968750e-01 -1.688325e-01 1.106041e+00 -2.448730e+00 2.221436e+00
4.494507e+01 3.020833e-01 -1.681155e-01 1.107078e+00 -2.451660e+00 2.226318e+00
4.497534e+01 2.968750e-01 -1.687182e-01 1.107948e+00 -2.448730e+00 2.217773e+00
4.557007e+01 3.020833e-01 -1.685096e-01 1.108519e+00 -2.453125e+00 2.225342e+00
4.420117e+01 2.916667e-01 -1.693687e-01 1.108768e+00 -2.452148e+00 2.220459e+00
4.422583e+01 2.864583e-01 -1.692791e-01 1.109959e+00 -2.455566e+00 2.221924e+00
4.427246e+01 2.812500e-01 -1.692899e-01 1.110680e+00 -2.456299e+00 2.225098e+00
4.476782e+01 2.864583e-01 -1.692822e-01 1.111438e+00 -2.458252e+00 2.224121e+00
4.473657e+01 3.020833e-01 -1.688897e-01 1.112530e+00 -2.463135e+00 2.228271e+00
4.458911e+01 2.864583e-01 -1.699018e-01 1.112754e+00 -2.462402e+00 2.224609e+00
4.407544e+01 2.916667e-01 -1.691400e-01 1.113803e+00 -2.464111e+00 2.228271e+00
4.451929e+01 3.020833e-01 -1.693764e-01 1.114342e+00 -2.467285e+00 2.232422e+00
4.360254e+01 2.604167e-01 -1.695263e-01 1.114908e+00 -2.475586e+00 2.245605e+00
4.462817e+01 2.968750e-01 -1.704086e-01 1.115401e+00 -2.465576e+00 2.232910e+00
4.494556e+01 2.968750e-01 -1.712322e-01 1.115515e+00 -2.465332e+00 2.232178e+00
4.432861e+01 2.864583e-01 -1.709139e-01 1.116788e+00 -2.468994e+00 2.234863e+00
4.497729e+01 2.968750e-01 -1.708552e-01 1.117915e+00 -2.470703e+00 2.235840e+00
4.398901e+01 2.812500e-01 -1.716108e-01 1.117924e+00 -2.469482e+00 2.234375e+00
4.369019e+01 2.604167e-01 -1.715242e-01 1.118779e+00 -2.477295e+00 2.243896e+00
4.403027e+01 2.760417e-01 -1.723818e-01 1.119057e+00 -2.471680e+00 2.231201e+00
4.539868e+01 3.072917e-01 -1.720125e-01 1.120274e+00 -2.480225e+00 2.248047e+00
4.425195e+01 2.760417e-01 -1.730540e-01 1.120235e+00 -2.474365e+00 2.240723e+00
4.442139e+01 2.916667e-01 -1.732317e-01 1.121015e+00 -2.474365e+00 2.236816e+00
4.315308e+01 2.656250e-01 -1.735021e-01 1.121596e+00 -2.479736e+00 2.247070e+00
4.480591e+01 2.968750e-01 -1.737277e-01 1.122667e+00 -2.481934e+00 2.244629e+00
4.468677e+01 3.020833e-01 -1.734789e-01 1.124045e+00 -2.481934e+00 2.242676e+00
4.473267e+01 2.968750e-01 -1.740012e-01 1.124481e+00 -2.482666e+00 2.243652e+00
4.434888e+01 2.968750e-01 -1.735500e-01 1.125105e+00 -2.481934e+00 2.241211e+00
4.330566e+01 2.656250e-01 -1.735855e-01 1.126019e+00 -2.486328e+00 2.248535e+00
4.378662e+01 2.760417e-01 -1.743813e-01 1.126275e+00 -2.484131e+00 2.245850e+00
4.326245e+01 2.656250e-01 -1.746409e-01 1.127046e+00 -2.490234e+00 2.244385e+00
4.367822e+01 2.708333e-01 -1.741511e-01 1.128410e+00 -2.488281e+00 2.244873e+00
4.374634e+01 2.864583e-01 -1.740383e-01 1.129063e+00 -2.493164e+00 2.248535e+00
4.337891e+01 2.656250e-01 -1.744447e-01 1.130032e+00 -2.502197e+00 2.253174e+00
4.329956e+01 2.760417e-01 -1.758678e-01 1.129517e+00 -2.498535e+00 2.251465e+00
4.476855e+01 3.020833e-01 -1.762015e-01 1.130471e+00 -2.500977e+00 2.254395e+00
4.410620e+01 3.072917e-01 -1.777915e-01 1.130527e+00 -2.493652e+00 2.243164e+00
4.500635e+01 2.968750e-01 -1.782536e-01 1.131713e+00 -2.500977e+00 2.255371e+00
4.340405e+01 2.968750e-01 -1.783973e-01 1.132235e+00 -2.495850e+00 2.244629e+00
4.345190e+01 2.864583e-01 -1.780079e-01 1.133599e+00 -2.502197e+00 2.246338e+00
4.285303e+01 2.916667e-01 -1.782165e-01 1.134504e+00 -2.502441e+00 2.248291e+00
4.315088e+01 2.864583e-01 -1.780063e-01 1.135256e+00 -2.502686e+00 2.251465e+00
4.414795e+01 3.020833e-01 -1.779353e-01 1.136115e+00 -2.507324e+00 2.256104e+00
4.402515e+01 3.020833e-01 -1.776726e-01 1.136921e+00 -2.506836e+00 2.255615e+00
4.339771e+01 2.864583e-01 -1.777529e-01 1.137437e+00 -2.505615e+00 2.254883e+00
4.374341e+01 2.916667e-01 -1.777282e-01 1.138643e+00 -2.509521e+00 2.257568e+00
4.475977e+01 3.020833e-01 -1.781655e-01 1.139282e+00 -2.517090e+00 2.267578e+00
4.323779e+01 2.708333e-01 -1.777112e-01 1.140072e+00 -2.516602e+00 2.268311e+00
4.332910e+01 2.864583e-01 -1.785394e-01 1.140596e+00 -2.510742e+00 2.261475e+00
4.389600e+01 2.708333e-01 -1.782505e-01 1.141404e+00 -2.518066e+00 2.263916e+00
4.422534e+01 3.020833e-01 -1.785487e-01 1.142109e+00 -2.518799e+00 2.269287e+00
4.305518e+01 2.864583e-01 -1.786723e-01 1.142944e+00 -2.514404e+00 2.263672e+00
4.407861e+01 3.020833e-01 -1.779723e-01 1.144080e+00 -2.520752e+00 2.271729e+00
4.309351e+01 2.916667e-01 -1.784436e-01 1.144647e+00 -2.518799e+00 2.266846e+00
4.429150e+01 3.020833e-01 -1.787527e-01 1.145141e+00 -2.523193e+00 2.273438e+00
4.332349e+01 2.968750e-01 -1.795963e-01 1.145268e+00 -2.520996e+00 2.269531e+00
4.361597e+01 2.916667e-01 -1.797509e-01 1.146101e+00 -2.522705e+00 2.270020e+00
4.447705e+01 3.020833e-01 -1.789180e-01 1.147411e+00 -2.528320e+00 2.277100e+00
4.335059e+01 2.916667e-01 -1.799965e-01 1.147339e+00 -2.525635e+00 2.272705e+00
4.430103e+01 3.020833e-01 -1.799564e-01 1.148394e+00 -2.529785e+00 2.278809e+00
4.364478e+01 2.916667e-01 -1.798235e-01 1.149135e+00 -2.528320e+00 2.278320e+00
4.360962e+01 2.916667e-01 -1.803288e-01 1.149498e+00 -2.528809e+00 2.277100e+00
4.289404e+01 2.812500e-01 -1.801402e-01 1.150527e+00 -2.534180e+00 2.287354e+00
4.438965e+01 3.020833e-01 -1.810009e-01 1.150539e+00 -2.535889e+00 2.285645e+00
4.291724e+01 2.552083e-01 -1.802469e-01 1.151830e+00 -2.541016e+00 2.296631e+00
4.330957e+01 2.656250e-01 -1.800506e-01 1.152962e+00 -2.536377e+00 2.293457e+00
4.417432e+01 2.916667e-01 -1.803998e-01 1.153302e+00 -2.536133e+00 2.291016e+00
4.347339e+01 2.916667e-01 -1.812821e-01 1.153813e+00 -2.537598e+00 2.293457e+00
4.327466e+01 2.864583e-01 -1.802438e-01 1.155079e+00 -2.538330e+00 2.295410e+00
4.453052e+01 3.020833e-01 -1.815804e-01 1.154724e+00 -2.541260e+00 2.300781e+00
4.485693e+01 3.020833e-01 -1.813888e-01 1.155740e+00 -2.541992e+00 2.309570e+00
4.413403e+01 2.916667e-01 -1.818461e-01 1.156294e+00 -2.537842e+00 2.311523e+00
4.385278e+01 2.864583e-01 -1.823808e-01 1.156763e+00 -2.538574e+00 2.308350e+00
4.378027e+01 2.864583e-01 -1.816963e-01 1.157760e+00 -2.541748e+00 2.313477e+00
4.510400e+01 3.020833e-01 -1.819682e-01 1.158278e+00 -2.546387e+00 2.327637e+00
4.347119e+01 2.760417e-01 -1.822077e-01 1.158734e+00 -2.541748e+00 2.325439e+00
4.355347e+01 2.968750e-01 -1.825662e-01 1.159385e+00 -2.541748e+00 2.324219e+00
4.432275e+01 3.020833e-01 -1.822896e-01 1.160224e+00 -2.546875e+00 2.337891e+00
4.378809e+01 2.916667e-01 -1.829525e-01 1.160325e+00 -2.544189e+00 2.330078e+00
4.412573e+01 3.020833e-01 -1.830097e-01 1.161099e+00 -2.546143e+00 2.342285e+00
4.398877e+01 2.968750e-01 -1.836401e-01 1.161728e+00 -2.545166e+00 2.337646e+00
4.413135e+01 2.864583e-01 -1.834593e-01 1.162445e+00 -2.545898e+00 2.342041e+00
4.257349e+01 2.447917e-01 -1.833728e-01 1.163417e+00 -2.550537e+00 2.360107e+00
4.336401e+01 2.916667e-01 -1.835984e-01 1.164308e+00 -2.547607e+00 2.347412e+00
4.387915e+01 2.916667e-01 -1.840898e-01 1.164414e+00 -2.549805e+00 2.351074e+00
4.352295e+01 2.812500e-01 -1.832863e-01 1.165739e+00 -2.551514e+00 2.358887e+00
4.363721e+01 2.916667e-01 -1.832893e-01 1.166502e+00 -2.552246e+00 2.360107e+00
4.380396e+01 2.916667e-01 -1.836030e-01 1.166956e+00 -2.553955e+00 2.364014e+00
4.399194e+01 2.968750e-01 -1.833898e-01 1.167779e+00 -2.558594e+00 2.379395e+00
4.427100e+01 2.968750e-01 -1.838487e-01 1.168149e+00 -2.558105e+00 2.376709e+00
4.293506e+01 2.395833e-01 -1.842056e-01 1.168807e+00 -2.559814e+00 2.389893e+00
4.373950e+01 2.864583e-01 -1.854171e-01 1.168969e+00 -2.554688e+00 2.378662e+00
4.296460e+01 2.708333e-01 -1.859394e-01 1.169629e+00 -2.558105e+00 2.390137e+00
4.416162e+01 3.020833e-01 -1.861480e-01 1.170695e+00 -2.553711e+00 2.384277e+00
4.240527e+01 2.447917e-01 -1.853985e-01 1.172138e+00 -2.563965e+00 2.404785e+00
4.378711e+01 2.968750e-01 -1.859672e-01 1.172315e+00 -2.554932e+00 2.394043e+00
4.251758e+01 2.656250e-01 -1.861279e-01 1.173044e+00 -2.558350e+00 2.409180e+00
4.422168e+01 2.968750e-01 -1.853754e-01 1.174061e+00 -2.558594e+00 2.399170e+00
4.384351e+01 2.916667e-01 -1.858760e-01 1.174630e+00 -2.559814e+00 2.402832e+00
4.441797e+01 3.020833e-01 -1.854943e-01 1.175544e+00 -2.561768e+00 2.409668e+00
4.345166e+01 2.864583e-01 -1.848902e-01 1.176468e+00 -2.561035e+00 2.409180e+00
4.355566e+01 2.864583e-01 -1.849041e-01 1.177384e+00 -2.561768e+00 2.409180e+00
4.381372e+01 3.020833e-01 -1.852317e-01 1.177891e+00 -2.563477e+00 2.414062e+00
4.565112e+01 3.020833e-01 -1.850323e-01 1.178506e+00 -2.569580e+00 2.434814e+00
4.352515e+01 2.864583e-01 -1.868618e-01 1.178317e+00 -2.558350e+00 2.418457e+00
4.378467e+01 2.864583e-01 -1.861804e-01 1.179756e+00 -2.564941e+00 2.423584e+00
4.558447e+01 3.020833e-01 -1.858714e-01 1.180512e+00 -2.568359e+00 2.435059e+00
4.515869e+01 3.020833e-01 -1.867228e-01 1.180953e+00 -2.566650e+00 2.434326e+00
4.375024e+01 2.916667e-01 -1.872018e-01 1.181380e+00 -2.564453e+00 2.427002e+00
4.290649e+01 2.916667e-01 -1.859842e-01 1.182173e+00 -2.563721e+00 2.436035e+00
4.437280e+01 2.916667e-01 -1.858157e-01 1.183170e+00 -2.568604e+00 2.440430e+00
4.301392e+01 2.812500e-01 -1.857771e-01 1.183851e+00 -2.570068e+00 2.447021e+00
4.387939e+01 2.916667e-01 -1.861758e-01 1.184315e+00 -2.568359e+00 2.437744e+00
4.428101e+01 2.864583e-01 -1.865945e-01 1.184890e+00 -2.569580e+00 2.447510e+00
4.319873e+01 2.760417e-01 -1.857277e-01 1.185938e+00 -2.571533e+00 2.454590e+00
4.429297e+01 2.864583e-01 -1.864462e-01 1.186316e+00 -2.569580e+00 2.447998e+00
4.531836e+01 2.968750e-01 -1.863705e-01 1.186750e+00 -2.572998e+00 2.463135e+00
4.318115e+01 2.812500e-01 -1.863983e-01 1.187719e+00 -2.570068e+00 2.461914e+00
4.529102e+01 2.968750e-01 -1.859085e-01 1.188346e+00 -2.572754e+00 2.468018e+00
4.546509e+01 2.968750e-01 -1.872080e-01 1.188531e+00 -2.572266e+00 2.476807e+00
4.321582e+01 2.760417e-01 -1.871817e-01 1.189179e+00 -2.566650e+00 2.470703e+00
4.561499e+01 2.968750e-01 -1.874027e-01 1.189932e+00 -2.573486e+00 2.483887e+00
4.350781e+01 2.812500e-01 -1.880424e-01 1.190217e+00 -2.566895e+00 2.472412e+00
4.355005e+01 2.812500e-01 -1.877488e-01 1.190805e+00 -2.564209e+00 2.474365e+00
4.510474e+01 2.916667e-01 -1.874536e-01 1.191914e+00 -2.569580e+00 2.487305e+00
4.424341e+01 2.864583e-01 -1.874614e-01 1.192569e+00 -2.567871e+00 2.483887e+00
4.411768e+01 2.916667e-01 -1.870797e-01 1.193156e+00 -2.568359e+00 2.480225e+00
4.448926e+01 2.864583e-01 -1.876530e-01 1.193584e+00 -2.568604e+00 2.485352e+00
4.250391e+01 2.552083e-01 -1.872018e-01 1.194406e+00 -2.569336e+00 2.498291e+00
4.381445e+01 2.864583e-01 -1.875773e-01 1.194422e+00 -2.564941e+00 2.486816e+00
4.409375e+01 2.864583e-01 -1.879296e-01 1.195056e+00 -2.567871e+00 2.489502e+00
4.505420e+01 2.968750e-01 -1.875216e-01 1.195837e+00 -2.569092e+00 2.500000e+00
4.343042e+01 2.812500e-01 -1.877488e-01 1.196108e+00 -2.562744e+00 2.498535e+00
4.225977e+01 2.500000e-01 -1.874567e-01 1.196849e+00 -2.569580e+00 2.515137e+00
4.302588e+01 2.864583e-01 -1.888412e-01 1.196847e+00 -2.561035e+00 2.507568e+00
4.327588e+01 2.812500e-01 -1.875340e-01 1.198642e+00 -2.566650e+00 2.511230e+00
4.485693e+01 2.916667e-01 -1.878600e-01 1.198817e+00 -2.566406e+00 2.519043e+00
4.533716e+01 2.968750e-01 -1.885662e-01 1.199278e+00 -2.567871e+00 2.518555e+00
4.427148e+01 2.968750e-01 -1.887671e-01 1.199960e+00 -2.562988e+00 2.514648e+00
4.497046e+01 2.916667e-01 -1.889571e-01 1.200464e+00 -2.563965e+00 2.516846e+00
4.355176e+01 2.760417e-01 -1.891147e-01 1.201108e+00 -2.563965e+00 2.528320e+00
4.466040e+01 2.916667e-01 -1.884858e-01 1.201683e+00 -2.564453e+00 2.518311e+00
4.451343e+01 2.916667e-01 -1.878569e-01 1.202887e+00 -2.563232e+00 2.529053e+00
4.315552e+01 2.708333e-01 -1.876870e-01 1.203468e+00 -2.569092e+00 2.536621e+00
4.479077e+01 2.916667e-01 -1.879342e-01 1.204000e+00 -2.564941e+00 2.539062e+00
4.289331e+01 2.656250e-01 -1.878600e-01 1.204761e+00 -2.564209e+00 2.541504e+00
4.480737e+01 2.916667e-01 -1.888041e-01 1.204710e+00 -2.566406e+00 2.546875e+00
4.365186e+01 2.864583e-01 -1.883854e-01 1.205750e+00 -2.561035e+00 2.541260e+00
4.308032e+01 2.760417e-01 -1.875896e-01 1.206380e+00 -2.560303e+00 2.548096e+00
4.467896e+01 2.864583e-01 -1.878801e-01 1.206612e+00 -2.563965e+00 2.547119e+00
4.327905e+01 2.812500e-01 -1.877055e-01 1.207489e+00 -2.559814e+00 2.552002e+00
4.236133e+01 2.604167e-01 -1.880037e-01 1.207904e+00 -2.561035e+00 2.565674e+00
4.428101e+01 2.864583e-01 -1.884874e-01 1.208422e+00 -2.560303e+00 2.548828e+00
4.552539e+01 2.968750e-01 -1.883885e-01 1.208817e+00 -2.564697e+00 2.567627e+00
4.395972e+01 2.812500e-01 -1.891441e-01 1.209226e+00 -2.557129e+00 2.557129e+00
4.396899e+01 2.864583e-01 -1.880315e-01 1.210076e+00 -2.558105e+00 2.559814e+00
4.253149e+01 2.447917e-01 -1.886852e-01 1.210308e+00 -2.561768e+00 2.574951e+00
4.542896e+01 2.968750e-01 -1.890004e-01 1.210627e+00 -2.560791e+00 2.565674e+00
4.297217e+01 2.604167e-01 -1.890267e-01 1.211339e+00 -2.555176e+00 2.578613e+00
4.268335e+01 2.760417e-01 -1.901763e-01 1.211317e+00 -2.558350e+00 2.576660e+00
4.517822e+01 2.968750e-01 -1.896555e-01 1.212362e+00 -2.557129e+00 2.575684e+00
4.315698e+01 2.760417e-01 -1.894176e-01 1.213274e+00 -2.556396e+00 2.577393e+00
4.392090e+01 2.812500e-01 -1.888134e-01 1.213867e+00 -2.556641e+00 2.578613e+00
4.481396e+01 2.916667e-01 -1.884673e-01 1.214333e+00 -2.554688e+00 2.584473e+00
4.497900e+01 2.968750e-01 -1.897884e-01 1.214291e+00 -2.556641e+00 2.583984e+00
4.471411e+01 2.916667e-01 -1.895026e-01 1.215120e+00 -2.554688e+00 2.580322e+00
4.484595e+01 2.916667e-01 -1.881366e-01 1.216159e+00 -2.553711e+00 2.594238e+00
4.530396e+01 2.968750e-01 -1.895304e-01 1.216132e+00 -2.556152e+00 2.593262e+00
4.550049e+01 2.968750e-01 -1.897529e-01 1.216378e+00 -2.554932e+00 2.595459e+00
4.272729e+01 2.395833e-01 -1.901145e-01 1.216966e+00 -2.553223e+00 2.605225e+00
4.531226e+01 2.968750e-01 -1.905270e-01 1.217326e+00 -2.552002e+00 2.596680e+00
4.379370e+01 2.760417e-01 -1.899769e-01 1.218720e+00 -2.548828e+00 2.597168e+00
4.369971e+01 2.760417e-01 -1.898054e-01 1.219113e+00 -2.548096e+00 2.599609e+00
4.291309e+01 2.552083e-01 -1.887037e-01 1.220066e+00 -2.553467e+00 2.613281e+00
4.304761e+01 2.552083e-01 -1.897282e-01 1.220147e+00 -2.550781e+00 2.615967e+00
