-4.852016e-02 3.680648e+00 -2.528516e+01 2.888672e+01 2.524350e-04 8.810654e-03 -1.484375e-01 1.328125e-01
-4.444666e-02 3.690777e+00 -2.528516e+01 2.888672e+01 2.517605e-04 8.816738e-03 -1.484375e-01 1.328125e-01
-3.991753e-02 3.689195e+00 -2.528516e+01 2.888672e+01 2.514198e-04 8.802411e-03 -1.484375e-01 1.328125e-01
-4.608796e-02 3.679161e+00 -2.528516e+01 2.888672e+01 2.519594e-04 8.795091e-03 -1.484375e-01 1.328125e-01
-4.315413e-02 3.671216e+00 -2.528516e+01 2.888672e+01 2.527413e-04 8.828397e-03 -1.484375e-01 1.328125e-01
-3.799971e-02 3.684605e+00 -2.528516e+01 2.888672e+01 2.516119e-04 8.820837e-03 -1.484375e-01 1.328125e-01
-4.150569e-02 3.693214e+00 -2.528516e+01 2.888672e+01 2.528442e-04 8.820091e-03 -1.484375e-01 1.328125e-01
-4.222058e-02 3.695040e+00 -2.528516e+01 2.888672e+01 2.504961e-04 8.814952e-03 -1.484375e-01 1.328125e-01
-4.242554e-02 3.680573e+00 -2.528516e+01 2.888672e+01 2.533015e-04 8.816994e-03 -1.484375e-01 1.328125e-01
-4.528511e-02 3.685818e+00 -2.528516e+01 2.888672e+01 2.538251e-04 8.829239e-03 -1.484375e-01 1.328125e-01
-4.388773e-02 3.689312e+00 -2.528516e+01 2.888672e+01 2.523184e-04 8.817099e-03 -1.484375e-01 1.328125e-01
-5.172290e-02 3.693282e+00 -2.528516e+01 2.888672e+01 2.541863e-04 8.818582e-03 -1.484375e-01 1.328125e-01
-4.343499e-02 3.686367e+00 -2.528516e+01 2.888672e+01 2.547625e-04 8.828520e-03 -1.484375e-01 1.328125e-01
-4.221952e-02 3.696480e+00 -2.528516e+01 2.384766e+01 2.526042e-04 8.816175e-03 -1.484375e-01 1.328125e-01
-5.021248e-02 3.682297e+00 -2.486328e+01 2.888672e+01 2.549020e-04 8.807848e-03 -1.484375e-01 1.328125e-01
-3.578520e-02 3.687230e+00 -2.528516e+01 2.888672e+01 2.528054e-04 8.832270e-03 -1.484375e-01 1.328125e-01
-4.067959e-02 3.684224e+00 -2.528516e+01 2.384766e+01 2.501715e-04 8.831652e-03 -1.484375e-01 1.328125e-01
-4.396113e-02 3.690821e+00 -2.528516e+01 2.888672e+01 2.514404e-04 8.827522e-03 -1.484375e-01 1.328125e-01
-4.521402e-02 3.689615e+00 -2.528516e+01 2.888672e+01 2.530523e-04 8.838646e-03 -1.484375e-01 1.328125e-01
-4.497338e-02 3.682681e+00 -2.486328e+01 2.888672e+01 2.567425e-04 8.836476e-03 -1.484375e-01 1.328125e-01
-4.694194e-02 3.685119e+00 -2.528516e+01 2.888672e+01 2.513101e-04 8.812222e-03 -1.484375e-01 1.328125e-01
-4.651582e-02 3.691577e+00 -2.528516e+01 2.888672e+01 2.518314e-04 8.819903e-03 -1.484375e-01 1.328125e-01
-3.647415e-02 3.690450e+00 -2.486328e+01 2.888672e+01 2.528900e-04 8.821017e-03 -1.484375e-01 1.328125e-01
-4.128279e-02 3.688529e+00 -2.528516e+01 2.384766e+01 2.516668e-04 8.831499e-03 -1.484375e-01 1.328125e-01
-4.478096e-02 3.688128e+00 -2.528516e+01 2.888672e+01 2.523458e-04 8.814960e-03 -1.484375e-01 1.328125e-01
-4.397743e-02 3.694517e+00 -2.528516e+01 2.888672e+01 2.507682e-04 8.803407e-03 -1.484375e-01 1.328125e-01
-4.983102e-02 3.691764e+00 -2.528516e+01 2.888672e+01 2.516942e-04 8.821057e-03 -1.484375e-01 1.328125e-01
-3.992766e-02 3.685951e+00 -2.528516e+01 2.888672e+01 2.533175e-04 8.830782e-03 -1.484375e-01 1.328125e-01
-4.651206e-02 3.678860e+00 -2.528516e+01 2.888672e+01 2.495953e-04 8.843120e-03 -1.484375e-01 1.328125e-01
-4.468104e-02 3.676631e+00 -2.528516e+01 2.888672e+01 2.528168e-04 8.835660e-03 -1.484375e-01 1.328125e-01
-4.792052e-02 3.678314e+00 -2.528516e+01 2.888672e+01 2.506790e-04 8.817805e-03 -1.484375e-01 1.328125e-01
-4.150511e-02 3.689488e+00 -2.486328e+01 2.888672e+01 2.485436e-04 8.834387e-03 -1.484375e-01 1.328125e-01
-4.560774e-02 3.688082e+00 -2.528516e+01 2.888672e+01 2.524144e-04 8.806869e-03 -1.484375e-01 1.328125e-01
-3.956780e-02 3.686352e+00 -2.528516e+01 2.888672e+01 2.533175e-04 8.828400e-03 -1.484375e-01 1.328125e-01
-3.850019e-02 3.687619e+00 -2.528516e+01 2.888672e+01 2.520554e-04 8.817160e-03 -1.484375e-01 1.289062e-01
-4.152469e-02 3.689517e+00 -2.528516e+01 2.888672e+01 2.536970e-04 8.787382e-03 -1.484375e-01 1.328125e-01
-4.416937e-02 3.683475e+00 -2.528516e+01 2.888672e+01 2.540949e-04 8.838920e-03 -1.484375e-01 1.289062e-01
-4.128617e-02 3.688139e+00 -2.528516e+01 2.888672e+01 2.537268e-04 8.823298e-03 -1.484375e-01 1.328125e-01
-4.254408e-02 3.688673e+00 -2.528516e+01 2.888672e+01 2.565459e-04 8.823633e-03 -1.484375e-01 1.328125e-01
-4.583594e-02 3.687384e+00 -2.528516e+01 2.888672e+01 2.581417e-04 8.838968e-03 -1.484375e-01 1.328125e-01
-4.552209e-02 3.688860e+00 -2.528516e+01 2.888672e+01 2.485253e-04 8.812895e-03 -1.484375e-01 1.328125e-01
-4.059192e-02 3.688955e+00 -2.528516e+01 2.888672e+01 2.520806e-04 8.791091e-03 -1.484375e-01 1.328125e-01
-3.948794e-02 3.690309e+00 -2.528516e+01 2.888672e+01 2.542801e-04 8.818711e-03 -1.484375e-01 1.328125e-01
-5.145226e-02 3.682935e+00 -2.528516e+01 2.888672e+01 2.533175e-04 8.840066e-03 -1.484375e-01 1.328125e-01
-4.875260e-02 3.693884e+00 -2.528516e+01 2.888672e+01 2.551992e-04 8.829642e-03 -1.484375e-01 1.328125e-01
-4.858777e-02 3.692194e+00 -2.486328e+01 2.888672e+01 2.558965e-04 8.833119e-03 -1.484375e-01 1.328125e-01
-5.224103e-02 3.694137e+00 -2.528516e+01 2.888672e+01 2.510860e-04 8.801841e-03 -1.484375e-01 1.328125e-01
-4.787269e-02 3.692179e+00 -2.528516e+01 2.888672e+01 2.529494e-04 8.827607e-03 -1.484375e-01 1.328125e-01
-4.245525e-02 3.688834e+00 -2.528516e+01 2.888672e+01 2.523138e-04 8.819196e-03 -1.484375e-01 1.328125e-01
-5.036728e-02 3.686330e+00 -2.528516e+01 2.888672e+01 2.520966e-04 8.789618e-03 -1.484375e-01 1.328125e-01
-4.026852e-02 3.686427e+00 -2.528516e+01 2.888672e+01 2.524556e-04 8.817591e-03 -1.484375e-01 1.328125e-01
-4.899412e-02 3.691543e+00 -2.528516e+01 2.888672e+01 2.527894e-04 8.812355e-03 -1.484375e-01 1.328125e-01
-4.446711e-02 3.691474e+00 -2.528516e+01 2.888672e+01 2.531780e-04 8.820727e-03 -1.484375e-01 1.328125e-01
-4.867737e-02 3.692363e+00 -2.528516e+01 2.888672e+01 2.516302e-04 8.819844e-03 -1.484375e-01 1.328125e-01
-4.513214e-02 3.690032e+00 -2.528516e+01 2.888672e+01 2.516782e-04 8.811170e-03 -1.484375e-01 1.328125e-01
-4.206858e-02 3.688287e+00 -2.528516e+01 2.888672e+01 2.530843e-04 8.834299e-03 -1.484375e-01 1.328125e-01
-4.376707e-02 3.679603e+00 -2.486328e+01 2.888672e+01 2.515181e-04 8.811940e-03 -1.484375e-01 1.328125e-01
-4.274961e-02 3.699835e+00 -2.528516e+01 2.888672e+01 2.533678e-04 8.825220e-03 -1.484375e-01 1.328125e-01
-4.598023e-02 3.691505e+00 -2.528516e+01 2.888672e+01 2.546870e-04 8.825990e-03 -1.484375e-01 1.328125e-01
-4.369657e-02 3.699646e+00 -2.528516e+01 2.888672e+01 2.528717e-04 8.798142e-03 -1.484375e-01 1.328125e-01
-4.418470e-02 3.689026e+00 -2.486328e+01 2.888672e+01 2.539554e-04 8.789825e-03 -1.484375e-01 1.328125e-01
-3.475386e-02 3.685846e+00 -2.528516e+01 2.888672e+01 2.510517e-04 8.835119e-03 -1.484375e-01 1.328125e-01
-3.802778e-02 3.691744e+00 -2.528516e+01 2.888672e+01 2.498491e-04 8.808517e-03 -1.484375e-01 1.328125e-01
-5.015837e-02 3.687267e+00 -2.528516e+01 2.384766e+01 2.525676e-04 8.831367e-03 -1.484375e-01 1.328125e-01
-4.208382e-02 3.689951e+00 -2.528516e+01 2.888672e+01 2.521560e-04 8.843497e-03 -1.484375e-01 1.328125e-01
-5.097897e-02 3.692174e+00 -2.528516e+01 2.888672e+01 2.516988e-04 8.820325e-03 -1.484375e-01 1.289062e-01
-4.450280e-02 3.684363e+00 -2.528516e+01 2.888672e+01 2.493827e-04 8.819204e-03 -1.484375e-01 1.328125e-01
-4.205498e-02 3.691274e+00 -2.528516e+01 2.888672e+01 2.562715e-04 8.810936e-03 -1.484375e-01 1.289062e-01
-4.328858e-02 3.694826e+00 -2.528516e+01 2.888672e+01 2.497668e-04 8.833937e-03 -1.484375e-01 1.328125e-01
-5.034857e-02 3.693062e+00 -2.528516e+01 2.888672e+01 2.512712e-04 8.821826e-03 -1.484375e-01 1.328125e-01
-4.335947e-02 3.687006e+00 -2.528516e+01 2.888672e+01 2.508277e-04 8.819835e-03 -1.484375e-01 1.328125e-01
-4.351939e-02 3.690404e+00 -2.528516e+01 2.888672e+01 2.525927e-04 8.809953e-03 -1.484375e-01 1.289062e-01
-4.651196e-02 3.692646e+00 -2.528516e+01 2.888672e+01 2.518588e-04 8.808508e-03 -1.484375e-01 1.328125e-01
-3.831154e-02 3.689554e+00 -2.528516e+01 2.888672e+01 2.489117e-04 8.828252e-03 -1.484375e-01 1.328125e-01
-5.038339e-02 3.690085e+00 -2.528516e+01 2.888672e+01 2.539646e-04 8.826596e-03 -1.484375e-01 1.289062e-01
-4.327180e-02 3.691067e+00 -2.528516e+01 2.888672e+01 2.545956e-04 8.818790e-03 -1.484375e-01 1.328125e-01
-4.651177e-02 3.697156e+00 -2.528516e+01 2.888672e+01 2.540217e-04 8.814835e-03 -1.484375e-01 1.328125e-01
-4.295689e-02 3.683597e+00 -2.528516e+01 2.888672e+01 2.497714e-04 8.815739e-03 -1.484375e-01 1.289062e-01
-4.461391e-02 3.687371e+00 -2.528516e+01 2.888672e+01 2.551054e-04 8.827130e-03 -1.484375e-01 1.328125e-01
-4.691541e-02 3.686005e+00 -2.486328e+01 2.888672e+01 2.531095e-04 8.831231e-03 -1.484375e-01 1.328125e-01
-4.410340e-02 3.685287e+00 -2.528516e+01 2.888672e+01 2.544973e-04 8.820340e-03 -1.484375e-01 1.328125e-01
-4.638927e-02 3.689104e+00 -2.528516e+01 2.888672e+01 2.522452e-04 8.818742e-03 -1.484375e-01 1.328125e-01
-4.340095e-02 3.692380e+00 -2.528516e+01 2.888672e+01 2.525401e-04 8.843546e-03 -1.484375e-01 1.328125e-01
-4.302160e-02 3.687437e+00 -2.528516e+01 2.888672e+01 2.519983e-04 8.823789e-03 -1.484375e-01 1.328125e-01
-3.665143e-02 3.687118e+00 -2.528516e+01 2.888672e+01 2.541177e-04 8.819080e-03 -1.484375e-01 1.328125e-01
-4.761159e-02 3.690211e+00 -2.528516e+01 2.384766e+01 2.517651e-04 8.807931e-03 -1.484375e-01 1.328125e-01
-4.602537e-02 3.689481e+00 -2.528516e+01 2.888672e+01 2.541680e-04 8.818317e-03 -1.484375e-01 1.328125e-01
-4.734886e-02 3.686671e+00 -2.528516e+01 2.888672e+01 2.535553e-04 8.818924e-03 -1.484375e-01 1.328125e-01
-4.803945e-02 3.682269e+00 -2.486328e+01 2.888672e+01 2.520646e-04 8.804643e-03 -1.484375e-01 1.328125e-01
-4.744329e-02 3.684561e+00 -2.528516e+01 2.888672e+01 2.498377e-04 8.808756e-03 -1.484375e-01 1.328125e-01
-3.847097e-02 3.689566e+00 -2.528516e+01 2.888672e+01 2.532512e-04 8.827892e-03 -1.484375e-01 1.289062e-01
-5.174421e-02 3.687481e+00 -2.528516e+01 2.888672e+01 2.515524e-04 8.802695e-03 -1.484375e-01 1.328125e-01
-4.063580e-02 3.684266e+00 -2.528516e+01 2.888672e+01 2.528580e-04 8.838011e-03 -1.484375e-01 1.328125e-01
-4.610600e-02 3.684978e+00 -2.528516e+01 2.888672e+01 2.539920e-04 8.831364e-03 -1.484375e-01 1.328125e-01
-3.808748e-02 3.685757e+00 -2.528516e+01 2.888672e+01 2.525699e-04 8.824493e-03 -1.484375e-01 1.328125e-01
-3.870882e-02 3.689248e+00 -2.528516e+01 2.888672e+01 2.563950e-04 8.844771e-03 -1.484375e-01 1.289062e-01
-3.787529e-02 3.680002e+00 -2.528516e+01 2.888672e+01 2.486671e-04 8.807886e-03 -1.484375e-01 1.328125e-01
-4.345718e-02 3.687386e+00 -2.528516e+01 2.888672e+01 2.524784e-04 8.834052e-03 -1.484375e-01 1.328125e-01
-4.058304e-02 3.674321e+00 -2.528516e+01 2.888672e+01 2.514198e-04 8.799266e-03 -1.484375e-01 1.328125e-01
-3.830700e-02 3.683305e+00 -2.528516e+01 2.888672e+01 2.529723e-04 8.822726e-03 -1.484375e-01 1.328125e-01
