-2.050394e+00 7.862756e+00 -4.060528e+01 4.291491e+01 2.071584e-05 1.847607e-03 -1.262285e-01 1.262285e-01
-2.576279e+00 8.792997e+00 -4.487585e+01 4.333834e+01 1.593598e-06 1.601220e-03 -1.262285e-01 1.262285e-01
-2.917050e+00 9.288342e+00 -4.635074e+01 4.154748e+01 9.234999e-07 1.420368e-03 -1.262285e-01 1.262285e-01
-3.244703e+00 9.732915e+00 -5.133872e+01 4.247820e+01 2.940967e-07 1.313855e-03 -1.262285e-01 1.262285e-01
-3.401778e+00 1.008331e+01 -5.314426e+01 4.676139e+01 3.533393e-06 1.223923e-03 -1.262285e-01 1.262285e-01
-3.425595e+00 1.028900e+01 -5.472950e+01 4.691391e+01 7.436774e-07 1.162182e-03 -1.262285e-01 1.262285e-01
-3.473362e+00 1.042758e+01 -5.708885e+01 5.032740e+01 1.400665e-06 1.139493e-03 -1.262285e-01 1.262284e-01
-3.524433e+00 1.063425e+01 -5.908993e+01 4.999886e+01 3.161756e-06 1.142076e-03 -1.262285e-01 1.262281e-01
-3.625157e+00 1.084496e+01 -6.073724e+01 5.160022e+01 -4.318167e-06 1.100731e-03 -1.262285e-01 1.262285e-01
-3.645449e+00 1.098646e+01 -6.070082e+01 5.332151e+01 -4.244958e-06 1.077097e-03 -1.262285e-01 1.262277e-01
-3.754720e+00 1.116219e+01 -6.125656e+01 5.452804e+01 1.964102e-06 1.062261e-03 -1.262285e-01 1.262285e-01
-3.682030e+00 1.122206e+01 -6.234677e+01 5.322035e+01 -2.554130e-07 1.022955e-03 -1.262285e-01 1.262282e-01
-3.733542e+00 1.130184e+01 -6.416249e+01 5.382308e+01 1.679882e-06 9.920967e-04 -1.262284e-01 1.262285e-01
-3.747299e+00 1.139647e+01 -6.605771e+01 5.635547e+01 4.543033e-07 9.811366e-04 -1.262285e-01 1.262285e-01
-3.744691e+00 1.147115e+01 -6.230052e+01 5.622296e+01 5.875543e-07 9.846214e-04 -1.262285e-01 1.262284e-01
-3.774465e+00 1.153351e+01 -6.502184e+01 5.726115e+01 -6.532214e-07 9.623825e-04 -1.320225e-01 1.262285e-01
-3.826928e+00 1.162891e+01 -6.465917e+01 5.653243e+01 6.372281e-07 9.655047e-04 -1.262285e-01 1.299522e-01
-3.907474e+00 1.183994e+01 -7.166453e+01 5.990991e+01 4.284344e-06 1.012032e-03 -1.262284e-01 1.362845e-01
-3.932155e+00 1.185375e+01 -6.866678e+01 5.893563e+01 2.494624e-08 9.393728e-04 -1.262284e-01 1.262284e-01
-4.020603e+00 1.195855e+01 -6.766424e+01 5.804366e+01 5.738697e-07 9.628866e-04 -1.262285e-01 1.262281e-01
-4.055724e+00 1.202981e+01 -6.954891e+01 5.963069e+01 1.864651e-06 9.314415e-04 -1.262285e-01 1.325004e-01
-4.047804e+00 1.210675e+01 -6.956814e+01 5.891793e+01 5.381534e-07 9.119772e-04 -1.262284e-01 1.262276e-01
-4.038503e+00 1.213896e+01 -6.979502e+01 5.963696e+01 -1.405525e-06 8.951596e-04 -1.262285e-01 1.337192e-01
-4.083828e+00 1.222635e+01 -7.195880e+01 5.865792e+01 4.997865e-07 8.951951e-04 -1.270057e-01 1.262285e-01
-4.067485e+00 1.228420e+01 -7.040858e+01 5.988120e+01 -1.103404e-06 8.892769e-04 -1.262284e-01 1.262285e-01
-4.074397e+00 1.229522e+01 -7.223338e+01 6.190401e+01 2.435670e-06 8.813147e-04 -1.289415e-01 1.286873e-01
