8.932422e+01 6.302083e-01 -8.098822e-03 5.419619e-01 -9.882812e-01 9.960938e-01
6.908594e+01 3.697917e-01 -1.576816e-02 5.403047e-01 -9.531250e-01 1.019531e+00
5.541406e+01 3.697917e-01 -2.212860e-02 5.367448e-01 -9.531250e-01 1.011719e+00
5.546484e+01 3.697917e-01 -2.206724e-02 5.372132e-01 -9.531250e-01 1.011719e+00
5.533984e+01 3.697917e-01 -2.192408e-02 5.373523e-01 -9.531250e-01 1.011719e+00
5.533984e+01 3.697917e-01 -2.198544e-02 5.374186e-01 -9.531250e-01 1.011719e+00
5.529688e+01 3.697917e-01 -2.251718e-02 5.377770e-01 -9.531250e-01 1.011719e+00
5.529688e+01 3.697917e-01 -2.251718e-02 5.377770e-01 -9.531250e-01 1.011719e+00
5.529688e+01 3.697917e-01 -2.251718e-02 5.377770e-01 -9.531250e-01 1.011719e+00
5.529688e+01 3.697917e-01 -2.251718e-02 5.377770e-01 -9.531250e-01 1.011719e+00
5.529688e+01 3.697917e-01 -2.251718e-02 5.377770e-01 -9.531250e-01 1.011719e+00
5.534766e+01 3.697917e-01 -2.255808e-02 5.378045e-01 -9.531250e-01 1.011719e+00
5.534766e+01 3.697917e-01 -2.255808e-02 5.378045e-01 -9.531250e-01 1.011719e+00
5.534766e+01 3.697917e-01 -2.255808e-02 5.378045e-01 -9.531250e-01 1.011719e+00
5.534766e+01 3.697917e-01 -2.255808e-02 5.378045e-01 -9.531250e-01 1.011719e+00
5.534766e+01 3.697917e-01 -2.255808e-02 5.378045e-01 -9.531250e-01 1.011719e+00
5.534766e+01 3.697917e-01 -2.255808e-02 5.378045e-01 -9.531250e-01 1.011719e+00
5.534766e+01 3.697917e-01 -2.255808e-02 5.378045e-01 -9.531250e-01 1.011719e+00
5.534766e+01 3.697917e-01 -2.255808e-02 5.378045e-01 -9.531250e-01 1.011719e+00
5.534766e+01 3.697917e-01 -2.255808e-02 5.378045e-01 -9.531250e-01 1.011719e+00
5.534766e+01 3.697917e-01 -2.255808e-02 5.378045e-01 -9.531250e-01 1.011719e+00
5.534766e+01 3.697917e-01 -2.255808e-02 5.378045e-01 -9.531250e-01 1.011719e+00
5.534766e+01 3.697917e-01 -2.255808e-02 5.378045e-01 -9.531250e-01 1.011719e+00
5.534766e+01 3.697917e-01 -2.255808e-02 5.378045e-01 -9.531250e-01 1.011719e+00
5.534766e+01 3.697917e-01 -2.255808e-02 5.378045e-01 -9.531250e-01 1.011719e+00
5.534766e+01 3.697917e-01 -2.255808e-02 5.378045e-01 -9.531250e-01 1.011719e+00
5.534766e+01 3.697917e-01 -2.255808e-02 5.378045e-01 -9.531250e-01 1.011719e+00
5.534766e+01 3.697917e-01 -2.255808e-02 5.378045e-01 -9.531250e-01 1.011719e+00
5.534766e+01 3.697917e-01 -2.255808e-02 5.378045e-01 -9.531250e-01 1.011719e+00
5.534766e+01 3.697917e-01 -2.255808e-02 5.378045e-01 -9.531250e-01 1.011719e+00
5.534766e+01 3.697917e-01 -2.255808e-02 5.378045e-01 -9.531250e-01 1.011719e+00
5.534766e+01 3.697917e-01 -2.255808e-02 5.378045e-01 -9.531250e-01 1.011719e+00
5.509375e+01 3.697917e-01 -2.452143e-02 5.392871e-01 -9.531250e-01 1.015625e+00
5.509375e+01 3.697917e-01 -2.452143e-02 5.392871e-01 -9.531250e-01 1.015625e+00
5.786328e+01 3.697917e-01 -4.074975e-02 5.691953e-01 -2.113281e+00 1.164062e+00
5.750781e+01 3.697917e-01 -6.241819e-02 5.948666e-01 -1.820312e+00 1.167969e+00
5.715625e+01 3.697917e-01 -6.102749e-02 5.949941e-01 -1.812500e+00 1.164062e+00
5.541406e+01 3.697917e-01 -6.084342e-02 5.954137e-01 -1.796875e+00 1.156250e+00
5.544141e+01 3.697917e-01 -6.084342e-02 5.956552e-01 -1.800781e+00 1.156250e+00
5.544141e+01 3.697917e-01 -6.084342e-02 5.956552e-01 -1.800781e+00 1.156250e+00
5.544141e+01 3.697917e-01 -6.084342e-02 5.956552e-01 -1.800781e+00 1.156250e+00
5.544141e+01 3.697917e-01 -6.084342e-02 5.956552e-01 -1.800781e+00 1.156250e+00
5.540234e+01 3.697917e-01 -6.115020e-02 5.959914e-01 -1.800781e+00 1.152344e+00
5.540234e+01 3.697917e-01 -6.115020e-02 5.959914e-01 -1.800781e+00 1.152344e+00
5.540234e+01 3.697917e-01 -6.115020e-02 5.959914e-01 -1.800781e+00 1.152344e+00
5.506250e+01 3.697917e-01 -6.117065e-02 5.960080e-01 -1.800781e+00 1.152344e+00
5.551953e+01 3.697917e-01 -6.151832e-02 5.963063e-01 -1.800781e+00 1.148438e+00
5.551953e+01 3.697917e-01 -6.151832e-02 5.963063e-01 -1.800781e+00 1.148438e+00
5.551953e+01 3.697917e-01 -6.151832e-02 5.963063e-01 -1.800781e+00 1.148438e+00
5.551953e+01 3.697917e-01 -6.151832e-02 5.963063e-01 -1.800781e+00 1.148438e+00
5.551953e+01 3.697917e-01 -6.151832e-02 5.963063e-01 -1.800781e+00 1.148438e+00
5.551953e+01 3.697917e-01 -6.151832e-02 5.963063e-01 -1.800781e+00 1.148438e+00
5.551953e+01 3.697917e-01 -6.151832e-02 5.963063e-01 -1.800781e+00 1.148438e+00
5.551953e+01 3.697917e-01 -6.151832e-02 5.963063e-01 -1.800781e+00 1.148438e+00
5.551953e+01 3.697917e-01 -6.151832e-02 5.963063e-01 -1.800781e+00 1.148438e+00
5.551953e+01 3.697917e-01 -6.151832e-02 5.963063e-01 -1.800781e+00 1.148438e+00
5.551953e+01 3.697917e-01 -6.151832e-02 5.963063e-01 -1.800781e+00 1.148438e+00
5.551953e+01 3.697917e-01 -6.151832e-02 5.963063e-01 -1.800781e+00 1.148438e+00
5.551953e+01 3.697917e-01 -6.151832e-02 5.963063e-01 -1.800781e+00 1.148438e+00
5.551953e+01 3.697917e-01 -6.151832e-02 5.963063e-01 -1.800781e+00 1.148438e+00
5.551953e+01 3.697917e-01 -6.151832e-02 5.963063e-01 -1.800781e+00 1.148438e+00
5.551953e+01 3.697917e-01 -6.151832e-02 5.963063e-01 -1.800781e+00 1.148438e+00
5.551953e+01 3.697917e-01 -6.151832e-02 5.963063e-01 -1.800781e+00 1.148438e+00
5.551953e+01 3.697917e-01 -6.151832e-02 5.963063e-01 -1.800781e+00 1.148438e+00
5.551953e+01 3.697917e-01 -6.151832e-02 5.963063e-01 -1.800781e+00 1.148438e+00
5.548047e+01 3.697917e-01 -6.157968e-02 5.964001e-01 -1.800781e+00 1.148438e+00
5.501562e+01 3.697917e-01 -6.180465e-02 5.966637e-01 -1.800781e+00 1.144531e+00
5.501562e+01 3.697917e-01 -6.180465e-02 5.966637e-01 -1.800781e+00 1.144531e+00
5.507031e+01 3.697917e-01 -6.160013e-02 5.967322e-01 -1.796875e+00 1.144531e+00
5.541406e+01 3.697917e-01 -6.192736e-02 5.970204e-01 -1.781250e+00 1.136719e+00
5.551172e+01 3.697917e-01 -6.152855e-02 5.971271e-01 -1.785156e+00 1.136719e+00
5.551172e+01 3.697917e-01 -6.129336e-02 5.971597e-01 -1.785156e+00 1.136719e+00
5.620312e+01 3.697917e-01 -6.137516e-02 5.972201e-01 -1.785156e+00 1.136719e+00
5.596484e+01 3.697917e-01 -6.329761e-02 5.976013e-01 -1.757812e+00 1.125000e+00
5.522656e+01 3.697917e-01 -6.294993e-02 5.976758e-01 -1.757812e+00 1.125000e+00
5.522656e+01 3.697917e-01 -6.294993e-02 5.976758e-01 -1.757812e+00 1.125000e+00
5.522656e+01 3.697917e-01 -6.294993e-02 5.976758e-01 -1.757812e+00 1.125000e+00
5.633594e+01 3.697917e-01 -6.293971e-02 5.979632e-01 -1.757812e+00 1.125000e+00
5.633594e+01 3.697917e-01 -6.292948e-02 5.982504e-01 -1.757812e+00 1.113281e+00
5.633594e+01 3.697917e-01 -6.292948e-02 5.982504e-01 -1.757812e+00 1.113281e+00
5.633594e+01 3.697917e-01 -6.292948e-02 5.982504e-01 -1.757812e+00 1.113281e+00
5.584375e+01 3.697917e-01 -6.309310e-02 5.985429e-01 -1.753906e+00 1.109375e+00
5.584375e+01 3.697917e-01 -6.309310e-02 5.985429e-01 -1.753906e+00 1.109375e+00
5.584375e+01 3.697917e-01 -6.309310e-02 5.985429e-01 -1.753906e+00 1.109375e+00
5.543750e+01 3.697917e-01 -6.560864e-02 5.988673e-01 -1.742188e+00 1.097656e+00
5.614062e+01 3.697917e-01 -6.540412e-02 5.988324e-01 -1.742188e+00 1.097656e+00
5.592578e+01 3.697917e-01 -6.517916e-02 5.991488e-01 -1.742188e+00 1.093750e+00
5.592578e+01 3.697917e-01 -6.517916e-02 5.991488e-01 -1.742188e+00 1.093750e+00
5.592578e+01 3.697917e-01 -6.517916e-02 5.991488e-01 -1.742188e+00 1.093750e+00
5.592578e+01 3.697917e-01 -6.517916e-02 5.991488e-01 -1.742188e+00 1.093750e+00
5.592578e+01 3.697917e-01 -6.517916e-02 5.991488e-01 -1.742188e+00 1.093750e+00
5.592578e+01 3.697917e-01 -6.517916e-02 5.991488e-01 -1.742188e+00 1.093750e+00
5.592578e+01 3.697917e-01 -6.517916e-02 5.991488e-01 -1.742188e+00 1.093750e+00
5.592578e+01 3.697917e-01 -6.517916e-02 5.991488e-01 -1.742188e+00 1.093750e+00
5.592578e+01 3.697917e-01 -6.517916e-02 5.991488e-01 -1.742188e+00 1.093750e+00
5.592578e+01 3.697917e-01 -6.517916e-02 5.991488e-01 -1.742188e+00 1.093750e+00
5.592578e+01 3.697917e-01 -6.517916e-02 5.991488e-01 -1.742188e+00 1.093750e+00
5.592578e+01 3.697917e-01 -6.517916e-02 5.991488e-01 -1.742188e+00 1.093750e+00
5.505859e+01 3.697917e-01 -6.509735e-02 5.991873e-01 -1.742188e+00 1.093750e+00
5.505859e+01 3.697917e-01 -6.509735e-02 5.991873e-01 -1.742188e+00 1.093750e+00
5.505859e+01 3.697917e-01 -6.509735e-02 5.991873e-01 -1.742188e+00 1.093750e+00
5.505859e+01 3.697917e-01 -6.509735e-02 5.991873e-01 -1.742188e+00 1.093750e+00
5.505859e+01 3.697917e-01 -6.509735e-02 5.991873e-01 -1.742188e+00 1.093750e+00
5.505859e+01 3.697917e-01 -6.509735e-02 5.991873e-01 -1.742188e+00 1.093750e+00
5.505859e+01 3.697917e-01 -6.509735e-02 5.991873e-01 -1.742188e+00 1.093750e+00
5.505859e+01 3.697917e-01 -6.509735e-02 5.991873e-01 -1.742188e+00 1.093750e+00
5.505859e+01 3.697917e-01 -6.509735e-02 5.991873e-01 -1.742188e+00 1.093750e+00
5.590234e+01 3.697917e-01 -6.510758e-02 5.991761e-01 -1.742188e+00 1.093750e+00
5.590234e+01 3.697917e-01 -6.511780e-02 5.991649e-01 -1.742188e+00 1.093750e+00
5.590234e+01 3.697917e-01 -6.511780e-02 5.991649e-01 -1.742188e+00 1.093750e+00
5.590234e+01 3.697917e-01 -6.511780e-02 5.991649e-01 -1.742188e+00 1.093750e+00
5.590234e+01 3.697917e-01 -6.511780e-02 5.991649e-01 -1.742188e+00 1.093750e+00
5.590234e+01 3.697917e-01 -6.511780e-02 5.991649e-01 -1.742188e+00 1.093750e+00
5.590234e+01 3.697917e-01 -6.511780e-02 5.991649e-01 -1.742188e+00 1.093750e+00
5.590234e+01 3.697917e-01 -6.511780e-02 5.991649e-01 -1.742188e+00 1.093750e+00
5.590234e+01 3.697917e-01 -6.511780e-02 5.991649e-01 -1.742188e+00 1.093750e+00
5.590234e+01 3.697917e-01 -6.511780e-02 5.991649e-01 -1.742188e+00 1.093750e+00
5.590234e+01 3.697917e-01 -6.511780e-02 5.991649e-01 -1.742188e+00 1.093750e+00
5.590234e+01 3.697917e-01 -6.511780e-02 5.991649e-01 -1.742188e+00 1.093750e+00
5.590234e+01 3.697917e-01 -6.511780e-02 5.991649e-01 -1.742188e+00 1.093750e+00
5.590234e+01 3.697917e-01 -6.511780e-02 5.991649e-01 -1.742188e+00 1.093750e+00
5.590234e+01 3.697917e-01 -6.511780e-02 5.991649e-01 -1.742188e+00 1.093750e+00
5.590234e+01 3.697917e-01 -6.511780e-02 5.991649e-01 -1.742188e+00 1.093750e+00
5.590234e+01 3.697917e-01 -6.511780e-02 5.991649e-01 -1.742188e+00 1.093750e+00
5.590234e+01 3.697917e-01 -6.511780e-02 5.991649e-01 -1.742188e+00 1.093750e+00
5.590234e+01 3.697917e-01 -6.511780e-02 5.991649e-01 -1.742188e+00 1.093750e+00
5.590234e+01 3.697917e-01 -6.511780e-02 5.991649e-01 -1.742188e+00 1.093750e+00
5.590234e+01 3.697917e-01 -6.511780e-02 5.991649e-01 -1.742188e+00 1.093750e+00
5.590234e+01 3.697917e-01 -6.511780e-02 5.991649e-01 -1.742188e+00 1.093750e+00
5.590234e+01 3.697917e-01 -6.511780e-02 5.991649e-01 -1.742188e+00 1.093750e+00
5.590234e+01 3.697917e-01 -6.511780e-02 5.991649e-01 -1.742188e+00 1.093750e+00
5.599219e+01 3.697917e-01 -6.508712e-02 5.993313e-01 -1.742188e+00 1.093750e+00
5.949609e+01 3.697917e-01 -6.415658e-02 6.032542e-01 -1.769531e+00 1.125000e+00
5.949609e+01 3.697917e-01 -6.415658e-02 6.032542e-01 -1.769531e+00 1.125000e+00
5.541406e+01 3.697917e-01 -6.587451e-02 6.041787e-01 -1.769531e+00 1.136719e+00
5.515625e+01 3.697917e-01 -6.796057e-02 6.052621e-01 -1.730469e+00 1.140625e+00
5.515625e+01 3.697917e-01 -6.832870e-02 6.054271e-01 -1.730469e+00 1.140625e+00
5.515625e+01 3.697917e-01 -6.832870e-02 6.054271e-01 -1.730469e+00 1.140625e+00
5.586328e+01 3.697917e-01 -6.818554e-02 6.054681e-01 -1.734375e+00 1.140625e+00
5.586328e+01 3.697917e-01 -6.818554e-02 6.054681e-01 -1.734375e+00 1.140625e+00
5.586328e+01 3.697917e-01 -6.818554e-02 6.054681e-01 -1.734375e+00 1.140625e+00
5.586328e+01 3.697917e-01 -6.818554e-02 6.054681e-01 -1.734375e+00 1.140625e+00
5.586328e+01 3.697917e-01 -6.818554e-02 6.054681e-01 -1.734375e+00 1.140625e+00
5.586328e+01 3.697917e-01 -6.818554e-02 6.054681e-01 -1.734375e+00 1.140625e+00
5.586328e+01 3.697917e-01 -6.818554e-02 6.054681e-01 -1.734375e+00 1.140625e+00
5.586328e+01 3.697917e-01 -6.818554e-02 6.054681e-01 -1.734375e+00 1.140625e+00
5.618359e+01 3.697917e-01 -6.788899e-02 6.062467e-01 -1.734375e+00 1.140625e+00
5.618359e+01 3.697917e-01 -6.759244e-02 6.070242e-01 -1.722656e+00 1.140625e+00
5.618359e+01 3.697917e-01 -6.759244e-02 6.070242e-01 -1.722656e+00 1.140625e+00
5.618359e+01 3.697917e-01 -6.759244e-02 6.070242e-01 -1.722656e+00 1.140625e+00
5.618359e+01 3.697917e-01 -6.759244e-02 6.070242e-01 -1.722656e+00 1.140625e+00
5.618359e+01 3.697917e-01 -6.759244e-02 6.070242e-01 -1.722656e+00 1.140625e+00
5.618359e+01 3.697917e-01 -6.759244e-02 6.070242e-01 -1.722656e+00 1.140625e+00
5.618359e+01 3.697917e-01 -6.759244e-02 6.070242e-01 -1.722656e+00 1.140625e+00
5.618359e+01 3.697917e-01 -6.759244e-02 6.070242e-01 -1.722656e+00 1.140625e+00
5.618359e+01 3.697917e-01 -6.759244e-02 6.070242e-01 -1.722656e+00 1.140625e+00
5.683984e+01 3.697917e-01 -6.887066e-02 6.075822e-01 -1.734375e+00 1.144531e+00
5.624219e+01 3.697917e-01 -6.883999e-02 6.083349e-01 -1.691406e+00 1.144531e+00
5.473438e+01 3.697917e-01 -6.994437e-02 6.082371e-01 -1.710938e+00 1.148438e+00
5.473438e+01 3.697917e-01 -6.994437e-02 6.082371e-01 -1.710938e+00 1.148438e+00
5.473438e+01 3.697917e-01 -6.994437e-02 6.082371e-01 -1.710938e+00 1.148438e+00
5.473438e+01 3.697917e-01 -6.994437e-02 6.082371e-01 -1.710938e+00 1.148438e+00
5.473438e+01 3.697917e-01 -6.994437e-02 6.082371e-01 -1.710938e+00 1.148438e+00
5.473438e+01 3.697917e-01 -6.994437e-02 6.082371e-01 -1.710938e+00 1.148438e+00
5.473438e+01 3.697917e-01 -6.994437e-02 6.082371e-01 -1.710938e+00 1.148438e+00
5.473438e+01 3.697917e-01 -6.994437e-02 6.082371e-01 -1.710938e+00 1.148438e+00
5.473438e+01 3.697917e-01 -6.994437e-02 6.082371e-01 -1.710938e+00 1.148438e+00
5.473438e+01 3.697917e-01 -6.994437e-02 6.082371e-01 -1.710938e+00 1.148438e+00
5.473438e+01 3.697917e-01 -6.994437e-02 6.082371e-01 -1.710938e+00 1.148438e+00
5.473438e+01 3.697917e-01 -6.994437e-02 6.082371e-01 -1.710938e+00 1.148438e+00
5.473438e+01 3.697917e-01 -6.994437e-02 6.082371e-01 -1.710938e+00 1.148438e+00
5.473438e+01 3.697917e-01 -6.994437e-02 6.082371e-01 -1.710938e+00 1.148438e+00
5.662500e+01 3.697917e-01 -7.004663e-02 6.086508e-01 -1.718750e+00 1.152344e+00
5.662500e+01 3.697917e-01 -7.004663e-02 6.086508e-01 -1.718750e+00 1.152344e+00
5.575781e+01 3.697917e-01 -7.108966e-02 6.089571e-01 -1.707031e+00 1.152344e+00
5.575781e+01 3.697917e-01 -7.108966e-02 6.089571e-01 -1.707031e+00 1.152344e+00
5.575781e+01 3.697917e-01 -7.108966e-02 6.089571e-01 -1.707031e+00 1.152344e+00
5.935938e+01 3.697917e-01 -7.162140e-02 6.098120e-01 -1.726562e+00 1.160156e+00
5.551953e+01 3.697917e-01 -7.256217e-02 6.099867e-01 -1.691406e+00 1.160156e+00
5.612500e+01 3.697917e-01 -7.280759e-02 6.102970e-01 -1.695312e+00 1.164062e+00
5.616016e+01 3.697917e-01 -7.278714e-02 6.102935e-01 -1.695312e+00 1.164062e+00
5.616016e+01 3.697917e-01 -7.278714e-02 6.102935e-01 -1.695312e+00 1.164062e+00
5.616016e+01 3.697917e-01 -7.278714e-02 6.102935e-01 -1.695312e+00 1.164062e+00
5.616016e+01 3.697917e-01 -7.278714e-02 6.102935e-01 -1.695312e+00 1.164062e+00
5.616016e+01 3.697917e-01 -7.278714e-02 6.102935e-01 -1.695312e+00 1.164062e+00
5.616016e+01 3.697917e-01 -7.278714e-02 6.102935e-01 -1.695312e+00 1.164062e+00
5.478516e+01 3.697917e-01 -7.452552e-02 6.111164e-01 -1.675781e+00 1.160156e+00
5.478516e+01 3.697917e-01 -7.452552e-02 6.111164e-01 -1.675781e+00 1.160156e+00
5.478516e+01 3.697917e-01 -7.452552e-02 6.111164e-01 -1.675781e+00 1.160156e+00
5.478516e+01 3.697917e-01 -7.452552e-02 6.111164e-01 -1.675781e+00 1.160156e+00
5.478516e+01 3.697917e-01 -7.452552e-02 6.111164e-01 -1.675781e+00 1.160156e+00
5.478516e+01 3.697917e-01 -7.452552e-02 6.111164e-01 -1.675781e+00 1.160156e+00
5.617188e+01 3.697917e-01 -7.516975e-02 6.112447e-01 -1.691406e+00 1.167969e+00
5.563672e+01 3.697917e-01 -7.575262e-02 6.113409e-01 -1.691406e+00 1.167969e+00
5.563672e+01 3.697917e-01 -7.575262e-02 6.113164e-01 -1.691406e+00 1.167969e+00
5.563672e+01 3.697917e-01 -7.575262e-02 6.113164e-01 -1.691406e+00 1.167969e+00
5.563672e+01 3.697917e-01 -7.575262e-02 6.113164e-01 -1.691406e+00 1.167969e+00
5.563672e+01 3.697917e-01 -7.575262e-02 6.113164e-01 -1.691406e+00 1.167969e+00
5.563672e+01 3.697917e-01 -7.575262e-02 6.113164e-01 -1.691406e+00 1.167969e+00
5.563672e+01 3.697917e-01 -7.575262e-02 6.113164e-01 -1.691406e+00 1.167969e+00
5.967578e+01 3.697917e-01 -7.626391e-02 6.128187e-01 -1.718750e+00 1.179688e+00
5.541406e+01 3.697917e-01 -7.732739e-02 6.129783e-01 -1.718750e+00 1.179688e+00
5.589844e+01 3.697917e-01 -7.846245e-02 6.131458e-01 -1.683594e+00 1.179688e+00
5.605078e+01 3.697917e-01 -7.824771e-02 6.132425e-01 -1.683594e+00 1.179688e+00
5.526172e+01 3.697917e-01 -8.066099e-02 6.143652e-01 -1.667969e+00 1.179688e+00
5.520312e+01 3.697917e-01 -8.075303e-02 6.142696e-01 -1.675781e+00 1.183594e+00
5.520312e+01 3.697917e-01 -8.084506e-02 6.141740e-01 -1.675781e+00 1.183594e+00
5.533594e+01 3.697917e-01 -8.082461e-02 6.143413e-01 -1.679688e+00 1.183594e+00
5.533594e+01 3.697917e-01 -8.082461e-02 6.143413e-01 -1.679688e+00 1.183594e+00
5.533594e+01 3.697917e-01 -8.082461e-02 6.143413e-01 -1.679688e+00 1.183594e+00
5.653516e+01 3.697917e-01 -8.082461e-02 6.143913e-01 -1.679688e+00 1.183594e+00
5.653516e+01 3.697917e-01 -8.082461e-02 6.144412e-01 -1.679688e+00 1.183594e+00
5.653516e+01 3.697917e-01 -8.082461e-02 6.144412e-01 -1.679688e+00 1.183594e+00
5.653516e+01 3.697917e-01 -8.082461e-02 6.144412e-01 -1.679688e+00 1.183594e+00
5.653516e+01 3.697917e-01 -8.082461e-02 6.144412e-01 -1.679688e+00 1.183594e+00
5.653516e+01 3.697917e-01 -8.082461e-02 6.144412e-01 -1.679688e+00 1.183594e+00
5.653516e+01 3.697917e-01 -8.082461e-02 6.144412e-01 -1.679688e+00 1.183594e+00
5.607031e+01 3.697917e-01 -8.098822e-02 6.145649e-01 -1.679688e+00 1.183594e+00
5.607031e+01 3.697917e-01 -8.115183e-02 6.146885e-01 -1.679688e+00 1.183594e+00
5.554297e+01 3.697917e-01 -8.137680e-02 6.147759e-01 -1.683594e+00 1.183594e+00
5.554297e+01 3.697917e-01 -8.137680e-02 6.147759e-01 -1.683594e+00 1.183594e+00
5.554297e+01 3.697917e-01 -8.137680e-02 6.147759e-01 -1.683594e+00 1.183594e+00
5.554297e+01 3.697917e-01 -8.137680e-02 6.147759e-01 -1.683594e+00 1.183594e+00
5.554297e+01 3.697917e-01 -8.137680e-02 6.147759e-01 -1.683594e+00 1.183594e+00
5.554297e+01 3.697917e-01 -8.137680e-02 6.147759e-01 -1.683594e+00 1.183594e+00
5.554297e+01 3.697917e-01 -8.137680e-02 6.147759e-01 -1.683594e+00 1.183594e+00
5.491016e+01 3.697917e-01 -8.419912e-02 6.151673e-01 -1.683594e+00 1.187500e+00
5.546094e+01 3.697917e-01 -8.494560e-02 6.154846e-01 -1.691406e+00 1.191406e+00
5.546094e+01 3.697917e-01 -8.513989e-02 6.158122e-01 -1.691406e+00 1.191406e+00
5.546094e+01 3.697917e-01 -8.513989e-02 6.158122e-01 -1.691406e+00 1.191406e+00
5.546094e+01 3.697917e-01 -8.513989e-02 6.158122e-01 -1.691406e+00 1.191406e+00
5.546094e+01 3.697917e-01 -8.513989e-02 6.158122e-01 -1.691406e+00 1.191406e+00
5.546094e+01 3.697917e-01 -8.513989e-02 6.158122e-01 -1.691406e+00 1.191406e+00
5.566016e+01 3.697917e-01 -8.618292e-02 6.164574e-01 -1.691406e+00 1.195312e+00
5.566016e+01 3.697917e-01 -8.696008e-02 6.168367e-01 -1.691406e+00 1.195312e+00
5.566016e+01 3.697917e-01 -8.696008e-02 6.168367e-01 -1.691406e+00 1.195312e+00
5.566016e+01 3.697917e-01 -8.696008e-02 6.168367e-01 -1.691406e+00 1.195312e+00
5.566016e+01 3.697917e-01 -8.696008e-02 6.168367e-01 -1.691406e+00 1.195312e+00
5.566016e+01 3.697917e-01 -8.696008e-02 6.168367e-01 -1.691406e+00 1.195312e+00
5.566016e+01 3.697917e-01 -8.696008e-02 6.168367e-01 -1.691406e+00 1.195312e+00
5.566016e+01 3.697917e-01 -8.696008e-02 6.168367e-01 -1.691406e+00 1.195312e+00
5.476172e+01 3.697917e-01 -8.763498e-02 6.171970e-01 -1.695312e+00 1.199219e+00
5.476172e+01 3.697917e-01 -8.763498e-02 6.171970e-01 -1.695312e+00 1.199219e+00
5.476172e+01 3.697917e-01 -8.763498e-02 6.171970e-01 -1.695312e+00 1.199219e+00
5.476172e+01 3.697917e-01 -8.763498e-02 6.171970e-01 -1.695312e+00 1.199219e+00
5.476172e+01 3.697917e-01 -8.763498e-02 6.171970e-01 -1.695312e+00 1.199219e+00
5.476172e+01 3.697917e-01 -8.759408e-02 6.172286e-01 -1.695312e+00 1.199219e+00
5.476172e+01 3.697917e-01 -8.759408e-02 6.172286e-01 -1.695312e+00 1.199219e+00
5.476172e+01 3.697917e-01 -8.759408e-02 6.172286e-01 -1.695312e+00 1.199219e+00
5.504688e+01 3.697917e-01 -8.773724e-02 6.173390e-01 -1.695312e+00 1.199219e+00
5.471875e+01 3.697917e-01 -8.763498e-02 6.173711e-01 -1.695312e+00 1.199219e+00
5.599219e+01 3.697917e-01 -8.796221e-02 6.176144e-01 -1.699219e+00 1.203125e+00
5.599219e+01 3.697917e-01 -8.828943e-02 6.178575e-01 -1.699219e+00 1.203125e+00
5.599219e+01 3.697917e-01 -8.828943e-02 6.178575e-01 -1.699219e+00 1.203125e+00
5.599219e+01 3.697917e-01 -8.828943e-02 6.178575e-01 -1.699219e+00 1.203125e+00
5.599219e+01 3.697917e-01 -8.828943e-02 6.178575e-01 -1.699219e+00 1.203125e+00
5.512891e+01 3.697917e-01 -9.183778e-02 6.200974e-01 -1.703125e+00 1.210938e+00
5.472656e+01 3.697917e-01 -8.974149e-02 6.193083e-01 -1.695312e+00 1.214844e+00
5.472656e+01 3.697917e-01 -8.792130e-02 6.192898e-01 -1.691406e+00 1.214844e+00
5.391406e+01 3.697917e-01 -8.815650e-02 6.193799e-01 -1.699219e+00 1.214844e+00
5.969531e+01 3.697917e-01 -9.972186e-02 6.310833e-01 -1.878906e+00 1.445312e+00
5.746875e+01 3.697917e-01 -1.112770e-01 6.421463e-01 -1.878906e+00 1.445312e+00
5.565625e+01 3.697917e-01 -1.120337e-01 6.423792e-01 -1.828125e+00 1.292969e+00
5.626172e+01 3.697917e-01 -1.121666e-01 6.428192e-01 -1.859375e+00 1.363281e+00
5.651953e+01 3.697917e-01 -1.121973e-01 6.433173e-01 -1.863281e+00 1.359375e+00
5.655469e+01 3.697917e-01 -1.123303e-01 6.433127e-01 -1.867188e+00 1.359375e+00
5.655469e+01 3.697917e-01 -1.124632e-01 6.433081e-01 -1.867188e+00 1.351562e+00
5.655469e+01 3.697917e-01 -1.124632e-01 6.433081e-01 -1.867188e+00 1.351562e+00
5.655469e+01 3.697917e-01 -1.124632e-01 6.433081e-01 -1.867188e+00 1.351562e+00
5.655469e+01 3.697917e-01 -1.124632e-01 6.433081e-01 -1.867188e+00 1.351562e+00
5.655469e+01 3.697917e-01 -1.124632e-01 6.433081e-01 -1.867188e+00 1.351562e+00
5.655469e+01 3.697917e-01 -1.124632e-01 6.433081e-01 -1.867188e+00 1.351562e+00
5.655469e+01 3.697917e-01 -1.124632e-01 6.433081e-01 -1.867188e+00 1.351562e+00
5.655469e+01 3.697917e-01 -1.124632e-01 6.433081e-01 -1.867188e+00 1.351562e+00
5.655469e+01 3.697917e-01 -1.124632e-01 6.433081e-01 -1.867188e+00 1.351562e+00
5.650781e+01 3.697917e-01 -1.127495e-01 6.432849e-01 -1.871094e+00 1.343750e+00
5.650781e+01 3.697917e-01 -1.127495e-01 6.432849e-01 -1.871094e+00 1.343750e+00
5.650781e+01 3.697917e-01 -1.127495e-01 6.432849e-01 -1.871094e+00 1.343750e+00
5.674219e+01 3.697917e-01 -1.128313e-01 6.432280e-01 -1.871094e+00 1.339844e+00
5.674219e+01 3.697917e-01 -1.128313e-01 6.432280e-01 -1.871094e+00 1.339844e+00
5.674219e+01 3.697917e-01 -1.128313e-01 6.432280e-01 -1.871094e+00 1.339844e+00
5.674219e+01 3.697917e-01 -1.128313e-01 6.432280e-01 -1.871094e+00 1.339844e+00
5.674219e+01 3.697917e-01 -1.128313e-01 6.432280e-01 -1.871094e+00 1.339844e+00
5.674219e+01 3.697917e-01 -1.128313e-01 6.432280e-01 -1.871094e+00 1.339844e+00
5.674219e+01 3.697917e-01 -1.128313e-01 6.432280e-01 -1.871094e+00 1.339844e+00
5.674219e+01 3.697917e-01 -1.128313e-01 6.432280e-01 -1.871094e+00 1.339844e+00
5.674219e+01 3.697917e-01 -1.128313e-01 6.432280e-01 -1.871094e+00 1.339844e+00
5.674219e+01 3.697917e-01 -1.128313e-01 6.432280e-01 -1.871094e+00 1.339844e+00
5.674219e+01 3.697917e-01 -1.128313e-01 6.432280e-01 -1.871094e+00 1.339844e+00
5.674219e+01 3.697917e-01 -1.128313e-01 6.432280e-01 -1.871094e+00 1.339844e+00
5.617578e+01 3.697917e-01 -1.143038e-01 6.433559e-01 -1.863281e+00 1.242188e+00
5.544922e+01 3.697917e-01 -1.141811e-01 6.434548e-01 -1.871094e+00 1.265625e+00
5.544922e+01 3.697917e-01 -1.141811e-01 6.434548e-01 -1.871094e+00 1.265625e+00
5.544922e+01 3.697917e-01 -1.141811e-01 6.434548e-01 -1.871094e+00 1.265625e+00
5.548438e+01 3.697917e-01 -1.141811e-01 6.434692e-01 -1.875000e+00 1.273438e+00
5.548438e+01 3.697917e-01 -1.141811e-01 6.434692e-01 -1.875000e+00 1.273438e+00
5.548438e+01 3.697917e-01 -1.141811e-01 6.434692e-01 -1.875000e+00 1.273438e+00
5.548438e+01 3.697917e-01 -1.141811e-01 6.434692e-01 -1.875000e+00 1.273438e+00
5.548438e+01 3.697917e-01 -1.141811e-01 6.434692e-01 -1.875000e+00 1.273438e+00
5.548438e+01 3.697917e-01 -1.141811e-01 6.434692e-01 -1.875000e+00 1.273438e+00
5.548438e+01 3.697917e-01 -1.141811e-01 6.434692e-01 -1.875000e+00 1.273438e+00
5.548438e+01 3.697917e-01 -1.141811e-01 6.434692e-01 -1.875000e+00 1.273438e+00
5.548438e+01 3.697917e-01 -1.141811e-01 6.434692e-01 -1.875000e+00 1.273438e+00
5.548438e+01 3.697917e-01 -1.141811e-01 6.434692e-01 -1.875000e+00 1.273438e+00
5.548438e+01 3.697917e-01 -1.141811e-01 6.434692e-01 -1.875000e+00 1.273438e+00
5.548438e+01 3.697917e-01 -1.141811e-01 6.434692e-01 -1.875000e+00 1.273438e+00
5.895703e+01 3.697917e-01 -1.172898e-01 6.441879e-01 -1.878906e+00 1.343750e+00
5.535547e+01 3.697917e-01 -1.219936e-01 6.492441e-01 -1.855469e+00 1.347656e+00
5.641016e+01 3.697917e-01 -1.243762e-01 6.491555e-01 -1.878906e+00 1.363281e+00
5.641016e+01 3.697917e-01 -1.261453e-01 6.488551e-01 -1.878906e+00 1.312500e+00
5.641016e+01 3.697917e-01 -1.261453e-01 6.488551e-01 -1.878906e+00 1.312500e+00
5.905469e+01 3.697917e-01 -1.300515e-01 6.510343e-01 -1.917969e+00 1.429688e+00
5.641406e+01 3.697917e-01 -1.347043e-01 6.523889e-01 -1.917969e+00 1.429688e+00
5.641406e+01 3.697917e-01 -1.353485e-01 6.522023e-01 -1.894531e+00 1.335938e+00
5.635547e+01 3.697917e-01 -1.354917e-01 6.523376e-01 -1.898438e+00 1.339844e+00
5.635547e+01 3.697917e-01 -1.354917e-01 6.523376e-01 -1.898438e+00 1.339844e+00
5.635547e+01 3.697917e-01 -1.354917e-01 6.523376e-01 -1.898438e+00 1.339844e+00
5.635547e+01 3.697917e-01 -1.354917e-01 6.523376e-01 -1.898438e+00 1.339844e+00
5.635547e+01 3.697917e-01 -1.354917e-01 6.523376e-01 -1.898438e+00 1.339844e+00
5.635547e+01 3.697917e-01 -1.354917e-01 6.523376e-01 -1.898438e+00 1.339844e+00
5.617969e+01 3.697917e-01 -1.369642e-01 6.524154e-01 -1.898438e+00 1.296875e+00
5.617969e+01 3.697917e-01 -1.369642e-01 6.524154e-01 -1.898438e+00 1.296875e+00
5.636719e+01 3.697917e-01 -1.398683e-01 6.529540e-01 -1.917969e+00 1.253906e+00
5.635547e+01 3.697917e-01 -1.396945e-01 6.530297e-01 -1.917969e+00 1.269531e+00
5.525000e+01 3.697917e-01 -1.382731e-01 6.535936e-01 -1.910156e+00 1.253906e+00
5.547266e+01 3.697917e-01 -1.384265e-01 6.535913e-01 -1.910156e+00 1.265625e+00
5.541016e+01 3.697917e-01 -1.387844e-01 6.536742e-01 -1.914062e+00 1.273438e+00
5.541016e+01 3.697917e-01 -1.387844e-01 6.536742e-01 -1.914062e+00 1.273438e+00
5.541016e+01 3.697917e-01 -1.387844e-01 6.536742e-01 -1.914062e+00 1.273438e+00
5.525000e+01 3.697917e-01 -1.389071e-01 6.537951e-01 -1.914062e+00 1.281250e+00
5.483203e+01 3.697917e-01 -1.401342e-01 6.535918e-01 -1.921875e+00 1.269531e+00
5.483203e+01 3.697917e-01 -1.401342e-01 6.535918e-01 -1.921875e+00 1.269531e+00
5.483203e+01 3.697917e-01 -1.401342e-01 6.535918e-01 -1.921875e+00 1.269531e+00
5.483203e+01 3.697917e-01 -1.401342e-01 6.535918e-01 -1.921875e+00 1.269531e+00
5.483203e+01 3.697917e-01 -1.401342e-01 6.535918e-01 -1.921875e+00 1.269531e+00
5.483203e+01 3.697917e-01 -1.401342e-01 6.535918e-01 -1.921875e+00 1.269531e+00
5.483203e+01 3.697917e-01 -1.401342e-01 6.535918e-01 -1.921875e+00 1.269531e+00
5.483203e+01 3.697917e-01 -1.401342e-01 6.535918e-01 -1.921875e+00 1.269531e+00
5.483203e+01 3.697917e-01 -1.401342e-01 6.535918e-01 -1.921875e+00 1.269531e+00
5.483203e+01 3.697917e-01 -1.401342e-01 6.535918e-01 -1.921875e+00 1.269531e+00
5.483203e+01 3.697917e-01 -1.401342e-01 6.535918e-01 -1.921875e+00 1.269531e+00
5.483203e+01 3.697917e-01 -1.401342e-01 6.535918e-01 -1.921875e+00 1.269531e+00
5.483203e+01 3.697917e-01 -1.401342e-01 6.535918e-01 -1.921875e+00 1.269531e+00
5.483203e+01 3.697917e-01 -1.401342e-01 6.535918e-01 -1.921875e+00 1.269531e+00
5.483203e+01 3.697917e-01 -1.401342e-01 6.535918e-01 -1.921875e+00 1.269531e+00
5.483203e+01 3.697917e-01 -1.401342e-01 6.535918e-01 -1.921875e+00 1.269531e+00
5.483203e+01 3.697917e-01 -1.401342e-01 6.535918e-01 -1.921875e+00 1.269531e+00
5.483203e+01 3.697917e-01 -1.401342e-01 6.535918e-01 -1.921875e+00 1.269531e+00
5.483203e+01 3.697917e-01 -1.401342e-01 6.535918e-01 -1.921875e+00 1.269531e+00
5.483203e+01 3.697917e-01 -1.401342e-01 6.535918e-01 -1.921875e+00 1.269531e+00
5.483203e+01 3.697917e-01 -1.401342e-01 6.535918e-01 -1.921875e+00 1.269531e+00
5.444922e+01 3.697917e-01 -1.409522e-01 6.540787e-01 -1.929688e+00 1.265625e+00
5.444922e+01 3.697917e-01 -1.409522e-01 6.540787e-01 -1.929688e+00 1.265625e+00
5.436719e+01 3.697917e-01 -1.409318e-01 6.541227e-01 -1.929688e+00 1.269531e+00
5.436719e+01 3.697917e-01 -1.409318e-01 6.541227e-01 -1.929688e+00 1.269531e+00
5.436719e+01 3.697917e-01 -1.409318e-01 6.541227e-01 -1.929688e+00 1.269531e+00
5.436719e+01 3.697917e-01 -1.409318e-01 6.541227e-01 -1.929688e+00 1.269531e+00
5.436719e+01 3.697917e-01 -1.409318e-01 6.541227e-01 -1.929688e+00 1.269531e+00
5.436719e+01 3.697917e-01 -1.409318e-01 6.541227e-01 -1.929688e+00 1.269531e+00
5.436719e+01 3.697917e-01 -1.409318e-01 6.541227e-01 -1.929688e+00 1.269531e+00
5.436719e+01 3.697917e-01 -1.409318e-01 6.541227e-01 -1.929688e+00 1.269531e+00
5.436719e+01 3.697917e-01 -1.409318e-01 6.541227e-01 -1.929688e+00 1.269531e+00
5.436719e+01 3.697917e-01 -1.409318e-01 6.541227e-01 -1.929688e+00 1.269531e+00
5.436719e+01 3.697917e-01 -1.409318e-01 6.541227e-01 -1.929688e+00 1.269531e+00
5.436719e+01 3.697917e-01 -1.409318e-01 6.541227e-01 -1.929688e+00 1.269531e+00
5.436719e+01 3.697917e-01 -1.409318e-01 6.541227e-01 -1.929688e+00 1.269531e+00
5.436719e+01 3.697917e-01 -1.409318e-01 6.541227e-01 -1.929688e+00 1.269531e+00
5.436719e+01 3.697917e-01 -1.409318e-01 6.541227e-01 -1.929688e+00 1.269531e+00
5.436719e+01 3.697917e-01 -1.409318e-01 6.541227e-01 -1.929688e+00 1.269531e+00
5.436719e+01 3.697917e-01 -1.409318e-01 6.541227e-01 -1.929688e+00 1.269531e+00
5.436719e+01 3.697917e-01 -1.409318e-01 6.541227e-01 -1.929688e+00 1.269531e+00
5.444922e+01 3.697917e-01 -1.409318e-01 6.541259e-01 -1.929688e+00 1.273438e+00
5.444922e+01 3.697917e-01 -1.409318e-01 6.541291e-01 -1.929688e+00 1.273438e+00
5.444922e+01 3.697917e-01 -1.409318e-01 6.541291e-01 -1.929688e+00 1.273438e+00
5.444922e+01 3.697917e-01 -1.409318e-01 6.541291e-01 -1.929688e+00 1.273438e+00
5.444922e+01 3.697917e-01 -1.409318e-01 6.541291e-01 -1.929688e+00 1.273438e+00
5.444922e+01 3.697917e-01 -1.409318e-01 6.541291e-01 -1.929688e+00 1.273438e+00
5.444922e+01 3.697917e-01 -1.409318e-01 6.541291e-01 -1.929688e+00 1.273438e+00
5.444922e+01 3.697917e-01 -1.409318e-01 6.541291e-01 -1.929688e+00 1.273438e+00
5.444922e+01 3.697917e-01 -1.409318e-01 6.541291e-01 -1.929688e+00 1.273438e+00
5.444922e+01 3.697917e-01 -1.409318e-01 6.541291e-01 -1.929688e+00 1.273438e+00
5.444922e+01 3.697917e-01 -1.409318e-01 6.541291e-01 -1.929688e+00 1.273438e+00
5.485156e+01 3.697917e-01 -1.427315e-01 6.551316e-01 -1.945312e+00 1.257812e+00
5.484375e+01 3.697917e-01 -1.430792e-01 6.552008e-01 -1.945312e+00 1.269531e+00
5.440625e+01 3.697917e-01 -1.430996e-01 6.553467e-01 -1.945312e+00 1.277344e+00
5.440625e+01 3.697917e-01 -1.430996e-01 6.553467e-01 -1.945312e+00 1.277344e+00
5.440625e+01 3.697917e-01 -1.430996e-01 6.553467e-01 -1.945312e+00 1.277344e+00
5.452344e+01 3.697917e-01 -1.432428e-01 6.554591e-01 -1.949219e+00 1.277344e+00
5.452344e+01 3.697917e-01 -1.432428e-01 6.554591e-01 -1.949219e+00 1.277344e+00
5.452344e+01 3.697917e-01 -1.432428e-01 6.554591e-01 -1.949219e+00 1.277344e+00
5.452344e+01 3.697917e-01 -1.432428e-01 6.554591e-01 -1.949219e+00 1.277344e+00
5.452344e+01 3.697917e-01 -1.432428e-01 6.554591e-01 -1.949219e+00 1.277344e+00
5.452344e+01 3.697917e-01 -1.432428e-01 6.554591e-01 -1.949219e+00 1.277344e+00
5.452344e+01 3.697917e-01 -1.432428e-01 6.554591e-01 -1.949219e+00 1.277344e+00
5.452344e+01 3.697917e-01 -1.432428e-01 6.554591e-01 -1.949219e+00 1.277344e+00
5.479297e+01 3.697917e-01 -1.463105e-01 6.572400e-01 -1.976562e+00 1.281250e+00
5.489453e+01 3.697917e-01 -1.466787e-01 6.572689e-01 -1.976562e+00 1.285156e+00
5.489453e+01 3.697917e-01 -1.466787e-01 6.572689e-01 -1.976562e+00 1.285156e+00
5.487109e+01 3.697917e-01 -1.467809e-01 6.573688e-01 -1.976562e+00 1.289062e+00
5.487109e+01 3.697917e-01 -1.467809e-01 6.573688e-01 -1.976562e+00 1.289062e+00
5.487109e+01 3.697917e-01 -1.467809e-01 6.573688e-01 -1.976562e+00 1.289062e+00
5.487109e+01 3.697917e-01 -1.467809e-01 6.573688e-01 -1.976562e+00 1.289062e+00
5.442578e+01 3.697917e-01 -1.479058e-01 6.578405e-01 -1.988281e+00 1.269531e+00
5.442578e+01 3.697917e-01 -1.480489e-01 6.578469e-01 -1.988281e+00 1.265625e+00
5.453906e+01 3.697917e-01 -1.481512e-01 6.579518e-01 -1.992188e+00 1.269531e+00
5.446875e+01 3.697917e-01 -1.483557e-01 6.581082e-01 -1.996094e+00 1.269531e+00
5.446875e+01 3.697917e-01 -1.484580e-01 6.581595e-01 -1.996094e+00 1.269531e+00
5.495703e+01 3.697917e-01 -1.486625e-01 6.584103e-01 -2.000000e+00 1.273438e+00
5.495703e+01 3.697917e-01 -1.486625e-01 6.584103e-01 -2.000000e+00 1.273438e+00
5.474219e+01 3.697917e-01 -1.494396e-01 6.589828e-01 -2.007812e+00 1.273438e+00
5.474219e+01 3.697917e-01 -1.494396e-01 6.589828e-01 -2.007812e+00 1.273438e+00
5.474219e+01 3.697917e-01 -1.494396e-01 6.589828e-01 -2.007812e+00 1.273438e+00
5.445312e+01 3.697917e-01 -1.501145e-01 6.596056e-01 -2.015625e+00 1.277344e+00
5.445312e+01 3.697917e-01 -1.501145e-01 6.596056e-01 -2.015625e+00 1.277344e+00
5.445312e+01 3.697917e-01 -1.501145e-01 6.596056e-01 -2.015625e+00 1.277344e+00
5.445312e+01 3.697917e-01 -1.501145e-01 6.596056e-01 -2.015625e+00 1.277344e+00
5.467969e+01 3.697917e-01 -1.508303e-01 6.603264e-01 -2.023438e+00 1.281250e+00
5.467969e+01 3.697917e-01 -1.508303e-01 6.603264e-01 -2.023438e+00 1.281250e+00
5.467969e+01 3.697917e-01 -1.508303e-01 6.603264e-01 -2.023438e+00 1.281250e+00
5.467969e+01 3.697917e-01 -1.508303e-01 6.603264e-01 -2.023438e+00 1.281250e+00
5.472266e+01 3.697917e-01 -1.509224e-01 6.603785e-01 -2.027344e+00 1.285156e+00
5.472266e+01 3.697917e-01 -1.510144e-01 6.604305e-01 -2.027344e+00 1.285156e+00
5.472266e+01 3.697917e-01 -1.510144e-01 6.604305e-01 -2.027344e+00 1.285156e+00
5.472266e+01 3.697917e-01 -1.510144e-01 6.604305e-01 -2.027344e+00 1.285156e+00
5.472266e+01 3.697917e-01 -1.510144e-01 6.604305e-01 -2.027344e+00 1.285156e+00
5.472266e+01 3.697917e-01 -1.510144e-01 6.604305e-01 -2.027344e+00 1.285156e+00
5.472266e+01 3.697917e-01 -1.510144e-01 6.604305e-01 -2.027344e+00 1.285156e+00
5.472266e+01 3.697917e-01 -1.510144e-01 6.604305e-01 -2.027344e+00 1.285156e+00
5.472266e+01 3.697917e-01 -1.510144e-01 6.604305e-01 -2.027344e+00 1.285156e+00
5.451562e+01 3.697917e-01 -1.512803e-01 6.608407e-01 -2.031250e+00 1.273438e+00
5.436719e+01 3.697917e-01 -1.512598e-01 6.609646e-01 -2.031250e+00 1.281250e+00
5.436719e+01 3.697917e-01 -1.512598e-01 6.609646e-01 -2.031250e+00 1.281250e+00
5.452734e+01 3.697917e-01 -1.518325e-01 6.617903e-01 -2.039062e+00 1.281250e+00
5.452734e+01 3.697917e-01 -1.518427e-01 6.618525e-01 -2.039062e+00 1.285156e+00
5.452734e+01 3.697917e-01 -1.518529e-01 6.619147e-01 -2.039062e+00 1.285156e+00
5.452734e+01 3.697917e-01 -1.518529e-01 6.619147e-01 -2.039062e+00 1.285156e+00
5.452734e+01 3.697917e-01 -1.518529e-01 6.619147e-01 -2.039062e+00 1.285156e+00
5.452734e+01 3.697917e-01 -1.518529e-01 6.619147e-01 -2.039062e+00 1.285156e+00
5.452734e+01 3.697917e-01 -1.518529e-01 6.619147e-01 -2.039062e+00 1.285156e+00
5.452734e+01 3.697917e-01 -1.518529e-01 6.619147e-01 -2.039062e+00 1.285156e+00
5.452734e+01 3.697917e-01 -1.518529e-01 6.619147e-01 -2.039062e+00 1.285156e+00
5.456641e+01 3.697917e-01 -1.518734e-01 6.620493e-01 -2.039062e+00 1.289062e+00
5.439844e+01 3.697917e-01 -1.523642e-01 6.628399e-01 -2.046875e+00 1.289062e+00
5.439844e+01 3.697917e-01 -1.523642e-01 6.628399e-01 -2.046875e+00 1.289062e+00
5.439844e+01 3.697917e-01 -1.523642e-01 6.628399e-01 -2.046875e+00 1.289062e+00
5.537500e+01 3.697917e-01 -1.526301e-01 6.629701e-01 -2.050781e+00 1.292969e+00
5.537500e+01 3.697917e-01 -1.528959e-01 6.631003e-01 -2.050781e+00 1.292969e+00
5.537500e+01 3.697917e-01 -1.528959e-01 6.631003e-01 -2.050781e+00 1.292969e+00
5.510938e+01 3.697917e-01 -1.533152e-01 6.634612e-01 -2.054688e+00 1.265625e+00
5.458984e+01 3.697917e-01 -1.532947e-01 6.635936e-01 -2.054688e+00 1.289062e+00
5.458984e+01 3.697917e-01 -1.533050e-01 6.636667e-01 -2.054688e+00 1.289062e+00
5.479297e+01 3.697917e-01 -1.533050e-01 6.637985e-01 -2.054688e+00 1.296875e+00
5.612891e+01 3.697917e-01 -1.545525e-01 6.641437e-01 -2.070312e+00 1.300781e+00
5.548438e+01 3.697917e-01 -1.560250e-01 6.641780e-01 -2.070312e+00 1.257812e+00
5.555078e+01 3.697917e-01 -1.562193e-01 6.661436e-01 -2.097656e+00 1.257812e+00
5.478906e+01 3.697917e-01 -1.581315e-01 6.681007e-01 -2.113281e+00 1.257812e+00
5.478906e+01 3.697917e-01 -1.581315e-01 6.681007e-01 -2.113281e+00 1.257812e+00
5.478906e+01 3.697917e-01 -1.581315e-01 6.681007e-01 -2.113281e+00 1.257812e+00
5.478906e+01 3.697917e-01 -1.581315e-01 6.681007e-01 -2.113281e+00 1.257812e+00
5.478906e+01 3.697917e-01 -1.581315e-01 6.681007e-01 -2.113281e+00 1.257812e+00
5.642578e+01 3.697917e-01 -1.584997e-01 6.685065e-01 -2.121094e+00 1.296875e+00
5.642578e+01 3.697917e-01 -1.588678e-01 6.689118e-01 -2.121094e+00 1.296875e+00
5.602734e+01 3.697917e-01 -1.636739e-01 6.713486e-01 -2.148438e+00 1.207031e+00
5.587500e+01 3.697917e-01 -1.636126e-01 6.714388e-01 -2.148438e+00 1.207031e+00
5.587891e+01 3.697917e-01 -1.638784e-01 6.725068e-01 -2.156250e+00 1.277344e+00
5.539062e+01 3.697917e-01 -1.639398e-01 6.726289e-01 -2.156250e+00 1.269531e+00
5.539062e+01 3.697917e-01 -1.639398e-01 6.726289e-01 -2.156250e+00 1.269531e+00
5.539062e+01 3.697917e-01 -1.639398e-01 6.726289e-01 -2.156250e+00 1.269531e+00
5.539062e+01 3.697917e-01 -1.639398e-01 6.726289e-01 -2.156250e+00 1.269531e+00
5.539062e+01 3.697917e-01 -1.639398e-01 6.726289e-01 -2.156250e+00 1.269531e+00
5.539062e+01 3.697917e-01 -1.639398e-01 6.726289e-01 -2.156250e+00 1.269531e+00
5.539062e+01 3.697917e-01 -1.639398e-01 6.726289e-01 -2.156250e+00 1.269531e+00
5.539062e+01 3.697917e-01 -1.639398e-01 6.726289e-01 -2.156250e+00 1.269531e+00
5.539062e+01 3.697917e-01 -1.639398e-01 6.726289e-01 -2.156250e+00 1.269531e+00
5.539062e+01 3.697917e-01 -1.639398e-01 6.726289e-01 -2.156250e+00 1.269531e+00
5.560547e+01 3.697917e-01 -1.638171e-01 6.727031e-01 -2.156250e+00 1.273438e+00
5.560547e+01 3.697917e-01 -1.638171e-01 6.727031e-01 -2.156250e+00 1.273438e+00
5.560547e+01 3.697917e-01 -1.638171e-01 6.727031e-01 -2.156250e+00 1.273438e+00
5.560547e+01 3.697917e-01 -1.638171e-01 6.727031e-01 -2.156250e+00 1.273438e+00
5.560547e+01 3.697917e-01 -1.638171e-01 6.727031e-01 -2.156250e+00 1.273438e+00
5.560547e+01 3.697917e-01 -1.638171e-01 6.727031e-01 -2.156250e+00 1.273438e+00
5.560547e+01 3.697917e-01 -1.638171e-01 6.727031e-01 -2.156250e+00 1.273438e+00
5.600000e+01 3.697917e-01 -1.635512e-01 6.751531e-01 -2.167969e+00 1.316406e+00
5.573438e+01 3.697917e-01 -1.657395e-01 6.753510e-01 -2.164062e+00 1.273438e+00
5.548047e+01 3.697917e-01 -1.656373e-01 6.754303e-01 -2.164062e+00 1.281250e+00
5.548047e+01 3.697917e-01 -1.656373e-01 6.754303e-01 -2.164062e+00 1.281250e+00
5.548047e+01 3.697917e-01 -1.656373e-01 6.754303e-01 -2.164062e+00 1.281250e+00
5.548047e+01 3.697917e-01 -1.656373e-01 6.754303e-01 -2.164062e+00 1.281250e+00
5.548047e+01 3.697917e-01 -1.656373e-01 6.754303e-01 -2.164062e+00 1.281250e+00
5.548047e+01 3.697917e-01 -1.656373e-01 6.754303e-01 -2.164062e+00 1.281250e+00
5.548047e+01 3.697917e-01 -1.656373e-01 6.754303e-01 -2.164062e+00 1.281250e+00
5.548047e+01 3.697917e-01 -1.656373e-01 6.754303e-01 -2.164062e+00 1.281250e+00
5.548047e+01 3.697917e-01 -1.656373e-01 6.754303e-01 -2.164062e+00 1.281250e+00
5.548047e+01 3.697917e-01 -1.656373e-01 6.754303e-01 -2.164062e+00 1.281250e+00
5.548047e+01 3.697917e-01 -1.656373e-01 6.754303e-01 -2.164062e+00 1.281250e+00
5.548047e+01 3.697917e-01 -1.656373e-01 6.754303e-01 -2.164062e+00 1.281250e+00
5.548047e+01 3.697917e-01 -1.656373e-01 6.754303e-01 -2.164062e+00 1.281250e+00
5.548047e+01 3.697917e-01 -1.656373e-01 6.754303e-01 -2.164062e+00 1.281250e+00
5.548047e+01 3.697917e-01 -1.656373e-01 6.754303e-01 -2.164062e+00 1.281250e+00
5.548047e+01 3.697917e-01 -1.656373e-01 6.754303e-01 -2.164062e+00 1.281250e+00
5.548047e+01 3.697917e-01 -1.656373e-01 6.754303e-01 -2.164062e+00 1.281250e+00
5.548047e+01 3.697917e-01 -1.656373e-01 6.754303e-01 -2.164062e+00 1.281250e+00
5.548047e+01 3.697917e-01 -1.656373e-01 6.754303e-01 -2.164062e+00 1.281250e+00
5.548047e+01 3.697917e-01 -1.656373e-01 6.754303e-01 -2.164062e+00 1.281250e+00
5.548047e+01 3.697917e-01 -1.656373e-01 6.754303e-01 -2.164062e+00 1.281250e+00
5.548047e+01 3.697917e-01 -1.656373e-01 6.754303e-01 -2.164062e+00 1.281250e+00
5.548047e+01 3.697917e-01 -1.656373e-01 6.754303e-01 -2.164062e+00 1.281250e+00
5.548047e+01 3.697917e-01 -1.656373e-01 6.754303e-01 -2.164062e+00 1.281250e+00
5.548047e+01 3.697917e-01 -1.656373e-01 6.754303e-01 -2.164062e+00 1.281250e+00
5.548047e+01 3.697917e-01 -1.656373e-01 6.754303e-01 -2.164062e+00 1.281250e+00
5.548047e+01 3.697917e-01 -1.656373e-01 6.754303e-01 -2.164062e+00 1.281250e+00
5.548047e+01 3.697917e-01 -1.656373e-01 6.754303e-01 -2.164062e+00 1.281250e+00
5.548047e+01 3.697917e-01 -1.656373e-01 6.754303e-01 -2.164062e+00 1.281250e+00
5.548047e+01 3.697917e-01 -1.656373e-01 6.754303e-01 -2.164062e+00 1.281250e+00
5.548047e+01 3.697917e-01 -1.656373e-01 6.754303e-01 -2.164062e+00 1.281250e+00
5.493359e+01 3.697917e-01 -1.652691e-01 6.767170e-01 -2.171875e+00 1.265625e+00
5.463672e+01 3.697917e-01 -1.653509e-01 6.767818e-01 -2.171875e+00 1.273438e+00
5.435156e+01 3.697917e-01 -1.658009e-01 6.770373e-01 -2.171875e+00 1.285156e+00
5.435156e+01 3.697917e-01 -1.658009e-01 6.770373e-01 -2.171875e+00 1.285156e+00
5.435156e+01 3.697917e-01 -1.658009e-01 6.770373e-01 -2.171875e+00 1.285156e+00
5.435156e+01 3.697917e-01 -1.658009e-01 6.770373e-01 -2.171875e+00 1.285156e+00
5.737109e+01 3.697917e-01 -1.713842e-01 6.807123e-01 -2.226562e+00 1.273438e+00
5.633984e+01 3.697917e-01 -1.754540e-01 6.851621e-01 -2.238281e+00 1.378906e+00
5.555078e+01 3.697917e-01 -1.759449e-01 6.867734e-01 -2.246094e+00 1.378906e+00
5.551953e+01 3.697917e-01 -1.789512e-01 6.873667e-01 -2.253906e+00 1.304688e+00
5.551953e+01 3.697917e-01 -1.789512e-01 6.873667e-01 -2.253906e+00 1.304688e+00
5.551953e+01 3.697917e-01 -1.789512e-01 6.873667e-01 -2.253906e+00 1.304688e+00
5.541016e+01 3.697917e-01 -1.787365e-01 6.884139e-01 -2.261719e+00 1.324219e+00
5.553516e+01 3.697917e-01 -1.787263e-01 6.886946e-01 -2.261719e+00 1.324219e+00
5.570312e+01 3.697917e-01 -1.790228e-01 6.890681e-01 -2.265625e+00 1.328125e+00
5.570312e+01 3.697917e-01 -1.793194e-01 6.894412e-01 -2.265625e+00 1.328125e+00
5.570312e+01 3.697917e-01 -1.793194e-01 6.894412e-01 -2.265625e+00 1.328125e+00
5.570312e+01 3.697917e-01 -1.793194e-01 6.894412e-01 -2.265625e+00 1.328125e+00
5.570312e+01 3.697917e-01 -1.793194e-01 6.894412e-01 -2.265625e+00 1.328125e+00
5.570312e+01 3.697917e-01 -1.793194e-01 6.894412e-01 -2.265625e+00 1.328125e+00
5.570312e+01 3.697917e-01 -1.793194e-01 6.894412e-01 -2.265625e+00 1.328125e+00
5.510938e+01 3.697917e-01 -1.796875e-01 6.902324e-01 -2.269531e+00 1.343750e+00
5.516406e+01 3.697917e-01 -1.796364e-01 6.903448e-01 -2.269531e+00 1.343750e+00
5.477734e+01 3.697917e-01 -1.795955e-01 6.904582e-01 -2.269531e+00 1.343750e+00
5.477734e+01 3.697917e-01 -1.795648e-01 6.905093e-01 -2.269531e+00 1.343750e+00
5.499609e+01 3.697917e-01 -1.795443e-01 6.905426e-01 -2.269531e+00 1.343750e+00
5.499609e+01 3.697917e-01 -1.795443e-01 6.905426e-01 -2.269531e+00 1.343750e+00
5.499609e+01 3.697917e-01 -1.795443e-01 6.905426e-01 -2.269531e+00 1.343750e+00
5.499609e+01 3.697917e-01 -1.795443e-01 6.905426e-01 -2.269531e+00 1.343750e+00
5.499609e+01 3.697917e-01 -1.795443e-01 6.905426e-01 -2.269531e+00 1.343750e+00
5.499609e+01 3.697917e-01 -1.795443e-01 6.905426e-01 -2.269531e+00 1.343750e+00
5.499609e+01 3.697917e-01 -1.795443e-01 6.905426e-01 -2.269531e+00 1.343750e+00
5.499609e+01 3.697917e-01 -1.795443e-01 6.905426e-01 -2.269531e+00 1.343750e+00
5.499609e+01 3.697917e-01 -1.795443e-01 6.905426e-01 -2.269531e+00 1.343750e+00
5.499609e+01 3.697917e-01 -1.795443e-01 6.905426e-01 -2.269531e+00 1.343750e+00
5.499609e+01 3.697917e-01 -1.795443e-01 6.905426e-01 -2.269531e+00 1.343750e+00
5.499609e+01 3.697917e-01 -1.795443e-01 6.905426e-01 -2.269531e+00 1.343750e+00
5.454688e+01 3.697917e-01 -1.796875e-01 6.908393e-01 -2.273438e+00 1.347656e+00
5.454688e+01 3.697917e-01 -1.796875e-01 6.908393e-01 -2.273438e+00 1.347656e+00
5.454688e+01 3.697917e-01 -1.796875e-01 6.908393e-01 -2.273438e+00 1.347656e+00
5.454688e+01 3.697917e-01 -1.796875e-01 6.908393e-01 -2.273438e+00 1.347656e+00
5.454688e+01 3.697917e-01 -1.796875e-01 6.908393e-01 -2.273438e+00 1.347656e+00
5.454688e+01 3.697917e-01 -1.796875e-01 6.908393e-01 -2.273438e+00 1.347656e+00
5.454688e+01 3.697917e-01 -1.796875e-01 6.908393e-01 -2.273438e+00 1.347656e+00
5.454688e+01 3.697917e-01 -1.796875e-01 6.908393e-01 -2.273438e+00 1.347656e+00
