-3.803094e-01 5.655936e+00 -3.077661e+01 3.268852e+01 7.924984e-06 2.479873e-03 -1.262285e-01 1.262285e-01
-4.786821e-01 6.232004e+00 -3.448125e+01 3.431287e+01 2.630185e-06 1.996688e-03 -1.262285e-01 1.262284e-01
-5.259067e-01 6.508721e+00 -3.538220e+01 3.468116e+01 2.187742e-07 1.833437e-03 -1.262285e-01 1.262285e-01
-5.653717e-01 6.722068e+00 -3.637110e+01 3.568572e+01 -5.562141e-07 1.732905e-03 -1.262285e-01 1.262284e-01
-6.182537e-01 6.907431e+00 -3.704401e+01 3.803104e+01 1.109728e-06 1.658014e-03 -1.262285e-01 1.262285e-01
-6.697581e-01 7.048665e+00 -3.801702e+01 3.822681e+01 9.542077e-08 1.598293e-03 -1.262285e-01 1.262285e-01
-7.196201e-01 7.191178e+00 -3.919800e+01 3.939191e+01 1.327286e-07 1.546082e-03 -1.262285e-01 1.262285e-01
-7.595589e-01 7.327109e+00 -3.991369e+01 4.044561e+01 1.242430e-06 1.507883e-03 -1.262285e-01 1.262285e-01
-7.948416e-01 7.433771e+00 -4.050498e+01 4.090107e+01 1.110031e-06 1.469748e-03 -1.262285e-01 1.262285e-01
-8.383924e-01 7.543455e+00 -4.042606e+01 4.173206e+01 -1.951196e-07 1.440249e-03 -1.262285e-01 1.262285e-01
-8.761879e-01 7.640259e+00 -4.091368e+01 4.216122e+01 -1.147133e-06 1.410677e-03 -1.262285e-01 1.262284e-01
-9.026740e-01 7.723009e+00 -4.124756e+01 4.290190e+01 7.938441e-08 1.384834e-03 -1.262285e-01 1.262285e-01
-9.302512e-01 7.811775e+00 -4.174354e+01 4.297393e+01 6.357724e-07 1.367126e-03 -1.262285e-01 1.262285e-01
-9.541123e-01 7.890388e+00 -4.205460e+01 4.343689e+01 1.718220e-07 1.346759e-03 -1.262285e-01 1.262284e-01
-9.700771e-01 7.960660e+00 -4.187733e+01 4.393463e+01 9.492556e-07 1.326945e-03 -1.262285e-01 1.262285e-01
-9.965376e-01 8.027858e+00 -4.248671e+01 4.407110e+01 1.595334e-06 1.311118e-03 -1.262285e-01 1.262285e-01
-1.005125e+00 8.090552e+00 -4.227511e+01 4.448154e+01 -8.705549e-08 1.296339e-03 -1.262285e-01 1.262285e-01
-1.017766e+00 8.146110e+00 -4.291061e+01 4.462557e+01 5.566796e-07 1.281665e-03 -1.262285e-01 1.262285e-01
-1.038136e+00 8.203965e+00 -4.294266e+01 4.501082e+01 1.088089e-06 1.269439e-03 -1.262285e-01 1.262285e-01
-1.043614e+00 8.254960e+00 -4.307890e+01 4.534249e+01 2.372816e-07 1.256378e-03 -1.262285e-01 1.262285e-01
-1.061586e+00 8.304711e+00 -4.365642e+01 4.555157e+01 -2.879306e-07 1.245190e-03 -1.262285e-01 1.262285e-01
-1.072804e+00 8.349207e+00 -4.360679e+01 4.562738e+01 -1.205440e-06 1.235319e-03 -1.262285e-01 1.262285e-01
-1.088186e+00 8.395307e+00 -4.386940e+01 4.562580e+01 -5.956751e-07 1.223939e-03 -1.262285e-01 1.262285e-01
-1.093415e+00 8.441189e+00 -4.392743e+01 4.620956e+01 5.587531e-07 1.213992e-03 -1.262285e-01 1.262283e-01
-1.094824e+00 8.480655e+00 -4.448955e+01 4.648951e+01 2.643946e-07 1.204032e-03 -1.262285e-01 1.262285e-01
-1.104527e+00 8.514155e+00 -4.413750e+01 4.660879e+01 6.633142e-07 1.198749e-03 -1.262285e-01 1.262285e-01
-1.113489e+00 8.555297e+00 -4.463167e+01 4.674724e+01 4.427259e-07 1.189024e-03 -1.262285e-01 1.262285e-01
-1.126907e+00 8.591935e+00 -4.494256e+01 4.682308e+01 -1.373064e-07 1.182309e-03 -1.262285e-01 1.262282e-01
-1.126726e+00 8.626318e+00 -4.512160e+01 4.706884e+01 -6.125422e-07 1.174624e-03 -1.262285e-01 1.262283e-01
-1.131768e+00 8.664924e+00 -4.533702e+01 4.729254e+01 -7.283789e-07 1.170792e-03 -1.262285e-01 1.262284e-01
-1.145434e+00 8.697368e+00 -4.567203e+01 4.751363e+01 1.399349e-06 1.159057e-03 -1.262284e-01 1.262285e-01
-1.142850e+00 8.726422e+00 -4.586985e+01 4.746227e+01 3.209620e-07 1.155493e-03 -1.262285e-01 1.262285e-01
-1.151930e+00 8.756497e+00 -4.600195e+01 4.770038e+01 -2.552210e-07 1.149408e-03 -1.262285e-01 1.262285e-01
-1.157486e+00 8.787357e+00 -4.622932e+01 4.801071e+01 -4.738700e-07 1.142047e-03 -1.262285e-01 1.262284e-01
-1.163201e+00 8.818335e+00 -4.630273e+01 4.820292e+01 -2.195311e-07 1.137604e-03 -1.262285e-01 1.262285e-01
-1.159247e+00 8.848263e+00 -4.652029e+01 4.807630e+01 -8.348367e-07 1.131384e-03 -1.262285e-01 1.262285e-01
-1.180540e+00 8.876099e+00 -4.671004e+01 4.849525e+01 5.384987e-07 1.126270e-03 -1.262285e-01 1.262285e-01
-1.177197e+00 8.903939e+00 -4.698693e+01 4.833906e+01 1.538840e-06 1.120402e-03 -1.262284e-01 1.262285e-01
-1.178466e+00 8.929997e+00 -4.680837e+01 4.875235e+01 4.477828e-07 1.116305e-03 -1.262285e-01 1.262284e-01
-1.186581e+00 8.946313e+00 -4.729915e+01 4.867311e+01 6.282861e-07 1.110655e-03 -1.262285e-01 1.262285e-01
-1.191325e+00 8.979113e+00 -4.771395e+01 4.914543e+01 7.793456e-08 1.105609e-03 -1.262285e-01 1.262285e-01
-1.194433e+00 9.005989e+00 -4.761913e+01 4.913784e+01 4.902349e-07 1.101237e-03 -1.262284e-01 1.262283e-01
-1.196861e+00 9.026869e+00 -4.737087e+01 4.929905e+01 1.650838e-06 1.097531e-03 -1.262285e-01 1.262285e-01
-1.196644e+00 9.049885e+00 -4.786118e+01 4.932298e+01 -2.415431e-07 1.094350e-03 -1.262285e-01 1.262285e-01
-1.203599e+00 9.078050e+00 -4.815326e+01 4.956862e+01 -5.209251e-07 1.088470e-03 -1.262285e-01 1.262285e-01
-1.210914e+00 9.100621e+00 -4.831040e+01 4.961503e+01 -1.000444e-06 1.085907e-03 -1.262285e-01 1.262252e-01
-1.211712e+00 9.122238e+00 -4.806756e+01 4.979157e+01 4.557089e-08 1.080033e-03 -1.262285e-01 1.262284e-01
-1.213899e+00 9.141546e+00 -4.846800e+01 4.983893e+01 2.241907e-07 1.075291e-03 -1.262285e-01 1.262284e-01
-1.218084e+00 9.161660e+00 -4.874243e+01 5.033773e+01 2.421770e-07 1.072635e-03 -1.262285e-01 1.262285e-01
-1.226530e+00 9.184135e+00 -4.912542e+01 5.019017e+01 5.918805e-07 1.065844e-03 -1.262285e-01 1.262282e-01
-1.217092e+00 9.203148e+00 -4.900577e+01 5.057255e+01 -1.011845e-06 1.065443e-03 -1.262285e-01 1.262284e-01
-1.234824e+00 9.222568e+00 -4.901582e+01 5.043944e+01 7.161314e-07 1.060665e-03 -1.262285e-01 1.262277e-01
-1.233457e+00 9.242361e+00 -4.905606e+01 5.069238e+01 -6.601133e-07 1.058746e-03 -1.262285e-01 1.262283e-01
-1.237906e+00 9.260241e+00 -4.896287e+01 5.088786e+01 2.517997e-07 1.053685e-03 -1.262285e-01 1.262285e-01
-1.240748e+00 9.283548e+00 -4.941591e+01 5.105150e+01 -6.058018e-07 1.050092e-03 -1.262285e-01 1.262285e-01
-1.248939e+00 9.299950e+00 -4.936971e+01 5.132362e+01 -3.910803e-07 1.049531e-03 -1.262284e-01 1.262285e-01
-1.252572e+00 9.315142e+00 -4.973685e+01 5.119763e+01 2.708830e-07 1.043762e-03 -1.262284e-01 1.262276e-01
-1.252567e+00 9.334109e+00 -4.981473e+01 5.160368e+01 1.804765e-07 1.041387e-03 -1.262284e-01 1.262274e-01
-1.250615e+00 9.358886e+00 -4.988775e+01 5.162313e+01 -3.845939e-10 1.037201e-03 -1.262285e-01 1.262285e-01
-1.254187e+00 9.370165e+00 -5.020066e+01 5.175305e+01 -8.983703e-07 1.034258e-03 -1.262285e-01 1.262285e-01
-1.261973e+00 9.389258e+00 -5.021882e+01 5.165349e+01 -6.161436e-07 1.032909e-03 -1.262285e-01 1.262285e-01
-1.262528e+00 9.406427e+00 -5.038494e+01 5.208859e+01 -1.262968e-07 1.027707e-03 -1.262285e-01 1.262285e-01
-1.264171e+00 9.421635e+00 -5.008556e+01 5.209379e+01 -1.001765e-06 1.024708e-03 -1.262284e-01 1.262284e-01
-1.270149e+00 9.439849e+00 -5.080213e+01 5.239754e+01 3.121605e-07 1.023172e-03 -1.262285e-01 1.262285e-01
-1.267660e+00 9.454919e+00 -5.094933e+01 5.221200e+01 1.141059e-08 1.018995e-03 -1.262285e-01 1.262285e-01
