-4.331122e+00 1.583765e+01 -8.532588e+01 9.698300e+01 4.275996e-06 2.741168e-03 -2.249908e-01 2.250061e-01
-4.633370e+00 1.673033e+01 -8.532681e+01 9.698300e+01 6.222080e-07 2.061656e-03 -2.188263e-01 2.120056e-01
-4.765252e+00 1.692963e+01 -8.532681e+01 9.698300e+01 -1.732350e-07 1.935135e-03 -2.188263e-01 2.093964e-01
-4.927907e+00 1.716774e+01 -8.532657e+01 9.698300e+01 7.336389e-07 1.894446e-03 -2.188263e-01 2.120056e-01
-5.035043e+00 1.736743e+01 -8.532657e+01 9.698300e+01 9.389858e-08 1.795961e-03 -2.160187e-01 2.120056e-01
-5.110445e+00 1.746296e+01 -8.532657e+01 9.698300e+01 4.508812e-07 1.784689e-03 -2.175446e-01 2.093964e-01
-5.157279e+00 1.759514e+01 -8.646652e+01 9.698300e+01 5.861466e-08 1.751925e-03 -2.175446e-01 2.093964e-01
-5.176357e+00 1.771496e+01 -8.708585e+01 9.698300e+01 1.029319e-07 1.708579e-03 -2.188263e-01 2.141876e-01
-5.180502e+00 1.780548e+01 -8.561777e+01 9.698300e+01 5.396437e-07 1.680769e-03 -2.175446e-01 2.093964e-01
-5.188579e+00 1.793894e+01 -8.755246e+01 9.698300e+01 2.347183e-07 1.645186e-03 -2.155151e-01 2.120056e-01
-5.193710e+00 1.800330e+01 -8.688770e+01 9.698300e+01 4.398059e-07 1.619044e-03 -2.119904e-01 2.093964e-01
-5.141400e+00 1.803987e+01 -8.856232e+01 9.698300e+01 9.130504e-07 1.645817e-03 -2.141876e-01 2.120056e-01
-5.165696e+00 1.814636e+01 -9.018117e+01 9.698300e+01 3.954430e-07 1.613740e-03 -2.160187e-01 2.093964e-01
-5.133753e+00 1.821507e+01 -9.172340e+01 9.698300e+01 6.970630e-07 1.605316e-03 -2.160187e-01 2.120056e-01
-5.179966e+00 1.826740e+01 -9.327214e+01 9.698300e+01 3.369022e-07 1.557973e-03 -2.175446e-01 2.160187e-01
-5.205528e+00 1.833102e+01 -9.297215e+01 9.698300e+01 -1.668975e-07 1.549382e-03 -2.175446e-01 2.063141e-01
-5.235038e+00 1.842753e+01 -9.466502e+01 9.698300e+01 3.187439e-07 1.544159e-03 -2.207794e-01 2.093964e-01
-5.269895e+00 1.847951e+01 -9.255264e+01 9.698300e+01 -1.525975e-07 1.535172e-03 -2.141876e-01 2.093964e-01
-5.238385e+00 1.852540e+01 -9.502992e+01 9.698300e+01 4.756876e-07 1.516927e-03 -2.175446e-01 2.141876e-01
-5.245645e+00 1.857049e+01 -9.674643e+01 9.698300e+01 1.705913e-07 1.522604e-03 -2.141876e-01 2.063141e-01
-5.276488e+00 1.863400e+01 -9.660783e+01 9.698300e+01 5.352744e-07 1.520097e-03 -2.175446e-01 2.093964e-01
-5.307919e+00 1.875455e+01 -9.794917e+01 9.698300e+01 7.198110e-07 1.511184e-03 -2.119904e-01 2.093964e-01
-5.396602e+00 1.881940e+01 -9.834172e+01 9.698300e+01 -1.034263e-07 1.498382e-03 -2.175446e-01 2.120056e-01
-5.332558e+00 1.885875e+01 -9.759541e+01 9.698300e+01 5.744997e-07 1.473868e-03 -2.141876e-01 2.120056e-01
-5.391330e+00 1.889579e+01 -9.842690e+01 9.698300e+01 1.730199e-07 1.471384e-03 -2.119904e-01 2.093964e-01
