7.477229e+01 4.217391e-01 -5.157627e-03 5.976857e-01 -9.987045e-01 9.967316e-01
7.241695e+01 4.217391e-01 -6.443566e-03 5.974119e-01 -1.000326e+00 9.993448e-01
7.235123e+01 4.217391e-01 -6.390821e-03 5.974457e-01 -1.001333e+00 9.986096e-01
7.803574e+01 5.782609e-01 -6.703324e-03 5.973470e-01 -1.014207e+00 1.004621e+00
7.146722e+01 4.217391e-01 -7.073318e-03 5.972938e-01 -1.015033e+00 1.006207e+00
7.176921e+01 4.217391e-01 -7.337346e-03 5.975068e-01 -1.017850e+00 1.036121e+00
7.126685e+01 4.217391e-01 -7.560318e-03 5.977483e-01 -1.019801e+00 1.058723e+00
7.183594e+01 4.217391e-01 -7.833549e-03 5.982140e-01 -1.042833e+00 1.063398e+00
6.954482e+01 4.217391e-01 -9.226492e-03 6.002757e-01 -1.170066e+00 1.194687e+00
7.149266e+01 2.434783e-01 -1.216016e-02 6.109485e-01 -1.347528e+00 1.588596e+00
6.032329e+01 2.869565e-01 -1.645444e-02 6.205644e-01 -1.395770e+00 1.611140e+00
5.230736e+01 2.391304e-01 -1.595189e-02 6.351833e-01 -1.601306e+00 1.893186e+00
5.619488e+01 2.086957e-01 -2.048172e-02 7.414677e-01 -3.271369e+00 2.910014e+00
5.298695e+01 2.000000e-01 -2.114373e-02 8.098769e-01 -3.336602e+00 2.959116e+00
4.216213e+01 2.043478e-01 -1.391448e-02 7.996020e-01 -3.290722e+00 2.931202e+00
4.230883e+01 2.000000e-01 -1.159030e-02 7.953391e-01 -3.100887e+00 2.839790e+00
4.390637e+01 1.956522e-01 -1.227616e-02 7.947066e-01 -3.109974e+00 2.837355e+00
4.408576e+01 2.000000e-01 -1.226785e-02 7.939952e-01 -3.087908e+00 2.827090e+00
4.310370e+01 2.086957e-01 -1.296145e-02 7.938795e-01 -3.081046e+00 2.825597e+00
4.176131e+01 1.956522e-01 -1.578845e-02 7.899040e-01 -3.032202e+00 2.818560e+00
4.132657e+01 1.913043e-01 -1.710967e-02 7.890086e-01 -2.997275e+00 2.813144e+00
4.116972e+01 1.913043e-01 -1.695938e-02 7.896091e-01 -2.994350e+00 2.812193e+00
4.191021e+01 1.913043e-01 -1.759931e-02 7.902016e-01 -2.973117e+00 2.803414e+00
4.062992e+01 2.043478e-01 -1.832841e-02 7.902265e-01 -2.953117e+00 2.803899e+00
4.084464e+01 1.956522e-01 -1.933656e-02 7.902577e-01 -2.953331e+00 2.806189e+00
4.055883e+01 2.000000e-01 -1.970455e-02 7.909266e-01 -2.937902e+00 2.804203e+00
4.041641e+01 2.000000e-01 -1.966852e-02 7.906586e-01 -2.935147e+00 2.804036e+00
4.109254e+01 1.869565e-01 -2.114462e-02 7.919356e-01 -2.935163e+00 2.804361e+00
4.082530e+01 2.000000e-01 -2.221442e-02 7.930875e-01 -2.937175e+00 2.804978e+00
4.157940e+01 1.869565e-01 -2.245017e-02 7.931711e-01 -2.929467e+00 2.804058e+00
4.036693e+01 2.000000e-01 -2.246381e-02 7.928242e-01 -2.925659e+00 2.801815e+00
4.037318e+01 1.956522e-01 -2.201827e-02 7.923249e-01 -2.906385e+00 2.799954e+00
4.054348e+01 1.913043e-01 -2.188051e-02 7.932445e-01 -2.875114e+00 2.794036e+00
3.996556e+01 2.000000e-01 -2.225681e-02 7.941779e-01 -2.864497e+00 2.797871e+00
3.996203e+01 1.956522e-01 -2.304925e-02 7.945377e-01 -2.877754e+00 2.799170e+00
4.101218e+01 2.086957e-01 -2.052047e-02 7.956731e-01 -2.895145e+00 2.802999e+00
4.679220e+01 2.086957e-01 -2.190827e-02 7.964421e-01 -2.919934e+00 2.804580e+00
4.019733e+01 2.000000e-01 -2.284251e-02 7.976226e-01 -2.900522e+00 2.802198e+00
4.114987e+01 2.000000e-01 -2.407753e-02 8.004446e-01 -2.889661e+00 2.800647e+00
4.306709e+01 1.956522e-01 -2.410193e-02 8.015566e-01 -2.901422e+00 2.802596e+00
3.981668e+01 1.869565e-01 -2.334669e-02 8.013170e-01 -2.901422e+00 2.802596e+00
4.086385e+01 1.869565e-01 -2.203225e-02 8.006160e-01 -2.869289e+00 2.792795e+00
3.996484e+01 1.826087e-01 -2.426212e-02 8.018553e-01 -2.880794e+00 2.795512e+00
4.008147e+01 1.913043e-01 -2.506618e-02 8.030584e-01 -2.865890e+00 2.791629e+00
4.167170e+01 2.000000e-01 -2.573221e-02 8.067674e-01 -2.901937e+00 2.791371e+00
4.222233e+01 2.130435e-01 -2.623395e-02 8.078513e-01 -2.895327e+00 2.789660e+00
4.296428e+01 2.000000e-01 -2.833369e-02 8.090174e-01 -2.941496e+00 2.794485e+00
4.162145e+01 2.086957e-01 -2.981357e-02 8.105307e-01 -2.955970e+00 2.795457e+00
4.185480e+01 1.869565e-01 -2.843739e-02 8.107373e-01 -2.918928e+00 2.791306e+00
4.133202e+01 2.000000e-01 -2.762657e-02 8.116821e-01 -2.912093e+00 2.781540e+00
4.363223e+01 1.956522e-01 -2.730230e-02 8.118900e-01 -2.914511e+00 2.783210e+00
4.064122e+01 2.043478e-01 -2.746278e-02 8.121108e-01 -2.914511e+00 2.783210e+00
4.138143e+01 1.913043e-01 -2.581203e-02 8.121520e-01 -2.903999e+00 2.779856e+00
3.980341e+01 1.869565e-01 -2.517415e-02 8.125116e-01 -2.893584e+00 2.781555e+00
4.198109e+01 2.000000e-01 -2.612816e-02 8.136365e-01 -2.918831e+00 2.785150e+00
4.268980e+01 1.913043e-01 -2.672249e-02 8.141455e-01 -2.947271e+00 2.791416e+00
4.091177e+01 1.956522e-01 -2.926415e-02 8.160676e-01 -2.954998e+00 2.791971e+00
4.043055e+01 1.782609e-01 -2.885033e-02 8.162608e-01 -2.916747e+00 2.784617e+00
4.206669e+01 2.086957e-01 -3.026586e-02 8.212219e-01 -3.056808e+00 2.766795e+00
4.388545e+01 2.173913e-01 -3.040740e-02 8.224262e-01 -3.055784e+00 2.757359e+00
4.062579e+01 1.913043e-01 -2.954781e-02 8.221300e-01 -3.036244e+00 2.780405e+00
4.031624e+01 1.826087e-01 -2.876495e-02 8.262803e-01 -2.989096e+00 2.821010e+00
4.033782e+01 2.000000e-01 -2.847873e-02 8.301553e-01 -2.989198e+00 2.877547e+00
4.029736e+01 1.913043e-01 -2.869694e-02 8.356484e-01 -3.002533e+00 2.911047e+00
3.988371e+01 1.913043e-01 -2.782097e-02 8.383689e-01 -3.026311e+00 2.915931e+00
4.079534e+01 1.826087e-01 -2.844154e-02 8.398657e-01 -3.032119e+00 2.923027e+00
4.123811e+01 2.043478e-01 -2.871300e-02 8.405861e-01 -3.050320e+00 2.924824e+00
4.051287e+01 2.000000e-01 -2.894642e-02 8.409188e-01 -3.041366e+00 2.925011e+00
4.086678e+01 1.913043e-01 -2.846646e-02 8.409956e-01 -3.041366e+00 2.928165e+00
4.212509e+01 1.956522e-01 -2.912269e-02 8.419881e-01 -3.051890e+00 2.935906e+00
4.081536e+01 1.869565e-01 -2.914044e-02 8.428711e-01 -3.053618e+00 2.940063e+00
4.758355e+01 2.086957e-01 -2.908798e-02 8.442468e-01 -3.072124e+00 2.964327e+00
4.214085e+01 1.956522e-01 -2.861962e-02 8.450409e-01 -3.081912e+00 2.960869e+00
4.046948e+01 1.826087e-01 -2.723487e-02 8.448267e-01 -3.077154e+00 2.961167e+00
4.346654e+01 2.043478e-01 -2.805505e-02 8.474505e-01 -3.199627e+00 3.003227e+00
4.557453e+01 1.869565e-01 -3.152759e-02 8.551041e-01 -3.222051e+00 3.020684e+00
4.524483e+01 1.913043e-01 -2.983437e-02 8.549605e-01 -3.233883e+00 3.036088e+00
4.329383e+01 1.913043e-01 -3.024603e-02 8.552407e-01 -3.232949e+00 3.041192e+00
4.173815e+01 1.826087e-01 -3.013533e-02 8.551799e-01 -3.216618e+00 3.044874e+00
4.180636e+01 1.913043e-01 -2.969914e-02 8.559142e-01 -3.228529e+00 3.040979e+00
4.349556e+01 1.869565e-01 -2.999864e-02 8.555749e-01 -3.228529e+00 3.046172e+00
4.118553e+01 1.913043e-01 -2.906703e-02 8.561419e-01 -3.223120e+00 3.049409e+00
4.078990e+01 1.956522e-01 -2.645697e-02 8.614637e-01 -3.255540e+00 3.016201e+00
4.135763e+01 2.086957e-01 -2.700865e-02 8.605896e-01 -3.254032e+00 2.985346e+00
4.129992e+01 2.000000e-01 -2.908064e-02 8.618232e-01 -3.245105e+00 3.003353e+00
4.247613e+01 1.956522e-01 -3.385547e-02 8.664177e-01 -3.269378e+00 3.009624e+00
4.072052e+01 1.913043e-01 -3.382807e-02 8.690007e-01 -3.323026e+00 3.030648e+00
4.082014e+01 1.956522e-01 -3.047167e-02 8.753782e-01 -3.373446e+00 3.080400e+00
4.143356e+01 1.739130e-01 -3.003166e-02 8.789607e-01 -3.385402e+00 3.099306e+00
4.160372e+01 1.913043e-01 -2.752690e-02 8.786936e-01 -3.375196e+00 3.093942e+00
4.274277e+01 1.956522e-01 -2.954570e-02 8.796337e-01 -3.378667e+00 3.092460e+00
4.147837e+01 1.869565e-01 -3.193220e-02 8.807689e-01 -3.404521e+00 3.097300e+00
4.058286e+01 1.782609e-01 -3.255469e-02 8.837720e-01 -3.429176e+00 3.068593e+00
4.016453e+01 1.826087e-01 -3.273374e-02 8.859944e-01 -3.454721e+00 3.045812e+00
4.091642e+01 1.956522e-01 -3.222824e-02 8.879969e-01 -3.475462e+00 3.053839e+00
4.117303e+01 2.043478e-01 -3.248584e-02 8.884443e-01 -3.478502e+00 3.053839e+00
4.157689e+01 2.043478e-01 -3.371930e-02 8.899014e-01 -3.502097e+00 3.071251e+00
4.095030e+01 1.782609e-01 -3.428557e-02 8.917143e-01 -3.502097e+00 3.081160e+00
4.094601e+01 2.130435e-01 -3.460065e-02 8.936963e-01 -3.526600e+00 3.086945e+00
4.196258e+01 1.652174e-01 -3.346967e-02 8.969673e-01 -3.536834e+00 3.087999e+00
4.068542e+01 1.826087e-01 -3.605996e-02 8.992731e-01 -3.568756e+00 3.118658e+00
4.048159e+01 1.652174e-01 -3.471252e-02 9.006478e-01 -3.582487e+00 3.107804e+00
4.245301e+01 2.043478e-01 -3.297395e-02 9.036247e-01 -3.628881e+00 3.089622e+00
4.196268e+01 1.869565e-01 -3.150915e-02 9.069766e-01 -3.640218e+00 3.067377e+00
4.190145e+01 1.652174e-01 -3.351302e-02 9.095963e-01 -3.660216e+00 3.087238e+00
4.539677e+01 2.260870e-01 -3.504642e-02 9.125625e-01 -3.708393e+00 3.098793e+00
4.270504e+01 2.000000e-01 -3.667922e-02 9.138925e-01 -3.705252e+00 3.110437e+00
4.363634e+01 1.913043e-01 -3.716000e-02 9.151420e-01 -3.717298e+00 3.115051e+00
4.131398e+01 1.869565e-01 -2.865308e-02 9.165740e-01 -3.708267e+00 3.063913e+00
4.156115e+01 1.913043e-01 -3.038181e-02 9.174402e-01 -3.728448e+00 3.053349e+00
4.218683e+01 1.913043e-01 -3.487601e-02 9.185894e-01 -3.748337e+00 3.053470e+00
4.146798e+01 1.826087e-01 -3.597956e-02 9.196265e-01 -3.748337e+00 3.056500e+00
4.127290e+01 1.695652e-01 -3.613257e-02 9.204247e-01 -3.741754e+00 3.069579e+00
4.203751e+01 1.652174e-01 -3.725152e-02 9.217870e-01 -3.760432e+00 3.067638e+00
4.392823e+01 1.826087e-01 -3.817123e-02 9.236703e-01 -3.783959e+00 3.065890e+00
4.303314e+01 2.086957e-01 -3.864185e-02 9.276644e-01 -3.831387e+00 3.050396e+00
4.194620e+01 2.000000e-01 -3.732131e-02 9.288923e-01 -3.831807e+00 3.044016e+00
4.128263e+01 1.869565e-01 -3.929640e-02 9.298683e-01 -3.833498e+00 3.047663e+00
4.138486e+01 1.695652e-01 -3.885156e-02 9.305759e-01 -3.842679e+00 3.049825e+00
4.166661e+01 1.869565e-01 -3.567972e-02 9.327734e-01 -3.857404e+00 3.050325e+00
4.209690e+01 2.000000e-01 -3.597384e-02 9.337077e-01 -3.868807e+00 3.050697e+00
4.423374e+01 1.869565e-01 -3.611124e-02 9.347061e-01 -3.868807e+00 3.042372e+00
4.179804e+01 1.869565e-01 -3.599985e-02 9.359459e-01 -3.888711e+00 3.044386e+00
4.213165e+01 1.826087e-01 -3.465132e-02 9.401839e-01 -3.916919e+00 3.086009e+00
4.233749e+01 1.826087e-01 -3.465203e-02 9.407838e-01 -3.929809e+00 3.092809e+00
4.252433e+01 2.000000e-01 -3.618079e-02 9.428348e-01 -3.973493e+00 3.114464e+00
4.422080e+01 2.000000e-01 -3.393239e-02 9.480502e-01 -4.034240e+00 3.113009e+00
4.394720e+01 1.913043e-01 -3.674711e-02 9.610778e-01 -4.180655e+00 3.089576e+00
4.162294e+01 1.782609e-01 -3.716051e-02 9.728278e-01 -4.300834e+00 3.061222e+00
4.197299e+01 2.043478e-01 -3.361728e-02 9.890559e-01 -4.330956e+00 3.002033e+00
4.170025e+01 2.043478e-01 -3.450847e-02 9.919140e-01 -4.354733e+00 2.999887e+00
4.330916e+01 2.043478e-01 -3.612601e-02 9.929758e-01 -4.373161e+00 3.008486e+00
4.306548e+01 2.260870e-01 -3.602443e-02 9.933699e-01 -4.373161e+00 3.008738e+00
4.177143e+01 1.913043e-01 -3.628895e-02 9.940884e-01 -4.370665e+00 3.037664e+00
4.253610e+01 2.043478e-01 -3.518854e-02 9.951076e-01 -4.380141e+00 3.052109e+00
4.177331e+01 1.913043e-01 -3.485783e-02 9.958961e-01 -4.382652e+00 3.056304e+00
4.230333e+01 2.130435e-01 -3.430460e-02 9.982035e-01 -4.403303e+00 3.123761e+00
4.209356e+01 2.130435e-01 -3.528672e-02 1.000289e+00 -4.412979e+00 3.138362e+00
4.215496e+01 2.086957e-01 -3.590864e-02 1.000848e+00 -4.412221e+00 3.152333e+00
4.391761e+01 2.043478e-01 -3.677938e-02 1.001300e+00 -4.419725e+00 3.166024e+00
4.395415e+01 1.956522e-01 -3.235465e-02 1.003655e+00 -4.437881e+00 3.170639e+00
4.318364e+01 2.217391e-01 -3.298090e-02 1.005222e+00 -4.444860e+00 3.185069e+00
4.350918e+01 2.086957e-01 -3.589024e-02 1.006677e+00 -4.454651e+00 3.212070e+00
4.253490e+01 2.043478e-01 -3.575710e-02 1.007835e+00 -4.468470e+00 3.234415e+00
4.377763e+01 1.913043e-01 -3.558326e-02 1.009396e+00 -4.465984e+00 3.269063e+00
4.679852e+01 2.000000e-01 -3.472899e-02 1.013115e+00 -4.480995e+00 3.293214e+00
4.478478e+01 2.130435e-01 -3.197333e-02 1.015171e+00 -4.500923e+00 3.276112e+00
4.601804e+01 1.956522e-01 -3.192040e-02 1.016167e+00 -4.508612e+00 3.299904e+00
4.517036e+01 1.826087e-01 -3.179056e-02 1.016595e+00 -4.512269e+00 3.299904e+00
4.523885e+01 2.391304e-01 -3.297683e-02 1.017404e+00 -4.532836e+00 3.296383e+00
4.420266e+01 1.913043e-01 -3.336711e-02 1.020124e+00 -4.540145e+00 3.345780e+00
4.465796e+01 2.217391e-01 -3.347151e-02 1.021417e+00 -4.547519e+00 3.345780e+00
4.493487e+01 2.304348e-01 -3.348218e-02 1.022171e+00 -4.553251e+00 3.340538e+00
4.511761e+01 2.000000e-01 -3.434497e-02 1.023279e+00 -4.559161e+00 3.353142e+00
4.452456e+01 2.260870e-01 -3.563139e-02 1.024134e+00 -4.575354e+00 3.353142e+00
4.414274e+01 2.043478e-01 -3.553552e-02 1.024775e+00 -4.577122e+00 3.360821e+00
4.454048e+01 2.130435e-01 -3.529808e-02 1.025574e+00 -4.579611e+00 3.366505e+00
4.464323e+01 2.130435e-01 -3.600486e-02 1.026418e+00 -4.594182e+00 3.360213e+00
4.480683e+01 1.956522e-01 -3.589731e-02 1.027451e+00 -4.600594e+00 3.376044e+00
4.510512e+01 1.869565e-01 -3.540981e-02 1.029118e+00 -4.600941e+00 3.381338e+00
4.469787e+01 1.869565e-01 -3.472918e-02 1.030212e+00 -4.617642e+00 3.409659e+00
4.458686e+01 1.956522e-01 -3.558135e-02 1.031174e+00 -4.620473e+00 3.415364e+00
4.489442e+01 2.130435e-01 -3.669564e-02 1.031899e+00 -4.638887e+00 3.398869e+00
4.444225e+01 2.130435e-01 -3.728168e-02 1.033803e+00 -4.643424e+00 3.374390e+00
4.528883e+01 2.260870e-01 -3.615749e-02 1.035351e+00 -4.667948e+00 3.391057e+00
4.585554e+01 1.956522e-01 -3.672484e-02 1.036832e+00 -4.664899e+00 3.419282e+00
4.454272e+01 1.826087e-01 -3.688439e-02 1.037464e+00 -4.671390e+00 3.430374e+00
4.643645e+01 1.956522e-01 -3.711347e-02 1.038048e+00 -4.683437e+00 3.432928e+00
4.477645e+01 2.173913e-01 -3.694836e-02 1.038498e+00 -4.685696e+00 3.427668e+00
4.608861e+01 2.086957e-01 -3.696364e-02 1.039524e+00 -4.697396e+00 3.451784e+00
4.557032e+01 1.913043e-01 -3.600172e-02 1.041879e+00 -4.716575e+00 3.481477e+00
4.822160e+01 2.217391e-01 -3.546142e-02 1.045977e+00 -4.749834e+00 3.482124e+00
4.487139e+01 2.043478e-01 -3.572551e-02 1.047647e+00 -4.754359e+00 3.476366e+00
4.555780e+01 2.043478e-01 -3.541296e-02 1.048678e+00 -4.754295e+00 3.466229e+00
4.514832e+01 1.782609e-01 -3.530264e-02 1.049466e+00 -4.758758e+00 3.465429e+00
4.524187e+01 2.217391e-01 -3.490095e-02 1.050177e+00 -4.774841e+00 3.466933e+00
4.431465e+01 2.130435e-01 -3.706384e-02 1.051220e+00 -4.779031e+00 3.479365e+00
4.539754e+01 1.913043e-01 -3.591250e-02 1.052498e+00 -4.783399e+00 3.496192e+00
4.439750e+01 1.956522e-01 -3.586972e-02 1.053687e+00 -4.797708e+00 3.498443e+00
4.749280e+01 2.173913e-01 -3.584475e-02 1.058051e+00 -4.873788e+00 3.556353e+00
4.682368e+01 2.130435e-01 -3.263003e-02 1.070313e+00 -4.932093e+00 3.611188e+00
4.295554e+01 1.913043e-01 -3.214939e-02 1.072700e+00 -4.934702e+00 3.615480e+00
4.372329e+01 2.000000e-01 -3.160008e-02 1.073824e+00 -4.939383e+00 3.635290e+00
4.423943e+01 1.956522e-01 -3.147825e-02 1.074092e+00 -4.945855e+00 3.630580e+00
4.530373e+01 2.173913e-01 -3.174340e-02 1.075095e+00 -4.953074e+00 3.661961e+00
4.784722e+01 2.086957e-01 -3.343380e-02 1.078047e+00 -4.998332e+00 3.667828e+00
4.539748e+01 2.130435e-01 -3.475053e-02 1.079760e+00 -5.008854e+00 3.672755e+00
4.437127e+01 1.956522e-01 -3.168767e-02 1.082339e+00 -5.024705e+00 3.675729e+00
4.439136e+01 2.000000e-01 -2.855540e-02 1.084857e+00 -5.033949e+00 3.681056e+00
4.606669e+01 2.130435e-01 -3.477622e-02 1.088541e+00 -5.068335e+00 3.719310e+00
4.747813e+01 2.000000e-01 -3.229339e-02 1.089590e+00 -5.072876e+00 3.722813e+00
4.729140e+01 1.956522e-01 -3.006330e-02 1.090720e+00 -5.089293e+00 3.709042e+00
4.637143e+01 2.217391e-01 -3.140924e-02 1.091057e+00 -5.092338e+00 3.710773e+00
4.699767e+01 2.217391e-01 -3.160395e-02 1.091497e+00 -5.096588e+00 3.717770e+00
4.709261e+01 2.347826e-01 -3.127388e-02 1.091937e+00 -5.100669e+00 3.714737e+00
4.659702e+01 1.956522e-01 -3.166516e-02 1.092703e+00 -5.099494e+00 3.720796e+00
4.811146e+01 2.130435e-01 -3.181801e-02 1.093376e+00 -5.126583e+00 3.728925e+00
4.699788e+01 2.260870e-01 -3.129023e-02 1.094888e+00 -5.133553e+00 3.731340e+00
4.667686e+01 2.000000e-01 -3.142009e-02 1.095429e+00 -5.134036e+00 3.737749e+00
4.770949e+01 1.869565e-01 -3.236549e-02 1.095981e+00 -5.132696e+00 3.747396e+00
4.746051e+01 2.000000e-01 -3.307290e-02 1.096469e+00 -5.143043e+00 3.746527e+00
4.770144e+01 2.217391e-01 -3.345521e-02 1.096716e+00 -5.148074e+00 3.749545e+00
4.911779e+01 2.217391e-01 -3.441433e-02 1.097528e+00 -5.156912e+00 3.746545e+00
4.646438e+01 2.000000e-01 -3.168775e-02 1.100386e+00 -5.156064e+00 3.703478e+00
4.470004e+01 1.956522e-01 -3.540340e-02 1.102281e+00 -5.172105e+00 3.709704e+00
4.742188e+01 1.913043e-01 -3.754719e-02 1.103683e+00 -5.176166e+00 3.715508e+00
4.629413e+01 2.173913e-01 -3.530056e-02 1.104604e+00 -5.193939e+00 3.700407e+00
4.859956e+01 2.260870e-01 -3.359489e-02 1.106565e+00 -5.209341e+00 3.710666e+00
4.605308e+01 1.869565e-01 -3.408065e-02 1.107120e+00 -5.204585e+00 3.714324e+00
4.569987e+01 1.913043e-01 -3.443568e-02 1.107389e+00 -5.207504e+00 3.722115e+00
4.840115e+01 1.826087e-01 -3.546839e-02 1.107920e+00 -5.214494e+00 3.736605e+00
4.940697e+01 2.173913e-01 -3.624174e-02 1.109000e+00 -5.249254e+00 3.735187e+00
4.846707e+01 2.391304e-01 -3.567125e-02 1.109853e+00 -5.246242e+00 3.735834e+00
4.916840e+01 2.391304e-01 -3.493218e-02 1.110304e+00 -5.250071e+00 3.736934e+00
4.648580e+01 1.869565e-01 -3.391609e-02 1.111169e+00 -5.250071e+00 3.743138e+00
4.775734e+01 2.043478e-01 -3.280249e-02 1.112221e+00 -5.263248e+00 3.748158e+00
4.743724e+01 2.304348e-01 -3.324336e-02 1.113316e+00 -5.269140e+00 3.752066e+00
4.649313e+01 2.000000e-01 -3.331485e-02 1.113598e+00 -5.273501e+00 3.750390e+00
4.740201e+01 2.217391e-01 -3.458276e-02 1.114252e+00 -5.279772e+00 3.760761e+00
4.668410e+01 1.956522e-01 -3.384664e-02 1.115674e+00 -5.286202e+00 3.765379e+00
4.846535e+01 2.260870e-01 -3.329714e-02 1.116272e+00 -5.295883e+00 3.764060e+00
4.742448e+01 2.130435e-01 -3.383331e-02 1.116604e+00 -5.300063e+00 3.769381e+00
4.632626e+01 1.956522e-01 -3.630886e-02 1.117874e+00 -5.314585e+00 3.762508e+00
4.965694e+01 2.043478e-01 -3.689155e-02 1.118645e+00 -5.325589e+00 3.766789e+00
4.804553e+01 2.086957e-01 -3.501737e-02 1.119353e+00 -5.335421e+00 3.753914e+00
4.710469e+01 2.043478e-01 -3.585975e-02 1.119891e+00 -5.332719e+00 3.766433e+00
4.599034e+01 2.043478e-01 -3.672134e-02 1.120626e+00 -5.340613e+00 3.769961e+00
4.816887e+01 2.130435e-01 -3.509567e-02 1.121068e+00 -5.355085e+00 3.769961e+00
4.638189e+01 2.043478e-01 -3.049092e-02 1.123442e+00 -5.367635e+00 3.715946e+00
4.600605e+01 2.217391e-01 -3.163015e-02 1.124640e+00 -5.362698e+00 3.705539e+00
4.643809e+01 2.304348e-01 -3.202737e-02 1.125658e+00 -5.370408e+00 3.712214e+00
4.641721e+01 2.043478e-01 -3.421991e-02 1.126309e+00 -5.376261e+00 3.721036e+00
4.607599e+01 2.130435e-01 -3.490184e-02 1.126664e+00 -5.375594e+00 3.719190e+00
4.703184e+01 2.347826e-01 -3.379033e-02 1.127380e+00 -5.382965e+00 3.725448e+00
4.667850e+01 2.173913e-01 -3.651309e-02 1.130145e+00 -5.430612e+00 3.783073e+00
4.835768e+01 2.086957e-01 -3.701149e-02 1.133283e+00 -5.430649e+00 3.783073e+00
4.712433e+01 2.086957e-01 -3.588420e-02 1.133569e+00 -5.432302e+00 3.764636e+00
4.692170e+01 2.086957e-01 -3.595647e-02 1.133792e+00 -5.430135e+00 3.766588e+00
4.597951e+01 2.000000e-01 -3.614825e-02 1.134071e+00 -5.433205e+00 3.773359e+00
4.607446e+01 1.913043e-01 -3.602114e-02 1.134625e+00 -5.440416e+00 3.775961e+00
4.773369e+01 2.043478e-01 -3.662992e-02 1.135132e+00 -5.441904e+00 3.781356e+00
4.591927e+01 2.130435e-01 -3.682152e-02 1.135545e+00 -5.449920e+00 3.786176e+00
4.778153e+01 2.086957e-01 -3.645110e-02 1.136896e+00 -5.452170e+00 3.792057e+00
4.539432e+01 1.956522e-01 -3.548509e-02 1.137526e+00 -5.466083e+00 3.785944e+00
4.608066e+01 2.086957e-01 -3.548097e-02 1.137952e+00 -5.470521e+00 3.793086e+00
4.525795e+01 2.000000e-01 -3.551308e-02 1.138266e+00 -5.471945e+00 3.793293e+00
4.769770e+01 2.130435e-01 -3.479336e-02 1.139889e+00 -5.486416e+00 3.800209e+00
4.559040e+01 2.130435e-01 -3.633107e-02 1.140667e+00 -5.487221e+00 3.809692e+00
4.848390e+01 2.173913e-01 -3.723420e-02 1.141138e+00 -5.499788e+00 3.821469e+00
4.819549e+01 2.260870e-01 -3.722359e-02 1.141259e+00 -5.499788e+00 3.813215e+00
4.750797e+01 2.086957e-01 -3.712103e-02 1.141584e+00 -5.499706e+00 3.823336e+00
4.633667e+01 2.043478e-01 -3.649373e-02 1.142733e+00 -5.503471e+00 3.824470e+00
4.669877e+01 2.043478e-01 -3.617719e-02 1.143117e+00 -5.509757e+00 3.829461e+00
4.631781e+01 2.043478e-01 -3.600478e-02 1.143502e+00 -5.510880e+00 3.831529e+00
