-7.306211e-02 3.691839e+00 -2.537003e+01 2.895471e+01 7.100795e-05 8.654199e-03 -1.638489e-01 1.303558e-01
-7.931347e-02 3.702371e+00 -2.536238e+01 2.895563e+01 -4.335157e-06 8.524564e-03 -1.638489e-01 1.227417e-01
-7.401726e-02 3.701136e+00 -2.535678e+01 2.895665e+01 9.922562e-06 8.517140e-03 -1.561584e-01 1.193695e-01
-8.626718e-02 3.692612e+00 -2.536334e+01 2.895955e+01 -8.000437e-06 8.503965e-03 -1.638489e-01 1.227417e-01
-8.173414e-02 3.685326e+00 -2.536180e+01 2.896300e+01 1.082624e-05 8.542934e-03 -1.547089e-01 1.193695e-01
-7.905680e-02 3.699538e+00 -2.536049e+01 2.896146e+01 -2.476863e-07 8.529854e-03 -1.638489e-01 1.227417e-01
-9.106100e-02 3.714947e+00 -2.534616e+01 2.896184e+01 2.619025e-05 8.563076e-03 -1.638489e-01 1.227417e-01
-9.879486e-02 3.722275e+00 -2.531776e+01 2.897195e+01 2.015910e-05 8.592125e-03 -1.638489e-01 1.227417e-01
-1.065284e-01 3.713200e+00 -2.529866e+01 2.897020e+01 1.170475e-05 8.640007e-03 -1.638489e-01 1.227417e-01
-1.124404e-01 3.723485e+00 -2.520085e+01 2.897098e+01 1.974024e-05 8.672401e-03 -1.638489e-01 1.227417e-01
-1.144065e-01 3.730330e+00 -2.520110e+01 2.897105e+01 -2.901510e-06 8.657648e-03 -1.638489e-01 1.227417e-01
-1.145303e-01 3.743578e+00 -2.519165e+01 2.897032e+01 5.639246e-05 8.785963e-03 -1.547089e-01 1.447449e-01
-1.207064e-01 3.739409e+00 -2.514131e+01 2.896632e+01 -2.049597e-05 8.768321e-03 -1.721039e-01 1.227417e-01
-1.140277e-01 3.752066e+00 -2.511523e+01 2.393805e+01 1.292400e-05 8.803822e-03 -1.638489e-01 1.227417e-01
-1.262109e-01 3.740339e+00 -2.510063e+01 2.896472e+01 -6.281834e-06 8.828761e-03 -1.721039e-01 1.227417e-01
-1.029200e-01 3.759928e+00 -2.536928e+01 2.896448e+01 3.210496e-05 9.064310e-03 -1.638489e-01 1.340332e-01
-6.592093e-02 3.982642e+00 -2.683147e+01 2.425560e+01 1.544899e-04 1.459881e-02 -1.808624e-01 1.984253e-01
-7.377313e-02 4.864230e+00 -3.121872e+01 3.691496e+01 -4.601715e-05 3.271369e-02 -7.167511e-01 7.167511e-01
-9.431504e-02 5.178915e+00 -3.272392e+01 3.676706e+01 2.159971e-05 2.995853e-02 -5.836029e-01 5.836029e-01
-1.289435e-01 5.125927e+00 -3.271600e+01 3.636946e+01 1.778611e-05 2.276975e-02 -4.101410e-01 4.101410e-01
-2.050767e-01 5.109719e+00 -3.274608e+01 3.604803e+01 -1.663696e-05 1.726515e-02 -2.098541e-01 2.531433e-01
-2.333497e-01 5.127192e+00 -3.274788e+01 3.565175e+01 -5.079342e-05 1.640223e-02 -2.162018e-01 2.162018e-01
-2.294209e-01 5.113053e+00 -3.272588e+01 3.550999e+01 -1.356301e-05 1.619887e-02 -2.167816e-01 2.173767e-01
-2.332424e-01 5.102362e+00 -3.285042e+01 3.548831e+01 -5.276922e-05 1.787508e-02 -2.835388e-01 2.835388e-01
-2.334836e-01 5.096959e+00 -3.405423e+01 3.345935e+01 3.584036e-05 1.825133e-02 -3.011017e-01 3.011017e-01
-1.970207e-01 5.127258e+00 -3.419154e+01 3.122946e+01 6.934549e-05 1.764776e-02 -3.103333e-01 2.577667e-01
-1.935550e-01 5.164531e+00 -3.414883e+01 3.085191e+01 8.517191e-06 1.582395e-02 -3.187256e-01 2.441559e-01
-1.652495e-01 5.172829e+00 -3.023401e+01 3.114519e+01 1.583282e-05 1.648303e-02 -3.186951e-01 2.480316e-01
-1.554005e-01 5.170796e+00 -3.385902e+01 3.113635e+01 5.031372e-06 1.589988e-02 -2.876587e-01 2.324066e-01
-1.296567e-01 5.164664e+00 -3.337253e+01 3.113155e+01 3.783126e-06 1.611964e-02 -3.449402e-01 2.444916e-01
-1.304030e-01 5.164287e+00 -3.331511e+01 3.105167e+01 8.625722e-06 1.563395e-02 -3.631439e-01 2.441101e-01
-9.973674e-02 5.183651e+00 -3.300284e+01 2.992529e+01 -4.856278e-06 1.620431e-02 -3.844604e-01 2.784576e-01
-1.135630e-01 5.233203e+00 -3.314621e+01 3.107297e+01 -6.141812e-06 1.661281e-02 -4.016418e-01 4.005737e-01
-9.244914e-02 5.341025e+00 -3.424734e+01 3.299969e+01 2.581717e-05 2.073237e-02 -5.372620e-01 5.372620e-01
-1.040118e-01 5.377129e+00 -3.426871e+01 3.293190e+01 4.211640e-07 1.948109e-02 -4.773865e-01 4.773865e-01
-9.368048e-02 5.378072e+00 -3.390038e+01 3.292519e+01 4.233988e-05 1.466907e-02 -3.589935e-01 2.946014e-01
-8.881753e-02 5.411125e+00 -3.383112e+01 3.107515e+01 -2.160227e-05 1.359703e-02 -3.713531e-01 3.104858e-01
-7.903527e-02 5.458412e+00 -3.304855e+01 3.228670e+01 -5.119575e-05 1.504840e-02 -3.740387e-01 3.242340e-01
-6.491751e-02 5.502702e+00 -3.313509e+01 3.284793e+01 -7.387978e-06 1.529719e-02 -3.554688e-01 3.052368e-01
-4.683487e-02 5.574378e+00 -3.408644e+01 3.533673e+01 5.017246e-05 1.558607e-02 -3.879852e-01 3.365173e-01
-7.300798e-02 5.623393e+00 -3.427090e+01 3.564207e+01 1.143429e-05 1.632701e-02 -3.627319e-01 3.627319e-01
-1.067224e-01 5.697855e+00 -3.466504e+01 3.729170e+01 -7.912938e-05 1.549937e-02 -3.972931e-01 3.972931e-01
-9.093954e-02 5.778026e+00 -3.570264e+01 3.805295e+01 -5.341586e-05 1.588034e-02 -4.672852e-01 4.569855e-01
-8.542270e-02 5.890451e+00 -3.607381e+01 3.979309e+01 6.751793e-05 1.398733e-02 -4.258270e-01 3.664551e-01
-1.025859e-01 5.990324e+00 -3.687589e+01 4.079103e+01 3.044166e-07 1.564723e-02 -4.250336e-01 3.544769e-01
-9.840717e-02 6.010567e+00 -3.689273e+01 4.079103e+01 -8.377231e-06 1.388194e-02 -4.461060e-01 3.530426e-01
-8.324661e-02 5.986678e+00 -3.662512e+01 4.064822e+01 1.424297e-05 1.256725e-02 -4.445343e-01 4.298553e-01
-9.495000e-02 6.000980e+00 -3.633475e+01 4.042261e+01 -3.086700e-05 9.489070e-03 -4.520111e-01 3.048553e-01
-5.689815e-02 6.012583e+00 -3.598312e+01 4.012692e+01 2.922606e-05 7.917787e-03 -4.498138e-01 2.925110e-01
-6.142637e-02 6.032192e+00 -3.574480e+01 3.998318e+01 6.580048e-05 7.773390e-03 -3.975830e-01 3.031616e-01
-9.704050e-02 6.067008e+00 -3.589165e+01 3.969785e+01 -4.885306e-05 1.054332e-02 -4.520721e-01 4.123535e-01
-9.038073e-02 6.070356e+00 -3.585028e+01 3.963643e+01 -1.840382e-05 1.042657e-02 -5.300140e-01 5.300140e-01
-6.894665e-02 6.062743e+00 -3.574442e+01 3.989397e+01 5.875147e-06 8.758191e-03 -4.365997e-01 4.365997e-01
-8.477687e-02 6.084183e+00 -3.577150e+01 4.024374e+01 -7.534814e-07 6.044760e-03 -3.389587e-01 3.087921e-01
-6.958091e-02 6.071982e+00 -3.580075e+01 4.064203e+01 1.371689e-05 5.859795e-03 -3.263855e-01 2.874603e-01
-7.038558e-02 6.093279e+00 -3.574675e+01 4.063138e+01 3.618240e-06 5.428054e-03 -3.386230e-01 3.136292e-01
-6.929774e-02 6.079461e+00 -3.574840e+01 4.064745e+01 -5.511258e-06 5.217541e-03 -3.381653e-01 3.135529e-01
-6.963303e-02 6.097256e+00 -3.576772e+01 4.065228e+01 -1.971282e-06 5.128267e-03 -3.321533e-01 2.854309e-01
-6.306425e-02 6.088235e+00 -3.577325e+01 4.064198e+01 4.131162e-06 4.972511e-03 -3.393097e-01 3.097534e-01
-7.617970e-02 6.085879e+00 -3.575333e+01 4.059326e+01 -5.915775e-06 5.201448e-03 -3.385162e-01 2.959747e-01
-7.649913e-02 6.105373e+00 -3.554514e+01 4.049696e+01 6.899250e-06 8.503579e-03 -4.266052e-01 4.266052e-01
-7.172632e-02 6.093258e+00 -3.553951e+01 4.046220e+01 -4.837273e-06 7.403623e-03 -3.627930e-01 3.627930e-01
-8.470257e-02 6.090328e+00 -3.560471e+01 4.060214e+01 -1.187727e-05 5.354518e-03 -3.355865e-01 2.783508e-01
-9.366653e-02 6.093651e+00 -3.568481e+01 4.070773e+01 2.466337e-05 5.318781e-03 -3.132324e-01 3.261719e-01
-1.001749e-01 6.135715e+00 -3.589034e+01 4.087367e+01 -1.510848e-05 5.494522e-03 -3.678741e-01 2.980499e-01
-9.088472e-02 6.126384e+00 -3.595503e+01 4.082451e+01 2.165488e-05 5.207028e-03 -3.052521e-01 3.311920e-01
-8.894091e-02 6.113144e+00 -3.592386e+01 3.527638e+01 8.587443e-06 5.034968e-03 -3.162689e-01 3.122711e-01
-7.724076e-02 6.135278e+00 -3.577429e+01 4.078542e+01 -9.954509e-06 4.817664e-03 -3.842316e-01 3.125763e-01
-6.857508e-02 6.144020e+00 -3.577258e+01 4.078156e+01 -7.659903e-06 5.001834e-03 -3.343506e-01 3.363495e-01
-7.952009e-02 6.135474e+00 -3.577258e+01 4.082594e+01 -2.085198e-06 4.849339e-03 -3.621368e-01 3.358765e-01
-6.136387e-02 6.131871e+00 -3.578343e+01 4.080029e+01 9.408470e-07 4.443945e-03 -3.194733e-01 3.373108e-01
-7.601100e-02 6.131069e+00 -3.578706e+01 4.079135e+01 -5.791668e-06 4.793653e-03 -3.570404e-01 3.048248e-01
-6.922832e-02 6.119087e+00 -3.578294e+01 4.079135e+01 -1.552467e-06 4.700435e-03 -3.570404e-01 3.050537e-01
-7.239168e-02 6.136483e+00 -3.576251e+01 4.076784e+01 3.546005e-07 4.542155e-03 -3.357849e-01 3.319244e-01
-7.379914e-02 6.148160e+00 -3.575587e+01 4.075937e+01 2.859319e-06 4.161261e-03 -3.313446e-01 3.221893e-01
-7.339064e-02 6.141126e+00 -3.575676e+01 4.075998e+01 7.046551e-07 4.182892e-03 -3.170929e-01 3.221283e-01
-7.834577e-02 6.140032e+00 -3.575676e+01 3.546799e+01 -2.257247e-06 4.333206e-03 -3.625031e-01 3.215485e-01
-8.308260e-02 6.145286e+00 -3.565413e+01 4.073499e+01 4.442322e-06 4.133460e-03 -3.147278e-01 3.011627e-01
-8.035422e-02 6.138097e+00 -3.547125e+01 4.068529e+01 -5.337352e-06 4.635856e-03 -3.289185e-01 2.556152e-01
-7.873243e-02 6.151086e+00 -3.540508e+01 4.058798e+01 5.639581e-06 5.646826e-03 -3.721771e-01 3.721771e-01
-8.007257e-02 6.145621e+00 -3.549606e+01 4.055397e+01 3.368428e-06 5.123614e-03 -3.270874e-01 3.270874e-01
-7.869482e-02 6.157073e+00 -3.549464e+01 4.055626e+01 3.641818e-06 7.185184e-03 -4.883575e-01 4.883575e-01
-7.947929e-02 6.150319e+00 -3.551010e+01 4.054878e+01 -2.289068e-06 5.953142e-03 -3.676605e-01 3.676605e-01
-8.111020e-02 6.157590e+00 -3.553239e+01 4.056343e+01 2.278280e-06 4.549346e-03 -3.339844e-01 2.669220e-01
-6.708333e-02 6.153926e+00 -3.542674e+01 4.046054e+01 -1.979936e-06 5.454101e-03 -3.791809e-01 2.588654e-01
-7.469093e-02 6.160952e+00 -3.585017e+01 4.006386e+01 1.243911e-05 6.404230e-03 -3.569336e-01 2.604980e-01
-7.855794e-02 6.178621e+00 -3.588531e+01 3.971985e+01 -6.859837e-06 5.523790e-03 -3.374023e-01 2.706604e-01
-8.482421e-02 6.196231e+00 -3.594849e+01 3.967851e+01 -6.048929e-06 4.668576e-03 -3.369446e-01 2.352905e-01
-8.433571e-02 6.207414e+00 -3.602538e+01 3.957179e+01 9.506721e-06 5.323839e-03 -3.208313e-01 2.680206e-01
-9.255518e-02 6.211010e+00 -3.611284e+01 3.965750e+01 -1.490028e-05 4.460523e-03 -3.816833e-01 2.560272e-01
-6.098210e-02 6.216995e+00 -3.612956e+01 3.971510e+01 -2.486741e-06 3.729309e-03 -3.414612e-01 2.416534e-01
-7.178143e-02 6.206286e+00 -3.611203e+01 3.982523e+01 1.155203e-05 4.019865e-03 -3.287201e-01 2.765961e-01
-6.385500e-02 6.215191e+00 -3.611139e+01 3.983548e+01 6.444711e-06 3.741090e-03 -3.337250e-01 2.577362e-01
-8.112799e-02 6.227175e+00 -3.606432e+01 3.983955e+01 1.105090e-05 3.798957e-03 -3.332977e-01 2.026825e-01
-7.449092e-02 6.217293e+00 -3.607065e+01 3.987848e+01 1.611091e-06 4.100841e-03 -2.943420e-01 2.196655e-01
-7.752294e-02 6.210663e+00 -3.613586e+01 4.006262e+01 -1.409203e-05 4.125383e-03 -3.364563e-01 2.063141e-01
-7.928219e-02 6.224859e+00 -3.615387e+01 4.004630e+01 -5.144003e-06 3.937020e-03 -3.284912e-01 2.427521e-01
-7.383422e-02 6.228450e+00 -3.616443e+01 4.008795e+01 -1.589826e-07 3.726550e-03 -3.254547e-01 2.405243e-01
-7.945528e-02 6.219299e+00 -3.616443e+01 4.008795e+01 4.202120e-06 3.247033e-03 -2.026825e-01 2.026825e-01
-7.628705e-02 6.217631e+00 -3.616624e+01 4.009023e+01 6.466279e-06 3.135521e-03 -3.249969e-01 2.026825e-01
-7.867015e-02 6.216891e+00 -3.616016e+01 4.010860e+01 -7.636245e-06 3.315656e-03 -3.537140e-01 1.984253e-01
-7.487195e-02 6.224106e+00 -3.615047e+01 3.425323e+01 2.797034e-06 2.919226e-03 -1.993408e-01 2.026825e-01
-8.702329e-02 6.230748e+00 -3.610088e+01 3.426430e+01 -9.178101e-06 2.917446e-03 -3.254089e-01 2.026825e-01
-9.442993e-02 6.244796e+00 -3.606941e+01 4.022485e+01 3.038736e-06 2.707221e-03 -3.316803e-01 2.026825e-01
-8.031815e-02 6.242319e+00 -3.606941e+01 4.022485e+01 2.688619e-06 2.620879e-03 -3.316803e-01 2.026825e-01
-9.007594e-02 6.245526e+00 -3.606973e+01 4.024815e+01 8.599759e-08 2.593846e-03 -3.441315e-01 2.026825e-01
-8.475333e-02 6.245263e+00 -3.607863e+01 4.027000e+01 -2.787254e-06 2.544504e-03 -3.432770e-01 2.007904e-01
-8.208928e-02 6.245423e+00 -3.607881e+01 4.029451e+01 -3.358148e-06 2.575629e-03 -3.432617e-01 2.026825e-01
-7.794128e-02 6.247070e+00 -3.607053e+01 4.026434e+01 -1.009241e-06 2.588322e-03 -3.556824e-01 2.026825e-01
-7.268216e-02 6.254166e+00 -3.607022e+01 4.026396e+01 5.960618e-07 2.579092e-03 -3.561249e-01 2.026825e-01
-8.704186e-02 6.243038e+00 -3.606242e+01 4.025813e+01 -1.565176e-07 2.464611e-03 -3.312073e-01 2.026825e-01
-8.500265e-02 6.249325e+00 -3.605847e+01 4.028029e+01 -6.871028e-06 2.615254e-03 -3.559265e-01 2.026825e-01
-8.521709e-02 6.265014e+00 -3.605534e+01 4.029131e+01 2.791023e-06 2.530321e-03 -3.434143e-01 2.026825e-01
-9.114737e-02 6.273500e+00 -3.605084e+01 4.029951e+01 -1.854472e-06 2.581197e-03 -3.316803e-01 2.026825e-01
-8.883668e-02 6.247991e+00 -3.604582e+01 4.030534e+01 -1.543232e-06 2.517326e-03 -3.440704e-01 2.026825e-01
-8.183465e-02 6.251169e+00 -3.527788e+01 4.031648e+01 2.356293e-06 2.586309e-03 -3.308258e-01 2.007904e-01
-8.376790e-02 6.247977e+00 -3.602550e+01 4.032681e+01 -3.104398e-06 2.559812e-03 -3.307800e-01 2.007904e-01
-8.194494e-02 6.246465e+00 -3.601006e+01 4.034586e+01 2.515400e-06 2.438894e-03 -3.312378e-01 2.026825e-01
-7.662809e-02 6.246607e+00 -3.524774e+01 3.407239e+01 6.170678e-07 2.421619e-03 -1.984253e-01 2.007904e-01
-8.743349e-02 6.244761e+00 -3.599950e+01 4.035774e+01 3.890388e-07 2.545857e-03 -3.316193e-01 2.026825e-01
-7.465674e-02 6.255601e+00 -3.600072e+01 4.036206e+01 2.721030e-06 2.484759e-03 -3.317413e-01 2.026825e-01
-1.070815e-01 6.270655e+00 -3.599985e+01 4.037823e+01 -9.564550e-06 2.340339e-03 -3.319397e-01 2.007904e-01
-8.707059e-02 6.259825e+00 -3.521982e+01 4.037779e+01 -1.121721e-05 2.353417e-03 -2.026825e-01 2.007904e-01
-9.080519e-02 6.259361e+00 -3.599811e+01 4.037859e+01 -4.014406e-06 2.494464e-03 -3.322754e-01 2.026825e-01
-8.487948e-02 6.252293e+00 -3.599258e+01 4.037996e+01 -2.187468e-06 2.435211e-03 -3.001099e-01 2.007904e-01
-8.810598e-02 6.264550e+00 -3.600385e+01 4.038847e+01 1.169349e-06 2.525938e-03 -2.981720e-01 2.205658e-01
-9.165250e-02 6.273686e+00 -3.601172e+01 4.039998e+01 4.450699e-06 2.505148e-03 -3.020477e-01 2.213287e-01
-9.892873e-02 6.265085e+00 -3.601271e+01 4.042950e+01 -8.126535e-06 2.498859e-03 -3.395233e-01 2.007904e-01
-7.681081e-02 6.275067e+00 -3.601340e+01 4.041925e+01 2.565611e-06 2.470187e-03 -3.027191e-01 2.365723e-01
-8.950837e-02 6.277784e+00 -3.600197e+01 4.040407e+01 -3.196093e-06 2.497026e-03 -3.338470e-01 2.371826e-01
-8.562693e-02 6.273479e+00 -3.600197e+01 4.040514e+01 -1.162615e-06 2.338351e-03 -3.261566e-01 2.377777e-01
-8.842141e-02 6.259297e+00 -3.600674e+01 4.040993e+01 2.975933e-07 2.449560e-03 -3.260956e-01 2.221069e-01
-9.481257e-02 6.264934e+00 -3.600882e+01 3.442661e+01 -3.119268e-06 2.466936e-03 -3.262177e-01 2.359009e-01
-8.718820e-02 6.278699e+00 -3.601756e+01 4.043735e+01 8.869567e-07 2.429094e-03 -3.243561e-01 2.359772e-01
-8.312030e-02 6.284174e+00 -3.601756e+01 4.043733e+01 3.021276e-06 2.276427e-03 -3.256989e-01 2.368774e-01
-8.207328e-02 6.271656e+00 -3.601831e+01 4.042998e+01 -2.736847e-07 2.327874e-03 -3.259430e-01 2.369385e-01
-8.850228e-02 6.281507e+00 -3.602104e+01 4.043755e+01 2.017983e-07 2.415998e-03 -3.404388e-01 2.366486e-01
-8.263377e-02 6.266392e+00 -3.602217e+01 4.044429e+01 -2.345611e-06 2.402122e-03 -3.265076e-01 2.365265e-01
