2.048000e+03 8.929000e-01 9.019796e-04 5.757191e-01 -9.997559e-01 9.997559e-01
1.543257e+03 1.373000e-01 -1.994648e-02 5.740028e-01 -1.543213e+00 2.557617e+00
1.157979e+03 1.017000e-01 -2.666355e-02 5.739673e-01 -1.696533e+00 2.884521e+00
1.010692e+03 9.160000e-02 -2.999969e-02 5.743040e-01 -2.006836e+00 3.042480e+00
9.326650e+02 8.700000e-02 -3.215701e-02 5.746591e-01 -2.269775e+00 3.090332e+00
8.823059e+02 8.050000e-02 -3.382771e-02 5.750219e-01 -2.508301e+00 3.106445e+00
8.288235e+02 7.580000e-02 -3.501364e-02 5.753748e-01 -2.763428e+00 3.122803e+00
8.108367e+02 7.470000e-02 -3.598407e-02 5.757287e-01 -2.900146e+00 3.242432e+00
7.911309e+02 7.220000e-02 -3.687966e-02 5.760623e-01 -3.039551e+00 3.273193e+00
7.672097e+02 7.110000e-02 -3.767552e-02 5.763835e-01 -3.159180e+00 3.313232e+00
7.530063e+02 6.940000e-02 -3.832273e-02 5.767089e-01 -3.337158e+00 3.370361e+00
7.390679e+02 6.880000e-02 -3.894070e-02 5.770439e-01 -3.478027e+00 3.410889e+00
7.264678e+02 6.560000e-02 -3.954689e-02 5.773776e-01 -3.587891e+00 3.431885e+00
7.102673e+02 6.490000e-02 -4.002661e-02 5.776624e-01 -3.704346e+00 3.451904e+00
7.129800e+02 6.570000e-02 -4.054735e-02 5.779808e-01 -3.804443e+00 3.497559e+00
7.120449e+02 6.660000e-02 -4.107834e-02 5.782954e-01 -3.891113e+00 3.527100e+00
6.940164e+02 6.470000e-02 -4.145668e-02 5.786187e-01 -3.984131e+00 3.557617e+00
6.831523e+02 6.210000e-02 -4.199242e-02 5.789100e-01 -4.067627e+00 3.564697e+00
6.825356e+02 6.280000e-02 -4.242121e-02 5.792186e-01 -4.151123e+00 3.599609e+00
6.785493e+02 6.320000e-02 -4.289228e-02 5.795446e-01 -4.241699e+00 3.635498e+00
6.676384e+02 5.930000e-02 -4.332142e-02 5.798819e-01 -4.339600e+00 3.651123e+00
6.618757e+02 6.100000e-02 -4.376347e-02 5.801926e-01 -4.408691e+00 3.675537e+00
6.546223e+02 6.230000e-02 -4.409869e-02 5.805203e-01 -4.504150e+00 3.705322e+00
6.564004e+02 5.930000e-02 -4.455506e-02 5.808415e-01 -4.579102e+00 3.725098e+00
6.536917e+02 5.870000e-02 -4.496488e-02 5.811664e-01 -4.616699e+00 3.747314e+00
6.478655e+02 5.850000e-02 -4.536998e-02 5.815085e-01 -4.687988e+00 3.757568e+00
6.400283e+02 5.990000e-02 -4.580240e-02 5.818243e-01 -4.722900e+00 3.793457e+00
6.356050e+02 5.860000e-02 -4.622074e-02 5.821746e-01 -4.760742e+00 3.820557e+00
6.384114e+02 5.860000e-02 -4.650167e-02 5.825299e-01 -4.847656e+00 3.836426e+00
6.298098e+02 5.660000e-02 -4.693051e-02 5.828728e-01 -4.864746e+00 3.833984e+00
6.319500e+02 5.810000e-02 -4.731502e-02 5.832017e-01 -4.952393e+00 3.863770e+00
6.250959e+02 5.550000e-02 -4.769774e-02 5.835675e-01 -5.003906e+00 3.871582e+00
6.192383e+02 5.550000e-02 -4.803119e-02 5.839299e-01 -5.029541e+00 3.866943e+00
6.312080e+02 5.910000e-02 -4.839143e-02 5.842612e-01 -5.119873e+00 3.880127e+00
6.178623e+02 5.670000e-02 -4.867612e-02 5.846317e-01 -5.159912e+00 3.880127e+00
6.286646e+02 5.680000e-02 -4.896083e-02 5.849830e-01 -5.206543e+00 3.865479e+00
6.203169e+02 5.820000e-02 -4.929104e-02 5.853192e-01 -5.228760e+00 3.873535e+00
6.281379e+02 5.760000e-02 -4.957894e-02 5.856693e-01 -5.256104e+00 3.872803e+00
6.170647e+02 5.580000e-02 -4.986513e-02 5.860202e-01 -5.317871e+00 3.855713e+00
6.069067e+02 5.630000e-02 -5.020200e-02 5.863414e-01 -5.377930e+00 3.883301e+00
6.147756e+02 5.680000e-02 -5.045712e-02 5.867046e-01 -5.392578e+00 3.892578e+00
6.173906e+02 5.710000e-02 -5.067081e-02 5.870604e-01 -5.455566e+00 3.863525e+00
6.162551e+02 5.800000e-02 -5.090997e-02 5.874047e-01 -5.482910e+00 3.870361e+00
6.097661e+02 5.740000e-02 -5.119205e-02 5.877427e-01 -5.505615e+00 3.854248e+00
6.086792e+02 5.580000e-02 -5.141801e-02 5.880884e-01 -5.550049e+00 3.851074e+00
