1.279961e+02 6.322418e-01 -1.699513e-02 5.754002e-01 -9.960938e-01 9.960938e-01
1.279961e+02 6.322418e-01 -1.699513e-02 5.754002e-01 -9.960938e-01 9.960938e-01
1.279961e+02 6.322418e-01 -1.699513e-02 5.754002e-01 -9.960938e-01 9.960938e-01
1.279961e+02 6.322418e-01 -1.699513e-02 5.754002e-01 -9.960938e-01 9.960938e-01
1.279961e+02 6.322418e-01 -1.699513e-02 5.754002e-01 -9.960938e-01 9.960938e-01
1.279961e+02 6.322418e-01 -1.699513e-02 5.754002e-01 -9.960938e-01 9.960938e-01
1.279961e+02 6.322418e-01 -1.699513e-02 5.754002e-01 -9.960938e-01 9.960938e-01
1.279961e+02 6.322418e-01 -1.699513e-02 5.754002e-01 -9.960938e-01 9.960938e-01
1.279961e+02 6.322418e-01 -1.699513e-02 5.754002e-01 -9.960938e-01 9.960938e-01
1.279961e+02 6.322418e-01 -1.699513e-02 5.754002e-01 -9.960938e-01 9.960938e-01
1.279961e+02 6.322418e-01 -1.699513e-02 5.754002e-01 -9.960938e-01 9.960938e-01
1.279961e+02 6.322418e-01 -1.699513e-02 5.754002e-01 -9.960938e-01 9.960938e-01
1.279961e+02 6.322418e-01 -1.699513e-02 5.754002e-01 -9.960938e-01 9.960938e-01
1.279961e+02 6.322418e-01 -1.699513e-02 5.754002e-01 -9.960938e-01 9.960938e-01
1.279961e+02 6.322418e-01 -1.699513e-02 5.754002e-01 -9.960938e-01 9.960938e-01
1.279961e+02 6.322418e-01 -1.699513e-02 5.754002e-01 -9.960938e-01 9.960938e-01
1.279961e+02 6.322418e-01 -1.699513e-02 5.754002e-01 -9.960938e-01 9.960938e-01
1.279961e+02 6.322418e-01 -1.699513e-02 5.754002e-01 -9.960938e-01 9.960938e-01
1.279961e+02 6.322418e-01 -1.699513e-02 5.754002e-01 -9.960938e-01 9.960938e-01
1.279961e+02 6.322418e-01 -1.699513e-02 5.754002e-01 -9.960938e-01 9.960938e-01
1.279961e+02 6.322418e-01 -1.699513e-02 5.754002e-01 -9.960938e-01 9.960938e-01
1.279961e+02 6.322418e-01 -1.699513e-02 5.754002e-01 -9.960938e-01 9.960938e-01
1.279961e+02 6.322418e-01 -1.699513e-02 5.754002e-01 -9.960938e-01 9.960938e-01
1.279961e+02 6.322418e-01 -1.699513e-02 5.754002e-01 -9.960938e-01 9.960938e-01
1.279961e+02 6.322418e-01 -1.699513e-02 5.754002e-01 -9.960938e-01 9.960938e-01
1.279961e+02 6.322418e-01 -1.699513e-02 5.754002e-01 -9.960938e-01 9.960938e-01
1.279961e+02 6.322418e-01 -1.699513e-02 5.754002e-01 -9.960938e-01 9.960938e-01
1.279961e+02 6.322418e-01 -1.699513e-02 5.754002e-01 -9.960938e-01 9.960938e-01
1.279961e+02 6.322418e-01 -1.699513e-02 5.754002e-01 -9.960938e-01 9.960938e-01
1.279961e+02 6.322418e-01 -1.699513e-02 5.754002e-01 -9.960938e-01 9.960938e-01
1.279961e+02 6.322418e-01 -1.699513e-02 5.754002e-01 -9.960938e-01 9.960938e-01
1.279961e+02 6.322418e-01 -1.699513e-02 5.754002e-01 -9.960938e-01 9.960938e-01
1.279961e+02 6.322418e-01 -1.699513e-02 5.754002e-01 -9.960938e-01 9.960938e-01
1.279961e+02 6.322418e-01 -1.699513e-02 5.754002e-01 -9.960938e-01 9.960938e-01
1.279961e+02 6.322418e-01 -1.699513e-02 5.754002e-01 -9.960938e-01 9.960938e-01
1.279961e+02 6.322418e-01 -1.699513e-02 5.754002e-01 -9.960938e-01 9.960938e-01
1.279961e+02 6.322418e-01 -1.699513e-02 5.754002e-01 -9.960938e-01 9.960938e-01
1.279961e+02 6.322418e-01 -1.699513e-02 5.754002e-01 -9.960938e-01 9.960938e-01
1.279961e+02 6.322418e-01 -1.699513e-02 5.754002e-01 -9.960938e-01 9.960938e-01
1.279961e+02 6.322418e-01 -1.699513e-02 5.754002e-01 -9.960938e-01 9.960938e-01
1.279961e+02 6.322418e-01 -1.699513e-02 5.754002e-01 -9.960938e-01 9.960938e-01
1.279961e+02 6.322418e-01 -1.699513e-02 5.754002e-01 -9.960938e-01 9.960938e-01
1.279961e+02 6.322418e-01 -1.699513e-02 5.754002e-01 -9.960938e-01 9.960938e-01
1.279961e+02 6.322418e-01 -1.699513e-02 5.754002e-01 -9.960938e-01 9.960938e-01
1.279961e+02 6.322418e-01 -1.699513e-02 5.754002e-01 -9.960938e-01 9.960938e-01
1.279961e+02 6.322418e-01 -1.699513e-02 5.754002e-01 -9.960938e-01 9.960938e-01
1.279961e+02 6.322418e-01 -1.699513e-02 5.754002e-01 -9.960938e-01 9.960938e-01
1.279961e+02 6.322418e-01 -1.699513e-02 5.754002e-01 -9.960938e-01 9.960938e-01
1.279961e+02 6.322418e-01 -1.699513e-02 5.754002e-01 -9.960938e-01 9.960938e-01
1.279961e+02 6.322418e-01 -1.699513e-02 5.754002e-01 -9.960938e-01 9.960938e-01
1.279961e+02 6.322418e-01 -1.699513e-02 5.754002e-01 -9.960938e-01 9.960938e-01
1.279961e+02 6.322418e-01 -1.699513e-02 5.754002e-01 -9.960938e-01 9.960938e-01
1.279961e+02 6.322418e-01 -1.699513e-02 5.754002e-01 -9.960938e-01 9.960938e-01
1.279961e+02 6.322418e-01 -1.699513e-02 5.754002e-01 -9.960938e-01 9.960938e-01
1.279961e+02 6.322418e-01 -1.699513e-02 5.754002e-01 -9.960938e-01 9.960938e-01
1.279961e+02 6.322418e-01 -1.699513e-02 5.754002e-01 -9.960938e-01 9.960938e-01
1.279961e+02 6.322418e-01 -1.699513e-02 5.754002e-01 -9.960938e-01 9.960938e-01
1.279961e+02 6.322418e-01 -1.699513e-02 5.754002e-01 -9.960938e-01 9.960938e-01
1.279961e+02 6.322418e-01 -1.699513e-02 5.754002e-01 -9.960938e-01 9.960938e-01
1.279961e+02 6.322418e-01 -1.699513e-02 5.754002e-01 -9.960938e-01 9.960938e-01
1.279961e+02 6.322418e-01 -1.699513e-02 5.754002e-01 -9.960938e-01 9.960938e-01
1.279961e+02 6.322418e-01 -1.699513e-02 5.754002e-01 -9.960938e-01 9.960938e-01
1.279961e+02 6.322418e-01 -1.699513e-02 5.754002e-01 -9.960938e-01 9.960938e-01
1.279961e+02 6.322418e-01 -1.699513e-02 5.754002e-01 -9.960938e-01 9.960938e-01
1.279961e+02 6.322418e-01 -1.699513e-02 5.754002e-01 -9.960938e-01 9.960938e-01
1.279961e+02 6.322418e-01 -1.699513e-02 5.754002e-01 -9.960938e-01 9.960938e-01
1.279961e+02 6.322418e-01 -1.699513e-02 5.754002e-01 -9.960938e-01 9.960938e-01
1.279961e+02 6.322418e-01 -1.699513e-02 5.754002e-01 -9.960938e-01 9.960938e-01
1.279961e+02 6.322418e-01 -1.699513e-02 5.754002e-01 -9.960938e-01 9.960938e-01
1.279961e+02 6.322418e-01 -1.699513e-02 5.754002e-01 -9.960938e-01 9.960938e-01
1.279961e+02 6.322418e-01 -1.699513e-02 5.754002e-01 -9.960938e-01 9.960938e-01
1.279961e+02 6.322418e-01 -1.699513e-02 5.754002e-01 -9.960938e-01 9.960938e-01
1.279961e+02 6.322418e-01 -1.699513e-02 5.754002e-01 -9.960938e-01 9.960938e-01
1.279961e+02 6.322418e-01 -1.699513e-02 5.754002e-01 -9.960938e-01 9.960938e-01
1.279961e+02 6.322418e-01 -1.699513e-02 5.754002e-01 -9.960938e-01 9.960938e-01
1.279961e+02 6.322418e-01 -1.699513e-02 5.754002e-01 -9.960938e-01 9.960938e-01
1.279961e+02 6.322418e-01 -1.699513e-02 5.754002e-01 -9.960938e-01 9.960938e-01
1.279961e+02 6.322418e-01 -1.699513e-02 5.754002e-01 -9.960938e-01 9.960938e-01
1.279961e+02 6.322418e-01 -1.699513e-02 5.754002e-01 -9.960938e-01 9.960938e-01
1.279961e+02 6.322418e-01 -1.699513e-02 5.754002e-01 -9.960938e-01 9.960938e-01
1.279961e+02 6.322418e-01 -1.699513e-02 5.754002e-01 -9.960938e-01 9.960938e-01
1.279961e+02 6.322418e-01 -1.699513e-02 5.754002e-01 -9.960938e-01 9.960938e-01
1.279961e+02 6.322418e-01 -1.699513e-02 5.754002e-01 -9.960938e-01 9.960938e-01
1.279961e+02 6.322418e-01 -1.699513e-02 5.754002e-01 -9.960938e-01 9.960938e-01
1.279961e+02 6.322418e-01 -1.699513e-02 5.754002e-01 -9.960938e-01 9.960938e-01
1.279961e+02 6.322418e-01 -1.699513e-02 5.754002e-01 -9.960938e-01 9.960938e-01
1.279961e+02 6.322418e-01 -1.699513e-02 5.754002e-01 -9.960938e-01 9.960938e-01
1.279961e+02 6.322418e-01 -1.699513e-02 5.754002e-01 -9.960938e-01 9.960938e-01
1.279961e+02 6.322418e-01 -1.699513e-02 5.754002e-01 -9.960938e-01 9.960938e-01
1.279961e+02 6.322418e-01 -1.699513e-02 5.754002e-01 -9.960938e-01 9.960938e-01
1.279961e+02 6.322418e-01 -1.699513e-02 5.754002e-01 -9.960938e-01 9.960938e-01
1.279961e+02 6.322418e-01 -1.699513e-02 5.754002e-01 -9.960938e-01 9.960938e-01
1.279961e+02 6.322418e-01 -1.699513e-02 5.754002e-01 -9.960938e-01 9.960938e-01
1.279961e+02 6.322418e-01 -1.699513e-02 5.754002e-01 -9.960938e-01 9.960938e-01
1.279961e+02 6.322418e-01 -1.699513e-02 5.754002e-01 -9.960938e-01 9.960938e-01
1.279961e+02 6.322418e-01 -1.699513e-02 5.754002e-01 -9.960938e-01 9.960938e-01
1.279961e+02 6.322418e-01 -1.699513e-02 5.754002e-01 -9.960938e-01 9.960938e-01
1.279961e+02 6.322418e-01 -1.699513e-02 5.754002e-01 -9.960938e-01 9.960938e-01
1.279961e+02 6.322418e-01 -1.699513e-02 5.754002e-01 -9.960938e-01 9.960938e-01
1.279961e+02 6.322418e-01 -1.699513e-02 5.754002e-01 -9.960938e-01 9.960938e-01
1.279961e+02 6.322418e-01 -1.699513e-02 5.754002e-01 -9.960938e-01 9.960938e-01
