1.279961e+02 7.707809e-01 1.314287e-02 5.664791e-01 -9.960938e-01 9.960938e-01
1.279961e+02 6.549118e-01 1.171997e-02 5.659117e-01 -1.015625e+00 1.003906e+00
1.279961e+02 4.848866e-01 1.112689e-02 5.659147e-01 -1.027344e+00 1.019531e+00
1.279961e+02 4.811083e-01 1.097924e-02 5.659689e-01 -1.035156e+00 1.031250e+00
1.279961e+02 4.811083e-01 1.094629e-02 5.659654e-01 -1.035156e+00 1.039062e+00
1.279961e+02 4.811083e-01 1.093774e-02 5.659406e-01 -1.035156e+00 1.042969e+00
1.279961e+02 4.811083e-01 1.091700e-02 5.659171e-01 -1.035156e+00 1.046875e+00
1.279961e+02 4.811083e-01 1.087429e-02 5.659054e-01 -1.035156e+00 1.050781e+00
1.279961e+02 4.811083e-01 1.081449e-02 5.658731e-01 -1.035156e+00 1.054688e+00
1.279961e+02 4.811083e-01 1.075592e-02 5.659046e-01 -1.035156e+00 1.062500e+00
1.279961e+02 4.811083e-01 1.070832e-02 5.658997e-01 -1.035156e+00 1.066406e+00
1.279961e+02 4.811083e-01 1.064487e-02 5.659193e-01 -1.035156e+00 1.070312e+00
1.279961e+02 4.811083e-01 1.060094e-02 5.659702e-01 -1.035156e+00 1.074219e+00
1.279961e+02 4.811083e-01 1.054724e-02 5.660451e-01 -1.035156e+00 1.078125e+00
1.279961e+02 4.811083e-01 1.050209e-02 5.661190e-01 -1.035156e+00 1.085938e+00
1.279961e+02 4.811083e-01 1.047158e-02 5.661928e-01 -1.035156e+00 1.089844e+00
1.279961e+02 4.811083e-01 1.044595e-02 5.662568e-01 -1.035156e+00 1.093750e+00
1.279961e+02 4.811083e-01 1.037884e-02 5.663428e-01 -1.039062e+00 1.097656e+00
1.279961e+02 4.811083e-01 1.034223e-02 5.664380e-01 -1.039062e+00 1.101562e+00
1.279961e+02 4.811083e-01 1.028731e-02 5.665191e-01 -1.039062e+00 1.105469e+00
1.279961e+02 4.811083e-01 1.027633e-02 5.666359e-01 -1.039062e+00 1.113281e+00
1.279961e+02 4.811083e-01 1.025558e-02 5.667629e-01 -1.039062e+00 1.117188e+00
1.279961e+02 4.811083e-01 1.021897e-02 5.668873e-01 -1.039062e+00 1.125000e+00
1.279961e+02 4.811083e-01 1.016650e-02 5.670227e-01 -1.039062e+00 1.128906e+00
1.279961e+02 4.785894e-01 1.013111e-02 5.671605e-01 -1.042969e+00 1.132812e+00
1.279961e+02 4.811083e-01 1.007742e-02 5.672723e-01 -1.050781e+00 1.136719e+00
1.279961e+02 4.748111e-01 1.003715e-02 5.674057e-01 -1.058594e+00 1.140625e+00
1.279961e+02 4.785894e-01 9.998096e-03 5.675999e-01 -1.070312e+00 1.144531e+00
1.279961e+02 4.760705e-01 9.983452e-03 5.677801e-01 -1.078125e+00 1.152344e+00
1.279961e+02 4.735516e-01 9.959046e-03 5.679325e-01 -1.085938e+00 1.156250e+00
1.279961e+02 4.672544e-01 9.922436e-03 5.681238e-01 -1.093750e+00 1.160156e+00
1.279961e+02 4.659950e-01 9.883386e-03 5.683007e-01 -1.101562e+00 1.167969e+00
1.279961e+02 4.647355e-01 9.869963e-03 5.684931e-01 -1.113281e+00 1.171875e+00
1.279961e+02 4.659950e-01 9.841895e-03 5.687232e-01 -1.121094e+00 1.175781e+00
1.279961e+02 4.647355e-01 9.844336e-03 5.689622e-01 -1.132812e+00 1.179688e+00
1.279961e+02 4.596977e-01 9.855319e-03 5.691980e-01 -1.144531e+00 1.187500e+00
1.279961e+02 4.534005e-01 9.850437e-03 5.694601e-01 -1.152344e+00 1.195312e+00
1.279961e+02 4.622166e-01 9.818709e-03 5.697038e-01 -1.164062e+00 1.203125e+00
1.279961e+02 4.559194e-01 9.821150e-03 5.699738e-01 -1.171875e+00 1.207031e+00
1.279961e+02 4.521411e-01 9.801624e-03 5.702119e-01 -1.183594e+00 1.210938e+00
1.279961e+02 4.408060e-01 9.806506e-03 5.704610e-01 -1.199219e+00 1.214844e+00
1.279961e+02 4.395466e-01 9.795523e-03 5.706971e-01 -1.207031e+00 1.222656e+00
1.279961e+02 4.420655e-01 9.800404e-03 5.710143e-01 -1.218750e+00 1.230469e+00
1.279961e+02 4.408060e-01 9.805285e-03 5.713011e-01 -1.226562e+00 1.234375e+00
1.279961e+02 4.345088e-01 9.807726e-03 5.715833e-01 -1.238281e+00 1.242188e+00
1.279961e+02 4.382872e-01 9.795523e-03 5.718452e-01 -1.246094e+00 1.246094e+00
1.279961e+02 4.357683e-01 9.778438e-03 5.721547e-01 -1.257812e+00 1.246094e+00
1.279961e+02 4.357683e-01 9.780879e-03 5.724408e-01 -1.269531e+00 1.250000e+00
1.279961e+02 4.382872e-01 9.766235e-03 5.727500e-01 -1.277344e+00 1.253906e+00
1.279961e+02 4.357683e-01 9.725965e-03 5.730814e-01 -1.289062e+00 1.257812e+00
1.279961e+02 4.370277e-01 9.697897e-03 5.733721e-01 -1.296875e+00 1.261719e+00
1.279961e+02 4.307305e-01 9.686914e-03 5.736508e-01 -1.308594e+00 1.269531e+00
1.279961e+02 4.294710e-01 9.673491e-03 5.739498e-01 -1.316406e+00 1.273438e+00
1.279961e+02 4.256927e-01 9.675931e-03 5.742936e-01 -1.328125e+00 1.281250e+00
1.279961e+02 4.256927e-01 9.671050e-03 5.746231e-01 -1.335938e+00 1.289062e+00
1.279961e+02 4.282116e-01 9.641762e-03 5.749919e-01 -1.347656e+00 1.296875e+00
1.279961e+02 4.219144e-01 9.616136e-03 5.753577e-01 -1.359375e+00 1.300781e+00
1.279961e+02 4.219144e-01 9.644203e-03 5.757050e-01 -1.371094e+00 1.304688e+00
1.279961e+02 4.231738e-01 9.639322e-03 5.760104e-01 -1.386719e+00 1.312500e+00
1.279961e+02 4.219144e-01 9.594170e-03 5.763884e-01 -1.398438e+00 1.320312e+00
1.279961e+02 4.193955e-01 9.552679e-03 5.767514e-01 -1.406250e+00 1.328125e+00
1.279961e+02 4.168766e-01 9.513629e-03 5.771080e-01 -1.417969e+00 1.332031e+00
1.279961e+02 4.130982e-01 9.489222e-03 5.774665e-01 -1.421875e+00 1.339844e+00
1.279961e+02 4.130982e-01 9.448951e-03 5.778375e-01 -1.429688e+00 1.343750e+00
1.279961e+02 4.130982e-01 9.391596e-03 5.782224e-01 -1.441406e+00 1.351562e+00
1.279961e+02 4.118388e-01 9.394037e-03 5.785714e-01 -1.453125e+00 1.355469e+00
1.279961e+02 4.143577e-01 9.402579e-03 5.789112e-01 -1.464844e+00 1.363281e+00
1.279961e+02 4.118388e-01 9.358648e-03 5.792806e-01 -1.476562e+00 1.367188e+00
1.279961e+02 4.105793e-01 9.372071e-03 5.796275e-01 -1.484375e+00 1.375000e+00
1.279961e+02 4.118388e-01 9.346444e-03 5.799580e-01 -1.488281e+00 1.378906e+00
1.279961e+02 4.105793e-01 9.279327e-03 5.803521e-01 -1.496094e+00 1.382812e+00
1.279961e+02 4.080605e-01 9.246378e-03 5.807358e-01 -1.507812e+00 1.390625e+00
1.279961e+02 4.080605e-01 9.232955e-03 5.811528e-01 -1.519531e+00 1.394531e+00
1.279961e+02 4.080605e-01 9.234175e-03 5.815415e-01 -1.527344e+00 1.402344e+00
1.279961e+02 4.080605e-01 9.254920e-03 5.819190e-01 -1.535156e+00 1.410156e+00
1.279961e+02 4.068010e-01 9.252480e-03 5.822527e-01 -1.542969e+00 1.414062e+00
1.279961e+02 4.068010e-01 9.200006e-03 5.826939e-01 -1.550781e+00 1.421875e+00
1.279961e+02 4.030227e-01 9.143871e-03 5.831244e-01 -1.558594e+00 1.429688e+00
1.279961e+02 4.030227e-01 9.097499e-03 5.835398e-01 -1.566406e+00 1.437500e+00
1.279961e+02 4.093199e-01 9.051127e-03 5.839345e-01 -1.578125e+00 1.445312e+00
1.279961e+02 3.942065e-01 9.012076e-03 5.843094e-01 -1.582031e+00 1.457031e+00
1.279961e+02 3.916877e-01 8.988890e-03 5.846620e-01 -1.593750e+00 1.464844e+00
1.279961e+02 4.005038e-01 8.962043e-03 5.851152e-01 -1.605469e+00 1.472656e+00
1.279961e+02 3.967254e-01 8.872960e-03 5.855063e-01 -1.609375e+00 1.476562e+00
1.279961e+02 3.967254e-01 8.863197e-03 5.859154e-01 -1.617188e+00 1.488281e+00
1.279961e+02 3.904282e-01 8.850994e-03 5.862931e-01 -1.625000e+00 1.492188e+00
1.279961e+02 3.879093e-01 8.824147e-03 5.867469e-01 -1.632812e+00 1.500000e+00
1.279961e+02 3.929471e-01 8.744826e-03 5.872197e-01 -1.644531e+00 1.507812e+00
1.279961e+02 3.853904e-01 8.720419e-03 5.876875e-01 -1.652344e+00 1.515625e+00
1.279961e+02 3.853904e-01 8.667946e-03 5.880848e-01 -1.664062e+00 1.523438e+00
1.279961e+02 3.828715e-01 8.648420e-03 5.885742e-01 -1.671875e+00 1.531250e+00
1.279961e+02 3.803526e-01 8.637438e-03 5.890024e-01 -1.679688e+00 1.539062e+00
1.279961e+02 3.753149e-01 8.669166e-03 5.893754e-01 -1.683594e+00 1.546875e+00
1.279961e+02 3.753149e-01 8.626455e-03 5.898090e-01 -1.687500e+00 1.550781e+00
1.279961e+02 3.753149e-01 8.619133e-03 5.902180e-01 -1.695312e+00 1.558594e+00
1.279961e+02 3.727960e-01 8.584964e-03 5.907310e-01 -1.703125e+00 1.562500e+00
1.279961e+02 3.727960e-01 8.597167e-03 5.911376e-01 -1.710938e+00 1.570312e+00
1.279961e+02 3.715365e-01 8.643539e-03 5.915575e-01 -1.722656e+00 1.578125e+00
1.279961e+02 3.715365e-01 8.614251e-03 5.919408e-01 -1.734375e+00 1.582031e+00
1.279961e+02 3.589421e-01 8.575201e-03 5.923102e-01 -1.742188e+00 1.582031e+00
1.279961e+02 3.627204e-01 8.555676e-03 5.927274e-01 -1.753906e+00 1.593750e+00
