-1.452750e+00 6.841719e+00 -3.779852e+01 3.346808e+01 3.577196e-06 3.463040e-03 -2.233734e-01 2.238922e-01
-1.652251e+00 7.985340e+00 -4.167792e+01 3.902521e+01 1.120415e-06 2.834831e-03 -2.198944e-01 2.026825e-01
-1.846756e+00 8.598677e+00 -4.468625e+01 4.424852e+01 7.069623e-07 2.668520e-03 -2.188263e-01 2.093964e-01
-1.977278e+00 9.019081e+00 -4.814664e+01 4.684387e+01 5.434627e-07 2.560624e-03 -2.188263e-01 2.093964e-01
-2.075243e+00 9.330676e+00 -4.965366e+01 5.108568e+01 4.925464e-07 2.501299e-03 -2.188263e-01 2.063141e-01
-2.146740e+00 9.564850e+00 -5.183664e+01 5.309746e+01 1.859477e-07 2.454798e-03 -2.160187e-01 2.063141e-01
-2.192464e+00 9.751524e+00 -5.236736e+01 5.625189e+01 5.489102e-07 2.413775e-03 -2.175446e-01 2.063141e-01
-2.252443e+00 9.914843e+00 -5.426451e+01 5.680103e+01 1.932374e-08 2.381824e-03 -2.160187e-01 2.063141e-01
-2.277662e+00 1.004724e+01 -5.479993e+01 5.789268e+01 3.193069e-07 2.360543e-03 -2.160187e-01 2.064972e-01
-2.312001e+00 1.015963e+01 -5.593716e+01 5.890663e+01 8.893365e-08 2.335998e-03 -2.160187e-01 2.067261e-01
-2.336991e+00 1.024996e+01 -5.595845e+01 5.968494e+01 3.982831e-07 2.312147e-03 -2.160187e-01 2.026825e-01
-2.368438e+00 1.034836e+01 -5.716962e+01 6.030779e+01 3.460244e-08 2.301278e-03 -2.160187e-01 2.069855e-01
-2.380170e+00 1.042460e+01 -5.776791e+01 6.158676e+01 4.181937e-08 2.285553e-03 -2.160187e-01 2.214355e-01
-2.401733e+00 1.048393e+01 -5.769991e+01 6.217986e+01 3.117559e-07 2.275825e-03 -2.160187e-01 2.186432e-01
-2.419265e+00 1.055436e+01 -5.906100e+01 6.258168e+01 9.515977e-08 2.265311e-03 -2.141876e-01 2.128448e-01
-2.428919e+00 1.061309e+01 -5.900275e+01 6.277626e+01 2.613878e-07 2.258098e-03 -2.160187e-01 2.118988e-01
-2.446224e+00 1.066033e+01 -5.978163e+01 6.329237e+01 -4.178875e-09 2.240526e-03 -2.160187e-01 2.067413e-01
-2.454520e+00 1.071364e+01 -5.993716e+01 6.380597e+01 1.689072e-07 2.237412e-03 -2.160187e-01 2.109222e-01
-2.468574e+00 1.075021e+01 -6.080881e+01 6.414192e+01 1.778956e-07 2.225881e-03 -2.160187e-01 2.042542e-01
-2.481958e+00 1.080089e+01 -5.977342e+01 6.484966e+01 1.002246e-07 2.223744e-03 -2.160187e-01 2.153168e-01
-2.496741e+00 1.084787e+01 -6.163673e+01 6.474059e+01 7.067037e-08 2.215049e-03 -2.160187e-01 2.102509e-01
-2.502342e+00 1.088007e+01 -6.144427e+01 6.440359e+01 1.864172e-07 2.210509e-03 -2.160187e-01 2.124176e-01
-2.514547e+00 1.091899e+01 -6.210071e+01 6.479742e+01 1.861787e-07 2.199321e-03 -2.160187e-01 2.091980e-01
-2.538935e+00 1.096072e+01 -6.313785e+01 6.497215e+01 6.438236e-08 2.191177e-03 -2.160187e-01 2.151337e-01
-2.535380e+00 1.099613e+01 -6.307108e+01 6.570296e+01 1.794811e-07 2.186223e-03 -2.175446e-01 2.118988e-01
-2.557195e+00 1.102641e+01 -6.333379e+01 6.572516e+01 1.929222e-07 2.181992e-03 -2.160187e-01 2.063141e-01
-2.575162e+00 1.107520e+01 -6.259639e+01 6.609642e+01 8.664485e-09 2.172096e-03 -2.141876e-01 2.073822e-01
-2.577227e+00 1.110111e+01 -6.342395e+01 6.666327e+01 1.514187e-07 2.164566e-03 -2.160187e-01 2.080383e-01
-2.588059e+00 1.113210e+01 -6.299197e+01 6.661871e+01 6.911508e-08 2.160435e-03 -2.160187e-01 2.179871e-01
-2.600429e+00 1.115842e+01 -6.339417e+01 6.627505e+01 1.714936e-07 2.158369e-03 -2.175446e-01 2.282715e-01
-2.616113e+00 1.120716e+01 -6.435431e+01 6.695744e+01 7.860070e-08 2.145859e-03 -2.141876e-01 2.147369e-01
-2.619839e+00 1.123540e+01 -6.399443e+01 6.707426e+01 1.903916e-07 2.140214e-03 -2.175446e-01 2.314606e-01
-2.636543e+00 1.126455e+01 -6.400697e+01 6.703983e+01 1.181263e-07 2.135746e-03 -2.141876e-01 2.384033e-01
-2.648256e+00 1.129670e+01 -6.551819e+01 6.749176e+01 1.072698e-07 2.129248e-03 -2.160187e-01 2.285614e-01
-2.658509e+00 1.132404e+01 -6.446204e+01 6.738495e+01 1.679423e-07 2.125101e-03 -2.141876e-01 2.281494e-01
-2.673645e+00 1.136005e+01 -6.475563e+01 6.772041e+01 1.898792e-09 2.120110e-03 -2.141876e-01 2.256012e-01
-2.685279e+00 1.137620e+01 -6.546797e+01 6.814023e+01 1.691761e-07 2.117371e-03 -2.141876e-01 2.305603e-01
-2.699744e+00 1.141861e+01 -6.548125e+01 6.853297e+01 1.354918e-07 2.117586e-03 -2.141876e-01 2.339630e-01
-2.718763e+00 1.144178e+01 -6.597543e+01 6.829572e+01 1.411377e-07 2.110697e-03 -2.141876e-01 2.248993e-01
-2.729268e+00 1.147322e+01 -6.560925e+01 6.838411e+01 1.471876e-07 2.099306e-03 -2.141876e-01 2.242737e-01
-2.739679e+00 1.149723e+01 -6.603548e+01 6.844731e+01 1.407874e-07 2.098152e-03 -2.141876e-01 2.340393e-01
-2.760833e+00 1.152227e+01 -6.677553e+01 6.836108e+01 2.817778e-08 2.096959e-03 -2.141876e-01 2.236633e-01
-2.774073e+00 1.155293e+01 -6.630156e+01 6.855177e+01 2.701857e-07 2.093086e-03 -2.160187e-01 2.138519e-01
-2.802035e+00 1.158153e+01 -6.706050e+01 6.901436e+01 -6.854338e-08 2.089082e-03 -2.175446e-01 2.275696e-01
-2.809610e+00 1.159785e+01 -6.724330e+01 6.874989e+01 2.493744e-07 2.083590e-03 -2.141876e-01 2.180176e-01
-2.817582e+00 1.162978e+01 -6.653787e+01 6.949715e+01 1.311289e-07 2.082799e-03 -2.160187e-01 2.243195e-01
-2.837293e+00 1.165029e+01 -6.809067e+01 6.894714e+01 1.394996e-07 2.079665e-03 -2.141876e-01 2.147827e-01
-2.851895e+00 1.168432e+01 -6.806706e+01 6.916901e+01 1.586712e-07 2.078717e-03 -2.175446e-01 2.142792e-01
-2.864330e+00 1.169686e+01 -6.842822e+01 6.929785e+01 1.340993e-07 2.076621e-03 -2.160187e-01 2.160187e-01
-2.872040e+00 1.172415e+01 -6.882579e+01 6.951122e+01 1.358032e-07 2.068103e-03 -2.141876e-01 2.316437e-01
-2.884680e+00 1.174146e+01 -6.811696e+01 6.952196e+01 1.569702e-07 2.062379e-03 -2.160187e-01 2.160187e-01
-2.909935e+00 1.177173e+01 -6.888800e+01 6.985008e+01 -1.851463e-08 2.060596e-03 -2.160187e-01 2.160187e-01
-2.908700e+00 1.179891e+01 -6.802287e+01 7.016820e+01 7.074670e-08 2.059255e-03 -2.141876e-01 2.160187e-01
-2.921369e+00 1.181429e+01 -6.855550e+01 6.990497e+01 1.661209e-07 2.049751e-03 -2.141876e-01 2.266846e-01
-2.944832e+00 1.184005e+01 -6.880415e+01 7.043398e+01 9.820118e-08 2.048143e-03 -2.119904e-01 2.175598e-01
-2.947385e+00 1.185609e+01 -6.888199e+01 7.024945e+01 7.305870e-08 2.052337e-03 -2.141876e-01 2.175598e-01
-2.958489e+00 1.189263e+01 -6.873042e+01 7.076245e+01 1.910297e-07 2.048835e-03 -2.141876e-01 2.175598e-01
-2.981648e+00 1.189790e+01 -6.934445e+01 7.042520e+01 3.651945e-08 2.039741e-03 -2.141876e-01 2.175598e-01
-2.985672e+00 1.192854e+01 -6.978659e+01 7.089427e+01 7.501290e-08 2.041215e-03 -2.141876e-01 2.175598e-01
-2.989340e+00 1.194115e+01 -6.976559e+01 7.094138e+01 9.164983e-08 2.036750e-03 -2.119904e-01 2.188416e-01
-3.000265e+00 1.197211e+01 -6.979726e+01 7.134714e+01 1.429606e-07 2.032742e-03 -2.093964e-01 2.188416e-01
-3.019802e+00 1.198045e+01 -6.994781e+01 7.130458e+01 1.261136e-07 2.034770e-03 -2.093964e-01 2.188416e-01
-3.011251e+00 1.201286e+01 -6.991063e+01 7.099135e+01 2.011499e-07 2.022574e-03 -2.093964e-01 2.198944e-01
-3.039123e+00 1.202792e+01 -7.024182e+01 7.150101e+01 -8.206425e-08 2.027237e-03 -2.119904e-01 2.188416e-01
-3.037645e+00 1.205022e+01 -7.025746e+01 7.189554e+01 9.905116e-08 2.020013e-03 -2.119904e-01 2.198944e-01
-3.041823e+00 1.206502e+01 -7.094753e+01 7.180322e+01 2.182187e-07 2.025189e-03 -2.093964e-01 2.286224e-01
-3.061078e+00 1.208247e+01 -7.035201e+01 7.183463e+01 -1.239492e-08 2.020173e-03 -2.093964e-01 2.198944e-01
-3.063864e+00 1.210883e+01 -7.108850e+01 7.172609e+01 5.539941e-08 2.020637e-03 -2.093964e-01 2.198944e-01
-3.066799e+00 1.212667e+01 -7.097498e+01 7.225638e+01 1.077848e-07 2.020071e-03 -2.093964e-01 2.443542e-01
-3.072420e+00 1.214302e+01 -7.095293e+01 7.235683e+01 1.500209e-07 2.015248e-03 -2.093964e-01 2.198944e-01
-3.085190e+00 1.216945e+01 -7.147961e+01 7.191615e+01 -2.164299e-08 2.011514e-03 -2.093964e-01 2.188416e-01
-3.098560e+00 1.219168e+01 -7.144444e+01 7.280435e+01 -1.766349e-08 2.006854e-03 -2.093964e-01 2.175598e-01
-3.100981e+00 1.220970e+01 -7.140273e+01 7.242476e+01 1.914778e-07 2.007205e-03 -2.093964e-01 2.207794e-01
-3.104400e+00 1.223189e+01 -7.146541e+01 7.274104e+01 -3.934043e-09 2.002527e-03 -2.093964e-01 2.188416e-01
-3.103229e+00 1.224194e+01 -7.156870e+01 7.359837e+01 2.190388e-07 1.999135e-03 -2.119904e-01 2.198944e-01
-3.120945e+00 1.224942e+01 -7.152977e+01 7.274855e+01 6.893993e-09 2.003141e-03 -2.093964e-01 2.263794e-01
-3.118158e+00 1.227948e+01 -7.203149e+01 7.345242e+01 2.070913e-07 1.999779e-03 -2.093964e-01 2.198944e-01
-3.131202e+00 1.228948e+01 -7.190996e+01 7.307428e+01 1.891535e-08 2.001008e-03 -2.119904e-01 2.160187e-01
-3.145834e+00 1.231287e+01 -7.252219e+01 7.359462e+01 -4.509894e-08 1.993150e-03 -2.093964e-01 2.189178e-01
