-3.208752e-01 4.191075e+00 -2.668138e+01 2.770477e+01 1.622284e-04 1.022843e-02 -1.916504e-01 1.504517e-01
-3.636374e-01 4.199337e+00 -2.664590e+01 2.793721e+01 3.930737e-05 8.807894e-03 -1.673737e-01 1.227417e-01
-3.967278e-01 4.257030e+00 -2.697289e+01 2.817542e+01 -3.593752e-06 9.267423e-03 -1.808624e-01 1.245117e-01
-4.448689e-01 4.351520e+00 -2.732651e+01 2.971376e+01 1.862931e-05 1.047752e-02 -1.911621e-01 1.500854e-01
-6.326668e-01 5.089031e+00 -3.265160e+01 3.487189e+01 3.670404e-05 1.886119e-02 -2.607880e-01 2.607880e-01
-6.872070e-01 5.401580e+00 -3.275850e+01 3.487189e+01 4.244540e-05 2.017692e-02 -2.633820e-01 2.633820e-01
-6.484309e-01 5.370265e+00 -3.255675e+01 3.590788e+01 1.032941e-05 1.529000e-02 -2.063141e-01 1.931763e-01
-6.315014e-01 5.381383e+00 -3.238069e+01 3.618666e+01 2.382964e-05 1.326341e-02 -1.984253e-01 1.904449e-01
-5.730042e-01 5.461436e+00 -3.183037e+01 3.660512e+01 -2.427668e-05 1.215188e-02 -1.916504e-01 1.852875e-01
-5.579991e-01 5.655417e+00 -3.125858e+01 3.764320e+01 -1.631816e-05 1.355660e-02 -1.952667e-01 1.863861e-01
-5.597427e-01 5.974303e+00 -3.091524e+01 3.815237e+01 -1.401441e-05 1.476212e-02 -2.063141e-01 2.031097e-01
-5.450639e-01 6.001307e+00 -3.083406e+01 3.823892e+01 -4.117425e-05 1.433482e-02 -2.119904e-01 1.877289e-01
-4.991216e-01 6.019840e+00 -3.166463e+01 3.807420e+01 6.574827e-06 1.220222e-02 -1.965637e-01 1.877289e-01
-4.779337e-01 6.082643e+00 -3.221120e+01 3.804971e+01 -6.792054e-06 1.136756e-02 -2.043915e-01 1.823273e-01
-4.473739e-01 6.135088e+00 -3.276384e+01 3.751469e+01 3.730083e-05 1.134634e-02 -1.957245e-01 1.877289e-01
-4.431345e-01 6.202682e+00 -3.311630e+01 3.730215e+01 5.059004e-05 1.237606e-02 -2.322388e-01 2.322388e-01
-4.607769e-01 6.311587e+00 -3.298221e+01 3.712663e+01 -2.164621e-05 1.347686e-02 -2.370605e-01 2.370605e-01
-4.076834e-01 6.424024e+00 -3.272787e+01 3.790932e+01 -5.093089e-06 1.345744e-02 -2.411041e-01 2.344360e-01
-4.172720e-01 6.506275e+00 -3.341823e+01 3.818752e+01 -4.143879e-06 1.328247e-02 -2.519226e-01 2.309875e-01
-3.796582e-01 6.608398e+00 -3.388507e+01 3.626863e+01 -3.251265e-05 1.230716e-02 -2.527924e-01 2.088470e-01
-3.894441e-01 6.695652e+00 -3.411180e+01 3.866048e+01 -5.882477e-05 1.280102e-02 -2.432404e-01 2.281494e-01
-3.820231e-01 6.730936e+00 -3.487878e+01 3.864294e+01 -6.684637e-06 1.180182e-02 -2.644806e-01 2.093964e-01
-3.970198e-01 6.855664e+00 -3.528896e+01 3.858842e+01 8.058279e-05 1.027286e-02 -2.717133e-01 2.294617e-01
-4.761592e-01 6.994994e+00 -3.663664e+01 3.843974e+01 1.719808e-05 1.090483e-02 -2.825928e-01 2.186737e-01
-5.679996e-01 7.207927e+00 -3.874313e+01 3.816779e+01 -2.864587e-05 1.079786e-02 -3.131866e-01 3.131866e-01
-5.978010e-01 7.411068e+00 -4.058286e+01 3.818037e+01 4.283558e-06 1.195366e-02 -3.335114e-01 3.335114e-01
-5.955847e-01 7.437395e+00 -4.043407e+01 3.811809e+01 -1.532057e-05 1.022877e-02 -2.605896e-01 2.605896e-01
-5.523906e-01 7.461918e+00 -4.025841e+01 3.810645e+01 -4.376226e-06 8.629464e-03 -2.357941e-01 2.057800e-01
-5.443923e-01 7.463785e+00 -3.994696e+01 3.771277e+01 4.935105e-06 7.936904e-03 -2.190094e-01 2.283325e-01
-5.261200e-01 7.472842e+00 -3.984705e+01 3.872551e+01 2.632082e-06 7.108688e-03 -2.161407e-01 2.150879e-01
-4.757907e-01 7.489600e+00 -3.950574e+01 3.872849e+01 1.492789e-05 6.699571e-03 -2.125702e-01 2.346649e-01
-4.235988e-01 7.513657e+00 -3.908655e+01 3.900064e+01 -1.637301e-05 7.787783e-03 -2.114258e-01 2.111053e-01
-3.622896e-01 7.559594e+00 -3.867767e+01 3.906642e+01 -8.854006e-08 8.179603e-03 -2.431946e-01 2.155304e-01
-2.949870e-01 7.641779e+00 -3.852119e+01 3.937918e+01 6.191646e-06 9.619040e-03 -2.661591e-01 2.661591e-01
-2.848806e-01 7.687806e+00 -3.828033e+01 3.939369e+01 -6.991643e-06 8.856153e-03 -2.513428e-01 2.323456e-01
-3.050016e-01 7.689386e+00 -3.848534e+01 3.953554e+01 -2.814872e-06 6.162383e-03 -2.563477e-01 1.984253e-01
-3.193083e-01 7.686744e+00 -3.851259e+01 3.966214e+01 -2.818448e-06 5.448359e-03 -2.431335e-01 2.199860e-01
-3.301481e-01 7.698119e+00 -3.863033e+01 3.966246e+01 -2.448976e-06 4.770045e-03 -2.453461e-01 2.427673e-01
-3.402517e-01 7.686797e+00 -3.863176e+01 3.964131e+01 -6.000351e-06 4.402603e-03 -2.396088e-01 2.510529e-01
-3.636950e-01 7.691545e+00 -3.862927e+01 3.959813e+01 -2.870302e-06 4.416984e-03 -2.495270e-01 2.328491e-01
-3.417802e-01 7.710652e+00 -3.862880e+01 3.951404e+01 -2.649033e-06 4.197883e-03 -2.552032e-01 2.026825e-01
-3.352115e-01 7.695570e+00 -3.862410e+01 3.944365e+01 -3.911761e-06 4.460466e-03 -2.611694e-01 2.027283e-01
-3.336741e-01 7.705222e+00 -3.859636e+01 3.939154e+01 -3.215147e-06 4.571919e-03 -2.495117e-01 2.026215e-01
-3.357414e-01 7.709595e+00 -3.851793e+01 3.934184e+01 1.587400e-06 4.261424e-03 -2.177277e-01 2.145081e-01
-3.294497e-01 7.712679e+00 -3.849309e+01 3.933890e+01 3.248201e-06 4.240462e-03 -2.186127e-01 2.161560e-01
-3.469946e-01 7.727083e+00 -3.848691e+01 3.932077e+01 -2.667566e-06 4.182198e-03 -2.276917e-01 2.057037e-01
-3.349124e-01 7.715433e+00 -3.850554e+01 3.922345e+01 4.202102e-07 3.508199e-03 -2.277069e-01 2.056580e-01
-3.262101e-01 7.719604e+00 -3.861806e+01 3.919281e+01 -1.893653e-06 3.870843e-03 -2.110901e-01 2.553406e-01
-3.229287e-01 7.703959e+00 -3.861131e+01 3.916223e+01 -3.558039e-06 3.589646e-03 -2.294922e-01 2.354279e-01
-3.137659e-01 7.724761e+00 -3.858356e+01 3.916588e+01 -8.918836e-08 3.683394e-03 -2.310181e-01 2.357788e-01
-3.428905e-01 7.732163e+00 -3.854692e+01 3.911667e+01 -1.044729e-06 3.791958e-03 -2.310181e-01 2.461700e-01
-3.256814e-01 7.711977e+00 -3.853757e+01 3.912849e+01 -7.493920e-07 3.624010e-03 -2.304077e-01 2.363586e-01
-3.241649e-01 7.710044e+00 -3.851894e+01 3.895784e+01 -9.727204e-07 4.053909e-03 -2.302704e-01 2.264709e-01
-3.164114e-01 7.720733e+00 -3.847931e+01 3.893820e+01 -4.793929e-06 4.071722e-03 -2.303162e-01 2.156067e-01
-3.201551e-01 7.713996e+00 -3.843883e+01 3.874336e+01 -2.093128e-06 4.169734e-03 -2.543182e-01 2.409821e-01
-3.384129e-01 7.734659e+00 -3.846130e+01 3.871150e+01 -5.395748e-06 3.854107e-03 -2.551880e-01 2.281799e-01
-3.216837e-01 7.691958e+00 -3.846683e+01 3.866432e+01 -2.143228e-06 3.779458e-03 -2.548065e-01 2.280426e-01
-3.471482e-01 7.725348e+00 -3.841418e+01 3.877942e+01 -2.706636e-07 4.075814e-03 -2.548065e-01 2.280579e-01
-3.217247e-01 7.731260e+00 -3.841217e+01 3.889322e+01 -1.255978e-07 3.663205e-03 -2.316437e-01 2.376862e-01
-3.258387e-01 7.727178e+00 -3.840286e+01 3.888385e+01 -8.906147e-06 3.612568e-03 -2.234344e-01 2.513428e-01
-3.245116e-01 7.728650e+00 -3.838765e+01 3.881265e+01 5.516951e-06 3.702376e-03 -2.338257e-01 2.495575e-01
-3.179937e-01 7.727032e+00 -3.836990e+01 3.851711e+01 1.240673e-05 3.495490e-03 -1.931152e-01 2.195435e-01
-3.259336e-01 7.738559e+00 -3.836011e+01 3.843665e+01 -9.145949e-06 3.853248e-03 -2.259979e-01 2.308350e-01
-3.092445e-01 7.740680e+00 -3.833086e+01 3.839629e+01 3.120210e-06 3.765676e-03 -2.370300e-01 2.271271e-01
-3.219912e-01 7.740812e+00 -3.831410e+01 3.832681e+01 -4.090528e-06 3.783447e-03 -2.625275e-01 2.570496e-01
-3.263439e-01 7.732210e+00 -3.829747e+01 3.826782e+01 -1.320157e-05 4.054640e-03 -2.417145e-01 2.403412e-01
-3.235226e-01 7.737555e+00 -3.829054e+01 3.828844e+01 3.800702e-06 3.600309e-03 -2.368164e-01 2.140503e-01
-3.062020e-01 7.726218e+00 -3.826227e+01 3.823088e+01 -2.470827e-06 3.877062e-03 -2.368317e-01 2.248383e-01
-3.245051e-01 7.741151e+00 -3.826227e+01 3.815399e+01 -6.277602e-07 3.904303e-03 -2.524719e-01 2.446899e-01
-3.092712e-01 7.729632e+00 -3.825191e+01 3.815950e+01 2.271839e-06 3.810009e-03 -2.529907e-01 2.424469e-01
-3.087064e-01 7.738024e+00 -3.825932e+01 3.759299e+01 2.988930e-07 3.691556e-03 -2.513580e-01 2.386322e-01
-3.076952e-01 7.736691e+00 -3.825824e+01 3.814412e+01 2.314312e-06 3.875380e-03 -2.612610e-01 2.562408e-01
-3.059203e-01 7.745338e+00 -3.825945e+01 3.814775e+01 -9.713952e-07 3.742472e-03 -2.648163e-01 2.623901e-01
-3.179738e-01 7.731653e+00 -3.827654e+01 3.821455e+01 -2.277645e-06 3.605574e-03 -2.647247e-01 2.626038e-01
-3.201910e-01 7.752472e+00 -3.827538e+01 3.820889e+01 -1.590585e-06 3.626581e-03 -2.371674e-01 2.123108e-01
-3.073629e-01 7.718300e+00 -3.827760e+01 3.815997e+01 -1.800509e-06 3.698603e-03 -2.376862e-01 2.122498e-01
-2.967871e-01 7.745604e+00 -3.827811e+01 3.816083e+01 -2.409811e-06 3.727541e-03 -2.273102e-01 2.122498e-01
-3.103213e-01 7.743415e+00 -3.827811e+01 3.818211e+01 -2.186769e-06 3.772249e-03 -2.377472e-01 2.185364e-01
-3.172807e-01 7.746997e+00 -3.827852e+01 3.811771e+01 -9.834649e-07 3.712347e-03 -2.372742e-01 2.185822e-01
-3.247657e-01 7.761846e+00 -3.825845e+01 3.816310e+01 -2.365327e-06 3.589095e-03 -2.276459e-01 2.126312e-01
-3.052209e-01 7.741386e+00 -3.825197e+01 3.812985e+01 4.837336e-07 3.247275e-03 -2.453766e-01 2.122040e-01
-2.963775e-01 7.748015e+00 -3.823573e+01 3.814613e+01 -9.857912e-07 3.551742e-03 -2.211151e-01 2.129669e-01
-2.894055e-01 7.737345e+00 -3.823454e+01 3.811646e+01 6.009036e-07 3.480284e-03 -2.374420e-01 2.223053e-01
-2.889724e-01 7.752531e+00 -3.821564e+01 3.818788e+01 1.916992e-06 3.428141e-03 -2.374420e-01 2.222443e-01
-3.058917e-01 7.740706e+00 -3.821547e+01 3.813766e+01 7.742751e-07 3.506627e-03 -2.374725e-01 2.222443e-01
-2.958129e-01 7.736377e+00 -3.819385e+01 3.814197e+01 -8.240127e-07 3.395984e-03 -2.377319e-01 2.123871e-01
-2.924052e-01 7.749199e+00 -3.817908e+01 3.813092e+01 1.176838e-06 3.391963e-03 -2.383881e-01 2.129364e-01
-2.896752e-01 7.766315e+00 -3.817351e+01 3.735168e+01 -1.029646e-09 3.230511e-03 -2.386169e-01 2.456207e-01
-2.890241e-01 7.743724e+00 -3.816760e+01 3.818330e+01 1.046683e-06 3.009510e-03 -2.380219e-01 2.478943e-01
-2.780858e-01 7.762934e+00 -3.815475e+01 3.816774e+01 1.739759e-06 3.151974e-03 -2.328491e-01 2.568359e-01
-2.816934e-01 7.766388e+00 -3.815137e+01 3.816031e+01 -2.808838e-07 3.185523e-03 -2.348328e-01 2.467041e-01
-2.834574e-01 7.756458e+00 -3.815451e+01 3.746271e+01 -1.278401e-06 3.213911e-03 -2.440796e-01 2.457581e-01
-2.920552e-01 7.755470e+00 -3.815773e+01 3.805615e+01 1.953068e-06 3.169660e-03 -2.438965e-01 2.353516e-01
-2.732618e-01 7.756204e+00 -3.815935e+01 3.800505e+01 3.666495e-07 3.558836e-03 -2.431488e-01 2.117920e-01
-2.701493e-01 7.762639e+00 -3.812392e+01 3.804726e+01 2.253658e-06 3.534286e-03 -2.440491e-01 2.244110e-01
-2.776004e-01 7.774531e+00 -3.810294e+01 3.735506e+01 -1.203790e-06 3.356770e-03 -2.405548e-01 2.468567e-01
-2.682370e-01 7.784478e+00 -3.805983e+01 3.803885e+01 -3.456657e-07 3.001387e-03 -2.405548e-01 2.584381e-01
-2.820104e-01 7.751909e+00 -3.806006e+01 3.804767e+01 -6.681452e-07 2.514198e-03 -2.342072e-01 2.119293e-01
-3.021279e-01 7.766173e+00 -3.805568e+01 3.804443e+01 -9.909394e-08 2.954707e-03 -2.441254e-01 2.499237e-01
-2.967244e-01 7.761802e+00 -3.805542e+01 3.801860e+01 7.980237e-07 3.551863e-03 -2.441254e-01 2.458496e-01
-2.874677e-01 7.783010e+00 -3.804768e+01 3.794617e+01 -8.395051e-07 3.640767e-03 -2.428436e-01 2.208252e-01
-2.805902e-01 7.772036e+00 -3.804591e+01 3.799489e+01 3.873702e-06 3.403434e-03 -2.350922e-01 2.272797e-01
-2.797972e-01 7.776022e+00 -3.804845e+01 3.799869e+01 -9.702035e-07 3.316462e-03 -2.340088e-01 2.252045e-01
-2.785903e-01 7.769505e+00 -3.805948e+01 3.797450e+01 -4.549035e-07 3.252124e-03 -2.443237e-01 2.023773e-01
-2.865764e-01 7.782590e+00 -3.805952e+01 3.799335e+01 2.705987e-06 3.023981e-03 -2.446594e-01 2.470551e-01
-2.553999e-01 7.780362e+00 -3.806058e+01 3.731969e+01 5.294766e-07 2.899468e-03 -2.289124e-01 2.470703e-01
-2.783193e-01 7.790964e+00 -3.806502e+01 3.806660e+01 1.812369e-07 3.005550e-03 -2.354431e-01 2.510986e-01
-2.714860e-01 7.797548e+00 -3.808412e+01 3.811249e+01 2.335410e-06 2.884622e-03 -2.483063e-01 2.413635e-01
-2.790322e-01 7.788455e+00 -3.808719e+01 3.809590e+01 -7.256338e-07 2.804317e-03 -2.545929e-01 2.424927e-01
-2.884951e-01 7.808112e+00 -3.808643e+01 3.811139e+01 -5.781084e-07 2.869844e-03 -2.353363e-01 2.422485e-01
-2.577239e-01 7.799904e+00 -3.809625e+01 3.724445e+01 -1.615878e-07 2.948632e-03 -2.483826e-01 2.503662e-01
-2.854212e-01 7.796149e+00 -3.810304e+01 3.807198e+01 -4.386199e-07 3.237469e-03 -2.488098e-01 2.539978e-01
-3.033143e-01 7.815607e+00 -3.812161e+01 3.796570e+01 -1.267886e-06 3.147392e-03 -2.486267e-01 2.057953e-01
-2.841138e-01 7.797960e+00 -3.811639e+01 3.726363e+01 -1.722913e-06 2.781918e-03 -2.491913e-01 2.051086e-01
-2.735492e-01 7.813707e+00 -3.811560e+01 3.805994e+01 -2.903489e-06 2.856627e-03 -2.481537e-01 2.063141e-01
-2.846587e-01 7.812554e+00 -3.812083e+01 3.819394e+01 1.188060e-06 2.499517e-03 -2.479858e-01 2.042999e-01
-2.777169e-01 7.808547e+00 -3.812271e+01 3.822275e+01 7.626992e-06 2.727043e-03 -2.471313e-01 2.522888e-01
-2.780750e-01 7.815646e+00 -3.812570e+01 3.821945e+01 5.910819e-06 2.685893e-03 -2.407227e-01 2.523651e-01
