8.735254e+01 5.782609e-01 -3.212728e-02 5.665090e-01 -9.990234e-01 9.968262e-01
6.999927e+01 4.217391e-01 -3.017708e-02 5.655968e-01 -1.008545e+00 9.968262e-01
7.041968e+01 4.217391e-01 -2.866721e-02 5.654516e-01 -1.008545e+00 9.968262e-01
7.044995e+01 4.217391e-01 -2.823524e-02 5.653989e-01 -1.006348e+00 9.968262e-01
7.044995e+01 4.217391e-01 -2.823459e-02 5.653983e-01 -1.006348e+00 9.968262e-01
7.044995e+01 4.217391e-01 -2.823459e-02 5.653983e-01 -1.006348e+00 9.968262e-01
7.044995e+01 4.217391e-01 -2.823166e-02 5.653962e-01 -1.006348e+00 9.968262e-01
7.069067e+01 4.217391e-01 -2.821864e-02 5.653856e-01 -1.006348e+00 9.968262e-01
7.118286e+01 4.217391e-01 -2.820226e-02 5.653714e-01 -1.006348e+00 9.968262e-01
7.207812e+01 4.217391e-01 -2.820714e-02 5.653701e-01 -1.006348e+00 9.968262e-01
6.999487e+01 4.217391e-01 -2.783887e-02 5.655234e-01 -1.008057e+00 9.968262e-01
6.977710e+01 4.217391e-01 -2.753190e-02 5.656453e-01 -1.007812e+00 9.968262e-01
6.967871e+01 4.217391e-01 -2.761632e-02 5.656192e-01 -1.007812e+00 9.968262e-01
6.998120e+01 4.217391e-01 -2.779481e-02 5.655724e-01 -1.007568e+00 9.968262e-01
7.040796e+01 4.217391e-01 -2.778830e-02 5.655998e-01 -1.007080e+00 9.968262e-01
7.049146e+01 4.217391e-01 -2.785645e-02 5.655889e-01 -1.007080e+00 9.968262e-01
7.014136e+01 4.217391e-01 -2.817980e-02 5.654900e-01 -1.007812e+00 9.968262e-01
6.994604e+01 4.217391e-01 -2.802572e-02 5.654850e-01 -1.008057e+00 9.968262e-01
6.994604e+01 4.217391e-01 -2.800586e-02 5.654862e-01 -1.008057e+00 9.968262e-01
7.003223e+01 4.217391e-01 -2.798752e-02 5.655030e-01 -1.009277e+00 9.968262e-01
7.034961e+01 4.217391e-01 -2.788943e-02 5.655571e-01 -1.009277e+00 9.968262e-01
6.930029e+01 4.217391e-01 -2.772591e-02 5.656092e-01 -1.013428e+00 9.995117e-01
6.889648e+01 4.217391e-01 -2.750694e-02 5.656573e-01 -1.014160e+00 1.000244e+00
6.927100e+01 4.217391e-01 -2.735330e-02 5.657739e-01 -1.020752e+00 1.013184e+00
6.813135e+01 4.217391e-01 -2.393934e-02 5.901775e-01 -1.770508e+00 2.537109e+00
6.790576e+01 4.217391e-01 -2.458507e-02 5.909398e-01 -1.875000e+00 2.530762e+00
6.573584e+01 3.304348e-01 -2.419336e-02 5.947416e-01 -1.844482e+00 2.588867e+00
6.566431e+01 3.304348e-01 -2.335341e-02 5.960987e-01 -1.844727e+00 2.588623e+00
6.726562e+01 3.173913e-01 -2.342101e-02 5.961291e-01 -1.851074e+00 2.584717e+00
6.870215e+01 4.217391e-01 -2.384418e-02 5.967138e-01 -1.809082e+00 2.637939e+00
6.611255e+01 3.478261e-01 -2.390679e-02 5.973798e-01 -1.864258e+00 2.637939e+00
6.585669e+01 3.217391e-01 -2.360482e-02 5.979446e-01 -1.864258e+00 2.604248e+00
6.619629e+01 2.956522e-01 -2.365799e-02 5.980553e-01 -1.869629e+00 2.604248e+00
6.298340e+01 4.217391e-01 -2.446582e-02 6.010462e-01 -1.869873e+00 2.645508e+00
6.276807e+01 2.913043e-01 -2.720095e-02 6.071890e-01 -1.905518e+00 2.588135e+00
6.217700e+01 3.043478e-01 -2.730067e-02 6.080495e-01 -1.909180e+00 2.581299e+00
5.402783e+01 2.217391e-01 -2.963943e-02 6.292963e-01 -2.235107e+00 2.876709e+00
4.880103e+01 2.173913e-01 -3.185959e-02 6.442979e-01 -2.278076e+00 2.884277e+00
4.332568e+01 2.043478e-01 -3.301617e-02 6.548646e-01 -2.394775e+00 2.893799e+00
4.242017e+01 2.043478e-01 -4.754286e-02 6.755773e-01 -2.409424e+00 2.906738e+00
4.247510e+01 2.000000e-01 -4.762359e-02 6.757761e-01 -2.401855e+00 2.877930e+00
4.236792e+01 1.956522e-01 -4.594412e-02 6.771945e-01 -2.415527e+00 2.885010e+00
4.302637e+01 2.217391e-01 -4.021886e-02 6.813975e-01 -2.384521e+00 2.885010e+00
3.997974e+01 1.826087e-01 -4.586480e-02 6.855267e-01 -2.400391e+00 2.853760e+00
4.025244e+01 1.956522e-01 -4.311350e-02 6.898908e-01 -2.383057e+00 2.837646e+00
4.079028e+01 1.913043e-01 -4.250087e-02 6.973626e-01 -2.455322e+00 2.851074e+00
3.972583e+01 1.956522e-01 -4.295074e-02 7.017209e-01 -2.155518e+00 2.824951e+00
3.883350e+01 1.869565e-01 -4.482780e-02 7.036299e-01 -2.179932e+00 2.808350e+00
3.824854e+01 1.869565e-01 -4.787066e-02 7.027916e-01 -2.170898e+00 2.805908e+00
3.812793e+01 1.869565e-01 -4.840788e-02 7.024858e-01 -2.173584e+00 2.785889e+00
3.829761e+01 1.913043e-01 -4.827702e-02 7.032014e-01 -2.191895e+00 2.779053e+00
3.825684e+01 1.869565e-01 -4.830664e-02 7.034566e-01 -2.191650e+00 2.781006e+00
3.894238e+01 1.652174e-01 -5.660341e-02 7.104382e-01 -2.254639e+00 2.780029e+00
3.884692e+01 1.782609e-01 -6.093880e-02 7.149910e-01 -2.238770e+00 2.763916e+00
3.841895e+01 1.869565e-01 -6.190560e-02 7.161426e-01 -2.260254e+00 2.759277e+00
3.857324e+01 1.826087e-01 -6.215625e-02 7.163320e-01 -2.260254e+00 2.748047e+00
3.851294e+01 1.826087e-01 -6.221257e-02 7.163111e-01 -2.259277e+00 2.748047e+00
3.811328e+01 1.739130e-01 -6.086230e-02 7.177299e-01 -2.283203e+00 2.755859e+00
3.831079e+01 1.826087e-01 -6.035297e-02 7.177902e-01 -2.272217e+00 2.759033e+00
3.865234e+01 1.826087e-01 -6.093793e-02 7.172662e-01 -2.256104e+00 2.765137e+00
3.832251e+01 1.869565e-01 -5.847331e-02 7.188635e-01 -2.257324e+00 2.777344e+00
3.988965e+01 2.000000e-01 -5.799175e-02 7.190482e-01 -2.257324e+00 2.787842e+00
3.745972e+01 1.782609e-01 -5.795052e-02 7.183679e-01 -2.247559e+00 2.773193e+00
3.844165e+01 1.826087e-01 -5.823720e-02 7.180505e-01 -2.237793e+00 2.766113e+00
3.787207e+01 1.782609e-01 -5.831326e-02 7.182078e-01 -2.250977e+00 2.759521e+00
3.823706e+01 1.826087e-01 -5.858659e-02 7.182172e-01 -2.250977e+00 2.764893e+00
3.801831e+01 1.913043e-01 -5.679384e-02 7.178253e-01 -2.235596e+00 2.764893e+00
3.822168e+01 1.869565e-01 -5.563997e-02 7.179267e-01 -2.206787e+00 2.764404e+00
3.911377e+01 1.826087e-01 -5.481565e-02 7.176057e-01 -2.198730e+00 2.748535e+00
3.813867e+01 1.826087e-01 -5.642122e-02 7.172759e-01 -2.199707e+00 2.749023e+00
3.803442e+01 1.826087e-01 -5.392459e-02 7.174327e-01 -2.199951e+00 2.741699e+00
3.779077e+01 1.869565e-01 -5.458236e-02 7.160987e-01 -2.202881e+00 2.728760e+00
3.782397e+01 1.782609e-01 -5.511990e-02 7.155793e-01 -2.204834e+00 2.720459e+00
3.807178e+01 1.913043e-01 -5.550119e-02 7.145728e-01 -2.180176e+00 2.723389e+00
3.791357e+01 1.913043e-01 -5.541189e-02 7.147654e-01 -2.196533e+00 2.720703e+00
3.840063e+01 1.869565e-01 -5.522754e-02 7.173682e-01 -2.218018e+00 2.738525e+00
3.850000e+01 1.826087e-01 -5.543186e-02 7.178811e-01 -2.218018e+00 2.738770e+00
3.787939e+01 1.826087e-01 -5.617795e-02 7.186827e-01 -2.240234e+00 2.732666e+00
3.883154e+01 1.956522e-01 -6.254850e-02 7.209962e-01 -2.294922e+00 2.729492e+00
3.907764e+01 1.913043e-01 -6.276942e-02 7.216757e-01 -2.289795e+00 2.735352e+00
3.862793e+01 1.913043e-01 -6.272439e-02 7.218166e-01 -2.288574e+00 2.744629e+00
3.994702e+01 2.000000e-01 -6.151964e-02 7.226202e-01 -2.281982e+00 2.788818e+00
3.926318e+01 1.956522e-01 -6.033344e-02 7.236937e-01 -2.237549e+00 2.781982e+00
3.782593e+01 1.782609e-01 -6.159787e-02 7.240212e-01 -2.247070e+00 2.752197e+00
3.797681e+01 1.826087e-01 -6.188867e-02 7.241545e-01 -2.244629e+00 2.754639e+00
3.961792e+01 1.869565e-01 -6.165061e-02 7.251805e-01 -2.243408e+00 2.770752e+00
3.755591e+01 1.739130e-01 -6.146918e-02 7.256536e-01 -2.256104e+00 2.770752e+00
3.732349e+01 1.782609e-01 -5.947418e-02 7.263645e-01 -2.256348e+00 2.764404e+00
3.715210e+01 1.739130e-01 -5.943056e-02 7.289524e-01 -2.253418e+00 2.767090e+00
3.758398e+01 1.869565e-01 -5.981749e-02 7.290561e-01 -2.256592e+00 2.763428e+00
3.808276e+01 1.826087e-01 -6.078526e-02 7.284901e-01 -2.254639e+00 2.769531e+00
3.708398e+01 1.826087e-01 -6.379384e-02 7.304094e-01 -2.228760e+00 2.794922e+00
3.699585e+01 1.869565e-01 -6.416168e-02 7.312794e-01 -2.215088e+00 2.794922e+00
3.705786e+01 1.739130e-01 -6.249002e-02 7.284466e-01 -2.242432e+00 2.785400e+00
3.739429e+01 1.869565e-01 -6.284885e-02 7.280080e-01 -2.242432e+00 2.774902e+00
3.783691e+01 1.956522e-01 -6.321484e-02 7.278627e-01 -2.249512e+00 2.773682e+00
3.801587e+01 1.956522e-01 -6.340028e-02 7.276345e-01 -2.250977e+00 2.761230e+00
3.780151e+01 1.739130e-01 -6.311990e-02 7.273942e-01 -2.252930e+00 2.763428e+00
3.802979e+01 1.826087e-01 -6.344803e-02 7.271623e-01 -2.253418e+00 2.763428e+00
3.732251e+01 1.739130e-01 -6.799262e-02 7.234768e-01 -2.274658e+00 2.739014e+00
3.717139e+01 1.739130e-01 -6.839865e-02 7.268181e-01 -2.311279e+00 2.718994e+00
3.886914e+01 1.782609e-01 -6.837663e-02 7.284416e-01 -2.350098e+00 2.744141e+00
3.765039e+01 1.869565e-01 -6.826693e-02 7.307278e-01 -2.350098e+00 2.744141e+00
3.847534e+01 1.782609e-01 -7.716775e-02 7.328254e-01 -2.352783e+00 2.729492e+00
3.705151e+01 1.782609e-01 -7.563585e-02 7.344886e-01 -2.360840e+00 2.775635e+00
3.650269e+01 1.782609e-01 -7.455588e-02 7.348052e-01 -2.363770e+00 2.778809e+00
3.633228e+01 1.826087e-01 -7.233822e-02 7.345872e-01 -2.217041e+00 2.776367e+00
3.652295e+01 1.695652e-01 -7.228147e-02 7.344852e-01 -2.217041e+00 2.778809e+00
3.629639e+01 1.869565e-01 -7.239779e-02 7.347955e-01 -2.219238e+00 2.773682e+00
3.710645e+01 1.869565e-01 -7.420020e-02 7.373948e-01 -2.277588e+00 2.781250e+00
3.931885e+01 1.869565e-01 -7.491471e-02 7.378531e-01 -2.238037e+00 2.791260e+00
3.726611e+01 1.739130e-01 -7.398600e-02 7.378557e-01 -2.255859e+00 2.770264e+00
3.677808e+01 1.652174e-01 -7.649555e-02 7.380023e-01 -2.248291e+00 2.775391e+00
3.763428e+01 1.869565e-01 -7.532444e-02 7.403844e-01 -2.261963e+00 2.795410e+00
3.641113e+01 1.695652e-01 -7.247504e-02 7.427635e-01 -2.260254e+00 2.800049e+00
3.628223e+01 1.652174e-01 -7.277235e-02 7.428307e-01 -2.255615e+00 2.794189e+00
3.721802e+01 1.782609e-01 -7.268077e-02 7.427748e-01 -2.243408e+00 2.799805e+00
3.642212e+01 1.652174e-01 -7.249848e-02 7.429711e-01 -2.262451e+00 2.785889e+00
3.804932e+01 1.695652e-01 -7.259440e-02 7.503339e-01 -2.312988e+00 2.886230e+00
3.732153e+01 1.608696e-01 -7.272331e-02 7.521271e-01 -2.307129e+00 2.878174e+00
3.709692e+01 1.826087e-01 -7.250760e-02 7.526207e-01 -2.300537e+00 2.865479e+00
3.949292e+01 1.913043e-01 -8.065777e-02 7.516144e-01 -2.430664e+00 2.873779e+00
3.861646e+01 1.869565e-01 -8.197743e-02 7.514417e-01 -2.438477e+00 2.825195e+00
3.718701e+01 1.782609e-01 -7.872125e-02 7.527734e-01 -2.378662e+00 2.826660e+00
3.865479e+01 1.826087e-01 -7.366732e-02 7.563878e-01 -2.494385e+00 2.848877e+00
3.865723e+01 1.826087e-01 -7.425716e-02 7.568029e-01 -2.494385e+00 2.848877e+00
4.042529e+01 1.956522e-01 -7.499848e-02 7.556901e-01 -2.522949e+00 2.848145e+00
3.900269e+01 1.826087e-01 -7.685959e-02 7.546653e-01 -2.625488e+00 2.847412e+00
3.812427e+01 1.869565e-01 -7.672233e-02 7.547718e-01 -2.601318e+00 2.830811e+00
3.835205e+01 1.913043e-01 -7.710623e-02 7.543710e-01 -2.601807e+00 2.823730e+00
4.060010e+01 1.826087e-01 -7.954297e-02 7.539046e-01 -2.618164e+00 2.830811e+00
3.848926e+01 1.869565e-01 -8.017763e-02 7.538734e-01 -2.595703e+00 2.805908e+00
3.837305e+01 2.000000e-01 -8.013173e-02 7.538069e-01 -2.592529e+00 2.804932e+00
3.946094e+01 2.260870e-01 -8.272352e-02 7.490262e-01 -2.591553e+00 2.815674e+00
3.964575e+01 2.217391e-01 -8.305100e-02 7.491243e-01 -2.520508e+00 2.746094e+00
3.818091e+01 1.913043e-01 -8.281576e-02 7.500813e-01 -2.527344e+00 2.746094e+00
3.863818e+01 1.956522e-01 -8.245866e-02 7.518307e-01 -2.593750e+00 2.766113e+00
3.879834e+01 1.956522e-01 -8.186664e-02 7.556024e-01 -2.595947e+00 2.769531e+00
4.053516e+01 2.000000e-01 -8.052648e-02 7.580391e-01 -2.618896e+00 2.792725e+00
4.049585e+01 1.826087e-01 -7.687250e-02 7.615201e-01 -2.666016e+00 2.836426e+00
4.047485e+01 1.956522e-01 -8.148513e-02 7.605622e-01 -2.680908e+00 2.815918e+00
3.896729e+01 1.913043e-01 -8.207910e-02 7.612146e-01 -2.680908e+00 2.729980e+00
3.910303e+01 2.000000e-01 -8.055111e-02 7.658180e-01 -2.670410e+00 2.759766e+00
3.880298e+01 1.826087e-01 -7.781543e-02 7.663631e-01 -2.665771e+00 2.760010e+00
3.932861e+01 1.956522e-01 -7.799316e-02 7.670321e-01 -2.681152e+00 2.765381e+00
4.217676e+01 2.217391e-01 -7.711339e-02 7.664347e-01 -2.574219e+00 2.729492e+00
4.127441e+01 1.913043e-01 -1.127173e-01 7.746677e-01 -2.362305e+00 2.738281e+00
4.112988e+01 2.000000e-01 -1.165700e-01 7.777589e-01 -2.417969e+00 2.774170e+00
4.096973e+01 1.826087e-01 -1.168992e-01 7.804865e-01 -2.446777e+00 2.786865e+00
4.020435e+01 1.869565e-01 -1.164049e-01 7.811309e-01 -2.450195e+00 2.786865e+00
3.991138e+01 1.869565e-01 -1.159761e-01 7.820558e-01 -2.448242e+00 2.785156e+00
4.189575e+01 2.043478e-01 -1.148269e-01 7.835920e-01 -2.470215e+00 2.807129e+00
4.020557e+01 1.913043e-01 -1.149660e-01 7.841429e-01 -2.451172e+00 2.786865e+00
4.029614e+01 1.869565e-01 -1.150332e-01 7.842360e-01 -2.461182e+00 2.790283e+00
3.959961e+01 1.869565e-01 -1.149109e-01 7.843334e-01 -2.461182e+00 2.790283e+00
4.330762e+01 2.086957e-01 -1.158547e-01 7.876887e-01 -2.445801e+00 2.813232e+00
4.017651e+01 1.782609e-01 -1.158421e-01 7.915152e-01 -2.476562e+00 2.798096e+00
4.060962e+01 2.043478e-01 -1.157186e-01 7.930543e-01 -2.487549e+00 2.800049e+00
4.030884e+01 2.000000e-01 -1.162284e-01 7.925074e-01 -2.483643e+00 2.793701e+00
3.947754e+01 1.826087e-01 -1.150796e-01 7.930081e-01 -2.475586e+00 2.797119e+00
4.292236e+01 2.000000e-01 -1.151407e-01 7.937666e-01 -2.477783e+00 2.820312e+00
3.988477e+01 1.913043e-01 -1.144269e-01 7.938267e-01 -2.466309e+00 2.820312e+00
4.085791e+01 2.043478e-01 -1.145789e-01 7.936641e-01 -2.450195e+00 2.799316e+00
3.978149e+01 1.782609e-01 -1.144616e-01 7.940974e-01 -2.450195e+00 2.799316e+00
3.981787e+01 1.869565e-01 -1.136407e-01 7.942148e-01 -2.326904e+00 2.795898e+00
3.971021e+01 1.869565e-01 -1.144167e-01 7.931652e-01 -2.342529e+00 2.786621e+00
4.047192e+01 1.913043e-01 -1.143758e-01 7.946378e-01 -2.329834e+00 2.805176e+00
4.115576e+01 2.086957e-01 -1.152656e-01 7.957216e-01 -2.355469e+00 2.818359e+00
3.984131e+01 1.913043e-01 -1.187336e-01 7.962036e-01 -2.373047e+00 2.789062e+00
4.012427e+01 2.043478e-01 -1.186140e-01 7.962184e-01 -2.373779e+00 2.794922e+00
4.034277e+01 2.086957e-01 -1.185629e-01 7.963447e-01 -2.377197e+00 2.797607e+00
4.082080e+01 2.000000e-01 -1.189783e-01 7.959837e-01 -2.368652e+00 2.796387e+00
4.269043e+01 2.000000e-01 -1.180127e-01 7.926957e-01 -2.467529e+00 2.761475e+00
3.982349e+01 1.956522e-01 -1.174664e-01 7.940544e-01 -2.467529e+00 2.767578e+00
4.174927e+01 1.956522e-01 -1.184054e-01 7.993536e-01 -2.427490e+00 2.855225e+00
4.124048e+01 1.956522e-01 -1.152135e-01 8.001910e-01 -2.389404e+00 2.853760e+00
4.065625e+01 1.913043e-01 -1.152257e-01 7.989883e-01 -2.386963e+00 2.852295e+00
4.085645e+01 2.000000e-01 -1.149244e-01 7.987480e-01 -2.355225e+00 2.844238e+00
3.961182e+01 2.086957e-01 -1.111118e-01 8.007245e-01 -2.372070e+00 2.890381e+00
3.947021e+01 2.043478e-01 -1.102982e-01 8.014120e-01 -2.365967e+00 2.895264e+00
3.917236e+01 2.000000e-01 -1.112753e-01 7.987651e-01 -2.260986e+00 2.893311e+00
4.011377e+01 2.043478e-01 -1.109118e-01 7.997439e-01 -2.230713e+00 2.904785e+00
3.907104e+01 2.043478e-01 -1.119706e-01 7.985692e-01 -2.232178e+00 2.854004e+00
3.871167e+01 1.826087e-01 -1.116394e-01 7.991452e-01 -2.277100e+00 2.867920e+00
3.967798e+01 2.000000e-01 -1.116727e-01 8.003282e-01 -2.305664e+00 2.869629e+00
3.998218e+01 2.043478e-01 -1.104472e-01 8.015702e-01 -2.306885e+00 2.869629e+00
3.859058e+01 1.956522e-01 -1.103767e-01 8.016281e-01 -2.302246e+00 2.866699e+00
3.944385e+01 2.043478e-01 -1.103569e-01 8.017299e-01 -2.295654e+00 2.863770e+00
4.482397e+01 2.260870e-01 -1.057912e-01 8.111130e-01 -2.429932e+00 2.872314e+00
4.372266e+01 2.000000e-01 -9.431999e-02 8.137158e-01 -2.669678e+00 2.869629e+00
4.151514e+01 2.000000e-01 -8.834733e-02 8.157272e-01 -2.726562e+00 2.869629e+00
4.108057e+01 2.086957e-01 -8.979145e-02 8.158624e-01 -2.726562e+00 2.816895e+00
4.062964e+01 1.956522e-01 -9.004872e-02 8.154063e-01 -2.746338e+00 2.811523e+00
4.017114e+01 1.956522e-01 -9.003982e-02 8.150930e-01 -2.746338e+00 2.811523e+00
4.073413e+01 2.000000e-01 -9.323958e-02 8.119624e-01 -2.731934e+00 2.769775e+00
4.092139e+01 1.913043e-01 -9.387120e-02 8.130162e-01 -2.740723e+00 2.805420e+00
4.117944e+01 1.913043e-01 -9.502398e-02 8.143821e-01 -2.782959e+00 2.811279e+00
3.988599e+01 1.913043e-01 -9.491450e-02 8.152829e-01 -2.787598e+00 2.804932e+00
4.001611e+01 1.913043e-01 -9.490397e-02 8.155228e-01 -2.787598e+00 2.795166e+00
4.067505e+01 1.913043e-01 -9.508507e-02 8.160413e-01 -2.780518e+00 2.810059e+00
3.986035e+01 1.956522e-01 -9.557129e-02 8.163174e-01 -2.770752e+00 2.808594e+00
4.079077e+01 1.869565e-01 -9.589312e-02 8.162632e-01 -2.791504e+00 2.817139e+00
4.040771e+01 2.043478e-01 -8.993088e-02 8.161871e-01 -2.729492e+00 2.832031e+00
4.113574e+01 2.000000e-01 -8.983464e-02 8.164941e-01 -2.734375e+00 2.833740e+00
4.108936e+01 2.086957e-01 -8.951194e-02 8.169266e-01 -2.746582e+00 2.833984e+00
4.003271e+01 1.956522e-01 -8.958637e-02 8.164155e-01 -2.874023e+00 2.832031e+00
4.007983e+01 1.913043e-01 -8.992936e-02 8.162379e-01 -2.875977e+00 2.810547e+00
3.941797e+01 1.869565e-01 -9.019390e-02 8.165491e-01 -2.875977e+00 2.810547e+00
3.951782e+01 1.913043e-01 -9.040875e-02 8.169185e-01 -2.874756e+00 2.803467e+00
4.066064e+01 1.913043e-01 -9.078418e-02 8.177566e-01 -2.886963e+00 2.811279e+00
4.036133e+01 1.826087e-01 -9.075499e-02 8.184267e-01 -2.899658e+00 2.826660e+00
3.977100e+01 1.826087e-01 -8.991287e-02 8.189721e-01 -2.911621e+00 2.815674e+00
4.395532e+01 1.913043e-01 -9.568891e-02 8.253038e-01 -2.976807e+00 2.852295e+00
4.197144e+01 2.043478e-01 -9.544010e-02 8.253497e-01 -2.927979e+00 2.813232e+00
4.134033e+01 1.869565e-01 -9.593717e-02 8.250891e-01 -2.908936e+00 2.819092e+00
4.106006e+01 1.869565e-01 -9.775282e-02 8.243061e-01 -2.908936e+00 2.820312e+00
4.060205e+01 1.869565e-01 -9.778201e-02 8.243442e-01 -2.908936e+00 2.821045e+00
4.041968e+01 1.826087e-01 -9.699230e-02 8.248941e-01 -2.904785e+00 2.852295e+00
3.886304e+01 1.913043e-01 -9.872396e-02 8.218921e-01 -2.720703e+00 2.794189e+00
3.852197e+01 1.956522e-01 -9.848047e-02 8.227864e-01 -2.720215e+00 2.789307e+00
3.798486e+01 1.869565e-01 -9.848069e-02 8.231133e-01 -2.729248e+00 2.793945e+00
3.944238e+01 1.782609e-01 -9.818110e-02 8.242497e-01 -2.771729e+00 2.817139e+00
3.780713e+01 1.782609e-01 -9.788281e-02 8.250802e-01 -2.777344e+00 2.815674e+00
3.879639e+01 1.782609e-01 -9.574089e-02 8.284299e-01 -2.777344e+00 2.823975e+00
3.930469e+01 1.826087e-01 -9.154970e-02 8.319004e-01 -2.701416e+00 2.824707e+00
4.191455e+01 1.869565e-01 -7.951508e-02 8.320280e-01 -2.650635e+00 2.873779e+00
4.027051e+01 1.956522e-01 -8.228874e-02 8.314808e-01 -2.649658e+00 2.803955e+00
3.854834e+01 1.956522e-01 -8.225163e-02 8.313573e-01 -2.646484e+00 2.796631e+00
3.993872e+01 1.913043e-01 -8.243197e-02 8.315128e-01 -2.660645e+00 2.800781e+00
3.928394e+01 1.913043e-01 -8.250043e-02 8.315081e-01 -2.660400e+00 2.800049e+00
3.883862e+01 1.869565e-01 -8.423980e-02 8.317479e-01 -2.686279e+00 2.764648e+00
3.975562e+01 1.956522e-01 -8.452214e-02 8.322071e-01 -2.718750e+00 2.780273e+00
3.917163e+01 2.000000e-01 -8.522092e-02 8.329467e-01 -2.719971e+00 2.751953e+00
3.938525e+01 1.869565e-01 -8.577908e-02 8.337091e-01 -2.770020e+00 2.763184e+00
4.034009e+01 1.869565e-01 -8.979894e-02 8.367359e-01 -2.965820e+00 2.766113e+00
4.108350e+01 1.826087e-01 -9.282400e-02 8.374887e-01 -2.973877e+00 2.760742e+00
4.022656e+01 1.869565e-01 -9.313336e-02 8.373400e-01 -2.966309e+00 2.752197e+00
3.971362e+01 1.869565e-01 -9.310699e-02 8.370593e-01 -2.964111e+00 2.758057e+00
4.006982e+01 1.782609e-01 -9.447971e-02 8.364436e-01 -2.959717e+00 2.758301e+00
3.884351e+01 1.956522e-01 -9.418522e-02 8.364142e-01 -2.931152e+00 2.747559e+00
4.009253e+01 1.826087e-01 -9.437554e-02 8.367495e-01 -2.956787e+00 2.761963e+00
3.929517e+01 1.826087e-01 -9.436849e-02 8.368310e-01 -2.956787e+00 2.761963e+00
3.968774e+01 1.913043e-01 -9.425629e-02 8.367414e-01 -2.953857e+00 2.756348e+00
3.871069e+01 1.782609e-01 -9.376747e-02 8.388612e-01 -2.953857e+00 2.782959e+00
4.075977e+01 1.826087e-01 -9.554427e-02 8.393026e-01 -2.898438e+00 2.769531e+00
4.075000e+01 1.826087e-01 -9.559679e-02 8.391449e-01 -2.852051e+00 2.742676e+00
4.060889e+01 1.739130e-01 -9.775011e-02 8.407351e-01 -2.874512e+00 2.777588e+00
4.065356e+01 1.739130e-01 -9.849566e-02 8.415121e-01 -2.872803e+00 2.777588e+00
3.998657e+01 1.782609e-01 -9.775727e-02 8.424428e-01 -2.904541e+00 2.786377e+00
4.359375e+01 1.913043e-01 -9.902105e-02 8.495799e-01 -3.562012e+00 2.834961e+00
4.302686e+01 1.782609e-01 -9.620345e-02 8.539761e-01 -3.562012e+00 2.831299e+00
4.284229e+01 1.913043e-01 -9.679080e-02 8.546547e-01 -3.547607e+00 2.815186e+00
4.410864e+01 1.956522e-01 -7.812956e-02 8.567723e-01 -3.494141e+00 2.771240e+00
4.184351e+01 1.869565e-01 -8.644325e-02 8.551359e-01 -3.533447e+00 2.512451e+00
4.231104e+01 1.826087e-01 -8.055990e-02 8.530804e-01 -3.489258e+00 2.596191e+00
4.113257e+01 2.086957e-01 -8.197450e-02 8.552030e-01 -3.300049e+00 2.592041e+00
4.080713e+01 1.913043e-01 -8.298220e-02 8.561937e-01 -3.308594e+00 2.558350e+00
4.212671e+01 1.913043e-01 -8.206044e-02 8.559564e-01 -3.319092e+00 2.568604e+00
4.125635e+01 2.043478e-01 -8.183659e-02 8.557631e-01 -3.317627e+00 2.557129e+00
4.116650e+01 2.000000e-01 -8.178201e-02 8.547508e-01 -3.338135e+00 2.552734e+00
4.363623e+01 2.043478e-01 -8.325564e-02 8.543500e-01 -3.409424e+00 2.562988e+00
4.058838e+01 1.956522e-01 -8.365582e-02 8.576586e-01 -3.409912e+00 3.251465e+00
4.153149e+01 1.913043e-01 -8.458583e-02 8.671365e-01 -3.441650e+00 3.251465e+00
4.145361e+01 1.869565e-01 -7.566395e-02 8.693253e-01 -3.452881e+00 3.173828e+00
4.271338e+01 1.956522e-01 -7.546463e-02 8.703607e-01 -3.454834e+00 3.155273e+00
4.121924e+01 1.869565e-01 -7.351302e-02 8.719773e-01 -3.419434e+00 3.188721e+00
4.343530e+01 1.956522e-01 -7.135840e-02 8.770623e-01 -3.480957e+00 3.098877e+00
4.325635e+01 2.086957e-01 -7.794922e-02 8.785706e-01 -3.484131e+00 3.104248e+00
4.184180e+01 2.043478e-01 -7.753114e-02 8.796887e-01 -3.488037e+00 3.132812e+00
4.350806e+01 1.956522e-01 -7.609169e-02 8.822481e-01 -3.497070e+00 3.132568e+00
4.264600e+01 2.043478e-01 -7.640668e-02 8.825887e-01 -3.493896e+00 3.138184e+00
4.293799e+01 2.000000e-01 -7.654004e-02 8.824812e-01 -3.492432e+00 3.138184e+00
4.231152e+01 1.913043e-01 -8.113477e-02 8.834963e-01 -3.653320e+00 3.131104e+00
4.209448e+01 1.956522e-01 -7.517600e-02 8.861573e-01 -3.640869e+00 3.162109e+00
4.125122e+01 1.956522e-01 -7.428613e-02 8.864658e-01 -3.571045e+00 3.166260e+00
4.221069e+01 1.956522e-01 -7.428038e-02 8.863264e-01 -3.566650e+00 3.166260e+00
4.220190e+01 1.913043e-01 -7.446669e-02 8.862916e-01 -3.566650e+00 3.160645e+00
4.119019e+01 2.000000e-01 -7.431630e-02 8.863339e-01 -3.565674e+00 3.164551e+00
4.386841e+01 1.739130e-01 -7.508518e-02 8.856297e-01 -3.562256e+00 3.175293e+00
4.363159e+01 1.869565e-01 -7.624609e-02 8.860586e-01 -3.530762e+00 3.178711e+00
4.203027e+01 2.130435e-01 -7.604861e-02 8.861868e-01 -3.538086e+00 3.184570e+00
4.438379e+01 1.869565e-01 -7.585959e-02 8.868849e-01 -3.538574e+00 3.183594e+00
4.245728e+01 2.000000e-01 -7.539030e-02 8.878493e-01 -3.513916e+00 3.205566e+00
4.243018e+01 2.000000e-01 -7.544575e-02 8.880667e-01 -3.511475e+00 3.205566e+00
4.158423e+01 2.043478e-01 -7.530393e-02 8.885910e-01 -3.512695e+00 3.212646e+00
4.206958e+01 2.000000e-01 -7.546257e-02 8.887869e-01 -3.518799e+00 3.212646e+00
4.200049e+01 2.130435e-01 -7.592622e-02 8.886187e-01 -3.523682e+00 3.218750e+00
4.325977e+01 1.956522e-01 -7.768793e-02 8.887784e-01 -3.594971e+00 3.189453e+00
4.239014e+01 1.956522e-01 -7.780664e-02 8.886638e-01 -3.594971e+00 3.174561e+00
4.019824e+01 1.913043e-01 -7.803613e-02 8.887838e-01 -3.602051e+00 3.197754e+00
4.132959e+01 1.913043e-01 -8.064334e-02 8.889886e-01 -3.602051e+00 3.193359e+00
4.011353e+01 1.913043e-01 -7.680360e-02 8.905733e-01 -3.596191e+00 3.322021e+00
3.981885e+01 1.826087e-01 -7.566645e-02 8.923412e-01 -3.591064e+00 3.309814e+00
4.007129e+01 1.869565e-01 -7.721235e-02 8.932753e-01 -3.597412e+00 3.262207e+00
4.078027e+01 1.956522e-01 -7.873752e-02 8.950479e-01 -3.693359e+00 3.250488e+00
4.114429e+01 1.956522e-01 -8.009375e-02 8.969267e-01 -3.658936e+00 3.206787e+00
4.271875e+01 1.956522e-01 -8.013683e-02 8.971393e-01 -3.647949e+00 3.230957e+00
4.002979e+01 1.826087e-01 -8.070703e-02 8.966497e-01 -3.625000e+00 3.302246e+00
4.029761e+01 1.913043e-01 -8.163433e-02 8.959970e-01 -3.568115e+00 3.310791e+00
3.967188e+01 1.869565e-01 -8.249783e-02 8.955560e-01 -3.559570e+00 3.301758e+00
4.150366e+01 1.956522e-01 -8.298698e-02 8.956690e-01 -3.559814e+00 3.300293e+00
4.023071e+01 1.652174e-01 -8.309386e-02 8.953689e-01 -3.549561e+00 3.340332e+00
3.982422e+01 1.869565e-01 -8.331239e-02 8.957055e-01 -3.516602e+00 3.331299e+00
4.185986e+01 2.043478e-01 -9.161860e-02 8.968453e-01 -3.623047e+00 3.260742e+00
3.997412e+01 1.739130e-01 -8.723861e-02 8.992634e-01 -3.653564e+00 3.233887e+00
4.090112e+01 1.826087e-01 -8.558594e-02 9.029840e-01 -3.653564e+00 3.234131e+00
3.998877e+01 1.826087e-01 -8.462402e-02 9.053217e-01 -3.600342e+00 3.253906e+00
3.932129e+01 1.739130e-01 -8.330707e-02 9.074312e-01 -3.600342e+00 3.261963e+00
3.981470e+01 1.695652e-01 -7.912370e-02 9.078757e-01 -3.590332e+00 3.335205e+00
4.028027e+01 1.869565e-01 -7.811144e-02 9.107143e-01 -3.558594e+00 3.301270e+00
3.988110e+01 1.913043e-01 -7.890234e-02 9.129562e-01 -3.540283e+00 3.313232e+00
4.077246e+01 1.869565e-01 -6.785124e-02 9.135750e-01 -3.594238e+00 3.311035e+00
4.070288e+01 1.869565e-01 -6.889128e-02 9.127057e-01 -3.598389e+00 3.239014e+00
4.160620e+01 1.913043e-01 -5.617231e-02 9.143730e-01 -3.585449e+00 3.237549e+00
4.283765e+01 2.000000e-01 -5.719390e-02 9.154155e-01 -3.591309e+00 3.205078e+00
4.117676e+01 1.826087e-01 -5.803320e-02 9.149294e-01 -3.578613e+00 3.222900e+00
