8.984375e-01 9.960938e-01
6.171875e-01 8.515625e-01
4.218750e-01 7.890625e-01
2.890625e-01 7.617188e-01
1.992188e-01 7.500000e-01
1.406250e-01 6.914062e-01
9.765625e-02 6.445312e-01
6.640625e-02 6.289062e-01
4.687500e-02 6.054688e-01
3.515625e-02 5.742188e-01
2.343750e-02 5.625000e-01
1.562500e-02 5.429688e-01
1.562500e-02 5.312500e-01
1.562500e-02 5.195312e-01
1.562500e-02 5.078125e-01
1.562500e-02 5.000000e-01
1.562500e-02 5.000000e-01
1.562500e-02 5.000000e-01
1.562500e-02 5.000000e-01
1.562500e-02 5.000000e-01
1.562500e-02 5.000000e-01
1.562500e-02 5.000000e-01
1.562500e-02 5.000000e-01
1.562500e-02 5.000000e-01
1.562500e-02 5.000000e-01
1.562500e-02 5.000000e-01
1.562500e-02 5.000000e-01
1.562500e-02 5.000000e-01
1.562500e-02 5.000000e-01
1.562500e-02 5.000000e-01
1.562500e-02 5.000000e-01
1.562500e-02 5.000000e-01
1.562500e-02 5.000000e-01
1.562500e-02 5.000000e-01
1.562500e-02 5.000000e-01
1.562500e-02 5.000000e-01
1.562500e-02 5.000000e-01
1.562500e-02 5.000000e-01
1.562500e-02 5.000000e-01
1.562500e-02 5.000000e-01
1.562500e-02 5.000000e-01
1.562500e-02 5.000000e-01
1.562500e-02 5.000000e-01
1.562500e-02 5.000000e-01
1.562500e-02 5.000000e-01
1.562500e-02 5.000000e-01
1.562500e-02 5.000000e-01
1.562500e-02 5.000000e-01
1.562500e-02 5.000000e-01
1.562500e-02 5.000000e-01
1.562500e-02 5.000000e-01
1.562500e-02 5.000000e-01
1.562500e-02 5.000000e-01
1.562500e-02 5.000000e-01
1.562500e-02 5.000000e-01
1.562500e-02 5.000000e-01
1.562500e-02 5.000000e-01
1.562500e-02 5.000000e-01
1.562500e-02 5.000000e-01
1.562500e-02 5.000000e-01
1.562500e-02 5.000000e-01
1.562500e-02 5.000000e-01
1.562500e-02 5.000000e-01
1.562500e-02 5.000000e-01
1.562500e-02 5.000000e-01
1.562500e-02 5.000000e-01
1.562500e-02 5.000000e-01
1.562500e-02 5.000000e-01
1.562500e-02 5.000000e-01
1.562500e-02 5.000000e-01
1.562500e-02 5.000000e-01
1.562500e-02 5.000000e-01
1.562500e-02 5.000000e-01
1.562500e-02 5.000000e-01
1.562500e-02 5.000000e-01
1.562500e-02 5.000000e-01
1.562500e-02 5.000000e-01
1.562500e-02 5.000000e-01
1.562500e-02 5.000000e-01
1.562500e-02 5.000000e-01
1.562500e-02 5.000000e-01
1.562500e-02 5.000000e-01
1.562500e-02 5.000000e-01
1.562500e-02 5.000000e-01
1.562500e-02 5.000000e-01
1.562500e-02 5.000000e-01
1.562500e-02 5.000000e-01
1.562500e-02 5.000000e-01
1.562500e-02 5.000000e-01
1.562500e-02 5.000000e-01
1.562500e-02 5.000000e-01
1.562500e-02 5.000000e-01
1.562500e-02 5.000000e-01
1.562500e-02 5.000000e-01
1.562500e-02 5.000000e-01
1.562500e-02 5.000000e-01
1.562500e-02 5.000000e-01
1.562500e-02 5.000000e-01
1.562500e-02 5.000000e-01
1.562500e-02 5.000000e-01
1.562500e-02 5.000000e-01
