1.020710e+02 4.217391e-01 -2.129235e-02 5.705657e-01 -9.990692e-01 9.969788e-01
9.368797e+01 4.217391e-01 -2.177153e-02 5.697815e-01 -1.005936e+00 9.969635e-01
8.820598e+01 4.217391e-01 -2.235939e-02 5.687393e-01 -1.018005e+00 9.969330e-01
8.357814e+01 4.217391e-01 -2.269315e-02 5.679527e-01 -1.027283e+00 9.969177e-01
7.978690e+01 4.217391e-01 -2.285943e-02 5.673823e-01 -1.034836e+00 9.969177e-01
7.665781e+01 4.217391e-01 -2.289624e-02 5.669973e-01 -1.039124e+00 9.969177e-01
7.421375e+01 4.217391e-01 -2.286002e-02 5.667112e-01 -1.042694e+00 9.969177e-01
7.247028e+01 4.217391e-01 -2.281163e-02 5.664907e-01 -1.044846e+00 9.969177e-01
7.059869e+01 4.217391e-01 -2.272592e-02 5.663559e-01 -1.045776e+00 9.973907e-01
6.970801e+01 4.217391e-01 -2.266912e-02 5.662312e-01 -1.046463e+00 1.011139e+00
6.892502e+01 4.173913e-01 -2.259802e-02 5.661656e-01 -1.046036e+00 1.023239e+00
6.855344e+01 4.086957e-01 -2.249700e-02 5.661298e-01 -1.044525e+00 1.034729e+00
6.798825e+01 4.000000e-01 -2.242666e-02 5.661047e-01 -1.041946e+00 1.045380e+00
6.731793e+01 4.000000e-01 -2.236392e-02 5.660862e-01 -1.040680e+00 1.055817e+00
6.739436e+01 3.956522e-01 -2.228888e-02 5.660938e-01 -1.038162e+00 1.065704e+00
6.697102e+01 3.695652e-01 -2.222145e-02 5.661134e-01 -1.034668e+00 1.074631e+00
6.692767e+01 3.695652e-01 -2.216350e-02 5.661363e-01 -1.032745e+00 1.082321e+00
6.676921e+01 3.739130e-01 -2.210940e-02 5.661813e-01 -1.029114e+00 1.089417e+00
6.629012e+01 3.739130e-01 -2.207074e-02 5.662133e-01 -1.024231e+00 1.095627e+00
6.616216e+01 3.652174e-01 -2.204747e-02 5.662491e-01 -1.022247e+00 1.101379e+00
6.545923e+01 3.478261e-01 -2.204636e-02 5.662852e-01 -1.023697e+00 1.105835e+00
6.541817e+01 3.521739e-01 -2.201254e-02 5.663400e-01 -1.025070e+00 1.110001e+00
6.508525e+01 3.608696e-01 -2.200555e-02 5.663925e-01 -1.026428e+00 1.113876e+00
6.569026e+01 3.608696e-01 -2.200359e-02 5.664339e-01 -1.027664e+00 1.116791e+00
6.490050e+01 3.478261e-01 -2.200101e-02 5.664908e-01 -1.028961e+00 1.119934e+00
6.485486e+01 3.695652e-01 -2.200424e-02 5.665524e-01 -1.030228e+00 1.123230e+00
6.483464e+01 3.695652e-01 -2.200448e-02 5.666214e-01 -1.031464e+00 1.125854e+00
6.477481e+01 3.652174e-01 -2.202091e-02 5.666814e-01 -1.032715e+00 1.129150e+00
6.503775e+01 3.608696e-01 -2.201440e-02 5.667503e-01 -1.033920e+00 1.132477e+00
6.514151e+01 3.695652e-01 -2.200313e-02 5.668336e-01 -1.035126e+00 1.135742e+00
6.480511e+01 3.608696e-01 -2.202080e-02 5.669056e-01 -1.036240e+00 1.138550e+00
6.495479e+01 3.652174e-01 -2.203418e-02 5.669704e-01 -1.037430e+00 1.142212e+00
6.472862e+01 3.565217e-01 -2.205421e-02 5.670413e-01 -1.038193e+00 1.142639e+00
6.504085e+01 3.739130e-01 -2.208354e-02 5.671242e-01 -1.039200e+00 1.143860e+00
6.541273e+01 3.739130e-01 -2.209159e-02 5.671994e-01 -1.040192e+00 1.145462e+00
6.526732e+01 3.652174e-01 -2.212286e-02 5.672733e-01 -1.041412e+00 1.148300e+00
6.543141e+01 3.652174e-01 -2.213796e-02 5.673566e-01 -1.042313e+00 1.148331e+00
6.500909e+01 3.565217e-01 -2.218995e-02 5.674207e-01 -1.043350e+00 1.150085e+00
6.489378e+01 3.565217e-01 -2.222032e-02 5.674985e-01 -1.044327e+00 1.151794e+00
6.472585e+01 3.565217e-01 -2.226644e-02 5.675749e-01 -1.045273e+00 1.153381e+00
6.512845e+01 3.695652e-01 -2.229911e-02 5.676609e-01 -1.046356e+00 1.153625e+00
6.475632e+01 3.652174e-01 -2.234342e-02 5.677257e-01 -1.047470e+00 1.157227e+00
6.459109e+01 3.695652e-01 -2.239554e-02 5.678181e-01 -1.048264e+00 1.155334e+00
6.418266e+01 3.652174e-01 -2.245977e-02 5.678954e-01 -1.049255e+00 1.156281e+00
6.408485e+01 3.652174e-01 -2.249278e-02 5.679750e-01 -1.050293e+00 1.157974e+00
6.417664e+01 3.652174e-01 -2.254881e-02 5.680721e-01 -1.051453e+00 1.158447e+00
6.402371e+01 3.652174e-01 -2.259545e-02 5.681489e-01 -1.052597e+00 1.159485e+00
6.422649e+01 3.695652e-01 -2.265578e-02 5.682375e-01 -1.053818e+00 1.161087e+00
6.392586e+01 3.695652e-01 -2.269976e-02 5.683301e-01 -1.055054e+00 1.163818e+00
6.324753e+01 3.608696e-01 -2.276595e-02 5.684296e-01 -1.056335e+00 1.164413e+00
6.296852e+01 3.521739e-01 -2.281790e-02 5.685250e-01 -1.057587e+00 1.165817e+00
6.340613e+01 3.652174e-01 -2.287957e-02 5.686205e-01 -1.058838e+00 1.166336e+00
6.342761e+01 3.608696e-01 -2.292908e-02 5.687139e-01 -1.060089e+00 1.167969e+00
6.394611e+01 3.739130e-01 -2.300466e-02 5.688077e-01 -1.061401e+00 1.168930e+00
6.357385e+01 3.652174e-01 -2.306382e-02 5.689087e-01 -1.062576e+00 1.169785e+00
6.312621e+01 3.608696e-01 -2.312066e-02 5.690080e-01 -1.063599e+00 1.171799e+00
6.291341e+01 3.652174e-01 -2.320131e-02 5.691021e-01 -1.064575e+00 1.170288e+00
6.283031e+01 3.652174e-01 -2.325859e-02 5.691966e-01 -1.065933e+00 1.174362e+00
6.268130e+01 3.521739e-01 -2.334025e-02 5.692940e-01 -1.066574e+00 1.171188e+00
6.307172e+01 3.652174e-01 -2.341165e-02 5.693890e-01 -1.067551e+00 1.172821e+00
6.249153e+01 3.478261e-01 -2.349298e-02 5.694936e-01 -1.068619e+00 1.171982e+00
6.232539e+01 3.478261e-01 -2.354898e-02 5.696049e-01 -1.069702e+00 1.174026e+00
6.282698e+01 3.521739e-01 -2.362388e-02 5.697044e-01 -1.070709e+00 1.174988e+00
6.256886e+01 3.521739e-01 -2.369771e-02 5.698199e-01 -1.071777e+00 1.175018e+00
6.229311e+01 3.391304e-01 -2.375763e-02 5.699349e-01 -1.072891e+00 1.176697e+00
6.217612e+01 3.347826e-01 -2.381327e-02 5.700443e-01 -1.073944e+00 1.178040e+00
6.214264e+01 3.260870e-01 -2.388324e-02 5.701570e-01 -1.075027e+00 1.179932e+00
6.163188e+01 3.217391e-01 -2.395270e-02 5.702639e-01 -1.076096e+00 1.180191e+00
6.166367e+01 3.260870e-01 -2.401530e-02 5.703887e-01 -1.077271e+00 1.181320e+00
6.197650e+01 3.304348e-01 -2.407731e-02 5.705034e-01 -1.078293e+00 1.182800e+00
6.185925e+01 3.260870e-01 -2.413364e-02 5.706330e-01 -1.079346e+00 1.182953e+00
6.160687e+01 3.304348e-01 -2.420430e-02 5.707546e-01 -1.080475e+00 1.183929e+00
6.189655e+01 3.347826e-01 -2.425038e-02 5.708857e-01 -1.081589e+00 1.186096e+00
6.194417e+01 3.521739e-01 -2.431071e-02 5.710190e-01 -1.082794e+00 1.186981e+00
6.197894e+01 3.434783e-01 -2.437101e-02 5.711541e-01 -1.084015e+00 1.188477e+00
6.158678e+01 3.391304e-01 -2.444138e-02 5.712862e-01 -1.085068e+00 1.189560e+00
6.156693e+01 3.347826e-01 -2.447909e-02 5.714231e-01 -1.086136e+00 1.191849e+00
6.108728e+01 3.304348e-01 -2.456138e-02 5.715557e-01 -1.087234e+00 1.191803e+00
6.162177e+01 3.434783e-01 -2.462966e-02 5.717010e-01 -1.088409e+00 1.193237e+00
6.190404e+01 3.434783e-01 -2.470277e-02 5.718286e-01 -1.089630e+00 1.194305e+00
6.148282e+01 3.478261e-01 -2.476402e-02 5.719675e-01 -1.090820e+00 1.197235e+00
6.162234e+01 3.478261e-01 -2.482294e-02 5.721079e-01 -1.092041e+00 1.198746e+00
6.176364e+01 3.478261e-01 -2.490892e-02 5.722591e-01 -1.093262e+00 1.199509e+00
6.183543e+01 3.478261e-01 -2.496140e-02 5.724152e-01 -1.094482e+00 1.201599e+00
6.181145e+01 3.478261e-01 -2.502174e-02 5.725624e-01 -1.095596e+00 1.203201e+00
6.160335e+01 3.391304e-01 -2.508865e-02 5.727196e-01 -1.096725e+00 1.204819e+00
6.198949e+01 3.434783e-01 -2.514996e-02 5.728802e-01 -1.097778e+00 1.207321e+00
6.140016e+01 3.391304e-01 -2.521626e-02 5.730455e-01 -1.098816e+00 1.207764e+00
6.179591e+01 3.478261e-01 -2.528867e-02 5.732176e-01 -1.099899e+00 1.208557e+00
6.197957e+01 3.478261e-01 -2.534239e-02 5.733923e-01 -1.100967e+00 1.209808e+00
6.139915e+01 3.434783e-01 -2.540194e-02 5.735601e-01 -1.102005e+00 1.211411e+00
6.130107e+01 3.347826e-01 -2.546931e-02 5.737555e-01 -1.102814e+00 1.211761e+00
6.085179e+01 3.434783e-01 -2.553393e-02 5.739352e-01 -1.103745e+00 1.212616e+00
6.076871e+01 3.347826e-01 -2.558545e-02 5.741309e-01 -1.104782e+00 1.214813e+00
6.052208e+01 3.347826e-01 -2.564357e-02 5.743112e-01 -1.105682e+00 1.217148e+00
6.009807e+01 3.260870e-01 -2.572163e-02 5.745185e-01 -1.106644e+00 1.217255e+00
5.966583e+01 3.173913e-01 -2.581102e-02 5.747011e-01 -1.107422e+00 1.215805e+00
5.951132e+01 3.086957e-01 -2.589602e-02 5.748895e-01 -1.108353e+00 1.216339e+00
5.893956e+01 3.086957e-01 -2.597691e-02 5.750962e-01 -1.109955e+00 1.217697e+00
5.911772e+01 3.130435e-01 -2.605668e-02 5.752802e-01 -1.111969e+00 1.217514e+00
5.947058e+01 3.217391e-01 -2.614706e-02 5.754912e-01 -1.114059e+00 1.218216e+00
5.916487e+01 3.000000e-01 -2.621521e-02 5.756936e-01 -1.116180e+00 1.219162e+00
5.835533e+01 2.956522e-01 -2.627166e-02 5.759104e-01 -1.118347e+00 1.221664e+00
5.803331e+01 2.956522e-01 -2.634434e-02 5.761075e-01 -1.120560e+00 1.221161e+00
5.830206e+01 2.956522e-01 -2.641580e-02 5.763198e-01 -1.122757e+00 1.222641e+00
5.801862e+01 2.869565e-01 -2.648541e-02 5.765290e-01 -1.124802e+00 1.224442e+00
5.767238e+01 2.826087e-01 -2.653754e-02 5.767546e-01 -1.126938e+00 1.226074e+00
5.766406e+01 2.826087e-01 -2.662109e-02 5.769724e-01 -1.129074e+00 1.226547e+00
5.724971e+01 2.782609e-01 -2.667699e-02 5.771917e-01 -1.131302e+00 1.227356e+00
5.719316e+01 2.826087e-01 -2.672370e-02 5.774241e-01 -1.133606e+00 1.229965e+00
5.766487e+01 2.869565e-01 -2.678310e-02 5.776440e-01 -1.135895e+00 1.232773e+00
5.799353e+01 2.869565e-01 -2.685766e-02 5.778696e-01 -1.138245e+00 1.233597e+00
5.784129e+01 2.869565e-01 -2.691535e-02 5.780733e-01 -1.140564e+00 1.235703e+00
5.804344e+01 2.869565e-01 -2.700837e-02 5.783018e-01 -1.142990e+00 1.236160e+00
5.803624e+01 2.869565e-01 -2.706547e-02 5.785237e-01 -1.145340e+00 1.237534e+00
5.784813e+01 2.826087e-01 -2.714529e-02 5.787433e-01 -1.147736e+00 1.240067e+00
5.784172e+01 2.782609e-01 -2.720786e-02 5.789560e-01 -1.149979e+00 1.242004e+00
5.805342e+01 2.782609e-01 -2.728420e-02 5.791858e-01 -1.152206e+00 1.242050e+00
5.781825e+01 2.695652e-01 -2.737449e-02 5.794311e-01 -1.154510e+00 1.243927e+00
5.774310e+01 2.695652e-01 -2.745754e-02 5.796466e-01 -1.156967e+00 1.245987e+00
5.758932e+01 2.695652e-01 -2.754527e-02 5.798827e-01 -1.159485e+00 1.248245e+00
5.825214e+01 2.782609e-01 -2.759979e-02 5.801213e-01 -1.161896e+00 1.250153e+00
5.865935e+01 2.739130e-01 -2.767239e-02 5.803701e-01 -1.164459e+00 1.252411e+00
5.868517e+01 2.739130e-01 -2.773910e-02 5.806247e-01 -1.167038e+00 1.254944e+00
5.871582e+01 2.739130e-01 -2.778632e-02 5.808728e-01 -1.169510e+00 1.258652e+00
5.845207e+01 2.652174e-01 -2.789617e-02 5.811310e-01 -1.172104e+00 1.259277e+00
5.833543e+01 2.565217e-01 -2.792253e-02 5.813824e-01 -1.174683e+00 1.262451e+00
5.799278e+01 2.521739e-01 -2.800500e-02 5.816329e-01 -1.177277e+00 1.263824e+00
5.833681e+01 2.565217e-01 -2.806156e-02 5.818989e-01 -1.179855e+00 1.265915e+00
5.809445e+01 2.608696e-01 -2.812521e-02 5.821543e-01 -1.182510e+00 1.268707e+00
5.837318e+01 2.652174e-01 -2.820774e-02 5.824237e-01 -1.185257e+00 1.270264e+00
5.880782e+01 2.652174e-01 -2.827643e-02 5.826872e-01 -1.187958e+00 1.272400e+00
5.865648e+01 2.652174e-01 -2.833514e-02 5.829505e-01 -1.190613e+00 1.274811e+00
5.872520e+01 2.608696e-01 -2.841090e-02 5.832173e-01 -1.193268e+00 1.276810e+00
5.856583e+01 2.521739e-01 -2.848671e-02 5.834836e-01 -1.195801e+00 1.279892e+00
5.815775e+01 2.521739e-01 -2.857236e-02 5.837817e-01 -1.198135e+00 1.280945e+00
5.799507e+01 2.521739e-01 -2.863857e-02 5.840452e-01 -1.200546e+00 1.283264e+00
5.782906e+01 2.521739e-01 -2.870198e-02 5.843420e-01 -1.203110e+00 1.287170e+00
5.822603e+01 2.565217e-01 -2.878617e-02 5.846242e-01 -1.205490e+00 1.287506e+00
5.850601e+01 2.608696e-01 -2.883753e-02 5.849135e-01 -1.208054e+00 1.290588e+00
5.824408e+01 2.565217e-01 -2.891613e-02 5.852120e-01 -1.210617e+00 1.291901e+00
5.815182e+01 2.565217e-01 -2.897772e-02 5.855041e-01 -1.213165e+00 1.294464e+00
5.756799e+01 2.565217e-01 -2.904168e-02 5.858113e-01 -1.215683e+00 1.297302e+00
5.717125e+01 2.565217e-01 -2.910616e-02 5.861427e-01 -1.218140e+00 1.299881e+00
5.714218e+01 2.521739e-01 -2.917580e-02 5.864441e-01 -1.220551e+00 1.302322e+00
5.720694e+01 2.565217e-01 -2.922984e-02 5.867514e-01 -1.222916e+00 1.305542e+00
5.684215e+01 2.608696e-01 -2.927818e-02 5.870673e-01 -1.225250e+00 1.307922e+00
5.652776e+01 2.652174e-01 -2.937786e-02 5.873607e-01 -1.227570e+00 1.309891e+00
5.639870e+01 2.608696e-01 -2.947693e-02 5.876602e-01 -1.229919e+00 1.311844e+00
5.601555e+01 2.565217e-01 -2.952308e-02 5.879731e-01 -1.232300e+00 1.315842e+00
5.726724e+01 2.739130e-01 -2.960454e-02 5.882647e-01 -1.234589e+00 1.317429e+00
5.715082e+01 2.695652e-01 -2.967713e-02 5.886022e-01 -1.237045e+00 1.320496e+00
5.665279e+01 2.652174e-01 -2.974906e-02 5.889025e-01 -1.239471e+00 1.323715e+00
5.621738e+01 2.695652e-01 -2.982691e-02 5.892157e-01 -1.241852e+00 1.326752e+00
5.548724e+01 2.521739e-01 -2.989038e-02 5.895292e-01 -1.244186e+00 1.329895e+00
5.495238e+01 2.478261e-01 -2.993749e-02 5.898697e-01 -1.246475e+00 1.334625e+00
5.448259e+01 2.434783e-01 -3.002063e-02 5.901666e-01 -1.248856e+00 1.336166e+00
5.441747e+01 2.391304e-01 -3.008870e-02 5.905078e-01 -1.251282e+00 1.339691e+00
5.438188e+01 2.347826e-01 -3.014626e-02 5.908284e-01 -1.253769e+00 1.343033e+00
5.406720e+01 2.347826e-01 -3.020727e-02 5.911433e-01 -1.256195e+00 1.347015e+00
5.374030e+01 2.304348e-01 -3.027585e-02 5.914794e-01 -1.258438e+00 1.349075e+00
5.336844e+01 2.347826e-01 -3.033057e-02 5.918195e-01 -1.260712e+00 1.352081e+00
5.298241e+01 2.391304e-01 -3.040271e-02 5.921367e-01 -1.263107e+00 1.355133e+00
5.311864e+01 2.391304e-01 -3.046678e-02 5.924597e-01 -1.265503e+00 1.358215e+00
5.280991e+01 2.391304e-01 -3.053321e-02 5.927824e-01 -1.267899e+00 1.361221e+00
5.193958e+01 2.391304e-01 -3.060344e-02 5.931152e-01 -1.270279e+00 1.364227e+00
5.150459e+01 2.391304e-01 -3.068775e-02 5.934416e-01 -1.272690e+00 1.367432e+00
5.130479e+01 2.391304e-01 -3.074137e-02 5.937951e-01 -1.275024e+00 1.370270e+00
5.174268e+01 2.478261e-01 -3.082891e-02 5.941045e-01 -1.277344e+00 1.372849e+00
5.129498e+01 2.478261e-01 -3.090740e-02 5.944500e-01 -1.279755e+00 1.376068e+00
5.108437e+01 2.478261e-01 -3.099375e-02 5.947760e-01 -1.282211e+00 1.379517e+00
5.090456e+01 2.391304e-01 -3.105629e-02 5.951321e-01 -1.284622e+00 1.382797e+00
5.081726e+01 2.391304e-01 -3.113248e-02 5.954700e-01 -1.286972e+00 1.386597e+00
5.082780e+01 2.347826e-01 -3.115645e-02 5.958023e-01 -1.289352e+00 1.390671e+00
5.114502e+01 2.478261e-01 -3.121803e-02 5.961307e-01 -1.291824e+00 1.394958e+00
5.091234e+01 2.478261e-01 -3.126472e-02 5.965159e-01 -1.294266e+00 1.398682e+00
5.063965e+01 2.478261e-01 -3.132453e-02 5.968364e-01 -1.296783e+00 1.402878e+00
5.082417e+01 2.434783e-01 -3.134401e-02 5.972139e-01 -1.299042e+00 1.407242e+00
5.051701e+01 2.434783e-01 -3.142293e-02 5.975567e-01 -1.301331e+00 1.410263e+00
5.029242e+01 2.391304e-01 -3.148595e-02 5.979180e-01 -1.303772e+00 1.414490e+00
5.013550e+01 2.391304e-01 -3.148859e-02 5.982537e-01 -1.306366e+00 1.419220e+00
5.002490e+01 2.391304e-01 -3.155399e-02 5.986145e-01 -1.308319e+00 1.421631e+00
4.993207e+01 2.434783e-01 -3.161801e-02 5.989714e-01 -1.310699e+00 1.425293e+00
5.005116e+01 2.434783e-01 -3.163175e-02 5.993082e-01 -1.312988e+00 1.428665e+00
5.048822e+01 2.478261e-01 -3.168994e-02 5.996731e-01 -1.315399e+00 1.432327e+00
5.001526e+01 2.478261e-01 -3.175968e-02 6.000110e-01 -1.317825e+00 1.435745e+00
4.941780e+01 2.391304e-01 -3.179238e-02 6.003818e-01 -1.320160e+00 1.439301e+00
4.895496e+01 2.347826e-01 -3.183165e-02 6.007416e-01 -1.322342e+00 1.442352e+00
4.782893e+01 2.217391e-01 -3.188390e-02 6.010905e-01 -1.324570e+00 1.445465e+00
4.746684e+01 2.217391e-01 -3.191400e-02 6.014591e-01 -1.326859e+00 1.449097e+00
4.728712e+01 2.217391e-01 -3.193597e-02 6.018167e-01 -1.329117e+00 1.452545e+00
4.746318e+01 2.217391e-01 -3.196336e-02 6.021787e-01 -1.331741e+00 1.457413e+00
4.664828e+01 2.173913e-01 -3.203953e-02 6.025151e-01 -1.333817e+00 1.459656e+00
4.653963e+01 2.130435e-01 -3.204351e-02 6.028758e-01 -1.336243e+00 1.463196e+00
4.652875e+01 2.130435e-01 -3.206986e-02 6.032235e-01 -1.338547e+00 1.466721e+00
4.693961e+01 2.173913e-01 -3.208864e-02 6.035804e-01 -1.340805e+00 1.470398e+00
4.703603e+01 2.130435e-01 -3.211447e-02 6.039235e-01 -1.343155e+00 1.472992e+00
4.718652e+01 2.173913e-01 -3.215332e-02 6.042691e-01 -1.345444e+00 1.476364e+00
4.750543e+01 2.173913e-01 -3.218608e-02 6.046147e-01 -1.347748e+00 1.480392e+00
4.722061e+01 2.173913e-01 -3.222458e-02 6.049482e-01 -1.350052e+00 1.483185e+00
4.708916e+01 2.130435e-01 -3.222819e-02 6.052961e-01 -1.352173e+00 1.486755e+00
4.691600e+01 2.130435e-01 -3.230726e-02 6.056106e-01 -1.354538e+00 1.489883e+00
4.665079e+01 2.043478e-01 -3.235681e-02 6.059478e-01 -1.356781e+00 1.493210e+00
4.671024e+01 2.086957e-01 -3.238521e-02 6.063093e-01 -1.359055e+00 1.496643e+00
4.662674e+01 2.086957e-01 -3.238476e-02 6.066263e-01 -1.361191e+00 1.499832e+00
4.668942e+01 2.130435e-01 -3.243671e-02 6.069498e-01 -1.363434e+00 1.503281e+00
4.682532e+01 2.086957e-01 -3.246054e-02 6.073237e-01 -1.365692e+00 1.507065e+00
4.627557e+01 2.130435e-01 -3.248686e-02 6.076170e-01 -1.368088e+00 1.510803e+00
4.652832e+01 2.173913e-01 -3.255552e-02 6.079365e-01 -1.370178e+00 1.514114e+00
4.652971e+01 2.173913e-01 -3.257056e-02 6.082562e-01 -1.372360e+00 1.517792e+00
4.658154e+01 2.173913e-01 -3.262374e-02 6.085716e-01 -1.374435e+00 1.521393e+00
4.652805e+01 2.173913e-01 -3.264654e-02 6.088837e-01 -1.376495e+00 1.524933e+00
4.643585e+01 2.173913e-01 -3.269938e-02 6.092148e-01 -1.378510e+00 1.528915e+00
4.660548e+01 2.217391e-01 -3.274454e-02 6.095192e-01 -1.380463e+00 1.531509e+00
4.684430e+01 2.260870e-01 -3.278840e-02 6.098094e-01 -1.382416e+00 1.534683e+00
4.678514e+01 2.304348e-01 -3.283584e-02 6.101271e-01 -1.384262e+00 1.537674e+00
4.645062e+01 2.304348e-01 -3.289708e-02 6.104326e-01 -1.385986e+00 1.540695e+00
4.629001e+01 2.304348e-01 -3.296523e-02 6.107402e-01 -1.387772e+00 1.543686e+00
4.552515e+01 2.260870e-01 -3.299481e-02 6.110237e-01 -1.389420e+00 1.547241e+00
4.523666e+01 2.217391e-01 -3.305253e-02 6.113418e-01 -1.390976e+00 1.549866e+00
4.583273e+01 2.304348e-01 -3.310724e-02 6.116318e-01 -1.392929e+00 1.552628e+00
4.563593e+01 2.304348e-01 -3.324453e-02 6.119470e-01 -1.394043e+00 1.553436e+00
4.557573e+01 2.304348e-01 -3.330090e-02 6.122064e-01 -1.395676e+00 1.556030e+00
4.517235e+01 2.217391e-01 -3.334512e-02 6.124982e-01 -1.397202e+00 1.558533e+00
4.475192e+01 2.217391e-01 -3.337505e-02 6.127947e-01 -1.398849e+00 1.562042e+00
4.516405e+01 2.173913e-01 -3.349386e-02 6.130812e-01 -1.400116e+00 1.562881e+00
4.538925e+01 2.130435e-01 -3.354575e-02 6.133517e-01 -1.401520e+00 1.564972e+00
4.531313e+01 2.130435e-01 -3.363114e-02 6.136317e-01 -1.403152e+00 1.567215e+00
4.507555e+01 2.130435e-01 -3.368531e-02 6.138925e-01 -1.404724e+00 1.569565e+00
4.498062e+01 2.130435e-01 -3.373545e-02 6.141901e-01 -1.406235e+00 1.572189e+00
4.477898e+01 2.043478e-01 -3.381084e-02 6.144074e-01 -1.407791e+00 1.574051e+00
4.486000e+01 2.086957e-01 -3.382991e-02 6.147050e-01 -1.409805e+00 1.577347e+00
4.568076e+01 2.130435e-01 -3.390135e-02 6.149473e-01 -1.410675e+00 1.578125e+00
4.637199e+01 2.260870e-01 -3.398773e-02 6.152114e-01 -1.412186e+00 1.580856e+00
4.608430e+01 2.260870e-01 -3.406205e-02 6.154746e-01 -1.413712e+00 1.583084e+00
4.570851e+01 2.260870e-01 -3.407496e-02 6.157578e-01 -1.415161e+00 1.585312e+00
4.573926e+01 2.260870e-01 -3.414999e-02 6.160050e-01 -1.416565e+00 1.587570e+00
4.535568e+01 2.217391e-01 -3.419115e-02 6.162527e-01 -1.417999e+00 1.589951e+00
4.555739e+01 2.217391e-01 -3.419089e-02 6.165075e-01 -1.419296e+00 1.592392e+00
4.588245e+01 2.260870e-01 -3.422890e-02 6.167601e-01 -1.420563e+00 1.594452e+00
4.521954e+01 2.217391e-01 -3.429555e-02 6.170326e-01 -1.422211e+00 1.597534e+00
4.523451e+01 2.260870e-01 -3.435907e-02 6.172465e-01 -1.423386e+00 1.598801e+00
4.522604e+01 2.260870e-01 -3.439653e-02 6.174991e-01 -1.424713e+00 1.601089e+00
4.437798e+01 2.173913e-01 -3.440635e-02 6.177398e-01 -1.426117e+00 1.603638e+00
4.460236e+01 2.173913e-01 -3.445691e-02 6.179950e-01 -1.427505e+00 1.606064e+00
4.433780e+01 2.043478e-01 -3.444024e-02 6.182252e-01 -1.429123e+00 1.609268e+00
4.409607e+01 2.086957e-01 -3.451163e-02 6.184671e-01 -1.430283e+00 1.611023e+00
4.426802e+01 2.086957e-01 -3.453424e-02 6.186828e-01 -1.431549e+00 1.613159e+00
4.428851e+01 2.086957e-01 -3.456624e-02 6.189240e-01 -1.432846e+00 1.615433e+00
4.410432e+01 2.086957e-01 -3.458172e-02 6.191777e-01 -1.434235e+00 1.617554e+00
4.412701e+01 2.086957e-01 -3.461657e-02 6.194309e-01 -1.435684e+00 1.619766e+00
4.422299e+01 2.173913e-01 -3.464604e-02 6.196579e-01 -1.436996e+00 1.621811e+00
4.403203e+01 2.130435e-01 -3.469096e-02 6.198763e-01 -1.438354e+00 1.624039e+00
4.400305e+01 2.130435e-01 -3.470890e-02 6.201103e-01 -1.439713e+00 1.625900e+00
4.409932e+01 2.086957e-01 -3.471559e-02 6.203214e-01 -1.441391e+00 1.628693e+00
4.414961e+01 2.130435e-01 -3.482233e-02 6.205377e-01 -1.442291e+00 1.629166e+00
4.445689e+01 2.173913e-01 -3.482022e-02 6.207523e-01 -1.443573e+00 1.631638e+00
4.449803e+01 2.130435e-01 -3.486188e-02 6.209555e-01 -1.445572e+00 1.633423e+00
4.472437e+01 2.130435e-01 -3.495234e-02 6.211592e-01 -1.446396e+00 1.635010e+00
4.487762e+01 2.130435e-01 -3.496966e-02 6.213478e-01 -1.447525e+00 1.635727e+00
4.466960e+01 2.130435e-01 -3.501650e-02 6.215584e-01 -1.448486e+00 1.637146e+00
4.452052e+01 2.130435e-01 -3.507064e-02 6.217557e-01 -1.450287e+00 1.640259e+00
4.438675e+01 2.086957e-01 -3.514208e-02 6.219403e-01 -1.450851e+00 1.640030e+00
4.430652e+01 2.086957e-01 -3.517490e-02 6.221310e-01 -1.451996e+00 1.641602e+00
4.438409e+01 2.086957e-01 -3.521381e-02 6.223450e-01 -1.453125e+00 1.643417e+00
4.477855e+01 2.086957e-01 -3.529091e-02 6.225354e-01 -1.454300e+00 1.645111e+00
4.441101e+01 2.086957e-01 -3.531711e-02 6.227273e-01 -1.455490e+00 1.647522e+00
4.434036e+01 2.000000e-01 -3.536183e-02 6.229415e-01 -1.456512e+00 1.649048e+00
4.461594e+01 2.043478e-01 -3.543549e-02 6.230865e-01 -1.457626e+00 1.650177e+00
4.503055e+01 2.086957e-01 -3.546227e-02 6.232568e-01 -1.458557e+00 1.651581e+00
4.537172e+01 2.130435e-01 -3.547640e-02 6.234736e-01 -1.459610e+00 1.653580e+00
4.532191e+01 2.130435e-01 -3.555817e-02 6.236477e-01 -1.460678e+00 1.654907e+00
4.602933e+01 2.130435e-01 -3.563743e-02 6.238342e-01 -1.461563e+00 1.656036e+00
4.615494e+01 2.086957e-01 -3.563454e-02 6.240211e-01 -1.462692e+00 1.657913e+00
4.633997e+01 2.130435e-01 -3.571011e-02 6.241732e-01 -1.463562e+00 1.659256e+00
4.611723e+01 2.173913e-01 -3.578354e-02 6.242844e-01 -1.464523e+00 1.660004e+00
4.622461e+01 2.173913e-01 -3.582421e-02 6.245291e-01 -1.465790e+00 1.661835e+00
4.620039e+01 2.173913e-01 -3.592369e-02 6.246916e-01 -1.466537e+00 1.662964e+00
4.667368e+01 2.217391e-01 -3.600071e-02 6.248193e-01 -1.467621e+00 1.664520e+00
4.676666e+01 2.260870e-01 -3.600726e-02 6.249921e-01 -1.468658e+00 1.666031e+00
4.569406e+01 2.217391e-01 -3.609161e-02 6.251691e-01 -1.469742e+00 1.667328e+00
4.543848e+01 2.217391e-01 -3.614160e-02 6.253236e-01 -1.470856e+00 1.668686e+00
4.632861e+01 2.217391e-01 -3.616163e-02 6.255073e-01 -1.472061e+00 1.671143e+00
4.621553e+01 2.217391e-01 -3.621833e-02 6.256325e-01 -1.473083e+00 1.671127e+00
4.608006e+01 2.173913e-01 -3.631354e-02 6.257937e-01 -1.474274e+00 1.672562e+00
4.602708e+01 2.173913e-01 -3.635122e-02 6.259843e-01 -1.475479e+00 1.673798e+00
4.612135e+01 2.173913e-01 -3.640395e-02 6.261028e-01 -1.476608e+00 1.674973e+00
4.625015e+01 2.217391e-01 -3.648930e-02 6.262902e-01 -1.477753e+00 1.676117e+00
4.634039e+01 2.260870e-01 -3.650259e-02 6.264313e-01 -1.478851e+00 1.677856e+00
4.649333e+01 2.304348e-01 -3.656929e-02 6.265831e-01 -1.480148e+00 1.679077e+00
4.627820e+01 2.260870e-01 -3.662617e-02 6.266976e-01 -1.480896e+00 1.679352e+00
4.625020e+01 2.304348e-01 -3.667273e-02 6.268813e-01 -1.482071e+00 1.681488e+00
4.580479e+01 2.304348e-01 -3.677690e-02 6.270361e-01 -1.483139e+00 1.681656e+00
4.611807e+01 2.304348e-01 -3.679065e-02 6.271512e-01 -1.484100e+00 1.682770e+00
4.588821e+01 2.260870e-01 -3.683160e-02 6.273523e-01 -1.485336e+00 1.685516e+00
4.593407e+01 2.260870e-01 -3.687954e-02 6.275037e-01 -1.486328e+00 1.685608e+00
4.581451e+01 2.260870e-01 -3.694032e-02 6.276452e-01 -1.486923e+00 1.686371e+00
4.578462e+01 2.260870e-01 -3.701490e-02 6.277692e-01 -1.487900e+00 1.687744e+00
4.572037e+01 2.260870e-01 -3.702947e-02 6.279548e-01 -1.488953e+00 1.689575e+00
4.596632e+01 2.304348e-01 -3.710254e-02 6.280674e-01 -1.489609e+00 1.689850e+00
4.582535e+01 2.304348e-01 -3.713945e-02 6.282298e-01 -1.490646e+00 1.692001e+00
4.568604e+01 2.304348e-01 -3.723949e-02 6.283631e-01 -1.491272e+00 1.691162e+00
4.559499e+01 2.304348e-01 -3.730378e-02 6.284888e-01 -1.492188e+00 1.692154e+00
4.578145e+01 2.304348e-01 -3.736790e-02 6.286458e-01 -1.493027e+00 1.693359e+00
4.576303e+01 2.304348e-01 -3.742091e-02 6.287616e-01 -1.493896e+00 1.694595e+00
4.564769e+01 2.304348e-01 -3.744217e-02 6.289183e-01 -1.494781e+00 1.695862e+00
4.594746e+01 2.304348e-01 -3.749835e-02 6.290907e-01 -1.495697e+00 1.697586e+00
4.591856e+01 2.304348e-01 -3.752990e-02 6.292581e-01 -1.496765e+00 1.698822e+00
4.604070e+01 2.304348e-01 -3.753758e-02 6.293832e-01 -1.497757e+00 1.699829e+00
4.567848e+01 2.304348e-01 -3.757797e-02 6.295308e-01 -1.498764e+00 1.700943e+00
4.587538e+01 2.304348e-01 -3.762633e-02 6.297003e-01 -1.499771e+00 1.702347e+00
4.523415e+01 2.260870e-01 -3.763613e-02 6.298150e-01 -1.500732e+00 1.703384e+00
4.483784e+01 2.260870e-01 -3.768470e-02 6.299480e-01 -1.501694e+00 1.705154e+00
4.467677e+01 2.260870e-01 -3.769651e-02 6.301024e-01 -1.502838e+00 1.706512e+00
4.446188e+01 2.260870e-01 -3.775863e-02 6.302390e-01 -1.503647e+00 1.706909e+00
4.373128e+01 2.173913e-01 -3.774115e-02 6.304241e-01 -1.505173e+00 1.710403e+00
4.354352e+01 2.130435e-01 -3.780631e-02 6.305602e-01 -1.505859e+00 1.710388e+00
4.357138e+01 2.130435e-01 -3.783766e-02 6.307176e-01 -1.506836e+00 1.711761e+00
4.367525e+01 2.130435e-01 -3.789582e-02 6.308188e-01 -1.507660e+00 1.711685e+00
4.343111e+01 2.130435e-01 -3.793160e-02 6.309486e-01 -1.508621e+00 1.712646e+00
4.347194e+01 2.130435e-01 -3.795663e-02 6.310932e-01 -1.509460e+00 1.713821e+00
4.345453e+01 2.130435e-01 -3.805088e-02 6.312198e-01 -1.510422e+00 1.714508e+00
4.338245e+01 2.130435e-01 -3.805846e-02 6.313751e-01 -1.511337e+00 1.715881e+00
4.431691e+01 2.173913e-01 -3.808853e-02 6.315340e-01 -1.512222e+00 1.717621e+00
4.427840e+01 2.130435e-01 -3.814195e-02 6.316367e-01 -1.513275e+00 1.717972e+00
4.404147e+01 2.130435e-01 -3.816485e-02 6.318025e-01 -1.514236e+00 1.719604e+00
4.375079e+01 2.130435e-01 -3.818405e-02 6.319571e-01 -1.514984e+00 1.721039e+00
4.391046e+01 2.130435e-01 -3.821192e-02 6.320879e-01 -1.516296e+00 1.722565e+00
4.396899e+01 2.130435e-01 -3.821422e-02 6.322371e-01 -1.517090e+00 1.723785e+00
4.372499e+01 2.130435e-01 -3.830881e-02 6.323333e-01 -1.517822e+00 1.724136e+00
4.355507e+01 2.130435e-01 -3.831463e-02 6.325041e-01 -1.518646e+00 1.724945e+00
4.323264e+01 2.086957e-01 -3.835336e-02 6.326104e-01 -1.519424e+00 1.725677e+00
4.327295e+01 2.043478e-01 -3.838990e-02 6.327300e-01 -1.520355e+00 1.726685e+00
4.332634e+01 2.043478e-01 -3.843505e-02 6.329011e-01 -1.521255e+00 1.728226e+00
4.385278e+01 2.000000e-01 -3.843755e-02 6.329952e-01 -1.522079e+00 1.729218e+00
4.380681e+01 2.000000e-01 -3.848799e-02 6.331393e-01 -1.523087e+00 1.730652e+00
4.380028e+01 2.000000e-01 -3.849296e-02 6.332935e-01 -1.523682e+00 1.732498e+00
4.355479e+01 2.000000e-01 -3.853617e-02 6.334119e-01 -1.524536e+00 1.732361e+00
4.346404e+01 2.000000e-01 -3.856464e-02 6.335786e-01 -1.525314e+00 1.734329e+00
4.354742e+01 2.000000e-01 -3.859817e-02 6.336890e-01 -1.526566e+00 1.735596e+00
4.344073e+01 2.000000e-01 -3.863632e-02 6.338307e-01 -1.526855e+00 1.735855e+00
4.335680e+01 2.000000e-01 -3.869235e-02 6.339737e-01 -1.527634e+00 1.736557e+00
4.316997e+01 1.956522e-01 -3.874791e-02 6.340797e-01 -1.528473e+00 1.738052e+00
4.293266e+01 1.956522e-01 -3.878275e-02 6.342189e-01 -1.529114e+00 1.739624e+00
4.289070e+01 1.956522e-01 -3.881314e-02 6.343527e-01 -1.529739e+00 1.740402e+00
4.295728e+01 1.956522e-01 -3.883213e-02 6.345050e-01 -1.530380e+00 1.741470e+00
4.266736e+01 1.956522e-01 -3.885476e-02 6.346278e-01 -1.531464e+00 1.744339e+00
4.269609e+01 1.956522e-01 -3.889554e-02 6.347535e-01 -1.531921e+00 1.744217e+00
4.272047e+01 1.956522e-01 -3.890936e-02 6.348715e-01 -1.532425e+00 1.745300e+00
4.272641e+01 1.956522e-01 -3.896066e-02 6.349830e-01 -1.533066e+00 1.746338e+00
4.267511e+01 1.956522e-01 -3.899684e-02 6.351130e-01 -1.533829e+00 1.747696e+00
4.254376e+01 2.000000e-01 -3.897854e-02 6.352675e-01 -1.534515e+00 1.750183e+00
4.202876e+01 2.000000e-01 -3.906275e-02 6.353549e-01 -1.535187e+00 1.749786e+00
4.163287e+01 1.956522e-01 -3.911475e-02 6.354871e-01 -1.535965e+00 1.751114e+00
4.187740e+01 2.000000e-01 -3.912246e-02 6.356172e-01 -1.536667e+00 1.752029e+00
4.169356e+01 2.000000e-01 -3.913447e-02 6.357092e-01 -1.537354e+00 1.753052e+00
4.114532e+01 1.956522e-01 -3.918376e-02 6.358127e-01 -1.537918e+00 1.753235e+00
4.102888e+01 1.956522e-01 -3.923312e-02 6.359263e-01 -1.538498e+00 1.753876e+00
4.154480e+01 2.000000e-01 -3.926781e-02 6.360225e-01 -1.539139e+00 1.754486e+00
4.168820e+01 2.000000e-01 -3.931659e-02 6.361360e-01 -1.539886e+00 1.755157e+00
4.193698e+01 2.000000e-01 -3.934153e-02 6.362308e-01 -1.540558e+00 1.756531e+00
4.194733e+01 2.000000e-01 -3.940380e-02 6.362825e-01 -1.541214e+00 1.756927e+00
4.158318e+01 2.000000e-01 -3.945567e-02 6.364020e-01 -1.541641e+00 1.757401e+00
4.153746e+01 2.000000e-01 -3.947485e-02 6.365084e-01 -1.542206e+00 1.758118e+00
4.154214e+01 2.000000e-01 -3.953113e-02 6.365825e-01 -1.542648e+00 1.758499e+00
4.179968e+01 2.043478e-01 -3.960169e-02 6.366734e-01 -1.543106e+00 1.759048e+00
4.171941e+01 2.043478e-01 -3.960968e-02 6.367674e-01 -1.544022e+00 1.760788e+00
4.156151e+01 2.000000e-01 -3.969751e-02 6.368456e-01 -1.544174e+00 1.760437e+00
4.173924e+01 2.043478e-01 -3.974016e-02 6.369374e-01 -1.544662e+00 1.761993e+00
4.178561e+01 2.043478e-01 -3.981478e-02 6.370356e-01 -1.545273e+00 1.761810e+00
4.192758e+01 2.043478e-01 -3.986969e-02 6.370947e-01 -1.545731e+00 1.762756e+00
4.192758e+01 2.043478e-01 -3.988520e-02 6.371990e-01 -1.546448e+00 1.763748e+00
4.160490e+01 2.043478e-01 -3.992864e-02 6.372734e-01 -1.546829e+00 1.764664e+00
4.160841e+01 2.043478e-01 -3.997800e-02 6.373453e-01 -1.547363e+00 1.765198e+00
4.144841e+01 2.043478e-01 -3.999725e-02 6.374474e-01 -1.547943e+00 1.766174e+00
4.122905e+01 2.043478e-01 -4.003243e-02 6.375400e-01 -1.548386e+00 1.767456e+00
4.034210e+01 2.000000e-01 -4.010803e-02 6.376118e-01 -1.548981e+00 1.767303e+00
3.992763e+01 2.000000e-01 -4.009407e-02 6.377205e-01 -1.549820e+00 1.769073e+00
4.030281e+01 2.000000e-01 -4.014400e-02 6.377758e-01 -1.549942e+00 1.769104e+00
4.039775e+01 2.000000e-01 -4.023015e-02 6.378475e-01 -1.550522e+00 1.769180e+00
3.973116e+01 2.043478e-01 -4.022626e-02 6.379424e-01 -1.551254e+00 1.771423e+00
4.007753e+01 2.043478e-01 -4.026287e-02 6.379885e-01 -1.551636e+00 1.770920e+00
3.958517e+01 2.000000e-01 -4.032917e-02 6.380990e-01 -1.551910e+00 1.771362e+00
3.960660e+01 1.956522e-01 -4.030783e-02 6.381635e-01 -1.552658e+00 1.772903e+00
3.961133e+01 1.956522e-01 -4.038352e-02 6.382496e-01 -1.552933e+00 1.773270e+00
3.990108e+01 2.000000e-01 -4.044751e-02 6.383300e-01 -1.553131e+00 1.773407e+00
3.985385e+01 2.000000e-01 -4.048933e-02 6.384006e-01 -1.553879e+00 1.773804e+00
4.053229e+01 2.043478e-01 -4.051980e-02 6.384840e-01 -1.554016e+00 1.774261e+00
4.047311e+01 2.000000e-01 -4.057612e-02 6.385741e-01 -1.554596e+00 1.774857e+00
4.026199e+01 2.000000e-01 -4.057976e-02 6.386068e-01 -1.555099e+00 1.776062e+00
4.021680e+01 2.000000e-01 -4.063495e-02 6.387251e-01 -1.555588e+00 1.776413e+00
4.022093e+01 2.000000e-01 -4.062968e-02 6.388255e-01 -1.556015e+00 1.777100e+00
3.967294e+01 2.000000e-01 -4.062645e-02 6.388870e-01 -1.556656e+00 1.778305e+00
3.997574e+01 2.000000e-01 -4.068819e-02 6.389376e-01 -1.557114e+00 1.778580e+00
4.054018e+01 2.000000e-01 -4.073895e-02 6.389873e-01 -1.557693e+00 1.779678e+00
4.066507e+01 2.000000e-01 -4.073297e-02 6.390741e-01 -1.558304e+00 1.780502e+00
4.036775e+01 2.000000e-01 -4.077180e-02 6.391659e-01 -1.558823e+00 1.781448e+00
4.028326e+01 2.000000e-01 -4.079756e-02 6.392211e-01 -1.559448e+00 1.782822e+00
4.013670e+01 2.000000e-01 -4.079954e-02 6.392717e-01 -1.559906e+00 1.783340e+00
4.012311e+01 2.000000e-01 -4.085801e-02 6.393385e-01 -1.560181e+00 1.783691e+00
4.015997e+01 2.000000e-01 -4.087918e-02 6.393997e-01 -1.560608e+00 1.784286e+00
4.012970e+01 2.000000e-01 -4.095206e-02 6.394967e-01 -1.560776e+00 1.784180e+00
4.042715e+01 2.000000e-01 -4.098684e-02 6.394993e-01 -1.561157e+00 1.784866e+00
4.036005e+01 2.000000e-01 -4.102909e-02 6.396195e-01 -1.561539e+00 1.785522e+00
4.034250e+01 2.000000e-01 -4.105866e-02 6.396455e-01 -1.561981e+00 1.786423e+00
4.035472e+01 2.000000e-01 -4.104489e-02 6.397452e-01 -1.562912e+00 1.788544e+00
4.064018e+01 2.000000e-01 -4.114009e-02 6.397664e-01 -1.562607e+00 1.787033e+00
4.058792e+01 2.000000e-01 -4.117791e-02 6.398147e-01 -1.562958e+00 1.787231e+00
4.051645e+01 2.000000e-01 -4.120695e-02 6.398857e-01 -1.563568e+00 1.788879e+00
4.050018e+01 2.000000e-01 -4.125276e-02 6.399433e-01 -1.563766e+00 1.788971e+00
4.099463e+01 2.000000e-01 -4.131362e-02 6.399660e-01 -1.564041e+00 1.788651e+00
4.093076e+01 2.043478e-01 -4.133387e-02 6.399923e-01 -1.564484e+00 1.789948e+00
4.092110e+01 2.043478e-01 -4.141865e-02 6.400539e-01 -1.564880e+00 1.789688e+00
4.088580e+01 2.043478e-01 -4.144472e-02 6.400677e-01 -1.565109e+00 1.790375e+00
4.150230e+01 2.043478e-01 -4.151523e-02 6.401090e-01 -1.565552e+00 1.790329e+00
4.157869e+01 2.043478e-01 -4.151907e-02 6.401573e-01 -1.566025e+00 1.790970e+00
4.209976e+01 2.043478e-01 -4.155760e-02 6.402008e-01 -1.566437e+00 1.791443e+00
4.202235e+01 2.043478e-01 -4.159304e-02 6.402234e-01 -1.566895e+00 1.791992e+00
4.196347e+01 2.043478e-01 -4.161065e-02 6.402980e-01 -1.567368e+00 1.792618e+00
4.169438e+01 2.043478e-01 -4.169577e-02 6.403147e-01 -1.567871e+00 1.793137e+00
4.192749e+01 2.086957e-01 -4.164712e-02 6.403834e-01 -1.568359e+00 1.794418e+00
4.183511e+01 2.086957e-01 -4.175986e-02 6.404022e-01 -1.568619e+00 1.794098e+00
4.163780e+01 2.086957e-01 -4.176876e-02 6.404767e-01 -1.569138e+00 1.795197e+00
4.120129e+01 2.086957e-01 -4.187704e-02 6.404824e-01 -1.569275e+00 1.794250e+00
4.119214e+01 2.086957e-01 -4.188098e-02 6.405499e-01 -1.569763e+00 1.795273e+00
4.162727e+01 2.086957e-01 -4.197071e-02 6.405936e-01 -1.569916e+00 1.795166e+00
4.204431e+01 2.086957e-01 -4.201988e-02 6.406189e-01 -1.570221e+00 1.795731e+00
4.249731e+01 2.130435e-01 -4.202428e-02 6.406705e-01 -1.570618e+00 1.796936e+00
4.212787e+01 2.086957e-01 -4.209276e-02 6.407268e-01 -1.571167e+00 1.796967e+00
4.215813e+01 2.086957e-01 -4.216108e-02 6.407272e-01 -1.571014e+00 1.796051e+00
4.217313e+01 2.086957e-01 -4.218692e-02 6.407750e-01 -1.571487e+00 1.796631e+00
4.209048e+01 2.086957e-01 -4.225859e-02 6.408293e-01 -1.571716e+00 1.796860e+00
4.213026e+01 2.086957e-01 -4.231719e-02 6.408859e-01 -1.571945e+00 1.796921e+00
4.212401e+01 2.086957e-01 -4.236225e-02 6.409360e-01 -1.572235e+00 1.797485e+00
4.211165e+01 2.130435e-01 -4.240518e-02 6.409681e-01 -1.572601e+00 1.798050e+00
4.235291e+01 2.130435e-01 -4.246738e-02 6.409825e-01 -1.572922e+00 1.798508e+00
4.181091e+01 2.130435e-01 -4.249783e-02 6.410395e-01 -1.573364e+00 1.798935e+00
4.224574e+01 2.130435e-01 -4.253223e-02 6.411081e-01 -1.573547e+00 1.799377e+00
4.228392e+01 2.130435e-01 -4.255214e-02 6.411291e-01 -1.573822e+00 1.799759e+00
4.239175e+01 2.130435e-01 -4.263565e-02 6.411568e-01 -1.574051e+00 1.799927e+00
4.252878e+01 2.130435e-01 -4.267953e-02 6.412192e-01 -1.574417e+00 1.800415e+00
4.239572e+01 2.130435e-01 -4.267988e-02 6.412455e-01 -1.574722e+00 1.801422e+00
4.262599e+01 2.173913e-01 -4.269393e-02 6.413075e-01 -1.575027e+00 1.802307e+00
4.218495e+01 2.130435e-01 -4.276587e-02 6.413566e-01 -1.575272e+00 1.802002e+00
4.231865e+01 2.173913e-01 -4.281812e-02 6.413981e-01 -1.575562e+00 1.801758e+00
4.213661e+01 2.130435e-01 -4.282981e-02 6.414821e-01 -1.575974e+00 1.803070e+00
4.206708e+01 2.130435e-01 -4.288891e-02 6.415055e-01 -1.576096e+00 1.802658e+00
4.209274e+01 2.130435e-01 -4.289376e-02 6.415453e-01 -1.576813e+00 1.804260e+00
4.176051e+01 2.086957e-01 -4.294727e-02 6.415611e-01 -1.576675e+00 1.804321e+00
4.177493e+01 2.086957e-01 -4.300595e-02 6.416054e-01 -1.576965e+00 1.803879e+00
4.174318e+01 2.086957e-01 -4.304426e-02 6.416746e-01 -1.577332e+00 1.804810e+00
4.210541e+01 2.130435e-01 -4.307694e-02 6.417186e-01 -1.577682e+00 1.805389e+00
4.177252e+01 2.086957e-01 -4.310182e-02 6.417321e-01 -1.577774e+00 1.806076e+00
4.196246e+01 2.086957e-01 -4.311695e-02 6.418052e-01 -1.578186e+00 1.807892e+00
4.201891e+01 2.086957e-01 -4.310144e-02 6.418766e-01 -1.578659e+00 1.809006e+00
4.198251e+01 2.086957e-01 -4.315915e-02 6.419067e-01 -1.578781e+00 1.808975e+00
4.147934e+01 2.043478e-01 -4.319594e-02 6.419573e-01 -1.578766e+00 1.809082e+00
4.148419e+01 2.043478e-01 -4.323363e-02 6.420001e-01 -1.579208e+00 1.810043e+00
4.148332e+01 2.000000e-01 -4.327710e-02 6.420257e-01 -1.579208e+00 1.809601e+00
4.157147e+01 2.000000e-01 -4.330722e-02 6.420741e-01 -1.579453e+00 1.810333e+00
4.165334e+01 2.000000e-01 -4.335193e-02 6.420978e-01 -1.579727e+00 1.810837e+00
4.148846e+01 2.000000e-01 -4.337060e-02 6.421814e-01 -1.579941e+00 1.811478e+00
4.136708e+01 2.000000e-01 -4.338233e-02 6.422097e-01 -1.580307e+00 1.812286e+00
4.162694e+01 2.000000e-01 -4.345346e-02 6.422607e-01 -1.580368e+00 1.812332e+00
4.180421e+01 2.000000e-01 -4.350211e-02 6.423044e-01 -1.580597e+00 1.812866e+00
4.178714e+01 2.000000e-01 -4.351700e-02 6.423210e-01 -1.580887e+00 1.813171e+00
4.176190e+01 2.000000e-01 -4.353303e-02 6.423977e-01 -1.581360e+00 1.814240e+00
4.185909e+01 2.000000e-01 -4.360188e-02 6.424425e-01 -1.581299e+00 1.813965e+00
4.187503e+01 2.000000e-01 -4.361949e-02 6.424755e-01 -1.581680e+00 1.814529e+00
4.179599e+01 2.000000e-01 -4.367397e-02 6.425003e-01 -1.581833e+00 1.814407e+00
4.171033e+01 1.956522e-01 -4.371008e-02 6.425380e-01 -1.582001e+00 1.814453e+00
4.164938e+01 1.956522e-01 -4.374500e-02 6.426012e-01 -1.582367e+00 1.814835e+00
4.154393e+01 1.956522e-01 -4.380761e-02 6.426406e-01 -1.582596e+00 1.814774e+00
4.150789e+01 1.956522e-01 -4.381746e-02 6.426737e-01 -1.582886e+00 1.815338e+00
4.154414e+01 1.956522e-01 -4.387331e-02 6.427014e-01 -1.583099e+00 1.815536e+00
4.161018e+01 1.956522e-01 -4.390889e-02 6.427299e-01 -1.583252e+00 1.814911e+00
4.154251e+01 1.956522e-01 -4.397836e-02 6.427627e-01 -1.583542e+00 1.815125e+00
4.106499e+01 1.913043e-01 -4.400232e-02 6.428180e-01 -1.583710e+00 1.815521e+00
4.070663e+01 1.913043e-01 -4.406330e-02 6.428470e-01 -1.584000e+00 1.815277e+00
4.089326e+01 1.913043e-01 -4.412312e-02 6.428966e-01 -1.584198e+00 1.814789e+00
4.091057e+01 1.913043e-01 -4.409491e-02 6.429266e-01 -1.584595e+00 1.816452e+00
4.091316e+01 1.913043e-01 -4.416609e-02 6.429003e-01 -1.584671e+00 1.815033e+00
4.118802e+01 1.913043e-01 -4.422975e-02 6.429669e-01 -1.584793e+00 1.814285e+00
4.117697e+01 1.913043e-01 -4.426102e-02 6.429570e-01 -1.585037e+00 1.814499e+00
4.120566e+01 1.913043e-01 -4.430099e-02 6.430294e-01 -1.585114e+00 1.814713e+00
4.123390e+01 1.869565e-01 -4.432114e-02 6.430893e-01 -1.585510e+00 1.815781e+00
4.107127e+01 1.869565e-01 -4.439148e-02 6.430892e-01 -1.585434e+00 1.814713e+00
4.147227e+01 1.869565e-01 -4.438183e-02 6.431496e-01 -1.585709e+00 1.815689e+00
4.134619e+01 1.869565e-01 -4.444514e-02 6.431946e-01 -1.586044e+00 1.816071e+00
4.108456e+01 1.869565e-01 -4.448377e-02 6.432047e-01 -1.586197e+00 1.815659e+00
4.124388e+01 1.869565e-01 -4.454705e-02 6.432306e-01 -1.585968e+00 1.814545e+00
4.116187e+01 1.869565e-01 -4.456135e-02 6.433155e-01 -1.586426e+00 1.815659e+00
4.108926e+01 1.869565e-01 -4.461201e-02 6.433218e-01 -1.586349e+00 1.815384e+00
4.120187e+01 1.869565e-01 -4.464001e-02 6.433712e-01 -1.586517e+00 1.816208e+00
4.118077e+01 1.869565e-01 -4.471576e-02 6.433762e-01 -1.586441e+00 1.814728e+00
4.119772e+01 1.869565e-01 -4.475667e-02 6.434209e-01 -1.586563e+00 1.815475e+00
4.067868e+01 1.869565e-01 -4.480982e-02 6.433853e-01 -1.586731e+00 1.814362e+00
4.060756e+01 1.869565e-01 -4.483909e-02 6.434557e-01 -1.586929e+00 1.814758e+00
4.062512e+01 1.869565e-01 -4.486702e-02 6.434815e-01 -1.587112e+00 1.815536e+00
4.070367e+01 1.869565e-01 -4.489502e-02 6.435159e-01 -1.587341e+00 1.815308e+00
4.051758e+01 1.869565e-01 -4.493438e-02 6.435215e-01 -1.587357e+00 1.814667e+00
4.004932e+01 1.826087e-01 -4.499948e-02 6.435257e-01 -1.587494e+00 1.814331e+00
3.929352e+01 1.826087e-01 -4.500900e-02 6.436000e-01 -1.587631e+00 1.814484e+00
3.952826e+01 1.826087e-01 -4.504739e-02 6.436123e-01 -1.587753e+00 1.814590e+00
3.930609e+01 1.826087e-01 -4.506540e-02 6.436129e-01 -1.587997e+00 1.815262e+00
3.930856e+01 1.826087e-01 -4.511707e-02 6.436429e-01 -1.587982e+00 1.814941e+00
3.929114e+01 1.826087e-01 -4.515634e-02 6.437165e-01 -1.588196e+00 1.814804e+00
3.935974e+01 1.869565e-01 -4.519715e-02 6.437277e-01 -1.588104e+00 1.814331e+00
3.936160e+01 1.869565e-01 -4.525010e-02 6.437712e-01 -1.588257e+00 1.813919e+00
3.931865e+01 1.826087e-01 -4.525964e-02 6.438352e-01 -1.588379e+00 1.814484e+00
3.924608e+01 1.826087e-01 -4.532469e-02 6.438490e-01 -1.588608e+00 1.814209e+00
3.927132e+01 1.826087e-01 -4.534301e-02 6.438744e-01 -1.588730e+00 1.814224e+00
3.962961e+01 1.869565e-01 -4.535107e-02 6.439473e-01 -1.589035e+00 1.814926e+00
3.956245e+01 1.869565e-01 -4.546002e-02 6.439601e-01 -1.588913e+00 1.813309e+00
3.954456e+01 1.869565e-01 -4.549968e-02 6.439573e-01 -1.588852e+00 1.812988e+00
3.937157e+01 1.826087e-01 -4.555269e-02 6.440317e-01 -1.589371e+00 1.813995e+00
3.977242e+01 1.869565e-01 -4.558698e-02 6.440758e-01 -1.589325e+00 1.812515e+00
3.928625e+01 1.826087e-01 -4.568388e-02 6.440660e-01 -1.589386e+00 1.811371e+00
3.931865e+01 1.826087e-01 -4.573478e-02 6.441212e-01 -1.589584e+00 1.811386e+00
3.958948e+01 1.826087e-01 -4.573805e-02 6.441690e-01 -1.589737e+00 1.812210e+00
3.957831e+01 1.826087e-01 -4.581216e-02 6.441987e-01 -1.589844e+00 1.811035e+00
3.965347e+01 1.869565e-01 -4.585139e-02 6.442230e-01 -1.589951e+00 1.811401e+00
3.903802e+01 1.869565e-01 -4.590972e-02 6.443100e-01 -1.590240e+00 1.810989e+00
3.891725e+01 1.869565e-01 -4.597831e-02 6.443113e-01 -1.590286e+00 1.810883e+00
3.945474e+01 1.913043e-01 -4.608645e-02 6.443577e-01 -1.590363e+00 1.809418e+00
3.884302e+01 1.826087e-01 -4.615980e-02 6.443955e-01 -1.590607e+00 1.809586e+00
3.861926e+01 1.826087e-01 -4.621633e-02 6.444209e-01 -1.590927e+00 1.809967e+00
3.867696e+01 1.869565e-01 -4.627365e-02 6.444502e-01 -1.590973e+00 1.809280e+00
3.896997e+01 1.869565e-01 -4.634577e-02 6.444973e-01 -1.591080e+00 1.809647e+00
3.917966e+01 1.869565e-01 -4.638870e-02 6.445492e-01 -1.591476e+00 1.809280e+00
3.931416e+01 1.869565e-01 -4.644918e-02 6.445668e-01 -1.591797e+00 1.810196e+00
3.887364e+01 1.782609e-01 -4.656441e-02 6.445860e-01 -1.591599e+00 1.807861e+00
3.903824e+01 1.826087e-01 -4.662051e-02 6.445778e-01 -1.591736e+00 1.807358e+00
3.976677e+01 1.913043e-01 -4.673534e-02 6.445869e-01 -1.591934e+00 1.806305e+00
3.981268e+01 1.913043e-01 -4.680736e-02 6.445983e-01 -1.592255e+00 1.805191e+00
3.853299e+01 1.913043e-01 -4.689691e-02 6.446013e-01 -1.592514e+00 1.805542e+00
3.848633e+01 1.913043e-01 -4.697985e-02 6.446293e-01 -1.592728e+00 1.804077e+00
3.827975e+01 1.869565e-01 -4.715212e-02 6.446074e-01 -1.592804e+00 1.801529e+00
3.782228e+01 1.826087e-01 -4.726745e-02 6.445777e-01 -1.593048e+00 1.799759e+00
3.780528e+01 1.826087e-01 -4.740046e-02 6.445575e-01 -1.593307e+00 1.798050e+00
3.804155e+01 1.869565e-01 -4.752045e-02 6.445840e-01 -1.593552e+00 1.796829e+00
3.798154e+01 1.826087e-01 -4.765613e-02 6.445663e-01 -1.593918e+00 1.795151e+00
3.836446e+01 1.782609e-01 -4.773492e-02 6.445226e-01 -1.594269e+00 1.793915e+00
3.856635e+01 1.826087e-01 -4.788223e-02 6.445429e-01 -1.594604e+00 1.791595e+00
3.887309e+01 1.826087e-01 -4.798000e-02 6.445107e-01 -1.595062e+00 1.790787e+00
3.752750e+01 1.695652e-01 -4.809619e-02 6.444835e-01 -1.595398e+00 1.788574e+00
3.762549e+01 1.826087e-01 -4.822114e-02 6.444455e-01 -1.595749e+00 1.785828e+00
3.766040e+01 1.826087e-01 -4.836323e-02 6.443826e-01 -1.597595e+00 1.781921e+00
3.756972e+01 1.826087e-01 -4.847830e-02 6.443514e-01 -1.599731e+00 1.779175e+00
3.795694e+01 1.869565e-01 -4.856399e-02 6.443716e-01 -1.601166e+00 1.778336e+00
3.795757e+01 1.782609e-01 -4.865461e-02 6.443544e-01 -1.602814e+00 1.776337e+00
3.814383e+01 1.782609e-01 -4.871330e-02 6.443839e-01 -1.604630e+00 1.775818e+00
3.795674e+01 1.782609e-01 -4.877604e-02 6.443586e-01 -1.605743e+00 1.774246e+00
3.818326e+01 1.739130e-01 -4.891604e-02 6.443749e-01 -1.607651e+00 1.772156e+00
3.767612e+01 1.782609e-01 -4.894024e-02 6.444010e-01 -1.608444e+00 1.771957e+00
3.766609e+01 1.826087e-01 -4.898137e-02 6.444075e-01 -1.610123e+00 1.771667e+00
3.874660e+01 1.913043e-01 -4.904736e-02 6.444626e-01 -1.611679e+00 1.771042e+00
3.939265e+01 1.869565e-01 -4.921345e-02 6.444280e-01 -1.613785e+00 1.767731e+00
3.966585e+01 1.913043e-01 -4.921347e-02 6.444784e-01 -1.613754e+00 1.768661e+00
3.971738e+01 1.913043e-01 -4.928995e-02 6.445311e-01 -1.615067e+00 1.768082e+00
3.997693e+01 1.869565e-01 -4.939571e-02 6.445353e-01 -1.617020e+00 1.766693e+00
4.039861e+01 1.913043e-01 -4.943745e-02 6.445583e-01 -1.617371e+00 1.766846e+00
4.067805e+01 1.913043e-01 -4.951106e-02 6.446043e-01 -1.617950e+00 1.766327e+00
4.052364e+01 1.913043e-01 -4.958336e-02 6.446116e-01 -1.618942e+00 1.764801e+00
4.048413e+01 1.913043e-01 -4.964835e-02 6.446258e-01 -1.620102e+00 1.764633e+00
4.091495e+01 1.956522e-01 -4.972094e-02 6.446756e-01 -1.621002e+00 1.763824e+00
4.101891e+01 1.956522e-01 -4.983567e-02 6.446737e-01 -1.622452e+00 1.762222e+00
4.100673e+01 1.956522e-01 -4.985134e-02 6.447138e-01 -1.622940e+00 1.762558e+00
4.093967e+01 1.956522e-01 -4.998020e-02 6.447047e-01 -1.624603e+00 1.760269e+00
4.118750e+01 1.956522e-01 -4.999679e-02 6.447696e-01 -1.625107e+00 1.760757e+00
4.092438e+01 1.956522e-01 -5.007210e-02 6.447816e-01 -1.626450e+00 1.760223e+00
4.087209e+01 1.913043e-01 -5.015403e-02 6.448016e-01 -1.627579e+00 1.758804e+00
4.092177e+01 1.913043e-01 -5.023187e-02 6.448350e-01 -1.629501e+00 1.758301e+00
4.011473e+01 1.869565e-01 -5.026442e-02 6.448718e-01 -1.629883e+00 1.758789e+00
3.985954e+01 1.782609e-01 -5.038564e-02 6.448788e-01 -1.631119e+00 1.756012e+00
3.939473e+01 1.782609e-01 -5.049049e-02 6.448763e-01 -1.632492e+00 1.753845e+00
3.973753e+01 1.782609e-01 -5.052744e-02 6.449489e-01 -1.633179e+00 1.755005e+00
3.934908e+01 1.739130e-01 -5.062179e-02 6.449608e-01 -1.634109e+00 1.752914e+00
3.925725e+01 1.739130e-01 -5.069901e-02 6.449797e-01 -1.635605e+00 1.752762e+00
3.958257e+01 1.739130e-01 -5.072019e-02 6.449997e-01 -1.635330e+00 1.752975e+00
4.001637e+01 1.782609e-01 -5.079003e-02 6.450699e-01 -1.636154e+00 1.753143e+00
4.000693e+01 1.782609e-01 -5.082857e-02 6.451083e-01 -1.637115e+00 1.753387e+00
4.004962e+01 1.782609e-01 -5.089207e-02 6.451177e-01 -1.637939e+00 1.752747e+00
4.002701e+01 1.782609e-01 -5.093372e-02 6.451963e-01 -1.638550e+00 1.753510e+00
4.014165e+01 1.782609e-01 -5.095582e-02 6.452660e-01 -1.639221e+00 1.754089e+00
4.022284e+01 1.826087e-01 -5.104360e-02 6.452680e-01 -1.640335e+00 1.753036e+00
3.981244e+01 1.826087e-01 -5.105291e-02 6.453092e-01 -1.640991e+00 1.753571e+00
3.980206e+01 1.782609e-01 -5.113012e-02 6.453503e-01 -1.641739e+00 1.752960e+00
3.982596e+01 1.826087e-01 -5.115361e-02 6.453801e-01 -1.641800e+00 1.753098e+00
3.973274e+01 1.826087e-01 -5.119197e-02 6.454355e-01 -1.642349e+00 1.753052e+00
3.974835e+01 1.826087e-01 -5.121881e-02 6.454818e-01 -1.643082e+00 1.752914e+00
3.960646e+01 1.869565e-01 -5.130011e-02 6.455459e-01 -1.643677e+00 1.752197e+00
3.915073e+01 1.782609e-01 -5.136816e-02 6.455625e-01 -1.644791e+00 1.751862e+00
3.915707e+01 1.782609e-01 -5.136634e-02 6.456160e-01 -1.644333e+00 1.751648e+00
3.900116e+01 1.782609e-01 -5.142300e-02 6.456625e-01 -1.645325e+00 1.752243e+00
3.897652e+01 1.739130e-01 -5.142002e-02 6.457050e-01 -1.645859e+00 1.752533e+00
3.898485e+01 1.739130e-01 -5.150110e-02 6.457429e-01 -1.646698e+00 1.751633e+00
3.905580e+01 1.739130e-01 -5.155068e-02 6.458110e-01 -1.647034e+00 1.751480e+00
3.932295e+01 1.782609e-01 -5.159896e-02 6.458166e-01 -1.647873e+00 1.751938e+00
3.971333e+01 1.826087e-01 -5.161970e-02 6.459192e-01 -1.648712e+00 1.751968e+00
3.968845e+01 1.826087e-01 -5.166020e-02 6.459507e-01 -1.648911e+00 1.752335e+00
3.981248e+01 1.869565e-01 -5.169186e-02 6.459661e-01 -1.648926e+00 1.753113e+00
3.984680e+01 1.869565e-01 -5.171626e-02 6.459896e-01 -1.649124e+00 1.753510e+00
3.968001e+01 1.869565e-01 -5.179482e-02 6.460624e-01 -1.650116e+00 1.753281e+00
4.030261e+01 1.913043e-01 -5.180402e-02 6.461012e-01 -1.650314e+00 1.753815e+00
4.007283e+01 1.913043e-01 -5.183979e-02 6.461142e-01 -1.650085e+00 1.753937e+00
3.983990e+01 1.913043e-01 -5.188356e-02 6.461534e-01 -1.650879e+00 1.754227e+00
3.976045e+01 1.913043e-01 -5.194979e-02 6.461730e-01 -1.651581e+00 1.754501e+00
3.977704e+01 1.913043e-01 -5.190385e-02 6.462498e-01 -1.651321e+00 1.755539e+00
3.973785e+01 1.913043e-01 -5.194799e-02 6.462862e-01 -1.651855e+00 1.755661e+00
4.016995e+01 1.913043e-01 -5.199203e-02 6.463398e-01 -1.652527e+00 1.755325e+00
4.021411e+01 1.913043e-01 -5.201191e-02 6.463611e-01 -1.652863e+00 1.755112e+00
4.024936e+01 1.913043e-01 -5.202919e-02 6.464425e-01 -1.653336e+00 1.755753e+00
4.043748e+01 1.913043e-01 -5.208840e-02 6.464513e-01 -1.654282e+00 1.755997e+00
4.049185e+01 1.869565e-01 -5.213126e-02 6.464773e-01 -1.654449e+00 1.755127e+00
4.062964e+01 1.869565e-01 -5.215567e-02 6.465283e-01 -1.655960e+00 1.755524e+00
4.055466e+01 1.869565e-01 -5.218549e-02 6.465523e-01 -1.655380e+00 1.755310e+00
4.051303e+01 1.869565e-01 -5.220791e-02 6.465966e-01 -1.656570e+00 1.755661e+00
4.082306e+01 1.913043e-01 -5.224171e-02 6.466363e-01 -1.657120e+00 1.755524e+00
4.111374e+01 1.913043e-01 -5.223959e-02 6.466725e-01 -1.657120e+00 1.756409e+00
4.079247e+01 1.913043e-01 -5.229827e-02 6.467274e-01 -1.657974e+00 1.755737e+00
4.057016e+01 1.913043e-01 -5.233799e-02 6.467393e-01 -1.658447e+00 1.755951e+00
4.055530e+01 1.913043e-01 -5.238005e-02 6.468070e-01 -1.659317e+00 1.756226e+00
4.046074e+01 1.913043e-01 -5.237822e-02 6.468445e-01 -1.659088e+00 1.756424e+00
4.048294e+01 1.913043e-01 -5.240026e-02 6.468816e-01 -1.659470e+00 1.757004e+00
4.031779e+01 1.913043e-01 -5.244017e-02 6.469584e-01 -1.660049e+00 1.756607e+00
4.027315e+01 1.913043e-01 -5.248039e-02 6.469625e-01 -1.660446e+00 1.756378e+00
4.028600e+01 1.913043e-01 -5.250902e-02 6.470059e-01 -1.661072e+00 1.756439e+00
4.007138e+01 1.913043e-01 -5.251584e-02 6.470896e-01 -1.661530e+00 1.757126e+00
3.985117e+01 1.913043e-01 -5.258310e-02 6.470824e-01 -1.662979e+00 1.756866e+00
3.993184e+01 1.956522e-01 -5.257898e-02 6.471461e-01 -1.662231e+00 1.757355e+00
3.978517e+01 1.913043e-01 -5.264458e-02 6.472049e-01 -1.663010e+00 1.757172e+00
3.961394e+01 1.913043e-01 -5.262813e-02 6.472586e-01 -1.663071e+00 1.757538e+00
3.952997e+01 1.913043e-01 -5.264926e-02 6.473166e-01 -1.663300e+00 1.758148e+00
3.981473e+01 1.956522e-01 -5.269037e-02 6.473470e-01 -1.663712e+00 1.757706e+00
3.981630e+01 1.956522e-01 -5.272049e-02 6.474027e-01 -1.664291e+00 1.758148e+00
3.966818e+01 1.956522e-01 -5.271719e-02 6.474427e-01 -1.664383e+00 1.758591e+00
3.972200e+01 1.956522e-01 -5.279181e-02 6.474890e-01 -1.665680e+00 1.758057e+00
3.962363e+01 1.956522e-01 -5.282642e-02 6.475151e-01 -1.665833e+00 1.757675e+00
3.949368e+01 1.913043e-01 -5.282613e-02 6.475759e-01 -1.665909e+00 1.759064e+00
3.965125e+01 1.913043e-01 -5.286985e-02 6.476357e-01 -1.666779e+00 1.758484e+00
3.964610e+01 1.913043e-01 -5.292031e-02 6.476302e-01 -1.667068e+00 1.757797e+00
3.963640e+01 1.913043e-01 -5.289799e-02 6.477258e-01 -1.667633e+00 1.759155e+00
3.953310e+01 1.913043e-01 -5.294806e-02 6.477590e-01 -1.668121e+00 1.758347e+00
3.953310e+01 1.913043e-01 -5.291925e-02 6.477919e-01 -1.668167e+00 1.759079e+00
3.948080e+01 1.913043e-01 -5.295161e-02 6.478417e-01 -1.668686e+00 1.758865e+00
3.962508e+01 1.913043e-01 -5.290481e-02 6.479169e-01 -1.669388e+00 1.760529e+00
3.961224e+01 1.913043e-01 -5.296494e-02 6.479537e-01 -1.669937e+00 1.759460e+00
3.952480e+01 1.913043e-01 -5.298588e-02 6.480328e-01 -1.670853e+00 1.759628e+00
3.952480e+01 1.913043e-01 -5.297628e-02 6.480746e-01 -1.671524e+00 1.760849e+00
3.967050e+01 1.913043e-01 -5.301020e-02 6.480940e-01 -1.671738e+00 1.760330e+00
4.020018e+01 1.913043e-01 -5.303544e-02 6.481319e-01 -1.671967e+00 1.760651e+00
4.016806e+01 1.913043e-01 -5.301108e-02 6.482388e-01 -1.672684e+00 1.761734e+00
4.010226e+01 1.913043e-01 -5.304119e-02 6.483063e-01 -1.673584e+00 1.761475e+00
3.988817e+01 1.913043e-01 -5.303322e-02 6.483406e-01 -1.673599e+00 1.761826e+00
3.935809e+01 1.913043e-01 -5.306049e-02 6.484098e-01 -1.674133e+00 1.762436e+00
3.937215e+01 1.913043e-01 -5.307004e-02 6.484699e-01 -1.674652e+00 1.762894e+00
3.934068e+01 1.913043e-01 -5.302865e-02 6.485414e-01 -1.675110e+00 1.765060e+00
3.936375e+01 1.913043e-01 -5.307512e-02 6.486157e-01 -1.675507e+00 1.763763e+00
3.917023e+01 1.913043e-01 -5.306307e-02 6.486649e-01 -1.676285e+00 1.764969e+00
3.938989e+01 1.913043e-01 -5.304185e-02 6.487240e-01 -1.676208e+00 1.766083e+00
3.952518e+01 1.913043e-01 -5.308544e-02 6.487689e-01 -1.676620e+00 1.765289e+00
3.968251e+01 1.913043e-01 -5.309582e-02 6.488082e-01 -1.676926e+00 1.766022e+00
3.958495e+01 1.913043e-01 -5.313361e-02 6.488695e-01 -1.677551e+00 1.766495e+00
3.996510e+01 1.913043e-01 -5.309521e-02 6.489396e-01 -1.677551e+00 1.766968e+00
3.976329e+01 1.913043e-01 -5.305718e-02 6.490196e-01 -1.677765e+00 1.768417e+00
3.996043e+01 1.913043e-01 -5.311232e-02 6.490662e-01 -1.678513e+00 1.767746e+00
3.972566e+01 1.913043e-01 -5.314211e-02 6.491021e-01 -1.678711e+00 1.768417e+00
3.981436e+01 1.913043e-01 -5.313621e-02 6.491481e-01 -1.679611e+00 1.768967e+00
3.982269e+01 1.913043e-01 -5.311537e-02 6.492154e-01 -1.679321e+00 1.769379e+00
3.992989e+01 1.913043e-01 -5.311532e-02 6.492774e-01 -1.679764e+00 1.770142e+00
3.994901e+01 1.913043e-01 -5.314025e-02 6.493341e-01 -1.680237e+00 1.770111e+00
3.997093e+01 1.869565e-01 -5.314355e-02 6.494197e-01 -1.680740e+00 1.771439e+00
4.001469e+01 1.869565e-01 -5.314182e-02 6.494863e-01 -1.681335e+00 1.771851e+00
4.009088e+01 1.913043e-01 -5.315020e-02 6.495180e-01 -1.681458e+00 1.771927e+00
4.001213e+01 1.913043e-01 -5.321410e-02 6.495518e-01 -1.682297e+00 1.771149e+00
4.002478e+01 1.913043e-01 -5.317915e-02 6.496136e-01 -1.682541e+00 1.771637e+00
4.021809e+01 1.913043e-01 -5.318489e-02 6.496455e-01 -1.682861e+00 1.772293e+00
3.988419e+01 1.913043e-01 -5.321689e-02 6.497303e-01 -1.683929e+00 1.772034e+00
4.003523e+01 1.913043e-01 -5.322982e-02 6.497924e-01 -1.683868e+00 1.772354e+00
3.995888e+01 1.913043e-01 -5.322377e-02 6.498297e-01 -1.684616e+00 1.773376e+00
4.007291e+01 1.913043e-01 -5.327250e-02 6.498552e-01 -1.685333e+00 1.772491e+00
4.012064e+01 1.913043e-01 -5.327752e-02 6.499500e-01 -1.686111e+00 1.773376e+00
4.011014e+01 1.956522e-01 -5.329520e-02 6.499972e-01 -1.686340e+00 1.773834e+00
4.008601e+01 1.913043e-01 -5.334656e-02 6.500304e-01 -1.687393e+00 1.773727e+00
4.008664e+01 1.913043e-01 -5.332981e-02 6.500919e-01 -1.687057e+00 1.774323e+00
4.008601e+01 1.913043e-01 -5.335638e-02 6.501324e-01 -1.687607e+00 1.774689e+00
4.008601e+01 1.913043e-01 -5.333602e-02 6.502156e-01 -1.688065e+00 1.775833e+00
4.004500e+01 1.913043e-01 -5.335880e-02 6.502711e-01 -1.688675e+00 1.776276e+00
4.002289e+01 1.913043e-01 -5.338039e-02 6.502693e-01 -1.689346e+00 1.776184e+00
3.988823e+01 1.913043e-01 -5.340001e-02 6.503215e-01 -1.689621e+00 1.776413e+00
3.988223e+01 1.913043e-01 -5.341163e-02 6.503936e-01 -1.690170e+00 1.776886e+00
3.984113e+01 1.913043e-01 -5.341176e-02 6.504357e-01 -1.690338e+00 1.777527e+00
3.959796e+01 1.913043e-01 -5.340673e-02 6.505146e-01 -1.690735e+00 1.778564e+00
3.954698e+01 1.913043e-01 -5.344672e-02 6.505406e-01 -1.691605e+00 1.778488e+00
3.960480e+01 1.913043e-01 -5.342797e-02 6.506059e-01 -1.691833e+00 1.779221e+00
3.960809e+01 1.913043e-01 -5.348856e-02 6.506260e-01 -1.692535e+00 1.779297e+00
3.951497e+01 1.913043e-01 -5.349626e-02 6.506972e-01 -1.693329e+00 1.779648e+00
3.943953e+01 1.913043e-01 -5.352602e-02 6.507425e-01 -1.694168e+00 1.780258e+00
3.934230e+01 1.913043e-01 -5.351542e-02 6.508049e-01 -1.694092e+00 1.780579e+00
3.949583e+01 1.956522e-01 -5.348568e-02 6.508788e-01 -1.694489e+00 1.781998e+00
3.946870e+01 1.956522e-01 -5.355760e-02 6.508991e-01 -1.695633e+00 1.781540e+00
3.960336e+01 2.000000e-01 -5.355034e-02 6.509377e-01 -1.695648e+00 1.781754e+00
3.942876e+01 2.000000e-01 -5.356811e-02 6.510010e-01 -1.696198e+00 1.782150e+00
3.939464e+01 2.000000e-01 -5.359779e-02 6.510020e-01 -1.696732e+00 1.782120e+00
3.931783e+01 2.000000e-01 -5.358291e-02 6.510933e-01 -1.697113e+00 1.782776e+00
3.936508e+01 2.000000e-01 -5.365081e-02 6.511382e-01 -1.698303e+00 1.782898e+00
3.941820e+01 2.000000e-01 -5.364109e-02 6.512104e-01 -1.698456e+00 1.783340e+00
3.920209e+01 2.000000e-01 -5.365888e-02 6.512400e-01 -1.698669e+00 1.783661e+00
3.933382e+01 2.000000e-01 -5.372044e-02 6.512529e-01 -1.699509e+00 1.783325e+00
3.939038e+01 2.000000e-01 -5.372033e-02 6.513220e-01 -1.699814e+00 1.783844e+00
3.931871e+01 2.000000e-01 -5.367889e-02 6.513751e-01 -1.699326e+00 1.785278e+00
3.932092e+01 2.000000e-01 -5.372799e-02 6.514122e-01 -1.699997e+00 1.785080e+00
3.935277e+01 2.000000e-01 -5.373334e-02 6.514590e-01 -1.700439e+00 1.785507e+00
3.923811e+01 2.000000e-01 -5.380219e-02 6.514808e-01 -1.701584e+00 1.785217e+00
3.949496e+01 1.956522e-01 -5.381262e-02 6.515454e-01 -1.701447e+00 1.785767e+00
3.968019e+01 2.000000e-01 -5.382867e-02 6.515669e-01 -1.701401e+00 1.785934e+00
3.986771e+01 2.000000e-01 -5.385550e-02 6.516269e-01 -1.702026e+00 1.786591e+00
3.972115e+01 2.000000e-01 -5.388743e-02 6.516796e-01 -1.702866e+00 1.786606e+00
3.973969e+01 2.000000e-01 -5.389249e-02 6.517266e-01 -1.702576e+00 1.787323e+00
3.974483e+01 2.000000e-01 -5.393087e-02 6.517425e-01 -1.703323e+00 1.786682e+00
3.972726e+01 2.000000e-01 -5.398686e-02 6.517628e-01 -1.703461e+00 1.787277e+00
3.933742e+01 2.000000e-01 -5.400073e-02 6.518372e-01 -1.704224e+00 1.787216e+00
3.999083e+01 2.000000e-01 -5.400492e-02 6.518473e-01 -1.704147e+00 1.788300e+00
4.019589e+01 2.000000e-01 -5.404154e-02 6.519281e-01 -1.704727e+00 1.788788e+00
4.000438e+01 2.000000e-01 -5.408131e-02 6.519370e-01 -1.705399e+00 1.788559e+00
3.993422e+01 2.000000e-01 -5.411074e-02 6.519626e-01 -1.705551e+00 1.787872e+00
3.990016e+01 2.000000e-01 -5.412326e-02 6.520063e-01 -1.706009e+00 1.788727e+00
3.964575e+01 2.000000e-01 -5.414874e-02 6.520831e-01 -1.706406e+00 1.788651e+00
3.971019e+01 2.000000e-01 -5.416808e-02 6.520835e-01 -1.706161e+00 1.789230e+00
3.966284e+01 2.000000e-01 -5.415403e-02 6.521656e-01 -1.706818e+00 1.789612e+00
3.965770e+01 2.000000e-01 -5.420088e-02 6.521801e-01 -1.707504e+00 1.789734e+00
3.963403e+01 2.000000e-01 -5.423242e-02 6.522348e-01 -1.707581e+00 1.789719e+00
3.907472e+01 1.956522e-01 -5.426948e-02 6.522525e-01 -1.708755e+00 1.789856e+00
3.911072e+01 1.956522e-01 -5.428603e-02 6.523183e-01 -1.709015e+00 1.790604e+00
3.929517e+01 1.956522e-01 -5.433872e-02 6.523222e-01 -1.709076e+00 1.790253e+00
3.914026e+01 1.956522e-01 -5.433514e-02 6.523884e-01 -1.709351e+00 1.791031e+00
3.905873e+01 1.956522e-01 -5.436162e-02 6.524179e-01 -1.709900e+00 1.791550e+00
3.940906e+01 2.000000e-01 -5.437745e-02 6.524687e-01 -1.710373e+00 1.792496e+00
3.924501e+01 2.000000e-01 -5.442017e-02 6.524981e-01 -1.710602e+00 1.791870e+00
3.911024e+01 2.000000e-01 -5.441574e-02 6.525518e-01 -1.711182e+00 1.793381e+00
3.910150e+01 2.000000e-01 -5.451723e-02 6.525400e-01 -1.711899e+00 1.792175e+00
3.909001e+01 2.000000e-01 -5.449559e-02 6.525999e-01 -1.711838e+00 1.792740e+00
3.879584e+01 2.000000e-01 -5.453161e-02 6.526384e-01 -1.713043e+00 1.793121e+00
3.880988e+01 2.000000e-01 -5.453830e-02 6.526884e-01 -1.713348e+00 1.793320e+00
3.902966e+01 2.000000e-01 -5.457950e-02 6.527184e-01 -1.712860e+00 1.793839e+00
