1.764510e-01 6.254057e+00 -3.242643e+01 3.226444e+01 1.030407e-06 2.791368e-03 -1.262285e-01 1.262285e-01
1.569423e-01 6.853341e+00 -3.575501e+01 3.282195e+01 3.625091e-07 2.245931e-03 -1.262285e-01 1.262285e-01
8.823892e-02 7.209077e+00 -3.629311e+01 3.321596e+01 -4.105417e-08 2.066058e-03 -1.262285e-01 1.262285e-01
4.507115e-02 7.514017e+00 -3.692829e+01 3.388834e+01 2.188844e-07 1.952831e-03 -1.262285e-01 1.262285e-01
1.418443e-02 7.795179e+00 -3.854972e+01 3.569788e+01 -1.048899e-07 1.869145e-03 -1.262285e-01 1.262285e-01
-5.055207e-03 8.036093e+00 -3.961809e+01 3.689899e+01 -2.050144e-07 1.810238e-03 -1.262285e-01 1.262283e-01
-1.969012e-02 8.231461e+00 -4.014539e+01 3.779779e+01 -9.842783e-08 1.757693e-03 -1.262285e-01 1.262284e-01
-2.369491e-02 8.410087e+00 -4.107055e+01 3.853012e+01 1.893279e-07 1.716015e-03 -1.262285e-01 1.262284e-01
-1.924233e-02 8.557529e+00 -4.175897e+01 3.918362e+01 4.120076e-08 1.680513e-03 -1.262285e-01 1.262285e-01
-2.678765e-02 8.703711e+00 -4.294155e+01 3.994185e+01 -1.950149e-07 1.647191e-03 -1.262285e-01 1.262284e-01
-3.397156e-02 8.820342e+00 -4.354620e+01 4.100675e+01 1.644956e-07 1.623006e-03 -1.262285e-01 1.262285e-01
-3.657606e-02 8.938365e+00 -4.379771e+01 4.160448e+01 -3.482403e-08 1.600454e-03 -1.262285e-01 1.262284e-01
-3.189677e-02 9.044543e+00 -4.344876e+01 4.176232e+01 1.218986e-07 1.580783e-03 -1.262285e-01 1.262285e-01
-3.343257e-02 9.128451e+00 -4.484738e+01 4.224942e+01 -3.370985e-08 1.561427e-03 -1.262285e-01 1.262285e-01
-3.684414e-02 9.209142e+00 -4.483476e+01 4.300223e+01 1.602368e-07 1.545891e-03 -1.262285e-01 1.262285e-01
-4.485133e-02 9.304563e+00 -4.579127e+01 4.306321e+01 9.061584e-08 1.532047e-03 -1.262285e-01 1.262284e-01
-3.005091e-02 9.372861e+00 -4.616254e+01 4.270591e+01 8.828325e-08 1.519960e-03 -1.262284e-01 1.262285e-01
-3.934855e-02 9.441496e+00 -4.634323e+01 4.347605e+01 5.456541e-08 1.504772e-03 -1.262285e-01 1.262285e-01
-4.045619e-02 9.507684e+00 -4.718406e+01 4.355778e+01 6.036574e-08 1.492545e-03 -1.262285e-01 1.262285e-01
-2.427882e-02 9.572445e+00 -4.722799e+01 4.438090e+01 -2.030509e-07 1.482811e-03 -1.262285e-01 1.262285e-01
-3.700812e-02 9.633307e+00 -4.808432e+01 4.382984e+01 -2.301613e-07 1.470586e-03 -1.262285e-01 1.262285e-01
-3.242995e-02 9.690334e+00 -4.844359e+01 4.431063e+01 -1.329496e-07 1.462897e-03 -1.262285e-01 1.262285e-01
-4.469086e-02 9.743574e+00 -4.785968e+01 4.460352e+01 -4.476700e-08 1.454525e-03 -1.262285e-01 1.262285e-01
-3.216836e-02 9.800103e+00 -4.815449e+01 4.513005e+01 1.630367e-07 1.443993e-03 -1.262285e-01 1.262285e-01
-2.252710e-02 9.844392e+00 -4.860516e+01 4.534144e+01 2.728445e-07 1.436733e-03 -1.262284e-01 1.262284e-01
-3.082467e-02 9.893671e+00 -4.895876e+01 4.632168e+01 1.966354e-08 1.426879e-03 -1.262285e-01 1.262284e-01
-3.471880e-02 9.937534e+00 -4.853452e+01 4.661975e+01 1.218969e-07 1.420397e-03 -1.262284e-01 1.262285e-01
-2.374591e-02 9.982775e+00 -4.926363e+01 4.655855e+01 1.218308e-07 1.410762e-03 -1.262285e-01 1.262285e-01
-3.091953e-02 1.002870e+01 -4.939280e+01 4.707125e+01 4.537940e-09 1.404318e-03 -1.262285e-01 1.262285e-01
-2.500661e-02 1.005784e+01 -4.925909e+01 4.750105e+01 -8.466039e-08 1.399825e-03 -1.262285e-01 1.262285e-01
-2.637295e-02 1.010158e+01 -5.019003e+01 4.797260e+01 -7.266941e-08 1.393408e-03 -1.262285e-01 1.278989e-01
-3.095772e-02 1.013892e+01 -5.070720e+01 4.772910e+01 -1.154122e-07 1.386696e-03 -1.262285e-01 1.268350e-01
-2.174289e-02 1.018103e+01 -5.053257e+01 4.875175e+01 5.759037e-08 1.381274e-03 -1.262285e-01 1.288250e-01
-2.201446e-02 1.020891e+01 -5.116797e+01 4.837964e+01 -3.789177e-08 1.375738e-03 -1.262285e-01 1.275458e-01
-2.205351e-02 1.024333e+01 -5.117624e+01 4.918141e+01 9.777813e-08 1.368421e-03 -1.262285e-01 1.262284e-01
-1.506694e-02 1.027696e+01 -5.115934e+01 4.949504e+01 5.475634e-08 1.366316e-03 -1.298243e-01 1.262285e-01
-2.391972e-02 1.030405e+01 -5.205220e+01 4.952350e+01 -6.552708e-08 1.358284e-03 -1.262285e-01 1.264978e-01
-1.584760e-02 1.034249e+01 -5.203576e+01 4.982235e+01 -8.406319e-08 1.354331e-03 -1.267203e-01 1.262285e-01
-1.933526e-02 1.037340e+01 -5.222637e+01 5.044598e+01 2.320146e-08 1.348732e-03 -1.262285e-01 1.307384e-01
-1.938823e-02 1.039617e+01 -5.247406e+01 5.092215e+01 -2.563605e-08 1.344565e-03 -1.332802e-01 1.262284e-01
-1.081949e-02 1.042344e+01 -5.330103e+01 5.086555e+01 7.551263e-08 1.337827e-03 -1.294344e-01 1.273845e-01
-3.774135e-03 1.044649e+01 -5.203715e+01 5.104497e+01 9.742168e-08 1.336996e-03 -1.297533e-01 1.273634e-01
-3.766710e-03 1.047645e+01 -5.291864e+01 5.178041e+01 5.521755e-08 1.330851e-03 -1.289870e-01 1.262285e-01
-7.040764e-03 1.050375e+01 -5.331001e+01 5.171435e+01 -2.723882e-08 1.325440e-03 -1.271694e-01 1.262284e-01
-7.452178e-03 1.052778e+01 -5.361725e+01 5.207188e+01 1.910887e-07 1.324407e-03 -1.328574e-01 1.265595e-01
7.283619e-04 1.055325e+01 -5.354751e+01 5.246461e+01 5.090117e-08 1.321675e-03 -1.263051e-01 1.271263e-01
-1.208024e-02 1.056869e+01 -5.380105e+01 5.305030e+01 -1.299052e-07 1.315395e-03 -1.262285e-01 1.311893e-01
2.583036e-03 1.059045e+01 -5.363805e+01 5.287305e+01 1.477874e-07 1.314841e-03 -1.276114e-01 1.310687e-01
-4.765918e-03 1.061336e+01 -5.388326e+01 5.322767e+01 1.058714e-07 1.310651e-03 -1.317862e-01 1.295795e-01
-1.148195e-03 1.063970e+01 -5.403649e+01 5.343444e+01 -4.276668e-08 1.307634e-03 -1.337215e-01 1.294308e-01
-2.598208e-03 1.065367e+01 -5.410270e+01 5.349462e+01 1.894582e-09 1.303828e-03 -1.306064e-01 1.306186e-01
1.091691e-02 1.068473e+01 -5.435594e+01 5.388049e+01 1.144149e-08 1.298600e-03 -1.350599e-01 1.298461e-01
5.708728e-03 1.069856e+01 -5.420019e+01 5.401266e+01 -1.442015e-07 1.298662e-03 -1.301687e-01 1.316422e-01
-3.345269e-03 1.071640e+01 -5.455171e+01 5.431274e+01 -1.826599e-07 1.293715e-03 -1.262285e-01 1.332752e-01
1.369823e-02 1.073275e+01 -5.479384e+01 5.465409e+01 8.460962e-08 1.291958e-03 -1.353936e-01 1.324799e-01
1.123442e-02 1.075486e+01 -5.427406e+01 5.442023e+01 1.252231e-07 1.287612e-03 -1.357974e-01 1.322771e-01
-2.549024e-05 1.078145e+01 -5.448666e+01 5.448404e+01 1.017935e-07 1.284393e-03 -1.262285e-01 1.280989e-01
3.981559e-03 1.079769e+01 -5.505651e+01 5.532386e+01 -8.512879e-09 1.280933e-03 -1.326793e-01 1.296866e-01
1.414882e-02 1.080631e+01 -5.531580e+01 5.563514e+01 -1.637970e-07 1.277176e-03 -1.335320e-01 1.350652e-01
8.679158e-03 1.082826e+01 -5.535075e+01 5.530676e+01 -9.685172e-08 1.274245e-03 -1.316086e-01 1.335577e-01
1.437796e-02 1.084335e+01 -5.503164e+01 5.565593e+01 4.963782e-08 1.272637e-03 -1.387652e-01 1.337230e-01
1.213015e-02 1.085731e+01 -5.498256e+01 5.591790e+01 -1.663965e-07 1.270542e-03 -1.313708e-01 1.332114e-01
1.074268e-02 1.087539e+01 -5.512701e+01 5.591357e+01 -1.576857e-08 1.266734e-03 -1.386829e-01 1.266678e-01
2.199994e-02 1.088937e+01 -5.540373e+01 5.631434e+01 -1.074436e-07 1.264368e-03 -1.366497e-01 1.359937e-01
1.337428e-02 1.090810e+01 -5.519053e+01 5.591698e+01 3.946602e-08 1.261531e-03 -1.262285e-01 1.358206e-01
1.671181e-02 1.091932e+01 -5.508172e+01 5.635939e+01 -5.598909e-08 1.259853e-03 -1.274400e-01 1.295644e-01
2.219312e-02 1.093931e+01 -5.580621e+01 5.658607e+01 -2.194280e-08 1.256731e-03 -1.354438e-01 1.386294e-01
2.322460e-02 1.094515e+01 -5.599304e+01 5.675666e+01 -1.352540e-07 1.255301e-03 -1.306009e-01 1.262285e-01
3.079358e-02 1.095801e+01 -5.587136e+01 5.658185e+01 -6.835696e-08 1.252325e-03 -1.270174e-01 1.340873e-01
2.733033e-02 1.097618e+01 -5.612166e+01 5.687440e+01 -4.234896e-08 1.249858e-03 -1.339773e-01 1.339503e-01
2.811464e-02 1.099361e+01 -5.630661e+01 5.776944e+01 6.192369e-08 1.246409e-03 -1.372517e-01 1.310588e-01
3.129402e-02 1.100422e+01 -5.620540e+01 5.724022e+01 -1.670012e-07 1.246911e-03 -1.262285e-01 1.380861e-01
3.052875e-02 1.101753e+01 -5.596485e+01 5.754996e+01 -1.025479e-07 1.242388e-03 -1.356703e-01 1.262284e-01
3.762937e-02 1.102486e+01 -5.681328e+01 5.726463e+01 -5.790539e-08 1.241458e-03 -1.276405e-01 1.328392e-01
4.135665e-02 1.104295e+01 -5.687949e+01 5.784805e+01 -9.536547e-08 1.237925e-03 -1.262285e-01 1.264520e-01
3.418350e-02 1.105948e+01 -5.626628e+01 5.796892e+01 -9.634021e-08 1.235582e-03 -1.271310e-01 1.351473e-01
3.915267e-02 1.106346e+01 -5.683090e+01 5.765515e+01 7.651518e-08 1.233232e-03 -1.262285e-01 1.319802e-01
4.402408e-02 1.107738e+01 -5.699776e+01 5.782432e+01 -1.387059e-08 1.232449e-03 -1.262285e-01 1.357379e-01
5.142752e-02 1.109571e+01 -5.657747e+01 5.820995e+01 3.479586e-08 1.228292e-03 -1.262285e-01 1.262285e-01
4.495564e-02 1.109963e+01 -5.670996e+01 5.806235e+01 -9.616315e-08 1.228331e-03 -1.269185e-01 1.346505e-01
4.408536e-02 1.111669e+01 -5.718952e+01 5.813665e+01 -2.754830e-08 1.226930e-03 -1.296587e-01 1.294073e-01
5.388453e-02 1.113091e+01 -5.705672e+01 5.891397e+01 2.539194e-08 1.223795e-03 -1.262284e-01 1.262285e-01
5.284944e-02 1.112981e+01 -5.710331e+01 5.881125e+01 1.080182e-08 1.221988e-03 -1.284628e-01 1.394777e-01
4.601295e-02 1.114790e+01 -5.748848e+01 5.868190e+01 3.115407e-08 1.222294e-03 -1.278688e-01 1.326923e-01
5.718302e-02 1.114966e+01 -5.710067e+01 5.881556e+01 1.332264e-07 1.218319e-03 -1.331376e-01 1.293207e-01
6.409079e-02 1.116178e+01 -5.748495e+01 5.910125e+01 6.218069e-08 1.216639e-03 -1.398590e-01 1.262285e-01
6.358592e-02 1.117831e+01 -5.693461e+01 5.922905e+01 1.393682e-08 1.214420e-03 -1.262285e-01 1.266676e-01
5.690810e-02 1.118297e+01 -5.747901e+01 5.941050e+01 -1.567751e-07 1.213117e-03 -1.350730e-01 1.284625e-01
6.491149e-02 1.119605e+01 -5.793405e+01 5.949488e+01 -8.772060e-08 1.211599e-03 -1.262285e-01 1.390742e-01
6.226568e-02 1.120001e+01 -5.790420e+01 5.943738e+01 -9.350668e-08 1.209508e-03 -1.263759e-01 1.373230e-01
6.000935e-02 1.121427e+01 -5.777131e+01 5.925084e+01 6.153935e-08 1.207173e-03 -1.262285e-01 1.352156e-01
7.214799e-02 1.122373e+01 -5.807490e+01 5.998913e+01 1.879956e-07 1.204818e-03 -1.314980e-01 1.404458e-01
6.479622e-02 1.123544e+01 -5.796810e+01 6.003547e+01 3.227033e-08 1.205981e-03 -1.272465e-01 1.352503e-01
6.858184e-02 1.123415e+01 -5.813070e+01 5.993539e+01 -1.062601e-08 1.202168e-03 -1.368884e-01 1.378548e-01
