-2.451618e+00 6.080545e+00 -3.512489e+01 3.065027e+01 8.767436e-05 2.964685e-03 -2.249908e-01 2.250061e-01
-2.979518e+00 6.778575e+00 -3.841039e+01 3.291594e+01 2.355561e-06 2.004458e-03 -2.188263e-01 2.215118e-01
-3.158751e+00 7.181790e+00 -3.924852e+01 3.472481e+01 1.165422e-06 1.829046e-03 -2.207794e-01 2.188416e-01
-3.289040e+00 7.476583e+00 -4.086769e+01 3.576663e+01 -2.468757e-07 1.728278e-03 -2.175446e-01 2.188416e-01
-3.399426e+00 7.736108e+00 -4.207832e+01 3.960298e+01 2.162910e-07 1.652089e-03 -2.215118e-01 2.160187e-01
-3.495571e+00 7.945697e+00 -4.291644e+01 4.046304e+01 1.952597e-06 1.599015e-03 -2.221069e-01 2.141876e-01
-3.574389e+00 8.132302e+00 -4.303647e+01 4.303450e+01 -1.077738e-06 1.553450e-03 -2.207794e-01 2.160187e-01
-3.636681e+00 8.286762e+00 -4.368436e+01 4.548788e+01 2.600926e-07 1.518378e-03 -2.207794e-01 2.160187e-01
-3.686879e+00 8.421193e+00 -4.387717e+01 4.617342e+01 4.918653e-08 1.490559e-03 -2.207794e-01 2.141876e-01
-3.745879e+00 8.544188e+00 -4.451648e+01 4.791475e+01 -4.876881e-07 1.462371e-03 -2.198944e-01 2.120056e-01
-3.784648e+00 8.649637e+00 -4.498035e+01 4.876219e+01 -8.137974e-07 1.441500e-03 -2.198944e-01 2.120056e-01
-3.820080e+00 8.749551e+00 -4.569768e+01 5.000098e+01 9.402751e-07 1.421450e-03 -2.198944e-01 2.093964e-01
-3.856271e+00 8.831524e+00 -4.585535e+01 5.176306e+01 1.783687e-06 1.402503e-03 -2.198944e-01 2.120056e-01
-3.893551e+00 8.911671e+00 -4.703337e+01 5.238928e+01 1.727295e-06 1.386111e-03 -2.188263e-01 2.093964e-01
-3.915577e+00 8.989827e+00 -4.704158e+01 5.261070e+01 -3.102161e-07 1.375275e-03 -2.175446e-01 2.120056e-01
-3.943360e+00 9.062344e+00 -4.807829e+01 5.381207e+01 -1.105675e-06 1.360467e-03 -2.188263e-01 2.120056e-01
-3.960807e+00 9.128447e+00 -4.788170e+01 5.511250e+01 -1.584014e-07 1.350141e-03 -2.175446e-01 2.120056e-01
-3.994162e+00 9.188552e+00 -4.804973e+01 5.576031e+01 5.635880e-07 1.338025e-03 -2.175446e-01 2.063141e-01
-4.016709e+00 9.247108e+00 -4.843063e+01 5.597159e+01 -4.005224e-08 1.326731e-03 -2.188263e-01 2.093964e-01
-4.038641e+00 9.300660e+00 -4.863684e+01 5.698038e+01 1.740092e-06 1.318127e-03 -2.175446e-01 2.093964e-01
-4.052973e+00 9.351649e+00 -4.915642e+01 5.754788e+01 4.310085e-07 1.308153e-03 -2.175446e-01 2.120056e-01
-4.081063e+00 9.409783e+00 -4.925613e+01 5.799196e+01 -8.294700e-08 1.298999e-03 -2.175446e-01 2.093964e-01
-4.095350e+00 9.454996e+00 -4.951727e+01 5.861877e+01 2.072752e-06 1.289270e-03 -2.175446e-01 2.120056e-01
-4.112902e+00 9.503455e+00 -4.962807e+01 5.841142e+01 1.009655e-06 1.283894e-03 -2.175446e-01 2.120056e-01
-4.131288e+00 9.550721e+00 -5.000795e+01 5.960440e+01 -3.463901e-07 1.275359e-03 -2.175446e-01 2.120056e-01
-4.151667e+00 9.586608e+00 -5.025580e+01 5.964444e+01 8.999320e-07 1.269084e-03 -2.160187e-01 2.063141e-01
-4.162329e+00 9.631627e+00 -5.067329e+01 6.021071e+01 -5.353434e-07 1.262627e-03 -2.175446e-01 2.093964e-01
-4.183386e+00 9.673876e+00 -5.092259e+01 6.024092e+01 4.277636e-07 1.253495e-03 -2.175446e-01 2.093964e-01
-4.197412e+00 9.714609e+00 -5.121609e+01 6.102754e+01 1.956891e-07 1.247289e-03 -2.160187e-01 2.093964e-01
-4.214547e+00 9.743974e+00 -5.209073e+01 6.089874e+01 4.404744e-07 1.243543e-03 -2.175446e-01 2.093964e-01
-4.228683e+00 9.788662e+00 -5.172746e+01 6.174126e+01 -1.038520e-06 1.236563e-03 -2.175446e-01 2.093964e-01
-4.249144e+00 9.824380e+00 -5.207603e+01 6.147330e+01 -4.078104e-07 1.232102e-03 -2.175446e-01 2.120056e-01
-4.265193e+00 9.854477e+00 -5.235057e+01 6.189075e+01 6.987689e-07 1.227061e-03 -2.175446e-01 2.093964e-01
-4.274925e+00 9.886541e+00 -5.275699e+01 6.256296e+01 7.665287e-07 1.221914e-03 -2.175446e-01 2.093964e-01
-4.285260e+00 9.919680e+00 -5.347166e+01 6.269576e+01 -7.858262e-07 1.217118e-03 -2.188263e-01 2.093964e-01
-4.300598e+00 9.951508e+00 -5.363435e+01 6.303293e+01 2.306609e-07 1.212635e-03 -2.175446e-01 2.093964e-01
-4.307970e+00 9.983455e+00 -5.346042e+01 6.311665e+01 -2.988782e-07 1.208152e-03 -2.188263e-01 2.141876e-01
-4.321511e+00 1.001373e+01 -5.386705e+01 6.345438e+01 -6.766377e-09 1.202415e-03 -2.175446e-01 2.093964e-01
-4.339621e+00 1.004251e+01 -5.436632e+01 6.369673e+01 -7.349535e-07 1.199175e-03 -2.160187e-01 2.120056e-01
-4.343024e+00 1.006904e+01 -5.440375e+01 6.421465e+01 -2.853767e-07 1.196914e-03 -2.160187e-01 2.093964e-01
-4.354073e+00 1.009982e+01 -5.474271e+01 6.420029e+01 1.748074e-07 1.192152e-03 -2.175446e-01 2.093964e-01
-4.363605e+00 1.012218e+01 -5.490077e+01 6.398187e+01 -1.728973e-07 1.188396e-03 -2.175446e-01 2.093964e-01
-4.380547e+00 1.015112e+01 -5.536490e+01 6.452409e+01 7.240776e-08 1.186064e-03 -2.198944e-01 2.120056e-01
-4.379604e+00 1.017208e+01 -5.551648e+01 6.449225e+01 -1.207151e-06 1.182775e-03 -2.175446e-01 2.093964e-01
-4.395478e+00 1.019987e+01 -5.553407e+01 6.486391e+01 7.289283e-07 1.177083e-03 -2.160187e-01 2.093964e-01
-4.395618e+00 1.022411e+01 -5.602911e+01 6.474991e+01 -9.691512e-07 1.174539e-03 -2.198944e-01 2.093964e-01
-4.410549e+00 1.024678e+01 -5.642610e+01 6.533974e+01 1.038201e-08 1.170478e-03 -2.198944e-01 2.120056e-01
-4.420446e+00 1.026129e+01 -5.624968e+01 6.522894e+01 9.909513e-07 1.168051e-03 -2.188263e-01 2.093964e-01
-4.424381e+00 1.028798e+01 -5.672433e+01 6.539513e+01 4.677333e-07 1.163904e-03 -2.175446e-01 2.063141e-01
-4.437675e+00 1.030624e+01 -5.695367e+01 6.584865e+01 5.840598e-07 1.162300e-03 -2.175446e-01 2.093964e-01
-4.445632e+00 1.032592e+01 -5.723289e+01 6.603635e+01 8.124287e-07 1.159446e-03 -2.188263e-01 2.093964e-01
-4.453379e+00 1.035191e+01 -5.729800e+01 6.573753e+01 -4.149876e-07 1.154845e-03 -2.175446e-01 2.093964e-01
-4.462379e+00 1.037365e+01 -5.747647e+01 6.621497e+01 -1.175235e-07 1.151783e-03 -2.175446e-01 2.093964e-01
-4.472991e+00 1.039487e+01 -5.767249e+01 6.647598e+01 3.458921e-07 1.149292e-03 -2.175446e-01 2.063141e-01
-4.481594e+00 1.041101e+01 -5.772774e+01 6.601132e+01 5.507764e-08 1.145012e-03 -2.188263e-01 2.063141e-01
-4.482770e+00 1.043177e+01 -5.833635e+01 6.694873e+01 2.878916e-07 1.142704e-03 -2.175446e-01 2.063141e-01
-4.494973e+00 1.045195e+01 -5.864148e+01 6.687866e+01 2.388347e-07 1.142510e-03 -2.175446e-01 2.120056e-01
-4.496041e+00 1.047005e+01 -5.879617e+01 6.699780e+01 -6.081666e-07 1.138747e-03 -2.175446e-01 2.093964e-01
-4.501756e+00 1.049015e+01 -5.892628e+01 6.711018e+01 -4.764613e-07 1.135231e-03 -2.188263e-01 2.093964e-01
-4.509727e+00 1.050674e+01 -5.904997e+01 6.736423e+01 -7.198484e-07 1.133153e-03 -2.175446e-01 2.063141e-01
-4.518976e+00 1.052708e+01 -5.936963e+01 6.747525e+01 5.253485e-07 1.130096e-03 -2.160187e-01 2.093964e-01
-4.522138e+00 1.054267e+01 -5.971719e+01 6.784352e+01 -2.315355e-07 1.128628e-03 -2.160187e-01 2.093964e-01
-4.526121e+00 1.055982e+01 -5.924525e+01 6.805508e+01 -9.416585e-07 1.125359e-03 -2.160187e-01 2.093964e-01
-4.536716e+00 1.057230e+01 -5.973505e+01 6.798973e+01 7.019331e-07 1.121455e-03 -2.175446e-01 2.063141e-01
-4.538322e+00 1.059389e+01 -6.050764e+01 6.789607e+01 -5.315225e-07 1.120642e-03 -2.175446e-01 2.063141e-01
-4.550072e+00 1.060764e+01 -6.024242e+01 6.862279e+01 -5.327484e-07 1.116924e-03 -2.175446e-01 2.093964e-01
