3.276800e+04 8.240000e-01 8.626240e-04 5.780857e-01 -9.999847e-01 9.999847e-01
1.667966e+03 1.201000e-01 -9.861288e-03 5.759867e-01 -1.435410e+00 1.169144e+00
1.346573e+03 9.430000e-02 -1.225153e-02 5.751544e-01 -1.357117e+00 1.307327e+00
1.181081e+03 8.290000e-02 -1.317991e-02 5.749973e-01 -1.421387e+00 1.515533e+00
1.103972e+03 7.550000e-02 -1.394554e-02 5.749515e-01 -1.503662e+00 1.722900e+00
1.025542e+03 7.220000e-02 -1.462248e-02 5.749389e-01 -1.581482e+00 1.929993e+00
9.805433e+02 6.860000e-02 -1.522649e-02 5.749531e-01 -1.759262e+00 2.063553e+00
9.109288e+02 6.540000e-02 -1.573464e-02 5.749718e-01 -1.932526e+00 2.190536e+00
9.084226e+02 6.610000e-02 -1.615729e-02 5.749961e-01 -2.052521e+00 2.320618e+00
8.583177e+02 6.350000e-02 -1.652623e-02 5.750352e-01 -2.155258e+00 2.444702e+00
8.313740e+02 6.140000e-02 -1.691564e-02 5.750643e-01 -2.253723e+00 2.564529e+00
8.548416e+02 6.330000e-02 -1.724095e-02 5.751069e-01 -2.331421e+00 2.667450e+00
7.846107e+02 5.950000e-02 -1.751965e-02 5.751485e-01 -2.418091e+00 2.769394e+00
7.944243e+02 6.100000e-02 -1.778258e-02 5.751997e-01 -2.487946e+00 2.857422e+00
7.618333e+02 5.860000e-02 -1.803407e-02 5.752530e-01 -2.556213e+00 2.931000e+00
7.438320e+02 5.630000e-02 -1.822688e-02 5.753036e-01 -2.624512e+00 3.004913e+00
7.165836e+02 5.410000e-02 -1.845054e-02 5.753557e-01 -2.701477e+00 3.059662e+00
7.070570e+02 5.290000e-02 -1.861879e-02 5.754174e-01 -2.763611e+00 3.136978e+00
7.080596e+02 5.450000e-02 -1.885756e-02 5.754689e-01 -2.812149e+00 3.196899e+00
7.027569e+02 5.310000e-02 -1.903363e-02 5.755322e-01 -2.858032e+00 3.271149e+00
6.973546e+02 5.430000e-02 -1.921884e-02 5.755925e-01 -2.941177e+00 3.332077e+00
6.740763e+02 5.180000e-02 -1.936576e-02 5.756526e-01 -3.031433e+00 3.399734e+00
6.573952e+02 5.080000e-02 -1.954223e-02 5.757129e-01 -3.112564e+00 3.464066e+00
6.647860e+02 5.010000e-02 -1.970061e-02 5.757771e-01 -3.191238e+00 3.519211e+00
6.435019e+02 4.980000e-02 -1.984856e-02 5.758391e-01 -3.270203e+00 3.582199e+00
6.562919e+02 4.820000e-02 -1.999395e-02 5.759034e-01 -3.341812e+00 3.624237e+00
6.346029e+02 4.760000e-02 -2.016401e-02 5.759707e-01 -3.413132e+00 3.684982e+00
6.354781e+02 4.960000e-02 -2.028084e-02 5.760348e-01 -3.492203e+00 3.718735e+00
6.220739e+02 4.930000e-02 -2.043087e-02 5.761067e-01 -3.542603e+00 3.768417e+00
6.300758e+02 4.740000e-02 -2.055541e-02 5.761792e-01 -3.621277e+00 3.816223e+00
6.166964e+02 4.810000e-02 -2.070826e-02 5.762544e-01 -3.679993e+00 3.855042e+00
6.106124e+02 4.670000e-02 -2.081694e-02 5.763231e-01 -3.742752e+00 3.884613e+00
6.026884e+02 4.700000e-02 -2.094725e-02 5.763973e-01 -3.794525e+00 3.929153e+00
6.106783e+02 4.590000e-02 -2.106658e-02 5.764653e-01 -3.845856e+00 3.959610e+00
5.959553e+02 4.530000e-02 -2.117726e-02 5.765315e-01 -3.909225e+00 3.985733e+00
5.983929e+02 4.360000e-02 -2.126894e-02 5.766037e-01 -3.944656e+00 4.003983e+00
5.825003e+02 4.640000e-02 -2.138777e-02 5.766734e-01 -4.008377e+00 4.005432e+00
5.820213e+02 4.520000e-02 -2.147700e-02 5.767468e-01 -4.049393e+00 4.005936e+00
5.832476e+02 4.540000e-02 -2.158623e-02 5.768173e-01 -4.090958e+00 4.011093e+00
5.748881e+02 4.540000e-02 -2.171339e-02 5.768831e-01 -4.145935e+00 4.016815e+00
5.665738e+02 4.440000e-02 -2.179386e-02 5.769504e-01 -4.184036e+00 4.022690e+00
5.782895e+02 4.500000e-02 -2.189894e-02 5.770220e-01 -4.215134e+00 4.033875e+00
5.760085e+02 4.500000e-02 -2.199262e-02 5.770902e-01 -4.259781e+00 4.036118e+00
5.725299e+02 4.450000e-02 -2.210992e-02 5.771618e-01 -4.295395e+00 4.049240e+00
5.595163e+02 4.300000e-02 -2.214853e-02 5.772322e-01 -4.341263e+00 4.055481e+00
5.670860e+02 4.320000e-02 -2.227851e-02 5.773018e-01 -4.360062e+00 4.069717e+00
5.547682e+02 4.280000e-02 -2.232411e-02 5.773702e-01 -4.406326e+00 4.088959e+00
5.559694e+02 4.400000e-02 -2.243603e-02 5.774412e-01 -4.438766e+00 4.106476e+00
5.480750e+02 4.310000e-02 -2.251953e-02 5.775140e-01 -4.465012e+00 4.114517e+00
5.496412e+02 4.340000e-02 -2.258595e-02 5.775840e-01 -4.496429e+00 4.130966e+00
5.527449e+02 4.190000e-02 -2.268927e-02 5.776549e-01 -4.517792e+00 4.136230e+00
5.511771e+02 4.260000e-02 -2.276270e-02 5.777263e-01 -4.566422e+00 4.143692e+00
5.384805e+02 4.220000e-02 -2.283253e-02 5.778055e-01 -4.581467e+00 4.153900e+00
5.466316e+02 4.330000e-02 -2.291952e-02 5.778751e-01 -4.608047e+00 4.169296e+00
5.331845e+02 4.150000e-02 -2.301132e-02 5.779484e-01 -4.628510e+00 4.174164e+00
5.292886e+02 4.160000e-02 -2.309681e-02 5.780204e-01 -4.654449e+00 4.193893e+00
5.320266e+02 4.150000e-02 -2.314550e-02 5.780939e-01 -4.683685e+00 4.203217e+00
5.286456e+02 4.170000e-02 -2.323652e-02 5.781690e-01 -4.700607e+00 4.206909e+00
5.321471e+02 4.130000e-02 -2.329168e-02 5.782407e-01 -4.715744e+00 4.210236e+00
5.268752e+02 4.150000e-02 -2.335046e-02 5.783208e-01 -4.738403e+00 4.238434e+00
5.321660e+02 4.020000e-02 -2.342245e-02 5.783924e-01 -4.763718e+00 4.231171e+00
5.213943e+02 4.030000e-02 -2.349201e-02 5.784688e-01 -4.772156e+00 4.249680e+00
5.234731e+02 4.150000e-02 -2.354893e-02 5.785425e-01 -4.794540e+00 4.252289e+00
5.587931e+02 4.150000e-02 -2.359725e-02 5.786193e-01 -4.817184e+00 4.261551e+00
5.272334e+02 4.100000e-02 -2.369030e-02 5.786909e-01 -4.826080e+00 4.275497e+00
5.226344e+02 3.980000e-02 -2.374270e-02 5.787658e-01 -4.842514e+00 4.271805e+00
5.238687e+02 4.160000e-02 -2.382966e-02 5.788392e-01 -4.857956e+00 4.273483e+00
