7.015796e+01 4.217391e-01 -5.155165e-03 5.975850e-01 -9.985352e-01 9.965820e-01
6.992114e+01 4.217391e-01 -5.247938e-03 5.975545e-01 -9.987793e-01 9.965820e-01
6.992090e+01 4.217391e-01 -5.376845e-03 5.975034e-01 -9.990234e-01 9.965820e-01
6.972827e+01 4.217391e-01 -5.490234e-03 5.974503e-01 -9.992676e-01 9.965820e-01
6.985034e+01 4.217391e-01 -5.578016e-03 5.973970e-01 -9.995117e-01 9.965820e-01
6.934937e+01 4.217391e-01 -5.663086e-03 5.973429e-01 -9.997559e-01 9.965820e-01
6.914771e+01 4.217391e-01 -5.718859e-03 5.973031e-01 -1.000244e+00 9.965820e-01
6.941772e+01 4.217391e-01 -5.761285e-03 5.972691e-01 -1.000732e+00 9.965820e-01
6.932788e+01 4.217391e-01 -5.790039e-03 5.972298e-01 -1.001221e+00 9.965820e-01
6.912964e+01 4.217391e-01 -5.816298e-03 5.971889e-01 -1.001465e+00 9.965820e-01
6.932324e+01 4.217391e-01 -5.837674e-03 5.971606e-01 -1.001709e+00 9.968262e-01
6.928516e+01 4.217391e-01 -5.855469e-03 5.971386e-01 -1.002197e+00 9.970703e-01
6.942065e+01 4.217391e-01 -5.879557e-03 5.971122e-01 -1.002441e+00 9.975586e-01
6.958350e+01 4.217391e-01 -5.887478e-03 5.970695e-01 -1.002686e+00 9.975586e-01
6.975708e+01 4.217391e-01 -5.903212e-03 5.970520e-01 -1.003174e+00 9.980469e-01
6.945898e+01 4.217391e-01 -5.908854e-03 5.970204e-01 -1.003174e+00 9.980469e-01
6.947314e+01 4.217391e-01 -5.916992e-03 5.969918e-01 -1.003418e+00 9.982910e-01
6.956934e+01 4.217391e-01 -5.927409e-03 5.969517e-01 -1.003418e+00 9.985352e-01
6.942993e+01 4.217391e-01 -5.932400e-03 5.969343e-01 -1.003662e+00 9.985352e-01
6.922266e+01 4.217391e-01 -5.922526e-03 5.969134e-01 -1.003662e+00 9.987793e-01
6.877490e+01 4.130435e-01 -5.924696e-03 5.968845e-01 -1.003906e+00 9.985352e-01
6.893506e+01 4.130435e-01 -5.928060e-03 5.968603e-01 -1.004150e+00 9.987793e-01
6.881958e+01 4.130435e-01 -5.921007e-03 5.968462e-01 -1.004639e+00 9.992676e-01
6.856104e+01 4.130435e-01 -5.920030e-03 5.968202e-01 -1.005127e+00 9.987793e-01
6.860449e+01 4.217391e-01 -5.909180e-03 5.968032e-01 -1.005127e+00 9.992676e-01
6.901782e+01 4.217391e-01 -5.905056e-03 5.967812e-01 -1.005127e+00 9.997559e-01
6.901904e+01 4.217391e-01 -5.904948e-03 5.967581e-01 -1.005615e+00 1.000244e+00
6.885229e+01 4.217391e-01 -5.900391e-03 5.967422e-01 -1.005859e+00 1.000244e+00
6.911426e+01 4.217391e-01 -5.900065e-03 5.967177e-01 -1.006104e+00 1.000488e+00
6.906616e+01 4.217391e-01 -5.890951e-03 5.967046e-01 -1.006592e+00 1.000488e+00
6.919165e+01 4.217391e-01 -5.884657e-03 5.966807e-01 -1.006836e+00 1.000732e+00
6.891992e+01 4.217391e-01 -5.882270e-03 5.966702e-01 -1.007324e+00 1.000732e+00
6.902417e+01 4.217391e-01 -5.872179e-03 5.966511e-01 -1.007568e+00 1.000732e+00
6.874487e+01 4.217391e-01 -5.864909e-03 5.966384e-01 -1.007812e+00 1.000977e+00
6.908398e+01 4.173913e-01 -5.863715e-03 5.966107e-01 -1.008057e+00 1.001221e+00
6.903076e+01 4.173913e-01 -5.864041e-03 5.965939e-01 -1.008545e+00 1.001465e+00
6.817529e+01 4.173913e-01 -5.867187e-03 5.965914e-01 -1.008545e+00 1.001709e+00
6.828076e+01 4.173913e-01 -5.845595e-03 5.965682e-01 -1.009033e+00 1.001709e+00
6.854639e+01 4.173913e-01 -5.840712e-03 5.965429e-01 -1.009033e+00 1.001953e+00
6.833716e+01 4.173913e-01 -5.829319e-03 5.965281e-01 -1.009033e+00 1.002441e+00
6.832568e+01 4.173913e-01 -5.825412e-03 5.965313e-01 -1.009277e+00 1.002686e+00
6.848535e+01 4.173913e-01 -5.806858e-03 5.965126e-01 -1.009521e+00 1.002686e+00
6.844775e+01 4.173913e-01 -5.788628e-03 5.964970e-01 -1.009521e+00 1.002930e+00
6.826050e+01 4.173913e-01 -5.778646e-03 5.964813e-01 -1.009766e+00 1.003174e+00
6.823608e+01 4.173913e-01 -5.764323e-03 5.964789e-01 -1.010254e+00 1.003662e+00
6.835742e+01 4.173913e-01 -5.741862e-03 5.964666e-01 -1.010254e+00 1.003906e+00
6.806812e+01 4.173913e-01 -5.731120e-03 5.964502e-01 -1.010254e+00 1.004150e+00
6.821460e+01 4.173913e-01 -5.724501e-03 5.964370e-01 -1.010498e+00 1.004639e+00
6.816602e+01 4.173913e-01 -5.718207e-03 5.964180e-01 -1.010498e+00 1.004639e+00
6.814429e+01 4.173913e-01 -5.711589e-03 5.964099e-01 -1.010498e+00 1.004883e+00
6.818042e+01 4.173913e-01 -5.696072e-03 5.963882e-01 -1.010742e+00 1.005127e+00
6.845264e+01 4.173913e-01 -5.693142e-03 5.963841e-01 -1.011230e+00 1.005127e+00
6.843530e+01 4.173913e-01 -5.672418e-03 5.963724e-01 -1.011230e+00 1.005127e+00
6.829102e+01 4.086957e-01 -5.648003e-03 5.963596e-01 -1.011230e+00 1.005371e+00
6.830688e+01 4.043478e-01 -5.638238e-03 5.963465e-01 -1.011475e+00 1.005371e+00
6.831982e+01 4.043478e-01 -5.623698e-03 5.963314e-01 -1.011475e+00 1.005615e+00
6.836548e+01 4.086957e-01 -5.611654e-03 5.963186e-01 -1.011475e+00 1.005859e+00
6.840527e+01 4.086957e-01 -5.593424e-03 5.962974e-01 -1.011475e+00 1.005859e+00
6.844824e+01 4.086957e-01 -5.580078e-03 5.962849e-01 -1.011719e+00 1.006348e+00
6.845654e+01 4.130435e-01 -5.579753e-03 5.962735e-01 -1.011719e+00 1.006592e+00
6.857031e+01 4.130435e-01 -5.568576e-03 5.962557e-01 -1.011719e+00 1.007080e+00
6.843408e+01 4.130435e-01 -5.568793e-03 5.962516e-01 -1.011719e+00 1.007080e+00
6.864087e+01 4.130435e-01 -5.552083e-03 5.962412e-01 -1.011719e+00 1.007080e+00
6.788037e+01 4.130435e-01 -5.523329e-03 5.962339e-01 -1.011719e+00 1.007324e+00
6.874219e+01 4.086957e-01 -5.503364e-03 5.962089e-01 -1.011719e+00 1.007324e+00
6.869946e+01 4.043478e-01 -5.501736e-03 5.962028e-01 -1.011719e+00 1.007568e+00
6.869946e+01 4.086957e-01 -5.486654e-03 5.961959e-01 -1.011963e+00 1.007812e+00
6.854053e+01 4.086957e-01 -5.469510e-03 5.961916e-01 -1.011963e+00 1.008057e+00
6.833789e+01 4.086957e-01 -5.452908e-03 5.961841e-01 -1.012207e+00 1.008301e+00
6.809302e+01 4.086957e-01 -5.433485e-03 5.961656e-01 -1.012207e+00 1.008789e+00
6.837354e+01 4.043478e-01 -5.425347e-03 5.961583e-01 -1.012207e+00 1.009033e+00
6.837354e+01 4.043478e-01 -5.406359e-03 5.961401e-01 -1.012207e+00 1.009277e+00
6.836011e+01 4.043478e-01 -5.391168e-03 5.961403e-01 -1.012207e+00 1.009521e+00
6.841968e+01 4.043478e-01 -5.363824e-03 5.961270e-01 -1.012451e+00 1.009766e+00
6.850879e+01 4.043478e-01 -5.355469e-03 5.961262e-01 -1.012695e+00 1.010010e+00
6.850806e+01 4.043478e-01 -5.330512e-03 5.961087e-01 -1.012695e+00 1.010254e+00
6.869751e+01 4.043478e-01 -5.321832e-03 5.960972e-01 -1.012695e+00 1.010742e+00
6.870874e+01 4.043478e-01 -5.308051e-03 5.960923e-01 -1.012939e+00 1.010986e+00
6.858447e+01 4.043478e-01 -5.298394e-03 5.960847e-01 -1.012939e+00 1.011230e+00
6.869067e+01 4.086957e-01 -5.277995e-03 5.960768e-01 -1.012939e+00 1.011475e+00
6.866821e+01 4.086957e-01 -5.258572e-03 5.960731e-01 -1.012939e+00 1.011475e+00
6.865674e+01 4.086957e-01 -5.233941e-03 5.960701e-01 -1.012939e+00 1.011719e+00
6.838428e+01 4.043478e-01 -5.214410e-03 5.960693e-01 -1.013184e+00 1.012207e+00
6.838232e+01 4.043478e-01 -5.182834e-03 5.960491e-01 -1.013184e+00 1.011963e+00
6.834351e+01 4.086957e-01 -5.173394e-03 5.960454e-01 -1.013184e+00 1.011963e+00
6.839307e+01 4.086957e-01 -5.162326e-03 5.960393e-01 -1.013184e+00 1.012207e+00
6.824536e+01 4.086957e-01 -5.137370e-03 5.960273e-01 -1.013184e+00 1.012207e+00
6.853833e+01 4.086957e-01 -5.116319e-03 5.960167e-01 -1.013428e+00 1.012207e+00
6.846094e+01 4.086957e-01 -5.099175e-03 5.960051e-01 -1.013428e+00 1.011963e+00
6.825659e+01 4.086957e-01 -5.083442e-03 5.959998e-01 -1.013428e+00 1.011963e+00
6.836157e+01 4.086957e-01 -5.069661e-03 5.959893e-01 -1.013428e+00 1.012207e+00
6.840039e+01 4.086957e-01 -5.068468e-03 5.959773e-01 -1.013428e+00 1.012451e+00
6.855273e+01 4.086957e-01 -5.056858e-03 5.959725e-01 -1.013428e+00 1.012695e+00
6.873999e+01 4.086957e-01 -5.026476e-03 5.959542e-01 -1.013428e+00 1.012939e+00
6.855835e+01 4.130435e-01 -5.012804e-03 5.959506e-01 -1.013428e+00 1.013184e+00
6.863599e+01 4.130435e-01 -4.992188e-03 5.959418e-01 -1.013428e+00 1.013184e+00
6.867969e+01 4.173913e-01 -4.974392e-03 5.959340e-01 -1.013428e+00 1.013428e+00
6.860742e+01 4.173913e-01 -4.958984e-03 5.959199e-01 -1.013428e+00 1.013184e+00
6.871362e+01 4.217391e-01 -4.944661e-03 5.959166e-01 -1.013428e+00 1.013672e+00
6.891724e+01 4.217391e-01 -4.926758e-03 5.959030e-01 -1.013428e+00 1.013672e+00
6.896606e+01 4.217391e-01 -4.903971e-03 5.958924e-01 -1.013672e+00 1.014160e+00
6.889795e+01 4.217391e-01 -4.875760e-03 5.958796e-01 -1.013672e+00 1.014404e+00
6.877197e+01 4.217391e-01 -4.862088e-03 5.958734e-01 -1.013672e+00 1.014404e+00
6.866455e+01 4.173913e-01 -4.845812e-03 5.958641e-01 -1.013672e+00 1.014160e+00
6.871851e+01 4.173913e-01 -4.815213e-03 5.958481e-01 -1.013672e+00 1.014160e+00
6.867847e+01 4.173913e-01 -4.798286e-03 5.958390e-01 -1.013672e+00 1.014404e+00
6.852075e+01 4.130435e-01 -4.780707e-03 5.958267e-01 -1.013672e+00 1.014648e+00
6.855469e+01 4.130435e-01 -4.759223e-03 5.958203e-01 -1.013672e+00 1.014648e+00
6.827124e+01 4.086957e-01 -4.747396e-03 5.958117e-01 -1.013672e+00 1.014893e+00
6.828345e+01 4.043478e-01 -4.725911e-03 5.958079e-01 -1.013672e+00 1.014893e+00
6.835156e+01 4.043478e-01 -4.703668e-03 5.957914e-01 -1.013672e+00 1.015137e+00
6.845068e+01 4.043478e-01 -4.684570e-03 5.957859e-01 -1.013672e+00 1.015137e+00
6.846216e+01 4.043478e-01 -4.654948e-03 5.957788e-01 -1.013672e+00 1.015381e+00
6.847290e+01 4.043478e-01 -4.629015e-03 5.957717e-01 -1.013672e+00 1.015381e+00
6.846167e+01 4.043478e-01 -4.606879e-03 5.957631e-01 -1.013672e+00 1.015625e+00
6.836890e+01 4.043478e-01 -4.577691e-03 5.957542e-01 -1.013672e+00 1.015625e+00
6.847729e+01 4.000000e-01 -4.560221e-03 5.957491e-01 -1.013672e+00 1.015625e+00
6.830444e+01 4.086957e-01 -4.532661e-03 5.957413e-01 -1.013672e+00 1.015625e+00
6.839233e+01 4.043478e-01 -4.521376e-03 5.957424e-01 -1.013672e+00 1.015869e+00
6.846460e+01 4.043478e-01 -4.492513e-03 5.957283e-01 -1.013672e+00 1.016357e+00
6.843311e+01 4.000000e-01 -4.474609e-03 5.957267e-01 -1.013672e+00 1.016846e+00
6.817920e+01 4.000000e-01 -4.443468e-03 5.957092e-01 -1.013672e+00 1.017334e+00
6.811523e+01 4.000000e-01 -4.416992e-03 5.957022e-01 -1.013672e+00 1.018066e+00
6.817700e+01 4.000000e-01 -4.406467e-03 5.957050e-01 -1.013672e+00 1.018799e+00
6.833350e+01 4.043478e-01 -4.375868e-03 5.956941e-01 -1.013672e+00 1.019287e+00
6.808081e+01 4.000000e-01 -4.345161e-03 5.956898e-01 -1.013672e+00 1.019775e+00
6.815454e+01 4.000000e-01 -4.332574e-03 5.956897e-01 -1.013672e+00 1.020264e+00
6.826050e+01 4.000000e-01 -4.295464e-03 5.956714e-01 -1.013672e+00 1.020752e+00
6.819922e+01 4.000000e-01 -4.270833e-03 5.956705e-01 -1.013672e+00 1.021729e+00
6.810083e+01 4.000000e-01 -4.236654e-03 5.956666e-01 -1.013672e+00 1.022217e+00
6.824438e+01 4.086957e-01 -4.212240e-03 5.956633e-01 -1.013672e+00 1.022949e+00
6.812305e+01 4.086957e-01 -4.191732e-03 5.956622e-01 -1.013672e+00 1.023682e+00
6.812476e+01 4.086957e-01 -4.164062e-03 5.956577e-01 -1.013672e+00 1.024414e+00
6.829175e+01 4.130435e-01 -4.136827e-03 5.956518e-01 -1.013672e+00 1.025146e+00
6.814966e+01 4.130435e-01 -4.111003e-03 5.956459e-01 -1.013672e+00 1.025635e+00
6.825879e+01 4.130435e-01 -4.083008e-03 5.956423e-01 -1.013672e+00 1.025879e+00
6.797021e+01 4.130435e-01 -4.040039e-03 5.956286e-01 -1.013672e+00 1.026367e+00
6.814624e+01 4.130435e-01 -4.027018e-03 5.956290e-01 -1.013672e+00 1.026855e+00
6.812134e+01 4.130435e-01 -3.995117e-03 5.956160e-01 -1.013672e+00 1.027588e+00
6.801660e+01 4.130435e-01 -3.972114e-03 5.956121e-01 -1.013672e+00 1.028076e+00
6.812744e+01 4.130435e-01 -3.953559e-03 5.956102e-01 -1.013672e+00 1.029053e+00
6.803564e+01 4.130435e-01 -3.917643e-03 5.956022e-01 -1.013672e+00 1.029541e+00
6.807324e+01 4.130435e-01 -3.903537e-03 5.956027e-01 -1.013672e+00 1.030273e+00
6.811182e+01 4.130435e-01 -3.870877e-03 5.955963e-01 -1.013672e+00 1.031006e+00
6.822339e+01 4.130435e-01 -3.836914e-03 5.955947e-01 -1.013672e+00 1.031738e+00
6.813452e+01 4.130435e-01 -3.799913e-03 5.955847e-01 -1.013672e+00 1.032471e+00
6.808228e+01 4.130435e-01 -3.775499e-03 5.955821e-01 -1.013672e+00 1.033203e+00
6.805640e+01 4.130435e-01 -3.757921e-03 5.955722e-01 -1.013672e+00 1.033447e+00
6.803467e+01 4.130435e-01 -3.731228e-03 5.955655e-01 -1.013672e+00 1.034180e+00
6.816553e+01 4.130435e-01 -3.712782e-03 5.955676e-01 -1.013672e+00 1.034912e+00
6.803564e+01 4.130435e-01 -3.685004e-03 5.955644e-01 -1.013672e+00 1.035400e+00
6.807300e+01 4.130435e-01 -3.656901e-03 5.955534e-01 -1.013672e+00 1.035889e+00
6.805273e+01 4.130435e-01 -3.631619e-03 5.955466e-01 -1.013672e+00 1.036377e+00
6.809985e+01 4.130435e-01 -3.615017e-03 5.955443e-01 -1.013672e+00 1.036865e+00
6.802246e+01 4.130435e-01 -3.592773e-03 5.955403e-01 -1.013672e+00 1.037354e+00
6.794067e+01 4.130435e-01 -3.566840e-03 5.955362e-01 -1.013672e+00 1.037842e+00
6.794043e+01 4.130435e-01 -3.535807e-03 5.955321e-01 -1.013672e+00 1.038574e+00
6.789233e+01 4.130435e-01 -3.518338e-03 5.955297e-01 -1.013672e+00 1.039062e+00
6.799561e+01 4.130435e-01 -3.495660e-03 5.955245e-01 -1.013672e+00 1.039795e+00
6.778955e+01 4.000000e-01 -3.459093e-03 5.955150e-01 -1.013672e+00 1.040283e+00
6.777563e+01 4.000000e-01 -3.444661e-03 5.955104e-01 -1.013672e+00 1.041016e+00
6.792212e+01 4.000000e-01 -3.434136e-03 5.955096e-01 -1.013672e+00 1.041504e+00
6.777563e+01 4.000000e-01 -3.409288e-03 5.955036e-01 -1.013672e+00 1.041992e+00
6.792285e+01 3.956522e-01 -3.395182e-03 5.954933e-01 -1.013672e+00 1.042725e+00
6.784644e+01 3.956522e-01 -3.386393e-03 5.954921e-01 -1.013672e+00 1.043457e+00
6.769067e+01 3.956522e-01 -3.368815e-03 5.954889e-01 -1.013672e+00 1.044434e+00
6.771191e+01 3.956522e-01 -3.350694e-03 5.954784e-01 -1.013672e+00 1.045166e+00
6.786792e+01 4.086957e-01 -3.331163e-03 5.954729e-01 -1.013672e+00 1.045898e+00
6.779858e+01 4.000000e-01 -3.325738e-03 5.954727e-01 -1.013672e+00 1.046387e+00
6.769092e+01 4.000000e-01 -3.313911e-03 5.954659e-01 -1.013672e+00 1.047119e+00
6.789478e+01 4.000000e-01 -3.294379e-03 5.954575e-01 -1.013672e+00 1.047852e+00
6.779834e+01 3.956522e-01 -3.297201e-03 5.954555e-01 -1.013672e+00 1.048584e+00
6.772607e+01 3.956522e-01 -3.293837e-03 5.954542e-01 -1.013672e+00 1.049316e+00
6.782227e+01 4.043478e-01 -3.278646e-03 5.954470e-01 -1.013672e+00 1.050049e+00
6.776587e+01 3.956522e-01 -3.269097e-03 5.954427e-01 -1.013672e+00 1.051025e+00
6.768164e+01 3.956522e-01 -3.249674e-03 5.954357e-01 -1.013672e+00 1.051758e+00
6.770630e+01 3.956522e-01 -3.249240e-03 5.954320e-01 -1.013672e+00 1.052246e+00
6.779077e+01 4.000000e-01 -3.236220e-03 5.954240e-01 -1.013672e+00 1.052734e+00
6.765869e+01 4.086957e-01 -3.239258e-03 5.954206e-01 -1.013672e+00 1.053223e+00
6.781445e+01 4.086957e-01 -3.219727e-03 5.954114e-01 -1.013672e+00 1.053711e+00
6.787476e+01 4.086957e-01 -3.220052e-03 5.954120e-01 -1.013672e+00 1.054443e+00
6.773193e+01 4.043478e-01 -3.229275e-03 5.954130e-01 -1.013672e+00 1.054688e+00
6.767017e+01 4.043478e-01 -3.212240e-03 5.953966e-01 -1.013672e+00 1.055176e+00
6.769385e+01 4.043478e-01 -3.216580e-03 5.953928e-01 -1.013672e+00 1.055664e+00
6.767017e+01 4.086957e-01 -3.211263e-03 5.953909e-01 -1.013672e+00 1.056396e+00
6.761084e+01 4.086957e-01 -3.205512e-03 5.953850e-01 -1.013672e+00 1.056885e+00
6.763281e+01 4.086957e-01 -3.189887e-03 5.953686e-01 -1.013672e+00 1.057617e+00
6.793091e+01 4.217391e-01 -3.190321e-03 5.953636e-01 -1.013672e+00 1.058350e+00
6.800415e+01 4.217391e-01 -3.204970e-03 5.953663e-01 -1.013672e+00 1.058594e+00
6.777612e+01 4.173913e-01 -3.190213e-03 5.953506e-01 -1.013672e+00 1.059326e+00
6.787280e+01 4.217391e-01 -3.204102e-03 5.953462e-01 -1.013672e+00 1.059570e+00
6.796973e+01 4.217391e-01 -3.190755e-03 5.953353e-01 -1.013672e+00 1.060059e+00
6.777881e+01 4.086957e-01 -3.196615e-03 5.953342e-01 -1.013672e+00 1.060791e+00
6.774243e+01 4.086957e-01 -3.174696e-03 5.953236e-01 -1.013672e+00 1.061523e+00
6.785181e+01 4.086957e-01 -3.194987e-03 5.953176e-01 -1.013672e+00 1.062256e+00
6.780225e+01 4.086957e-01 -3.163628e-03 5.953000e-01 -1.013672e+00 1.062988e+00
6.776587e+01 4.043478e-01 -3.167860e-03 5.952994e-01 -1.013672e+00 1.063721e+00
6.779028e+01 4.043478e-01 -3.165256e-03 5.952880e-01 -1.013672e+00 1.064453e+00
6.793384e+01 4.173913e-01 -3.164714e-03 5.952783e-01 -1.013672e+00 1.064941e+00
6.783765e+01 4.086957e-01 -3.152561e-03 5.952715e-01 -1.013672e+00 1.065430e+00
6.781470e+01 4.086957e-01 -3.155382e-03 5.952698e-01 -1.013672e+00 1.065918e+00
6.782617e+01 4.086957e-01 -3.171441e-03 5.952726e-01 -1.013672e+00 1.066650e+00
6.783862e+01 3.956522e-01 -3.170356e-03 5.952637e-01 -1.013672e+00 1.067383e+00
6.784082e+01 3.956522e-01 -3.157986e-03 5.952550e-01 -1.013672e+00 1.068115e+00
6.780542e+01 3.956522e-01 -3.162652e-03 5.952493e-01 -1.013672e+00 1.068604e+00
6.774292e+01 3.956522e-01 -3.146593e-03 5.952419e-01 -1.013672e+00 1.069092e+00
6.781445e+01 4.086957e-01 -3.146050e-03 5.952369e-01 -1.013672e+00 1.069824e+00
6.780273e+01 4.130435e-01 -3.149089e-03 5.952345e-01 -1.013672e+00 1.070557e+00
6.786304e+01 4.130435e-01 -3.145508e-03 5.952270e-01 -1.013672e+00 1.071045e+00
6.758765e+01 4.043478e-01 -3.169922e-03 5.952283e-01 -1.013672e+00 1.071533e+00
6.777881e+01 4.130435e-01 -3.131944e-03 5.952151e-01 -1.013672e+00 1.072021e+00
6.776367e+01 4.130435e-01 -3.126519e-03 5.952085e-01 -1.013672e+00 1.072754e+00
6.784741e+01 4.130435e-01 -3.126194e-03 5.952080e-01 -1.013672e+00 1.073486e+00
6.783594e+01 4.130435e-01 -3.126628e-03 5.952026e-01 -1.013672e+00 1.073975e+00
6.783594e+01 4.130435e-01 -3.113715e-03 5.951986e-01 -1.013672e+00 1.074463e+00
6.805127e+01 4.130435e-01 -3.102756e-03 5.951934e-01 -1.013672e+00 1.074951e+00
6.806348e+01 4.130435e-01 -3.099284e-03 5.951952e-01 -1.013672e+00 1.075195e+00
6.801538e+01 4.130435e-01 -3.094944e-03 5.951938e-01 -1.013672e+00 1.076172e+00
6.786743e+01 4.130435e-01 -3.094184e-03 5.951958e-01 -1.013672e+00 1.076660e+00
6.781934e+01 4.130435e-01 -3.076931e-03 5.951911e-01 -1.013672e+00 1.076904e+00
6.781934e+01 4.130435e-01 -3.066732e-03 5.951889e-01 -1.013672e+00 1.077393e+00
6.799927e+01 4.130435e-01 -3.049045e-03 5.951833e-01 -1.013672e+00 1.078125e+00
6.798828e+01 4.130435e-01 -3.062500e-03 5.951854e-01 -1.013672e+00 1.078857e+00
6.808374e+01 4.173913e-01 -3.038086e-03 5.951759e-01 -1.013672e+00 1.079590e+00
6.813184e+01 4.173913e-01 -3.027669e-03 5.951716e-01 -1.013672e+00 1.080322e+00
6.807202e+01 4.173913e-01 -3.016168e-03 5.951700e-01 -1.013672e+00 1.081055e+00
6.821606e+01 4.173913e-01 -2.997938e-03 5.951701e-01 -1.013672e+00 1.081787e+00
6.819385e+01 4.173913e-01 -3.009766e-03 5.951734e-01 -1.013672e+00 1.082764e+00
6.815723e+01 4.173913e-01 -2.979058e-03 5.951657e-01 -1.013672e+00 1.083252e+00
6.819385e+01 4.173913e-01 -2.967339e-03 5.951661e-01 -1.013672e+00 1.083984e+00
6.813428e+01 4.173913e-01 -2.958550e-03 5.951695e-01 -1.013672e+00 1.084473e+00
6.812036e+01 4.173913e-01 -2.938368e-03 5.951696e-01 -1.013672e+00 1.084961e+00
6.807227e+01 4.130435e-01 -2.928277e-03 5.951687e-01 -1.013672e+00 1.085693e+00
6.805200e+01 4.086957e-01 -2.939562e-03 5.951702e-01 -1.013672e+00 1.086182e+00
6.788501e+01 4.086957e-01 -2.922635e-03 5.951697e-01 -1.013672e+00 1.086914e+00
6.789648e+01 4.086957e-01 -2.901367e-03 5.951646e-01 -1.013672e+00 1.087158e+00
6.811182e+01 4.086957e-01 -2.885851e-03 5.951614e-01 -1.013672e+00 1.087891e+00
6.814331e+01 4.086957e-01 -2.872938e-03 5.951595e-01 -1.013672e+00 1.088623e+00
6.827612e+01 4.086957e-01 -2.872830e-03 5.951670e-01 -1.013672e+00 1.089355e+00
6.835986e+01 4.086957e-01 -2.845378e-03 5.951720e-01 -1.013672e+00 1.089844e+00
6.845605e+01 4.173913e-01 -2.837348e-03 5.951723e-01 -1.013672e+00 1.090332e+00
6.841968e+01 4.173913e-01 -2.818034e-03 5.951774e-01 -1.013672e+00 1.091064e+00
6.823950e+01 4.173913e-01 -2.805881e-03 5.951773e-01 -1.013672e+00 1.091797e+00
6.833936e+01 4.086957e-01 -2.804579e-03 5.951785e-01 -1.013672e+00 1.092285e+00
6.817212e+01 4.043478e-01 -2.784939e-03 5.951779e-01 -1.013672e+00 1.092773e+00
6.815137e+01 4.217391e-01 -2.744466e-03 5.951680e-01 -1.013672e+00 1.093506e+00
6.813379e+01 4.217391e-01 -2.771701e-03 5.951858e-01 -1.013672e+00 1.093750e+00
6.829175e+01 4.217391e-01 -2.743381e-03 5.951860e-01 -1.013672e+00 1.094238e+00
6.825708e+01 4.217391e-01 -2.724392e-03 5.951918e-01 -1.013672e+00 1.095215e+00
6.828198e+01 4.260870e-01 -2.708767e-03 5.951971e-01 -1.013672e+00 1.095947e+00
6.822900e+01 4.217391e-01 -2.676975e-03 5.951946e-01 -1.013672e+00 1.096436e+00
6.832520e+01 4.304348e-01 -2.676541e-03 5.952018e-01 -1.013672e+00 1.096924e+00
6.812158e+01 4.304348e-01 -2.651584e-03 5.951989e-01 -1.013672e+00 1.097656e+00
6.816968e+01 4.304348e-01 -2.634549e-03 5.952030e-01 -1.013672e+00 1.098389e+00
6.811353e+01 4.347826e-01 -2.623264e-03 5.952083e-01 -1.013672e+00 1.098877e+00
6.807715e+01 4.304348e-01 -2.606988e-03 5.952112e-01 -1.013672e+00 1.099365e+00
6.799341e+01 4.260870e-01 -2.574761e-03 5.952136e-01 -1.013672e+00 1.100098e+00
6.801611e+01 4.217391e-01 -2.575955e-03 5.952126e-01 -1.013672e+00 1.100098e+00
6.801685e+01 4.217391e-01 -2.559353e-03 5.952162e-01 -1.013672e+00 1.100830e+00
6.801587e+01 4.217391e-01 -2.524414e-03 5.952161e-01 -1.013672e+00 1.101318e+00
6.810132e+01 4.260870e-01 -2.535373e-03 5.952248e-01 -1.013672e+00 1.101807e+00
6.806421e+01 4.217391e-01 -2.491645e-03 5.952171e-01 -1.013672e+00 1.102295e+00
6.802173e+01 4.217391e-01 -2.475260e-03 5.952174e-01 -1.013672e+00 1.102783e+00
6.793774e+01 4.217391e-01 -2.485243e-03 5.952232e-01 -1.013672e+00 1.103516e+00
6.798633e+01 4.173913e-01 -2.474826e-03 5.952277e-01 -1.013672e+00 1.104004e+00
6.797437e+01 4.173913e-01 -2.443034e-03 5.952358e-01 -1.013672e+00 1.104492e+00
6.792627e+01 4.173913e-01 -2.441515e-03 5.952466e-01 -1.013672e+00 1.105225e+00
6.817847e+01 4.173913e-01 -2.444227e-03 5.952480e-01 -1.013672e+00 1.105713e+00
6.823145e+01 4.173913e-01 -2.428385e-03 5.952498e-01 -1.013672e+00 1.106201e+00
6.819580e+01 4.173913e-01 -2.410265e-03 5.952576e-01 -1.013672e+00 1.106689e+00
6.806445e+01 4.173913e-01 -2.402995e-03 5.952647e-01 -1.013672e+00 1.107178e+00
6.798218e+01 4.173913e-01 -2.369792e-03 5.952593e-01 -1.013672e+00 1.107666e+00
6.805322e+01 4.173913e-01 -2.365885e-03 5.952665e-01 -1.013672e+00 1.108154e+00
6.782373e+01 4.173913e-01 -2.375109e-03 5.952708e-01 -1.013672e+00 1.108887e+00
6.782373e+01 4.130435e-01 -2.344618e-03 5.952724e-01 -1.013672e+00 1.109619e+00
6.796631e+01 4.130435e-01 -2.326389e-03 5.952780e-01 -1.013672e+00 1.110596e+00
6.792993e+01 4.086957e-01 -2.314345e-03 5.952818e-01 -1.013672e+00 1.111084e+00
6.788184e+01 4.086957e-01 -2.306749e-03 5.952812e-01 -1.013672e+00 1.111572e+00
6.787036e+01 4.130435e-01 -2.292643e-03 5.952848e-01 -1.013672e+00 1.112305e+00
6.788208e+01 4.130435e-01 -2.282769e-03 5.952931e-01 -1.013672e+00 1.113037e+00
6.788232e+01 4.130435e-01 -2.273438e-03 5.953007e-01 -1.013672e+00 1.113770e+00
6.786963e+01 4.130435e-01 -2.264431e-03 5.953022e-01 -1.013672e+00 1.114746e+00
6.796533e+01 4.173913e-01 -2.231879e-03 5.953060e-01 -1.013672e+00 1.115234e+00
6.800171e+01 4.173913e-01 -2.239149e-03 5.953203e-01 -1.013672e+00 1.115723e+00
6.803809e+01 4.173913e-01 -2.214844e-03 5.953221e-01 -1.013672e+00 1.116455e+00
6.804980e+01 4.173913e-01 -2.222982e-03 5.953377e-01 -1.013672e+00 1.117188e+00
6.803809e+01 4.130435e-01 -2.210612e-03 5.953402e-01 -1.013672e+00 1.117920e+00
6.812207e+01 4.130435e-01 -2.187174e-03 5.953489e-01 -1.013672e+00 1.118652e+00
6.802856e+01 4.130435e-01 -2.175347e-03 5.953608e-01 -1.013672e+00 1.119629e+00
6.812329e+01 4.130435e-01 -2.169488e-03 5.953703e-01 -1.013672e+00 1.120117e+00
6.812329e+01 4.130435e-01 -2.151367e-03 5.953745e-01 -1.013672e+00 1.121094e+00
6.824390e+01 4.173913e-01 -2.141710e-03 5.953805e-01 -1.013672e+00 1.121826e+00
6.822119e+01 4.130435e-01 -2.137804e-03 5.953902e-01 -1.013672e+00 1.122559e+00
6.825830e+01 4.173913e-01 -2.116645e-03 5.953963e-01 -1.013672e+00 1.123047e+00
6.831909e+01 4.173913e-01 -2.093859e-03 5.953947e-01 -1.013672e+00 1.123779e+00
6.827124e+01 4.217391e-01 -2.067708e-03 5.953991e-01 -1.013672e+00 1.124756e+00
6.811572e+01 4.217391e-01 -2.080946e-03 5.954153e-01 -1.013672e+00 1.125488e+00
6.813940e+01 4.217391e-01 -2.074544e-03 5.954265e-01 -1.013672e+00 1.126221e+00
6.807983e+01 4.217391e-01 -2.051975e-03 5.954304e-01 -1.013672e+00 1.127197e+00
6.807959e+01 4.217391e-01 -2.029948e-03 5.954395e-01 -1.013672e+00 1.128174e+00
6.805591e+01 4.217391e-01 -2.017470e-03 5.954517e-01 -1.013672e+00 1.129150e+00
6.805591e+01 4.217391e-01 -2.007270e-03 5.954639e-01 -1.013672e+00 1.129883e+00
6.817603e+01 4.173913e-01 -1.989149e-03 5.954800e-01 -1.013672e+00 1.130859e+00
6.817603e+01 4.173913e-01 -1.964735e-03 5.954899e-01 -1.013672e+00 1.131592e+00
6.835840e+01 4.173913e-01 -1.952799e-03 5.955047e-01 -1.013672e+00 1.132324e+00
6.822583e+01 4.173913e-01 -1.953234e-03 5.955271e-01 -1.013672e+00 1.133301e+00
6.816675e+01 4.173913e-01 -1.939887e-03 5.955432e-01 -1.013672e+00 1.134277e+00
6.819116e+01 4.173913e-01 -1.926975e-03 5.955499e-01 -1.013672e+00 1.135010e+00
6.830859e+01 4.130435e-01 -1.916992e-03 5.955677e-01 -1.013672e+00 1.135986e+00
6.833301e+01 4.173913e-01 -1.907118e-03 5.955805e-01 -1.013672e+00 1.136963e+00
6.834497e+01 4.173913e-01 -1.886827e-03 5.955926e-01 -1.013672e+00 1.137695e+00
6.841870e+01 4.173913e-01 -1.854384e-03 5.956049e-01 -1.013672e+00 1.138672e+00
6.838037e+01 4.173913e-01 -1.871636e-03 5.956418e-01 -1.013672e+00 1.139648e+00
6.829565e+01 4.173913e-01 -1.834961e-03 5.956499e-01 -1.013672e+00 1.140869e+00
6.824854e+01 4.260870e-01 -1.819119e-03 5.956692e-01 -1.013672e+00 1.141846e+00
6.829590e+01 4.260870e-01 -1.807834e-03 5.956869e-01 -1.013672e+00 1.143066e+00
6.848682e+01 4.260870e-01 -1.786567e-03 5.956989e-01 -1.013672e+00 1.144287e+00
6.824561e+01 4.260870e-01 -1.780924e-03 5.957081e-01 -1.013672e+00 1.145264e+00
6.820020e+01 4.260870e-01 -1.790582e-03 5.957368e-01 -1.013672e+00 1.146240e+00
6.830566e+01 4.260870e-01 -1.753038e-03 5.957520e-01 -1.013672e+00 1.147217e+00
6.835742e+01 4.260870e-01 -1.744032e-03 5.957691e-01 -1.013672e+00 1.148438e+00
6.848657e+01 4.260870e-01 -1.753689e-03 5.957944e-01 -1.013672e+00 1.149170e+00
6.851025e+01 4.260870e-01 -1.755642e-03 5.958135e-01 -1.013672e+00 1.149902e+00
6.850879e+01 4.217391e-01 -1.739041e-03 5.958348e-01 -1.013672e+00 1.150879e+00
6.856885e+01 4.217391e-01 -1.753472e-03 5.958520e-01 -1.013672e+00 1.151611e+00
6.859473e+01 4.217391e-01 -1.751845e-03 5.958722e-01 -1.013672e+00 1.152588e+00
6.864136e+01 4.217391e-01 -1.722548e-03 5.958777e-01 -1.013672e+00 1.153564e+00
6.861768e+01 4.217391e-01 -1.738173e-03 5.959089e-01 -1.013672e+00 1.154541e+00
6.849951e+01 4.217391e-01 -1.720920e-03 5.959197e-01 -1.013672e+00 1.155273e+00
6.847583e+01 4.217391e-01 -1.727756e-03 5.959377e-01 -1.013672e+00 1.156494e+00
6.852222e+01 4.217391e-01 -1.723958e-03 5.959523e-01 -1.013672e+00 1.157715e+00
6.840405e+01 4.217391e-01 -1.737305e-03 5.959702e-01 -1.013672e+00 1.158936e+00
6.839233e+01 4.260870e-01 -1.735135e-03 5.959856e-01 -1.013672e+00 1.160156e+00
6.847827e+01 4.260870e-01 -1.737956e-03 5.960125e-01 -1.013672e+00 1.161621e+00
6.846655e+01 4.260870e-01 -1.740560e-03 5.960382e-01 -1.013672e+00 1.162842e+00
6.835938e+01 4.260870e-01 -1.731120e-03 5.960648e-01 -1.013672e+00 1.164062e+00
6.843066e+01 4.260870e-01 -1.738607e-03 5.960890e-01 -1.013672e+00 1.165039e+00
6.845605e+01 4.260870e-01 -1.745334e-03 5.961100e-01 -1.013672e+00 1.166260e+00
6.834668e+01 4.260870e-01 -1.734375e-03 5.961319e-01 -1.013916e+00 1.167480e+00
6.826221e+01 4.217391e-01 -1.735569e-03 5.961567e-01 -1.014893e+00 1.168701e+00
6.809521e+01 4.217391e-01 -1.760525e-03 5.961885e-01 -1.016113e+00 1.170166e+00
6.808130e+01 4.217391e-01 -1.751519e-03 5.962115e-01 -1.016357e+00 1.171387e+00
6.803467e+01 4.217391e-01 -1.754991e-03 5.962375e-01 -1.017334e+00 1.172852e+00
6.815576e+01 4.260870e-01 -1.764323e-03 5.962655e-01 -1.018555e+00 1.173828e+00
6.805981e+01 4.217391e-01 -1.761285e-03 5.962894e-01 -1.019287e+00 1.175293e+00
6.812012e+01 4.217391e-01 -1.763021e-03 5.963109e-01 -1.020264e+00 1.176758e+00
6.816870e+01 4.173913e-01 -1.756293e-03 5.963345e-01 -1.021484e+00 1.178223e+00
6.821191e+01 4.217391e-01 -1.793620e-03 5.963702e-01 -1.022949e+00 1.179443e+00
6.821191e+01 4.217391e-01 -1.780056e-03 5.963971e-01 -1.023438e+00 1.180664e+00
6.822437e+01 4.217391e-01 -1.786024e-03 5.964264e-01 -1.024658e+00 1.181885e+00
6.818774e+01 4.217391e-01 -1.796875e-03 5.964609e-01 -1.025879e+00 1.183350e+00
6.834424e+01 4.217391e-01 -1.796332e-03 5.964869e-01 -1.027344e+00 1.184570e+00
6.835718e+01 4.260870e-01 -1.791450e-03 5.965184e-01 -1.028320e+00 1.185791e+00
6.836914e+01 4.260870e-01 -1.813694e-03 5.965532e-01 -1.029297e+00 1.187256e+00
6.816553e+01 4.260870e-01 -1.806207e-03 5.965776e-01 -1.030273e+00 1.188232e+00
6.799731e+01 4.260870e-01 -1.826172e-03 5.966161e-01 -1.031494e+00 1.189697e+00
6.787842e+01 4.260870e-01 -1.850477e-03 5.966508e-01 -1.032715e+00 1.191162e+00
6.778345e+01 4.304348e-01 -1.846029e-03 5.966814e-01 -1.033936e+00 1.192383e+00
6.759229e+01 4.304348e-01 -1.885959e-03 5.967210e-01 -1.034912e+00 1.193848e+00
6.779590e+01 4.304348e-01 -1.896593e-03 5.967469e-01 -1.036133e+00 1.195312e+00
6.787549e+01 4.347826e-01 -1.906141e-03 5.967846e-01 -1.037109e+00 1.197021e+00
6.788843e+01 4.347826e-01 -1.933702e-03 5.968158e-01 -1.038818e+00 1.198975e+00
6.805859e+01 4.347826e-01 -1.954102e-03 5.968521e-01 -1.040039e+00 1.200684e+00
6.794995e+01 4.260870e-01 -1.954861e-03 5.968800e-01 -1.041260e+00 1.202148e+00
6.818872e+01 4.260870e-01 -1.984484e-03 5.969132e-01 -1.042236e+00 1.203857e+00
6.818872e+01 4.260870e-01 -1.996094e-03 5.969431e-01 -1.043457e+00 1.205322e+00
6.823975e+01 4.347826e-01 -2.022678e-03 5.969794e-01 -1.044678e+00 1.206787e+00
6.805737e+01 4.260870e-01 -2.027995e-03 5.970147e-01 -1.045654e+00 1.208252e+00
6.793945e+01 4.260870e-01 -2.054362e-03 5.970457e-01 -1.046631e+00 1.209717e+00
6.788135e+01 4.347826e-01 -2.087565e-03 5.970922e-01 -1.048096e+00 1.211426e+00
6.789160e+01 4.217391e-01 -2.098850e-03 5.971254e-01 -1.049561e+00 1.212891e+00
6.795288e+01 4.260870e-01 -2.140082e-03 5.971639e-01 -1.051025e+00 1.214600e+00
6.789380e+01 4.260870e-01 -2.165907e-03 5.972007e-01 -1.052002e+00 1.216064e+00
6.787036e+01 4.260870e-01 -2.200304e-03 5.972326e-01 -1.052979e+00 1.217529e+00
6.756104e+01 4.173913e-01 -2.228624e-03 5.972700e-01 -1.053955e+00 1.218994e+00
6.767017e+01 4.217391e-01 -2.253255e-03 5.973120e-01 -1.054932e+00 1.220703e+00
6.771753e+01 4.217391e-01 -2.263672e-03 5.973465e-01 -1.055908e+00 1.222168e+00
6.775415e+01 4.217391e-01 -2.299262e-03 5.973804e-01 -1.056885e+00 1.223633e+00
6.784058e+01 4.217391e-01 -2.319987e-03 5.974141e-01 -1.057861e+00 1.224854e+00
6.786353e+01 4.217391e-01 -2.338976e-03 5.974523e-01 -1.059326e+00 1.226318e+00
6.786426e+01 4.260870e-01 -2.392253e-03 5.974910e-01 -1.061035e+00 1.228027e+00
6.793896e+01 4.304348e-01 -2.409180e-03 5.975252e-01 -1.061523e+00 1.229492e+00
6.807178e+01 4.347826e-01 -2.425564e-03 5.975530e-01 -1.062256e+00 1.230713e+00
6.808276e+01 4.304348e-01 -2.445421e-03 5.975840e-01 -1.063477e+00 1.232178e+00
6.797437e+01 4.260870e-01 -2.492730e-03 5.976258e-01 -1.064697e+00 1.233643e+00
6.802173e+01 4.217391e-01 -2.497396e-03 5.976569e-01 -1.065430e+00 1.234863e+00
6.768481e+01 4.130435e-01 -2.527561e-03 5.976914e-01 -1.066895e+00 1.236328e+00
6.755298e+01 4.043478e-01 -2.552409e-03 5.977236e-01 -1.068115e+00 1.237793e+00
6.745581e+01 4.043478e-01 -2.579536e-03 5.977620e-01 -1.068848e+00 1.239258e+00
6.738477e+01 4.043478e-01 -2.596788e-03 5.977934e-01 -1.070312e+00 1.240479e+00
6.749512e+01 4.043478e-01 -2.627821e-03 5.978295e-01 -1.071533e+00 1.242188e+00
6.772266e+01 4.130435e-01 -2.675673e-03 5.978689e-01 -1.073242e+00 1.243408e+00
6.773340e+01 4.217391e-01 -2.697049e-03 5.979030e-01 -1.073975e+00 1.244873e+00
6.771069e+01 4.173913e-01 -2.739909e-03 5.979366e-01 -1.075195e+00 1.246094e+00
6.790308e+01 4.260870e-01 -2.764540e-03 5.979728e-01 -1.076904e+00 1.247559e+00
6.782031e+01 4.260870e-01 -2.795030e-03 5.980100e-01 -1.078369e+00 1.249023e+00
6.798633e+01 4.260870e-01 -2.818034e-03 5.980398e-01 -1.079590e+00 1.250488e+00
6.802271e+01 4.304348e-01 -2.843533e-03 5.980757e-01 -1.080811e+00 1.251953e+00
6.808228e+01 4.347826e-01 -2.867188e-03 5.981151e-01 -1.082275e+00 1.253418e+00
6.808252e+01 4.391304e-01 -2.890734e-03 5.981550e-01 -1.083496e+00 1.254883e+00
6.812329e+01 4.434783e-01 -2.918186e-03 5.981835e-01 -1.084473e+00 1.256348e+00
6.823169e+01 4.434783e-01 -2.940321e-03 5.982199e-01 -1.085938e+00 1.258057e+00
6.811035e+01 4.391304e-01 -2.981771e-03 5.982521e-01 -1.087402e+00 1.259277e+00
6.835059e+01 4.565217e-01 -3.012804e-03 5.982732e-01 -1.088135e+00 1.260742e+00
6.836304e+01 4.521739e-01 -3.050890e-03 5.983079e-01 -1.089355e+00 1.262207e+00
6.832739e+01 4.565217e-01 -3.098850e-03 5.983408e-01 -1.090332e+00 1.263428e+00
6.833789e+01 4.608696e-01 -3.137370e-03 5.983705e-01 -1.091553e+00 1.264648e+00
6.832520e+01 4.521739e-01 -3.181641e-03 5.984107e-01 -1.092529e+00 1.265869e+00
6.849463e+01 4.478261e-01 -3.240343e-03 5.984502e-01 -1.093750e+00 1.267578e+00
6.843750e+01 4.608696e-01 -3.291233e-03 5.984831e-01 -1.094727e+00 1.269043e+00
6.852100e+01 4.608696e-01 -3.332031e-03 5.985195e-01 -1.095947e+00 1.270508e+00
6.853247e+01 4.565217e-01 -3.375434e-03 5.985514e-01 -1.096924e+00 1.272217e+00
6.870044e+01 4.608696e-01 -3.405273e-03 5.986020e-01 -1.098145e+00 1.273438e+00
6.871387e+01 4.608696e-01 -3.446615e-03 5.986536e-01 -1.099121e+00 1.275146e+00
6.870264e+01 4.652174e-01 -3.491428e-03 5.987056e-01 -1.100342e+00 1.276855e+00
6.867969e+01 4.652174e-01 -3.523438e-03 5.987459e-01 -1.101562e+00 1.278564e+00
6.850049e+01 4.652174e-01 -3.553494e-03 5.987928e-01 -1.103027e+00 1.280029e+00
6.850146e+01 4.695652e-01 -3.590603e-03 5.988391e-01 -1.104248e+00 1.281982e+00
6.865771e+01 4.826087e-01 -3.635417e-03 5.988987e-01 -1.104980e+00 1.283691e+00
6.874243e+01 4.826087e-01 -3.643989e-03 5.989491e-01 -1.105957e+00 1.285645e+00
6.861230e+01 4.826087e-01 -3.683702e-03 5.990020e-01 -1.106934e+00 1.287598e+00
6.868506e+01 4.913043e-01 -3.715495e-03 5.990516e-01 -1.107910e+00 1.289551e+00
6.871045e+01 4.913043e-01 -3.757595e-03 5.990960e-01 -1.108887e+00 1.291260e+00
6.870947e+01 4.956522e-01 -3.797635e-03 5.991484e-01 -1.110596e+00 1.292969e+00
6.880444e+01 4.913043e-01 -3.821723e-03 5.991879e-01 -1.111084e+00 1.294678e+00
6.882788e+01 4.869565e-01 -3.852865e-03 5.992413e-01 -1.112305e+00 1.296631e+00
6.875269e+01 4.782609e-01 -3.867839e-03 5.992935e-01 -1.113037e+00 1.298340e+00
6.895850e+01 4.913043e-01 -3.897027e-03 5.993457e-01 -1.114502e+00 1.300049e+00
6.876587e+01 4.782609e-01 -3.919705e-03 5.993867e-01 -1.115234e+00 1.301758e+00
6.893506e+01 4.826087e-01 -3.941189e-03 5.994379e-01 -1.116211e+00 1.303467e+00
6.874097e+01 4.695652e-01 -4.000543e-03 5.994837e-01 -1.117676e+00 1.305176e+00
6.871655e+01 4.782609e-01 -4.018446e-03 5.995306e-01 -1.118408e+00 1.306885e+00
6.887231e+01 4.695652e-01 -4.039497e-03 5.995796e-01 -1.118896e+00 1.308838e+00
6.897827e+01 4.652174e-01 -4.063477e-03 5.996328e-01 -1.119873e+00 1.310791e+00
6.855859e+01 4.434783e-01 -4.083550e-03 5.996774e-01 -1.121094e+00 1.312500e+00
6.846338e+01 4.478261e-01 -4.134983e-03 5.997309e-01 -1.122070e+00 1.314209e+00
6.838232e+01 4.565217e-01 -4.154405e-03 5.997789e-01 -1.122803e+00 1.316406e+00
6.866357e+01 4.565217e-01 -4.164931e-03 5.998181e-01 -1.123291e+00 1.318115e+00
6.880957e+01 4.608696e-01 -4.208550e-03 5.998589e-01 -1.124268e+00 1.319824e+00
6.895581e+01 4.695652e-01 -4.241970e-03 5.999075e-01 -1.125244e+00 1.321533e+00
6.876392e+01 4.695652e-01 -4.295790e-03 5.999606e-01 -1.125977e+00 1.323730e+00
6.843896e+01 4.608696e-01 -4.346354e-03 6.000125e-01 -1.126953e+00 1.325684e+00
6.842773e+01 4.608696e-01 -4.390951e-03 6.000599e-01 -1.127930e+00 1.327637e+00
6.826953e+01 4.521739e-01 -4.426324e-03 6.001035e-01 -1.128662e+00 1.329834e+00
6.823438e+01 4.521739e-01 -4.459852e-03 6.001491e-01 -1.128906e+00 1.331787e+00
6.827051e+01 4.434783e-01 -4.498806e-03 6.001958e-01 -1.129395e+00 1.333740e+00
6.838818e+01 4.391304e-01 -4.540039e-03 6.002495e-01 -1.130127e+00 1.335693e+00
6.844702e+01 4.391304e-01 -4.597982e-03 6.003047e-01 -1.130859e+00 1.337646e+00
6.827832e+01 4.434783e-01 -4.643229e-03 6.003508e-01 -1.131836e+00 1.339600e+00
6.832593e+01 4.391304e-01 -4.712457e-03 6.003965e-01 -1.133301e+00 1.341553e+00
6.859888e+01 4.391304e-01 -4.785482e-03 6.004421e-01 -1.134521e+00 1.343506e+00
6.881543e+01 4.478261e-01 -4.849501e-03 6.004829e-01 -1.135742e+00 1.345459e+00
6.890063e+01 4.434783e-01 -4.919054e-03 6.005279e-01 -1.137207e+00 1.347412e+00
6.861792e+01 4.347826e-01 -4.957899e-03 6.005718e-01 -1.138184e+00 1.349609e+00
6.841309e+01 4.478261e-01 -5.031033e-03 6.006203e-01 -1.139404e+00 1.351807e+00
6.855640e+01 4.521739e-01 -5.083116e-03 6.006667e-01 -1.139893e+00 1.354004e+00
6.861230e+01 4.434783e-01 -5.132053e-03 6.007237e-01 -1.141113e+00 1.355957e+00
6.868286e+01 4.521739e-01 -5.218641e-03 6.007745e-01 -1.142090e+00 1.358154e+00
6.857031e+01 4.608696e-01 -5.242622e-03 6.008249e-01 -1.142578e+00 1.360352e+00
6.846948e+01 4.521739e-01 -5.298069e-03 6.008899e-01 -1.143555e+00 1.363037e+00
6.891724e+01 4.695652e-01 -5.336589e-03 6.009292e-01 -1.143799e+00 1.365234e+00
6.867676e+01 4.608696e-01 -5.392036e-03 6.009777e-01 -1.144775e+00 1.367676e+00
6.866626e+01 4.565217e-01 -5.439996e-03 6.010291e-01 -1.145264e+00 1.370117e+00
6.863257e+01 4.434783e-01 -5.485677e-03 6.010800e-01 -1.146240e+00 1.372314e+00
6.884570e+01 4.434783e-01 -5.543403e-03 6.011267e-01 -1.146973e+00 1.374756e+00
6.879004e+01 4.391304e-01 -5.588325e-03 6.011737e-01 -1.147461e+00 1.376709e+00
6.857300e+01 4.260870e-01 -5.668294e-03 6.012215e-01 -1.148193e+00 1.378662e+00
6.817188e+01 4.217391e-01 -5.700955e-03 6.012782e-01 -1.149170e+00 1.381104e+00
6.805029e+01 4.260870e-01 -5.760525e-03 6.013345e-01 -1.149902e+00 1.383301e+00
6.826978e+01 4.260870e-01 -5.831380e-03 6.013950e-01 -1.151367e+00 1.385742e+00
6.808813e+01 4.173913e-01 -5.879774e-03 6.014500e-01 -1.151855e+00 1.387695e+00
6.820532e+01 4.260870e-01 -5.937934e-03 6.015052e-01 -1.153076e+00 1.389648e+00
6.831226e+01 4.304348e-01 -6.012912e-03 6.015570e-01 -1.154297e+00 1.391846e+00
6.813086e+01 4.217391e-01 -6.073134e-03 6.016090e-01 -1.155518e+00 1.394287e+00
6.816772e+01 4.173913e-01 -6.132921e-03 6.016657e-01 -1.156494e+00 1.395996e+00
6.824561e+01 4.173913e-01 -6.186740e-03 6.017138e-01 -1.157715e+00 1.398193e+00
6.796948e+01 4.173913e-01 -6.253255e-03 6.017690e-01 -1.158936e+00 1.400146e+00
6.808789e+01 4.086957e-01 -6.310221e-03 6.018323e-01 -1.160400e+00 1.402100e+00
6.794678e+01 4.000000e-01 -6.355903e-03 6.018937e-01 -1.161377e+00 1.404297e+00
6.757593e+01 3.913043e-01 -6.423828e-03 6.019531e-01 -1.162598e+00 1.405762e+00
6.782544e+01 3.913043e-01 -6.469944e-03 6.020140e-01 -1.163818e+00 1.407959e+00
6.746973e+01 3.913043e-01 -6.518446e-03 6.020778e-01 -1.164795e+00 1.410156e+00
6.740063e+01 3.869565e-01 -6.575521e-03 6.021417e-01 -1.166016e+00 1.412109e+00
6.761987e+01 3.913043e-01 -6.623372e-03 6.022056e-01 -1.166992e+00 1.413818e+00
6.788184e+01 3.956522e-01 -6.686849e-03 6.022705e-01 -1.168457e+00 1.415771e+00
6.780127e+01 3.869565e-01 -6.757813e-03 6.023319e-01 -1.169434e+00 1.417969e+00
6.781812e+01 3.869565e-01 -6.808377e-03 6.023947e-01 -1.170898e+00 1.420166e+00
6.786255e+01 3.826087e-01 -6.850152e-03 6.024596e-01 -1.171875e+00 1.422119e+00
6.757373e+01 3.826087e-01 -6.916884e-03 6.025096e-01 -1.173096e+00 1.424316e+00
6.738403e+01 3.826087e-01 -6.952257e-03 6.025809e-01 -1.173828e+00 1.426025e+00
6.750244e+01 3.826087e-01 -7.019748e-03 6.026410e-01 -1.174561e+00 1.428467e+00
6.749756e+01 3.913043e-01 -7.066406e-03 6.027093e-01 -1.175293e+00 1.430420e+00
6.750977e+01 3.913043e-01 -7.113064e-03 6.027824e-01 -1.176514e+00 1.432617e+00
6.789038e+01 3.956522e-01 -7.163954e-03 6.028433e-01 -1.177002e+00 1.434082e+00
6.774512e+01 3.869565e-01 -7.213867e-03 6.029195e-01 -1.177734e+00 1.436279e+00
6.800854e+01 3.913043e-01 -7.256185e-03 6.029848e-01 -1.178467e+00 1.438477e+00
6.768970e+01 3.869565e-01 -7.283963e-03 6.030455e-01 -1.178711e+00 1.440674e+00
6.774683e+01 3.826087e-01 -7.326714e-03 6.031118e-01 -1.179199e+00 1.443115e+00
6.760303e+01 3.826087e-01 -7.362196e-03 6.031895e-01 -1.179443e+00 1.445068e+00
6.737183e+01 3.826087e-01 -7.399740e-03 6.032563e-01 -1.179932e+00 1.447266e+00
6.752563e+01 3.826087e-01 -7.407227e-03 6.033239e-01 -1.180176e+00 1.449463e+00
6.773169e+01 3.913043e-01 -7.431966e-03 6.033939e-01 -1.180176e+00 1.451172e+00
6.751562e+01 3.782609e-01 -7.454319e-03 6.034739e-01 -1.180908e+00 1.452881e+00
6.749829e+01 3.826087e-01 -7.453016e-03 6.035475e-01 -1.180664e+00 1.455078e+00
6.762964e+01 3.826087e-01 -7.480252e-03 6.036257e-01 -1.180908e+00 1.457031e+00
6.777344e+01 3.869565e-01 -7.498155e-03 6.036978e-01 -1.181152e+00 1.459229e+00
6.786743e+01 3.869565e-01 -7.513563e-03 6.037827e-01 -1.181396e+00 1.460938e+00
6.809473e+01 3.913043e-01 -7.548503e-03 6.038678e-01 -1.181885e+00 1.463135e+00
6.808008e+01 3.956522e-01 -7.569336e-03 6.039496e-01 -1.182129e+00 1.464844e+00
6.779736e+01 3.869565e-01 -7.584310e-03 6.040237e-01 -1.182129e+00 1.467041e+00
6.796313e+01 3.869565e-01 -7.629557e-03 6.040968e-01 -1.182373e+00 1.468994e+00
6.756055e+01 4.000000e-01 -7.639865e-03 6.041855e-01 -1.185303e+00 1.470947e+00
6.804224e+01 4.000000e-01 -7.672635e-03 6.042680e-01 -1.189697e+00 1.472900e+00
6.806006e+01 4.000000e-01 -7.711480e-03 6.043449e-01 -1.194092e+00 1.475342e+00
6.816162e+01 4.086957e-01 -7.740994e-03 6.044326e-01 -1.198486e+00 1.477539e+00
6.831470e+01 4.130435e-01 -7.765734e-03 6.045096e-01 -1.202881e+00 1.479736e+00
6.850073e+01 4.043478e-01 -7.811849e-03 6.045772e-01 -1.207764e+00 1.481445e+00
6.851733e+01 4.260870e-01 -7.844401e-03 6.046502e-01 -1.211914e+00 1.483643e+00
6.843311e+01 4.304348e-01 -7.868707e-03 6.047338e-01 -1.216064e+00 1.486084e+00
6.841772e+01 4.347826e-01 -7.915799e-03 6.048080e-01 -1.219971e+00 1.488525e+00
6.834595e+01 4.347826e-01 -7.955078e-03 6.048791e-01 -1.224365e+00 1.490479e+00
6.837891e+01 4.304348e-01 -7.998372e-03 6.049671e-01 -1.228760e+00 1.492432e+00
6.805859e+01 4.347826e-01 -8.058811e-03 6.050410e-01 -1.232910e+00 1.494873e+00
6.808984e+01 4.434783e-01 -8.095703e-03 6.051200e-01 -1.237305e+00 1.496826e+00
6.762183e+01 4.347826e-01 -8.144206e-03 6.052015e-01 -1.241211e+00 1.499023e+00
6.747314e+01 4.347826e-01 -8.211155e-03 6.052686e-01 -1.245850e+00 1.500977e+00
6.752222e+01 4.391304e-01 -8.258681e-03 6.053443e-01 -1.250244e+00 1.503174e+00
6.732202e+01 4.391304e-01 -8.301866e-03 6.054237e-01 -1.254395e+00 1.505371e+00
6.715723e+01 4.434783e-01 -8.338433e-03 6.055107e-01 -1.259033e+00 1.507324e+00
6.675293e+01 4.347826e-01 -8.358724e-03 6.055971e-01 -1.263184e+00 1.509033e+00
6.693848e+01 4.260870e-01 -8.400282e-03 6.056713e-01 -1.267822e+00 1.510986e+00
6.682080e+01 4.347826e-01 -8.417969e-03 6.057593e-01 -1.272705e+00 1.512939e+00
6.653076e+01 4.217391e-01 -8.431641e-03 6.058479e-01 -1.277344e+00 1.514404e+00
6.631689e+01 4.130435e-01 -8.448134e-03 6.059500e-01 -1.281982e+00 1.516113e+00
6.589819e+01 4.086957e-01 -8.459527e-03 6.060472e-01 -1.286865e+00 1.518066e+00
6.577661e+01 4.173913e-01 -8.464084e-03 6.061472e-01 -1.291748e+00 1.519531e+00
6.598682e+01 4.130435e-01 -8.474175e-03 6.062439e-01 -1.296387e+00 1.521240e+00
6.610474e+01 4.173913e-01 -8.465712e-03 6.063571e-01 -1.301025e+00 1.522949e+00
6.567944e+01 4.173913e-01 -8.465603e-03 6.064655e-01 -1.305664e+00 1.524414e+00
6.557666e+01 4.217391e-01 -8.423286e-03 6.065868e-01 -1.310303e+00 1.526123e+00
6.569238e+01 4.260870e-01 -8.411784e-03 6.067037e-01 -1.314941e+00 1.527588e+00
6.526562e+01 4.217391e-01 -8.396810e-03 6.068201e-01 -1.319824e+00 1.529053e+00
6.523438e+01 4.086957e-01 -8.375000e-03 6.069418e-01 -1.324463e+00 1.530273e+00
6.559888e+01 4.086957e-01 -8.367405e-03 6.070643e-01 -1.329590e+00 1.531494e+00
6.511841e+01 3.913043e-01 -8.348633e-03 6.071869e-01 -1.334717e+00 1.533203e+00
6.485840e+01 3.739130e-01 -8.332357e-03 6.073079e-01 -1.339600e+00 1.534912e+00
6.531763e+01 3.652174e-01 -8.305339e-03 6.074406e-01 -1.344238e+00 1.536377e+00
6.513745e+01 3.478261e-01 -8.262804e-03 6.075856e-01 -1.349121e+00 1.537598e+00
6.517554e+01 3.608696e-01 -8.237196e-03 6.077293e-01 -1.354004e+00 1.539062e+00
6.497900e+01 3.652174e-01 -8.175239e-03 6.078969e-01 -1.358887e+00 1.540771e+00
6.461890e+01 3.478261e-01 -8.134874e-03 6.080448e-01 -1.363281e+00 1.541992e+00
6.434058e+01 3.217391e-01 -8.091037e-03 6.081976e-01 -1.368408e+00 1.543213e+00
6.372339e+01 3.043478e-01 -8.040473e-03 6.083556e-01 -1.373291e+00 1.544678e+00
6.388940e+01 2.869565e-01 -8.017253e-03 6.085031e-01 -1.377686e+00 1.545410e+00
6.448486e+01 3.000000e-01 -7.977648e-03 6.086604e-01 -1.382812e+00 1.546631e+00
6.484375e+01 3.043478e-01 -7.898220e-03 6.088218e-01 -1.388184e+00 1.547607e+00
6.460938e+01 3.391304e-01 -7.848850e-03 6.089904e-01 -1.393555e+00 1.549072e+00
6.235913e+01 2.782609e-01 -7.762044e-03 6.091792e-01 -1.398682e+00 1.550293e+00
6.217969e+01 2.695652e-01 -7.718533e-03 6.093509e-01 -1.403564e+00 1.551514e+00
6.177686e+01 2.739130e-01 -7.671224e-03 6.095201e-01 -1.408447e+00 1.552734e+00
6.153198e+01 2.695652e-01 -7.618924e-03 6.096990e-01 -1.413818e+00 1.553955e+00
6.205200e+01 2.695652e-01 -7.566623e-03 6.098976e-01 -1.418945e+00 1.555176e+00
6.250830e+01 2.913043e-01 -7.535590e-03 6.100581e-01 -1.424316e+00 1.556396e+00
6.186621e+01 2.913043e-01 -7.519206e-03 6.102451e-01 -1.429688e+00 1.558105e+00
6.207373e+01 2.913043e-01 -7.475911e-03 6.104385e-01 -1.435303e+00 1.559326e+00
6.156104e+01 2.869565e-01 -7.465820e-03 6.106294e-01 -1.440918e+00 1.560791e+00
6.126855e+01 2.782609e-01 -7.454861e-03 6.108023e-01 -1.446289e+00 1.562500e+00
6.120410e+01 2.869565e-01 -7.431858e-03 6.110135e-01 -1.451904e+00 1.564209e+00
6.145337e+01 2.869565e-01 -7.428711e-03 6.111824e-01 -1.457520e+00 1.566162e+00
6.294922e+01 3.000000e-01 -7.423286e-03 6.113915e-01 -1.463623e+00 1.567871e+00
6.265454e+01 2.913043e-01 -7.394640e-03 6.116112e-01 -1.469238e+00 1.569824e+00
6.335059e+01 3.000000e-01 -7.433485e-03 6.117885e-01 -1.475098e+00 1.572021e+00
6.337622e+01 3.000000e-01 -7.440213e-03 6.119970e-01 -1.480713e+00 1.574219e+00
6.382959e+01 3.043478e-01 -7.479167e-03 6.121876e-01 -1.487061e+00 1.576416e+00
6.382422e+01 3.000000e-01 -7.526910e-03 6.123823e-01 -1.492676e+00 1.579346e+00
6.367090e+01 2.956522e-01 -7.539388e-03 6.125916e-01 -1.498291e+00 1.582520e+00
6.335498e+01 2.913043e-01 -7.582465e-03 6.127918e-01 -1.504639e+00 1.584961e+00
6.271313e+01 2.565217e-01 -7.670790e-03 6.129668e-01 -1.510254e+00 1.588135e+00
6.343750e+01 2.869565e-01 -7.721788e-03 6.131810e-01 -1.516113e+00 1.591309e+00
6.407666e+01 2.913043e-01 -7.799913e-03 6.133730e-01 -1.522217e+00 1.594238e+00
6.385840e+01 2.956522e-01 -7.859049e-03 6.135673e-01 -1.528076e+00 1.597656e+00
6.344946e+01 2.782609e-01 -7.934570e-03 6.137576e-01 -1.534180e+00 1.600098e+00
6.263330e+01 2.652174e-01 -8.046549e-03 6.139337e-01 -1.540039e+00 1.603271e+00
6.274658e+01 2.652174e-01 -8.092339e-03 6.141566e-01 -1.546143e+00 1.606201e+00
6.356030e+01 2.739130e-01 -8.214193e-03 6.143449e-01 -1.552490e+00 1.609131e+00
6.391406e+01 2.739130e-01 -8.306641e-03 6.145488e-01 -1.558838e+00 1.612061e+00
6.377661e+01 2.739130e-01 -8.390842e-03 6.147576e-01 -1.564941e+00 1.614746e+00
6.431738e+01 2.739130e-01 -8.483398e-03 6.149549e-01 -1.571045e+00 1.617920e+00
6.326929e+01 2.521739e-01 -8.534288e-03 6.151737e-01 -1.577393e+00 1.620605e+00
6.374731e+01 2.521739e-01 -8.575412e-03 6.153996e-01 -1.583984e+00 1.623047e+00
6.436646e+01 2.521739e-01 -8.641710e-03 6.156193e-01 -1.590332e+00 1.626221e+00
6.394434e+01 2.608696e-01 -8.716905e-03 6.158545e-01 -1.596436e+00 1.628906e+00
6.374268e+01 2.608696e-01 -8.759332e-03 6.160799e-01 -1.602783e+00 1.632324e+00
6.303345e+01 2.565217e-01 -8.827582e-03 6.163136e-01 -1.608887e+00 1.635254e+00
6.287183e+01 2.608696e-01 -8.873372e-03 6.165688e-01 -1.615234e+00 1.638428e+00
6.288916e+01 2.608696e-01 -8.945312e-03 6.167966e-01 -1.621582e+00 1.640869e+00
6.291919e+01 2.652174e-01 -8.980686e-03 6.170526e-01 -1.627686e+00 1.643555e+00
6.289331e+01 2.782609e-01 -9.002604e-03 6.172837e-01 -1.634033e+00 1.645996e+00
6.275073e+01 2.869565e-01 -9.027235e-03 6.175396e-01 -1.640381e+00 1.648193e+00
6.260254e+01 2.782609e-01 -9.095920e-03 6.177836e-01 -1.646240e+00 1.651367e+00
6.174951e+01 2.739130e-01 -9.149740e-03 6.180126e-01 -1.652100e+00 1.654053e+00
6.161060e+01 2.739130e-01 -9.192817e-03 6.182603e-01 -1.657959e+00 1.656982e+00
6.228174e+01 2.652174e-01 -9.232096e-03 6.184993e-01 -1.664307e+00 1.659424e+00
6.205981e+01 2.739130e-01 -9.267687e-03 6.187525e-01 -1.670410e+00 1.661865e+00
6.212573e+01 2.782609e-01 -9.294922e-03 6.190034e-01 -1.675781e+00 1.665039e+00
6.115527e+01 2.608696e-01 -9.391493e-03 6.192279e-01 -1.681396e+00 1.668457e+00
6.120142e+01 2.695652e-01 -9.392361e-03 6.194982e-01 -1.687744e+00 1.671387e+00
6.094531e+01 2.652174e-01 -9.421007e-03 6.197763e-01 -1.693604e+00 1.674561e+00
6.020605e+01 2.652174e-01 -9.416450e-03 6.200835e-01 -1.700195e+00 1.677734e+00
5.991187e+01 2.608696e-01 -9.475477e-03 6.203358e-01 -1.706543e+00 1.680908e+00
5.980859e+01 2.608696e-01 -9.488932e-03 6.206397e-01 -1.713623e+00 1.683838e+00
6.072461e+01 2.565217e-01 -9.562609e-03 6.209048e-01 -1.720215e+00 1.687256e+00
6.183789e+01 2.565217e-01 -9.559136e-03 6.212084e-01 -1.727051e+00 1.690430e+00
6.155615e+01 2.521739e-01 -9.555122e-03 6.215173e-01 -1.734131e+00 1.693848e+00
6.141406e+01 2.608696e-01 -9.596354e-03 6.218286e-01 -1.740479e+00 1.697510e+00
6.154907e+01 2.565217e-01 -9.646484e-03 6.221255e-01 -1.747314e+00 1.701172e+00
6.166406e+01 2.478261e-01 -9.669488e-03 6.224560e-01 -1.753662e+00 1.705078e+00
6.228491e+01 2.434783e-01 -9.739909e-03 6.227738e-01 -1.760498e+00 1.708984e+00
6.185059e+01 2.391304e-01 -9.785156e-03 6.231023e-01 -1.766846e+00 1.713379e+00
6.061621e+01 2.260870e-01 -9.861111e-03 6.234166e-01 -1.773438e+00 1.717773e+00
6.082178e+01 2.347826e-01 -9.952799e-03 6.237307e-01 -1.779785e+00 1.722168e+00
6.069385e+01 2.260870e-01 -1.005957e-02 6.240464e-01 -1.786377e+00 1.726562e+00
6.005957e+01 2.173913e-01 -1.017242e-02 6.243843e-01 -1.793213e+00 1.730957e+00
5.980811e+01 2.173913e-01 -1.025760e-02 6.247203e-01 -1.800293e+00 1.735352e+00
5.952539e+01 2.260870e-01 -1.038574e-02 6.250537e-01 -1.807617e+00 1.739990e+00
6.036548e+01 2.391304e-01 -1.052452e-02 6.253611e-01 -1.813965e+00 1.745117e+00
6.007373e+01 2.304348e-01 -1.068707e-02 6.256689e-01 -1.820557e+00 1.750244e+00
6.054541e+01 2.391304e-01 -1.082270e-02 6.259684e-01 -1.827881e+00 1.754395e+00
6.032056e+01 2.347826e-01 -1.100401e-02 6.262720e-01 -1.833984e+00 1.758545e+00
6.084375e+01 2.478261e-01 -1.114128e-02 6.265894e-01 -1.840820e+00 1.762939e+00
6.126074e+01 2.521739e-01 -1.127116e-02 6.269050e-01 -1.847412e+00 1.766846e+00
6.103857e+01 2.478261e-01 -1.137391e-02 6.272539e-01 -1.854492e+00 1.770996e+00
6.019019e+01 2.434783e-01 -1.144217e-02 6.275909e-01 -1.861816e+00 1.775391e+00
5.972363e+01 2.434783e-01 -1.152116e-02 6.279761e-01 -1.868652e+00 1.780273e+00
5.899341e+01 2.521739e-01 -1.161296e-02 6.283354e-01 -1.875732e+00 1.785156e+00
5.880396e+01 2.434783e-01 -1.166070e-02 6.287392e-01 -1.882812e+00 1.789795e+00
5.908081e+01 2.521739e-01 -1.171105e-02 6.291261e-01 -1.890137e+00 1.794922e+00
5.928320e+01 2.565217e-01 -1.178700e-02 6.295118e-01 -1.897217e+00 1.800293e+00
5.923584e+01 2.565217e-01 -1.186165e-02 6.298952e-01 -1.904785e+00 1.804932e+00
5.984619e+01 2.608696e-01 -1.191873e-02 6.303017e-01 -1.911621e+00 1.810059e+00
5.967871e+01 2.608696e-01 -1.200347e-02 6.306744e-01 -1.918701e+00 1.814941e+00
5.918530e+01 2.434783e-01 -1.205686e-02 6.310642e-01 -1.925049e+00 1.819580e+00
5.816064e+01 2.434783e-01 -1.214540e-02 6.314489e-01 -1.931396e+00 1.825195e+00
5.886475e+01 2.434783e-01 -1.225434e-02 6.318218e-01 -1.937744e+00 1.830566e+00
5.829199e+01 2.304348e-01 -1.234104e-02 6.322138e-01 -1.945068e+00 1.835205e+00
5.803271e+01 2.347826e-01 -1.245562e-02 6.325724e-01 -1.951416e+00 1.840576e+00
5.839551e+01 2.347826e-01 -1.252658e-02 6.329931e-01 -1.958984e+00 1.845459e+00
5.783105e+01 2.304348e-01 -1.265202e-02 6.333673e-01 -1.966064e+00 1.849365e+00
5.603589e+01 2.173913e-01 -1.273893e-02 6.337863e-01 -1.972656e+00 1.854492e+00
5.632520e+01 2.217391e-01 -1.285189e-02 6.341842e-01 -1.980469e+00 1.858398e+00
5.649316e+01 2.130435e-01 -1.295052e-02 6.346113e-01 -1.987305e+00 1.863281e+00
5.621313e+01 2.086957e-01 -1.302452e-02 6.350152e-01 -1.994385e+00 1.867676e+00
5.599731e+01 2.130435e-01 -1.311035e-02 6.354447e-01 -2.001709e+00 1.872314e+00
5.588940e+01 2.086957e-01 -1.322352e-02 6.358121e-01 -2.008057e+00 1.876709e+00
5.629150e+01 2.130435e-01 -1.332444e-02 6.362526e-01 -2.015869e+00 1.880371e+00
5.622852e+01 2.173913e-01 -1.341222e-02 6.366733e-01 -2.022461e+00 1.884521e+00
5.581738e+01 2.086957e-01 -1.350000e-02 6.371084e-01 -2.029785e+00 1.888184e+00
5.661914e+01 2.130435e-01 -1.357899e-02 6.375404e-01 -2.037354e+00 1.892090e+00
5.598633e+01 2.130435e-01 -1.366591e-02 6.379804e-01 -2.044678e+00 1.896484e+00
5.553735e+01 2.086957e-01 -1.374501e-02 6.383635e-01 -2.052002e+00 1.900391e+00
5.550366e+01 2.130435e-01 -1.383344e-02 6.388047e-01 -2.058105e+00 1.904541e+00
5.554468e+01 2.173913e-01 -1.393826e-02 6.391783e-01 -2.064941e+00 1.908203e+00
5.611011e+01 2.217391e-01 -1.401736e-02 6.396077e-01 -2.071533e+00 1.911377e+00
5.552466e+01 2.173913e-01 -1.411057e-02 6.400312e-01 -2.078613e+00 1.914551e+00
5.518164e+01 2.086957e-01 -1.419086e-02 6.404682e-01 -2.086914e+00 1.916992e+00
5.439941e+01 2.043478e-01 -1.428407e-02 6.409024e-01 -2.093506e+00 1.920166e+00
5.402612e+01 2.000000e-01 -1.431228e-02 6.413793e-01 -2.099854e+00 1.923828e+00
5.502148e+01 2.130435e-01 -1.434592e-02 6.417960e-01 -2.106689e+00 1.927490e+00
5.461011e+01 2.217391e-01 -1.440918e-02 6.422555e-01 -2.113037e+00 1.931885e+00
5.421338e+01 2.217391e-01 -1.446332e-02 6.426889e-01 -2.119629e+00 1.936768e+00
5.439307e+01 2.260870e-01 -1.451096e-02 6.431770e-01 -2.126465e+00 1.940674e+00
5.478174e+01 2.304348e-01 -1.457574e-02 6.436105e-01 -2.133301e+00 1.944824e+00
5.467212e+01 2.347826e-01 -1.462598e-02 6.440852e-01 -2.140625e+00 1.948242e+00
5.474438e+01 2.347826e-01 -1.469553e-02 6.445444e-01 -2.147461e+00 1.952148e+00
5.271997e+01 2.173913e-01 -1.478331e-02 6.449843e-01 -2.155273e+00 1.955078e+00
5.247437e+01 2.173913e-01 -1.488444e-02 6.454783e-01 -2.161865e+00 1.958984e+00
5.291943e+01 2.173913e-01 -1.494488e-02 6.459379e-01 -2.168457e+00 1.962891e+00
5.331812e+01 2.217391e-01 -1.498958e-02 6.464021e-01 -2.175781e+00 1.966064e+00
5.320190e+01 2.217391e-01 -1.510037e-02 6.468621e-01 -2.182861e+00 1.969482e+00
5.270581e+01 2.173913e-01 -1.515983e-02 6.473393e-01 -2.189697e+00 1.973145e+00
5.261548e+01 2.173913e-01 -1.528928e-02 6.477692e-01 -2.196045e+00 1.976807e+00
5.222900e+01 2.173913e-01 -1.539779e-02 6.482065e-01 -2.202881e+00 1.980225e+00
5.252881e+01 2.173913e-01 -1.553776e-02 6.486896e-01 -2.209717e+00 1.983887e+00
5.198340e+01 2.086957e-01 -1.569651e-02 6.491196e-01 -2.216309e+00 1.987549e+00
5.150146e+01 2.043478e-01 -1.581836e-02 6.495879e-01 -2.222656e+00 1.990723e+00
5.116968e+01 2.043478e-01 -1.597298e-02 6.499996e-01 -2.229736e+00 1.993896e+00
5.162573e+01 2.086957e-01 -1.606228e-02 6.504640e-01 -2.236572e+00 1.997070e+00
5.151099e+01 2.086957e-01 -1.619781e-02 6.508972e-01 -2.243164e+00 2.000488e+00
5.160938e+01 2.086957e-01 -1.630610e-02 6.513592e-01 -2.250000e+00 2.003906e+00
5.073999e+01 2.086957e-01 -1.646191e-02 6.517778e-01 -2.256836e+00 2.006592e+00
4.979150e+01 2.043478e-01 -1.654525e-02 6.522716e-01 -2.263916e+00 2.010010e+00
4.952100e+01 2.043478e-01 -1.666536e-02 6.527308e-01 -2.271240e+00 2.012695e+00
4.971899e+01 2.086957e-01 -1.680707e-02 6.531444e-01 -2.278076e+00 2.016357e+00
4.918286e+01 2.000000e-01 -1.695562e-02 6.536244e-01 -2.284424e+00 2.020264e+00
4.875317e+01 1.913043e-01 -1.701465e-02 6.540805e-01 -2.291504e+00 2.022949e+00
4.929199e+01 1.956522e-01 -1.715516e-02 6.545222e-01 -2.298584e+00 2.025879e+00
4.848267e+01 1.913043e-01 -1.728147e-02 6.549623e-01 -2.305664e+00 2.028564e+00
4.860376e+01 2.000000e-01 -1.742383e-02 6.553781e-01 -2.312256e+00 2.031738e+00
4.882031e+01 2.000000e-01 -1.750174e-02 6.558599e-01 -2.319092e+00 2.034424e+00
4.891626e+01 2.000000e-01 -1.761296e-02 6.562902e-01 -2.326172e+00 2.038818e+00
4.861401e+01 1.956522e-01 -1.773720e-02 6.567210e-01 -2.332764e+00 2.040527e+00
4.855737e+01 1.956522e-01 -1.785514e-02 6.571450e-01 -2.340332e+00 2.043213e+00
4.792163e+01 1.956522e-01 -1.790636e-02 6.576053e-01 -2.346191e+00 2.046143e+00
4.740820e+01 1.913043e-01 -1.800456e-02 6.579624e-01 -2.352783e+00 2.049072e+00
4.748218e+01 1.913043e-01 -1.816645e-02 6.584220e-01 -2.359375e+00 2.052246e+00
4.812964e+01 1.956522e-01 -1.825043e-02 6.588696e-01 -2.365479e+00 2.054932e+00
4.822632e+01 1.956522e-01 -1.837207e-02 6.592748e-01 -2.371582e+00 2.058105e+00
4.814648e+01 1.956522e-01 -1.851378e-02 6.596789e-01 -2.378174e+00 2.061768e+00
4.758105e+01 1.956522e-01 -1.858702e-02 6.601603e-01 -2.384521e+00 2.065430e+00
4.810815e+01 2.000000e-01 -1.869282e-02 6.605963e-01 -2.390381e+00 2.067627e+00
4.742920e+01 1.913043e-01 -1.880317e-02 6.610067e-01 -2.396729e+00 2.070557e+00
4.690454e+01 1.913043e-01 -1.886795e-02 6.614483e-01 -2.402344e+00 2.074219e+00
4.712915e+01 1.913043e-01 -1.899056e-02 6.618391e-01 -2.407715e+00 2.077637e+00
4.770093e+01 1.956522e-01 -1.907227e-02 6.622655e-01 -2.413818e+00 2.080078e+00
4.785327e+01 1.956522e-01 -1.917470e-02 6.626764e-01 -2.419434e+00 2.083008e+00
4.839404e+01 2.000000e-01 -1.924696e-02 6.631150e-01 -2.425537e+00 2.086426e+00
4.919458e+01 2.043478e-01 -1.935102e-02 6.635428e-01 -2.432129e+00 2.089355e+00
4.766235e+01 1.956522e-01 -1.946940e-02 6.639151e-01 -2.437012e+00 2.092529e+00
4.722876e+01 1.956522e-01 -1.957075e-02 6.643413e-01 -2.442871e+00 2.095947e+00
4.843774e+01 2.043478e-01 -1.963889e-02 6.648077e-01 -2.448730e+00 2.100098e+00
4.833740e+01 2.043478e-01 -1.975499e-02 6.652149e-01 -2.453613e+00 2.102539e+00
4.719092e+01 1.956522e-01 -1.984266e-02 6.656495e-01 -2.458984e+00 2.106445e+00
4.792529e+01 1.913043e-01 -1.992101e-02 6.660684e-01 -2.463135e+00 2.109863e+00
4.770630e+01 1.913043e-01 -2.007661e-02 6.664924e-01 -2.468506e+00 2.113281e+00
4.991455e+01 2.000000e-01 -2.015603e-02 6.669406e-01 -2.474365e+00 2.116699e+00
4.943848e+01 1.956522e-01 -2.026345e-02 6.673531e-01 -2.479980e+00 2.120117e+00
4.916284e+01 1.956522e-01 -2.036502e-02 6.677650e-01 -2.484863e+00 2.123535e+00
4.865112e+01 1.956522e-01 -2.049479e-02 6.681833e-01 -2.490234e+00 2.126709e+00
4.766724e+01 1.913043e-01 -2.059212e-02 6.686093e-01 -2.495850e+00 2.129639e+00
4.840137e+01 1.913043e-01 -2.068370e-02 6.690218e-01 -2.500244e+00 2.133301e+00
4.766626e+01 1.913043e-01 -2.076823e-02 6.694202e-01 -2.505615e+00 2.136475e+00
4.790063e+01 1.913043e-01 -2.086621e-02 6.698141e-01 -2.510254e+00 2.140381e+00
4.773828e+01 1.913043e-01 -2.092079e-02 6.702345e-01 -2.514648e+00 2.143799e+00
4.730786e+01 1.913043e-01 -2.105035e-02 6.706473e-01 -2.520020e+00 2.147461e+00
4.816309e+01 1.913043e-01 -2.111936e-02 6.710816e-01 -2.527588e+00 2.151611e+00
4.803784e+01 1.913043e-01 -2.117155e-02 6.715069e-01 -2.529297e+00 2.155518e+00
4.858740e+01 1.913043e-01 -2.127224e-02 6.719259e-01 -2.534180e+00 2.158936e+00
4.667041e+01 1.869565e-01 -2.131141e-02 6.723848e-01 -2.539795e+00 2.161377e+00
4.670850e+01 1.869565e-01 -2.137174e-02 6.728003e-01 -2.545898e+00 2.164795e+00
4.666016e+01 1.869565e-01 -2.144455e-02 6.732807e-01 -2.550537e+00 2.167969e+00
4.639819e+01 1.869565e-01 -2.148199e-02 6.737455e-01 -2.555176e+00 2.173096e+00
4.648608e+01 1.869565e-01 -2.156369e-02 6.741725e-01 -2.559326e+00 2.176758e+00
4.603296e+01 1.826087e-01 -2.162609e-02 6.746187e-01 -2.562988e+00 2.180420e+00
4.558276e+01 1.869565e-01 -2.174891e-02 6.750502e-01 -2.567383e+00 2.183838e+00
4.533594e+01 1.869565e-01 -2.181402e-02 6.754983e-01 -2.571045e+00 2.187744e+00
4.540161e+01 1.869565e-01 -2.191461e-02 6.758754e-01 -2.575439e+00 2.190918e+00
4.532788e+01 1.869565e-01 -2.195410e-02 6.763527e-01 -2.580078e+00 2.194580e+00
4.547925e+01 1.913043e-01 -2.202127e-02 6.767180e-01 -2.583740e+00 2.197510e+00
4.531738e+01 1.869565e-01 -2.206836e-02 6.771811e-01 -2.587646e+00 2.201172e+00
4.564722e+01 1.869565e-01 -2.219705e-02 6.775886e-01 -2.590576e+00 2.205078e+00
4.546338e+01 1.869565e-01 -2.231293e-02 6.780325e-01 -2.595215e+00 2.207520e+00
4.607520e+01 1.869565e-01 -2.238585e-02 6.784382e-01 -2.599121e+00 2.211182e+00
4.709180e+01 1.956522e-01 -2.250022e-02 6.788555e-01 -2.604004e+00 2.215820e+00
4.761035e+01 1.956522e-01 -2.258105e-02 6.792554e-01 -2.605957e+00 2.218506e+00
4.698804e+01 1.869565e-01 -2.271658e-02 6.796800e-01 -2.610596e+00 2.222656e+00
4.580225e+01 1.826087e-01 -2.285211e-02 6.800220e-01 -2.614990e+00 2.224121e+00
4.535522e+01 1.826087e-01 -2.289996e-02 6.805190e-01 -2.619629e+00 2.228516e+00
4.610205e+01 1.826087e-01 -2.299457e-02 6.809276e-01 -2.623535e+00 2.232422e+00
4.683643e+01 1.956522e-01 -2.312381e-02 6.813244e-01 -2.626709e+00 2.234131e+00
4.616919e+01 1.913043e-01 -2.323058e-02 6.817597e-01 -2.630615e+00 2.237793e+00
4.563770e+01 1.913043e-01 -2.332888e-02 6.821628e-01 -2.633789e+00 2.241943e+00
4.592480e+01 1.913043e-01 -2.347743e-02 6.825752e-01 -2.637695e+00 2.246582e+00
4.686426e+01 2.000000e-01 -2.355143e-02 6.830182e-01 -2.640137e+00 2.251465e+00
4.679272e+01 2.043478e-01 -2.367556e-02 6.834586e-01 -2.644775e+00 2.254395e+00
4.608301e+01 1.869565e-01 -2.384625e-02 6.838483e-01 -2.648682e+00 2.258057e+00
4.661328e+01 1.913043e-01 -2.396441e-02 6.842369e-01 -2.652100e+00 2.260498e+00
4.604712e+01 1.869565e-01 -2.407313e-02 6.846756e-01 -2.656494e+00 2.264648e+00
4.665625e+01 1.956522e-01 -2.416721e-02 6.851011e-01 -2.659668e+00 2.267090e+00
4.758862e+01 1.956522e-01 -2.433572e-02 6.854620e-01 -2.665283e+00 2.269287e+00
4.742993e+01 2.000000e-01 -2.446658e-02 6.858676e-01 -2.669189e+00 2.272949e+00
4.666675e+01 1.956522e-01 -2.459918e-02 6.863022e-01 -2.673584e+00 2.275635e+00
4.633008e+01 2.000000e-01 -2.467003e-02 6.867057e-01 -2.678223e+00 2.276123e+00
4.689722e+01 2.043478e-01 -2.474523e-02 6.871362e-01 -2.683350e+00 2.279541e+00
4.623853e+01 2.086957e-01 -2.481489e-02 6.875931e-01 -2.689209e+00 2.282227e+00
4.666602e+01 2.043478e-01 -2.491048e-02 6.879457e-01 -2.690674e+00 2.285156e+00
4.620312e+01 2.086957e-01 -2.493848e-02 6.883819e-01 -2.696777e+00 2.288086e+00
4.591479e+01 2.086957e-01 -2.505404e-02 6.887530e-01 -2.700928e+00 2.288818e+00
4.558789e+01 2.043478e-01 -2.515028e-02 6.891544e-01 -2.705811e+00 2.291748e+00
4.593530e+01 2.043478e-01 -2.520551e-02 6.895327e-01 -2.709961e+00 2.294434e+00
4.565479e+01 2.043478e-01 -2.525727e-02 6.899657e-01 -2.715576e+00 2.295654e+00
4.569336e+01 2.043478e-01 -2.532227e-02 6.903730e-01 -2.718018e+00 2.299561e+00
4.487964e+01 2.000000e-01 -2.536437e-02 6.908148e-01 -2.721436e+00 2.301025e+00
4.566113e+01 2.086957e-01 -2.547732e-02 6.911528e-01 -2.725830e+00 2.301270e+00
4.442505e+01 2.086957e-01 -2.557075e-02 6.914871e-01 -2.729492e+00 2.303223e+00
4.549487e+01 2.130435e-01 -2.563140e-02 6.918746e-01 -2.733643e+00 2.306152e+00
4.453418e+01 2.000000e-01 -2.573622e-02 6.922033e-01 -2.739014e+00 2.306152e+00
4.481909e+01 2.043478e-01 -2.569889e-02 6.926891e-01 -2.743164e+00 2.309326e+00
4.413403e+01 2.000000e-01 -2.573687e-02 6.931169e-01 -2.747314e+00 2.311035e+00
4.302588e+01 1.956522e-01 -2.579091e-02 6.935334e-01 -2.751953e+00 2.313965e+00
4.370435e+01 2.000000e-01 -2.577300e-02 6.939241e-01 -2.757812e+00 2.314697e+00
4.443921e+01 2.086957e-01 -2.579948e-02 6.942716e-01 -2.761230e+00 2.317383e+00
4.519263e+01 2.130435e-01 -2.582954e-02 6.947454e-01 -2.764893e+00 2.320312e+00
4.439966e+01 2.086957e-01 -2.583659e-02 6.950791e-01 -2.770264e+00 2.320801e+00
4.474707e+01 2.130435e-01 -2.587652e-02 6.954728e-01 -2.774170e+00 2.323242e+00
4.429761e+01 2.043478e-01 -2.587533e-02 6.958596e-01 -2.777832e+00 2.326172e+00
4.420190e+01 2.086957e-01 -2.595237e-02 6.962040e-01 -2.782959e+00 2.328857e+00
4.424438e+01 2.086957e-01 -2.595204e-02 6.966409e-01 -2.786133e+00 2.331055e+00
4.424438e+01 2.086957e-01 -2.602886e-02 6.969692e-01 -2.790527e+00 2.333740e+00
4.418750e+01 2.086957e-01 -2.607281e-02 6.973958e-01 -2.794434e+00 2.334961e+00
4.490723e+01 2.130435e-01 -2.605935e-02 6.977335e-01 -2.797607e+00 2.337158e+00
4.472144e+01 2.130435e-01 -2.610221e-02 6.980547e-01 -2.801270e+00 2.339600e+00
4.469238e+01 2.130435e-01 -2.615896e-02 6.984235e-01 -2.805420e+00 2.343018e+00
4.502661e+01 2.130435e-01 -2.620475e-02 6.987815e-01 -2.810059e+00 2.343750e+00
4.392041e+01 2.086957e-01 -2.624479e-02 6.991234e-01 -2.813232e+00 2.345703e+00
4.371460e+01 2.086957e-01 -2.627170e-02 6.994786e-01 -2.817627e+00 2.348633e+00
4.374609e+01 2.086957e-01 -2.640126e-02 6.997136e-01 -2.820312e+00 2.351074e+00
4.313599e+01 2.043478e-01 -2.646105e-02 7.000687e-01 -2.823486e+00 2.352539e+00
4.301807e+01 2.043478e-01 -2.655404e-02 7.003662e-01 -2.827393e+00 2.355713e+00
4.324463e+01 2.000000e-01 -2.668934e-02 7.006521e-01 -2.828369e+00 2.357422e+00
4.376953e+01 2.000000e-01 -2.674436e-02 7.009586e-01 -2.831299e+00 2.360596e+00
4.187524e+01 1.956522e-01 -2.681630e-02 7.012128e-01 -2.835693e+00 2.361816e+00
4.138110e+01 1.913043e-01 -2.695996e-02 7.015435e-01 -2.835938e+00 2.364990e+00
4.275464e+01 2.000000e-01 -2.703277e-02 7.018965e-01 -2.839355e+00 2.367920e+00
4.189038e+01 1.869565e-01 -2.719293e-02 7.021004e-01 -2.837646e+00 2.370850e+00
4.171265e+01 1.869565e-01 -2.731293e-02 7.023803e-01 -2.842529e+00 2.373779e+00
4.200122e+01 1.869565e-01 -2.748318e-02 7.026158e-01 -2.843262e+00 2.373047e+00
4.110010e+01 1.826087e-01 -2.772211e-02 7.028097e-01 -2.846680e+00 2.374512e+00
4.097925e+01 1.826087e-01 -2.785699e-02 7.030224e-01 -2.849121e+00 2.374512e+00
4.050586e+01 1.826087e-01 -2.803906e-02 7.032171e-01 -2.851562e+00 2.375732e+00
4.065137e+01 1.869565e-01 -2.816417e-02 7.034951e-01 -2.854248e+00 2.378174e+00
4.056201e+01 1.869565e-01 -2.831576e-02 7.036372e-01 -2.856689e+00 2.378662e+00
4.070703e+01 1.869565e-01 -2.837847e-02 7.039782e-01 -2.857666e+00 2.381104e+00
4.062378e+01 1.913043e-01 -2.847982e-02 7.042097e-01 -2.859863e+00 2.381348e+00
4.063745e+01 1.913043e-01 -2.859082e-02 7.043522e-01 -2.861816e+00 2.383545e+00
4.078101e+01 1.826087e-01 -2.870041e-02 7.045428e-01 -2.864990e+00 2.383789e+00
4.203271e+01 1.869565e-01 -2.877094e-02 7.047661e-01 -2.868896e+00 2.383789e+00
4.217969e+01 1.782609e-01 -2.887207e-02 7.050192e-01 -2.869629e+00 2.384521e+00
4.128638e+01 1.782609e-01 -2.901595e-02 7.051929e-01 -2.871582e+00 2.385498e+00
4.120386e+01 1.782609e-01 -2.915169e-02 7.053594e-01 -2.873535e+00 2.386963e+00
4.241406e+01 1.869565e-01 -2.921506e-02 7.055952e-01 -2.874756e+00 2.387695e+00
4.209302e+01 1.826087e-01 -2.936957e-02 7.057739e-01 -2.877686e+00 2.389648e+00
4.250122e+01 1.913043e-01 -2.946897e-02 7.059571e-01 -2.879639e+00 2.387695e+00
4.350708e+01 1.956522e-01 -2.956196e-02 7.061302e-01 -2.880371e+00 2.388672e+00
4.381030e+01 1.956522e-01 -2.966732e-02 7.062529e-01 -2.881592e+00 2.389404e+00
4.440332e+01 1.956522e-01 -2.978516e-02 7.064374e-01 -2.884521e+00 2.391846e+00
4.418677e+01 1.956522e-01 -2.985449e-02 7.066150e-01 -2.886230e+00 2.390381e+00
4.415625e+01 2.000000e-01 -2.997917e-02 7.067926e-01 -2.888916e+00 2.389648e+00
4.367065e+01 2.000000e-01 -3.013401e-02 7.068572e-01 -2.890381e+00 2.389893e+00
4.286743e+01 1.956522e-01 -3.023025e-02 7.070581e-01 -2.893311e+00 2.390625e+00
4.310815e+01 1.956522e-01 -3.036220e-02 7.072129e-01 -2.896484e+00 2.391602e+00
4.378784e+01 1.956522e-01 -3.049414e-02 7.073471e-01 -2.900391e+00 2.387939e+00
4.267188e+01 1.913043e-01 -3.062207e-02 7.074108e-01 -2.900146e+00 2.388428e+00
4.310742e+01 1.913043e-01 -3.073676e-02 7.076053e-01 -2.902344e+00 2.387451e+00
4.305054e+01 1.913043e-01 -3.081120e-02 7.077283e-01 -2.904541e+00 2.388672e+00
4.296558e+01 1.913043e-01 -3.090864e-02 7.078183e-01 -2.906738e+00 2.386963e+00
4.282324e+01 1.956522e-01 -3.097483e-02 7.080019e-01 -2.908691e+00 2.386719e+00
4.275977e+01 1.956522e-01 -3.104015e-02 7.081038e-01 -2.913086e+00 2.385742e+00
4.295947e+01 1.956522e-01 -3.115072e-02 7.082607e-01 -2.913086e+00 2.385986e+00
4.245117e+01 2.000000e-01 -3.123557e-02 7.083747e-01 -2.917480e+00 2.385986e+00
4.227563e+01 1.956522e-01 -3.128993e-02 7.086071e-01 -2.919678e+00 2.385498e+00
4.244824e+01 1.956522e-01 -3.131684e-02 7.088045e-01 -2.921631e+00 2.385742e+00
4.162256e+01 1.956522e-01 -3.135645e-02 7.089766e-01 -2.922119e+00 2.385742e+00
4.140430e+01 1.956522e-01 -3.139030e-02 7.091469e-01 -2.923828e+00 2.386230e+00
4.131274e+01 1.956522e-01 -3.141536e-02 7.092635e-01 -2.925537e+00 2.385742e+00
4.141895e+01 1.956522e-01 -3.147493e-02 7.094038e-01 -2.927002e+00 2.386475e+00
4.163647e+01 1.913043e-01 -3.148687e-02 7.095633e-01 -2.929443e+00 2.387451e+00
4.154419e+01 1.913043e-01 -3.152170e-02 7.097606e-01 -2.930908e+00 2.386719e+00
4.146167e+01 1.913043e-01 -3.157693e-02 7.099047e-01 -2.932861e+00 2.385986e+00
4.182959e+01 1.913043e-01 -3.163542e-02 7.100489e-01 -2.934814e+00 2.387451e+00
4.167896e+01 1.913043e-01 -3.169477e-02 7.102381e-01 -2.938232e+00 2.386719e+00
4.175586e+01 1.956522e-01 -3.174653e-02 7.103107e-01 -2.938477e+00 2.386719e+00
4.250513e+01 2.000000e-01 -3.179763e-02 7.105440e-01 -2.940430e+00 2.385986e+00
4.299170e+01 1.956522e-01 -3.183073e-02 7.106413e-01 -2.943115e+00 2.385986e+00
4.278540e+01 1.956522e-01 -3.191493e-02 7.107815e-01 -2.944580e+00 2.387451e+00
4.362573e+01 2.000000e-01 -3.200293e-02 7.109090e-01 -2.947021e+00 2.385498e+00
4.259155e+01 2.000000e-01 -3.211990e-02 7.110423e-01 -2.948242e+00 2.385010e+00
4.269312e+01 2.000000e-01 -3.221278e-02 7.111564e-01 -2.950928e+00 2.383301e+00
4.273169e+01 1.956522e-01 -3.228939e-02 7.113038e-01 -2.951660e+00 2.385498e+00
4.273657e+01 1.956522e-01 -3.237891e-02 7.114012e-01 -2.954590e+00 2.383057e+00
4.243066e+01 2.000000e-01 -3.242578e-02 7.116008e-01 -2.955078e+00 2.382812e+00
4.108594e+01 1.956522e-01 -3.250608e-02 7.116980e-01 -2.957275e+00 2.381348e+00
4.127002e+01 2.000000e-01 -3.251508e-02 7.118933e-01 -2.958740e+00 2.384277e+00
4.015747e+01 1.913043e-01 -3.255056e-02 7.120377e-01 -2.959473e+00 2.382812e+00
4.008716e+01 1.913043e-01 -3.262142e-02 7.121952e-01 -2.960693e+00 2.383789e+00
4.027808e+01 1.913043e-01 -3.264431e-02 7.122510e-01 -2.960693e+00 2.384766e+00
4.016138e+01 1.913043e-01 -3.263553e-02 7.124835e-01 -2.960693e+00 2.385010e+00
4.008569e+01 1.869565e-01 -3.265017e-02 7.126389e-01 -2.962402e+00 2.386719e+00
4.037402e+01 1.913043e-01 -3.268392e-02 7.128240e-01 -2.964600e+00 2.384277e+00
3.956226e+01 1.913043e-01 -3.272993e-02 7.129876e-01 -2.965088e+00 2.385010e+00
4.028174e+01 1.913043e-01 -3.274208e-02 7.130468e-01 -2.964844e+00 2.384277e+00
4.196582e+01 1.956522e-01 -3.276888e-02 7.132205e-01 -2.966064e+00 2.384766e+00
4.236938e+01 2.000000e-01 -3.282096e-02 7.133574e-01 -2.968750e+00 2.385742e+00
4.232886e+01 2.043478e-01 -3.286382e-02 7.134599e-01 -2.967773e+00 2.387695e+00
4.272900e+01 2.000000e-01 -3.293674e-02 7.135590e-01 -2.970703e+00 2.384277e+00
4.293018e+01 1.956522e-01 -3.301704e-02 7.136330e-01 -2.969482e+00 2.384521e+00
4.233643e+01 2.000000e-01 -3.310178e-02 7.137352e-01 -2.970215e+00 2.384277e+00
4.241431e+01 2.000000e-01 -3.314323e-02 7.138354e-01 -2.972168e+00 2.383789e+00
4.263281e+01 2.000000e-01 -3.326736e-02 7.139295e-01 -2.972656e+00 2.385010e+00
4.292700e+01 2.000000e-01 -3.331521e-02 7.139878e-01 -2.975098e+00 2.382568e+00
4.208936e+01 2.043478e-01 -3.338791e-02 7.140277e-01 -2.974609e+00 2.382812e+00
4.143311e+01 1.956522e-01 -3.343077e-02 7.141532e-01 -2.976318e+00 2.382568e+00
4.175391e+01 2.000000e-01 -3.353505e-02 7.142117e-01 -2.976807e+00 2.382568e+00
4.147339e+01 1.956522e-01 -3.355360e-02 7.143494e-01 -2.978760e+00 2.381104e+00
4.160400e+01 1.956522e-01 -3.364280e-02 7.143114e-01 -2.979492e+00 2.379395e+00
4.148486e+01 1.913043e-01 -3.367654e-02 7.144748e-01 -2.980225e+00 2.382080e+00
4.145337e+01 1.956522e-01 -3.375282e-02 7.145441e-01 -2.980469e+00 2.380127e+00
4.166528e+01 1.956522e-01 -3.381749e-02 7.146071e-01 -2.981201e+00 2.381104e+00
4.234912e+01 2.000000e-01 -3.384842e-02 7.146842e-01 -2.983154e+00 2.380859e+00
4.220630e+01 2.000000e-01 -3.397667e-02 7.146912e-01 -2.984863e+00 2.378174e+00
4.083130e+01 1.913043e-01 -3.406608e-02 7.147412e-01 -2.983398e+00 2.377930e+00
4.112769e+01 1.956522e-01 -3.415994e-02 7.148032e-01 -2.985596e+00 2.378662e+00
4.218872e+01 1.956522e-01 -3.423676e-02 7.148757e-01 -2.984863e+00 2.377930e+00
4.149805e+01 1.956522e-01 -3.427550e-02 7.149731e-01 -2.984863e+00 2.379883e+00
4.199756e+01 2.000000e-01 -3.439421e-02 7.149092e-01 -2.987061e+00 2.377686e+00
4.254272e+01 1.956522e-01 -3.448318e-02 7.150364e-01 -2.986816e+00 2.378906e+00
4.235034e+01 1.869565e-01 -3.453700e-02 7.150236e-01 -2.987793e+00 2.375732e+00
4.258838e+01 1.956522e-01 -3.458854e-02 7.151212e-01 -2.988281e+00 2.375977e+00
4.300562e+01 2.000000e-01 -3.466656e-02 7.151375e-01 -2.989746e+00 2.375488e+00
4.302832e+01 1.956522e-01 -3.469336e-02 7.152449e-01 -2.989014e+00 2.373779e+00
4.320166e+01 1.956522e-01 -3.471376e-02 7.152851e-01 -2.989502e+00 2.375000e+00
4.310571e+01 1.956522e-01 -3.476508e-02 7.153121e-01 -2.989502e+00 2.372803e+00
4.373901e+01 2.086957e-01 -3.478874e-02 7.154299e-01 -2.992188e+00 2.374512e+00
4.343311e+01 1.956522e-01 -3.479264e-02 7.155078e-01 -2.989990e+00 2.375000e+00
4.330176e+01 1.956522e-01 -3.481858e-02 7.155483e-01 -2.991455e+00 2.374512e+00
4.339844e+01 1.956522e-01 -3.487283e-02 7.155641e-01 -2.991211e+00 2.375244e+00
4.369873e+01 1.956522e-01 -3.489638e-02 7.156287e-01 -2.991455e+00 2.375977e+00
4.466431e+01 1.956522e-01 -3.491168e-02 7.157194e-01 -2.992188e+00 2.375000e+00
4.483203e+01 1.956522e-01 -3.487446e-02 7.158113e-01 -2.991699e+00 2.375000e+00
4.451221e+01 1.913043e-01 -3.486296e-02 7.159195e-01 -2.991455e+00 2.375244e+00
4.466504e+01 1.913043e-01 -3.493663e-02 7.159498e-01 -2.992188e+00 2.375732e+00
4.450903e+01 1.913043e-01 -3.499208e-02 7.160512e-01 -2.992432e+00 2.376465e+00
4.453101e+01 1.913043e-01 -3.499837e-02 7.161403e-01 -2.992432e+00 2.377441e+00
4.478931e+01 1.913043e-01 -3.503407e-02 7.161879e-01 -2.991943e+00 2.376709e+00
4.420947e+01 1.913043e-01 -3.509017e-02 7.162485e-01 -2.992432e+00 2.376709e+00
4.384692e+01 1.913043e-01 -3.509375e-02 7.163287e-01 -2.992188e+00 2.377441e+00
4.430835e+01 1.913043e-01 -3.517166e-02 7.163501e-01 -2.991943e+00 2.375488e+00
4.367773e+01 1.869565e-01 -3.521354e-02 7.164596e-01 -2.992676e+00 2.376465e+00
4.326733e+01 1.869565e-01 -3.521148e-02 7.165748e-01 -2.993164e+00 2.378662e+00
4.358081e+01 1.869565e-01 -3.526790e-02 7.166162e-01 -2.993896e+00 2.375732e+00
4.216992e+01 1.826087e-01 -3.534635e-02 7.166639e-01 -2.993652e+00 2.374756e+00
4.245898e+01 1.826087e-01 -3.542036e-02 7.167014e-01 -2.994141e+00 2.375000e+00
4.406104e+01 1.869565e-01 -3.553928e-02 7.166919e-01 -2.993896e+00 2.375488e+00
4.301489e+01 1.913043e-01 -3.557183e-02 7.167607e-01 -2.990967e+00 2.377197e+00
4.298926e+01 1.913043e-01 -3.561892e-02 7.167960e-01 -2.991455e+00 2.374756e+00
4.313062e+01 1.913043e-01 -3.568240e-02 7.168406e-01 -2.990967e+00 2.374756e+00
4.295483e+01 1.913043e-01 -3.575597e-02 7.168304e-01 -2.991211e+00 2.374756e+00
4.241675e+01 1.913043e-01 -3.585818e-02 7.168198e-01 -2.990723e+00 2.373291e+00
4.224097e+01 1.913043e-01 -3.593414e-02 7.168210e-01 -2.989990e+00 2.373047e+00
4.234644e+01 1.913043e-01 -3.603027e-02 7.167881e-01 -2.991455e+00 2.372070e+00
4.227710e+01 1.913043e-01 -3.607661e-02 7.169085e-01 -2.990479e+00 2.371338e+00
4.248291e+01 1.913043e-01 -3.616515e-02 7.169079e-01 -2.990479e+00 2.371338e+00
4.184985e+01 1.913043e-01 -3.620161e-02 7.169529e-01 -2.989746e+00 2.371338e+00
4.104565e+01 1.869565e-01 -3.625933e-02 7.169353e-01 -2.989258e+00 2.371582e+00
4.054077e+01 1.913043e-01 -3.634549e-02 7.169491e-01 -2.989502e+00 2.371338e+00
4.066650e+01 1.869565e-01 -3.643283e-02 7.170035e-01 -2.991211e+00 2.371094e+00
4.085889e+01 1.956522e-01 -3.647114e-02 7.170570e-01 -2.989990e+00 2.371826e+00
4.072632e+01 1.913043e-01 -3.649891e-02 7.171404e-01 -2.990723e+00 2.369873e+00
4.077417e+01 1.869565e-01 -3.657476e-02 7.171311e-01 -2.989990e+00 2.369385e+00
4.044385e+01 1.826087e-01 -3.655252e-02 7.172500e-01 -2.991211e+00 2.370361e+00
3.975537e+01 1.826087e-01 -3.661773e-02 7.173472e-01 -2.992188e+00 2.370117e+00
3.964062e+01 1.826087e-01 -3.666645e-02 7.173851e-01 -2.991455e+00 2.369385e+00
4.012622e+01 1.869565e-01 -3.674729e-02 7.173983e-01 -2.992676e+00 2.369385e+00
3.912769e+01 1.826087e-01 -3.673210e-02 7.175303e-01 -2.992432e+00 2.371094e+00
3.921729e+01 1.826087e-01 -3.680653e-02 7.175675e-01 -2.993164e+00 2.370361e+00
3.909888e+01 1.826087e-01 -3.682042e-02 7.176898e-01 -2.994629e+00 2.370850e+00
3.913745e+01 1.826087e-01 -3.686892e-02 7.177038e-01 -2.996338e+00 2.370850e+00
3.900391e+01 1.826087e-01 -3.687478e-02 7.178190e-01 -2.996094e+00 2.372314e+00
3.896875e+01 1.826087e-01 -3.692546e-02 7.178671e-01 -2.996338e+00 2.371582e+00
3.914307e+01 1.826087e-01 -3.695475e-02 7.179470e-01 -2.997070e+00 2.372314e+00
3.890479e+01 1.782609e-01 -3.692752e-02 7.180623e-01 -2.996826e+00 2.372314e+00
3.881641e+01 1.782609e-01 -3.697526e-02 7.181058e-01 -2.997559e+00 2.373535e+00
3.868945e+01 1.782609e-01 -3.699729e-02 7.181559e-01 -2.997559e+00 2.372559e+00
3.870581e+01 1.782609e-01 -3.701389e-02 7.182394e-01 -2.998535e+00 2.373291e+00
3.842114e+01 1.782609e-01 -3.704568e-02 7.182802e-01 -2.998779e+00 2.373291e+00
3.841260e+01 1.739130e-01 -3.705566e-02 7.183418e-01 -2.999268e+00 2.373535e+00
3.907129e+01 1.782609e-01 -3.711220e-02 7.183701e-01 -3.000000e+00 2.373291e+00
3.930737e+01 1.782609e-01 -3.714442e-02 7.184168e-01 -2.999512e+00 2.374023e+00
3.996777e+01 1.782609e-01 -3.723090e-02 7.184165e-01 -3.000732e+00 2.372314e+00
3.992017e+01 1.826087e-01 -3.723828e-02 7.185215e-01 -3.000732e+00 2.373291e+00
4.037964e+01 1.782609e-01 -3.729232e-02 7.185550e-01 -3.000977e+00 2.373047e+00
4.074219e+01 1.782609e-01 -3.740007e-02 7.185667e-01 -3.000488e+00 2.372803e+00
4.034399e+01 1.782609e-01 -3.750250e-02 7.185852e-01 -3.001465e+00 2.372070e+00
3.996558e+01 1.739130e-01 -3.753429e-02 7.185882e-01 -3.001709e+00 2.370605e+00
4.026758e+01 1.739130e-01 -3.763184e-02 7.186476e-01 -3.003174e+00 2.371826e+00
3.979224e+01 1.739130e-01 -3.766146e-02 7.187573e-01 -3.004150e+00 2.371338e+00
4.005444e+01 1.739130e-01 -3.771864e-02 7.188002e-01 -3.005371e+00 2.372314e+00
3.985181e+01 1.695652e-01 -3.778309e-02 7.188618e-01 -3.005127e+00 2.371094e+00
3.912036e+01 1.695652e-01 -3.784831e-02 7.188906e-01 -3.006104e+00 2.370850e+00
3.868579e+01 1.695652e-01 -3.784147e-02 7.190143e-01 -3.007568e+00 2.371582e+00
3.842358e+01 1.695652e-01 -3.790278e-02 7.190327e-01 -3.008789e+00 2.371826e+00
3.852368e+01 1.695652e-01 -3.790929e-02 7.190887e-01 -3.008301e+00 2.371826e+00
3.890723e+01 1.695652e-01 -3.794401e-02 7.191426e-01 -3.007324e+00 2.372559e+00
3.777637e+01 1.695652e-01 -3.802355e-02 7.191825e-01 -3.009521e+00 2.371826e+00
3.911060e+01 1.739130e-01 -3.808713e-02 7.192263e-01 -3.009766e+00 2.372314e+00
3.802686e+01 1.695652e-01 -3.813466e-02 7.193428e-01 -3.010010e+00 2.373047e+00
3.835767e+01 1.695652e-01 -3.816884e-02 7.194250e-01 -3.011719e+00 2.371826e+00
3.832129e+01 1.695652e-01 -3.816526e-02 7.194890e-01 -3.010498e+00 2.374023e+00
3.859106e+01 1.695652e-01 -3.824523e-02 7.195192e-01 -3.012451e+00 2.373291e+00
3.838062e+01 1.739130e-01 -3.830512e-02 7.195793e-01 -3.012939e+00 2.371582e+00
3.723486e+01 1.695652e-01 -3.835362e-02 7.196463e-01 -3.013916e+00 2.371338e+00
3.670410e+01 1.652174e-01 -3.836220e-02 7.197131e-01 -3.013672e+00 2.372803e+00
3.709570e+01 1.652174e-01 -3.840560e-02 7.197737e-01 -3.013916e+00 2.373291e+00
3.734399e+01 1.695652e-01 -3.840408e-02 7.198920e-01 -3.013428e+00 2.373779e+00
3.808643e+01 1.739130e-01 -3.843034e-02 7.199776e-01 -3.015137e+00 2.374512e+00
3.796167e+01 1.739130e-01 -3.851063e-02 7.199989e-01 -3.015137e+00 2.374023e+00
3.793604e+01 1.739130e-01 -3.861882e-02 7.199949e-01 -3.015137e+00 2.373047e+00
3.810669e+01 1.695652e-01 -3.865354e-02 7.200833e-01 -3.015381e+00 2.373535e+00
3.796802e+01 1.695652e-01 -3.877789e-02 7.200702e-01 -3.015625e+00 2.372803e+00
3.735571e+01 1.695652e-01 -3.881771e-02 7.201053e-01 -3.015869e+00 2.373291e+00
3.741309e+01 1.695652e-01 -3.887381e-02 7.201467e-01 -3.017334e+00 2.373047e+00
3.736450e+01 1.695652e-01 -3.896821e-02 7.201889e-01 -3.016602e+00 2.371582e+00
3.758350e+01 1.739130e-01 -3.901986e-02 7.202329e-01 -3.016602e+00 2.372070e+00
3.790088e+01 1.739130e-01 -3.907921e-02 7.203119e-01 -3.018555e+00 2.372070e+00
3.826343e+01 1.782609e-01 -3.915267e-02 7.203160e-01 -3.017822e+00 2.372803e+00
3.836499e+01 1.739130e-01 -3.922841e-02 7.203445e-01 -3.018555e+00 2.371338e+00
3.845679e+01 1.782609e-01 -3.924067e-02 7.204473e-01 -3.018799e+00 2.372803e+00
3.843018e+01 1.782609e-01 -3.932031e-02 7.204328e-01 -3.020264e+00 2.370117e+00
3.840234e+01 1.782609e-01 -3.931738e-02 7.205298e-01 -3.019531e+00 2.371826e+00
3.801953e+01 1.782609e-01 -3.937055e-02 7.205467e-01 -3.020752e+00 2.369873e+00
3.824951e+01 1.782609e-01 -3.938357e-02 7.205970e-01 -3.021484e+00 2.369629e+00
3.814575e+01 1.782609e-01 -3.944434e-02 7.206205e-01 -3.021973e+00 2.367920e+00
3.740186e+01 1.782609e-01 -3.951519e-02 7.206197e-01 -3.022705e+00 2.367432e+00
3.950293e+01 1.869565e-01 -3.956630e-02 7.206821e-01 -3.023926e+00 2.368408e+00
3.803149e+01 1.826087e-01 -3.961024e-02 7.207125e-01 -3.024658e+00 2.365723e+00
3.832617e+01 1.826087e-01 -3.961632e-02 7.207662e-01 -3.024170e+00 2.365479e+00
3.781836e+01 1.782609e-01 -3.970139e-02 7.207442e-01 -3.024902e+00 2.364502e+00
3.742920e+01 1.826087e-01 -3.970616e-02 7.208303e-01 -3.026611e+00 2.365234e+00
3.788232e+01 1.826087e-01 -3.974783e-02 7.208331e-01 -3.024658e+00 2.365479e+00
3.863184e+01 1.869565e-01 -3.981576e-02 7.208473e-01 -3.026611e+00 2.364258e+00
3.888818e+01 1.913043e-01 -3.982172e-02 7.209258e-01 -3.026855e+00 2.364014e+00
3.912451e+01 2.000000e-01 -3.987012e-02 7.209215e-01 -3.027100e+00 2.362549e+00
3.918384e+01 2.000000e-01 -3.995367e-02 7.209220e-01 -3.027588e+00 2.360596e+00
3.871167e+01 1.869565e-01 -3.996408e-02 7.210038e-01 -3.028809e+00 2.359863e+00
3.877710e+01 1.869565e-01 -3.999555e-02 7.210183e-01 -3.029053e+00 2.359619e+00
3.842456e+01 1.913043e-01 -4.000911e-02 7.210758e-01 -3.028809e+00 2.359619e+00
3.874561e+01 1.913043e-01 -4.006055e-02 7.211140e-01 -3.029297e+00 2.359375e+00
3.867041e+01 1.869565e-01 -4.008681e-02 7.211216e-01 -3.030762e+00 2.359863e+00
3.836670e+01 1.869565e-01 -4.008084e-02 7.212110e-01 -3.030029e+00 2.359375e+00
3.823120e+01 1.869565e-01 -4.017752e-02 7.211695e-01 -3.030518e+00 2.358154e+00
3.818384e+01 1.869565e-01 -4.021864e-02 7.211945e-01 -3.030762e+00 2.357666e+00
3.772900e+01 1.826087e-01 -4.020790e-02 7.212428e-01 -3.030762e+00 2.357910e+00
3.785596e+01 1.826087e-01 -4.018240e-02 7.213552e-01 -3.032959e+00 2.358887e+00
3.804517e+01 1.869565e-01 -4.022146e-02 7.213029e-01 -3.032715e+00 2.355469e+00
3.803809e+01 1.869565e-01 -4.024783e-02 7.213559e-01 -3.032471e+00 2.355957e+00
3.795044e+01 1.826087e-01 -4.028602e-02 7.213710e-01 -3.032959e+00 2.355225e+00
3.751416e+01 1.826087e-01 -4.028168e-02 7.214552e-01 -3.033691e+00 2.356934e+00
3.809399e+01 1.869565e-01 -4.030838e-02 7.214676e-01 -3.033936e+00 2.354980e+00
3.903906e+01 1.869565e-01 -4.036697e-02 7.214479e-01 -3.034668e+00 2.354736e+00
3.906470e+01 1.869565e-01 -4.034234e-02 7.215307e-01 -3.034424e+00 2.354980e+00
3.824048e+01 1.826087e-01 -4.040093e-02 7.215523e-01 -3.035645e+00 2.355469e+00
3.881812e+01 1.826087e-01 -4.039019e-02 7.216298e-01 -3.035645e+00 2.356445e+00
3.878662e+01 1.869565e-01 -4.041526e-02 7.216590e-01 -3.037354e+00 2.354736e+00
3.891187e+01 1.869565e-01 -4.044998e-02 7.217011e-01 -3.036865e+00 2.355469e+00
3.900220e+01 1.869565e-01 -4.046658e-02 7.217301e-01 -3.037598e+00 2.355469e+00
3.921436e+01 1.869565e-01 -4.045356e-02 7.218063e-01 -3.038086e+00 2.354736e+00
3.946265e+01 1.913043e-01 -4.039800e-02 7.219138e-01 -3.038818e+00 2.354736e+00
3.900928e+01 1.869565e-01 -4.040332e-02 7.220084e-01 -3.039307e+00 2.355469e+00
3.971582e+01 1.913043e-01 -4.045551e-02 7.220184e-01 -3.039551e+00 2.356689e+00
3.962988e+01 1.913043e-01 -4.046658e-02 7.220748e-01 -3.040283e+00 2.356201e+00
3.888623e+01 1.913043e-01 -4.050130e-02 7.220952e-01 -3.041260e+00 2.355957e+00
3.877661e+01 1.913043e-01 -4.048644e-02 7.221666e-01 -3.040527e+00 2.355957e+00
3.857910e+01 1.913043e-01 -4.049935e-02 7.222091e-01 -3.041016e+00 2.355957e+00
3.876562e+01 1.913043e-01 -4.048806e-02 7.223127e-01 -3.043213e+00 2.355957e+00
3.889282e+01 1.913043e-01 -4.049609e-02 7.223230e-01 -3.042236e+00 2.355713e+00
3.878027e+01 1.913043e-01 -4.052941e-02 7.223933e-01 -3.043945e+00 2.356201e+00
3.904907e+01 1.913043e-01 -4.053798e-02 7.224734e-01 -3.043701e+00 2.356201e+00
3.811060e+01 1.826087e-01 -4.056803e-02 7.225333e-01 -3.046143e+00 2.356934e+00
3.943750e+01 1.913043e-01 -4.058757e-02 7.225916e-01 -3.046143e+00 2.354980e+00
3.951880e+01 1.913043e-01 -4.058898e-02 7.226352e-01 -3.046143e+00 2.355713e+00
3.915186e+01 1.913043e-01 -4.058767e-02 7.227067e-01 -3.047852e+00 2.355957e+00
3.870117e+01 1.869565e-01 -4.066178e-02 7.227041e-01 -3.048096e+00 2.356689e+00
3.910498e+01 1.869565e-01 -4.069444e-02 7.227709e-01 -3.048096e+00 2.355957e+00
3.871436e+01 1.913043e-01 -4.067556e-02 7.228400e-01 -3.048340e+00 2.356445e+00
3.923535e+01 1.913043e-01 -4.064334e-02 7.229470e-01 -3.049805e+00 2.355957e+00
3.899976e+01 1.913043e-01 -4.071289e-02 7.229375e-01 -3.050293e+00 2.355957e+00
3.918677e+01 1.913043e-01 -4.066352e-02 7.230742e-01 -3.050537e+00 2.355713e+00
3.879565e+01 1.913043e-01 -4.072374e-02 7.230757e-01 -3.052734e+00 2.355225e+00
3.924878e+01 1.913043e-01 -4.071343e-02 7.231404e-01 -3.052246e+00 2.356445e+00
3.905469e+01 1.913043e-01 -4.074674e-02 7.231767e-01 -3.053711e+00 2.354248e+00
3.902930e+01 1.913043e-01 -4.075087e-02 7.232130e-01 -3.054443e+00 2.354004e+00
3.893530e+01 1.869565e-01 -4.074642e-02 7.233130e-01 -3.054443e+00 2.354980e+00
3.884131e+01 1.869565e-01 -4.076237e-02 7.233509e-01 -3.055420e+00 2.354736e+00
3.865552e+01 1.826087e-01 -4.079329e-02 7.233881e-01 -3.056152e+00 2.355469e+00
3.865845e+01 1.913043e-01 -4.085189e-02 7.233905e-01 -3.058594e+00 2.353760e+00
3.896997e+01 1.913043e-01 -4.086437e-02 7.234238e-01 -3.056885e+00 2.355225e+00
3.877563e+01 1.913043e-01 -4.088021e-02 7.234530e-01 -3.057617e+00 2.353027e+00
3.867798e+01 1.869565e-01 -4.090234e-02 7.234757e-01 -3.058594e+00 2.353027e+00
3.858765e+01 1.869565e-01 -4.088303e-02 7.235523e-01 -3.060059e+00 2.352295e+00
3.879639e+01 1.869565e-01 -4.096126e-02 7.235270e-01 -3.061035e+00 2.351562e+00
3.892578e+01 1.913043e-01 -4.098741e-02 7.235591e-01 -3.060791e+00 2.351074e+00
3.897437e+01 1.913043e-01 -4.104677e-02 7.235936e-01 -3.061768e+00 2.352051e+00
3.891528e+01 1.956522e-01 -4.110525e-02 7.236143e-01 -3.062256e+00 2.351807e+00
3.904492e+01 1.913043e-01 -4.121777e-02 7.235880e-01 -3.063232e+00 2.349609e+00
3.892993e+01 1.869565e-01 -4.128027e-02 7.236218e-01 -3.063965e+00 2.349365e+00
3.888770e+01 1.913043e-01 -4.131250e-02 7.237204e-01 -3.065430e+00 2.348633e+00
3.896362e+01 1.913043e-01 -4.132921e-02 7.237819e-01 -3.065430e+00 2.350830e+00
3.866260e+01 1.913043e-01 -4.147656e-02 7.237492e-01 -3.066406e+00 2.348145e+00
3.859399e+01 1.913043e-01 -4.151335e-02 7.237472e-01 -3.067139e+00 2.347656e+00
3.834644e+01 1.913043e-01 -4.152365e-02 7.238129e-01 -3.068115e+00 2.347900e+00
3.877197e+01 1.913043e-01 -4.159755e-02 7.238037e-01 -3.068604e+00 2.346680e+00
3.867163e+01 1.913043e-01 -4.160818e-02 7.238730e-01 -3.069336e+00 2.347900e+00
3.876562e+01 1.956522e-01 -4.164214e-02 7.239020e-01 -3.071045e+00 2.347412e+00
3.888062e+01 2.000000e-01 -4.172222e-02 7.238718e-01 -3.071289e+00 2.347656e+00
3.826099e+01 2.000000e-01 -4.178342e-02 7.238670e-01 -3.072754e+00 2.344238e+00
3.822217e+01 2.000000e-01 -4.176866e-02 7.239462e-01 -3.073730e+00 2.344238e+00
3.834692e+01 2.000000e-01 -4.179384e-02 7.239640e-01 -3.075195e+00 2.343506e+00
3.826367e+01 1.956522e-01 -4.180892e-02 7.240114e-01 -3.075684e+00 2.343750e+00
3.910400e+01 1.913043e-01 -4.180979e-02 7.240419e-01 -3.076416e+00 2.343262e+00
3.907031e+01 1.913043e-01 -4.185927e-02 7.240924e-01 -3.077393e+00 2.343506e+00
3.913794e+01 1.913043e-01 -4.189931e-02 7.241037e-01 -3.078369e+00 2.343262e+00
3.897266e+01 1.913043e-01 -4.189355e-02 7.241567e-01 -3.078857e+00 2.343018e+00
3.912744e+01 1.956522e-01 -4.191580e-02 7.242432e-01 -3.080322e+00 2.343018e+00
3.918286e+01 2.000000e-01 -4.197190e-02 7.242321e-01 -3.081787e+00 2.341309e+00
3.895386e+01 2.000000e-01 -4.202214e-02 7.242941e-01 -3.082520e+00 2.341797e+00
3.906348e+01 1.956522e-01 -4.205935e-02 7.243148e-01 -3.084229e+00 2.340088e+00
3.935986e+01 1.956522e-01 -4.210362e-02 7.243431e-01 -3.084717e+00 2.340576e+00
3.917163e+01 1.913043e-01 -4.212977e-02 7.244368e-01 -3.085693e+00 2.340820e+00
3.927856e+01 1.913043e-01 -4.215538e-02 7.244756e-01 -3.085938e+00 2.340332e+00
3.914600e+01 1.956522e-01 -4.216851e-02 7.245836e-01 -3.088379e+00 2.340332e+00
3.955591e+01 1.956522e-01 -4.223785e-02 7.246433e-01 -3.088623e+00 2.340332e+00
3.966235e+01 1.956522e-01 -4.223123e-02 7.247514e-01 -3.088867e+00 2.341064e+00
3.924341e+01 1.956522e-01 -4.225803e-02 7.248355e-01 -3.089844e+00 2.343018e+00
3.942603e+01 1.956522e-01 -4.229188e-02 7.248689e-01 -3.090820e+00 2.340576e+00
3.943115e+01 1.956522e-01 -4.231695e-02 7.248775e-01 -3.092529e+00 2.339844e+00
3.923682e+01 1.956522e-01 -4.230089e-02 7.250040e-01 -3.092041e+00 2.341064e+00
3.914624e+01 1.956522e-01 -4.231445e-02 7.250616e-01 -3.092529e+00 2.341064e+00
3.950391e+01 1.956522e-01 -4.234570e-02 7.250852e-01 -3.093506e+00 2.340576e+00
3.911060e+01 1.956522e-01 -4.237891e-02 7.251341e-01 -3.093750e+00 2.340332e+00
3.899268e+01 1.913043e-01 -4.238270e-02 7.252089e-01 -3.095215e+00 2.341064e+00
3.873145e+01 1.913043e-01 -4.239008e-02 7.252788e-01 -3.095703e+00 2.340576e+00
3.904736e+01 1.913043e-01 -4.239920e-02 7.253488e-01 -3.096680e+00 2.340820e+00
3.908008e+01 1.913043e-01 -4.244444e-02 7.253603e-01 -3.097168e+00 2.340820e+00
3.905762e+01 1.913043e-01 -4.246994e-02 7.254919e-01 -3.097656e+00 2.340332e+00
3.904810e+01 1.913043e-01 -4.245790e-02 7.255945e-01 -3.099365e+00 2.341064e+00
3.903418e+01 1.913043e-01 -4.250586e-02 7.256227e-01 -3.098633e+00 2.340576e+00
3.928882e+01 1.913043e-01 -4.253809e-02 7.257126e-01 -3.099121e+00 2.342041e+00
3.918237e+01 1.913043e-01 -4.254991e-02 7.257985e-01 -3.100342e+00 2.340576e+00
3.960791e+01 1.956522e-01 -4.258116e-02 7.258500e-01 -3.100586e+00 2.342529e+00
3.958301e+01 1.956522e-01 -4.261947e-02 7.258984e-01 -3.102051e+00 2.341309e+00
3.961377e+01 2.000000e-01 -4.266992e-02 7.259810e-01 -3.102051e+00 2.341797e+00
3.979517e+01 2.043478e-01 -4.271365e-02 7.260258e-01 -3.103271e+00 2.341309e+00
4.015894e+01 2.043478e-01 -4.272342e-02 7.260837e-01 -3.104492e+00 2.340576e+00
3.988745e+01 2.043478e-01 -4.275781e-02 7.261722e-01 -3.106201e+00 2.340088e+00
3.986401e+01 2.043478e-01 -4.281543e-02 7.262141e-01 -3.105469e+00 2.339844e+00
3.975977e+01 2.000000e-01 -4.282172e-02 7.262626e-01 -3.105957e+00 2.339111e+00
3.976904e+01 2.000000e-01 -4.284766e-02 7.263242e-01 -3.107178e+00 2.340088e+00
3.977368e+01 2.000000e-01 -4.288661e-02 7.264140e-01 -3.109375e+00 2.339111e+00
3.986401e+01 2.000000e-01 -4.294141e-02 7.264042e-01 -3.109131e+00 2.338623e+00
4.034644e+01 2.000000e-01 -4.295909e-02 7.264917e-01 -3.109863e+00 2.338867e+00
4.024878e+01 2.043478e-01 -4.297732e-02 7.265840e-01 -3.111816e+00 2.339355e+00
4.039038e+01 2.043478e-01 -4.299392e-02 7.266511e-01 -3.112305e+00 2.337891e+00
4.027246e+01 2.000000e-01 -4.292470e-02 7.268135e-01 -3.113770e+00 2.338867e+00
4.002710e+01 2.000000e-01 -4.299013e-02 7.268012e-01 -3.115234e+00 2.338867e+00
4.017236e+01 2.043478e-01 -4.305545e-02 7.268198e-01 -3.114746e+00 2.338623e+00
4.046997e+01 2.043478e-01 -4.303071e-02 7.269323e-01 -3.115967e+00 2.339600e+00
4.061230e+01 2.043478e-01 -4.309277e-02 7.269540e-01 -3.117432e+00 2.338623e+00
4.051270e+01 2.043478e-01 -4.310069e-02 7.269993e-01 -3.118652e+00 2.337158e+00
4.002710e+01 2.000000e-01 -4.311491e-02 7.270766e-01 -3.118652e+00 2.337891e+00
4.020435e+01 2.043478e-01 -4.318490e-02 7.270849e-01 -3.119629e+00 2.336670e+00
4.021631e+01 2.000000e-01 -4.315744e-02 7.271738e-01 -3.121338e+00 2.337402e+00
4.020605e+01 2.000000e-01 -4.319184e-02 7.272343e-01 -3.122070e+00 2.336914e+00
4.023267e+01 2.000000e-01 -4.317871e-02 7.272900e-01 -3.122559e+00 2.338379e+00
4.026489e+01 2.000000e-01 -4.322222e-02 7.273233e-01 -3.122803e+00 2.336914e+00
4.029419e+01 2.000000e-01 -4.321398e-02 7.274170e-01 -3.124756e+00 2.337158e+00
4.064819e+01 2.043478e-01 -4.326595e-02 7.274282e-01 -3.125244e+00 2.337891e+00
4.055444e+01 2.043478e-01 -4.326139e-02 7.274865e-01 -3.126221e+00 2.337646e+00
4.016846e+01 2.000000e-01 -4.327756e-02 7.275971e-01 -3.126953e+00 2.337891e+00
4.000879e+01 2.000000e-01 -4.332823e-02 7.275926e-01 -3.127197e+00 2.337646e+00
3.980957e+01 1.956522e-01 -4.337457e-02 7.275698e-01 -3.128174e+00 2.336670e+00
4.021631e+01 1.956522e-01 -4.340039e-02 7.276240e-01 -3.129150e+00 2.337646e+00
3.997632e+01 2.000000e-01 -4.339605e-02 7.277526e-01 -3.130127e+00 2.338623e+00
4.014429e+01 1.956522e-01 -4.338683e-02 7.278248e-01 -3.130371e+00 2.338135e+00
4.025928e+01 2.000000e-01 -4.341862e-02 7.278817e-01 -3.131836e+00 2.338623e+00
4.036304e+01 1.956522e-01 -4.341385e-02 7.279944e-01 -3.132568e+00 2.339844e+00
4.023584e+01 2.000000e-01 -4.344759e-02 7.280436e-01 -3.132812e+00 2.338867e+00
4.086646e+01 1.956522e-01 -4.345573e-02 7.281158e-01 -3.133301e+00 2.340088e+00
4.079126e+01 2.000000e-01 -4.346343e-02 7.281719e-01 -3.134277e+00 2.341064e+00
4.100415e+01 2.000000e-01 -4.352181e-02 7.281917e-01 -3.135254e+00 2.339600e+00
4.091235e+01 2.000000e-01 -4.350857e-02 7.283112e-01 -3.135986e+00 2.340332e+00
4.134058e+01 2.000000e-01 -4.353613e-02 7.283633e-01 -3.136475e+00 2.342041e+00
4.138330e+01 2.000000e-01 -4.355046e-02 7.284310e-01 -3.137451e+00 2.341309e+00
4.145142e+01 2.000000e-01 -4.349957e-02 7.285683e-01 -3.138184e+00 2.343506e+00
4.099707e+01 1.956522e-01 -4.352246e-02 7.286025e-01 -3.139404e+00 2.344482e+00
4.110352e+01 2.000000e-01 -4.357444e-02 7.286175e-01 -3.139648e+00 2.342773e+00
4.104956e+01 1.956522e-01 -4.354134e-02 7.287399e-01 -3.140381e+00 2.343750e+00
4.062109e+01 2.000000e-01 -4.355892e-02 7.288165e-01 -3.140625e+00 2.344482e+00
4.102002e+01 2.000000e-01 -4.355252e-02 7.288940e-01 -3.142334e+00 2.345215e+00
4.069873e+01 2.000000e-01 -4.355632e-02 7.289945e-01 -3.142090e+00 2.345703e+00
4.037720e+01 1.956522e-01 -4.357617e-02 7.289963e-01 -3.143311e+00 2.344971e+00
4.066797e+01 1.956522e-01 -4.358724e-02 7.291135e-01 -3.144287e+00 2.346191e+00
4.078027e+01 1.956522e-01 -4.362750e-02 7.291460e-01 -3.144043e+00 2.345947e+00
4.047510e+01 2.000000e-01 -4.367415e-02 7.291797e-01 -3.145752e+00 2.346191e+00
4.078589e+01 2.000000e-01 -4.368359e-02 7.292354e-01 -3.146729e+00 2.347656e+00
4.108374e+01 2.000000e-01 -4.370931e-02 7.293455e-01 -3.148193e+00 2.346680e+00
4.125781e+01 2.000000e-01 -4.375998e-02 7.293706e-01 -3.150391e+00 2.344727e+00
4.124634e+01 2.000000e-01 -4.377962e-02 7.293871e-01 -3.148926e+00 2.345703e+00
4.131226e+01 1.956522e-01 -4.380263e-02 7.294432e-01 -3.149902e+00 2.345215e+00
4.130615e+01 2.000000e-01 -4.386144e-02 7.295013e-01 -3.150146e+00 2.346191e+00
4.121606e+01 2.000000e-01 -4.389030e-02 7.295526e-01 -3.151367e+00 2.345215e+00
4.091479e+01 2.000000e-01 -4.394531e-02 7.295791e-01 -3.151367e+00 2.343750e+00
4.094702e+01 1.913043e-01 -4.390028e-02 7.296971e-01 -3.153076e+00 2.344727e+00
