9.570435e-02 1.681188e+00 -5.959473e+00 6.070801e+00 1.320642e-03 1.758839e-02 -1.340332e-01 1.877441e-01
-3.000122e-01 2.358939e+00 -8.842285e+00 7.451904e+00 3.349025e-04 1.583293e-02 -1.237793e-01 1.503906e-01
-5.375512e-01 2.702142e+00 -1.004834e+01 7.594238e+00 -4.674506e-05 1.519516e-02 -1.352539e-01 1.352539e-01
-7.235319e-01 2.865197e+00 -1.088672e+01 7.271240e+00 -9.424633e-05 1.461640e-02 -1.560059e-01 1.462402e-01
-8.777714e-01 2.924113e+00 -1.181543e+01 6.971436e+00 -1.015501e-04 1.397756e-02 -1.560059e-01 1.562500e-01
-1.019782e+00 2.961832e+00 -1.199707e+01 7.110840e+00 -1.210036e-04 1.351943e-02 -1.735840e-01 1.811523e-01
-1.071388e+00 3.035686e+00 -1.228613e+01 8.088135e+00 -1.806044e-04 1.310970e-02 -1.811523e-01 1.936035e-01
-1.009618e+00 3.184802e+00 -1.221729e+01 9.148438e+00 -2.499406e-04 1.284063e-02 -1.811523e-01 1.936035e-01
-9.073331e-01 3.388824e+00 -1.208057e+01 1.013989e+01 -2.886916e-04 1.270576e-02 -2.119141e-01 1.877441e-01
-8.127352e-01 3.556249e+00 -1.225879e+01 1.069678e+01 -2.799275e-04 1.265464e-02 -2.119141e-01 1.811523e-01
-7.720335e-01 3.669708e+00 -1.270947e+01 1.091895e+01 -2.497672e-04 1.240868e-02 -2.092285e-01 1.811523e-01
-7.831856e-01 3.778093e+00 -1.373633e+01 1.152466e+01 -2.315468e-04 1.218056e-02 -2.092285e-01 1.877441e-01
-7.859425e-01 3.827434e+00 -1.432422e+01 1.209644e+01 -1.746899e-04 1.208056e-02 -2.092285e-01 1.857910e-01
-8.196887e-01 3.909103e+00 -1.560767e+01 1.221411e+01 -1.413400e-04 1.190457e-02 -2.092285e-01 1.857910e-01
-8.545135e-01 4.012310e+00 -1.591675e+01 1.252026e+01 -1.615463e-04 1.175094e-02 -2.092285e-01 1.857910e-01
-8.233543e-01 4.052520e+00 -1.632617e+01 1.272485e+01 -1.478927e-04 1.178201e-02 -2.092285e-01 1.857910e-01
-7.814320e-01 4.102742e+00 -1.698730e+01 1.289966e+01 -1.278651e-04 1.175367e-02 -2.092285e-01 1.857910e-01
-7.924488e-01 4.206883e+00 -1.726001e+01 1.324683e+01 -1.339703e-04 1.161757e-02 -2.092285e-01 1.857910e-01
-7.584337e-01 4.195481e+00 -1.711133e+01 1.336743e+01 -8.322046e-05 1.157182e-02 -2.092285e-01 1.857910e-01
-7.496519e-01 4.242154e+00 -1.729541e+01 1.356665e+01 -6.840829e-05 1.151091e-02 -2.092285e-01 1.857910e-01
-7.725377e-01 4.350192e+00 -1.785059e+01 1.374609e+01 -9.418389e-05 1.142963e-02 -2.062988e-01 1.877441e-01
-7.454783e-01 4.405784e+00 -1.829541e+01 1.388184e+01 -7.938039e-05 1.144419e-02 -2.092285e-01 1.877441e-01
-7.142760e-01 4.402444e+00 -1.825928e+01 1.408301e+01 -5.020874e-05 1.142717e-02 -2.092285e-01 1.857910e-01
-7.279127e-01 4.420281e+00 -1.847876e+01 1.411108e+01 -4.786898e-05 1.144841e-02 -2.043457e-01 1.857910e-01
-7.600598e-01 4.486632e+00 -1.884814e+01 1.426514e+01 -5.424133e-05 1.133260e-02 -2.043457e-01 1.811523e-01
-7.621645e-01 4.510445e+00 -1.906763e+01 1.439819e+01 -4.356408e-05 1.132656e-02 -2.043457e-01 1.811523e-01
-7.660932e-01 4.549411e+00 -1.963452e+01 1.449341e+01 -8.007937e-06 1.132262e-02 -2.006836e-01 1.811523e-01
-7.750163e-01 4.602745e+00 -1.983423e+01 1.454956e+01 -1.995827e-05 1.129525e-02 -2.006836e-01 1.877441e-01
-8.132732e-01 4.702182e+00 -2.072339e+01 1.466626e+01 -3.367080e-05 1.130781e-02 -2.006836e-01 1.811523e-01
-8.326879e-01 4.730266e+00 -2.104248e+01 1.476562e+01 -3.275675e-05 1.113479e-02 -2.006836e-01 1.811523e-01
-8.365549e-01 4.723408e+00 -2.114185e+01 1.480688e+01 -1.786479e-06 1.112237e-02 -2.006836e-01 1.857910e-01
-8.713455e-01 4.779470e+00 -2.125244e+01 1.486938e+01 -6.509376e-06 1.107790e-02 -1.909180e-01 1.857910e-01
-8.997270e-01 4.873498e+00 -2.158765e+01 1.494263e+01 -2.342022e-05 1.102241e-02 -1.909180e-01 1.811523e-01
-8.785948e-01 4.886705e+00 -2.201465e+01 1.502954e+01 -1.172486e-06 1.104003e-02 -1.909180e-01 1.857910e-01
-8.672108e-01 4.899049e+00 -2.206470e+01 1.504883e+01 2.355031e-05 1.099489e-02 -1.909180e-01 1.857910e-01
-9.697738e-01 5.057091e+00 -2.335620e+01 1.512866e+01 -2.498123e-05 1.101197e-02 -1.877441e-01 1.811523e-01
-1.004178e+00 5.015869e+00 -2.300146e+01 1.514209e+01 7.730426e-06 1.095704e-02 -1.909180e-01 1.857910e-01
-1.043221e+00 5.081042e+00 -2.314062e+01 1.521875e+01 7.680127e-06 1.075375e-02 -1.877441e-01 1.857910e-01
-1.103800e+00 5.233361e+00 -2.419580e+01 1.523535e+01 -3.906840e-05 1.072442e-02 -1.877441e-01 1.811523e-01
-1.047051e+00 5.225993e+00 -2.394092e+01 1.527710e+01 2.919073e-06 1.079099e-02 -1.877441e-01 1.877441e-01
-1.061553e+00 5.254186e+00 -2.410181e+01 1.530884e+01 2.875712e-05 1.072967e-02 -1.877441e-01 1.877441e-01
-1.193858e+00 5.393910e+00 -2.457568e+01 1.535352e+01 -2.444008e-05 1.058873e-02 -1.877441e-01 1.811523e-01
-1.168466e+00 5.459373e+00 -2.509521e+01 1.541626e+01 -3.447558e-05 1.060724e-02 -1.877441e-01 1.811523e-01
-1.118861e+00 5.406269e+00 -2.457593e+01 1.545557e+01 1.964260e-05 1.063642e-02 -1.909180e-01 1.877441e-01
-1.230929e+00 5.523283e+00 -2.503638e+01 1.549683e+01 -9.763197e-06 1.047770e-02 -1.877441e-01 1.877441e-01
-1.264981e+00 5.638854e+00 -2.622827e+01 1.561963e+01 -3.423276e-05 1.042236e-02 -1.877441e-01 1.811523e-01
-1.237689e+00 5.638970e+00 -2.609351e+01 1.566187e+01 -1.722305e-05 1.040560e-02 -1.877441e-01 1.811523e-01
-1.195413e+00 5.601798e+00 -2.582300e+01 1.569458e+01 3.664538e-05 1.053439e-02 -1.933594e-01 1.877441e-01
-1.282465e+00 5.761833e+00 -2.675073e+01 1.577051e+01 -1.167456e-05 1.048702e-02 -1.933594e-01 1.811523e-01
-1.382059e+00 5.859057e+00 -2.714966e+01 1.585840e+01 -5.258320e-05 1.035085e-02 -1.933594e-01 1.877441e-01
-1.345090e+00 5.787617e+00 -2.653955e+01 1.590308e+01 2.761238e-06 1.026423e-02 -1.933594e-01 1.877441e-01
-1.338161e+00 5.856510e+00 -2.688794e+01 1.597021e+01 1.206654e-05 1.031652e-02 -1.933594e-01 1.877441e-01
-1.412981e+00 5.948965e+00 -2.750635e+01 1.605151e+01 -2.964342e-05 1.027441e-02 -1.933594e-01 1.877441e-01
-1.411133e+00 5.950116e+00 -2.735815e+01 1.616040e+01 -8.706919e-06 1.017786e-02 -1.933594e-01 1.877441e-01
-1.417490e+00 6.035869e+00 -2.780737e+01 1.657275e+01 -2.199971e-05 1.012662e-02 -1.933594e-01 1.877441e-01
-1.431109e+00 6.068968e+00 -2.794116e+01 1.682202e+01 -9.112780e-06 1.015345e-02 -1.933594e-01 1.877441e-01
-1.440515e+00 6.097934e+00 -2.793677e+01 1.757007e+01 -1.040147e-05 1.014867e-02 -1.933594e-01 1.877441e-01
-1.441579e+00 6.170598e+00 -2.828906e+01 1.767114e+01 -1.229549e-05 1.012733e-02 -1.933594e-01 1.877441e-01
-1.399159e+00 6.204063e+00 -2.854663e+01 1.817017e+01 1.798447e-05 1.008810e-02 -1.933594e-01 1.877441e-01
-1.461450e+00 6.299993e+00 -2.921704e+01 1.876416e+01 -1.364315e-05 1.011519e-02 -1.933594e-01 1.877441e-01
-1.526190e+00 6.302744e+00 -2.900513e+01 1.857227e+01 -1.888638e-05 1.000473e-02 -1.933594e-01 1.877441e-01
-1.549423e+00 6.300081e+00 -2.876172e+01 1.855884e+01 -1.136929e-05 9.987656e-03 -1.933594e-01 1.877441e-01
-1.528390e+00 6.425846e+00 -2.925415e+01 1.905493e+01 -1.594303e-05 9.991368e-03 -1.933594e-01 1.877441e-01
-1.471573e+00 6.506627e+00 -2.998096e+01 1.952563e+01 -1.467341e-06 1.005189e-02 -1.933594e-01 1.877441e-01
-1.537170e+00 6.506428e+00 -3.002222e+01 1.983447e+01 4.127982e-06 9.940559e-03 -1.933594e-01 1.877441e-01
-1.642027e+00 6.555642e+00 -3.017847e+01 1.973315e+01 -1.908064e-05 9.841816e-03 -1.933594e-01 1.877441e-01
-1.567629e+00 6.617317e+00 -3.071216e+01 1.995435e+01 5.123554e-06 9.930103e-03 -1.933594e-01 1.877441e-01
-1.507354e+00 6.666496e+00 -3.086133e+01 2.066748e+01 2.288775e-05 9.904867e-03 -1.933594e-01 1.877441e-01
-1.602583e+00 6.719502e+00 -3.116626e+01 2.094849e+01 -1.562736e-06 9.777936e-03 -1.933594e-01 1.877441e-01
-1.666370e+00 6.791921e+00 -3.163818e+01 2.090356e+01 -2.535934e-05 9.808736e-03 -1.933594e-01 1.877441e-01
-1.645131e+00 6.836617e+00 -3.198828e+01 2.108618e+01 3.434203e-07 9.754026e-03 -1.933594e-01 1.877441e-01
-1.638739e+00 6.877379e+00 -3.217163e+01 2.133911e+01 1.569674e-05 9.792817e-03 -1.933594e-01 1.877441e-01
-1.678661e+00 6.916623e+00 -3.220508e+01 2.183740e+01 1.123921e-06 9.753724e-03 -1.982422e-01 1.877441e-01
-1.729287e+00 6.981060e+00 -3.237036e+01 2.189502e+01 -1.889679e-05 9.698713e-03 -1.982422e-01 1.877441e-01
-1.719658e+00 7.005674e+00 -3.247046e+01 2.225220e+01 -1.290254e-05 9.672272e-03 -1.982422e-01 1.877441e-01
-1.675285e+00 7.051323e+00 -3.269556e+01 2.270386e+01 2.237435e-06 9.670758e-03 -1.982422e-01 1.877441e-01
-1.748104e+00 7.120600e+00 -3.293799e+01 2.277734e+01 -1.554064e-05 9.708251e-03 -1.982422e-01 1.877441e-01
-1.798357e+00 7.156297e+00 -3.319434e+01 2.276074e+01 -8.982696e-06 9.672756e-03 -1.982422e-01 1.877441e-01
-1.762146e+00 7.237091e+00 -3.384131e+01 2.320264e+01 -9.973065e-07 9.739135e-03 -1.982422e-01 1.877441e-01
-1.766766e+00 7.257292e+00 -3.365454e+01 2.344971e+01 -2.865305e-06 9.733725e-03 -1.982422e-01 1.877441e-01
-1.789558e+00 7.241724e+00 -3.345972e+01 2.339722e+01 -1.137797e-06 9.613686e-03 -1.982422e-01 1.936035e-01
-1.795282e+00 7.320233e+00 -3.349829e+01 2.360376e+01 -1.943620e-05 9.660570e-03 -1.982422e-01 1.877441e-01
-1.786377e+00 7.335721e+00 -3.392725e+01 2.369116e+01 1.173179e-05 9.682064e-03 -1.982422e-01 1.877441e-01
-1.871897e+00 7.421087e+00 -3.428857e+01 2.410498e+01 -1.748322e-06 9.666669e-03 -1.982422e-01 1.877441e-01
-1.924440e+00 7.501855e+00 -3.459741e+01 2.471606e+01 -3.927306e-05 9.659766e-03 -1.982422e-01 1.877441e-01
-1.828935e+00 7.433627e+00 -3.391064e+01 2.489648e+01 3.330136e-06 9.610607e-03 -1.982422e-01 1.936035e-01
-1.864655e+00 7.515294e+00 -3.487476e+01 2.499976e+01 -2.454241e-06 9.583846e-03 -1.982422e-01 1.936035e-01
-1.938379e+00 7.641463e+00 -3.499023e+01 2.530640e+01 -1.966341e-05 9.608401e-03 -1.982422e-01 1.936035e-01
-1.881012e+00 7.589201e+00 -3.452612e+01 2.555200e+01 9.740649e-06 9.568443e-03 -1.982422e-01 1.936035e-01
-1.861590e+00 7.554740e+00 -3.433105e+01 2.573950e+01 2.689952e-05 9.491634e-03 -1.982422e-01 1.936035e-01
-1.913110e+00 7.660255e+00 -3.503564e+01 2.590601e+01 -1.124788e-05 9.521297e-03 -1.982422e-01 1.936035e-01
-1.953351e+00 7.732915e+00 -3.517700e+01 2.598389e+01 -2.328147e-05 9.551258e-03 -1.982422e-01 1.936035e-01
-1.969568e+00 7.713174e+00 -3.522314e+01 2.596216e+01 -6.500704e-06 9.490647e-03 -1.982422e-01 1.936035e-01
-1.936795e+00 7.738404e+00 -3.515161e+01 2.659009e+01 -5.617871e-06 9.546994e-03 -1.982422e-01 1.936035e-01
-1.880380e+00 7.827416e+00 -3.571582e+01 2.684546e+01 -6.387965e-06 9.603005e-03 -1.982422e-01 1.936035e-01
-1.942235e+00 7.826060e+00 -3.569238e+01 2.672583e+01 7.862244e-06 9.495126e-03 -1.982422e-01 1.936035e-01
-2.014231e+00 7.835814e+00 -3.581226e+01 2.667871e+01 4.865121e-06 9.428666e-03 -1.982422e-01 1.936035e-01
-2.009168e+00 7.906173e+00 -3.587061e+01 2.709546e+01 -1.413400e-05 9.460203e-03 -1.982422e-01 1.936035e-01
-1.999264e+00 7.943213e+00 -3.637427e+01 2.735352e+01 -1.164160e-05 9.503939e-03 -1.982422e-01 1.936035e-01
-1.973736e+00 7.973154e+00 -3.628369e+01 2.761255e+01 1.307252e-05 9.488130e-03 -1.982422e-01 1.936035e-01
-2.023478e+00 7.985331e+00 -3.617456e+01 2.751392e+01 1.069980e-05 9.429188e-03 -1.982422e-01 1.936035e-01
-2.095265e+00 8.047531e+00 -3.643286e+01 2.785913e+01 -9.305303e-06 9.478853e-03 -1.982422e-01 1.936035e-01
-2.091514e+00 8.101562e+00 -3.672119e+01 2.808350e+01 -8.849144e-06 9.356096e-03 -1.982422e-01 1.936035e-01
-2.021470e+00 8.132067e+00 -3.686914e+01 2.867236e+01 2.566980e-06 9.473988e-03 -1.982422e-01 1.936035e-01
-2.008330e+00 8.098560e+00 -3.655103e+01 2.879688e+01 2.663589e-05 9.467505e-03 -1.982422e-01 1.936035e-01
-2.120480e+00 8.211208e+00 -3.746045e+01 2.896680e+01 -1.754045e-05 9.410400e-03 -1.982422e-01 1.936035e-01
-2.093043e+00 8.244661e+00 -3.751880e+01 2.965112e+01 -7.567388e-06 9.373509e-03 -1.982422e-01 1.936035e-01
-2.087010e+00 8.196223e+00 -3.692310e+01 2.972339e+01 2.586753e-05 9.429141e-03 -1.982422e-01 1.936035e-01
-2.135283e+00 8.325584e+00 -3.763550e+01 3.042285e+01 -1.603669e-05 9.406863e-03 -1.982422e-01 1.936035e-01
-2.090203e+00 8.383127e+00 -3.800732e+01 3.056836e+01 -8.826596e-06 9.491898e-03 -1.982422e-01 1.936035e-01
-2.148500e+00 8.381460e+00 -3.777246e+01 3.078589e+01 -1.606964e-05 9.378667e-03 -1.982422e-01 1.936035e-01
-2.125825e+00 8.370298e+00 -3.736792e+01 3.087109e+01 1.925235e-07 9.352968e-03 -1.982422e-01 1.936035e-01
-2.099893e+00 8.434158e+00 -3.774609e+01 3.122949e+01 1.861928e-05 9.393323e-03 -1.982422e-01 1.936035e-01
-2.163425e+00 8.485883e+00 -3.795581e+01 3.177246e+01 -1.789428e-05 9.368375e-03 -1.982422e-01 1.936035e-01
-2.126489e+00 8.469488e+00 -3.809253e+01 3.183545e+01 1.533597e-05 9.347812e-03 -1.982422e-01 1.936035e-01
-2.137655e+00 8.545786e+00 -3.852759e+01 3.207617e+01 -1.283317e-05 9.345091e-03 -1.982422e-01 1.936035e-01
-2.194109e+00 8.616011e+00 -3.874951e+01 3.266821e+01 -2.652835e-05 9.340807e-03 -1.982422e-01 1.984863e-01
-2.203730e+00 8.583299e+00 -3.873730e+01 3.276294e+01 9.383353e-06 9.209318e-03 -1.982422e-01 1.984863e-01
-2.149182e+00 8.641673e+00 -3.906592e+01 3.343628e+01 3.788030e-06 9.269333e-03 -2.026367e-01 1.984863e-01
-2.157879e+00 8.736717e+00 -3.926514e+01 3.365454e+01 2.289469e-06 9.383501e-03 -2.026367e-01 1.984863e-01
-2.204713e+00 8.718657e+00 -3.920337e+01 3.380762e+01 7.945497e-06 9.259589e-03 -2.026367e-01 1.984863e-01
-2.282824e+00 8.728419e+00 -3.979736e+01 3.409570e+01 -1.009101e-05 9.164500e-03 -2.026367e-01 1.984863e-01
-2.275067e+00 8.836476e+00 -4.019385e+01 3.432324e+01 -2.164415e-05 9.259203e-03 -2.026367e-01 1.984863e-01
-2.182713e+00 8.796561e+00 -3.999072e+01 3.507935e+01 3.074306e-05 9.310370e-03 -2.026367e-01 1.984863e-01
-2.221393e+00 8.804916e+00 -4.032910e+01 3.543945e+01 1.629339e-05 9.226080e-03 -2.026367e-01 1.984863e-01
-2.305269e+00 8.926297e+00 -4.097998e+01 3.558862e+01 -2.005887e-05 9.200348e-03 -2.026367e-01 1.984863e-01
-2.321626e+00 8.939271e+00 -4.097412e+01 3.579541e+01 -9.242863e-06 9.161921e-03 -2.026367e-01 1.984863e-01
-2.213536e+00 8.911467e+00 -4.119336e+01 3.607202e+01 2.909533e-05 9.182711e-03 -2.026367e-01 1.984863e-01
-2.265146e+00 8.999207e+00 -4.134985e+01 3.644312e+01 3.654478e-06 9.200458e-03 -2.026367e-01 1.984863e-01
-2.381895e+00 9.062479e+00 -4.174146e+01 3.661328e+01 -2.560563e-05 9.132233e-03 -2.026367e-01 1.984863e-01
-2.329336e+00 9.004669e+00 -4.176733e+01 3.675220e+01 1.866264e-05 9.075006e-03 -2.026367e-01 1.984863e-01
-2.314277e+00 9.043728e+00 -4.216064e+01 3.683862e+01 1.065123e-05 9.056118e-03 -2.026367e-01 1.984863e-01
-2.340947e+00 9.126495e+00 -4.277979e+01 3.741797e+01 -1.828106e-05 9.170914e-03 -2.026367e-01 1.984863e-01
-2.332227e+00 9.093037e+00 -4.268872e+01 3.757007e+01 1.184106e-05 9.062104e-03 -2.026367e-01 1.984863e-01
-2.336911e+00 9.146778e+00 -4.258032e+01 3.763379e+01 2.385210e-05 9.127998e-03 -2.026367e-01 1.984863e-01
-2.408612e+00 9.182135e+00 -4.275537e+01 3.767432e+01 -7.638500e-06 9.059285e-03 -2.026367e-01 1.984863e-01
-2.408806e+00 9.197814e+00 -4.328467e+01 3.799951e+01 -1.199023e-05 9.028019e-03 -2.026367e-01 1.984863e-01
-2.301704e+00 9.194551e+00 -4.342065e+01 3.818799e+01 2.222346e-05 9.112985e-03 -2.026367e-01 1.984863e-01
-2.306553e+00 9.193134e+00 -4.351929e+01 3.845581e+01 2.074744e-05 9.084734e-03 -2.026367e-01 1.984863e-01
-2.393148e+00 9.250461e+00 -4.388354e+01 3.856201e+01 -3.226070e-06 9.018038e-03 -2.026367e-01 1.984863e-01
-2.403243e+00 9.273049e+00 -4.398755e+01 3.874072e+01 -6.174628e-06 9.051159e-03 -2.026367e-01 1.984863e-01
-2.371265e+00 9.282028e+00 -4.407886e+01 3.886914e+01 -9.192564e-08 9.073418e-03 -2.026367e-01 1.984863e-01
-2.358057e+00 9.289087e+00 -4.437158e+01 3.904761e+01 2.521885e-06 8.991887e-03 -2.026367e-01 1.984863e-01
-2.386366e+00 9.319679e+00 -4.448364e+01 3.912402e+01 1.740170e-05 9.092362e-03 -2.026367e-01 1.984863e-01
-2.439392e+00 9.384805e+00 -4.492651e+01 3.919922e+01 -1.498041e-05 8.960683e-03 -2.026367e-01 1.984863e-01
-2.417036e+00 9.398752e+00 -4.500903e+01 3.970459e+01 -6.479890e-06 8.930274e-03 -2.026367e-01 1.984863e-01
-2.350259e+00 9.441295e+00 -4.489087e+01 3.996851e+01 2.082896e-05 8.996357e-03 -2.026367e-01 1.984863e-01
-2.386151e+00 9.534869e+00 -4.497925e+01 4.002734e+01 1.691085e-06 9.078700e-03 -2.026367e-01 1.984863e-01
-2.398894e+00 9.494044e+00 -4.544312e+01 4.004199e+01 1.600894e-05 8.953220e-03 -2.026367e-01 1.984863e-01
-2.438120e+00 9.535767e+00 -4.551489e+01 4.016919e+01 1.619279e-05 8.934315e-03 -2.026367e-01 1.984863e-01
-2.436601e+00 9.642293e+00 -4.605664e+01 4.059521e+01 -7.591670e-06 8.922298e-03 -1.982422e-01 1.984863e-01
-2.438790e+00 9.651713e+00 -4.614014e+01 4.105347e+01 8.160569e-06 8.862184e-03 -1.982422e-01 1.984863e-01
-2.463629e+00 9.676225e+00 -4.612695e+01 4.112402e+01 7.328035e-06 8.961260e-03 -1.982422e-01 1.984863e-01
-2.468237e+00 9.716235e+00 -4.626514e+01 4.105615e+01 9.936641e-06 8.890300e-03 -1.982422e-01 1.984863e-01
-2.474048e+00 9.768886e+00 -4.643286e+01 4.115918e+01 -5.324749e-07 8.867604e-03 -1.982422e-01 2.006836e-01
-2.501875e+00 9.809720e+00 -4.676392e+01 4.154736e+01 1.111780e-06 8.876615e-03 -1.982422e-01 2.006836e-01
-2.517720e+00 9.815134e+00 -4.710181e+01 4.153540e+01 8.429408e-06 8.837399e-03 -1.982422e-01 2.006836e-01
-2.426160e+00 9.861245e+00 -4.739673e+01 4.206226e+01 2.308895e-05 8.983741e-03 -1.982422e-01 2.006836e-01
-2.434787e+00 9.852927e+00 -4.723584e+01 4.193872e+01 4.529679e-05 8.912949e-03 -1.982422e-01 1.984863e-01
-2.601385e+00 9.975109e+00 -4.790552e+01 4.215674e+01 -1.891413e-05 8.929457e-03 -1.982422e-01 1.984863e-01
-2.609025e+00 9.998497e+00 -4.789941e+01 4.218799e+01 -2.192513e-05 8.918898e-03 -1.982422e-01 1.984863e-01
-2.469235e+00 9.977343e+00 -4.795264e+01 4.235107e+01 3.902504e-05 8.959246e-03 -1.933594e-01 1.984863e-01
-2.512004e+00 1.014243e+01 -4.796655e+01 4.273047e+01 8.970555e-06 9.021906e-03 -1.982422e-01 1.984863e-01
-2.599020e+00 1.012446e+01 -4.848389e+01 4.284644e+01 -6.429591e-06 8.798276e-03 -1.933594e-01 1.984863e-01
-2.583890e+00 1.007591e+01 -4.845386e+01 4.320215e+01 6.764340e-06 8.782390e-03 -1.933594e-01 1.984863e-01
-2.522622e+00 1.017601e+01 -4.848096e+01 4.348682e+01 2.077519e-05 8.901291e-03 -1.982422e-01 1.984863e-01
-2.561371e+00 1.019632e+01 -4.850488e+01 4.368506e+01 2.640521e-05 8.853519e-03 -1.933594e-01 1.984863e-01
-2.624731e+00 1.023196e+01 -4.909521e+01 4.378320e+01 -1.694554e-06 8.720323e-03 -1.933594e-01 1.984863e-01
-2.596624e+00 1.029689e+01 -4.923389e+01 4.387720e+01 -3.182708e-06 8.786003e-03 -1.933594e-01 1.984863e-01
-2.593037e+00 1.029892e+01 -4.918018e+01 4.392847e+01 1.214459e-05 8.794587e-03 -1.933594e-01 1.984863e-01
-2.585720e+00 1.028362e+01 -4.909839e+01 4.401538e+01 2.693421e-05 8.822054e-03 -1.933594e-01 1.984863e-01
-2.631859e+00 1.037224e+01 -4.979858e+01 4.454419e+01 -9.180423e-06 8.775581e-03 -1.933594e-01 1.984863e-01
-2.604690e+00 1.039755e+01 -4.979126e+01 4.469214e+01 2.168058e-06 8.801814e-03 -1.933594e-01 1.984863e-01
-2.625062e+00 1.041343e+01 -4.947070e+01 4.457227e+01 2.005713e-05 8.765084e-03 -1.933594e-01 1.984863e-01
-2.662234e+00 1.046416e+01 -4.966064e+01 4.464160e+01 -5.897117e-08 8.755219e-03 -1.933594e-01 1.984863e-01
-2.634008e+00 1.050990e+01 -5.007373e+01 4.496729e+01 3.330136e-06 8.740324e-03 -1.933594e-01 1.984863e-01
-2.693454e+00 1.050877e+01 -5.019116e+01 4.513940e+01 -8.059971e-06 8.710127e-03 -1.933594e-01 1.984863e-01
-2.644007e+00 1.052271e+01 -5.039746e+01 4.555420e+01 7.019303e-06 8.771089e-03 -1.933594e-01 1.984863e-01
-2.593344e+00 1.054251e+01 -5.067798e+01 4.585010e+01 1.581815e-05 8.790535e-03 -1.933594e-01 1.984863e-01
-2.668339e+00 1.061265e+01 -5.072729e+01 4.589819e+01 -2.048381e-06 8.747423e-03 -1.933594e-01 1.984863e-01
-2.704390e+00 1.063641e+01 -5.080029e+01 4.590552e+01 6.858000e-06 8.746927e-03 -1.933594e-01 1.984863e-01
-2.692409e+00 1.066628e+01 -5.119678e+01 4.625977e+01 7.770318e-07 8.693991e-03 -1.933594e-01 1.984863e-01
-2.673362e+00 1.069222e+01 -5.133008e+01 4.656519e+01 8.448487e-06 8.697069e-03 -1.982422e-01 1.984863e-01
-2.662505e+00 1.071787e+01 -5.148828e+01 4.672290e+01 2.135970e-05 8.733201e-03 -1.982422e-01 1.984863e-01
-2.754382e+00 1.081483e+01 -5.157275e+01 4.679053e+01 -1.623788e-05 8.714312e-03 -1.982422e-01 1.984863e-01
-2.739896e+00 1.077865e+01 -5.185132e+01 4.689453e+01 8.370437e-06 8.653355e-03 -1.982422e-01 1.984863e-01
-2.690477e+00 1.078961e+01 -5.178052e+01 4.717603e+01 2.541310e-05 8.781875e-03 -1.982422e-01 1.984863e-01
-2.756231e+00 1.084155e+01 -5.180176e+01 4.735181e+01 -3.090783e-06 8.686494e-03 -1.982422e-01 1.984863e-01
-2.796174e+00 1.088706e+01 -5.192725e+01 4.740649e+01 -8.654886e-07 8.674500e-03 -1.982422e-01 1.984863e-01
-2.741627e+00 1.093037e+01 -5.229272e+01 4.755151e+01 1.504458e-05 8.800787e-03 -1.982422e-01 1.984863e-01
-2.752188e+00 1.094254e+01 -5.245312e+01 4.806152e+01 2.378099e-05 8.692842e-03 -1.982422e-01 1.984863e-01
-2.862448e+00 1.109297e+01 -5.314502e+01 4.838232e+01 -2.988277e-05 8.803772e-03 -1.982422e-01 1.984863e-01
-2.821373e+00 1.104532e+01 -5.314990e+01 4.845142e+01 -1.208215e-05 8.637506e-03 -1.982422e-01 1.984863e-01
-2.702330e+00 1.095273e+01 -5.309448e+01 4.854761e+01 5.500622e-05 8.691755e-03 -1.982422e-01 1.984863e-01
-2.794856e+00 1.110135e+01 -5.348975e+01 4.884277e+01 3.285041e-06 8.640315e-03 -1.982422e-01 1.984863e-01
-2.890973e+00 1.118947e+01 -5.387061e+01 4.899072e+01 -2.009876e-05 8.634881e-03 -1.982422e-01 1.984863e-01
-2.873738e+00 1.112472e+01 -5.364429e+01 4.947925e+01 -1.162079e-07 8.554142e-03 -1.982422e-01 1.984863e-01
-2.764631e+00 1.115525e+01 -5.390625e+01 4.988306e+01 3.500286e-05 8.560010e-03 -1.982422e-01 1.984863e-01
-2.781181e+00 1.124557e+01 -5.396167e+01 4.981689e+01 2.221478e-05 8.627820e-03 -1.982422e-01 1.984863e-01
-2.922682e+00 1.130512e+01 -5.418726e+01 4.976782e+01 -2.126431e-05 8.597281e-03 -1.982422e-01 1.984863e-01
-2.906719e+00 1.129035e+01 -5.431934e+01 4.987134e+01 -4.695145e-06 8.502879e-03 -1.982422e-01 1.984863e-01
-2.783306e+00 1.128249e+01 -5.455322e+01 5.013574e+01 3.469933e-05 8.633647e-03 -1.982422e-01 1.984863e-01
-2.851206e+00 1.134630e+01 -5.459595e+01 5.067822e+01 7.834493e-06 8.541979e-03 -1.982422e-01 1.984863e-01
-2.905834e+00 1.139466e+01 -5.469727e+01 5.075977e+01 -7.279470e-06 8.547554e-03 -1.982422e-01 1.984863e-01
-2.877375e+00 1.136494e+01 -5.504126e+01 5.101318e+01 1.181158e-06 8.529674e-03 -1.982422e-01 1.984863e-01
-2.854668e+00 1.143239e+01 -5.535352e+01 5.153271e+01 1.052635e-05 8.557757e-03 -1.982422e-01 1.984863e-01
-2.895376e+00 1.154318e+01 -5.516089e+01 5.143335e+01 7.909074e-06 8.678320e-03 -1.982422e-01 1.984863e-01
-2.929462e+00 1.148541e+01 -5.560254e+01 5.112476e+01 1.536199e-05 8.528198e-03 -1.982422e-01 1.984863e-01
-2.926714e+00 1.151110e+01 -5.566284e+01 5.133008e+01 7.544840e-07 8.481977e-03 -1.982422e-01 1.984863e-01
-2.901903e+00 1.159119e+01 -5.591382e+01 5.168921e+01 2.369253e-06 8.578082e-03 -1.982422e-01 1.984863e-01
-2.917879e+00 1.157843e+01 -5.582935e+01 5.207080e+01 1.109525e-05 8.498533e-03 -1.982422e-01 1.984863e-01
-2.988417e+00 1.161928e+01 -5.586475e+01 5.210156e+01 4.506091e-06 8.438975e-03 -1.982422e-01 1.984863e-01
-2.986178e+00 1.173490e+01 -5.655005e+01 5.239502e+01 -1.271522e-05 8.499088e-03 -1.982422e-01 1.984863e-01
-2.886640e+00 1.172471e+01 -5.665625e+01 5.278979e+01 1.941192e-05 8.522910e-03 -1.982422e-01 1.984863e-01
-2.899497e+00 1.169752e+01 -5.660815e+01 5.301880e+01 2.422154e-05 8.430837e-03 -1.982422e-01 1.984863e-01
-2.967195e+00 1.179340e+01 -5.662402e+01 5.311841e+01 1.645989e-06 8.532918e-03 -1.982422e-01 1.984863e-01
-2.983846e+00 1.181310e+01 -5.680688e+01 5.345288e+01 -2.651968e-06 8.490892e-03 -1.982422e-01 1.984863e-01
-3.027621e+00 1.181863e+01 -5.740503e+01 5.391895e+01 -9.270614e-06 8.439656e-03 -1.982422e-01 1.984863e-01
-2.987948e+00 1.189967e+01 -5.742188e+01 5.425439e+01 -2.003285e-06 8.529722e-03 -1.982422e-01 1.984863e-01
-2.936199e+00 1.188376e+01 -5.738647e+01 5.427539e+01 2.171353e-05 8.416680e-03 -1.982422e-01 1.984863e-01
-2.967196e+00 1.188500e+01 -5.768677e+01 5.462305e+01 1.243945e-05 8.373092e-03 -1.982422e-01 1.984863e-01
-3.051495e+00 1.200646e+01 -5.783179e+01 5.483594e+01 -2.128165e-05 8.541955e-03 -1.982422e-01 1.984863e-01
-2.986989e+00 1.196974e+01 -5.790552e+01 5.490845e+01 4.275409e-06 8.523315e-03 -1.982422e-01 1.984863e-01
-2.937753e+00 1.195849e+01 -5.829419e+01 5.540308e+01 1.807293e-05 8.414225e-03 -1.982422e-01 1.984863e-01
-3.041496e+00 1.211921e+01 -5.834326e+01 5.558594e+01 -9.870732e-06 8.495303e-03 -1.982422e-01 1.984863e-01
-2.988966e+00 1.209039e+01 -5.830249e+01 5.567603e+01 2.015426e-05 8.491533e-03 -1.982422e-01 1.984863e-01
-2.905345e+00 1.208254e+01 -5.821289e+01 5.592432e+01 4.793835e-05 8.455389e-03 -1.982422e-01 1.984863e-01
-3.104547e+00 1.219403e+01 -5.900879e+01 5.591870e+01 -2.713888e-05 8.441192e-03 -1.982422e-01 1.984863e-01
-3.171288e+00 1.225099e+01 -5.898145e+01 5.586255e+01 -3.061124e-05 8.465296e-03 -1.982422e-01 1.984863e-01
-2.998914e+00 1.221036e+01 -5.870215e+01 5.638330e+01 3.821505e-05 8.441651e-03 -1.982422e-01 1.984863e-01
-2.955182e+00 1.225934e+01 -5.964136e+01 5.671338e+01 3.130328e-05 8.406961e-03 -1.982422e-01 1.984863e-01
-3.152209e+00 1.234415e+01 -5.958472e+01 5.691724e+01 -3.213582e-05 8.427045e-03 -1.982422e-01 1.984863e-01
-3.084350e+00 1.230626e+01 -5.946069e+01 5.717529e+01 1.810762e-06 8.340554e-03 -1.982422e-01 1.984863e-01
-2.977064e+00 1.234336e+01 -5.956592e+01 5.756055e+01 3.385812e-05 8.361679e-03 -1.982422e-01 1.984863e-01
-3.092596e+00 1.240828e+01 -5.965601e+01 5.759717e+01 2.584325e-07 8.370032e-03 -1.982422e-01 1.984863e-01
-3.148820e+00 1.244744e+01 -5.992480e+01 5.762305e+01 -1.982992e-05 8.420058e-03 -1.982422e-01 1.984863e-01
-3.104745e+00 1.244472e+01 -5.980664e+01 5.797632e+01 8.356561e-06 8.434329e-03 -1.982422e-01 1.984863e-01
-3.083450e+00 1.245960e+01 -6.016040e+01 5.807031e+01 2.450772e-06 8.342855e-03 -1.982422e-01 1.984863e-01
-3.015966e+00 1.251220e+01 -6.059619e+01 5.870898e+01 1.619452e-05 8.388469e-03 -1.982422e-01 1.984863e-01
-3.098603e+00 1.252747e+01 -6.041284e+01 5.859155e+01 1.103628e-05 8.333996e-03 -1.982422e-01 1.984863e-01
-3.163055e+00 1.259445e+01 -6.074512e+01 5.906714e+01 -1.659171e-05 8.333906e-03 -1.982422e-01 1.984863e-01
-3.107940e+00 1.265447e+01 -6.088892e+01 5.923828e+01 -7.315893e-06 8.365995e-03 -1.982422e-01 1.984863e-01
-3.073731e+00 1.261566e+01 -6.090112e+01 5.944946e+01 2.743547e-05 8.310028e-03 -1.982422e-01 1.984863e-01
-3.166892e+00 1.268196e+01 -6.134399e+01 5.952051e+01 -7.173669e-06 8.293306e-03 -1.982422e-01 1.984863e-01
-3.157004e+00 1.275075e+01 -6.159473e+01 6.011523e+01 -1.201277e-05 8.366341e-03 -1.982422e-01 1.984863e-01
-3.105202e+00 1.266582e+01 -6.131250e+01 6.010962e+01 2.358673e-05 8.226361e-03 -1.982422e-01 1.984863e-01
-3.137983e+00 1.271191e+01 -6.165259e+01 6.012085e+01 1.762024e-05 8.234541e-03 -1.982422e-01 1.984863e-01
-3.193887e+00 1.284100e+01 -6.187305e+01 6.029517e+01 -2.477656e-05 8.336538e-03 -1.982422e-01 1.984863e-01
-3.089888e+00 1.276751e+01 -6.172583e+01 6.053833e+01 1.540882e-05 8.317526e-03 -1.982422e-01 1.984863e-01
-3.135278e+00 1.280811e+01 -6.181372e+01 6.096875e+01 1.408544e-05 8.207253e-03 -1.982422e-01 1.984863e-01
-3.201928e+00 1.292578e+01 -6.240283e+01 6.125122e+01 -2.026353e-05 8.352744e-03 -1.982422e-01 1.984863e-01
