9.650212e+01 5.782609e-01 -5.691129e-03 5.711050e-01 -9.990692e-01 9.969788e-01
6.157780e+01 2.739130e-01 -4.079632e-03 5.824362e-01 -2.380341e+00 1.334290e+00
4.539281e+01 1.956522e-01 -1.348920e-02 6.124202e-01 -2.424332e+00 1.601303e+00
4.365437e+01 1.913043e-01 -1.634781e-02 6.231977e-01 -2.360641e+00 1.584763e+00
4.294247e+01 1.913043e-01 -1.796632e-02 6.292392e-01 -2.348526e+00 1.784103e+00
4.215297e+01 2.130435e-01 -2.329344e-02 6.349793e-01 -2.577133e+00 1.918930e+00
4.194629e+01 1.913043e-01 -2.437056e-02 6.373591e-01 -2.568466e+00 1.923431e+00
4.111176e+01 1.782609e-01 -2.237955e-02 6.438155e-01 -2.608337e+00 2.069977e+00
4.078844e+01 1.869565e-01 -2.215830e-02 6.448833e-01 -2.618927e+00 2.076462e+00
4.071613e+01 1.956522e-01 -2.315883e-02 6.444349e-01 -2.613220e+00 2.071732e+00
4.181445e+01 1.956522e-01 -2.538707e-02 6.477231e-01 -2.685974e+00 2.143997e+00
4.075529e+01 1.956522e-01 -2.583104e-02 6.494442e-01 -2.618958e+00 2.136459e+00
3.973985e+01 2.130435e-01 -2.853173e-02 6.525889e-01 -2.553299e+00 2.165924e+00
3.935300e+01 2.043478e-01 -2.965631e-02 6.536572e-01 -2.541000e+00 2.165924e+00
4.051994e+01 2.130435e-01 -4.261626e-02 6.709118e-01 -2.829330e+00 2.333618e+00
3.897612e+01 2.000000e-01 -4.069635e-02 6.695199e-01 -2.743881e+00 2.289505e+00
3.860295e+01 1.869565e-01 -4.042237e-02 6.679302e-01 -2.707596e+00 2.271667e+00
3.865466e+01 1.826087e-01 -4.457488e-02 6.722129e-01 -2.259216e+00 2.150146e+00
3.840038e+01 1.869565e-01 -4.581017e-02 6.793750e-01 -2.181686e+00 2.267090e+00
3.833473e+01 1.869565e-01 -4.277079e-02 6.819918e-01 -2.181686e+00 2.267090e+00
3.780312e+01 1.826087e-01 -5.167984e-02 6.793508e-01 -2.188095e+00 2.257355e+00
3.824815e+01 1.782609e-01 -5.757282e-02 6.796011e-01 -2.175247e+00 2.223114e+00
3.734740e+01 1.782609e-01 -5.786699e-02 6.791225e-01 -2.165298e+00 2.216202e+00
3.899261e+01 1.913043e-01 -4.907649e-02 6.798896e-01 -2.129074e+00 2.224701e+00
3.808424e+01 1.695652e-01 -4.867344e-02 6.808651e-01 -2.106018e+00 2.195251e+00
3.771909e+01 1.782609e-01 -4.777382e-02 6.811752e-01 -2.118103e+00 2.195251e+00
3.756296e+01 1.826087e-01 -4.817179e-02 6.810405e-01 -2.118103e+00 2.178085e+00
3.752928e+01 1.782609e-01 -4.817605e-02 6.810297e-01 -2.117508e+00 2.176666e+00
3.771265e+01 1.652174e-01 -4.894913e-02 6.848692e-01 -2.418716e+00 2.233749e+00
3.737051e+01 1.739130e-01 -4.616742e-02 6.829687e-01 -2.390594e+00 2.235626e+00
3.747035e+01 1.826087e-01 -4.598555e-02 6.821463e-01 -2.378403e+00 2.164566e+00
3.797708e+01 1.739130e-01 -4.545052e-02 6.818293e-01 -2.380005e+00 2.161423e+00
3.927759e+01 1.739130e-01 -4.541377e-02 6.818081e-01 -2.404251e+00 2.182755e+00
3.827728e+01 1.826087e-01 -4.851234e-02 6.816171e-01 -2.427994e+00 2.170990e+00
3.831604e+01 1.739130e-01 -4.756786e-02 6.813194e-01 -2.427994e+00 2.177475e+00
3.783664e+01 1.739130e-01 -4.623729e-02 6.812678e-01 -2.428909e+00 2.176743e+00
4.016823e+01 1.913043e-01 -4.704749e-02 6.825528e-01 -2.490616e+00 2.278168e+00
3.801457e+01 1.695652e-01 -4.569778e-02 6.851349e-01 -2.490616e+00 2.278168e+00
4.520627e+01 2.086957e-01 -6.793729e-02 6.716169e-01 -1.944061e+00 1.961945e+00
4.120430e+01 1.869565e-01 -6.610689e-02 6.863860e-01 -2.428619e+00 2.209152e+00
4.097369e+01 2.086957e-01 -5.754948e-02 7.026748e-01 -2.502487e+00 2.398743e+00
3.857855e+01 1.826087e-01 -5.344140e-02 7.090281e-01 -2.457611e+00 2.382568e+00
3.867168e+01 1.913043e-01 -5.151079e-02 7.082824e-01 -2.359055e+00 2.305084e+00
3.901076e+01 1.956522e-01 -4.906402e-02 7.060411e-01 -2.339005e+00 2.285339e+00
3.911433e+01 1.913043e-01 -4.918056e-02 7.064094e-01 -2.381561e+00 2.299683e+00
3.851532e+01 1.956522e-01 -4.943610e-02 7.066427e-01 -2.381561e+00 2.299683e+00
3.794513e+01 1.782609e-01 -4.963737e-02 7.072199e-01 -2.374771e+00 2.305374e+00
3.858978e+01 1.956522e-01 -4.914622e-02 7.080493e-01 -2.394928e+00 2.331131e+00
3.761842e+01 1.739130e-01 -4.724140e-02 7.062447e-01 -2.394928e+00 2.331131e+00
3.793396e+01 1.869565e-01 -4.600661e-02 7.044050e-01 -2.159393e+00 2.321930e+00
4.035774e+01 1.913043e-01 -4.137417e-02 7.268421e-01 -2.647919e+00 2.640335e+00
4.096623e+01 1.869565e-01 -3.809438e-02 7.295711e-01 -2.685013e+00 2.665298e+00
4.666406e+01 2.130435e-01 -3.930101e-02 7.300300e-01 -2.591492e+00 2.601715e+00
3.941649e+01 1.782609e-01 -3.764466e-02 7.282402e-01 -2.511475e+00 2.554825e+00
3.918800e+01 1.782609e-01 -3.055922e-02 7.258543e-01 -2.401443e+00 2.478912e+00
3.798489e+01 1.695652e-01 -3.343228e-02 7.252111e-01 -2.380936e+00 2.444397e+00
3.852519e+01 1.695652e-01 -3.391813e-02 7.251416e-01 -2.368927e+00 2.459900e+00
3.900865e+01 1.782609e-01 -3.767538e-02 7.268684e-01 -2.372604e+00 2.442490e+00
3.964783e+01 1.869565e-01 -3.791955e-02 7.358988e-01 -2.580048e+00 2.686371e+00
3.964903e+01 1.869565e-01 -3.850689e-02 7.361840e-01 -2.580048e+00 2.678253e+00
3.900398e+01 1.913043e-01 -3.771441e-02 7.370347e-01 -2.646957e+00 2.667679e+00
3.942253e+01 1.956522e-01 -3.375230e-02 7.381891e-01 -2.661575e+00 2.682434e+00
3.942867e+01 1.869565e-01 -2.742872e-02 7.379928e-01 -2.662903e+00 2.721191e+00
3.857419e+01 1.869565e-01 -2.666592e-02 7.378376e-01 -2.596771e+00 2.653961e+00
4.029594e+01 1.869565e-01 -2.668322e-02 7.339924e-01 -2.590073e+00 2.600128e+00
3.788759e+01 1.826087e-01 -2.882717e-02 7.346120e-01 -2.458588e+00 2.525925e+00
3.769130e+01 1.956522e-01 -3.368797e-02 7.383291e-01 -2.587204e+00 2.591843e+00
3.799626e+01 1.913043e-01 -3.760090e-02 7.401527e-01 -2.587204e+00 2.591843e+00
3.786589e+01 1.913043e-01 -4.285361e-02 7.410435e-01 -2.572128e+00 2.574112e+00
3.812317e+01 1.913043e-01 -4.427245e-02 7.410612e-01 -2.578537e+00 2.587006e+00
3.877838e+01 1.826087e-01 -4.426145e-02 7.410480e-01 -2.574158e+00 2.595291e+00
3.803276e+01 1.956522e-01 -4.320050e-02 7.409099e-01 -2.568649e+00 2.595291e+00
3.717490e+01 1.913043e-01 -4.547720e-02 7.428768e-01 -2.581467e+00 2.637207e+00
3.724268e+01 1.869565e-01 -4.516376e-02 7.437102e-01 -2.578522e+00 2.637207e+00
3.851021e+01 1.826087e-01 -4.442886e-02 7.435786e-01 -2.586853e+00 2.647156e+00
3.996936e+01 1.869565e-01 -4.473680e-02 7.451229e-01 -2.622330e+00 2.680725e+00
3.847668e+01 2.000000e-01 -4.761510e-02 7.474057e-01 -2.622330e+00 2.675064e+00
3.885970e+01 2.000000e-01 -4.768632e-02 7.477915e-01 -2.641235e+00 2.666489e+00
3.826338e+01 1.739130e-01 -4.136011e-02 7.480949e-01 -2.625900e+00 2.684875e+00
3.820470e+01 1.913043e-01 -4.065051e-02 7.490383e-01 -2.595459e+00 2.607651e+00
3.895656e+01 1.782609e-01 -4.022437e-02 7.493539e-01 -2.626694e+00 2.642746e+00
3.859885e+01 1.652174e-01 -3.931065e-02 7.500573e-01 -2.643097e+00 2.652542e+00
3.878349e+01 1.695652e-01 -3.938864e-02 7.506409e-01 -2.656876e+00 2.659805e+00
3.794817e+01 2.000000e-01 -4.005032e-02 7.514187e-01 -2.564606e+00 2.767242e+00
3.794817e+01 2.000000e-01 -4.097897e-02 7.518988e-01 -2.564606e+00 2.727295e+00
3.826636e+01 1.869565e-01 -4.091398e-02 7.518361e-01 -2.566803e+00 2.727295e+00
3.971744e+01 1.826087e-01 -3.720092e-02 7.524364e-01 -2.584946e+00 2.756607e+00
3.776389e+01 1.782609e-01 -3.673499e-02 7.524265e-01 -2.582397e+00 2.743408e+00
3.786290e+01 1.826087e-01 -3.702403e-02 7.521407e-01 -2.559158e+00 2.704056e+00
3.873553e+01 1.782609e-01 -3.666287e-02 7.524988e-01 -2.577454e+00 2.710373e+00
3.803891e+01 1.826087e-01 -3.683702e-02 7.525728e-01 -2.577454e+00 2.710373e+00
3.846385e+01 1.782609e-01 -3.691763e-02 7.525488e-01 -2.576080e+00 2.701706e+00
3.863821e+01 1.739130e-01 -3.703966e-02 7.521879e-01 -2.576431e+00 2.701340e+00
3.868875e+01 1.695652e-01 -3.671138e-02 7.524029e-01 -2.582794e+00 2.710678e+00
3.808359e+01 1.826087e-01 -3.690158e-02 7.535092e-01 -2.615311e+00 2.728073e+00
3.810626e+01 1.826087e-01 -3.702449e-02 7.540674e-01 -2.620071e+00 2.730545e+00
3.832567e+01 1.739130e-01 -4.265868e-02 7.536719e-01 -2.603836e+00 2.708908e+00
3.827654e+01 1.826087e-01 -4.207958e-02 7.537803e-01 -2.590057e+00 2.708862e+00
3.832013e+01 1.826087e-01 -4.159953e-02 7.538905e-01 -2.590057e+00 2.708862e+00
3.860194e+01 1.956522e-01 -4.137984e-02 7.538736e-01 -2.583344e+00 2.713043e+00
3.836292e+01 1.869565e-01 -4.131763e-02 7.539515e-01 -2.583344e+00 2.713043e+00
3.847044e+01 1.869565e-01 -4.031756e-02 7.535137e-01 -2.579025e+00 2.701965e+00
3.831290e+01 1.826087e-01 -3.911047e-02 7.529603e-01 -2.413757e+00 2.694855e+00
3.859828e+01 1.869565e-01 -4.218044e-02 7.522182e-01 -2.413788e+00 2.623169e+00
3.812325e+01 1.739130e-01 -4.145149e-02 7.517205e-01 -2.396591e+00 2.623169e+00
3.789845e+01 1.695652e-01 -3.968453e-02 7.527797e-01 -2.444794e+00 2.624420e+00
3.863675e+01 1.913043e-01 -3.862509e-02 7.528660e-01 -2.511093e+00 2.624268e+00
3.872351e+01 1.956522e-01 -3.784310e-02 7.524788e-01 -2.512482e+00 2.617874e+00
4.252998e+01 2.086957e-01 -3.629691e-02 7.632516e-01 -2.606369e+00 2.730469e+00
4.179489e+01 2.086957e-01 -4.109167e-02 7.673125e-01 -2.648697e+00 2.730469e+00
3.984610e+01 2.130435e-01 -4.485656e-02 7.718280e-01 -2.653381e+00 2.783951e+00
4.081792e+01 2.043478e-01 -4.115264e-02 7.720253e-01 -2.660904e+00 2.784866e+00
4.021414e+01 2.130435e-01 -4.152581e-02 7.718447e-01 -2.654495e+00 2.773239e+00
4.010291e+01 2.086957e-01 -4.138498e-02 7.721294e-01 -2.643433e+00 2.760849e+00
3.935542e+01 1.869565e-01 -3.208908e-02 7.768162e-01 -2.723541e+00 2.757172e+00
3.971791e+01 1.956522e-01 -3.018045e-02 7.778055e-01 -2.716339e+00 2.751099e+00
3.995312e+01 2.000000e-01 -3.256322e-02 7.778937e-01 -2.729553e+00 2.765686e+00
4.009740e+01 2.000000e-01 -3.281230e-02 7.780852e-01 -2.731705e+00 2.777649e+00
3.958237e+01 1.913043e-01 -3.387284e-02 7.786485e-01 -2.750031e+00 2.800507e+00
3.926549e+01 1.869565e-01 -3.590950e-02 7.791814e-01 -2.751602e+00 2.800842e+00
3.959456e+01 1.956522e-01 -3.463092e-02 7.789557e-01 -2.746292e+00 2.801178e+00
3.856544e+01 1.869565e-01 -3.777800e-02 7.768054e-01 -2.701370e+00 2.779495e+00
3.934200e+01 1.782609e-01 -4.079658e-02 7.758194e-01 -2.677628e+00 2.714386e+00
3.903619e+01 1.913043e-01 -4.781905e-02 7.778050e-01 -2.605362e+00 2.745468e+00
3.903362e+01 1.913043e-01 -4.204142e-02 7.797368e-01 -2.600052e+00 2.916519e+00
4.068668e+01 2.000000e-01 -4.142479e-02 7.800719e-01 -2.629578e+00 2.913254e+00
3.939957e+01 1.956522e-01 -3.835212e-02 7.812800e-01 -2.629578e+00 2.888443e+00
3.884172e+01 1.826087e-01 -3.820404e-02 7.811531e-01 -2.606323e+00 2.829910e+00
3.990012e+01 1.826087e-01 -3.682095e-02 7.815559e-01 -2.628723e+00 2.834625e+00
3.874249e+01 1.826087e-01 -3.937367e-02 7.827804e-01 -2.637787e+00 2.833115e+00
3.852960e+01 1.869565e-01 -3.845160e-02 7.924908e-01 -2.840775e+00 2.967148e+00
3.771146e+01 1.739130e-01 -3.812031e-02 7.913827e-01 -2.731903e+00 2.872757e+00
4.025714e+01 1.826087e-01 -2.540436e-02 7.859116e-01 -2.396469e+00 2.835403e+00
3.930725e+01 1.782609e-01 -2.763092e-02 7.852373e-01 -2.410736e+00 2.815567e+00
3.885382e+01 1.782609e-01 -3.041289e-02 7.851670e-01 -2.413788e+00 2.811127e+00
4.053093e+01 1.826087e-01 -3.427002e-02 7.881265e-01 -2.473068e+00 2.847672e+00
3.965169e+01 1.956522e-01 -3.790462e-02 7.949024e-01 -2.627701e+00 2.871643e+00
4.051093e+01 2.000000e-01 -3.823122e-02 7.960756e-01 -2.664993e+00 2.877075e+00
3.814377e+01 1.739130e-01 -3.708703e-02 7.972961e-01 -2.692017e+00 2.857498e+00
3.812328e+01 1.739130e-01 -3.623900e-02 7.986130e-01 -2.700867e+00 2.861572e+00
3.812846e+01 1.739130e-01 -3.553184e-02 7.989894e-01 -2.704285e+00 2.867645e+00
3.805780e+01 1.739130e-01 -3.554528e-02 7.990611e-01 -2.704681e+00 2.867645e+00
3.829695e+01 1.739130e-01 -3.536849e-02 7.992085e-01 -2.710190e+00 2.864792e+00
3.875385e+01 1.695652e-01 -3.391428e-02 7.997525e-01 -2.723480e+00 2.867371e+00
3.885530e+01 1.739130e-01 -3.231980e-02 8.008166e-01 -2.739380e+00 2.878128e+00
3.884064e+01 1.695652e-01 -3.154725e-02 8.009895e-01 -2.736969e+00 2.880356e+00
3.898651e+01 1.826087e-01 -2.910338e-02 8.016300e-01 -2.727737e+00 2.880356e+00
3.848550e+01 1.695652e-01 -2.674547e-02 8.006502e-01 -2.666656e+00 2.872375e+00
4.012460e+01 1.869565e-01 -4.084113e-02 8.077615e-01 -2.856049e+00 2.887985e+00
3.960869e+01 1.826087e-01 -4.373399e-02 8.112527e-01 -2.851944e+00 2.900223e+00
3.873582e+01 1.782609e-01 -4.206180e-02 8.130293e-01 -2.832291e+00 2.913864e+00
4.027657e+01 1.826087e-01 -4.221980e-02 8.158058e-01 -2.844360e+00 3.223724e+00
4.058031e+01 1.782609e-01 -3.390843e-02 8.222921e-01 -2.816101e+00 3.223724e+00
4.151971e+01 1.869565e-01 -3.192443e-02 8.230128e-01 -2.817322e+00 3.217651e+00
4.046407e+01 1.913043e-01 -3.269335e-02 8.231122e-01 -2.774780e+00 3.111954e+00
3.775061e+01 1.739130e-01 -3.344946e-02 8.232953e-01 -2.774780e+00 3.111023e+00
3.845212e+01 1.782609e-01 -3.476206e-02 8.238272e-01 -2.769012e+00 3.058426e+00
3.790993e+01 1.739130e-01 -3.418887e-02 8.245520e-01 -2.782928e+00 3.072388e+00
3.788295e+01 1.739130e-01 -3.367199e-02 8.253707e-01 -2.782928e+00 3.072388e+00
3.866882e+01 1.695652e-01 -3.233280e-02 8.260995e-01 -2.805588e+00 3.077423e+00
3.745111e+01 1.652174e-01 -3.126963e-02 8.268493e-01 -2.805588e+00 3.074005e+00
3.754767e+01 1.695652e-01 -3.162682e-02 8.265278e-01 -2.791214e+00 3.056396e+00
3.831224e+01 1.695652e-01 -3.291986e-02 8.267351e-01 -2.917953e+00 2.971680e+00
3.792931e+01 1.782609e-01 -3.279825e-02 8.274053e-01 -2.896896e+00 2.935852e+00
3.822629e+01 1.739130e-01 -3.170933e-02 8.275455e-01 -2.873734e+00 2.941895e+00
3.843690e+01 1.826087e-01 -2.482573e-02 8.274748e-01 -2.792038e+00 2.974533e+00
3.799493e+01 1.739130e-01 -2.668454e-02 8.280201e-01 -2.842865e+00 2.960953e+00
3.796704e+01 1.782609e-01 -2.751053e-02 8.283477e-01 -2.842865e+00 2.958221e+00
3.903094e+01 1.782609e-01 -2.713049e-02 8.284234e-01 -2.862473e+00 2.959137e+00
3.860974e+01 1.782609e-01 -2.669129e-02 8.281123e-01 -2.862473e+00 2.956467e+00
3.936943e+01 1.739130e-01 -2.627920e-02 8.282401e-01 -2.861923e+00 2.938461e+00
3.797581e+01 1.739130e-01 -2.650651e-02 8.281780e-01 -2.850784e+00 2.924408e+00
3.787340e+01 1.695652e-01 -2.624343e-02 8.287197e-01 -2.851898e+00 2.918610e+00
3.853795e+01 1.695652e-01 -2.266376e-02 8.309338e-01 -2.858582e+00 2.919220e+00
3.853622e+01 1.695652e-01 -2.185431e-02 8.314223e-01 -2.858704e+00 2.919312e+00
3.792529e+01 1.652174e-01 -2.175608e-02 8.314452e-01 -2.858704e+00 2.926666e+00
3.947594e+01 1.826087e-01 -2.187581e-02 8.316371e-01 -2.873764e+00 2.937134e+00
3.677621e+01 1.739130e-01 -1.909303e-02 8.325047e-01 -2.873764e+00 2.936218e+00
3.738712e+01 1.565217e-01 -1.944502e-02 8.311741e-01 -2.854431e+00 2.904129e+00
3.897719e+01 1.652174e-01 -1.973642e-02 8.313085e-01 -2.571381e+00 2.911530e+00
3.765735e+01 1.652174e-01 -2.014144e-02 8.320877e-01 -2.656387e+00 2.936798e+00
3.808066e+01 1.695652e-01 -2.302332e-02 8.374158e-01 -2.893890e+00 2.849579e+00
3.835098e+01 1.608696e-01 -2.383705e-02 8.389046e-01 -2.915558e+00 2.851349e+00
3.759438e+01 1.826087e-01 -2.402773e-02 8.387331e-01 -2.915558e+00 2.850372e+00
3.941479e+01 1.652174e-01 -2.137622e-02 8.398623e-01 -2.697769e+00 2.752197e+00
3.760175e+01 1.739130e-01 -2.132568e-02 8.408571e-01 -2.718765e+00 2.770020e+00
3.749686e+01 1.608696e-01 -2.105099e-02 8.417994e-01 -2.721390e+00 2.770020e+00
3.718439e+01 1.782609e-01 -2.159221e-02 8.424010e-01 -2.713196e+00 2.754440e+00
3.830788e+01 1.565217e-01 -2.296788e-02 8.432002e-01 -2.748474e+00 2.783600e+00
3.765012e+01 1.565217e-01 -2.004752e-02 8.435156e-01 -2.736526e+00 2.777451e+00
3.816135e+01 1.521739e-01 -1.819251e-02 8.434893e-01 -2.723831e+00 2.770508e+00
3.916049e+01 1.695652e-01 -1.707381e-02 8.434040e-01 -2.731186e+00 2.774216e+00
3.819022e+01 1.826087e-01 -1.898964e-02 8.434344e-01 -2.712952e+00 2.757706e+00
3.870520e+01 1.521739e-01 -1.948082e-02 8.463897e-01 -2.794662e+00 2.800568e+00
3.922467e+01 1.608696e-01 -1.932570e-02 8.480126e-01 -2.804611e+00 2.815338e+00
3.762436e+01 1.608696e-01 -2.087940e-02 8.488360e-01 -2.789093e+00 2.809891e+00
3.860143e+01 1.695652e-01 -2.071160e-02 8.495931e-01 -2.795486e+00 2.813675e+00
3.886707e+01 1.652174e-01 -1.882412e-02 8.515455e-01 -2.762131e+00 2.856583e+00
3.947578e+01 1.739130e-01 -2.696044e-02 8.583563e-01 -2.859543e+00 3.239716e+00
3.804317e+01 1.695652e-01 -3.041701e-02 8.592221e-01 -2.811234e+00 3.168167e+00
3.895985e+01 1.565217e-01 -3.757834e-02 8.608280e-01 -2.940765e+00 3.142792e+00
3.945123e+01 1.652174e-01 -3.232101e-02 8.614673e-01 -2.886505e+00 3.107239e+00
3.840858e+01 1.782609e-01 -2.859812e-02 8.622970e-01 -2.928299e+00 3.107239e+00
3.834991e+01 1.695652e-01 -2.724164e-02 8.634908e-01 -2.951752e+00 3.096588e+00
3.926115e+01 1.826087e-01 -2.632380e-02 8.644744e-01 -2.969971e+00 3.104675e+00
3.891765e+01 1.782609e-01 -2.564605e-02 8.651398e-01 -2.969971e+00 3.104675e+00
3.908365e+01 1.695652e-01 -2.396052e-02 8.648398e-01 -2.969131e+00 3.099823e+00
3.783762e+01 1.739130e-01 -2.371359e-02 8.647366e-01 -2.950424e+00 3.076340e+00
3.959906e+01 1.739130e-01 -2.821391e-02 8.688652e-01 -2.973846e+00 2.857819e+00
3.843385e+01 1.739130e-01 -3.457323e-02 8.694948e-01 -2.957321e+00 2.850845e+00
3.928148e+01 1.695652e-01 -3.308267e-02 8.663866e-01 -2.826233e+00 2.843964e+00
3.851036e+01 1.739130e-01 -2.860210e-02 8.662159e-01 -2.805267e+00 2.843964e+00
3.916563e+01 1.695652e-01 -2.809734e-02 8.666833e-01 -2.804291e+00 2.834244e+00
3.942682e+01 1.869565e-01 -2.726938e-02 8.700936e-01 -2.801254e+00 2.818222e+00
3.880856e+01 1.782609e-01 -2.299112e-02 8.728560e-01 -2.791504e+00 2.836914e+00
4.036986e+01 1.826087e-01 -2.918543e-02 8.804660e-01 -2.832367e+00 2.894943e+00
4.038387e+01 1.826087e-01 -2.603138e-02 8.814087e-01 -2.794006e+00 2.839874e+00
3.997983e+01 1.652174e-01 -2.842601e-02 8.831827e-01 -2.799683e+00 2.824860e+00
3.853630e+01 1.739130e-01 -2.887973e-02 8.841708e-01 -2.774033e+00 2.806931e+00
3.786002e+01 1.695652e-01 -2.607802e-02 8.854216e-01 -2.807816e+00 2.886917e+00
3.909581e+01 1.782609e-01 -1.708695e-02 8.863828e-01 -2.803375e+00 2.904007e+00
3.843498e+01 1.782609e-01 -1.647448e-02 8.863547e-01 -2.793533e+00 2.870392e+00
3.844901e+01 1.695652e-01 -1.612536e-02 8.862884e-01 -2.774078e+00 2.856628e+00
3.891721e+01 1.695652e-01 -1.664435e-02 8.889792e-01 -2.782990e+00 2.858963e+00
3.873222e+01 1.652174e-01 -1.557805e-02 8.898468e-01 -2.764038e+00 2.827042e+00
3.879222e+01 1.652174e-01 -1.645484e-02 8.915572e-01 -2.920090e+00 2.799957e+00
3.969356e+01 1.956522e-01 -3.175084e-02 8.970857e-01 -2.743439e+00 2.771118e+00
3.998886e+01 1.913043e-01 -3.199796e-02 8.975532e-01 -2.743439e+00 2.768097e+00
4.200946e+01 2.000000e-01 -1.397898e-02 8.992537e-01 -2.735352e+00 2.980682e+00
4.137299e+01 1.913043e-01 -1.380776e-02 8.997739e-01 -2.761841e+00 2.979980e+00
3.992778e+01 1.826087e-01 -1.095561e-02 9.011070e-01 -2.775742e+00 2.940628e+00
3.975970e+01 1.739130e-01 -1.841540e-02 9.059657e-01 -2.891571e+00 2.966934e+00
4.044098e+01 1.782609e-01 -1.823632e-02 9.019106e-01 -2.717621e+00 3.128296e+00
4.066243e+01 1.782609e-01 -1.836757e-02 9.044527e-01 -2.724930e+00 3.066666e+00
3.951729e+01 1.695652e-01 -2.672111e-02 9.044950e-01 -2.765320e+00 3.059830e+00
3.921115e+01 1.695652e-01 -3.142181e-02 9.053271e-01 -2.776978e+00 2.979019e+00
3.829839e+01 1.739130e-01 -3.166433e-02 9.064443e-01 -2.766235e+00 2.978546e+00
3.908917e+01 1.652174e-01 -3.188723e-02 9.067285e-01 -2.775940e+00 2.981598e+00
3.947905e+01 1.782609e-01 -4.329636e-02 9.176769e-01 -2.935577e+00 2.941010e+00
3.857167e+01 1.782609e-01 -4.401967e-02 9.181636e-01 -2.928146e+00 2.944351e+00
3.885031e+01 1.869565e-01 -4.306166e-02 9.181817e-01 -2.920990e+00 2.960190e+00
3.853242e+01 1.913043e-01 -4.167407e-02 9.186093e-01 -2.909607e+00 2.990295e+00
3.927029e+01 1.869565e-01 -3.482056e-02 9.233175e-01 -2.882919e+00 3.111084e+00
3.900513e+01 1.782609e-01 -3.564379e-02 9.239547e-01 -2.904495e+00 3.100693e+00
3.871858e+01 1.913043e-01 -3.616880e-02 9.248498e-01 -2.914612e+00 3.073914e+00
3.860918e+01 1.869565e-01 -3.539215e-02 9.261120e-01 -2.952499e+00 3.068237e+00
3.936443e+01 1.782609e-01 -3.480328e-02 9.265407e-01 -2.961258e+00 3.074234e+00
4.061815e+01 1.695652e-01 -2.953943e-02 9.269214e-01 -2.942078e+00 3.127182e+00
3.926723e+01 1.652174e-01 -2.729529e-02 9.284293e-01 -3.010818e+00 3.116013e+00
3.934271e+01 1.695652e-01 -2.301547e-02 9.298079e-01 -3.010818e+00 3.123260e+00
3.920651e+01 1.739130e-01 -2.292762e-02 9.309158e-01 -3.068207e+00 3.124588e+00
3.992755e+01 1.695652e-01 -2.298344e-02 9.314338e-01 -3.081238e+00 3.131165e+00
3.898271e+01 1.739130e-01 -2.377581e-02 9.318024e-01 -3.081238e+00 3.131165e+00
3.921364e+01 1.739130e-01 -2.495993e-02 9.322310e-01 -3.070511e+00 3.104584e+00
3.893565e+01 1.695652e-01 -2.472801e-02 9.322670e-01 -3.070511e+00 3.127991e+00
3.995874e+01 1.826087e-01 -1.007683e-02 9.332104e-01 -2.966202e+00 3.500687e+00
3.965831e+01 1.695652e-01 -1.580773e-02 9.343690e-01 -2.977158e+00 3.466522e+00
3.911908e+01 1.739130e-01 -2.511880e-02 9.385009e-01 -3.174469e+00 3.184464e+00
3.934689e+01 1.739130e-01 -2.683830e-02 9.408287e-01 -3.173447e+00 3.168274e+00
3.928381e+01 1.739130e-01 -2.674353e-02 9.408373e-01 -3.173447e+00 3.168274e+00
3.920490e+01 1.739130e-01 -2.531400e-02 9.404772e-01 -3.146942e+00 3.214294e+00
3.928882e+01 1.739130e-01 -2.472574e-02 9.404269e-01 -3.119690e+00 3.214294e+00
3.975153e+01 1.739130e-01 -1.554955e-02 9.540266e-01 -2.880768e+00 3.389252e+00
4.204906e+01 1.782609e-01 -1.570903e-02 9.542688e-01 -2.894196e+00 3.376694e+00
3.961621e+01 1.608696e-01 -1.581073e-02 9.540184e-01 -2.889099e+00 3.373306e+00
4.146445e+01 1.739130e-01 -1.568861e-02 9.536671e-01 -2.877029e+00 3.368454e+00
3.961275e+01 1.695652e-01 -2.287842e-02 9.568033e-01 -3.006744e+00 3.346222e+00
3.839108e+01 1.956522e-01 -2.632478e-02 9.577842e-01 -3.000748e+00 3.266479e+00
3.920456e+01 1.565217e-01 -2.342493e-02 9.577959e-01 -2.987183e+00 3.266479e+00
3.825554e+01 1.652174e-01 -2.132413e-02 9.576918e-01 -2.962463e+00 3.279526e+00
3.764702e+01 1.652174e-01 -1.952013e-02 9.577772e-01 -2.909119e+00 3.283325e+00
3.864330e+01 1.521739e-01 -1.753904e-02 9.581519e-01 -2.932571e+00 3.304947e+00
3.764850e+01 1.565217e-01 -2.277658e-02 9.612492e-01 -2.981079e+00 3.300110e+00
3.839912e+01 1.521739e-01 -2.322786e-02 9.627210e-01 -2.987564e+00 3.237106e+00
3.806525e+01 1.478261e-01 -2.166975e-02 9.628453e-01 -2.996552e+00 3.245468e+00
3.815717e+01 1.521739e-01 -2.143885e-02 9.627017e-01 -2.996552e+00 3.245468e+00
3.847086e+01 1.478261e-01 -2.135345e-02 9.630489e-01 -3.001678e+00 3.239410e+00
3.972479e+01 2.043478e-01 -1.167144e-02 9.638694e-01 -2.982880e+00 3.234650e+00
3.895172e+01 1.608696e-01 -8.474452e-03 9.649728e-01 -2.816895e+00 3.095871e+00
3.793669e+01 1.652174e-01 -8.458435e-03 9.655068e-01 -2.817810e+00 3.093002e+00
3.860336e+01 1.652174e-01 -9.209706e-03 9.658058e-01 -2.827652e+00 3.093765e+00
3.869606e+01 1.608696e-01 -2.601664e-02 9.754650e-01 -3.162186e+00 3.134064e+00
3.891795e+01 1.565217e-01 -2.481708e-02 9.757338e-01 -3.010971e+00 3.076553e+00
3.881432e+01 1.608696e-01 -2.224281e-02 9.750068e-01 -3.004456e+00 3.071579e+00
3.892273e+01 1.652174e-01 -2.180105e-02 9.747517e-01 -2.919434e+00 3.070419e+00
3.880695e+01 1.565217e-01 -2.168630e-02 9.749130e-01 -2.914307e+00 3.071655e+00
3.803389e+01 1.565217e-01 -2.149892e-02 9.751836e-01 -2.915543e+00 3.060547e+00
3.843774e+01 1.478261e-01 -2.062912e-02 9.755549e-01 -2.917755e+00 3.048950e+00
3.692223e+01 1.478261e-01 -1.159941e-02 9.771533e-01 -2.860855e+00 3.039734e+00
3.801202e+01 1.608696e-01 -1.258292e-02 9.757480e-01 -2.857086e+00 3.028687e+00
3.721362e+01 1.565217e-01 -1.101792e-02 9.746332e-01 -2.833267e+00 3.015198e+00
3.767303e+01 1.521739e-01 -1.163250e-02 9.747917e-01 -2.828476e+00 3.015152e+00
3.707819e+01 1.608696e-01 -1.167559e-02 9.748692e-01 -2.826706e+00 3.014664e+00
3.708405e+01 1.608696e-01 -1.144327e-02 9.749586e-01 -2.825073e+00 3.014664e+00
3.681351e+01 1.608696e-01 -1.144766e-02 9.749597e-01 -2.825073e+00 3.014557e+00
3.855148e+01 1.608696e-01 -6.661479e-03 9.747476e-01 -2.825546e+00 3.016037e+00
3.771567e+01 1.739130e-01 -1.980355e-02 9.757461e-01 -2.870667e+00 3.097977e+00
3.782785e+01 1.608696e-01 -2.255573e-02 9.751392e-01 -2.874924e+00 3.086823e+00
3.762613e+01 1.913043e-01 -2.211769e-02 9.745662e-01 -2.873047e+00 3.073929e+00
3.764592e+01 1.869565e-01 -2.073873e-02 9.744972e-01 -2.901932e+00 3.073090e+00
3.855719e+01 1.739130e-01 -1.938356e-02 9.745636e-01 -2.905853e+00 3.053940e+00
3.842432e+01 1.695652e-01 -2.107372e-02 9.747095e-01 -2.906631e+00 3.054413e+00
3.838266e+01 1.782609e-01 -1.832688e-02 9.750679e-01 -2.905182e+00 3.067459e+00
3.828104e+01 1.739130e-01 -1.774605e-02 9.753561e-01 -2.899780e+00 3.067459e+00
3.846701e+01 1.782609e-01 -1.784345e-02 9.748469e-01 -2.901535e+00 3.065201e+00
3.932817e+01 1.695652e-01 -1.820377e-02 9.753126e-01 -2.900131e+00 3.062866e+00
3.900787e+01 1.695652e-01 -2.364686e-02 9.756565e-01 -2.900055e+00 3.075073e+00
4.063950e+01 1.739130e-01 -9.014304e-03 9.777470e-01 -3.018906e+00 3.229431e+00
4.011530e+01 1.739130e-01 -8.425455e-03 9.757250e-01 -3.019867e+00 3.230194e+00
3.877724e+01 1.695652e-01 -1.054702e-02 9.758584e-01 -3.016602e+00 3.228058e+00
3.803433e+01 1.695652e-01 -1.438155e-02 9.770162e-01 -3.013443e+00 3.227646e+00
3.853209e+01 1.652174e-01 -1.964118e-02 9.786923e-01 -3.004013e+00 3.235214e+00
3.868401e+01 1.782609e-01 -1.814191e-02 9.793092e-01 -3.000870e+00 3.233414e+00
3.875139e+01 1.739130e-01 -1.839747e-02 9.789257e-01 -2.992584e+00 3.225113e+00
3.910921e+01 1.739130e-01 -1.847106e-02 9.771139e-01 -3.003433e+00 3.239822e+00
3.812738e+01 1.608696e-01 -1.744466e-02 9.787083e-01 -3.003433e+00 3.239822e+00
3.727271e+01 1.608696e-01 -3.181042e-02 9.804327e-01 -2.999542e+00 3.228256e+00
3.903494e+01 1.695652e-01 -3.069660e-02 9.809054e-01 -2.999741e+00 3.235901e+00
3.865628e+01 1.739130e-01 -3.005825e-02 9.814507e-01 -2.999008e+00 3.230774e+00
3.828955e+01 1.652174e-01 -2.876480e-02 9.818609e-01 -2.997360e+00 3.224136e+00
3.797589e+01 1.695652e-01 -3.018948e-02 9.830809e-01 -2.986176e+00 3.228470e+00
3.797589e+01 1.695652e-01 -2.723546e-02 9.832983e-01 -2.984314e+00 3.228363e+00
3.815100e+01 1.608696e-01 -2.547683e-02 9.811023e-01 -2.984314e+00 3.228363e+00
3.908095e+01 1.608696e-01 -2.739003e-02 9.812554e-01 -2.991074e+00 3.229279e+00
4.019719e+01 1.695652e-01 -2.631924e-02 9.825727e-01 -2.992111e+00 3.236374e+00
3.966910e+01 1.739130e-01 -2.540805e-02 9.878858e-01 -2.992111e+00 3.246979e+00
3.904509e+01 1.739130e-01 -3.129409e-02 9.884767e-01 -2.999008e+00 3.246979e+00
4.261009e+01 1.956522e-01 -9.818572e-03 9.911771e-01 -3.008133e+00 3.230896e+00
3.797704e+01 1.782609e-01 -2.019934e-02 9.928797e-01 -3.007385e+00 3.229721e+00
3.919669e+01 1.739130e-01 -1.850146e-02 9.937953e-01 -2.993393e+00 3.225540e+00
4.015599e+01 1.782609e-01 -1.762103e-02 9.940482e-01 -2.997467e+00 3.223846e+00
3.837874e+01 2.043478e-01 -2.261181e-02 9.958684e-01 -2.997467e+00 3.223175e+00
3.875395e+01 1.782609e-01 -2.505423e-02 9.978728e-01 -2.949722e+00 3.020584e+00
3.847572e+01 1.869565e-01 -2.502073e-02 9.978550e-01 -2.950180e+00 3.020264e+00
4.065790e+01 1.695652e-01 -2.418909e-02 9.983764e-01 -2.949203e+00 3.041840e+00
3.782747e+01 2.043478e-01 -2.331105e-02 9.985566e-01 -2.946960e+00 3.049667e+00
3.811421e+01 1.782609e-01 -2.150715e-02 9.989183e-01 -2.950546e+00 3.059875e+00
3.884299e+01 1.608696e-01 -2.068113e-02 9.993764e-01 -2.948471e+00 3.079681e+00
3.830569e+01 1.608696e-01 -1.940942e-02 9.997584e-01 -2.932129e+00 3.079681e+00
3.796065e+01 1.739130e-01 -1.901474e-02 9.999622e-01 -2.927216e+00 3.072311e+00
3.841304e+01 1.695652e-01 -1.988597e-02 1.000954e+00 -2.906036e+00 3.074005e+00
3.810258e+01 1.739130e-01 -2.001942e-02 1.001378e+00 -2.906036e+00 3.074005e+00
3.778299e+01 1.956522e-01 -2.069897e-02 1.000323e+00 -2.904770e+00 3.076111e+00
3.880952e+01 1.652174e-01 -2.091573e-02 9.991146e-01 -2.901169e+00 3.049896e+00
3.869977e+01 1.695652e-01 -1.984216e-02 9.993342e-01 -2.909119e+00 3.053482e+00
3.923955e+01 1.565217e-01 -2.064719e-02 9.997441e-01 -2.909546e+00 3.054199e+00
3.827269e+01 1.739130e-01 -1.962916e-02 9.994524e-01 -2.909790e+00 3.077087e+00
3.827269e+01 1.739130e-01 -1.838814e-02 9.990173e-01 -2.909790e+00 3.077087e+00
3.788922e+01 1.782609e-01 -1.855529e-02 9.991727e-01 -2.911850e+00 3.083359e+00
3.872247e+01 1.652174e-01 -1.922260e-02 9.994373e-01 -2.912140e+00 3.085892e+00
3.826839e+01 1.565217e-01 -1.910226e-02 9.998907e-01 -2.909821e+00 3.092377e+00
3.831165e+01 1.521739e-01 -1.841821e-02 1.000039e+00 -2.904251e+00 3.093552e+00
3.834229e+01 1.608696e-01 -1.851973e-02 1.000036e+00 -2.904251e+00 3.093552e+00
3.874809e+01 1.565217e-01 -1.848291e-02 9.996474e-01 -2.914047e+00 3.090927e+00
3.879530e+01 1.565217e-01 -1.506849e-02 1.000455e+00 -2.914536e+00 3.085327e+00
3.871472e+01 1.652174e-01 -1.493223e-02 1.000000e+00 -2.914536e+00 3.085251e+00
3.931348e+01 1.565217e-01 -1.344035e-02 1.000846e+00 -2.917175e+00 3.085449e+00
3.837178e+01 1.652174e-01 -1.172830e-02 1.001855e+00 -2.924988e+00 3.081329e+00
3.809697e+01 1.695652e-01 -1.066100e-02 1.002082e+00 -2.924866e+00 3.069901e+00
3.800754e+01 1.739130e-01 -1.099634e-02 1.002013e+00 -2.923874e+00 3.062927e+00
3.804102e+01 2.043478e-01 -1.086403e-02 1.001880e+00 -2.924652e+00 3.059158e+00
3.774353e+01 1.782609e-01 -1.094207e-02 1.002228e+00 -2.931244e+00 3.070221e+00
3.779762e+01 1.739130e-01 -1.096399e-02 1.002403e+00 -2.931473e+00 3.072083e+00
3.803748e+01 1.782609e-01 -1.032009e-02 1.002954e+00 -2.933670e+00 3.076752e+00
3.845326e+01 1.565217e-01 -9.854655e-03 1.003165e+00 -2.933838e+00 3.081512e+00
3.849942e+01 1.695652e-01 -9.192872e-03 1.003209e+00 -2.933838e+00 3.081512e+00
3.803496e+01 1.826087e-01 -9.149329e-03 1.003736e+00 -2.928482e+00 3.078278e+00
3.791653e+01 1.608696e-01 -8.516668e-03 1.003976e+00 -2.928452e+00 3.078964e+00
3.917250e+01 1.608696e-01 -9.397270e-03 1.004255e+00 -2.936996e+00 3.073853e+00
3.849113e+01 1.695652e-01 -8.314614e-03 1.003741e+00 -2.931168e+00 3.101868e+00
3.987961e+01 1.782609e-01 -1.102956e-02 1.003978e+00 -2.908661e+00 3.145935e+00
3.919377e+01 1.695652e-01 -1.520854e-02 1.004477e+00 -2.906876e+00 3.145935e+00
3.943407e+01 1.695652e-01 -1.378431e-02 1.005204e+00 -2.900650e+00 3.149734e+00
3.803288e+01 1.869565e-01 -6.707544e-03 1.006213e+00 -2.895111e+00 3.156433e+00
3.852739e+01 1.695652e-01 -8.806934e-03 1.007149e+00 -2.890503e+00 3.157501e+00
3.798460e+01 1.782609e-01 -9.460439e-03 1.007016e+00 -2.893738e+00 3.161270e+00
3.779799e+01 1.869565e-01 -8.788654e-03 1.007764e+00 -2.888596e+00 3.126923e+00
3.856209e+01 1.782609e-01 -4.204963e-03 1.008677e+00 -2.884506e+00 3.205261e+00
