2.278762e-01 5.640978e+00 -2.528516e+01 2.888672e+01 8.150178e-04 2.427606e-02 -3.593750e-01 4.062500e-01
2.363916e-01 5.656707e+00 -2.528516e+01 2.888672e+01 8.129292e-04 2.426303e-02 -3.593750e-01 4.062500e-01
2.377524e-01 5.642233e+00 -2.528516e+01 2.888672e+01 8.069881e-04 2.406722e-02 -3.593750e-01 4.062500e-01
2.519382e-01 5.659802e+00 -2.528516e+01 2.888672e+01 8.165620e-04 2.428083e-02 -3.593750e-01 4.062500e-01
2.298000e-01 5.649459e+00 -2.528516e+01 2.888672e+01 8.244530e-04 2.424169e-02 -3.437500e-01 4.062500e-01
2.362955e-01 5.645515e+00 -2.528516e+01 2.888672e+01 8.266777e-04 2.422947e-02 -3.593750e-01 4.062500e-01
2.359392e-01 5.650362e+00 -2.528516e+01 2.888672e+01 8.214824e-04 2.412682e-02 -3.593750e-01 4.062500e-01
2.378198e-01 5.660319e+00 -2.528516e+01 2.888672e+01 8.200272e-04 2.437362e-02 -3.593750e-01 4.062500e-01
2.326385e-01 5.639253e+00 -2.528516e+01 2.888672e+01 8.209119e-04 2.401105e-02 -3.593750e-01 4.062500e-01
2.484950e-01 5.630720e+00 -2.528516e+01 2.888672e+01 8.160804e-04 2.430807e-02 -3.593750e-01 4.062500e-01
2.337360e-01 5.646803e+00 -2.528516e+01 2.888672e+01 8.093567e-04 2.423832e-02 -3.593750e-01 4.062500e-01
2.319448e-01 5.643541e+00 -2.528516e+01 2.888672e+01 8.142274e-04 2.416437e-02 -3.437500e-01 4.062500e-01
2.480715e-01 5.652952e+00 -2.528516e+01 2.888672e+01 8.135495e-04 2.415470e-02 -3.593750e-01 4.062500e-01
2.479993e-01 5.643264e+00 -2.528516e+01 2.888672e+01 8.077392e-04 2.414881e-02 -3.593750e-01 4.062500e-01
2.116480e-01 5.649010e+00 -2.528516e+01 2.888672e+01 8.151251e-04 2.410486e-02 -3.593750e-01 4.062500e-01
2.204242e-01 5.630750e+00 -2.528516e+01 2.888672e+01 8.090740e-04 2.414764e-02 -3.593750e-01 4.062500e-01
2.440320e-01 5.648108e+00 -2.528516e+01 2.888672e+01 8.248325e-04 2.428536e-02 -3.593750e-01 4.062500e-01
2.235767e-01 5.644166e+00 -2.528516e+01 2.888672e+01 8.143347e-04 2.403807e-02 -3.593750e-01 4.062500e-01
2.348679e-01 5.640704e+00 -2.528516e+01 2.888672e+01 8.245917e-04 2.420945e-02 -3.593750e-01 4.062500e-01
2.497595e-01 5.643600e+00 -2.528516e+01 2.888672e+01 8.212102e-04 2.403862e-02 -3.593750e-01 4.062500e-01
2.469974e-01 5.654976e+00 -2.528516e+01 2.888672e+01 8.114924e-04 2.414910e-02 -3.593750e-01 4.062500e-01
2.508146e-01 5.634067e+00 -2.528516e+01 2.888672e+01 8.225136e-04 2.415486e-02 -3.593750e-01 4.062500e-01
2.341634e-01 5.641652e+00 -2.528516e+01 2.888672e+01 8.125105e-04 2.420312e-02 -3.593750e-01 4.062500e-01
2.514569e-01 5.638125e+00 -2.528516e+01 2.888672e+01 8.192735e-04 2.416852e-02 -3.593750e-01 4.062500e-01
2.418542e-01 5.651016e+00 -2.528516e+01 2.888672e+01 8.163578e-04 2.424171e-02 -3.593750e-01 4.062500e-01
2.447102e-01 5.645784e+00 -2.528516e+01 2.888672e+01 8.151146e-04 2.396257e-02 -3.593750e-01 4.062500e-01
2.177370e-01 5.638474e+00 -2.528516e+01 2.888672e+01 8.204748e-04 2.430121e-02 -3.593750e-01 4.062500e-01
2.603376e-01 5.646851e+00 -2.528516e+01 2.888672e+01 8.172006e-04 2.427779e-02 -3.593750e-01 4.062500e-01
2.477277e-01 5.651107e+00 -2.528516e+01 2.888672e+01 8.153607e-04 2.418145e-02 -3.593750e-01 4.062500e-01
2.233542e-01 5.660649e+00 -2.528516e+01 2.888672e+01 8.129109e-04 2.429508e-02 -3.593750e-01 4.062500e-01
2.423821e-01 5.657170e+00 -2.528516e+01 2.888672e+01 8.258061e-04 2.425357e-02 -3.593750e-01 4.062500e-01
2.234278e-01 5.643690e+00 -2.528516e+01 2.888672e+01 8.255784e-04 2.422165e-02 -3.593750e-01 4.062500e-01
2.387486e-01 5.630801e+00 -2.528516e+01 2.888672e+01 8.113275e-04 2.424706e-02 -3.593750e-01 4.062500e-01
2.513142e-01 5.656049e+00 -2.528516e+01 2.888672e+01 8.119504e-04 2.402999e-02 -3.593750e-01 4.062500e-01
2.470429e-01 5.649774e+00 -2.528516e+01 2.888672e+01 8.199801e-04 2.423585e-02 -3.593750e-01 4.062500e-01
2.491179e-01 5.653776e+00 -2.528516e+01 2.888672e+01 8.158396e-04 2.434806e-02 -3.593750e-01 4.062500e-01
2.299051e-01 5.653947e+00 -2.528516e+01 2.888672e+01 8.158161e-04 2.404360e-02 -3.593750e-01 4.062500e-01
2.187436e-01 5.642792e+00 -2.528516e+01 2.888672e+01 8.141253e-04 2.417460e-02 -3.593750e-01 4.062500e-01
2.419920e-01 5.650016e+00 -2.528516e+01 2.888672e+01 8.114740e-04 2.420803e-02 -3.593750e-01 4.062500e-01
2.439164e-01 5.656609e+00 -2.528516e+01 2.888672e+01 8.253821e-04 2.425711e-02 -3.593750e-01 4.062500e-01
2.418215e-01 5.652606e+00 -2.528516e+01 2.888672e+01 8.102492e-04 2.420099e-02 -3.593750e-01 4.062500e-01
2.376338e-01 5.663863e+00 -2.528516e+01 2.888672e+01 8.229271e-04 2.430233e-02 -3.593750e-01 4.062500e-01
2.313168e-01 5.645444e+00 -2.528516e+01 2.888672e+01 8.147613e-04 2.421388e-02 -3.593750e-01 4.062500e-01
2.328340e-01 5.642963e+00 -2.528516e+01 2.888672e+01 8.318598e-04 2.425500e-02 -3.593750e-01 4.062500e-01
2.361338e-01 5.645481e+00 -2.528516e+01 2.888672e+01 8.137484e-04 2.420696e-02 -3.593750e-01 4.062500e-01
2.518295e-01 5.651058e+00 -2.528516e+01 2.888672e+01 8.166824e-04 2.406869e-02 -3.593750e-01 4.062500e-01
2.318707e-01 5.629466e+00 -2.528516e+01 2.384766e+01 8.077130e-04 2.412005e-02 -3.593750e-01 4.062500e-01
2.316806e-01 5.641992e+00 -2.528516e+01 2.888672e+01 8.124162e-04 2.426025e-02 -3.593750e-01 4.062500e-01
2.224645e-01 5.641394e+00 -2.528516e+01 2.888672e+01 8.200063e-04 2.421762e-02 -3.593750e-01 4.062500e-01
2.305717e-01 5.636972e+00 -2.486328e+01 2.888672e+01 8.167923e-04 2.421834e-02 -3.593750e-01 4.062500e-01
2.301584e-01 5.639599e+00 -2.528516e+01 2.888672e+01 8.259867e-04 2.397158e-02 -3.593750e-01 4.062500e-01
2.285376e-01 5.640981e+00 -2.528516e+01 2.888672e+01 8.191059e-04 2.411760e-02 -3.593750e-01 4.062500e-01
2.369283e-01 5.638679e+00 -2.528516e+01 2.888672e+01 8.151460e-04 2.410117e-02 -3.593750e-01 4.062500e-01
2.556009e-01 5.642968e+00 -2.528516e+01 2.888672e+01 8.289678e-04 2.426375e-02 -3.437500e-01 4.062500e-01
2.349998e-01 5.639570e+00 -2.528516e+01 2.888672e+01 8.160856e-04 2.422374e-02 -3.593750e-01 4.062500e-01
2.324039e-01 5.647316e+00 -2.528516e+01 2.888672e+01 8.216604e-04 2.418896e-02 -3.593750e-01 4.062500e-01
2.509953e-01 5.646444e+00 -2.528516e+01 2.888672e+01 8.214353e-04 2.411254e-02 -3.593750e-01 4.062500e-01
2.294789e-01 5.645875e+00 -2.528516e+01 2.888672e+01 8.166065e-04 2.432874e-02 -3.593750e-01 4.062500e-01
2.210315e-01 5.658880e+00 -2.486328e+01 2.888672e+01 8.117122e-04 2.417326e-02 -3.437500e-01 4.062500e-01
2.129029e-01 5.652367e+00 -2.528516e+01 2.888672e+01 8.265102e-04 2.406926e-02 -3.593750e-01 4.062500e-01
2.222391e-01 5.654367e+00 -2.528516e+01 2.888672e+01 8.157977e-04 2.404482e-02 -3.593750e-01 4.062500e-01
2.339122e-01 5.636000e+00 -2.528516e+01 2.888672e+01 8.196058e-04 2.420059e-02 -3.593750e-01 4.062500e-01
2.297067e-01 5.650896e+00 -2.528516e+01 2.888672e+01 8.090426e-04 2.401321e-02 -3.593750e-01 4.062500e-01
2.317784e-01 5.646005e+00 -2.528516e+01 2.888672e+01 8.163447e-04 2.404919e-02 -3.437500e-01 4.062500e-01
2.412533e-01 5.647575e+00 -2.528516e+01 2.888672e+01 8.185144e-04 2.404828e-02 -3.593750e-01 4.062500e-01
2.516210e-01 5.653942e+00 -2.528516e+01 2.888672e+01 8.191714e-04 2.430523e-02 -3.593750e-01 4.062500e-01
2.304046e-01 5.643918e+00 -2.528516e+01 2.888672e+01 8.142797e-04 2.416282e-02 -3.593750e-01 4.062500e-01
2.500062e-01 5.645273e+00 -2.528516e+01 2.888672e+01 8.063468e-04 2.415169e-02 -3.593750e-01 4.062500e-01
2.430845e-01 5.649215e+00 -2.528516e+01 2.888672e+01 8.214955e-04 2.413400e-02 -3.593750e-01 4.062500e-01
2.306908e-01 5.654323e+00 -2.528516e+01 2.888672e+01 8.077497e-04 2.431024e-02 -3.593750e-01 4.062500e-01
2.378286e-01 5.648691e+00 -2.528516e+01 2.888672e+01 8.129423e-04 2.429445e-02 -3.593750e-01 4.062500e-01
2.454882e-01 5.643547e+00 -2.528516e+01 2.888672e+01 8.112411e-04 2.424257e-02 -3.593750e-01 4.062500e-01
2.252003e-01 5.646429e+00 -2.528516e+01 2.888672e+01 8.233537e-04 2.420957e-02 -3.593750e-01 4.062500e-01
2.259091e-01 5.646254e+00 -2.528516e+01 2.888672e+01 8.115185e-04 2.402925e-02 -3.593750e-01 3.984375e-01
2.479756e-01 5.659268e+00 -2.528516e+01 2.888672e+01 8.194697e-04 2.406936e-02 -3.593750e-01 4.062500e-01
2.450556e-01 5.645248e+00 -2.528516e+01 2.888672e+01 8.268268e-04 2.419953e-02 -3.593750e-01 4.062500e-01
2.375497e-01 5.645929e+00 -2.528516e+01 2.888672e+01 8.117986e-04 2.428618e-02 -3.593750e-01 4.062500e-01
2.428681e-01 5.656972e+00 -2.528516e+01 2.888672e+01 8.152481e-04 2.415809e-02 -3.593750e-01 4.062500e-01
2.423480e-01 5.644849e+00 -2.528516e+01 2.888672e+01 8.179962e-04 2.400972e-02 -3.593750e-01 4.062500e-01
2.327232e-01 5.656969e+00 -2.528516e+01 2.888672e+01 8.233354e-04 2.422221e-02 -3.593750e-01 4.062500e-01
2.411892e-01 5.651631e+00 -2.528516e+01 2.888672e+01 8.203701e-04 2.425176e-02 -3.593750e-01 4.062500e-01
2.409051e-01 5.647956e+00 -2.528516e+01 2.384766e+01 8.215478e-04 2.430208e-02 -3.593750e-01 4.062500e-01
2.397337e-01 5.645499e+00 -2.528516e+01 2.888672e+01 8.214562e-04 2.417021e-02 -3.593750e-01 4.062500e-01
2.375786e-01 5.643106e+00 -2.528516e+01 2.888672e+01 8.186558e-04 2.424941e-02 -3.593750e-01 4.062500e-01
2.383688e-01 5.628926e+00 -2.528516e+01 2.888672e+01 8.249267e-04 2.394852e-02 -3.593750e-01 4.062500e-01
2.371612e-01 5.654842e+00 -2.528516e+01 2.888672e+01 8.210794e-04 2.411589e-02 -3.593750e-01 4.062500e-01
2.628951e-01 5.646969e+00 -2.528516e+01 2.888672e+01 8.199566e-04 2.411634e-02 -3.593750e-01 4.062500e-01
2.167266e-01 5.641359e+00 -2.528516e+01 2.888672e+01 8.195116e-04 2.410983e-02 -3.593750e-01 4.062500e-01
2.345613e-01 5.651347e+00 -2.528516e+01 2.888672e+01 8.200743e-04 2.425828e-02 -3.593750e-01 4.062500e-01
2.333045e-01 5.649222e+00 -2.528516e+01 2.888672e+01 8.166222e-04 2.410638e-02 -3.593750e-01 4.062500e-01
2.346574e-01 5.648534e+00 -2.528516e+01 2.888672e+01 8.088463e-04 2.415238e-02 -3.593750e-01 4.062500e-01
2.382547e-01 5.648707e+00 -2.528516e+01 2.888672e+01 8.197393e-04 2.432036e-02 -3.437500e-01 4.062500e-01
2.442119e-01 5.639813e+00 -2.528516e+01 2.888672e+01 8.190222e-04 2.387249e-02 -3.593750e-01 4.062500e-01
2.430031e-01 5.671837e+00 -2.528516e+01 2.888672e+01 8.165934e-04 2.424817e-02 -3.593750e-01 4.062500e-01
2.395559e-01 5.649931e+00 -2.528516e+01 2.888672e+01 8.200168e-04 2.410707e-02 -3.593750e-01 4.062500e-01
2.290088e-01 5.656214e+00 -2.528516e+01 2.888672e+01 8.182344e-04 2.416211e-02 -3.593750e-01 4.062500e-01
2.225817e-01 5.647387e+00 -2.528516e+01 2.888672e+01 8.089824e-04 2.410597e-02 -3.593750e-01 3.984375e-01
2.556262e-01 5.660915e+00 -2.528516e+01 2.888672e+01 8.230580e-04 2.435201e-02 -3.593750e-01 4.062500e-01
2.499117e-01 5.650225e+00 -2.528516e+01 2.888672e+01 8.101314e-04 2.428029e-02 -3.593750e-01 4.062500e-01
2.310923e-01 5.664634e+00 -2.528516e+01 2.888672e+01 8.206580e-04 2.423245e-02 -3.593750e-01 4.062500e-01
