3.516070e-01 1.327646e+00 -3.370361e+00 5.015869e+00 2.750078e-04 1.351478e-02 -1.201172e-01 1.645508e-01
2.412541e-01 1.391940e+00 -4.003418e+00 4.729492e+00 -1.096892e-04 1.211051e-02 -1.201172e-01 9.008789e-02
2.980286e-01 1.353183e+00 -3.456055e+00 5.013184e+00 -3.243414e-06 1.200671e-02 -9.497070e-02 9.497070e-02
2.833015e-01 1.379888e+00 -3.992920e+00 4.881348e+00 -3.332011e-05 1.194078e-02 -9.497070e-02 1.140137e-01
2.847791e-01 1.363091e+00 -3.926514e+00 5.012207e+00 -3.005283e-05 1.195597e-02 -1.066895e-01 1.069336e-01
2.364804e-01 1.376416e+00 -3.987061e+00 4.537598e+00 2.815873e-05 1.173270e-02 -9.497070e-02 1.069336e-01
3.012259e-01 1.354584e+00 -3.729736e+00 5.011230e+00 -6.055356e-05 1.198368e-02 -9.497070e-02 1.140137e-01
2.764831e-01 1.369021e+00 -3.928223e+00 4.196289e+00 3.029995e-06 1.185219e-02 -9.497070e-02 1.020508e-01
2.758438e-01 1.364530e+00 -3.586914e+00 5.009277e+00 5.012549e-05 1.195740e-02 -1.066895e-01 1.140137e-01
2.707109e-01 1.393498e+00 -3.926758e+00 4.196289e+00 8.123980e-06 1.226531e-02 -9.497070e-02 1.140137e-01
3.063542e-01 1.404470e+00 -3.728271e+00 4.541504e+00 -1.072714e-05 1.187436e-02 -9.497070e-02 1.069336e-01
2.618155e-01 1.359873e+00 -3.925049e+00 4.150146e+00 -9.785142e-05 1.259954e-02 -1.130371e-01 1.020508e-01
2.380618e-01 1.404560e+00 -4.022705e+00 4.167725e+00 -2.464854e-05 1.254357e-02 -1.066895e-01 1.130371e-01
2.472605e-01 1.391682e+00 -3.670654e+00 4.665039e+00 -1.869316e-04 1.314098e-02 -1.066895e-01 1.130371e-01
2.995228e-01 1.408596e+00 -4.014893e+00 4.342285e+00 -5.336188e-05 1.270966e-02 -1.066895e-01 1.140137e-01
2.641313e-01 1.393453e+00 -3.670654e+00 4.342285e+00 2.989698e-05 1.286515e-02 -1.066895e-01 1.201172e-01
2.789747e-01 1.440416e+00 -3.842773e+00 4.545654e+00 2.398161e-05 1.254298e-02 -1.066895e-01 1.140137e-01
2.890569e-01 1.402772e+00 -3.842773e+00 4.831299e+00 -3.534619e-05 1.291778e-02 -1.066895e-01 1.201172e-01
2.716420e-01 1.403324e+00 -3.855469e+00 4.953613e+00 -5.282132e-05 1.281099e-02 -1.066895e-01 1.069336e-01
2.756734e-01 1.382374e+00 -3.499756e+00 4.312744e+00 6.535128e-05 1.322203e-02 -1.130371e-01 1.140137e-01
2.385125e-01 1.384355e+00 -3.519775e+00 4.118164e+00 6.821700e-05 1.346834e-02 -1.235352e-01 1.262207e-01
2.510744e-01 1.416837e+00 -3.779297e+00 4.902832e+00 2.216193e-05 1.319784e-02 -1.201172e-01 1.237793e-01
2.601632e-01 1.413302e+00 -3.531738e+00 4.901123e+00 4.632045e-06 1.285861e-02 -1.201172e-01 1.284180e-01
2.559283e-01 1.419417e+00 -3.776611e+00 4.778320e+00 -5.412430e-05 1.311392e-02 -1.184082e-01 1.235352e-01
2.342985e-01 1.459501e+00 -4.595947e+00 4.116455e+00 -2.216895e-05 1.409640e-02 -1.684570e-01 2.006836e-01
1.964815e-01 1.476261e+00 -4.450684e+00 4.772461e+00 -1.072363e-04 1.357459e-02 -1.892090e-01 2.255859e-01
1.981017e-01 1.475238e+00 -4.652588e+00 3.996582e+00 9.565123e-05 1.625657e-02 -1.745605e-01 2.868652e-01
2.178063e-01 1.549288e+00 -4.087646e+00 4.696289e+00 2.894670e-04 1.510081e-02 -1.420898e-01 2.082520e-01
2.205188e-01 1.480654e+00 -4.884521e+00 4.528809e+00 -1.476385e-05 1.727494e-02 -2.050781e-01 2.280273e-01
1.806662e-01 1.569706e+00 -5.490723e+00 4.717529e+00 6.031402e-04 1.827865e-02 -1.604004e-01 3.691406e-01
-3.299067e-01 1.823561e+00 -7.341064e+00 3.982178e+00 1.243625e-03 2.967687e-02 -4.282227e-01 6.125488e-01
-3.715194e-01 1.840828e+00 -7.168213e+00 4.575928e+00 2.081261e-04 1.958909e-02 -4.052734e-01 5.915527e-01
-4.472683e-01 2.147071e+00 -6.590576e+00 5.656006e+00 1.383295e-05 2.001205e-02 -4.238281e-01 6.574707e-01
-4.537163e-01 2.098906e+00 -6.638916e+00 5.846680e+00 3.286238e-04 2.330158e-02 -4.187012e-01 6.237793e-01
-4.396366e-01 2.186699e+00 -6.637207e+00 6.004150e+00 -1.393924e-04 1.343825e-02 -3.122559e-01 2.653809e-01
-4.843039e-01 2.242933e+00 -7.298340e+00 6.577148e+00 -4.987837e-05 1.468036e-02 -2.705078e-01 3.415527e-01
-4.116159e-01 2.137111e+00 -6.707275e+00 5.638428e+00 1.727111e-04 1.786669e-02 -4.052734e-01 5.537109e-01
-4.352281e-01 2.124930e+00 -6.831299e+00 5.781006e+00 -5.843340e-05 1.864300e-02 -4.350586e-01 6.779785e-01
-4.474530e-01 2.137757e+00 -6.614502e+00 5.327393e+00 2.410376e-05 1.732400e-02 -4.123535e-01 3.610840e-01
-4.836536e-01 2.273271e+00 -6.656494e+00 5.402588e+00 9.255946e-05 1.282200e-02 -1.535645e-01 2.651367e-01
-4.764575e-01 2.105838e+00 -6.488770e+00 5.027588e+00 1.675048e-04 1.747533e-02 -4.318848e-01 6.679688e-01
-4.588724e-01 2.168538e+00 -6.752197e+00 5.560059e+00 -1.451280e-04 1.250757e-02 -3.122559e-01 2.043457e-01
-4.214438e-01 2.082608e+00 -6.556152e+00 5.095459e+00 7.149271e-04 3.451279e-02 -4.375000e-01 1.018066e+00
-4.799552e-01 2.256385e+00 -6.738037e+00 5.514404e+00 4.470576e-06 1.956967e-02 -4.404297e-01 6.740723e-01
-4.187773e-01 2.164990e+00 -6.598389e+00 5.243652e+00 -3.760114e-05 1.612294e-02 -3.471680e-01 3.232422e-01
-3.658173e-01 2.240033e+00 -7.169922e+00 6.038086e+00 -1.759686e-04 1.569692e-02 -4.396973e-01 3.544922e-01
-4.352889e-01 2.276180e+00 -7.691895e+00 6.451660e+00 -2.157909e-04 1.411223e-02 -1.999512e-01 2.851562e-01
-3.863315e-01 2.227639e+00 -7.491943e+00 6.352539e+00 1.021465e-04 2.148314e-02 -4.282227e-01 3.464355e-01
-3.970972e-01 2.146895e+00 -8.031006e+00 6.923584e+00 1.426400e-05 1.922429e-02 -4.440918e-01 1.139648e+00
-3.684985e-01 2.207439e+00 -7.583984e+00 6.385498e+00 2.458831e-04 2.264114e-02 -4.414062e-01 6.999512e-01
-3.892343e-01 2.156294e+00 -7.977051e+00 6.711426e+00 3.071415e-05 1.729094e-02 -3.620605e-01 3.220215e-01
-4.177250e-01 2.200220e+00 -7.250000e+00 5.678711e+00 1.407670e-04 1.871170e-02 -4.350586e-01 6.694336e-01
-3.712786e-01 2.136356e+00 -7.339600e+00 5.502930e+00 7.481896e-05 1.824529e-02 -4.282227e-01 5.209961e-01
-3.868653e-01 2.220156e+00 -7.958252e+00 6.355713e+00 9.708479e-05 1.557499e-02 -3.305664e-01 4.138184e-01
-4.245707e-01 2.182553e+00 -8.098633e+00 6.493164e+00 2.528740e-06 1.760763e-02 -4.318848e-01 5.141602e-01
-3.865488e-01 2.195215e+00 -7.114014e+00 5.932861e+00 8.758622e-05 1.511201e-02 -2.238770e-01 2.241211e-01
-4.084236e-01 2.176750e+00 -7.821045e+00 6.218018e+00 2.945610e-05 1.992333e-02 -4.350586e-01 8.437500e-01
-3.572321e-01 2.122354e+00 -7.796387e+00 6.156738e+00 1.571722e-04 1.982759e-02 -4.123535e-01 5.568848e-01
-4.362156e-01 2.164324e+00 -7.281738e+00 5.661621e+00 1.051301e-04 1.757904e-02 -4.123535e-01 3.212891e-01
-4.102055e-01 2.167724e+00 -7.909424e+00 6.094482e+00 2.213609e-04 1.787198e-02 -4.052734e-01 4.033203e-01
-4.095280e-01 2.228707e+00 -7.928955e+00 6.094482e+00 1.275223e-04 2.006445e-02 -4.318848e-01 6.127930e-01
-4.786549e-01 2.183523e+00 -7.298828e+00 5.723877e+00 2.439511e-04 1.576459e-02 -1.591797e-01 2.792969e-01
-4.307338e-01 2.155243e+00 -7.392090e+00 5.794189e+00 2.141341e-04 1.796225e-02 -3.867188e-01 2.749023e-01
-4.444119e-01 2.166982e+00 -7.451660e+00 5.245117e+00 1.697808e-04 1.676453e-02 -3.752441e-01 2.661133e-01
-3.859187e-01 2.106416e+00 -7.124268e+00 5.822510e+00 1.265914e-05 1.918736e-02 -4.282227e-01 5.964355e-01
-4.054054e-01 2.157765e+00 -7.239258e+00 5.822510e+00 -1.387367e-05 1.604205e-02 -3.620605e-01 2.812500e-01
-2.594964e-01 2.102574e+00 -6.467773e+00 6.291748e+00 3.957120e-04 1.977358e-02 -3.620605e-01 2.519531e-01
-3.084435e-01 2.192767e+00 -6.659180e+00 5.703369e+00 3.023002e-04 1.981346e-02 -3.471680e-01 3.044434e-01
-3.083263e-01 2.223769e+00 -6.638184e+00 6.402832e+00 9.547713e-06 1.727882e-02 -3.967285e-01 2.712402e-01
-3.194084e-01 2.248007e+00 -6.655029e+00 6.832275e+00 1.304484e-04 1.753372e-02 -3.752441e-01 2.585449e-01
-3.377422e-01 2.158913e+00 -6.658203e+00 6.321777e+00 1.936571e-04 1.903420e-02 -3.088379e-01 2.922363e-01
-3.270762e-01 2.234072e+00 -6.512695e+00 6.776123e+00 3.069758e-04 1.730231e-02 -2.919922e-01 2.241211e-01
-3.795037e-01 2.217901e+00 -6.767090e+00 6.298340e+00 1.104207e-04 1.980039e-02 -3.471680e-01 3.452148e-01
-3.848208e-01 2.080483e+00 -6.570068e+00 6.497314e+00 3.396234e-04 2.077260e-02 -3.471680e-01 3.447266e-01
-4.078225e-01 2.160162e+00 -6.526123e+00 6.281982e+00 1.822672e-04 2.013290e-02 -3.620605e-01 3.583984e-01
-4.076025e-01 2.185496e+00 -6.612061e+00 6.253418e+00 9.470488e-05 1.990693e-02 -3.471680e-01 3.605957e-01
-4.145313e-01 2.183427e+00 -6.596680e+00 6.192871e+00 4.588518e-05 1.667575e-02 -3.620605e-01 2.521973e-01
-4.304391e-01 2.187412e+00 -6.546875e+00 6.039062e+00 2.245594e-04 1.993414e-02 -3.620605e-01 4.106445e-01
-4.063346e-01 2.193243e+00 -6.678955e+00 6.086914e+00 4.156091e-04 1.998846e-02 -3.305664e-01 4.396973e-01
-4.890526e-01 2.211215e+00 -6.779053e+00 5.773682e+00 2.789055e-04 2.126727e-02 -3.867188e-01 3.186035e-01
-4.531036e-01 2.204495e+00 -7.247559e+00 6.011475e+00 1.018516e-04 1.690522e-02 -3.620605e-01 2.319336e-01
-4.167514e-01 2.181749e+00 -7.355713e+00 5.863525e+00 9.869246e-06 1.704621e-02 -3.305664e-01 3.210449e-01
-4.599769e-01 2.098956e+00 -6.431396e+00 5.786865e+00 1.018769e-04 1.705390e-02 -3.305664e-01 3.457031e-01
-4.498443e-01 2.199228e+00 -6.715576e+00 5.678467e+00 2.344286e-04 1.860858e-02 -3.620605e-01 4.230957e-01
-4.643322e-01 2.149637e+00 -6.551514e+00 5.494141e+00 1.420994e-04 1.737772e-02 -3.620605e-01 4.621582e-01
-4.723800e-01 2.148338e+00 -6.549316e+00 5.896240e+00 2.485031e-04 1.914345e-02 -4.052734e-01 4.645996e-01
-5.016347e-01 2.209149e+00 -6.931396e+00 5.524170e+00 1.476118e-04 1.572948e-02 -3.867188e-01 2.487793e-01
-5.506144e-01 2.179038e+00 -6.973877e+00 5.898682e+00 -2.008530e-05 1.344433e-02 -3.305664e-01 3.574219e-01
-5.138336e-01 2.237322e+00 -7.719727e+00 5.550537e+00 -1.572227e-04 1.804723e-02 -3.752441e-01 4.020996e-01
-5.618832e-01 2.197184e+00 -6.568359e+00 5.408936e+00 1.684034e-04 1.984744e-02 -3.620605e-01 5.041504e-01
-4.839705e-01 2.171310e+00 -6.716553e+00 5.871582e+00 -2.129772e-04 1.379411e-02 -3.471680e-01 2.167969e-01
-5.231885e-01 2.203905e+00 -6.805420e+00 5.781250e+00 -9.269986e-05 1.586751e-02 -3.752441e-01 4.116211e-01
-5.548034e-01 2.178456e+00 -6.656738e+00 5.871338e+00 1.395216e-04 1.625369e-02 -3.867188e-01 4.055176e-01
-5.460401e-01 2.226665e+00 -7.830566e+00 5.527832e+00 -1.145740e-04 1.326590e-02 -3.305664e-01 2.001953e-01
-5.429835e-01 2.164128e+00 -7.814209e+00 5.616455e+00 5.278621e-05 1.756384e-02 -3.752441e-01 2.478027e-01
-5.604409e-01 2.224362e+00 -7.819336e+00 5.536621e+00 -7.350335e-05 1.271328e-02 -3.305664e-01 4.719238e-01
-5.719044e-01 2.175798e+00 -7.270508e+00 5.532227e+00 1.568493e-04 1.556555e-02 -3.752441e-01 4.372559e-01
-5.341913e-01 2.247449e+00 -6.928223e+00 5.537598e+00 -9.975955e-05 1.537979e-02 -2.919922e-01 4.145508e-01
-5.704698e-01 2.107070e+00 -6.814209e+00 5.541260e+00 4.057778e-05 1.594275e-02 -2.919922e-01 2.678223e-01
-5.341205e-01 2.229830e+00 -7.034668e+00 5.608887e+00 -9.117083e-05 1.463666e-02 -3.752441e-01 4.731445e-01
-5.538967e-01 2.259455e+00 -7.125000e+00 5.851807e+00 9.126911e-05 1.741242e-02 -3.620605e-01 4.116211e-01
-5.315521e-01 2.259694e+00 -7.128662e+00 5.733643e+00 1.494638e-05 1.534530e-02 -3.752441e-01 3.125000e-01
-5.493593e-01 2.068393e+00 -7.097656e+00 5.817139e+00 1.473844e-04 1.604785e-02 -3.471680e-01 3.486328e-01
-5.678027e-01 2.120883e+00 -6.895752e+00 5.840576e+00 -4.470576e-05 1.898325e-02 -3.867188e-01 2.551270e-01
-5.791717e-01 2.159967e+00 -7.196045e+00 5.310303e+00 6.569669e-05 1.719792e-02 -3.867188e-01 2.551270e-01
-5.374670e-01 2.078832e+00 -7.512451e+00 5.421875e+00 1.836039e-04 2.037655e-02 -3.867188e-01 4.355469e-01
-5.414834e-01 2.250321e+00 -7.148682e+00 5.707031e+00 -2.869509e-05 1.619053e-02 -3.867188e-01 4.123535e-01
-5.901709e-01 2.233570e+00 -7.086914e+00 5.855225e+00 -1.035155e-04 1.577438e-02 -3.752441e-01 2.360840e-01
-5.410939e-01 2.124764e+00 -7.374268e+00 5.855225e+00 -3.229373e-06 1.959042e-02 -3.752441e-01 4.143066e-01
-5.507817e-01 2.210534e+00 -7.056396e+00 5.791504e+00 -1.590677e-04 1.487695e-02 -3.752441e-01 2.434082e-01
-5.465737e-01 2.207884e+00 -7.374268e+00 5.312988e+00 -1.935714e-04 1.607229e-02 -3.752441e-01 3.750000e-01
-5.627038e-01 2.202506e+00 -8.007324e+00 5.873779e+00 2.510768e-05 1.812341e-02 -3.752441e-01 4.741211e-01
-5.403065e-01 2.134417e+00 -7.051025e+00 5.736328e+00 8.544781e-05 1.725365e-02 -3.620605e-01 4.140625e-01
-5.572130e-01 2.224347e+00 -7.152832e+00 5.748535e+00 2.328097e-05 1.669110e-02 -3.752441e-01 4.152832e-01
-5.302945e-01 2.194178e+00 -7.307129e+00 5.886963e+00 -9.601208e-05 1.770952e-02 -3.620605e-01 2.880859e-01
-5.672193e-01 2.206595e+00 -7.409912e+00 5.743652e+00 6.161083e-05 1.423357e-02 -3.471680e-01 4.694824e-01
-5.631058e-01 2.183606e+00 -7.460693e+00 5.622559e+00 5.713463e-05 1.557167e-02 -3.752441e-01 2.666016e-01
-4.112792e-01 2.110378e+00 -6.937012e+00 6.287598e+00 2.787216e-04 2.997954e-02 -6.877441e-01 6.401367e-01
-3.931478e-01 2.175844e+00 -6.461670e+00 7.149658e+00 3.051280e-04 2.814776e-02 -6.877441e-01 7.824707e-01
-5.095602e-01 2.185113e+00 -6.242432e+00 5.882080e+00 3.109086e-04 2.839879e-02 -4.350586e-01 8.432617e-01
-4.312984e-01 2.232292e+00 -7.359375e+00 6.560791e+00 3.404321e-05 2.020873e-02 -4.350586e-01 6.020508e-01
-4.581197e-01 2.170731e+00 -6.589844e+00 6.924561e+00 1.714362e-04 2.065380e-02 -6.047363e-01 4.968262e-01
-4.502080e-01 2.206612e+00 -6.304688e+00 6.875732e+00 6.191972e-05 1.381300e-02 -3.752441e-01 5.090332e-01
-5.238376e-01 2.322362e+00 -6.565430e+00 6.173584e+00 2.989585e-04 2.119846e-02 -4.396973e-01 5.988770e-01
-4.725648e-01 2.219007e+00 -6.721680e+00 6.785156e+00 1.781631e-04 1.877414e-02 -2.919922e-01 3.012695e-01
-4.392415e-01 2.161654e+00 -6.621094e+00 6.789795e+00 1.245401e-04 1.938504e-02 -3.752441e-01 2.922363e-01
-4.506380e-01 2.173539e+00 -6.621094e+00 6.708252e+00 1.246538e-04 2.156260e-02 -4.052734e-01 3.125000e-01
-5.517469e-01 2.212178e+00 -6.797852e+00 6.187988e+00 -5.540622e-05 1.809455e-02 -3.620605e-01 2.922363e-01
-5.013491e-01 2.213059e+00 -6.797852e+00 6.715332e+00 1.192271e-04 1.904820e-02 -3.867188e-01 2.922363e-01
-5.108004e-01 2.191215e+00 -7.608398e+00 5.760498e+00 2.273310e-04 1.838933e-02 -2.919922e-01 2.707520e-01
-4.764392e-01 2.196614e+00 -6.849121e+00 6.609619e+00 2.519332e-04 2.082646e-02 -4.123535e-01 5.500488e-01
-5.342212e-01 2.149819e+00 -6.835449e+00 5.875732e+00 -1.580427e-05 1.921365e-02 -5.129395e-01 4.660645e-01
-5.211431e-01 2.174686e+00 -7.762939e+00 6.505859e+00 8.285870e-05 1.918926e-02 -3.305664e-01 4.934082e-01
-5.397709e-01 2.234575e+00 -6.800049e+00 5.783447e+00 8.580305e-06 1.870218e-02 -3.620605e-01 4.741211e-01
-5.320356e-01 2.207060e+00 -7.888428e+00 5.953613e+00 6.751496e-05 1.996567e-02 -2.919922e-01 4.328613e-01
-5.438050e-01 2.223175e+00 -7.036621e+00 6.036133e+00 1.136613e-04 1.735762e-02 -3.305664e-01 3.161621e-01
-5.544572e-01 2.274876e+00 -7.036621e+00 6.378906e+00 7.668638e-05 1.692474e-02 -3.867188e-01 5.471191e-01
-5.636361e-01 2.204271e+00 -7.027832e+00 6.378906e+00 -1.354231e-05 1.846902e-02 -3.471680e-01 4.104004e-01
-4.957436e-01 2.220883e+00 -7.056396e+00 6.351074e+00 1.362374e-04 2.104213e-02 -3.620605e-01 4.033203e-01
-4.898785e-01 2.270032e+00 -8.034424e+00 6.046387e+00 1.596153e-05 1.483339e-02 -3.752441e-01 4.433594e-01
-5.321599e-01 2.238540e+00 -7.031982e+00 5.574951e+00 -3.834389e-05 1.775742e-02 -3.620605e-01 3.564453e-01
-5.456403e-01 2.205944e+00 -7.084717e+00 6.003662e+00 9.395511e-05 1.955533e-02 -3.752441e-01 3.474121e-01
-5.647497e-01 2.216989e+00 -7.050781e+00 6.338623e+00 1.511038e-04 1.735502e-02 -3.867188e-01 4.851074e-01
-5.499418e-01 2.312118e+00 -6.791748e+00 6.322266e+00 -3.770644e-05 1.416149e-02 -3.305664e-01 4.902344e-01
-5.915540e-01 2.234266e+00 -6.723389e+00 5.954834e+00 -1.514899e-04 1.531443e-02 -3.122559e-01 4.768066e-01
-5.570522e-01 2.216915e+00 -7.053711e+00 6.414307e+00 1.168205e-04 1.896189e-02 -3.305664e-01 4.675293e-01
-5.354302e-01 2.199659e+00 -6.689209e+00 6.251465e+00 2.313678e-04 1.848658e-02 -3.305664e-01 4.597168e-01
-5.818827e-01 2.224733e+00 -7.356689e+00 6.360352e+00 2.059961e-04 1.963096e-02 -4.052734e-01 5.625000e-01
-6.560809e-01 2.226445e+00 -7.335449e+00 6.041992e+00 -2.027485e-05 1.415290e-02 -2.919922e-01 3.632812e-01
-5.772276e-01 2.272850e+00 -7.360596e+00 6.276855e+00 -1.455844e-04 1.382999e-02 -3.752441e-01 2.922363e-01
-5.714759e-01 2.241860e+00 -7.206787e+00 6.014160e+00 -1.235025e-04 1.822491e-02 -4.052734e-01 3.796387e-01
-5.715399e-01 2.181641e+00 -7.156006e+00 6.326172e+00 1.674500e-05 1.590063e-02 -3.867188e-01 3.813477e-01
-5.435243e-01 2.149185e+00 -7.293457e+00 6.070557e+00 -2.783158e-05 1.937880e-02 -4.123535e-01 4.729004e-01
-5.869409e-01 2.147590e+00 -6.732178e+00 4.703125e+00 5.435878e-05 1.990504e-02 -3.752441e-01 4.729004e-01
-5.837937e-01 2.259261e+00 -8.498535e+00 6.221436e+00 1.495200e-05 1.626708e-02 -3.305664e-01 4.992676e-01
-6.427599e-01 2.292690e+00 -7.509521e+00 6.058350e+00 2.547133e-05 1.875430e-02 -3.620605e-01 5.200195e-01
-6.045605e-01 2.170269e+00 -8.666748e+00 5.849854e+00 1.054348e-04 1.877434e-02 -3.752441e-01 5.463867e-01
-5.643756e-01 2.199427e+00 -7.177002e+00 6.181641e+00 -2.400828e-05 1.761669e-02 -3.752441e-01 2.973633e-01
-6.239529e-01 2.183345e+00 -7.564209e+00 5.884521e+00 3.610299e-05 1.843058e-02 -3.305664e-01 5.041504e-01
-5.967268e-01 2.224530e+00 -7.819336e+00 6.140381e+00 -1.521035e-05 1.702856e-02 -3.752441e-01 5.344238e-01
-5.848605e-01 2.111739e+00 -8.657715e+00 5.723389e+00 2.683609e-04 2.128151e-02 -3.305664e-01 5.070801e-01
-5.876913e-01 2.145322e+00 -7.210693e+00 5.887207e+00 -1.978904e-05 1.831707e-02 -3.752441e-01 2.421875e-01
-5.752524e-01 2.233856e+00 -8.598877e+00 5.882324e+00 -3.248890e-05 1.315334e-02 -3.752441e-01 2.424316e-01
-6.472509e-01 2.229859e+00 -8.638184e+00 6.083740e+00 2.208203e-04 1.934109e-02 -4.052734e-01 5.080566e-01
-6.046188e-01 2.179665e+00 -8.638184e+00 5.249512e+00 1.483967e-05 1.945604e-02 -3.620605e-01 5.031738e-01
-6.118245e-01 2.137538e+00 -6.815918e+00 5.676514e+00 1.446507e-04 1.890714e-02 -3.620605e-01 5.017090e-01
-6.287410e-01 2.214018e+00 -8.721924e+00 6.072021e+00 1.274212e-04 1.909399e-02 -3.867188e-01 4.968262e-01
-6.502709e-01 2.260413e+00 -7.653076e+00 5.973389e+00 -7.441880e-05 1.740924e-02 -3.620605e-01 5.539551e-01
-6.184556e-01 2.165873e+00 -7.606201e+00 5.857666e+00 1.516163e-04 2.068422e-02 -3.867188e-01 5.747070e-01
-6.333208e-01 2.152330e+00 -7.574463e+00 5.081543e+00 -8.626218e-05 1.802712e-02 -3.620605e-01 5.747070e-01
-6.707451e-01 2.160629e+00 -7.690918e+00 5.486572e+00 2.702101e-04 2.073357e-02 -3.471680e-01 5.676270e-01
-5.941415e-01 2.134863e+00 -8.961426e+00 6.066650e+00 1.516373e-04 2.505159e-02 -4.123535e-01 5.625000e-01
-6.249355e-01 2.200677e+00 -7.537598e+00 5.742188e+00 6.046089e-05 1.663032e-02 -3.620605e-01 3.474121e-01
-6.536236e-01 2.184744e+00 -7.867432e+00 5.958008e+00 1.684834e-04 1.979457e-02 -3.305664e-01 5.400391e-01
-6.608971e-01 2.182356e+00 -8.849365e+00 5.819336e+00 -2.674342e-05 1.294807e-02 -2.919922e-01 2.707520e-01
-6.210248e-01 2.054551e+00 -7.720947e+00 5.378418e+00 -9.967391e-05 1.901980e-02 -3.752441e-01 5.375977e-01
-6.934079e-01 2.158102e+00 -7.796387e+00 5.507568e+00 6.739562e-08 1.854935e-02 -3.967285e-01 5.561523e-01
-6.482310e-01 2.200705e+00 -7.900879e+00 5.543945e+00 2.661355e-04 2.108176e-02 -3.620605e-01 5.637207e-01
-6.642029e-01 2.180576e+00 -7.556885e+00 5.054443e+00 2.461765e-04 2.286251e-02 -3.752441e-01 5.637207e-01
-5.832725e-01 2.196737e+00 -7.631104e+00 5.794189e+00 3.004440e-05 2.165681e-02 -4.123535e-01 5.456543e-01
-6.519345e-01 2.233968e+00 -8.767334e+00 5.830566e+00 2.185514e-04 1.774099e-02 -3.305664e-01 5.363770e-01
-6.491458e-01 2.226861e+00 -7.782715e+00 5.425049e+00 2.001566e-04 1.861649e-02 -3.305664e-01 5.456543e-01
-5.923043e-01 2.144039e+00 -7.473145e+00 5.774170e+00 8.089721e-05 1.679532e-02 -3.752441e-01 2.319336e-01
-6.108728e-01 2.115429e+00 -7.790283e+00 4.968506e+00 9.758464e-05 2.104932e-02 -3.620605e-01 5.356445e-01
-7.120404e-01 2.242517e+00 -7.977783e+00 5.658447e+00 1.071029e-04 1.558891e-02 -3.752441e-01 2.478027e-01
-6.884685e-01 2.114518e+00 -7.275879e+00 5.426758e+00 1.280334e-04 2.108195e-02 -4.282227e-01 5.534668e-01
-6.970335e-01 2.117692e+00 -7.770508e+00 6.021484e+00 7.451568e-05 1.955602e-02 -3.620605e-01 5.515137e-01
-7.175016e-01 2.142987e+00 -7.326904e+00 5.409424e+00 1.427664e-04 1.537924e-02 -3.471680e-01 5.607910e-01
-6.531443e-01 2.070250e+00 -7.436523e+00 5.998291e+00 1.791881e-04 1.740818e-02 -3.620605e-01 5.957031e-01
-7.016985e-01 2.148473e+00 -7.754150e+00 5.156006e+00 5.128666e-05 1.949121e-02 -3.967285e-01 5.957031e-01
-6.792838e-01 2.251287e+00 -7.701172e+00 5.702148e+00 -5.344051e-05 1.062183e-02 -2.705078e-01 2.001953e-01
-6.906144e-01 2.182607e+00 -8.803711e+00 6.020996e+00 7.654176e-05 1.668899e-02 -3.471680e-01 5.341797e-01
-7.208911e-01 2.120785e+00 -7.498291e+00 5.561279e+00 8.845675e-08 2.115057e-02 -3.620605e-01 5.607910e-01
-7.322390e-01 2.132677e+00 -7.742188e+00 5.180176e+00 5.092862e-05 1.949207e-02 -3.752441e-01 5.751953e-01
-7.158333e-01 2.047396e+00 -7.742188e+00 6.061768e+00 2.502835e-04 2.269028e-02 -3.967285e-01 5.603027e-01
-7.262390e-01 2.120856e+00 -7.723633e+00 6.061768e+00 5.913263e-05 1.587449e-02 -3.752441e-01 2.478027e-01
-6.765131e-01 2.114807e+00 -7.575684e+00 5.770020e+00 3.355038e-05 1.665468e-02 -3.752441e-01 2.478027e-01
-6.410257e-01 2.118083e+00 -7.497803e+00 5.776611e+00 -1.445790e-04 1.571549e-02 -3.752441e-01 5.646973e-01
-6.675669e-01 2.070067e+00 -7.444580e+00 5.716553e+00 -1.190810e-04 1.732215e-02 -4.052734e-01 2.724609e-01
-7.260768e-01 2.138583e+00 -7.610352e+00 5.588379e+00 9.415168e-05 1.901826e-02 -4.282227e-01 5.659180e-01
-7.750953e-01 2.174520e+00 -7.547363e+00 5.502686e+00 4.586202e-04 2.166227e-02 -3.471680e-01 5.690918e-01
-7.742805e-01 2.060000e+00 -7.787598e+00 5.745850e+00 -9.577198e-05 1.703529e-02 -3.620605e-01 5.769043e-01
-7.769946e-01 2.115060e+00 -8.720459e+00 5.449219e+00 1.549818e-05 1.633352e-02 -3.752441e-01 5.527344e-01
-7.741748e-01 2.105847e+00 -7.605225e+00 6.065918e+00 -1.397827e-04 1.517122e-02 -3.471680e-01 2.478027e-01
-7.119685e-01 2.130424e+00 -7.543701e+00 5.538574e+00 1.186022e-04 1.968489e-02 -3.867188e-01 5.510254e-01
-7.172614e-01 2.114360e+00 -7.821045e+00 5.353516e+00 -2.640083e-05 1.720175e-02 -3.867188e-01 5.751953e-01
-7.244611e-01 2.168323e+00 -7.592529e+00 5.566895e+00 -9.107254e-05 1.855900e-02 -4.282227e-01 5.539551e-01
-7.844599e-01 2.214196e+00 -7.681885e+00 5.212158e+00 5.880829e-05 1.985424e-02 -4.282227e-01 5.651855e-01
-7.078028e-01 2.083042e+00 -7.454102e+00 5.567627e+00 -1.295597e-04 2.049161e-02 -4.282227e-01 5.515137e-01
-7.340413e-01 2.229027e+00 -8.778809e+00 5.709229e+00 8.662443e-05 1.824538e-02 -3.867188e-01 5.280762e-01
-7.977837e-01 2.196465e+00 -8.758301e+00 5.683350e+00 -1.673194e-04 1.158199e-02 -1.999512e-01 2.707520e-01
-6.660167e-01 2.127197e+00 -6.800293e+00 5.679443e+00 -1.950303e-04 1.353012e-02 -3.752441e-01 2.478027e-01
-6.924555e-01 2.103352e+00 -7.356201e+00 5.679443e+00 -9.031855e-05 1.594722e-02 -3.752441e-01 2.287598e-01
-7.098742e-01 2.078343e+00 -7.602051e+00 5.440918e+00 7.832634e-05 2.063185e-02 -3.471680e-01 5.632324e-01
-7.549876e-01 2.156367e+00 -7.641113e+00 5.610352e+00 1.775271e-04 1.873772e-02 -3.471680e-01 5.739746e-01
-7.114487e-01 2.035481e+00 -7.408447e+00 5.633057e+00 7.021360e-05 2.161186e-02 -3.752441e-01 6.159668e-01
-7.993721e-01 2.126145e+00 -7.702637e+00 6.095215e+00 -1.224354e-04 1.430231e-02 -3.471680e-01 2.001953e-01
-6.709980e-01 2.011004e+00 -7.228760e+00 6.086914e+00 3.469611e-04 2.720279e-02 -3.620605e-01 6.066895e-01
-7.380409e-01 2.114962e+00 -7.683350e+00 5.759033e+00 4.707163e-05 1.879575e-02 -3.752441e-01 6.066895e-01
-7.092134e-01 2.183375e+00 -7.543213e+00 5.431885e+00 4.814715e-05 1.879770e-02 -3.305664e-01 5.410156e-01
-7.361173e-01 2.157589e+00 -7.379639e+00 5.209717e+00 8.556014e-05 2.176048e-02 -3.620605e-01 6.091309e-01
-8.783094e-01 2.205906e+00 -1.072827e+01 5.182373e+00 1.727167e-04 1.920381e-02 -3.867188e-01 5.705566e-01
-9.783223e-01 2.129209e+00 -9.995850e+00 5.592041e+00 -6.739281e-05 1.528571e-02 -1.999512e-01 2.534180e-01
-1.002269e+00 2.251508e+00 -1.096362e+01 6.189697e+00 -6.523194e-05 1.767430e-02 -3.867188e-01 6.469727e-01
-1.012322e+00 2.293123e+00 -1.093530e+01 6.189697e+00 -3.661758e-04 9.656010e-03 -1.999512e-01 1.540527e-01
-9.996374e-01 2.277436e+00 -9.714355e+00 5.348389e+00 -1.940446e-04 1.775286e-02 -3.867188e-01 6.469727e-01
-1.043219e+00 2.316607e+00 -1.046045e+01 5.864746e+00 3.513979e-05 2.098227e-02 -3.752441e-01 7.172852e-01
-1.016419e+00 2.317412e+00 -9.773682e+00 5.314697e+00 -1.505450e-04 1.580811e-02 -7.719727e-01 8.046875e-01
-9.380815e-01 2.182604e+00 -9.660156e+00 6.277344e+00 -1.791305e-04 1.703684e-02 -3.752441e-01 3.125000e-01
-8.974597e-01 2.185747e+00 -1.084009e+01 6.277344e+00 -1.137090e-04 2.596528e-02 -8.125000e-01 6.984863e-01
-9.874427e-01 2.275079e+00 -9.544434e+00 5.409912e+00 -5.680046e-05 1.543834e-02 -3.867188e-01 4.648438e-01
-8.761409e-01 2.214613e+00 -9.959473e+00 5.503662e+00 1.437422e-04 2.560961e-02 -3.798828e-01 6.286621e-01
-9.996099e-01 2.256061e+00 -9.999512e+00 6.197266e+00 -1.300567e-04 1.242277e-02 -1.784668e-01 2.338867e-01
-9.017645e-01 2.172207e+00 -9.775635e+00 6.156738e+00 -8.701055e-05 2.058366e-02 -3.752441e-01 6.352539e-01
-9.541073e-01 2.274796e+00 -9.333984e+00 5.357422e+00 2.177131e-04 2.235336e-02 -4.123535e-01 6.352539e-01
-9.816243e-01 2.197141e+00 -1.058374e+01 6.187744e+00 -3.711392e-05 1.770862e-02 -3.752441e-01 7.182617e-01
-9.612459e-01 2.197850e+00 -9.343018e+00 5.791016e+00 5.129789e-05 1.887648e-02 -3.620605e-01 7.009277e-01
-9.515057e-01 2.121952e+00 -9.882324e+00 5.741699e+00 -1.269986e-04 1.493588e-02 -3.867188e-01 2.382812e-01
-1.201450e+00 2.141137e+00 -8.451660e+00 5.019287e+00 -5.754729e-04 1.270357e-02 -3.471680e-01 2.478027e-01
-1.150286e+00 2.150841e+00 -8.489014e+00 5.233887e+00 -4.900841e-04 1.561736e-02 -4.052734e-01 4.274902e-01
-1.156092e+00 2.064186e+00 -8.348633e+00 5.227783e+00 -1.105344e-04 2.032447e-02 -3.867188e-01 6.479492e-01
-1.151276e+00 2.105133e+00 -8.439941e+00 5.732422e+00 1.636169e-05 2.166539e-02 -3.967285e-01 6.689453e-01
-1.147220e+00 1.981602e+00 -8.001221e+00 5.053955e+00 -1.755094e-05 2.136185e-02 -3.967285e-01 6.557617e-01
-1.120604e+00 2.083456e+00 -8.437988e+00 5.138428e+00 -3.995998e-05 1.956046e-02 -3.867188e-01 6.557617e-01
-1.150077e+00 2.114358e+00 -8.373047e+00 5.115234e+00 -3.982210e-04 1.757408e-02 -5.241699e-01 6.506348e-01
-1.147363e+00 2.149959e+00 -8.195312e+00 5.156006e+00 5.385471e-05 2.198507e-02 -3.967285e-01 8.876953e-01
-1.141739e+00 2.122932e+00 -7.756104e+00 5.886963e+00 1.036910e-05 1.762735e-02 -3.967285e-01 6.494141e-01
-1.142423e+00 2.104613e+00 -8.372314e+00 5.310791e+00 1.027924e-04 1.770846e-02 -3.620605e-01 4.038086e-01
-1.151823e+00 2.123754e+00 -8.187988e+00 5.042725e+00 -3.124068e-04 1.244940e-02 -3.620605e-01 2.478027e-01
-1.077970e+00 2.084495e+00 -9.166260e+00 5.286621e+00 5.487969e-05 2.465417e-02 -5.334473e-01 8.801270e-01
-1.132694e+00 2.158518e+00 -8.381348e+00 5.029785e+00 -1.094322e-04 1.422997e-02 -3.620605e-01 2.478027e-01
-1.121792e+00 2.115431e+00 -8.299805e+00 5.905029e+00 3.021570e-05 1.561194e-02 -3.867188e-01 2.478027e-01
-1.035019e+00 2.076669e+00 -7.797852e+00 5.133301e+00 -2.423153e-04 1.735791e-02 -3.867188e-01 6.594238e-01
-1.121514e+00 2.146019e+00 -8.498535e+00 5.294189e+00 -7.480914e-05 1.338833e-02 -2.238770e-01 2.241211e-01
-1.069084e+00 2.109036e+00 -8.462891e+00 5.327881e+00 1.120522e-04 1.946041e-02 -3.967285e-01 6.777344e-01
-1.077017e+00 2.076814e+00 -8.143799e+00 5.255127e+00 7.810871e-05 1.709988e-02 -3.752441e-01 2.478027e-01
-1.105704e+00 2.099226e+00 -8.123291e+00 5.305908e+00 3.044316e-04 2.082813e-02 -3.752441e-01 6.296387e-01
-1.154863e+00 2.196379e+00 -9.439941e+00 4.925049e+00 -4.590624e-05 1.956505e-02 -4.282227e-01 8.732910e-01
-1.139617e+00 2.166876e+00 -9.136230e+00 4.650146e+00 3.633747e-06 2.447683e-02 -4.318848e-01 8.999023e-01
-1.131053e+00 2.181460e+00 -9.861816e+00 4.589111e+00 4.773435e-05 2.387579e-02 -4.187012e-01 8.457031e-01
-1.199480e+00 2.159386e+00 -8.954102e+00 6.078369e+00 2.457455e-04 2.943372e-02 -4.282227e-01 8.408203e-01
-1.255516e+00 2.113214e+00 -8.938477e+00 6.432617e+00 -5.441494e-05 2.203257e-02 -3.122559e-01 5.659180e-01
-1.240307e+00 2.140946e+00 -8.938477e+00 6.432617e+00 9.851274e-05 1.945807e-02 -3.471680e-01 6.174316e-01
-1.226185e+00 2.100232e+00 -8.817871e+00 5.590820e+00 -8.026958e-05 1.925272e-02 -4.340820e-01 7.329102e-01
-1.267798e+00 2.116966e+00 -9.571777e+00 5.686523e+00 1.010148e-04 2.298556e-02 -4.741211e-01 7.734375e-01
-1.248618e+00 2.138033e+00 -8.699463e+00 5.320557e+00 -1.917125e-04 1.542688e-02 -3.471680e-01 3.308105e-01
-1.245034e+00 2.232818e+00 -9.334229e+00 5.797119e+00 -2.362357e-05 2.387815e-02 -4.467773e-01 8.969727e-01
-1.259966e+00 2.145854e+00 -8.266357e+00 5.770508e+00 -8.362111e-05 2.058291e-02 -4.428711e-01 9.184570e-01
-1.217691e+00 2.174052e+00 -8.658203e+00 5.743652e+00 -1.540551e-04 1.947464e-02 -4.416504e-01 9.277344e-01
-1.218541e+00 2.132784e+00 -9.227295e+00 5.290527e+00 -3.144623e-04 1.930017e-02 -3.752441e-01 9.179688e-01
-1.201742e+00 2.177802e+00 -8.570068e+00 5.457764e+00 -7.089879e-05 1.693471e-02 -3.305664e-01 3.308105e-01
-1.238821e+00 2.023007e+00 -8.570068e+00 5.400635e+00 -7.607561e-05 1.823587e-02 -3.471680e-01 3.474121e-01
-1.232043e+00 2.130725e+00 -8.977539e+00 5.639648e+00 4.821314e-04 3.224362e-02 -5.080566e-01 9.724121e-01
-1.159473e+00 2.148684e+00 -8.977539e+00 5.639648e+00 -3.761939e-04 1.343778e-02 -2.475586e-01 3.381348e-01
-1.180229e+00 2.076408e+00 -9.010498e+00 5.720459e+00 -1.030367e-04 1.807418e-02 -3.620605e-01 6.564941e-01
-1.206534e+00 2.225116e+00 -8.360840e+00 5.406494e+00 1.818025e-04 2.237512e-02 -4.438477e-01 8.864746e-01
-1.184401e+00 2.076433e+00 -8.985107e+00 5.554688e+00 -8.845394e-05 1.681923e-02 -3.867188e-01 7.775879e-01
-1.255341e+00 2.108521e+00 -8.383545e+00 5.554688e+00 -1.724387e-04 2.080145e-02 -3.867188e-01 7.841797e-01
-1.214447e+00 2.132199e+00 -9.078125e+00 5.951416e+00 -6.608983e-05 2.329293e-02 -3.752441e-01 7.617188e-01
-1.221353e+00 2.084433e+00 -8.515137e+00 5.259277e+00 -9.059235e-05 1.577903e-02 -3.867188e-01 3.869629e-01
-1.194615e+00 2.137654e+00 -8.495361e+00 5.917725e+00 -3.496106e-04 1.621548e-02 -3.752441e-01 3.754883e-01
-1.151107e+00 2.147044e+00 -8.304443e+00 5.552734e+00 -3.402636e-05 2.176186e-02 -4.995117e-01 8.920898e-01
-1.131153e+00 2.139625e+00 -8.304443e+00 5.168457e+00 -1.796837e-04 1.574456e-02 -3.867188e-01 4.079590e-01
-1.196018e+00 2.085151e+00 -8.677246e+00 5.965576e+00 -4.278218e-05 2.550779e-02 -3.752441e-01 7.631836e-01
-1.181527e+00 2.059535e+00 -8.537109e+00 6.016113e+00 6.234095e-06 1.997768e-02 -3.620605e-01 3.623047e-01
-1.216410e+00 2.314993e+00 -8.640137e+00 5.314209e+00 -7.971357e-05 1.460023e-02 -3.620605e-01 3.474121e-01
-1.219010e+00 2.254823e+00 -9.220703e+00 6.072266e+00 6.386718e-05 1.763578e-02 -3.752441e-01 7.426758e-01
-1.206475e+00 2.133778e+00 -9.208740e+00 5.825195e+00 -2.051326e-04 1.728281e-02 -4.052734e-01 3.754883e-01
-1.261016e+00 2.173247e+00 -8.877197e+00 5.377197e+00 -3.250097e-04 1.834873e-02 -3.967285e-01 9.931641e-01
-1.190117e+00 2.104506e+00 -8.013428e+00 5.478271e+00 -9.473297e-05 2.008914e-02 -2.919922e-01 4.956055e-01
-1.208270e+00 2.159238e+00 -8.036133e+00 5.391113e+00 -5.817084e-05 2.162039e-02 -3.867188e-01 7.788086e-01
-1.206454e+00 2.200343e+00 -8.788086e+00 5.611084e+00 2.385875e-04 2.413604e-02 -3.867188e-01 4.631348e-01
-1.216697e+00 2.151473e+00 -7.987305e+00 5.390381e+00 -4.262071e-05 1.831433e-02 -3.867188e-01 3.754883e-01
-1.254414e+00 2.275971e+00 -8.120850e+00 5.723145e+00 -1.273216e-04 1.984466e-02 -3.471680e-01 4.892578e-01
-1.221505e+00 2.185306e+00 -8.042725e+00 5.876221e+00 1.007424e-04 2.654061e-02 -3.867188e-01 9.887695e-01
-1.230551e+00 2.202121e+00 -8.042725e+00 6.023926e+00 -1.330361e-04 1.638835e-02 -3.867188e-01 4.916992e-01
-1.080580e+00 2.196753e+00 -8.737305e+00 6.335205e+00 5.231936e-04 3.582024e-02 -4.294434e-01 9.033203e-01
-1.103678e+00 2.171163e+00 -8.425049e+00 5.775879e+00 7.592678e-04 3.850295e-02 -3.933105e-01 9.072266e-01
-1.109364e+00 2.240760e+00 -8.738770e+00 5.746582e+00 2.832624e-04 2.682434e-02 -4.294434e-01 9.072266e-01
-1.078692e+00 2.255570e+00 -9.336670e+00 5.926514e+00 2.790080e-04 2.059447e-02 -3.620605e-01 3.586426e-01
-1.179777e+00 2.178691e+00 -8.618896e+00 5.484619e+00 1.203854e-04 1.978906e-02 -4.382324e-01 7.163086e-01
-1.146222e+00 2.174463e+00 -9.220215e+00 5.253906e+00 3.296137e-04 2.491954e-02 -4.382324e-01 7.236328e-01
-1.159614e+00 2.205628e+00 -8.602539e+00 5.681396e+00 3.193668e-04 2.694394e-02 -4.528809e-01 9.023438e-01
-1.197654e+00 2.198461e+00 -9.403320e+00 5.493408e+00 4.569465e-04 2.319522e-02 -3.620605e-01 6.804199e-01
-1.210456e+00 2.233671e+00 -9.331055e+00 6.385742e+00 1.975534e-04 2.350044e-02 -4.541016e-01 9.108887e-01
-1.237400e+00 2.225029e+00 -9.423584e+00 5.573242e+00 2.773793e-04 2.542947e-02 -3.752441e-01 1.000732e+00
-1.218504e+00 2.203820e+00 -8.741211e+00 6.224854e+00 -1.387788e-04 2.850332e-02 -3.752441e-01 1.000732e+00
-1.218009e+00 2.195171e+00 -8.741211e+00 5.801270e+00 -1.657230e-05 1.791205e-02 -3.752441e-01 6.894531e-01
-1.206039e+00 2.179741e+00 -8.788574e+00 5.781738e+00 5.489654e-04 2.945921e-02 -4.880371e-01 9.252930e-01
-1.213252e+00 2.090919e+00 -8.825684e+00 5.562744e+00 5.807003e-04 2.836651e-02 -4.880371e-01 1.013428e+00
-1.230950e+00 2.131750e+00 -9.446045e+00 5.793213e+00 1.680468e-04 2.143404e-02 -3.867188e-01 9.519043e-01
-1.269264e+00 2.289022e+00 -8.770508e+00 6.416260e+00 -1.835758e-04 1.713867e-02 -3.752441e-01 3.623047e-01
-1.181331e+00 2.182435e+00 -8.323486e+00 5.762207e+00 -1.107464e-04 1.892506e-02 -3.620605e-01 4.279785e-01
-1.244905e+00 2.246629e+00 -9.479980e+00 5.685059e+00 -1.902438e-04 1.854379e-02 -3.867188e-01 7.268066e-01
-1.217223e+00 2.113414e+00 -9.468506e+00 5.793945e+00 -1.664124e-04 2.317963e-02 -3.867188e-01 7.307129e-01
-1.260543e+00 2.150327e+00 -9.344727e+00 5.605957e+00 -4.009618e-05 2.095008e-02 -3.752441e-01 7.119141e-01
-1.206289e+00 2.268561e+00 -9.333252e+00 5.856934e+00 -6.102112e-05 2.260294e-02 -3.867188e-01 1.046143e+00
-1.237328e+00 2.206019e+00 -8.312256e+00 5.377686e+00 -2.165197e-04 1.591082e-02 -3.752441e-01 3.623047e-01
-1.189078e+00 2.187150e+00 -9.083008e+00 7.759033e+00 -1.932836e-04 2.111530e-02 -7.121582e-01 7.917480e-01
-9.601294e-01 2.320117e+00 -7.373779e+00 7.475830e+00 -3.389859e-05 2.531760e-02 -6.828613e-01 8.342285e-01
-9.302664e-01 2.354304e+00 -7.542480e+00 7.313965e+00 6.721997e-04 3.460502e-02 -6.828613e-01 8.154297e-01
-9.937147e-01 2.356593e+00 -8.468506e+00 8.157715e+00 1.292114e-04 2.182393e-02 -3.720703e-01 8.154297e-01
-9.827496e-01 2.380972e+00 -8.280029e+00 7.674561e+00 -5.009601e-05 2.289506e-02 -6.323242e-01 9.982910e-01
-1.120714e+00 2.431539e+00 -9.019531e+00 6.537842e+00 -1.089675e-04 2.037326e-02 -4.123535e-01 3.679199e-01
-1.099248e+00 2.337782e+00 -8.065918e+00 6.727051e+00 -1.626130e-04 2.144591e-02 -3.967285e-01 3.757324e-01
-1.097667e+00 2.364125e+00 -8.014160e+00 6.620361e+00 1.557878e-04 2.066589e-02 -3.620605e-01 3.916016e-01
-1.111427e+00 2.254951e+00 -8.232422e+00 5.673340e+00 4.264809e-04 3.018790e-02 -3.967285e-01 9.675293e-01
-1.114065e+00 2.355096e+00 -8.746582e+00 7.063477e+00 1.483476e-04 2.291041e-02 -3.967285e-01 4.189453e-01
-1.068650e+00 2.338668e+00 -7.911865e+00 6.280762e+00 8.989171e-05 2.483281e-02 -3.967285e-01 9.675293e-01
-1.079731e+00 2.319953e+00 -8.891602e+00 5.981689e+00 2.780687e-04 2.266193e-02 -4.257812e-01 6.608887e-01
-1.130659e+00 2.336965e+00 -7.981445e+00 5.971924e+00 3.236689e-04 2.165664e-02 -3.752441e-01 3.754883e-01
-1.054240e+00 2.313068e+00 -7.940918e+00 7.165527e+00 4.931253e-04 2.317958e-02 -3.867188e-01 4.125977e-01
-1.144135e+00 2.366855e+00 -8.742920e+00 6.971680e+00 1.371613e-04 2.208775e-02 -4.318848e-01 9.172363e-01
-1.093263e+00 2.385857e+00 -7.904785e+00 6.190674e+00 3.019211e-04 2.369359e-02 -4.321289e-01 6.679688e-01
-1.189907e+00 2.237480e+00 -7.987061e+00 6.753418e+00 2.404184e-04 2.082596e-02 -3.620605e-01 3.864746e-01
-1.152403e+00 2.282127e+00 -8.754883e+00 6.753418e+00 7.096618e-04 2.960934e-02 -4.899902e-01 9.147949e-01
-1.197690e+00 2.287411e+00 -8.104004e+00 7.185303e+00 4.324693e-05 2.054774e-02 -4.453125e-01 6.887207e-01
-1.172080e+00 2.325324e+00 -8.734863e+00 6.699463e+00 5.624726e-04 2.854511e-02 -3.752441e-01 9.855957e-01
-1.189853e+00 2.339597e+00 -7.739258e+00 5.793945e+00 -2.719834e-05 1.425437e-02 -3.752441e-01 4.125977e-01
-1.195604e+00 2.312350e+00 -8.692871e+00 6.460449e+00 1.893859e-04 1.848294e-02 -3.752441e-01 4.519043e-01
-1.215721e+00 2.416182e+00 -8.609131e+00 7.201660e+00 1.517679e-04 2.186833e-02 -3.867188e-01 9.548340e-01
-1.173027e+00 2.306195e+00 -8.026855e+00 6.060547e+00 7.070250e-04 3.264361e-02 -4.645996e-01 9.533691e-01
-1.216659e+00 2.222079e+00 -7.968262e+00 6.621826e+00 -1.777531e-04 1.848691e-02 -3.305664e-01 4.182129e-01
-1.204098e+00 2.275692e+00 -8.781494e+00 6.428223e+00 -9.768293e-05 2.435520e-02 -3.867188e-01 7.116699e-01
-1.219638e+00 2.309124e+00 -8.712646e+00 5.912598e+00 2.573600e-04 2.235073e-02 -3.867188e-01 4.169922e-01
-1.235289e+00 2.242891e+00 -8.793701e+00 6.427002e+00 8.393282e-05 2.103173e-02 -3.752441e-01 4.177246e-01
-1.274538e+00 2.281169e+00 -8.793701e+00 6.421387e+00 -1.258431e-04 1.254616e-02 -2.077637e-01 3.623047e-01
-1.223536e+00 2.270100e+00 -8.724609e+00 6.022461e+00 9.256928e-05 1.848460e-02 -3.471680e-01 5.615234e-01
-1.208864e+00 2.264893e+00 -8.848145e+00 6.822998e+00 1.281387e-04 2.215846e-02 -3.867188e-01 7.202148e-01
-1.208741e+00 2.282196e+00 -8.848145e+00 6.383545e+00 1.825509e-04 2.600556e-02 -3.867188e-01 4.160156e-01
-1.206314e+00 2.342238e+00 -8.848145e+00 6.410156e+00 -2.533654e-05 1.786499e-02 -4.055176e-01 9.367676e-01
-1.203963e+00 2.320647e+00 -8.658936e+00 6.190918e+00 -1.641224e-05 1.885084e-02 -3.122559e-01 4.929199e-01
-1.065151e+00 2.444695e+00 -8.734131e+00 7.539795e+00 2.538624e-04 1.738237e-02 -4.787598e-01 9.479980e-01
-1.016602e+00 2.453413e+00 -9.670898e+00 6.424072e+00 5.803746e-04 3.237747e-02 -4.724121e-01 1.267578e+00
-1.049519e+00 2.438456e+00 -9.670898e+00 7.595215e+00 2.571199e-04 1.878646e-02 -2.927246e-01 3.295898e-01
-1.085947e+00 2.389176e+00 -9.444336e+00 7.558594e+00 7.470566e-04 2.788838e-02 -8.576660e-01 1.054688e+00
-1.196815e+00 2.403684e+00 -9.501953e+00 7.405518e+00 6.583148e-05 1.694035e-02 -3.305664e-01 3.149414e-01
-1.224204e+00 2.486983e+00 -9.686279e+00 7.801270e+00 3.449954e-04 2.047337e-02 -4.030762e-01 4.538574e-01
-1.170014e+00 2.300596e+00 -9.686279e+00 7.363281e+00 -1.660319e-05 1.892349e-02 -3.620605e-01 4.467773e-01
-1.167188e+00 2.366878e+00 -9.382568e+00 7.399902e+00 3.754708e-04 2.598220e-02 -8.522949e-01 1.054443e+00
-1.203178e+00 2.350625e+00 -8.851807e+00 6.578613e+00 5.036755e-04 3.269454e-02 -1.059814e+00 1.428711e+00
-1.126433e+00 2.312752e+00 -9.251221e+00 7.734863e+00 4.116047e-04 2.813743e-02 -8.537598e-01 1.062500e+00
-1.192432e+00 2.446115e+00 -9.312500e+00 7.381836e+00 2.488864e-04 4.054075e-02 -1.059814e+00 1.428711e+00
-1.194993e+00 2.524112e+00 -9.251221e+00 7.734863e+00 1.443389e-04 1.927217e-02 -3.620605e-01 4.440918e-01
-1.235099e+00 2.400445e+00 -9.693604e+00 7.392822e+00 -5.639609e-05 1.589445e-02 -4.238281e-01 8.068848e-01
-1.195276e+00 2.501622e+00 -9.356201e+00 7.648438e+00 3.718132e-05 1.588141e-02 -2.656250e-01 2.707520e-01
-1.185360e+00 2.381109e+00 -9.285645e+00 6.689941e+00 5.740352e-04 1.951422e-02 -3.823242e-01 4.282227e-01
-1.208387e+00 2.351568e+00 -8.892578e+00 7.156494e+00 2.211601e-04 3.195972e-02 -1.098633e+00 1.460449e+00
-1.187994e+00 2.324406e+00 -9.561279e+00 6.386719e+00 1.643849e-04 1.719941e-02 -2.705078e-01 3.474121e-01
-1.222158e+00 2.411630e+00 -9.293213e+00 6.158203e+00 -8.182390e-05 1.829837e-02 -3.752441e-01 4.326172e-01
-1.243004e+00 2.466745e+00 -9.523926e+00 6.671143e+00 -4.848553e-05 1.653533e-02 -2.238770e-01 2.707520e-01
-1.219537e+00 2.311331e+00 -8.365723e+00 7.406982e+00 3.764045e-05 1.867897e-02 -3.620605e-01 4.392090e-01
-1.221482e+00 2.464175e+00 -8.652588e+00 6.997070e+00 9.000544e-05 1.443419e-02 -2.475586e-01 2.707520e-01
-1.164959e+00 2.362118e+00 -8.975830e+00 6.647217e+00 7.480914e-06 2.193517e-02 -1.086182e+00 1.468750e+00
-1.199654e+00 2.346359e+00 -9.126465e+00 7.470703e+00 3.215613e-05 1.608011e-02 -2.475586e-01 2.478027e-01
-1.229544e+00 2.383514e+00 -9.037354e+00 6.290039e+00 -7.513207e-05 1.710840e-02 -3.967285e-01 6.276855e-01
-1.231085e+00 2.378840e+00 -9.498047e+00 5.909180e+00 4.532706e-04 2.748646e-02 -7.949219e-01 1.020264e+00
-1.232008e+00 2.309550e+00 -9.123535e+00 7.450928e+00 -1.061481e-05 1.943749e-02 -2.919922e-01 5.039062e-01
-1.191782e+00 2.241226e+00 -8.960449e+00 6.116699e+00 3.628833e-05 2.155894e-02 -4.187012e-01 7.687988e-01
-1.144501e+00 2.447502e+00 -8.909180e+00 6.606689e+00 1.789241e-04 1.688828e-02 -3.752441e-01 4.216309e-01
-1.196091e+00 2.347314e+00 -9.172119e+00 7.458496e+00 1.022195e-04 2.280207e-02 -1.089844e+00 1.431396e+00
-1.239303e+00 2.420992e+00 -9.171631e+00 7.360107e+00 1.932078e-04 2.340294e-02 -7.624512e-01 9.875488e-01
-1.235347e+00 2.318319e+00 -9.424805e+00 6.939209e+00 -7.221721e-05 1.591823e-02 -2.946777e-01 2.707520e-01
-1.181407e+00 2.287962e+00 -8.393066e+00 6.842529e+00 -1.374730e-05 2.039347e-02 -3.867188e-01 4.536133e-01
-1.171740e+00 2.334078e+00 -8.968750e+00 7.401611e+00 1.944644e-04 1.954316e-02 -3.752441e-01 4.135742e-01
-1.224754e+00 2.242529e+00 -8.159424e+00 6.884766e+00 1.203293e-05 1.941131e-02 -2.846680e-01 4.445801e-01
-1.244268e+00 2.319768e+00 -8.848145e+00 6.267090e+00 -7.952823e-05 1.897455e-02 -4.123535e-01 7.443848e-01
-1.197096e+00 2.302038e+00 -8.733398e+00 6.859375e+00 1.895783e-05 1.543763e-02 -2.919922e-01 3.200684e-01
-1.273516e+00 2.334801e+00 -8.519287e+00 6.178955e+00 1.105120e-04 2.465924e-02 -7.502441e-01 1.099365e+00
-1.237230e+00 2.339105e+00 -9.227295e+00 7.360840e+00 1.623673e-05 2.267012e-02 -5.324707e-01 9.899902e-01
-1.206810e+00 2.314842e+00 -9.241211e+00 7.360352e+00 -5.264721e-05 1.680638e-02 -3.867188e-01 4.099121e-01
-1.292571e+00 2.427800e+00 -9.005371e+00 6.370117e+00 6.940906e-05 1.661786e-02 -3.867188e-01 4.365234e-01
-1.225105e+00 2.359527e+00 -8.560059e+00 6.553467e+00 -1.698061e-04 1.876108e-02 -4.052734e-01 7.263184e-01
-1.226134e+00 2.332637e+00 -9.370850e+00 6.834229e+00 -4.369483e-05 1.453163e-02 -2.475586e-01 2.653809e-01
-1.214966e+00 2.336468e+00 -8.311523e+00 7.354248e+00 -2.619303e-05 1.728848e-02 -3.867188e-01 3.869629e-01
-1.277302e+00 2.403709e+00 -8.965820e+00 6.143799e+00 1.204907e-04 1.815351e-02 -3.867188e-01 5.576172e-01
-1.223577e+00 2.285989e+00 -9.241455e+00 7.351562e+00 8.184917e-05 1.612553e-02 -3.122559e-01 4.138184e-01
-1.227215e+00 2.270596e+00 -8.757812e+00 6.875977e+00 -2.379767e-04 1.307058e-02 -2.475586e-01 2.241211e-01
-1.202517e+00 2.287768e+00 -9.336182e+00 6.841309e+00 1.504074e-04 1.848324e-02 -4.052734e-01 4.055176e-01
-1.230999e+00 2.192955e+00 -8.447998e+00 6.733887e+00 7.709918e-05 1.795681e-02 -3.867188e-01 3.969727e-01
-1.258495e+00 2.303344e+00 -8.480957e+00 6.831543e+00 -2.211194e-04 1.765023e-02 -3.471680e-01 4.099121e-01
-1.217444e+00 2.288330e+00 -8.343750e+00 5.622803e+00 -6.193657e-05 1.811936e-02 -3.359375e-01 5.483398e-01
-1.193351e+00 2.352027e+00 -9.246338e+00 7.359131e+00 2.741233e-04 1.723365e-02 -3.967285e-01 3.969727e-01
-1.219688e+00 2.217342e+00 -8.125000e+00 5.677979e+00 2.392025e-04 2.154853e-02 -3.967285e-01 5.605469e-01
-1.258325e+00 2.286732e+00 -8.669189e+00 6.821777e+00 -5.458062e-05 1.773254e-02 -3.305664e-01 4.218750e-01
-1.281103e+00 2.284356e+00 -8.173584e+00 6.380859e+00 -1.857227e-04 1.716303e-02 -3.305664e-01 4.218750e-01
-1.242936e+00 2.322970e+00 -9.224365e+00 7.318848e+00 3.113256e-05 1.735349e-02 -3.967285e-01 3.969727e-01
-1.268765e+00 2.257964e+00 -8.624756e+00 5.647217e+00 2.470330e-05 1.784900e-02 -2.919922e-01 4.672852e-01
-1.249825e+00 2.233867e+00 -8.624756e+00 6.481689e+00 -1.538754e-04 1.762611e-02 -3.305664e-01 4.179688e-01
-1.202397e+00 2.318064e+00 -8.297852e+00 6.797119e+00 -2.453327e-04 1.755929e-02 -3.967285e-01 9.619141e-01
-1.205843e+00 2.340473e+00 -8.383789e+00 6.265381e+00 9.073275e-05 1.736619e-02 -2.705078e-01 3.562012e-01
-1.239612e+00 2.343442e+00 -9.356445e+00 6.464600e+00 6.523840e-04 2.867220e-02 -3.967285e-01 1.093506e+00
-1.182612e+00 2.397493e+00 -8.609619e+00 6.806152e+00 -1.968303e-04 1.451897e-02 -3.305664e-01 3.764648e-01
-1.177408e+00 2.355146e+00 -8.990967e+00 6.796875e+00 2.061927e-04 2.093286e-02 -3.967285e-01 5.795898e-01
-1.198789e+00 2.337933e+00 -8.455078e+00 7.270752e+00 -5.299682e-05 2.654305e-02 -4.536133e-01 1.286865e+00
-1.180280e+00 2.282428e+00 -8.266357e+00 6.813965e+00 -1.861214e-04 1.419819e-02 -2.705078e-01 3.542480e-01
-1.268251e+00 2.345930e+00 -9.341797e+00 7.289551e+00 3.072019e-04 2.310415e-02 -4.960938e-01 1.118408e+00
-1.413096e+00 2.319698e+00 -9.490967e+00 6.083252e+00 1.988859e-04 2.692612e-02 -4.316406e-01 9.270020e-01
-1.417927e+00 2.372825e+00 -1.005591e+01 7.236328e+00 -2.849304e-04 1.585475e-02 -3.752441e-01 3.623047e-01
-1.371825e+00 2.344403e+00 -9.890137e+00 6.394287e+00 -5.370237e-04 1.457131e-02 -1.999512e-01 2.241211e-01
-1.336966e+00 2.434610e+00 -9.187256e+00 7.229248e+00 -1.106145e-04 2.403461e-02 -4.309082e-01 1.066895e+00
-1.336617e+00 2.360168e+00 -1.019727e+01 7.223145e+00 -5.093143e-04 1.723009e-02 -3.305664e-01 3.125000e-01
-1.401432e+00 2.346962e+00 -1.038623e+01 6.856445e+00 -2.802942e-04 1.908483e-02 -3.967285e-01 9.326172e-01
-1.408126e+00 2.338213e+00 -1.003027e+01 5.915527e+00 -2.008038e-04 1.622807e-02 -3.620605e-01 3.623047e-01
-1.394960e+00 2.355813e+00 -9.610840e+00 6.684326e+00 -2.105271e-04 1.632449e-02 -3.471680e-01 3.474121e-01
-1.368986e+00 2.371417e+00 -1.024463e+01 6.360596e+00 -8.010952e-05 1.914942e-02 -5.007324e-01 1.034180e+00
-1.338829e+00 2.280797e+00 -9.326904e+00 6.179932e+00 -7.864928e-05 1.588867e-02 -3.620605e-01 3.623047e-01
-1.344498e+00 2.332997e+00 -1.008032e+01 5.287109e+00 1.504228e-04 2.137708e-02 -3.967285e-01 9.226074e-01
-1.407532e+00 2.343585e+00 -9.294434e+00 5.651123e+00 -1.655363e-04 1.557214e-02 -2.919922e-01 3.986816e-01
-1.348220e+00 2.376142e+00 -9.886719e+00 6.653809e+00 1.812198e-04 2.309485e-02 -4.343262e-01 8.967285e-01
-1.378534e+00 2.366225e+00 -9.061279e+00 6.521240e+00 -1.094870e-04 2.143889e-02 -3.752441e-01 8.945312e-01
-1.368884e+00 2.322729e+00 -1.002832e+01 6.521240e+00 -2.845752e-04 1.615729e-02 -3.620605e-01 3.623047e-01
-1.296277e+00 2.360746e+00 -9.789307e+00 7.167725e+00 -2.561033e-06 1.909019e-02 -3.620605e-01 4.841309e-01
-1.345925e+00 2.323405e+00 -9.522217e+00 6.455566e+00 1.890363e-04 2.538683e-02 -3.867188e-01 9.167480e-01
-1.352863e+00 2.279402e+00 -9.444336e+00 6.684570e+00 1.829454e-04 2.281702e-02 -3.867188e-01 9.128418e-01
-1.314982e+00 2.283630e+00 -9.411621e+00 6.799072e+00 -4.210682e-04 1.482332e-02 -3.620605e-01 3.623047e-01
-1.323273e+00 2.239313e+00 -8.981201e+00 5.652588e+00 -1.726409e-04 1.955938e-02 -3.867188e-01 9.169922e-01
-1.316600e+00 2.359910e+00 -9.609863e+00 7.184082e+00 6.580901e-06 1.639603e-02 -3.867188e-01 3.869629e-01
-1.316319e+00 2.273358e+00 -8.927002e+00 7.147705e+00 1.186121e-04 2.293269e-02 -3.967285e-01 1.112305e+00
-1.372443e+00 2.350104e+00 -9.671387e+00 6.464111e+00 -1.294249e-04 2.567441e-02 -4.997559e-01 1.282959e+00
-1.300661e+00 2.415179e+00 -9.671387e+00 6.464111e+00 -9.376977e-05 1.468792e-02 -3.471680e-01 3.474121e-01
-1.330775e+00 2.259480e+00 -9.292480e+00 5.797607e+00 -3.334960e-04 1.817738e-02 -3.967285e-01 9.558105e-01
-1.321342e+00 2.356837e+00 -9.777588e+00 6.259033e+00 -6.538779e-05 1.551369e-02 -3.620605e-01 3.623047e-01
-1.243436e+00 2.319935e+00 -9.423340e+00 6.286865e+00 -1.848549e-04 2.209805e-02 -6.279297e-01 9.687500e-01
-1.290004e+00 2.360937e+00 -8.931396e+00 7.172607e+00 -3.293399e-04 1.156972e-02 -2.475586e-01 2.241211e-01
-1.318309e+00 2.330909e+00 -9.479004e+00 6.147461e+00 -1.954684e-04 1.243326e-02 -2.705078e-01 3.308105e-01
-1.338381e+00 2.233655e+00 -9.085693e+00 7.158447e+00 9.828528e-07 2.058475e-02 -3.967285e-01 9.475098e-01
-1.297417e+00 2.368116e+00 -8.917480e+00 5.915771e+00 -1.693455e-04 1.682295e-02 -3.471680e-01 3.676758e-01
-1.270223e+00 2.388858e+00 -9.568115e+00 5.915771e+00 -1.666708e-04 2.127264e-02 -6.413574e-01 6.276855e-01
-1.302151e+00 2.310066e+00 -9.614502e+00 6.147461e+00 -5.890237e-05 2.114732e-02 -3.967285e-01 9.475098e-01
-1.306169e+00 2.304420e+00 -9.323486e+00 5.436279e+00 -1.713744e-04 1.335393e-02 -2.475586e-01 4.123535e-01
-1.274359e+00 2.245767e+00 -9.467773e+00 5.858154e+00 -4.550889e-04 1.852466e-02 -2.880859e-01 2.241211e-01
-1.295593e+00 2.389589e+00 -9.630371e+00 6.245850e+00 -2.490619e-04 1.370000e-02 -2.475586e-01 2.001953e-01
-1.318571e+00 2.332438e+00 -9.332275e+00 6.245850e+00 -3.327939e-04 1.610556e-02 -2.880859e-01 2.048340e-01
-1.300661e+00 2.379713e+00 -8.991943e+00 6.154053e+00 -1.542391e-04 1.558111e-02 -3.471680e-01 3.474121e-01
-1.260292e+00 2.369536e+00 -9.247803e+00 5.611572e+00 5.774260e-05 1.913266e-02 -3.967285e-01 9.589844e-01
-1.236644e+00 2.255148e+00 -9.307861e+00 6.833984e+00 -3.015673e-04 1.419749e-02 -3.305664e-01 4.104004e-01
-1.266170e+00 2.332426e+00 -9.117920e+00 6.636719e+00 1.254246e-04 1.917992e-02 -3.867188e-01 3.869629e-01
-1.309810e+00 2.357813e+00 -9.026611e+00 6.400635e+00 8.891728e-05 2.004641e-02 -3.967285e-01 9.543457e-01
-1.281349e+00 2.245104e+00 -8.471680e+00 6.224609e+00 -8.005617e-05 1.842692e-02 -3.967285e-01 3.969727e-01
-1.305786e+00 2.417406e+00 -9.407715e+00 6.936523e+00 1.976236e-05 1.948853e-02 -3.967285e-01 9.399414e-01
-1.262662e+00 2.247529e+00 -9.526855e+00 6.125732e+00 -1.687839e-04 1.882588e-02 -3.122559e-01 3.330078e-01
-1.240465e+00 2.370603e+00 -9.432373e+00 7.015381e+00 -9.023712e-05 2.365449e-02 -5.957031e-01 1.272949e+00
-1.287910e+00 2.328678e+00 -9.247559e+00 6.364014e+00 1.748607e-04 2.524097e-02 -5.512695e-01 8.959961e-01
-1.300238e+00 2.342258e+00 -9.479492e+00 6.526123e+00 -1.879495e-05 1.711664e-02 -3.752441e-01 6.855469e-01
-1.271826e+00 2.405040e+00 -9.426270e+00 6.482910e+00 5.340541e-05 1.893033e-02 -3.867188e-01 7.055664e-01
-1.274121e+00 2.342382e+00 -9.771240e+00 6.976074e+00 1.247296e-04 2.012957e-02 -4.052734e-01 9.680176e-01
-1.278381e+00 2.345412e+00 -9.771240e+00 5.915039e+00 -2.744434e-04 1.843707e-02 -3.867188e-01 6.845703e-01
-1.321887e+00 2.239161e+00 -9.220459e+00 6.209473e+00 -9.688401e-05 1.955562e-02 -5.278320e-01 9.682617e-01
-1.214764e+00 2.237534e+00 -9.139160e+00 6.309570e+00 -1.912940e-04 2.026883e-02 -5.415039e-01 9.790039e-01
-1.327229e+00 2.391787e+00 -9.673340e+00 5.897949e+00 2.516707e-04 2.188354e-02 -6.118164e-01 1.169434e+00
-1.301552e+00 2.295853e+00 -9.278076e+00 6.357178e+00 -1.820257e-04 1.224613e-02 -2.568359e-01 2.478027e-01
-1.282633e+00 2.242975e+00 -8.234619e+00 6.264648e+00 -1.918950e-05 2.010174e-02 -3.967285e-01 9.575195e-01
-1.241260e+00 2.308965e+00 -9.482910e+00 7.006104e+00 -2.625621e-06 1.789256e-02 -3.471680e-01 3.623047e-01
-1.255985e+00 2.384364e+00 -9.298584e+00 6.599365e+00 -1.882514e-04 1.634314e-02 -3.471680e-01 3.623047e-01
-1.326919e+00 2.362781e+00 -9.550293e+00 5.975342e+00 -3.349141e-05 1.878627e-02 -5.969238e-01 9.001465e-01
-1.294474e+00 2.318322e+00 -9.453369e+00 7.044434e+00 7.635643e-05 1.868466e-02 -3.967285e-01 9.521484e-01
-1.265944e+00 2.280713e+00 -8.356934e+00 7.064209e+00 -4.036015e-05 1.777739e-02 -2.475586e-01 2.595215e-01
-1.303118e+00 2.305378e+00 -8.475098e+00 5.673340e+00 -5.024765e-05 1.493519e-02 -2.475586e-01 2.478027e-01
-1.320651e+00 2.415380e+00 -9.685547e+00 6.205078e+00 8.798217e-05 1.856676e-02 -3.620605e-01 3.935547e-01
-1.322965e+00 2.279024e+00 -9.483398e+00 6.144287e+00 5.214736e-05 2.870474e-02 -5.119629e-01 8.789062e-01
-1.343584e+00 2.348769e+00 -9.874512e+00 6.368896e+00 -1.574769e-04 1.730519e-02 -4.230957e-01 9.423828e-01
-1.273382e+00 2.310115e+00 -8.808594e+00 6.368896e+00 6.055917e-05 2.163823e-02 -5.952148e-01 9.392090e-01
-1.293450e+00 2.305188e+00 -9.528809e+00 5.659668e+00 -2.971374e-04 1.426849e-02 -2.238770e-01 2.241211e-01
-1.291275e+00 2.340540e+00 -9.374023e+00 7.109619e+00 3.276269e-05 1.689598e-02 -3.305664e-01 6.076660e-01
-1.305990e+00 2.304633e+00 -9.598389e+00 6.363037e+00 -4.180073e-05 1.714994e-02 -3.305664e-01 3.979492e-01
-1.340917e+00 2.306825e+00 -9.812744e+00 6.127441e+00 -2.255254e-04 1.225285e-02 -2.238770e-01 2.241211e-01
-1.291665e+00 2.300886e+00 -9.561035e+00 7.072021e+00 -1.065272e-05 1.981441e-02 -3.867188e-01 7.114258e-01
-1.306051e+00 2.334594e+00 -9.377441e+00 5.882080e+00 2.041455e-04 2.180359e-02 -4.738770e-01 1.130371e+00
-1.307533e+00 2.364903e+00 -9.346191e+00 6.243896e+00 -1.863489e-04 1.862138e-02 -3.471680e-01 3.984375e-01
-1.344071e+00 2.271589e+00 -9.645752e+00 6.627686e+00 1.364298e-04 1.935405e-02 -3.967285e-01 7.263184e-01
-1.352934e+00 2.403713e+00 -9.982422e+00 6.013672e+00 9.512611e-05 2.425011e-02 -3.967285e-01 9.631348e-01
-1.358570e+00 2.411754e+00 -9.689697e+00 7.170654e+00 -2.310968e-04 1.492986e-02 -3.471680e-01 3.623047e-01
-1.263686e+00 2.360181e+00 -9.832275e+00 6.182861e+00 -3.091900e-04 1.964194e-02 -3.867188e-01 7.099609e-01
-1.277576e+00 2.406208e+00 -9.758301e+00 6.174805e+00 -2.838268e-04 1.628038e-02 -3.752441e-01 3.791504e-01
-1.260015e+00 2.433936e+00 -9.911621e+00 6.807129e+00 3.226734e-04 3.083363e-02 -9.528809e-01 1.032715e+00
-1.297359e+00 2.328938e+00 -9.744873e+00 6.194580e+00 1.439598e-05 1.972703e-02 -3.967285e-01 7.211914e-01
-1.327877e+00 2.353886e+00 -9.488525e+00 6.287109e+00 -3.677203e-04 1.533219e-02 -3.471680e-01 3.735352e-01
-1.245606e+00 2.373832e+00 -9.349121e+00 7.064697e+00 7.130035e-05 2.389422e-02 -3.867188e-01 7.143555e-01
-1.320614e+00 2.317376e+00 -9.475586e+00 7.084229e+00 -7.173281e-05 2.351889e-02 -9.772949e-01 1.053711e+00
-1.255377e+00 2.308538e+00 -9.226562e+00 6.310059e+00 4.289591e-05 1.784487e-02 -3.471680e-01 3.486328e-01
-1.293754e+00 2.388739e+00 -9.298584e+00 6.616211e+00 -9.091388e-05 1.621860e-02 -3.471680e-01 2.856445e-01
-1.271448e+00 2.415312e+00 -9.399170e+00 6.685303e+00 1.824526e-04 2.403918e-02 -4.802246e-01 1.427002e+00
-1.296276e+00 2.382438e+00 -9.226074e+00 6.300781e+00 -1.185924e-04 1.640412e-02 -2.919922e-01 3.657227e-01
-1.338711e+00 2.360121e+00 -9.497803e+00 7.130371e+00 1.778121e-04 2.195163e-02 -4.052734e-01 9.809570e-01
-1.334496e+00 2.409555e+00 -9.531738e+00 6.648438e+00 1.773965e-04 2.220770e-02 -5.085449e-01 1.046875e+00
-1.333637e+00 2.380484e+00 -9.471436e+00 7.122070e+00 1.041964e-04 3.036926e-02 -5.085449e-01 1.046875e+00
-1.334407e+00 2.368013e+00 -9.246338e+00 6.641357e+00 -3.877846e-04 1.848037e-02 -2.705078e-01 3.283691e-01
-1.330925e+00 2.395438e+00 -9.546631e+00 7.066650e+00 1.083399e-04 2.305718e-02 -5.085449e-01 1.046875e+00
-1.354569e+00 2.374222e+00 -9.267822e+00 6.642334e+00 6.633554e-05 1.938176e-02 -2.705078e-01 3.937988e-01
-1.367772e+00 2.380549e+00 -9.498291e+00 6.057373e+00 -4.512698e-05 1.963121e-02 -3.305664e-01 4.016113e-01
-1.306179e+00 2.342703e+00 -9.563477e+00 6.654297e+00 -1.534009e-04 2.020557e-02 -4.052734e-01 1.000244e+00
-1.295634e+00 2.346262e+00 -9.590576e+00 7.427002e+00 -2.255015e-04 1.486150e-02 -2.705078e-01 2.707520e-01
-1.311842e+00 2.254620e+00 -9.322754e+00 6.609131e+00 -1.245948e-04 1.836104e-02 -3.791504e-01 6.269531e-01
-1.345524e+00 2.416320e+00 -9.373047e+00 6.567627e+00 -4.046966e-05 2.049273e-02 -4.052734e-01 9.946289e-01
-1.288920e+00 2.396579e+00 -9.595459e+00 7.453369e+00 -1.340752e-05 1.897687e-02 -3.122559e-01 4.689941e-01
-1.256501e+00 2.268683e+00 -8.862793e+00 7.020752e+00 -7.065167e-05 2.486897e-02 -1.049561e+00 1.130127e+00
-1.308608e+00 2.369686e+00 -9.605713e+00 7.494629e+00 6.559630e-04 3.309155e-02 -4.052734e-01 1.010010e+00
-1.231754e+00 2.375034e+00 -8.842041e+00 7.116943e+00 -5.519420e-05 1.740459e-02 -2.788086e-01 3.361816e-01
-1.291776e+00 2.384364e+00 -8.781250e+00 7.116943e+00 8.998438e-05 2.320531e-02 -4.279785e-01 1.010498e+00
-1.275649e+00 2.394389e+00 -9.435547e+00 6.567627e+00 -1.880506e-04 1.499623e-02 -2.919922e-01 3.166504e-01
-1.301397e+00 2.325389e+00 -9.212646e+00 6.542969e+00 2.016112e-05 1.805554e-02 -3.798828e-01 6.225586e-01
-1.326291e+00 2.342266e+00 -9.330566e+00 6.949707e+00 -1.125296e-04 1.573679e-02 -3.867188e-01 3.869629e-01
-1.309320e+00 2.311506e+00 -9.204346e+00 6.771484e+00 -4.016217e-05 2.300295e-02 -4.321289e-01 1.000244e+00
-1.304889e+00 2.366653e+00 -9.299805e+00 6.463135e+00 -2.362497e-04 1.498097e-02 -3.122559e-01 3.308105e-01
-1.269469e+00 2.350288e+00 -9.520752e+00 7.653320e+00 5.924075e-05 2.311656e-02 -3.967285e-01 9.797363e-01
-1.309088e+00 2.364851e+00 -9.347168e+00 6.712646e+00 -1.976348e-04 1.374527e-02 -2.705078e-01 3.308105e-01
-1.284343e+00 2.298507e+00 -8.148926e+00 6.180908e+00 -7.174966e-05 1.803303e-02 -4.052734e-01 1.003906e+00
-1.260127e+00 2.273298e+00 -9.498779e+00 7.685059e+00 1.878302e-04 2.496357e-02 -3.967285e-01 7.333984e-01
-1.295399e+00 2.377011e+00 -9.449219e+00 6.977539e+00 2.437615e-05 1.686900e-02 -3.867188e-01 3.869629e-01
-1.257163e+00 2.383370e+00 -9.240967e+00 7.187988e+00 1.703172e-04 1.948512e-02 -3.122559e-01 4.562988e-01
-1.339252e+00 2.359219e+00 -9.566650e+00 7.677246e+00 -3.161697e-05 1.740012e-02 -2.919922e-01 4.272461e-01
-1.332314e+00 2.381644e+00 -9.302734e+00 6.377197e+00 9.798761e-05 1.942111e-02 -3.967285e-01 7.377930e-01
-1.327231e+00 2.392721e+00 -9.361572e+00 6.298828e+00 5.284799e-05 2.353485e-02 -4.052734e-01 9.892578e-01
-1.315101e+00 2.251666e+00 -9.680420e+00 7.676514e+00 -8.110220e-05 1.863301e-02 -4.187012e-01 1.063232e+00
-1.381660e+00 2.289383e+00 -9.191406e+00 6.972168e+00 7.061797e-05 1.684412e-02 -2.705078e-01 4.338379e-01
-1.290897e+00 2.346709e+00 -9.479248e+00 6.568848e+00 2.154189e-04 2.064336e-02 -3.833008e-01 6.130371e-01
-1.302122e+00 2.386391e+00 -9.690186e+00 7.552246e+00 3.134388e-04 2.628750e-02 -4.052734e-01 9.914551e-01
-1.346950e+00 2.332658e+00 -9.607422e+00 7.492432e+00 -3.671657e-04 1.489186e-02 -2.475586e-01 2.951660e-01
-1.256617e+00 2.314660e+00 -9.160400e+00 6.978516e+00 -4.545329e-04 1.620508e-02 -2.919922e-01 2.707520e-01
-1.295317e+00 2.380656e+00 -9.607422e+00 7.534424e+00 1.602050e-05 1.956941e-02 -3.122559e-01 4.521484e-01
-1.306585e+00 2.300013e+00 -9.369873e+00 6.516357e+00 2.201703e-04 2.195807e-02 -3.967285e-01 9.685059e-01
