5.725461e+02 7.707809e-01 6.138752e-03 5.775097e-01 -9.990234e-01 9.987793e-01
3.299392e+02 5.025189e-01 -3.252539e-03 5.777641e-01 -9.980469e-01 9.985352e-01
3.299392e+02 5.025189e-01 -3.252539e-03 5.777641e-01 -9.980469e-01 9.985352e-01
3.299392e+02 5.025189e-01 -3.252539e-03 5.777641e-01 -9.980469e-01 9.985352e-01
3.299392e+02 5.025189e-01 -3.252539e-03 5.777641e-01 -9.980469e-01 9.985352e-01
3.299392e+02 5.025189e-01 -3.252539e-03 5.777641e-01 -9.980469e-01 9.985352e-01
3.299392e+02 5.025189e-01 -3.252539e-03 5.777641e-01 -9.980469e-01 9.985352e-01
3.299392e+02 5.025189e-01 -3.252539e-03 5.777641e-01 -9.980469e-01 9.985352e-01
3.299392e+02 5.025189e-01 -3.252539e-03 5.777641e-01 -9.980469e-01 9.985352e-01
3.299392e+02 5.025189e-01 -3.252539e-03 5.777641e-01 -9.980469e-01 9.985352e-01
3.299392e+02 5.025189e-01 -3.252539e-03 5.777641e-01 -9.980469e-01 9.985352e-01
3.299392e+02 5.025189e-01 -3.252539e-03 5.777641e-01 -9.980469e-01 9.985352e-01
3.299392e+02 5.025189e-01 -3.252539e-03 5.777641e-01 -9.980469e-01 9.985352e-01
3.299392e+02 5.025189e-01 -3.252539e-03 5.777641e-01 -9.980469e-01 9.985352e-01
3.299392e+02 5.025189e-01 -3.252539e-03 5.777641e-01 -9.980469e-01 9.985352e-01
3.299392e+02 5.025189e-01 -3.252539e-03 5.777641e-01 -9.980469e-01 9.985352e-01
3.299392e+02 5.025189e-01 -3.252539e-03 5.777641e-01 -9.980469e-01 9.985352e-01
3.299392e+02 5.025189e-01 -3.252539e-03 5.777641e-01 -9.980469e-01 9.985352e-01
3.299392e+02 5.025189e-01 -3.252539e-03 5.777641e-01 -9.980469e-01 9.985352e-01
3.299392e+02 5.025189e-01 -3.252539e-03 5.777641e-01 -9.980469e-01 9.985352e-01
3.299392e+02 5.025189e-01 -3.252539e-03 5.777641e-01 -9.980469e-01 9.985352e-01
3.299392e+02 5.025189e-01 -3.252539e-03 5.777641e-01 -9.980469e-01 9.985352e-01
3.299392e+02 5.025189e-01 -3.252539e-03 5.777641e-01 -9.980469e-01 9.985352e-01
3.299392e+02 5.025189e-01 -3.252539e-03 5.777641e-01 -9.980469e-01 9.985352e-01
3.299392e+02 5.025189e-01 -3.252539e-03 5.777641e-01 -9.980469e-01 9.985352e-01
3.299392e+02 5.025189e-01 -3.252539e-03 5.777641e-01 -9.980469e-01 9.985352e-01
3.299392e+02 5.025189e-01 -3.252539e-03 5.777641e-01 -9.980469e-01 9.985352e-01
3.299392e+02 5.025189e-01 -3.252539e-03 5.777641e-01 -9.980469e-01 9.985352e-01
3.299392e+02 5.025189e-01 -3.252539e-03 5.777641e-01 -9.980469e-01 9.985352e-01
3.299392e+02 5.025189e-01 -3.252539e-03 5.777641e-01 -9.980469e-01 9.985352e-01
3.299392e+02 5.025189e-01 -3.252539e-03 5.777641e-01 -9.980469e-01 9.985352e-01
3.299392e+02 5.025189e-01 -3.252539e-03 5.777641e-01 -9.980469e-01 9.985352e-01
3.299392e+02 5.025189e-01 -3.252539e-03 5.777641e-01 -9.980469e-01 9.985352e-01
3.299392e+02 5.025189e-01 -3.252539e-03 5.777641e-01 -9.980469e-01 9.985352e-01
3.299392e+02 5.025189e-01 -3.252539e-03 5.777641e-01 -9.980469e-01 9.985352e-01
3.299392e+02 5.025189e-01 -3.252539e-03 5.777641e-01 -9.980469e-01 9.985352e-01
3.299392e+02 5.025189e-01 -3.252539e-03 5.777641e-01 -9.980469e-01 9.985352e-01
3.299392e+02 5.025189e-01 -3.252539e-03 5.777641e-01 -9.980469e-01 9.985352e-01
3.299392e+02 5.025189e-01 -3.252539e-03 5.777641e-01 -9.980469e-01 9.985352e-01
3.299392e+02 5.025189e-01 -3.252539e-03 5.777641e-01 -9.980469e-01 9.985352e-01
3.299392e+02 5.025189e-01 -3.252539e-03 5.777641e-01 -9.980469e-01 9.985352e-01
3.299392e+02 5.025189e-01 -3.252539e-03 5.777641e-01 -9.980469e-01 9.985352e-01
3.299392e+02 5.025189e-01 -3.252539e-03 5.777641e-01 -9.980469e-01 9.985352e-01
3.299392e+02 5.025189e-01 -3.252539e-03 5.777641e-01 -9.980469e-01 9.985352e-01
3.299392e+02 5.025189e-01 -3.252539e-03 5.777641e-01 -9.980469e-01 9.985352e-01
3.299392e+02 5.025189e-01 -3.252539e-03 5.777641e-01 -9.980469e-01 9.985352e-01
3.299392e+02 5.025189e-01 -3.252539e-03 5.777641e-01 -9.980469e-01 9.985352e-01
3.299392e+02 5.025189e-01 -3.252539e-03 5.777641e-01 -9.980469e-01 9.985352e-01
3.299392e+02 5.025189e-01 -3.252539e-03 5.777641e-01 -9.980469e-01 9.985352e-01
3.299392e+02 5.025189e-01 -3.252539e-03 5.777641e-01 -9.980469e-01 9.985352e-01
3.299392e+02 5.025189e-01 -3.252539e-03 5.777641e-01 -9.980469e-01 9.985352e-01
3.299392e+02 5.025189e-01 -3.252539e-03 5.777641e-01 -9.980469e-01 9.985352e-01
3.299392e+02 5.025189e-01 -3.252539e-03 5.777641e-01 -9.980469e-01 9.985352e-01
3.299392e+02 5.025189e-01 -3.252539e-03 5.777641e-01 -9.980469e-01 9.985352e-01
3.299392e+02 5.025189e-01 -3.252539e-03 5.777641e-01 -9.980469e-01 9.985352e-01
3.299392e+02 5.025189e-01 -3.252539e-03 5.777641e-01 -9.980469e-01 9.985352e-01
3.299392e+02 5.025189e-01 -3.252539e-03 5.777641e-01 -9.980469e-01 9.985352e-01
3.299392e+02 5.025189e-01 -3.252539e-03 5.777641e-01 -9.980469e-01 9.985352e-01
3.299392e+02 5.025189e-01 -3.252539e-03 5.777641e-01 -9.980469e-01 9.985352e-01
3.299392e+02 5.025189e-01 -3.252539e-03 5.777641e-01 -9.980469e-01 9.985352e-01
3.299392e+02 5.025189e-01 -3.252539e-03 5.777641e-01 -9.980469e-01 9.985352e-01
3.299392e+02 5.025189e-01 -3.252539e-03 5.777641e-01 -9.980469e-01 9.985352e-01
3.299392e+02 5.025189e-01 -3.252539e-03 5.777641e-01 -9.980469e-01 9.985352e-01
3.299392e+02 5.025189e-01 -3.252539e-03 5.777641e-01 -9.980469e-01 9.985352e-01
3.299392e+02 5.025189e-01 -3.252539e-03 5.777641e-01 -9.980469e-01 9.985352e-01
3.299392e+02 5.025189e-01 -3.252539e-03 5.777641e-01 -9.980469e-01 9.985352e-01
3.299392e+02 5.025189e-01 -3.252539e-03 5.777641e-01 -9.980469e-01 9.985352e-01
3.299392e+02 5.025189e-01 -3.252539e-03 5.777641e-01 -9.980469e-01 9.985352e-01
3.299392e+02 5.025189e-01 -3.252539e-03 5.777641e-01 -9.980469e-01 9.985352e-01
3.299392e+02 5.025189e-01 -3.252539e-03 5.777641e-01 -9.980469e-01 9.985352e-01
3.299392e+02 5.025189e-01 -3.252539e-03 5.777641e-01 -9.980469e-01 9.985352e-01
3.299392e+02 5.025189e-01 -3.252539e-03 5.777641e-01 -9.980469e-01 9.985352e-01
3.299392e+02 5.025189e-01 -3.252539e-03 5.777641e-01 -9.980469e-01 9.985352e-01
3.299392e+02 5.025189e-01 -3.252539e-03 5.777641e-01 -9.980469e-01 9.985352e-01
3.299392e+02 5.025189e-01 -3.252539e-03 5.777641e-01 -9.980469e-01 9.985352e-01
3.299392e+02 5.025189e-01 -3.252539e-03 5.777641e-01 -9.980469e-01 9.985352e-01
3.299392e+02 5.025189e-01 -3.252539e-03 5.777641e-01 -9.980469e-01 9.985352e-01
3.299392e+02 5.025189e-01 -3.252539e-03 5.777641e-01 -9.980469e-01 9.985352e-01
3.299392e+02 5.025189e-01 -3.252539e-03 5.777641e-01 -9.980469e-01 9.985352e-01
3.299392e+02 5.025189e-01 -3.252539e-03 5.777641e-01 -9.980469e-01 9.985352e-01
3.299392e+02 5.025189e-01 -3.252539e-03 5.777641e-01 -9.980469e-01 9.985352e-01
3.299392e+02 5.025189e-01 -3.252539e-03 5.777641e-01 -9.980469e-01 9.985352e-01
3.299392e+02 5.025189e-01 -3.252539e-03 5.777641e-01 -9.980469e-01 9.985352e-01
3.299392e+02 5.025189e-01 -3.252539e-03 5.777641e-01 -9.980469e-01 9.985352e-01
3.299392e+02 5.025189e-01 -3.252539e-03 5.777641e-01 -9.980469e-01 9.985352e-01
3.299392e+02 5.025189e-01 -3.252539e-03 5.777641e-01 -9.980469e-01 9.985352e-01
3.299392e+02 5.025189e-01 -3.252539e-03 5.777641e-01 -9.980469e-01 9.985352e-01
3.299392e+02 5.025189e-01 -3.252539e-03 5.777641e-01 -9.980469e-01 9.985352e-01
3.299392e+02 5.025189e-01 -3.252539e-03 5.777641e-01 -9.980469e-01 9.985352e-01
3.299392e+02 5.025189e-01 -3.252539e-03 5.777641e-01 -9.980469e-01 9.985352e-01
3.299392e+02 5.025189e-01 -3.252539e-03 5.777641e-01 -9.980469e-01 9.985352e-01
3.299392e+02 5.025189e-01 -3.252539e-03 5.777641e-01 -9.980469e-01 9.985352e-01
3.299392e+02 5.025189e-01 -3.252539e-03 5.777641e-01 -9.980469e-01 9.985352e-01
3.299392e+02 5.025189e-01 -3.252539e-03 5.777641e-01 -9.980469e-01 9.985352e-01
3.299392e+02 5.025189e-01 -3.252539e-03 5.777641e-01 -9.980469e-01 9.985352e-01
3.299392e+02 5.025189e-01 -3.252539e-03 5.777641e-01 -9.980469e-01 9.985352e-01
3.299392e+02 5.025189e-01 -3.252539e-03 5.777641e-01 -9.980469e-01 9.985352e-01
3.299392e+02 5.025189e-01 -3.252539e-03 5.777641e-01 -9.980469e-01 9.985352e-01
3.299392e+02 5.025189e-01 -3.252539e-03 5.777641e-01 -9.980469e-01 9.985352e-01
3.299392e+02 5.025189e-01 -3.252539e-03 5.777641e-01 -9.980469e-01 9.985352e-01
3.299392e+02 5.025189e-01 -3.252539e-03 5.777641e-01 -9.980469e-01 9.985352e-01
3.299392e+02 5.025189e-01 -3.252539e-03 5.777641e-01 -9.980469e-01 9.985352e-01
