1.934536e+04 9.147000e-01 -4.103707e-03 5.797086e-01 -9.999792e-01 9.998781e-01
2.601373e+03 2.101000e-01 -1.769673e-02 6.012682e-01 -3.228820e+00 3.852880e+00
1.075844e+03 8.170000e-02 -2.099172e-02 6.103826e-01 -3.190524e+00 3.308696e+00
1.028529e+03 7.880000e-02 -2.032050e-02 6.146337e-01 -3.582016e+00 3.043519e+00
1.041223e+03 7.930000e-02 -2.041682e-02 6.196416e-01 -3.454809e+00 3.501679e+00
9.061877e+02 7.260000e-02 -2.058624e-02 6.217440e-01 -3.269505e+00 3.961177e+00
9.458484e+02 7.100000e-02 -2.070719e-02 6.238542e-01 -3.282680e+00 4.212600e+00
9.656358e+02 7.450000e-02 -2.089639e-02 6.280243e-01 -3.408386e+00 4.754557e+00
9.693168e+02 7.290000e-02 -2.090453e-02 6.356294e-01 -3.565660e+00 5.144405e+00
9.389723e+02 6.530000e-02 -2.119768e-02 6.395730e-01 -3.551673e+00 5.322155e+00
8.133712e+02 6.090000e-02 -2.105722e-02 6.431544e-01 -3.797295e+00 5.675302e+00
9.250713e+02 6.770000e-02 -2.184829e-02 6.463844e-01 -3.856333e+00 5.782123e+00
8.141110e+02 6.700000e-02 -2.192371e-02 6.488819e-01 -3.918947e+00 5.919262e+00
7.820758e+02 5.850000e-02 -2.234482e-02 6.509644e-01 -4.074339e+00 5.953876e+00
7.684995e+02 5.990000e-02 -2.289802e-02 6.532921e-01 -4.198836e+00 6.004303e+00
7.644769e+02 5.940000e-02 -2.357237e-02 6.559686e-01 -4.237516e+00 6.082500e+00
8.097708e+02 6.160000e-02 -2.440313e-02 6.600611e-01 -4.386872e+00 6.142616e+00
8.796474e+02 6.540000e-02 -2.470481e-02 6.629439e-01 -4.513890e+00 6.344629e+00
7.463547e+02 5.840000e-02 -2.492457e-02 6.667199e-01 -4.607102e+00 6.426468e+00
7.628098e+02 5.790000e-02 -2.490323e-02 6.687308e-01 -4.675951e+00 6.598543e+00
7.431812e+02 5.810000e-02 -2.484546e-02 6.716837e-01 -4.763526e+00 6.836114e+00
6.950519e+02 5.490000e-02 -2.473934e-02 6.738531e-01 -4.816728e+00 6.836660e+00
6.967953e+02 5.530000e-02 -2.510501e-02 6.762842e-01 -4.895305e+00 6.922791e+00
6.876482e+02 5.510000e-02 -2.598320e-02 6.795363e-01 -4.939343e+00 6.986291e+00
7.572017e+02 5.650000e-02 -2.585177e-02 6.824865e-01 -5.004702e+00 7.015499e+00
7.072495e+02 5.850000e-02 -2.578880e-02 6.852617e-01 -5.027991e+00 7.041044e+00
7.037242e+02 5.460000e-02 -2.581534e-02 6.879476e-01 -5.128552e+00 7.242901e+00
7.119650e+02 5.860000e-02 -2.571919e-02 6.914113e-01 -5.247957e+00 7.249334e+00
7.739695e+02 5.690000e-02 -2.574212e-02 6.949933e-01 -5.269486e+00 7.519293e+00
