-3.488841e-01 5.478336e+00 -2.665662e+01 2.792941e+01 3.103969e-04 1.374023e-02 -1.262285e-01 1.262285e-01
-3.663066e-01 5.487185e+00 -2.658406e+01 2.801547e+01 2.851189e-04 1.341975e-02 -1.262285e-01 1.262285e-01
-3.703829e-01 5.494351e+00 -2.649619e+01 2.839637e+01 2.646567e-04 1.318264e-02 -1.262285e-01 1.262285e-01
-4.105974e-01 5.490769e+00 -2.643068e+01 2.856755e+01 2.297043e-04 1.290516e-02 -1.262285e-01 1.262284e-01
-4.193744e-01 5.505473e+00 -2.633644e+01 2.873364e+01 2.035810e-04 1.257852e-02 -1.262284e-01 1.262283e-01
-4.530380e-01 5.507302e+00 -2.628696e+01 2.898188e+01 1.758509e-04 1.237752e-02 -1.262277e-01 1.262285e-01
-4.887209e-01 5.504032e+00 -2.619485e+01 2.921767e+01 1.562130e-04 1.208395e-02 -1.262285e-01 1.262284e-01
-4.826711e-01 5.523706e+00 -2.613488e+01 2.944248e+01 1.410533e-04 1.189308e-02 -1.262284e-01 1.262284e-01
-5.252425e-01 5.541549e+00 -2.611397e+01 2.979873e+01 1.191347e-04 1.167273e-02 -1.262285e-01 1.262283e-01
-5.533316e-01 5.557520e+00 -2.602261e+01 2.987075e+01 1.052227e-04 1.153527e-02 -1.262284e-01 1.262280e-01
-5.496903e-01 5.555521e+00 -2.503839e+01 3.008404e+01 9.101237e-05 1.135139e-02 -1.262284e-01 1.262284e-01
-6.098210e-01 5.578918e+00 -2.597034e+01 3.035385e+01 8.102664e-05 1.123641e-02 -1.262285e-01 1.262285e-01
-6.201473e-01 5.577367e+00 -2.593298e+01 3.047990e+01 7.429691e-05 1.105565e-02 -1.262285e-01 1.262283e-01
-6.396754e-01 5.585038e+00 -2.585084e+01 2.728841e+01 7.019592e-05 1.097087e-02 -1.262283e-01 1.262221e-01
-6.587218e-01 5.617480e+00 -2.590974e+01 3.093481e+01 6.525027e-05 1.091255e-02 -1.262282e-01 1.262252e-01
-6.813838e-01 5.609282e+00 -2.606956e+01 3.104401e+01 5.846648e-05 1.083843e-02 -1.262285e-01 1.262283e-01
-7.151940e-01 5.621746e+00 -2.621660e+01 2.742121e+01 5.251891e-05 1.072497e-02 -1.262285e-01 1.262285e-01
-7.213561e-01 5.642839e+00 -2.626137e+01 3.131546e+01 5.285223e-05 1.064249e-02 -1.262284e-01 1.262275e-01
-7.473249e-01 5.667881e+00 -2.639490e+01 3.152260e+01 4.906753e-05 1.051053e-02 -1.262283e-01 1.262257e-01
-7.830517e-01 5.663516e+00 -2.652198e+01 3.171585e+01 5.043520e-05 1.044950e-02 -1.262283e-01 1.262258e-01
-7.905140e-01 5.673760e+00 -2.664091e+01 3.180443e+01 4.542132e-05 1.038472e-02 -1.262284e-01 1.262091e-01
-8.088988e-01 5.678560e+00 -2.675499e+01 3.197614e+01 4.870073e-05 1.033069e-02 -1.262284e-01 1.262283e-01
-8.362718e-01 5.683019e+00 -2.516146e+01 2.778660e+01 4.196331e-05 1.021160e-02 -1.262285e-01 1.262261e-01
-8.464532e-01 5.691819e+00 -2.700806e+01 3.214107e+01 4.182762e-05 1.016844e-02 -1.262284e-01 1.262285e-01
-8.588186e-01 5.720396e+00 -2.705184e+01 3.227130e+01 3.592157e-05 1.007077e-02 -1.262284e-01 1.262283e-01
-8.649979e-01 5.715256e+00 -2.714206e+01 3.242854e+01 4.176026e-05 1.008601e-02 -1.262285e-01 1.262284e-01
-8.821620e-01 5.730416e+00 -2.718102e+01 3.257855e+01 4.029202e-05 9.965945e-03 -1.262284e-01 1.262090e-01
-9.021879e-01 5.742941e+00 -2.723308e+01 2.810632e+01 3.787982e-05 9.966993e-03 -1.262285e-01 1.261980e-01
-9.132837e-01 5.748501e+00 -2.725885e+01 3.271344e+01 3.516996e-05 9.900345e-03 -1.262284e-01 1.262235e-01
-9.202187e-01 5.760301e+00 -2.728087e+01 3.284624e+01 3.241017e-05 9.835374e-03 -1.262285e-01 1.262285e-01
-9.531845e-01 5.764347e+00 -2.729766e+01 3.297219e+01 3.479195e-05 9.886637e-03 -1.262285e-01 1.262281e-01
-9.429867e-01 5.776100e+00 -2.730953e+01 3.300163e+01 3.471405e-05 9.771172e-03 -1.262284e-01 1.262247e-01
-9.429097e-01 5.777465e+00 -2.731057e+01 3.313549e+01 4.041800e-05 9.764124e-03 -1.262284e-01 1.262281e-01
-9.425943e-01 5.785022e+00 -2.730736e+01 3.318657e+01 3.892899e-05 9.752719e-03 -1.262281e-01 1.262280e-01
-9.584380e-01 5.793064e+00 -2.729591e+01 3.323182e+01 3.489467e-05 9.758932e-03 -1.262277e-01 1.262285e-01
-9.618370e-01 5.812765e+00 -2.728782e+01 3.336310e+01 3.177562e-05 9.670218e-03 -1.262284e-01 1.262280e-01
-9.668422e-01 5.807864e+00 -2.726334e+01 3.342059e+01 3.095997e-05 9.663588e-03 -1.262281e-01 1.262280e-01
-9.770158e-01 5.804525e+00 -2.721331e+01 3.349557e+01 2.979742e-05 9.638558e-03 -1.262277e-01 1.262283e-01
-9.766816e-01 5.823029e+00 -2.717072e+01 3.353435e+01 3.248954e-05 9.621052e-03 -1.262282e-01 1.262284e-01
-9.896616e-01 5.823231e+00 -2.712967e+01 2.864081e+01 2.887748e-05 9.655312e-03 -1.262280e-01 1.262223e-01
-9.720471e-01 5.815374e+00 -2.709014e+01 2.865413e+01 3.219987e-05 9.562848e-03 -1.262285e-01 1.262206e-01
-9.786066e-01 5.833795e+00 -2.698286e+01 3.371117e+01 2.786162e-05 9.632803e-03 -1.262281e-01 1.262284e-01
-9.778745e-01 5.839175e+00 -2.693943e+01 3.374842e+01 2.392290e-05 9.584991e-03 -1.262275e-01 1.262261e-01
-9.719977e-01 5.841298e+00 -2.686637e+01 3.380368e+01 2.843650e-05 9.557815e-03 -1.262285e-01 1.262223e-01
-9.708681e-01 5.839450e+00 -2.679755e+01 3.387987e+01 2.567714e-05 9.555418e-03 -1.262285e-01 1.262203e-01
-9.613013e-01 5.861704e+00 -2.669353e+01 3.395575e+01 2.766220e-05 9.542830e-03 -1.262285e-01 1.262279e-01
-9.808637e-01 5.848692e+00 -2.675473e+01 3.397434e+01 2.416618e-05 9.586308e-03 -1.262285e-01 1.262275e-01
-9.845229e-01 5.886490e+00 -2.682298e+01 3.403925e+01 2.628153e-05 9.519722e-03 -1.262285e-01 1.262274e-01
-9.750041e-01 5.876618e+00 -2.687184e+01 3.407516e+01 3.174300e-05 9.550246e-03 -1.262282e-01 1.262222e-01
-9.709681e-01 5.892659e+00 -2.632388e+01 3.412825e+01 1.895606e-05 9.532438e-03 -1.262284e-01 1.262275e-01
-9.883870e-01 5.886812e+00 -2.693084e+01 3.417142e+01 2.333067e-05 9.538069e-03 -1.262284e-01 1.262274e-01
-9.598564e-01 5.888078e+00 -2.695218e+01 3.423605e+01 2.615717e-05 9.475951e-03 -1.262285e-01 1.262276e-01
-9.744668e-01 5.895079e+00 -2.698246e+01 3.428459e+01 2.046867e-05 9.440577e-03 -1.262285e-01 1.262278e-01
-9.684233e-01 5.915409e+00 -2.701704e+01 3.431209e+01 1.988095e-05 9.428310e-03 -1.262285e-01 1.262285e-01
-1.000370e+00 5.911498e+00 -2.705709e+01 3.436541e+01 1.726782e-05 9.411467e-03 -1.262285e-01 1.262253e-01
-9.689958e-01 5.935994e+00 -2.709857e+01 3.440996e+01 2.121640e-05 9.308298e-03 -1.262285e-01 1.262279e-01
-9.630925e-01 5.932632e+00 -2.712146e+01 3.443116e+01 1.675814e-05 9.217557e-03 -1.262285e-01 1.262283e-01
-9.647683e-01 5.932449e+00 -2.715720e+01 3.448429e+01 1.653763e-05 9.328736e-03 -1.262285e-01 1.262131e-01
-9.818373e-01 5.938135e+00 -2.719880e+01 3.451166e+01 1.972230e-05 9.263682e-03 -1.262284e-01 1.262176e-01
-9.709268e-01 5.965132e+00 -2.537126e+01 3.454173e+01 1.919116e-05 9.218470e-03 -1.262285e-01 1.262199e-01
-9.554999e-01 5.963827e+00 -2.722970e+01 3.454757e+01 2.201456e-05 9.189763e-03 -1.262284e-01 1.262275e-01
-9.926518e-01 5.966729e+00 -2.722113e+01 3.457166e+01 1.284248e-05 9.114676e-03 -1.262285e-01 1.262276e-01
-9.926373e-01 5.990387e+00 -2.722165e+01 3.459692e+01 1.575453e-05 9.131258e-03 -1.262285e-01 1.262284e-01
-9.744584e-01 5.982059e+00 -2.719611e+01 3.460637e+01 1.600843e-05 9.187849e-03 -1.262285e-01 1.262267e-01
-9.895550e-01 5.974536e+00 -2.718567e+01 3.461820e+01 1.311939e-05 9.064403e-03 -1.262285e-01 1.262140e-01
-9.760294e-01 5.996208e+00 -2.714439e+01 3.462482e+01 1.835057e-05 9.076756e-03 -1.262285e-01 1.262276e-01
-9.912375e-01 5.988834e+00 -2.709213e+01 3.464986e+01 9.771529e-06 9.064873e-03 -1.262285e-01 1.262280e-01
-9.719896e-01 6.001714e+00 -2.706580e+01 3.467018e+01 9.953160e-06 9.094671e-03 -1.262285e-01 1.262147e-01
-9.991176e-01 6.012684e+00 -2.701178e+01 3.472025e+01 1.387268e-05 9.070752e-03 -1.262285e-01 1.262266e-01
-9.704615e-01 6.023732e+00 -2.694710e+01 3.474064e+01 1.076400e-05 9.021090e-03 -1.262283e-01 1.262284e-01
-9.846921e-01 6.016555e+00 -2.692181e+01 3.477821e+01 9.046510e-06 9.005928e-03 -1.262271e-01 1.262137e-01
-9.851026e-01 6.024919e+00 -2.609955e+01 3.478864e+01 1.709560e-05 8.932068e-03 -1.262285e-01 1.262152e-01
-9.922488e-01 6.038499e+00 -2.672633e+01 3.483809e+01 1.232996e-05 8.854143e-03 -1.262285e-01 1.262154e-01
-1.014708e+00 6.023830e+00 -2.666027e+01 3.485194e+01 1.484467e-05 8.888242e-03 -1.262285e-01 1.262271e-01
-1.000996e+00 6.033732e+00 -2.661987e+01 3.486520e+01 8.796460e-06 8.893981e-03 -1.262285e-01 1.262283e-01
-9.900770e-01 6.059208e+00 -2.656765e+01 3.488618e+01 8.889472e-06 8.916942e-03 -1.262254e-01 1.262265e-01
-9.821972e-01 6.074876e+00 -2.651137e+01 3.492460e+01 5.934093e-06 8.863798e-03 -1.262255e-01 1.262271e-01
-9.926613e-01 6.046840e+00 -2.647832e+01 3.495784e+01 7.422766e-06 8.744227e-03 -1.262273e-01 1.262199e-01
-9.919532e-01 6.051267e+00 -2.643937e+01 3.498179e+01 9.217645e-06 8.893687e-03 -1.262279e-01 1.262259e-01
-9.928510e-01 6.063291e+00 -2.633414e+01 3.500818e+01 1.043373e-05 8.810738e-03 -1.262265e-01 1.262284e-01
-1.000911e+00 6.069012e+00 -2.629200e+01 3.504288e+01 6.830391e-06 8.860690e-03 -1.262283e-01 1.262199e-01
-1.003711e+00 6.059914e+00 -2.625091e+01 3.506216e+01 1.002688e-05 8.809578e-03 -1.262276e-01 1.262273e-01
-9.872249e-01 6.060129e+00 -2.618012e+01 3.509810e+01 4.401148e-06 8.769606e-03 -1.262278e-01 1.262271e-01
-9.875339e-01 6.091171e+00 -2.613863e+01 3.512874e+01 6.837553e-06 8.755821e-03 -1.262277e-01 1.262242e-01
-1.025707e+00 6.095350e+00 -2.609628e+01 3.514347e+01 9.790280e-06 8.641208e-03 -1.262278e-01 1.262138e-01
-9.934615e-01 6.094250e+00 -2.608477e+01 3.516372e+01 6.762056e-06 8.628677e-03 -1.262281e-01 1.262112e-01
-9.954937e-01 6.104102e+00 -2.606513e+01 3.517440e+01 1.060478e-05 8.688242e-03 -1.262272e-01 1.262070e-01
-1.017999e+00 6.099091e+00 -2.605837e+01 3.521181e+01 6.411992e-06 8.596907e-03 -1.262284e-01 1.262108e-01
-1.024443e+00 6.102222e+00 -2.604548e+01 3.523669e+01 8.472339e-06 8.532445e-03 -1.262218e-01 1.262251e-01
-1.017724e+00 6.110781e+00 -2.562645e+01 3.526289e+01 5.729680e-06 8.438076e-03 -1.262267e-01 1.262265e-01
-9.996001e-01 6.114494e+00 -2.605272e+01 3.529964e+01 5.942841e-06 8.472160e-03 -1.262284e-01 1.262285e-01
-1.007301e+00 6.125915e+00 -2.604982e+01 3.533213e+01 4.557263e-06 8.465750e-03 -1.262285e-01 1.262270e-01
-9.977370e-01 6.123752e+00 -2.605875e+01 3.538017e+01 9.738038e-06 8.450345e-03 -1.262284e-01 1.262255e-01
-1.018042e+00 6.135900e+00 -2.605621e+01 3.543091e+01 7.920882e-06 8.310242e-03 -1.262282e-01 1.262284e-01
-1.030443e+00 6.149077e+00 -2.604578e+01 3.552101e+01 1.294824e-05 8.365280e-03 -1.262272e-01 1.262284e-01
-1.019132e+00 6.148800e+00 -2.604696e+01 3.557176e+01 8.780446e-06 8.310506e-03 -1.262276e-01 1.262283e-01
-9.990035e-01 6.140457e+00 -2.605173e+01 3.560401e+01 9.030130e-06 8.312375e-03 -1.262285e-01 1.262263e-01
-9.953646e-01 6.149812e+00 -2.609976e+01 3.564331e+01 1.186141e-05 8.284707e-03 -1.262279e-01 1.262195e-01
-1.015394e+00 6.160474e+00 -2.610593e+01 3.570168e+01 1.133561e-05 8.228250e-03 -1.262281e-01 1.262121e-01
-1.033474e+00 6.178992e+00 -2.613087e+01 3.580581e+01 1.137986e-05 8.221718e-03 -1.262275e-01 1.262207e-01
-1.035076e+00 6.185561e+00 -2.615939e+01 3.583870e+01 6.372474e-06 8.278786e-03 -1.262277e-01 1.262270e-01
-1.024513e+00 6.172959e+00 -2.618919e+01 3.587272e+01 5.144992e-06 8.134622e-03 -1.262281e-01 1.262254e-01
-1.007576e+00 6.167617e+00 -2.543590e+01 3.591747e+01 7.190918e-06 8.120922e-03 -1.262279e-01 1.262186e-01
-1.028016e+00 6.185131e+00 -2.623373e+01 3.597602e+01 3.367210e-06 8.041361e-03 -1.262285e-01 1.262127e-01
-1.049268e+00 6.183913e+00 -2.624031e+01 3.602547e+01 2.245805e-06 8.086226e-03 -1.262283e-01 1.262258e-01
-1.029354e+00 6.194481e+00 -2.623869e+01 3.609166e+01 9.619874e-06 8.105483e-03 -1.262265e-01 1.262282e-01
-1.036280e+00 6.198125e+00 -2.597422e+01 3.613486e+01 2.913344e-06 8.055119e-03 -1.262282e-01 1.262153e-01
-1.028290e+00 6.214478e+00 -2.628613e+01 3.614562e+01 6.733048e-06 7.981242e-03 -1.262284e-01 1.262284e-01
-1.027001e+00 6.218843e+00 -2.634700e+01 3.618895e+01 9.782525e-06 7.986816e-03 -1.262280e-01 1.262285e-01
-1.056412e+00 6.201733e+00 -2.664058e+01 3.208774e+01 8.886862e-07 7.877350e-03 -1.262278e-01 1.262268e-01
-1.026949e+00 6.243764e+00 -2.669245e+01 3.626314e+01 6.033577e-06 7.930700e-03 -1.262213e-01 1.262232e-01
-1.014292e+00 6.228839e+00 -2.691173e+01 3.628814e+01 2.333088e-06 7.861483e-03 -1.262244e-01 1.262277e-01
-1.054223e+00 6.244854e+00 -2.711472e+01 3.633258e+01 6.619515e-06 7.880569e-03 -1.262229e-01 1.262283e-01
-1.027423e+00 6.251313e+00 -2.723407e+01 3.636092e+01 5.457788e-06 7.819254e-03 -1.262277e-01 1.262285e-01
-1.033701e+00 6.267500e+00 -2.735500e+01 3.637881e+01 -1.335474e-08 7.711870e-03 -1.262282e-01 1.262245e-01
-1.037822e+00 6.261108e+00 -2.746065e+01 3.642261e+01 6.750495e-06 7.705854e-03 -1.262283e-01 1.262280e-01
-1.034428e+00 6.270926e+00 -2.755538e+01 3.644387e+01 1.094106e-05 7.573067e-03 -1.262285e-01 1.262284e-01
-1.041225e+00 6.253926e+00 -2.758009e+01 3.647418e+01 5.083008e-06 7.578007e-03 -1.262280e-01 1.262277e-01
-1.053969e+00 6.266043e+00 -2.770408e+01 3.649774e+01 4.417987e-06 7.572584e-03 -1.262278e-01 1.262212e-01
-1.037063e+00 6.308126e+00 -2.779377e+01 3.653488e+01 2.696299e-06 7.579924e-03 -1.262283e-01 1.262227e-01
-1.024781e+00 6.289162e+00 -2.784776e+01 3.655526e+01 1.673662e-06 7.559613e-03 -1.262285e-01 1.262271e-01
-1.020478e+00 6.294621e+00 -2.790508e+01 3.659029e+01 3.087618e-06 7.528775e-03 -1.262284e-01 1.262272e-01
-1.023571e+00 6.297330e+00 -2.802571e+01 3.664448e+01 1.365437e-06 7.530334e-03 -1.262258e-01 1.262285e-01
-1.048591e+00 6.304392e+00 -2.811983e+01 3.665578e+01 -1.093830e-07 7.532599e-03 -1.262283e-01 1.262285e-01
-1.028811e+00 6.314199e+00 -2.820858e+01 3.669016e+01 3.787674e-07 7.493060e-03 -1.262283e-01 1.262279e-01
-1.045388e+00 6.324993e+00 -2.828395e+01 3.672482e+01 4.047236e-06 7.392567e-03 -1.262277e-01 1.262218e-01
-1.040860e+00 6.317364e+00 -2.835623e+01 3.675793e+01 1.815595e-06 7.426258e-03 -1.262189e-01 1.262132e-01
-1.047871e+00 6.334587e+00 -2.841542e+01 3.260910e+01 5.436619e-06 7.377974e-03 -1.262091e-01 1.262032e-01
-1.010003e+00 6.320694e+00 -2.603860e+01 3.683105e+01 8.402460e-06 7.323088e-03 -1.262040e-01 1.262048e-01
-1.032331e+00 6.341405e+00 -2.602068e+01 3.684578e+01 4.215333e-06 7.358466e-03 -1.262114e-01 1.261861e-01
-1.069469e+00 6.349671e+00 -2.863524e+01 3.687987e+01 3.952487e-06 7.324622e-03 -1.262274e-01 1.262140e-01
-1.043949e+00 6.358004e+00 -2.873174e+01 3.693118e+01 4.539847e-06 7.301642e-03 -1.262279e-01 1.262281e-01
-1.052402e+00 6.355457e+00 -2.891754e+01 3.696571e+01 4.731804e-06 7.317062e-03 -1.262282e-01 1.262238e-01
-1.040745e+00 6.378692e+00 -2.907414e+01 3.699493e+01 1.638814e-07 7.318212e-03 -1.262279e-01 1.262268e-01
-1.037338e+00 6.368077e+00 -2.910610e+01 3.702369e+01 5.378699e-06 7.287533e-03 -1.262267e-01 1.262285e-01
-1.022898e+00 6.389802e+00 -2.924376e+01 3.703386e+01 3.517288e-06 7.274440e-03 -1.262162e-01 1.262277e-01
-1.035751e+00 6.375951e+00 -2.926143e+01 3.707527e+01 7.220389e-06 7.207850e-03 -1.262133e-01 1.262284e-01
-1.036647e+00 6.391629e+00 -2.931999e+01 3.710643e+01 3.746077e-06 7.235063e-03 -1.262161e-01 1.262267e-01
-1.058411e+00 6.412376e+00 -2.937749e+01 3.712541e+01 2.449018e-06 7.162525e-03 -1.262151e-01 1.262233e-01
-1.038078e+00 6.412956e+00 -2.945974e+01 3.715091e+01 -2.115895e-06 7.194381e-03 -1.262210e-01 1.262222e-01
-1.072316e+00 6.415170e+00 -2.948204e+01 3.717679e+01 -2.088265e-06 7.236919e-03 -1.262285e-01 1.262124e-01
-1.049090e+00 6.424926e+00 -2.954906e+01 3.719268e+01 1.098862e-06 7.155011e-03 -1.262179e-01 1.261517e-01
-1.081022e+00 6.434118e+00 -2.966302e+01 3.723477e+01 4.884514e-06 7.066997e-03 -1.262138e-01 1.261992e-01
-1.050077e+00 6.431339e+00 -2.971942e+01 3.727978e+01 1.914429e-06 7.042921e-03 -1.262158e-01 1.261829e-01
-1.053945e+00 6.444790e+00 -2.979840e+01 3.736919e+01 8.853037e-07 7.113498e-03 -1.262228e-01 1.261775e-01
-1.048192e+00 6.449941e+00 -2.984706e+01 3.738329e+01 3.549049e-06 6.953505e-03 -1.262255e-01 1.261752e-01
-1.023722e+00 6.456430e+00 -2.991823e+01 3.745843e+01 5.378749e-06 7.017231e-03 -1.262277e-01 1.261746e-01
-1.063594e+00 6.456681e+00 -2.995834e+01 3.749057e+01 4.592310e-06 7.053863e-03 -1.262278e-01 1.261797e-01
-1.061790e+00 6.470584e+00 -3.005331e+01 3.751553e+01 6.519430e-06 6.967747e-03 -1.262275e-01 1.261940e-01
-1.033024e+00 6.460583e+00 -3.011262e+01 3.756089e+01 5.387989e-06 6.987471e-03 -1.262282e-01 1.261975e-01
-1.042533e+00 6.483436e+00 -3.025288e+01 3.758357e+01 1.668476e-06 6.917082e-03 -1.262285e-01 1.261306e-01
-1.042337e+00 6.493901e+00 -3.027911e+01 3.761886e+01 2.688856e-06 6.853186e-03 -1.262284e-01 1.262135e-01
-1.043876e+00 6.504331e+00 -3.035122e+01 3.765284e+01 -2.170656e-07 6.917071e-03 -1.262285e-01 1.262249e-01
-1.027503e+00 6.497186e+00 -3.048903e+01 3.767471e+01 -3.883524e-07 6.812355e-03 -1.262281e-01 1.262280e-01
-1.077530e+00 6.513630e+00 -3.053197e+01 3.770409e+01 1.509132e-06 6.912420e-03 -1.262262e-01 1.262285e-01
-1.053570e+00 6.503741e+00 -3.057161e+01 3.772397e+01 1.407412e-06 6.838555e-03 -1.262243e-01 1.262233e-01
-1.076181e+00 6.540977e+00 -3.065059e+01 3.775949e+01 3.134374e-06 6.832244e-03 -1.262254e-01 1.262144e-01
-1.091337e+00 6.549657e+00 -3.070998e+01 3.778407e+01 3.171412e-06 6.771475e-03 -1.262275e-01 1.261873e-01
-1.055761e+00 6.526044e+00 -3.081836e+01 3.780025e+01 3.220065e-06 6.723753e-03 -1.262284e-01 1.262044e-01
-1.096557e+00 6.558543e+00 -3.085913e+01 3.781989e+01 -3.373879e-07 6.642426e-03 -1.262254e-01 1.262125e-01
-1.046885e+00 6.553014e+00 -3.089490e+01 3.783999e+01 1.405175e-06 6.732418e-03 -1.262262e-01 1.262261e-01
-1.037202e+00 6.570877e+00 -3.101325e+01 3.785861e+01 2.362058e-06 6.665580e-03 -1.262284e-01 1.262226e-01
-1.092956e+00 6.580558e+00 -3.102908e+01 3.788035e+01 7.263582e-06 6.713512e-03 -1.262285e-01 1.262252e-01
-1.081141e+00 6.588955e+00 -3.110470e+01 3.789250e+01 -4.495433e-07 6.701326e-03 -1.262266e-01 1.262275e-01
-1.083483e+00 6.593157e+00 -3.114048e+01 3.790600e+01 9.894353e-07 6.575616e-03 -1.262271e-01 1.258897e-01
-1.076809e+00 6.602748e+00 -3.120961e+01 3.793294e+01 1.920013e-06 6.595124e-03 -1.262217e-01 1.261677e-01
-1.082233e+00 6.622690e+00 -3.124132e+01 3.795966e+01 1.168311e-06 6.547371e-03 -1.262199e-01 1.260779e-01
-1.078420e+00 6.616799e+00 -3.134187e+01 3.796979e+01 6.239922e-06 6.465876e-03 -1.262132e-01 1.259126e-01
-1.085071e+00 6.613310e+00 -3.138407e+01 3.799140e+01 3.742255e-06 6.549448e-03 -1.262131e-01 1.259015e-01
-1.087998e+00 6.638414e+00 -3.145106e+01 3.799545e+01 3.225533e-06 6.438081e-03 -1.262134e-01 1.258180e-01
-1.084859e+00 6.645296e+00 -3.154653e+01 3.800341e+01 7.802815e-06 6.487836e-03 -1.262147e-01 1.257729e-01
-1.100949e+00 6.657200e+00 -3.160979e+01 3.801237e+01 1.206218e-05 6.414865e-03 -1.262129e-01 1.258267e-01
-1.096210e+00 6.640171e+00 -3.170688e+01 3.801393e+01 3.106858e-07 6.399687e-03 -1.262102e-01 1.259465e-01
-1.079426e+00 6.673739e+00 -3.173633e+01 3.804302e+01 2.859958e-06 6.356631e-03 -1.262087e-01 1.259560e-01
-1.122961e+00 6.681895e+00 -3.180663e+01 3.805973e+01 4.844924e-06 6.414908e-03 -1.262074e-01 1.259572e-01
-1.088558e+00 6.678555e+00 -3.184269e+01 3.807417e+01 8.485338e-06 6.254174e-03 -1.262057e-01 1.257826e-01
-1.084438e+00 6.664655e+00 -2.700883e+01 3.809779e+01 4.723973e-06 6.351531e-03 -1.262039e-01 1.259051e-01
-1.082353e+00 6.718033e+00 -3.193139e+01 3.811099e+01 3.031887e-07 6.308017e-03 -1.261982e-01 1.259069e-01
-1.091202e+00 6.697495e+00 -3.196846e+01 3.811362e+01 7.228861e-06 6.285097e-03 -1.261957e-01 1.259946e-01
-1.089868e+00 6.710015e+00 -3.203930e+01 3.813032e+01 6.836044e-08 6.213915e-03 -1.261950e-01 1.260219e-01
-1.072944e+00 6.707841e+00 -3.210837e+01 3.811704e+01 2.713290e-06 6.271961e-03 -1.261215e-01 1.260539e-01
-1.142787e+00 6.742023e+00 -3.216436e+01 3.812122e+01 1.935360e-06 6.226168e-03 -1.261979e-01 1.260464e-01
-1.092636e+00 6.748804e+00 -3.217317e+01 3.811228e+01 2.938613e-06 6.161235e-03 -1.261978e-01 1.260454e-01
-1.106083e+00 6.736528e+00 -3.219964e+01 3.809927e+01 6.249604e-06 6.108478e-03 -1.262134e-01 1.260523e-01
-1.119158e+00 6.753460e+00 -3.223946e+01 3.809697e+01 1.096132e-07 6.020688e-03 -1.262224e-01 1.260532e-01
-1.108415e+00 6.756124e+00 -3.226514e+01 3.808341e+01 3.360928e-06 6.100732e-03 -1.262285e-01 1.260626e-01
-1.138841e+00 6.774130e+00 -3.231119e+01 3.807341e+01 -6.079440e-07 5.959650e-03 -1.262255e-01 1.260517e-01
-1.137340e+00 6.791622e+00 -3.237899e+01 3.806314e+01 5.125744e-06 5.995071e-03 -1.262271e-01 1.260541e-01
-1.109637e+00 6.790670e+00 -3.242092e+01 3.805013e+01 1.947220e-06 6.016722e-03 -1.262226e-01 1.260547e-01
-1.124584e+00 6.781617e+00 -3.245985e+01 3.804904e+01 6.070397e-06 5.980929e-03 -1.262272e-01 1.260612e-01
-1.097401e+00 6.794726e+00 -3.248023e+01 3.803481e+01 4.591805e-06 6.011311e-03 -1.262176e-01 1.260550e-01
-1.112267e+00 6.808181e+00 -3.248950e+01 3.803280e+01 -5.639347e-08 5.928144e-03 -1.262262e-01 1.254011e-01
-1.131138e+00 6.816647e+00 -3.251894e+01 3.802927e+01 2.981233e-06 5.956184e-03 -1.262213e-01 1.259695e-01
-1.132566e+00 6.803890e+00 -3.253718e+01 3.329951e+01 2.017824e-06 5.910327e-03 -1.262212e-01 1.255717e-01
-1.102243e+00 6.797913e+00 -3.256915e+01 3.801667e+01 3.294803e-06 5.871733e-03 -1.262250e-01 1.258466e-01
-1.133327e+00 6.834120e+00 -3.258965e+01 3.800525e+01 3.682332e-06 5.849021e-03 -1.262280e-01 1.260784e-01
-1.121892e+00 6.843118e+00 -3.262592e+01 3.799891e+01 3.013914e-06 5.884519e-03 -1.262284e-01 1.261554e-01
-1.119404e+00 6.831859e+00 -3.264028e+01 3.326605e+01 1.383867e-06 5.767449e-03 -1.262264e-01 1.261926e-01
-1.152169e+00 6.850606e+00 -3.265051e+01 3.798134e+01 3.220022e-06 5.775095e-03 -1.262234e-01 1.262271e-01
-1.097186e+00 6.864518e+00 -3.268535e+01 3.798071e+01 5.787628e-06 5.700293e-03 -1.262128e-01 1.262216e-01
-1.134048e+00 6.875636e+00 -3.271472e+01 3.797846e+01 5.375942e-06 5.697515e-03 -1.262127e-01 1.262155e-01
-1.145091e+00 6.873241e+00 -3.275186e+01 3.797919e+01 2.414093e-06 5.735224e-03 -1.262040e-01 1.262024e-01
-1.158237e+00 6.900735e+00 -3.280612e+01 3.796639e+01 1.582175e-06 5.659317e-03 -1.262152e-01 1.261667e-01
-1.117980e+00 6.889728e+00 -3.285325e+01 3.794611e+01 -1.216691e-08 5.727524e-03 -1.262119e-01 1.261133e-01
-1.157329e+00 6.904912e+00 -3.291635e+01 3.794536e+01 2.777758e-06 5.616387e-03 -1.261812e-01 1.261069e-01
-1.147453e+00 6.900748e+00 -3.293387e+01 3.793410e+01 3.625063e-06 5.638968e-03 -1.261510e-01 1.261239e-01
-1.143951e+00 6.900647e+00 -3.294637e+01 3.791849e+01 8.741245e-07 5.652509e-03 -1.261480e-01 1.261233e-01
-1.163601e+00 6.922858e+00 -3.295533e+01 3.788582e+01 1.847368e-06 5.629894e-03 -1.261436e-01 1.261430e-01
-1.143262e+00 6.930540e+00 -3.296816e+01 3.785873e+01 3.714760e-06 5.542493e-03 -1.261371e-01 1.261629e-01
-1.160220e+00 6.932165e+00 -3.299362e+01 3.783888e+01 1.367162e-06 5.571631e-03 -1.261596e-01 1.261871e-01
-1.140507e+00 6.948908e+00 -3.301216e+01 3.781692e+01 2.056093e-06 5.515443e-03 -1.261838e-01 1.262091e-01
-1.123252e+00 6.950908e+00 -3.303497e+01 3.304948e+01 3.598945e-06 5.516241e-03 -1.261948e-01 1.262123e-01
-1.136658e+00 6.975657e+00 -3.306511e+01 3.773458e+01 7.352169e-07 5.477267e-03 -1.262027e-01 1.262154e-01
-1.143887e+00 6.973138e+00 -3.307572e+01 3.771163e+01 3.532080e-06 5.481065e-03 -1.262079e-01 1.262239e-01
-1.171128e+00 6.968615e+00 -3.310410e+01 3.769938e+01 4.370286e-06 5.477035e-03 -1.261374e-01 1.262265e-01
-1.155941e+00 6.971525e+00 -3.314364e+01 3.291271e+01 1.222666e-06 5.420362e-03 -1.262239e-01 1.262271e-01
-1.144791e+00 6.995167e+00 -3.320410e+01 3.760027e+01 3.131072e-06 5.442549e-03 -1.262261e-01 1.262272e-01
-1.131344e+00 6.996873e+00 -3.324754e+01 3.758904e+01 4.861941e-06 5.406389e-03 -1.261186e-01 1.262252e-01
-1.164791e+00 7.004123e+00 -3.325919e+01 3.279603e+01 1.527753e-06 5.320531e-03 -1.262274e-01 1.262231e-01
-1.176388e+00 6.999629e+00 -3.332373e+01 3.748927e+01 4.890628e-06 5.409472e-03 -1.262282e-01 1.262180e-01
-1.124739e+00 7.006956e+00 -3.334908e+01 3.747282e+01 4.983015e-06 5.332521e-03 -1.262282e-01 1.262032e-01
-1.192594e+00 7.037248e+00 -3.335787e+01 3.745877e+01 2.843996e-06 5.283047e-03 -1.262206e-01 1.262011e-01
-1.155278e+00 7.023355e+00 -3.338544e+01 3.742706e+01 6.643138e-07 5.302845e-03 -1.261728e-01 1.261889e-01
-1.136112e+00 7.033158e+00 -3.342400e+01 3.741902e+01 1.878191e-06 5.191829e-03 -1.261623e-01 1.261865e-01
-1.164411e+00 7.038630e+00 -3.344923e+01 3.740600e+01 3.203007e-06 5.234696e-03 -1.261799e-01 1.261815e-01
-1.151925e+00 7.027217e+00 -3.022031e+01 3.739068e+01 7.405474e-07 5.199113e-03 -1.261724e-01 1.255655e-01
-1.195767e+00 7.047289e+00 -3.352055e+01 3.737989e+01 -3.674390e-07 5.213640e-03 -1.261746e-01 1.261492e-01
-1.164818e+00 7.054946e+00 -3.353463e+01 3.737324e+01 1.412746e-06 5.173640e-03 -1.261825e-01 1.261017e-01
-1.172464e+00 7.066679e+00 -3.355016e+01 3.737583e+01 4.245616e-06 5.155327e-03 -1.261801e-01 1.260200e-01
-1.181906e+00 7.064192e+00 -3.358434e+01 3.738125e+01 1.307439e-06 5.160430e-03 -1.261800e-01 1.260100e-01
-1.157102e+00 7.078003e+00 -3.364224e+01 3.737012e+01 3.271013e-06 5.151259e-03 -1.262263e-01 1.260313e-01
-1.217626e+00 7.100489e+00 -3.365355e+01 3.736403e+01 1.368656e-06 5.111514e-03 -1.261880e-01 1.260471e-01
-1.213835e+00 7.109849e+00 -3.369835e+01 3.736027e+01 5.403960e-06 5.192879e-03 -1.262084e-01 1.260605e-01
-1.162104e+00 7.086244e+00 -3.371234e+01 3.735290e+01 4.022587e-06 5.199981e-03 -1.262106e-01 1.260503e-01
-1.183836e+00 7.120039e+00 -3.377560e+01 3.735581e+01 2.738091e-07 5.105568e-03 -1.262148e-01 1.260474e-01
-1.180834e+00 7.099957e+00 -3.068164e+01 3.229926e+01 3.464354e-06 5.120307e-03 -1.262180e-01 1.260581e-01
-1.214331e+00 7.135095e+00 -3.389275e+01 3.737074e+01 4.757770e-06 5.125498e-03 -1.262224e-01 1.260396e-01
-1.156713e+00 7.124154e+00 -3.393476e+01 3.738528e+01 5.293125e-06 5.137659e-03 -1.262224e-01 1.260409e-01
-1.191927e+00 7.139597e+00 -3.401856e+01 3.738896e+01 4.660451e-06 5.068264e-03 -1.262220e-01 1.260467e-01
-1.173778e+00 7.162517e+00 -3.407084e+01 3.739891e+01 2.518414e-06 5.077780e-03 -1.262217e-01 1.260665e-01
-1.191385e+00 7.146994e+00 -3.410268e+01 3.740383e+01 2.349140e-06 5.013079e-03 -1.262229e-01 1.260891e-01
-1.176589e+00 7.148548e+00 -3.418611e+01 3.740504e+01 3.708053e-07 4.966687e-03 -1.262260e-01 1.261230e-01
-1.191857e+00 7.163347e+00 -3.422180e+01 3.740778e+01 2.501323e-06 4.965745e-03 -1.262269e-01 1.261255e-01
-1.194103e+00 7.158946e+00 -3.429314e+01 3.741303e+01 2.418401e-06 4.942684e-03 -1.262276e-01 1.261398e-01
-1.163281e+00 7.168044e+00 -3.430959e+01 3.231164e+01 -4.252825e-07 4.812939e-03 -1.262276e-01 1.261369e-01
-1.190648e+00 7.181678e+00 -3.433114e+01 3.230721e+01 2.357382e-06 4.908083e-03 -1.262270e-01 1.260885e-01
-1.204903e+00 7.199067e+00 -3.433727e+01 3.742432e+01 2.926105e-06 4.868387e-03 -1.262271e-01 1.260846e-01
-1.159354e+00 7.176832e+00 -3.434376e+01 3.744350e+01 -2.244962e-07 4.859463e-03 -1.262278e-01 1.260211e-01
-1.197961e+00 7.207920e+00 -3.434702e+01 3.745382e+01 4.631694e-06 4.820633e-03 -1.262282e-01 1.259869e-01
-1.180281e+00 7.207584e+00 -3.435435e+01 3.237917e+01 1.474924e-06 4.763247e-03 -1.262285e-01 1.259648e-01
-1.206392e+00 7.223383e+00 -3.437783e+01 3.748444e+01 4.209279e-06 4.780034e-03 -1.262280e-01 1.259436e-01
-1.207209e+00 7.224545e+00 -3.438657e+01 3.750389e+01 5.152364e-06 4.798867e-03 -1.262282e-01 1.259336e-01
-1.205432e+00 7.230959e+00 -3.438419e+01 3.750949e+01 2.496369e-06 4.756003e-03 -1.262283e-01 1.232695e-01
-1.152192e+00 7.218842e+00 -3.435769e+01 3.751080e+01 3.313046e-06 4.724797e-03 -1.262283e-01 1.258435e-01
-1.186126e+00 7.269303e+00 -3.434265e+01 3.751005e+01 1.614062e-06 4.700076e-03 -1.262283e-01 1.258376e-01
-1.224259e+00 7.252497e+00 -3.430974e+01 3.752055e+01 1.562374e-06 4.701765e-03 -1.262278e-01 1.258161e-01
-1.219640e+00 7.264909e+00 -2.922196e+01 3.751612e+01 -1.474146e-06 4.644405e-03 -1.262276e-01 1.258087e-01
-1.183636e+00 7.259577e+00 -3.428400e+01 3.751278e+01 1.941236e-06 4.673293e-03 -1.262267e-01 1.257891e-01
-1.192235e+00 7.283459e+00 -3.426527e+01 3.750693e+01 5.109663e-07 4.614126e-03 -1.262256e-01 1.258164e-01
-1.219489e+00 7.274037e+00 -3.424981e+01 3.751608e+01 2.495669e-06 4.587772e-03 -1.262258e-01 1.258786e-01
-1.187164e+00 7.269517e+00 -3.210742e+01 3.752066e+01 2.078021e-06 4.583811e-03 -1.262259e-01 1.259227e-01
-1.203248e+00 7.300888e+00 -3.426348e+01 3.753251e+01 3.005596e-06 4.618120e-03 -1.262259e-01 1.259045e-01
-1.206114e+00 7.327905e+00 -3.426584e+01 3.755582e+01 3.554702e-06 4.588043e-03 -1.262267e-01 1.259250e-01
-1.201717e+00 7.329218e+00 -3.426548e+01 3.758669e+01 3.251861e-06 4.533623e-03 -1.262268e-01 1.259762e-01
-1.221703e+00 7.311369e+00 -3.427612e+01 3.759303e+01 7.847268e-07 4.541863e-03 -1.262275e-01 1.260243e-01
-1.209599e+00 7.338347e+00 -3.427841e+01 3.761457e+01 1.642182e-06 4.513119e-03 -1.262277e-01 1.260216e-01
-1.231439e+00 7.337397e+00 -3.428628e+01 3.763398e+01 4.595825e-08 4.469262e-03 -1.257274e-01 1.260274e-01
-1.228434e+00 7.342521e+00 -3.428420e+01 3.766880e+01 2.311994e-06 4.446898e-03 -1.262284e-01 1.228509e-01
-1.208447e+00 7.336641e+00 -3.428131e+01 3.768039e+01 1.135038e-06 4.486073e-03 -1.262285e-01 1.260097e-01
-1.234326e+00 7.360397e+00 -3.428004e+01 3.770160e+01 2.008302e-07 4.406698e-03 -1.262285e-01 1.259474e-01
-1.204065e+00 7.362716e+00 -3.426226e+01 3.771512e+01 2.063169e-06 4.484771e-03 -1.262285e-01 1.258867e-01
