5.881177e+02 7.707809e-01 6.138752e-03 5.775097e-01 -9.990234e-01 9.987793e-01
5.596084e+02 7.707809e-01 3.329648e-03 5.910427e-01 -1.429199e+00 1.457764e+00
5.331580e+02 7.707809e-01 -7.582317e-03 6.414431e-01 -2.241211e+00 2.022217e+00
5.137134e+02 7.707809e-01 -1.862386e-02 7.280997e-01 -2.996338e+00 2.728027e+00
4.980828e+02 7.707809e-01 -2.751177e-02 8.101304e-01 -3.903320e+00 3.234863e+00
4.826667e+02 7.707809e-01 -4.121629e-02 8.876893e-01 -4.893555e+00 3.628174e+00
4.723684e+02 7.707809e-01 -5.579685e-02 9.560164e-01 -5.779785e+00 3.920410e+00
4.538479e+02 7.707809e-01 -7.214397e-02 1.027665e+00 -6.717285e+00 4.200684e+00
4.413938e+02 7.707809e-01 -8.385273e-02 1.095913e+00 -7.423340e+00 4.408691e+00
4.279277e+02 7.707809e-01 -8.776440e-02 1.154477e+00 -7.980957e+00 4.574707e+00
4.158291e+02 7.707809e-01 -8.986800e-02 1.204576e+00 -8.490723e+00 4.704590e+00
4.067354e+02 7.682620e-01 -9.320642e-02 1.247068e+00 -9.013184e+00 4.830566e+00
3.933213e+02 7.443325e-01 -9.555753e-02 1.282928e+00 -9.534668e+00 4.909668e+00
3.841887e+02 7.204030e-01 -9.770560e-02 1.313722e+00 -1.005811e+01 4.924316e+00
3.751836e+02 6.889169e-01 -1.010086e-01 1.342711e+00 -1.068604e+01 4.909668e+00
3.613938e+02 6.523929e-01 -1.034749e-01 1.373339e+00 -1.121216e+01 4.858398e+00
3.503770e+02 6.209068e-01 -1.102960e-01 1.401348e+00 -1.171997e+01 4.884277e+00
3.415520e+02 5.944584e-01 -1.183056e-01 1.427316e+00 -1.217651e+01 5.041748e+00
3.366023e+02 5.579345e-01 -1.226188e-01 1.451704e+00 -1.250000e+01 5.237061e+00
3.256479e+02 5.377834e-01 -1.209343e-01 1.475324e+00 -1.291016e+01 5.307861e+00
3.170042e+02 5.214106e-01 -1.206192e-01 1.498037e+00 -1.339722e+01 5.348145e+00
3.105898e+02 4.949622e-01 -1.258856e-01 1.521396e+00 -1.377466e+01 5.571045e+00
3.052844e+02 4.710327e-01 -1.264706e-01 1.548238e+00 -1.425952e+01 5.824463e+00
3.008135e+02 4.622166e-01 -1.295413e-01 1.574668e+00 -1.487915e+01 5.906494e+00
2.967278e+02 4.508816e-01 -1.326559e-01 1.600346e+00 -1.526440e+01 6.118896e+00
2.919617e+02 4.395466e-01 -1.335767e-01 1.625441e+00 -1.576392e+01 6.202393e+00
2.874849e+02 4.231738e-01 -1.270720e-01 1.650824e+00 -1.627954e+01 6.425049e+00
2.837271e+02 4.168766e-01 -1.257130e-01 1.675374e+00 -1.679077e+01 6.662354e+00
2.786191e+02 4.068010e-01 -1.247623e-01 1.699163e+00 -1.736206e+01 6.959717e+00
2.737964e+02 4.005038e-01 -1.235073e-01 1.722164e+00 -1.799634e+01 7.060791e+00
2.705613e+02 4.042821e-01 -1.260408e-01 1.746996e+00 -1.861670e+01 7.147949e+00
2.660068e+02 3.916877e-01 -1.301858e-01 1.773325e+00 -1.899268e+01 7.447021e+00
2.615601e+02 3.803526e-01 -1.283516e-01 1.799982e+00 -1.971387e+01 7.455566e+00
2.566047e+02 3.702771e-01 -1.278739e-01 1.826619e+00 -2.037524e+01 7.587158e+00
2.524639e+02 3.564232e-01 -1.319390e-01 1.852966e+00 -2.072559e+01 7.916992e+00
2.493313e+02 3.324937e-01 -1.283112e-01 1.879921e+00 -2.132031e+01 7.973389e+00
2.457771e+02 3.287154e-01 -1.237150e-01 1.907011e+00 -2.198511e+01 7.906738e+00
2.427400e+02 3.249370e-01 -1.304316e-01 1.933656e+00 -2.250464e+01 8.010986e+00
2.398303e+02 3.261965e-01 -1.294673e-01 1.960815e+00 -2.287207e+01 8.231445e+00
2.376362e+02 3.010076e-01 -1.264208e-01 1.988281e+00 -2.347534e+01 8.419434e+00
2.369348e+02 2.921914e-01 -1.251856e-01 2.015415e+00 -2.431104e+01 8.351074e+00
2.324355e+02 2.846348e-01 -1.243509e-01 2.042447e+00 -2.480469e+01 8.447021e+00
2.274604e+02 2.544081e-01 -1.264802e-01 2.071643e+00 -2.532422e+01 8.790771e+00
2.247656e+02 2.531486e-01 -1.264066e-01 2.101317e+00 -2.618359e+01 8.886475e+00
2.210593e+02 2.392947e-01 -1.258459e-01 2.130657e+00 -2.691602e+01 8.962646e+00
2.185923e+02 2.317380e-01 -1.257941e-01 2.161276e+00 -2.734961e+01 9.177490e+00
2.154868e+02 2.267003e-01 -1.305162e-01 2.192011e+00 -2.797852e+01 9.398193e+00
2.137505e+02 2.216625e-01 -1.289006e-01 2.222804e+00 -2.883594e+01 9.636475e+00
2.115942e+02 2.216625e-01 -1.257957e-01 2.254372e+00 -2.944141e+01 1.019116e+01
2.096394e+02 2.204030e-01 -1.180861e-01 2.286145e+00 -2.982227e+01 1.077515e+01
2.089590e+02 2.292191e-01 -1.226346e-01 2.318276e+00 -3.068359e+01 1.086304e+01
2.061907e+02 2.141058e-01 -1.250822e-01 2.351295e+00 -3.131055e+01 1.085718e+01
2.034360e+02 2.141058e-01 -1.292228e-01 2.384455e+00 -3.200781e+01 1.083765e+01
2.004900e+02 2.040302e-01 -1.314277e-01 2.416999e+00 -3.270898e+01 1.107788e+01
1.991499e+02 2.015113e-01 -1.275026e-01 2.449923e+00 -3.359766e+01 1.164233e+01
1.960649e+02 2.065491e-01 -1.268359e-01 2.484936e+00 -3.430859e+01 1.242432e+01
1.939270e+02 2.027708e-01 -1.261030e-01 2.523220e+00 -3.490405e+01 1.290112e+01
1.933347e+02 1.977330e-01 -1.316940e-01 2.560889e+00 -3.529297e+01 1.348120e+01
1.918906e+02 2.040302e-01 -1.359133e-01 2.599083e+00 -3.605762e+01 1.374048e+01
1.915376e+02 2.128463e-01 -1.332093e-01 2.639575e+00 -3.700464e+01 1.373169e+01
1.898936e+02 2.103275e-01 -1.368426e-01 2.681364e+00 -3.727051e+01 1.465674e+01
1.892241e+02 2.103275e-01 -1.442435e-01 2.717693e+00 -3.740625e+01 1.494897e+01
1.889021e+02 2.166247e-01 -1.440640e-01 2.740749e+00 -3.743384e+01 1.451392e+01
1.885762e+02 2.241814e-01 -1.480247e-01 2.762289e+00 -3.746265e+01 1.386353e+01
1.885012e+02 2.115869e-01 -1.562929e-01 2.785066e+00 -3.749463e+01 1.411182e+01
1.866541e+02 2.204030e-01 -1.521757e-01 2.815022e+00 -3.752466e+01 1.470508e+01
1.839138e+02 2.103275e-01 -1.552758e-01 2.847325e+00 -3.754956e+01 1.535767e+01
1.839399e+02 2.178841e-01 -1.588160e-01 2.883070e+00 -3.757056e+01 1.612671e+01
1.835532e+02 2.191436e-01 -1.501268e-01 2.912673e+00 -3.760010e+01 1.637720e+01
1.858269e+02 2.241814e-01 -1.500921e-01 2.939581e+00 -3.762915e+01 1.667383e+01
1.824248e+02 2.204030e-01 -1.561993e-01 2.971036e+00 -3.765503e+01 1.690234e+01
1.781653e+02 2.078086e-01 -1.513307e-01 2.996890e+00 -3.769189e+01 1.692432e+01
1.769639e+02 2.078086e-01 -1.557048e-01 3.024485e+00 -3.772314e+01 1.716113e+01
1.754429e+02 2.128463e-01 -1.648340e-01 3.047485e+00 -3.776465e+01 1.690234e+01
1.739036e+02 2.115869e-01 -1.701663e-01 3.067137e+00 -3.780884e+01 1.594043e+01
1.715562e+02 2.115869e-01 -1.583814e-01 3.092933e+00 -3.784692e+01 1.526660e+01
1.729458e+02 2.178841e-01 -1.672806e-01 3.120030e+00 -3.788672e+01 1.568652e+01
1.749465e+02 2.279597e-01 -1.746618e-01 3.145173e+00 -3.792822e+01 1.594287e+01
1.741077e+02 2.279597e-01 -1.759893e-01 3.181165e+00 -3.796484e+01 1.660693e+01
1.753306e+02 2.304786e-01 -1.876024e-01 3.216051e+00 -3.800684e+01 1.681934e+01
1.761294e+02 2.329975e-01 -1.971613e-01 3.259977e+00 -3.804346e+01 1.739307e+01
1.731677e+02 2.204030e-01 -1.938589e-01 3.308704e+00 -3.807837e+01 1.760303e+01
1.732969e+02 2.178841e-01 -1.946596e-01 3.350229e+00 -3.811890e+01 1.726855e+01
1.741509e+02 2.204030e-01 -1.950278e-01 3.384834e+00 -3.816821e+01 1.651172e+01
1.730615e+02 2.115869e-01 -2.027280e-01 3.423763e+00 -3.819189e+01 1.622119e+01
1.711521e+02 2.166247e-01 -2.100629e-01 3.466490e+00 -3.820728e+01 1.713672e+01
1.690039e+02 2.128463e-01 -2.085007e-01 3.507411e+00 -3.823340e+01 1.757373e+01
1.706492e+02 2.141058e-01 -1.983644e-01 3.545896e+00 -3.826733e+01 1.765186e+01
1.714812e+02 2.178841e-01 -1.910438e-01 3.585831e+00 -3.830347e+01 1.724170e+01
1.700781e+02 2.241814e-01 -1.907189e-01 3.627980e+00 -3.832715e+01 1.738672e+01
1.694976e+02 2.229219e-01 -1.789013e-01 3.669224e+00 -3.834741e+01 1.790771e+01
1.736880e+02 2.254408e-01 -1.706395e-01 3.705040e+00 -3.837720e+01 1.787280e+01
1.735913e+02 2.304786e-01 -1.730011e-01 3.739564e+00 -3.840576e+01 1.752808e+01
1.693313e+02 2.254408e-01 -1.711298e-01 3.773565e+00 -3.843506e+01 1.827734e+01
1.689370e+02 2.166247e-01 -1.773680e-01 3.811922e+00 -3.846411e+01 1.861841e+01
1.692085e+02 2.191436e-01 -1.869191e-01 3.849287e+00 -3.849121e+01 1.918237e+01
1.713093e+02 2.241814e-01 -1.692273e-01 3.884541e+00 -3.852051e+01 1.984839e+01
1.686729e+02 2.304786e-01 -1.480656e-01 3.922710e+00 -3.854565e+01 2.014380e+01
1.671912e+02 2.254408e-01 -1.422673e-01 3.962471e+00 -3.855737e+01 2.059497e+01
1.662253e+02 2.153652e-01 -1.540093e-01 4.003464e+00 -3.856274e+01 2.125562e+01
1.640349e+02 2.178841e-01 -1.619941e-01 4.045996e+00 -3.857764e+01 2.212842e+01
1.627114e+02 2.178841e-01 -1.711743e-01 4.092310e+00 -3.859204e+01 2.244531e+01
1.661943e+02 2.254408e-01 -1.765246e-01 4.137855e+00 -3.860059e+01 2.253931e+01
1.658865e+02 2.279597e-01 -1.677805e-01 4.182710e+00 -3.860547e+01 2.278638e+01
1.652947e+02 2.317380e-01 -1.713293e-01 4.223127e+00 -3.859912e+01 2.290186e+01
1.654673e+02 2.241814e-01 -1.804145e-01 4.261784e+00 -3.859180e+01 2.333960e+01
1.684624e+02 2.292191e-01 -1.908113e-01 4.300024e+00 -3.859351e+01 2.385791e+01
1.664766e+02 2.317380e-01 -1.978756e-01 4.336890e+00 -3.859814e+01 2.400024e+01
1.664219e+02 2.317380e-01 -1.841668e-01 4.372464e+00 -3.860278e+01 2.391699e+01
1.661418e+02 2.254408e-01 -1.732447e-01 4.407720e+00 -3.860571e+01 2.395459e+01
1.656038e+02 2.241814e-01 -1.595703e-01 4.445490e+00 -3.861279e+01 2.478076e+01
1.639976e+02 2.216625e-01 -1.594409e-01 4.480375e+00 -3.861987e+01 2.546631e+01
1.635352e+02 2.204030e-01 -1.594707e-01 4.512409e+00 -3.862061e+01 2.610205e+01
1.603240e+02 2.229219e-01 -1.619587e-01 4.545842e+00 -3.860718e+01 2.661182e+01
1.595684e+02 2.191436e-01 -1.641452e-01 4.580709e+00 -3.860352e+01 2.690771e+01
1.608408e+02 2.153652e-01 -1.562580e-01 4.614564e+00 -3.860962e+01 2.693994e+01
1.620212e+02 2.166247e-01 -1.546289e-01 4.645351e+00 -3.862134e+01 2.709814e+01
1.621714e+02 2.204030e-01 -1.582738e-01 4.672867e+00 -3.862402e+01 2.722705e+01
1.612048e+02 2.141058e-01 -1.659575e-01 4.699444e+00 -3.862427e+01 2.708936e+01
1.610330e+02 2.178841e-01 -1.640340e-01 4.727383e+00 -3.862646e+01 2.715674e+01
1.606035e+02 2.128463e-01 -1.737359e-01 4.756974e+00 -3.862671e+01 2.689014e+01
1.610112e+02 2.153652e-01 -1.747225e-01 4.790562e+00 -3.862500e+01 2.717725e+01
1.616943e+02 2.178841e-01 -1.598175e-01 4.826456e+00 -3.861768e+01 2.714209e+01
1.617361e+02 2.191436e-01 -1.497974e-01 4.859219e+00 -3.860840e+01 2.716260e+01
1.634817e+02 2.216625e-01 -1.542515e-01 4.888108e+00 -3.860645e+01 2.701318e+01
1.646863e+02 2.216625e-01 -1.540772e-01 4.917155e+00 -3.861108e+01 2.701611e+01
1.628784e+02 2.216625e-01 -1.467091e-01 4.945394e+00 -3.861230e+01 2.713916e+01
1.619697e+02 2.229219e-01 -1.431314e-01 4.971571e+00 -3.860938e+01 2.755225e+01
1.626399e+02 2.241814e-01 -1.422489e-01 4.994756e+00 -3.860718e+01 2.800635e+01
1.624604e+02 2.166247e-01 -1.367629e-01 5.015739e+00 -3.861304e+01 2.863037e+01
1.614392e+02 2.166247e-01 -1.426993e-01 5.035186e+00 -3.862207e+01 2.886182e+01
1.591238e+02 2.153652e-01 -1.469078e-01 5.054195e+00 -3.863794e+01 2.869775e+01
1.572385e+02 2.141058e-01 -1.452432e-01 5.071732e+00 -3.865430e+01 2.858936e+01
1.560251e+02 2.128463e-01 -1.408136e-01 5.088048e+00 -3.867114e+01 2.892334e+01
1.565979e+02 2.103275e-01 -1.429849e-01 5.103569e+00 -3.868970e+01 2.897900e+01
1.564744e+02 2.065491e-01 -1.478746e-01 5.118122e+00 -3.870557e+01 2.887646e+01
1.549346e+02 2.078086e-01 -1.444554e-01 5.131120e+00 -3.871924e+01 2.894385e+01
1.541951e+02 2.040302e-01 -1.438457e-01 5.143196e+00 -3.873120e+01 2.899463e+01
1.548401e+02 2.027708e-01 -1.456048e-01 5.154363e+00 -3.874316e+01 2.923901e+01
1.552180e+02 2.040302e-01 -1.456242e-01 5.164259e+00 -3.875366e+01 2.952466e+01
1.545706e+02 2.015113e-01 -1.476486e-01 5.173157e+00 -3.876245e+01 2.960718e+01
1.540710e+02 2.015113e-01 -1.510623e-01 5.180753e+00 -3.877124e+01 2.954688e+01
1.552314e+02 2.078086e-01 -1.553417e-01 5.187851e+00 -3.878174e+01 2.947070e+01
1.557332e+02 2.090680e-01 -1.539074e-01 5.195462e+00 -3.879395e+01 2.951831e+01
1.557822e+02 2.128463e-01 -1.509170e-01 5.202117e+00 -3.880127e+01 2.954370e+01
1.573318e+02 2.166247e-01 -1.493913e-01 5.208533e+00 -3.881299e+01 2.956909e+01
1.573792e+02 2.090680e-01 -1.503734e-01 5.215039e+00 -3.882397e+01 2.964844e+01
1.572783e+02 2.115869e-01 -1.551037e-01 5.223511e+00 -3.883569e+01 2.947070e+01
1.562419e+02 2.103275e-01 -1.564184e-01 5.232644e+00 -3.884155e+01 2.930249e+01
1.574185e+02 2.103275e-01 -1.582336e-01 5.242545e+00 -3.884888e+01 2.920410e+01
1.582227e+02 2.128463e-01 -1.653466e-01 5.253649e+00 -3.885889e+01 2.919775e+01
1.572803e+02 2.141058e-01 -1.681297e-01 5.265135e+00 -3.886963e+01 2.920093e+01
1.577170e+02 2.141058e-01 -1.665249e-01 5.276422e+00 -3.888037e+01 2.918188e+01
1.570222e+02 2.141058e-01 -1.659230e-01 5.286583e+00 -3.889038e+01 2.935962e+01
1.565520e+02 2.090680e-01 -1.664276e-01 5.296280e+00 -3.889819e+01 2.942944e+01
1.566472e+02 2.128463e-01 -1.678890e-01 5.305617e+00 -3.890601e+01 2.953418e+01
1.570867e+02 2.141058e-01 -1.712062e-01 5.314138e+00 -3.891357e+01 2.963574e+01
1.566240e+02 2.141058e-01 -1.683913e-01 5.322078e+00 -3.892090e+01 2.981348e+01
1.582039e+02 2.178841e-01 -1.597378e-01 5.330068e+00 -3.892749e+01 2.979126e+01
1.578589e+02 2.191436e-01 -1.537130e-01 5.338164e+00 -3.893213e+01 2.977222e+01
1.581714e+02 2.178841e-01 -1.503796e-01 5.345239e+00 -3.893579e+01 2.995312e+01
1.587737e+02 2.178841e-01 -1.514360e-01 5.351126e+00 -3.893970e+01 3.029907e+01
1.588328e+02 2.166247e-01 -1.550014e-01 5.356099e+00 -3.894336e+01 3.057837e+01
1.594478e+02 2.178841e-01 -1.581322e-01 5.360695e+00 -3.894727e+01 3.073389e+01
1.596499e+02 2.166247e-01 -1.604806e-01 5.364746e+00 -3.894971e+01 3.084814e+01
1.598933e+02 2.166247e-01 -1.610946e-01 5.368051e+00 -3.895117e+01 3.087354e+01
1.598987e+02 2.204030e-01 -1.611967e-01 5.370971e+00 -3.895239e+01 3.094360e+01
1.597854e+02 2.178841e-01 -1.588385e-01 5.373607e+00 -3.895459e+01 3.105298e+01
1.601548e+02 2.166247e-01 -1.542185e-01 5.376102e+00 -3.895703e+01 3.117944e+01
1.602244e+02 2.141058e-01 -1.540510e-01 5.378453e+00 -3.895923e+01 3.130591e+01
1.604780e+02 2.153652e-01 -1.577677e-01 5.380397e+00 -3.896069e+01 3.141187e+01
1.603440e+02 2.128463e-01 -1.609882e-01 5.382045e+00 -3.896240e+01 3.150415e+01
1.603276e+02 2.115869e-01 -1.627068e-01 5.383900e+00 -3.896436e+01 3.153491e+01
1.592703e+02 2.090680e-01 -1.642251e-01 5.385700e+00 -3.896680e+01 3.154858e+01
1.585396e+02 2.078086e-01 -1.657667e-01 5.387202e+00 -3.896948e+01 3.159302e+01
1.591455e+02 2.090680e-01 -1.666100e-01 5.388523e+00 -3.897168e+01 3.170581e+01
1.587903e+02 2.078086e-01 -1.661958e-01 5.389709e+00 -3.897412e+01 3.179810e+01
1.588511e+02 2.115869e-01 -1.651773e-01 5.391024e+00 -3.897754e+01 3.187329e+01
1.588682e+02 2.078086e-01 -1.656405e-01 5.392534e+00 -3.898193e+01 3.191431e+01
1.581416e+02 2.052897e-01 -1.668139e-01 5.394015e+00 -3.898633e+01 3.194165e+01
1.583521e+02 2.065491e-01 -1.665747e-01 5.395625e+00 -3.898975e+01 3.196558e+01
1.577092e+02 2.065491e-01 -1.664799e-01 5.397209e+00 -3.899170e+01 3.202026e+01
1.576953e+02 2.065491e-01 -1.680845e-01 5.398607e+00 -3.899341e+01 3.208179e+01
1.578350e+02 2.090680e-01 -1.695059e-01 5.399875e+00 -3.899536e+01 3.213989e+01
1.578125e+02 2.078086e-01 -1.703569e-01 5.400907e+00 -3.899780e+01 3.218774e+01
1.575322e+02 2.065491e-01 -1.701197e-01 5.401741e+00 -3.900073e+01 3.223218e+01
1.572927e+02 2.078086e-01 -1.695397e-01 5.402522e+00 -3.900342e+01 3.229028e+01
1.576553e+02 2.090680e-01 -1.694619e-01 5.403214e+00 -3.900562e+01 3.230737e+01
1.578826e+02 2.115869e-01 -1.699662e-01 5.404046e+00 -3.900830e+01 3.230737e+01
1.583103e+02 2.103275e-01 -1.701901e-01 5.404945e+00 -3.901050e+01 3.229028e+01
1.582964e+02 2.115869e-01 -1.701569e-01 5.405830e+00 -3.901294e+01 3.229712e+01
1.585396e+02 2.128463e-01 -1.697022e-01 5.406552e+00 -3.901514e+01 3.233130e+01
1.580388e+02 2.115869e-01 -1.692482e-01 5.406992e+00 -3.901685e+01 3.235864e+01
1.587366e+02 2.141058e-01 -1.696334e-01 5.407484e+00 -3.901929e+01 3.235181e+01
1.589426e+02 2.141058e-01 -1.707006e-01 5.408400e+00 -3.902148e+01 3.231079e+01
1.588279e+02 2.153652e-01 -1.721910e-01 5.409340e+00 -3.902295e+01 3.227319e+01
1.593584e+02 2.115869e-01 -1.737502e-01 5.410012e+00 -3.902417e+01 3.224243e+01
1.592686e+02 2.153652e-01 -1.743673e-01 5.410886e+00 -3.902588e+01 3.223560e+01
1.592085e+02 2.166247e-01 -1.745020e-01 5.411952e+00 -3.902832e+01 3.224927e+01
1.591155e+02 2.191436e-01 -1.734155e-01 5.413031e+00 -3.903125e+01 3.225269e+01
1.586721e+02 2.178841e-01 -1.714158e-01 5.414210e+00 -3.903223e+01 3.221167e+01
1.585647e+02 2.153652e-01 -1.700119e-01 5.415417e+00 -3.903271e+01 3.220142e+01
1.588525e+02 2.103275e-01 -1.689188e-01 5.416650e+00 -3.903345e+01 3.227319e+01
1.584197e+02 2.078086e-01 -1.683420e-01 5.417769e+00 -3.903467e+01 3.234277e+01
1.583240e+02 2.115869e-01 -1.670142e-01 5.418976e+00 -3.903662e+01 3.240503e+01
1.583696e+02 2.115869e-01 -1.655304e-01 5.420045e+00 -3.903906e+01 3.245996e+01
1.581772e+02 2.115869e-01 -1.658139e-01 5.421082e+00 -3.904175e+01 3.248926e+01
1.577012e+02 2.090680e-01 -1.671831e-01 5.422120e+00 -3.904419e+01 3.251855e+01
1.577224e+02 2.090680e-01 -1.680047e-01 5.423345e+00 -3.904614e+01 3.255884e+01
1.569402e+02 2.065491e-01 -1.676718e-01 5.424737e+00 -3.904785e+01 3.260278e+01
1.568560e+02 2.103275e-01 -1.663155e-01 5.426257e+00 -3.905005e+01 3.261011e+01
1.563367e+02 2.103275e-01 -1.659198e-01 5.427757e+00 -3.905200e+01 3.260645e+01
1.564331e+02 2.090680e-01 -1.663492e-01 5.429186e+00 -3.905322e+01 3.261743e+01
1.561060e+02 2.065491e-01 -1.669249e-01 5.430632e+00 -3.905396e+01 3.263574e+01
1.566804e+02 2.065491e-01 -1.674991e-01 5.432362e+00 -3.905469e+01 3.267603e+01
1.568865e+02 2.115869e-01 -1.678675e-01 5.434267e+00 -3.905566e+01 3.271631e+01
1.570337e+02 2.128463e-01 -1.673057e-01 5.436111e+00 -3.905664e+01 3.274561e+01
1.571707e+02 2.090680e-01 -1.670095e-01 5.437600e+00 -3.905688e+01 3.275293e+01
1.572812e+02 2.065491e-01 -1.674870e-01 5.438761e+00 -3.905737e+01 3.274927e+01
1.574087e+02 2.052897e-01 -1.677844e-01 5.440038e+00 -3.905908e+01 3.273828e+01
1.574187e+02 2.052897e-01 -1.683789e-01 5.441220e+00 -3.906201e+01 3.272363e+01
1.579441e+02 2.065491e-01 -1.692632e-01 5.442243e+00 -3.906567e+01 3.268701e+01
1.578481e+02 2.065491e-01 -1.705024e-01 5.443362e+00 -3.906958e+01 3.266504e+01
1.569548e+02 2.002519e-01 -1.698749e-01 5.444716e+00 -3.907275e+01 3.264307e+01
1.566062e+02 2.027708e-01 -1.703446e-01 5.445453e+00 -3.907666e+01 3.266138e+01
1.566047e+02 2.078086e-01 -1.725608e-01 5.446177e+00 -3.908032e+01 3.269434e+01
1.570999e+02 2.078086e-01 -1.761251e-01 5.447343e+00 -3.908545e+01 3.273828e+01
1.570676e+02 2.040302e-01 -1.788264e-01 5.448814e+00 -3.909131e+01 3.274927e+01
1.567148e+02 2.027708e-01 -1.788965e-01 5.450496e+00 -3.909595e+01 3.276392e+01
1.565513e+02 2.040302e-01 -1.771980e-01 5.452168e+00 -3.910034e+01 3.278223e+01
1.565818e+02 2.040302e-01 -1.759950e-01 5.453848e+00 -3.910498e+01 3.280054e+01
1.571152e+02 2.027708e-01 -1.764133e-01 5.455390e+00 -3.910962e+01 3.282617e+01
1.574912e+02 2.065491e-01 -1.768346e-01 5.456999e+00 -3.911353e+01 3.285547e+01
1.575801e+02 2.065491e-01 -1.766686e-01 5.458740e+00 -3.911768e+01 3.288110e+01
1.576257e+02 2.090680e-01 -1.754092e-01 5.460227e+00 -3.912207e+01 3.288477e+01
1.573525e+02 2.078086e-01 -1.733861e-01 5.461422e+00 -3.912598e+01 3.288477e+01
1.572300e+02 2.065491e-01 -1.726420e-01 5.462490e+00 -3.912964e+01 3.286646e+01
1.570654e+02 2.078086e-01 -1.736416e-01 5.463614e+00 -3.913379e+01 3.282251e+01
1.574922e+02 2.052897e-01 -1.747229e-01 5.464690e+00 -3.913647e+01 3.279688e+01
1.569929e+02 2.040302e-01 -1.748388e-01 5.466017e+00 -3.913892e+01 3.276392e+01
1.570549e+02 2.052897e-01 -1.733022e-01 5.467639e+00 -3.914087e+01 3.275293e+01
1.573159e+02 2.040302e-01 -1.728474e-01 5.469398e+00 -3.914331e+01 3.274561e+01
