8.458432e+00 1.220975e+02 -1.373677e+03 1.407011e+03 4.590362e-06 3.417104e-03 -2.233734e-01 2.233887e-01
2.817264e+01 2.356795e+02 -1.852042e+03 2.038117e+03 2.960274e-07 2.899887e-03 -2.198944e-01 1.984253e-01
5.217668e+01 3.746970e+02 -2.920141e+03 3.545468e+03 1.669976e-07 2.721450e-03 -2.188263e-01 2.093964e-01
6.287457e+01 5.382777e+02 -4.534164e+03 5.380404e+03 1.257492e-07 2.580072e-03 -2.198944e-01 2.093964e-01
8.746903e+01 6.927634e+02 -5.947403e+03 6.918478e+03 5.715192e-08 2.500974e-03 -2.188263e-01 2.093964e-01
1.133776e+02 8.621392e+02 -6.932734e+03 7.990841e+03 1.861446e-07 2.445490e-03 -2.175446e-01 2.063141e-01
1.239786e+02 1.034221e+03 -7.829606e+03 8.724618e+03 3.045274e-08 2.419083e-03 -2.198944e-01 2.026825e-01
1.425616e+02 1.212908e+03 -9.946525e+03 1.098819e+04 5.576896e-08 2.372838e-03 -2.175446e-01 2.026825e-01
1.716630e+02 1.378535e+03 -1.132565e+04 1.248874e+04 -4.243547e-08 2.334438e-03 -2.160187e-01 2.026825e-01
1.924881e+02 1.548214e+03 -1.279021e+04 1.436484e+04 1.009338e-07 2.307951e-03 -2.198944e-01 2.026825e-01
2.194047e+02 1.718242e+03 -1.383501e+04 1.550176e+04 5.390539e-08 2.292124e-03 -2.198944e-01 2.026825e-01
2.371604e+02 1.897818e+03 -1.637506e+04 1.826576e+04 -7.381162e-08 2.257827e-03 -2.188263e-01 2.063141e-01
2.649294e+02 2.068603e+03 -1.759037e+04 1.950820e+04 1.688410e-07 2.239501e-03 -2.198944e-01 2.026825e-01
2.732957e+02 2.253125e+03 -1.966273e+04 2.184331e+04 -3.911824e-08 2.230037e-03 -2.188263e-01 2.026825e-01
3.020130e+02 2.426489e+03 -2.120803e+04 2.352485e+04 5.973167e-08 2.210107e-03 -2.175446e-01 2.026825e-01
3.471057e+02 2.598469e+03 -2.211207e+04 2.450859e+04 -2.234388e-08 2.235974e-03 -2.175446e-01 2.063141e-01
3.605660e+02 2.776633e+03 -2.332266e+04 2.582592e+04 -4.264198e-09 2.214015e-03 -2.188263e-01 2.026825e-01
3.954374e+02 2.948508e+03 -2.477724e+04 2.740875e+04 6.639051e-08 2.212141e-03 -2.198944e-01 2.026825e-01
4.231571e+02 3.125426e+03 -2.764887e+04 3.053357e+04 -4.013903e-08 2.203589e-03 -2.198944e-01 2.026825e-01
4.329166e+02 3.297767e+03 -2.848722e+04 3.144583e+04 4.054634e-08 2.188632e-03 -2.188263e-01 2.063141e-01
4.649915e+02 3.471944e+03 -2.987924e+04 3.276800e+04 -2.883611e-08 2.184238e-03 -2.188263e-01 1.984253e-01
4.966300e+02 3.655533e+03 -3.244324e+04 3.276800e+04 9.967198e-08 2.191931e-03 -2.188263e-01 2.063141e-01
5.029556e+02 3.826738e+03 -3.243824e+04 3.276800e+04 -1.220944e-08 2.156387e-03 -2.175446e-01 2.026825e-01
5.327319e+02 3.995190e+03 -3.276800e+04 3.276800e+04 1.594973e-08 2.136035e-03 -2.188263e-01 2.026825e-01
5.588211e+02 4.170947e+03 -3.276800e+04 3.276800e+04 -9.202227e-08 2.135016e-03 -2.215118e-01 2.026825e-01
5.917850e+02 4.345632e+03 -3.276800e+04 3.276800e+04 -5.026518e-08 2.147905e-03 -2.160187e-01 2.026825e-01
6.065256e+02 4.524084e+03 -3.276800e+04 3.276800e+04 1.366500e-07 2.128780e-03 -2.188263e-01 2.063141e-01
6.422255e+02 4.691799e+03 -3.276800e+04 3.276800e+04 -6.123555e-08 2.136061e-03 -2.188263e-01 2.043915e-01
6.629190e+02 4.865356e+03 -3.276800e+04 3.276800e+04 2.990299e-08 2.116471e-03 -2.188263e-01 2.063141e-01
6.916937e+02 5.042735e+03 -3.276800e+04 3.276800e+04 2.078459e-08 2.113241e-03 -2.160187e-01 2.063141e-01
7.205708e+02 5.217767e+03 -3.276800e+04 3.276800e+04 -6.016460e-08 2.110434e-03 -2.188263e-01 2.063141e-01
7.534833e+02 5.379656e+03 -3.276800e+04 3.276800e+04 2.103627e-08 2.099031e-03 -2.175446e-01 2.026825e-01
7.894594e+02 5.551208e+03 -3.276800e+04 3.276800e+04 -5.363785e-08 2.090877e-03 -2.198944e-01 2.063141e-01
7.978529e+02 5.723413e+03 -3.276800e+04 3.276800e+04 1.788872e-07 2.072856e-03 -2.207794e-01 2.026825e-01
8.196597e+02 5.887795e+03 -3.276800e+04 3.276800e+04 -6.978261e-08 2.070580e-03 -2.175446e-01 2.026825e-01
8.482416e+02 6.051454e+03 -3.276800e+04 3.276800e+04 -1.942996e-08 2.063789e-03 -2.175446e-01 2.026825e-01
8.883641e+02 6.214785e+03 -3.276800e+04 3.276800e+04 -1.100193e-07 2.075303e-03 -2.160187e-01 2.026825e-01
9.040559e+02 6.370608e+03 -3.276800e+04 3.276800e+04 1.158000e-07 2.064359e-03 -2.188263e-01 2.063141e-01
9.322771e+02 6.526794e+03 -3.276800e+04 3.276800e+04 -2.725559e-08 2.056084e-03 -2.175446e-01 2.063141e-01
9.499908e+02 6.681489e+03 -3.276800e+04 3.276800e+04 -6.149842e-09 2.050365e-03 -2.198944e-01 2.026825e-01
9.844338e+02 6.832342e+03 -3.276800e+04 3.276800e+04 -4.757831e-08 2.044395e-03 -2.160187e-01 2.063141e-01
1.003517e+03 6.976845e+03 -3.276800e+04 3.276800e+04 -2.139408e-08 2.030320e-03 -2.188263e-01 2.026825e-01
1.030068e+03 7.120026e+03 -3.276800e+04 3.276800e+04 4.236808e-08 2.024601e-03 -2.198944e-01 2.026825e-01
1.052702e+03 7.258070e+03 -3.276800e+04 3.276800e+04 -1.883285e-08 2.040145e-03 -2.160187e-01 2.026825e-01
1.077997e+03 7.397893e+03 -3.276800e+04 3.276800e+04 7.127962e-08 2.034535e-03 -2.175446e-01 2.026825e-01
1.103209e+03 7.534447e+03 -3.276800e+04 3.276800e+04 -4.378838e-09 2.031595e-03 -2.188263e-01 2.063141e-01
1.105874e+03 7.663977e+03 -3.276800e+04 3.276800e+04 -1.643854e-08 2.029593e-03 -2.188263e-01 2.063141e-01
1.145531e+03 7.784227e+03 -3.276800e+04 3.276800e+04 -1.376031e-08 2.048043e-03 -2.188263e-01 1.984253e-01
1.155772e+03 7.913524e+03 -3.276800e+04 3.276800e+04 3.428315e-08 2.025883e-03 -2.198944e-01 2.026825e-01
1.177589e+03 8.033613e+03 -3.276800e+04 3.276800e+04 4.657951e-08 2.025926e-03 -2.188263e-01 2.026825e-01
1.206732e+03 8.152010e+03 -3.276800e+04 3.276800e+04 -6.108137e-08 2.016898e-03 -2.198944e-01 2.063141e-01
1.224627e+03 8.265260e+03 -3.276800e+04 3.276800e+04 3.038589e-08 2.013100e-03 -2.188263e-01 2.026825e-01
1.244717e+03 8.378261e+03 -3.276800e+04 3.276800e+04 -6.568171e-08 2.009718e-03 -2.175446e-01 2.063141e-01
1.272598e+03 8.486377e+03 -3.276800e+04 3.276800e+04 5.083856e-08 2.002164e-03 -2.160187e-01 2.063141e-01
1.279613e+03 8.592748e+03 -3.276800e+04 3.276800e+04 4.446464e-08 1.992059e-03 -2.188263e-01 2.063141e-01
1.298246e+03 8.694975e+03 -3.276800e+04 3.276800e+04 2.007265e-08 2.002730e-03 -2.175446e-01 2.063141e-01
1.320681e+03 8.797084e+03 -3.276800e+04 3.276800e+04 -1.504026e-07 1.993402e-03 -2.175446e-01 2.026825e-01
1.326216e+03 8.899415e+03 -3.276800e+04 3.276800e+04 7.680190e-08 1.997575e-03 -2.175446e-01 2.026825e-01
1.332935e+03 8.991224e+03 -3.276800e+04 3.276800e+04 7.718327e-08 1.976169e-03 -2.175446e-01 2.026825e-01
1.340550e+03 9.084060e+03 -3.276800e+04 3.276800e+04 -7.977423e-08 1.975571e-03 -2.198944e-01 2.063141e-01
1.365321e+03 9.169647e+03 -3.276800e+04 3.276800e+04 1.328673e-07 1.977190e-03 -2.188263e-01 2.063141e-01
1.391507e+03 9.257646e+03 -3.276800e+04 3.276800e+04 -9.765049e-08 1.972227e-03 -2.188263e-01 2.026825e-01
1.423839e+03 9.339541e+03 -3.276800e+04 3.276800e+04 6.474082e-08 1.981353e-03 -2.188263e-01 2.063141e-01
1.426640e+03 9.420988e+03 -3.276800e+04 3.276800e+04 -1.416713e-08 1.994611e-03 -2.198944e-01 2.026825e-01
1.422622e+03 9.499956e+03 -3.276800e+04 3.276800e+04 3.038745e-08 1.969156e-03 -2.188263e-01 2.026825e-01
1.430400e+03 9.577261e+03 -3.276800e+04 3.276800e+04 4.664011e-08 1.957243e-03 -2.188263e-01 2.026825e-01
1.428103e+03 9.657776e+03 -3.276800e+04 3.276800e+04 -5.815878e-08 1.959545e-03 -2.198944e-01 2.026825e-01
1.439883e+03 9.732063e+03 -3.276800e+04 3.276800e+04 3.935358e-08 1.952167e-03 -2.188263e-01 2.063141e-01
1.452182e+03 9.800865e+03 -3.276800e+04 3.276800e+04 -5.622139e-08 1.969524e-03 -2.175446e-01 2.063141e-01
1.471080e+03 9.874021e+03 -3.276800e+04 3.276800e+04 4.368622e-08 1.962478e-03 -2.175446e-01 2.063141e-01
