1.985163e+04 9.324000e-01 3.158172e-03 5.760129e-01 -9.999390e-01 9.999542e-01
2.605172e+03 2.426000e-01 -1.645040e-02 3.801402e+00 -7.464128e+01 7.153346e+01
2.361732e+03 2.126000e-01 -7.439506e-03 7.646517e+00 -1.482272e+02 1.161669e+02
2.121335e+03 1.980000e-01 -2.544527e-02 1.160802e+01 -2.026873e+02 1.253364e+02
1.993839e+03 1.881000e-01 -1.453364e-01 1.587438e+01 -2.248017e+02 1.734219e+02
1.817627e+03 1.712000e-01 -1.120271e-01 2.022444e+01 -2.778180e+02 1.997081e+02
1.827033e+03 1.707000e-01 -9.233083e-02 2.465737e+01 -3.053225e+02 2.034005e+02
1.739651e+03 1.598000e-01 -6.406124e-02 2.915665e+01 -3.650756e+02 2.279654e+02
1.626123e+03 1.472000e-01 -1.301134e-02 3.362418e+01 -3.916376e+02 2.601828e+02
1.609282e+03 1.515000e-01 6.382704e-02 3.807680e+01 -4.191067e+02 2.389398e+02
1.568831e+03 1.421000e-01 1.161160e-01 4.260499e+01 -4.486409e+02 2.779811e+02
1.580132e+03 1.440000e-01 1.924440e-01 4.713838e+01 -4.459299e+02 2.855574e+02
1.539881e+03 1.453000e-01 2.245142e-01 5.166740e+01 -4.452536e+02 3.129307e+02
1.556033e+03 1.462000e-01 3.702401e-01 5.618861e+01 -4.506856e+02 3.109857e+02
1.540250e+03 1.408000e-01 3.170961e-01 6.074571e+01 -4.649520e+02 3.067474e+02
1.505956e+03 1.385000e-01 4.494752e-01 6.528963e+01 -4.669815e+02 3.337278e+02
1.518204e+03 1.443000e-01 7.051790e-01 6.981916e+01 -4.604703e+02 3.598876e+02
1.524494e+03 1.409000e-01 7.961276e-01 7.437190e+01 -4.678871e+02 4.038603e+02
1.511760e+03 1.385000e-01 9.716194e-01 7.892211e+01 -4.479952e+02 4.065514e+02
1.473289e+03 1.386000e-01 1.064850e+00 8.348733e+01 -4.758613e+02 3.913850e+02
1.508155e+03 1.382000e-01 1.047222e+00 8.806935e+01 -4.927889e+02 4.027064e+02
1.465607e+03 1.342000e-01 1.228356e+00 9.264709e+01 -5.163274e+02 4.346114e+02
1.481080e+03 1.395000e-01 1.432453e+00 9.724732e+01 -5.221872e+02 4.631939e+02
1.426001e+03 1.340000e-01 1.406900e+00 1.018352e+02 -5.100301e+02 4.695362e+02
1.423774e+03 1.357000e-01 1.474071e+00 1.063993e+02 -5.154223e+02 4.702525e+02
1.460072e+03 1.388000e-01 1.629816e+00 1.109595e+02 -5.186109e+02 4.703719e+02
1.442954e+03 1.376000e-01 1.924454e+00 1.155357e+02 -5.101396e+02 5.255218e+02
1.448667e+03 1.365000e-01 1.937154e+00 1.201136e+02 -5.329370e+02 5.677585e+02
1.453300e+03 1.330000e-01 2.150111e+00 1.246655e+02 -5.393489e+02 5.680470e+02
1.408091e+03 1.369000e-01 2.235656e+00 1.292395e+02 -5.401249e+02 5.663358e+02
1.462683e+03 1.409000e-01 2.361946e+00 1.338087e+02 -5.567988e+02 5.664615e+02
1.378317e+03 1.318000e-01 2.491369e+00 1.383758e+02 -5.581418e+02 5.664774e+02
1.377514e+03 1.285000e-01 2.616670e+00 1.429506e+02 -5.731593e+02 5.665373e+02
1.371898e+03 1.269000e-01 2.778822e+00 1.475179e+02 -5.797205e+02 5.665281e+02
1.337686e+03 1.261000e-01 2.814980e+00 1.520959e+02 -5.863363e+02 5.665299e+02
1.379576e+03 1.336000e-01 2.966617e+00 1.566657e+02 -5.889180e+02 5.666220e+02
1.346508e+03 1.304000e-01 3.173545e+00 1.612270e+02 -5.907337e+02 5.666837e+02
1.358780e+03 1.323000e-01 3.556831e+00 1.657770e+02 -5.894453e+02 5.667408e+02
1.320140e+03 1.242000e-01 3.709667e+00 1.703242e+02 -5.808698e+02 5.670071e+02
1.361293e+03 1.317000e-01 3.870686e+00 1.748595e+02 -5.791984e+02 5.670608e+02
1.334735e+03 1.269000e-01 4.008993e+00 1.794138e+02 -5.792632e+02 5.937557e+02
1.316986e+03 1.251000e-01 4.253229e+00 1.839782e+02 -5.763482e+02 5.982973e+02
1.329300e+03 1.276000e-01 4.404703e+00 1.885183e+02 -5.703542e+02 6.071268e+02
1.322305e+03 1.258000e-01 4.574959e+00 1.930583e+02 -5.673300e+02 6.190205e+02
1.313081e+03 1.269000e-01 4.701804e+00 1.976155e+02 -5.709065e+02 6.427977e+02
1.308224e+03 1.221000e-01 4.917297e+00 2.021439e+02 -5.833522e+02 6.469463e+02
1.312634e+03 1.199000e-01 5.136696e+00 2.066856e+02 -5.845609e+02 6.452054e+02
1.313767e+03 1.232000e-01 5.238564e+00 2.112223e+02 -5.877246e+02 6.651426e+02
1.332313e+03 1.251000e-01 5.547532e+00 2.157533e+02 -5.866203e+02 6.799910e+02
1.304814e+03 1.242000e-01 5.668175e+00 2.202966e+02 -5.851731e+02 6.826772e+02
1.321333e+03 1.267000e-01 5.861299e+00 2.248444e+02 -6.037473e+02 6.901288e+02
1.307253e+03 1.226000e-01 6.010469e+00 2.293933e+02 -6.079705e+02 6.851546e+02
1.289263e+03 1.236000e-01 6.173369e+00 2.339431e+02 -6.217991e+02 6.908054e+02
1.318706e+03 1.259000e-01 6.295610e+00 2.384842e+02 -6.319768e+02 6.977496e+02
1.291469e+03 1.237000e-01 6.455821e+00 2.430212e+02 -6.366726e+02 7.078078e+02
1.285861e+03 1.229000e-01 6.524374e+00 2.475752e+02 -6.347028e+02 7.079073e+02
1.310472e+03 1.251000e-01 6.681255e+00 2.521432e+02 -6.342451e+02 7.094793e+02
1.283703e+03 1.245000e-01 6.845122e+00 2.567068e+02 -6.436615e+02 7.192738e+02
1.285146e+03 1.233000e-01 6.964192e+00 2.612670e+02 -6.452881e+02 7.356095e+02
1.278751e+03 1.183000e-01 7.086318e+00 2.658345e+02 -6.475763e+02 7.429169e+02
1.266824e+03 1.188000e-01 7.205576e+00 2.703944e+02 -6.526601e+02 7.573275e+02
1.265537e+03 1.212000e-01 7.481584e+00 2.749446e+02 -6.516901e+02 7.675895e+02
1.280552e+03 1.198000e-01 7.824604e+00 2.794884e+02 -6.582663e+02 7.717679e+02
1.279408e+03 1.224000e-01 8.226052e+00 2.840328e+02 -6.586260e+02 7.811246e+02
1.287256e+03 1.228000e-01 8.318279e+00 2.885938e+02 -6.685747e+02 7.925259e+02
1.255799e+03 1.185000e-01 8.271048e+00 2.931618e+02 -6.785234e+02 8.043898e+02
1.260396e+03 1.196000e-01 8.363209e+00 2.977251e+02 -6.884771e+02 8.066382e+02
1.261612e+03 1.175000e-01 8.352559e+00 3.022949e+02 -6.984259e+02 8.136023e+02
1.277357e+03 1.225000e-01 8.450660e+00 3.068695e+02 -7.083746e+02 8.080510e+02
1.276982e+03 1.223000e-01 8.542154e+00 3.114466e+02 -7.183233e+02 8.340716e+02
1.270831e+03 1.203000e-01 8.724749e+00 3.160254e+02 -7.282720e+02 8.375139e+02
