8.999023e-01 9.987793e-01
6.208496e-01 8.530273e-01
4.252930e-01 7.915039e-01
3.000488e-01 7.653809e-01
2.082520e-01 7.543945e-01
1.445312e-01 7.497559e-01
1.013184e-01 6.757812e-01
7.128906e-02 6.447754e-01
5.004883e-02 6.315918e-01
3.540039e-02 6.259766e-01
2.490234e-02 6.081543e-01
1.757812e-02 5.800781e-01
1.245117e-02 5.681152e-01
8.789062e-03 5.632324e-01
6.103516e-03 5.476074e-01
4.150391e-03 5.366211e-01
2.929688e-03 5.319824e-01
2.197266e-03 5.261230e-01
1.464844e-03 5.185547e-01
9.765625e-04 5.153809e-01
9.765625e-04 5.095215e-01
9.765625e-04 5.070801e-01
9.765625e-04 5.039062e-01
9.765625e-04 5.014648e-01
9.765625e-04 4.995117e-01
9.765625e-04 4.265137e-01
9.765625e-04 3.955078e-01
9.765625e-04 3.825684e-01
9.765625e-04 3.771973e-01
9.765625e-04 3.750000e-01
9.765625e-04 3.466797e-01
9.765625e-04 3.259277e-01
9.765625e-04 3.171387e-01
9.765625e-04 3.134766e-01
9.765625e-04 3.041992e-01
9.765625e-04 2.900391e-01
9.765625e-04 2.841797e-01
9.765625e-04 2.817383e-01
9.765625e-04 2.768555e-01
9.765625e-04 2.695312e-01
9.765625e-04 2.666016e-01
9.765625e-04 2.653809e-01
9.765625e-04 2.602539e-01
9.765625e-04 2.580566e-01
9.765625e-04 2.553711e-01
9.765625e-04 2.536621e-01
9.765625e-04 2.519531e-01
9.765625e-04 2.507324e-01
9.765625e-04 2.497559e-01
9.765625e-04 2.133789e-01
9.765625e-04 1.979980e-01
9.765625e-04 1.914062e-01
9.765625e-04 1.884766e-01
9.765625e-04 1.875000e-01
9.765625e-04 1.733398e-01
9.765625e-04 1.630859e-01
9.765625e-04 1.586914e-01
9.765625e-04 1.567383e-01
9.765625e-04 1.560059e-01
9.765625e-04 1.469727e-01
9.765625e-04 1.430664e-01
9.765625e-04 1.413574e-01
9.765625e-04 1.406250e-01
9.765625e-04 1.369629e-01
9.765625e-04 1.340332e-01
9.765625e-04 1.330566e-01
9.765625e-04 1.315918e-01
9.765625e-04 1.296387e-01
9.765625e-04 1.289062e-01
9.765625e-04 1.276855e-01
9.765625e-04 1.269531e-01
9.765625e-04 1.262207e-01
9.765625e-04 1.254883e-01
9.765625e-04 1.247559e-01
9.765625e-04 1.066895e-01
9.765625e-04 9.887695e-02
9.765625e-04 9.570312e-02
9.765625e-04 9.448242e-02
9.765625e-04 9.375000e-02
9.765625e-04 9.375000e-02
9.765625e-04 9.375000e-02
9.765625e-04 9.375000e-02
9.765625e-04 9.375000e-02
9.765625e-04 9.375000e-02
9.765625e-04 9.375000e-02
9.765625e-04 9.375000e-02
9.765625e-04 9.375000e-02
9.765625e-04 9.375000e-02
9.765625e-04 9.375000e-02
9.765625e-04 9.375000e-02
9.765625e-04 9.375000e-02
9.765625e-04 9.375000e-02
9.765625e-04 9.375000e-02
9.765625e-04 9.375000e-02
9.765625e-04 9.375000e-02
9.765625e-04 9.375000e-02
9.765625e-04 9.375000e-02
9.765625e-04 9.375000e-02
9.765625e-04 9.375000e-02
9.765625e-04 9.375000e-02
9.765625e-04 9.375000e-02
9.765625e-04 9.375000e-02
9.765625e-04 9.375000e-02
9.765625e-04 9.375000e-02
9.765625e-04 9.375000e-02
9.765625e-04 9.375000e-02
9.765625e-04 9.375000e-02
9.765625e-04 9.375000e-02
9.765625e-04 9.375000e-02
9.765625e-04 9.375000e-02
9.765625e-04 9.375000e-02
9.765625e-04 9.375000e-02
9.765625e-04 9.375000e-02
9.765625e-04 9.375000e-02
9.765625e-04 9.375000e-02
9.765625e-04 9.375000e-02
9.765625e-04 9.375000e-02
9.765625e-04 9.375000e-02
9.765625e-04 9.375000e-02
9.765625e-04 9.375000e-02
9.765625e-04 9.375000e-02
9.765625e-04 9.375000e-02
9.765625e-04 9.375000e-02
9.765625e-04 9.375000e-02
9.765625e-04 9.375000e-02
9.765625e-04 9.375000e-02
9.765625e-04 9.375000e-02
9.765625e-04 9.375000e-02
9.765625e-04 9.375000e-02
9.765625e-04 9.375000e-02
9.765625e-04 9.375000e-02
9.765625e-04 9.375000e-02
9.765625e-04 9.375000e-02
9.765625e-04 9.375000e-02
9.765625e-04 9.375000e-02
9.765625e-04 9.375000e-02
9.765625e-04 9.375000e-02
9.765625e-04 9.375000e-02
9.765625e-04 9.375000e-02
9.765625e-04 9.375000e-02
9.765625e-04 9.375000e-02
9.765625e-04 9.375000e-02
9.765625e-04 9.375000e-02
9.765625e-04 9.375000e-02
9.765625e-04 9.375000e-02
9.765625e-04 9.375000e-02
9.765625e-04 9.375000e-02
9.765625e-04 9.375000e-02
9.765625e-04 9.375000e-02
9.765625e-04 9.375000e-02
9.765625e-04 9.375000e-02
9.765625e-04 9.375000e-02
9.765625e-04 9.375000e-02
9.765625e-04 9.375000e-02
9.765625e-04 9.375000e-02
9.765625e-04 9.375000e-02
9.765625e-04 9.375000e-02
9.765625e-04 9.375000e-02
9.765625e-04 9.375000e-02
9.765625e-04 9.375000e-02
9.765625e-04 9.375000e-02
9.765625e-04 9.375000e-02
9.765625e-04 9.375000e-02
9.765625e-04 9.375000e-02
9.765625e-04 9.375000e-02
9.765625e-04 9.375000e-02
9.765625e-04 9.375000e-02
9.765625e-04 9.375000e-02
9.765625e-04 9.375000e-02
9.765625e-04 9.375000e-02
9.765625e-04 9.375000e-02
9.765625e-04 9.375000e-02
9.765625e-04 9.375000e-02
9.765625e-04 9.375000e-02
9.765625e-04 9.375000e-02
9.765625e-04 9.375000e-02
9.765625e-04 9.375000e-02
9.765625e-04 9.375000e-02
9.765625e-04 9.375000e-02
9.765625e-04 9.375000e-02
9.765625e-04 9.375000e-02
9.765625e-04 9.375000e-02
9.765625e-04 9.375000e-02
9.765625e-04 9.375000e-02
9.765625e-04 9.375000e-02
9.765625e-04 9.375000e-02
9.765625e-04 9.375000e-02
9.765625e-04 9.375000e-02
9.765625e-04 9.375000e-02
9.765625e-04 9.375000e-02
9.765625e-04 9.375000e-02
9.765625e-04 9.375000e-02
9.765625e-04 9.375000e-02
9.765625e-04 9.375000e-02
9.765625e-04 9.375000e-02
9.765625e-04 9.375000e-02
9.765625e-04 9.375000e-02
9.765625e-04 9.375000e-02
9.765625e-04 9.375000e-02
9.765625e-04 9.375000e-02
9.765625e-04 9.375000e-02
9.765625e-04 9.375000e-02
9.765625e-04 9.375000e-02
9.765625e-04 9.375000e-02
9.765625e-04 9.375000e-02
9.765625e-04 9.375000e-02
9.765625e-04 9.375000e-02
9.765625e-04 9.375000e-02
9.765625e-04 9.375000e-02
9.765625e-04 9.375000e-02
9.765625e-04 9.375000e-02
9.765625e-04 9.375000e-02
9.765625e-04 9.375000e-02
9.765625e-04 9.375000e-02
9.765625e-04 9.375000e-02
9.765625e-04 9.375000e-02
9.765625e-04 9.375000e-02
9.765625e-04 9.375000e-02
9.765625e-04 9.375000e-02
9.765625e-04 9.375000e-02
9.765625e-04 9.375000e-02
9.765625e-04 9.375000e-02
9.765625e-04 9.375000e-02
9.765625e-04 9.375000e-02
9.765625e-04 9.375000e-02
9.765625e-04 9.375000e-02
9.765625e-04 9.375000e-02
9.765625e-04 9.375000e-02
9.765625e-04 9.375000e-02
9.765625e-04 9.375000e-02
9.765625e-04 9.375000e-02
9.765625e-04 9.375000e-02
9.765625e-04 9.375000e-02
9.765625e-04 9.375000e-02
9.765625e-04 9.375000e-02
9.765625e-04 9.375000e-02
9.765625e-04 9.375000e-02
9.765625e-04 9.375000e-02
9.765625e-04 9.375000e-02
9.765625e-04 9.375000e-02
9.765625e-04 9.375000e-02
9.765625e-04 9.375000e-02
9.765625e-04 9.375000e-02
9.765625e-04 9.375000e-02
9.765625e-04 9.375000e-02
9.765625e-04 9.375000e-02
9.765625e-04 9.375000e-02
9.765625e-04 9.375000e-02
9.765625e-04 9.375000e-02
9.765625e-04 9.375000e-02
9.765625e-04 9.375000e-02
9.765625e-04 9.375000e-02
9.765625e-04 9.375000e-02
9.765625e-04 9.375000e-02
9.765625e-04 9.375000e-02
9.765625e-04 9.375000e-02
9.765625e-04 9.375000e-02
9.765625e-04 9.375000e-02
9.765625e-04 9.375000e-02
9.765625e-04 9.375000e-02
9.765625e-04 9.375000e-02
9.765625e-04 9.375000e-02
9.765625e-04 9.375000e-02
9.765625e-04 9.375000e-02
9.765625e-04 9.375000e-02
9.765625e-04 9.375000e-02
9.765625e-04 9.375000e-02
9.765625e-04 9.375000e-02
9.765625e-04 9.375000e-02
9.765625e-04 9.375000e-02
9.765625e-04 9.375000e-02
9.765625e-04 9.375000e-02
9.765625e-04 9.375000e-02
9.765625e-04 9.375000e-02
9.765625e-04 9.375000e-02
9.765625e-04 9.375000e-02
9.765625e-04 9.375000e-02
9.765625e-04 9.375000e-02
9.765625e-04 9.375000e-02
9.765625e-04 9.375000e-02
9.765625e-04 9.375000e-02
9.765625e-04 9.375000e-02
9.765625e-04 9.375000e-02
9.765625e-04 9.375000e-02
9.765625e-04 9.375000e-02
9.765625e-04 9.375000e-02
9.765625e-04 9.375000e-02
9.765625e-04 9.375000e-02
9.765625e-04 9.375000e-02
9.765625e-04 9.375000e-02
9.765625e-04 9.375000e-02
9.765625e-04 9.375000e-02
9.765625e-04 9.375000e-02
9.765625e-04 9.375000e-02
9.765625e-04 9.375000e-02
9.765625e-04 9.375000e-02
9.765625e-04 9.375000e-02
9.765625e-04 9.375000e-02
9.765625e-04 9.375000e-02
9.765625e-04 9.375000e-02
9.765625e-04 9.375000e-02
9.765625e-04 9.375000e-02
9.765625e-04 9.375000e-02
9.765625e-04 9.375000e-02
9.765625e-04 9.375000e-02
9.765625e-04 9.375000e-02
9.765625e-04 9.375000e-02
9.765625e-04 9.375000e-02
9.765625e-04 9.375000e-02
9.765625e-04 9.375000e-02
9.765625e-04 9.375000e-02
9.765625e-04 9.375000e-02
9.765625e-04 9.375000e-02
9.765625e-04 9.375000e-02
9.765625e-04 9.375000e-02
9.765625e-04 9.375000e-02
9.765625e-04 9.375000e-02
9.765625e-04 9.375000e-02
9.765625e-04 9.375000e-02
9.765625e-04 9.375000e-02
9.765625e-04 9.375000e-02
9.765625e-04 9.375000e-02
9.765625e-04 9.375000e-02
9.765625e-04 9.375000e-02
9.765625e-04 9.375000e-02
9.765625e-04 9.375000e-02
9.765625e-04 9.375000e-02
9.765625e-04 9.375000e-02
9.765625e-04 9.375000e-02
9.765625e-04 9.375000e-02
9.765625e-04 9.375000e-02
9.765625e-04 9.375000e-02
9.765625e-04 9.375000e-02
9.765625e-04 9.375000e-02
9.765625e-04 9.375000e-02
9.765625e-04 9.375000e-02
9.765625e-04 9.375000e-02
9.765625e-04 9.375000e-02
9.765625e-04 9.375000e-02
9.765625e-04 9.375000e-02
9.765625e-04 9.375000e-02
9.765625e-04 9.375000e-02
9.765625e-04 9.375000e-02
9.765625e-04 9.375000e-02
9.765625e-04 9.375000e-02
9.765625e-04 9.375000e-02
9.765625e-04 9.375000e-02
9.765625e-04 9.375000e-02
9.765625e-04 9.375000e-02
9.765625e-04 9.375000e-02
9.765625e-04 9.375000e-02
9.765625e-04 9.375000e-02
9.765625e-04 9.375000e-02
9.765625e-04 9.375000e-02
9.765625e-04 9.375000e-02
9.765625e-04 9.375000e-02
9.765625e-04 9.375000e-02
9.765625e-04 9.375000e-02
9.765625e-04 9.375000e-02
9.765625e-04 9.375000e-02
9.765625e-04 9.375000e-02
9.765625e-04 9.375000e-02
9.765625e-04 9.375000e-02
9.765625e-04 9.375000e-02
9.765625e-04 9.375000e-02
9.765625e-04 9.375000e-02
9.765625e-04 9.375000e-02
9.765625e-04 9.375000e-02
9.765625e-04 9.375000e-02
9.765625e-04 9.375000e-02
9.765625e-04 9.375000e-02
9.765625e-04 9.375000e-02
9.765625e-04 9.375000e-02
9.765625e-04 9.375000e-02
9.765625e-04 9.375000e-02
9.765625e-04 9.375000e-02
9.765625e-04 9.375000e-02
9.765625e-04 9.375000e-02
9.765625e-04 9.375000e-02
9.765625e-04 9.375000e-02
9.765625e-04 9.375000e-02
9.765625e-04 9.375000e-02
9.765625e-04 9.375000e-02
9.765625e-04 9.375000e-02
9.765625e-04 9.375000e-02
9.765625e-04 9.375000e-02
9.765625e-04 9.375000e-02
9.765625e-04 9.375000e-02
9.765625e-04 9.375000e-02
9.765625e-04 9.375000e-02
9.765625e-04 9.375000e-02
9.765625e-04 9.375000e-02
9.765625e-04 9.375000e-02
9.765625e-04 9.375000e-02
9.765625e-04 9.375000e-02
9.765625e-04 9.375000e-02
9.765625e-04 9.375000e-02
9.765625e-04 9.375000e-02
9.765625e-04 9.375000e-02
9.765625e-04 9.375000e-02
9.765625e-04 9.375000e-02
9.765625e-04 9.375000e-02
9.765625e-04 9.375000e-02
9.765625e-04 9.375000e-02
9.765625e-04 9.375000e-02
9.765625e-04 9.375000e-02
9.765625e-04 9.375000e-02
9.765625e-04 9.375000e-02
9.765625e-04 9.375000e-02
9.765625e-04 9.375000e-02
9.765625e-04 9.375000e-02
9.765625e-04 9.375000e-02
9.765625e-04 9.375000e-02
9.765625e-04 9.375000e-02
9.765625e-04 9.375000e-02
9.765625e-04 9.375000e-02
9.765625e-04 9.375000e-02
9.765625e-04 9.375000e-02
9.765625e-04 9.375000e-02
9.765625e-04 9.375000e-02
9.765625e-04 9.375000e-02
9.765625e-04 9.375000e-02
9.765625e-04 9.375000e-02
9.765625e-04 9.375000e-02
9.765625e-04 9.375000e-02
9.765625e-04 9.375000e-02
9.765625e-04 9.375000e-02
9.765625e-04 9.375000e-02
9.765625e-04 9.375000e-02
9.765625e-04 9.375000e-02
9.765625e-04 9.375000e-02
9.765625e-04 9.375000e-02
9.765625e-04 9.375000e-02
9.765625e-04 9.375000e-02
9.765625e-04 9.375000e-02
9.765625e-04 9.375000e-02
9.765625e-04 9.375000e-02
9.765625e-04 9.375000e-02
9.765625e-04 9.375000e-02
9.765625e-04 9.375000e-02
9.765625e-04 9.375000e-02
9.765625e-04 9.375000e-02
9.765625e-04 9.375000e-02
9.765625e-04 9.375000e-02
9.765625e-04 9.375000e-02
9.765625e-04 9.375000e-02
9.765625e-04 9.375000e-02
9.765625e-04 9.375000e-02
9.765625e-04 9.375000e-02
9.765625e-04 9.375000e-02
9.765625e-04 9.375000e-02
9.765625e-04 9.375000e-02
9.765625e-04 9.375000e-02
9.765625e-04 9.375000e-02
9.765625e-04 9.375000e-02
9.765625e-04 9.375000e-02
9.765625e-04 9.375000e-02
9.765625e-04 9.375000e-02
9.765625e-04 9.375000e-02
9.765625e-04 9.375000e-02
9.765625e-04 9.375000e-02
9.765625e-04 9.375000e-02
9.765625e-04 9.375000e-02
9.765625e-04 9.375000e-02
9.765625e-04 9.375000e-02
9.765625e-04 9.375000e-02
9.765625e-04 9.375000e-02
9.765625e-04 9.375000e-02
9.765625e-04 9.375000e-02
9.765625e-04 9.375000e-02
9.765625e-04 9.375000e-02
9.765625e-04 9.375000e-02
9.765625e-04 9.375000e-02
9.765625e-04 9.375000e-02
9.765625e-04 9.375000e-02
9.765625e-04 9.375000e-02
9.765625e-04 9.375000e-02
9.765625e-04 9.375000e-02
9.765625e-04 9.375000e-02
9.765625e-04 9.375000e-02
9.765625e-04 9.375000e-02
9.765625e-04 9.375000e-02
9.765625e-04 9.375000e-02
9.765625e-04 9.375000e-02
9.765625e-04 9.375000e-02
9.765625e-04 9.375000e-02
9.765625e-04 9.375000e-02
9.765625e-04 9.375000e-02
9.765625e-04 9.375000e-02
9.765625e-04 9.375000e-02
9.765625e-04 9.375000e-02
9.765625e-04 9.375000e-02
9.765625e-04 9.375000e-02
9.765625e-04 9.375000e-02
9.765625e-04 9.375000e-02
9.765625e-04 9.375000e-02
9.765625e-04 9.375000e-02
9.765625e-04 9.375000e-02
9.765625e-04 9.375000e-02
9.765625e-04 9.375000e-02
9.765625e-04 9.375000e-02
9.765625e-04 9.375000e-02
9.765625e-04 9.375000e-02
9.765625e-04 9.375000e-02
9.765625e-04 9.375000e-02
9.765625e-04 9.375000e-02
9.765625e-04 9.375000e-02
9.765625e-04 9.375000e-02
9.765625e-04 9.375000e-02
9.765625e-04 9.375000e-02
9.765625e-04 9.375000e-02
9.765625e-04 9.375000e-02
9.765625e-04 9.375000e-02
9.765625e-04 9.375000e-02
9.765625e-04 9.375000e-02
9.765625e-04 9.375000e-02
9.765625e-04 9.375000e-02
9.765625e-04 9.375000e-02
9.765625e-04 9.375000e-02
9.765625e-04 9.375000e-02
9.765625e-04 9.375000e-02
9.765625e-04 9.375000e-02
9.765625e-04 9.375000e-02
9.765625e-04 9.375000e-02
9.765625e-04 9.375000e-02
9.765625e-04 9.375000e-02
9.765625e-04 9.375000e-02
9.765625e-04 9.375000e-02
9.765625e-04 9.375000e-02
9.765625e-04 9.375000e-02
9.765625e-04 9.375000e-02
9.765625e-04 9.375000e-02
9.765625e-04 9.375000e-02
9.765625e-04 9.375000e-02
9.765625e-04 9.375000e-02
9.765625e-04 9.375000e-02
9.765625e-04 9.375000e-02
9.765625e-04 9.375000e-02
9.765625e-04 9.375000e-02
9.765625e-04 9.375000e-02
9.765625e-04 9.375000e-02
9.765625e-04 9.375000e-02
9.765625e-04 9.375000e-02
9.765625e-04 9.375000e-02
9.765625e-04 9.375000e-02
9.765625e-04 9.375000e-02
9.765625e-04 9.375000e-02
9.765625e-04 9.375000e-02
9.765625e-04 9.375000e-02
9.765625e-04 9.375000e-02
9.765625e-04 9.375000e-02
9.765625e-04 9.375000e-02
9.765625e-04 9.375000e-02
9.765625e-04 9.375000e-02
9.765625e-04 9.375000e-02
9.765625e-04 9.375000e-02
9.765625e-04 9.375000e-02
9.765625e-04 9.375000e-02
9.765625e-04 9.375000e-02
9.765625e-04 9.375000e-02
9.765625e-04 9.375000e-02
9.765625e-04 9.375000e-02
9.765625e-04 9.375000e-02
9.765625e-04 9.375000e-02
9.765625e-04 9.375000e-02
9.765625e-04 9.375000e-02
9.765625e-04 9.375000e-02
9.765625e-04 9.375000e-02
9.765625e-04 9.375000e-02
9.765625e-04 9.375000e-02
9.765625e-04 9.375000e-02
9.765625e-04 9.375000e-02
9.765625e-04 9.375000e-02
9.765625e-04 9.375000e-02
9.765625e-04 9.375000e-02
9.765625e-04 9.375000e-02
9.765625e-04 9.375000e-02
9.765625e-04 9.375000e-02
9.765625e-04 9.375000e-02
9.765625e-04 9.375000e-02
9.765625e-04 9.375000e-02
9.765625e-04 9.375000e-02
9.765625e-04 9.375000e-02
9.765625e-04 9.375000e-02
9.765625e-04 9.375000e-02
9.765625e-04 9.375000e-02
9.765625e-04 9.375000e-02
9.765625e-04 9.375000e-02
9.765625e-04 9.375000e-02
9.765625e-04 9.375000e-02
9.765625e-04 9.375000e-02
9.765625e-04 9.375000e-02
9.765625e-04 9.375000e-02
9.765625e-04 9.375000e-02
9.765625e-04 9.375000e-02
9.765625e-04 9.375000e-02
9.765625e-04 9.375000e-02
9.765625e-04 9.375000e-02
9.765625e-04 9.375000e-02
9.765625e-04 9.375000e-02
9.765625e-04 9.375000e-02
9.765625e-04 9.375000e-02
9.765625e-04 9.375000e-02
9.765625e-04 9.375000e-02
9.765625e-04 9.375000e-02
9.765625e-04 9.375000e-02
9.765625e-04 9.375000e-02
9.765625e-04 9.375000e-02
9.765625e-04 9.375000e-02
9.765625e-04 9.375000e-02
9.765625e-04 9.375000e-02
9.765625e-04 9.375000e-02
9.765625e-04 9.375000e-02
9.765625e-04 9.375000e-02
9.765625e-04 9.375000e-02
9.765625e-04 9.375000e-02
9.765625e-04 9.375000e-02
9.765625e-04 9.375000e-02
9.765625e-04 9.375000e-02
9.765625e-04 9.375000e-02
9.765625e-04 9.375000e-02
9.765625e-04 9.375000e-02
9.765625e-04 9.375000e-02
9.765625e-04 9.375000e-02
9.765625e-04 9.375000e-02
9.765625e-04 9.375000e-02
9.765625e-04 9.375000e-02
9.765625e-04 9.375000e-02
9.765625e-04 9.375000e-02
9.765625e-04 9.375000e-02
9.765625e-04 9.375000e-02
9.765625e-04 9.375000e-02
9.765625e-04 9.375000e-02
9.765625e-04 9.375000e-02
9.765625e-04 9.375000e-02
9.765625e-04 9.375000e-02
9.765625e-04 9.375000e-02
9.765625e-04 9.375000e-02
9.765625e-04 9.375000e-02
9.765625e-04 9.375000e-02
9.765625e-04 9.375000e-02
9.765625e-04 9.375000e-02
9.765625e-04 9.375000e-02
9.765625e-04 9.375000e-02
9.765625e-04 9.375000e-02
9.765625e-04 9.375000e-02
9.765625e-04 9.375000e-02
9.765625e-04 9.375000e-02
9.765625e-04 9.375000e-02
9.765625e-04 9.375000e-02
9.765625e-04 9.375000e-02
9.765625e-04 9.375000e-02
9.765625e-04 9.375000e-02
9.765625e-04 9.375000e-02
9.765625e-04 9.375000e-02
9.765625e-04 9.375000e-02
9.765625e-04 9.375000e-02
9.765625e-04 9.375000e-02
9.765625e-04 9.375000e-02
