6.903516e+01 6.302083e-01 -4.983679e-02 5.368955e-01 -9.529877e-01 9.633789e-01
6.481598e+01 6.354167e-01 -1.358140e-01 7.921791e-01 -2.958069e+00 3.119659e+00
6.313525e+01 3.750000e-01 -2.135263e-01 1.324025e+00 -6.172272e+00 4.757187e+00
6.076923e+01 3.697917e-01 -3.076459e-01 1.985716e+00 -1.054556e+01 6.105896e+00
5.981161e+01 3.697917e-01 -3.993498e-01 2.632483e+00 -1.451218e+01 8.567429e+00
5.970099e+01 3.697917e-01 -4.798123e-01 3.211044e+00 -1.798039e+01 1.063696e+01
5.929721e+01 3.697917e-01 -5.502257e-01 3.718675e+00 -2.094359e+01 1.235507e+01
5.907465e+01 3.697917e-01 -6.118148e-01 4.158842e+00 -2.346104e+01 1.378239e+01
5.770490e+01 3.697917e-01 -6.646198e-01 4.536239e+00 -2.559938e+01 1.496843e+01
5.835840e+01 3.697917e-01 -7.099996e-01 4.861333e+00 -2.740540e+01 1.595193e+01
5.780646e+01 3.697917e-01 -7.487644e-01 5.139426e+00 -2.893738e+01 1.677130e+01
5.787903e+01 3.697917e-01 -7.819535e-01 5.378041e+00 -3.023639e+01 1.745833e+01
5.790558e+01 3.697917e-01 -8.105129e-01 5.583050e+00 -3.133553e+01 1.803296e+01
5.784142e+01 3.697917e-01 -8.350637e-01 5.758036e+00 -3.226479e+01 1.850954e+01
5.846574e+01 3.697917e-01 -8.558113e-01 5.907859e+00 -3.305080e+01 1.890430e+01
5.886737e+01 3.697917e-01 -8.738958e-01 6.035853e+00 -3.371761e+01 1.923053e+01
5.880350e+01 3.697917e-01 -8.893465e-01 6.145879e+00 -3.428197e+01 1.949892e+01
5.866077e+01 3.697917e-01 -9.028161e-01 6.239546e+00 -3.475664e+01 1.972029e+01
5.816692e+01 3.697917e-01 -9.143923e-01 6.320116e+00 -3.516217e+01 1.990286e+01
5.787030e+01 3.697917e-01 -9.242793e-01 6.389298e+00 -3.550917e+01 2.005185e+01
5.732530e+01 3.697917e-01 -9.327381e-01 6.450467e+00 -3.580609e+01 2.017422e+01
5.726610e+01 3.697917e-01 -9.399970e-01 6.503807e+00 -3.606055e+01 2.027477e+01
5.760371e+01 3.697917e-01 -9.462244e-01 6.551197e+00 -3.627997e+01 2.035835e+01
5.771552e+01 3.697917e-01 -9.514145e-01 6.592723e+00 -3.646790e+01 2.042668e+01
5.781287e+01 3.697917e-01 -9.555147e-01 6.629998e+00 -3.663095e+01 2.048103e+01
5.750220e+01 3.697917e-01 -9.591267e-01 6.663530e+00 -3.677303e+01 2.052765e+01
5.756177e+01 3.697917e-01 -9.621807e-01 6.694392e+00 -3.689946e+01 2.056602e+01
5.721722e+01 3.697917e-01 -9.645921e-01 6.722166e+00 -3.700967e+01 2.059587e+01
5.715649e+01 3.697917e-01 -9.666772e-01 6.747911e+00 -3.711038e+01 2.061694e+01
5.716467e+01 3.697917e-01 -9.681716e-01 6.771638e+00 -3.720291e+01 2.063593e+01
5.699707e+01 3.697917e-01 -9.691952e-01 6.794190e+00 -3.728755e+01 2.065527e+01
5.685400e+01 3.697917e-01 -9.700025e-01 6.815392e+00 -3.736346e+01 2.067487e+01
5.637164e+01 3.697917e-01 -9.702250e-01 6.835565e+00 -3.743332e+01 2.069482e+01
5.615497e+01 3.697917e-01 -9.702802e-01 6.854993e+00 -3.750403e+01 2.071503e+01
5.632141e+01 3.697917e-01 -9.699051e-01 6.874303e+00 -3.757602e+01 2.073560e+01
5.602942e+01 3.697917e-01 -9.695648e-01 6.893121e+00 -3.764886e+01 2.075641e+01
5.577246e+01 3.697917e-01 -9.688983e-01 6.911153e+00 -3.772256e+01 2.077747e+01
5.656024e+01 3.697917e-01 -9.676387e-01 6.928678e+00 -3.779755e+01 2.079889e+01
5.654681e+01 3.697917e-01 -9.661908e-01 6.945143e+00 -3.787338e+01 2.082056e+01
5.649017e+01 3.697917e-01 -9.642906e-01 6.961042e+00 -3.795007e+01 2.084247e+01
5.673077e+01 3.697917e-01 -9.623792e-01 6.976824e+00 -3.802762e+01 2.086462e+01
5.659296e+01 3.697917e-01 -9.599622e-01 6.992462e+00 -3.810341e+01 2.088708e+01
5.675879e+01 3.697917e-01 -9.574956e-01 7.007723e+00 -3.817740e+01 2.090985e+01
5.676399e+01 3.697917e-01 -9.545065e-01 7.022819e+00 -3.824930e+01 2.093286e+01
5.690738e+01 3.697917e-01 -9.509244e-01 7.037204e+00 -3.831906e+01 2.095612e+01
5.652264e+01 3.697917e-01 -9.473073e-01 7.050608e+00 -3.838368e+01 2.097961e+01
5.617401e+01 3.697917e-01 -9.430702e-01 7.063426e+00 -3.844897e+01 2.100336e+01
5.608833e+01 3.697917e-01 -9.385176e-01 7.075712e+00 -3.851494e+01 2.102734e+01
5.604401e+01 3.697917e-01 -9.329656e-01 7.087259e+00 -3.858157e+01 2.105157e+01
5.611700e+01 3.697917e-01 -9.267614e-01 7.097737e+00 -3.864888e+01 2.107605e+01
5.591841e+01 3.697917e-01 -9.199349e-01 7.107959e+00 -3.871686e+01 2.110077e+01
5.576424e+01 3.697917e-01 -9.122195e-01 7.117681e+00 -3.878551e+01 2.112573e+01
5.618289e+01 3.697917e-01 -9.028459e-01 7.126423e+00 -3.885167e+01 2.115094e+01
5.584164e+01 3.697917e-01 -8.920732e-01 7.134564e+00 -3.891530e+01 2.117639e+01
5.614005e+01 3.697917e-01 -8.795550e-01 7.141874e+00 -3.897939e+01 2.120203e+01
5.616154e+01 3.697917e-01 -8.643351e-01 7.147787e+00 -3.904393e+01 2.122784e+01
5.595950e+01 3.697917e-01 -8.463152e-01 7.152578e+00 -3.910909e+01 2.125391e+01
5.556465e+01 3.697917e-01 -8.239027e-01 7.156672e+00 -3.917813e+01 2.128021e+01
5.547685e+01 3.697917e-01 -7.966228e-01 7.159984e+00 -3.924118e+01 2.130676e+01
5.536098e+01 3.697917e-01 -7.592211e-01 7.162658e+00 -3.930147e+01 2.133356e+01
5.534625e+01 3.697917e-01 -7.187930e-01 7.169933e+00 -3.936203e+01 2.136047e+01
5.522006e+01 3.697917e-01 -6.772261e-01 7.184040e+00 -3.942314e+01 2.138763e+01
5.490727e+01 3.697917e-01 -6.700611e-01 7.212601e+00 -3.948480e+01 2.141504e+01
5.455806e+01 3.697917e-01 -6.854749e-01 7.255339e+00 -3.954688e+01 2.144263e+01
5.459290e+01 3.697917e-01 -7.192760e-01 7.313422e+00 -3.960242e+01 2.147040e+01
5.459512e+01 3.697917e-01 -7.611746e-01 7.385111e+00 -3.965494e+01 2.149841e+01
5.445401e+01 3.697917e-01 -7.748948e-01 7.466414e+00 -3.970439e+01 2.152667e+01
5.395636e+01 3.697917e-01 -7.637344e-01 7.558242e+00 -3.975406e+01 2.155505e+01
5.393904e+01 3.697917e-01 -7.764009e-01 7.661521e+00 -3.980415e+01 2.158368e+01
5.387094e+01 3.697917e-01 -7.789033e-01 7.763633e+00 -3.984737e+01 2.161249e+01
5.381891e+01 3.697917e-01 -8.310285e-01 7.868423e+00 -3.989085e+01 2.164148e+01
5.385352e+01 3.697917e-01 -8.483394e-01 7.975225e+00 -3.993097e+01 2.167065e+01
5.370685e+01 3.697917e-01 -8.152200e-01 8.077849e+00 -3.996767e+01 2.170001e+01
5.343379e+01 3.697917e-01 -8.395211e-01 8.180754e+00 -4.000096e+01 2.172961e+01
5.287173e+01 3.697917e-01 -9.159816e-01 8.292083e+00 -4.113849e+01 2.175934e+01
5.221754e+01 3.697917e-01 -9.115746e-01 8.392158e+00 -4.298425e+01 2.178931e+01
5.200374e+01 3.697917e-01 -8.572549e-01 8.488326e+00 -4.425197e+01 2.181940e+01
5.184862e+01 3.697917e-01 -8.782190e-01 8.584765e+00 -4.661792e+01 2.184973e+01
5.160248e+01 3.697917e-01 -9.353988e-01 8.683103e+00 -4.916798e+01 2.188019e+01
5.147092e+01 3.697917e-01 -9.527054e-01 8.774495e+00 -5.102164e+01 2.191083e+01
5.095792e+01 3.697917e-01 -8.963937e-01 8.854122e+00 -5.213222e+01 2.194165e+01
5.055717e+01 3.697917e-01 -9.316049e-01 8.940326e+00 -5.434908e+01 2.197266e+01
5.043562e+01 3.697917e-01 -9.642220e-01 9.021870e+00 -5.605206e+01 2.200385e+01
5.063205e+01 3.697917e-01 -9.510475e-01 9.090814e+00 -5.693283e+01 2.203516e+01
5.055533e+01 3.697917e-01 -9.694707e-01 9.162961e+00 -5.842711e+01 2.206671e+01
5.056432e+01 3.697917e-01 -9.672640e-01 9.219483e+00 -5.919189e+01 2.209839e+01
5.012520e+01 3.489583e-01 -9.860400e-01 9.281203e+00 -6.045833e+01 2.213025e+01
4.970407e+01 3.489583e-01 -9.408930e-01 9.358592e+00 -6.147739e+01 2.216229e+01
4.986684e+01 3.437500e-01 -9.983682e-01 9.589196e+00 -6.523592e+01 2.219446e+01
4.975102e+01 3.333333e-01 -1.033234e+00 9.791444e+00 -6.816341e+01 2.222681e+01
4.976814e+01 3.385417e-01 -1.021469e+00 9.918942e+00 -7.031961e+01 2.225934e+01
4.964110e+01 3.437500e-01 -1.034464e+00 1.007826e+01 -7.306351e+01 2.229205e+01
4.927284e+01 3.281250e-01 -1.054308e+00 1.018245e+01 -7.483643e+01 2.232495e+01
4.905948e+01 3.281250e-01 -1.061506e+00 1.025940e+01 -7.629305e+01 2.235797e+01
4.881290e+01 3.125000e-01 -1.063997e+00 1.028619e+01 -7.687341e+01 2.239111e+01
4.896124e+01 3.177083e-01 -1.088440e+00 1.033778e+01 -7.729829e+01 2.242444e+01
4.875493e+01 3.072917e-01 -1.064749e+00 1.028561e+01 -7.670071e+01 2.245795e+01
4.870039e+01 3.020833e-01 -1.062179e+00 1.027423e+01 -7.619717e+01 2.249158e+01
4.906895e+01 2.968750e-01 -1.060027e+00 1.024942e+01 -7.549709e+01 2.252539e+01
4.886990e+01 2.968750e-01 -1.030664e+00 1.017886e+01 -7.386630e+01 2.255939e+01
4.894940e+01 2.916667e-01 -1.061297e+00 1.022239e+01 -7.364069e+01 2.259351e+01
4.897549e+01 2.968750e-01 -1.058389e+00 1.020019e+01 -7.298274e+01 2.262775e+01
4.894572e+01 3.072917e-01 -9.912706e-01 1.009710e+01 -7.152646e+01 2.266217e+01
4.873268e+01 3.020833e-01 -1.018350e+00 1.016351e+01 -7.331844e+01 2.269678e+01
4.857616e+01 3.072917e-01 -1.070100e+00 1.028218e+01 -7.463438e+01 2.273151e+01
4.814754e+01 2.812500e-01 -1.063183e+00 1.034590e+01 -7.532625e+01 2.276636e+01
4.838181e+01 3.020833e-01 -1.018978e+00 1.032217e+01 -7.567220e+01 2.280139e+01
4.833485e+01 2.916667e-01 -1.058829e+00 1.052203e+01 -7.854616e+01 2.283655e+01
4.808836e+01 2.812500e-01 -1.074045e+00 1.062090e+01 -7.979245e+01 2.287189e+01
4.797958e+01 2.916667e-01 -1.088273e+00 1.070020e+01 -8.044786e+01 2.290735e+01
4.767845e+01 2.916667e-01 -1.074065e+00 1.068233e+01 -8.072760e+01 2.294293e+01
4.718068e+01 2.864583e-01 -1.062267e+00 1.064788e+01 -8.040253e+01 2.297870e+01
4.737363e+01 2.760417e-01 -1.048690e+00 1.057004e+01 -7.888838e+01 2.301459e+01
4.741663e+01 2.916667e-01 -1.048457e+00 1.053903e+01 -7.781004e+01 2.305066e+01
4.738332e+01 3.072917e-01 -1.045439e+00 1.051424e+01 -7.704224e+01 2.308685e+01
4.730463e+01 2.968750e-01 -1.058250e+00 1.055725e+01 -7.734586e+01 2.312317e+01
4.742107e+01 2.916667e-01 -1.042995e+00 1.047960e+01 -7.603632e+01 2.315961e+01
4.666350e+01 2.708333e-01 -1.022318e+00 1.039982e+01 -7.477464e+01 2.319623e+01
4.675345e+01 2.760417e-01 -1.034947e+00 1.047442e+01 -7.616626e+01 2.323297e+01
4.691177e+01 2.812500e-01 -1.061554e+00 1.058810e+01 -7.742886e+01 2.326984e+01
4.700644e+01 2.916667e-01 -1.060190e+00 1.059721e+01 -7.749879e+01 2.330688e+01
4.634262e+01 2.760417e-01 -1.054554e+00 1.059224e+01 -7.771681e+01 2.334406e+01
4.639478e+01 2.708333e-01 -1.032608e+00 1.054077e+01 -7.746565e+01 2.338135e+01
4.610477e+01 2.760417e-01 -1.046089e+00 1.058950e+01 -7.813934e+01 2.341876e+01
4.594910e+01 2.760417e-01 -1.067978e+00 1.064797e+01 -7.827989e+01 2.345630e+01
4.615668e+01 2.812500e-01 -1.074734e+00 1.065334e+01 -7.836476e+01 2.349402e+01
4.623721e+01 2.760417e-01 -1.047830e+00 1.053230e+01 -7.680562e+01 2.353186e+01
4.623813e+01 2.760417e-01 -1.051043e+00 1.050009e+01 -7.563065e+01 2.356982e+01
4.589635e+01 2.708333e-01 -1.068362e+00 1.054585e+01 -7.629713e+01 2.360791e+01
4.553406e+01 2.708333e-01 -1.090209e+00 1.062500e+01 -7.728096e+01 2.365089e+01
4.542062e+01 2.760417e-01 -1.093782e+00 1.063914e+01 -7.734325e+01 2.369402e+01
4.510284e+01 2.604167e-01 -1.081770e+00 1.057763e+01 -7.670456e+01 2.373734e+01
4.503081e+01 2.604167e-01 -1.084556e+00 1.059907e+01 -7.718848e+01 2.380011e+01
4.482640e+01 2.708333e-01 -1.102149e+00 1.068838e+01 -7.823425e+01 2.387277e+01
4.450845e+01 2.604167e-01 -1.093980e+00 1.070236e+01 -7.841379e+01 2.396510e+01
4.452321e+01 2.656250e-01 -1.095593e+00 1.072922e+01 -7.850140e+01 2.406747e+01
4.489342e+01 2.604167e-01 -1.065319e+00 1.065065e+01 -7.734421e+01 2.417995e+01
4.460573e+01 2.656250e-01 -1.078220e+00 1.070708e+01 -7.747168e+01 2.429277e+01
4.468814e+01 2.604167e-01 -1.073044e+00 1.070648e+01 -7.732428e+01 2.439612e+01
4.434128e+01 2.500000e-01 -1.045110e+00 1.061251e+01 -7.586546e+01 2.449979e+01
4.409081e+01 2.447917e-01 -1.011032e+00 1.056299e+01 -7.591251e+01 2.461366e+01
4.412573e+01 2.500000e-01 -1.027882e+00 1.073469e+01 -7.918445e+01 2.471300e+01
4.398718e+01 2.500000e-01 -1.045706e+00 1.090693e+01 -8.195769e+01 2.480765e+01
4.385982e+01 2.500000e-01 -1.043958e+00 1.094487e+01 -8.216805e+01 2.489259e+01
4.383203e+01 2.604167e-01 -1.041254e+00 1.095472e+01 -8.218806e+01 2.496777e+01
4.386139e+01 2.604167e-01 -1.024177e+00 1.088808e+01 -8.081761e+01 2.502811e+01
4.392670e+01 2.604167e-01 -1.013911e+00 1.083059e+01 -7.950340e+01 2.507854e+01
4.370451e+01 2.552083e-01 -1.010029e+00 1.084052e+01 -7.944785e+01 2.512405e+01
4.356749e+01 2.604167e-01 -9.997075e-01 1.081229e+01 -7.862720e+01 2.516972e+01
4.310867e+01 2.552083e-01 -9.887729e-01 1.077546e+01 -7.771321e+01 2.521553e+01
4.329671e+01 2.604167e-01 -9.881731e-01 1.080139e+01 -7.816350e+01 2.526147e+01
4.323141e+01 2.604167e-01 -9.886781e-01 1.083630e+01 -7.859985e+01 2.530756e+01
4.295079e+01 2.604167e-01 -9.960919e-01 1.091364e+01 -7.959959e+01 2.545398e+01
4.272186e+01 2.604167e-01 -9.867594e-01 1.090740e+01 -7.928078e+01 2.585507e+01
4.254710e+01 2.552083e-01 -9.712826e-01 1.088722e+01 -7.873500e+01 2.627798e+01
4.285532e+01 2.604167e-01 -9.607922e-01 1.085418e+01 -7.781053e+01 2.660387e+01
4.280176e+01 2.552083e-01 -9.488411e-01 1.082281e+01 -7.678445e+01 2.698778e+01
4.235481e+01 2.552083e-01 -9.453896e-01 1.085659e+01 -7.714368e+01 2.734160e+01
4.258952e+01 2.552083e-01 -9.405268e-01 1.087492e+01 -7.737329e+01 2.771733e+01
4.245906e+01 2.447917e-01 -9.279678e-01 1.081707e+01 -7.588255e+01 2.804182e+01
4.239641e+01 2.447917e-01 -9.296946e-01 1.086584e+01 -7.656862e+01 2.840868e+01
4.221002e+01 2.447917e-01 -9.263645e-01 1.089982e+01 -7.708435e+01 2.877660e+01
4.210553e+01 2.447917e-01 -9.227583e-01 1.093157e+01 -7.746503e+01 2.914558e+01
4.199590e+01 2.447917e-01 -9.217291e-01 1.099831e+01 -7.838461e+01 2.942589e+01
4.188933e+01 2.447917e-01 -9.137995e-01 1.100568e+01 -7.814662e+01 2.974406e+01
4.197299e+01 2.447917e-01 -9.035222e-01 1.101744e+01 -7.808821e+01 3.013170e+01
4.178896e+01 2.395833e-01 -8.938865e-01 1.101405e+01 -7.780084e+01 3.050980e+01
4.146829e+01 2.343750e-01 -8.838801e-01 1.097052e+01 -7.661581e+01 3.086227e+01
4.127342e+01 2.291667e-01 -8.727507e-01 1.095082e+01 -7.618199e+01 3.121040e+01
4.118277e+01 2.239583e-01 -8.739035e-01 1.103174e+01 -7.752806e+01 3.159122e+01
4.081673e+01 2.291667e-01 -8.790970e-01 1.116377e+01 -7.951532e+01 3.197308e+01
4.096811e+01 2.291667e-01 -8.748604e-01 1.115363e+01 -7.943452e+01 3.231841e+01
4.128056e+01 2.343750e-01 -8.508091e-01 1.106140e+01 -7.742517e+01 3.278355e+01
4.147334e+01 2.343750e-01 -8.335563e-01 1.101156e+01 -7.587057e+01 3.322774e+01
4.115025e+01 2.291667e-01 -8.389542e-01 1.111992e+01 -7.754506e+01 3.365688e+01
4.097458e+01 2.291667e-01 -8.245911e-01 1.112035e+01 -7.718588e+01 3.412535e+01
4.109329e+01 2.343750e-01 -8.150465e-01 1.114153e+01 -7.730063e+01 3.456783e+01
4.114856e+01 2.343750e-01 -8.072050e-01 1.116098e+01 -7.743173e+01 3.502184e+01
4.069139e+01 2.187500e-01 -8.024881e-01 1.114723e+01 -7.686752e+01 3.546620e+01
4.077165e+01 2.239583e-01 -7.965975e-01 1.118434e+01 -7.736739e+01 3.596608e+01
4.073991e+01 2.239583e-01 -7.768529e-01 1.114169e+01 -7.614006e+01 3.645633e+01
4.071480e+01 2.187500e-01 -7.669092e-01 1.115101e+01 -7.588663e+01 3.693137e+01
4.066574e+01 2.187500e-01 -7.464599e-01 1.115843e+01 -7.599187e+01 3.746310e+01
4.069208e+01 2.239583e-01 -7.449889e-01 1.122720e+01 -7.701213e+01 3.793462e+01
4.063132e+01 2.187500e-01 -7.477739e-01 1.127608e+01 -7.747870e+01 3.844077e+01
4.078909e+01 2.187500e-01 -7.335220e-01 1.124042e+01 -7.654305e+01 3.896429e+01
4.085397e+01 2.135417e-01 -7.165263e-01 1.122649e+01 -7.588466e+01 3.949484e+01
4.082156e+01 2.187500e-01 -7.085977e-01 1.129018e+01 -7.680321e+01 4.009964e+01
4.086505e+01 2.187500e-01 -7.031679e-01 1.133826e+01 -7.754239e+01 4.066040e+01
4.073628e+01 2.187500e-01 -6.887711e-01 1.136331e+01 -7.800844e+01 4.121709e+01
4.076691e+01 2.187500e-01 -6.625341e-01 1.132099e+01 -7.699498e+01 4.180829e+01
4.065726e+01 2.083333e-01 -6.406201e-01 1.123450e+01 -7.466562e+01 4.240109e+01
4.097183e+01 2.083333e-01 -6.323194e-01 1.124151e+01 -7.453636e+01 4.297852e+01
4.084740e+01 2.135417e-01 -6.295624e-01 1.131584e+01 -7.596541e+01 4.353412e+01
4.036505e+01 2.135417e-01 -6.308269e-01 1.142584e+01 -7.780661e+01 4.414801e+01
4.013492e+01 2.187500e-01 -6.183786e-01 1.152998e+01 -7.924084e+01 4.477408e+01
4.077913e+01 2.135417e-01 -6.008437e-01 1.149088e+01 -7.831636e+01 4.536188e+01
4.099969e+01 2.187500e-01 -5.800742e-01 1.147712e+01 -7.778543e+01 4.596841e+01
4.065601e+01 2.135417e-01 -5.622776e-01 1.146715e+01 -7.726474e+01 4.659293e+01
4.070317e+01 2.135417e-01 -5.403173e-01 1.143609e+01 -7.624353e+01 4.718469e+01
4.062108e+01 2.135417e-01 -5.233779e-01 1.142967e+01 -7.570280e+01 4.778871e+01
4.038100e+01 2.083333e-01 -4.965477e-01 1.141702e+01 -7.515540e+01 4.841164e+01
4.018407e+01 2.083333e-01 -4.861216e-01 1.146061e+01 -7.574443e+01 4.901811e+01
4.060117e+01 2.135417e-01 -4.647562e-01 1.146883e+01 -7.578094e+01 4.964934e+01
4.045213e+01 2.135417e-01 -4.652569e-01 1.158668e+01 -7.771175e+01 5.033932e+01
4.050339e+01 2.135417e-01 -4.633801e-01 1.166540e+01 -7.870586e+01 5.100787e+01
4.012724e+01 2.083333e-01 -4.513596e-01 1.170009e+01 -7.916512e+01 5.167143e+01
4.000452e+01 2.083333e-01 -4.320196e-01 1.163783e+01 -7.764381e+01 5.229013e+01
4.006915e+01 2.083333e-01 -4.197084e-01 1.161081e+01 -7.658606e+01 5.292714e+01
3.988232e+01 2.135417e-01 -4.074853e-01 1.163458e+01 -7.670375e+01 5.357166e+01
3.986456e+01 2.083333e-01 -3.758297e-01 1.163394e+01 -7.646352e+01 5.422293e+01
3.987151e+01 2.031250e-01 -3.544778e-01 1.161921e+01 -7.567656e+01 5.488179e+01
4.001685e+01 2.031250e-01 -3.407889e-01 1.160924e+01 -7.504636e+01 5.552968e+01
3.974866e+01 2.031250e-01 -3.452651e-01 1.165826e+01 -7.589668e+01 5.616153e+01
3.985304e+01 2.083333e-01 -3.611869e-01 1.180030e+01 -7.832709e+01 5.678833e+01
3.969655e+01 2.083333e-01 -3.572908e-01 1.193090e+01 -8.007356e+01 5.746915e+01
3.949356e+01 2.083333e-01 -3.278020e-01 1.198582e+01 -8.054247e+01 5.817546e+01
4.002554e+01 2.083333e-01 -3.100663e-01 1.197636e+01 -7.978751e+01 5.884195e+01
3.982764e+01 2.031250e-01 -3.040265e-01 1.192617e+01 -7.802011e+01 5.945564e+01
4.011836e+01 2.031250e-01 -3.011484e-01 1.193578e+01 -7.723856e+01 6.008806e+01
3.935866e+01 1.979167e-01 -2.905921e-01 1.193654e+01 -7.633058e+01 6.068620e+01
3.898029e+01 1.927083e-01 -2.623414e-01 1.193493e+01 -7.582932e+01 6.133905e+01
3.883899e+01 1.979167e-01 -2.472596e-01 1.207657e+01 -7.796410e+01 6.204663e+01
3.916197e+01 2.031250e-01 -2.467833e-01 1.209276e+01 -7.727274e+01 6.268991e+01
3.989098e+01 2.083333e-01 -2.741834e-01 1.219509e+01 -7.808037e+01 6.332878e+01
3.995410e+01 2.083333e-01 -2.993184e-01 1.225819e+01 -7.818304e+01 6.392027e+01
3.969411e+01 2.031250e-01 -2.859012e-01 1.229907e+01 -7.815887e+01 6.463326e+01
3.918715e+01 1.927083e-01 -2.769197e-01 1.233335e+01 -7.805589e+01 6.527536e+01
3.867133e+01 1.927083e-01 -2.384939e-01 1.235233e+01 -7.787416e+01 6.599706e+01
3.872047e+01 1.979167e-01 -2.261546e-01 1.239691e+01 -7.820209e+01 6.661650e+01
3.883781e+01 1.979167e-01 -2.384818e-01 1.241264e+01 -7.708337e+01 6.724359e+01
3.929266e+01 2.031250e-01 -2.492670e-01 1.247084e+01 -7.648065e+01 6.796892e+01
3.913956e+01 2.031250e-01 -2.517899e-01 1.255177e+01 -7.726187e+01 6.865860e+01
3.913588e+01 1.979167e-01 -2.563945e-01 1.264312e+01 -7.846725e+01 6.932553e+01
3.863086e+01 1.927083e-01 -2.611073e-01 1.273835e+01 -7.940471e+01 6.998099e+01
3.852916e+01 1.927083e-01 -2.632744e-01 1.281422e+01 -7.990768e+01 7.056372e+01
3.876773e+01 1.979167e-01 -2.491260e-01 1.282340e+01 -7.940353e+01 7.122783e+01
3.864883e+01 2.031250e-01 -2.534592e-01 1.282377e+01 -7.829054e+01 7.184357e+01
3.870355e+01 2.031250e-01 -2.346883e-01 1.283815e+01 -7.753848e+01 7.254630e+01
3.864006e+01 2.031250e-01 -2.169413e-01 1.289199e+01 -7.788509e+01 7.321370e+01
3.854631e+01 1.979167e-01 -2.311471e-01 1.295080e+01 -7.816948e+01 7.382622e+01
3.875639e+01 2.031250e-01 -2.366983e-01 1.297238e+01 -7.769867e+01 7.440236e+01
3.888748e+01 1.979167e-01 -2.157960e-01 1.298278e+01 -7.700317e+01 7.507927e+01
3.866936e+01 1.979167e-01 -1.945024e-01 1.309702e+01 -7.859398e+01 7.581914e+01
3.855396e+01 1.979167e-01 -1.854584e-01 1.314784e+01 -7.857530e+01 7.646658e+01
3.868265e+01 1.979167e-01 -1.968269e-01 1.323080e+01 -7.932419e+01 7.704074e+01
3.915413e+01 2.031250e-01 -2.101811e-01 1.324791e+01 -7.871884e+01 7.760942e+01
3.889198e+01 1.979167e-01 -1.997209e-01 1.326657e+01 -7.789931e+01 7.829758e+01
3.898901e+01 1.979167e-01 -1.779718e-01 1.331831e+01 -7.797548e+01 7.898741e+01
3.913338e+01 2.031250e-01 -1.789756e-01 1.334437e+01 -7.749974e+01 7.959023e+01
3.909328e+01 1.979167e-01 -1.805635e-01 1.340426e+01 -7.804037e+01 8.019374e+01
3.865663e+01 1.979167e-01 -1.701898e-01 1.349889e+01 -7.927551e+01 8.085542e+01
3.877644e+01 2.031250e-01 -1.689080e-01 1.360301e+01 -8.047914e+01 8.141629e+01
3.918884e+01 2.083333e-01 -1.830210e-01 1.363757e+01 -8.014433e+01 8.197220e+01
3.935164e+01 2.031250e-01 -1.788306e-01 1.367289e+01 -7.995482e+01 8.257942e+01
3.921188e+01 2.083333e-01 -1.511903e-01 1.366698e+01 -7.852373e+01 8.323798e+01
3.877042e+01 2.031250e-01 -1.497542e-01 1.371373e+01 -7.846091e+01 8.381561e+01
3.862766e+01 1.927083e-01 -1.519639e-01 1.375006e+01 -7.823900e+01 8.434314e+01
3.871458e+01 1.979167e-01 -1.480087e-01 1.381047e+01 -7.854442e+01 8.493489e+01
3.883461e+01 1.979167e-01 -1.578122e-01 1.389563e+01 -7.929065e+01 8.547066e+01
3.910266e+01 2.031250e-01 -1.457391e-01 1.390042e+01 -7.812347e+01 8.604469e+01
3.919051e+01 1.979167e-01 -1.496352e-01 1.394865e+01 -7.830247e+01 8.654338e+01
3.929887e+01 2.031250e-01 -1.512091e-01 1.399766e+01 -7.856001e+01 8.704269e+01
3.883315e+01 1.979167e-01 -1.581490e-01 1.412116e+01 -8.046976e+01 8.759384e+01
3.864413e+01 2.031250e-01 -1.651375e-01 1.424925e+01 -8.230696e+01 8.808849e+01
3.882133e+01 2.031250e-01 -1.567792e-01 1.426578e+01 -8.190227e+01 8.858369e+01
3.938834e+01 1.979167e-01 -1.600649e-01 1.425165e+01 -8.026031e+01 8.907307e+01
3.922394e+01 1.979167e-01 -1.455409e-01 1.427282e+01 -7.995125e+01 8.961458e+01
3.923061e+01 2.031250e-01 -1.215892e-01 1.425139e+01 -7.821504e+01 9.017612e+01
3.860873e+01 1.979167e-01 -1.174244e-01 1.429449e+01 -7.842223e+01 9.068723e+01
3.835889e+01 1.979167e-01 -1.154030e-01 1.435512e+01 -7.893451e+01 9.122487e+01
3.822823e+01 1.979167e-01 -1.141520e-01 1.446273e+01 -8.052977e+01 9.178906e+01
3.853589e+01 1.979167e-01 -1.312485e-01 1.455212e+01 -8.123013e+01 9.232143e+01
3.934390e+01 1.927083e-01 -1.418693e-01 1.459798e+01 -8.124963e+01 9.288695e+01
3.949913e+01 1.927083e-01 -1.221688e-01 1.459571e+01 -7.998647e+01 9.353197e+01
3.842775e+01 1.979167e-01 -9.728394e-02 1.459317e+01 -7.916554e+01 9.412560e+01
3.858543e+01 1.979167e-01 -7.007672e-02 1.460244e+01 -7.866267e+01 9.475255e+01
3.818509e+01 1.979167e-01 -8.431459e-02 1.467147e+01 -7.951324e+01 9.532144e+01
3.820981e+01 1.979167e-01 -9.496935e-02 1.477771e+01 -8.077005e+01 9.594330e+01
3.886964e+01 1.979167e-01 -6.961382e-02 1.484138e+01 -8.110468e+01 9.670438e+01
3.923058e+01 1.927083e-01 -4.981819e-02 1.483681e+01 -7.920195e+01 9.732770e+01
3.897913e+01 1.979167e-01 -7.736008e-02 1.490778e+01 -7.983344e+01 9.786040e+01
3.862744e+01 1.979167e-01 -1.036302e-01 1.498796e+01 -8.074782e+01 9.843332e+01
3.871193e+01 2.031250e-01 -9.682453e-02 1.510714e+01 -8.285056e+01 9.913863e+01
3.860052e+01 1.979167e-01 -4.778137e-02 1.508500e+01 -8.113673e+01 9.991075e+01
3.866618e+01 1.927083e-01 -1.144262e-02 1.507422e+01 -7.928679e+01 1.006111e+02
3.885326e+01 1.927083e-01 -1.987751e-02 1.508306e+01 -7.810921e+01 1.012005e+02
3.876743e+01 1.927083e-01 -4.070129e-02 1.515706e+01 -7.913565e+01 1.018097e+02
3.866846e+01 1.979167e-01 -2.550936e-02 1.524247e+01 -8.021091e+01 1.026261e+02
3.858435e+01 2.031250e-01 -1.411042e-03 1.536322e+01 -8.205722e+01 1.033770e+02
3.872107e+01 2.031250e-01 5.310398e-03 1.540380e+01 -8.128551e+01 1.040489e+02
3.894901e+01 1.979167e-01 -4.678853e-03 1.548624e+01 -8.204391e+01 1.046350e+02
3.964659e+01 2.031250e-01 -3.306602e-02 1.552998e+01 -8.126378e+01 1.051551e+02
3.941013e+01 2.031250e-01 -4.094922e-02 1.558895e+01 -8.135831e+01 1.057499e+02
3.852502e+01 2.031250e-01 -9.298819e-04 1.559435e+01 -8.052960e+01 1.064583e+02
3.852113e+01 2.031250e-01 2.274447e-02 1.558840e+01 -7.933794e+01 1.070210e+02
3.867258e+01 2.031250e-01 1.182449e-02 1.560110e+01 -7.822598e+01 1.075435e+02
3.911566e+01 2.031250e-01 1.863432e-02 1.566328e+01 -7.885036e+01 1.082082e+02
3.888527e+01 2.083333e-01 2.786571e-02 1.574369e+01 -8.003990e+01 1.088064e+02
3.890486e+01 2.083333e-01 5.210854e-02 1.580687e+01 -8.078009e+01 1.093919e+02
3.909235e+01 2.083333e-01 4.120868e-02 1.585254e+01 -8.072696e+01 1.098836e+02
3.907668e+01 2.083333e-01 2.589173e-02 1.593329e+01 -8.165765e+01 1.103692e+02
3.945731e+01 2.083333e-01 2.938402e-02 1.598579e+01 -8.157120e+01 1.109836e+02
3.880229e+01 2.083333e-01 3.875054e-02 1.605977e+01 -8.260541e+01 1.115176e+02
3.899901e+01 2.083333e-01 3.969461e-02 1.612830e+01 -8.347935e+01 1.120190e+02
3.933414e+01 2.083333e-01 4.800008e-02 1.612360e+01 -8.238185e+01 1.124797e+02
3.927512e+01 2.083333e-01 6.093349e-02 1.609436e+01 -8.044878e+01 1.128939e+02
3.996779e+01 2.083333e-01 7.248332e-02 1.607429e+01 -7.805869e+01 1.133284e+02
3.930095e+01 2.083333e-01 6.110857e-02 1.621042e+01 -8.088301e+01 1.137572e+02
3.919170e+01 2.083333e-01 7.090505e-02 1.624660e+01 -8.085579e+01 1.141451e+02
3.931198e+01 2.083333e-01 6.774772e-02 1.629028e+01 -8.107405e+01 1.145270e+02
3.938803e+01 2.083333e-01 7.801028e-02 1.630892e+01 -8.069211e+01 1.149295e+02
3.943123e+01 2.031250e-01 7.833201e-02 1.636491e+01 -8.114326e+01 1.153328e+02
3.951541e+01 2.083333e-01 8.435844e-02 1.639541e+01 -8.095186e+01 1.156955e+02
3.983215e+01 2.083333e-01 7.860305e-02 1.644042e+01 -8.056819e+01 1.160929e+02
4.003477e+01 2.083333e-01 7.641607e-02 1.645398e+01 -7.998039e+01 1.164359e+02
4.020648e+01 2.135417e-01 6.122561e-02 1.654463e+01 -8.162831e+01 1.168135e+02
3.917972e+01 1.979167e-01 6.955143e-02 1.662437e+01 -8.304404e+01 1.172673e+02
3.891632e+01 1.979167e-01 1.132988e-01 1.662791e+01 -8.248663e+01 1.177971e+02
3.887643e+01 1.979167e-01 1.168316e-01 1.665832e+01 -8.261739e+01 1.182381e+02
3.894380e+01 2.031250e-01 1.146605e-01 1.663830e+01 -8.090009e+01 1.186933e+02
4.021796e+01 2.031250e-01 1.094780e-01 1.666556e+01 -7.970004e+01 1.192319e+02
3.928105e+01 2.083333e-01 1.375507e-01 1.668820e+01 -7.951341e+01 1.197918e+02
3.861317e+01 2.031250e-01 1.378680e-01 1.675375e+01 -8.053169e+01 1.202831e+02
3.906029e+01 2.031250e-01 1.378988e-01 1.683927e+01 -8.188252e+01 1.207403e+02
3.903677e+01 2.031250e-01 1.476928e-01 1.686676e+01 -8.170241e+01 1.212050e+02
3.953424e+01 2.135417e-01 1.366612e-01 1.688522e+01 -8.000148e+01 1.216424e+02
3.979469e+01 2.135417e-01 1.178964e-01 1.696136e+01 -8.068961e+01 1.220734e+02
3.931696e+01 2.135417e-01 1.244774e-01 1.704587e+01 -8.240123e+01 1.225883e+02
3.880238e+01 2.031250e-01 1.502004e-01 1.707822e+01 -8.265889e+01 1.230480e+02
3.865268e+01 2.031250e-01 1.785885e-01 1.706011e+01 -8.165477e+01 1.234733e+02
3.891838e+01 2.187500e-01 1.799251e-01 1.704993e+01 -8.012766e+01 1.238852e+02
3.892474e+01 2.083333e-01 1.838288e-01 1.710682e+01 -8.079155e+01 1.243325e+02
3.888649e+01 2.135417e-01 1.955082e-01 1.711701e+01 -8.002283e+01 1.247453e+02
3.890047e+01 2.083333e-01 2.119418e-01 1.713992e+01 -7.952556e+01 1.251655e+02
3.917979e+01 2.083333e-01 2.200895e-01 1.716825e+01 -7.942845e+01 1.255581e+02
3.947737e+01 2.083333e-01 2.037346e-01 1.722725e+01 -8.020755e+01 1.259161e+02
3.913351e+01 2.135417e-01 1.943915e-01 1.735281e+01 -8.289789e+01 1.263236e+02
3.919075e+01 2.083333e-01 2.080880e-01 1.741398e+01 -8.375604e+01 1.267176e+02
3.917421e+01 2.083333e-01 2.363273e-01 1.744642e+01 -8.369273e+01 1.272175e+02
3.936903e+01 2.135417e-01 2.306872e-01 1.747136e+01 -8.324861e+01 1.276475e+02
4.006343e+01 2.135417e-01 1.989423e-01 1.748819e+01 -8.177528e+01 1.280497e+02
4.011301e+01 2.135417e-01 1.988053e-01 1.751713e+01 -8.093460e+01 1.285513e+02
4.017197e+01 2.083333e-01 2.197667e-01 1.750147e+01 -7.900671e+01 1.290323e+02
3.957364e+01 2.135417e-01 2.562789e-01 1.756577e+01 -8.081210e+01 1.295421e+02
3.950401e+01 2.135417e-01 2.699175e-01 1.764321e+01 -8.234845e+01 1.299810e+02
3.981837e+01 2.187500e-01 2.550422e-01 1.767270e+01 -8.170279e+01 1.303784e+02
4.011977e+01 2.135417e-01 2.423961e-01 1.771343e+01 -8.119904e+01 1.308467e+02
4.054539e+01 2.135417e-01 2.596827e-01 1.776961e+01 -8.164703e+01 1.314155e+02
4.049811e+01 2.135417e-01 2.774122e-01 1.780382e+01 -8.161859e+01 1.318848e+02
3.992250e+01 2.135417e-01 2.585596e-01 1.789432e+01 -8.322614e+01 1.322977e+02
3.910548e+01 2.135417e-01 2.713710e-01 1.794483e+01 -8.395296e+01 1.327609e+02
3.946675e+01 2.083333e-01 2.946940e-01 1.795604e+01 -8.339001e+01 1.332389e+02
3.996362e+01 2.135417e-01 3.038083e-01 1.797385e+01 -8.247597e+01 1.337030e+02
4.040852e+01 2.135417e-01 3.115717e-01 1.794074e+01 -7.962672e+01 1.340819e+02
4.023488e+01 2.187500e-01 3.272963e-01 1.792738e+01 -7.866063e+01 1.344254e+02
3.991582e+01 2.083333e-01 3.060247e-01 1.808107e+01 -8.227451e+01 1.347832e+02
3.995045e+01 2.187500e-01 2.950753e-01 1.816693e+01 -8.330002e+01 1.351633e+02
4.015425e+01 2.135417e-01 2.925946e-01 1.824484e+01 -8.416777e+01 1.355434e+02
4.049196e+01 2.135417e-01 3.003768e-01 1.824162e+01 -8.296297e+01 1.358880e+02
4.051045e+01 2.187500e-01 3.107927e-01 1.821445e+01 -8.123816e+01 1.361899e+02
4.036496e+01 2.187500e-01 3.386600e-01 1.820853e+01 -8.021765e+01 1.365927e+02
3.996283e+01 2.187500e-01 3.677465e-01 1.822430e+01 -8.003760e+01 1.369672e+02
3.985121e+01 2.239583e-01 3.781754e-01 1.828394e+01 -8.102428e+01 1.372985e+02
4.026527e+01 2.135417e-01 3.610044e-01 1.832976e+01 -8.096654e+01 1.376089e+02
4.020245e+01 2.135417e-01 3.521634e-01 1.835401e+01 -8.038194e+01 1.379337e+02
4.037602e+01 2.135417e-01 3.420304e-01 1.844361e+01 -8.174165e+01 1.383098e+02
4.015582e+01 2.187500e-01 3.464905e-01 1.852721e+01 -8.332556e+01 1.386425e+02
3.972971e+01 2.135417e-01 3.587638e-01 1.858436e+01 -8.416454e+01 1.389827e+02
4.010086e+01 2.187500e-01 3.680239e-01 1.858539e+01 -8.351224e+01 1.393089e+02
4.008054e+01 2.239583e-01 3.767318e-01 1.857359e+01 -8.214241e+01 1.396278e+02
4.023827e+01 2.291667e-01 3.900123e-01 1.858348e+01 -8.120778e+01 1.399619e+02
4.001848e+01 2.239583e-01 4.190483e-01 1.854850e+01 -7.875287e+01 1.403105e+02
4.023416e+01 2.291667e-01 4.236918e-01 1.857842e+01 -7.878220e+01 1.406308e+02
3.994153e+01 2.291667e-01 4.091545e-01 1.867573e+01 -8.100208e+01 1.409147e+02
3.944290e+01 2.187500e-01 4.115088e-01 1.874187e+01 -8.224088e+01 1.412061e+02
3.957576e+01 2.239583e-01 4.184161e-01 1.882668e+01 -8.348077e+01 1.416146e+02
4.000580e+01 2.239583e-01 4.262846e-01 1.884435e+01 -8.305775e+01 1.419720e+02
4.061462e+01 2.291667e-01 4.091022e-01 1.884105e+01 -8.103470e+01 1.423009e+02
4.078560e+01 2.291667e-01 4.155956e-01 1.881815e+01 -7.886398e+01 1.426152e+02
4.005173e+01 2.291667e-01 4.333334e-01 1.888520e+01 -8.051753e+01 1.430249e+02
3.959592e+01 2.291667e-01 4.485157e-01 1.895859e+01 -8.195305e+01 1.434204e+02
4.040396e+01 2.239583e-01 4.336048e-01 1.901963e+01 -8.215825e+01 1.437650e+02
4.053181e+01 2.239583e-01 4.224421e-01 1.907320e+01 -8.282613e+01 1.441099e+02
4.046574e+01 2.291667e-01 4.449855e-01 1.905364e+01 -8.115277e+01 1.444989e+02
3.934769e+01 2.187500e-01 4.765938e-01 1.909582e+01 -8.210910e+01 1.449255e+02
3.955222e+01 2.291667e-01 5.029906e-01 1.908629e+01 -8.069702e+01 1.453374e+02
4.005888e+01 2.291667e-01 4.836722e-01 1.914127e+01 -8.085147e+01 1.456760e+02
4.108730e+01 2.291667e-01 4.639997e-01 1.918969e+01 -8.087358e+01 1.460298e+02
4.019374e+01 2.239583e-01 4.786650e-01 1.921633e+01 -8.101361e+01 1.464278e+02
3.950327e+01 2.239583e-01 5.015483e-01 1.926616e+01 -8.177428e+01 1.468783e+02
3.902516e+01 2.239583e-01 5.121026e-01 1.932239e+01 -8.256447e+01 1.472328e+02
3.932538e+01 2.239583e-01 5.057967e-01 1.937610e+01 -8.294849e+01 1.475359e+02
3.956511e+01 2.239583e-01 4.921683e-01 1.938152e+01 -8.159422e+01 1.478171e+02
3.964507e+01 2.239583e-01 4.745342e-01 1.944805e+01 -8.256366e+01 1.480983e+02
4.005905e+01 2.291667e-01 4.911177e-01 1.941851e+01 -8.013258e+01 1.484023e+02
3.947604e+01 2.343750e-01 5.344552e-01 1.943389e+01 -8.067392e+01 1.487954e+02
3.921823e+01 2.187500e-01 5.495229e-01 1.949507e+01 -8.187599e+01 1.491294e+02
3.948993e+01 2.187500e-01 5.416671e-01 1.952069e+01 -8.151932e+01 1.494044e+02
3.962386e+01 2.291667e-01 5.253673e-01 1.955943e+01 -8.127409e+01 1.497759e+02
3.996188e+01 2.291667e-01 5.202306e-01 1.958459e+01 -8.041084e+01 1.501482e+02
3.965665e+01 2.291667e-01 5.382992e-01 1.963016e+01 -8.110333e+01 1.505354e+02
3.991493e+01 2.239583e-01 5.579237e-01 1.967592e+01 -8.202014e+01 1.508634e+02
3.976340e+01 2.187500e-01 5.615524e-01 1.973006e+01 -8.274390e+01 1.511320e+02
3.966014e+01 2.187500e-01 5.643517e-01 1.972327e+01 -8.172916e+01 1.513559e+02
3.998112e+01 2.187500e-01 5.618123e-01 1.976276e+01 -8.207983e+01 1.516845e+02
4.030751e+01 2.239583e-01 5.674195e-01 1.976365e+01 -8.070413e+01 1.520209e+02
3.991658e+01 2.239583e-01 5.905823e-01 1.977730e+01 -8.005365e+01 1.524097e+02
3.986761e+01 2.239583e-01 5.949387e-01 1.980914e+01 -8.044322e+01 1.527244e+02
3.993451e+01 2.187500e-01 5.896448e-01 1.990471e+01 -8.284813e+01 1.529866e+02
3.971399e+01 2.187500e-01 5.803627e-01 1.997360e+01 -8.395740e+01 1.532267e+02
3.978185e+01 2.187500e-01 5.799522e-01 2.001232e+01 -8.438530e+01 1.535194e+02
4.013385e+01 2.239583e-01 6.033894e-01 1.997284e+01 -8.205809e+01 1.538047e+02
4.028822e+01 2.291667e-01 6.144773e-01 1.995564e+01 -8.029167e+01 1.540605e+02
3.992802e+01 2.239583e-01 6.366075e-01 1.994849e+01 -7.926863e+01 1.543087e+02
3.982225e+01 2.239583e-01 6.304948e-01 2.002478e+01 -8.114171e+01 1.545344e+02
3.996098e+01 2.239583e-01 6.266933e-01 2.005172e+01 -8.078745e+01 1.547681e+02
4.004840e+01 2.239583e-01 6.284752e-01 2.007349e+01 -8.076483e+01 1.549942e+02
4.011665e+01 2.239583e-01 6.391962e-01 2.009747e+01 -8.097032e+01 1.552281e+02
3.988062e+01 2.239583e-01 6.459040e-01 2.015395e+01 -8.228453e+01 1.554169e+02
3.966086e+01 2.239583e-01 6.510000e-01 2.020192e+01 -8.290387e+01 1.556511e+02
3.998151e+01 2.239583e-01 6.605564e-01 2.022133e+01 -8.243465e+01 1.558857e+02
3.989043e+01 2.187500e-01 6.634084e-01 2.024973e+01 -8.263142e+01 1.560976e+02
4.044974e+01 2.291667e-01 6.443408e-01 2.025850e+01 -8.129942e+01 1.562868e+02
4.051543e+01 2.291667e-01 6.287899e-01 2.029216e+01 -8.098192e+01 1.564840e+02
4.028342e+01 2.187500e-01 6.396267e-01 2.030133e+01 -8.031456e+01 1.567419e+02
4.003178e+01 2.239583e-01 6.686817e-01 2.033826e+01 -8.125520e+01 1.570151e+02
3.973375e+01 2.239583e-01 6.871221e-01 2.034662e+01 -8.113362e+01 1.572431e+02
3.988828e+01 2.187500e-01 6.872594e-01 2.036018e+01 -8.079927e+01 1.574634e+02
4.016959e+01 2.187500e-01 7.117097e-01 2.036111e+01 -7.988742e+01 1.577601e+02
4.063219e+01 2.239583e-01 7.147953e-01 2.039241e+01 -7.959810e+01 1.580342e+02
4.069057e+01 2.291667e-01 7.032380e-01 2.046357e+01 -8.135692e+01 1.582474e+02
3.934879e+01 2.239583e-01 7.121514e-01 2.054299e+01 -8.334052e+01 1.584763e+02
3.960397e+01 2.239583e-01 7.200097e-01 2.055983e+01 -8.320319e+01 1.587128e+02
4.004500e+01 2.239583e-01 7.074456e-01 2.057880e+01 -8.235634e+01 1.589874e+02
4.069833e+01 2.291667e-01 6.919853e-01 2.056309e+01 -7.898729e+01 1.592168e+02
4.037030e+01 2.239583e-01 6.884037e-01 2.058139e+01 -7.891084e+01 1.594308e+02
3.971255e+01 1.979167e-01 7.047095e-01 2.062984e+01 -8.051764e+01 1.596758e+02
3.929959e+01 2.031250e-01 7.468447e-01 2.066913e+01 -8.145213e+01 1.600204e+02
4.003345e+01 2.239583e-01 7.537581e-01 2.072206e+01 -8.248619e+01 1.602732e+02
4.070328e+01 2.239583e-01 7.342606e-01 2.073168e+01 -8.159766e+01 1.604802e+02
4.065189e+01 2.239583e-01 7.337171e-01 2.073200e+01 -8.026988e+01 1.607412e+02
4.002617e+01 2.239583e-01 7.737640e-01 2.073962e+01 -7.981706e+01 1.611326e+02
3.967920e+01 2.083333e-01 7.938880e-01 2.077472e+01 -8.013182e+01 1.614476e+02
3.948123e+01 2.083333e-01 8.168855e-01 2.078814e+01 -7.980882e+01 1.617322e+02
4.070294e+01 2.135417e-01 7.634048e-01 2.086626e+01 -8.030099e+01 1.619783e+02
4.084116e+01 2.135417e-01 7.411211e-01 2.091628e+01 -8.053171e+01 1.621938e+02
4.092920e+01 2.135417e-01 7.494914e-01 2.089770e+01 -7.856680e+01 1.624018e+02
4.105132e+01 2.135417e-01 7.590843e-01 2.090988e+01 -7.822005e+01 1.625945e+02
4.014871e+01 2.083333e-01 7.958674e-01 2.095355e+01 -7.968700e+01 1.629033e+02
4.046346e+01 2.135417e-01 8.290986e-01 2.096248e+01 -7.933185e+01 1.631504e+02
4.028876e+01 2.135417e-01 8.338190e-01 2.095597e+01 -7.827409e+01 1.633434e+02
4.088905e+01 2.135417e-01 8.091250e-01 2.101210e+01 -7.919467e+01 1.635368e+02
4.028925e+01 2.135417e-01 8.244186e-01 2.107441e+01 -8.092755e+01 1.638153e+02
4.048677e+01 2.135417e-01 8.181792e-01 2.116558e+01 -8.272231e+01 1.640319e+02
4.027940e+01 2.135417e-01 8.279455e-01 2.118926e+01 -8.255952e+01 1.642412e+02
4.054907e+01 2.135417e-01 8.240445e-01 2.121227e+01 -8.239676e+01 1.644505e+02
4.041980e+01 2.083333e-01 8.453054e-01 2.117458e+01 -8.019540e+01 1.646443e+02
4.029686e+01 2.083333e-01 8.419161e-01 2.116913e+01 -7.843477e+01 1.648307e+02
4.043413e+01 2.187500e-01 8.749344e-01 2.115953e+01 -7.710669e+01 1.651025e+02
4.062450e+01 2.135417e-01 8.555798e-01 2.121767e+01 -7.807750e+01 1.653200e+02
4.032436e+01 2.135417e-01 8.579992e-01 2.127708e+01 -7.965721e+01 1.655068e+02
4.046878e+01 2.135417e-01 8.406275e-01 2.137873e+01 -8.184390e+01 1.657247e+02
4.100475e+01 2.135417e-01 8.406365e-01 2.140785e+01 -8.145482e+01 1.659192e+02
4.044853e+01 2.083333e-01 8.627820e-01 2.141764e+01 -8.174361e+01 1.661142e+02
4.035907e+01 2.135417e-01 8.880167e-01 2.140160e+01 -8.069099e+01 1.663325e+02
4.074928e+01 2.083333e-01 9.012177e-01 2.135814e+01 -7.747081e+01 1.665118e+02
4.018269e+01 2.135417e-01 9.172758e-01 2.135786e+01 -7.690150e+01 1.666524e+02
4.058347e+01 2.083333e-01 8.882040e-01 2.144756e+01 -7.893271e+01 1.668321e+02
4.075735e+01 2.083333e-01 8.915846e-01 2.150503e+01 -8.015144e+01 1.670196e+02
4.058611e+01 2.135417e-01 8.882205e-01 2.158225e+01 -8.184221e+01 1.671762e+02
4.076778e+01 2.187500e-01 9.072552e-01 2.156213e+01 -8.060545e+01 1.672779e+02
4.083553e+01 2.135417e-01 9.012841e-01 2.157929e+01 -8.055066e+01 1.673719e+02
4.081366e+01 2.135417e-01 9.068187e-01 2.157683e+01 -7.961897e+01 1.674895e+02
4.102824e+01 2.239583e-01 9.323740e-01 2.155405e+01 -7.806609e+01 1.676072e+02
4.079669e+01 2.239583e-01 9.549704e-01 2.155496e+01 -7.734454e+01 1.677248e+02
4.043465e+01 2.239583e-01 9.783052e-01 2.155355e+01 -7.721249e+01 1.678112e+02
4.070769e+01 2.239583e-01 9.636809e-01 2.161240e+01 -7.859552e+01 1.678976e+02
4.097395e+01 2.239583e-01 9.348867e-01 2.169283e+01 -8.029288e+01 1.679919e+02
4.128691e+01 2.239583e-01 9.221213e-01 2.174802e+01 -8.147159e+01 1.681571e+02
4.096196e+01 2.239583e-01 9.560780e-01 2.169535e+01 -7.877103e+01 1.683618e+02
4.077922e+01 2.239583e-01 9.883464e-01 2.165219e+01 -7.626730e+01 1.684957e+02
4.108836e+01 2.291667e-01 9.912447e-01 2.168393e+01 -7.707176e+01 1.686139e+02
4.111520e+01 2.291667e-01 9.702251e-01 2.174742e+01 -7.846016e+01 1.686849e+02
4.132321e+01 2.291667e-01 9.576292e-01 2.179529e+01 -7.905182e+01 1.688347e+02
4.095502e+01 2.239583e-01 9.709349e-01 2.180052e+01 -7.862584e+01 1.689689e+02
4.075232e+01 2.239583e-01 1.001167e+00 2.179499e+01 -7.793030e+01 1.691744e+02
4.116843e+01 2.239583e-01 1.014591e+00 2.180072e+01 -7.747188e+01 1.693562e+02
4.149084e+01 2.135417e-01 9.924766e-01 2.184451e+01 -7.766156e+01 1.695063e+02
4.083534e+01 2.239583e-01 1.000594e+00 2.188333e+01 -7.891278e+01 1.696251e+02
4.053641e+01 2.239583e-01 1.004518e+00 2.192074e+01 -7.965718e+01 1.697439e+02
4.047852e+01 2.239583e-01 9.826842e-01 2.197841e+01 -8.023528e+01 1.698865e+02
4.030968e+01 2.187500e-01 1.000632e+00 2.198626e+01 -7.993376e+01 1.701086e+02
4.062772e+01 2.135417e-01 1.030359e+00 2.194180e+01 -7.718053e+01 1.703149e+02
4.057376e+01 2.135417e-01 1.029258e+00 2.196730e+01 -7.722815e+01 1.704816e+02
4.067586e+01 2.239583e-01 1.026494e+00 2.200237e+01 -7.795869e+01 1.706246e+02
4.062167e+01 2.135417e-01 1.027166e+00 2.202795e+01 -7.791895e+01 1.708392e+02
4.074965e+01 2.135417e-01 1.030272e+00 2.209489e+01 -7.936577e+01 1.711095e+02
4.093298e+01 2.135417e-01 1.026300e+00 2.213833e+01 -7.965991e+01 1.713083e+02
4.058136e+01 2.187500e-01 1.035260e+00 2.216806e+01 -8.047234e+01 1.714437e+02
4.030545e+01 2.291667e-01 1.066041e+00 2.212691e+01 -7.899883e+01 1.715631e+02
4.053183e+01 2.135417e-01 1.069645e+00 2.210706e+01 -7.688016e+01 1.717623e+02
4.077576e+01 2.135417e-01 1.072209e+00 2.212435e+01 -7.574121e+01 1.720017e+02
4.054233e+01 2.135417e-01 1.059205e+00 2.217547e+01 -7.644347e+01 1.721852e+02
4.081248e+01 2.135417e-01 1.061674e+00 2.224283e+01 -7.887743e+01 1.723289e+02
4.035400e+01 2.187500e-01 1.064246e+00 2.232154e+01 -8.113582e+01 1.724647e+02
4.056644e+01 2.187500e-01 1.078313e+00 2.231069e+01 -8.015239e+01 1.726486e+02
4.048671e+01 2.135417e-01 1.118923e+00 2.224392e+01 -7.686627e+01 1.728005e+02
4.031938e+01 2.187500e-01 1.109349e+00 2.223299e+01 -7.478746e+01 1.729444e+02
4.054880e+01 2.187500e-01 1.108366e+00 2.229158e+01 -7.688626e+01 1.731447e+02
4.040494e+01 2.187500e-01 1.115986e+00 2.236699e+01 -7.925742e+01 1.733450e+02
4.045413e+01 2.135417e-01 1.071722e+00 2.250237e+01 -8.209319e+01 1.735212e+02
4.083208e+01 2.187500e-01 1.064358e+00 2.254700e+01 -8.298407e+01 1.737219e+02
4.020750e+01 2.187500e-01 1.120250e+00 2.243627e+01 -7.873836e+01 1.738984e+02
3.989409e+01 2.187500e-01 1.152470e+00 2.239188e+01 -7.581693e+01 1.740991e+02
3.986476e+01 2.187500e-01 1.184071e+00 2.236658e+01 -7.389163e+01 1.742758e+02
3.949216e+01 2.291667e-01 1.180837e+00 2.245716e+01 -7.712419e+01 1.744367e+02
3.951871e+01 2.187500e-01 1.167662e+00 2.254629e+01 -7.938376e+01 1.746297e+02
3.957286e+01 2.239583e-01 1.177344e+00 2.255912e+01 -7.872438e+01 1.748387e+02
3.989917e+01 2.239583e-01 1.180369e+00 2.258445e+01 -7.877272e+01 1.749918e+02
3.979738e+01 2.187500e-01 1.173836e+00 2.262477e+01 -7.954614e+01 1.751207e+02
3.978154e+01 2.187500e-01 1.178580e+00 2.264785e+01 -7.985229e+01 1.752738e+02
3.960886e+01 2.239583e-01 1.207427e+00 2.258926e+01 -7.670222e+01 1.754270e+02
3.984781e+01 2.187500e-01 1.227212e+00 2.257256e+01 -7.460359e+01 1.756046e+02
3.967192e+01 2.187500e-01 1.235851e+00 2.258778e+01 -7.502333e+01 1.757903e+02
3.973363e+01 2.187500e-01 1.215549e+00 2.268538e+01 -7.805829e+01 1.759598e+02
3.994794e+01 2.187500e-01 1.195514e+00 2.277580e+01 -8.031456e+01 1.760973e+02
4.005475e+01 2.239583e-01 1.193378e+00 2.281170e+01 -8.034691e+01 1.762267e+02
4.011209e+01 2.239583e-01 1.198309e+00 2.285420e+01 -8.140630e+01 1.764127e+02
4.015201e+01 2.239583e-01 1.227734e+00 2.280689e+01 -7.909341e+01 1.765987e+02
4.040303e+01 2.239583e-01 1.249091e+00 2.277478e+01 -7.683571e+01 1.767445e+02
3.991457e+01 2.239583e-01 1.264676e+00 2.274459e+01 -7.427542e+01 1.768660e+02
3.998462e+01 2.239583e-01 1.257898e+00 2.279428e+01 -7.605791e+01 1.770119e+02
4.022951e+01 2.187500e-01 1.224633e+00 2.292996e+01 -8.008632e+01 1.771335e+02
4.012062e+01 2.187500e-01 1.220534e+00 2.297769e+01 -8.100360e+01 1.772472e+02
3.996028e+01 2.239583e-01 1.254632e+00 2.293780e+01 -7.895799e+01 1.774501e+02
3.993289e+01 2.239583e-01 1.270017e+00 2.292824e+01 -7.752931e+01 1.775881e+02
3.988486e+01 2.239583e-01 1.283822e+00 2.291292e+01 -7.581462e+01 1.777345e+02
3.999097e+01 2.187500e-01 1.274190e+00 2.295738e+01 -7.705080e+01 1.778321e+02
3.998177e+01 2.187500e-01 1.268337e+00 2.301310e+01 -7.836017e+01 1.779704e+02
3.969279e+01 2.187500e-01 1.271209e+00 2.306490e+01 -7.918185e+01 1.781413e+02
4.005060e+01 2.187500e-01 1.285691e+00 2.307952e+01 -7.918185e+01 1.783288e+02
4.047488e+01 2.239583e-01 1.303967e+00 2.304797e+01 -7.698189e+01 1.784673e+02
4.030228e+01 2.239583e-01 1.312803e+00 2.302695e+01 -7.514044e+01 1.785650e+02
4.022095e+01 2.239583e-01 1.290101e+00 2.313273e+01 -7.890805e+01 1.786955e+02
4.010379e+01 2.187500e-01 1.278319e+00 2.321991e+01 -8.099785e+01 1.788262e+02
4.010139e+01 2.187500e-01 1.283285e+00 2.323898e+01 -8.074478e+01 1.789323e+02
3.993124e+01 2.187500e-01 1.311420e+00 2.319928e+01 -7.868764e+01 1.790629e+02
4.031865e+01 2.239583e-01 1.338018e+00 2.316234e+01 -7.615440e+01 1.791856e+02
4.020198e+01 2.239583e-01 1.340877e+00 2.317481e+01 -7.558191e+01 1.792592e+02
4.021458e+01 2.239583e-01 1.328801e+00 2.321994e+01 -7.677599e+01 1.793246e+02
4.032457e+01 2.239583e-01 1.309338e+00 2.331662e+01 -7.953215e+01 1.794800e+02
4.040695e+01 2.239583e-01 1.313495e+00 2.333257e+01 -7.902414e+01 1.796357e+02
4.055867e+01 2.187500e-01 1.321305e+00 2.338540e+01 -8.052361e+01 1.798651e+02
4.030415e+01 2.187500e-01 1.347791e+00 2.335353e+01 -7.854890e+01 1.800618e+02
4.035872e+01 2.187500e-01 1.353771e+00 2.333579e+01 -7.650046e+01 1.801930e+02
4.014456e+01 2.187500e-01 1.359239e+00 2.333124e+01 -7.485864e+01 1.803490e+02
4.035669e+01 2.187500e-01 1.367533e+00 2.338582e+01 -7.641016e+01 1.806363e+02
4.046378e+01 2.187500e-01 1.357560e+00 2.347820e+01 -7.902063e+01 1.808087e+02
4.086960e+01 2.187500e-01 1.354608e+00 2.351864e+01 -7.949675e+01 1.809566e+02
4.086987e+01 2.187500e-01 1.370546e+00 2.347525e+01 -7.680740e+01 1.810553e+02
4.060835e+01 2.187500e-01 1.370258e+00 2.350115e+01 -7.667583e+01 1.811869e+02
4.076717e+01 2.187500e-01 1.385656e+00 2.352346e+01 -7.659358e+01 1.814254e+02
4.032228e+01 2.135417e-01 1.391686e+00 2.356302e+01 -7.719405e+01 1.815900e+02
4.036848e+01 2.187500e-01 1.384318e+00 2.360533e+01 -7.793561e+01 1.817136e+02
4.031331e+01 2.187500e-01 1.380802e+00 2.363541e+01 -7.833934e+01 1.817960e+02
4.028891e+01 2.135417e-01 1.399847e+00 2.362024e+01 -7.664200e+01 1.819278e+02
4.038901e+01 2.135417e-01 1.410575e+00 2.362599e+01 -7.585103e+01 1.820268e+02
4.035190e+01 2.135417e-01 1.404967e+00 2.366729e+01 -7.664349e+01 1.821011e+02
4.044417e+01 2.135417e-01 1.399682e+00 2.370610e+01 -7.740294e+01 1.821754e+02
4.109653e+01 2.187500e-01 1.414574e+00 2.371725e+01 -7.717180e+01 1.823322e+02
4.067473e+01 2.135417e-01 1.404756e+00 2.379696e+01 -7.952049e+01 1.824315e+02
4.068314e+01 2.135417e-01 1.405934e+00 2.380936e+01 -7.903256e+01 1.825059e+02
4.019930e+01 2.135417e-01 1.420685e+00 2.379567e+01 -7.789128e+01 1.825803e+02
4.077991e+01 2.135417e-01 1.425135e+00 2.380731e+01 -7.770934e+01 1.826630e+02
4.076050e+01 2.187500e-01 1.449217e+00 2.376680e+01 -7.481116e+01 1.827790e+02
4.110199e+01 2.187500e-01 1.450010e+00 2.380171e+01 -7.588824e+01 1.828867e+02
4.097739e+01 2.187500e-01 1.438152e+00 2.387791e+01 -7.839043e+01 1.830110e+02
