-1.688654e+00 8.030620e+00 -4.236201e+01 3.713570e+01 1.359203e-05 1.695258e-03 -1.262285e-01 1.262285e-01
-2.090748e+00 9.068068e+00 -4.504703e+01 4.057004e+01 1.762900e-06 1.299877e-03 -1.262285e-01 1.262285e-01
-2.240124e+00 9.468157e+00 -4.682380e+01 4.563881e+01 -1.297302e-06 1.213652e-03 -1.262285e-01 1.262285e-01
-2.365386e+00 9.788812e+00 -4.752100e+01 4.591997e+01 8.686333e-09 1.127919e-03 -1.262285e-01 1.262285e-01
-2.367018e+00 9.940838e+00 -4.785401e+01 4.586606e+01 1.794032e-06 1.095044e-03 -1.262285e-01 1.262285e-01
-2.446220e+00 1.008307e+01 -4.814688e+01 4.983295e+01 4.647630e-06 1.077377e-03 -1.262285e-01 1.262281e-01
-2.584822e+00 1.030905e+01 -4.915555e+01 5.192147e+01 -7.875973e-07 1.023398e-03 -1.262285e-01 1.262285e-01
-2.501091e+00 1.042364e+01 -5.044374e+01 5.343603e+01 1.062569e-06 9.972286e-04 -1.262285e-01 1.262285e-01
-2.580707e+00 1.053111e+01 -5.084808e+01 5.251681e+01 1.042484e-06 9.972550e-04 -1.262285e-01 1.262284e-01
-2.575955e+00 1.063511e+01 -5.143176e+01 5.461206e+01 3.931620e-06 9.665812e-04 -1.262285e-01 1.262285e-01
-2.549831e+00 1.073280e+01 -5.230550e+01 5.781589e+01 3.191680e-06 9.374036e-04 -1.262285e-01 1.262285e-01
-2.599311e+00 1.079337e+01 -5.366815e+01 5.523043e+01 -1.370228e-06 9.256593e-04 -1.262284e-01 1.262274e-01
-2.644556e+00 1.085748e+01 -5.379159e+01 5.554786e+01 -1.208851e-06 9.127616e-04 -1.262285e-01 1.262285e-01
-2.638536e+00 1.096063e+01 -5.587772e+01 5.541235e+01 2.092649e-06 9.182456e-04 -1.262285e-01 1.262282e-01
-2.681398e+00 1.106786e+01 -5.499774e+01 5.921742e+01 9.666676e-07 9.079567e-04 -1.262284e-01 1.262278e-01
