1.279961e+02 6.032746e-01 1.462390e-02 5.674774e-01 -9.960938e-01 9.960938e-01
1.279961e+02 5.528967e-01 1.357307e-02 5.672521e-01 -1.007812e+00 1.000000e+00
1.279961e+02 5.012594e-01 1.287034e-02 5.669721e-01 -1.023438e+00 1.003906e+00
1.279961e+02 4.974811e-01 1.254842e-02 5.666734e-01 -1.039062e+00 1.007812e+00
1.279961e+02 4.874055e-01 1.245289e-02 5.663940e-01 -1.050781e+00 1.007812e+00
1.279961e+02 4.722922e-01 1.243980e-02 5.661505e-01 -1.066406e+00 1.011719e+00
1.279961e+02 4.584383e-01 1.239793e-02 5.659509e-01 -1.082031e+00 1.011719e+00
1.279961e+02 4.534005e-01 1.235605e-02 5.657360e-01 -1.097656e+00 1.011719e+00
1.279961e+02 4.445844e-01 1.231156e-02 5.656465e-01 -1.113281e+00 1.011719e+00
1.279961e+02 4.408060e-01 1.226968e-02 5.655981e-01 -1.128906e+00 1.011719e+00
1.279961e+02 4.345088e-01 1.228669e-02 5.654801e-01 -1.140625e+00 1.011719e+00
1.279961e+02 4.269521e-01 1.230371e-02 5.653820e-01 -1.152344e+00 1.011719e+00
1.279961e+02 4.181360e-01 1.231418e-02 5.654033e-01 -1.164062e+00 1.011719e+00
1.279961e+02 4.168766e-01 1.225921e-02 5.654425e-01 -1.175781e+00 1.011719e+00
1.279961e+02 4.156171e-01 1.215191e-02 5.655329e-01 -1.187500e+00 1.011719e+00
1.279961e+02 4.168766e-01 1.208647e-02 5.656096e-01 -1.199219e+00 1.011719e+00
1.279961e+02 4.118388e-01 1.201188e-02 5.657584e-01 -1.210938e+00 1.019531e+00
1.279961e+02 4.068010e-01 1.192682e-02 5.659085e-01 -1.222656e+00 1.023438e+00
1.279961e+02 4.080605e-01 1.181297e-02 5.660289e-01 -1.234375e+00 1.031250e+00
1.279961e+02 4.080605e-01 1.175801e-02 5.661440e-01 -1.246094e+00 1.035156e+00
1.279961e+02 4.080605e-01 1.160490e-02 5.663092e-01 -1.257812e+00 1.042969e+00
1.279961e+02 4.055416e-01 1.152246e-02 5.665119e-01 -1.269531e+00 1.050781e+00
1.279961e+02 4.042821e-01 1.140991e-02 5.666464e-01 -1.281250e+00 1.058594e+00
1.279961e+02 4.030227e-01 1.135626e-02 5.668350e-01 -1.292969e+00 1.070312e+00
1.279961e+02 4.055416e-01 1.129214e-02 5.670476e-01 -1.304688e+00 1.082031e+00
1.279961e+02 4.055416e-01 1.128690e-02 5.673150e-01 -1.316406e+00 1.089844e+00
1.279961e+02 4.030227e-01 1.122409e-02 5.675411e-01 -1.328125e+00 1.097656e+00
1.279961e+02 4.042821e-01 1.115866e-02 5.677591e-01 -1.335938e+00 1.101562e+00
1.279961e+02 4.017632e-01 1.099639e-02 5.679972e-01 -1.347656e+00 1.113281e+00
1.279961e+02 4.017632e-01 1.087730e-02 5.682484e-01 -1.359375e+00 1.125000e+00
1.279961e+02 3.967254e-01 1.081187e-02 5.685256e-01 -1.371094e+00 1.136719e+00
1.279961e+02 3.929471e-01 1.079093e-02 5.687709e-01 -1.378906e+00 1.148438e+00
1.279961e+02 3.929471e-01 1.068494e-02 5.690219e-01 -1.390625e+00 1.160156e+00
1.279961e+02 3.967254e-01 1.062212e-02 5.692210e-01 -1.402344e+00 1.171875e+00
1.279961e+02 3.929471e-01 1.055800e-02 5.694794e-01 -1.414062e+00 1.183594e+00
1.279961e+02 3.967254e-01 1.044807e-02 5.697239e-01 -1.421875e+00 1.195312e+00
1.279961e+02 3.942065e-01 1.041274e-02 5.699459e-01 -1.433594e+00 1.203125e+00
1.279961e+02 3.992443e-01 1.030805e-02 5.702290e-01 -1.445312e+00 1.214844e+00
1.279961e+02 3.992443e-01 1.016541e-02 5.705437e-01 -1.453125e+00 1.226562e+00
1.279961e+02 3.967254e-01 1.011961e-02 5.707838e-01 -1.464844e+00 1.238281e+00
1.279961e+02 3.904282e-01 1.003324e-02 5.710209e-01 -1.472656e+00 1.250000e+00
1.279961e+02 3.942065e-01 9.923314e-03 5.712149e-01 -1.476562e+00 1.261719e+00
1.279961e+02 3.904282e-01 9.874895e-03 5.714797e-01 -1.484375e+00 1.269531e+00
1.279961e+02 3.904282e-01 9.809464e-03 5.717450e-01 -1.492188e+00 1.281250e+00
1.279961e+02 3.879093e-01 9.707391e-03 5.719720e-01 -1.500000e+00 1.292969e+00
1.279961e+02 3.853904e-01 9.552973e-03 5.721787e-01 -1.511719e+00 1.300781e+00
1.279961e+02 3.841310e-01 9.454826e-03 5.724805e-01 -1.523438e+00 1.312500e+00
1.279961e+02 3.879093e-01 9.360605e-03 5.726934e-01 -1.531250e+00 1.324219e+00
1.279961e+02 3.866499e-01 9.279470e-03 5.728806e-01 -1.539062e+00 1.335938e+00
1.279961e+02 3.904282e-01 9.259841e-03 5.731505e-01 -1.542969e+00 1.347656e+00
1.279961e+02 3.841310e-01 9.159077e-03 5.733973e-01 -1.550781e+00 1.359375e+00
1.279961e+02 3.816121e-01 9.149916e-03 5.735747e-01 -1.554688e+00 1.371094e+00
1.279961e+02 3.853904e-01 9.101497e-03 5.738079e-01 -1.558594e+00 1.382812e+00
1.279961e+02 3.879093e-01 9.115892e-03 5.739670e-01 -1.562500e+00 1.394531e+00
1.279961e+02 3.866499e-01 9.021671e-03 5.742561e-01 -1.570312e+00 1.406250e+00
1.279961e+02 3.866499e-01 8.926141e-03 5.745073e-01 -1.578125e+00 1.417969e+00
1.279961e+02 3.841310e-01 8.890808e-03 5.747440e-01 -1.582031e+00 1.429688e+00
1.279961e+02 3.853904e-01 8.796587e-03 5.749353e-01 -1.585938e+00 1.437500e+00
1.279961e+02 3.841310e-01 8.742933e-03 5.750881e-01 -1.589844e+00 1.449219e+00
1.279961e+02 3.828715e-01 8.695823e-03 5.752884e-01 -1.597656e+00 1.460938e+00
1.279961e+02 3.828715e-01 8.604219e-03 5.755226e-01 -1.605469e+00 1.472656e+00
1.279961e+02 3.790932e-01 8.485134e-03 5.757222e-01 -1.613281e+00 1.484375e+00
1.279961e+02 3.803526e-01 8.445875e-03 5.759970e-01 -1.621094e+00 1.492188e+00
1.279961e+02 3.816121e-01 8.359506e-03 5.761729e-01 -1.632812e+00 1.503906e+00
1.279961e+02 3.803526e-01 8.265285e-03 5.763350e-01 -1.644531e+00 1.515625e+00
1.279961e+02 3.790932e-01 8.143582e-03 5.765046e-01 -1.656250e+00 1.527344e+00
1.279961e+02 3.765743e-01 8.144891e-03 5.766612e-01 -1.667969e+00 1.539062e+00
1.279961e+02 3.765743e-01 8.078151e-03 5.768604e-01 -1.679688e+00 1.550781e+00
1.279961e+02 3.753149e-01 8.054596e-03 5.770323e-01 -1.687500e+00 1.562500e+00
1.279961e+02 3.765743e-01 7.945980e-03 5.772369e-01 -1.699219e+00 1.574219e+00
1.279961e+02 3.727960e-01 7.915881e-03 5.774079e-01 -1.707031e+00 1.585938e+00
1.279961e+02 3.715365e-01 7.875314e-03 5.776186e-01 -1.714844e+00 1.597656e+00
1.279961e+02 3.727960e-01 7.754920e-03 5.778707e-01 -1.726562e+00 1.609375e+00
1.279961e+02 3.727960e-01 7.648922e-03 5.781127e-01 -1.738281e+00 1.621094e+00
1.279961e+02 3.740554e-01 7.559935e-03 5.782636e-01 -1.746094e+00 1.628906e+00
1.279961e+02 3.727960e-01 7.527219e-03 5.784267e-01 -1.757812e+00 1.636719e+00
1.279961e+02 3.740554e-01 7.446085e-03 5.786148e-01 -1.769531e+00 1.644531e+00
1.279961e+02 3.702771e-01 7.404209e-03 5.788366e-01 -1.781250e+00 1.656250e+00
1.279961e+02 3.639798e-01 7.405517e-03 5.790253e-01 -1.789062e+00 1.667969e+00
1.279961e+02 3.664987e-01 7.383271e-03 5.792000e-01 -1.796875e+00 1.679688e+00
1.279961e+02 3.639798e-01 7.321765e-03 5.793934e-01 -1.804688e+00 1.687500e+00
1.279961e+02 3.664987e-01 7.307370e-03 5.796004e-01 -1.816406e+00 1.695312e+00
1.279961e+02 3.677582e-01 7.321765e-03 5.797729e-01 -1.820312e+00 1.707031e+00
1.279961e+02 3.652393e-01 7.300827e-03 5.799610e-01 -1.832031e+00 1.714844e+00
1.279961e+02 3.652393e-01 7.217075e-03 5.800452e-01 -1.839844e+00 1.722656e+00
1.279961e+02 3.639798e-01 7.164730e-03 5.802390e-01 -1.847656e+00 1.730469e+00
1.279961e+02 3.639798e-01 7.149026e-03 5.804467e-01 -1.859375e+00 1.738281e+00
1.279961e+02 3.614610e-01 7.094064e-03 5.806162e-01 -1.867188e+00 1.746094e+00
1.279961e+02 3.639798e-01 7.035176e-03 5.807053e-01 -1.875000e+00 1.753906e+00
1.279961e+02 3.627204e-01 7.015546e-03 5.808419e-01 -1.882812e+00 1.765625e+00
1.279961e+02 3.639798e-01 6.994608e-03 5.809848e-01 -1.886719e+00 1.777344e+00
1.279961e+02 3.551637e-01 6.950115e-03 5.811209e-01 -1.890625e+00 1.789062e+00
1.279961e+02 3.551637e-01 6.879449e-03 5.812815e-01 -1.894531e+00 1.796875e+00
1.279961e+02 3.576826e-01 6.849351e-03 5.814256e-01 -1.902344e+00 1.808594e+00
1.279961e+02 3.614610e-01 6.808784e-03 5.815594e-01 -1.910156e+00 1.820312e+00
1.279961e+02 3.564232e-01 6.768216e-03 5.817298e-01 -1.917969e+00 1.828125e+00
1.279961e+02 3.564232e-01 6.749895e-03 5.819493e-01 -1.921875e+00 1.835938e+00
1.279961e+02 3.501259e-01 6.672686e-03 5.820431e-01 -1.929688e+00 1.847656e+00
1.279961e+02 3.513854e-01 6.656983e-03 5.822257e-01 -1.937500e+00 1.855469e+00
1.279961e+02 3.501259e-01 6.628193e-03 5.823602e-01 -1.945312e+00 1.863281e+00
1.279961e+02 3.488665e-01 6.587626e-03 5.825310e-01 -1.957031e+00 1.875000e+00
