-1.293508e-01 4.249173e+00 -2.241699e+01 2.210742e+01 4.997921e-04 1.428005e-02 -4.396973e-01 4.055176e-01
-3.268789e-01 4.212393e+00 -2.263184e+01 2.129077e+01 -1.829416e-04 1.113571e-02 -3.752441e-01 2.001953e-01
-3.399318e-01 4.228502e+00 -2.226514e+01 2.201172e+01 -1.958534e-04 1.126760e-02 -3.752441e-01 2.001953e-01
-3.375393e-01 4.236715e+00 -2.347510e+01 2.212427e+01 -1.914671e-04 1.128098e-02 -3.752441e-01 2.001953e-01
-3.053752e-01 4.230334e+00 -2.278271e+01 2.153003e+01 -1.831215e-04 1.118360e-02 -3.752441e-01 2.001953e-01
-3.514270e-01 4.243566e+00 -2.226514e+01 2.212427e+01 -1.883054e-04 1.113426e-02 -3.752441e-01 1.760254e-01
-3.050766e-01 4.262043e+00 -2.347510e+01 2.201172e+01 -1.984861e-04 1.141109e-02 -3.752441e-01 2.001953e-01
-3.579466e-01 4.303641e+00 -2.347510e+01 2.212427e+01 -1.991089e-04 1.125901e-02 -3.752441e-01 1.760254e-01
-3.499990e-01 4.251567e+00 -2.347510e+01 2.212427e+01 -1.589536e-04 1.106290e-02 -3.471680e-01 2.001953e-01
-2.850499e-01 4.213324e+00 -2.278271e+01 2.212427e+01 -1.928308e-04 1.127945e-02 -3.752441e-01 2.001953e-01
-3.059359e-01 4.288896e+00 -2.347510e+01 1.999219e+01 -1.920524e-04 1.128752e-02 -3.752441e-01 2.001953e-01
-3.611191e-01 4.162537e+00 -2.201953e+01 2.201172e+01 -1.864241e-04 1.143882e-02 -3.752441e-01 2.001953e-01
-3.427644e-01 4.210009e+00 -2.278271e+01 2.201172e+01 -1.884244e-04 1.128980e-02 -3.752441e-01 2.001953e-01
-3.651142e-01 4.224281e+00 -2.263184e+01 2.129077e+01 -1.900572e-04 1.117217e-02 -3.752441e-01 1.760254e-01
-3.854398e-01 4.197704e+00 -2.263184e+01 2.201172e+01 -1.860699e-04 1.131365e-02 -3.752441e-01 2.001953e-01
-3.098379e-01 4.234613e+00 -2.347510e+01 2.201172e+01 -1.745621e-04 1.139281e-02 -3.752441e-01 2.001953e-01
-2.977845e-01 4.235412e+00 -2.278271e+01 2.212427e+01 -2.003289e-04 1.135226e-02 -3.620605e-01 2.001953e-01
-3.146267e-01 4.228341e+00 -2.201953e+01 2.201172e+01 -1.850586e-04 1.123601e-02 -3.752441e-01 1.760254e-01
-3.355721e-01 4.270844e+00 -2.201953e+01 2.212427e+01 -1.740958e-04 1.127041e-02 -3.752441e-01 2.001953e-01
-3.118659e-01 4.196517e+00 -2.347510e+01 2.201172e+01 -1.833192e-04 1.146762e-02 -3.620605e-01 2.001953e-01
-4.175997e-01 4.271991e+00 -2.347510e+01 2.201172e+01 -1.782048e-04 1.108858e-02 -3.752441e-01 1.760254e-01
-3.239339e-01 4.232490e+00 -2.226514e+01 2.153003e+01 -1.939117e-04 1.137546e-02 -3.752441e-01 2.001953e-01
-3.500326e-01 4.230114e+00 -2.347510e+01 2.201172e+01 -1.998100e-04 1.151849e-02 -3.752441e-01 2.001953e-01
-3.271447e-01 4.255120e+00 -2.347510e+01 2.201172e+01 -1.758522e-04 1.123283e-02 -3.752441e-01 2.001953e-01
-3.331210e-01 4.146916e+00 -2.347510e+01 2.028711e+01 -1.846170e-04 1.124716e-02 -3.752441e-01 1.760254e-01
-3.736770e-01 4.202589e+00 -2.263184e+01 2.212427e+01 -2.098058e-04 1.145492e-02 -3.752441e-01 2.001953e-01
-2.990818e-01 4.161803e+00 -2.347510e+01 2.028711e+01 -1.792303e-04 1.113066e-02 -3.752441e-01 2.001953e-01
-2.803659e-01 4.258981e+00 -2.278271e+01 2.212427e+01 -1.799200e-04 1.131136e-02 -3.752441e-01 2.001953e-01
-3.398987e-01 4.272485e+00 -1.999072e+01 2.212427e+01 -2.004360e-04 1.105920e-02 -3.620605e-01 2.001953e-01
-3.602562e-01 4.311025e+00 -2.278271e+01 2.153003e+01 -1.861537e-04 1.119206e-02 -3.752441e-01 2.001953e-01
-3.220682e-01 4.223703e+00 -2.347510e+01 2.212427e+01 -1.823952e-04 1.138075e-02 -3.752441e-01 2.001953e-01
-3.650060e-01 4.223915e+00 -2.201953e+01 2.153003e+01 -1.948485e-04 1.138804e-02 -3.752441e-01 2.001953e-01
-3.291073e-01 4.292807e+00 -2.347510e+01 2.028711e+01 -1.791292e-04 1.114614e-02 -3.471680e-01 2.001953e-01
-3.754607e-01 4.236105e+00 -2.226514e+01 1.996094e+01 -1.765468e-04 1.133538e-02 -3.752441e-01 2.001953e-01
-3.409755e-01 4.168950e+00 -2.178369e+01 2.212427e+01 -1.845241e-04 1.104432e-02 -3.471680e-01 2.001953e-01
-2.995676e-01 4.276162e+00 -2.263184e+01 2.201172e+01 -1.840807e-04 1.118181e-02 -3.752441e-01 2.001953e-01
-2.939804e-01 4.259799e+00 -2.226514e+01 2.028711e+01 -1.911948e-04 1.121157e-02 -3.752441e-01 2.001953e-01
-3.979682e-01 4.179733e+00 -1.943164e+01 2.028711e+01 -1.838294e-04 1.154960e-02 -3.752441e-01 2.001953e-01
-3.609331e-01 4.182587e+00 -2.347510e+01 2.201172e+01 -1.847456e-04 1.101747e-02 -3.752441e-01 1.760254e-01
-3.275587e-01 4.274480e+00 -2.226514e+01 2.212427e+01 -1.859802e-04 1.129029e-02 -3.752441e-01 2.001953e-01
-3.352706e-01 4.207557e+00 -2.226514e+01 2.201172e+01 -1.823289e-04 1.122039e-02 -3.752441e-01 2.001953e-01
-3.580361e-01 4.230898e+00 -2.278271e+01 2.201172e+01 -1.912676e-04 1.144862e-02 -3.620605e-01 2.001953e-01
-3.467461e-01 4.263984e+00 -2.278271e+01 2.201172e+01 -1.874217e-04 1.156318e-02 -3.752441e-01 2.001953e-01
-3.622350e-01 4.249571e+00 -2.347510e+01 2.129077e+01 -1.815473e-04 1.128118e-02 -3.752441e-01 2.001953e-01
-3.233061e-01 4.247104e+00 -2.201953e+01 2.201172e+01 -1.709360e-04 1.102447e-02 -3.471680e-01 2.001953e-01
-3.634788e-01 4.257989e+00 -2.263184e+01 2.153003e+01 -1.793594e-04 1.110152e-02 -3.752441e-01 1.760254e-01
-2.982253e-01 4.250325e+00 -2.278271e+01 2.212427e+01 -1.735906e-04 1.095901e-02 -3.471680e-01 2.001953e-01
-3.214968e-01 4.206678e+00 -2.278271e+01 2.212427e+01 -1.879741e-04 1.117044e-02 -3.752441e-01 2.001953e-01
-4.021523e-01 4.199444e+00 -2.263184e+01 2.201172e+01 -1.942623e-04 1.131674e-02 -3.752441e-01 2.001953e-01
-3.809451e-01 4.241999e+00 -2.347510e+01 2.153003e+01 -1.937918e-04 1.113788e-02 -3.471680e-01 2.001953e-01
-3.627744e-01 4.242415e+00 -2.347510e+01 2.212427e+01 -1.792734e-04 1.151512e-02 -3.752441e-01 2.001953e-01
-3.639631e-01 4.263902e+00 -2.178369e+01 2.212427e+01 -1.909747e-04 1.108558e-02 -3.752441e-01 2.001953e-01
-2.886173e-01 4.219594e+00 -2.347510e+01 2.201172e+01 -1.746418e-04 1.134196e-02 -3.752441e-01 2.001953e-01
-3.529152e-01 4.244418e+00 -2.347510e+01 2.153003e+01 -1.984879e-04 1.142420e-02 -3.620605e-01 2.001953e-01
-3.900115e-01 4.311838e+00 -2.347510e+01 1.956104e+01 -1.696624e-04 1.128382e-02 -3.752441e-01 2.001953e-01
-3.545245e-01 4.226975e+00 -2.347510e+01 1.999219e+01 -1.762695e-04 1.093218e-02 -3.752441e-01 2.001953e-01
-3.982795e-01 4.175927e+00 -2.278271e+01 2.028711e+01 -1.760247e-04 1.155944e-02 -3.752441e-01 2.001953e-01
-3.885927e-01 4.209193e+00 -2.178369e+01 1.999219e+01 -1.781050e-04 1.134271e-02 -3.752441e-01 2.001953e-01
-3.662211e-01 4.292085e+00 -2.263184e+01 2.201172e+01 -1.824030e-04 1.131752e-02 -3.752441e-01 2.001953e-01
-3.244974e-01 4.262049e+00 -2.226514e+01 2.212427e+01 -2.091226e-04 1.142924e-02 -3.752441e-01 2.001953e-01
-3.408124e-01 4.163552e+00 -2.278271e+01 2.129077e+01 -2.024619e-04 1.136639e-02 -3.752441e-01 2.001953e-01
-3.289415e-01 4.276806e+00 -2.201953e+01 2.212427e+01 -2.022418e-04 1.131908e-02 -3.752441e-01 2.001953e-01
-3.503959e-01 4.217814e+00 -2.263184e+01 2.129077e+01 -1.886628e-04 1.146341e-02 -3.752441e-01 2.001953e-01
-3.399946e-01 4.190492e+00 -2.347510e+01 2.212427e+01 -1.977534e-04 1.119332e-02 -3.752441e-01 1.760254e-01
-3.140558e-01 4.188302e+00 -2.278271e+01 2.129077e+01 -1.911033e-04 1.119420e-02 -3.752441e-01 2.001953e-01
-3.720454e-01 4.239445e+00 -2.178369e+01 2.212427e+01 -1.821683e-04 1.118729e-02 -3.752441e-01 2.001953e-01
-3.735770e-01 4.239848e+00 -2.278271e+01 2.212427e+01 -1.987822e-04 1.121531e-02 -3.752441e-01 2.001953e-01
-3.694054e-01 4.272254e+00 -2.347510e+01 2.212427e+01 -1.671034e-04 1.111052e-02 -3.752441e-01 2.001953e-01
-3.609173e-01 4.242261e+00 -2.226514e+01 2.153003e+01 -1.955015e-04 1.126432e-02 -3.752441e-01 2.001953e-01
-3.234429e-01 4.218428e+00 -2.278271e+01 2.201172e+01 -2.047802e-04 1.128018e-02 -3.752441e-01 2.001953e-01
-3.434549e-01 4.238547e+00 -2.278271e+01 2.201172e+01 -1.836857e-04 1.130693e-02 -3.752441e-01 2.001953e-01
-3.312819e-01 4.212738e+00 -2.178369e+01 2.212427e+01 -1.991634e-04 1.148299e-02 -3.752441e-01 2.001953e-01
-4.195996e-01 4.248316e+00 -2.178369e+01 2.129077e+01 -1.642881e-04 1.101226e-02 -3.471680e-01 2.001953e-01
-3.646631e-01 4.245981e+00 -2.347510e+01 2.212427e+01 -1.784789e-04 1.103612e-02 -3.752441e-01 2.001953e-01
-2.895922e-01 4.239169e+00 -2.347510e+01 2.212427e+01 -1.925361e-04 1.136146e-02 -3.752441e-01 2.001953e-01
-3.873299e-01 4.188799e+00 -2.347510e+01 2.201172e+01 -1.938980e-04 1.106305e-02 -3.752441e-01 1.760254e-01
-3.997352e-01 4.275532e+00 -2.347510e+01 2.201172e+01 -1.964007e-04 1.139040e-02 -3.752441e-01 2.001953e-01
-3.893757e-01 4.255565e+00 -2.347510e+01 2.153003e+01 -1.732154e-04 1.107850e-02 -3.471680e-01 1.760254e-01
-3.246444e-01 4.175706e+00 -2.347510e+01 2.212427e+01 -1.730607e-04 1.153738e-02 -3.752441e-01 2.001953e-01
-3.577758e-01 4.236250e+00 -2.347510e+01 1.996094e+01 -1.765688e-04 1.106569e-02 -3.471680e-01 2.001953e-01
-3.265999e-01 4.254721e+00 -2.178369e+01 2.212427e+01 -1.857917e-04 1.140173e-02 -3.752441e-01 1.760254e-01
-3.136873e-01 4.290240e+00 -2.263184e+01 2.212427e+01 -1.836349e-04 1.097098e-02 -3.752441e-01 2.001953e-01
-3.477985e-01 4.302079e+00 -2.263184e+01 2.028711e+01 -1.916053e-04 1.137645e-02 -3.752441e-01 2.001953e-01
-3.375814e-01 4.188288e+00 -2.226514e+01 2.153003e+01 -1.797735e-04 1.114296e-02 -3.620605e-01 1.760254e-01
-3.943568e-01 4.298607e+00 -2.278271e+01 2.129077e+01 -1.917321e-04 1.154986e-02 -3.752441e-01 2.001953e-01
-3.423438e-01 4.190581e+00 -2.263184e+01 2.028711e+01 -1.662833e-04 1.112838e-02 -3.752441e-01 2.001953e-01
-3.272518e-01 4.274427e+00 -2.110938e+01 2.212427e+01 -1.883905e-04 1.139096e-02 -3.752441e-01 2.001953e-01
-3.275487e-01 4.259659e+00 -2.226514e+01 1.996094e+01 -1.739608e-04 1.140629e-02 -3.752441e-01 2.001953e-01
-3.418689e-01 4.215894e+00 -2.278271e+01 2.201172e+01 -1.904521e-04 1.140422e-02 -3.752441e-01 2.001953e-01
-3.666612e-01 4.228467e+00 -2.178369e+01 1.982153e+01 -1.820836e-04 1.142516e-02 -3.752441e-01 1.760254e-01
-3.685929e-01 4.238874e+00 -2.278271e+01 2.201172e+01 -1.921444e-04 1.097919e-02 -3.752441e-01 2.001953e-01
-3.482201e-01 4.169474e+00 -2.347510e+01 1.999219e+01 -1.789965e-04 1.138539e-02 -3.620605e-01 2.001953e-01
-3.692888e-01 4.228605e+00 -2.263184e+01 2.028711e+01 -1.797937e-04 1.122526e-02 -3.752441e-01 2.001953e-01
-3.614721e-01 4.254372e+00 -2.278271e+01 2.212427e+01 -1.977132e-04 1.154522e-02 -3.752441e-01 2.001953e-01
-3.515793e-01 4.219634e+00 -2.347510e+01 2.201172e+01 -1.697645e-04 1.128817e-02 -3.752441e-01 1.760254e-01
-3.843542e-01 4.201470e+00 -2.263184e+01 2.212427e+01 -1.918739e-04 1.114440e-02 -3.752441e-01 2.001953e-01
-3.322060e-01 4.214377e+00 -2.347510e+01 2.212427e+01 -1.900526e-04 1.137445e-02 -3.471680e-01 2.001953e-01
-2.959551e-01 4.296169e+00 -2.278271e+01 2.212427e+01 -1.876615e-04 1.097107e-02 -3.752441e-01 2.001953e-01
-3.692906e-01 4.258002e+00 -2.278271e+01 2.212427e+01 -1.887415e-04 1.126594e-02 -3.752441e-01 2.001953e-01
-3.271512e-01 4.282276e+00 -2.263184e+01 2.212427e+01 -1.811661e-04 1.171619e-02 -3.752441e-01 1.760254e-01
-2.815560e-01 4.223203e+00 -2.263184e+01 2.129077e+01 -1.981214e-04 1.129076e-02 -3.752441e-01 2.001953e-01
