7.248438e+01 6.302083e-01 -4.562745e-02 5.819869e-01 -9.960938e-01 9.960938e-01
5.789062e+01 3.697917e-01 -5.201857e-02 5.808059e-01 -1.007812e+00 9.960938e-01
5.755469e+01 3.697917e-01 -5.624182e-02 5.814944e-01 -1.019531e+00 9.960938e-01
5.769141e+01 3.697917e-01 -5.838923e-02 5.819168e-01 -1.031250e+00 9.960938e-01
5.785547e+01 3.697917e-01 -5.994355e-02 5.818743e-01 -1.039062e+00 9.921875e-01
5.786719e+01 3.697917e-01 -6.073094e-02 5.821036e-01 -1.042969e+00 1.000000e+00
5.756641e+01 3.697917e-01 -6.173307e-02 5.818353e-01 -1.050781e+00 9.921875e-01
5.728125e+01 3.697917e-01 -6.298061e-02 5.818228e-01 -1.058594e+00 9.921875e-01
5.790234e+01 3.697917e-01 -6.450425e-02 5.816376e-01 -1.066406e+00 9.921875e-01
5.749609e+01 3.697917e-01 -6.610970e-02 5.815341e-01 -1.070312e+00 9.921875e-01
5.750391e+01 3.697917e-01 -6.699935e-02 5.815027e-01 -1.070312e+00 9.921875e-01
5.804297e+01 3.697917e-01 -6.791967e-02 5.815260e-01 -1.070312e+00 9.921875e-01
5.760547e+01 3.697917e-01 -6.897292e-02 5.815832e-01 -1.074219e+00 9.921875e-01
5.763281e+01 3.697917e-01 -6.922857e-02 5.820150e-01 -1.074219e+00 9.921875e-01
5.773047e+01 3.697917e-01 -7.033295e-02 5.822125e-01 -1.078125e+00 9.921875e-01
5.696484e+01 3.697917e-01 -7.134530e-02 5.825674e-01 -1.078125e+00 9.921875e-01
5.768359e+01 3.697917e-01 -7.202021e-02 5.827479e-01 -1.070312e+00 9.921875e-01
5.664844e+01 3.697917e-01 -7.311437e-02 5.830169e-01 -1.062500e+00 9.921875e-01
5.697656e+01 3.697917e-01 -7.414717e-02 5.833570e-01 -1.054688e+00 9.921875e-01
5.723438e+01 3.697917e-01 -7.469936e-02 5.838876e-01 -1.046875e+00 9.921875e-01
5.714062e+01 3.697917e-01 -7.601849e-02 5.839963e-01 -1.039062e+00 9.921875e-01
5.721094e+01 3.697917e-01 -7.627413e-02 5.844168e-01 -1.035156e+00 9.921875e-01
5.727734e+01 3.697917e-01 -7.758303e-02 5.842237e-01 -1.031250e+00 9.921875e-01
5.711719e+01 3.697917e-01 -7.853403e-02 5.846005e-01 -1.031250e+00 9.921875e-01
5.739062e+01 3.697917e-01 -7.906577e-02 5.853934e-01 -1.035156e+00 9.921875e-01
5.764062e+01 3.697917e-01 -7.996564e-02 5.855196e-01 -1.031250e+00 9.921875e-01
5.744141e+01 3.697917e-01 -8.122341e-02 5.860709e-01 -1.031250e+00 9.921875e-01
5.813281e+01 3.697917e-01 -8.249141e-02 5.860729e-01 -1.031250e+00 9.921875e-01
5.825781e+01 3.697917e-01 -8.341173e-02 5.861887e-01 -1.031250e+00 9.921875e-01
5.783203e+01 3.697917e-01 -8.482289e-02 5.860829e-01 -1.035156e+00 9.921875e-01
5.784766e+01 3.697917e-01 -8.566140e-02 5.858050e-01 -1.035156e+00 9.921875e-01
5.770703e+01 3.697917e-01 -8.693963e-02 5.859132e-01 -1.035156e+00 9.921875e-01
5.744141e+01 3.697917e-01 -8.830988e-02 5.854088e-01 -1.031250e+00 9.921875e-01
5.780469e+01 3.697917e-01 -8.914840e-02 5.855051e-01 -1.031250e+00 9.921875e-01
5.761328e+01 3.697917e-01 -9.042662e-02 5.852039e-01 -1.031250e+00 9.921875e-01
5.737500e+01 3.697917e-01 -9.149010e-02 5.849918e-01 -1.031250e+00 9.960938e-01
5.725391e+01 3.697917e-01 -9.217523e-02 5.848326e-01 -1.031250e+00 9.921875e-01
5.736719e+01 3.697917e-01 -9.315690e-02 5.848196e-01 -1.031250e+00 9.921875e-01
5.748828e+01 3.697917e-01 -9.414881e-02 5.849302e-01 -1.031250e+00 9.921875e-01
5.792969e+01 3.697917e-01 -9.526342e-02 5.848366e-01 -1.031250e+00 9.921875e-01
5.796094e+01 3.697917e-01 -9.642916e-02 5.847379e-01 -1.031250e+00 9.921875e-01
5.813281e+01 3.697917e-01 -9.755399e-02 5.845039e-01 -1.031250e+00 9.921875e-01
5.848047e+01 3.697917e-01 -9.894470e-02 5.842888e-01 -1.035156e+00 9.921875e-01
5.726562e+01 3.697917e-01 -1.006217e-01 5.840530e-01 -1.042969e+00 9.921875e-01
5.650781e+01 3.697917e-01 -1.024419e-01 5.838648e-01 -1.050781e+00 9.921875e-01
5.664844e+01 3.697917e-01 -1.032702e-01 5.838465e-01 -1.050781e+00 9.921875e-01
5.607812e+01 3.697917e-01 -1.046609e-01 5.839796e-01 -1.058594e+00 9.921875e-01
5.550000e+01 3.697917e-01 -1.051927e-01 5.844617e-01 -1.058594e+00 9.921875e-01
5.539062e+01 3.697917e-01 -1.059289e-01 5.849882e-01 -1.058594e+00 9.921875e-01
5.575781e+01 3.697917e-01 -1.067061e-01 5.855924e-01 -1.062500e+00 9.921875e-01
5.622266e+01 3.697917e-01 -1.077696e-01 5.860852e-01 -1.066406e+00 9.921875e-01
5.632812e+01 3.697917e-01 -1.085160e-01 5.864066e-01 -1.066406e+00 9.960938e-01
5.639453e+01 3.697917e-01 -1.084854e-01 5.872510e-01 -1.074219e+00 1.000000e+00
5.623438e+01 3.697917e-01 -1.086899e-01 5.877737e-01 -1.078125e+00 1.003906e+00
5.580859e+01 3.697917e-01 -1.091603e-01 5.884876e-01 -1.085938e+00 1.003906e+00
5.541406e+01 3.697917e-01 -1.097943e-01 5.888149e-01 -1.089844e+00 1.003906e+00
5.503516e+01 3.697917e-01 -1.106021e-01 5.892585e-01 -1.093750e+00 1.000000e+00
5.526953e+01 3.697917e-01 -1.106225e-01 5.897387e-01 -1.097656e+00 9.960938e-01
5.564453e+01 3.697917e-01 -1.109498e-01 5.900971e-01 -1.105469e+00 9.960938e-01
5.602344e+01 3.697917e-01 -1.121973e-01 5.903776e-01 -1.113281e+00 9.960938e-01
5.689453e+01 3.697917e-01 -1.136801e-01 5.902203e-01 -1.121094e+00 9.960938e-01
5.794922e+01 3.697917e-01 -1.149276e-01 5.902769e-01 -1.128906e+00 9.960938e-01
5.910156e+01 3.697917e-01 -1.160524e-01 5.900293e-01 -1.128906e+00 9.921875e-01
5.780078e+01 3.697917e-01 -1.176477e-01 5.895907e-01 -1.132812e+00 9.921875e-01
5.574219e+01 3.697917e-01 -1.184350e-01 5.893649e-01 -1.144531e+00 9.921875e-01
5.432031e+01 3.697917e-01 -1.200405e-01 5.888393e-01 -1.164062e+00 9.921875e-01
5.553906e+01 3.697917e-01 -1.209710e-01 5.888130e-01 -1.171875e+00 9.921875e-01
5.718359e+01 3.697917e-01 -1.211142e-01 5.889263e-01 -1.191406e+00 9.921875e-01
5.192188e+01 3.697917e-01 -1.208279e-01 5.893579e-01 -1.199219e+00 9.921875e-01
5.666797e+01 3.697917e-01 -1.216562e-01 5.894862e-01 -1.210938e+00 9.921875e-01
5.288281e+01 3.697917e-01 -1.223515e-01 5.897089e-01 -1.238281e+00 9.921875e-01
5.195312e+01 3.697917e-01 -1.225151e-01 5.901839e-01 -1.218750e+00 9.921875e-01
5.258984e+01 3.750000e-01 -1.227606e-01 5.907449e-01 -1.234375e+00 9.921875e-01
5.356250e+01 3.645833e-01 -1.229446e-01 5.914554e-01 -1.234375e+00 9.921875e-01
5.232812e+01 3.593750e-01 -1.234764e-01 5.920030e-01 -1.250000e+00 9.921875e-01
5.335156e+01 3.697917e-01 -1.234866e-01 5.927822e-01 -1.238281e+00 9.921875e-01
5.286328e+01 3.645833e-01 -1.237729e-01 5.934784e-01 -1.250000e+00 9.921875e-01
5.580859e+01 3.697917e-01 -1.241819e-01 5.940442e-01 -1.257812e+00 9.921875e-01
5.205859e+01 3.697917e-01 -1.242535e-01 5.947883e-01 -1.257812e+00 9.921875e-01
5.327734e+01 3.697917e-01 -1.247955e-01 5.951486e-01 -1.257812e+00 9.921875e-01
5.465625e+01 3.697917e-01 -1.251636e-01 5.957544e-01 -1.261719e+00 9.921875e-01
5.201562e+01 3.593750e-01 -1.255726e-01 5.962834e-01 -1.269531e+00 9.921875e-01
5.279688e+01 3.645833e-01 -1.259203e-01 5.969942e-01 -1.269531e+00 9.921875e-01
5.349219e+01 3.645833e-01 -1.261657e-01 5.975252e-01 -1.269531e+00 9.921875e-01
5.329688e+01 3.802083e-01 -1.267895e-01 5.980793e-01 -1.273438e+00 9.921875e-01
5.305859e+01 3.697917e-01 -1.265645e-01 5.992647e-01 -1.273438e+00 9.921875e-01
5.383203e+01 3.802083e-01 -1.268406e-01 6.000362e-01 -1.281250e+00 9.921875e-01
5.304688e+01 3.697917e-01 -1.265236e-01 6.010986e-01 -1.289062e+00 1.000000e+00
5.276562e+01 3.750000e-01 -1.266566e-01 6.018420e-01 -1.296875e+00 1.003906e+00
5.142578e+01 3.802083e-01 -1.265134e-01 6.026248e-01 -1.304688e+00 1.003906e+00
4.996875e+01 3.697917e-01 -1.264623e-01 6.034038e-01 -1.308594e+00 1.003906e+00
5.158203e+01 3.697917e-01 -1.264521e-01 6.038973e-01 -1.316406e+00 1.000000e+00
5.146875e+01 3.854167e-01 -1.266770e-01 6.045964e-01 -1.324219e+00 1.000000e+00
5.122266e+01 3.802083e-01 -1.273110e-01 6.050584e-01 -1.328125e+00 1.000000e+00
5.037500e+01 3.645833e-01 -1.272088e-01 6.058296e-01 -1.335938e+00 1.000000e+00
4.993359e+01 3.593750e-01 -1.272088e-01 6.067213e-01 -1.343750e+00 1.003906e+00
5.089062e+01 3.854167e-01 -1.270452e-01 6.077003e-01 -1.351562e+00 1.007812e+00
4.910547e+01 3.802083e-01 -1.266361e-01 6.084711e-01 -1.351562e+00 1.011719e+00
5.158594e+01 3.802083e-01 -1.269736e-01 6.091033e-01 -1.355469e+00 1.015625e+00
5.099219e+01 3.802083e-01 -1.264725e-01 6.100365e-01 -1.355469e+00 1.031250e+00
5.104688e+01 3.802083e-01 -1.267997e-01 6.108711e-01 -1.355469e+00 1.031250e+00
5.330469e+01 3.906250e-01 -1.269327e-01 6.116211e-01 -1.359375e+00 1.042969e+00
4.895312e+01 3.645833e-01 -1.267895e-01 6.121433e-01 -1.359375e+00 1.039062e+00
4.962891e+01 3.489583e-01 -1.265441e-01 6.128084e-01 -1.359375e+00 1.054688e+00
4.874219e+01 3.541667e-01 -1.267691e-01 6.136647e-01 -1.363281e+00 1.050781e+00
4.864844e+01 3.385417e-01 -1.267691e-01 6.143896e-01 -1.363281e+00 1.058594e+00
5.046875e+01 3.489583e-01 -1.267588e-01 6.150512e-01 -1.363281e+00 1.054688e+00
5.160156e+01 3.697917e-01 -1.265952e-01 6.156172e-01 -1.363281e+00 1.066406e+00
5.158203e+01 3.229167e-01 -1.266668e-01 6.161126e-01 -1.367188e+00 1.070312e+00
4.911719e+01 3.281250e-01 -1.272804e-01 6.165540e-01 -1.367188e+00 1.070312e+00
4.959375e+01 3.020833e-01 -1.280882e-01 6.166590e-01 -1.371094e+00 1.062500e+00
4.957422e+01 3.489583e-01 -1.284563e-01 6.169884e-01 -1.375000e+00 1.062500e+00
4.966797e+01 3.177083e-01 -1.285995e-01 6.172011e-01 -1.378906e+00 1.058594e+00
4.982422e+01 3.385417e-01 -1.289881e-01 6.175605e-01 -1.382812e+00 1.058594e+00
4.879297e+01 3.125000e-01 -1.289778e-01 6.182102e-01 -1.386719e+00 1.062500e+00
4.966797e+01 3.645833e-01 -1.292028e-01 6.187336e-01 -1.390625e+00 1.082031e+00
4.854688e+01 3.281250e-01 -1.294073e-01 6.193724e-01 -1.386719e+00 1.074219e+00
4.851953e+01 3.385417e-01 -1.294891e-01 6.198009e-01 -1.386719e+00 1.082031e+00
4.809375e+01 3.177083e-01 -1.290903e-01 6.204661e-01 -1.386719e+00 1.097656e+00
4.867969e+01 3.229167e-01 -1.288244e-01 6.212544e-01 -1.386719e+00 1.097656e+00
4.849609e+01 3.229167e-01 -1.289165e-01 6.219647e-01 -1.386719e+00 1.105469e+00
4.862500e+01 3.020833e-01 -1.290903e-01 6.223359e-01 -1.386719e+00 1.105469e+00
4.885156e+01 3.072917e-01 -1.289267e-01 6.229794e-01 -1.386719e+00 1.128906e+00
4.789062e+01 2.916667e-01 -1.295505e-01 6.233692e-01 -1.390625e+00 1.109375e+00
4.744531e+01 2.812500e-01 -1.293664e-01 6.242675e-01 -1.390625e+00 1.125000e+00
5.050000e+01 3.593750e-01 -1.288551e-01 6.254751e-01 -1.386719e+00 1.152344e+00
4.886719e+01 2.916667e-01 -1.291619e-01 6.260342e-01 -1.382812e+00 1.125000e+00
4.674609e+01 2.708333e-01 -1.290290e-01 6.269613e-01 -1.382812e+00 1.144531e+00
4.675391e+01 2.812500e-01 -1.298982e-01 6.271587e-01 -1.386719e+00 1.121094e+00
4.868359e+01 2.812500e-01 -1.300515e-01 6.278425e-01 -1.386719e+00 1.125000e+00
4.655469e+01 3.020833e-01 -1.298163e-01 6.287817e-01 -1.386719e+00 1.136719e+00
4.667188e+01 3.281250e-01 -1.304197e-01 6.290119e-01 -1.390625e+00 1.132812e+00
4.651562e+01 2.916667e-01 -1.305833e-01 6.292651e-01 -1.394531e+00 1.121094e+00
4.784766e+01 3.385417e-01 -1.305424e-01 6.296334e-01 -1.394531e+00 1.125000e+00
4.733984e+01 3.125000e-01 -1.309003e-01 6.297649e-01 -1.398438e+00 1.125000e+00
4.853516e+01 3.489583e-01 -1.309821e-01 6.303013e-01 -1.402344e+00 1.136719e+00
4.706641e+01 2.864583e-01 -1.315956e-01 6.305676e-01 -1.402344e+00 1.121094e+00
4.814062e+01 3.281250e-01 -1.313911e-01 6.312763e-01 -1.406250e+00 1.128906e+00
4.508203e+01 3.125000e-01 -1.316774e-01 6.318648e-01 -1.410156e+00 1.128906e+00
4.629688e+01 3.437500e-01 -1.312786e-01 6.325150e-01 -1.410156e+00 1.132812e+00
4.719922e+01 3.593750e-01 -1.311252e-01 6.334536e-01 -1.410156e+00 1.140625e+00
4.592969e+01 3.697917e-01 -1.314116e-01 6.337850e-01 -1.414062e+00 1.140625e+00
4.583984e+01 3.125000e-01 -1.316365e-01 6.344560e-01 -1.417969e+00 1.152344e+00
4.935938e+01 3.645833e-01 -1.307673e-01 6.355728e-01 -1.417969e+00 1.167969e+00
4.880078e+01 3.541667e-01 -1.312480e-01 6.363412e-01 -1.421875e+00 1.167969e+00
4.678906e+01 3.697917e-01 -1.313298e-01 6.368417e-01 -1.421875e+00 1.164062e+00
4.588281e+01 3.125000e-01 -1.313298e-01 6.375771e-01 -1.425781e+00 1.175781e+00
4.671484e+01 3.489583e-01 -1.315547e-01 6.384370e-01 -1.425781e+00 1.183594e+00
4.639062e+01 3.229167e-01 -1.316570e-01 6.390391e-01 -1.429688e+00 1.187500e+00
4.769922e+01 2.812500e-01 -1.321069e-01 6.396082e-01 -1.433594e+00 1.207031e+00
4.622656e+01 3.072917e-01 -1.321171e-01 6.407123e-01 -1.433594e+00 1.226562e+00
4.749609e+01 3.229167e-01 -1.326182e-01 6.408309e-01 -1.433594e+00 1.222656e+00
4.752344e+01 3.333333e-01 -1.326080e-01 6.421928e-01 -1.433594e+00 1.246094e+00
4.751953e+01 3.437500e-01 -1.328636e-01 6.427465e-01 -1.437500e+00 1.261719e+00
4.718750e+01 3.437500e-01 -1.326898e-01 6.436077e-01 -1.437500e+00 1.277344e+00
4.830859e+01 3.385417e-01 -1.327716e-01 6.442171e-01 -1.437500e+00 1.277344e+00
4.878516e+01 3.281250e-01 -1.333340e-01 6.445848e-01 -1.441406e+00 1.296875e+00
4.950000e+01 3.229167e-01 -1.339271e-01 6.446732e-01 -1.437500e+00 1.304688e+00
4.791406e+01 3.333333e-01 -1.335999e-01 6.458027e-01 -1.433594e+00 1.316406e+00
4.684766e+01 3.281250e-01 -1.340191e-01 6.463039e-01 -1.437500e+00 1.320312e+00
4.919531e+01 3.489583e-01 -1.338555e-01 6.473745e-01 -1.441406e+00 1.343750e+00
4.565625e+01 3.229167e-01 -1.342134e-01 6.483568e-01 -1.441406e+00 1.351562e+00
4.617969e+01 3.333333e-01 -1.340805e-01 6.494396e-01 -1.445312e+00 1.367188e+00
4.610547e+01 3.281250e-01 -1.342134e-01 6.501339e-01 -1.445312e+00 1.394531e+00
4.799609e+01 3.281250e-01 -1.342441e-01 6.512737e-01 -1.453125e+00 1.402344e+00
4.773047e+01 3.281250e-01 -1.342237e-01 6.522362e-01 -1.453125e+00 1.417969e+00
4.960547e+01 3.281250e-01 -1.342543e-01 6.529485e-01 -1.453125e+00 1.437500e+00
5.136328e+01 3.489583e-01 -1.334976e-01 6.545706e-01 -1.453125e+00 1.460938e+00
4.999609e+01 3.541667e-01 -1.330784e-01 6.560019e-01 -1.457031e+00 1.464844e+00
4.769531e+01 3.489583e-01 -1.325978e-01 6.571903e-01 -1.460938e+00 1.464844e+00
4.811719e+01 3.437500e-01 -1.323012e-01 6.581038e-01 -1.468750e+00 1.472656e+00
4.889062e+01 3.229167e-01 -1.322296e-01 6.588424e-01 -1.476562e+00 1.472656e+00
4.781641e+01 3.854167e-01 -1.318922e-01 6.597675e-01 -1.484375e+00 1.488281e+00
4.792578e+01 3.489583e-01 -1.315036e-01 6.607294e-01 -1.488281e+00 1.484375e+00
4.846094e+01 3.281250e-01 -1.312889e-01 6.618761e-01 -1.492188e+00 1.500000e+00
4.922266e+01 3.437500e-01 -1.309616e-01 6.626545e-01 -1.496094e+00 1.503906e+00
5.157812e+01 3.593750e-01 -1.307162e-01 6.634721e-01 -1.500000e+00 1.511719e+00
4.953516e+01 3.854167e-01 -1.309821e-01 6.641596e-01 -1.503906e+00 1.492188e+00
4.989453e+01 3.697917e-01 -1.309003e-01 6.646641e-01 -1.507812e+00 1.500000e+00
4.924609e+01 3.489583e-01 -1.310741e-01 6.652055e-01 -1.511719e+00 1.507812e+00
4.796484e+01 3.437500e-01 -1.310741e-01 6.663384e-01 -1.515625e+00 1.515625e+00
4.875391e+01 3.333333e-01 -1.315445e-01 6.670742e-01 -1.519531e+00 1.519531e+00
4.772266e+01 3.541667e-01 -1.319229e-01 6.676802e-01 -1.527344e+00 1.519531e+00
4.776562e+01 3.697917e-01 -1.324444e-01 6.680388e-01 -1.527344e+00 1.519531e+00
4.802734e+01 3.385417e-01 -1.325875e-01 6.685720e-01 -1.527344e+00 1.515625e+00
4.872266e+01 3.385417e-01 -1.329863e-01 6.688371e-01 -1.527344e+00 1.515625e+00
4.875781e+01 3.437500e-01 -1.333545e-01 6.693103e-01 -1.531250e+00 1.519531e+00
4.829688e+01 3.125000e-01 -1.343975e-01 6.691009e-01 -1.531250e+00 1.511719e+00
4.857031e+01 3.333333e-01 -1.348781e-01 6.689460e-01 -1.535156e+00 1.500000e+00
4.696484e+01 3.229167e-01 -1.353485e-01 6.690328e-01 -1.535156e+00 1.500000e+00
4.671484e+01 3.437500e-01 -1.363506e-01 6.688394e-01 -1.539062e+00 1.496094e+00
4.623438e+01 3.125000e-01 -1.367085e-01 6.688320e-01 -1.539062e+00 1.496094e+00
4.618750e+01 2.968750e-01 -1.374652e-01 6.682836e-01 -1.539062e+00 1.488281e+00
4.643359e+01 3.333333e-01 -1.380481e-01 6.678234e-01 -1.539062e+00 1.484375e+00
4.616016e+01 3.489583e-01 -1.383753e-01 6.676012e-01 -1.539062e+00 1.488281e+00
4.830859e+01 3.593750e-01 -1.386207e-01 6.673564e-01 -1.542969e+00 1.488281e+00
4.839844e+01 3.802083e-01 -1.392036e-01 6.673768e-01 -1.546875e+00 1.492188e+00
4.860156e+01 3.645833e-01 -1.400012e-01 6.674588e-01 -1.546875e+00 1.484375e+00
4.968750e+01 3.489583e-01 -1.401955e-01 6.680302e-01 -1.546875e+00 1.488281e+00
4.834375e+01 3.437500e-01 -1.405432e-01 6.684029e-01 -1.546875e+00 1.484375e+00
4.847656e+01 3.489583e-01 -1.404000e-01 6.687168e-01 -1.546875e+00 1.484375e+00
4.821094e+01 3.489583e-01 -1.406557e-01 6.691344e-01 -1.546875e+00 1.488281e+00
4.875000e+01 3.541667e-01 -1.409829e-01 6.695499e-01 -1.546875e+00 1.488281e+00
4.903125e+01 3.750000e-01 -1.409318e-01 6.702263e-01 -1.546875e+00 1.488281e+00
4.900391e+01 3.593750e-01 -1.411056e-01 6.708382e-01 -1.546875e+00 1.492188e+00
4.864844e+01 3.489583e-01 -1.407988e-01 6.719016e-01 -1.542969e+00 1.496094e+00
4.873828e+01 3.645833e-01 -1.405739e-01 6.732421e-01 -1.558594e+00 1.503906e+00
4.920312e+01 3.489583e-01 -1.407375e-01 6.735437e-01 -1.566406e+00 1.500000e+00
4.917578e+01 3.593750e-01 -1.407170e-01 6.744579e-01 -1.570312e+00 1.511719e+00
4.990234e+01 3.385417e-01 -1.409215e-01 6.753823e-01 -1.585938e+00 1.519531e+00
5.089062e+01 3.489583e-01 -1.411261e-01 6.764256e-01 -1.593750e+00 1.515625e+00
5.010156e+01 3.750000e-01 -1.407886e-01 6.780857e-01 -1.593750e+00 1.531250e+00
5.038672e+01 3.697917e-01 -1.404921e-01 6.796732e-01 -1.605469e+00 1.550781e+00
5.059375e+01 3.541667e-01 -1.403694e-01 6.811283e-01 -1.609375e+00 1.558594e+00
5.059766e+01 3.489583e-01 -1.401546e-01 6.826753e-01 -1.621094e+00 1.570312e+00
5.108594e+01 3.385417e-01 -1.398785e-01 6.846353e-01 -1.628906e+00 1.574219e+00
5.207422e+01 3.385417e-01 -1.395717e-01 6.862475e-01 -1.636719e+00 1.585938e+00
5.176172e+01 3.645833e-01 -1.389173e-01 6.881930e-01 -1.644531e+00 1.609375e+00
5.267969e+01 3.541667e-01 -1.385492e-01 6.896437e-01 -1.656250e+00 1.609375e+00
5.274609e+01 3.645833e-01 -1.386207e-01 6.911360e-01 -1.664062e+00 1.617188e+00
5.296484e+01 3.697917e-01 -1.381708e-01 6.926144e-01 -1.667969e+00 1.625000e+00
5.326172e+01 3.541667e-01 -1.379356e-01 6.941441e-01 -1.671875e+00 1.636719e+00
5.325781e+01 3.697917e-01 -1.378640e-01 6.959213e-01 -1.675781e+00 1.648438e+00
5.361719e+01 3.697917e-01 -1.379561e-01 6.971812e-01 -1.683594e+00 1.656250e+00
5.282422e+01 3.697917e-01 -1.382219e-01 6.984475e-01 -1.695312e+00 1.671875e+00
5.271484e+01 3.697917e-01 -1.383344e-01 6.996301e-01 -1.687500e+00 1.675781e+00
5.243359e+01 3.697917e-01 -1.387230e-01 7.005520e-01 -1.699219e+00 1.679688e+00
5.216016e+01 3.697917e-01 -1.388048e-01 7.020672e-01 -1.707031e+00 1.691406e+00
5.194531e+01 3.697917e-01 -1.386310e-01 7.039021e-01 -1.726562e+00 1.707031e+00
5.224609e+01 3.697917e-01 -1.389071e-01 7.051439e-01 -1.718750e+00 1.707031e+00
5.169141e+01 3.697917e-01 -1.388968e-01 7.067756e-01 -1.730469e+00 1.714844e+00
5.115625e+01 3.697917e-01 -1.384980e-01 7.082177e-01 -1.738281e+00 1.730469e+00
5.142188e+01 3.697917e-01 -1.381606e-01 7.097744e-01 -1.738281e+00 1.734375e+00
5.141406e+01 3.697917e-01 -1.379561e-01 7.115945e-01 -1.742188e+00 1.742188e+00
5.149609e+01 3.697917e-01 -1.375675e-01 7.130526e-01 -1.750000e+00 1.750000e+00
5.192578e+01 3.697917e-01 -1.377413e-01 7.145978e-01 -1.757812e+00 1.753906e+00
5.161328e+01 3.697917e-01 -1.377516e-01 7.158762e-01 -1.765625e+00 1.765625e+00
5.164062e+01 3.697917e-01 -1.376697e-01 7.174975e-01 -1.769531e+00 1.777344e+00
5.210156e+01 3.697917e-01 -1.377413e-01 7.190527e-01 -1.769531e+00 1.785156e+00
5.179297e+01 3.697917e-01 -1.378947e-01 7.203771e-01 -1.777344e+00 1.785156e+00
5.192578e+01 3.697917e-01 -1.381810e-01 7.219842e-01 -1.781250e+00 1.796875e+00
5.165234e+01 3.697917e-01 -1.386105e-01 7.238781e-01 -1.796875e+00 1.800781e+00
5.206250e+01 3.697917e-01 -1.388457e-01 7.257504e-01 -1.800781e+00 1.804688e+00
5.177734e+01 3.697917e-01 -1.386719e-01 7.277550e-01 -1.804688e+00 1.824219e+00
5.050781e+01 3.750000e-01 -1.388253e-01 7.293981e-01 -1.804688e+00 1.824219e+00
5.182422e+01 3.697917e-01 -1.389684e-01 7.315378e-01 -1.808594e+00 1.832031e+00
5.178125e+01 3.697917e-01 -1.390707e-01 7.338344e-01 -1.796875e+00 1.839844e+00
5.165234e+01 3.697917e-01 -1.389786e-01 7.358678e-01 -1.796875e+00 1.851562e+00
5.318359e+01 3.958333e-01 -1.384367e-01 7.380485e-01 -1.828125e+00 1.867188e+00
5.217188e+01 3.697917e-01 -1.380788e-01 7.399996e-01 -1.812500e+00 1.867188e+00
5.257422e+01 3.697917e-01 -1.379458e-01 7.421034e-01 -1.824219e+00 1.875000e+00
5.148438e+01 3.697917e-01 -1.383037e-01 7.437710e-01 -1.828125e+00 1.882812e+00
5.303516e+01 3.645833e-01 -1.381606e-01 7.456407e-01 -1.835938e+00 1.890625e+00
5.198438e+01 3.697917e-01 -1.383242e-01 7.474179e-01 -1.828125e+00 1.894531e+00
5.106250e+01 3.697917e-01 -1.383344e-01 7.495260e-01 -1.835938e+00 1.910156e+00
5.132812e+01 3.697917e-01 -1.382935e-01 7.513351e-01 -1.835938e+00 1.914062e+00
5.134766e+01 3.697917e-01 -1.381197e-01 7.531340e-01 -1.843750e+00 1.921875e+00
5.076172e+01 3.697917e-01 -1.379663e-01 7.547224e-01 -1.839844e+00 1.921875e+00
5.075781e+01 3.697917e-01 -1.377413e-01 7.567975e-01 -1.851562e+00 1.933594e+00
5.004688e+01 3.697917e-01 -1.377311e-01 7.587042e-01 -1.847656e+00 1.929688e+00
4.971094e+01 3.697917e-01 -1.373323e-01 7.605836e-01 -1.867188e+00 1.937500e+00
4.981250e+01 3.697917e-01 -1.378027e-01 7.618745e-01 -1.843750e+00 1.929688e+00
4.985547e+01 3.697917e-01 -1.376493e-01 7.636657e-01 -1.851562e+00 1.941406e+00
4.948438e+01 3.645833e-01 -1.376084e-01 7.655790e-01 -1.847656e+00 1.929688e+00
4.863281e+01 3.854167e-01 -1.371482e-01 7.672993e-01 -1.851562e+00 1.937500e+00
4.828516e+01 3.854167e-01 -1.369233e-01 7.687944e-01 -1.832031e+00 1.929688e+00
4.718750e+01 3.697917e-01 -1.367801e-01 7.706985e-01 -1.832031e+00 1.925781e+00
4.841406e+01 3.802083e-01 -1.366165e-01 7.726377e-01 -1.855469e+00 1.929688e+00
4.644141e+01 3.958333e-01 -1.364733e-01 7.739505e-01 -1.828125e+00 1.921875e+00
4.702344e+01 3.802083e-01 -1.366676e-01 7.756086e-01 -1.820312e+00 1.914062e+00
4.803125e+01 3.854167e-01 -1.375777e-01 7.767141e-01 -1.835938e+00 1.914062e+00
4.716406e+01 4.062500e-01 -1.381401e-01 7.778979e-01 -1.820312e+00 1.906250e+00
4.571484e+01 3.854167e-01 -1.385594e-01 7.792466e-01 -1.808594e+00 1.902344e+00
4.563672e+01 3.750000e-01 -1.387128e-01 7.802147e-01 -1.804688e+00 1.902344e+00
4.657422e+01 3.854167e-01 -1.394286e-01 7.814243e-01 -1.812500e+00 1.898438e+00
4.510156e+01 3.697917e-01 -1.399705e-01 7.824612e-01 -1.812500e+00 1.898438e+00
4.729297e+01 4.010417e-01 -1.412488e-01 7.832316e-01 -1.820312e+00 1.894531e+00
4.658203e+01 3.854167e-01 -1.417294e-01 7.838726e-01 -1.796875e+00 1.886719e+00
4.697656e+01 4.010417e-01 -1.421691e-01 7.847802e-01 -1.800781e+00 1.898438e+00
4.674609e+01 4.010417e-01 -1.437030e-01 7.846105e-01 -1.792969e+00 1.890625e+00
4.741016e+01 3.802083e-01 -1.446744e-01 7.846441e-01 -1.796875e+00 1.882812e+00
4.796094e+01 3.802083e-01 -1.448687e-01 7.851138e-01 -1.796875e+00 1.878906e+00
4.785938e+01 3.593750e-01 -1.451039e-01 7.862715e-01 -1.792969e+00 1.878906e+00
4.681250e+01 3.437500e-01 -1.455436e-01 7.871824e-01 -1.804688e+00 1.882812e+00
4.685156e+01 3.697917e-01 -1.459731e-01 7.877724e-01 -1.808594e+00 1.890625e+00
4.612109e+01 3.177083e-01 -1.466684e-01 7.880284e-01 -1.812500e+00 1.890625e+00
4.629688e+01 3.489583e-01 -1.469957e-01 7.888558e-01 -1.800781e+00 1.886719e+00
4.583594e+01 3.697917e-01 -1.471593e-01 7.896016e-01 -1.808594e+00 1.890625e+00
4.576562e+01 3.750000e-01 -1.474251e-01 7.903959e-01 -1.804688e+00 1.890625e+00
4.556641e+01 3.489583e-01 -1.479671e-01 7.911275e-01 -1.792969e+00 1.894531e+00
4.608203e+01 3.333333e-01 -1.484580e-01 7.916681e-01 -1.796875e+00 1.898438e+00
4.575781e+01 3.593750e-01 -1.491226e-01 7.927365e-01 -1.785156e+00 1.898438e+00
4.462500e+01 3.072917e-01 -1.495419e-01 7.933998e-01 -1.785156e+00 1.902344e+00
4.576172e+01 3.437500e-01 -1.500225e-01 7.944901e-01 -1.804688e+00 1.914062e+00
4.532812e+01 3.489583e-01 -1.503497e-01 7.951766e-01 -1.800781e+00 1.914062e+00
4.691797e+01 3.437500e-01 -1.504111e-01 7.964098e-01 -1.808594e+00 1.921875e+00
4.498047e+01 3.125000e-01 -1.505031e-01 7.971589e-01 -1.804688e+00 1.917969e+00
4.475000e+01 3.333333e-01 -1.507179e-01 7.980389e-01 -1.812500e+00 1.921875e+00
4.431250e+01 3.333333e-01 -1.508303e-01 7.989650e-01 -1.820312e+00 1.925781e+00
4.501172e+01 3.333333e-01 -1.512087e-01 8.001200e-01 -1.832031e+00 1.929688e+00
4.330078e+01 3.177083e-01 -1.510144e-01 8.014212e-01 -1.832031e+00 1.929688e+00
4.321484e+01 3.385417e-01 -1.515155e-01 8.022090e-01 -1.843750e+00 1.933594e+00
4.296875e+01 3.125000e-01 -1.521290e-01 8.030493e-01 -1.855469e+00 1.929688e+00
4.324609e+01 3.541667e-01 -1.526812e-01 8.037176e-01 -1.851562e+00 1.925781e+00
4.315234e+01 3.385417e-01 -1.529880e-01 8.045179e-01 -1.863281e+00 1.925781e+00
4.272656e+01 3.020833e-01 -1.528857e-01 8.057383e-01 -1.871094e+00 1.929688e+00
4.345312e+01 3.177083e-01 -1.533459e-01 8.065464e-01 -1.871094e+00 1.925781e+00
4.357031e+01 3.229167e-01 -1.536833e-01 8.072301e-01 -1.878906e+00 1.925781e+00
4.384766e+01 2.708333e-01 -1.538265e-01 8.080194e-01 -1.886719e+00 1.929688e+00
4.458984e+01 2.604167e-01 -1.550229e-01 8.082785e-01 -1.910156e+00 1.929688e+00
4.460156e+01 3.437500e-01 -1.554013e-01 8.083515e-01 -1.902344e+00 1.914062e+00
4.595312e+01 3.541667e-01 -1.564647e-01 8.089358e-01 -1.914062e+00 1.917969e+00
4.406250e+01 2.812500e-01 -1.570169e-01 8.098730e-01 -1.902344e+00 1.910156e+00
4.210156e+01 2.604167e-01 -1.570987e-01 8.112410e-01 -1.910156e+00 1.910156e+00
4.237109e+01 2.656250e-01 -1.577123e-01 8.116107e-01 -1.910156e+00 1.898438e+00
4.262109e+01 2.708333e-01 -1.583156e-01 8.123563e-01 -1.921875e+00 1.898438e+00
4.180078e+01 2.760417e-01 -1.592768e-01 8.129913e-01 -1.925781e+00 1.890625e+00
4.160938e+01 2.656250e-01 -1.596450e-01 8.139759e-01 -1.929688e+00 1.886719e+00
4.351562e+01 2.812500e-01 -1.600642e-01 8.145542e-01 -1.945312e+00 1.886719e+00
4.203125e+01 2.604167e-01 -1.590825e-01 8.164518e-01 -1.941406e+00 1.886719e+00
4.109766e+01 2.552083e-01 -1.588678e-01 8.171535e-01 -1.949219e+00 1.878906e+00
4.164062e+01 2.447917e-01 -1.586837e-01 8.182974e-01 -1.960938e+00 1.882812e+00
4.180078e+01 2.552083e-01 -1.591132e-01 8.184812e-01 -1.964844e+00 1.878906e+00
4.069531e+01 2.343750e-01 -1.588371e-01 8.192309e-01 -1.960938e+00 1.871094e+00
4.189062e+01 2.447917e-01 -1.598495e-01 8.188823e-01 -1.980469e+00 1.859375e+00
4.167188e+01 2.604167e-01 -1.593075e-01 8.200637e-01 -1.976562e+00 1.859375e+00
4.157422e+01 2.500000e-01 -1.603096e-01 8.199583e-01 -1.988281e+00 1.859375e+00
4.378516e+01 2.656250e-01 -1.603812e-01 8.210914e-01 -2.003906e+00 1.863281e+00
4.218750e+01 2.395833e-01 -1.602892e-01 8.217383e-01 -1.996094e+00 1.855469e+00
4.202344e+01 2.500000e-01 -1.598086e-01 8.230315e-01 -1.996094e+00 1.851562e+00
4.420703e+01 2.812500e-01 -1.601460e-01 8.238398e-01 -2.011719e+00 1.867188e+00
4.296875e+01 2.552083e-01 -1.603812e-01 8.243570e-01 -1.996094e+00 1.859375e+00
4.087109e+01 2.291667e-01 -1.604630e-01 8.247544e-01 -1.988281e+00 1.847656e+00
4.967969e+01 2.812500e-01 -1.601767e-01 8.257456e-01 -2.000000e+00 1.859375e+00
4.330469e+01 2.604167e-01 -1.616492e-01 8.263749e-01 -2.015625e+00 1.855469e+00
4.407031e+01 2.552083e-01 -1.620991e-01 8.267391e-01 -2.019531e+00 1.847656e+00
4.187891e+01 2.135417e-01 -1.619049e-01 8.277177e-01 -2.007812e+00 1.839844e+00
4.235547e+01 2.395833e-01 -1.612197e-01 8.290267e-01 -2.015625e+00 1.839844e+00
4.131641e+01 2.343750e-01 -1.611584e-01 8.298891e-01 -2.015625e+00 1.835938e+00
4.343359e+01 2.552083e-01 -1.615367e-01 8.305926e-01 -2.039062e+00 1.851562e+00
4.403125e+01 2.760417e-01 -1.628661e-01 8.303632e-01 -2.054688e+00 1.847656e+00
4.142969e+01 2.395833e-01 -1.626820e-01 8.314594e-01 -2.039062e+00 1.835938e+00
4.173047e+01 2.395833e-01 -1.629581e-01 8.327741e-01 -2.058594e+00 1.847656e+00
4.362109e+01 2.604167e-01 -1.629274e-01 8.341495e-01 -2.070312e+00 1.851562e+00
4.135938e+01 2.500000e-01 -1.634796e-01 8.348094e-01 -2.066406e+00 1.851562e+00
4.305469e+01 2.552083e-01 -1.626718e-01 8.362523e-01 -2.066406e+00 1.855469e+00
4.183594e+01 2.500000e-01 -1.629990e-01 8.370611e-01 -2.066406e+00 1.859375e+00
4.067188e+01 2.395833e-01 -1.632342e-01 8.380778e-01 -2.070312e+00 1.863281e+00
4.337109e+01 2.291667e-01 -1.627127e-01 8.397549e-01 -2.070312e+00 1.863281e+00
4.246094e+01 2.395833e-01 -1.648601e-01 8.393892e-01 -2.082031e+00 1.871094e+00
4.383984e+01 2.500000e-01 -1.650851e-01 8.402861e-01 -2.085938e+00 1.871094e+00
4.251953e+01 2.395833e-01 -1.661690e-01 8.409634e-01 -2.093750e+00 1.875000e+00
3.987891e+01 2.291667e-01 -1.658213e-01 8.420219e-01 -2.082031e+00 1.871094e+00
4.448047e+01 2.552083e-01 -1.655248e-01 8.431440e-01 -2.089844e+00 1.878906e+00
3.984766e+01 2.187500e-01 -1.663326e-01 8.433330e-01 -2.085938e+00 1.867188e+00
4.607031e+01 2.916667e-01 -1.668030e-01 8.439787e-01 -2.117188e+00 1.886719e+00
4.028125e+01 2.187500e-01 -1.671098e-01 8.447137e-01 -2.089844e+00 1.867188e+00
4.401562e+01 2.552083e-01 -1.666087e-01 8.462122e-01 -2.101562e+00 1.878906e+00
4.359375e+01 2.447917e-01 -1.682755e-01 8.465290e-01 -2.117188e+00 1.894531e+00
4.107422e+01 2.135417e-01 -1.690322e-01 8.470648e-01 -2.113281e+00 1.886719e+00
4.329297e+01 2.291667e-01 -1.677029e-01 8.489685e-01 -2.113281e+00 1.890625e+00
4.443750e+01 2.447917e-01 -1.686334e-01 8.491817e-01 -2.125000e+00 1.898438e+00
4.536328e+01 2.708333e-01 -1.697480e-01 8.491350e-01 -2.128906e+00 1.898438e+00
4.215625e+01 2.187500e-01 -1.704127e-01 8.494252e-01 -2.128906e+00 1.894531e+00
4.119922e+01 2.291667e-01 -1.700037e-01 8.503495e-01 -2.121094e+00 1.902344e+00
4.786328e+01 2.916667e-01 -1.710978e-01 8.504954e-01 -2.152344e+00 1.925781e+00
4.447656e+01 2.552083e-01 -1.708422e-01 8.514028e-01 -2.121094e+00 1.906250e+00
4.241406e+01 2.187500e-01 -1.712717e-01 8.519162e-01 -2.132812e+00 1.917969e+00
4.083984e+01 2.083333e-01 -1.707297e-01 8.530276e-01 -2.128906e+00 1.925781e+00
4.127734e+01 2.135417e-01 -1.701162e-01 8.546268e-01 -2.140625e+00 1.929688e+00
4.270312e+01 2.291667e-01 -1.702286e-01 8.549213e-01 -2.152344e+00 1.937500e+00
4.171875e+01 2.291667e-01 -1.706581e-01 8.555301e-01 -2.148438e+00 1.929688e+00
4.294922e+01 2.395833e-01 -1.706172e-01 8.563534e-01 -2.164062e+00 1.937500e+00
4.540234e+01 2.708333e-01 -1.714660e-01 8.568121e-01 -2.167969e+00 1.945312e+00
4.212500e+01 2.239583e-01 -1.718545e-01 8.569996e-01 -2.148438e+00 1.929688e+00
4.189844e+01 2.343750e-01 -1.719977e-01 8.578440e-01 -2.148438e+00 1.933594e+00
4.144531e+01 2.239583e-01 -1.715375e-01 8.589879e-01 -2.148438e+00 1.937500e+00
4.127734e+01 2.291667e-01 -1.716807e-01 8.597824e-01 -2.156250e+00 1.941406e+00
4.066406e+01 2.239583e-01 -1.717012e-01 8.609765e-01 -2.152344e+00 1.941406e+00
4.118750e+01 2.343750e-01 -1.722636e-01 8.613464e-01 -2.164062e+00 1.949219e+00
4.085547e+01 2.343750e-01 -1.716091e-01 8.627805e-01 -2.160156e+00 1.949219e+00
4.307422e+01 2.552083e-01 -1.724783e-01 8.627406e-01 -2.171875e+00 1.960938e+00
4.342969e+01 2.447917e-01 -1.724374e-01 8.635422e-01 -2.171875e+00 1.960938e+00
4.155859e+01 2.447917e-01 -1.727749e-01 8.643701e-01 -2.167969e+00 1.960938e+00
4.085547e+01 2.343750e-01 -1.726828e-01 8.652541e-01 -2.167969e+00 1.968750e+00
4.101953e+01 2.447917e-01 -1.729283e-01 8.664894e-01 -2.175781e+00 1.976562e+00
4.087891e+01 2.395833e-01 -1.732759e-01 8.672916e-01 -2.171875e+00 1.968750e+00
4.175000e+01 2.187500e-01 -1.730101e-01 8.681049e-01 -2.175781e+00 1.972656e+00
4.112500e+01 2.500000e-01 -1.730510e-01 8.689663e-01 -2.167969e+00 1.976562e+00
4.137109e+01 2.552083e-01 -1.736747e-01 8.686450e-01 -2.171875e+00 1.964844e+00
4.126172e+01 2.552083e-01 -1.738179e-01 8.694155e-01 -2.179688e+00 1.972656e+00
4.166016e+01 2.604167e-01 -1.743803e-01 8.700437e-01 -2.175781e+00 1.968750e+00
4.309375e+01 2.500000e-01 -1.744110e-01 8.706203e-01 -2.175781e+00 1.968750e+00
4.337891e+01 2.395833e-01 -1.748916e-01 8.712123e-01 -2.179688e+00 1.972656e+00
4.298438e+01 2.552083e-01 -1.759755e-01 8.711495e-01 -2.191406e+00 1.964844e+00
4.192578e+01 2.395833e-01 -1.766095e-01 8.716051e-01 -2.191406e+00 1.964844e+00
4.258984e+01 2.656250e-01 -1.763846e-01 8.730239e-01 -2.195312e+00 1.968750e+00
4.212891e+01 2.552083e-01 -1.764562e-01 8.738615e-01 -2.191406e+00 1.968750e+00
4.227734e+01 2.500000e-01 -1.772640e-01 8.739356e-01 -2.207031e+00 1.984375e+00
4.177344e+01 2.447917e-01 -1.773356e-01 8.753766e-01 -2.195312e+00 1.976562e+00
4.512891e+01 2.500000e-01 -1.769879e-01 8.765450e-01 -2.207031e+00 1.984375e+00
4.214062e+01 2.239583e-01 -1.777651e-01 8.767127e-01 -2.210938e+00 1.980469e+00
4.175781e+01 2.239583e-01 -1.778162e-01 8.776030e-01 -2.207031e+00 1.980469e+00
4.629297e+01 2.656250e-01 -1.782150e-01 8.785545e-01 -2.218750e+00 1.992188e+00
4.286328e+01 2.239583e-01 -1.802397e-01 8.778351e-01 -2.230469e+00 1.980469e+00
4.245703e+01 2.291667e-01 -1.800556e-01 8.791826e-01 -2.230469e+00 1.984375e+00
4.266797e+01 2.343750e-01 -1.807203e-01 8.799096e-01 -2.234375e+00 1.984375e+00
4.308984e+01 2.552083e-01 -1.806692e-01 8.805898e-01 -2.246094e+00 2.003906e+00
4.382812e+01 2.500000e-01 -1.821519e-01 8.807550e-01 -2.253906e+00 2.003906e+00
4.221094e+01 2.500000e-01 -1.824791e-01 8.815348e-01 -2.253906e+00 2.000000e+00
4.275391e+01 2.395833e-01 -1.821315e-01 8.825737e-01 -2.250000e+00 2.003906e+00
4.219531e+01 2.447917e-01 -1.828473e-01 8.829464e-01 -2.257812e+00 2.007812e+00
4.197266e+01 2.395833e-01 -1.834404e-01 8.831291e-01 -2.257812e+00 2.011719e+00
4.330859e+01 2.760417e-01 -1.840028e-01 8.837313e-01 -2.269531e+00 2.019531e+00
4.346875e+01 2.760417e-01 -1.837880e-01 8.843010e-01 -2.277344e+00 2.027344e+00
4.227734e+01 2.552083e-01 -1.841459e-01 8.852383e-01 -2.269531e+00 2.019531e+00
4.217578e+01 2.447917e-01 -1.841664e-01 8.858957e-01 -2.277344e+00 2.035156e+00
4.203125e+01 2.395833e-01 -1.848106e-01 8.865245e-01 -2.281250e+00 2.035156e+00
4.265234e+01 2.552083e-01 -1.846266e-01 8.878600e-01 -2.273438e+00 2.035156e+00
4.230859e+01 2.395833e-01 -1.853424e-01 8.881545e-01 -2.281250e+00 2.035156e+00
4.185938e+01 2.500000e-01 -1.855980e-01 8.891376e-01 -2.292969e+00 2.046875e+00
4.288672e+01 2.395833e-01 -1.865797e-01 8.895344e-01 -2.289062e+00 2.042969e+00
4.379688e+01 2.604167e-01 -1.862422e-01 8.906203e-01 -2.292969e+00 2.054688e+00
4.289062e+01 2.447917e-01 -1.874489e-01 8.906064e-01 -2.296875e+00 2.046875e+00
4.340625e+01 2.552083e-01 -1.881135e-01 8.910764e-01 -2.312500e+00 2.062500e+00
4.212500e+01 2.552083e-01 -1.888498e-01 8.915408e-01 -2.304688e+00 2.054688e+00
4.229297e+01 2.291667e-01 -1.895145e-01 8.922628e-01 -2.304688e+00 2.050781e+00
4.247656e+01 2.604167e-01 -1.900462e-01 8.934550e-01 -2.320312e+00 2.066406e+00
4.300391e+01 2.656250e-01 -1.911506e-01 8.937836e-01 -2.324219e+00 2.062500e+00
4.294141e+01 2.343750e-01 -1.919482e-01 8.947287e-01 -2.320312e+00 2.062500e+00
4.275781e+01 2.343750e-01 -1.929810e-01 8.956159e-01 -2.328125e+00 2.062500e+00
4.448828e+01 2.812500e-01 -1.928890e-01 8.970050e-01 -2.332031e+00 2.074219e+00
4.335938e+01 2.552083e-01 -1.939422e-01 8.972245e-01 -2.339844e+00 2.074219e+00
4.546484e+01 2.812500e-01 -1.947910e-01 8.975193e-01 -2.347656e+00 2.078125e+00
4.262109e+01 2.447917e-01 -1.962124e-01 8.972274e-01 -2.351562e+00 2.066406e+00
4.283984e+01 2.447917e-01 -1.967339e-01 8.984876e-01 -2.347656e+00 2.066406e+00
4.239453e+01 2.500000e-01 -1.973883e-01 8.992283e-01 -2.351562e+00 2.066406e+00
4.412500e+01 2.552083e-01 -1.975213e-01 8.999124e-01 -2.355469e+00 2.078125e+00
4.210938e+01 2.500000e-01 -1.974906e-01 9.011983e-01 -2.351562e+00 2.074219e+00
4.429297e+01 2.500000e-01 -1.987790e-01 9.011787e-01 -2.363281e+00 2.082031e+00
4.253516e+01 2.552083e-01 -1.985234e-01 9.023866e-01 -2.355469e+00 2.078125e+00
4.217969e+01 2.500000e-01 -1.989631e-01 9.029564e-01 -2.359375e+00 2.085938e+00
4.273828e+01 2.552083e-01 -1.997300e-01 9.031781e-01 -2.363281e+00 2.085938e+00
4.318750e+01 2.604167e-01 -1.998630e-01 9.045407e-01 -2.363281e+00 2.089844e+00
4.330469e+01 2.656250e-01 -2.000573e-01 9.055931e-01 -2.367188e+00 2.097656e+00
4.298828e+01 2.656250e-01 -2.004561e-01 9.063777e-01 -2.371094e+00 2.105469e+00
4.501953e+01 2.812500e-01 -2.010798e-01 9.074011e-01 -2.375000e+00 2.117188e+00
4.262500e+01 2.604167e-01 -2.027875e-01 9.072244e-01 -2.375000e+00 2.109375e+00
4.291797e+01 2.604167e-01 -2.029512e-01 9.081095e-01 -2.378906e+00 2.109375e+00
4.360156e+01 2.656250e-01 -2.034931e-01 9.089402e-01 -2.378906e+00 2.117188e+00
4.244141e+01 2.500000e-01 -2.037590e-01 9.096519e-01 -2.378906e+00 2.121094e+00
4.237500e+01 2.552083e-01 -2.040862e-01 9.107160e-01 -2.386719e+00 2.125000e+00
4.262891e+01 2.604167e-01 -2.049145e-01 9.112659e-01 -2.386719e+00 2.125000e+00
4.425781e+01 2.604167e-01 -2.051497e-01 9.120035e-01 -2.394531e+00 2.136719e+00
4.366406e+01 2.604167e-01 -2.058348e-01 9.125650e-01 -2.398438e+00 2.136719e+00
4.264844e+01 2.343750e-01 -2.057530e-01 9.137640e-01 -2.390625e+00 2.132812e+00
4.310547e+01 2.604167e-01 -2.057735e-01 9.147835e-01 -2.402344e+00 2.148438e+00
4.390625e+01 2.708333e-01 -2.066529e-01 9.147678e-01 -2.402344e+00 2.144531e+00
4.367969e+01 2.604167e-01 -2.062745e-01 9.164119e-01 -2.410156e+00 2.152344e+00
4.319922e+01 2.447917e-01 -2.069494e-01 9.169304e-01 -2.421875e+00 2.164062e+00
4.682031e+01 2.916667e-01 -2.067347e-01 9.184213e-01 -2.417969e+00 2.160156e+00
4.369531e+01 2.656250e-01 -2.079413e-01 9.184805e-01 -2.425781e+00 2.160156e+00
4.296094e+01 2.604167e-01 -2.081765e-01 9.192872e-01 -2.421875e+00 2.156250e+00
4.407422e+01 2.708333e-01 -2.083299e-01 9.202611e-01 -2.433594e+00 2.164062e+00
4.355469e+01 2.500000e-01 -2.083811e-01 9.208847e-01 -2.429688e+00 2.167969e+00
4.387891e+01 2.656250e-01 -2.083299e-01 9.219977e-01 -2.441406e+00 2.175781e+00
4.330859e+01 2.604167e-01 -2.088821e-01 9.224721e-01 -2.449219e+00 2.179688e+00
4.317188e+01 2.500000e-01 -2.085549e-01 9.237191e-01 -2.457031e+00 2.187500e+00
4.286719e+01 2.395833e-01 -2.090662e-01 9.243007e-01 -2.468750e+00 2.199219e+00
4.299609e+01 2.552083e-01 -2.095161e-01 9.252106e-01 -2.468750e+00 2.195312e+00
4.342578e+01 2.447917e-01 -2.098740e-01 9.263130e-01 -2.476562e+00 2.199219e+00
4.235938e+01 2.552083e-01 -2.113056e-01 9.265680e-01 -2.480469e+00 2.191406e+00
4.256250e+01 2.447917e-01 -2.117351e-01 9.269956e-01 -2.484375e+00 2.195312e+00
4.408203e+01 2.604167e-01 -2.120010e-01 9.281878e-01 -2.472656e+00 2.183594e+00
4.338672e+01 2.656250e-01 -2.118271e-01 9.292930e-01 -2.476562e+00 2.195312e+00
4.619141e+01 2.812500e-01 -2.119499e-01 9.305839e-01 -2.484375e+00 2.203125e+00
4.297656e+01 2.500000e-01 -2.128804e-01 9.310310e-01 -2.492188e+00 2.203125e+00
4.298438e+01 2.447917e-01 -2.131258e-01 9.319276e-01 -2.488281e+00 2.199219e+00
4.626562e+01 2.812500e-01 -2.136269e-01 9.329000e-01 -2.503906e+00 2.214844e+00
4.506250e+01 2.604167e-01 -2.141382e-01 9.333270e-01 -2.503906e+00 2.222656e+00
4.472656e+01 2.604167e-01 -2.146086e-01 9.338322e-01 -2.500000e+00 2.210938e+00
4.251562e+01 2.447917e-01 -2.152119e-01 9.342717e-01 -2.507812e+00 2.218750e+00
4.271875e+01 2.500000e-01 -2.151301e-01 9.351725e-01 -2.503906e+00 2.210938e+00
4.245312e+01 2.604167e-01 -2.153755e-01 9.359510e-01 -2.503906e+00 2.207031e+00
4.227344e+01 2.552083e-01 -2.158254e-01 9.362527e-01 -2.503906e+00 2.207031e+00
4.329297e+01 2.447917e-01 -2.156311e-01 9.372149e-01 -2.500000e+00 2.207031e+00
4.255469e+01 2.500000e-01 -2.161833e-01 9.379016e-01 -2.507812e+00 2.210938e+00
4.373828e+01 2.760417e-01 -2.166333e-01 9.386175e-01 -2.503906e+00 2.210938e+00
4.603516e+01 2.812500e-01 -2.175331e-01 9.391763e-01 -2.515625e+00 2.218750e+00
4.383594e+01 2.708333e-01 -2.189034e-01 9.389548e-01 -2.515625e+00 2.210938e+00
4.215234e+01 2.552083e-01 -2.185557e-01 9.398838e-01 -2.519531e+00 2.226562e+00
4.223438e+01 2.656250e-01 -2.195169e-01 9.405286e-01 -2.519531e+00 2.226562e+00
4.510156e+01 2.656250e-01 -2.191999e-01 9.416679e-01 -2.519531e+00 2.234375e+00
4.503906e+01 2.760417e-01 -2.215723e-01 9.402554e-01 -2.527344e+00 2.230469e+00
4.443359e+01 2.656250e-01 -2.232800e-01 9.398721e-01 -2.523438e+00 2.230469e+00
4.713672e+01 2.916667e-01 -2.232187e-01 9.414868e-01 -2.523438e+00 2.234375e+00
4.313672e+01 2.552083e-01 -2.241594e-01 9.416801e-01 -2.519531e+00 2.230469e+00
4.375781e+01 2.604167e-01 -2.241288e-01 9.427881e-01 -2.523438e+00 2.234375e+00
4.290625e+01 2.604167e-01 -2.235766e-01 9.442986e-01 -2.523438e+00 2.230469e+00
4.161719e+01 2.447917e-01 -2.236277e-01 9.454906e-01 -2.519531e+00 2.230469e+00
4.518359e+01 2.604167e-01 -2.233823e-01 9.465512e-01 -2.523438e+00 2.238281e+00
4.242188e+01 2.604167e-01 -2.238015e-01 9.474886e-01 -2.519531e+00 2.234375e+00
4.274609e+01 2.500000e-01 -2.240061e-01 9.487692e-01 -2.519531e+00 2.238281e+00
4.314453e+01 2.552083e-01 -2.243231e-01 9.492466e-01 -2.519531e+00 2.242188e+00
4.274219e+01 2.500000e-01 -2.236584e-01 9.509773e-01 -2.519531e+00 2.242188e+00
4.356250e+01 2.760417e-01 -2.235357e-01 9.523334e-01 -2.523438e+00 2.250000e+00
4.477734e+01 2.552083e-01 -2.243333e-01 9.529787e-01 -2.527344e+00 2.250000e+00
4.649219e+01 2.708333e-01 -2.258978e-01 9.529672e-01 -2.542969e+00 2.253906e+00
4.475000e+01 2.604167e-01 -2.279225e-01 9.530314e-01 -2.539062e+00 2.250000e+00
4.489453e+01 2.656250e-01 -2.288224e-01 9.539129e-01 -2.531250e+00 2.234375e+00
4.271484e+01 2.604167e-01 -2.284031e-01 9.554020e-01 -2.527344e+00 2.246094e+00
4.318359e+01 2.604167e-01 -2.284849e-01 9.565893e-01 -2.531250e+00 2.250000e+00
4.435938e+01 2.656250e-01 -2.290474e-01 9.572045e-01 -2.542969e+00 2.257812e+00
4.401953e+01 2.812500e-01 -2.307653e-01 9.569168e-01 -2.531250e+00 2.242188e+00
4.294531e+01 2.552083e-01 -2.307653e-01 9.583983e-01 -2.535156e+00 2.253906e+00
4.370703e+01 2.604167e-01 -2.310107e-01 9.590389e-01 -2.531250e+00 2.253906e+00
4.317969e+01 2.656250e-01 -2.305915e-01 9.605559e-01 -2.527344e+00 2.253906e+00
4.336328e+01 2.656250e-01 -2.303972e-01 9.615937e-01 -2.519531e+00 2.261719e+00
4.310938e+01 2.656250e-01 -2.302233e-01 9.632780e-01 -2.539062e+00 2.273438e+00
4.275000e+01 2.656250e-01 -2.311743e-01 9.636800e-01 -2.539062e+00 2.269531e+00
4.316797e+01 2.447917e-01 -2.313277e-01 9.647804e-01 -2.527344e+00 2.269531e+00
4.294922e+01 2.708333e-01 -2.312357e-01 9.664434e-01 -2.527344e+00 2.281250e+00
4.331250e+01 2.812500e-01 -2.315322e-01 9.670079e-01 -2.546875e+00 2.285156e+00
4.268359e+01 2.708333e-01 -2.320537e-01 9.677759e-01 -2.535156e+00 2.285156e+00
4.290234e+01 2.760417e-01 -2.324219e-01 9.681608e-01 -2.558594e+00 2.289062e+00
4.302734e+01 2.708333e-01 -2.330559e-01 9.691336e-01 -2.562500e+00 2.289062e+00
4.378516e+01 2.864583e-01 -2.332502e-01 9.701145e-01 -2.546875e+00 2.296875e+00
4.452344e+01 2.812500e-01 -2.346306e-01 9.697971e-01 -2.597656e+00 2.300781e+00
4.358984e+01 2.760417e-01 -2.361236e-01 9.696947e-01 -2.566406e+00 2.289062e+00
4.467969e+01 2.864583e-01 -2.363588e-01 9.707864e-01 -2.570312e+00 2.308594e+00
4.264844e+01 2.812500e-01 -2.365735e-01 9.722426e-01 -2.566406e+00 2.308594e+00
4.362891e+01 2.708333e-01 -2.363588e-01 9.735543e-01 -2.566406e+00 2.316406e+00
4.655469e+01 2.656250e-01 -2.363997e-01 9.748378e-01 -2.613281e+00 2.328125e+00
4.866016e+01 2.708333e-01 -2.393447e-01 9.734991e-01 -2.625000e+00 2.324219e+00
4.521484e+01 2.760417e-01 -2.415126e-01 9.730274e-01 -2.593750e+00 2.316406e+00
4.252734e+01 2.552083e-01 -2.403775e-01 9.748865e-01 -2.582031e+00 2.324219e+00
4.360547e+01 2.812500e-01 -2.397026e-01 9.765616e-01 -2.578125e+00 2.324219e+00
4.442188e+01 2.812500e-01 -2.399174e-01 9.780755e-01 -2.605469e+00 2.335938e+00
4.633594e+01 2.656250e-01 -2.407559e-01 9.787182e-01 -2.609375e+00 2.347656e+00
4.334766e+01 2.760417e-01 -2.425454e-01 9.783286e-01 -2.566406e+00 2.332031e+00
4.821094e+01 2.812500e-01 -2.416149e-01 9.805184e-01 -2.640625e+00 2.351562e+00
4.440234e+01 2.760417e-01 -2.437520e-01 9.796141e-01 -2.605469e+00 2.339844e+00
4.243750e+01 2.708333e-01 -2.433226e-01 9.809042e-01 -2.593750e+00 2.351562e+00
4.363672e+01 2.760417e-01 -2.424840e-01 9.830700e-01 -2.601562e+00 2.355469e+00
4.343750e+01 2.708333e-01 -2.423102e-01 9.846494e-01 -2.613281e+00 2.367188e+00
4.263672e+01 2.760417e-01 -2.425147e-01 9.856517e-01 -2.609375e+00 2.371094e+00
4.274609e+01 2.812500e-01 -2.422386e-01 9.871228e-01 -2.613281e+00 2.378906e+00
4.271094e+01 2.708333e-01 -2.422182e-01 9.880981e-01 -2.632812e+00 2.382812e+00
4.424219e+01 2.656250e-01 -2.428317e-01 9.886721e-01 -2.644531e+00 2.394531e+00
4.335938e+01 2.708333e-01 -2.439259e-01 9.888514e-01 -2.632812e+00 2.398438e+00
4.213281e+01 2.604167e-01 -2.442327e-01 9.895402e-01 -2.648438e+00 2.394531e+00
4.251562e+01 2.760417e-01 -2.447133e-01 9.905678e-01 -2.632812e+00 2.394531e+00
4.214453e+01 2.447917e-01 -2.456234e-01 9.911543e-01 -2.660156e+00 2.406250e+00
4.268359e+01 2.708333e-01 -2.464005e-01 9.917986e-01 -2.660156e+00 2.406250e+00
4.272656e+01 2.500000e-01 -2.469629e-01 9.927850e-01 -2.660156e+00 2.417969e+00
4.308984e+01 2.864583e-01 -2.464926e-01 9.943184e-01 -2.656250e+00 2.410156e+00
4.222266e+01 2.708333e-01 -2.468914e-01 9.949985e-01 -2.664062e+00 2.417969e+00
4.214062e+01 2.656250e-01 -2.473208e-01 9.959539e-01 -2.687500e+00 2.421875e+00
4.337891e+01 2.343750e-01 -2.488752e-01 9.957355e-01 -2.718750e+00 2.425781e+00
4.407422e+01 2.656250e-01 -2.491104e-01 9.963645e-01 -2.710938e+00 2.414062e+00
4.234375e+01 2.708333e-01 -2.496625e-01 9.966577e-01 -2.679688e+00 2.421875e+00
4.192969e+01 2.760417e-01 -2.496216e-01 9.979262e-01 -2.687500e+00 2.425781e+00
4.310547e+01 2.708333e-01 -2.500920e-01 9.983912e-01 -2.714844e+00 2.437500e+00
4.373438e+01 2.656250e-01 -2.506647e-01 9.987262e-01 -2.726562e+00 2.437500e+00
4.347656e+01 2.552083e-01 -2.523008e-01 9.984644e-01 -2.742188e+00 2.437500e+00
4.319141e+01 2.812500e-01 -2.523928e-01 9.993483e-01 -2.710938e+00 2.425781e+00
4.264453e+01 2.812500e-01 -2.527916e-01 1.000197e+00 -2.703125e+00 2.433594e+00
4.316406e+01 2.760417e-01 -2.524644e-01 1.001628e+00 -2.718750e+00 2.441406e+00
4.311719e+01 2.552083e-01 -2.527712e-01 1.002076e+00 -2.753906e+00 2.445312e+00
4.292188e+01 2.864583e-01 -2.538040e-01 1.001789e+00 -2.742188e+00 2.433594e+00
4.325781e+01 2.604167e-01 -2.538653e-01 1.002427e+00 -2.757812e+00 2.441406e+00
4.409766e+01 2.760417e-01 -2.531393e-01 1.003992e+00 -2.769531e+00 2.437500e+00
4.347656e+01 2.760417e-01 -2.537938e-01 1.004567e+00 -2.769531e+00 2.441406e+00
4.419922e+01 2.656250e-01 -2.540187e-01 1.005479e+00 -2.792969e+00 2.445312e+00
4.539453e+01 2.760417e-01 -2.550515e-01 1.005931e+00 -2.808594e+00 2.449219e+00
4.337500e+01 2.760417e-01 -2.564525e-01 1.006021e+00 -2.769531e+00 2.449219e+00
4.275391e+01 2.864583e-01 -2.559616e-01 1.007297e+00 -2.757812e+00 2.445312e+00
4.330469e+01 2.812500e-01 -2.550618e-01 1.008784e+00 -2.777344e+00 2.445312e+00
4.231641e+01 2.812500e-01 -2.552356e-01 1.009351e+00 -2.777344e+00 2.457031e+00
4.209766e+01 2.916667e-01 -2.554094e-01 1.009487e+00 -2.812500e+00 2.457031e+00
4.465625e+01 2.812500e-01 -2.552254e-01 1.010267e+00 -2.828125e+00 2.453125e+00
4.531641e+01 2.916667e-01 -2.565854e-01 1.009843e+00 -2.824219e+00 2.464844e+00
4.295703e+01 2.760417e-01 -2.571580e-01 1.010709e+00 -2.816406e+00 2.460938e+00
4.285938e+01 2.968750e-01 -2.575057e-01 1.011535e+00 -2.800781e+00 2.468750e+00
4.214062e+01 2.604167e-01 -2.579250e-01 1.012328e+00 -2.828125e+00 2.476562e+00
4.232031e+01 2.656250e-01 -2.587328e-01 1.012557e+00 -2.828125e+00 2.480469e+00
4.237891e+01 2.708333e-01 -2.589885e-01 1.013354e+00 -2.832031e+00 2.476562e+00
4.232812e+01 2.656250e-01 -2.592543e-01 1.013801e+00 -2.824219e+00 2.472656e+00
4.242578e+01 2.708333e-01 -2.592850e-01 1.014996e+00 -2.824219e+00 2.484375e+00
4.483594e+01 2.864583e-01 -2.599088e-01 1.015565e+00 -2.839844e+00 2.496094e+00
4.206641e+01 2.552083e-01 -2.608189e-01 1.015916e+00 -2.839844e+00 2.484375e+00
4.215234e+01 2.604167e-01 -2.600008e-01 1.017496e+00 -2.828125e+00 2.480469e+00
4.268750e+01 2.916667e-01 -2.605326e-01 1.017967e+00 -2.832031e+00 2.476562e+00
4.235547e+01 2.760417e-01 -2.608598e-01 1.018301e+00 -2.824219e+00 2.484375e+00
4.273047e+01 2.812500e-01 -2.609211e-01 1.019429e+00 -2.828125e+00 2.480469e+00
4.280078e+01 2.760417e-01 -2.614733e-01 1.019810e+00 -2.839844e+00 2.480469e+00
4.220703e+01 2.812500e-01 -2.607780e-01 1.021102e+00 -2.828125e+00 2.480469e+00
4.323828e+01 2.760417e-01 -2.615654e-01 1.021124e+00 -2.839844e+00 2.484375e+00
4.259375e+01 2.656250e-01 -2.634571e-01 1.020369e+00 -2.871094e+00 2.480469e+00
4.352734e+01 2.604167e-01 -2.639786e-01 1.020453e+00 -2.871094e+00 2.492188e+00
4.271875e+01 2.864583e-01 -2.644593e-01 1.020876e+00 -2.867188e+00 2.484375e+00
4.341797e+01 2.604167e-01 -2.646842e-01 1.021623e+00 -2.867188e+00 2.488281e+00
4.255469e+01 2.864583e-01 -2.647354e-01 1.022256e+00 -2.863281e+00 2.484375e+00
4.271094e+01 2.812500e-01 -2.646536e-01 1.023395e+00 -2.863281e+00 2.492188e+00
4.272656e+01 2.760417e-01 -2.652262e-01 1.024090e+00 -2.867188e+00 2.492188e+00
4.208203e+01 2.760417e-01 -2.653796e-01 1.024848e+00 -2.863281e+00 2.484375e+00
4.388672e+01 2.604167e-01 -2.665862e-01 1.024775e+00 -2.894531e+00 2.500000e+00
4.214844e+01 2.708333e-01 -2.664328e-01 1.025669e+00 -2.890625e+00 2.480469e+00
4.217188e+01 2.708333e-01 -2.667805e-01 1.026683e+00 -2.886719e+00 2.492188e+00
4.184375e+01 2.656250e-01 -2.664022e-01 1.027712e+00 -2.871094e+00 2.488281e+00
4.193359e+01 2.708333e-01 -2.663306e-01 1.028603e+00 -2.882812e+00 2.492188e+00
4.409766e+01 2.708333e-01 -2.665658e-01 1.029415e+00 -2.910156e+00 2.503906e+00
4.208203e+01 2.604167e-01 -2.679156e-01 1.029804e+00 -2.921875e+00 2.500000e+00
4.326562e+01 2.656250e-01 -2.684780e-01 1.030819e+00 -2.941406e+00 2.500000e+00
4.213672e+01 2.968750e-01 -2.687132e-01 1.031574e+00 -2.917969e+00 2.488281e+00
4.216016e+01 2.864583e-01 -2.690609e-01 1.032151e+00 -2.914062e+00 2.496094e+00
4.314453e+01 2.708333e-01 -2.686212e-01 1.033543e+00 -2.933594e+00 2.503906e+00
4.300000e+01 2.604167e-01 -2.700528e-01 1.033196e+00 -2.933594e+00 2.503906e+00
4.257812e+01 2.656250e-01 -2.706663e-01 1.034064e+00 -2.937500e+00 2.511719e+00
4.186719e+01 2.708333e-01 -2.714639e-01 1.034257e+00 -2.917969e+00 2.503906e+00
4.462109e+01 2.656250e-01 -2.723024e-01 1.034957e+00 -2.949219e+00 2.515625e+00
4.199609e+01 2.552083e-01 -2.714537e-01 1.036702e+00 -2.964844e+00 2.503906e+00
4.179297e+01 2.552083e-01 -2.722309e-01 1.037467e+00 -2.972656e+00 2.511719e+00
4.181641e+01 2.447917e-01 -2.726092e-01 1.038154e+00 -2.976562e+00 2.511719e+00
4.180078e+01 2.500000e-01 -2.728955e-01 1.038738e+00 -2.972656e+00 2.515625e+00
4.249609e+01 2.656250e-01 -2.730080e-01 1.039766e+00 -2.976562e+00 2.511719e+00
4.206250e+01 2.552083e-01 -2.741124e-01 1.039847e+00 -3.003906e+00 2.515625e+00
4.153125e+01 2.552083e-01 -2.753804e-01 1.039573e+00 -3.015625e+00 2.511719e+00
4.127734e+01 2.500000e-01 -2.754724e-01 1.040522e+00 -3.011719e+00 2.511719e+00
4.226953e+01 2.552083e-01 -2.764337e-01 1.040522e+00 -3.031250e+00 2.515625e+00
4.089844e+01 2.708333e-01 -2.773437e-01 1.040870e+00 -3.031250e+00 2.507812e+00
4.291406e+01 2.500000e-01 -2.775892e-01 1.041752e+00 -3.039062e+00 2.515625e+00
4.295312e+01 2.500000e-01 -2.784175e-01 1.041872e+00 -3.062500e+00 2.519531e+00
4.527344e+01 2.656250e-01 -2.797877e-01 1.041264e+00 -3.074219e+00 2.519531e+00
4.182812e+01 2.500000e-01 -2.811784e-01 1.041380e+00 -3.074219e+00 2.511719e+00
4.325000e+01 2.760417e-01 -2.807898e-01 1.042577e+00 -3.058594e+00 2.511719e+00
4.159766e+01 2.552083e-01 -2.807387e-01 1.043119e+00 -3.042969e+00 2.519531e+00
4.410938e+01 2.812500e-01 -2.799820e-01 1.044757e+00 -3.085938e+00 2.531250e+00
4.305859e+01 2.604167e-01 -2.812500e-01 1.044285e+00 -3.066406e+00 2.527344e+00
4.417969e+01 2.552083e-01 -2.817408e-01 1.044362e+00 -3.070312e+00 2.535156e+00
4.313281e+01 2.500000e-01 -2.821601e-01 1.044914e+00 -3.097656e+00 2.535156e+00
4.488281e+01 2.812500e-01 -2.823544e-01 1.046035e+00 -3.109375e+00 2.535156e+00
4.239453e+01 2.708333e-01 -2.835201e-01 1.046040e+00 -3.078125e+00 2.535156e+00
4.294531e+01 2.812500e-01 -2.827839e-01 1.047412e+00 -3.097656e+00 2.539062e+00
4.498047e+01 2.812500e-01 -2.831724e-01 1.047739e+00 -3.117188e+00 2.542969e+00
4.374219e+01 2.708333e-01 -2.847983e-01 1.047283e+00 -3.109375e+00 2.546875e+00
4.353906e+01 2.760417e-01 -2.853403e-01 1.047470e+00 -3.097656e+00 2.550781e+00
4.175391e+01 2.708333e-01 -2.852790e-01 1.047965e+00 -3.078125e+00 2.542969e+00
4.250781e+01 2.656250e-01 -2.845427e-01 1.049543e+00 -3.085938e+00 2.546875e+00
4.184375e+01 2.760417e-01 -2.851460e-01 1.050292e+00 -3.082031e+00 2.550781e+00
4.140625e+01 2.812500e-01 -2.846756e-01 1.051492e+00 -3.097656e+00 2.558594e+00
4.280469e+01 2.708333e-01 -2.850642e-01 1.052018e+00 -3.121094e+00 2.554688e+00
4.285156e+01 2.812500e-01 -2.857289e-01 1.052028e+00 -3.128906e+00 2.554688e+00
4.407812e+01 2.500000e-01 -2.861993e-01 1.052544e+00 -3.113281e+00 2.562500e+00
4.205859e+01 2.552083e-01 -2.863322e-01 1.053518e+00 -3.121094e+00 2.558594e+00
