-1.130138e-01 1.410291e+00 -4.116527e+00 4.691421e+00 -2.384375e-04 1.156347e-02 -1.262284e-01 1.125723e-01
-1.295559e-01 1.321399e+00 -4.166002e+00 5.001652e+00 -1.649447e-04 1.316797e-02 -1.262284e-01 1.153090e-01
-1.062781e-01 1.358103e+00 -4.352071e+00 5.196849e+00 -4.407322e-05 1.353129e-02 -1.203999e-01 1.142573e-01
-9.509652e-02 1.364889e+00 -5.860984e+00 4.554605e+00 -2.396338e-05 1.325995e-02 -1.159097e-01 1.097096e-01
-8.000482e-02 1.352256e+00 -5.870006e+00 4.427042e+00 1.050343e-05 1.303295e-02 -1.195442e-01 1.135995e-01
-1.996617e-01 1.308982e+00 -4.400619e+00 4.337253e+00 -1.375199e-04 1.245189e-02 -1.234738e-01 1.166288e-01
-1.798155e-01 1.334120e+00 -4.434587e+00 5.015893e+00 4.685145e-05 1.278664e-02 -1.157864e-01 1.201012e-01
-2.220023e-01 1.304073e+00 -5.884156e+00 4.372857e+00 -2.387888e-05 1.266914e-02 -1.166104e-01 1.129684e-01
-1.932811e-01 1.347637e+00 -5.884504e+00 5.217942e+00 7.241298e-05 1.251064e-02 -1.198196e-01 1.229209e-01
-1.617218e-01 1.346712e+00 -5.881698e+00 3.706297e+00 3.748060e-05 1.258351e-02 -1.219553e-01 1.230369e-01
-1.830630e-01 1.373206e+00 -3.830880e+00 3.716015e+00 -8.105842e-05 1.227108e-02 -1.240524e-01 1.221286e-01
-1.869871e-01 1.343600e+00 -4.465159e+00 4.895677e+00 -2.397931e-05 1.261202e-02 -1.242112e-01 1.202614e-01
-1.548738e-01 1.376998e+00 -5.901538e+00 5.655146e+00 1.636621e-04 1.257483e-02 -1.243722e-01 1.262147e-01
-3.201530e-01 1.391386e+00 -5.910629e+00 4.504290e+00 -3.835851e-05 1.402895e-02 -1.630835e-01 1.611541e-01
-3.538017e-01 1.410305e+00 -4.428279e+00 4.492992e+00 -1.440672e-04 1.468087e-02 -1.966162e-01 1.583776e-01
-2.865957e-01 1.469703e+00 -5.909476e+00 4.520866e+00 -1.617218e-04 1.568226e-02 -2.000392e-01 1.902735e-01
-2.634749e-01 1.493560e+00 -4.391047e+00 5.574232e+00 -1.177152e-04 1.465215e-02 -1.887391e-01 2.017435e-01
-2.162031e-01 1.486002e+00 -4.384137e+00 5.517232e+00 4.234447e-05 1.483147e-02 -1.935918e-01 2.080663e-01
-2.490015e-01 1.486316e+00 -5.902160e+00 5.409493e+00 3.464791e-06 1.521373e-02 -2.109035e-01 2.096825e-01
-2.478528e-01 1.487438e+00 -4.100829e+00 5.034702e+00 -6.943870e-07 1.429196e-02 -2.147250e-01 2.043718e-01
-2.247188e-01 1.528983e+00 -5.902469e+00 5.112225e+00 -1.423908e-05 1.353304e-02 -2.331450e-01 2.145506e-01
-2.162752e-01 1.547267e+00 -3.973177e+00 4.736182e+00 -9.347989e-06 1.451197e-02 -2.389631e-01 1.924868e-01
-2.587731e-01 1.548027e+00 -5.900288e+00 4.800776e+00 1.061514e-05 1.496411e-02 -2.252829e-01 2.156454e-01
-2.554563e-01 1.511095e+00 -4.455695e+00 5.886201e+00 6.121897e-05 1.655626e-02 -2.296673e-01 2.135213e-01
-2.476426e-01 1.507957e+00 -4.125249e+00 5.081331e+00 7.650468e-05 1.560953e-02 -2.346830e-01 2.089634e-01
-2.077549e-01 1.501285e+00 -4.407289e+00 5.544749e+00 -1.070289e-04 1.544507e-02 -2.405468e-01 1.996872e-01
-2.551598e-01 1.531864e+00 -5.896075e+00 5.711121e+00 -4.147377e-05 1.437931e-02 -2.420686e-01 2.175446e-01
-1.819615e-01 1.534047e+00 -4.399688e+00 5.116349e+00 9.270020e-05 1.548534e-02 -2.440735e-01 2.154107e-01
-2.631323e-01 1.467310e+00 -4.458730e+00 5.563221e+00 -4.759922e-05 1.774167e-02 -2.564989e-01 2.269365e-01
-2.283190e-01 1.497585e+00 -5.882288e+00 4.889371e+00 -4.965052e-05 1.577069e-02 -2.443552e-01 2.167365e-01
-1.916808e-01 1.503073e+00 -4.333083e+00 5.562985e+00 1.213418e-05 1.346583e-02 -2.061011e-01 2.216085e-01
-2.079245e-01 1.544574e+00 -3.875504e+00 5.031491e+00 -5.847193e-05 1.524202e-02 -2.391836e-01 2.411550e-01
-2.289771e-01 1.470399e+00 -4.457009e+00 4.041363e+00 -4.996537e-06 1.723165e-02 -2.479743e-01 2.371014e-01
-2.514134e-01 1.506075e+00 -4.393781e+00 5.100848e+00 -3.479929e-05 1.545451e-02 -2.396277e-01 2.426323e-01
-2.609462e-01 1.534247e+00 -4.393781e+00 5.525273e+00 9.534256e-06 1.400775e-02 -2.367483e-01 2.390948e-01
-1.951038e-01 1.557164e+00 -3.946286e+00 5.146035e+00 -1.991726e-05 1.248373e-02 -2.391060e-01 2.280857e-01
-2.022886e-01 1.553959e+00 -4.426016e+00 5.027495e+00 1.809514e-05 1.541783e-02 -2.434876e-01 2.301110e-01
-2.231415e-01 1.554439e+00 -5.870225e+00 5.695611e+00 -6.502077e-05 1.428240e-02 -2.401265e-01 2.365561e-01
-1.821413e-01 1.564841e+00 -4.001869e+00 5.039505e+00 8.862864e-06 1.640786e-02 -2.363368e-01 2.368292e-01
-2.221505e-01 1.549203e+00 -4.380011e+00 4.766934e+00 -4.065929e-06 1.723026e-02 -2.371545e-01 2.338209e-01
-2.188348e-01 1.474063e+00 -4.003628e+00 5.364013e+00 -6.264532e-05 1.619374e-02 -2.523901e-01 2.443367e-01
-2.147909e-01 1.546250e+00 -5.865500e+00 4.854022e+00 5.828447e-05 1.497260e-02 -2.279598e-01 2.394336e-01
-2.101941e-01 1.495168e+00 -4.095751e+00 4.357824e+00 -8.488274e-06 1.790063e-02 -2.556807e-01 2.367412e-01
-2.234153e-01 1.516284e+00 -4.025225e+00 4.629466e+00 8.700336e-06 1.530088e-02 -2.181838e-01 2.461028e-01
-1.999881e-01 1.540863e+00 -4.093429e+00 4.950729e+00 3.646149e-05 1.516981e-02 -2.393865e-01 2.312941e-01
-2.162471e-01 1.474065e+00 -4.411786e+00 4.793710e+00 -8.909706e-06 1.908049e-02 -2.476831e-01 2.376646e-01
-2.006669e-01 1.557788e+00 -4.453717e+00 4.965165e+00 -2.877292e-05 1.173303e-02 -2.470524e-01 1.934039e-01
-2.215658e-01 1.537257e+00 -3.812601e+00 4.965165e+00 4.324715e-05 1.488127e-02 -2.370756e-01 2.363047e-01
-2.516412e-01 1.501551e+00 -4.357473e+00 4.831106e+00 -2.802000e-05 1.543292e-02 -2.589849e-01 2.266972e-01
-2.074610e-01 1.534841e+00 -5.847558e+00 4.660186e+00 -4.303962e-05 1.624780e-02 -2.494510e-01 2.460559e-01
-1.783151e-01 1.515671e+00 -4.024450e+00 5.423301e+00 -1.046465e-06 1.998763e-02 -2.578909e-01 2.513143e-01
-2.259330e-01 1.528493e+00 -4.339611e+00 5.499515e+00 -3.454460e-05 1.497201e-02 -2.499620e-01 2.578744e-01
-1.922050e-01 1.532372e+00 -4.061536e+00 5.140194e+00 3.652449e-05 1.784948e-02 -2.378323e-01 2.567039e-01
-1.708501e-01 1.561218e+00 -3.924145e+00 5.048142e+00 -5.401555e-05 1.393473e-02 -2.342345e-01 2.527589e-01
-2.752449e-01 1.503746e+00 -4.371601e+00 5.305861e+00 6.198236e-05 1.717654e-02 -2.435660e-01 2.539488e-01
-2.192324e-01 1.509322e+00 -4.309675e+00 3.889544e+00 -2.577514e-05 1.781188e-02 -2.396100e-01 2.237465e-01
-1.870433e-01 1.522793e+00 -5.858775e+00 4.898443e+00 -1.267929e-05 1.817627e-02 -2.439733e-01 2.423472e-01
-1.577699e-01 1.566574e+00 -4.417034e+00 4.834083e+00 -6.383994e-05 1.557282e-02 -2.412648e-01 2.522853e-01
-1.948940e-01 1.525067e+00 -4.417034e+00 4.834083e+00 -1.960854e-06 1.585463e-02 -2.489586e-01 2.612044e-01
-1.834181e-01 1.553957e+00 -4.435321e+00 5.552570e+00 -2.207064e-06 1.560929e-02 -2.290072e-01 2.591838e-01
-1.687216e-01 1.548681e+00 -4.284981e+00 4.627607e+00 2.820282e-05 1.332898e-02 -2.130210e-01 2.429763e-01
-1.909807e-01 1.534340e+00 -4.339580e+00 5.731737e+00 -8.696782e-05 1.878107e-02 -2.464441e-01 2.517559e-01
-2.045198e-01 1.553020e+00 -4.530283e+00 4.857419e+00 1.376972e-05 1.682301e-02 -2.441389e-01 2.595666e-01
-1.582488e-01 1.582615e+00 -5.860353e+00 5.711325e+00 -1.385065e-05 1.819516e-02 -2.441389e-01 2.554482e-01
-1.921657e-01 1.521397e+00 -4.408347e+00 4.807959e+00 3.840389e-05 1.800719e-02 -2.344882e-01 2.593971e-01
-1.368692e-01 1.542794e+00 -4.404929e+00 4.156762e+00 2.403934e-06 1.746831e-02 -2.482959e-01 2.593971e-01
-1.763455e-01 1.580670e+00 -4.461615e+00 5.111446e+00 -7.472223e-05 1.607330e-02 -2.545789e-01 2.402670e-01
-2.052134e-01 1.552565e+00 -4.432549e+00 4.656474e+00 5.929876e-06 1.710848e-02 -2.358638e-01 2.631433e-01
-1.578962e-01 1.566809e+00 -4.311094e+00 5.088566e+00 -1.210241e-05 1.732108e-02 -2.453254e-01 2.599658e-01
-1.635047e-01 1.530689e+00 -4.348178e+00 4.874480e+00 -1.064158e-06 1.705076e-02 -2.232953e-01 2.691181e-01
-1.744391e-01 1.520254e+00 -4.687464e+00 5.272001e+00 -4.626113e-05 1.830717e-02 -2.496896e-01 2.538683e-01
-1.224054e-01 1.574444e+00 -4.715104e+00 4.672906e+00 2.433536e-06 1.661549e-02 -2.317454e-01 2.411945e-01
-1.714882e-01 1.571958e+00 -5.853329e+00 5.226980e+00 -6.852760e-05 1.743785e-02 -2.426933e-01 2.562988e-01
-1.560297e-01 1.584135e+00 -4.342256e+00 5.188915e+00 1.507861e-04 1.721149e-02 -2.421969e-01 2.338162e-01
-1.538247e-01 1.541787e+00 -5.850009e+00 4.510046e+00 1.960991e-05 1.715625e-02 -2.102276e-01 2.530860e-01
-1.549995e-01 1.540010e+00 -4.516818e+00 4.529009e+00 3.009266e-05 1.719891e-02 -2.499012e-01 2.520739e-01
-1.967632e-01 1.560594e+00 -5.837082e+00 4.853546e+00 2.979066e-05 1.567085e-02 -2.411732e-01 2.475865e-01
-1.393673e-01 1.565583e+00 -5.835682e+00 5.105517e+00 -1.628774e-05 1.767409e-02 -2.457832e-01 2.634536e-01
-1.866150e-01 1.534540e+00 -5.850194e+00 4.662565e+00 -6.187212e-05 1.888644e-02 -2.266241e-01 2.693494e-01
-1.625709e-01 1.540715e+00 -4.413360e+00 4.726172e+00 7.266169e-06 1.482149e-02 -2.191159e-01 2.673754e-01
-1.687609e-01 1.580657e+00 -4.397027e+00 4.093821e+00 -3.840335e-05 1.773053e-02 -2.329190e-01 2.704558e-01
-1.777775e-01 1.545722e+00 -4.535932e+00 5.217376e+00 1.851989e-05 1.657402e-02 -2.301581e-01 2.673310e-01
-1.519193e-01 1.557668e+00 -4.478498e+00 4.782941e+00 -4.651053e-05 1.859052e-02 -2.442129e-01 2.651743e-01
-1.324302e-01 1.581755e+00 -5.864862e+00 5.512295e+00 -1.393658e-05 1.689781e-02 -2.454161e-01 2.730478e-01
-1.267638e-01 1.579811e+00 -4.020704e+00 4.903159e+00 -2.952089e-05 1.809962e-02 -2.420113e-01 2.712047e-01
-1.638443e-01 1.555246e+00 -4.331440e+00 5.086787e+00 1.530166e-06 1.691598e-02 -2.370389e-01 2.613232e-01
-8.915283e-02 1.589556e+00 -4.416524e+00 4.527111e+00 -3.686656e-05 1.536729e-02 -2.156901e-01 2.604032e-01
-1.075158e-01 1.552566e+00 -4.285461e+00 4.391069e+00 2.255029e-05 1.657833e-02 -2.444822e-01 2.601744e-01
-1.073140e-01 1.545801e+00 -4.366728e+00 4.479530e+00 2.360140e-05 1.715262e-02 -2.388995e-01 2.642879e-01
-1.344844e-01 1.551569e+00 -4.417903e+00 4.452785e+00 3.583582e-05 1.846393e-02 -2.554430e-01 2.694231e-01
-1.639072e-01 1.559871e+00 -5.876954e+00 5.238848e+00 -4.143863e-05 1.689911e-02 -2.446193e-01 2.620773e-01
-1.443679e-01 1.552672e+00 -5.876954e+00 4.392364e+00 3.599635e-05 1.735001e-02 -2.451172e-01 2.598075e-01
-1.553636e-01 1.514655e+00 -4.419077e+00 4.590857e+00 -2.359225e-05 1.763682e-02 -2.595990e-01 2.606524e-01
-1.291482e-01 1.538483e+00 -4.393336e+00 4.487422e+00 1.579222e-05 1.865832e-02 -2.387064e-01 2.687638e-01
-1.758844e-01 1.559373e+00 -4.593633e+00 5.111434e+00 -5.177790e-05 1.700449e-02 -2.573387e-01 2.787551e-01
-1.064273e-01 1.557716e+00 -5.875249e+00 5.611691e+00 9.476372e-05 1.823199e-02 -2.576126e-01 2.792696e-01
-2.213259e-01 1.527616e+00 -4.382217e+00 4.438627e+00 1.456139e-05 1.622711e-02 -2.456842e-01 2.374219e-01
-1.187295e-01 1.564484e+00 -5.877501e+00 4.751395e+00 -2.015878e-05 1.694440e-02 -2.428675e-01 2.643520e-01
-2.012296e-01 1.562076e+00 -4.386570e+00 5.172907e+00 7.187536e-05 1.655504e-02 -2.489849e-01 2.651945e-01
-1.712775e-01 1.568212e+00 -4.428935e+00 4.918771e+00 -5.412933e-05 1.632245e-02 -2.528723e-01 2.573737e-01
-1.520905e-01 1.593485e+00 -4.392258e+00 5.580612e+00 -8.967254e-06 1.717988e-02 -2.520988e-01 2.599080e-01
-1.010832e-01 1.575743e+00 -4.300153e+00 5.489310e+00 -3.665102e-05 1.922896e-02 -2.399959e-01 2.595832e-01
-1.758733e-01 1.546182e+00 -4.278407e+00 4.153269e+00 2.297582e-05 1.414657e-02 -2.432822e-01 2.480323e-01
-1.145836e-01 1.586965e+00 -4.483352e+00 4.561114e+00 -1.542242e-05 1.736593e-02 -2.497266e-01 2.559247e-01
-1.635277e-01 1.564159e+00 -5.864637e+00 5.392452e+00 4.917881e-05 1.811914e-02 -2.411026e-01 2.693674e-01
-1.235726e-01 1.566779e+00 -4.608484e+00 4.976543e+00 4.401037e-05 1.842513e-02 -2.560015e-01 2.580265e-01
-1.595685e-01 1.531031e+00 -5.861483e+00 5.328692e+00 3.244831e-06 1.807016e-02 -2.497049e-01 2.401895e-01
-1.686660e-01 1.555285e+00 -4.262000e+00 4.927251e+00 -1.616923e-05 1.527158e-02 -2.504760e-01 2.665854e-01
-1.183237e-01 1.579087e+00 -5.869402e+00 4.460070e+00 -1.386130e-05 1.802265e-02 -2.479137e-01 2.662458e-01
-1.388349e-01 1.609331e+00 -5.850529e+00 4.930319e+00 -1.079260e-06 1.634520e-02 -2.464186e-01 2.723870e-01
-1.539191e-01 1.596783e+00 -4.358673e+00 5.138704e+00 3.969773e-05 1.330161e-02 -2.476523e-01 2.698679e-01
-1.579291e-01 1.555898e+00 -4.358736e+00 5.373114e+00 9.470098e-06 1.450797e-02 -2.465328e-01 2.606646e-01
-1.350242e-01 1.536752e+00 -4.313150e+00 4.135996e+00 -2.961881e-05 1.918495e-02 -2.469137e-01 2.553875e-01
-1.423317e-01 1.565570e+00 -4.394484e+00 4.471553e+00 1.765161e-05 1.931957e-02 -2.480187e-01 2.546421e-01
-1.761171e-01 1.591894e+00 -4.582647e+00 4.486463e+00 1.970511e-05 1.660784e-02 -2.533355e-01 2.532998e-01
-1.795731e-01 1.563728e+00 -4.331103e+00 4.735501e+00 -8.130704e-06 1.438115e-02 -2.397391e-01 2.703627e-01
-9.648333e-02 1.582194e+00 -4.348871e+00 4.962774e+00 -1.162363e-05 1.554868e-02 -2.584382e-01 2.626029e-01
-1.229265e-01 1.558029e+00 -5.840949e+00 4.529264e+00 2.185746e-05 1.760036e-02 -2.481066e-01 2.656263e-01
-1.418028e-01 1.578787e+00 -4.311859e+00 4.689928e+00 -9.379704e-06 1.803917e-02 -2.602004e-01 2.674389e-01
-9.439504e-02 1.615642e+00 -4.392662e+00 4.743037e+00 -9.304843e-05 1.492749e-02 -2.384506e-01 2.499177e-01
-1.612650e-01 1.554690e+00 -5.855376e+00 5.563906e+00 6.565942e-05 1.740633e-02 -2.504753e-01 2.778490e-01
-1.186998e-01 1.577991e+00 -4.025661e+00 5.339956e+00 -2.085090e-04 1.994050e-02 -2.505921e-01 2.630655e-01
-1.087456e-01 1.526928e+00 -4.316438e+00 5.103420e+00 -6.218128e-05 1.982141e-02 -2.602108e-01 2.674336e-01
-1.222206e-01 1.589430e+00 -4.396543e+00 4.548613e+00 -3.833821e-05 1.465828e-02 -2.472382e-01 2.363131e-01
-1.651307e-01 1.596209e+00 -4.405941e+00 5.247440e+00 -1.502707e-05 1.490111e-02 -2.499746e-01 2.761370e-01
-1.372618e-01 1.570529e+00 -4.471752e+00 4.543978e+00 1.220010e-05 1.665713e-02 -2.585461e-01 2.672039e-01
-1.519968e-01 1.584982e+00 -4.373034e+00 5.298336e+00 -2.141497e-05 1.527862e-02 -2.471548e-01 2.828778e-01
-1.103693e-01 1.593366e+00 -5.843224e+00 5.018899e+00 -3.548185e-05 1.938756e-02 -2.444167e-01 2.710953e-01
-1.836844e-01 1.597979e+00 -4.735144e+00 4.545571e+00 -2.705254e-05 1.668791e-02 -2.463380e-01 2.708021e-01
-1.797663e-01 1.567260e+00 -5.850225e+00 4.769516e+00 7.856079e-05 1.672954e-02 -2.383260e-01 2.722333e-01
-1.864356e-01 1.589579e+00 -4.382578e+00 4.561021e+00 -3.792308e-05 1.645594e-02 -2.516623e-01 2.739273e-01
-1.543294e-01 1.582879e+00 -4.390286e+00 4.626989e+00 6.832949e-06 2.059668e-02 -2.469354e-01 2.840544e-01
-1.012090e-01 1.619631e+00 -4.386203e+00 4.994552e+00 2.642637e-05 1.526401e-02 -2.452172e-01 2.763452e-01
-1.123375e-01 1.618540e+00 -4.382831e+00 4.993997e+00 -4.454763e-05 1.423633e-02 -2.469139e-01 2.787984e-01
-1.448407e-01 1.575737e+00 -4.021191e+00 4.774437e+00 3.937692e-05 1.622327e-02 -2.491701e-01 2.766845e-01
-1.649264e-01 1.569568e+00 -4.565417e+00 5.205513e+00 -4.959711e-05 2.083824e-02 -2.446952e-01 2.795176e-01
-1.584803e-01 1.606592e+00 -4.801667e+00 5.008611e+00 -6.270399e-05 1.662136e-02 -2.544914e-01 2.787156e-01
-1.988520e-01 1.578948e+00 -4.568396e+00 4.559307e+00 8.172699e-05 1.694846e-02 -2.538234e-01 2.821196e-01
-1.450137e-01 1.585089e+00 -5.853284e+00 4.572116e+00 2.154212e-05 1.381943e-02 -2.361614e-01 2.683281e-01
-1.188486e-01 1.614705e+00 -4.562436e+00 4.863834e+00 2.676117e-05 1.584014e-02 -2.492396e-01 2.650412e-01
-1.424208e-01 1.613475e+00 -4.847760e+00 4.645799e+00 -2.050341e-05 1.822846e-02 -2.648658e-01 2.775340e-01
-1.251530e-01 1.622574e+00 -5.873404e+00 4.309234e+00 -7.809840e-05 1.586820e-02 -2.552411e-01 2.931576e-01
-8.595989e-02 1.606317e+00 -4.396844e+00 5.008391e+00 -2.947387e-05 1.762319e-02 -2.449154e-01 2.751165e-01
-1.464119e-01 1.614984e+00 -4.690700e+00 5.037597e+00 8.854246e-05 1.514259e-02 -2.769765e-01 2.781950e-01
-1.000443e-01 1.609535e+00 -4.690700e+00 5.155157e+00 -4.008929e-05 1.967754e-02 -2.657779e-01 2.560223e-01
-1.245216e-01 1.606436e+00 -4.615377e+00 5.028001e+00 -1.519816e-05 1.636438e-02 -2.583840e-01 2.724625e-01
-1.138419e-01 1.583615e+00 -4.660026e+00 5.099455e+00 2.037916e-05 1.850651e-02 -2.635160e-01 2.671610e-01
-1.709641e-01 1.572994e+00 -4.780726e+00 5.229279e+00 1.137359e-05 1.845964e-02 -2.553274e-01 2.522115e-01
-1.488262e-01 1.599028e+00 -3.988899e+00 4.993284e+00 5.218996e-05 1.575175e-02 -2.719002e-01 2.526289e-01
-1.100173e-01 1.625861e+00 -5.869230e+00 5.107791e+00 -1.209863e-05 1.391751e-02 -2.380158e-01 2.526289e-01
-9.178801e-02 1.599283e+00 -5.873538e+00 5.049095e+00 -4.916235e-05 1.742922e-02 -2.695501e-01 2.856751e-01
-1.238124e-01 1.569724e+00 -4.629738e+00 4.784082e+00 1.655899e-05 1.996272e-02 -2.585345e-01 2.792798e-01
-1.055852e-01 1.634967e+00 -4.396970e+00 5.383396e+00 -9.575028e-06 1.653996e-02 -2.571066e-01 2.340905e-01
-1.202210e-01 1.656609e+00 -4.256380e+00 5.033134e+00 -3.660892e-05 1.419142e-02 -2.584120e-01 2.803395e-01
-1.620272e-01 1.585637e+00 -4.681859e+00 5.225337e+00 1.302942e-05 1.938720e-02 -2.584120e-01 2.843488e-01
-1.967354e-01 1.549816e+00 -4.666569e+00 4.777559e+00 5.127501e-06 1.652962e-02 -2.627430e-01 2.766347e-01
-1.836990e-01 1.600065e+00 -4.371589e+00 4.566651e+00 4.058588e-07 1.761296e-02 -2.627430e-01 2.836694e-01
-1.423820e-01 1.516164e+00 -4.270085e+00 4.835469e+00 -5.697332e-05 2.084626e-02 -2.653346e-01 2.830772e-01
-1.681010e-01 1.586155e+00 -5.895070e+00 4.949351e+00 3.075705e-06 1.928726e-02 -2.535500e-01 2.844721e-01
-1.614468e-01 1.557361e+00 -4.834041e+00 4.792590e+00 2.307193e-05 1.766540e-02 -2.696636e-01 2.842109e-01
-1.704588e-01 1.596208e+00 -4.613538e+00 4.941764e+00 -8.798636e-05 1.724864e-02 -2.730384e-01 2.661601e-01
-9.106291e-02 1.593048e+00 -4.362770e+00 5.049275e+00 5.258836e-05 1.827085e-02 -2.717076e-01 2.715374e-01
-1.546889e-01 1.585501e+00 -4.789756e+00 4.185835e+00 1.097931e-05 1.549735e-02 -2.532262e-01 2.724024e-01
-1.938166e-01 1.592767e+00 -4.706138e+00 4.983911e+00 3.453976e-05 1.833663e-02 -2.605291e-01 2.742776e-01
-1.562799e-01 1.584702e+00 -4.554312e+00 4.594967e+00 -2.602740e-05 1.766968e-02 -2.458882e-01 2.904909e-01
-1.368048e-01 1.622009e+00 -4.486971e+00 4.996997e+00 -2.396907e-05 1.931980e-02 -2.724762e-01 2.904909e-01
-1.663905e-01 1.572371e+00 -4.476297e+00 5.309244e+00 -5.731949e-05 2.005047e-02 -2.708460e-01 2.844319e-01
-1.260632e-01 1.611380e+00 -4.450067e+00 4.871222e+00 -1.617160e-04 1.695213e-02 -2.580039e-01 2.579538e-01
-1.054685e-01 1.566751e+00 -4.467559e+00 4.571605e+00 -6.015261e-05 1.961409e-02 -2.478673e-01 2.762481e-01
-1.347507e-01 1.598683e+00 -4.089287e+00 5.168464e+00 -6.120185e-05 2.086839e-02 -2.591683e-01 2.728906e-01
-1.210984e-01 1.550504e+00 -3.906818e+00 5.061107e+00 2.059060e-05 2.115366e-02 -2.707134e-01 2.787588e-01
-1.373660e-01 1.573762e+00 -4.499549e+00 5.099225e+00 -2.051027e-05 1.661732e-02 -2.726870e-01 2.813146e-01
-8.252380e-02 1.597128e+00 -4.454873e+00 4.239936e+00 -1.601315e-04 1.828762e-02 -2.790573e-01 2.853347e-01
-1.666822e-01 1.586142e+00 -5.921424e+00 5.209717e+00 -2.893982e-06 1.811408e-02 -2.549530e-01 2.718655e-01
-1.584206e-01 1.609098e+00 -4.375756e+00 5.373151e+00 -6.509668e-05 1.687745e-02 -2.524892e-01 2.766774e-01
-1.360605e-01 1.637557e+00 -4.252462e+00 4.003728e+00 1.365780e-05 1.877212e-02 -2.735888e-01 2.807928e-01
-1.183175e-01 1.590338e+00 -4.229278e+00 4.841525e+00 -1.074377e-05 1.665873e-02 -2.735888e-01 2.807928e-01
-1.092298e-01 1.653655e+00 -4.532054e+00 4.916425e+00 6.259494e-06 1.541996e-02 -2.524605e-01 2.801233e-01
-1.139822e-01 1.568592e+00 -4.162341e+00 5.146066e+00 -2.555051e-05 1.906472e-02 -2.525691e-01 2.822144e-01
-9.057096e-02 1.603859e+00 -4.342980e+00 4.547381e+00 -6.815533e-05 1.873455e-02 -2.663368e-01 2.922910e-01
-1.509242e-01 1.635811e+00 -4.262357e+00 5.124752e+00 2.590787e-06 1.537622e-02 -2.338139e-01 2.779358e-01
-7.627272e-02 1.578866e+00 -4.400371e+00 5.152737e+00 -5.733599e-05 2.084591e-02 -2.661863e-01 2.870153e-01
-1.127551e-01 1.614392e+00 -4.556695e+00 5.147830e+00 -4.673502e-05 1.985666e-02 -2.646697e-01 2.659241e-01
-1.347245e-01 1.633259e+00 -4.358594e+00 5.148864e+00 -5.356004e-05 1.570597e-02 -2.571080e-01 2.907899e-01
-9.730332e-02 1.634036e+00 -4.568268e+00 4.513836e+00 2.847345e-05 1.769220e-02 -2.624415e-01 2.897631e-01
-9.611418e-02 1.617969e+00 -4.396154e+00 4.665068e+00 -5.005416e-05 1.739700e-02 -2.684675e-01 2.939999e-01
-1.034223e-01 1.617110e+00 -5.866435e+00 4.769865e+00 3.128480e-05 1.750815e-02 -2.338210e-01 2.881204e-01
-1.255498e-01 1.604349e+00 -5.869559e+00 4.571188e+00 3.127030e-05 1.685790e-02 -2.656527e-01 2.896042e-01
-9.306925e-02 1.653260e+00 -5.876918e+00 5.264832e+00 9.088008e-05 1.714174e-02 -2.578185e-01 2.943033e-01
-5.812671e-02 1.589907e+00 -4.197166e+00 4.867607e+00 -1.170724e-05 1.790254e-02 -2.586543e-01 2.930871e-01
-1.476884e-01 1.622678e+00 -5.882709e+00 4.702093e+00 2.937068e-05 1.496893e-02 -2.324326e-01 2.840072e-01
-1.349463e-01 1.609125e+00 -5.904556e+00 4.868432e+00 1.104376e-05 1.694691e-02 -2.569228e-01 2.924075e-01
-1.320338e-01 1.612147e+00 -4.354302e+00 5.159658e+00 -4.710050e-05 1.578533e-02 -2.651624e-01 2.993624e-01
-1.184508e-01 1.602246e+00 -4.479242e+00 4.256098e+00 9.099948e-05 1.922200e-02 -2.617431e-01 2.849079e-01
-1.327537e-01 1.627800e+00 -4.797572e+00 4.647043e+00 -2.778971e-05 1.751742e-02 -2.541718e-01 2.885080e-01
-1.097114e-01 1.650264e+00 -4.671462e+00 4.720647e+00 -3.985020e-05 1.377710e-02 -2.187435e-01 2.961145e-01
-9.623456e-02 1.651786e+00 -4.834065e+00 4.861214e+00 1.706348e-07 1.906843e-02 -2.607287e-01 2.842932e-01
-1.604115e-01 1.586055e+00 -4.834829e+00 4.750129e+00 5.129252e-05 1.619392e-02 -2.652632e-01 2.799065e-01
-1.049292e-01 1.554128e+00 -4.875629e+00 4.472386e+00 -3.310745e-05 2.027823e-02 -2.687439e-01 2.837671e-01
-1.288508e-01 1.598840e+00 -5.921621e+00 5.065247e+00 6.353542e-05 1.971541e-02 -2.584475e-01 2.837671e-01
-1.494616e-01 1.619554e+00 -4.358249e+00 4.538999e+00 -1.834226e-05 1.581539e-02 -2.561701e-01 2.789424e-01
-1.553030e-01 1.610693e+00 -4.558354e+00 4.415101e+00 -2.369674e-05 1.625830e-02 -2.656423e-01 2.919258e-01
-1.346616e-01 1.615092e+00 -4.421206e+00 4.875813e+00 3.876266e-05 1.643737e-02 -2.606519e-01 2.922015e-01
-1.379614e-01 1.646786e+00 -4.482386e+00 4.723720e+00 2.755183e-05 1.574199e-02 -2.717994e-01 2.809412e-01
-6.980379e-02 1.623618e+00 -4.463464e+00 4.881960e+00 -9.075960e-06 1.965997e-02 -2.827501e-01 2.946581e-01
-1.623653e-01 1.623030e+00 -5.914971e+00 5.088220e+00 -2.675949e-05 1.842035e-02 -2.727518e-01 2.978516e-01
-1.857148e-01 1.606016e+00 -4.837884e+00 4.887828e+00 2.099618e-05 1.733093e-02 -2.644973e-01 2.978516e-01
-1.214737e-01 1.600763e+00 -4.800913e+00 5.382765e+00 -1.729171e-05 1.999917e-02 -2.662131e-01 2.992678e-01
-1.765429e-01 1.594613e+00 -4.477494e+00 5.219645e+00 -2.712212e-05 1.881268e-02 -2.764705e-01 2.685369e-01
-1.136919e-01 1.608170e+00 -4.308962e+00 4.292497e+00 -4.439060e-06 1.785012e-02 -2.289604e-01 2.718710e-01
-1.170667e-01 1.609052e+00 -4.564518e+00 4.784435e+00 3.174731e-06 1.852609e-02 -2.661741e-01 2.906834e-01
-1.313118e-01 1.618643e+00 -4.532705e+00 4.921705e+00 3.727629e-05 1.539457e-02 -2.769859e-01 2.535392e-01
-1.549576e-01 1.626770e+00 -4.720722e+00 4.344580e+00 -2.449910e-05 1.420763e-02 -2.726288e-01 2.600349e-01
-1.225810e-01 1.637047e+00 -5.913196e+00 4.910976e+00 -1.671002e-05 1.854598e-02 -2.648633e-01 2.706306e-01
-1.260770e-01 1.621982e+00 -4.841666e+00 5.056857e+00 2.477220e-05 1.910961e-02 -2.693532e-01 2.740507e-01
-1.522220e-01 1.642129e+00 -4.841666e+00 4.711858e+00 -2.335305e-06 1.740424e-02 -2.801978e-01 3.019849e-01
-1.487457e-01 1.643178e+00 -4.898509e+00 5.264071e+00 -2.128797e-05 1.768048e-02 -2.716441e-01 2.944972e-01
-1.386546e-01 1.654318e+00 -4.942718e+00 5.273843e+00 -4.480620e-05 1.825185e-02 -2.707955e-01 2.818762e-01
-1.232429e-01 1.646142e+00 -4.551703e+00 4.910912e+00 2.130581e-05 1.722087e-02 -2.784679e-01 2.386256e-01
-1.142761e-01 1.658594e+00 -4.426925e+00 5.253435e+00 -9.173163e-05 1.667033e-02 -2.564607e-01 2.898032e-01
-1.433173e-01 1.632125e+00 -4.870688e+00 5.264928e+00 -3.293226e-05 1.861061e-02 -2.625676e-01 2.899786e-01
-1.868030e-01 1.570840e+00 -4.695060e+00 3.869042e+00 1.258447e-05 1.861102e-02 -2.801075e-01 2.973090e-01
-1.294192e-01 1.679872e+00 -5.905894e+00 5.257653e+00 -3.614828e-05 1.863401e-02 -2.639542e-01 2.787979e-01
-1.817372e-01 1.646734e+00 -5.916630e+00 4.939113e+00 4.048366e-07 1.706256e-02 -2.770648e-01 2.901743e-01
-1.481549e-01 1.646634e+00 -4.499834e+00 5.093228e+00 2.638708e-05 1.390700e-02 -2.853698e-01 2.712755e-01
-1.796580e-01 1.624467e+00 -4.499375e+00 4.888355e+00 -3.668228e-05 1.706505e-02 -2.870970e-01 2.866827e-01
-1.339629e-01 1.643970e+00 -4.513211e+00 4.878005e+00 -7.127677e-05 1.911373e-02 -2.728446e-01 2.755746e-01
-1.411839e-01 1.648822e+00 -4.407164e+00 5.049685e+00 -3.620587e-05 1.516748e-02 -2.384982e-01 2.911034e-01
-1.086793e-01 1.604502e+00 -4.482069e+00 4.640280e+00 -1.958450e-05 1.756112e-02 -2.752242e-01 2.764687e-01
-8.788022e-02 1.638838e+00 -4.445450e+00 4.716454e+00 -6.366447e-06 1.729023e-02 -2.641844e-01 2.495809e-01
-1.407207e-01 1.612023e+00 -4.708252e+00 4.896482e+00 8.390158e-05 1.864397e-02 -2.809349e-01 2.877055e-01
-8.225386e-02 1.669361e+00 -4.394573e+00 5.290216e+00 -8.334329e-05 1.903456e-02 -2.833968e-01 2.740332e-01
-1.298532e-01 1.599898e+00 -4.497446e+00 4.398137e+00 1.017328e-04 1.954639e-02 -2.862406e-01 2.863802e-01
-1.329033e-01 1.636938e+00 -5.166731e+00 5.281176e+00 -6.504629e-05 1.899587e-02 -2.789090e-01 2.846076e-01
-9.271991e-02 1.643457e+00 -4.612847e+00 4.796665e+00 5.026013e-05 1.861235e-02 -2.694951e-01 2.914400e-01
-1.133477e-01 1.648712e+00 -4.612847e+00 4.723783e+00 2.069207e-05 1.798206e-02 -2.568323e-01 2.908538e-01
-1.559612e-01 1.626552e+00 -4.591111e+00 3.975726e+00 -5.972534e-05 1.772795e-02 -2.598069e-01 2.802292e-01
-1.580716e-01 1.651360e+00 -5.091706e+00 4.738938e+00 1.471730e-04 1.767395e-02 -2.775737e-01 2.887239e-01
-1.084664e-01 1.646244e+00 -5.956141e+00 5.291181e+00 -4.719185e-05 1.852613e-02 -2.830151e-01 2.625997e-01
-1.932160e-01 1.607828e+00 -5.950655e+00 4.914935e+00 1.025902e-06 1.485257e-02 -2.472619e-01 2.192298e-01
-1.089378e-01 1.684977e+00 -4.571873e+00 4.944509e+00 -2.927511e-06 1.367307e-02 -2.603788e-01 2.857878e-01
-1.241382e-01 1.629475e+00 -4.793719e+00 5.117964e+00 -7.830959e-06 1.762624e-02 -2.725410e-01 2.856200e-01
-2.366207e-01 1.665352e+00 -4.861585e+00 5.153681e+00 -5.505383e-05 1.511138e-02 -2.710625e-01 2.857659e-01
-1.442772e-01 1.679353e+00 -4.996672e+00 4.951719e+00 6.540547e-07 1.550136e-02 -2.945500e-01 2.999586e-01
-1.285971e-01 1.661276e+00 -4.630850e+00 5.044253e+00 5.373483e-05 1.749588e-02 -2.699755e-01 2.816442e-01
-9.762165e-02 1.661889e+00 -4.523370e+00 4.950610e+00 -1.876192e-05 1.813222e-02 -2.918398e-01 2.463051e-01
-1.762027e-01 1.605013e+00 -5.102153e+00 4.941753e+00 -1.981861e-05 1.928176e-02 -2.973589e-01 2.810256e-01
-1.382852e-01 1.601469e+00 -4.462623e+00 5.074720e+00 6.205796e-05 1.864471e-02 -2.958144e-01 2.794900e-01
-1.157604e-01 1.670281e+00 -5.132924e+00 5.127540e+00 -4.741503e-05 1.795336e-02 -2.942959e-01 2.663133e-01
-1.305692e-01 1.662461e+00 -4.827768e+00 5.338969e+00 5.464054e-05 1.825898e-02 -2.781996e-01 2.786150e-01
-1.535083e-01 1.661981e+00 -4.480884e+00 4.977778e+00 -9.116000e-06 1.296136e-02 -2.030170e-01 2.688445e-01
-1.365216e-01 1.664654e+00 -4.870962e+00 4.949468e+00 4.676203e-05 1.815883e-02 -2.894645e-01 2.865990e-01
-1.640811e-01 1.635783e+00 -4.735456e+00 4.527367e+00 -6.437801e-06 1.392500e-02 -2.872455e-01 2.951170e-01
-1.080988e-01 1.659270e+00 -5.238962e+00 4.904345e+00 6.310257e-05 1.574312e-02 -2.884665e-01 2.527638e-01
-1.980168e-01 1.673795e+00 -5.975309e+00 4.917769e+00 5.161722e-05 1.520097e-02 -2.727866e-01 2.504624e-01
-1.363857e-01 1.618949e+00 -4.849848e+00 4.977033e+00 -5.476640e-05 1.517462e-02 -2.517544e-01 2.583015e-01
-1.267625e-01 1.695138e+00 -4.748538e+00 4.952060e+00 -3.342615e-05 1.524936e-02 -2.838313e-01 2.971389e-01
-2.243323e-01 1.629551e+00 -4.697775e+00 4.971157e+00 1.062406e-04 1.610119e-02 -2.530309e-01 2.733437e-01
-1.842942e-01 1.605864e+00 -4.728550e+00 4.980192e+00 -1.247145e-05 1.533308e-02 -2.847094e-01 2.902669e-01
-1.296038e-01 1.696191e+00 -4.696227e+00 4.628964e+00 -5.183426e-06 1.594439e-02 -2.874310e-01 2.870258e-01
-1.503297e-01 1.669083e+00 -4.737321e+00 4.801350e+00 -2.363259e-06 1.714826e-02 -2.547210e-01 2.939138e-01
-1.923974e-01 1.624162e+00 -5.960028e+00 4.784344e+00 -4.604461e-05 1.548819e-02 -2.979837e-01 2.914678e-01
-1.364599e-01 1.700447e+00 -5.958696e+00 4.777083e+00 -8.130233e-06 1.495060e-02 -2.898387e-01 2.556283e-01
-2.084686e-01 1.655843e+00 -4.864053e+00 4.547381e+00 -7.517120e-06 1.537800e-02 -2.326005e-01 2.831756e-01
-1.648695e-01 1.683894e+00 -5.959469e+00 4.627595e+00 2.211285e-05 1.544701e-02 -2.937685e-01 2.850277e-01
-1.522245e-01 1.658860e+00 -5.964468e+00 4.514694e+00 5.933183e-05 2.018750e-02 -2.751200e-01 2.850277e-01
-1.500381e-01 1.708054e+00 -4.907841e+00 5.005950e+00 -2.601875e-06 1.716339e-02 -2.781852e-01 2.778502e-01
-1.679298e-01 1.650216e+00 -4.689653e+00 4.452312e+00 1.107460e-05 1.748185e-02 -2.766256e-01 3.068112e-01
-2.005484e-01 1.690301e+00 -4.827996e+00 4.987784e+00 -1.253205e-05 1.610542e-02 -2.796086e-01 3.052089e-01
-1.795970e-01 1.676216e+00 -5.404242e+00 4.987784e+00 -2.552967e-05 1.313996e-02 -2.417815e-01 2.970843e-01
-1.818700e-01 1.664335e+00 -4.881096e+00 4.591751e+00 2.192099e-05 1.774043e-02 -2.844461e-01 2.968168e-01
-1.671057e-01 1.619067e+00 -5.582838e+00 4.593810e+00 -5.007315e-06 1.757947e-02 -2.684097e-01 2.915449e-01
-1.302717e-01 1.666203e+00 -4.864133e+00 4.991492e+00 -2.799094e-05 1.760752e-02 -2.762189e-01 2.916724e-01
-1.365588e-01 1.645947e+00 -4.663315e+00 4.593330e+00 8.296223e-05 1.882255e-02 -2.957320e-01 3.087369e-01
-1.993500e-01 1.679945e+00 -4.911782e+00 4.681957e+00 -5.070704e-05 1.557046e-02 -2.696872e-01 3.125641e-01
-1.146364e-01 1.679533e+00 -5.468559e+00 5.399767e+00 -2.722149e-05 1.772641e-02 -2.618311e-01 2.886347e-01
-1.532683e-01 1.680356e+00 -4.934902e+00 4.582086e+00 8.877876e-06 1.510840e-02 -2.399600e-01 2.877253e-01
-1.494090e-01 1.728252e+00 -5.402851e+00 4.804731e+00 -7.824953e-06 1.763237e-02 -2.987610e-01 2.914843e-01
-1.614309e-01 1.678240e+00 -4.673032e+00 4.495203e+00 -5.430818e-05 1.686017e-02 -2.678844e-01 2.958545e-01
-1.713301e-01 1.687426e+00 -4.893422e+00 4.623708e+00 3.225069e-05 1.768306e-02 -2.895423e-01 2.958545e-01
-2.018364e-01 1.647483e+00 -4.573183e+00 4.622818e+00 2.180633e-05 1.494732e-02 -2.198468e-01 2.852725e-01
-1.837455e-01 1.675216e+00 -4.994055e+00 5.424713e+00 3.035045e-05 1.805776e-02 -2.873588e-01 3.017440e-01
-1.407665e-01 1.706199e+00 -4.656292e+00 5.045321e+00 -1.580177e-05 1.249880e-02 -2.916331e-01 3.017440e-01
-1.962349e-01 1.651704e+00 -4.890998e+00 5.114433e+00 4.566748e-05 1.579424e-02 -2.866726e-01 2.876701e-01
-1.989716e-01 1.709928e+00 -4.986967e+00 5.111665e+00 -5.090882e-05 1.564275e-02 -3.000558e-01 2.461734e-01
-1.584311e-01 1.686936e+00 -6.016707e+00 5.038932e+00 -1.913087e-05 1.597884e-02 -2.586694e-01 2.932480e-01
-8.763639e-02 1.691089e+00 -4.797145e+00 5.066372e+00 -5.771593e-05 1.905574e-02 -3.007954e-01 3.027986e-01
-1.752040e-01 1.698364e+00 -4.916781e+00 5.042687e+00 -9.270688e-08 1.556204e-02 -2.915839e-01 2.983152e-01
-1.523966e-01 1.708000e+00 -4.898406e+00 5.071739e+00 -5.776935e-05 1.922276e-02 -2.916405e-01 2.982344e-01
-1.675322e-01 1.707263e+00 -5.037368e+00 5.088229e+00 8.337718e-05 1.882560e-02 -3.005137e-01 2.943782e-01
-1.584467e-01 1.672294e+00 -5.036394e+00 4.704940e+00 9.508244e-05 1.647816e-02 -3.048517e-01 2.731885e-01
-1.856714e-01 1.687141e+00 -4.923496e+00 5.070020e+00 -5.438433e-05 1.627525e-02 -3.062275e-01 3.101951e-01
-1.718745e-01 1.686477e+00 -4.912194e+00 4.658644e+00 -1.190650e-05 1.366867e-02 -2.127067e-01 3.017887e-01
-1.559156e-01 1.728170e+00 -6.027615e+00 5.097888e+00 5.294365e-05 1.534853e-02 -2.848095e-01 2.709389e-01
-1.503904e-01 1.694664e+00 -4.926753e+00 4.697151e+00 4.304727e-05 1.573090e-02 -2.961797e-01 2.866783e-01
-2.068016e-01 1.659935e+00 -4.903625e+00 4.896619e+00 1.518011e-05 1.503801e-02 -2.970089e-01 2.867596e-01
-1.375599e-01 1.630641e+00 -5.221496e+00 5.077894e+00 -7.486988e-06 2.023841e-02 -2.892381e-01 2.887999e-01
-1.678277e-01 1.675251e+00 -5.899406e+00 4.574347e+00 1.722397e-05 1.704114e-02 -3.022297e-01 2.911780e-01
-1.764851e-01 1.701855e+00 -6.096018e+00 4.651865e+00 -1.119385e-04 1.397588e-02 -3.011208e-01 2.712483e-01
-1.735308e-01 1.649751e+00 -5.992028e+00 5.101510e+00 5.192445e-05 1.366282e-02 -2.475304e-01 3.025368e-01
-1.882280e-01 1.698919e+00 -5.203516e+00 5.516613e+00 2.390464e-05 1.901328e-02 -3.012212e-01 3.014812e-01
-1.848102e-01 1.694198e+00 -6.238679e+00 4.719191e+00 2.728730e-05 1.841060e-02 -2.870378e-01 3.115923e-01
-1.900522e-01 1.705808e+00 -5.187317e+00 5.104206e+00 8.331646e-05 1.444349e-02 -2.870378e-01 3.126576e-01
-1.512853e-01 1.702786e+00 -5.125283e+00 4.684735e+00 7.095562e-05 2.036505e-02 -3.014223e-01 3.029410e-01
-2.120097e-01 1.670935e+00 -5.288039e+00 5.169396e+00 2.793923e-05 2.046861e-02 -2.932585e-01 3.037387e-01
-2.123541e-01 1.654943e+00 -5.405199e+00 4.158444e+00 -4.433167e-05 1.936029e-02 -2.835260e-01 3.112251e-01
-1.844931e-01 1.715108e+00 -6.939915e+00 5.168474e+00 -3.182196e-05 1.691527e-02 -2.822547e-01 3.010957e-01
-2.169193e-01 1.672726e+00 -6.876792e+00 4.707707e+00 1.255655e-04 1.617075e-02 -2.950193e-01 2.973807e-01
-2.351038e-01 1.701433e+00 -5.990294e+00 4.634573e+00 -3.825210e-05 1.921894e-02 -2.887927e-01 3.087069e-01
-1.844880e-01 1.719600e+00 -6.702330e+00 4.605840e+00 -7.018010e-05 1.693825e-02 -3.036997e-01 3.098228e-01
-2.171048e-01 1.713510e+00 -6.714952e+00 4.870443e+00 7.912441e-05 1.772211e-02 -3.224832e-01 2.970360e-01
-2.365762e-01 1.697448e+00 -5.622407e+00 5.071852e+00 2.127014e-05 1.680962e-02 -3.270318e-01 3.046983e-01
-2.202639e-01 1.675299e+00 -5.463617e+00 5.060073e+00 1.255450e-04 1.909960e-02 -2.973098e-01 2.956005e-01
-2.196120e-01 1.765295e+00 -5.867500e+00 5.042609e+00 -9.497090e-05 1.667453e-02 -2.859980e-01 3.022389e-01
-2.281979e-01 1.660717e+00 -6.087640e+00 4.855843e+00 6.214313e-05 1.671784e-02 -2.956783e-01 2.863435e-01
-1.809290e-01 1.731698e+00 -6.559300e+00 5.486798e+00 -5.063507e-05 1.727940e-02 -3.276710e-01 2.778248e-01
-1.922341e-01 1.710795e+00 -5.343168e+00 5.140198e+00 -6.642351e-06 1.628836e-02 -3.199791e-01 2.707045e-01
-1.919875e-01 1.767007e+00 -6.080010e+00 4.603893e+00 -8.371539e-05 1.686393e-02 -3.333687e-01 3.036424e-01
-1.980554e-01 1.683630e+00 -6.350905e+00 4.873068e+00 -1.238141e-05 1.738685e-02 -3.266113e-01 2.764380e-01
-2.309194e-01 1.691668e+00 -4.998199e+00 4.748326e+00 -4.842559e-05 1.591868e-02 -3.232672e-01 2.948254e-01
-1.996027e-01 1.689916e+00 -5.622389e+00 4.679171e+00 2.860074e-05 1.922680e-02 -3.331160e-01 2.929055e-01
-2.227885e-01 1.731675e+00 -5.622389e+00 5.080769e+00 -1.147183e-04 1.669213e-02 -3.265198e-01 3.001131e-01
-1.651029e-01 1.724381e+00 -5.439598e+00 5.192380e+00 1.603920e-04 1.880494e-02 -2.729207e-01 2.863377e-01
-1.857676e-01 1.670650e+00 -5.459081e+00 4.905432e+00 -1.094682e-04 1.739443e-02 -3.116453e-01 2.787674e-01
-2.294213e-01 1.733746e+00 -6.208209e+00 4.906988e+00 -4.054826e-05 1.251284e-02 -3.079265e-01 2.610818e-01
-1.620326e-01 1.713592e+00 -5.581546e+00 4.655695e+00 7.496702e-05 2.051182e-02 -3.296980e-01 2.806607e-01
-2.414914e-01 1.671086e+00 -5.475327e+00 4.932859e+00 -7.654040e-05 1.828978e-02 -3.388118e-01 2.981069e-01
-1.801240e-01 1.756900e+00 -5.383063e+00 5.557749e+00 2.439308e-05 1.687994e-02 -3.374528e-01 2.842585e-01
-2.171599e-01 1.721463e+00 -5.572900e+00 4.912252e+00 1.001383e-05 1.194099e-02 -2.042343e-01 2.798120e-01
-2.125354e-01 1.719029e+00 -6.006938e+00 4.926068e+00 -1.234299e-04 1.584315e-02 -3.380582e-01 3.115337e-01
-2.103042e-01 1.716833e+00 -5.996730e+00 5.120814e+00 -4.554414e-05 1.652284e-02 -3.303121e-01 3.000910e-01
-1.614495e-01 1.682316e+00 -6.359803e+00 5.253212e+00 -7.737715e-07 1.910113e-02 -3.395200e-01 3.005757e-01
-2.107088e-01 1.663374e+00 -5.358335e+00 5.252999e+00 -3.779703e-05 1.968519e-02 -3.425761e-01 3.094607e-01
-1.977615e-01 1.771213e+00 -5.413376e+00 5.120088e+00 1.429087e-04 1.617638e-02 -3.122256e-01 2.878456e-01
-1.930969e-01 1.697638e+00 -5.469685e+00 5.597175e+00 5.539298e-05 2.034606e-02 -3.450350e-01 2.889354e-01
-1.790072e-01 1.711546e+00 -5.182218e+00 4.913502e+00 4.454471e-05 2.049361e-02 -3.407980e-01 2.980058e-01
-1.985675e-01 1.734713e+00 -6.272379e+00 5.003747e+00 5.808716e-05 1.780183e-02 -3.326226e-01 2.901029e-01
-2.148832e-01 1.693379e+00 -6.250643e+00 4.766424e+00 -1.227515e-04 1.648175e-02 -3.187535e-01 2.951004e-01
-2.197122e-01 1.708788e+00 -5.992694e+00 5.595119e+00 4.659489e-05 2.056903e-02 -3.400174e-01 3.027866e-01
-2.316732e-01 1.693479e+00 -5.414473e+00 4.609901e+00 3.558598e-05 1.573474e-02 -3.143797e-01 3.111285e-01
-2.672230e-01 1.700862e+00 -5.397698e+00 4.586826e+00 -6.989185e-05 1.993483e-02 -3.139986e-01 3.131566e-01
-2.491278e-01 1.722656e+00 -6.179454e+00 5.245001e+00 6.045582e-05 1.917262e-02 -3.086799e-01 3.008779e-01
-1.933881e-01 1.730711e+00 -5.680412e+00 4.785403e+00 -8.047220e-06 1.958111e-02 -3.226972e-01 3.102726e-01
-2.448089e-01 1.675358e+00 -5.585404e+00 4.844558e+00 -9.180973e-05 1.469077e-02 -3.252545e-01 3.044547e-01
-2.054111e-01 1.713017e+00 -6.376829e+00 4.715207e+00 4.259433e-05 1.464357e-02 -2.335287e-01 3.013404e-01
-2.665834e-01 1.762859e+00 -5.986875e+00 5.611948e+00 -1.415133e-04 1.636981e-02 -3.277208e-01 2.921133e-01
-2.171423e-01 1.711624e+00 -5.451705e+00 5.070132e+00 4.391189e-05 1.720056e-02 -3.269780e-01 2.975524e-01
-1.725845e-01 1.755965e+00 -5.655500e+00 5.115326e+00 -3.645479e-05 1.819257e-02 -3.339339e-01 3.010720e-01
-2.027943e-01 1.730827e+00 -5.994572e+00 5.624186e+00 -1.986595e-05 1.939317e-02 -3.367953e-01 2.986414e-01
-2.425420e-01 1.754744e+00 -6.003461e+00 5.640759e+00 2.254543e-06 1.626151e-02 -3.421888e-01 2.388069e-01
-1.567605e-01 1.739454e+00 -5.611132e+00 5.145132e+00 -6.022116e-05 1.789007e-02 -3.271461e-01 2.965990e-01
-2.081338e-01 1.716115e+00 -5.438210e+00 5.202124e+00 3.259438e-05 1.670982e-02 -3.426094e-01 2.937557e-01
-1.821285e-01 1.722021e+00 -6.016344e+00 5.137538e+00 -4.006966e-05 1.935481e-02 -3.377258e-01 3.043102e-01
-2.075354e-01 1.694813e+00 -5.339431e+00 4.960794e+00 1.520700e-05 1.881040e-02 -3.194615e-01 2.955927e-01
-2.248100e-01 1.695840e+00 -5.597123e+00 5.164936e+00 -1.151279e-04 1.783970e-02 -3.366575e-01 3.190956e-01
-2.244344e-01 1.732517e+00 -6.052710e+00 4.703383e+00 -1.617825e-05 1.505866e-02 -3.341500e-01 3.190956e-01
-1.928323e-01 1.702493e+00 -5.961080e+00 4.626402e+00 -2.362746e-05 1.762512e-02 -3.371599e-01 2.960450e-01
-1.284710e-01 1.751480e+00 -5.436091e+00 5.699524e+00 -1.388643e-04 1.712108e-02 -3.106863e-01 2.884353e-01
-2.018450e-01 1.685730e+00 -5.454657e+00 5.723855e+00 -3.255345e-05 1.945802e-02 -3.489309e-01 2.883742e-01
-2.192762e-01 1.763451e+00 -5.688380e+00 5.723855e+00 -6.772605e-05 1.285964e-02 -2.898700e-01 3.138334e-01
-2.121922e-01 1.768134e+00 -5.523722e+00 5.192496e+00 1.679419e-04 1.645459e-02 -2.863912e-01 2.901200e-01
-1.813400e-01 1.758388e+00 -5.446559e+00 5.202192e+00 -2.255166e-05 1.806033e-02 -3.298063e-01 2.944924e-01
-1.765866e-01 1.719423e+00 -5.955882e+00 5.379627e+00 -3.087115e-05 1.671787e-02 -3.043069e-01 2.711647e-01
-2.443018e-01 1.720004e+00 -5.980503e+00 5.720404e+00 -1.791536e-05 1.772309e-02 -3.384387e-01 2.935708e-01
-1.434372e-01 1.740786e+00 -5.971075e+00 4.815838e+00 2.579040e-05 1.588289e-02 -3.337459e-01 3.086053e-01
-1.603266e-01 1.719274e+00 -5.591520e+00 5.721604e+00 2.993291e-05 2.091044e-02 -3.421883e-01 3.209023e-01
-2.066406e-01 1.728276e+00 -5.984359e+00 5.715686e+00 -6.647012e-05 1.967055e-02 -3.175709e-01 2.970262e-01
-1.904878e-01 1.735108e+00 -5.593640e+00 5.225350e+00 -3.290413e-05 1.921255e-02 -3.402633e-01 3.085926e-01
-1.359459e-01 1.764116e+00 -5.949777e+00 5.378084e+00 4.378930e-05 1.778760e-02 -3.414054e-01 2.699533e-01
-1.634098e-01 1.716704e+00 -5.490187e+00 5.730386e+00 4.815239e-05 2.010862e-02 -3.417765e-01 2.999888e-01
-1.815986e-01 1.708564e+00 -5.270683e+00 4.559078e+00 -8.427878e-05 1.723953e-02 -3.467250e-01 2.610061e-01
-1.307225e-01 1.743378e+00 -5.530987e+00 5.323216e+00 1.625725e-04 1.865715e-02 -2.375427e-01 3.065923e-01
-1.775629e-01 1.775812e+00 -5.704297e+00 5.721388e+00 5.780511e-05 1.859312e-02 -3.239524e-01 3.155524e-01
-1.779735e-01 1.758602e+00 -5.984321e+00 5.721406e+00 -7.081254e-05 1.547846e-02 -2.431541e-01 3.105717e-01
-1.863447e-01 1.745511e+00 -5.984321e+00 5.456477e+00 -1.804758e-06 1.944837e-02 -3.396541e-01 3.021493e-01
-1.694375e-01 1.712312e+00 -6.159324e+00 4.845424e+00 5.560166e-05 1.995487e-02 -3.365048e-01 3.089528e-01
-1.707412e-01 1.724832e+00 -6.005593e+00 5.684215e+00 4.237449e-06 1.933060e-02 -3.395755e-01 2.940558e-01
-1.520988e-01 1.709933e+00 -5.668637e+00 4.680675e+00 2.976625e-05 1.587381e-02 -2.194776e-01 2.879202e-01
-1.086435e-01 1.754528e+00 -5.198731e+00 5.701287e+00 -7.938269e-05 1.664909e-02 -3.476570e-01 3.025283e-01
-1.703556e-01 1.751066e+00 -5.709187e+00 5.719426e+00 -4.703647e-05 1.626538e-02 -3.476570e-01 2.588112e-01
-1.915170e-01 1.724786e+00 -5.517534e+00 5.193869e+00 1.346277e-04 1.737451e-02 -2.105142e-01 2.751606e-01
-1.591245e-01 1.757851e+00 -5.980039e+00 5.187769e+00 8.619899e-05 1.581859e-02 -3.457174e-01 2.833486e-01
-1.753131e-01 1.737276e+00 -5.547554e+00 5.376867e+00 1.512443e-05 1.786808e-02 -2.884280e-01 2.883368e-01
-2.278205e-01 1.727049e+00 -5.687131e+00 5.689408e+00 -5.303238e-05 1.627017e-02 -3.398575e-01 2.458327e-01
-1.448578e-01 1.736307e+00 -5.571716e+00 5.689920e+00 4.029841e-05 1.965258e-02 -3.135328e-01 2.851190e-01
-1.563039e-01 1.727390e+00 -5.586600e+00 5.520283e+00 1.707153e-05 1.968895e-02 -3.479391e-01 3.008696e-01
-1.844783e-01 1.699915e+00 -5.653458e+00 5.677791e+00 1.553155e-05 2.073763e-02 -3.260306e-01 2.846130e-01
-1.600218e-01 1.712730e+00 -6.138880e+00 5.685614e+00 4.916874e-05 1.835694e-02 -2.839712e-01 2.850583e-01
-1.839053e-01 1.781007e+00 -5.972082e+00 5.709204e+00 -2.418576e-04 1.278553e-02 -3.400209e-01 2.784246e-01
-1.358103e-01 1.744512e+00 -6.368625e+00 5.649574e+00 2.222838e-05 1.546108e-02 -3.418826e-01 2.903504e-01
-1.613309e-01 1.740908e+00 -5.504382e+00 5.737933e+00 -7.721802e-06 1.869971e-02 -3.522434e-01 2.903504e-01
-1.394994e-01 1.742204e+00 -6.216777e+00 4.979182e+00 1.159509e-05 1.747528e-02 -3.310470e-01 2.684378e-01
-1.649880e-01 1.743839e+00 -5.622218e+00 4.855381e+00 -7.984291e-05 1.619013e-02 -3.520875e-01 3.074636e-01
-2.370398e-01 1.690311e+00 -6.279474e+00 5.750799e+00 1.546001e-04 1.763895e-02 -3.293073e-01 2.985152e-01
-2.240625e-01 1.722142e+00 -5.690224e+00 5.246956e+00 -1.043472e-04 1.377139e-02 -3.106115e-01 2.375609e-01
-2.126084e-01 1.776586e+00 -5.692288e+00 5.712960e+00 3.643235e-05 1.552804e-02 -2.630176e-01 3.147347e-01
-1.750446e-01 1.758361e+00 -5.550759e+00 5.742322e+00 -2.295872e-05 1.479952e-02 -2.630176e-01 2.498840e-01
-2.010645e-01 1.775426e+00 -5.710671e+00 4.806761e+00 1.649085e-05 1.505542e-02 -3.076196e-01 2.393348e-01
-1.439439e-01 1.771175e+00 -5.970270e+00 5.302534e+00 1.154556e-04 1.831051e-02 -3.471795e-01 2.921074e-01
-1.902311e-01 1.758137e+00 -5.670696e+00 5.451018e+00 -2.677886e-04 1.465011e-02 -3.478299e-01 2.437632e-01
-1.496530e-01 1.695683e+00 -5.551160e+00 5.199455e+00 3.325088e-05 1.865888e-02 -3.452557e-01 3.088210e-01
-1.659597e-01 1.758667e+00 -6.134186e+00 5.729721e+00 -5.128453e-05 1.926438e-02 -3.420927e-01 3.215646e-01
-1.459692e-01 1.761461e+00 -5.573170e+00 5.732004e+00 -1.851576e-04 1.721914e-02 -3.420927e-01 2.927523e-01
-2.359198e-01 1.757159e+00 -5.946816e+00 5.343243e+00 -1.416606e-04 1.554494e-02 -3.376443e-01 2.497038e-01
-2.021794e-01 1.781568e+00 -5.938652e+00 5.269299e+00 -6.480909e-05 1.839446e-02 -3.503980e-01 2.849001e-01
-1.625638e-01 1.734760e+00 -5.734596e+00 5.349417e+00 5.405093e-05 1.976954e-02 -2.643465e-01 3.102541e-01
-2.048755e-01 1.755244e+00 -5.601095e+00 5.794205e+00 -1.069410e-04 1.602552e-02 -3.512018e-01 2.813730e-01
-1.669568e-01 1.795922e+00 -5.951825e+00 5.794205e+00 1.606959e-05 1.466350e-02 -3.451471e-01 2.959953e-01
-1.477542e-01 1.761682e+00 -6.232334e+00 5.499291e+00 9.339281e-05 1.518201e-02 -2.497807e-01 3.075308e-01
-1.350460e-01 1.738450e+00 -5.612330e+00 5.300490e+00 -5.258044e-06 1.792799e-02 -3.471178e-01 2.949355e-01
-2.472755e-01 1.763850e+00 -6.130323e+00 4.837865e+00 -1.732044e-04 1.762322e-02 -3.459293e-01 3.064187e-01
-1.748230e-01 1.765909e+00 -5.746653e+00 5.834712e+00 -5.284727e-05 1.862658e-02 -3.491094e-01 2.896980e-01
-1.951777e-01 1.742788e+00 -5.572544e+00 5.075090e+00 1.186884e-04 1.762432e-02 -3.448514e-01 2.772289e-01
-1.212876e-01 1.744716e+00 -5.565947e+00 5.519039e+00 -9.041485e-05 1.849056e-02 -3.535589e-01 3.044280e-01
-2.000751e-01 1.731977e+00 -5.729584e+00 5.219761e+00 1.673673e-04 2.063867e-02 -3.165146e-01 2.941040e-01
-1.964467e-01 1.784273e+00 -6.158835e+00 5.458947e+00 4.445101e-05 1.608939e-02 -3.483158e-01 2.925733e-01
-1.865224e-01 1.739502e+00 -5.899022e+00 5.807859e+00 7.755134e-06 1.850444e-02 -3.497422e-01 3.031385e-01
-2.325930e-01 1.737110e+00 -5.652077e+00 4.729855e+00 6.379052e-06 1.514958e-02 -3.384426e-01 3.026672e-01
-1.402848e-01 1.709597e+00 -5.694887e+00 5.816019e+00 -6.491479e-05 1.799798e-02 -3.408027e-01 2.660295e-01
-1.104367e-01 1.790846e+00 -5.981340e+00 5.498011e+00 -3.806997e-05 1.936490e-02 -3.562693e-01 2.851386e-01
-4.928343e-02 1.792386e+00 -5.645040e+00 5.551763e+00 -5.972453e-05 2.185848e-02 -3.561051e-01 2.852275e-01
-1.985749e-01 1.742743e+00 -5.767626e+00 5.528288e+00 -1.156950e-05 1.722597e-02 -3.309916e-01 2.850100e-01
-1.488207e-01 1.785204e+00 -6.236065e+00 5.825327e+00 -1.177284e-04 2.092552e-02 -3.526607e-01 2.952126e-01
-1.449231e-01 1.793188e+00 -5.947581e+00 5.374288e+00 1.283239e-04 1.842138e-02 -3.502116e-01 3.039527e-01
-1.525705e-01 1.738484e+00 -5.561521e+00 5.436434e+00 2.960674e-05 2.108619e-02 -3.562124e-01 3.003697e-01
-1.338924e-01 1.753305e+00 -5.651611e+00 5.231238e+00 -1.777693e-04 1.976258e-02 -3.415117e-01 3.006496e-01
-1.868851e-01 1.765999e+00 -6.147400e+00 5.825509e+00 -7.103274e-05 1.581852e-02 -3.301307e-01 2.764204e-01
-1.576878e-01 1.800092e+00 -5.799413e+00 5.434791e+00 9.708261e-05 1.535201e-02 -3.289787e-01 3.038275e-01
-1.457922e-01 1.756547e+00 -5.599321e+00 4.997431e+00 -1.904037e-05 2.256544e-02 -3.584476e-01 3.002133e-01
-2.045796e-01 1.777565e+00 -5.967396e+00 4.966554e+00 -8.292949e-05 1.577348e-02 -3.287373e-01 2.875942e-01
-1.877978e-01 1.727903e+00 -6.091800e+00 4.966554e+00 -8.543632e-05 1.548252e-02 -2.940148e-01 2.925344e-01
-1.551783e-01 1.816329e+00 -5.960157e+00 5.553000e+00 1.496463e-05 1.498516e-02 -3.320848e-01 2.535644e-01
-1.454522e-01 1.754372e+00 -5.625269e+00 5.515624e+00 -1.061755e-04 1.727325e-02 -2.961964e-01 2.816338e-01
-1.728233e-01 1.784338e+00 -5.880316e+00 5.557039e+00 -5.199653e-05 1.736975e-02 -2.926811e-01 3.040836e-01
-1.494113e-01 1.803628e+00 -6.239640e+00 5.871704e+00 -1.550320e-04 1.635451e-02 -2.754218e-01 2.922393e-01
-1.902047e-01 1.797569e+00 -5.818550e+00 5.385792e+00 4.842511e-05 1.800386e-02 -3.627297e-01 3.024245e-01
-1.835039e-01 1.796593e+00 -6.152998e+00 5.264207e+00 9.519216e-05 1.765777e-02 -3.587154e-01 3.052514e-01
-2.238268e-01 1.768470e+00 -6.238625e+00 5.859053e+00 -1.363570e-05 1.671032e-02 -3.480528e-01 2.930751e-01
-2.339393e-01 1.766410e+00 -5.871625e+00 5.291729e+00 -4.359621e-05 1.625544e-02 -2.931286e-01 2.894619e-01
-1.489038e-01 1.730375e+00 -5.529860e+00 4.811202e+00 -6.306634e-05 2.042396e-02 -3.177357e-01 3.109370e-01
-1.792874e-01 1.741094e+00 -6.215011e+00 5.574560e+00 3.523920e-05 1.974720e-02 -3.615172e-01 3.106218e-01
-1.928345e-01 1.777824e+00 -5.973844e+00 4.999568e+00 2.454754e-06 2.087160e-02 -3.576423e-01 2.875307e-01
-1.951429e-01 1.779349e+00 -6.413503e+00 5.040423e+00 -1.946180e-05 1.725132e-02 -3.485749e-01 2.916308e-01
-1.804473e-01 1.741775e+00 -5.975922e+00 5.447203e+00 -2.543470e-06 2.009736e-02 -3.512447e-01 2.916308e-01
-2.186962e-01 1.788119e+00 -5.975922e+00 5.144041e+00 1.844467e-04 1.588202e-02 -2.592128e-01 3.128498e-01
-2.369683e-01 1.726263e+00 -5.881959e+00 5.576833e+00 -2.506318e-04 1.982176e-02 -3.534807e-01 2.925229e-01
-1.678434e-01 1.755709e+00 -5.837983e+00 5.292338e+00 -6.169970e-06 1.920272e-02 -3.570603e-01 3.100378e-01
-1.425202e-01 1.809688e+00 -5.910567e+00 5.314167e+00 -5.651927e-05 1.806436e-02 -3.549011e-01 3.096580e-01
-1.531185e-01 1.801434e+00 -5.808049e+00 5.423976e+00 -7.717433e-05 1.540812e-02 -3.050700e-01 3.096580e-01
-1.855841e-01 1.778002e+00 -6.317876e+00 5.325371e+00 5.326677e-05 1.105664e-02 -1.834472e-01 2.455565e-01
-9.056163e-02 1.816970e+00 -5.974487e+00 5.898976e+00 -1.259381e-04 2.089070e-02 -2.967890e-01 3.219830e-01
-2.337074e-01 1.750871e+00 -6.110683e+00 5.908737e+00 -8.460757e-05 1.603265e-02 -2.817229e-01 2.842064e-01
-1.855475e-01 1.763105e+00 -5.966035e+00 5.908737e+00 -2.699059e-06 1.925473e-02 -2.817229e-01 3.060804e-01
-1.799663e-01 1.769952e+00 -5.986551e+00 5.478627e+00 7.234569e-05 1.924521e-02 -3.325337e-01 3.053721e-01
-1.918372e-01 1.716838e+00 -5.877113e+00 5.329884e+00 -8.792308e-05 1.943196e-02 -3.588558e-01 3.091253e-01
-1.178180e-01 1.756270e+00 -5.821288e+00 5.933755e+00 -1.547434e-04 2.032093e-02 -3.643151e-01 2.826992e-01
-1.895610e-01 1.787507e+00 -6.028736e+00 5.305108e+00 1.842642e-05 1.662721e-02 -3.611495e-01 2.993820e-01
-1.672782e-01 1.766188e+00 -6.281693e+00 5.533638e+00 1.003755e-05 1.856724e-02 -3.644042e-01 2.923987e-01
-1.664351e-01 1.788731e+00 -5.965209e+00 5.925743e+00 -8.862445e-05 1.961800e-02 -3.544064e-01 2.961942e-01
-1.313736e-01 1.819817e+00 -6.297710e+00 5.627869e+00 4.518915e-05 1.355731e-02 -3.173179e-01 2.849670e-01
-2.135416e-01 1.760246e+00 -6.363967e+00 5.626730e+00 -3.193605e-04 1.648252e-02 -3.570371e-01 2.493124e-01
-1.753003e-01 1.793089e+00 -6.341141e+00 5.411364e+00 -2.444429e-05 1.466341e-02 -3.099717e-01 2.497291e-01
-1.939735e-01 1.791602e+00 -6.349980e+00 4.983548e+00 -1.258046e-05 1.808129e-02 -3.107487e-01 2.955979e-01
-1.482283e-01 1.739249e+00 -5.659740e+00 5.939768e+00 6.496783e-05 1.977973e-02 -3.675071e-01 2.868847e-01
-1.946750e-01 1.804023e+00 -6.321048e+00 4.987419e+00 -3.940639e-05 1.849234e-02 -3.398265e-01 3.010305e-01
-2.361558e-01 1.753604e+00 -6.395897e+00 5.166314e+00 1.197019e-05 1.685601e-02 -3.555450e-01 2.820786e-01
-2.072611e-01 1.794227e+00 -6.147167e+00 5.421724e+00 -4.532822e-05 1.576252e-02 -3.679578e-01 3.017911e-01
-1.636434e-01 1.806349e+00 -5.972587e+00 5.053188e+00 -7.865210e-07 1.702300e-02 -3.491137e-01 3.101181e-01
-1.816462e-01 1.792685e+00 -6.437284e+00 5.169387e+00 1.019338e-04 1.659646e-02 -3.494305e-01 3.101181e-01
-1.883288e-01 1.817110e+00 -6.041410e+00 5.032833e+00 -9.800174e-06 1.791925e-02 -3.640196e-01 3.129907e-01
-1.647610e-01 1.796061e+00 -6.367078e+00 5.175876e+00 -2.074626e-04 1.761333e-02 -3.698488e-01 3.068302e-01
-2.306578e-01 1.761864e+00 -6.044114e+00 5.403522e+00 3.428152e-05 2.146672e-02 -3.698488e-01 3.045679e-01
-1.891127e-01 1.791559e+00 -6.202507e+00 4.903472e+00 -5.088986e-05 1.160434e-02 -2.193572e-01 3.057383e-01
-2.163897e-01 1.793700e+00 -5.905834e+00 5.512195e+00 -7.210842e-07 1.685498e-02 -3.434136e-01 3.111575e-01
-1.601549e-01 1.836148e+00 -6.344545e+00 5.349941e+00 -4.980778e-05 1.746449e-02 -3.215864e-01 3.283477e-01
-2.405124e-01 1.789516e+00 -5.963832e+00 5.420254e+00 6.996446e-06 1.784107e-02 -3.667321e-01 3.227680e-01
-1.873718e-01 1.786765e+00 -6.133294e+00 6.041403e+00 -5.496602e-05 1.739873e-02 -3.715352e-01 3.227680e-01
-1.467278e-01 1.828545e+00 -6.214700e+00 5.729750e+00 -5.661983e-05 1.509504e-02 -3.728117e-01 2.865623e-01
-8.587345e-02 1.849891e+00 -6.214700e+00 6.059207e+00 -1.191921e-04 1.765504e-02 -3.095452e-01 2.850708e-01
-1.752131e-01 1.784701e+00 -6.252386e+00 5.723253e+00 4.044874e-05 1.679756e-02 -3.758414e-01 2.969905e-01
-1.475475e-01 1.814145e+00 -6.071213e+00 5.073344e+00 5.708956e-06 1.944975e-02 -3.553061e-01 3.152138e-01
-9.463719e-02 1.846174e+00 -6.065932e+00 5.413885e+00 4.545747e-06 1.651597e-02 -3.469770e-01 2.536524e-01
-1.127414e-01 1.797413e+00 -5.750275e+00 5.403328e+00 -1.480451e-06 1.721895e-02 -3.274809e-01 2.988901e-01
-1.222740e-01 1.815025e+00 -5.987641e+00 5.107569e+00 3.601678e-05 1.599291e-02 -3.732086e-01 3.066404e-01
-1.673956e-01 1.826878e+00 -6.168329e+00 6.073543e+00 8.661406e-06 1.979420e-02 -3.660238e-01 3.083958e-01
-1.137802e-01 1.829428e+00 -5.951321e+00 5.757582e+00 1.603323e-04 1.769722e-02 -3.036122e-01 2.981800e-01
-1.204170e-01 1.792920e+00 -5.785787e+00 5.740891e+00 -4.729045e-05 1.904139e-02 -3.161741e-01 3.204060e-01
-1.554754e-01 1.836525e+00 -6.047747e+00 5.739172e+00 7.553556e-05 1.944980e-02 -3.411319e-01 2.908501e-01
-1.916097e-01 1.791203e+00 -5.998020e+00 5.218951e+00 -5.474729e-05 1.891135e-02 -3.643988e-01 3.091384e-01
-1.417060e-01 1.802987e+00 -5.990911e+00 5.832821e+00 -1.705416e-05 1.890098e-02 -3.656454e-01 3.060504e-01
-1.653656e-01 1.788170e+00 -5.914119e+00 5.253172e+00 -9.980364e-05 1.679509e-02 -3.714455e-01 2.995180e-01
-1.271363e-01 1.813347e+00 -6.384488e+00 5.396794e+00 -6.607179e-05 1.610804e-02 -3.725017e-01 3.033209e-01
-8.496100e-02 1.849555e+00 -6.365840e+00 5.865498e+00 -8.529166e-05 1.900914e-02 -3.729441e-01 2.833797e-01
-1.057214e-01 1.837586e+00 -6.339239e+00 5.265268e+00 -7.559642e-05 2.072594e-02 -3.690683e-01 3.128478e-01
-9.823540e-02 1.795233e+00 -5.848748e+00 5.937463e+00 2.837980e-06 1.826569e-02 -3.423417e-01 2.835555e-01
-1.444403e-01 1.819959e+00 -6.354369e+00 5.918645e+00 -1.220357e-05 1.890751e-02 -3.627459e-01 3.038499e-01
-1.574036e-01 1.775444e+00 -6.354369e+00 5.918516e+00 2.217360e-05 2.080276e-02 -3.594267e-01 2.801635e-01
-1.692666e-01 1.781229e+00 -6.097494e+00 5.100870e+00 -9.974991e-06 1.731221e-02 -3.264753e-01 2.691706e-01
-1.281070e-01 1.762760e+00 -5.642129e+00 5.212019e+00 1.342746e-04 2.056007e-02 -3.741433e-01 3.284285e-01
-9.295195e-02 1.759679e+00 -6.378608e+00 6.123857e+00 1.196748e-05 2.124292e-02 -3.738684e-01 2.984938e-01
-1.591943e-01 1.853314e+00 -5.984007e+00 6.123857e+00 -2.732675e-05 2.189288e-02 -3.740471e-01 3.299425e-01
-1.224782e-01 1.834487e+00 -6.201552e+00 5.103796e+00 1.716408e-04 2.321760e-02 -3.468360e-01 3.122844e-01
-1.632422e-01 1.817791e+00 -5.897863e+00 5.814557e+00 -6.964486e-05 1.994917e-02 -3.689578e-01 3.174837e-01
-1.526277e-01 1.805434e+00 -6.289226e+00 6.133469e+00 -3.996448e-05 2.031677e-02 -3.433468e-01 2.862192e-01
-1.865060e-01 1.777848e+00 -5.708069e+00 5.298583e+00 -1.342892e-04 1.662031e-02 -3.717281e-01 2.974716e-01
-1.896168e-01 1.785217e+00 -6.241129e+00 5.071799e+00 1.008058e-04 1.833186e-02 -3.623808e-01 2.704176e-01
-1.975505e-01 1.815563e+00 -5.925063e+00 5.529903e+00 7.795376e-05 1.710823e-02 -3.654165e-01 2.815524e-01
-1.449404e-01 1.831478e+00 -6.308252e+00 5.529903e+00 4.435128e-07 1.745511e-02 -3.448222e-01 3.059173e-01
-1.158592e-01 1.831499e+00 -6.309662e+00 6.129948e+00 5.197622e-05 1.945438e-02 -3.395334e-01 3.181429e-01
-1.735106e-01 1.858759e+00 -5.997689e+00 6.116280e+00 -1.115793e-04 1.655380e-02 -3.719161e-01 3.016984e-01
-1.736821e-01 1.831180e+00 -6.015293e+00 5.403860e+00 -1.199110e-05 1.503825e-02 -3.456427e-01 3.258558e-01
-2.001086e-01 1.818338e+00 -6.536218e+00 5.521017e+00 -4.240340e-05 1.933930e-02 -3.148655e-01 3.405409e-01
-1.247397e-01 1.809484e+00 -5.389345e+00 5.562985e+00 2.344784e-05 1.916110e-02 -3.484336e-01 3.212620e-01
-1.798018e-01 1.831149e+00 -5.731098e+00 5.210279e+00 -2.417732e-05 1.903114e-02 -3.768009e-01 2.969137e-01
-1.905273e-01 1.823895e+00 -5.855445e+00 5.846625e+00 -5.842637e-05 1.462774e-02 -2.709831e-01 2.874144e-01
-2.179336e-01 1.814598e+00 -5.816458e+00 5.873396e+00 -1.014471e-04 1.234785e-02 -3.677575e-01 2.521939e-01
-1.699196e-01 1.819759e+00 -6.353996e+00 5.137252e+00 1.237516e-04 2.118407e-02 -3.638023e-01 3.241623e-01
