1.279961e+02 4.811083e-01 7.493552e-03 5.757488e-01 -9.960938e-01 9.960938e-01
1.279961e+02 4.811083e-01 7.493552e-03 5.757488e-01 -9.960938e-01 9.960938e-01
1.279961e+02 4.811083e-01 7.493552e-03 5.757488e-01 -9.960938e-01 9.960938e-01
1.279961e+02 4.811083e-01 7.493552e-03 5.757488e-01 -9.960938e-01 9.960938e-01
1.279961e+02 4.811083e-01 7.493552e-03 5.757488e-01 -9.960938e-01 9.960938e-01
1.279961e+02 4.811083e-01 7.493552e-03 5.757488e-01 -9.960938e-01 9.960938e-01
1.279961e+02 4.811083e-01 7.493552e-03 5.757488e-01 -9.960938e-01 9.960938e-01
1.279961e+02 4.811083e-01 7.493552e-03 5.757488e-01 -9.960938e-01 9.960938e-01
1.279961e+02 4.811083e-01 7.493552e-03 5.757488e-01 -9.960938e-01 9.960938e-01
1.279961e+02 4.811083e-01 7.493552e-03 5.757488e-01 -9.960938e-01 9.960938e-01
1.279961e+02 4.811083e-01 7.493552e-03 5.757488e-01 -9.960938e-01 9.960938e-01
1.279961e+02 4.811083e-01 7.493552e-03 5.757488e-01 -9.960938e-01 9.960938e-01
1.279961e+02 4.811083e-01 7.493552e-03 5.757488e-01 -9.960938e-01 9.960938e-01
1.279961e+02 4.811083e-01 7.493552e-03 5.757488e-01 -9.960938e-01 9.960938e-01
1.279961e+02 4.811083e-01 7.493552e-03 5.757488e-01 -9.960938e-01 9.960938e-01
1.279961e+02 4.811083e-01 7.493552e-03 5.757488e-01 -9.960938e-01 9.960938e-01
1.279961e+02 4.811083e-01 7.493552e-03 5.757488e-01 -9.960938e-01 9.960938e-01
1.279961e+02 4.811083e-01 7.493552e-03 5.757488e-01 -9.960938e-01 9.960938e-01
1.279961e+02 4.811083e-01 7.493552e-03 5.757488e-01 -9.960938e-01 9.960938e-01
1.279961e+02 4.811083e-01 7.493552e-03 5.757488e-01 -9.960938e-01 9.960938e-01
1.279961e+02 4.811083e-01 7.493552e-03 5.757488e-01 -9.960938e-01 9.960938e-01
1.279961e+02 4.811083e-01 7.493552e-03 5.757488e-01 -9.960938e-01 9.960938e-01
1.279961e+02 4.811083e-01 7.493552e-03 5.757488e-01 -9.960938e-01 9.960938e-01
1.279961e+02 4.811083e-01 7.493552e-03 5.757488e-01 -9.960938e-01 9.960938e-01
1.279961e+02 4.811083e-01 7.493552e-03 5.757488e-01 -9.960938e-01 9.960938e-01
1.279961e+02 4.811083e-01 7.493552e-03 5.757488e-01 -9.960938e-01 9.960938e-01
1.279961e+02 4.811083e-01 7.493552e-03 5.757488e-01 -9.960938e-01 9.960938e-01
1.279961e+02 4.811083e-01 7.493552e-03 5.757488e-01 -9.960938e-01 9.960938e-01
1.279961e+02 4.811083e-01 7.493552e-03 5.757488e-01 -9.960938e-01 9.960938e-01
1.279961e+02 4.811083e-01 7.493552e-03 5.757488e-01 -9.960938e-01 9.960938e-01
1.279961e+02 4.811083e-01 7.493552e-03 5.757488e-01 -9.960938e-01 9.960938e-01
1.279961e+02 4.811083e-01 7.493552e-03 5.757488e-01 -9.960938e-01 9.960938e-01
1.279961e+02 4.811083e-01 7.493552e-03 5.757488e-01 -9.960938e-01 9.960938e-01
1.279961e+02 4.811083e-01 7.493552e-03 5.757488e-01 -9.960938e-01 9.960938e-01
1.279961e+02 4.811083e-01 7.493552e-03 5.757488e-01 -9.960938e-01 9.960938e-01
1.279961e+02 4.811083e-01 7.493552e-03 5.757488e-01 -9.960938e-01 9.960938e-01
1.279961e+02 4.811083e-01 7.493552e-03 5.757488e-01 -9.960938e-01 9.960938e-01
1.279961e+02 4.811083e-01 7.493552e-03 5.757488e-01 -9.960938e-01 9.960938e-01
1.279961e+02 4.811083e-01 7.493552e-03 5.757488e-01 -9.960938e-01 9.960938e-01
1.279961e+02 4.811083e-01 7.493552e-03 5.757488e-01 -9.960938e-01 9.960938e-01
1.279961e+02 4.811083e-01 7.493552e-03 5.757488e-01 -9.960938e-01 9.960938e-01
1.279961e+02 4.811083e-01 7.493552e-03 5.757488e-01 -9.960938e-01 9.960938e-01
1.279961e+02 4.811083e-01 7.493552e-03 5.757488e-01 -9.960938e-01 9.960938e-01
1.279961e+02 4.811083e-01 7.493552e-03 5.757488e-01 -9.960938e-01 9.960938e-01
1.279961e+02 4.811083e-01 7.493552e-03 5.757488e-01 -9.960938e-01 9.960938e-01
1.279961e+02 4.811083e-01 7.493552e-03 5.757488e-01 -9.960938e-01 9.960938e-01
1.279961e+02 4.811083e-01 7.493552e-03 5.757488e-01 -9.960938e-01 9.960938e-01
1.279961e+02 4.811083e-01 7.493552e-03 5.757488e-01 -9.960938e-01 9.960938e-01
1.279961e+02 4.811083e-01 7.493552e-03 5.757488e-01 -9.960938e-01 9.960938e-01
1.279961e+02 4.811083e-01 7.493552e-03 5.757488e-01 -9.960938e-01 9.960938e-01
1.279961e+02 4.811083e-01 7.493552e-03 5.757488e-01 -9.960938e-01 9.960938e-01
1.279961e+02 4.811083e-01 7.493552e-03 5.757488e-01 -9.960938e-01 9.960938e-01
1.279961e+02 4.811083e-01 7.493552e-03 5.757488e-01 -9.960938e-01 9.960938e-01
1.279961e+02 4.811083e-01 7.493552e-03 5.757488e-01 -9.960938e-01 9.960938e-01
1.279961e+02 4.811083e-01 7.493552e-03 5.757488e-01 -9.960938e-01 9.960938e-01
1.279961e+02 4.811083e-01 7.493552e-03 5.757488e-01 -9.960938e-01 9.960938e-01
1.279961e+02 4.811083e-01 7.493552e-03 5.757488e-01 -9.960938e-01 9.960938e-01
1.279961e+02 4.811083e-01 7.493552e-03 5.757488e-01 -9.960938e-01 9.960938e-01
1.279961e+02 4.811083e-01 7.493552e-03 5.757488e-01 -9.960938e-01 9.960938e-01
1.279961e+02 4.811083e-01 7.493552e-03 5.757488e-01 -9.960938e-01 9.960938e-01
1.279961e+02 4.811083e-01 7.493552e-03 5.757488e-01 -9.960938e-01 9.960938e-01
1.279961e+02 4.811083e-01 7.493552e-03 5.757488e-01 -9.960938e-01 9.960938e-01
1.279961e+02 4.811083e-01 7.493552e-03 5.757488e-01 -9.960938e-01 9.960938e-01
1.279961e+02 4.811083e-01 7.493552e-03 5.757488e-01 -9.960938e-01 9.960938e-01
1.279961e+02 4.811083e-01 7.493552e-03 5.757488e-01 -9.960938e-01 9.960938e-01
1.279961e+02 4.811083e-01 7.493552e-03 5.757488e-01 -9.960938e-01 9.960938e-01
1.279961e+02 4.811083e-01 7.493552e-03 5.757488e-01 -9.960938e-01 9.960938e-01
1.279961e+02 4.811083e-01 7.493552e-03 5.757488e-01 -9.960938e-01 9.960938e-01
1.279961e+02 4.811083e-01 7.493552e-03 5.757488e-01 -9.960938e-01 9.960938e-01
1.279961e+02 4.811083e-01 7.493552e-03 5.757488e-01 -9.960938e-01 9.960938e-01
1.279961e+02 4.811083e-01 7.493552e-03 5.757488e-01 -9.960938e-01 9.960938e-01
1.279961e+02 4.811083e-01 7.493552e-03 5.757488e-01 -9.960938e-01 9.960938e-01
1.279961e+02 4.811083e-01 7.493552e-03 5.757488e-01 -9.960938e-01 9.960938e-01
1.279961e+02 4.811083e-01 7.493552e-03 5.757488e-01 -9.960938e-01 9.960938e-01
1.279961e+02 4.811083e-01 7.493552e-03 5.757488e-01 -9.960938e-01 9.960938e-01
1.279961e+02 4.811083e-01 7.493552e-03 5.757488e-01 -9.960938e-01 9.960938e-01
1.279961e+02 4.811083e-01 7.493552e-03 5.757488e-01 -9.960938e-01 9.960938e-01
1.279961e+02 4.811083e-01 7.493552e-03 5.757488e-01 -9.960938e-01 9.960938e-01
1.279961e+02 4.811083e-01 7.493552e-03 5.757488e-01 -9.960938e-01 9.960938e-01
1.279961e+02 4.811083e-01 7.493552e-03 5.757488e-01 -9.960938e-01 9.960938e-01
1.279961e+02 4.811083e-01 7.493552e-03 5.757488e-01 -9.960938e-01 9.960938e-01
1.279961e+02 4.811083e-01 7.493552e-03 5.757488e-01 -9.960938e-01 9.960938e-01
1.279961e+02 4.811083e-01 7.493552e-03 5.757488e-01 -9.960938e-01 9.960938e-01
1.279961e+02 4.811083e-01 7.493552e-03 5.757488e-01 -9.960938e-01 9.960938e-01
1.279961e+02 4.811083e-01 7.493552e-03 5.757488e-01 -9.960938e-01 9.960938e-01
1.279961e+02 4.811083e-01 7.493552e-03 5.757488e-01 -9.960938e-01 9.960938e-01
1.279961e+02 4.811083e-01 7.493552e-03 5.757488e-01 -9.960938e-01 9.960938e-01
1.279961e+02 4.811083e-01 7.493552e-03 5.757488e-01 -9.960938e-01 9.960938e-01
1.279961e+02 4.811083e-01 7.493552e-03 5.757488e-01 -9.960938e-01 9.960938e-01
1.279961e+02 4.811083e-01 7.493552e-03 5.757488e-01 -9.960938e-01 9.960938e-01
1.279961e+02 4.811083e-01 7.493552e-03 5.757488e-01 -9.960938e-01 9.960938e-01
1.279961e+02 4.811083e-01 7.493552e-03 5.757488e-01 -9.960938e-01 9.960938e-01
1.279961e+02 4.811083e-01 7.493552e-03 5.757488e-01 -9.960938e-01 9.960938e-01
1.279961e+02 4.811083e-01 7.493552e-03 5.757488e-01 -9.960938e-01 9.960938e-01
1.279961e+02 4.811083e-01 7.493552e-03 5.757488e-01 -9.960938e-01 9.960938e-01
1.279961e+02 4.811083e-01 7.493552e-03 5.757488e-01 -9.960938e-01 9.960938e-01
1.279961e+02 4.811083e-01 7.493552e-03 5.757488e-01 -9.960938e-01 9.960938e-01
1.279961e+02 4.811083e-01 7.493552e-03 5.757488e-01 -9.960938e-01 9.960938e-01
1.279961e+02 4.811083e-01 7.493552e-03 5.757488e-01 -9.960938e-01 9.960938e-01
1.279961e+02 4.811083e-01 7.493552e-03 5.757488e-01 -9.960938e-01 9.960938e-01
1.279961e+02 4.811083e-01 7.493552e-03 5.757488e-01 -9.960938e-01 9.960938e-01
