2.048000e+03 9.055000e-01 -5.251101e-03 5.770152e-01 -9.997559e-01 9.997559e-01
2.048000e+03 4.517000e-01 -6.588970e-01 3.783057e+00 -2.006909e+01 1.919873e+01
2.048000e+03 4.592000e-01 -1.737549e+00 8.720485e+00 -3.095996e+01 2.567505e+01
2.048000e+03 4.625000e-01 -2.803659e+00 1.388016e+01 -4.018091e+01 3.483032e+01
2.048000e+03 4.698000e-01 -3.866800e+00 1.908322e+01 -4.720166e+01 4.398560e+01
2.048000e+03 4.634000e-01 -4.932453e+00 2.430292e+01 -5.913867e+01 5.314087e+01
