-2.401644e+00 6.362563e+00 -3.750415e+01 3.557544e+01 8.102315e-05 2.916464e-03 -2.248535e-01 2.250977e-01
-2.839762e+00 6.927683e+00 -3.815063e+01 3.550220e+01 9.602189e-07 1.971832e-03 -2.197266e-01 2.026367e-01
-3.045756e+00 7.238822e+00 -3.928857e+01 3.619165e+01 9.443447e-07 1.791662e-03 -2.175293e-01 2.062988e-01
-3.216463e+00 7.484774e+00 -4.041553e+01 3.670776e+01 1.668395e-06 1.691341e-03 -2.175293e-01 2.094727e-01
-3.347734e+00 7.674034e+00 -4.159375e+01 3.801831e+01 7.321270e-07 1.625125e-03 -2.175293e-01 2.094727e-01
-3.444842e+00 7.840741e+00 -4.206055e+01 3.883838e+01 1.963466e-07 1.571275e-03 -2.175293e-01 2.160645e-01
-3.533438e+00 7.971507e+00 -4.429199e+01 4.019165e+01 7.999515e-07 1.534294e-03 -2.197266e-01 2.094727e-01
-3.603965e+00 8.092424e+00 -4.542480e+01 4.024170e+01 -8.319865e-07 1.500352e-03 -2.175293e-01 2.121582e-01
-3.662690e+00 8.200274e+00 -4.615845e+01 4.124268e+01 -7.198155e-07 1.472500e-03 -2.175293e-01 2.094727e-01
-3.707815e+00 8.292939e+00 -4.755420e+01 4.218140e+01 1.032849e-06 1.452676e-03 -2.158203e-01 2.094727e-01
-3.751716e+00 8.375866e+00 -4.882422e+01 4.257861e+01 1.049280e-06 1.430627e-03 -2.175293e-01 2.094727e-01
-3.786943e+00 8.451759e+00 -4.929370e+01 4.328711e+01 4.885215e-07 1.414849e-03 -2.175293e-01 2.094727e-01
-3.826544e+00 8.524638e+00 -4.962354e+01 4.375293e+01 1.923934e-06 1.397381e-03 -2.158203e-01 2.094727e-01
-3.858311e+00 8.588060e+00 -5.072461e+01 4.412305e+01 -4.841013e-07 1.386062e-03 -2.141113e-01 2.094727e-01
-3.890096e+00 8.651664e+00 -5.038770e+01 4.469165e+01 -6.919417e-07 1.371713e-03 -2.175293e-01 2.094727e-01
-3.932081e+00 8.710360e+00 -5.115625e+01 4.527441e+01 8.316770e-07 1.357770e-03 -2.141113e-01 2.094727e-01
-3.948664e+00 8.766992e+00 -5.201172e+01 4.539111e+01 2.955994e-07 1.346670e-03 -2.158203e-01 2.094727e-01
-3.970695e+00 8.821102e+00 -5.232153e+01 4.563647e+01 -1.822893e-06 1.336427e-03 -2.158203e-01 2.094727e-01
-3.996158e+00 8.866887e+00 -5.270532e+01 4.603491e+01 -9.220305e-07 1.327868e-03 -2.141113e-01 2.062988e-01
-4.028794e+00 8.921182e+00 -5.381201e+01 4.632251e+01 2.587965e-07 1.314097e-03 -2.141113e-01 2.094727e-01
-4.044023e+00 8.958238e+00 -5.316138e+01 4.650659e+01 -1.918057e-07 1.309667e-03 -2.119141e-01 2.094727e-01
-4.073208e+00 9.009930e+00 -5.413745e+01 4.687085e+01 -1.341658e-07 1.299122e-03 -2.141113e-01 2.062988e-01
-4.103600e+00 9.040459e+00 -5.392456e+01 4.714014e+01 1.290945e-07 1.291182e-03 -2.119141e-01 2.094727e-01
-4.123397e+00 9.078695e+00 -5.505908e+01 4.710278e+01 7.847376e-07 1.283294e-03 -2.141113e-01 2.170410e-01
-4.136673e+00 9.110698e+00 -5.459082e+01 4.757812e+01 -5.411688e-07 1.276131e-03 -2.119141e-01 2.094727e-01
-4.159055e+00 9.153573e+00 -5.566650e+01 4.751831e+01 -1.772704e-07 1.268361e-03 -2.119141e-01 2.062988e-01
-4.177053e+00 9.184888e+00 -5.627808e+01 4.782446e+01 1.345081e-06 1.265170e-03 -2.119141e-01 2.165527e-01
-4.192054e+00 9.217485e+00 -5.568384e+01 4.802979e+01 7.834591e-07 1.256918e-03 -2.119141e-01 2.094727e-01
-4.209097e+00 9.248437e+00 -5.608130e+01 4.816040e+01 7.177728e-07 1.252903e-03 -2.119141e-01 2.062988e-01
-4.227745e+00 9.275172e+00 -5.661353e+01 4.822363e+01 -7.195641e-07 1.246892e-03 -2.119141e-01 2.094727e-01
-4.243638e+00 9.308381e+00 -5.718286e+01 4.838696e+01 -3.318681e-07 1.239324e-03 -2.099609e-01 2.094727e-01
-4.265890e+00 9.340305e+00 -5.691528e+01 4.837622e+01 7.978599e-08 1.236846e-03 -2.119141e-01 2.062988e-01
-4.269214e+00 9.360516e+00 -5.689941e+01 4.867505e+01 -3.497071e-07 1.228662e-03 -2.099609e-01 2.094727e-01
-4.280231e+00 9.387396e+00 -5.741797e+01 4.896069e+01 4.981804e-07 1.225023e-03 -2.099609e-01 2.062988e-01
-4.289385e+00 9.420837e+00 -5.801611e+01 4.915527e+01 -2.552734e-07 1.222422e-03 -2.099609e-01 2.094727e-01
-4.310039e+00 9.441066e+00 -5.836426e+01 4.926660e+01 -1.639853e-07 1.217560e-03 -2.094727e-01 2.094727e-01
-4.326175e+00 9.465184e+00 -5.893945e+01 4.924658e+01 1.162486e-06 1.211567e-03 -2.119141e-01 2.062988e-01
-4.339718e+00 9.488585e+00 -5.861230e+01 4.949487e+01 -4.430975e-08 1.207092e-03 -2.099609e-01 2.094727e-01
-4.357056e+00 9.514177e+00 -5.904541e+01 4.945728e+01 1.892975e-07 1.201600e-03 -2.092285e-01 2.094727e-01
-4.359245e+00 9.537031e+00 -5.947705e+01 4.970923e+01 -1.124275e-06 1.199436e-03 -2.094727e-01 2.094727e-01
-4.372531e+00 9.561740e+00 -6.008032e+01 4.991089e+01 -5.475141e-07 1.191750e-03 -2.092285e-01 2.062988e-01
-4.386749e+00 9.579804e+00 -6.022559e+01 4.999414e+01 -4.223568e-08 1.193905e-03 -2.141113e-01 2.121582e-01
-4.401597e+00 9.606376e+00 -6.098853e+01 5.017944e+01 -7.223596e-07 1.189126e-03 -2.119141e-01 2.121582e-01
-4.416364e+00 9.626284e+00 -6.109985e+01 5.026074e+01 1.618824e-06 1.184996e-03 -2.119141e-01 2.121582e-01
-4.419845e+00 9.643450e+00 -6.126733e+01 5.042847e+01 -2.882209e-07 1.179908e-03 -2.092285e-01 2.094727e-01
-4.437773e+00 9.662360e+00 -6.146826e+01 5.034619e+01 1.100910e-06 1.177245e-03 -2.119141e-01 2.121582e-01
-4.448045e+00 9.685755e+00 -6.220557e+01 5.066724e+01 9.871177e-07 1.173553e-03 -2.092285e-01 2.121582e-01
-4.449656e+00 9.706741e+00 -6.237207e+01 5.050000e+01 -1.345799e-06 1.171653e-03 -2.092285e-01 2.175293e-01
-4.471086e+00 9.723797e+00 -6.295215e+01 5.083838e+01 9.736156e-07 1.168604e-03 -2.119141e-01 2.121582e-01
-4.473264e+00 9.737689e+00 -6.303711e+01 5.078076e+01 3.044199e-07 1.163874e-03 -2.119141e-01 2.160645e-01
-4.487986e+00 9.760598e+00 -6.382007e+01 5.097998e+01 -7.901910e-07 1.163680e-03 -2.092285e-01 2.141113e-01
-4.497821e+00 9.778590e+00 -6.388452e+01 5.123022e+01 -3.277192e-07 1.159029e-03 -2.119141e-01 2.141113e-01
-4.506359e+00 9.797297e+00 -6.392822e+01 5.117114e+01 -1.958315e-07 1.156199e-03 -2.092285e-01 2.160645e-01
-4.518810e+00 9.809481e+00 -6.474683e+01 5.119458e+01 2.505636e-07 1.153787e-03 -2.119141e-01 2.160645e-01
-4.523860e+00 9.832725e+00 -6.413672e+01 5.126050e+01 1.969573e-06 1.151403e-03 -2.119141e-01 2.160645e-01
-4.521906e+00 9.846100e+00 -6.492773e+01 5.130542e+01 -4.537912e-07 1.147336e-03 -2.092285e-01 2.141113e-01
-4.538150e+00 9.862027e+00 -6.539355e+01 5.155444e+01 2.859298e-08 1.145662e-03 -2.092285e-01 2.141113e-01
-4.550114e+00 9.874464e+00 -6.558667e+01 5.148291e+01 8.046285e-07 1.141381e-03 -2.119141e-01 2.175293e-01
-4.551377e+00 9.895493e+00 -6.565454e+01 5.180420e+01 4.738571e-07 1.141292e-03 -2.092285e-01 2.160645e-01
-4.555538e+00 9.907502e+00 -6.562793e+01 5.171631e+01 9.612384e-07 1.138171e-03 -2.092285e-01 2.141113e-01
-4.562408e+00 9.926883e+00 -6.589795e+01 5.189136e+01 -4.785340e-07 1.137192e-03 -2.119141e-01 2.175293e-01
-4.577245e+00 9.945507e+00 -6.633960e+01 5.198535e+01 2.260977e-06 1.134698e-03 -2.119141e-01 2.160645e-01
-4.572742e+00 9.952467e+00 -6.652075e+01 5.216138e+01 -6.560191e-07 1.129929e-03 -2.092285e-01 2.160645e-01
-4.582137e+00 9.973232e+00 -6.675439e+01 5.209106e+01 -3.611473e-07 1.128386e-03 -2.099609e-01 2.175293e-01
-4.591587e+00 9.989423e+00 -6.629419e+01 5.217822e+01 -3.423057e-07 1.127551e-03 -2.092285e-01 2.175293e-01
-4.598028e+00 1.000537e+01 -6.671362e+01 5.218213e+01 -3.779615e-07 1.125165e-03 -2.092285e-01 2.160645e-01
-4.599360e+00 1.001569e+01 -6.706689e+01 5.247852e+01 -4.706000e-07 1.121464e-03 -2.092285e-01 2.175293e-01
-4.610264e+00 1.003119e+01 -6.689087e+01 5.239746e+01 5.338958e-07 1.119947e-03 -2.092285e-01 2.175293e-01
-4.612831e+00 1.004623e+01 -6.689502e+01 5.251099e+01 8.277711e-08 1.117780e-03 -2.092285e-01 2.187500e-01
-4.622610e+00 1.005325e+01 -6.753369e+01 5.274414e+01 -1.116016e-07 1.116780e-03 -2.092285e-01 2.175293e-01
-4.622109e+00 1.006942e+01 -6.729224e+01 5.265942e+01 -1.833055e-06 1.114816e-03 -2.092285e-01 2.175293e-01
-4.639100e+00 1.008461e+01 -6.760889e+01 5.279004e+01 6.066037e-07 1.114003e-03 -2.092285e-01 2.187500e-01
-4.635679e+00 1.009832e+01 -6.776367e+01 5.280981e+01 2.044801e-07 1.108798e-03 -2.092285e-01 2.175293e-01
-4.640714e+00 1.010736e+01 -6.766211e+01 5.307788e+01 2.641238e-07 1.110478e-03 -2.092285e-01 2.187500e-01
-4.645188e+00 1.012239e+01 -6.801929e+01 5.295288e+01 -4.786028e-08 1.108434e-03 -2.119141e-01 2.187500e-01
-4.660393e+00 1.013201e+01 -6.858374e+01 5.305493e+01 1.312442e-06 1.103684e-03 -2.092285e-01 2.187500e-01
-4.649576e+00 1.014301e+01 -6.834839e+01 5.338892e+01 -3.065742e-07 1.103632e-03 -2.119141e-01 2.199707e-01
-4.665169e+00 1.015574e+01 -6.817871e+01 5.331714e+01 -3.799492e-07 1.099360e-03 -2.092285e-01 2.187500e-01
-4.670727e+00 1.016613e+01 -6.872925e+01 5.335742e+01 8.128155e-08 1.102321e-03 -2.119141e-01 2.187500e-01
-4.678672e+00 1.017928e+01 -6.845874e+01 5.363574e+01 1.632249e-07 1.096508e-03 -2.092285e-01 2.175293e-01
-4.687678e+00 1.019110e+01 -6.889160e+01 5.352710e+01 5.700805e-07 1.095021e-03 -2.092285e-01 2.175293e-01
-4.688943e+00 1.020479e+01 -6.903003e+01 5.375171e+01 2.470566e-07 1.095801e-03 -2.119141e-01 2.187500e-01
-4.691416e+00 1.021489e+01 -6.867236e+01 5.382861e+01 -2.103049e-07 1.093910e-03 -2.119141e-01 2.199707e-01
-4.698898e+00 1.022648e+01 -6.886157e+01 5.376025e+01 3.956767e-07 1.091251e-03 -2.092285e-01 2.199707e-01
-4.703879e+00 1.024308e+01 -6.873779e+01 5.399121e+01 2.991850e-07 1.087632e-03 -2.092285e-01 2.187500e-01
-4.706871e+00 1.025418e+01 -6.935474e+01 5.404004e+01 -3.971455e-07 1.087124e-03 -2.092285e-01 2.187500e-01
-4.710965e+00 1.025991e+01 -6.923511e+01 5.401221e+01 2.582791e-07 1.086523e-03 -2.119141e-01 2.187500e-01
-4.715679e+00 1.027435e+01 -6.944873e+01 5.424780e+01 6.181326e-08 1.084647e-03 -2.119141e-01 2.187500e-01
-4.723674e+00 1.027931e+01 -6.937817e+01 5.421704e+01 6.436626e-07 1.083217e-03 -2.092285e-01 2.187500e-01
-4.732556e+00 1.028710e+01 -6.982056e+01 5.451929e+01 8.719678e-07 1.080309e-03 -2.092285e-01 2.187500e-01
-4.733403e+00 1.030024e+01 -6.952808e+01 5.440820e+01 1.110293e-06 1.079208e-03 -2.119141e-01 2.187500e-01
-4.746805e+00 1.030896e+01 -6.967944e+01 5.433765e+01 9.410059e-07 1.080812e-03 -2.119141e-01 2.187500e-01
-4.739988e+00 1.031541e+01 -7.001465e+01 5.463135e+01 -1.497237e-06 1.076868e-03 -2.092285e-01 2.199707e-01
-4.752217e+00 1.033175e+01 -6.978101e+01 5.465210e+01 1.925469e-07 1.075805e-03 -2.092285e-01 2.199707e-01
