2.569570e+04 8.369000e-01 9.011893e-04 5.775232e-01 -9.999847e-01 9.999390e-01
1.798464e+03 1.361000e-01 -4.293232e-03 5.754673e-01 -1.359848e+00 1.657028e+00
1.445388e+03 1.091000e-01 -5.003221e-03 5.748119e-01 -1.730286e+00 2.079422e+00
1.269960e+03 9.800000e-02 -5.269403e-03 5.748166e-01 -2.036484e+00 2.350189e+00
1.149317e+03 8.960000e-02 -5.553430e-03 5.749110e-01 -2.252350e+00 2.477600e+00
1.078905e+03 8.650000e-02 -5.874034e-03 5.750134e-01 -2.438751e+00 2.549316e+00
1.015101e+03 8.130000e-02 -6.075029e-03 5.751277e-01 -2.570358e+00 2.594559e+00
9.768658e+02 7.900000e-02 -6.352145e-03 5.752561e-01 -2.656662e+00 2.647171e+00
9.474982e+02 7.680000e-02 -6.469065e-03 5.753939e-01 -2.759171e+00 2.672012e+00
8.955324e+02 7.280000e-02 -6.668977e-03 5.755440e-01 -2.825348e+00 2.788330e+00
8.814047e+02 7.050000e-02 -6.783618e-03 5.756903e-01 -2.881592e+00 2.892792e+00
8.568371e+02 7.160000e-02 -6.925402e-03 5.758432e-01 -2.932419e+00 2.985367e+00
8.473593e+02 6.850000e-02 -7.004437e-03 5.759989e-01 -2.971664e+00 3.058777e+00
8.408727e+02 6.810000e-02 -7.067323e-03 5.761433e-01 -3.019180e+00 3.131454e+00
8.109997e+02 6.840000e-02 -7.153863e-03 5.762991e-01 -3.031662e+00 3.205460e+00
7.798911e+02 6.440000e-02 -7.255212e-03 5.764370e-01 -3.028336e+00 3.295486e+00
7.709627e+02 6.440000e-02 -7.265506e-03 5.765819e-01 -3.041870e+00 3.361252e+00
7.588943e+02 6.140000e-02 -7.327967e-03 5.767245e-01 -3.046570e+00 3.436447e+00
7.422872e+02 6.150000e-02 -7.384331e-03 5.768592e-01 -3.054413e+00 3.508804e+00
7.350938e+02 6.020000e-02 -7.425561e-03 5.770005e-01 -3.069870e+00 3.582458e+00
7.258067e+02 5.830000e-02 -7.484878e-03 5.771374e-01 -3.080658e+00 3.660248e+00
7.223900e+02 5.940000e-02 -7.530656e-03 5.772854e-01 -3.094559e+00 3.732056e+00
7.139990e+02 5.850000e-02 -7.534285e-03 5.774352e-01 -3.093384e+00 3.796844e+00
7.073844e+02 5.790000e-02 -7.645895e-03 5.775691e-01 -3.107544e+00 3.854263e+00
7.125636e+02 5.740000e-02 -7.633005e-03 5.777349e-01 -3.125458e+00 3.918808e+00
6.947270e+02 5.770000e-02 -7.650216e-03 5.778764e-01 -3.132751e+00 3.971130e+00
6.982621e+02 5.780000e-02 -7.709145e-03 5.780265e-01 -3.134659e+00 4.003815e+00
6.789960e+02 5.630000e-02 -7.729602e-03 5.781660e-01 -3.142914e+00 4.008942e+00
6.898545e+02 5.690000e-02 -7.748610e-03 5.783121e-01 -3.141449e+00 4.009232e+00
6.733965e+02 5.660000e-02 -7.751792e-03 5.784499e-01 -3.145477e+00 4.029800e+00
6.677472e+02 5.580000e-02 -7.780282e-03 5.785902e-01 -3.148010e+00 4.034607e+00
6.701172e+02 5.500000e-02 -7.847630e-03 5.787327e-01 -3.164398e+00 4.059250e+00
6.596553e+02 5.530000e-02 -7.866064e-03 5.788745e-01 -3.169937e+00 4.076538e+00
6.703968e+02 5.470000e-02 -7.845460e-03 5.790106e-01 -3.158630e+00 4.098526e+00
6.610417e+02 5.440000e-02 -7.922174e-03 5.791577e-01 -3.176529e+00 4.112228e+00
6.648117e+02 5.360000e-02 -7.938384e-03 5.793020e-01 -3.178040e+00 4.137360e+00
6.574577e+02 5.350000e-02 -7.941166e-03 5.794395e-01 -3.160995e+00 4.151962e+00
6.542681e+02 5.400000e-02 -7.934531e-03 5.795857e-01 -3.195694e+00 4.158463e+00
6.361455e+02 5.290000e-02 -7.987958e-03 5.797294e-01 -3.184052e+00 4.179672e+00
6.433679e+02 5.340000e-02 -7.998806e-03 5.798735e-01 -3.179886e+00 4.187317e+00
6.325845e+02 5.240000e-02 -8.050487e-03 5.800113e-01 -3.169617e+00 4.200851e+00
6.338138e+02 5.390000e-02 -8.007853e-03 5.801509e-01 -3.192993e+00 4.228027e+00
6.245913e+02 5.130000e-02 -8.085374e-03 5.802886e-01 -3.192169e+00 4.231735e+00
6.372831e+02 5.490000e-02 -8.083881e-03 5.804306e-01 -3.210312e+00 4.250443e+00
6.296192e+02 5.230000e-02 -8.099918e-03 5.805714e-01 -3.202133e+00 4.265060e+00
6.258183e+02 5.110000e-02 -8.126972e-03 5.807118e-01 -3.257690e+00 4.273560e+00
6.266503e+02 5.280000e-02 -8.124315e-03 5.808508e-01 -3.310226e+00 4.271393e+00
6.190189e+02 5.230000e-02 -8.177613e-03 5.809965e-01 -3.362885e+00 4.284317e+00
6.166048e+02 5.040000e-02 -8.205602e-03 5.811461e-01 -3.421478e+00 4.297821e+00
6.110856e+02 5.150000e-02 -8.205021e-03 5.812818e-01 -3.474304e+00 4.300095e+00
6.211683e+02 5.120000e-02 -8.223829e-03 5.814288e-01 -3.527481e+00 4.316177e+00
6.154056e+02 5.170000e-02 -8.263491e-03 5.815685e-01 -3.568787e+00 4.319183e+00
6.058019e+02 5.070000e-02 -8.246385e-03 5.817169e-01 -3.615677e+00 4.335983e+00
6.122281e+02 5.120000e-02 -8.331603e-03 5.818564e-01 -3.658371e+00 4.331207e+00
6.188183e+02 5.200000e-02 -8.290339e-03 5.819924e-01 -3.693802e+00 4.345154e+00
6.004101e+02 4.990000e-02 -8.304678e-03 5.821325e-01 -3.743286e+00 4.353271e+00
6.014356e+02 5.040000e-02 -8.393626e-03 5.822830e-01 -3.781677e+00 4.363083e+00
6.165675e+02 5.150000e-02 -8.354810e-03 5.824173e-01 -3.821381e+00 4.372620e+00
6.162110e+02 5.190000e-02 -8.379719e-03 5.825563e-01 -3.857193e+00 4.370560e+00
6.038739e+02 5.220000e-02 -8.383141e-03 5.827001e-01 -3.894653e+00 4.376450e+00
5.922713e+02 5.070000e-02 -8.428789e-03 5.828402e-01 -3.921844e+00 4.376755e+00
5.878350e+02 4.930000e-02 -8.418573e-03 5.829870e-01 -3.964249e+00 4.389694e+00
6.004731e+02 5.130000e-02 -8.410591e-03 5.831400e-01 -3.999542e+00 4.399368e+00
5.976514e+02 4.970000e-02 -8.503027e-03 5.832767e-01 -4.028748e+00 4.400223e+00
5.886587e+02 5.060000e-02 -8.497684e-03 5.834131e-01 -4.059677e+00 4.396194e+00
5.896163e+02 5.000000e-02 -8.551346e-03 5.835559e-01 -4.096329e+00 4.394958e+00
5.988768e+02 5.100000e-02 -8.548017e-03 5.836977e-01 -4.124146e+00 4.409302e+00
