9.293529e+01 4.479167e-01 -3.672964e-02 5.430026e-01 -9.529877e-01 9.396210e-01
7.959755e+01 3.593750e-01 -3.583359e-01 1.598120e+00 -9.660538e+00 4.224487e+00
6.317082e+01 3.697917e-01 -1.114880e+00 4.709914e+00 -2.450024e+01 2.040668e+01
5.734428e+01 3.697917e-01 -1.544342e+00 7.388464e+00 -3.558267e+01 3.645450e+01
5.656624e+01 3.750000e-01 -1.800334e+00 9.404589e+00 -4.371538e+01 4.910855e+01
5.698062e+01 3.697917e-01 -1.973655e+00 1.098617e+01 -4.966740e+01 5.939413e+01
5.816322e+01 3.697917e-01 -2.096586e+00 1.218650e+01 -5.420946e+01 6.740021e+01
5.827489e+01 3.697917e-01 -2.189920e+00 1.311171e+01 -5.776482e+01 7.346188e+01
5.820615e+01 3.697917e-01 -2.267583e+00 1.381130e+01 -6.053741e+01 7.796852e+01
5.817839e+01 3.697917e-01 -2.330686e+00 1.436001e+01 -6.276743e+01 8.165401e+01
5.822087e+01 3.697917e-01 -2.386984e+00 1.482662e+01 -6.469376e+01 8.475150e+01
5.681143e+01 3.697917e-01 -2.437359e+00 1.520680e+01 -6.625386e+01 8.725681e+01
5.775311e+01 3.697917e-01 -2.477980e+00 1.551238e+01 -6.746870e+01 8.930690e+01
5.711420e+01 3.697917e-01 -2.511867e+00 1.575614e+01 -6.844774e+01 9.093510e+01
5.708295e+01 3.697917e-01 -2.540317e+00 1.594816e+01 -6.921661e+01 9.222829e+01
5.684883e+01 3.697917e-01 -2.562615e+00 1.610015e+01 -6.980621e+01 9.327589e+01
5.590201e+01 3.697917e-01 -2.579464e+00 1.622563e+01 -7.028548e+01 9.417621e+01
5.490442e+01 3.697917e-01 -2.592220e+00 1.632759e+01 -7.066626e+01 9.489236e+01
5.465477e+01 3.697917e-01 -2.601444e+00 1.641086e+01 -7.097070e+01 9.550563e+01
5.458263e+01 3.697917e-01 -2.607773e+00 1.647995e+01 -7.120564e+01 9.602463e+01
5.474249e+01 3.697917e-01 -2.611902e+00 1.653750e+01 -7.138213e+01 9.646722e+01
5.472212e+01 3.697917e-01 -2.614713e+00 1.658444e+01 -7.153065e+01 9.682458e+01
5.519142e+01 3.697917e-01 -2.616506e+00 1.662489e+01 -7.165582e+01 9.713910e+01
5.490805e+01 3.697917e-01 -2.617882e+00 1.665859e+01 -7.174005e+01 9.740350e+01
5.483891e+01 3.697917e-01 -2.619980e+00 1.668651e+01 -7.179337e+01 9.761310e+01
5.500914e+01 3.697917e-01 -2.622703e+00 1.671071e+01 -7.183321e+01 9.779379e+01
5.500809e+01 3.697917e-01 -2.626239e+00 1.673315e+01 -7.187315e+01 9.795361e+01
5.469044e+01 3.697917e-01 -2.630535e+00 1.675532e+01 -7.191318e+01 9.811273e+01
5.500838e+01 3.697917e-01 -2.635443e+00 1.677608e+01 -7.195348e+01 9.825385e+01
5.488484e+01 3.697917e-01 -2.641323e+00 1.679596e+01 -7.199393e+01 9.838370e+01
5.452628e+01 3.697917e-01 -2.647503e+00 1.681421e+01 -7.203442e+01 9.849023e+01
5.362535e+01 3.697917e-01 -2.655393e+00 1.683051e+01 -7.207503e+01 9.857143e+01
5.297325e+01 3.697917e-01 -2.663372e+00 1.684567e+01 -7.211571e+01 9.863997e+01
5.273877e+01 3.697917e-01 -2.670505e+00 1.685964e+01 -7.214253e+01 9.870117e+01
5.258849e+01 3.697917e-01 -2.677514e+00 1.687295e+01 -7.215652e+01 9.876244e+01
5.235898e+01 3.697917e-01 -2.684073e+00 1.688572e+01 -7.216353e+01 9.881622e+01
5.240425e+01 3.697917e-01 -2.689969e+00 1.689761e+01 -7.215680e+01 9.887766e+01
5.220543e+01 3.697917e-01 -2.696021e+00 1.690798e+01 -7.212283e+01 9.893274e+01
5.236330e+01 3.697917e-01 -2.701019e+00 1.691660e+01 -7.208182e+01 9.897318e+01
5.203459e+01 3.697917e-01 -2.706621e+00 1.692576e+01 -7.202780e+01 9.902792e+01
5.187756e+01 3.697917e-01 -2.712142e+00 1.693492e+01 -7.196397e+01 9.908641e+01
5.179810e+01 3.697917e-01 -2.718532e+00 1.694459e+01 -7.188959e+01 9.915292e+01
5.138174e+01 3.645833e-01 -2.725885e+00 1.695418e+01 -7.181396e+01 9.921342e+01
5.118611e+01 3.645833e-01 -2.734518e+00 1.696342e+01 -7.173572e+01 9.926826e+01
5.080540e+01 3.645833e-01 -2.743149e+00 1.697359e+01 -7.165724e+01 9.933110e+01
5.035471e+01 3.645833e-01 -2.750387e+00 1.698312e+01 -7.157861e+01 9.938620e+01
5.018947e+01 3.645833e-01 -2.758187e+00 1.699174e+01 -7.149991e+01 9.942558e+01
5.010033e+01 3.645833e-01 -2.766358e+00 1.699894e+01 -7.142091e+01 9.944946e+01
5.017867e+01 3.593750e-01 -2.774720e+00 1.700630e+01 -7.134056e+01 9.947375e+01
4.994821e+01 3.593750e-01 -2.783012e+00 1.701499e+01 -7.125919e+01 9.951450e+01
4.970433e+01 3.541667e-01 -2.792225e+00 1.702212e+01 -7.117734e+01 9.953084e+01
4.970259e+01 3.541667e-01 -2.802666e+00 1.702824e+01 -7.109521e+01 9.953905e+01
4.943340e+01 3.489583e-01 -2.811101e+00 1.703506e+01 -7.101288e+01 9.955547e+01
4.933061e+01 3.437500e-01 -2.819693e+00 1.704138e+01 -7.090784e+01 9.958011e+01
4.913322e+01 3.385417e-01 -2.828512e+00 1.704758e+01 -7.079654e+01 9.960486e+01
4.887392e+01 3.333333e-01 -2.836195e+00 1.705254e+01 -7.068414e+01 9.961322e+01
4.879256e+01 3.333333e-01 -2.843487e+00 1.705736e+01 -7.056073e+01 9.962160e+01
4.837465e+01 3.281250e-01 -2.850118e+00 1.706205e+01 -7.041797e+01 9.963838e+01
4.836717e+01 3.281250e-01 -2.858137e+00 1.706485e+01 -7.026639e+01 9.963838e+01
4.834924e+01 3.385417e-01 -2.864672e+00 1.706705e+01 -7.011441e+01 9.962993e+01
4.766786e+01 3.229167e-01 -2.873231e+00 1.706880e+01 -6.994568e+01 9.962993e+01
4.749927e+01 3.281250e-01 -2.880352e+00 1.706971e+01 -6.976343e+01 9.962143e+01
4.772324e+01 3.281250e-01 -2.886098e+00 1.707083e+01 -6.958072e+01 9.961292e+01
4.736555e+01 3.229167e-01 -2.892763e+00 1.707236e+01 -6.938734e+01 9.962138e+01
4.713501e+01 3.177083e-01 -2.897424e+00 1.707374e+01 -6.917674e+01 9.963835e+01
4.680522e+01 3.229167e-01 -2.902146e+00 1.707561e+01 -6.895305e+01 9.966382e+01
4.671378e+01 3.229167e-01 -2.906286e+00 1.707653e+01 -6.873521e+01 9.967232e+01
4.659781e+01 3.177083e-01 -2.909090e+00 1.707753e+01 -6.851079e+01 9.968082e+01
4.666357e+01 3.229167e-01 -2.911357e+00 1.707977e+01 -6.827995e+01 9.970636e+01
4.592065e+01 3.229167e-01 -2.917172e+00 1.708082e+01 -6.805516e+01 9.971487e+01
4.543178e+01 3.072917e-01 -2.921270e+00 1.708185e+01 -6.783018e+01 9.972340e+01
4.538434e+01 3.020833e-01 -2.926260e+00 1.708170e+01 -6.761125e+01 9.971480e+01
4.531967e+01 2.916667e-01 -2.929917e+00 1.708164e+01 -6.738609e+01 9.970619e+01
4.536490e+01 2.864583e-01 -2.931669e+00 1.708189e+01 -6.716057e+01 9.969757e+01
4.524869e+01 2.916667e-01 -2.934938e+00 1.708250e+01 -6.692882e+01 9.969757e+01
4.521312e+01 2.864583e-01 -2.934988e+00 1.708372e+01 -6.670329e+01 9.969757e+01
4.482547e+01 2.760417e-01 -2.939828e+00 1.708482e+01 -6.648381e+01 9.970612e+01
4.470233e+01 2.760417e-01 -2.941951e+00 1.708744e+01 -6.625774e+01 9.973192e+01
4.516547e+01 2.708333e-01 -2.940679e+00 1.709195e+01 -6.602855e+01 9.977594e+01
4.531761e+01 2.760417e-01 -2.939792e+00 1.709786e+01 -6.579607e+01 9.983817e+01
4.526921e+01 2.760417e-01 -2.940264e+00 1.710405e+01 -6.556194e+01 9.990056e+01
4.497679e+01 2.760417e-01 -2.941026e+00 1.711024e+01 -6.532726e+01 9.996303e+01
4.463159e+01 2.604167e-01 -2.943453e+00 1.711732e+01 -6.509221e+01 1.000435e+02
4.433527e+01 2.500000e-01 -2.945484e+00 1.712521e+01 -6.485680e+01 1.001241e+02
4.413171e+01 2.604167e-01 -2.947194e+00 1.713289e+01 -6.462138e+01 1.002047e+02
4.406422e+01 2.552083e-01 -2.947245e+00 1.714015e+01 -6.438597e+01 1.002763e+02
4.399443e+01 2.395833e-01 -2.948381e+00 1.714718e+01 -6.414250e+01 1.003483e+02
4.372977e+01 2.395833e-01 -2.947182e+00 1.715495e+01 -6.391130e+01 1.004204e+02
4.359445e+01 2.447917e-01 -2.946608e+00 1.716255e+01 -6.367278e+01 1.004927e+02
4.382190e+01 2.604167e-01 -2.946340e+00 1.717054e+01 -6.343388e+01 1.005744e+02
4.375131e+01 2.604167e-01 -2.945849e+00 1.717880e+01 -6.319481e+01 1.006468e+02
4.359773e+01 2.395833e-01 -2.945918e+00 1.718637e+01 -6.296962e+01 1.007103e+02
4.365710e+01 2.395833e-01 -2.944688e+00 1.719473e+01 -6.273018e+01 1.007922e+02
4.351166e+01 2.447917e-01 -2.944316e+00 1.720282e+01 -6.247701e+01 1.008653e+02
4.290848e+01 2.343750e-01 -2.944572e+00 1.720948e+01 -6.223647e+01 1.009201e+02
4.312601e+01 2.343750e-01 -2.945438e+00 1.721610e+01 -6.199556e+01 1.009750e+02
4.297009e+01 2.291667e-01 -2.945805e+00 1.722323e+01 -6.175465e+01 1.010389e+02
4.275131e+01 2.187500e-01 -2.942558e+00 1.723174e+01 -6.150679e+01 1.011118e+02
4.280023e+01 2.187500e-01 -2.942960e+00 1.724081e+01 -6.127959e+01 1.011942e+02
4.296680e+01 2.239583e-01 -2.942619e+00 1.724960e+01 -6.103154e+01 1.012767e+02
4.284953e+01 2.239583e-01 -2.942557e+00 1.725874e+01 -6.078972e+01 1.013594e+02
4.266641e+01 2.239583e-01 -2.942317e+00 1.726762e+01 -6.054771e+01 1.014325e+02
4.278970e+01 2.187500e-01 -2.940576e+00 1.727641e+01 -6.030571e+01 1.015056e+02
4.255693e+01 2.239583e-01 -2.941238e+00 1.728413e+01 -6.006371e+01 1.015697e+02
4.210896e+01 2.239583e-01 -2.942995e+00 1.729109e+01 -5.980156e+01 1.016339e+02
4.200729e+01 2.239583e-01 -2.944408e+00 1.729935e+01 -5.953941e+01 1.017077e+02
4.219617e+01 2.343750e-01 -2.945042e+00 1.730715e+01 -5.929045e+01 1.017719e+02
4.211559e+01 2.343750e-01 -2.943396e+00 1.731439e+01 -5.901915e+01 1.018362e+02
4.201599e+01 2.343750e-01 -2.943106e+00 1.732109e+01 -5.876982e+01 1.018821e+02
4.186133e+01 2.343750e-01 -2.944953e+00 1.732787e+01 -5.854565e+01 1.019189e+02
4.196510e+01 2.395833e-01 -2.947276e+00 1.733544e+01 -5.829633e+01 1.019832e+02
4.169539e+01 2.395833e-01 -2.948547e+00 1.734357e+01 -5.804700e+01 1.020475e+02
4.129553e+01 2.291667e-01 -2.945879e+00 1.735277e+01 -5.778412e+01 1.021214e+02
4.105061e+01 2.239583e-01 -2.945464e+00 1.735966e+01 -5.752124e+01 1.021765e+02
4.110364e+01 2.239583e-01 -2.943904e+00 1.736813e+01 -5.731607e+01 1.022594e+02
4.085905e+01 2.291667e-01 -2.945965e+00 1.737695e+01 -5.738960e+01 1.023335e+02
4.071822e+01 2.291667e-01 -2.946929e+00 1.738468e+01 -5.746341e+01 1.023982e+02
4.055568e+01 2.291667e-01 -2.948631e+00 1.739369e+01 -5.753749e+01 1.024723e+02
4.080287e+01 2.239583e-01 -2.948769e+00 1.740177e+01 -5.761176e+01 1.025374e+02
4.084503e+01 2.239583e-01 -2.949845e+00 1.741020e+01 -5.768607e+01 1.026117e+02
4.080565e+01 2.135417e-01 -2.948114e+00 1.741836e+01 -5.776042e+01 1.026868e+02
4.083887e+01 2.187500e-01 -2.947241e+00 1.742613e+01 -5.783482e+01 1.027524e+02
4.051627e+01 2.291667e-01 -2.948982e+00 1.743318e+01 -5.790923e+01 1.027898e+02
4.055124e+01 2.291667e-01 -2.950469e+00 1.744070e+01 -5.798367e+01 1.028642e+02
4.053183e+01 2.343750e-01 -2.950768e+00 1.744882e+01 -5.805830e+01 1.029487e+02
4.078386e+01 2.187500e-01 -2.946952e+00 1.745695e+01 -5.813307e+01 1.030243e+02
4.050392e+01 2.187500e-01 -2.946748e+00 1.746215e+01 -5.820784e+01 1.030899e+02
4.052690e+01 2.239583e-01 -2.948241e+00 1.746762e+01 -5.828270e+01 1.031369e+02
4.047423e+01 2.239583e-01 -2.949752e+00 1.747324e+01 -5.835756e+01 1.031839e+02
4.040773e+01 2.239583e-01 -2.949597e+00 1.747917e+01 -5.843242e+01 1.032309e+02
4.025400e+01 2.239583e-01 -2.951141e+00 1.748639e+01 -5.850732e+01 1.032871e+02
3.973132e+01 2.187500e-01 -2.953227e+00 1.749498e+01 -5.858232e+01 1.033812e+02
3.959149e+01 2.187500e-01 -2.954194e+00 1.750345e+01 -5.865736e+01 1.034662e+02
4.004596e+01 2.239583e-01 -2.950139e+00 1.751142e+01 -5.873241e+01 1.035604e+02
3.976900e+01 2.187500e-01 -2.948392e+00 1.751858e+01 -5.880745e+01 1.036363e+02
3.968575e+01 2.135417e-01 -2.947679e+00 1.752406e+01 -5.888258e+01 1.036741e+02
3.955214e+01 2.187500e-01 -2.950656e+00 1.752924e+01 -5.895772e+01 1.037212e+02
3.945291e+01 2.135417e-01 -2.950489e+00 1.753427e+01 -5.903285e+01 1.037780e+02
3.914320e+01 2.187500e-01 -2.951273e+00 1.753885e+01 -5.910808e+01 1.038252e+02
3.893982e+01 2.291667e-01 -2.951208e+00 1.754353e+01 -5.918330e+01 1.039005e+02
3.958099e+01 2.187500e-01 -2.947499e+00 1.754734e+01 -5.925853e+01 1.039765e+02
4.018782e+01 2.187500e-01 -2.942707e+00 1.755090e+01 -5.933376e+01 1.040426e+02
3.949135e+01 2.135417e-01 -2.943340e+00 1.755269e+01 -5.940898e+01 1.040898e+02
3.890039e+01 2.135417e-01 -2.943927e+00 1.755709e+01 -5.948421e+01 1.041650e+02
3.829936e+01 2.083333e-01 -2.945746e+00 1.756025e+01 -5.955943e+01 1.042411e+02
3.828436e+01 2.135417e-01 -2.945155e+00 1.756317e+01 -5.963470e+01 1.043072e+02
3.830292e+01 2.135417e-01 -2.942213e+00 1.756619e+01 -5.971002e+01 1.044018e+02
3.881053e+01 2.031250e-01 -2.934678e+00 1.756472e+01 -5.978534e+01 1.044771e+02
3.904514e+01 2.083333e-01 -2.930192e+00 1.756468e+01 -5.986066e+01 1.045533e+02
3.873270e+01 2.083333e-01 -2.927176e+00 1.756095e+01 -5.993597e+01 1.046005e+02
3.838066e+01 2.083333e-01 -2.926620e+00 1.755838e+01 -6.001129e+01 1.046384e+02
3.835483e+01 2.083333e-01 -2.923130e+00 1.755553e+01 -6.008661e+01 1.047050e+02
3.881479e+01 2.135417e-01 -2.915775e+00 1.754803e+01 -6.016193e+01 1.047426e+02
3.844522e+01 2.135417e-01 -2.908053e+00 1.754138e+01 -6.023724e+01 1.048087e+02
3.840996e+01 2.187500e-01 -2.901077e+00 1.753630e+01 -6.031284e+01 1.048654e+02
3.851520e+01 2.135417e-01 -2.893202e+00 1.752867e+01 -6.038852e+01 1.049130e+02
3.822049e+01 2.083333e-01 -2.887411e+00 1.752075e+01 -6.046420e+01 1.049605e+02
3.827605e+01 2.083333e-01 -2.878428e+00 1.750848e+01 -6.053998e+01 1.049986e+02
3.835500e+01 2.031250e-01 -2.869078e+00 1.749629e+01 -6.061575e+01 1.050368e+02
3.834602e+01 2.083333e-01 -2.857064e+00 1.747932e+01 -6.069153e+01 1.050557e+02
3.866373e+01 2.135417e-01 -2.839010e+00 1.745968e+01 -6.076730e+01 1.050841e+02
3.885895e+01 2.083333e-01 -2.822610e+00 1.744146e+01 -6.084312e+01 1.051031e+02
3.869109e+01 2.083333e-01 -2.802235e+00 1.742231e+01 -6.091904e+01 1.051221e+02
3.857271e+01 2.031250e-01 -2.782131e+00 1.740318e+01 -6.099500e+01 1.051316e+02
3.818439e+01 2.031250e-01 -2.762432e+00 1.738296e+01 -6.107095e+01 1.051411e+02
3.800624e+01 2.031250e-01 -2.734144e+00 1.735723e+01 -6.114691e+01 1.051313e+02
3.781200e+01 1.979167e-01 -2.703250e+00 1.733565e+01 -6.122292e+01 1.051216e+02
3.810529e+01 2.083333e-01 -2.663864e+00 1.731601e+01 -6.129897e+01 1.051021e+02
3.790901e+01 2.083333e-01 -2.627804e+00 1.730919e+01 -6.137502e+01 1.050923e+02
3.820934e+01 2.135417e-01 -2.631471e+00 1.732408e+01 -6.145107e+01 1.050921e+02
3.813887e+01 2.083333e-01 -2.670506e+00 1.735378e+01 -6.152814e+01 1.050726e+02
3.806129e+01 1.979167e-01 -2.729295e+00 1.739845e+01 -6.160623e+01 1.050433e+02
3.791428e+01 1.979167e-01 -2.754054e+00 1.742740e+01 -6.168433e+01 1.050140e+02
3.782745e+01 1.979167e-01 -2.756213e+00 1.743987e+01 -6.176242e+01 1.049945e+02
3.803770e+01 2.135417e-01 -2.757019e+00 1.744692e+01 -6.184052e+01 1.049456e+02
3.800327e+01 2.187500e-01 -2.742461e+00 1.744270e+01 -6.191870e+01 1.048968e+02
3.787007e+01 2.135417e-01 -2.724206e+00 1.743530e+01 -6.199689e+01 1.048381e+02
3.752626e+01 1.927083e-01 -2.738584e+00 1.744509e+01 -6.207507e+01 1.047599e+02
3.742200e+01 1.875000e-01 -2.742175e+00 1.744995e+01 -6.215326e+01 1.046622e+02
3.736017e+01 1.875000e-01 -2.733198e+00 1.745236e+01 -6.223145e+01 1.046035e+02
3.743130e+01 1.927083e-01 -2.744035e+00 1.746663e+01 -6.230963e+01 1.045546e+02
3.761465e+01 1.979167e-01 -2.763878e+00 1.748363e+01 -6.238782e+01 1.044862e+02
3.758498e+01 1.927083e-01 -2.789992e+00 1.750211e+01 -6.246600e+01 1.043787e+02
3.752477e+01 1.927083e-01 -2.795999e+00 1.751109e+01 -6.254419e+01 1.043103e+02
3.724982e+01 1.927083e-01 -2.811042e+00 1.752441e+01 -6.262238e+01 1.042125e+02
3.738301e+01 1.979167e-01 -2.821570e+00 1.753441e+01 -6.270056e+01 1.041147e+02
3.763734e+01 2.083333e-01 -2.801786e+00 1.752837e+01 -6.277875e+01 1.040365e+02
3.721324e+01 2.083333e-01 -2.807396e+00 1.753735e+01 -6.285693e+01 1.039779e+02
3.719388e+01 1.927083e-01 -2.822257e+00 1.754829e+01 -6.293512e+01 1.038801e+02
3.686835e+01 1.979167e-01 -2.829291e+00 1.755657e+01 -6.301331e+01 1.037921e+02
3.719225e+01 2.031250e-01 -2.832224e+00 1.756575e+01 -6.309158e+01 1.037335e+02
3.716602e+01 2.031250e-01 -2.832030e+00 1.757173e+01 -6.316986e+01 1.036649e+02
3.725662e+01 2.083333e-01 -2.846815e+00 1.758549e+01 -6.324814e+01 1.035769e+02
3.707066e+01 2.031250e-01 -2.879163e+00 1.760795e+01 -6.332651e+01 1.034691e+02
3.704655e+01 1.927083e-01 -2.896024e+00 1.762155e+01 -6.340488e+01 1.033711e+02
3.727272e+01 2.031250e-01 -2.901107e+00 1.763019e+01 -6.348325e+01 1.033025e+02
3.726215e+01 2.031250e-01 -2.889675e+00 1.762555e+01 -6.356161e+01 1.032045e+02
3.712964e+01 2.083333e-01 -2.879339e+00 1.762466e+01 -6.363998e+01 1.031065e+02
3.728641e+01 2.135417e-01 -2.876968e+00 1.762995e+01 -6.371835e+01 1.030379e+02
3.725050e+01 2.083333e-01 -2.897412e+00 1.764524e+01 -6.379677e+01 1.029497e+02
3.737032e+01 2.031250e-01 -2.933898e+00 1.766986e+01 -6.387527e+01 1.028516e+02
3.756641e+01 2.031250e-01 -2.956767e+00 1.768852e+01 -6.395383e+01 1.027631e+02
3.723590e+01 2.031250e-01 -2.944952e+00 1.768724e+01 -6.403238e+01 1.026944e+02
3.733472e+01 2.083333e-01 -2.925424e+00 1.768181e+01 -6.411093e+01 1.026059e+02
3.736783e+01 2.083333e-01 -2.927797e+00 1.768882e+01 -6.418948e+01 1.025273e+02
3.724907e+01 2.083333e-01 -2.953743e+00 1.770553e+01 -6.426804e+01 1.024290e+02
3.730991e+01 2.083333e-01 -2.968984e+00 1.771852e+01 -6.434659e+01 1.023406e+02
3.742358e+01 2.083333e-01 -2.989321e+00 1.773437e+01 -6.442519e+01 1.022522e+02
3.717586e+01 2.083333e-01 -2.977911e+00 1.773386e+01 -6.450383e+01 1.021833e+02
3.751161e+01 2.135417e-01 -2.967148e+00 1.773790e+01 -6.458247e+01 1.021341e+02
3.743774e+01 2.083333e-01 -2.983658e+00 1.775066e+01 -6.466112e+01 1.020358e+02
3.743825e+01 2.083333e-01 -3.005159e+00 1.776749e+01 -6.473976e+01 1.019669e+02
3.748590e+01 2.083333e-01 -3.032807e+00 1.778959e+01 -6.481841e+01 1.018882e+02
3.770010e+01 2.187500e-01 -3.032659e+00 1.779591e+01 -6.489705e+01 1.018095e+02
3.755516e+01 2.187500e-01 -3.033481e+00 1.780087e+01 -6.497569e+01 1.017013e+02
3.716341e+01 2.083333e-01 -3.041482e+00 1.780855e+01 -6.505434e+01 1.016226e+02
3.695560e+01 2.083333e-01 -3.034032e+00 1.781069e+01 -6.513298e+01 1.015439e+02
3.706099e+01 2.031250e-01 -3.031120e+00 1.781577e+01 -6.521162e+01 1.014652e+02
3.719740e+01 2.031250e-01 -3.024190e+00 1.782158e+01 -6.529027e+01 1.013964e+02
3.721347e+01 2.031250e-01 -3.050704e+00 1.784014e+01 -6.536891e+01 1.013275e+02
3.715836e+01 1.979167e-01 -3.077673e+00 1.786032e+01 -6.544756e+01 1.012390e+02
3.742514e+01 2.083333e-01 -3.101498e+00 1.788165e+01 -6.552620e+01 1.011799e+02
3.732401e+01 2.031250e-01 -3.124834e+00 1.789936e+01 -6.560484e+01 1.010816e+02
3.733961e+01 2.031250e-01 -3.128050e+00 1.790748e+01 -6.568349e+01 1.010226e+02
3.740552e+01 2.031250e-01 -3.111185e+00 1.790285e+01 -6.576213e+01 1.009242e+02
3.720818e+01 2.031250e-01 -3.097197e+00 1.790346e+01 -6.584077e+01 1.008554e+02
3.700650e+01 2.031250e-01 -3.097687e+00 1.790993e+01 -6.591942e+01 1.007668e+02
3.753154e+01 2.031250e-01 -3.139934e+00 1.793592e+01 -6.599806e+01 1.006980e+02
3.747011e+01 2.031250e-01 -3.162868e+00 1.795283e+01 -6.607671e+01 1.005897e+02
3.740511e+01 2.031250e-01 -3.152349e+00 1.795521e+01 -6.615535e+01 1.005209e+02
3.732753e+01 2.031250e-01 -3.160412e+00 1.796624e+01 -6.623399e+01 1.004421e+02
3.758247e+01 1.979167e-01 -3.176357e+00 1.797831e+01 -6.631273e+01 1.003338e+02
3.765131e+01 2.031250e-01 -3.189791e+00 1.799217e+01 -6.639146e+01 1.002747e+02
3.734438e+01 2.031250e-01 -3.184495e+00 1.799462e+01 -6.647020e+01 1.001663e+02
3.731329e+01 2.031250e-01 -3.173042e+00 1.799464e+01 -6.654893e+01 1.000678e+02
3.746550e+01 2.031250e-01 -3.187759e+00 1.800717e+01 -6.662767e+01 9.998898e+01
3.736816e+01 2.031250e-01 -3.183048e+00 1.801261e+01 -6.670641e+01 9.991013e+01
3.734122e+01 1.979167e-01 -3.197713e+00 1.802425e+01 -6.678514e+01 9.979428e+01
3.775485e+01 1.979167e-01 -3.244735e+00 1.805471e+01 -6.686388e+01 9.971542e+01
3.793979e+01 1.979167e-01 -3.269295e+00 1.807322e+01 -6.694270e+01 9.960693e+01
3.778615e+01 1.979167e-01 -3.271950e+00 1.807837e+01 -6.702153e+01 9.949094e+01
3.782768e+01 1.979167e-01 -3.267265e+00 1.807934e+01 -6.710036e+01 9.939221e+01
3.731197e+01 1.979167e-01 -3.259870e+00 1.807997e+01 -6.717918e+01 9.930344e+01
3.722318e+01 1.979167e-01 -3.237805e+00 1.807626e+01 -6.725801e+01 9.918744e+01
3.740416e+01 1.979167e-01 -3.222127e+00 1.807956e+01 -6.733684e+01 9.909866e+01
3.786555e+01 2.031250e-01 -3.263635e+00 1.809871e+01 -6.741566e+01 9.897284e+01
3.806490e+01 2.031250e-01 -3.312116e+00 1.812656e+01 -6.749449e+01 9.885446e+01
3.780106e+01 2.083333e-01 -3.353701e+00 1.815257e+01 -6.757332e+01 9.871643e+01
3.791547e+01 2.083333e-01 -3.371679e+00 1.816614e+01 -6.765215e+01 9.859061e+01
3.767377e+01 2.083333e-01 -3.357216e+00 1.816134e+01 -6.773106e+01 9.848198e+01
3.761406e+01 2.083333e-01 -3.338980e+00 1.815590e+01 -6.780998e+01 9.837328e+01
3.724966e+01 2.083333e-01 -3.314806e+00 1.815016e+01 -6.788890e+01 9.826457e+01
3.736465e+01 2.083333e-01 -3.319593e+00 1.815842e+01 -6.796782e+01 9.816585e+01
3.746687e+01 2.083333e-01 -3.340479e+00 1.816730e+01 -6.804674e+01 9.801009e+01
3.759772e+01 2.083333e-01 -3.365367e+00 1.817925e+01 -6.812566e+01 9.785222e+01
3.751692e+01 2.083333e-01 -3.378994e+00 1.818651e+01 -6.820457e+01 9.768425e+01
3.768698e+01 2.135417e-01 -3.366717e+00 1.818723e+01 -6.828349e+01 9.755826e+01
3.764246e+01 2.187500e-01 -3.367147e+00 1.819177e+01 -6.836241e+01 9.741260e+01
3.764471e+01 2.187500e-01 -3.388378e+00 1.820442e+01 -6.844133e+01 9.727914e+01
3.807216e+01 2.135417e-01 -3.415815e+00 1.821639e+01 -6.852025e+01 9.710135e+01
3.793355e+01 2.135417e-01 -3.412833e+00 1.821586e+01 -6.859917e+01 9.694559e+01
3.750793e+01 2.135417e-01 -3.418710e+00 1.821891e+01 -6.867809e+01 9.677762e+01
3.742729e+01 2.083333e-01 -3.404342e+00 1.821763e+01 -6.875700e+01 9.663196e+01
3.731306e+01 2.135417e-01 -3.402698e+00 1.822237e+01 -6.883592e+01 9.648630e+01
3.757344e+01 2.135417e-01 -3.427154e+00 1.823255e+01 -6.891484e+01 9.631833e+01
3.779559e+01 2.187500e-01 -3.478645e+00 1.825237e+01 -6.899376e+01 9.610094e+01
3.762521e+01 2.187500e-01 -3.507612e+00 1.826659e+01 -6.907268e+01 9.590321e+01
3.752213e+01 2.135417e-01 -3.496544e+00 1.826145e+01 -6.915160e+01 9.571532e+01
3.764978e+01 2.135417e-01 -3.497315e+00 1.826255e+01 -6.923051e+01 9.554735e+01
3.737619e+01 2.187500e-01 -3.482843e+00 1.825551e+01 -6.930943e+01 9.535945e+01
3.738394e+01 2.135417e-01 -3.484276e+00 1.825687e+01 -6.938835e+01 9.517155e+01
3.752437e+01 2.239583e-01 -3.507111e+00 1.826465e+01 -6.946727e+01 9.496637e+01
3.753596e+01 2.135417e-01 -3.513388e+00 1.826856e+01 -6.954619e+01 9.477847e+01
3.756171e+01 2.187500e-01 -3.540534e+00 1.828122e+01 -6.962511e+01 9.460068e+01
3.767841e+01 2.187500e-01 -3.554152e+00 1.828611e+01 -6.970403e+01 9.438329e+01
3.761533e+01 2.187500e-01 -3.551794e+00 1.828370e+01 -6.978294e+01 9.416589e+01
3.743515e+01 2.135417e-01 -3.549862e+00 1.828155e+01 -6.986186e+01 9.394850e+01
3.765955e+01 2.187500e-01 -3.564930e+00 1.828661e+01 -6.994078e+01 9.375078e+01
3.756282e+01 2.135417e-01 -3.578671e+00 1.829234e+01 -7.001970e+01 9.354559e+01
3.756781e+01 2.135417e-01 -3.586447e+00 1.830059e+01 -7.009862e+01 9.338983e+01
3.753940e+01 2.083333e-01 -3.591705e+00 1.830325e+01 -7.017754e+01 9.318227e+01
3.761304e+01 2.135417e-01 -3.610819e+00 1.831119e+01 -7.025645e+01 9.298454e+01
3.773431e+01 2.083333e-01 -3.637445e+00 1.832258e+01 -7.033537e+01 9.279665e+01
3.761685e+01 2.031250e-01 -3.639839e+00 1.832148e+01 -7.041429e+01 9.257166e+01
3.753886e+01 2.083333e-01 -3.628368e+00 1.831889e+01 -7.049321e+01 9.238376e+01
3.760335e+01 2.135417e-01 -3.613642e+00 1.832001e+01 -7.057213e+01 9.223810e+01
3.758643e+01 2.135417e-01 -3.643474e+00 1.833262e+01 -7.065105e+01 9.206003e+01
3.796205e+01 2.083333e-01 -3.680395e+00 1.834839e+01 -7.072997e+01 9.186230e+01
3.779942e+01 2.083333e-01 -3.702489e+00 1.836098e+01 -7.080888e+01 9.168451e+01
3.762926e+01 2.031250e-01 -3.694687e+00 1.836211e+01 -7.088780e+01 9.154604e+01
3.762602e+01 2.031250e-01 -3.690416e+00 1.836281e+01 -7.096672e+01 9.137807e+01
3.739574e+01 2.031250e-01 -3.687160e+00 1.836581e+01 -7.104564e+01 9.122020e+01
3.787692e+01 2.135417e-01 -3.681403e+00 1.836793e+01 -7.112456e+01 9.104240e+01
3.786557e+01 2.083333e-01 -3.726881e+00 1.838452e+01 -7.120348e+01 9.083484e+01
3.801031e+01 2.135417e-01 -3.761691e+00 1.840201e+01 -7.128239e+01 9.065704e+01
3.812061e+01 2.187500e-01 -3.776292e+00 1.841118e+01 -7.136131e+01 9.047925e+01
3.769630e+01 2.083333e-01 -3.780421e+00 1.841166e+01 -7.144023e+01 9.026186e+01
3.786873e+01 2.083333e-01 -3.756490e+00 1.840329e+01 -7.151915e+01 9.007396e+01
3.784337e+01 2.083333e-01 -3.741396e+00 1.840024e+01 -7.159807e+01 8.988606e+01
3.741302e+01 2.031250e-01 -3.750549e+00 1.840539e+01 -7.167699e+01 8.969817e+01
3.712393e+01 2.031250e-01 -3.783276e+00 1.841784e+01 -7.175591e+01 8.950281e+01
3.753720e+01 2.135417e-01 -3.820204e+00 1.843782e+01 -7.183482e+01 8.933722e+01
3.800589e+01 2.135417e-01 -3.823569e+00 1.844435e+01 -7.191374e+01 8.918146e+01
3.818164e+01 2.083333e-01 -3.821441e+00 1.844556e+01 -7.199266e+01 8.898610e+01
3.795787e+01 2.083333e-01 -3.821321e+00 1.845059e+01 -7.207158e+01 8.883034e+01
3.802054e+01 2.083333e-01 -3.835581e+00 1.845672e+01 -7.215050e+01 8.863261e+01
3.731342e+01 2.135417e-01 -3.848404e+00 1.846257e+01 -7.222942e+01 8.843489e+01
3.681558e+01 2.135417e-01 -3.843733e+00 1.846272e+01 -7.230833e+01 8.824699e+01
3.707610e+01 2.135417e-01 -3.847743e+00 1.846659e+01 -7.238725e+01 8.804181e+01
3.741252e+01 2.135417e-01 -3.833225e+00 1.846659e+01 -7.246617e+01 8.783662e+01
3.768608e+01 2.083333e-01 -3.835629e+00 1.847549e+01 -7.254509e+01 8.768832e+01
3.837862e+01 2.239583e-01 -3.914909e+00 1.850695e+01 -7.262401e+01 8.751025e+01
3.833571e+01 2.239583e-01 -3.960533e+00 1.853508e+01 -7.270293e+01 8.734229e+01
3.807996e+01 2.187500e-01 -3.986568e+00 1.855323e+01 -7.278185e+01 8.717432e+01
3.825539e+01 2.187500e-01 -3.983877e+00 1.855771e+01 -7.286076e+01 8.705815e+01
3.764885e+01 2.187500e-01 -3.966736e+00 1.855528e+01 -7.293968e+01 8.696925e+01
3.751472e+01 2.135417e-01 -3.936808e+00 1.854712e+01 -7.301860e+01 8.683105e+01
3.726437e+01 2.083333e-01 -3.903414e+00 1.854652e+01 -7.309752e+01 8.674216e+01
3.733430e+01 2.135417e-01 -3.928372e+00 1.855724e+01 -7.317644e+01 8.655690e+01
3.757506e+01 2.187500e-01 -3.973120e+00 1.858133e+01 -7.325536e+01 8.645071e+01
3.785939e+01 2.239583e-01 -3.991256e+00 1.859657e+01 -7.333427e+01 8.632472e+01
3.741231e+01 2.135417e-01 -3.984759e+00 1.860398e+01 -7.341319e+01 8.622600e+01
3.743938e+01 2.031250e-01 -3.972856e+00 1.861202e+01 -7.349211e+01 8.616673e+01
3.760045e+01 2.135417e-01 -3.975986e+00 1.862109e+01 -7.357103e+01 8.605057e+01
3.752151e+01 2.135417e-01 -3.993955e+00 1.863765e+01 -7.364995e+01 8.597150e+01
3.750157e+01 2.135417e-01 -3.996220e+00 1.864735e+01 -7.372887e+01 8.585533e+01
3.749597e+01 2.135417e-01 -4.006703e+00 1.866264e+01 -7.380779e+01 8.578624e+01
3.755107e+01 2.135417e-01 -4.018186e+00 1.867642e+01 -7.388670e+01 8.568752e+01
3.758958e+01 2.083333e-01 -4.023148e+00 1.868917e+01 -7.396562e+01 8.560860e+01
3.744424e+01 2.031250e-01 -4.032027e+00 1.870103e+01 -7.404454e+01 8.549243e+01
3.780722e+01 2.083333e-01 -4.050499e+00 1.871711e+01 -7.412346e+01 8.539355e+01
3.760692e+01 2.187500e-01 -4.054677e+00 1.872911e+01 -7.420238e+01 8.532439e+01
3.739989e+01 2.135417e-01 -4.056133e+00 1.874100e+01 -7.428130e+01 8.524532e+01
3.747717e+01 2.135417e-01 -4.058754e+00 1.875431e+01 -7.436021e+01 8.518613e+01
3.736339e+01 2.031250e-01 -4.056905e+00 1.876647e+01 -7.443913e+01 8.511703e+01
3.743816e+01 2.031250e-01 -4.075017e+00 1.878440e+01 -7.451805e+01 8.503812e+01
3.738449e+01 2.083333e-01 -4.100257e+00 1.880294e+01 -7.459697e+01 8.493924e+01
3.745447e+01 2.083333e-01 -4.116097e+00 1.882113e+01 -7.467589e+01 8.488005e+01
3.759956e+01 2.083333e-01 -4.113774e+00 1.883037e+01 -7.475481e+01 8.479115e+01
3.736629e+01 2.135417e-01 -4.107390e+00 1.883977e+01 -7.483372e+01 8.471208e+01
3.739734e+01 2.135417e-01 -4.112989e+00 1.885020e+01 -7.491264e+01 8.460590e+01
3.722432e+01 2.083333e-01 -4.121827e+00 1.886550e+01 -7.499156e+01 8.453680e+01
3.751122e+01 2.083333e-01 -4.135681e+00 1.888168e+01 -7.507048e+01 8.443808e+01
3.754446e+01 2.083333e-01 -4.147952e+00 1.889774e+01 -7.514940e+01 8.436899e+01
3.744247e+01 2.083333e-01 -4.144480e+00 1.890784e+01 -7.522832e+01 8.429990e+01
3.738087e+01 1.979167e-01 -4.160853e+00 1.892195e+01 -7.530724e+01 8.419119e+01
3.729764e+01 2.031250e-01 -4.184369e+00 1.894143e+01 -7.538615e+01 8.412210e+01
3.737279e+01 2.031250e-01 -4.181025e+00 1.895718e+01 -7.546507e+01 8.411224e+01
3.768083e+01 2.031250e-01 -4.181744e+00 1.897089e+01 -7.554399e+01 8.404308e+01
3.771776e+01 2.031250e-01 -4.174035e+00 1.898374e+01 -7.562291e+01 8.401344e+01
3.739137e+01 2.031250e-01 -4.200894e+00 1.900392e+01 -7.570183e+01 8.396408e+01
3.744844e+01 2.031250e-01 -4.212266e+00 1.901595e+01 -7.578075e+01 8.384792e+01
3.728268e+01 2.031250e-01 -4.236313e+00 1.903647e+01 -7.585966e+01 8.377882e+01
3.701180e+01 1.979167e-01 -4.237429e+00 1.905327e+01 -7.593858e+01 8.377882e+01
3.757416e+01 2.031250e-01 -4.217774e+00 1.906510e+01 -7.601750e+01 8.377879e+01
3.775804e+01 2.083333e-01 -4.213294e+00 1.907997e+01 -7.609642e+01 8.375899e+01
3.798553e+01 2.083333e-01 -4.256761e+00 1.910609e+01 -7.617534e+01 8.369980e+01
3.794298e+01 2.135417e-01 -4.286711e+00 1.912955e+01 -7.625426e+01 8.363071e+01
3.763667e+01 2.083333e-01 -4.297696e+00 1.914491e+01 -7.633318e+01 8.355164e+01
3.739154e+01 2.083333e-01 -4.288337e+00 1.915393e+01 -7.641209e+01 8.351218e+01
3.703487e+01 2.031250e-01 -4.272743e+00 1.916427e+01 -7.649101e+01 8.350227e+01
3.756438e+01 2.031250e-01 -4.247652e+00 1.917525e+01 -7.656993e+01 8.348254e+01
3.756750e+01 2.031250e-01 -4.284064e+00 1.919831e+01 -7.664885e+01 8.344308e+01
3.764742e+01 2.083333e-01 -4.319278e+00 1.922589e+01 -7.672777e+01 8.343318e+01
3.779102e+01 2.083333e-01 -4.336134e+00 1.925058e+01 -7.680669e+01 8.346278e+01
3.789407e+01 2.031250e-01 -4.332881e+00 1.926706e+01 -7.688560e+01 8.348251e+01
3.778972e+01 2.031250e-01 -4.321565e+00 1.928345e+01 -7.696452e+01 8.353185e+01
3.765111e+01 2.031250e-01 -4.310129e+00 1.929823e+01 -7.704344e+01 8.355157e+01
3.726250e+01 2.083333e-01 -4.312928e+00 1.931541e+01 -7.712236e+01 8.356145e+01
3.734085e+01 2.135417e-01 -4.330596e+00 1.933980e+01 -7.720128e+01 8.361078e+01
3.742265e+01 2.135417e-01 -4.339750e+00 1.936251e+01 -7.728020e+01 8.366014e+01
3.753061e+01 2.031250e-01 -4.341676e+00 1.938358e+01 -7.735912e+01 8.370950e+01
3.786955e+01 2.083333e-01 -4.350021e+00 1.940667e+01 -7.743803e+01 8.377859e+01
3.816232e+01 2.031250e-01 -4.363055e+00 1.942946e+01 -7.751695e+01 8.380823e+01
3.787378e+01 2.083333e-01 -4.367721e+00 1.944932e+01 -7.759587e+01 8.382796e+01
3.766129e+01 2.135417e-01 -4.368137e+00 1.946862e+01 -7.767479e+01 8.387729e+01
3.762653e+01 2.083333e-01 -4.364458e+00 1.949193e+01 -7.775371e+01 8.398347e+01
3.764685e+01 2.083333e-01 -4.361338e+00 1.951429e+01 -7.783263e+01 8.407237e+01
3.775633e+01 2.135417e-01 -4.376579e+00 1.953810e+01 -7.791154e+01 8.412173e+01
3.767641e+01 2.135417e-01 -4.399673e+00 1.956396e+01 -7.799046e+01 8.416124e+01
3.801610e+01 2.135417e-01 -4.416668e+00 1.958852e+01 -7.806938e+01 8.419087e+01
3.804407e+01 2.187500e-01 -4.417687e+00 1.960770e+01 -7.814830e+01 8.422047e+01
3.793118e+01 2.135417e-01 -4.433149e+00 1.963240e+01 -7.822722e+01 8.427974e+01
3.755989e+01 2.083333e-01 -4.441516e+00 1.965602e+01 -7.830614e+01 8.435881e+01
3.746153e+01 2.031250e-01 -4.428902e+00 1.967432e+01 -7.838506e+01 8.445753e+01
3.747885e+01 2.083333e-01 -4.410998e+00 1.969386e+01 -7.846397e+01 8.455626e+01
3.728802e+01 2.031250e-01 -4.401158e+00 1.971423e+01 -7.854289e+01 8.460562e+01
3.776399e+01 2.083333e-01 -4.446547e+00 1.974400e+01 -7.862181e+01 8.463522e+01
3.826526e+01 2.135417e-01 -4.504484e+00 1.978252e+01 -7.870073e+01 8.465495e+01
3.819888e+01 2.135417e-01 -4.520332e+00 1.980696e+01 -7.877965e+01 8.466483e+01
3.815759e+01 2.135417e-01 -4.533488e+00 1.982570e+01 -7.885857e+01 8.462529e+01
3.796490e+01 2.135417e-01 -4.512052e+00 1.982881e+01 -7.893748e+01 8.458583e+01
3.773337e+01 2.135417e-01 -4.489190e+00 1.983396e+01 -7.901640e+01 8.453647e+01
3.761089e+01 2.083333e-01 -4.470092e+00 1.984204e+01 -7.909532e+01 8.446738e+01
3.756688e+01 2.083333e-01 -4.465106e+00 1.985324e+01 -7.917424e+01 8.436119e+01
3.787144e+01 2.135417e-01 -4.516367e+00 1.987786e+01 -7.925316e+01 8.428212e+01
3.784077e+01 2.135417e-01 -4.540351e+00 1.990121e+01 -7.933208e+01 8.425249e+01
3.752057e+01 2.135417e-01 -4.550806e+00 1.992153e+01 -7.941100e+01 8.425246e+01
3.747858e+01 2.135417e-01 -4.549967e+00 1.993691e+01 -7.948991e+01 8.423265e+01
3.760754e+01 2.187500e-01 -4.543031e+00 1.994848e+01 -7.956883e+01 8.418329e+01
3.742867e+01 2.187500e-01 -4.545389e+00 1.996398e+01 -7.964775e+01 8.414383e+01
3.737044e+01 2.135417e-01 -4.528286e+00 1.997782e+01 -7.972667e+01 8.414383e+01
3.783441e+01 2.135417e-01 -4.547399e+00 1.999781e+01 -7.980559e+01 8.412410e+01
3.770432e+01 2.135417e-01 -4.557149e+00 2.001648e+01 -7.988451e+01 8.409447e+01
3.771690e+01 2.135417e-01 -4.582593e+00 2.003792e+01 -7.996342e+01 8.404510e+01
3.757483e+01 2.135417e-01 -4.602202e+00 2.005886e+01 -8.004234e+01 8.400557e+01
3.762778e+01 2.083333e-01 -4.607101e+00 2.007878e+01 -8.012126e+01 8.402530e+01
3.755971e+01 2.187500e-01 -4.595519e+00 2.009286e+01 -8.020018e+01 8.403513e+01
3.758423e+01 2.187500e-01 -4.600940e+00 2.011030e+01 -8.027910e+01 8.401540e+01
3.772662e+01 2.135417e-01 -4.603914e+00 2.012575e+01 -8.035802e+01 8.396603e+01
3.748117e+01 2.083333e-01 -4.590611e+00 2.014179e+01 -8.043694e+01 8.397586e+01
3.751312e+01 2.135417e-01 -4.603531e+00 2.016309e+01 -8.051585e+01 8.398569e+01
3.791231e+01 2.135417e-01 -4.637252e+00 2.018810e+01 -8.059477e+01 8.397583e+01
3.804559e+01 2.135417e-01 -4.659211e+00 2.021008e+01 -8.067369e+01 8.394620e+01
3.780074e+01 2.135417e-01 -4.673894e+00 2.023054e+01 -8.075261e+01 8.392647e+01
3.765350e+01 2.135417e-01 -4.667046e+00 2.024346e+01 -8.083153e+01 8.388701e+01
3.733943e+01 2.135417e-01 -4.654307e+00 2.025431e+01 -8.091045e+01 8.383765e+01
3.741660e+01 2.135417e-01 -4.639190e+00 2.026592e+01 -8.098936e+01 8.378828e+01
3.733807e+01 2.135417e-01 -4.657697e+00 2.028533e+01 -8.106828e+01 8.374875e+01
3.760118e+01 2.135417e-01 -4.687871e+00 2.030844e+01 -8.114720e+01 8.371912e+01
3.766989e+01 2.135417e-01 -4.710227e+00 2.033153e+01 -8.122612e+01 8.370926e+01
3.770474e+01 2.135417e-01 -4.710801e+00 2.034896e+01 -8.130504e+01 8.371909e+01
3.750786e+01 2.135417e-01 -4.706000e+00 2.036385e+01 -8.138396e+01 8.368945e+01
3.744255e+01 2.135417e-01 -4.710813e+00 2.038265e+01 -8.146288e+01 8.368945e+01
3.755305e+01 2.135417e-01 -4.708947e+00 2.040145e+01 -8.154179e+01 8.370918e+01
3.755615e+01 2.187500e-01 -4.701706e+00 2.041722e+01 -8.162071e+01 8.368945e+01
3.743390e+01 2.187500e-01 -4.717278e+00 2.043461e+01 -8.169963e+01 8.364009e+01
3.749480e+01 2.135417e-01 -4.745267e+00 2.045454e+01 -8.177855e+01 8.357100e+01
3.720506e+01 2.083333e-01 -4.754056e+00 2.047187e+01 -8.185747e+01 8.353146e+01
3.730748e+01 2.135417e-01 -4.739821e+00 2.048712e+01 -8.193639e+01 8.353146e+01
3.744403e+01 2.083333e-01 -4.749973e+00 2.050728e+01 -8.201530e+01 8.352156e+01
3.742111e+01 2.083333e-01 -4.755496e+00 2.052636e+01 -8.209422e+01 8.352153e+01
3.751347e+01 2.083333e-01 -4.782640e+00 2.054848e+01 -8.217314e+01 8.349190e+01
3.762189e+01 2.031250e-01 -4.800599e+00 2.056671e+01 -8.225206e+01 8.342281e+01
3.732909e+01 1.979167e-01 -4.811041e+00 2.058183e+01 -8.233098e+01 8.333391e+01
3.738220e+01 2.135417e-01 -4.802022e+00 2.059679e+01 -8.240990e+01 8.332405e+01
3.721382e+01 2.031250e-01 -4.797641e+00 2.061224e+01 -8.248882e+01 8.330424e+01
3.732048e+01 2.083333e-01 -4.805191e+00 2.063034e+01 -8.256773e+01 8.326471e+01
3.748355e+01 2.083333e-01 -4.821334e+00 2.065229e+01 -8.264665e+01 8.326468e+01
3.691010e+01 2.083333e-01 -4.829044e+00 2.066894e+01 -8.272557e+01 8.323505e+01
3.684811e+01 2.083333e-01 -4.829908e+00 2.068289e+01 -8.280449e+01 8.316595e+01
3.722667e+01 2.083333e-01 -4.822928e+00 2.069794e+01 -8.288341e+01 8.313632e+01
3.719020e+01 2.031250e-01 -4.821397e+00 2.071231e+01 -8.296233e+01 8.306723e+01
3.743712e+01 2.083333e-01 -4.839438e+00 2.073019e+01 -8.304124e+01 8.299814e+01
3.747676e+01 2.083333e-01 -4.878802e+00 2.075155e+01 -8.312016e+01 8.289941e+01
3.712006e+01 2.031250e-01 -4.893872e+00 2.077068e+01 -8.319908e+01 8.285005e+01
3.729384e+01 1.979167e-01 -4.898383e+00 2.078659e+01 -8.327800e+01 8.280069e+01
3.742480e+01 1.979167e-01 -4.886568e+00 2.079849e+01 -8.335692e+01 8.275133e+01
3.741881e+01 2.083333e-01 -4.884278e+00 2.081430e+01 -8.343584e+01 8.271179e+01
3.722899e+01 2.031250e-01 -4.881710e+00 2.082920e+01 -8.351476e+01 8.266243e+01
3.732394e+01 1.979167e-01 -4.898480e+00 2.084999e+01 -8.359367e+01 8.265253e+01
3.771465e+01 2.031250e-01 -4.911152e+00 2.086900e+01 -8.367259e+01 8.261307e+01
3.735281e+01 1.979167e-01 -4.926263e+00 2.089021e+01 -8.375151e+01 8.261307e+01
3.748004e+01 2.031250e-01 -4.946374e+00 2.091150e+01 -8.383043e+01 8.259334e+01
3.736569e+01 2.031250e-01 -4.949438e+00 2.092617e+01 -8.390935e+01 8.252417e+01
3.747096e+01 1.979167e-01 -4.938254e+00 2.094262e+01 -8.398827e+01 8.253404e+01
3.748120e+01 2.031250e-01 -4.931629e+00 2.096153e+01 -8.406718e+01 8.255377e+01
3.752299e+01 2.083333e-01 -4.948327e+00 2.098211e+01 -8.414610e+01 8.253404e+01
3.749683e+01 2.083333e-01 -4.976693e+00 2.100653e+01 -8.422502e+01 8.253401e+01
3.788063e+01 2.135417e-01 -4.994981e+00 2.102803e+01 -8.430394e+01 8.251428e+01
3.756897e+01 2.135417e-01 -4.992062e+00 2.104599e+01 -8.438286e+01 8.253398e+01
3.787038e+01 2.083333e-01 -4.987545e+00 2.106641e+01 -8.446178e+01 8.260307e+01
3.771945e+01 2.187500e-01 -4.968367e+00 2.108710e+01 -8.454070e+01 8.267967e+01
3.743533e+01 2.031250e-01 -4.985634e+00 2.110954e+01 -8.461961e+01 8.270930e+01
3.780530e+01 2.135417e-01 -4.994407e+00 2.112554e+01 -8.469853e+01 8.264014e+01
3.787532e+01 2.083333e-01 -5.024777e+00 2.114708e+01 -8.477745e+01 8.258095e+01
3.761075e+01 2.135417e-01 -5.033688e+00 2.116780e+01 -8.485637e+01 8.259085e+01
3.808723e+01 2.187500e-01 -5.029972e+00 2.118742e+01 -8.493529e+01 8.264021e+01
3.791078e+01 2.083333e-01 -5.023540e+00 2.120568e+01 -8.501421e+01 8.265994e+01
3.771632e+01 2.083333e-01 -5.019281e+00 2.122611e+01 -8.509312e+01 8.269945e+01
3.802225e+01 2.135417e-01 -5.031051e+00 2.124852e+01 -8.517204e+01 8.272908e+01
3.803481e+01 2.135417e-01 -5.044705e+00 2.126825e+01 -8.525096e+01 8.271918e+01
3.804123e+01 2.031250e-01 -5.073734e+00 2.129451e+01 -8.532988e+01 8.273891e+01
3.814441e+01 2.031250e-01 -5.094306e+00 2.131878e+01 -8.540880e+01 8.274878e+01
3.814096e+01 2.135417e-01 -5.080721e+00 2.133568e+01 -8.548772e+01 8.280797e+01
3.803581e+01 2.083333e-01 -5.069038e+00 2.135225e+01 -8.556664e+01 8.281784e+01
3.782675e+01 2.083333e-01 -5.070539e+00 2.137358e+01 -8.564555e+01 8.285730e+01
3.781714e+01 2.135417e-01 -5.083860e+00 2.139457e+01 -8.572447e+01 8.286717e+01
3.772655e+01 2.187500e-01 -5.093502e+00 2.141588e+01 -8.580339e+01 8.289677e+01
3.775639e+01 2.135417e-01 -5.105022e+00 2.143831e+01 -8.588231e+01 8.292638e+01
3.742548e+01 2.083333e-01 -5.099285e+00 2.145912e+01 -8.596123e+01 8.298569e+01
3.813733e+01 2.135417e-01 -5.103906e+00 2.147839e+01 -8.604015e+01 8.296596e+01
3.807742e+01 2.083333e-01 -5.130342e+00 2.149900e+01 -8.611906e+01 8.291660e+01
3.772392e+01 2.083333e-01 -5.148011e+00 2.151543e+01 -8.619798e+01 8.282024e+01
3.737820e+01 2.187500e-01 -5.155512e+00 2.153296e+01 -8.627690e+01 8.279060e+01
3.762355e+01 2.083333e-01 -5.150533e+00 2.154884e+01 -8.635582e+01 8.276097e+01
3.758243e+01 2.083333e-01 -5.134960e+00 2.156504e+01 -8.643474e+01 8.277084e+01
3.815076e+01 2.083333e-01 -5.129442e+00 2.158356e+01 -8.651366e+01 8.278072e+01
3.779395e+01 2.083333e-01 -5.169094e+00 2.160606e+01 -8.659258e+01 8.274126e+01
3.802126e+01 2.083333e-01 -5.202671e+00 2.163000e+01 -8.667149e+01 8.268199e+01
3.846637e+01 2.031250e-01 -5.210395e+00 2.164740e+01 -8.675041e+01 8.263263e+01
3.839238e+01 2.083333e-01 -5.207715e+00 2.166160e+01 -8.682933e+01 8.258327e+01
3.824519e+01 2.031250e-01 -5.210103e+00 2.167705e+01 -8.690825e+01 8.253391e+01
3.791663e+01 2.083333e-01 -5.208076e+00 2.169029e+01 -8.698717e+01 8.245483e+01
3.742401e+01 2.135417e-01 -5.207922e+00 2.170492e+01 -8.706609e+01 8.239565e+01
3.812315e+01 2.135417e-01 -5.202581e+00 2.172118e+01 -8.714500e+01 8.235611e+01
3.818167e+01 2.083333e-01 -5.208549e+00 2.173837e+01 -8.722392e+01 8.228694e+01
3.816170e+01 2.135417e-01 -5.228395e+00 2.176029e+01 -8.730284e+01 8.227704e+01
3.812715e+01 2.031250e-01 -5.254709e+00 2.178202e+01 -8.738176e+01 8.224741e+01
3.785909e+01 2.083333e-01 -5.269415e+00 2.179814e+01 -8.746068e+01 8.214868e+01
3.797609e+01 2.083333e-01 -5.282101e+00 2.181726e+01 -8.753960e+01 8.209932e+01
3.792131e+01 2.031250e-01 -5.278398e+00 2.183028e+01 -8.761852e+01 8.203023e+01
3.787546e+01 2.031250e-01 -5.273756e+00 2.184162e+01 -8.769743e+01 8.192404e+01
3.790497e+01 2.135417e-01 -5.275354e+00 2.185522e+01 -8.777635e+01 8.182532e+01
3.749245e+01 2.135417e-01 -5.276618e+00 2.186777e+01 -8.785527e+01 8.171913e+01
3.772966e+01 2.135417e-01 -5.295352e+00 2.188554e+01 -8.793419e+01 8.163023e+01
3.785460e+01 2.135417e-01 -5.297750e+00 2.190209e+01 -8.801311e+01 8.157104e+01
3.767764e+01 2.083333e-01 -5.309193e+00 2.192106e+01 -8.809203e+01 8.152168e+01
3.779375e+01 2.083333e-01 -5.327783e+00 2.194214e+01 -8.817094e+01 8.151178e+01
3.774652e+01 2.187500e-01 -5.332281e+00 2.196147e+01 -8.824986e+01 8.152161e+01
3.774492e+01 2.083333e-01 -5.336478e+00 2.198185e+01 -8.832878e+01 8.153148e+01
3.756624e+01 2.083333e-01 -5.338730e+00 2.200225e+01 -8.840770e+01 8.154135e+01
3.784073e+01 2.083333e-01 -5.342088e+00 2.202147e+01 -8.848662e+01 8.155122e+01
3.777283e+01 2.187500e-01 -5.371624e+00 2.204321e+01 -8.856554e+01 8.150186e+01
3.753778e+01 2.239583e-01 -5.389651e+00 2.206450e+01 -8.864445e+01 8.148210e+01
3.801289e+01 2.135417e-01 -5.383097e+00 2.208267e+01 -8.872337e+01 8.150183e+01
3.759587e+01 2.083333e-01 -5.368438e+00 2.210050e+01 -8.880229e+01 8.153143e+01
3.783727e+01 2.135417e-01 -5.378958e+00 2.212100e+01 -8.888121e+01 8.153143e+01
3.774091e+01 2.135417e-01 -5.380794e+00 2.213824e+01 -8.896013e+01 8.151170e+01
3.735341e+01 2.239583e-01 -5.417952e+00 2.216279e+01 -8.903905e+01 8.150185e+01
3.794293e+01 2.135417e-01 -5.424020e+00 2.218436e+01 -8.911797e+01 8.152158e+01
3.763414e+01 2.083333e-01 -5.408662e+00 2.220206e+01 -8.919688e+01 8.154132e+01
3.791307e+01 2.083333e-01 -5.420960e+00 2.222344e+01 -8.927580e+01 8.154132e+01
3.785326e+01 2.083333e-01 -5.441113e+00 2.224237e+01 -8.935472e+01 8.149196e+01
3.738432e+01 2.135417e-01 -5.452109e+00 2.225933e+01 -8.943364e+01 8.143269e+01
3.748041e+01 2.135417e-01 -5.453931e+00 2.227433e+01 -8.951256e+01 8.136360e+01
3.759477e+01 2.083333e-01 -5.440582e+00 2.229179e+01 -8.959148e+01 8.137343e+01
3.766479e+01 2.083333e-01 -5.438878e+00 2.230896e+01 -8.967039e+01 8.133397e+01
3.757440e+01 2.083333e-01 -5.454010e+00 2.232735e+01 -8.974931e+01 8.127463e+01
3.786842e+01 2.083333e-01 -5.481280e+00 2.234808e+01 -8.982823e+01 8.123517e+01
3.786496e+01 2.083333e-01 -5.492552e+00 2.236685e+01 -8.990715e+01 8.119563e+01
3.801587e+01 2.135417e-01 -5.495574e+00 2.238430e+01 -8.998607e+01 8.116600e+01
3.777742e+01 2.135417e-01 -5.495188e+00 2.239835e+01 -9.006499e+01 8.107710e+01
3.767343e+01 2.135417e-01 -5.485981e+00 2.241266e+01 -9.014391e+01 8.101791e+01
3.789697e+01 2.031250e-01 -5.511618e+00 2.243419e+01 -9.022282e+01 8.097845e+01
3.763107e+01 2.135417e-01 -5.530614e+00 2.245641e+01 -9.030174e+01 8.095872e+01
3.828566e+01 2.187500e-01 -5.543034e+00 2.247620e+01 -9.038066e+01 8.092909e+01
3.808810e+01 2.135417e-01 -5.543513e+00 2.248732e+01 -9.045958e+01 8.080060e+01
3.771904e+01 2.135417e-01 -5.535288e+00 2.249958e+01 -9.053850e+01 8.070187e+01
3.764546e+01 2.135417e-01 -5.532640e+00 2.251652e+01 -9.061742e+01 8.067224e+01
3.797496e+01 2.135417e-01 -5.541852e+00 2.253368e+01 -9.069633e+01 8.060315e+01
3.798090e+01 2.135417e-01 -5.552827e+00 2.255209e+01 -9.077525e+01 8.055379e+01
3.812460e+01 2.135417e-01 -5.586680e+00 2.257163e+01 -9.085417e+01 8.044760e+01
3.792888e+01 2.187500e-01 -5.609252e+00 2.259152e+01 -9.093309e+01 8.036868e+01
3.819069e+01 2.291667e-01 -5.621078e+00 2.260860e+01 -9.101201e+01 8.028976e+01
3.800270e+01 2.239583e-01 -5.608916e+00 2.262224e+01 -9.109093e+01 8.025023e+01
3.758319e+01 2.135417e-01 -5.599483e+00 2.263711e+01 -9.116985e+01 8.020087e+01
3.756677e+01 2.135417e-01 -5.597564e+00 2.265484e+01 -9.124876e+01 8.018114e+01
3.762631e+01 2.187500e-01 -5.607704e+00 2.267266e+01 -9.132768e+01 8.013177e+01
3.787755e+01 2.187500e-01 -5.623530e+00 2.269076e+01 -9.140660e+01 8.007259e+01
3.780450e+01 2.187500e-01 -5.636921e+00 2.270759e+01 -9.148552e+01 7.998369e+01
3.787314e+01 2.187500e-01 -5.661563e+00 2.272677e+01 -9.156444e+01 7.988496e+01
3.783990e+01 2.291667e-01 -5.676002e+00 2.274666e+01 -9.164336e+01 7.984543e+01
3.796951e+01 2.239583e-01 -5.674023e+00 2.276159e+01 -9.172227e+01 7.978616e+01
3.787524e+01 2.187500e-01 -5.668440e+00 2.277768e+01 -9.180119e+01 7.975653e+01
3.800778e+01 2.187500e-01 -5.667261e+00 2.279521e+01 -9.188011e+01 7.972690e+01
3.809686e+01 2.135417e-01 -5.670929e+00 2.281261e+01 -9.195903e+01 7.967754e+01
3.788942e+01 2.135417e-01 -5.693640e+00 2.283160e+01 -9.203795e+01 7.960844e+01
3.782669e+01 2.031250e-01 -5.712587e+00 2.284939e+01 -9.211687e+01 7.951955e+01
3.781703e+01 2.239583e-01 -5.731697e+00 2.286783e+01 -9.219579e+01 7.943065e+01
3.780301e+01 2.031250e-01 -5.724541e+00 2.288266e+01 -9.227470e+01 7.938129e+01
3.790590e+01 2.187500e-01 -5.715921e+00 2.290040e+01 -9.235362e+01 7.937138e+01
3.748726e+01 2.187500e-01 -5.717434e+00 2.291980e+01 -9.243254e+01 7.937138e+01
3.809946e+01 2.135417e-01 -5.728474e+00 2.293658e+01 -9.251146e+01 7.931219e+01
3.763135e+01 2.031250e-01 -5.765359e+00 2.295701e+01 -9.259038e+01 7.921584e+01
3.761206e+01 2.187500e-01 -5.784317e+00 2.297470e+01 -9.266930e+01 7.910965e+01
3.776120e+01 2.291667e-01 -5.798299e+00 2.299124e+01 -9.274821e+01 7.899112e+01
3.760931e+01 2.187500e-01 -5.787734e+00 2.300427e+01 -9.282713e+01 7.891205e+01
3.767776e+01 2.187500e-01 -5.779223e+00 2.301861e+01 -9.290605e+01 7.885286e+01
3.769048e+01 2.187500e-01 -5.769803e+00 2.303512e+01 -9.298497e+01 7.883310e+01
3.752284e+01 2.083333e-01 -5.787225e+00 2.305132e+01 -9.306389e+01 7.872691e+01
3.769405e+01 2.031250e-01 -5.802160e+00 2.306997e+01 -9.314281e+01 7.866772e+01
3.795222e+01 2.239583e-01 -5.811763e+00 2.308848e+01 -9.322173e+01 7.861836e+01
3.795381e+01 2.239583e-01 -5.819104e+00 2.310632e+01 -9.330064e+01 7.854927e+01
3.826193e+01 2.239583e-01 -5.836843e+00 2.312396e+01 -9.337956e+01 7.845055e+01
3.825743e+01 2.291667e-01 -5.858850e+00 2.313892e+01 -9.345848e+01 7.829268e+01
3.795308e+01 2.343750e-01 -5.864123e+00 2.315405e+01 -9.353740e+01 7.819402e+01
3.806218e+01 2.291667e-01 -5.867420e+00 2.316968e+01 -9.361632e+01 7.810512e+01
3.769746e+01 2.187500e-01 -5.861004e+00 2.318175e+01 -9.369524e+01 7.797662e+01
3.799101e+01 2.239583e-01 -5.849772e+00 2.319546e+01 -9.377415e+01 7.789771e+01
3.781467e+01 2.187500e-01 -5.872523e+00 2.321231e+01 -9.385307e+01 7.779152e+01
3.787994e+01 2.291667e-01 -5.901512e+00 2.322840e+01 -9.393199e+01 7.760626e+01
3.810609e+01 2.343750e-01 -5.914401e+00 2.324507e+01 -9.401091e+01 7.749010e+01
3.779266e+01 2.239583e-01 -5.915430e+00 2.326086e+01 -9.408983e+01 7.742101e+01
3.791154e+01 2.187500e-01 -5.922249e+00 2.327810e+01 -9.416875e+01 7.736182e+01
3.777260e+01 2.187500e-01 -5.926279e+00 2.329238e+01 -9.424767e+01 7.724565e+01
3.768816e+01 2.187500e-01 -5.918764e+00 2.330457e+01 -9.432658e+01 7.712726e+01
3.756058e+01 2.187500e-01 -5.922400e+00 2.332231e+01 -9.440550e+01 7.708780e+01
3.758743e+01 2.187500e-01 -5.937854e+00 2.333841e+01 -9.448442e+01 7.695943e+01
3.745905e+01 2.187500e-01 -5.955147e+00 2.335917e+01 -9.456334e+01 7.692979e+01
3.770714e+01 2.239583e-01 -5.966785e+00 2.337792e+01 -9.464226e+01 7.687061e+01
3.771080e+01 2.187500e-01 -5.973024e+00 2.339712e+01 -9.472118e+01 7.684094e+01
3.806209e+01 2.187500e-01 -5.974924e+00 2.341936e+01 -9.480009e+01 7.688045e+01
3.807242e+01 2.239583e-01 -5.983609e+00 2.344327e+01 -9.487901e+01 7.692989e+01
3.798590e+01 2.187500e-01 -5.995147e+00 2.346173e+01 -9.495793e+01 7.688052e+01
3.760382e+01 2.187500e-01 -5.986275e+00 2.347626e+01 -9.503685e+01 7.683116e+01
3.754076e+01 2.083333e-01 -5.994216e+00 2.349534e+01 -9.511577e+01 7.680153e+01
3.777713e+01 2.187500e-01 -6.019308e+00 2.351487e+01 -9.519469e+01 7.671263e+01
3.755219e+01 2.135417e-01 -6.028266e+00 2.353756e+01 -9.527361e+01 7.675209e+01
3.785475e+01 2.187500e-01 -6.026951e+00 2.355687e+01 -9.535252e+01 7.675209e+01
3.804219e+01 2.135417e-01 -6.034815e+00 2.357904e+01 -9.543144e+01 7.678169e+01
3.803864e+01 2.187500e-01 -6.037223e+00 2.360033e+01 -9.551036e+01 7.682115e+01
3.757855e+01 2.187500e-01 -6.049645e+00 2.362232e+01 -9.558928e+01 7.685075e+01
3.791130e+01 2.187500e-01 -6.049618e+00 2.364430e+01 -9.566820e+01 7.690019e+01
3.781107e+01 2.187500e-01 -6.055700e+00 2.366444e+01 -9.574712e+01 7.689034e+01
3.783656e+01 2.187500e-01 -6.064113e+00 2.368715e+01 -9.582603e+01 7.691994e+01
3.774194e+01 2.187500e-01 -6.061090e+00 2.370911e+01 -9.590495e+01 7.698666e+01
3.789430e+01 2.187500e-01 -6.072362e+00 2.372914e+01 -9.598387e+01 7.696693e+01
