8.960669e+01 6.302083e-01 -8.126943e-03 5.436546e-01 -9.907227e-01 9.997559e-01
5.973828e+01 3.697917e-01 -1.190537e-02 5.389935e-01 -9.560547e-01 1.021729e+00
5.730981e+01 3.697917e-01 -1.302382e-02 5.390231e-01 -9.558105e-01 1.020508e+00
5.780225e+01 3.697917e-01 -1.331461e-02 5.395726e-01 -9.548340e-01 1.022217e+00
5.762476e+01 3.697917e-01 -1.308709e-02 5.401741e-01 -9.543457e-01 1.024170e+00
5.762476e+01 3.697917e-01 -1.299569e-02 5.403132e-01 -9.538574e-01 1.024170e+00
5.762476e+01 3.697917e-01 -1.299506e-02 5.403133e-01 -9.538574e-01 1.024170e+00
5.762476e+01 3.697917e-01 -1.299442e-02 5.403135e-01 -9.538574e-01 1.024170e+00
5.743140e+01 3.697917e-01 -1.300848e-02 5.402925e-01 -9.538574e-01 1.023926e+00
5.743140e+01 3.697917e-01 -1.300592e-02 5.402938e-01 -9.538574e-01 1.023926e+00
5.743140e+01 3.697917e-01 -1.300592e-02 5.402938e-01 -9.538574e-01 1.023926e+00
5.743140e+01 3.697917e-01 -1.300464e-02 5.402945e-01 -9.538574e-01 1.023926e+00
5.715234e+01 3.697917e-01 -1.323536e-02 5.401619e-01 -9.538574e-01 1.023926e+00
5.718457e+01 3.697917e-01 -1.349740e-02 5.404484e-01 -9.531250e-01 1.027588e+00
5.700342e+01 3.697917e-01 -1.281866e-02 5.406278e-01 -9.526367e-01 1.028076e+00
5.719727e+01 3.697917e-01 -1.291005e-02 5.406408e-01 -9.526367e-01 1.028320e+00
5.727686e+01 3.697917e-01 -1.309859e-02 5.406440e-01 -9.526367e-01 1.028564e+00
5.705859e+01 3.697917e-01 -1.331781e-02 5.406469e-01 -9.526367e-01 1.028564e+00
5.655762e+01 3.697917e-01 -1.388789e-02 5.406596e-01 -9.523926e-01 1.027588e+00
5.661816e+01 3.697917e-01 -1.388981e-02 5.406739e-01 -9.523926e-01 1.028076e+00
5.694336e+01 3.697917e-01 -1.402722e-02 5.407653e-01 -9.523926e-01 1.031250e+00
5.700391e+01 3.697917e-01 -1.428670e-02 5.409559e-01 -9.521484e-01 1.033203e+00
5.703687e+01 3.697917e-01 -1.383740e-02 5.410462e-01 -9.521484e-01 1.035400e+00
5.708691e+01 3.697917e-01 -1.356387e-02 5.411558e-01 -9.516602e-01 1.036621e+00
5.708691e+01 3.697917e-01 -1.357601e-02 5.411594e-01 -9.516602e-01 1.036621e+00
5.688818e+01 3.697917e-01 -1.375816e-02 5.412265e-01 -9.516602e-01 1.038574e+00
5.652783e+01 3.697917e-01 -1.393008e-02 5.412846e-01 -9.514160e-01 1.038818e+00
5.679077e+01 3.697917e-01 -1.384252e-02 5.412935e-01 -9.514160e-01 1.038818e+00
5.632764e+01 3.697917e-01 -1.372045e-02 5.413353e-01 -9.511719e-01 1.039795e+00
5.673853e+01 3.697917e-01 -1.389812e-02 5.414749e-01 -9.509277e-01 1.041260e+00
5.588916e+01 3.697917e-01 -1.381248e-02 5.415050e-01 -9.509277e-01 1.042480e+00
5.588916e+01 3.697917e-01 -1.380481e-02 5.415078e-01 -9.509277e-01 1.042480e+00
5.588916e+01 3.697917e-01 -1.380481e-02 5.415078e-01 -9.509277e-01 1.042480e+00
5.588916e+01 3.697917e-01 -1.380481e-02 5.415078e-01 -9.509277e-01 1.042480e+00
5.678564e+01 3.697917e-01 -1.385594e-02 5.414958e-01 -9.509277e-01 1.041748e+00
5.604761e+01 3.697917e-01 -1.377094e-02 5.415294e-01 -9.509277e-01 1.042969e+00
5.604761e+01 3.697917e-01 -1.377285e-02 5.415297e-01 -9.509277e-01 1.042969e+00
5.632788e+01 3.697917e-01 -1.382654e-02 5.415781e-01 -9.509277e-01 1.043701e+00
5.588330e+01 3.697917e-01 -1.379267e-02 5.415787e-01 -9.509277e-01 1.043701e+00
5.593604e+01 3.697917e-01 -1.369360e-02 5.416630e-01 -9.506836e-01 1.045410e+00
5.593604e+01 3.697917e-01 -1.369233e-02 5.416681e-01 -9.506836e-01 1.045410e+00
5.577783e+01 3.697917e-01 -1.371406e-02 5.416705e-01 -9.506836e-01 1.045654e+00
5.591138e+01 3.697917e-01 -1.375368e-02 5.416797e-01 -9.506836e-01 1.045898e+00
5.587183e+01 3.697917e-01 -1.374218e-02 5.416824e-01 -9.506836e-01 1.046143e+00
5.583398e+01 3.697917e-01 -1.373643e-02 5.416804e-01 -9.506836e-01 1.046143e+00
5.583276e+01 3.697917e-01 -1.373387e-02 5.416833e-01 -9.506836e-01 1.046387e+00
5.583276e+01 3.697917e-01 -1.372556e-02 5.416908e-01 -9.506836e-01 1.046387e+00
5.583398e+01 3.697917e-01 -1.374473e-02 5.416952e-01 -9.506836e-01 1.046387e+00
5.583398e+01 3.697917e-01 -1.374473e-02 5.416952e-01 -9.506836e-01 1.046387e+00
5.584399e+01 3.697917e-01 -1.374090e-02 5.417023e-01 -9.506836e-01 1.046631e+00
5.584399e+01 3.697917e-01 -1.374090e-02 5.417023e-01 -9.506836e-01 1.046631e+00
5.584399e+01 3.697917e-01 -1.374090e-02 5.417023e-01 -9.506836e-01 1.046631e+00
5.583398e+01 3.697917e-01 -1.374857e-02 5.417028e-01 -9.506836e-01 1.046631e+00
5.583398e+01 3.697917e-01 -1.375624e-02 5.417035e-01 -9.506836e-01 1.046631e+00
5.584399e+01 3.697917e-01 -1.375624e-02 5.417067e-01 -9.506836e-01 1.046631e+00
5.587183e+01 3.697917e-01 -1.375496e-02 5.417177e-01 -9.506836e-01 1.047363e+00
5.587183e+01 3.697917e-01 -1.375176e-02 5.417280e-01 -9.506836e-01 1.047607e+00
5.583276e+01 3.697917e-01 -1.375049e-02 5.417304e-01 -9.506836e-01 1.047607e+00
5.583276e+01 3.697917e-01 -1.375112e-02 5.417305e-01 -9.506836e-01 1.047607e+00
5.587183e+01 3.697917e-01 -1.374921e-02 5.417333e-01 -9.506836e-01 1.047852e+00
5.583276e+01 3.697917e-01 -1.374793e-02 5.417373e-01 -9.506836e-01 1.047852e+00
5.583276e+01 3.697917e-01 -1.374857e-02 5.417384e-01 -9.506836e-01 1.047852e+00
5.583276e+01 3.697917e-01 -1.374985e-02 5.417401e-01 -9.506836e-01 1.047852e+00
5.583276e+01 3.697917e-01 -1.374985e-02 5.417401e-01 -9.506836e-01 1.047852e+00
5.622778e+01 3.697917e-01 -1.374985e-02 5.417427e-01 -9.506836e-01 1.048096e+00
5.622778e+01 3.697917e-01 -1.374857e-02 5.417475e-01 -9.506836e-01 1.048096e+00
5.580786e+01 3.697917e-01 -1.372812e-02 5.417483e-01 -9.506836e-01 1.048096e+00
5.584058e+01 3.697917e-01 -1.372684e-02 5.417877e-01 -9.506836e-01 1.049072e+00
5.584058e+01 3.697917e-01 -1.373195e-02 5.418267e-01 -9.506836e-01 1.049316e+00
5.598877e+01 3.697917e-01 -1.372940e-02 5.418290e-01 -9.506836e-01 1.049561e+00
5.594727e+01 3.697917e-01 -1.371981e-02 5.418429e-01 -9.506836e-01 1.050049e+00
5.628101e+01 3.697917e-01 -1.360860e-02 5.421554e-01 -9.504395e-01 1.057373e+00
5.623950e+01 3.697917e-01 -1.357281e-02 5.422657e-01 -9.504395e-01 1.058350e+00
5.629736e+01 3.697917e-01 -1.355620e-02 5.423189e-01 -9.504395e-01 1.058594e+00
5.629736e+01 3.697917e-01 -1.355172e-02 5.423237e-01 -9.504395e-01 1.058594e+00
5.629736e+01 3.697917e-01 -1.355172e-02 5.423237e-01 -9.504395e-01 1.058594e+00
5.629736e+01 3.697917e-01 -1.355172e-02 5.423237e-01 -9.504395e-01 1.058594e+00
5.627637e+01 3.697917e-01 -1.357217e-02 5.423152e-01 -9.504395e-01 1.058350e+00
5.629736e+01 3.697917e-01 -1.356578e-02 5.423325e-01 -9.504395e-01 1.058838e+00
5.629736e+01 3.697917e-01 -1.356834e-02 5.423328e-01 -9.504395e-01 1.058838e+00
5.780225e+01 3.697917e-01 -1.339258e-02 5.426177e-01 -9.504395e-01 1.072510e+00
5.780225e+01 3.697917e-01 -1.323856e-02 5.428363e-01 -9.499512e-01 1.072510e+00
5.701221e+01 3.697917e-01 -1.376391e-02 5.427807e-01 -9.492188e-01 1.067139e+00
5.707959e+01 3.697917e-01 -1.361499e-02 5.430194e-01 -9.492188e-01 1.076416e+00
5.707959e+01 3.697917e-01 -1.373451e-02 5.431033e-01 -9.489746e-01 1.076416e+00
5.685205e+01 3.697917e-01 -1.373515e-02 5.431005e-01 -9.489746e-01 1.076416e+00
5.620190e+01 3.697917e-01 -1.348014e-02 5.431811e-01 -9.487305e-01 1.075928e+00
5.638208e+01 3.697917e-01 -1.345330e-02 5.432074e-01 -9.487305e-01 1.076904e+00
5.638208e+01 3.697917e-01 -1.342901e-02 5.432318e-01 -9.484863e-01 1.077148e+00
5.634106e+01 3.697917e-01 -1.344627e-02 5.432388e-01 -9.484863e-01 1.077148e+00
5.634106e+01 3.697917e-01 -1.346480e-02 5.432441e-01 -9.482422e-01 1.077148e+00
5.697974e+01 3.697917e-01 -1.349037e-02 5.433149e-01 -9.482422e-01 1.080078e+00
5.662622e+01 3.697917e-01 -1.356003e-02 5.433821e-01 -9.482422e-01 1.080078e+00
5.614893e+01 3.697917e-01 -1.348525e-02 5.434260e-01 -9.479980e-01 1.080322e+00
5.667847e+01 3.697917e-01 -1.328713e-02 5.434975e-01 -9.477539e-01 1.081299e+00
5.622412e+01 3.697917e-01 -1.336254e-02 5.435030e-01 -9.477539e-01 1.081299e+00
5.617188e+01 3.697917e-01 -1.352488e-02 5.435226e-01 -9.477539e-01 1.081543e+00
5.632617e+01 3.697917e-01 -1.339578e-02 5.436503e-01 -9.475098e-01 1.083496e+00
5.632739e+01 3.697917e-01 -1.342773e-02 5.436514e-01 -9.475098e-01 1.083008e+00
5.671729e+01 3.697917e-01 -1.345330e-02 5.436840e-01 -9.475098e-01 1.084717e+00
5.674756e+01 3.697917e-01 -1.349804e-02 5.437066e-01 -9.475098e-01 1.084717e+00
5.685864e+01 3.697917e-01 -1.328457e-02 5.438200e-01 -9.472656e-01 1.085938e+00
5.641553e+01 3.697917e-01 -1.334976e-02 5.438583e-01 -9.472656e-01 1.086914e+00
5.641553e+01 3.697917e-01 -1.346544e-02 5.438850e-01 -9.472656e-01 1.086914e+00
5.636377e+01 3.697917e-01 -1.343604e-02 5.439257e-01 -9.472656e-01 1.088379e+00
5.636377e+01 3.697917e-01 -1.337149e-02 5.439764e-01 -9.472656e-01 1.088867e+00
5.640381e+01 3.697917e-01 -1.336382e-02 5.440201e-01 -9.472656e-01 1.089111e+00
5.615698e+01 3.697917e-01 -1.336510e-02 5.440160e-01 -9.472656e-01 1.089111e+00
5.628687e+01 3.697917e-01 -1.336638e-02 5.440159e-01 -9.472656e-01 1.089111e+00
5.641968e+01 3.697917e-01 -1.340984e-02 5.440380e-01 -9.472656e-01 1.089600e+00
5.641968e+01 3.697917e-01 -1.340728e-02 5.440375e-01 -9.472656e-01 1.089600e+00
5.664209e+01 3.697917e-01 -1.343476e-02 5.440316e-01 -9.472656e-01 1.089600e+00
5.649243e+01 3.697917e-01 -1.340600e-02 5.441078e-01 -9.472656e-01 1.092041e+00
5.641528e+01 3.697917e-01 -1.334018e-02 5.445144e-01 -9.470215e-01 1.101074e+00
5.677686e+01 3.697917e-01 -1.337085e-02 5.447716e-01 -9.462891e-01 1.101074e+00
5.677686e+01 3.697917e-01 -1.342134e-02 5.447686e-01 -9.460449e-01 1.099609e+00
5.649780e+01 3.697917e-01 -1.334912e-02 5.447880e-01 -9.460449e-01 1.101074e+00
5.649780e+01 3.697917e-01 -1.327690e-02 5.448074e-01 -9.460449e-01 1.101074e+00
5.660547e+01 3.697917e-01 -1.333826e-02 5.448453e-01 -9.460449e-01 1.102539e+00
5.693213e+01 3.697917e-01 -1.330822e-02 5.448952e-01 -9.460449e-01 1.104004e+00
5.693213e+01 3.697917e-01 -1.324750e-02 5.449210e-01 -9.460449e-01 1.104248e+00
5.693213e+01 3.697917e-01 -1.324750e-02 5.449210e-01 -9.460449e-01 1.104248e+00
5.632471e+01 3.697917e-01 -1.329096e-02 5.449329e-01 -9.460449e-01 1.104004e+00
5.629883e+01 3.697917e-01 -1.328713e-02 5.450011e-01 -9.458008e-01 1.104980e+00
5.629883e+01 3.697917e-01 -1.328457e-02 5.450074e-01 -9.458008e-01 1.104980e+00
5.629883e+01 3.697917e-01 -1.328457e-02 5.450074e-01 -9.458008e-01 1.104980e+00
5.629883e+01 3.697917e-01 -1.328457e-02 5.450074e-01 -9.458008e-01 1.104980e+00
5.638013e+01 3.697917e-01 -1.329352e-02 5.450023e-01 -9.458008e-01 1.104980e+00
5.638013e+01 3.697917e-01 -1.330055e-02 5.449989e-01 -9.458008e-01 1.104980e+00
5.632471e+01 3.697917e-01 -1.328649e-02 5.450123e-01 -9.458008e-01 1.105469e+00
5.632471e+01 3.697917e-01 -1.327435e-02 5.450216e-01 -9.458008e-01 1.105469e+00
5.632471e+01 3.697917e-01 -1.327435e-02 5.450216e-01 -9.458008e-01 1.105469e+00
5.640601e+01 3.697917e-01 -1.328074e-02 5.450197e-01 -9.458008e-01 1.105469e+00
5.640601e+01 3.697917e-01 -1.328138e-02 5.450211e-01 -9.458008e-01 1.105469e+00
5.640601e+01 3.697917e-01 -1.327818e-02 5.450263e-01 -9.458008e-01 1.105469e+00
5.667065e+01 3.697917e-01 -1.320852e-02 5.451832e-01 -9.458008e-01 1.110107e+00
5.667065e+01 3.697917e-01 -1.315292e-02 5.453298e-01 -9.453125e-01 1.110107e+00
5.685278e+01 3.697917e-01 -1.321938e-02 5.453325e-01 -9.453125e-01 1.109863e+00
5.678979e+01 3.697917e-01 -1.318551e-02 5.454411e-01 -9.453125e-01 1.113037e+00
5.667773e+01 3.697917e-01 -1.327179e-02 5.455108e-01 -9.448242e-01 1.113037e+00
5.667773e+01 3.697917e-01 -1.327051e-02 5.455167e-01 -9.448242e-01 1.113281e+00
5.667773e+01 3.697917e-01 -1.326923e-02 5.455199e-01 -9.448242e-01 1.113281e+00
5.667773e+01 3.697917e-01 -1.326923e-02 5.455199e-01 -9.448242e-01 1.113281e+00
5.667773e+01 3.697917e-01 -1.326923e-02 5.455199e-01 -9.448242e-01 1.113281e+00
5.667773e+01 3.697917e-01 -1.326923e-02 5.455199e-01 -9.448242e-01 1.113281e+00
5.667773e+01 3.697917e-01 -1.326923e-02 5.455199e-01 -9.448242e-01 1.113281e+00
5.667773e+01 3.697917e-01 -1.326796e-02 5.455224e-01 -9.448242e-01 1.113525e+00
5.588794e+01 3.697917e-01 -1.332292e-02 5.557186e-01 -9.997559e-01 1.254639e+00
5.602197e+01 3.697917e-01 -1.330375e-02 5.557438e-01 -9.990234e-01 1.255859e+00
5.584375e+01 3.697917e-01 -1.306728e-02 5.560231e-01 -1.023193e+00 1.270020e+00
5.580615e+01 3.697917e-01 -1.308901e-02 5.561481e-01 -1.024170e+00 1.270508e+00
5.580615e+01 3.697917e-01 -1.308645e-02 5.561604e-01 -1.024170e+00 1.270508e+00
5.585205e+01 3.697917e-01 -1.312735e-02 5.561690e-01 -1.022705e+00 1.269775e+00
5.589526e+01 3.697917e-01 -1.310434e-02 5.563154e-01 -1.025635e+00 1.271484e+00
5.581445e+01 3.697917e-01 -1.310179e-02 5.564427e-01 -1.027832e+00 1.272949e+00
5.581445e+01 3.697917e-01 -1.310179e-02 5.564427e-01 -1.027832e+00 1.272949e+00
5.585205e+01 3.697917e-01 -1.311329e-02 5.564651e-01 -1.027832e+00 1.272949e+00
5.585205e+01 3.697917e-01 -1.312991e-02 5.565052e-01 -1.026855e+00 1.272949e+00
5.585205e+01 3.697917e-01 -1.312991e-02 5.565052e-01 -1.026855e+00 1.272949e+00
5.585205e+01 3.697917e-01 -1.312543e-02 5.565155e-01 -1.027588e+00 1.273438e+00
5.576294e+01 3.697917e-01 -1.311265e-02 5.565391e-01 -1.028809e+00 1.274170e+00
5.585767e+01 3.697917e-01 -1.310434e-02 5.565664e-01 -1.029053e+00 1.274414e+00
5.585767e+01 3.697917e-01 -1.310434e-02 5.565664e-01 -1.029053e+00 1.274414e+00
5.584790e+01 3.697917e-01 -1.311713e-02 5.566310e-01 -1.029297e+00 1.274902e+00
5.584790e+01 3.697917e-01 -1.312991e-02 5.566956e-01 -1.029297e+00 1.274902e+00
5.576294e+01 3.697917e-01 -1.312224e-02 5.567319e-01 -1.030518e+00 1.275635e+00
5.576294e+01 3.697917e-01 -1.312224e-02 5.567319e-01 -1.030518e+00 1.275635e+00
5.576294e+01 3.697917e-01 -1.312224e-02 5.567319e-01 -1.030518e+00 1.275635e+00
5.576294e+01 3.697917e-01 -1.312224e-02 5.567319e-01 -1.030518e+00 1.275635e+00
5.576294e+01 3.697917e-01 -1.312288e-02 5.567342e-01 -1.030762e+00 1.275635e+00
5.576294e+01 3.697917e-01 -1.312352e-02 5.567365e-01 -1.030762e+00 1.275635e+00
5.576294e+01 3.697917e-01 -1.312352e-02 5.567365e-01 -1.030762e+00 1.275635e+00
5.584790e+01 3.697917e-01 -1.312799e-02 5.567417e-01 -1.030762e+00 1.275635e+00
5.576294e+01 3.697917e-01 -1.312416e-02 5.567965e-01 -1.032471e+00 1.276855e+00
5.591699e+01 3.697917e-01 -1.311201e-02 5.574742e-01 -1.037842e+00 1.281494e+00
5.581445e+01 3.697917e-01 -1.310051e-02 5.575214e-01 -1.039062e+00 1.282227e+00
5.581445e+01 3.697917e-01 -1.310051e-02 5.575214e-01 -1.039062e+00 1.282227e+00
5.581445e+01 3.697917e-01 -1.310051e-02 5.575214e-01 -1.039062e+00 1.282227e+00
5.581445e+01 3.697917e-01 -1.310051e-02 5.575214e-01 -1.039062e+00 1.282227e+00
5.581445e+01 3.697917e-01 -1.310179e-02 5.575223e-01 -1.039062e+00 1.282227e+00
5.581445e+01 3.697917e-01 -1.310307e-02 5.575232e-01 -1.039062e+00 1.282227e+00
5.584814e+01 3.697917e-01 -1.310562e-02 5.577973e-01 -1.044922e+00 1.286133e+00
5.584814e+01 3.697917e-01 -1.310818e-02 5.580713e-01 -1.044922e+00 1.286133e+00
5.581445e+01 3.697917e-01 -1.310051e-02 5.580940e-01 -1.046387e+00 1.286865e+00
5.581445e+01 3.697917e-01 -1.309284e-02 5.581166e-01 -1.046387e+00 1.286865e+00
5.581445e+01 3.697917e-01 -1.309220e-02 5.581207e-01 -1.046631e+00 1.287109e+00
4.657593e+01 3.125000e-01 1.204853e-02 8.276261e-01 -4.050781e+00 4.174561e+00
4.356104e+01 2.500000e-01 3.868031e-02 1.027525e+00 -4.054199e+00 4.194092e+00
4.433130e+01 2.760417e-01 4.243701e-02 1.026185e+00 -4.053955e+00 4.208252e+00
4.376904e+01 2.447917e-01 4.302819e-02 1.026319e+00 -4.051270e+00 4.211182e+00
4.349341e+01 2.447917e-01 4.529192e-02 1.027528e+00 -4.025635e+00 4.225586e+00
4.257349e+01 2.500000e-01 4.463619e-02 1.028189e+00 -4.014893e+00 4.225586e+00
4.257642e+01 2.552083e-01 4.229385e-02 1.028767e+00 -4.025635e+00 4.225830e+00
4.158179e+01 2.395833e-01 4.228426e-02 1.029515e+00 -4.025635e+00 4.225830e+00
4.151929e+01 2.395833e-01 4.227212e-02 1.030344e+00 -4.002197e+00 4.224365e+00
4.398486e+01 2.708333e-01 4.323015e-02 1.029457e+00 -4.009033e+00 4.235596e+00
4.194287e+01 2.604167e-01 4.238588e-02 1.029607e+00 -4.008789e+00 4.235352e+00
4.180176e+01 2.604167e-01 4.163748e-02 1.029872e+00 -4.003906e+00 4.226807e+00
4.180176e+01 2.604167e-01 4.151285e-02 1.029946e+00 -4.002441e+00 4.225342e+00
4.171777e+01 2.604167e-01 4.207783e-02 1.029550e+00 -4.005371e+00 4.232666e+00
4.043042e+01 2.500000e-01 4.782408e-02 1.025407e+00 -3.909180e+00 4.251465e+00
4.105103e+01 2.291667e-01 4.773141e-02 1.025636e+00 -3.877441e+00 4.243652e+00
4.104858e+01 2.291667e-01 4.665578e-02 1.030701e+00 -3.864746e+00 4.268799e+00
4.219995e+01 2.343750e-01 4.638736e-02 1.031943e+00 -3.870605e+00 4.284424e+00
4.176782e+01 2.395833e-01 4.598472e-02 1.031981e+00 -3.870605e+00 4.284424e+00
4.059180e+01 2.552083e-01 4.414088e-02 1.031536e+00 -3.868896e+00 4.266846e+00
4.017603e+01 2.447917e-01 4.464386e-02 1.031374e+00 -3.873291e+00 4.276367e+00
4.038428e+01 2.343750e-01 4.003842e-02 1.036978e+00 -3.864014e+00 4.305176e+00
4.081689e+01 2.187500e-01 3.941529e-02 1.035742e+00 -3.863770e+00 4.302490e+00
4.249561e+01 2.343750e-01 4.017264e-02 1.035251e+00 -3.863525e+00 4.312500e+00
4.150269e+01 2.291667e-01 4.093765e-02 1.034786e+00 -3.861816e+00 4.312500e+00
4.156982e+01 2.343750e-01 4.090314e-02 1.034766e+00 -3.852051e+00 4.309082e+00
4.125562e+01 2.239583e-01 4.101690e-02 1.034862e+00 -3.851074e+00 4.309814e+00
4.143872e+01 2.187500e-01 4.151158e-02 1.035327e+00 -3.840820e+00 4.315918e+00
4.002002e+01 2.343750e-01 4.068840e-02 1.035637e+00 -3.838867e+00 4.311279e+00
4.006372e+01 2.343750e-01 4.057975e-02 1.035458e+00 -3.835205e+00 4.308350e+00
4.089673e+01 2.343750e-01 4.076957e-02 1.035374e+00 -3.836182e+00 4.310547e+00
4.089673e+01 2.343750e-01 4.076382e-02 1.035383e+00 -3.836182e+00 4.310547e+00
4.151416e+01 2.239583e-01 4.116006e-02 1.035238e+00 -3.838379e+00 4.314941e+00
4.087134e+01 2.343750e-01 4.065900e-02 1.035611e+00 -3.836426e+00 4.311279e+00
4.023193e+01 2.291667e-01 4.054652e-02 1.035650e+00 -3.835205e+00 4.310547e+00
4.279126e+01 2.239583e-01 4.166880e-02 1.035127e+00 -3.840820e+00 4.322266e+00
3.922900e+01 2.343750e-01 4.098750e-02 1.035376e+00 -3.838135e+00 4.320068e+00
4.152808e+01 2.187500e-01 4.094404e-02 1.035298e+00 -3.830078e+00 4.319336e+00
4.134766e+01 2.187500e-01 4.136266e-02 1.035057e+00 -3.830078e+00 4.319336e+00
4.134766e+01 2.187500e-01 4.131729e-02 1.035090e+00 -3.829834e+00 4.318848e+00
3.945215e+01 2.343750e-01 4.024358e-02 1.035687e+00 -3.823975e+00 4.308594e+00
4.031641e+01 2.187500e-01 4.062768e-02 1.035512e+00 -3.826416e+00 4.313721e+00
4.204761e+01 2.135417e-01 4.093510e-02 1.035707e+00 -3.825439e+00 4.322266e+00
4.003223e+01 2.291667e-01 4.034328e-02 1.036110e+00 -3.822510e+00 4.318359e+00
3.947900e+01 2.239583e-01 3.994192e-02 1.036420e+00 -3.812744e+00 4.310791e+00
3.980957e+01 2.291667e-01 4.035606e-02 1.036302e+00 -3.816650e+00 4.317627e+00
3.908521e+01 2.291667e-01 4.045832e-02 1.036518e+00 -3.810059e+00 4.319092e+00
4.089136e+01 2.395833e-01 4.022377e-02 1.037159e+00 -3.809570e+00 4.321533e+00
4.141846e+01 2.343750e-01 4.052990e-02 1.037199e+00 -3.809570e+00 4.322754e+00
4.057690e+01 2.291667e-01 4.041103e-02 1.037248e+00 -3.807373e+00 4.320557e+00
4.051172e+01 2.291667e-01 4.053757e-02 1.037425e+00 -3.807373e+00 4.322266e+00
3.945264e+01 2.343750e-01 4.028832e-02 1.041086e+00 -3.797363e+00 4.341064e+00
3.978735e+01 2.343750e-01 3.930728e-02 1.046036e+00 -3.774902e+00 4.352539e+00
4.129053e+01 2.083333e-01 4.290100e-02 1.049470e+00 -3.767822e+00 4.375488e+00
4.138574e+01 2.083333e-01 4.666154e-02 1.048711e+00 -3.717285e+00 4.375488e+00
4.008813e+01 2.135417e-01 4.622822e-02 1.049009e+00 -3.706299e+00 4.366211e+00
4.061523e+01 2.083333e-01 4.590163e-02 1.049292e+00 -3.720947e+00 4.367920e+00
3.943848e+01 2.343750e-01 3.945875e-02 1.053342e+00 -3.774902e+00 4.352295e+00
3.978467e+01 2.343750e-01 3.942871e-02 1.053478e+00 -3.775879e+00 4.353760e+00
3.976172e+01 2.291667e-01 3.958593e-02 1.053590e+00 -3.774414e+00 4.356689e+00
3.979663e+01 2.291667e-01 3.993041e-02 1.053499e+00 -3.774658e+00 4.356934e+00
3.979663e+01 2.291667e-01 3.999944e-02 1.053462e+00 -3.774658e+00 4.357178e+00
4.012329e+01 2.291667e-01 3.904844e-02 1.054036e+00 -3.769531e+00 4.348877e+00
3.990796e+01 2.291667e-01 3.973868e-02 1.053692e+00 -3.775391e+00 4.357422e+00
4.050269e+01 2.187500e-01 4.869391e-02 1.040833e+00 -3.667725e+00 4.331543e+00
4.339502e+01 2.187500e-01 4.900132e-02 1.040895e+00 -3.683838e+00 4.344238e+00
4.067090e+01 2.343750e-01 4.825037e-02 1.041421e+00 -3.683838e+00 4.344238e+00
4.086572e+01 2.343750e-01 4.726805e-02 1.041937e+00 -3.680176e+00 4.331787e+00
4.197485e+01 1.979167e-01 4.745787e-02 1.042578e+00 -3.703857e+00 4.348389e+00
4.207983e+01 2.135417e-01 4.619499e-02 1.043561e+00 -3.706299e+00 4.346436e+00
4.205127e+01 2.135417e-01 4.631578e-02 1.043807e+00 -3.706299e+00 4.346436e+00
4.033252e+01 2.968750e-01 4.408847e-02 1.045207e+00 -3.688477e+00 4.322266e+00
3.967041e+01 2.239583e-01 4.532899e-02 1.044808e+00 -3.702148e+00 4.342529e+00
4.154199e+01 2.135417e-01 4.396704e-02 1.046497e+00 -3.718506e+00 4.342529e+00
3.891675e+01 2.395833e-01 3.975402e-02 1.049877e+00 -3.720947e+00 4.325684e+00
3.986304e+01 2.187500e-01 4.063344e-02 1.049551e+00 -3.727783e+00 4.336914e+00
3.894067e+01 2.291667e-01 3.987545e-02 1.050064e+00 -3.719482e+00 4.327637e+00
4.207593e+01 2.135417e-01 4.012279e-02 1.051087e+00 -3.736572e+00 4.348877e+00
4.047314e+01 2.239583e-01 3.971503e-02 1.051738e+00 -3.736572e+00 4.348877e+00
4.023096e+01 2.135417e-01 3.914558e-02 1.051946e+00 -3.738770e+00 4.342285e+00
4.018506e+01 2.135417e-01 3.886118e-02 1.052108e+00 -3.737061e+00 4.339355e+00
4.017480e+01 2.187500e-01 3.888035e-02 1.052106e+00 -3.737061e+00 4.339355e+00
3.941919e+01 2.291667e-01 3.949965e-02 1.052038e+00 -3.733887e+00 4.340088e+00
3.888110e+01 2.343750e-01 3.835117e-02 1.053468e+00 -3.721680e+00 4.339600e+00
3.939258e+01 2.031250e-01 3.732539e-02 1.054699e+00 -3.724609e+00 4.344238e+00
3.907593e+01 2.135417e-01 3.720780e-02 1.054888e+00 -3.724365e+00 4.342529e+00
4.088916e+01 2.031250e-01 3.767435e-02 1.054286e+00 -3.729492e+00 4.347168e+00
4.005591e+01 2.291667e-01 3.704802e-02 1.054693e+00 -3.728027e+00 4.343994e+00
4.008740e+01 2.291667e-01 3.683711e-02 1.054817e+00 -3.726074e+00 4.340576e+00
4.107812e+01 2.239583e-01 3.576213e-02 1.050882e+00 -3.704590e+00 4.337402e+00
3.904492e+01 2.083333e-01 3.535949e-02 1.051085e+00 -3.704590e+00 4.337402e+00
4.014917e+01 2.135417e-01 3.511854e-02 1.051228e+00 -3.704346e+00 4.335205e+00
4.023511e+01 2.135417e-01 3.506038e-02 1.051493e+00 -3.706055e+00 4.334473e+00
4.023022e+01 2.135417e-01 3.505527e-02 1.051460e+00 -3.705566e+00 4.334229e+00
4.130713e+01 2.291667e-01 3.556017e-02 1.051177e+00 -3.708496e+00 4.338867e+00
4.128418e+01 2.187500e-01 3.366456e-02 1.053236e+00 -3.718750e+00 4.347412e+00
3.930640e+01 2.187500e-01 3.276533e-02 1.053828e+00 -3.713135e+00 4.341309e+00
3.930640e+01 2.187500e-01 3.239273e-02 1.054036e+00 -3.702881e+00 4.332520e+00
4.040405e+01 2.135417e-01 3.344790e-02 1.053213e+00 -3.707275e+00 4.341309e+00
4.115601e+01 2.083333e-01 3.553077e-02 1.049957e+00 -3.693115e+00 4.348633e+00
4.143848e+01 2.187500e-01 3.512429e-02 1.050463e+00 -3.699219e+00 4.351318e+00
3.828369e+01 2.031250e-01 3.358531e-02 1.052314e+00 -3.699951e+00 4.349854e+00
3.988770e+01 2.083333e-01 3.284586e-02 1.053126e+00 -3.699463e+00 4.344238e+00
3.984473e+01 2.083333e-01 3.310470e-02 1.052972e+00 -3.699463e+00 4.344238e+00
4.141943e+01 2.135417e-01 3.344151e-02 1.052744e+00 -3.702637e+00 4.350098e+00
3.882349e+01 2.083333e-01 3.333542e-02 1.052591e+00 -3.689941e+00 4.345703e+00
3.990405e+01 2.083333e-01 3.330858e-02 1.052733e+00 -3.691162e+00 4.346436e+00
4.085962e+01 2.083333e-01 3.365562e-02 1.052874e+00 -3.692383e+00 4.354004e+00
3.973291e+01 2.187500e-01 3.329580e-02 1.053128e+00 -3.692383e+00 4.354004e+00
3.893140e+01 2.135417e-01 3.259853e-02 1.053717e+00 -3.686523e+00 4.344727e+00
3.973193e+01 2.135417e-01 3.297560e-02 1.053507e+00 -3.689941e+00 4.349121e+00
4.028931e+01 2.083333e-01 3.333862e-02 1.053370e+00 -3.692627e+00 4.352539e+00
3.949414e+01 2.135417e-01 3.243875e-02 1.054265e+00 -3.691895e+00 4.347412e+00
3.814355e+01 2.083333e-01 3.172550e-02 1.054596e+00 -3.689941e+00 4.340576e+00
3.938940e+01 2.083333e-01 3.219077e-02 1.054360e+00 -3.693848e+00 4.346191e+00
3.938940e+01 2.083333e-01 3.220867e-02 1.054350e+00 -3.693848e+00 4.346191e+00
4.099902e+01 2.083333e-01 3.279665e-02 1.054022e+00 -3.699707e+00 4.356934e+00
3.981006e+01 2.031250e-01 3.287079e-02 1.054129e+00 -3.699707e+00 4.356934e+00
3.905835e+01 2.083333e-01 3.268033e-02 1.053975e+00 -3.690430e+00 4.342773e+00
4.068555e+01 2.031250e-01 3.280304e-02 1.054369e+00 -3.698730e+00 4.354492e+00
4.069751e+01 2.031250e-01 3.284586e-02 1.054567e+00 -3.698730e+00 4.354492e+00
3.911206e+01 2.291667e-01 3.141489e-02 1.055451e+00 -3.683105e+00 4.341064e+00
3.960083e+01 2.031250e-01 3.235183e-02 1.054826e+00 -3.689697e+00 4.351074e+00
4.013354e+01 2.031250e-01 3.247262e-02 1.054722e+00 -3.690430e+00 4.352295e+00
4.013354e+01 2.031250e-01 3.248988e-02 1.054712e+00 -3.690430e+00 4.352295e+00
3.819727e+01 2.083333e-01 3.199393e-02 1.055013e+00 -3.687744e+00 4.346924e+00
3.988232e+01 2.031250e-01 3.229047e-02 1.054876e+00 -3.691162e+00 4.351807e+00
3.988232e+01 2.031250e-01 3.242980e-02 1.054804e+00 -3.691162e+00 4.351807e+00
4.004248e+01 2.031250e-01 3.248412e-02 1.054805e+00 -3.691895e+00 4.352539e+00
4.007349e+01 2.031250e-01 3.269184e-02 1.054983e+00 -3.695068e+00 4.354736e+00
3.929370e+01 2.135417e-01 3.231987e-02 1.055213e+00 -3.691650e+00 4.350098e+00
4.025708e+01 2.031250e-01 3.253461e-02 1.055075e+00 -3.694092e+00 4.354004e+00
3.893872e+01 2.031250e-01 3.404803e-02 1.053435e+00 -3.682129e+00 4.345947e+00
4.035132e+01 2.031250e-01 3.423209e-02 1.053272e+00 -3.683838e+00 4.349365e+00
4.043726e+01 2.031250e-01 3.440465e-02 1.053127e+00 -3.683838e+00 4.349365e+00
3.963892e+01 2.083333e-01 3.412856e-02 1.052721e+00 -3.678955e+00 4.341309e+00
3.998535e+01 2.031250e-01 3.422187e-02 1.052696e+00 -3.680908e+00 4.343750e+00
4.013037e+01 2.031250e-01 3.429984e-02 1.052676e+00 -3.681152e+00 4.343994e+00
3.963452e+01 2.031250e-01 3.406465e-02 1.052997e+00 -3.681396e+00 4.343262e+00
4.033398e+01 2.083333e-01 3.435225e-02 1.052892e+00 -3.685303e+00 4.348633e+00
4.032275e+01 2.083333e-01 3.449541e-02 1.052855e+00 -3.685547e+00 4.348877e+00
3.991479e+01 1.979167e-01 3.457466e-02 1.052831e+00 -3.686035e+00 4.349609e+00
3.969482e+01 2.083333e-01 3.424743e-02 1.053071e+00 -3.686035e+00 4.349609e+00
3.938062e+01 2.135417e-01 3.390167e-02 1.053405e+00 -3.683594e+00 4.344727e+00
3.935889e+01 2.083333e-01 3.390040e-02 1.053491e+00 -3.682129e+00 4.344971e+00
3.992627e+01 2.083333e-01 3.403525e-02 1.053418e+00 -3.684082e+00 4.347656e+00
3.975293e+01 2.083333e-01 3.301395e-02 1.054993e+00 -3.689941e+00 4.346680e+00
3.956836e+01 2.135417e-01 3.333542e-02 1.054900e+00 -3.694336e+00 4.353760e+00
3.972607e+01 2.031250e-01 3.319865e-02 1.055146e+00 -3.693115e+00 4.353027e+00
4.033862e+01 2.031250e-01 3.355975e-02 1.054947e+00 -3.693848e+00 4.354736e+00
3.937695e+01 2.135417e-01 3.321271e-02 1.055169e+00 -3.693848e+00 4.354736e+00
3.946851e+01 2.135417e-01 3.048690e-02 1.059684e+00 -3.678711e+00 4.365967e+00
3.916577e+01 2.239583e-01 2.900608e-02 1.060997e+00 -3.694092e+00 4.362061e+00
4.061548e+01 2.239583e-01 3.085247e-02 1.059419e+00 -3.673096e+00 4.368164e+00
4.017310e+01 2.187500e-01 3.071634e-02 1.059489e+00 -3.672607e+00 4.367188e+00
3.880981e+01 2.135417e-01 3.020505e-02 1.059640e+00 -3.671143e+00 4.364258e+00
3.900952e+01 2.083333e-01 2.996539e-02 1.059727e+00 -3.670166e+00 4.361084e+00
4.030884e+01 2.187500e-01 3.030603e-02 1.059519e+00 -3.674561e+00 4.366699e+00
4.158911e+01 2.239583e-01 3.026193e-02 1.059403e+00 -3.672607e+00 4.370361e+00
3.904175e+01 2.083333e-01 3.107424e-02 1.056138e+00 -3.606445e+00 4.381836e+00
3.938745e+01 2.135417e-01 3.183479e-02 1.057312e+00 -3.576904e+00 4.380371e+00
4.074268e+01 2.135417e-01 3.231732e-02 1.057997e+00 -3.582275e+00 4.386963e+00
3.923364e+01 2.135417e-01 3.213197e-02 1.058921e+00 -3.579102e+00 4.382812e+00
3.969800e+01 2.135417e-01 3.188272e-02 1.060453e+00 -3.589355e+00 4.388428e+00
4.043848e+01 2.239583e-01 3.125575e-02 1.064135e+00 -3.609131e+00 4.397461e+00
3.830981e+01 2.187500e-01 2.990595e-02 1.069447e+00 -3.617432e+00 4.399902e+00
3.879126e+01 2.239583e-01 2.963433e-02 1.070938e+00 -3.619629e+00 4.398926e+00
3.877393e+01 2.135417e-01 2.973658e-02 1.070623e+00 -3.619629e+00 4.398926e+00
3.887061e+01 2.135417e-01 2.979858e-02 1.070086e+00 -3.611328e+00 4.394531e+00
3.910278e+01 2.291667e-01 2.998456e-02 1.069862e+00 -3.612305e+00 4.397217e+00
3.898999e+01 2.239583e-01 3.020633e-02 1.069775e+00 -3.614014e+00 4.398193e+00
3.941284e+01 2.239583e-01 3.030220e-02 1.069766e+00 -3.614014e+00 4.398438e+00
3.971655e+01 2.187500e-01 3.053995e-02 1.069523e+00 -3.614258e+00 4.401611e+00
3.971655e+01 2.187500e-01 3.071826e-02 1.069354e+00 -3.614258e+00 4.401611e+00
3.850684e+01 2.187500e-01 3.018524e-02 1.069989e+00 -3.614258e+00 4.402344e+00
3.861230e+01 2.187500e-01 2.962218e-02 1.070474e+00 -3.614502e+00 4.402344e+00
3.884692e+01 2.239583e-01 2.959087e-02 1.070230e+00 -3.615479e+00 4.401123e+00
3.873950e+01 2.239583e-01 2.988422e-02 1.069992e+00 -3.618164e+00 4.404541e+00
3.992065e+01 2.239583e-01 3.031945e-02 1.069387e+00 -3.613770e+00 4.408447e+00
3.981152e+01 2.187500e-01 3.078600e-02 1.068084e+00 -3.603516e+00 4.407471e+00
3.971704e+01 2.135417e-01 3.175490e-02 1.066505e+00 -3.552002e+00 4.416748e+00
4.066895e+01 2.031250e-01 3.199840e-02 1.066460e+00 -3.557617e+00 4.423340e+00
4.003931e+01 2.187500e-01 3.198562e-02 1.066605e+00 -3.557617e+00 4.423340e+00
3.954248e+01 2.187500e-01 3.130752e-02 1.067125e+00 -3.550537e+00 4.415283e+00
3.994873e+01 2.239583e-01 3.151843e-02 1.067066e+00 -3.555908e+00 4.421143e+00
3.935938e+01 2.187500e-01 2.969760e-02 1.069860e+00 -3.571045e+00 4.424072e+00
4.089331e+01 2.187500e-01 2.987463e-02 1.069980e+00 -3.579346e+00 4.429932e+00
3.967773e+01 2.135417e-01 2.982286e-02 1.070006e+00 -3.579346e+00 4.429932e+00
4.006421e+01 2.135417e-01 2.949628e-02 1.070250e+00 -3.576904e+00 4.424561e+00
3.964160e+01 2.239583e-01 2.935248e-02 1.070521e+00 -3.578125e+00 4.425049e+00
3.941113e+01 2.083333e-01 2.940936e-02 1.071138e+00 -3.585449e+00 4.429688e+00
3.944336e+01 2.083333e-01 2.949372e-02 1.071027e+00 -3.584961e+00 4.429932e+00
4.022607e+01 2.083333e-01 3.061344e-02 1.070314e+00 -3.583984e+00 4.431641e+00
3.821045e+01 2.239583e-01 3.053356e-02 1.069640e+00 -3.565918e+00 4.430664e+00
3.913403e+01 2.187500e-01 3.009193e-02 1.069714e+00 -3.571533e+00 4.432861e+00
4.029712e+01 2.239583e-01 3.075533e-02 1.069253e+00 -3.573242e+00 4.437256e+00
4.116382e+01 2.187500e-01 3.068183e-02 1.069435e+00 -3.568359e+00 4.445801e+00
3.981592e+01 2.187500e-01 3.033224e-02 1.069659e+00 -3.558594e+00 4.439941e+00
3.946021e+01 2.187500e-01 3.018716e-02 1.069778e+00 -3.562988e+00 4.439941e+00
3.946021e+01 2.187500e-01 3.005103e-02 1.069889e+00 -3.562988e+00 4.438477e+00
3.902759e+01 2.031250e-01 2.662539e-02 1.074431e+00 -3.587402e+00 4.459229e+00
3.985767e+01 2.135417e-01 2.691107e-02 1.074376e+00 -3.589355e+00 4.464111e+00
3.907275e+01 2.239583e-01 2.865649e-02 1.075031e+00 -3.554199e+00 4.456543e+00
3.922363e+01 2.083333e-01 2.893130e-02 1.074786e+00 -3.566406e+00 4.464355e+00
3.871021e+01 2.083333e-01 2.851908e-02 1.074955e+00 -3.566406e+00 4.464355e+00
3.884790e+01 2.031250e-01 2.670464e-02 1.074822e+00 -3.593506e+00 4.468262e+00
3.916211e+01 2.031250e-01 2.681776e-02 1.075224e+00 -3.583984e+00 4.464111e+00
4.243213e+01 2.135417e-01 2.764541e-02 1.074904e+00 -3.587402e+00 4.475342e+00
4.228711e+01 2.083333e-01 2.827494e-02 1.074627e+00 -3.587402e+00 4.475342e+00
4.230835e+01 2.135417e-01 2.749394e-02 1.075609e+00 -3.596680e+00 4.477051e+00
4.017578e+01 2.135417e-01 2.706638e-02 1.076452e+00 -3.596680e+00 4.477051e+00
4.199731e+01 2.083333e-01 2.708427e-02 1.076942e+00 -3.596436e+00 4.476807e+00
4.208594e+01 2.187500e-01 2.697307e-02 1.077616e+00 -3.600098e+00 4.477783e+00
4.015186e+01 2.083333e-01 2.703953e-02 1.078319e+00 -3.600098e+00 4.477783e+00
4.237598e+01 2.187500e-01 2.718908e-02 1.078545e+00 -3.604736e+00 4.477783e+00
3.885132e+01 2.291667e-01 2.659982e-02 1.078946e+00 -3.602783e+00 4.475342e+00
3.879639e+01 2.395833e-01 2.569868e-02 1.079527e+00 -3.586914e+00 4.458252e+00
3.870752e+01 2.239583e-01 2.656339e-02 1.078752e+00 -3.600586e+00 4.475098e+00
3.990308e+01 2.135417e-01 2.667204e-02 1.078430e+00 -3.588135e+00 4.473145e+00
4.044482e+01 2.135417e-01 2.705487e-02 1.078205e+00 -3.588867e+00 4.474365e+00
4.044482e+01 2.135417e-01 2.710472e-02 1.078190e+00 -3.588867e+00 4.474365e+00
3.894043e+01 2.239583e-01 2.631862e-02 1.078692e+00 -3.580811e+00 4.465088e+00
3.894043e+01 2.239583e-01 2.631862e-02 1.078692e+00 -3.580811e+00 4.465088e+00
3.906396e+01 2.083333e-01 2.664776e-02 1.078518e+00 -3.585449e+00 4.470703e+00
3.931128e+01 2.135417e-01 2.709066e-02 1.078292e+00 -3.587158e+00 4.472900e+00
3.854639e+01 2.083333e-01 2.667013e-02 1.078760e+00 -3.583740e+00 4.467285e+00
3.767456e+01 2.187500e-01 2.619846e-02 1.079627e+00 -3.586426e+00 4.464111e+00
3.832520e+01 2.083333e-01 2.647967e-02 1.079643e+00 -3.596680e+00 4.479248e+00
3.879370e+01 2.083333e-01 2.585079e-02 1.080257e+00 -3.552734e+00 4.466553e+00
3.904443e+01 2.083333e-01 2.611282e-02 1.080167e+00 -3.554932e+00 4.469238e+00
3.799170e+01 2.135417e-01 2.572808e-02 1.081642e+00 -3.543213e+00 4.465820e+00
3.857520e+01 2.187500e-01 2.596646e-02 1.081469e+00 -3.547852e+00 4.471924e+00
4.096094e+01 2.187500e-01 2.610323e-02 1.081143e+00 -3.563232e+00 4.481445e+00
4.054883e+01 2.187500e-01 2.600481e-02 1.081005e+00 -3.563232e+00 4.481445e+00
3.885181e+01 2.239583e-01 2.556319e-02 1.081322e+00 -3.557373e+00 4.475098e+00
3.890625e+01 2.239583e-01 2.564052e-02 1.081316e+00 -3.557617e+00 4.475830e+00
3.995093e+01 2.031250e-01 2.766203e-02 1.082626e+00 -3.571777e+00 4.476318e+00
4.020923e+01 2.031250e-01 2.751439e-02 1.082742e+00 -3.574219e+00 4.477295e+00
4.029614e+01 2.031250e-01 2.708555e-02 1.083101e+00 -3.576904e+00 4.478271e+00
3.995825e+01 2.031250e-01 2.675641e-02 1.083389e+00 -3.577148e+00 4.479004e+00
3.894507e+01 2.135417e-01 2.684524e-02 1.083993e+00 -3.575928e+00 4.478271e+00
3.864087e+01 2.135417e-01 2.685291e-02 1.084278e+00 -3.573975e+00 4.477295e+00
3.903784e+01 2.135417e-01 2.698713e-02 1.084182e+00 -3.575439e+00 4.479492e+00
3.903784e+01 2.135417e-01 2.701908e-02 1.084167e+00 -3.575439e+00 4.479492e+00
3.850537e+01 2.187500e-01 2.683310e-02 1.084263e+00 -3.575439e+00 4.479492e+00
3.949390e+01 2.135417e-01 2.651163e-02 1.084491e+00 -3.578613e+00 4.480957e+00
3.916016e+01 2.135417e-01 2.637550e-02 1.084775e+00 -3.581787e+00 4.480957e+00
3.916016e+01 2.135417e-01 2.623425e-02 1.085063e+00 -3.581787e+00 4.480469e+00
3.952075e+01 2.135417e-01 2.633907e-02 1.084968e+00 -3.582520e+00 4.481689e+00
3.930493e+01 2.135417e-01 2.624959e-02 1.085057e+00 -3.582275e+00 4.481201e+00
3.901392e+01 2.135417e-01 2.623297e-02 1.085222e+00 -3.580078e+00 4.481689e+00
3.911475e+01 2.135417e-01 2.633907e-02 1.085155e+00 -3.581787e+00 4.483398e+00
3.955029e+01 2.135417e-01 2.635568e-02 1.085144e+00 -3.582275e+00 4.483887e+00
3.901880e+01 2.135417e-01 2.630008e-02 1.085179e+00 -3.582275e+00 4.483887e+00
3.911401e+01 2.135417e-01 2.619718e-02 1.085247e+00 -3.580811e+00 4.481934e+00
3.915430e+01 2.135417e-01 2.614478e-02 1.085304e+00 -3.581299e+00 4.481934e+00
3.950049e+01 2.135417e-01 2.622594e-02 1.085254e+00 -3.582764e+00 4.483643e+00
3.958472e+01 2.135417e-01 2.631478e-02 1.085186e+00 -3.582764e+00 4.483887e+00
3.868335e+01 2.187500e-01 2.619782e-02 1.085253e+00 -3.581543e+00 4.483643e+00
3.961353e+01 2.083333e-01 2.621636e-02 1.085125e+00 -3.580078e+00 4.484131e+00
3.941309e+01 2.031250e-01 2.637997e-02 1.084808e+00 -3.579590e+00 4.484863e+00
3.937109e+01 2.083333e-01 2.617162e-02 1.085110e+00 -3.580566e+00 4.484863e+00
3.848047e+01 2.031250e-01 2.504806e-02 1.086631e+00 -3.582031e+00 4.481689e+00
3.823242e+01 1.979167e-01 2.523532e-02 1.086572e+00 -3.585205e+00 4.486816e+00
3.845728e+01 2.031250e-01 2.504934e-02 1.086953e+00 -3.588135e+00 4.487793e+00
3.845728e+01 2.031250e-01 2.509024e-02 1.086942e+00 -3.588135e+00 4.487793e+00
3.939722e+01 2.239583e-01 2.517013e-02 1.086892e+00 -3.589600e+00 4.488037e+00
3.952710e+01 2.239583e-01 2.522062e-02 1.086857e+00 -3.589600e+00 4.486816e+00
3.911353e+01 2.187500e-01 2.515927e-02 1.086907e+00 -3.588623e+00 4.485107e+00
4.023169e+01 1.979167e-01 2.541683e-02 1.086375e+00 -3.587646e+00 4.492188e+00
4.047656e+01 1.979167e-01 2.566416e-02 1.085935e+00 -3.584961e+00 4.492432e+00
3.938794e+01 1.979167e-01 2.547882e-02 1.086128e+00 -3.583008e+00 4.491211e+00
3.915942e+01 2.031250e-01 2.547818e-02 1.086189e+00 -3.582275e+00 4.491211e+00
3.851343e+01 1.979167e-01 2.484930e-02 1.087091e+00 -3.587158e+00 4.491699e+00
3.976440e+01 2.031250e-01 2.454636e-02 1.087765e+00 -3.591309e+00 4.496826e+00
3.943652e+01 2.031250e-01 2.468249e-02 1.087919e+00 -3.589600e+00 4.494385e+00
4.014575e+01 2.031250e-01 2.508769e-02 1.087621e+00 -3.591309e+00 4.497803e+00
3.975488e+01 2.083333e-01 2.636399e-02 1.090385e+00 -3.586182e+00 4.538574e+00
3.921338e+01 2.187500e-01 2.750736e-02 1.094053e+00 -3.579102e+00 4.539795e+00
3.922412e+01 2.083333e-01 2.750864e-02 1.094153e+00 -3.578125e+00 4.540039e+00
3.886255e+01 2.135417e-01 2.739360e-02 1.094221e+00 -3.579590e+00 4.540039e+00
3.914893e+01 2.187500e-01 2.726067e-02 1.094313e+00 -3.580322e+00 4.537354e+00
3.910840e+01 2.135417e-01 2.729326e-02 1.094302e+00 -3.580322e+00 4.538818e+00
3.910840e+01 2.135417e-01 2.733736e-02 1.094277e+00 -3.577637e+00 4.538818e+00
3.852759e+01 2.239583e-01 2.565266e-02 1.100594e+00 -3.622314e+00 4.530029e+00
4.009546e+01 2.083333e-01 2.575939e-02 1.100009e+00 -3.612305e+00 4.536377e+00
4.065479e+01 2.031250e-01 2.478986e-02 1.100937e+00 -3.626709e+00 4.539307e+00
3.864819e+01 2.083333e-01 2.474065e-02 1.100512e+00 -3.620361e+00 4.536865e+00
3.896045e+01 2.083333e-01 2.465565e-02 1.100435e+00 -3.616699e+00 4.533203e+00
4.041406e+01 2.031250e-01 2.469335e-02 1.100515e+00 -3.618896e+00 4.538330e+00
4.041406e+01 2.031250e-01 2.474896e-02 1.100551e+00 -3.618896e+00 4.538330e+00
3.829956e+01 2.083333e-01 2.439042e-02 1.100851e+00 -3.619385e+00 4.536865e+00
4.063208e+01 2.031250e-01 2.457576e-02 1.100652e+00 -3.619385e+00 4.539062e+00
4.008423e+01 2.083333e-01 2.466523e-02 1.100618e+00 -3.619385e+00 4.539062e+00
3.918701e+01 2.083333e-01 2.431436e-02 1.100866e+00 -3.617188e+00 4.535645e+00
4.049951e+01 2.031250e-01 2.462305e-02 1.100534e+00 -3.617188e+00 4.537598e+00
3.901831e+01 2.083333e-01 2.444091e-02 1.100612e+00 -3.616455e+00 4.537354e+00
3.865283e+01 2.239583e-01 2.399992e-02 1.100888e+00 -3.618896e+00 4.532959e+00
3.980054e+01 2.083333e-01 2.429774e-02 1.100630e+00 -3.616211e+00 4.537598e+00
4.009814e+01 2.083333e-01 2.438786e-02 1.100097e+00 -3.612549e+00 4.538086e+00
4.118018e+01 2.083333e-01 2.529987e-02 1.098784e+00 -3.603271e+00 4.544189e+00
3.989355e+01 2.083333e-01 2.492791e-02 1.098959e+00 -3.598633e+00 4.539551e+00
3.999634e+01 2.083333e-01 2.496498e-02 1.098926e+00 -3.599365e+00 4.540771e+00
3.996582e+01 2.083333e-01 2.458726e-02 1.100726e+00 -3.613525e+00 4.541016e+00
3.824731e+01 2.187500e-01 2.419549e-02 1.101121e+00 -3.615479e+00 4.540771e+00
4.061426e+01 2.083333e-01 2.421913e-02 1.100962e+00 -3.615479e+00 4.542725e+00
4.100098e+01 2.083333e-01 2.381330e-02 1.100046e+00 -3.613281e+00 4.544922e+00
3.860278e+01 2.395833e-01 2.266673e-02 1.099895e+00 -3.604980e+00 4.533447e+00
4.238208e+01 2.291667e-01 2.329050e-02 1.099587e+00 -3.620605e+00 4.549805e+00
4.037720e+01 2.031250e-01 2.344133e-02 1.099554e+00 -3.620605e+00 4.549805e+00
3.829883e+01 2.239583e-01 2.249161e-02 1.100331e+00 -3.605713e+00 4.532227e+00
4.234546e+01 2.239583e-01 2.345795e-02 1.099712e+00 -3.618164e+00 4.548828e+00
4.244287e+01 2.187500e-01 2.389319e-02 1.099419e+00 -3.618164e+00 4.548828e+00
3.905078e+01 2.135417e-01 2.356788e-02 1.099696e+00 -3.617676e+00 4.548340e+00
4.206055e+01 2.395833e-01 2.654039e-02 1.094397e+00 -3.610107e+00 4.541016e+00
4.036353e+01 2.187500e-01 2.963433e-02 1.089121e+00 -3.555908e+00 4.531982e+00
3.952246e+01 2.135417e-01 2.922146e-02 1.089801e+00 -3.545410e+00 4.522949e+00
4.016162e+01 2.135417e-01 2.971741e-02 1.089628e+00 -3.546387e+00 4.527100e+00
4.034009e+01 2.187500e-01 2.973850e-02 1.089639e+00 -3.546631e+00 4.527344e+00
3.945923e+01 2.187500e-01 2.949692e-02 1.089899e+00 -3.546631e+00 4.527344e+00
4.044824e+01 2.031250e-01 2.917800e-02 1.090777e+00 -3.549316e+00 4.536377e+00
3.984790e+01 2.083333e-01 2.913454e-02 1.091223e+00 -3.549316e+00 4.536377e+00
4.040674e+01 2.031250e-01 2.925342e-02 1.091395e+00 -3.552246e+00 4.538086e+00
3.894922e+01 2.031250e-01 2.902270e-02 1.091665e+00 -3.552246e+00 4.538086e+00
4.123364e+01 2.031250e-01 2.760962e-02 1.095827e+00 -3.566406e+00 4.550049e+00
3.937012e+01 2.239583e-01 2.456425e-02 1.104457e+00 -3.635742e+00 4.550049e+00
3.932178e+01 2.187500e-01 2.403954e-02 1.105489e+00 -3.635742e+00 4.548096e+00
4.031396e+01 2.135417e-01 2.396796e-02 1.104092e+00 -3.615967e+00 4.552490e+00
4.045435e+01 2.135417e-01 2.402165e-02 1.103763e+00 -3.605469e+00 4.552734e+00
3.880981e+01 2.343750e-01 2.245966e-02 1.103238e+00 -3.606201e+00 4.552246e+00
3.880981e+01 2.343750e-01 2.091812e-02 1.102683e+00 -3.589111e+00 4.551270e+00
3.996655e+01 2.031250e-01 2.147159e-02 1.102459e+00 -3.588135e+00 4.561768e+00
3.884302e+01 2.291667e-01 2.166460e-02 1.102485e+00 -3.590576e+00 4.561768e+00
3.884302e+01 2.291667e-01 2.138340e-02 1.102700e+00 -3.590576e+00 4.550049e+00
3.898828e+01 2.343750e-01 2.140832e-02 1.102680e+00 -3.590576e+00 4.550781e+00
3.867529e+01 2.239583e-01 2.157513e-02 1.102582e+00 -3.586182e+00 4.552979e+00
3.918921e+01 2.343750e-01 2.156746e-02 1.102675e+00 -3.594482e+00 4.559082e+00
3.889087e+01 2.343750e-01 2.123704e-02 1.103043e+00 -3.594482e+00 4.551270e+00
3.863257e+01 2.291667e-01 2.156235e-02 1.102616e+00 -3.582275e+00 4.557373e+00
3.863257e+01 2.291667e-01 2.134505e-02 1.102588e+00 -3.582275e+00 4.552246e+00
4.017944e+01 2.083333e-01 2.176367e-02 1.102263e+00 -3.582275e+00 4.562012e+00
4.116357e+01 2.135417e-01 2.232672e-02 1.101882e+00 -3.565918e+00 4.565674e+00
3.894604e+01 2.135417e-01 2.216950e-02 1.102108e+00 -3.572998e+00 4.565674e+00
3.850757e+01 2.187500e-01 1.993517e-02 1.104166e+00 -3.583008e+00 4.560791e+00
3.913037e+01 2.187500e-01 2.008089e-02 1.103992e+00 -3.579346e+00 4.562744e+00
3.905957e+01 2.187500e-01 2.008408e-02 1.103981e+00 -3.579346e+00 4.562744e+00
3.905957e+01 2.187500e-01 2.008728e-02 1.103970e+00 -3.579102e+00 4.562744e+00
4.089648e+01 2.031250e-01 2.088361e-02 1.103286e+00 -3.561523e+00 4.573242e+00
3.873413e+01 2.187500e-01 2.006299e-02 1.104061e+00 -3.580322e+00 4.561279e+00
3.918604e+01 2.083333e-01 2.011412e-02 1.104024e+00 -3.580322e+00 4.562988e+00
4.012158e+01 2.031250e-01 2.017292e-02 1.104494e+00 -3.578125e+00 4.570557e+00
4.264551e+01 2.343750e-01 2.069443e-02 1.105716e+00 -3.578125e+00 4.578125e+00
4.161719e+01 2.083333e-01 2.096861e-02 1.106367e+00 -3.586670e+00 4.581543e+00
3.929517e+01 2.083333e-01 2.123704e-02 1.107092e+00 -3.594727e+00 4.581543e+00
3.889893e+01 2.239583e-01 2.005532e-02 1.108082e+00 -3.608154e+00 4.564209e+00
3.836523e+01 2.083333e-01 2.030649e-02 1.107794e+00 -3.604248e+00 4.569824e+00
3.886206e+01 2.083333e-01 2.051548e-02 1.107608e+00 -3.596680e+00 4.571289e+00
3.858203e+01 2.135417e-01 2.049183e-02 1.107544e+00 -3.598389e+00 4.571289e+00
3.881592e+01 2.135417e-01 2.085102e-02 1.107165e+00 -3.598389e+00 4.571533e+00
3.863257e+01 2.239583e-01 2.053338e-02 1.107343e+00 -3.593262e+00 4.564453e+00
3.877002e+01 2.291667e-01 2.102613e-02 1.107151e+00 -3.590576e+00 4.572754e+00
3.876831e+01 2.291667e-01 2.092004e-02 1.107350e+00 -3.590576e+00 4.566406e+00
3.906860e+01 2.135417e-01 2.123257e-02 1.106801e+00 -3.588379e+00 4.573242e+00
4.058618e+01 2.135417e-01 2.159558e-02 1.106245e+00 -3.572021e+00 4.578857e+00
4.164648e+01 2.447917e-01 2.418270e-02 1.105029e+00 -3.522217e+00 4.602539e+00
4.056567e+01 2.031250e-01 2.343878e-02 1.105554e+00 -3.535156e+00 4.596436e+00
4.078052e+01 2.031250e-01 2.341641e-02 1.105566e+00 -3.535156e+00 4.598633e+00
4.090601e+01 2.031250e-01 2.355126e-02 1.105508e+00 -3.531494e+00 4.598633e+00
3.879395e+01 1.979167e-01 2.131118e-02 1.107781e+00 -3.557861e+00 4.599365e+00
3.879395e+01 1.979167e-01 2.097309e-02 1.108147e+00 -3.557861e+00 4.598633e+00
4.024487e+01 2.083333e-01 2.269485e-02 1.108690e+00 -3.560791e+00 4.606934e+00
4.109277e+01 2.083333e-01 2.421849e-02 1.109128e+00 -3.551514e+00 4.602295e+00
4.032983e+01 2.083333e-01 2.399225e-02 1.109304e+00 -3.555420e+00 4.600342e+00
3.954858e+01 2.135417e-01 2.308982e-02 1.110086e+00 -3.572266e+00 4.590820e+00
4.086475e+01 2.031250e-01 2.339788e-02 1.110073e+00 -3.568848e+00 4.602051e+00
4.075439e+01 2.083333e-01 2.355574e-02 1.109999e+00 -3.560547e+00 4.602051e+00
3.876587e+01 2.239583e-01 2.271403e-02 1.110398e+00 -3.567627e+00 4.597656e+00
3.880762e+01 2.083333e-01 2.248203e-02 1.110303e+00 -3.558594e+00 4.591553e+00
3.934985e+01 1.979167e-01 2.281564e-02 1.110104e+00 -3.549805e+00 4.593506e+00
4.091187e+01 2.031250e-01 2.476430e-02 1.110374e+00 -3.546631e+00 4.598389e+00
3.961548e+01 2.239583e-01 2.560792e-02 1.111015e+00 -3.545898e+00 4.598389e+00
3.976904e+01 2.187500e-01 2.515543e-02 1.111711e+00 -3.549561e+00 4.588379e+00
3.965723e+01 2.239583e-01 2.527814e-02 1.111636e+00 -3.549561e+00 4.590332e+00
3.901831e+01 2.395833e-01 2.526919e-02 1.112285e+00 -3.558594e+00 4.581299e+00
3.969043e+01 2.135417e-01 2.579710e-02 1.112043e+00 -3.548340e+00 4.588379e+00
3.940210e+01 2.187500e-01 2.590575e-02 1.111979e+00 -3.546387e+00 4.589844e+00
3.901123e+01 2.135417e-01 2.594729e-02 1.112026e+00 -3.547119e+00 4.589844e+00
3.902148e+01 2.135417e-01 2.598116e-02 1.112083e+00 -3.546875e+00 4.590088e+00
3.902100e+01 2.135417e-01 2.599139e-02 1.112033e+00 -3.546875e+00 4.589600e+00
3.945801e+01 2.083333e-01 2.658960e-02 1.111648e+00 -3.537354e+00 4.594727e+00
3.996533e+01 2.083333e-01 2.652441e-02 1.111689e+00 -3.536621e+00 4.595947e+00
3.882910e+01 2.083333e-01 2.602910e-02 1.112131e+00 -3.546875e+00 4.590820e+00
3.744922e+01 2.031250e-01 2.669569e-02 1.112382e+00 -3.555908e+00 4.583252e+00
3.993750e+01 2.135417e-01 2.727856e-02 1.112478e+00 -3.554199e+00 4.588135e+00
3.818872e+01 2.187500e-01 2.757639e-02 1.112856e+00 -3.566895e+00 4.588135e+00
3.970068e+01 2.135417e-01 2.689126e-02 1.115295e+00 -3.580811e+00 4.593262e+00
4.082935e+01 2.187500e-01 2.675960e-02 1.117159e+00 -3.580811e+00 4.598389e+00
3.774438e+01 2.239583e-01 2.556191e-02 1.118160e+00 -3.599854e+00 4.588135e+00
4.171069e+01 2.187500e-01 2.596391e-02 1.117869e+00 -3.593018e+00 4.601562e+00
3.883545e+01 2.187500e-01 2.585079e-02 1.118028e+00 -3.589355e+00 4.601562e+00
3.728809e+01 2.031250e-01 2.497776e-02 1.118835e+00 -3.599121e+00 4.589600e+00
3.884424e+01 2.135417e-01 2.538999e-02 1.118538e+00 -3.595215e+00 4.596436e+00
4.155273e+01 2.187500e-01 2.617801e-02 1.117935e+00 -3.576172e+00 4.602539e+00
3.784229e+01 2.031250e-01 2.576131e-02 1.118134e+00 -3.588867e+00 4.602295e+00
3.870142e+01 2.187500e-01 2.559961e-02 1.118111e+00 -3.588867e+00 4.599854e+00
3.915552e+01 2.083333e-01 2.591789e-02 1.117778e+00 -3.577881e+00 4.601562e+00
4.137891e+01 2.239583e-01 2.659727e-02 1.117773e+00 -3.567627e+00 4.607178e+00
3.837915e+01 2.343750e-01 2.512092e-02 1.118387e+00 -3.589111e+00 4.590332e+00
3.785889e+01 2.187500e-01 2.573063e-02 1.117848e+00 -3.578369e+00 4.599609e+00
3.761108e+01 2.187500e-01 2.549097e-02 1.117903e+00 -3.578369e+00 4.596436e+00
3.919116e+01 2.083333e-01 2.593770e-02 1.117670e+00 -3.573975e+00 4.603516e+00
4.007642e+01 2.135417e-01 2.625343e-02 1.117476e+00 -3.566162e+00 4.605957e+00
3.939868e+01 2.187500e-01 2.619527e-02 1.117610e+00 -3.568359e+00 4.604980e+00
3.882007e+01 2.187500e-01 2.618951e-02 1.117259e+00 -3.552246e+00 4.606201e+00
3.941553e+01 2.135417e-01 3.393938e-02 1.121795e+00 -3.616699e+00 4.588379e+00
4.108789e+01 2.187500e-01 3.541701e-02 1.122283e+00 -3.613281e+00 4.591553e+00
3.986670e+01 2.239583e-01 3.460981e-02 1.121576e+00 -3.615479e+00 4.589111e+00
3.969409e+01 2.239583e-01 2.998584e-02 1.111468e+00 -3.487793e+00 4.563477e+00
3.844434e+01 2.187500e-01 2.968354e-02 1.111252e+00 -3.491943e+00 4.577148e+00
3.821973e+01 2.135417e-01 2.886675e-02 1.111957e+00 -3.490967e+00 4.572021e+00
3.858740e+01 2.135417e-01 2.879389e-02 1.112393e+00 -3.490967e+00 4.568604e+00
4.121094e+01 1.979167e-01 2.928921e-02 1.112939e+00 -3.490723e+00 4.580078e+00
3.911450e+01 2.083333e-01 2.816245e-02 1.117668e+00 -3.528809e+00 4.580078e+00
3.941382e+01 2.083333e-01 2.831264e-02 1.117920e+00 -3.526611e+00 4.581055e+00
3.946289e+01 2.083333e-01 2.839189e-02 1.117953e+00 -3.525635e+00 4.581543e+00
3.953345e+01 2.083333e-01 2.840979e-02 1.117948e+00 -3.525391e+00 4.581787e+00
3.832471e+01 2.083333e-01 2.798158e-02 1.118412e+00 -3.534668e+00 4.577148e+00
3.856738e+01 2.083333e-01 2.843280e-02 1.118134e+00 -3.530762e+00 4.579346e+00
3.857495e+01 2.083333e-01 2.858363e-02 1.118083e+00 -3.528564e+00 4.579346e+00
3.857007e+01 2.083333e-01 2.857468e-02 1.118102e+00 -3.528564e+00 4.579590e+00
3.857007e+01 2.083333e-01 2.858107e-02 1.118115e+00 -3.528564e+00 4.579590e+00
3.862378e+01 2.083333e-01 2.846411e-02 1.118265e+00 -3.534668e+00 4.579590e+00
3.871973e+01 2.031250e-01 2.857148e-02 1.118985e+00 -3.535645e+00 4.583008e+00
3.859546e+01 2.031250e-01 2.862517e-02 1.119055e+00 -3.534912e+00 4.583008e+00
3.912817e+01 2.083333e-01 2.843471e-02 1.119221e+00 -3.541260e+00 4.582031e+00
3.862769e+01 2.083333e-01 2.845197e-02 1.119289e+00 -3.535400e+00 4.581787e+00
3.912036e+01 2.135417e-01 2.850438e-02 1.119805e+00 -3.545654e+00 4.577637e+00
3.916504e+01 2.135417e-01 2.879645e-02 1.119674e+00 -3.541260e+00 4.584717e+00
3.954224e+01 2.187500e-01 2.839573e-02 1.119744e+00 -3.530029e+00 4.589355e+00
3.800293e+01 2.135417e-01 2.811771e-02 1.119942e+00 -3.538574e+00 4.589355e+00
3.982129e+01 2.135417e-01 2.812666e-02 1.119638e+00 -3.516602e+00 4.593750e+00
3.987671e+01 2.187500e-01 2.634801e-02 1.124064e+00 -3.545410e+00 4.604004e+00
3.889136e+01 2.083333e-01 2.654486e-02 1.124573e+00 -3.553467e+00 4.604004e+00
3.950342e+01 2.135417e-01 3.229047e-02 1.130316e+00 -3.588379e+00 4.623779e+00
3.833301e+01 2.135417e-01 3.286312e-02 1.131407e+00 -3.598633e+00 4.623779e+00
3.783667e+01 2.083333e-01 3.128451e-02 1.131807e+00 -3.599365e+00 4.612061e+00
3.849902e+01 2.291667e-01 3.091319e-02 1.131102e+00 -3.582275e+00 4.624512e+00
3.955469e+01 2.083333e-01 2.975704e-02 1.131228e+00 -3.581299e+00 4.621094e+00
3.955469e+01 2.083333e-01 3.005230e-02 1.130999e+00 -3.567871e+00 4.621094e+00
3.956152e+01 2.083333e-01 3.005742e-02 1.130991e+00 -3.567627e+00 4.621338e+00
3.965796e+01 2.083333e-01 2.998328e-02 1.131020e+00 -3.567871e+00 4.621582e+00
3.864795e+01 2.187500e-01 2.729518e-02 1.132361e+00 -3.567871e+00 4.634766e+00
3.856274e+01 2.187500e-01 2.454828e-02 1.133830e+00 -3.565430e+00 4.635010e+00
4.026123e+01 2.083333e-01 2.526664e-02 1.133515e+00 -3.554688e+00 4.641602e+00
3.877539e+01 2.083333e-01 2.475982e-02 1.133892e+00 -3.563721e+00 4.636475e+00
3.826294e+01 2.291667e-01 2.362668e-02 1.135413e+00 -3.586182e+00 4.628174e+00
3.841650e+01 2.239583e-01 2.427665e-02 1.135046e+00 -3.582031e+00 4.639893e+00
3.879639e+01 2.083333e-01 2.422552e-02 1.135301e+00 -3.576172e+00 4.632324e+00
3.841382e+01 2.031250e-01 2.413541e-02 1.135437e+00 -3.573486e+00 4.633301e+00
3.831470e+01 2.031250e-01 2.385420e-02 1.135656e+00 -3.573486e+00 4.633301e+00
3.831470e+01 2.031250e-01 2.386315e-02 1.135646e+00 -3.572754e+00 4.633301e+00
3.850781e+01 2.031250e-01 2.378773e-02 1.135707e+00 -3.573730e+00 4.632812e+00
3.925513e+01 2.083333e-01 2.458662e-02 1.135339e+00 -3.573242e+00 4.635742e+00
4.122339e+01 2.031250e-01 2.892747e-02 1.135237e+00 -3.555176e+00 4.639160e+00
4.048828e+01 2.083333e-01 3.090999e-02 1.135332e+00 -3.555176e+00 4.639160e+00
3.942310e+01 2.083333e-01 3.066841e-02 1.135644e+00 -3.552246e+00 4.636719e+00
3.902930e+01 2.031250e-01 3.056615e-02 1.135978e+00 -3.549316e+00 4.635254e+00
3.902930e+01 2.031250e-01 3.053036e-02 1.136112e+00 -3.547119e+00 4.634521e+00
3.863428e+01 2.239583e-01 3.057702e-02 1.137161e+00 -3.547607e+00 4.635254e+00
3.881152e+01 2.187500e-01 3.031115e-02 1.139502e+00 -3.549805e+00 4.641113e+00
3.889990e+01 2.239583e-01 2.945793e-02 1.140864e+00 -3.551514e+00 4.642334e+00
3.958496e+01 2.031250e-01 3.011877e-02 1.140743e+00 -3.556641e+00 4.645996e+00
4.019141e+01 2.135417e-01 3.078345e-02 1.140789e+00 -3.558350e+00 4.647461e+00
4.014502e+01 2.135417e-01 3.074255e-02 1.140889e+00 -3.559082e+00 4.648438e+00
3.940039e+01 2.500000e-01 2.898627e-02 1.142322e+00 -3.557373e+00 4.640137e+00
3.952856e+01 2.343750e-01 2.907830e-02 1.142255e+00 -3.557373e+00 4.643311e+00
3.923950e+01 2.239583e-01 2.945218e-02 1.142035e+00 -3.558105e+00 4.649170e+00
3.932617e+01 2.031250e-01 2.958448e-02 1.142025e+00 -3.547852e+00 4.649170e+00
3.899097e+01 2.083333e-01 3.007915e-02 1.142305e+00 -3.544922e+00 4.641846e+00
3.884302e+01 2.031250e-01 3.015328e-02 1.142253e+00 -3.546631e+00 4.643555e+00
4.022998e+01 2.135417e-01 3.035780e-02 1.142030e+00 -3.548584e+00 4.645508e+00
4.022998e+01 2.135417e-01 3.054826e-02 1.141831e+00 -3.548584e+00 4.645508e+00
3.928516e+01 2.031250e-01 2.482054e-02 1.146623e+00 -3.585205e+00 4.648438e+00
3.921777e+01 2.031250e-01 2.517013e-02 1.146691e+00 -3.587646e+00 4.650146e+00
3.904370e+01 1.927083e-01 2.559898e-02 1.147017e+00 -3.584961e+00 4.652832e+00
3.946777e+01 1.979167e-01 2.588658e-02 1.146975e+00 -3.582275e+00 4.654541e+00
3.892090e+01 2.291667e-01 2.621572e-02 1.147135e+00 -3.588623e+00 4.654541e+00
3.895361e+01 2.083333e-01 2.656531e-02 1.147233e+00 -3.588623e+00 4.650635e+00
3.912891e+01 2.083333e-01 2.746710e-02 1.146717e+00 -3.580566e+00 4.653564e+00
3.899634e+01 2.031250e-01 2.780008e-02 1.146508e+00 -3.573486e+00 4.653564e+00
3.822705e+01 1.979167e-01 2.692194e-02 1.146912e+00 -3.580322e+00 4.648193e+00
3.851343e+01 2.031250e-01 2.782053e-02 1.146834e+00 -3.575195e+00 4.651611e+00
3.988062e+01 2.031250e-01 2.789850e-02 1.146518e+00 -3.567383e+00 4.656738e+00
3.845386e+01 2.083333e-01 2.750928e-02 1.146876e+00 -3.577881e+00 4.655762e+00
3.845386e+01 2.083333e-01 2.727089e-02 1.147067e+00 -3.577881e+00 4.650879e+00
3.849780e+01 2.083333e-01 2.730285e-02 1.147060e+00 -3.577637e+00 4.650879e+00
3.849780e+01 2.083333e-01 2.730285e-02 1.147060e+00 -3.577637e+00 4.650879e+00
3.839624e+01 2.187500e-01 2.747988e-02 1.146888e+00 -3.571289e+00 4.656250e+00
3.944751e+01 2.135417e-01 2.747029e-02 1.146688e+00 -3.571289e+00 4.657959e+00
3.888354e+01 2.135417e-01 2.750864e-02 1.147154e+00 -3.565674e+00 4.657959e+00
3.951831e+01 1.979167e-01 2.802440e-02 1.147448e+00 -3.567139e+00 4.659424e+00
3.891943e+01 2.083333e-01 2.864882e-02 1.148320e+00 -3.575195e+00 4.657959e+00
3.798999e+01 2.083333e-01 2.950778e-02 1.154765e+00 -3.620605e+00 4.666016e+00
3.853247e+01 2.031250e-01 2.921379e-02 1.154494e+00 -3.619385e+00 4.668213e+00
3.927441e+01 2.135417e-01 2.648734e-02 1.152316e+00 -3.564941e+00 4.676270e+00
4.018091e+01 2.135417e-01 2.680306e-02 1.151856e+00 -3.564941e+00 4.679443e+00
3.870654e+01 2.239583e-01 2.647072e-02 1.151931e+00 -3.562256e+00 4.679443e+00
3.870654e+01 2.239583e-01 2.582266e-02 1.152466e+00 -3.562256e+00 4.676270e+00
3.894702e+01 2.291667e-01 2.635249e-02 1.153071e+00 -3.578613e+00 4.676270e+00
3.848096e+01 1.979167e-01 2.716863e-02 1.153567e+00 -3.578613e+00 4.676758e+00
3.846826e+01 2.083333e-01 2.668930e-02 1.154893e+00 -3.586182e+00 4.672852e+00
3.833960e+01 1.927083e-01 2.712837e-02 1.154703e+00 -3.584229e+00 4.679688e+00
3.894507e+01 1.927083e-01 2.745368e-02 1.154540e+00 -3.575195e+00 4.681396e+00
3.961719e+01 2.031250e-01 2.684588e-02 1.153790e+00 -3.564697e+00 4.694336e+00
3.966821e+01 2.031250e-01 2.708811e-02 1.153543e+00 -3.541260e+00 4.694336e+00
3.811987e+01 2.135417e-01 2.648478e-02 1.154570e+00 -3.559326e+00 4.686768e+00
4.005493e+01 1.979167e-01 2.686953e-02 1.154687e+00 -3.558350e+00 4.697021e+00
3.805029e+01 1.979167e-01 2.680881e-02 1.155037e+00 -3.562744e+00 4.697021e+00
3.810571e+01 2.031250e-01 2.648926e-02 1.155319e+00 -3.562744e+00 4.689941e+00
3.840503e+01 2.031250e-01 2.655509e-02 1.155300e+00 -3.561768e+00 4.690674e+00
3.810205e+01 1.979167e-01 2.663945e-02 1.155303e+00 -3.560059e+00 4.691162e+00
3.780957e+01 2.187500e-01 2.653847e-02 1.155640e+00 -3.572754e+00 4.691162e+00
3.819702e+01 2.187500e-01 2.645794e-02 1.155976e+00 -3.572754e+00 4.685791e+00
3.895581e+01 2.083333e-01 2.670592e-02 1.155885e+00 -3.571533e+00 4.690186e+00
3.807251e+01 1.979167e-01 2.505317e-02 1.160813e+00 -3.593750e+00 4.695068e+00
4.024561e+01 2.083333e-01 2.477708e-02 1.163126e+00 -3.607422e+00 4.703857e+00
3.952515e+01 2.083333e-01 2.486400e-02 1.163327e+00 -3.603027e+00 4.702393e+00
3.894629e+01 2.135417e-01 2.518227e-02 1.163709e+00 -3.604980e+00 4.695068e+00
3.941064e+01 1.979167e-01 2.542450e-02 1.163582e+00 -3.604980e+00 4.699707e+00
4.091504e+01 2.083333e-01 2.707916e-02 1.162205e+00 -3.595459e+00 4.705078e+00
3.918701e+01 2.031250e-01 2.590255e-02 1.162939e+00 -3.597656e+00 4.695068e+00
3.918701e+01 2.031250e-01 2.600801e-02 1.162911e+00 -3.595703e+00 4.695068e+00
3.904321e+01 2.031250e-01 2.601120e-02 1.162909e+00 -3.595703e+00 4.695312e+00
3.891211e+01 2.083333e-01 2.620230e-02 1.162833e+00 -3.595459e+00 4.698242e+00
3.868506e+01 2.083333e-01 3.248476e-02 1.162452e+00 -3.581787e+00 4.698730e+00
3.956226e+01 2.031250e-01 3.165903e-02 1.163066e+00 -3.587158e+00 4.699951e+00
3.868115e+01 1.979167e-01 2.817715e-02 1.165638e+00 -3.616943e+00 4.699951e+00
3.851050e+01 1.927083e-01 2.559578e-02 1.167556e+00 -3.616943e+00 4.699951e+00
3.866577e+01 2.083333e-01 2.590767e-02 1.167783e+00 -3.614502e+00 4.700195e+00
3.975977e+01 2.135417e-01 2.613072e-02 1.167659e+00 -3.610352e+00 4.704590e+00
3.975977e+01 2.135417e-01 2.618696e-02 1.167495e+00 -3.601807e+00 4.704590e+00
4.129663e+01 2.135417e-01 2.644452e-02 1.167350e+00 -3.601807e+00 4.708252e+00
3.854517e+01 2.083333e-01 2.627196e-02 1.167528e+00 -3.609863e+00 4.708252e+00
3.941260e+01 2.135417e-01 2.636527e-02 1.167952e+00 -3.609863e+00 4.704102e+00
4.244629e+01 2.083333e-01 2.728687e-02 1.168065e+00 -3.603027e+00 4.710938e+00
3.822827e+01 1.979167e-01 2.717375e-02 1.168448e+00 -3.614746e+00 4.710938e+00
3.842041e+01 2.031250e-01 2.656915e-02 1.168876e+00 -3.616455e+00 4.699219e+00
3.831665e+01 1.979167e-01 2.637805e-02 1.168950e+00 -3.615234e+00 4.701172e+00
3.904663e+01 2.135417e-01 2.609557e-02 1.169086e+00 -3.613281e+00 4.705322e+00
4.104688e+01 2.135417e-01 2.604891e-02 1.169161e+00 -3.609619e+00 4.711182e+00
4.088354e+01 2.135417e-01 2.677878e-02 1.168797e+00 -3.600830e+00 4.712402e+00
4.079419e+01 2.135417e-01 2.732777e-02 1.168473e+00 -3.593994e+00 4.712402e+00
3.836255e+01 2.135417e-01 2.689957e-02 1.169084e+00 -3.616455e+00 4.708252e+00
3.867920e+01 2.031250e-01 2.681840e-02 1.169266e+00 -3.616455e+00 4.702881e+00
3.904150e+01 2.135417e-01 2.717886e-02 1.169234e+00 -3.607422e+00 4.706543e+00
3.993018e+01 2.135417e-01 2.705743e-02 1.169294e+00 -3.604980e+00 4.709717e+00
3.880029e+01 2.083333e-01 2.681712e-02 1.169623e+00 -3.614746e+00 4.709717e+00
3.837524e+01 2.031250e-01 2.674171e-02 1.169943e+00 -3.615967e+00 4.703369e+00
3.878174e+01 2.083333e-01 2.678133e-02 1.169936e+00 -3.615723e+00 4.704102e+00
3.835645e+01 2.083333e-01 2.686378e-02 1.170026e+00 -3.618408e+00 4.704102e+00
3.890967e+01 2.031250e-01 2.719548e-02 1.169996e+00 -3.618408e+00 4.706787e+00
4.131396e+01 2.135417e-01 2.775726e-02 1.169572e+00 -3.610596e+00 4.712158e+00
3.890210e+01 2.187500e-01 2.767864e-02 1.169569e+00 -3.615479e+00 4.712158e+00
3.801025e+01 2.031250e-01 2.755977e-02 1.169765e+00 -3.615479e+00 4.703125e+00
3.860815e+01 2.083333e-01 2.794707e-02 1.169575e+00 -3.606934e+00 4.704346e+00
3.893408e+01 2.187500e-01 2.771188e-02 1.169728e+00 -3.611816e+00 4.699219e+00
3.852466e+01 2.031250e-01 2.792087e-02 1.169622e+00 -3.611084e+00 4.701904e+00
4.041602e+01 2.031250e-01 2.839509e-02 1.169386e+00 -3.606934e+00 4.706787e+00
3.819409e+01 2.031250e-01 2.850693e-02 1.169326e+00 -3.605713e+00 4.706787e+00
4.064697e+01 2.031250e-01 2.842385e-02 1.169401e+00 -3.605713e+00 4.707275e+00
3.948657e+01 2.135417e-01 2.766075e-02 1.169481e+00 -3.596191e+00 4.708740e+00
4.005713e+01 2.135417e-01 2.720570e-02 1.169405e+00 -3.590332e+00 4.709229e+00
4.173901e+01 2.135417e-01 2.740510e-02 1.169419e+00 -3.593750e+00 4.713135e+00
4.020288e+01 2.083333e-01 2.766778e-02 1.169515e+00 -3.594727e+00 4.713135e+00
3.786377e+01 1.979167e-01 2.725491e-02 1.169951e+00 -3.601562e+00 4.707764e+00
3.864087e+01 2.135417e-01 2.681712e-02 1.170360e+00 -3.610596e+00 4.704834e+00
3.841309e+01 2.187500e-01 2.671678e-02 1.170517e+00 -3.610596e+00 4.700195e+00
3.846436e+01 2.083333e-01 2.815542e-02 1.172542e+00 -3.632812e+00 4.681396e+00
3.863232e+01 2.083333e-01 2.790745e-02 1.172056e+00 -3.622559e+00 4.685791e+00
3.878296e+01 2.135417e-01 2.801162e-02 1.172254e+00 -3.631104e+00 4.685791e+00
3.901538e+01 2.239583e-01 3.156189e-02 1.172274e+00 -3.655029e+00 4.661621e+00
3.970898e+01 2.135417e-01 3.217224e-02 1.171540e+00 -3.637939e+00 4.671143e+00
3.944800e+01 2.135417e-01 3.187441e-02 1.171604e+00 -3.640869e+00 4.669434e+00
4.044189e+01 2.239583e-01 3.204442e-02 1.171401e+00 -3.640869e+00 4.675049e+00
3.933960e+01 2.083333e-01 2.805380e-02 1.170336e+00 -3.616211e+00 4.677979e+00
3.933960e+01 2.083333e-01 2.781925e-02 1.170426e+00 -3.616211e+00 4.676270e+00
3.980005e+01 2.031250e-01 2.792151e-02 1.170338e+00 -3.615723e+00 4.683350e+00
4.235986e+01 2.083333e-01 2.901503e-02 1.170340e+00 -3.606934e+00 4.691162e+00
4.024707e+01 2.135417e-01 2.976598e-02 1.170561e+00 -3.611084e+00 4.691162e+00
3.868799e+01 2.343750e-01 2.804549e-02 1.171609e+00 -3.627686e+00 4.678467e+00
3.903638e+01 2.083333e-01 2.871848e-02 1.171349e+00 -3.620605e+00 4.683594e+00
3.903638e+01 2.083333e-01 2.873190e-02 1.171353e+00 -3.619873e+00 4.683838e+00
3.916943e+01 2.135417e-01 2.858874e-02 1.171525e+00 -3.620850e+00 4.684082e+00
3.840723e+01 2.083333e-01 2.833757e-02 1.171502e+00 -3.620605e+00 4.685059e+00
3.840552e+01 2.083333e-01 2.801354e-02 1.171514e+00 -3.620605e+00 4.681885e+00
3.930493e+01 2.083333e-01 2.842001e-02 1.171330e+00 -3.615479e+00 4.688477e+00
3.837891e+01 2.083333e-01 2.837336e-02 1.171447e+00 -3.617676e+00 4.688477e+00
3.824023e+01 2.083333e-01 2.823851e-02 1.171595e+00 -3.617676e+00 4.685791e+00
3.848193e+01 2.187500e-01 2.814392e-02 1.171955e+00 -3.625732e+00 4.685791e+00
3.848535e+01 2.135417e-01 2.803079e-02 1.172302e+00 -3.625732e+00 4.685547e+00
3.868530e+01 2.083333e-01 2.807489e-02 1.172274e+00 -3.625244e+00 4.686035e+00
3.868530e+01 2.083333e-01 2.811068e-02 1.172259e+00 -3.624512e+00 4.686035e+00
3.880835e+01 2.083333e-01 2.813114e-02 1.172247e+00 -3.624023e+00 4.686279e+00
3.950586e+01 2.083333e-01 2.845325e-02 1.172039e+00 -3.617676e+00 4.690430e+00
3.843286e+01 2.291667e-01 2.764158e-02 1.172641e+00 -3.631104e+00 4.682861e+00
3.880347e+01 2.135417e-01 2.786718e-02 1.172487e+00 -3.627197e+00 4.686035e+00
3.880347e+01 2.135417e-01 2.787166e-02 1.172461e+00 -3.625732e+00 4.686035e+00
3.880347e+01 2.135417e-01 2.787166e-02 1.172461e+00 -3.625732e+00 4.686035e+00
3.800049e+01 2.083333e-01 2.715841e-02 1.172952e+00 -3.632080e+00 4.687988e+00
3.882104e+01 2.083333e-01 2.655956e-02 1.173377e+00 -3.632080e+00 4.690186e+00
3.900586e+01 2.031250e-01 2.661388e-02 1.173308e+00 -3.628174e+00 4.691895e+00
3.927393e+01 2.031250e-01 2.657170e-02 1.173292e+00 -3.625244e+00 4.692139e+00
3.927393e+01 2.031250e-01 2.657170e-02 1.173292e+00 -3.625244e+00 4.692139e+00
3.927393e+01 2.031250e-01 2.657170e-02 1.173292e+00 -3.625244e+00 4.692139e+00
3.820947e+01 2.083333e-01 2.658321e-02 1.174288e+00 -3.637939e+00 4.689697e+00
3.887988e+01 1.875000e-01 2.594282e-02 1.175440e+00 -3.640869e+00 4.701660e+00
3.840503e+01 1.927083e-01 2.480903e-02 1.177075e+00 -3.644775e+00 4.704590e+00
3.821875e+01 1.927083e-01 2.484610e-02 1.177045e+00 -3.644287e+00 4.704834e+00
3.908154e+01 2.135417e-01 2.453294e-02 1.177168e+00 -3.649414e+00 4.704834e+00
3.908154e+01 2.135417e-01 2.421977e-02 1.177291e+00 -3.649414e+00 4.701172e+00
4.071216e+01 2.083333e-01 2.524107e-02 1.176489e+00 -3.630371e+00 4.711914e+00
3.886523e+01 2.187500e-01 2.410857e-02 1.177380e+00 -3.652588e+00 4.697510e+00
3.865112e+01 2.291667e-01 2.459365e-02 1.176968e+00 -3.644531e+00 4.708008e+00
3.926733e+01 2.135417e-01 2.413285e-02 1.177204e+00 -3.637451e+00 4.705322e+00
3.949072e+01 2.187500e-01 2.364521e-02 1.177736e+00 -3.637695e+00 4.710205e+00
3.839697e+01 2.291667e-01 2.280925e-02 1.178501e+00 -3.647461e+00 4.710205e+00
3.857715e+01 2.291667e-01 2.250120e-02 1.178690e+00 -3.647461e+00 4.708252e+00
3.819312e+01 2.447917e-01 2.114820e-02 1.180128e+00 -3.658203e+00 4.702881e+00
3.846094e+01 2.291667e-01 2.172532e-02 1.179766e+00 -3.650879e+00 4.710693e+00
3.856763e+01 2.291667e-01 2.191258e-02 1.179659e+00 -3.645752e+00 4.710938e+00
3.830713e+01 2.239583e-01 2.175344e-02 1.179933e+00 -3.653564e+00 4.710938e+00
3.824658e+01 2.343750e-01 2.160005e-02 1.180208e+00 -3.653564e+00 4.708740e+00
3.829248e+01 1.979167e-01 2.316907e-02 1.181676e+00 -3.665527e+00 4.711426e+00
3.843555e+01 2.031250e-01 2.316779e-02 1.181692e+00 -3.665527e+00 4.711670e+00
3.836035e+01 2.031250e-01 2.316204e-02 1.181728e+00 -3.665527e+00 4.711914e+00
3.836035e+01 2.031250e-01 2.316396e-02 1.181741e+00 -3.665527e+00 4.711914e+00
3.879248e+01 2.083333e-01 2.319208e-02 1.181722e+00 -3.665039e+00 4.712158e+00
3.916016e+01 2.083333e-01 2.381010e-02 1.181708e+00 -3.667725e+00 4.712158e+00
3.907593e+01 2.291667e-01 2.441278e-02 1.181793e+00 -3.670898e+00 4.706543e+00
3.919971e+01 2.083333e-01 2.452207e-02 1.181803e+00 -3.670898e+00 4.708252e+00
3.913403e+01 2.083333e-01 2.461858e-02 1.181687e+00 -3.666504e+00 4.708740e+00
3.917383e+01 2.031250e-01 2.466268e-02 1.181566e+00 -3.664795e+00 4.711182e+00
3.958521e+01 2.083333e-01 2.486144e-02 1.181324e+00 -3.656250e+00 4.712891e+00
4.013013e+01 2.135417e-01 2.494708e-02 1.181246e+00 -3.653320e+00 4.715332e+00
3.973071e+01 2.343750e-01 2.442621e-02 1.181565e+00 -3.664062e+00 4.709473e+00
3.955444e+01 2.135417e-01 2.431628e-02 1.181688e+00 -3.664062e+00 4.708252e+00
3.919678e+01 2.239583e-01 2.479625e-02 1.181479e+00 -3.661377e+00 4.707031e+00
3.916113e+01 2.031250e-01 2.498287e-02 1.181359e+00 -3.661377e+00 4.710449e+00
3.840869e+01 2.343750e-01 2.481670e-02 1.181914e+00 -3.664062e+00 4.707764e+00
3.938550e+01 1.979167e-01 2.506084e-02 1.181735e+00 -3.663818e+00 4.713379e+00
3.874927e+01 2.239583e-01 2.540149e-02 1.181623e+00 -3.663818e+00 4.713379e+00
3.953906e+01 2.135417e-01 2.550822e-02 1.181581e+00 -3.663818e+00 4.711914e+00
3.939478e+01 2.031250e-01 2.552739e-02 1.181470e+00 -3.663086e+00 4.712402e+00
3.836328e+01 2.239583e-01 2.547754e-02 1.182082e+00 -3.677002e+00 4.712402e+00
3.881055e+01 2.187500e-01 2.761601e-02 1.190079e+00 -3.777832e+00 4.726562e+00
3.969312e+01 2.083333e-01 2.713923e-02 1.189589e+00 -3.777832e+00 4.738525e+00
3.909375e+01 2.291667e-01 2.403890e-02 1.189030e+00 -3.776123e+00 4.739746e+00
4.142456e+01 2.291667e-01 1.864097e-02 1.189155e+00 -3.781006e+00 4.760254e+00
4.113599e+01 2.291667e-01 1.732568e-02 1.189129e+00 -3.781494e+00 4.760254e+00
4.012622e+01 2.135417e-01 1.777241e-02 1.189310e+00 -3.784424e+00 4.759277e+00
3.843579e+01 2.343750e-01 1.988596e-02 1.190082e+00 -3.799072e+00 4.753174e+00
3.876733e+01 2.343750e-01 2.131629e-02 1.190539e+00 -3.799072e+00 4.734375e+00
3.834570e+01 2.291667e-01 2.140640e-02 1.190548e+00 -3.799072e+00 4.735107e+00
3.827954e+01 2.291667e-01 2.142558e-02 1.190542e+00 -3.799072e+00 4.735352e+00
3.903784e+01 2.187500e-01 2.236379e-02 1.190263e+00 -3.796143e+00 4.743896e+00
4.312402e+01 2.239583e-01 2.320742e-02 1.189988e+00 -3.793213e+00 4.751221e+00
4.032910e+01 2.135417e-01 2.320998e-02 1.190639e+00 -3.801025e+00 4.743896e+00
3.786157e+01 2.239583e-01 2.571529e-02 1.191659e+00 -3.829102e+00 4.734131e+00
3.823804e+01 2.187500e-01 2.578240e-02 1.192261e+00 -3.829102e+00 4.722900e+00
3.867627e+01 2.135417e-01 2.610899e-02 1.191917e+00 -3.827881e+00 4.727051e+00
3.846753e+01 2.135417e-01 2.619207e-02 1.191834e+00 -3.827393e+00 4.728027e+00
3.856909e+01 2.239583e-01 2.574341e-02 1.191789e+00 -3.828125e+00 4.731201e+00
3.856909e+01 2.239583e-01 2.528325e-02 1.191753e+00 -3.828125e+00 4.731201e+00
3.879883e+01 2.291667e-01 2.501483e-02 1.191986e+00 -3.829102e+00 4.729736e+00
3.901611e+01 2.343750e-01 2.498798e-02 1.191997e+00 -3.830322e+00 4.729736e+00
3.876929e+01 2.291667e-01 2.502505e-02 1.192087e+00 -3.833252e+00 4.731201e+00
3.845630e+01 2.239583e-01 2.514776e-02 1.192114e+00 -3.833252e+00 4.732422e+00
3.835400e+01 2.395833e-01 2.458598e-02 1.192468e+00 -3.837158e+00 4.732422e+00
3.984692e+01 2.083333e-01 2.450226e-02 1.192561e+00 -3.837158e+00 4.737793e+00
3.850684e+01 2.291667e-01 2.449012e-02 1.192979e+00 -3.838135e+00 4.732910e+00
3.973926e+01 2.083333e-01 2.500141e-02 1.193440e+00 -3.851318e+00 4.737305e+00
3.975537e+01 2.083333e-01 2.541875e-02 1.193800e+00 -3.851318e+00 4.737549e+00
3.906250e+01 2.343750e-01 2.487294e-02 1.193967e+00 -3.853516e+00 4.737549e+00
3.883594e+01 2.291667e-01 2.463839e-02 1.193916e+00 -3.853760e+00 4.734375e+00
3.830396e+01 2.187500e-01 2.473170e-02 1.193720e+00 -3.855957e+00 4.735107e+00
3.906958e+01 2.031250e-01 2.489340e-02 1.194797e+00 -3.879395e+00 4.735352e+00
3.920605e+01 2.291667e-01 2.467099e-02 1.195232e+00 -3.884521e+00 4.733154e+00
3.746558e+01 2.343750e-01 2.472914e-02 1.195737e+00 -3.890625e+00 4.735840e+00
3.856445e+01 2.135417e-01 2.484163e-02 1.196252e+00 -3.890625e+00 4.732422e+00
3.981348e+01 2.135417e-01 2.449906e-02 1.195841e+00 -3.889404e+00 4.739502e+00
3.933252e+01 2.083333e-01 2.344645e-02 1.195932e+00 -3.894043e+00 4.743164e+00
3.842554e+01 2.239583e-01 2.246094e-02 1.196320e+00 -3.901367e+00 4.734863e+00
4.163818e+01 2.187500e-01 2.399225e-02 1.195429e+00 -3.894287e+00 4.748779e+00
3.909033e+01 2.083333e-01 2.328667e-02 1.196122e+00 -3.903320e+00 4.741699e+00
3.876025e+01 2.291667e-01 2.291279e-02 1.196472e+00 -3.907471e+00 4.741699e+00
3.876025e+01 2.291667e-01 2.259771e-02 1.196737e+00 -3.907471e+00 4.735107e+00
3.876025e+01 2.291667e-01 2.259771e-02 1.196737e+00 -3.907471e+00 4.735107e+00
3.912744e+01 2.187500e-01 2.276579e-02 1.196653e+00 -3.907471e+00 4.737305e+00
3.951733e+01 2.135417e-01 2.340427e-02 1.196377e+00 -3.906738e+00 4.740967e+00
3.942163e+01 2.447917e-01 2.374491e-02 1.197465e+00 -3.925049e+00 4.736572e+00
3.915796e+01 2.239583e-01 2.602526e-02 1.198709e+00 -3.934570e+00 4.730957e+00
