2.308171e+04 8.598000e-01 4.917624e-03 5.767660e-01 -9.999622e-01 9.999977e-01
1.261816e+03 8.140000e-02 2.056003e-03 5.818391e-01 -1.548639e+00 1.535103e+00
9.512245e+02 6.090000e-02 2.547521e-03 5.896982e-01 -2.021506e+00 1.770599e+00
8.115920e+02 5.430000e-02 1.802860e-03 5.985454e-01 -2.143038e+00 2.024341e+00
7.155548e+02 4.650000e-02 1.013169e-03 6.085640e-01 -2.266040e+00 2.222189e+00
6.702412e+02 4.430000e-02 8.163531e-04 6.198037e-01 -2.522537e+00 2.486657e+00
6.433552e+02 4.270000e-02 -7.914205e-05 6.321176e-01 -2.738156e+00 2.726930e+00
6.165491e+02 4.030000e-02 -1.085393e-03 6.455929e-01 -2.873261e+00 2.990320e+00
5.929115e+02 3.880000e-02 -1.403680e-03 6.599344e-01 -3.085567e+00 3.157178e+00
5.801778e+02 3.940000e-02 -1.849985e-03 6.744144e-01 -3.208588e+00 3.342188e+00
5.631686e+02 3.690000e-02 -1.746016e-03 6.904817e-01 -3.321255e+00 3.540967e+00
5.678644e+02 3.890000e-02 -1.824982e-03 7.072876e-01 -3.437447e+00 3.781402e+00
5.476555e+02 3.690000e-02 -1.243537e-03 7.243934e-01 -3.603214e+00 3.956541e+00
5.532957e+02 3.810000e-02 -1.247874e-03 7.414786e-01 -3.761723e+00 4.150318e+00
5.399454e+02 3.810000e-02 -6.768301e-04 7.596548e-01 -3.961881e+00 4.402463e+00
5.304104e+02 3.590000e-02 -4.232258e-04 7.775650e-01 -4.065572e+00 4.643035e+00
5.303188e+02 3.570000e-02 -1.560913e-04 7.962141e-01 -4.373427e+00 4.799171e+00
5.365216e+02 3.680000e-02 -1.259387e-04 8.146516e-01 -4.522290e+00 4.946532e+00
5.233822e+02 3.590000e-02 5.941296e-04 8.335500e-01 -4.700532e+00 5.125232e+00
5.269086e+02 3.570000e-02 1.328935e-03 8.529433e-01 -4.924052e+00 5.304109e+00
5.366207e+02 3.770000e-02 1.325949e-03 8.717603e-01 -5.128491e+00 5.523702e+00
5.192995e+02 3.620000e-02 1.912791e-03 8.914429e-01 -5.322556e+00 5.740291e+00
5.336389e+02 3.550000e-02 2.934683e-03 9.117978e-01 -5.517329e+00 5.886866e+00
5.186081e+02 3.630000e-02 3.185853e-03 9.319657e-01 -5.760175e+00 5.998099e+00
5.250285e+02 3.660000e-02 3.486042e-03 9.512531e-01 -5.968906e+00 6.146203e+00
5.270068e+02 3.770000e-02 3.722801e-03 9.712106e-01 -6.107695e+00 6.368416e+00
5.210664e+02 3.650000e-02 3.504247e-03 9.909200e-01 -6.394564e+00 6.381814e+00
5.307849e+02 3.630000e-02 3.810314e-03 1.011654e+00 -6.610042e+00 6.569657e+00
5.178317e+02 3.570000e-02 3.786002e-03 1.031502e+00 -6.804566e+00 6.783177e+00
5.111404e+02 3.540000e-02 3.877930e-03 1.051482e+00 -6.915973e+00 6.829635e+00
5.195371e+02 3.510000e-02 3.573861e-03 1.071433e+00 -7.216965e+00 6.989182e+00
5.191734e+02 3.570000e-02 3.375552e-03 1.091786e+00 -7.287129e+00 7.139084e+00
5.149466e+02 3.550000e-02 3.394186e-03 1.111255e+00 -7.463318e+00 7.310115e+00
5.145051e+02 3.540000e-02 3.381598e-03 1.130396e+00 -7.676223e+00 7.368273e+00
5.213742e+02 3.510000e-02 3.081366e-03 1.150181e+00 -7.917068e+00 7.550783e+00
