1.279961e+02 4.811083e-01 8.453825e-03 5.691039e-01 -9.960938e-01 9.960938e-01
1.279961e+02 4.811083e-01 8.453825e-03 5.691039e-01 -9.960938e-01 9.960938e-01
1.279961e+02 4.811083e-01 8.453825e-03 5.691039e-01 -9.960938e-01 9.960938e-01
1.279961e+02 4.811083e-01 8.453825e-03 5.691039e-01 -9.960938e-01 9.960938e-01
1.279961e+02 4.811083e-01 8.453825e-03 5.691039e-01 -9.960938e-01 9.960938e-01
1.279961e+02 4.811083e-01 8.453825e-03 5.691039e-01 -9.960938e-01 9.960938e-01
1.279961e+02 4.811083e-01 8.453825e-03 5.691039e-01 -9.960938e-01 9.960938e-01
1.279961e+02 4.811083e-01 8.453825e-03 5.691039e-01 -9.960938e-01 9.960938e-01
1.279961e+02 4.811083e-01 8.453825e-03 5.691039e-01 -9.960938e-01 9.960938e-01
1.279961e+02 4.811083e-01 8.453825e-03 5.691039e-01 -9.960938e-01 9.960938e-01
1.279961e+02 4.811083e-01 8.453825e-03 5.691039e-01 -9.960938e-01 9.960938e-01
1.279961e+02 4.811083e-01 8.453825e-03 5.691039e-01 -9.960938e-01 9.960938e-01
1.279961e+02 4.811083e-01 8.453825e-03 5.691039e-01 -9.960938e-01 9.960938e-01
1.279961e+02 4.811083e-01 8.453825e-03 5.691039e-01 -9.960938e-01 9.960938e-01
1.279961e+02 4.811083e-01 8.453825e-03 5.691039e-01 -9.960938e-01 9.960938e-01
1.279961e+02 4.811083e-01 8.453825e-03 5.691039e-01 -9.960938e-01 9.960938e-01
1.279961e+02 4.811083e-01 8.453825e-03 5.691039e-01 -9.960938e-01 9.960938e-01
1.279961e+02 4.811083e-01 8.453825e-03 5.691039e-01 -9.960938e-01 9.960938e-01
1.279961e+02 4.811083e-01 8.453825e-03 5.691039e-01 -9.960938e-01 9.960938e-01
1.279961e+02 4.811083e-01 8.453825e-03 5.691039e-01 -9.960938e-01 9.960938e-01
1.279961e+02 4.811083e-01 8.453825e-03 5.691039e-01 -9.960938e-01 9.960938e-01
1.279961e+02 4.811083e-01 8.453825e-03 5.691039e-01 -9.960938e-01 9.960938e-01
1.279961e+02 4.811083e-01 8.453825e-03 5.691039e-01 -9.960938e-01 9.960938e-01
1.279961e+02 4.811083e-01 8.453825e-03 5.691039e-01 -9.960938e-01 9.960938e-01
1.279961e+02 4.811083e-01 8.453825e-03 5.691039e-01 -9.960938e-01 9.960938e-01
1.279961e+02 4.811083e-01 8.453825e-03 5.691039e-01 -9.960938e-01 9.960938e-01
1.279961e+02 4.811083e-01 8.453825e-03 5.691039e-01 -9.960938e-01 9.960938e-01
1.279961e+02 4.811083e-01 8.453825e-03 5.691039e-01 -9.960938e-01 9.960938e-01
1.279961e+02 4.811083e-01 8.453825e-03 5.691039e-01 -9.960938e-01 9.960938e-01
1.279961e+02 4.811083e-01 8.453825e-03 5.691039e-01 -9.960938e-01 9.960938e-01
1.279961e+02 4.811083e-01 8.453825e-03 5.691039e-01 -9.960938e-01 9.960938e-01
1.279961e+02 4.811083e-01 8.453825e-03 5.691039e-01 -9.960938e-01 9.960938e-01
1.279961e+02 4.811083e-01 8.453825e-03 5.691039e-01 -9.960938e-01 9.960938e-01
1.279961e+02 4.811083e-01 8.453825e-03 5.691039e-01 -9.960938e-01 9.960938e-01
1.279961e+02 4.811083e-01 8.453825e-03 5.691039e-01 -9.960938e-01 9.960938e-01
1.279961e+02 4.811083e-01 8.453825e-03 5.691039e-01 -9.960938e-01 9.960938e-01
1.279961e+02 4.811083e-01 8.453825e-03 5.691039e-01 -9.960938e-01 9.960938e-01
1.279961e+02 4.811083e-01 8.453825e-03 5.691039e-01 -9.960938e-01 9.960938e-01
1.279961e+02 4.811083e-01 8.453825e-03 5.691039e-01 -9.960938e-01 9.960938e-01
1.279961e+02 4.811083e-01 8.453825e-03 5.691039e-01 -9.960938e-01 9.960938e-01
1.279961e+02 4.811083e-01 8.453825e-03 5.691039e-01 -9.960938e-01 9.960938e-01
1.279961e+02 4.811083e-01 8.453825e-03 5.691039e-01 -9.960938e-01 9.960938e-01
1.279961e+02 4.811083e-01 8.453825e-03 5.691039e-01 -9.960938e-01 9.960938e-01
1.279961e+02 4.811083e-01 8.453825e-03 5.691039e-01 -9.960938e-01 9.960938e-01
1.279961e+02 4.811083e-01 8.453825e-03 5.691039e-01 -9.960938e-01 9.960938e-01
1.279961e+02 4.811083e-01 8.453825e-03 5.691039e-01 -9.960938e-01 9.960938e-01
1.279961e+02 4.811083e-01 8.453825e-03 5.691039e-01 -9.960938e-01 9.960938e-01
1.279961e+02 4.811083e-01 8.453825e-03 5.691039e-01 -9.960938e-01 9.960938e-01
1.279961e+02 4.811083e-01 8.453825e-03 5.691039e-01 -9.960938e-01 9.960938e-01
1.279961e+02 4.811083e-01 8.453825e-03 5.691039e-01 -9.960938e-01 9.960938e-01
1.279961e+02 4.811083e-01 8.453825e-03 5.691039e-01 -9.960938e-01 9.960938e-01
1.279961e+02 4.811083e-01 8.453825e-03 5.691039e-01 -9.960938e-01 9.960938e-01
1.279961e+02 4.811083e-01 8.453825e-03 5.691039e-01 -9.960938e-01 9.960938e-01
1.279961e+02 4.811083e-01 8.453825e-03 5.691039e-01 -9.960938e-01 9.960938e-01
1.279961e+02 4.811083e-01 8.453825e-03 5.691039e-01 -9.960938e-01 9.960938e-01
1.279961e+02 4.811083e-01 8.453825e-03 5.691039e-01 -9.960938e-01 9.960938e-01
1.279961e+02 4.811083e-01 8.453825e-03 5.691039e-01 -9.960938e-01 9.960938e-01
1.279961e+02 4.811083e-01 8.453825e-03 5.691039e-01 -9.960938e-01 9.960938e-01
1.279961e+02 4.811083e-01 8.453825e-03 5.691039e-01 -9.960938e-01 9.960938e-01
1.279961e+02 4.811083e-01 8.453825e-03 5.691039e-01 -9.960938e-01 9.960938e-01
1.279961e+02 4.811083e-01 8.453825e-03 5.691039e-01 -9.960938e-01 9.960938e-01
1.279961e+02 4.811083e-01 8.453825e-03 5.691039e-01 -9.960938e-01 9.960938e-01
1.279961e+02 4.811083e-01 8.453825e-03 5.691039e-01 -9.960938e-01 9.960938e-01
1.279961e+02 4.811083e-01 8.453825e-03 5.691039e-01 -9.960938e-01 9.960938e-01
1.279961e+02 4.811083e-01 8.453825e-03 5.691039e-01 -9.960938e-01 9.960938e-01
1.279961e+02 4.811083e-01 8.453825e-03 5.691039e-01 -9.960938e-01 9.960938e-01
1.279961e+02 4.811083e-01 8.453825e-03 5.691039e-01 -9.960938e-01 9.960938e-01
1.279961e+02 4.811083e-01 8.453825e-03 5.691039e-01 -9.960938e-01 9.960938e-01
1.279961e+02 4.811083e-01 8.453825e-03 5.691039e-01 -9.960938e-01 9.960938e-01
1.279961e+02 4.811083e-01 8.453825e-03 5.691039e-01 -9.960938e-01 9.960938e-01
1.279961e+02 4.811083e-01 8.453825e-03 5.691039e-01 -9.960938e-01 9.960938e-01
1.279961e+02 4.811083e-01 8.453825e-03 5.691039e-01 -9.960938e-01 9.960938e-01
1.279961e+02 4.811083e-01 8.453825e-03 5.691039e-01 -9.960938e-01 9.960938e-01
1.279961e+02 4.811083e-01 8.453825e-03 5.691039e-01 -9.960938e-01 9.960938e-01
1.279961e+02 4.811083e-01 8.453825e-03 5.691039e-01 -9.960938e-01 9.960938e-01
1.279961e+02 4.811083e-01 8.453825e-03 5.691039e-01 -9.960938e-01 9.960938e-01
1.279961e+02 4.811083e-01 8.453825e-03 5.691039e-01 -9.960938e-01 9.960938e-01
1.279961e+02 4.811083e-01 8.453825e-03 5.691039e-01 -9.960938e-01 9.960938e-01
1.279961e+02 4.811083e-01 8.453825e-03 5.691039e-01 -9.960938e-01 9.960938e-01
1.279961e+02 4.811083e-01 8.453825e-03 5.691039e-01 -9.960938e-01 9.960938e-01
1.279961e+02 4.811083e-01 8.453825e-03 5.691039e-01 -9.960938e-01 9.960938e-01
1.279961e+02 4.811083e-01 8.453825e-03 5.691039e-01 -9.960938e-01 9.960938e-01
1.279961e+02 4.811083e-01 8.453825e-03 5.691039e-01 -9.960938e-01 9.960938e-01
1.279961e+02 4.811083e-01 8.453825e-03 5.691039e-01 -9.960938e-01 9.960938e-01
1.279961e+02 4.811083e-01 8.453825e-03 5.691039e-01 -9.960938e-01 9.960938e-01
1.279961e+02 4.811083e-01 8.453825e-03 5.691039e-01 -9.960938e-01 9.960938e-01
1.279961e+02 4.811083e-01 8.453825e-03 5.691039e-01 -9.960938e-01 9.960938e-01
1.279961e+02 4.811083e-01 8.453825e-03 5.691039e-01 -9.960938e-01 9.960938e-01
1.279961e+02 4.811083e-01 8.453825e-03 5.691039e-01 -9.960938e-01 9.960938e-01
1.279961e+02 4.811083e-01 8.453825e-03 5.691039e-01 -9.960938e-01 9.960938e-01
1.279961e+02 4.811083e-01 8.453825e-03 5.691039e-01 -9.960938e-01 9.960938e-01
1.279961e+02 4.811083e-01 8.453825e-03 5.691039e-01 -9.960938e-01 9.960938e-01
1.279961e+02 4.811083e-01 8.453825e-03 5.691039e-01 -9.960938e-01 9.960938e-01
1.279961e+02 4.811083e-01 8.453825e-03 5.691039e-01 -9.960938e-01 9.960938e-01
1.279961e+02 4.811083e-01 8.453825e-03 5.691039e-01 -9.960938e-01 9.960938e-01
1.279961e+02 4.811083e-01 8.453825e-03 5.691039e-01 -9.960938e-01 9.960938e-01
1.279961e+02 4.811083e-01 8.453825e-03 5.691039e-01 -9.960938e-01 9.960938e-01
1.279961e+02 4.811083e-01 8.453825e-03 5.691039e-01 -9.960938e-01 9.960938e-01
1.279961e+02 4.811083e-01 8.453825e-03 5.691039e-01 -9.960938e-01 9.960938e-01
1.279961e+02 4.811083e-01 8.453825e-03 5.691039e-01 -9.960938e-01 9.960938e-01
1.279961e+02 4.811083e-01 8.453825e-03 5.691039e-01 -9.960938e-01 9.960938e-01
