-7.066892e+00 7.300416e+00 -5.289885e+01 3.790192e+01 1.862015e-05 4.043218e-03 -4.499969e-01 7.615967e-01
-9.483838e+00 8.484878e+00 -7.303464e+01 4.025417e+01 2.130005e-06 3.064348e-03 -4.397888e-01 7.017670e-01
-1.101124e+01 9.343066e+00 -8.232109e+01 4.011967e+01 2.752726e-06 2.899833e-03 -4.415436e-01 8.332214e-01
-1.197592e+01 9.901847e+00 -8.458649e+01 3.805557e+01 1.565253e-06 2.633456e-03 -4.376526e-01 8.032379e-01
-1.263758e+01 1.036168e+01 -9.432231e+01 3.657706e+01 2.625237e-06 2.614424e-03 -4.568176e-01 8.528900e-01
-1.305999e+01 1.069454e+01 -9.706775e+01 3.615417e+01 1.917828e-06 2.503643e-03 -4.320374e-01 1.040253e+00
-1.335364e+01 1.090375e+01 -9.816147e+01 4.129735e+01 1.505791e-06 2.466104e-03 -4.415436e-01 8.490295e-01
-1.367734e+01 1.113468e+01 -9.790985e+01 3.818819e+01 2.702667e-06 2.439389e-03 -4.320374e-01 8.444824e-01
-1.431640e+01 1.154568e+01 -1.070685e+02 4.452837e+01 2.035201e-06 2.457430e-03 -4.351044e-01 9.808960e-01
-1.457884e+01 1.171971e+01 -1.081551e+02 4.488969e+01 3.608731e-06 2.318317e-03 -4.283752e-01 9.948273e-01
-1.474169e+01 1.183571e+01 -1.058287e+02 4.283353e+01 1.221766e-06 2.267497e-03 -4.320374e-01 8.807373e-01
-1.490304e+01 1.189243e+01 -1.085792e+02 4.501451e+01 1.979419e-06 2.249746e-03 -4.283752e-01 9.147186e-01
-1.514096e+01 1.206568e+01 -1.089886e+02 4.329543e+01 1.608211e-06 2.350992e-03 -4.283752e-01 9.466400e-01
-1.556092e+01 1.226970e+01 -1.162898e+02 4.567261e+01 9.517288e-07 2.329435e-03 -4.283752e-01 9.876862e-01
-1.555142e+01 1.233690e+01 -1.162638e+02 4.748582e+01 1.403824e-06 2.220354e-03 -4.320374e-01 1.123260e+00
-1.578707e+01 1.248333e+01 -1.166581e+02 4.534270e+01 1.901026e-06 2.298915e-03 -4.351044e-01 9.460297e-01
-1.635000e+01 1.281091e+01 -1.168321e+02 4.770554e+01 1.414324e-06 2.404539e-03 -4.744720e-01 1.137100e+00
-1.675171e+01 1.309611e+01 -1.223230e+02 4.731250e+01 7.240722e-07 2.305904e-03 -4.382324e-01 1.006531e+00
-1.676789e+01 1.315657e+01 -1.204329e+02 5.120882e+01 9.645880e-07 2.255700e-03 -4.593353e-01 1.004837e+00
-1.692512e+01 1.328965e+01 -1.287740e+02 4.952408e+01 1.240333e-06 2.254421e-03 -4.320374e-01 1.125137e+00
-1.714498e+01 1.342023e+01 -1.221657e+02 5.039597e+01 1.028287e-06 2.263302e-03 -4.320374e-01 1.143082e+00
-1.736938e+01 1.363734e+01 -1.312399e+02 5.054807e+01 1.588067e-06 2.185464e-03 -4.187927e-01 1.037781e+00
-1.743391e+01 1.372878e+01 -1.279476e+02 5.182590e+01 2.277535e-06 2.227192e-03 -4.351044e-01 9.512329e-01
-1.769122e+01 1.391491e+01 -1.320642e+02 5.458427e+01 1.428129e-06 2.176995e-03 -4.283752e-01 8.900452e-01
-1.782822e+01 1.401064e+01 -1.353740e+02 5.393016e+01 -5.766578e-08 2.187785e-03 -4.239960e-01 1.135376e+00
-1.796828e+01 1.410929e+01 -1.317804e+02 5.277917e+01 2.164003e-06 2.149024e-03 -4.187927e-01 8.485870e-01
-1.804313e+01 1.420536e+01 -1.343436e+02 5.215521e+01 2.360531e-06 2.167397e-03 -4.320374e-01 8.863831e-01
