-9.545820e-01 8.302015e+00 -4.662512e+01 4.196178e+01 1.533046e-05 1.966824e-03 -1.262285e-01 1.262285e-01
-7.828907e-01 9.864473e+00 -5.012820e+01 4.743154e+01 -1.615749e-07 1.511377e-03 -1.262285e-01 1.262285e-01
-9.455099e-01 1.068459e+01 -5.596497e+01 5.074487e+01 5.299075e-07 1.314182e-03 -1.262285e-01 1.262285e-01
-1.087975e+00 1.125803e+01 -5.972858e+01 5.757320e+01 1.398490e-07 1.198744e-03 -1.262285e-01 1.262285e-01
-1.241022e+00 1.177113e+01 -6.093982e+01 5.886139e+01 4.313752e-07 1.111643e-03 -1.262285e-01 1.262284e-01
-1.389176e+00 1.223081e+01 -6.597569e+01 5.994873e+01 -4.608866e-07 1.056058e-03 -1.262284e-01 1.262285e-01
-1.505560e+00 1.266330e+01 -6.859505e+01 6.195300e+01 4.180387e-07 1.003984e-03 -1.262285e-01 1.262285e-01
-1.618634e+00 1.305527e+01 -7.204608e+01 6.445749e+01 9.862033e-08 9.633273e-04 -1.262284e-01 1.262285e-01
-1.656919e+00 1.344437e+01 -7.201841e+01 6.898476e+01 9.279396e-08 9.288834e-04 -1.262284e-01 1.262285e-01
-1.717410e+00 1.378936e+01 -7.705558e+01 7.222953e+01 2.253460e-07 9.037711e-04 -1.262284e-01 1.262276e-01
-1.758634e+00 1.415695e+01 -7.691340e+01 7.210434e+01 3.289390e-08 8.743369e-04 -1.262285e-01 1.262280e-01
-1.779669e+00 1.449219e+01 -8.256376e+01 7.805845e+01 -7.325989e-08 8.533424e-04 -1.262285e-01 1.262282e-01
-1.805226e+00 1.483301e+01 -8.266262e+01 7.986610e+01 7.029160e-08 8.303870e-04 -1.262283e-01 1.262285e-01
-1.833511e+00 1.514070e+01 -8.727979e+01 8.209421e+01 -9.916571e-08 8.123165e-04 -1.262284e-01 1.262284e-01
-1.850778e+00 1.545654e+01 -8.843416e+01 8.433377e+01 -3.679015e-08 7.967920e-04 -1.262285e-01 1.262285e-01
-1.881457e+00 1.576239e+01 -9.102601e+01 8.282907e+01 2.090491e-07 7.807564e-04 -1.262285e-01 1.262282e-01
-1.913794e+00 1.604926e+01 -9.393248e+01 8.720612e+01 6.125779e-07 7.585659e-04 -1.262282e-01 1.262277e-01
-1.921264e+00 1.632122e+01 -9.717043e+01 8.782519e+01 1.639937e-07 7.442827e-04 -1.262285e-01 1.262273e-01
-1.966059e+00 1.656722e+01 -9.996437e+01 8.848187e+01 3.547262e-08 7.310864e-04 -1.262283e-01 1.262278e-01
-1.960364e+00 1.686282e+01 -1.032308e+02 9.078190e+01 -3.397199e-07 7.147049e-04 -1.262283e-01 1.262282e-01
-1.998995e+00 1.711528e+01 -1.060746e+02 9.260103e+01 -1.081708e-07 7.013052e-04 -1.262285e-01 1.262284e-01
-2.016834e+00 1.738213e+01 -1.098281e+02 9.195154e+01 4.437368e-09 6.949001e-04 -1.262284e-01 1.262284e-01
-2.022182e+00 1.760690e+01 -1.108709e+02 9.355178e+01 4.698728e-08 6.804404e-04 -1.262285e-01 1.262285e-01
-2.038065e+00 1.782569e+01 -1.124361e+02 9.239269e+01 -6.423177e-08 6.692336e-04 -1.262285e-01 1.262263e-01
-2.070201e+00 1.807387e+01 -1.181195e+02 9.331932e+01 4.572300e-08 6.647039e-04 -1.262285e-01 1.262274e-01
-2.061498e+00 1.827519e+01 -1.169860e+02 9.671498e+01 7.200981e-08 6.521455e-04 -1.262285e-01 1.262285e-01
-2.071396e+00 1.848594e+01 -1.211716e+02 9.648582e+01 -2.632708e-07 6.455927e-04 -1.262284e-01 1.262096e-01
-2.106351e+00 1.872991e+01 -1.203815e+02 9.753137e+01 -2.260856e-08 6.350288e-04 -1.262285e-01 1.262267e-01
-2.091732e+00 1.888498e+01 -1.237331e+02 9.999144e+01 8.397419e-08 6.271641e-04 -1.262284e-01 1.262163e-01
-2.125772e+00 1.915023e+01 -1.261340e+02 1.015167e+02 -7.571158e-08 6.187497e-04 -1.262285e-01 1.262282e-01
-2.139662e+00 1.931835e+01 -1.302892e+02 1.047938e+02 2.823175e-08 6.131803e-04 -1.262285e-01 1.262285e-01
-2.146386e+00 1.946032e+01 -1.306504e+02 1.031279e+02 6.439352e-08 6.078701e-04 -1.262284e-01 1.262272e-01
-2.154608e+00 1.962060e+01 -1.325525e+02 1.041264e+02 8.462352e-08 5.975929e-04 -1.262285e-01 1.262281e-01
