8.999023e-01 9.987793e-01
6.997070e-01 9.963379e-01
4.997559e-01 9.938965e-01
3.996582e-01 9.914551e-01
2.995605e-01 9.890137e-01
2.248535e-01 9.865723e-01
1.750488e-01 9.841309e-01
1.252441e-01 9.816895e-01
1.000977e-01 9.792480e-01
7.519531e-02 9.768066e-01
5.639648e-02 9.743652e-01
4.370117e-02 9.719238e-01
3.125000e-02 9.694824e-01
2.490234e-02 9.670410e-01
1.855469e-02 9.645996e-01
1.416016e-02 9.621582e-01
1.123047e-02 9.597168e-01
8.300781e-03 9.572754e-01
6.591797e-03 9.548340e-01
5.126953e-03 9.523926e-01
3.662109e-03 9.499512e-01
2.685547e-03 9.475098e-01
1.953125e-03 9.450684e-01
1.464844e-03 9.426270e-01
9.765625e-04 9.401855e-01
9.765625e-04 9.377441e-01
9.765625e-04 9.353027e-01
9.765625e-04 9.328613e-01
9.765625e-04 9.304199e-01
9.765625e-04 9.279785e-01
9.765625e-04 9.255371e-01
9.765625e-04 9.230957e-01
9.765625e-04 9.206543e-01
9.765625e-04 9.182129e-01
9.765625e-04 9.157715e-01
9.765625e-04 9.133301e-01
9.765625e-04 9.108887e-01
9.765625e-04 9.084473e-01
9.765625e-04 9.060059e-01
9.765625e-04 9.035645e-01
9.765625e-04 9.011230e-01
9.765625e-04 8.986816e-01
9.765625e-04 8.962402e-01
9.765625e-04 8.937988e-01
9.765625e-04 8.913574e-01
9.765625e-04 8.889160e-01
9.765625e-04 8.864746e-01
9.765625e-04 8.840332e-01
9.765625e-04 8.815918e-01
9.765625e-04 8.791504e-01
9.765625e-04 8.767090e-01
9.765625e-04 8.742676e-01
9.765625e-04 8.718262e-01
9.765625e-04 8.693848e-01
9.765625e-04 8.669434e-01
9.765625e-04 8.645020e-01
9.765625e-04 8.620605e-01
9.765625e-04 8.596191e-01
9.765625e-04 8.571777e-01
9.765625e-04 8.547363e-01
9.765625e-04 8.522949e-01
9.765625e-04 8.498535e-01
9.765625e-04 8.474121e-01
9.765625e-04 8.449707e-01
9.765625e-04 8.425293e-01
9.765625e-04 8.400879e-01
9.765625e-04 8.376465e-01
9.765625e-04 8.352051e-01
9.765625e-04 8.327637e-01
9.765625e-04 8.303223e-01
9.765625e-04 8.278809e-01
9.765625e-04 8.254395e-01
9.765625e-04 8.229980e-01
9.765625e-04 8.205566e-01
9.765625e-04 8.181152e-01
9.765625e-04 8.156738e-01
9.765625e-04 8.132324e-01
9.765625e-04 8.107910e-01
9.765625e-04 8.083496e-01
9.765625e-04 8.059082e-01
9.765625e-04 8.034668e-01
9.765625e-04 8.010254e-01
9.765625e-04 7.985840e-01
9.765625e-04 7.961426e-01
9.765625e-04 7.937012e-01
9.765625e-04 7.912598e-01
9.765625e-04 7.888184e-01
9.765625e-04 7.863770e-01
9.765625e-04 7.839355e-01
9.765625e-04 7.814941e-01
9.765625e-04 7.790527e-01
9.765625e-04 7.766113e-01
9.765625e-04 7.741699e-01
9.765625e-04 7.717285e-01
9.765625e-04 7.692871e-01
9.765625e-04 7.668457e-01
9.765625e-04 7.644043e-01
9.765625e-04 7.619629e-01
9.765625e-04 7.595215e-01
9.765625e-04 7.570801e-01
9.765625e-04 7.546387e-01
9.765625e-04 7.521973e-01
9.765625e-04 7.497559e-01
9.765625e-04 7.473145e-01
9.765625e-04 7.448730e-01
9.765625e-04 7.424316e-01
9.765625e-04 7.399902e-01
9.765625e-04 7.375488e-01
9.765625e-04 7.351074e-01
9.765625e-04 7.326660e-01
9.765625e-04 7.302246e-01
9.765625e-04 7.277832e-01
9.765625e-04 7.253418e-01
9.765625e-04 7.229004e-01
9.765625e-04 7.204590e-01
9.765625e-04 7.180176e-01
9.765625e-04 7.155762e-01
9.765625e-04 7.131348e-01
9.765625e-04 7.106934e-01
9.765625e-04 7.082520e-01
9.765625e-04 7.058105e-01
9.765625e-04 7.033691e-01
9.765625e-04 7.009277e-01
9.765625e-04 6.984863e-01
9.765625e-04 6.960449e-01
9.765625e-04 6.936035e-01
9.765625e-04 6.911621e-01
9.765625e-04 6.887207e-01
9.765625e-04 6.862793e-01
9.765625e-04 6.838379e-01
9.765625e-04 6.813965e-01
9.765625e-04 6.789551e-01
9.765625e-04 6.765137e-01
9.765625e-04 6.740723e-01
9.765625e-04 6.716309e-01
9.765625e-04 6.691895e-01
9.765625e-04 6.667480e-01
9.765625e-04 6.643066e-01
9.765625e-04 6.618652e-01
9.765625e-04 6.594238e-01
9.765625e-04 6.569824e-01
9.765625e-04 6.545410e-01
9.765625e-04 6.520996e-01
9.765625e-04 6.496582e-01
9.765625e-04 6.472168e-01
9.765625e-04 6.447754e-01
9.765625e-04 6.423340e-01
9.765625e-04 6.398926e-01
9.765625e-04 6.374512e-01
9.765625e-04 6.350098e-01
9.765625e-04 6.325684e-01
9.765625e-04 6.301270e-01
9.765625e-04 6.276855e-01
9.765625e-04 6.252441e-01
9.765625e-04 6.228027e-01
9.765625e-04 6.203613e-01
9.765625e-04 6.179199e-01
9.765625e-04 6.154785e-01
9.765625e-04 6.130371e-01
9.765625e-04 6.105957e-01
9.765625e-04 6.081543e-01
9.765625e-04 6.057129e-01
9.765625e-04 6.032715e-01
9.765625e-04 6.008301e-01
9.765625e-04 5.983887e-01
9.765625e-04 5.959473e-01
9.765625e-04 5.935059e-01
9.765625e-04 5.910645e-01
9.765625e-04 5.886230e-01
9.765625e-04 5.861816e-01
9.765625e-04 5.837402e-01
9.765625e-04 5.812988e-01
9.765625e-04 5.788574e-01
9.765625e-04 5.764160e-01
9.765625e-04 5.739746e-01
9.765625e-04 5.715332e-01
9.765625e-04 5.690918e-01
9.765625e-04 5.666504e-01
9.765625e-04 5.642090e-01
9.765625e-04 5.617676e-01
9.765625e-04 5.593262e-01
9.765625e-04 5.568848e-01
9.765625e-04 5.544434e-01
9.765625e-04 5.520020e-01
9.765625e-04 5.495605e-01
9.765625e-04 5.471191e-01
9.765625e-04 5.446777e-01
9.765625e-04 5.422363e-01
9.765625e-04 5.397949e-01
9.765625e-04 5.373535e-01
9.765625e-04 5.349121e-01
9.765625e-04 5.324707e-01
9.765625e-04 5.300293e-01
9.765625e-04 5.275879e-01
9.765625e-04 5.251465e-01
9.765625e-04 5.227051e-01
9.765625e-04 5.202637e-01
9.765625e-04 5.178223e-01
9.765625e-04 5.153809e-01
9.765625e-04 5.129395e-01
9.765625e-04 5.104980e-01
9.765625e-04 5.080566e-01
9.765625e-04 5.056152e-01
9.765625e-04 5.031738e-01
9.765625e-04 5.007324e-01
9.765625e-04 4.992676e-01
9.765625e-04 4.982910e-01
9.765625e-04 4.973145e-01
9.765625e-04 4.963379e-01
9.765625e-04 4.953613e-01
9.765625e-04 4.943848e-01
9.765625e-04 4.934082e-01
9.765625e-04 4.924316e-01
9.765625e-04 4.914551e-01
9.765625e-04 4.904785e-01
9.765625e-04 4.895020e-01
9.765625e-04 4.885254e-01
9.765625e-04 4.875488e-01
9.765625e-04 4.865723e-01
9.765625e-04 4.855957e-01
9.765625e-04 4.846191e-01
9.765625e-04 4.836426e-01
9.765625e-04 4.826660e-01
9.765625e-04 4.816895e-01
9.765625e-04 4.807129e-01
9.765625e-04 4.797363e-01
9.765625e-04 4.787598e-01
9.765625e-04 4.777832e-01
9.765625e-04 4.768066e-01
9.765625e-04 4.758301e-01
9.765625e-04 4.748535e-01
9.765625e-04 4.738770e-01
9.765625e-04 4.729004e-01
9.765625e-04 4.719238e-01
9.765625e-04 4.709473e-01
9.765625e-04 4.699707e-01
9.765625e-04 4.689941e-01
9.765625e-04 4.680176e-01
9.765625e-04 4.670410e-01
9.765625e-04 4.660645e-01
9.765625e-04 4.650879e-01
9.765625e-04 4.641113e-01
9.765625e-04 4.631348e-01
9.765625e-04 4.621582e-01
9.765625e-04 4.611816e-01
9.765625e-04 4.602051e-01
9.765625e-04 4.592285e-01
9.765625e-04 4.582520e-01
9.765625e-04 4.572754e-01
9.765625e-04 4.562988e-01
9.765625e-04 4.553223e-01
9.765625e-04 4.543457e-01
9.765625e-04 4.533691e-01
9.765625e-04 4.523926e-01
9.765625e-04 4.514160e-01
9.765625e-04 4.504395e-01
9.765625e-04 4.494629e-01
9.765625e-04 4.484863e-01
9.765625e-04 4.475098e-01
9.765625e-04 4.465332e-01
9.765625e-04 4.455566e-01
9.765625e-04 4.445801e-01
9.765625e-04 4.436035e-01
9.765625e-04 4.426270e-01
9.765625e-04 4.416504e-01
9.765625e-04 4.406738e-01
9.765625e-04 4.396973e-01
9.765625e-04 4.387207e-01
9.765625e-04 4.377441e-01
9.765625e-04 4.367676e-01
9.765625e-04 4.357910e-01
9.765625e-04 4.348145e-01
9.765625e-04 4.338379e-01
9.765625e-04 4.328613e-01
9.765625e-04 4.318848e-01
9.765625e-04 4.309082e-01
9.765625e-04 4.299316e-01
9.765625e-04 4.289551e-01
9.765625e-04 4.279785e-01
9.765625e-04 4.270020e-01
9.765625e-04 4.260254e-01
9.765625e-04 4.250488e-01
9.765625e-04 4.240723e-01
9.765625e-04 4.230957e-01
9.765625e-04 4.221191e-01
9.765625e-04 4.211426e-01
9.765625e-04 4.201660e-01
9.765625e-04 4.191895e-01
9.765625e-04 4.182129e-01
9.765625e-04 4.172363e-01
9.765625e-04 4.162598e-01
9.765625e-04 4.152832e-01
9.765625e-04 4.143066e-01
9.765625e-04 4.133301e-01
9.765625e-04 4.123535e-01
9.765625e-04 4.113770e-01
9.765625e-04 4.104004e-01
9.765625e-04 4.094238e-01
9.765625e-04 4.084473e-01
9.765625e-04 4.074707e-01
9.765625e-04 4.064941e-01
9.765625e-04 4.055176e-01
9.765625e-04 4.045410e-01
9.765625e-04 4.035645e-01
9.765625e-04 4.025879e-01
9.765625e-04 4.016113e-01
9.765625e-04 4.006348e-01
9.765625e-04 3.996582e-01
9.765625e-04 3.986816e-01
9.765625e-04 3.977051e-01
9.765625e-04 3.967285e-01
9.765625e-04 3.957520e-01
9.765625e-04 3.947754e-01
9.765625e-04 3.937988e-01
9.765625e-04 3.928223e-01
9.765625e-04 3.918457e-01
9.765625e-04 3.908691e-01
9.765625e-04 3.898926e-01
9.765625e-04 3.889160e-01
9.765625e-04 3.879395e-01
9.765625e-04 3.869629e-01
9.765625e-04 3.859863e-01
9.765625e-04 3.850098e-01
9.765625e-04 3.840332e-01
9.765625e-04 3.830566e-01
9.765625e-04 3.820801e-01
9.765625e-04 3.811035e-01
9.765625e-04 3.801270e-01
9.765625e-04 3.791504e-01
9.765625e-04 3.781738e-01
9.765625e-04 3.771973e-01
9.765625e-04 3.762207e-01
9.765625e-04 3.752441e-01
9.765625e-04 3.742676e-01
9.765625e-04 3.732910e-01
9.765625e-04 3.723145e-01
9.765625e-04 3.713379e-01
9.765625e-04 3.703613e-01
9.765625e-04 3.693848e-01
9.765625e-04 3.684082e-01
9.765625e-04 3.674316e-01
9.765625e-04 3.664551e-01
9.765625e-04 3.654785e-01
9.765625e-04 3.645020e-01
9.765625e-04 3.635254e-01
9.765625e-04 3.625488e-01
9.765625e-04 3.615723e-01
9.765625e-04 3.605957e-01
9.765625e-04 3.596191e-01
9.765625e-04 3.586426e-01
9.765625e-04 3.576660e-01
9.765625e-04 3.566895e-01
9.765625e-04 3.557129e-01
9.765625e-04 3.547363e-01
9.765625e-04 3.537598e-01
9.765625e-04 3.527832e-01
9.765625e-04 3.518066e-01
9.765625e-04 3.508301e-01
9.765625e-04 3.498535e-01
9.765625e-04 3.488770e-01
9.765625e-04 3.479004e-01
9.765625e-04 3.469238e-01
9.765625e-04 3.459473e-01
9.765625e-04 3.449707e-01
9.765625e-04 3.439941e-01
9.765625e-04 3.430176e-01
9.765625e-04 3.420410e-01
9.765625e-04 3.410645e-01
9.765625e-04 3.400879e-01
9.765625e-04 3.391113e-01
9.765625e-04 3.381348e-01
9.765625e-04 3.371582e-01
9.765625e-04 3.361816e-01
9.765625e-04 3.352051e-01
9.765625e-04 3.342285e-01
9.765625e-04 3.332520e-01
9.765625e-04 3.322754e-01
9.765625e-04 3.312988e-01
9.765625e-04 3.303223e-01
9.765625e-04 3.293457e-01
9.765625e-04 3.283691e-01
9.765625e-04 3.273926e-01
9.765625e-04 3.264160e-01
9.765625e-04 3.254395e-01
9.765625e-04 3.244629e-01
9.765625e-04 3.234863e-01
9.765625e-04 3.225098e-01
9.765625e-04 3.215332e-01
9.765625e-04 3.205566e-01
9.765625e-04 3.195801e-01
9.765625e-04 3.186035e-01
9.765625e-04 3.176270e-01
9.765625e-04 3.166504e-01
9.765625e-04 3.156738e-01
9.765625e-04 3.146973e-01
9.765625e-04 3.137207e-01
9.765625e-04 3.127441e-01
9.765625e-04 3.117676e-01
9.765625e-04 3.107910e-01
9.765625e-04 3.098145e-01
9.765625e-04 3.088379e-01
9.765625e-04 3.078613e-01
9.765625e-04 3.068848e-01
9.765625e-04 3.059082e-01
9.765625e-04 3.049316e-01
9.765625e-04 3.039551e-01
9.765625e-04 3.029785e-01
9.765625e-04 3.020020e-01
9.765625e-04 3.010254e-01
9.765625e-04 3.000488e-01
9.765625e-04 2.990723e-01
9.765625e-04 2.980957e-01
9.765625e-04 2.971191e-01
9.765625e-04 2.961426e-01
9.765625e-04 2.951660e-01
9.765625e-04 2.941895e-01
9.765625e-04 2.932129e-01
9.765625e-04 2.922363e-01
9.765625e-04 2.912598e-01
9.765625e-04 2.902832e-01
9.765625e-04 2.893066e-01
9.765625e-04 2.883301e-01
9.765625e-04 2.873535e-01
9.765625e-04 2.863770e-01
9.765625e-04 2.854004e-01
9.765625e-04 2.844238e-01
9.765625e-04 2.834473e-01
9.765625e-04 2.824707e-01
9.765625e-04 2.814941e-01
9.765625e-04 2.805176e-01
9.765625e-04 2.795410e-01
9.765625e-04 2.785645e-01
9.765625e-04 2.775879e-01
9.765625e-04 2.766113e-01
9.765625e-04 2.756348e-01
9.765625e-04 2.746582e-01
9.765625e-04 2.736816e-01
9.765625e-04 2.727051e-01
9.765625e-04 2.717285e-01
9.765625e-04 2.707520e-01
9.765625e-04 2.697754e-01
9.765625e-04 2.687988e-01
9.765625e-04 2.678223e-01
9.765625e-04 2.668457e-01
9.765625e-04 2.658691e-01
9.765625e-04 2.648926e-01
9.765625e-04 2.639160e-01
9.765625e-04 2.629395e-01
9.765625e-04 2.619629e-01
9.765625e-04 2.609863e-01
9.765625e-04 2.600098e-01
9.765625e-04 2.590332e-01
9.765625e-04 2.580566e-01
9.765625e-04 2.570801e-01
9.765625e-04 2.561035e-01
9.765625e-04 2.551270e-01
9.765625e-04 2.541504e-01
9.765625e-04 2.531738e-01
9.765625e-04 2.521973e-01
9.765625e-04 2.512207e-01
9.765625e-04 2.502441e-01
9.765625e-04 2.495117e-01
9.765625e-04 2.490234e-01
9.765625e-04 2.485352e-01
9.765625e-04 2.480469e-01
9.765625e-04 2.475586e-01
9.765625e-04 2.470703e-01
9.765625e-04 2.465820e-01
9.765625e-04 2.460938e-01
9.765625e-04 2.456055e-01
9.765625e-04 2.451172e-01
9.765625e-04 2.446289e-01
9.765625e-04 2.441406e-01
9.765625e-04 2.436523e-01
9.765625e-04 2.431641e-01
9.765625e-04 2.426758e-01
9.765625e-04 2.421875e-01
9.765625e-04 2.416992e-01
9.765625e-04 2.412109e-01
9.765625e-04 2.407227e-01
9.765625e-04 2.402344e-01
9.765625e-04 2.397461e-01
9.765625e-04 2.392578e-01
9.765625e-04 2.387695e-01
9.765625e-04 2.382812e-01
9.765625e-04 2.377930e-01
9.765625e-04 2.373047e-01
9.765625e-04 2.368164e-01
9.765625e-04 2.363281e-01
9.765625e-04 2.358398e-01
9.765625e-04 2.353516e-01
9.765625e-04 2.348633e-01
9.765625e-04 2.343750e-01
9.765625e-04 2.338867e-01
9.765625e-04 2.333984e-01
9.765625e-04 2.329102e-01
9.765625e-04 2.324219e-01
9.765625e-04 2.319336e-01
9.765625e-04 2.314453e-01
9.765625e-04 2.309570e-01
9.765625e-04 2.304688e-01
9.765625e-04 2.299805e-01
9.765625e-04 2.294922e-01
9.765625e-04 2.290039e-01
9.765625e-04 2.285156e-01
9.765625e-04 2.280273e-01
9.765625e-04 2.275391e-01
9.765625e-04 2.270508e-01
9.765625e-04 2.265625e-01
9.765625e-04 2.260742e-01
9.765625e-04 2.255859e-01
9.765625e-04 2.250977e-01
9.765625e-04 2.246094e-01
9.765625e-04 2.241211e-01
9.765625e-04 2.236328e-01
9.765625e-04 2.231445e-01
9.765625e-04 2.226562e-01
9.765625e-04 2.221680e-01
9.765625e-04 2.216797e-01
9.765625e-04 2.211914e-01
9.765625e-04 2.207031e-01
9.765625e-04 2.202148e-01
9.765625e-04 2.197266e-01
9.765625e-04 2.192383e-01
9.765625e-04 2.187500e-01
9.765625e-04 2.182617e-01
9.765625e-04 2.177734e-01
9.765625e-04 2.172852e-01
9.765625e-04 2.167969e-01
9.765625e-04 2.163086e-01
9.765625e-04 2.158203e-01
9.765625e-04 2.153320e-01
9.765625e-04 2.148438e-01
9.765625e-04 2.143555e-01
9.765625e-04 2.138672e-01
9.765625e-04 2.133789e-01
9.765625e-04 2.128906e-01
9.765625e-04 2.124023e-01
9.765625e-04 2.119141e-01
9.765625e-04 2.114258e-01
9.765625e-04 2.109375e-01
9.765625e-04 2.104492e-01
9.765625e-04 2.099609e-01
9.765625e-04 2.094727e-01
9.765625e-04 2.089844e-01
9.765625e-04 2.084961e-01
9.765625e-04 2.080078e-01
9.765625e-04 2.075195e-01
9.765625e-04 2.070312e-01
9.765625e-04 2.065430e-01
9.765625e-04 2.060547e-01
9.765625e-04 2.055664e-01
9.765625e-04 2.050781e-01
9.765625e-04 2.045898e-01
9.765625e-04 2.041016e-01
9.765625e-04 2.036133e-01
9.765625e-04 2.031250e-01
9.765625e-04 2.026367e-01
9.765625e-04 2.021484e-01
9.765625e-04 2.016602e-01
