-4.006372e-01 5.478845e+00 -2.667212e+01 2.779810e+01 2.565582e-04 2.478777e-02 -3.967285e-01 3.969727e-01
-4.882335e-01 5.491831e+00 -2.669897e+01 2.783398e+01 1.888806e-05 2.263262e-02 -3.967285e-01 3.623047e-01
-5.160468e-01 5.503789e+00 -2.673413e+01 2.806104e+01 -5.735710e-06 2.182476e-02 -3.967285e-01 3.474121e-01
-5.623517e-01 5.500762e+00 -2.677759e+01 2.814600e+01 -1.607975e-07 2.099010e-02 -3.867188e-01 3.474121e-01
-5.730532e-01 5.516176e+00 -2.684644e+01 2.823950e+01 1.233266e-05 2.058136e-02 -3.867188e-01 3.474121e-01
-6.147587e-01 5.521800e+00 -2.688037e+01 2.836011e+01 1.396174e-05 2.030040e-02 -3.867188e-01 3.474121e-01
-6.520678e-01 5.520598e+00 -2.697363e+01 2.845581e+01 1.915666e-05 1.990634e-02 -3.867188e-01 3.308105e-01
-6.481828e-01 5.541954e+00 -2.702637e+01 2.856226e+01 3.874679e-05 1.985928e-02 -3.620605e-01 3.474121e-01
-6.913926e-01 5.559759e+00 -2.706104e+01 2.873364e+01 4.691589e-05 1.945596e-02 -3.867188e-01 3.308105e-01
-7.243806e-01 5.575871e+00 -2.716577e+01 2.876953e+01 3.146053e-05 1.941530e-02 -3.867188e-01 3.474121e-01
-7.175330e-01 5.577296e+00 -2.434546e+01 2.885498e+01 3.153561e-05 1.984964e-02 -3.867188e-01 3.623047e-01
-7.799135e-01 5.599035e+00 -2.722876e+01 2.897998e+01 3.711477e-05 1.966240e-02 -3.867188e-01 3.308105e-01
-7.867930e-01 5.605256e+00 -2.729614e+01 2.902197e+01 5.872445e-05 1.960834e-02 -3.967285e-01 3.308105e-01
-8.020092e-01 5.610171e+00 -2.739014e+01 2.642822e+01 5.098311e-05 1.938629e-02 -3.752441e-01 3.308105e-01
-8.169822e-01 5.642391e+00 -2.739697e+01 2.921069e+01 5.460735e-05 1.924053e-02 -3.867188e-01 3.308105e-01
-8.372967e-01 5.636860e+00 -2.745703e+01 2.926855e+01 4.898565e-05 1.957987e-02 -3.867188e-01 3.308105e-01
-8.671682e-01 5.648875e+00 -2.755615e+01 2.657520e+01 5.858884e-05 1.977599e-02 -3.867188e-01 3.308105e-01
-8.677377e-01 5.671477e+00 -2.761816e+01 2.936011e+01 6.235867e-05 1.971596e-02 -3.867188e-01 3.308105e-01
-8.866018e-01 5.694251e+00 -2.762598e+01 2.942871e+01 6.012681e-05 2.013721e-02 -3.867188e-01 3.474121e-01
-9.177573e-01 5.689086e+00 -2.768677e+01 2.950732e+01 6.115097e-05 1.989910e-02 -3.867188e-01 3.474121e-01
-9.170436e-01 5.705680e+00 -2.769385e+01 2.956323e+01 5.609264e-05 1.951459e-02 -4.052734e-01 3.474121e-01
-9.317921e-01 5.712968e+00 -2.772437e+01 2.960840e+01 6.073401e-05 1.944884e-02 -4.052734e-01 3.474121e-01
-9.492534e-01 5.709055e+00 -2.778906e+01 2.684668e+01 4.202768e-05 1.981040e-02 -3.867188e-01 3.474121e-01
-9.583811e-01 5.717012e+00 -2.777686e+01 2.963794e+01 6.183227e-05 2.003613e-02 -3.752441e-01 3.474121e-01
-9.683595e-01 5.742675e+00 -2.781470e+01 2.965601e+01 7.413827e-05 1.975795e-02 -3.752441e-01 3.623047e-01
-9.750328e-01 5.732652e+00 -2.781519e+01 2.968408e+01 4.641829e-05 1.989918e-02 -3.752441e-01 3.623047e-01
-9.824528e-01 5.741238e+00 -2.785840e+01 2.971411e+01 4.271684e-05 2.027015e-02 -3.752441e-01 3.623047e-01
-9.992152e-01 5.761765e+00 -2.785107e+01 2.682397e+01 4.103100e-05 2.035919e-02 -3.752441e-01 3.623047e-01
-1.015866e+00 5.757116e+00 -2.559766e+01 2.973120e+01 5.692983e-05 2.012168e-02 -3.752441e-01 3.623047e-01
-1.029666e+00 5.767909e+00 -2.796558e+01 2.979126e+01 6.658422e-05 2.043624e-02 -3.620605e-01 3.623047e-01
-1.053210e+00 5.774459e+00 -2.796216e+01 2.982300e+01 6.196183e-05 2.014616e-02 -3.752441e-01 3.623047e-01
-1.044426e+00 5.784191e+00 -2.797314e+01 2.981372e+01 5.039341e-05 2.013863e-02 -3.867188e-01 3.623047e-01
-1.051098e+00 5.780833e+00 -2.801489e+01 2.982349e+01 6.805348e-05 2.005753e-02 -3.867188e-01 3.754883e-01
-1.046845e+00 5.787823e+00 -2.573779e+01 2.979907e+01 6.871663e-05 2.047619e-02 -3.867188e-01 3.754883e-01
-1.076053e+00 5.797407e+00 -2.802954e+01 2.981934e+01 6.405203e-05 2.019275e-02 -3.867188e-01 3.754883e-01
-1.063435e+00 5.817508e+00 -2.800806e+01 2.983521e+01 7.266459e-05 1.972088e-02 -3.867188e-01 3.754883e-01
-1.079438e+00 5.807287e+00 -2.801660e+01 2.983228e+01 5.553385e-05 1.999889e-02 -3.867188e-01 3.754883e-01
-1.098170e+00 5.816505e+00 -2.805029e+01 2.983984e+01 5.058823e-05 1.956230e-02 -3.867188e-01 3.754883e-01
-1.097310e+00 5.818020e+00 -2.804199e+01 2.981372e+01 5.825400e-05 1.966776e-02 -3.867188e-01 3.754883e-01
-1.117955e+00 5.827207e+00 -2.805762e+01 2.695581e+01 5.300608e-05 1.960579e-02 -3.867188e-01 3.869629e-01
-1.102214e+00 5.830589e+00 -2.809888e+01 2.690796e+01 5.722624e-05 1.943558e-02 -3.867188e-01 3.869629e-01
-1.115743e+00 5.848865e+00 -2.811182e+01 2.986377e+01 4.654424e-05 2.020857e-02 -3.967285e-01 3.869629e-01
-1.128198e+00 5.845172e+00 -2.812158e+01 2.985718e+01 5.487970e-05 1.960618e-02 -3.967285e-01 3.869629e-01
-1.118660e+00 5.847753e+00 -2.816724e+01 2.988086e+01 5.604471e-05 2.006208e-02 -3.967285e-01 3.869629e-01
-1.114427e+00 5.851724e+00 -2.813770e+01 2.987280e+01 4.768030e-05 1.991608e-02 -3.967285e-01 3.869629e-01
-1.111017e+00 5.871166e+00 -2.818457e+01 2.993701e+01 4.944874e-05 1.955119e-02 -3.967285e-01 3.869629e-01
-1.142923e+00 5.847455e+00 -2.819995e+01 2.992139e+01 4.391979e-05 1.963658e-02 -3.967285e-01 3.869629e-01
-1.156578e+00 5.871876e+00 -2.820093e+01 2.994580e+01 3.635871e-05 1.970278e-02 -3.967285e-01 3.869629e-01
-1.147101e+00 5.865860e+00 -2.825146e+01 2.993677e+01 5.932936e-05 1.958141e-02 -3.967285e-01 3.869629e-01
-1.144432e+00 5.886710e+00 -2.826001e+01 2.994263e+01 4.039239e-05 1.966000e-02 -3.967285e-01 3.869629e-01
-1.156012e+00 5.879699e+00 -2.830811e+01 2.996338e+01 3.828076e-05 1.958119e-02 -3.967285e-01 3.869629e-01
-1.147479e+00 5.891830e+00 -2.832373e+01 2.998096e+01 2.877179e-05 1.949020e-02 -3.967285e-01 3.869629e-01
-1.158097e+00 5.878064e+00 -2.836035e+01 2.998340e+01 3.012687e-05 1.976746e-02 -3.967285e-01 3.869629e-01
-1.150612e+00 5.892157e+00 -2.835474e+01 2.996777e+01 3.328181e-05 1.964008e-02 -4.052734e-01 3.869629e-01
-1.188064e+00 5.899345e+00 -2.838574e+01 2.995605e+01 4.578868e-05 1.960816e-02 -4.052734e-01 3.869629e-01
-1.152321e+00 5.909848e+00 -2.838647e+01 2.997437e+01 5.075017e-05 1.989392e-02 -4.052734e-01 3.869629e-01
-1.163005e+00 5.911621e+00 -2.837329e+01 2.995776e+01 5.366301e-05 2.076940e-02 -4.138184e-01 4.138184e-01
-1.174390e+00 5.909587e+00 -2.842603e+01 2.993530e+01 3.367865e-05 2.020241e-02 -4.143066e-01 4.143066e-01
-1.173358e+00 5.929290e+00 -2.842261e+01 2.992358e+01 5.466787e-05 1.987706e-02 -4.079590e-01 4.079590e-01
-1.170870e+00 5.951382e+00 -2.844971e+01 2.993115e+01 4.538464e-05 1.972699e-02 -4.052734e-01 3.969727e-01
-1.162120e+00 5.933619e+00 -2.601953e+01 2.990283e+01 5.959501e-05 1.925893e-02 -4.052734e-01 3.969727e-01
-1.197712e+00 5.928838e+00 -2.848340e+01 2.990112e+01 4.741546e-05 1.918756e-02 -4.052734e-01 3.869629e-01
-1.208940e+00 5.946915e+00 -2.846069e+01 2.989185e+01 4.955785e-05 1.929724e-02 -4.052734e-01 3.969727e-01
-1.185499e+00 5.934132e+00 -2.849463e+01 2.989136e+01 4.526703e-05 1.965121e-02 -4.052734e-01 3.969727e-01
-1.199191e+00 5.940189e+00 -2.855127e+01 2.987622e+01 4.712462e-05 1.945159e-02 -4.052734e-01 3.969727e-01
-1.183290e+00 5.961703e+00 -2.856250e+01 2.988794e+01 5.521046e-05 2.008837e-02 -4.052734e-01 3.969727e-01
-1.204679e+00 5.955965e+00 -2.860986e+01 2.986768e+01 3.094018e-05 1.978023e-02 -4.052734e-01 3.969727e-01
-1.191697e+00 5.956002e+00 -2.860034e+01 2.987817e+01 3.918633e-05 2.031171e-02 -4.052734e-01 3.969727e-01
-1.227500e+00 5.970451e+00 -2.863989e+01 2.988428e+01 4.379793e-05 1.995427e-02 -4.052734e-01 3.969727e-01
-1.209002e+00 5.975438e+00 -2.864404e+01 2.987671e+01 2.690978e-05 1.963893e-02 -4.052734e-01 3.969727e-01
-1.209590e+00 5.969839e+00 -2.870190e+01 2.987207e+01 2.065634e-05 1.970661e-02 -4.052734e-01 3.969727e-01
-1.204648e+00 5.979667e+00 -2.868604e+01 2.986987e+01 2.507279e-05 2.052655e-02 -3.967285e-01 3.969727e-01
-1.236523e+00 5.988152e+00 -2.874048e+01 2.988281e+01 2.983636e-05 2.030780e-02 -4.052734e-01 3.969727e-01
-1.240967e+00 5.966875e+00 -2.873853e+01 2.988086e+01 4.334073e-05 1.999440e-02 -4.052734e-01 3.969727e-01
-1.244730e+00 5.974994e+00 -2.875854e+01 2.986768e+01 4.931984e-05 1.976484e-02 -4.123535e-01 3.969727e-01
-1.226183e+00 6.000325e+00 -2.877002e+01 2.985083e+01 3.787672e-05 1.972875e-02 -4.052734e-01 3.869629e-01
-1.229066e+00 6.009158e+00 -2.609863e+01 2.983179e+01 2.926972e-05 1.978506e-02 -4.052734e-01 3.969727e-01
-1.227523e+00 5.995123e+00 -2.883521e+01 2.980176e+01 3.098909e-05 1.961622e-02 -4.123535e-01 3.869629e-01
-1.231515e+00 5.982845e+00 -2.608936e+01 2.976489e+01 2.924976e-05 1.977555e-02 -4.052734e-01 3.969727e-01
-1.227782e+00 5.999042e+00 -2.883960e+01 2.975049e+01 4.076928e-05 1.997302e-02 -4.123535e-01 3.869629e-01
-1.241178e+00 6.009004e+00 -2.605933e+01 2.972510e+01 4.777779e-05 1.940018e-02 -4.123535e-01 3.869629e-01
-1.249373e+00 6.000432e+00 -2.886792e+01 2.971997e+01 3.364969e-05 1.956419e-02 -3.967285e-01 3.969727e-01
-1.235113e+00 6.000039e+00 -2.888867e+01 2.968262e+01 4.461206e-05 1.925454e-02 -3.867188e-01 3.969727e-01
-1.228816e+00 6.015025e+00 -2.886377e+01 2.963916e+01 1.981310e-05 1.932164e-02 -4.052734e-01 3.969727e-01
-1.259706e+00 6.024072e+00 -2.887305e+01 2.961987e+01 2.468838e-05 1.938587e-02 -4.052734e-01 3.969727e-01
-1.241963e+00 6.024694e+00 -2.884497e+01 2.960156e+01 2.276078e-05 1.965476e-02 -4.052734e-01 3.969727e-01
-1.242332e+00 6.028609e+00 -2.883545e+01 2.960742e+01 2.656970e-05 1.944164e-02 -4.052734e-01 3.969727e-01
-1.260711e+00 6.021628e+00 -2.879199e+01 2.957544e+01 1.533727e-05 1.908312e-02 -4.052734e-01 3.969727e-01
-1.269951e+00 6.021991e+00 -2.877905e+01 2.955322e+01 4.144256e-05 1.899033e-02 -4.123535e-01 3.969727e-01
-1.263858e+00 6.025540e+00 -2.875269e+01 2.952148e+01 1.560619e-05 1.886614e-02 -4.123535e-01 3.969727e-01
-1.242009e+00 6.027378e+00 -2.873877e+01 2.948389e+01 1.367269e-05 1.911044e-02 -4.123535e-01 3.969727e-01
-1.251862e+00 6.033294e+00 -2.870239e+01 2.949951e+01 2.221672e-05 1.935417e-02 -4.123535e-01 3.969727e-01
-1.246310e+00 6.023909e+00 -2.868213e+01 2.947583e+01 3.171260e-05 1.899478e-02 -4.123535e-01 3.969727e-01
-1.253684e+00 6.035444e+00 -2.866699e+01 2.944263e+01 1.298370e-05 1.969492e-02 -4.123535e-01 3.969727e-01
-1.259075e+00 6.040110e+00 -2.864746e+01 2.940234e+01 2.410768e-05 1.953530e-02 -4.123535e-01 3.969727e-01
-1.259192e+00 6.042352e+00 -2.610889e+01 2.940625e+01 2.058731e-05 1.900382e-02 -4.123535e-01 3.969727e-01
-1.244624e+00 6.035313e+00 -2.861450e+01 2.936938e+01 2.471096e-05 1.896438e-02 -4.052734e-01 3.969727e-01
-1.239895e+00 6.032054e+00 -2.854102e+01 2.935571e+01 2.668437e-05 1.898913e-02 -4.123535e-01 3.969727e-01
-1.251226e+00 6.041795e+00 -2.849927e+01 2.934448e+01 2.752778e-05 1.891682e-02 -4.123535e-01 3.623047e-01
-1.263666e+00 6.047284e+00 -2.851758e+01 2.934644e+01 3.251577e-05 1.922529e-02 -4.052734e-01 3.969727e-01
-1.271113e+00 6.060810e+00 -2.852930e+01 2.930005e+01 2.638469e-05 1.955088e-02 -4.052734e-01 3.969727e-01
-1.264414e+00 6.051400e+00 -2.851147e+01 2.927856e+01 1.307449e-05 1.887661e-02 -4.052734e-01 3.969727e-01
-1.243896e+00 6.036298e+00 -2.844507e+01 2.926416e+01 3.440526e-05 1.875688e-02 -4.052734e-01 3.623047e-01
-1.263498e+00 6.057643e+00 -2.849072e+01 2.924121e+01 1.031165e-05 1.967324e-02 -4.052734e-01 3.969727e-01
-1.281944e+00 6.047884e+00 -2.849438e+01 2.920068e+01 2.293810e-05 1.936200e-02 -4.052734e-01 3.969727e-01
-1.252770e+00 6.055977e+00 -2.850244e+01 2.917700e+01 3.444534e-05 1.941356e-02 -4.052734e-01 3.969727e-01
-1.264382e+00 6.050976e+00 -2.849316e+01 2.915454e+01 1.368431e-05 1.914344e-02 -3.967285e-01 3.969727e-01
-1.262018e+00 6.061853e+00 -2.846021e+01 2.914990e+01 6.384134e-06 1.895708e-02 -3.967285e-01 3.969727e-01
-1.258989e+00 6.068786e+00 -2.845483e+01 2.910693e+01 3.445793e-05 1.898977e-02 -3.967285e-01 3.969727e-01
-1.270536e+00 6.044278e+00 -2.848193e+01 2.560962e+01 9.883729e-06 1.940956e-02 -3.967285e-01 3.969727e-01
-1.260466e+00 6.082572e+00 -2.843335e+01 2.902759e+01 2.406351e-05 1.971350e-02 -4.184570e-01 4.184570e-01
-1.259303e+00 6.056128e+00 -2.841089e+01 2.900635e+01 5.680911e-06 1.967535e-02 -4.189453e-01 4.189453e-01
-1.273491e+00 6.076460e+00 -2.841235e+01 2.890161e+01 3.007224e-05 1.917557e-02 -3.867188e-01 3.969727e-01
-1.262237e+00 6.062044e+00 -2.838770e+01 2.893359e+01 9.043100e-06 2.006254e-02 -4.548340e-01 4.548340e-01
-1.275491e+00 6.088195e+00 -2.839331e+01 2.889844e+01 1.381746e-05 1.940410e-02 -4.672852e-01 4.672852e-01
-1.275197e+00 6.077069e+00 -2.836450e+01 2.885156e+01 2.472094e-05 1.875581e-02 -3.967285e-01 3.969727e-01
-1.272340e+00 6.078298e+00 -2.835449e+01 2.883350e+01 1.566720e-05 1.897737e-02 -3.867188e-01 3.969727e-01
-1.284161e+00 6.066916e+00 -2.831958e+01 2.882642e+01 1.515308e-05 1.906299e-02 -3.752441e-01 3.969727e-01
-1.287893e+00 6.070715e+00 -2.826562e+01 2.880347e+01 5.885220e-06 1.917774e-02 -3.876953e-01 3.969727e-01
-1.270190e+00 6.095614e+00 -2.829712e+01 2.879297e+01 9.088411e-06 1.868665e-02 -3.867188e-01 3.969727e-01
-1.264238e+00 6.084176e+00 -2.823047e+01 2.880493e+01 1.500291e-05 1.842519e-02 -3.867188e-01 3.969727e-01
-1.257985e+00 6.079267e+00 -2.817944e+01 2.878711e+01 1.084819e-05 1.924106e-02 -3.867188e-01 3.969727e-01
-1.269332e+00 6.075673e+00 -2.819775e+01 2.876270e+01 3.031597e-06 1.937096e-02 -3.967285e-01 3.969727e-01
-1.279454e+00 6.076711e+00 -2.818457e+01 2.878467e+01 3.406224e-05 1.901537e-02 -3.867188e-01 3.969727e-01
-1.264261e+00 6.084817e+00 -2.817139e+01 2.877417e+01 3.298066e-06 1.872811e-02 -3.867188e-01 3.969727e-01
-1.277038e+00 6.087283e+00 -2.813696e+01 2.877271e+01 3.139526e-05 1.896026e-02 -3.867188e-01 3.969727e-01
-1.276454e+00 6.086740e+00 -2.808252e+01 2.876758e+01 -5.954741e-06 1.861445e-02 -3.967285e-01 3.969727e-01
-1.288261e+00 6.085889e+00 -2.815137e+01 2.528369e+01 2.298521e-05 1.960980e-02 -4.082031e-01 4.082031e-01
-1.263777e+00 6.084286e+00 -2.804688e+01 2.875391e+01 1.948561e-05 1.976610e-02 -4.106445e-01 4.106445e-01
-1.273332e+00 6.085924e+00 -2.631982e+01 2.876147e+01 1.378474e-05 1.913938e-02 -3.752441e-01 3.869629e-01
-1.300450e+00 6.081814e+00 -2.801245e+01 2.875757e+01 1.573869e-05 1.853361e-02 -3.967285e-01 3.869629e-01
-1.287027e+00 6.084006e+00 -2.794556e+01 2.877393e+01 1.022528e-06 1.837195e-02 -3.867188e-01 3.869629e-01
-1.288320e+00 6.091853e+00 -2.794019e+01 2.873877e+01 2.280331e-05 1.811658e-02 -3.867188e-01 3.969727e-01
-1.285126e+00 6.098972e+00 -2.795215e+01 2.872681e+01 4.628939e-06 1.822664e-02 -3.867188e-01 3.869629e-01
-1.287236e+00 6.090704e+00 -2.787256e+01 2.873022e+01 1.760299e-05 1.841163e-02 -3.867188e-01 3.754883e-01
-1.269880e+00 6.098546e+00 -2.786963e+01 2.872583e+01 5.131615e-06 1.801392e-02 -3.867188e-01 3.474121e-01
-1.279188e+00 6.089383e+00 -2.784863e+01 2.870654e+01 8.761909e-06 1.873824e-02 -4.042969e-01 4.042969e-01
-1.283382e+00 6.093693e+00 -2.786450e+01 2.868311e+01 8.546803e-06 1.839059e-02 -4.162598e-01 4.162598e-01
-1.299812e+00 6.101447e+00 -2.779150e+01 2.868188e+01 9.522057e-06 1.841847e-02 -3.867188e-01 3.754883e-01
-1.272146e+00 6.106870e+00 -2.778027e+01 2.863135e+01 1.535150e-05 1.839697e-02 -3.867188e-01 3.779297e-01
-1.302630e+00 6.100455e+00 -2.776196e+01 2.861890e+01 1.755261e-05 1.885815e-02 -3.867188e-01 3.786621e-01
-1.288497e+00 6.109656e+00 -2.772168e+01 2.862061e+01 4.336461e-06 1.856483e-02 -3.867188e-01 3.754883e-01
-1.308700e+00 6.098605e+00 -2.768311e+01 2.861084e+01 -8.596040e-06 1.860956e-02 -4.096680e-01 4.096680e-01
-1.289208e+00 6.104347e+00 -2.767090e+01 2.860376e+01 1.082152e-05 1.841434e-02 -3.867188e-01 3.754883e-01
-1.299080e+00 6.107729e+00 -2.767456e+01 2.855127e+01 -3.459845e-06 1.839739e-02 -3.867188e-01 3.754883e-01
-1.290843e+00 6.105475e+00 -2.765601e+01 2.856421e+01 -1.054753e-06 1.841862e-02 -3.867188e-01 3.754883e-01
-1.268454e+00 6.101877e+00 -2.636621e+01 2.854883e+01 1.311146e-05 1.794384e-02 -3.752441e-01 3.754883e-01
-1.289829e+00 6.100733e+00 -2.751904e+01 2.853174e+01 1.258244e-06 1.818011e-02 -3.867188e-01 3.754883e-01
-1.287604e+00 6.101668e+00 -2.753931e+01 2.852661e+01 -3.798288e-06 1.820006e-02 -4.086914e-01 4.086914e-01
-1.267643e+00 6.092625e+00 -2.749170e+01 2.851514e+01 1.237454e-05 1.831246e-02 -3.867188e-01 3.754883e-01
-1.268944e+00 6.114308e+00 -2.746558e+01 2.851758e+01 7.836873e-06 1.826220e-02 -3.752441e-01 3.308105e-01
-1.276094e+00 6.115444e+00 -2.746387e+01 2.853906e+01 1.249984e-05 1.839092e-02 -3.867188e-01 3.754883e-01
-1.281893e+00 6.107075e+00 -2.638403e+01 2.854028e+01 -1.113314e-06 1.876406e-02 -3.867188e-01 3.754883e-01
-1.254327e+00 6.099036e+00 -2.738672e+01 2.851733e+01 -1.178762e-05 1.796577e-02 -3.752441e-01 3.754883e-01
-1.314709e+00 6.105902e+00 -2.734839e+01 2.853833e+01 9.220746e-06 1.821724e-02 -3.752441e-01 3.754883e-01
-1.288262e+00 6.103430e+00 -2.734717e+01 2.852515e+01 -8.710872e-06 1.895398e-02 -5.812988e-01 5.812988e-01
-1.291884e+00 6.132143e+00 -2.729395e+01 2.850830e+01 -5.212914e-06 1.901569e-02 -5.803223e-01 5.803223e-01
-1.308035e+00 6.132325e+00 -2.644922e+01 2.849707e+01 -1.111760e-05 1.860385e-02 -4.145508e-01 4.145508e-01
-1.293695e+00 6.106913e+00 -2.373315e+01 2.849829e+01 7.627820e-06 1.826885e-02 -3.752441e-01 3.754883e-01
-1.328610e+00 6.122038e+00 -2.720020e+01 2.849146e+01 -8.018282e-06 1.807819e-02 -3.752441e-01 3.754883e-01
-1.287221e+00 6.119733e+00 -2.715430e+01 2.851196e+01 2.924617e-06 1.839999e-02 -4.150391e-01 4.150391e-01
-1.270125e+00 6.124776e+00 -2.713843e+01 2.851587e+01 1.869913e-05 1.767980e-02 -3.752441e-01 3.754883e-01
-1.314691e+00 6.124333e+00 -2.707544e+01 2.848853e+01 2.444073e-05 1.740141e-02 -3.752441e-01 3.754883e-01
-1.310600e+00 6.124330e+00 -2.704004e+01 2.849438e+01 -3.538199e-06 1.781117e-02 -3.752441e-01 3.754883e-01
-1.313232e+00 6.128010e+00 -2.702661e+01 2.850244e+01 1.715822e-05 1.791391e-02 -3.752441e-01 3.754883e-01
-1.293535e+00 6.139169e+00 -2.698584e+01 2.851270e+01 3.030288e-06 1.838717e-02 -3.752441e-01 3.754883e-01
-1.312124e+00 6.142012e+00 -2.696411e+01 2.850220e+01 5.670442e-06 1.834927e-02 -3.752441e-01 3.754883e-01
-1.298552e+00 6.126119e+00 -2.691479e+01 2.851196e+01 5.113458e-06 1.806183e-02 -3.620605e-01 3.754883e-01
-1.317960e+00 6.130374e+00 -2.691455e+01 2.850220e+01 3.328819e-07 1.869540e-02 -3.752441e-01 3.754883e-01
-1.319739e+00 6.153381e+00 -2.685742e+01 2.850928e+01 1.123963e-05 1.810516e-02 -3.752441e-01 3.754883e-01
-1.307579e+00 6.145801e+00 -2.677148e+01 2.850903e+01 -7.611135e-06 1.823410e-02 -3.752441e-01 3.754883e-01
-1.323097e+00 6.144155e+00 -2.683496e+01 2.851343e+01 1.019698e-05 1.799538e-02 -4.052734e-01 3.754883e-01
-1.332697e+00 6.127467e+00 -2.675610e+01 2.850488e+01 1.576175e-05 1.797225e-02 -4.052734e-01 3.754883e-01
-1.301336e+00 6.144261e+00 -2.682300e+01 2.853052e+01 5.491815e-06 1.758738e-02 -3.752441e-01 3.754883e-01
-1.330495e+00 6.148854e+00 -2.680054e+01 2.852100e+01 3.739891e-06 1.913539e-02 -3.620605e-01 3.754883e-01
-1.307580e+00 6.140264e+00 -2.675708e+01 2.853516e+01 1.905049e-05 1.762359e-02 -3.620605e-01 3.754883e-01
-1.315667e+00 6.126677e+00 -2.673926e+01 2.854980e+01 1.884095e-06 1.757088e-02 -3.620605e-01 3.754883e-01
-1.302800e+00 6.153425e+00 -2.673755e+01 2.854175e+01 2.248057e-06 1.816924e-02 -3.620605e-01 3.754883e-01
-1.300848e+00 6.138460e+00 -2.672803e+01 2.854443e+01 2.340969e-06 1.796650e-02 -3.967285e-01 3.754883e-01
-1.315636e+00 6.136212e+00 -2.674561e+01 2.852979e+01 1.543361e-05 1.787243e-02 -3.967285e-01 3.754883e-01
-1.316387e+00 6.132222e+00 -2.658594e+01 2.850391e+01 -5.584236e-06 1.815667e-02 -3.967285e-01 3.754883e-01
-1.354119e+00 6.156381e+00 -2.666333e+01 2.851489e+01 8.041673e-06 1.788066e-02 -3.967285e-01 3.754883e-01
-1.314872e+00 6.150332e+00 -2.665967e+01 2.852686e+01 2.062772e-05 1.734374e-02 -3.620605e-01 3.754883e-01
-1.315496e+00 6.150379e+00 -2.671436e+01 2.851514e+01 -7.321765e-06 1.753265e-02 -3.620605e-01 3.754883e-01
-1.338102e+00 6.165973e+00 -2.668677e+01 2.852271e+01 6.100162e-06 1.793575e-02 -3.620605e-01 3.754883e-01
-1.346243e+00 6.152751e+00 -2.667236e+01 2.851953e+01 8.597185e-06 1.767465e-02 -3.620605e-01 3.754883e-01
-1.358916e+00 6.166558e+00 -2.667383e+01 2.853760e+01 -8.723631e-06 1.750713e-02 -3.620605e-01 3.754883e-01
-1.360243e+00 6.155593e+00 -2.663110e+01 2.853931e+01 1.436283e-05 1.765458e-02 -3.620605e-01 3.754883e-01
-1.349737e+00 6.163040e+00 -2.663965e+01 2.854468e+01 3.520860e-06 1.825788e-02 -3.620605e-01 3.754883e-01
-1.362773e+00 6.153915e+00 -2.664819e+01 2.853540e+01 -1.894728e-06 1.809678e-02 -3.620605e-01 3.754883e-01
-1.333957e+00 6.152704e+00 -2.664355e+01 2.854004e+01 2.686267e-05 1.748182e-02 -3.620605e-01 3.754883e-01
-1.335256e+00 6.158292e+00 -2.665259e+01 2.853271e+01 -2.270303e-06 1.749433e-02 -3.752441e-01 3.332520e-01
-1.358788e+00 6.160159e+00 -2.666040e+01 2.852881e+01 6.867508e-06 1.808313e-02 -3.620605e-01 3.754883e-01
-1.368837e+00 6.150540e+00 -2.666162e+01 2.448877e+01 1.749634e-05 1.791846e-02 -3.620605e-01 3.754883e-01
-1.342734e+00 6.163799e+00 -2.667944e+01 2.848828e+01 1.298174e-05 1.770778e-02 -3.620605e-01 3.754883e-01
-1.357249e+00 6.156615e+00 -2.650635e+01 2.847632e+01 1.200436e-05 1.774240e-02 -3.620605e-01 3.754883e-01
-1.354294e+00 6.169574e+00 -2.670190e+01 2.846753e+01 6.641279e-08 1.849136e-02 -3.867188e-01 3.754883e-01
-1.349661e+00 6.158754e+00 -2.670801e+01 2.454004e+01 9.786236e-06 1.705711e-02 -3.752441e-01 3.754883e-01
-1.378494e+00 6.170640e+00 -2.670630e+01 2.849268e+01 6.503546e-06 1.707583e-02 -3.867188e-01 3.754883e-01
-1.320096e+00 6.166301e+00 -2.670337e+01 2.849683e+01 4.440006e-06 1.744278e-02 -3.867188e-01 3.754883e-01
-1.357834e+00 6.168804e+00 -2.673267e+01 2.851904e+01 2.223062e-05 1.755039e-02 -3.867188e-01 3.754883e-01
-1.374081e+00 6.178717e+00 -2.673340e+01 2.854248e+01 -1.240283e-05 1.785847e-02 -3.894043e-01 3.894043e-01
-1.377189e+00 6.189713e+00 -2.638867e+01 2.854297e+01 -5.717062e-07 1.752140e-02 -3.620605e-01 3.754883e-01
-1.375813e+00 6.176227e+00 -2.671851e+01 2.853149e+01 2.204430e-05 1.823364e-02 -3.620605e-01 3.754883e-01
-1.386440e+00 6.175820e+00 -2.671997e+01 2.856250e+01 -6.534953e-07 1.827049e-02 -4.392090e-01 4.392090e-01
-1.372674e+00 6.175728e+00 -2.674292e+01 2.854102e+01 2.572841e-05 1.793913e-02 -4.387207e-01 4.387207e-01
-1.380301e+00 6.173784e+00 -2.672900e+01 2.852588e+01 4.976706e-06 1.772556e-02 -4.375000e-01 4.375000e-01
-1.384676e+00 6.170738e+00 -2.671704e+01 2.853320e+01 3.273693e-06 1.803532e-02 -4.389648e-01 4.389648e-01
-1.364472e+00 6.178509e+00 -2.671924e+01 2.854102e+01 -2.191622e-06 1.757718e-02 -3.620605e-01 3.754883e-01
-1.376466e+00 6.174354e+00 -2.671021e+01 2.852637e+01 2.922817e-06 1.730761e-02 -3.620605e-01 3.754883e-01
-1.375194e+00 6.179742e+00 -2.671802e+01 2.855566e+01 -5.489852e-06 1.719875e-02 -3.752441e-01 3.754883e-01
-1.356241e+00 6.181508e+00 -2.671118e+01 2.441895e+01 3.834668e-05 1.683116e-02 -3.752441e-01 3.754883e-01
-1.369509e+00 6.189861e+00 -2.669653e+01 2.860596e+01 -1.325802e-06 1.748600e-02 -3.662109e-01 3.754883e-01
-1.378758e+00 6.181066e+00 -2.668091e+01 2.859326e+01 -9.371401e-06 1.744330e-02 -3.666992e-01 3.754883e-01
-1.395950e+00 6.183964e+00 -2.669165e+01 2.860498e+01 4.035477e-06 1.716884e-02 -3.620605e-01 3.754883e-01
-1.395933e+00 6.178459e+00 -2.668994e+01 2.439893e+01 1.906505e-05 1.694255e-02 -3.620605e-01 3.754883e-01
-1.368645e+00 6.197211e+00 -2.670874e+01 2.863062e+01 1.210430e-05 1.744882e-02 -3.681641e-01 3.754883e-01
-1.367866e+00 6.180198e+00 -2.671875e+01 2.863721e+01 -1.322858e-06 1.751861e-02 -3.684082e-01 3.754883e-01
-1.390380e+00 6.190156e+00 -2.668213e+01 2.439087e+01 -9.219437e-06 1.806002e-02 -3.681641e-01 3.754883e-01
-1.392418e+00 6.187580e+00 -2.667334e+01 2.868701e+01 2.215701e-05 1.785367e-02 -4.226074e-01 4.226074e-01
-1.365936e+00 6.181337e+00 -2.667407e+01 2.865601e+01 1.017032e-05 1.688409e-02 -3.620605e-01 3.754883e-01
-1.412496e+00 6.198391e+00 -2.668213e+01 2.867676e+01 -7.706665e-06 1.770678e-02 -3.688965e-01 3.754883e-01
-1.395688e+00 6.192939e+00 -2.668140e+01 2.871631e+01 4.419722e-06 1.741298e-02 -3.620605e-01 3.125000e-01
-1.369114e+00 6.196758e+00 -2.669482e+01 2.872876e+01 -2.186878e-06 1.766394e-02 -3.752441e-01 3.754883e-01
-1.404493e+00 6.203406e+00 -2.668628e+01 2.872461e+01 -1.615336e-06 1.766255e-02 -3.752441e-01 3.754883e-01
-1.377215e+00 6.179482e+00 -2.668994e+01 2.871362e+01 1.945731e-05 1.729607e-02 -3.752441e-01 3.696289e-01
-1.424595e+00 6.197762e+00 -2.667700e+01 2.871436e+01 -1.336762e-06 1.725247e-02 -3.752441e-01 3.696289e-01
-1.392469e+00 6.194110e+00 -2.667578e+01 2.872192e+01 -5.757956e-07 1.771296e-02 -3.752441e-01 3.754883e-01
-1.403145e+00 6.200348e+00 -2.666577e+01 2.872314e+01 2.487290e-05 1.730085e-02 -3.752441e-01 3.754883e-01
-1.401784e+00 6.202039e+00 -2.668604e+01 2.871143e+01 -3.918191e-06 1.809680e-02 -4.267578e-01 4.267578e-01
-1.387384e+00 6.193813e+00 -2.668042e+01 2.871631e+01 2.598801e-05 1.714565e-02 -3.620605e-01 3.754883e-01
-1.436519e+00 6.220247e+00 -2.666284e+01 2.870972e+01 1.909580e-05 1.751754e-02 -3.620605e-01 3.754883e-01
-1.427189e+00 6.232125e+00 -2.667480e+01 2.873413e+01 8.345438e-06 1.712708e-02 -3.752441e-01 3.754883e-01
-1.396144e+00 6.205991e+00 -2.663867e+01 2.872949e+01 9.940654e-06 1.776147e-02 -4.238281e-01 3.754883e-01
-1.415084e+00 6.225870e+00 -2.588745e+01 2.872949e+01 5.879332e-06 1.700365e-02 -4.238281e-01 3.754883e-01
-1.412840e+00 6.205433e+00 -2.666016e+01 2.440991e+01 1.867197e-05 1.734490e-02 -4.238281e-01 3.754883e-01
-1.431966e+00 6.231768e+00 -2.665137e+01 2.874097e+01 5.847925e-06 1.710645e-02 -4.238281e-01 3.754883e-01
-1.391650e+00 6.215761e+00 -2.662280e+01 2.878076e+01 -1.953354e-05 1.790093e-02 -4.238281e-01 3.754883e-01
-1.421538e+00 6.221668e+00 -2.663452e+01 2.876025e+01 1.687376e-05 1.729957e-02 -4.238281e-01 3.754883e-01
-1.400058e+00 6.230219e+00 -2.662769e+01 2.876636e+01 5.861829e-06 1.769630e-02 -4.460449e-01 4.460449e-01
-1.420312e+00 6.219117e+00 -2.584399e+01 2.877368e+01 1.879678e-05 1.747818e-02 -4.462891e-01 4.462891e-01
-1.410925e+00 6.197509e+00 -2.660156e+01 2.881372e+01 -4.029261e-06 1.699405e-02 -4.238281e-01 3.754883e-01
-1.428008e+00 6.218903e+00 -2.660742e+01 2.879126e+01 1.239924e-06 1.843435e-02 -4.472656e-01 4.472656e-01
-1.439644e+00 6.215555e+00 -2.660449e+01 2.882251e+01 1.571268e-05 1.703358e-02 -4.045410e-01 4.045410e-01
-1.400109e+00 6.223276e+00 -2.660474e+01 2.442041e+01 -3.981660e-06 1.679240e-02 -4.238281e-01 3.754883e-01
-1.425516e+00 6.233237e+00 -2.656055e+01 2.441455e+01 -1.114246e-05 1.741215e-02 -4.238281e-01 3.754883e-01
-1.444548e+00 6.235337e+00 -2.656494e+01 2.880200e+01 5.795252e-06 1.755538e-02 -4.238281e-01 3.754883e-01
-1.418982e+00 6.214572e+00 -2.658984e+01 2.879932e+01 7.639271e-06 1.763696e-02 -4.187012e-01 4.057617e-01
-1.430657e+00 6.236027e+00 -2.658008e+01 2.880615e+01 6.090348e-06 1.683284e-02 -4.187012e-01 3.754883e-01
-1.417309e+00 6.227722e+00 -2.659033e+01 2.432764e+01 -1.420710e-05 1.765143e-02 -4.187012e-01 3.823242e-01
-1.446739e+00 6.243122e+00 -2.659912e+01 2.879321e+01 -1.030527e-05 1.734821e-02 -4.187012e-01 3.754883e-01
-1.441701e+00 6.218189e+00 -2.659424e+01 2.876343e+01 8.114302e-06 1.709943e-02 -4.187012e-01 3.754883e-01
-1.449599e+00 6.234490e+00 -2.661621e+01 2.876172e+01 -1.662119e-06 1.718336e-02 -4.187012e-01 3.754883e-01
-1.416076e+00 6.230971e+00 -2.660449e+01 2.874243e+01 4.489570e-06 1.693647e-02 -4.187012e-01 4.072266e-01
-1.445053e+00 6.249919e+00 -2.659570e+01 2.874512e+01 1.058712e-05 1.689483e-02 -4.123535e-01 3.754883e-01
-1.459757e+00 6.240985e+00 -2.659521e+01 2.875806e+01 6.163303e-06 1.761607e-02 -4.187012e-01 3.850098e-01
-1.454605e+00 6.243593e+00 -2.660815e+01 2.874878e+01 3.764591e-06 1.724743e-02 -4.123535e-01 3.754883e-01
-1.433606e+00 6.247852e+00 -2.660400e+01 2.878149e+01 1.073270e-05 1.685250e-02 -4.123535e-01 3.754883e-01
-1.437998e+00 6.250142e+00 -2.660620e+01 2.875049e+01 -1.344663e-05 1.720810e-02 -4.355469e-01 4.355469e-01
-1.467706e+00 6.229300e+00 -2.658521e+01 2.874731e+01 1.347035e-05 1.649973e-02 -4.123535e-01 3.754883e-01
-1.442521e+00 6.243655e+00 -2.661353e+01 2.875806e+01 -6.365323e-06 1.679526e-02 -4.123535e-01 3.623047e-01
-1.446350e+00 6.247782e+00 -2.665601e+01 2.878833e+01 9.945888e-06 1.719440e-02 -4.123535e-01 3.864746e-01
-1.455803e+00 6.263986e+00 -2.663306e+01 2.880688e+01 -1.096302e-06 1.746072e-02 -4.123535e-01 3.754883e-01
-1.456437e+00 6.262209e+00 -2.663599e+01 2.880396e+01 -6.369576e-06 1.724365e-02 -4.123535e-01 3.754883e-01
-1.455367e+00 6.264827e+00 -2.665112e+01 2.880713e+01 -2.035748e-05 1.649056e-02 -3.752441e-01 3.754883e-01
-1.462712e+00 6.272441e+00 -2.668945e+01 2.879639e+01 7.149190e-06 1.791122e-02 -4.123535e-01 3.754883e-01
-1.470184e+00 6.262465e+00 -2.667310e+01 2.880347e+01 1.933626e-05 1.671891e-02 -5.317383e-01 5.317383e-01
-1.454311e+00 6.264230e+00 -2.667236e+01 2.880005e+01 1.067839e-06 1.614379e-02 -3.752441e-01 3.754883e-01
-1.447356e+00 6.258051e+00 -2.670117e+01 2.881909e+01 9.821405e-06 1.734936e-02 -5.324707e-01 5.324707e-01
-1.477752e+00 6.267581e+00 -2.671094e+01 2.882568e+01 -7.761791e-07 1.714729e-02 -4.372559e-01 4.372559e-01
-1.450342e+00 6.272391e+00 -2.672119e+01 2.883228e+01 -3.329473e-06 1.752354e-02 -4.377441e-01 4.377441e-01
-1.484956e+00 6.279008e+00 -2.671216e+01 2.880347e+01 -1.602086e-05 1.800235e-02 -4.392090e-01 4.392090e-01
-1.461903e+00 6.287469e+00 -2.670532e+01 2.881665e+01 1.169847e-05 1.691954e-02 -4.382324e-01 4.382324e-01
-1.493687e+00 6.297389e+00 -2.673022e+01 2.879297e+01 -1.148778e-05 1.757462e-02 -4.399414e-01 4.399414e-01
-1.449537e+00 6.269185e+00 -2.673315e+01 2.878833e+01 7.134141e-06 1.661276e-02 -3.967285e-01 3.754883e-01
-1.460636e+00 6.277618e+00 -2.673657e+01 2.878784e+01 1.080255e-05 1.661857e-02 -3.967285e-01 3.754883e-01
-1.482000e+00 6.284693e+00 -2.673730e+01 2.878491e+01 -1.633100e-05 1.727459e-02 -3.967285e-01 3.952637e-01
-1.461886e+00 6.278463e+00 -2.676001e+01 2.878784e+01 -6.572904e-06 1.657060e-02 -3.967285e-01 3.754883e-01
-1.468200e+00 6.277576e+00 -2.675317e+01 2.880420e+01 1.932023e-06 1.652684e-02 -3.967285e-01 3.754883e-01
-1.467053e+00 6.276169e+00 -2.676562e+01 2.879614e+01 -9.592886e-06 1.644954e-02 -3.967285e-01 3.754883e-01
-1.464076e+00 6.278415e+00 -2.677295e+01 2.881885e+01 5.412806e-06 1.740459e-02 -4.042969e-01 4.042969e-01
-1.487846e+00 6.285931e+00 -2.678564e+01 2.880786e+01 6.391822e-06 1.737438e-02 -3.867188e-01 3.754883e-01
-1.499328e+00 6.287524e+00 -2.680225e+01 2.881665e+01 6.922634e-06 1.691771e-02 -3.867188e-01 3.791504e-01
-1.507808e+00 6.286170e+00 -2.680029e+01 2.882983e+01 3.866991e-07 1.633055e-02 -3.867188e-01 3.754883e-01
-1.470664e+00 6.297295e+00 -2.681763e+01 2.883179e+01 5.163349e-06 1.617508e-02 -3.867188e-01 3.754883e-01
-1.477969e+00 6.289696e+00 -2.680151e+01 2.882910e+01 -2.623632e-06 1.710369e-02 -3.867188e-01 3.754883e-01
-1.482456e+00 6.296800e+00 -2.681714e+01 2.883545e+01 -9.994471e-06 1.604602e-02 -3.752441e-01 3.754883e-01
-1.482213e+00 6.294663e+00 -2.680518e+01 2.882056e+01 -5.124091e-06 1.658067e-02 -4.072266e-01 4.072266e-01
-1.487489e+00 6.312023e+00 -2.680981e+01 2.882788e+01 6.638826e-06 1.684230e-02 -3.867188e-01 3.754883e-01
-1.468490e+00 6.307147e+00 -2.682666e+01 2.881470e+01 -1.779994e-05 1.740738e-02 -3.989258e-01 3.989258e-01
-1.462445e+00 6.301405e+00 -2.680884e+01 2.880957e+01 5.507518e-06 1.602097e-02 -3.957520e-01 3.957520e-01
-1.458867e+00 6.298948e+00 -2.680811e+01 2.881030e+01 -7.562880e-06 1.757154e-02 -4.458008e-01 4.458008e-01
-1.468869e+00 6.302850e+00 -2.680127e+01 2.879370e+01 1.781859e-06 1.678382e-02 -3.752441e-01 3.754883e-01
-1.477121e+00 6.302024e+00 -2.680664e+01 2.879443e+01 4.883467e-06 1.685782e-02 -3.752441e-01 3.754883e-01
-1.471745e+00 6.303469e+00 -2.680176e+01 2.877246e+01 -2.042259e-05 1.791179e-02 -5.786133e-01 5.786133e-01
-1.503493e+00 6.324709e+00 -2.682886e+01 2.876904e+01 -1.105299e-06 1.602827e-02 -3.752441e-01 3.754883e-01
-1.507040e+00 6.313050e+00 -2.542993e+01 2.876660e+01 1.470193e-05 1.635495e-02 -3.752441e-01 3.754883e-01
-1.485817e+00 6.310772e+00 -2.685596e+01 2.876611e+01 -7.026670e-06 1.598876e-02 -3.752441e-01 3.754883e-01
-1.495941e+00 6.303996e+00 -2.685669e+01 2.875610e+01 2.094130e-06 1.614815e-02 -3.752441e-01 3.754883e-01
-1.477702e+00 6.307490e+00 -2.684497e+01 2.873462e+01 6.765926e-06 1.585022e-02 -3.752441e-01 3.754883e-01
-1.498199e+00 6.318113e+00 -2.686548e+01 2.873315e+01 -1.124405e-05 1.678026e-02 -3.752441e-01 3.754883e-01
-1.500514e+00 6.321632e+00 -2.684473e+01 2.459644e+01 1.675533e-06 1.591538e-02 -3.752441e-01 3.754883e-01
-1.493646e+00 6.319573e+00 -2.686548e+01 2.870337e+01 -1.474953e-05 1.659070e-02 -4.201660e-01 4.201660e-01
-1.512404e+00 6.317821e+00 -2.689551e+01 2.870752e+01 5.801632e-06 1.667186e-02 -3.752441e-01 3.754883e-01
-1.505411e+00 6.327373e+00 -2.691260e+01 2.870850e+01 2.527776e-06 1.646942e-02 -3.845215e-01 3.845215e-01
-1.511640e+00 6.322336e+00 -2.690503e+01 2.870898e+01 -1.072043e-05 1.635594e-02 -3.994141e-01 3.994141e-01
-1.484439e+00 6.321329e+00 -2.692871e+01 2.870483e+01 9.446974e-06 1.642317e-02 -3.752441e-01 3.623047e-01
-1.502487e+00 6.333533e+00 -2.691650e+01 2.869775e+01 1.075495e-05 1.621771e-02 -3.752441e-01 3.754883e-01
-1.501533e+00 6.337137e+00 -2.692920e+01 2.868604e+01 -2.997409e-06 1.632615e-02 -3.752441e-01 3.623047e-01
-1.507495e+00 6.319442e+00 -2.692432e+01 2.867163e+01 -1.293365e-05 1.590295e-02 -3.752441e-01 3.754883e-01
-1.495465e+00 6.322378e+00 -2.694849e+01 2.866284e+01 1.464288e-05 1.581488e-02 -3.752441e-01 3.623047e-01
-1.493197e+00 6.315079e+00 -2.695312e+01 2.866431e+01 -9.631982e-06 1.679333e-02 -4.792480e-01 4.792480e-01
-1.498771e+00 6.324558e+00 -2.543140e+01 2.862769e+01 -8.480554e-06 1.691044e-02 -4.379883e-01 4.379883e-01
-1.494859e+00 6.323471e+00 -2.696851e+01 2.864355e+01 -4.638917e-06 1.670506e-02 -4.396973e-01 4.396973e-01
-1.519133e+00 6.344310e+00 -2.695068e+01 2.865698e+01 -7.307043e-07 1.660854e-02 -4.055176e-01 4.055176e-01
-1.494156e+00 6.344103e+00 -2.543359e+01 2.865649e+01 -1.796204e-05 1.726648e-02 -3.752441e-01 3.754883e-01
-1.524748e+00 6.358490e+00 -2.696924e+01 2.864185e+01 5.114603e-06 1.574514e-02 -3.752441e-01 3.623047e-01
-1.519722e+00 6.327871e+00 -2.696362e+01 2.865503e+01 -3.257335e-06 1.687799e-02 -4.826660e-01 4.826660e-01
-1.497799e+00 6.332563e+00 -2.694678e+01 2.863135e+01 -1.006694e-05 1.675303e-02 -3.752441e-01 3.623047e-01
-1.513735e+00 6.321514e+00 -2.550659e+01 2.863916e+01 -2.718671e-06 1.610143e-02 -3.752441e-01 2.922363e-01
-1.536445e+00 6.341172e+00 -2.698730e+01 2.862769e+01 -4.550421e-06 1.582126e-02 -3.752441e-01 3.623047e-01
-1.512589e+00 6.333814e+00 -2.698901e+01 2.310864e+01 -1.343043e-05 1.688715e-02 -3.752441e-01 3.623047e-01
-1.527820e+00 6.331485e+00 -2.698291e+01 2.857642e+01 2.867364e-06 1.703873e-02 -5.861816e-01 5.861816e-01
-1.516836e+00 6.339312e+00 -2.700537e+01 2.857983e+01 -8.723631e-06 1.617547e-02 -3.752441e-01 3.623047e-01
-1.530160e+00 6.353504e+00 -2.550220e+01 2.856763e+01 1.714955e-06 1.680043e-02 -4.843750e-01 4.843750e-01
-1.530499e+00 6.340837e+00 -2.703125e+01 2.856763e+01 -1.385590e-05 1.739136e-02 -4.848633e-01 4.848633e-01
-1.517994e+00 6.333899e+00 -2.704102e+01 2.850537e+01 1.838555e-05 1.638746e-02 -5.004883e-01 5.004883e-01
-1.544753e+00 6.352321e+00 -2.704272e+01 2.448633e+01 -9.929530e-06 1.711053e-02 -4.416504e-01 4.416504e-01
-1.529718e+00 6.353465e+00 -2.704785e+01 2.845776e+01 -1.124944e-05 1.680405e-02 -4.160156e-01 4.160156e-01
-1.537821e+00 6.354639e+00 -2.706738e+01 2.845532e+01 2.404110e-06 1.718560e-02 -4.162598e-01 4.162598e-01
-1.531786e+00 6.348014e+00 -2.706763e+01 2.847168e+01 8.449310e-06 1.635533e-02 -3.752441e-01 3.654785e-01
-1.533202e+00 6.362509e+00 -2.707178e+01 2.846362e+01 -8.288349e-06 1.648836e-02 -3.752441e-01 3.623047e-01
-1.533997e+00 6.357570e+00 -2.708350e+01 2.845825e+01 -1.697468e-05 1.693591e-02 -3.752441e-01 3.640137e-01
-1.537336e+00 6.361698e+00 -2.711133e+01 2.847852e+01 -1.431572e-05 1.731768e-02 -3.752441e-01 3.669434e-01
-1.517887e+00 6.353549e+00 -2.710571e+01 2.847876e+01 -5.072073e-06 1.614179e-02 -3.752441e-01 3.623047e-01
-1.529535e+00 6.353609e+00 -2.710327e+01 2.446411e+01 -5.895689e-06 1.628236e-02 -3.752441e-01 3.635254e-01
-1.533945e+00 6.368823e+00 -2.712085e+01 2.444360e+01 6.484244e-07 1.680713e-02 -3.752441e-01 3.623047e-01
-1.549921e+00 6.341830e+00 -2.713745e+01 2.445166e+01 -2.337534e-07 1.606939e-02 -3.752441e-01 3.657227e-01
-1.527908e+00 6.368261e+00 -2.716138e+01 2.849805e+01 5.208006e-06 1.642345e-02 -4.157715e-01 4.157715e-01
-1.534059e+00 6.374609e+00 -2.717969e+01 2.851294e+01 6.487843e-06 1.675710e-02 -5.012207e-01 5.012207e-01
-1.531917e+00 6.378847e+00 -2.721533e+01 2.852002e+01 -1.819400e-05 1.697587e-02 -4.431152e-01 4.431152e-01
-1.575563e+00 6.380917e+00 -2.721582e+01 2.852148e+01 -5.111986e-06 1.646578e-02 -3.752441e-01 3.623047e-01
-1.546395e+00 6.380434e+00 -2.723071e+01 2.851001e+01 -1.717082e-06 1.582624e-02 -3.752441e-01 3.623047e-01
-1.548094e+00 6.374374e+00 -2.722803e+01 2.849902e+01 3.123528e-06 1.593453e-02 -3.752441e-01 3.623047e-01
-1.559960e+00 6.375293e+00 -2.726392e+01 2.852954e+01 -1.698793e-05 1.672561e-02 -3.752441e-01 3.669434e-01
-1.544859e+00 6.376503e+00 -2.727441e+01 2.849927e+01 -3.450521e-06 1.665238e-02 -3.752441e-01 3.630371e-01
-1.575178e+00 6.385776e+00 -2.729810e+01 2.847437e+01 4.781558e-06 1.617478e-02 -3.752441e-01 3.623047e-01
-1.551030e+00 6.368578e+00 -2.728589e+01 2.847485e+01 -1.270971e-05 1.769820e-02 -4.982910e-01 4.982910e-01
-1.566388e+00 6.365899e+00 -2.728955e+01 2.845703e+01 -3.217912e-06 1.674608e-02 -3.752441e-01 3.623047e-01
-1.566781e+00 6.382618e+00 -2.731934e+01 2.848706e+01 -8.981921e-06 1.612524e-02 -3.752441e-01 3.623047e-01
-1.553535e+00 6.366885e+00 -2.731958e+01 2.846875e+01 -2.339988e-06 1.787533e-02 -4.438477e-01 4.438477e-01
-1.538082e+00 6.380386e+00 -2.738208e+01 2.846655e+01 -9.421620e-06 1.686598e-02 -4.436035e-01 4.436035e-01
-1.547110e+00 6.379827e+00 -2.738843e+01 2.844189e+01 -1.844542e-05 1.617887e-02 -3.752441e-01 3.642578e-01
-1.543647e+00 6.388663e+00 -2.739038e+01 2.844873e+01 4.170265e-06 1.659249e-02 -3.752441e-01 3.623047e-01
-1.538276e+00 6.383639e+00 -2.739331e+01 2.844214e+01 -1.487090e-06 1.643225e-02 -4.440918e-01 4.440918e-01
-1.558361e+00 6.370609e+00 -2.742456e+01 2.844336e+01 -5.774969e-06 1.640214e-02 -3.752441e-01 3.688965e-01
-1.562218e+00 6.389385e+00 -2.742358e+01 2.844580e+01 7.488942e-06 1.587409e-02 -3.977051e-01 3.977051e-01
-1.563737e+00 6.393481e+00 -2.745630e+01 2.843677e+01 -3.294304e-06 1.661559e-02 -3.752441e-01 3.125000e-01
-1.578174e+00 6.382989e+00 -2.747461e+01 2.844800e+01 -1.109650e-05 1.624870e-02 -4.455566e-01 4.455566e-01
-1.538199e+00 6.368857e+00 -2.749780e+01 2.432520e+01 9.574893e-06 1.564663e-02 -3.752441e-01 3.474121e-01
-1.561604e+00 6.394910e+00 -2.750562e+01 2.848218e+01 -1.245403e-05 1.640621e-02 -3.752441e-01 3.522949e-01
-1.567841e+00 6.387181e+00 -2.577222e+01 2.847656e+01 -5.532218e-07 1.605295e-02 -3.752441e-01 3.723145e-01
-1.557315e+00 6.387496e+00 -2.751392e+01 2.845581e+01 -3.091630e-08 1.517857e-02 -3.752441e-01 3.474121e-01
-1.566150e+00 6.382010e+00 -2.753760e+01 2.845972e+01 -6.333098e-06 1.670716e-02 -4.460449e-01 4.460449e-01
-1.559378e+00 6.394892e+00 -2.751270e+01 2.849927e+01 -2.568670e-06 1.566982e-02 -3.752441e-01 3.525391e-01
-1.587673e+00 6.400494e+00 -2.752271e+01 2.848950e+01 -2.519924e-06 1.635200e-02 -3.752441e-01 3.530273e-01
-1.574920e+00 6.399455e+00 -2.757373e+01 2.851489e+01 1.017293e-06 1.594087e-02 -3.752441e-01 3.474121e-01
-1.579580e+00 6.387856e+00 -2.757568e+01 2.854126e+01 -1.666160e-05 1.598975e-02 -3.752441e-01 3.474121e-01
-1.577099e+00 6.403323e+00 -2.756323e+01 2.853345e+01 9.422274e-06 1.698849e-02 -6.105957e-01 6.105957e-01
-1.579539e+00 6.405984e+00 -2.757153e+01 2.855396e+01 -8.371284e-06 1.785062e-02 -6.120605e-01 6.120605e-01
-1.581458e+00 6.413626e+00 -2.759692e+01 2.856372e+01 2.575213e-06 1.670377e-02 -3.752441e-01 3.728027e-01
-1.585699e+00 6.398334e+00 -2.762695e+01 2.857373e+01 -1.438442e-05 1.626323e-02 -4.472656e-01 4.472656e-01
-1.600051e+00 6.414319e+00 -2.760767e+01 2.442358e+01 -1.597915e-05 1.698385e-02 -3.752441e-01 3.308105e-01
-1.560275e+00 6.396315e+00 -2.762231e+01 2.860254e+01 3.757230e-06 1.598446e-02 -3.752441e-01 3.308105e-01
-1.585768e+00 6.391227e+00 -2.762695e+01 2.442798e+01 -1.452445e-05 1.653631e-02 -3.752441e-01 3.308105e-01
-1.592125e+00 6.398900e+00 -2.764282e+01 2.862842e+01 2.720634e-06 1.665760e-02 -4.895020e-01 4.895020e-01
-1.570522e+00 6.404520e+00 -2.765503e+01 2.863525e+01 -2.467415e-06 1.655756e-02 -4.887695e-01 4.887695e-01
-1.588069e+00 6.417160e+00 -2.765210e+01 2.863672e+01 -1.024311e-05 1.644541e-02 -3.752441e-01 3.125000e-01
-1.606899e+00 6.430458e+00 -2.768237e+01 2.864648e+01 2.453347e-06 1.575152e-02 -3.752441e-01 3.537598e-01
-1.619976e+00 6.394280e+00 -2.771558e+01 2.863721e+01 -2.912348e-06 1.574124e-02 -3.752441e-01 3.752441e-01
-1.595053e+00 6.429185e+00 -2.771948e+01 2.866602e+01 1.537047e-05 1.711401e-02 -4.492188e-01 4.492188e-01
-1.583029e+00 6.421332e+00 -2.772363e+01 2.864380e+01 -1.004322e-05 1.557289e-02 -3.752441e-01 3.125000e-01
-1.589943e+00 6.424027e+00 -2.771802e+01 2.864771e+01 9.914645e-06 1.620118e-02 -3.752441e-01 3.125000e-01
-1.617553e+00 6.416102e+00 -2.773608e+01 2.867090e+01 2.970582e-06 1.599206e-02 -3.752441e-01 3.125000e-01
-1.609746e+00 6.433318e+00 -2.774731e+01 2.866602e+01 -6.151362e-06 1.633349e-02 -3.752441e-01 3.564453e-01
-1.598231e+00 6.418710e+00 -2.776685e+01 2.869434e+01 -1.152180e-05 1.623233e-02 -4.501953e-01 4.501953e-01
-1.572327e+00 6.412138e+00 -2.552246e+01 2.868555e+01 -1.583667e-05 1.594386e-02 -5.739746e-01 5.739746e-01
-1.608893e+00 6.433914e+00 -2.780103e+01 2.867065e+01 -2.302823e-05 1.695881e-02 -5.725098e-01 5.725098e-01
-1.611773e+00 6.428862e+00 -2.780493e+01 2.868359e+01 -7.925042e-06 1.563243e-02 -3.752441e-01 3.125000e-01
-1.580825e+00 6.422482e+00 -2.782153e+01 2.869312e+01 -4.496441e-06 1.608098e-02 -3.752441e-01 3.574219e-01
-1.635468e+00 6.446116e+00 -2.781445e+01 2.872217e+01 1.412008e-06 1.564551e-02 -4.445801e-01 4.445801e-01
-1.595456e+00 6.422586e+00 -2.783643e+01 2.873071e+01 1.370950e-05 1.599449e-02 -4.448242e-01 4.448242e-01
-1.598938e+00 6.418791e+00 -2.782617e+01 2.872900e+01 -7.033213e-06 1.593551e-02 -3.752441e-01 3.574219e-01
-1.617978e+00 6.431849e+00 -2.786841e+01 2.872729e+01 -1.160490e-05 1.678800e-02 -4.506836e-01 4.506836e-01
-1.612120e+00 6.432164e+00 -2.787427e+01 2.875781e+01 -3.491743e-06 1.665790e-02 -4.450684e-01 4.450684e-01
-1.632733e+00 6.442401e+00 -2.786182e+01 2.435400e+01 1.252863e-05 1.579773e-02 -3.752441e-01 2.922363e-01
-1.606256e+00 6.437233e+00 -2.787549e+01 2.875537e+01 5.252827e-06 1.601330e-02 -3.752441e-01 2.922363e-01
-1.617863e+00 6.438821e+00 -2.606152e+01 2.877612e+01 -9.744360e-06 1.723737e-02 -3.999023e-01 3.999023e-01
-1.633426e+00 6.446488e+00 -2.792310e+01 2.875098e+01 -9.193101e-07 1.543825e-02 -3.752441e-01 2.922363e-01
-1.600017e+00 6.431011e+00 -2.792944e+01 2.878662e+01 -7.355789e-06 1.616037e-02 -3.752441e-01 3.579102e-01
-1.624908e+00 6.444414e+00 -2.791797e+01 2.882349e+01 2.816001e-06 1.566050e-02 -3.752441e-01 3.046875e-01
-1.628658e+00 6.447476e+00 -2.793091e+01 2.883130e+01 4.345458e-06 1.532228e-02 -3.752441e-01 3.125000e-01
-1.625441e+00 6.452449e+00 -2.794775e+01 2.885156e+01 -4.301782e-06 1.571072e-02 -3.781738e-01 3.781738e-01
-1.628426e+00 6.449560e+00 -2.610205e+01 2.886279e+01 3.939456e-06 1.507728e-02 -3.752441e-01 3.125000e-01
-1.637722e+00 6.455351e+00 -2.798950e+01 2.887964e+01 8.787427e-06 1.601648e-02 -4.086914e-01 4.086914e-01
-1.618017e+00 6.453476e+00 -2.800635e+01 2.889526e+01 7.565824e-06 1.518159e-02 -3.752441e-01 2.922363e-01
-1.609310e+00 6.445276e+00 -2.798535e+01 2.891284e+01 -3.076090e-06 1.586179e-02 -3.752441e-01 3.579102e-01
-1.625520e+00 6.455750e+00 -2.802197e+01 2.892651e+01 -1.781368e-06 1.560315e-02 -3.752441e-01 3.125000e-01
-1.605832e+00 6.462509e+00 -2.802954e+01 2.895166e+01 -2.461199e-06 1.591754e-02 -3.752441e-01 3.581543e-01
-1.606589e+00 6.458005e+00 -2.804346e+01 2.899609e+01 -1.496594e-05 1.610805e-02 -4.538574e-01 4.538574e-01
-1.621334e+00 6.459859e+00 -2.803540e+01 2.897998e+01 1.304423e-05 1.584631e-02 -3.752441e-01 2.922363e-01
-1.644433e+00 6.457750e+00 -2.803882e+01 2.900562e+01 -3.335198e-06 1.568570e-02 -3.752441e-01 2.922363e-01
-1.615140e+00 6.458386e+00 -2.806738e+01 2.902710e+01 1.188069e-06 1.580652e-02 -3.752441e-01 3.581543e-01
-1.635564e+00 6.473358e+00 -2.808862e+01 2.903638e+01 3.440543e-06 1.507208e-02 -3.752441e-01 2.922363e-01
-1.647406e+00 6.481429e+00 -2.807935e+01 2.905591e+01 -1.395372e-05 1.636083e-02 -3.752441e-01 3.583984e-01
-1.625054e+00 6.462825e+00 -2.807837e+01 2.905469e+01 1.696422e-05 1.591867e-02 -4.086914e-01 4.086914e-01
-1.633682e+00 6.472043e+00 -2.808081e+01 2.907178e+01 6.244438e-06 1.542346e-02 -3.752441e-01 2.922363e-01
-1.637683e+00 6.460777e+00 -2.811060e+01 2.908350e+01 1.842775e-05 1.497289e-02 -3.752441e-01 3.125000e-01
-1.666001e+00 6.464603e+00 -2.811230e+01 2.910791e+01 -1.359221e-05 1.647242e-02 -3.752441e-01 3.586426e-01
-1.655930e+00 6.467402e+00 -2.810986e+01 2.911060e+01 -1.913212e-06 1.613905e-02 -4.558105e-01 4.558105e-01
-1.661494e+00 6.466742e+00 -2.812769e+01 2.911206e+01 6.455291e-06 1.575359e-02 -3.752441e-01 3.588867e-01
-1.624633e+00 6.472031e+00 -2.812671e+01 2.914331e+01 3.735965e-06 1.639616e-02 -4.096680e-01 4.096680e-01
-1.640516e+00 6.467586e+00 -2.814038e+01 2.917480e+01 1.725293e-05 1.560396e-02 -3.752441e-01 3.125000e-01
-1.624006e+00 6.487412e+00 -2.816284e+01 2.916479e+01 4.700586e-06 1.652762e-02 -4.650879e-01 4.650879e-01
-1.626846e+00 6.468773e+00 -2.818140e+01 2.917334e+01 5.834511e-06 1.571543e-02 -4.365234e-01 4.365234e-01
-1.629222e+00 6.468193e+00 -2.817017e+01 2.918115e+01 -6.707856e-06 1.696365e-02 -4.653320e-01 4.653320e-01
-1.650414e+00 6.491857e+00 -2.817480e+01 2.919165e+01 9.118509e-06 1.615681e-02 -3.752441e-01 3.681641e-01
-1.636668e+00 6.475735e+00 -2.820361e+01 2.920557e+01 -4.779758e-06 1.586668e-02 -3.752441e-01 3.654785e-01
-1.660947e+00 6.497936e+00 -2.818433e+01 2.920630e+01 5.776768e-06 1.628591e-02 -3.835449e-01 3.835449e-01
-1.640472e+00 6.482354e+00 -2.820435e+01 2.921460e+01 1.011585e-05 1.546024e-02 -3.752441e-01 3.686523e-01
-1.641934e+00 6.501082e+00 -2.821899e+01 2.920166e+01 -1.214994e-05 1.638227e-02 -4.562988e-01 4.562988e-01
-1.658476e+00 6.512400e+00 -2.822607e+01 2.921924e+01 4.118902e-07 1.517404e-02 -3.752441e-01 3.125000e-01
-1.645921e+00 6.486572e+00 -2.824658e+01 2.923242e+01 1.515259e-05 1.548651e-02 -3.752441e-01 3.693848e-01
-1.633097e+00 6.501345e+00 -2.825610e+01 2.924609e+01 -7.312114e-06 1.546519e-02 -3.752441e-01 3.125000e-01
-1.647124e+00 6.485029e+00 -2.826245e+01 2.924683e+01 5.110841e-06 1.571633e-02 -3.752441e-01 3.125000e-01
-1.650677e+00 6.490510e+00 -2.645288e+01 2.929785e+01 8.842880e-06 1.527870e-02 -3.752441e-01 3.125000e-01
-1.670655e+00 6.507510e+00 -2.830249e+01 2.928394e+01 -1.769492e-05 1.595971e-02 -3.752441e-01 3.125000e-01
-1.656853e+00 6.500964e+00 -2.830664e+01 2.931030e+01 9.739780e-06 1.668573e-02 -4.375000e-01 4.375000e-01
-1.675331e+00 6.495732e+00 -2.831177e+01 2.934839e+01 -1.140779e-05 1.641656e-02 -4.584961e-01 4.584961e-01
-1.653087e+00 6.484290e+00 -2.832837e+01 2.937842e+01 1.865905e-05 1.528597e-02 -3.752441e-01 3.125000e-01
-1.638979e+00 6.510451e+00 -2.833276e+01 2.935205e+01 -9.209622e-06 1.592056e-02 -3.752441e-01 3.610840e-01
-1.679175e+00 6.506371e+00 -2.838135e+01 2.936353e+01 7.090629e-06 1.630729e-02 -3.837891e-01 3.837891e-01
-1.635885e+00 6.492555e+00 -2.838428e+01 2.937354e+01 1.967193e-06 1.560865e-02 -3.752441e-01 3.608398e-01
-1.664103e+00 6.502161e+00 -2.838574e+01 2.936450e+01 -4.359035e-06 1.523997e-02 -3.752441e-01 3.125000e-01
-1.677171e+00 6.527554e+00 -2.841821e+01 2.939600e+01 -4.599495e-06 1.556642e-02 -3.752441e-01 3.613281e-01
-1.670795e+00 6.509335e+00 -2.844849e+01 2.461963e+01 7.380326e-06 1.557910e-02 -4.145508e-01 4.145508e-01
-1.642124e+00 6.513862e+00 -2.845386e+01 2.459985e+01 1.526333e-05 1.636443e-02 -3.752441e-01 3.703613e-01
-1.668914e+00 6.518020e+00 -2.849170e+01 2.942188e+01 1.046378e-05 1.462787e-02 -3.752441e-01 3.125000e-01
-1.681638e+00 6.535138e+00 -2.851343e+01 2.941284e+01 -1.363392e-05 1.609032e-02 -4.604492e-01 4.604492e-01
-1.691586e+00 6.527408e+00 -2.854688e+01 2.944238e+01 2.545933e-06 1.567939e-02 -3.752441e-01 3.466797e-01
-1.674717e+00 6.513455e+00 -2.857349e+01 2.464600e+01 8.590315e-06 1.535917e-02 -3.752441e-01 3.125000e-01
-1.649362e+00 6.520293e+00 -2.858374e+01 2.946851e+01 -7.243247e-06 1.589775e-02 -3.867188e-01 3.867188e-01
-1.680332e+00 6.519184e+00 -2.859985e+01 2.947339e+01 6.919362e-06 1.485504e-02 -3.752441e-01 3.125000e-01
