8.999023e-01 9.987793e-01
9.765625e-04 9.375000e-02
9.765625e-04 9.375000e-02
9.765625e-04 9.375000e-02
9.765625e-04 9.375000e-02
9.765625e-04 9.375000e-02
9.765625e-04 9.375000e-02
9.765625e-04 9.375000e-02
9.765625e-04 9.375000e-02
9.765625e-04 9.375000e-02
9.765625e-04 9.375000e-02
9.765625e-04 9.375000e-02
9.765625e-04 9.375000e-02
9.765625e-04 9.375000e-02
9.765625e-04 9.375000e-02
9.765625e-04 9.375000e-02
9.765625e-04 9.375000e-02
9.765625e-04 9.375000e-02
9.765625e-04 9.375000e-02
9.765625e-04 9.375000e-02
