2.048000e+03 9.364000e-01 -2.387471e-04 5.794098e-01 -9.997559e-01 9.997559e-01
2.006888e+03 1.674000e-01 -1.798815e-01 3.748656e+00 -2.959668e+01 1.895044e+01
1.791186e+03 1.583000e-01 -4.414432e-01 8.771877e+00 -3.629272e+01 2.619385e+01
1.669802e+03 1.455000e-01 -6.980900e-01 1.402270e+01 -4.284570e+01 3.534912e+01
1.581561e+03 1.437000e-01 -9.486097e-01 1.930757e+01 -5.556958e+01 4.450439e+01
1.557972e+03 1.451000e-01 -1.208005e+00 2.460064e+01 -6.112354e+01 5.365967e+01
1.566094e+03 1.438000e-01 -1.485995e+00 2.988890e+01 -6.719775e+01 6.281494e+01
1.588380e+03 1.474000e-01 -1.755541e+00 3.518964e+01 -7.230249e+01 7.197021e+01
1.488222e+03 1.350000e-01 -2.019789e+00 4.049344e+01 -8.145776e+01 8.112549e+01
1.484118e+03 1.393000e-01 -2.290806e+00 4.580117e+01 -9.061304e+01 9.028076e+01
1.467460e+03 1.300000e-01 -2.549797e+00 5.110852e+01 -9.976831e+01 9.943604e+01
1.467224e+03 1.329000e-01 -2.814171e+00 5.641764e+01 -1.089236e+02 1.085913e+02
1.508692e+03 1.327000e-01 -3.077601e+00 6.172642e+01 -1.180789e+02 1.177466e+02
1.435066e+03 1.253000e-01 -3.353547e+00 6.703551e+01 -1.272341e+02 1.269019e+02
1.423361e+03 1.292000e-01 -3.631114e+00 7.234826e+01 -1.363894e+02 1.360571e+02
1.442521e+03 1.353000e-01 -3.888097e+00 7.765114e+01 -1.455447e+02 1.452124e+02
1.430918e+03 1.324000e-01 -4.145477e+00 8.292802e+01 -1.547000e+02 1.543677e+02
1.433807e+03 1.301000e-01 -4.427132e+00 8.819838e+01 -1.638552e+02 1.635229e+02
1.427261e+03 1.327000e-01 -4.711851e+00 9.346890e+01 -1.730105e+02 1.726782e+02
1.433340e+03 1.285000e-01 -4.982676e+00 9.873876e+01 -1.821658e+02 1.818335e+02
