1.918716e-01 1.524807e+00 -5.882812e+00 5.957031e+00 1.917409e-03 2.242707e-02 -2.226562e-01 3.750000e-01
1.796162e-01 1.531498e+00 -5.882812e+00 5.957031e+00 1.840650e-03 2.230592e-02 -2.226562e-01 3.632812e-01
1.796162e-01 1.531498e+00 -5.882812e+00 5.957031e+00 1.840650e-03 2.230592e-02 -2.226562e-01 3.632812e-01
1.796162e-01 1.531498e+00 -5.882812e+00 5.957031e+00 1.840650e-03 2.230592e-02 -2.226562e-01 3.632812e-01
1.796162e-01 1.531498e+00 -5.882812e+00 5.957031e+00 1.840650e-03 2.230592e-02 -2.226562e-01 3.632812e-01
1.796162e-01 1.531498e+00 -5.882812e+00 5.957031e+00 1.840650e-03 2.230592e-02 -2.226562e-01 3.632812e-01
1.796162e-01 1.531498e+00 -5.882812e+00 5.957031e+00 1.840650e-03 2.230592e-02 -2.226562e-01 3.632812e-01
1.796162e-01 1.531498e+00 -5.882812e+00 5.957031e+00 1.840650e-03 2.230592e-02 -2.226562e-01 3.632812e-01
1.796162e-01 1.531498e+00 -5.882812e+00 5.957031e+00 1.840650e-03 2.230592e-02 -2.226562e-01 3.632812e-01
1.796162e-01 1.531498e+00 -5.882812e+00 5.957031e+00 1.840650e-03 2.230592e-02 -2.226562e-01 3.632812e-01
1.796162e-01 1.531498e+00 -5.882812e+00 5.957031e+00 1.840650e-03 2.230592e-02 -2.226562e-01 3.632812e-01
1.796162e-01 1.531498e+00 -5.882812e+00 5.957031e+00 1.840650e-03 2.230592e-02 -2.226562e-01 3.632812e-01
-1.088816e-01 2.357915e+00 -8.722656e+00 9.550781e+00 1.162856e-03 2.500751e-02 -2.890625e-01 3.632812e-01
-1.163218e+00 5.010733e+00 -1.380469e+01 1.307812e+01 -6.669986e-04 3.128621e-02 -3.281250e-01 2.265625e-01
-2.045818e+00 6.402438e+00 -1.898828e+01 1.395703e+01 -4.745722e-04 3.030617e-02 -3.281250e-01 2.500000e-01
-2.924110e+00 7.011632e+00 -2.058203e+01 1.423047e+01 -1.644532e-04 2.917341e-02 -3.281250e-01 3.320312e-01
-3.903931e+00 7.246999e+00 -2.372656e+01 1.360938e+01 6.157977e-05 2.695630e-02 -3.281250e-01 3.632812e-01
-4.896101e+00 7.501979e+00 -2.593750e+01 1.339453e+01 3.865733e-05 2.480609e-02 -3.281250e-01 3.632812e-01
-5.606569e+00 8.081637e+00 -2.873828e+01 1.358203e+01 -3.127553e-05 2.384433e-02 -3.281250e-01 3.750000e-01
-5.888759e+00 8.879828e+00 -3.074219e+01 1.498828e+01 4.282000e-05 2.370254e-02 -3.281250e-01 3.632812e-01
-6.011788e+00 9.811495e+00 -3.541016e+01 1.726953e+01 9.063521e-05 2.301916e-02 -3.281250e-01 3.632812e-01
-6.296484e+00 1.068068e+01 -3.883984e+01 1.845703e+01 3.338462e-05 2.236438e-02 -3.437500e-01 3.632812e-01
-6.737859e+00 1.147481e+01 -4.199609e+01 1.908594e+01 2.208990e-05 2.220241e-02 -3.437500e-01 3.632812e-01
-7.275884e+00 1.223101e+01 -4.404688e+01 1.945312e+01 -2.317220e-05 2.212868e-02 -3.437500e-01 3.632812e-01
-7.755681e+00 1.299005e+01 -4.818750e+01 2.005859e+01 -3.851858e-05 2.168299e-02 -3.593750e-01 3.632812e-01
-8.198094e+00 1.377440e+01 -5.035156e+01 2.128906e+01 -1.617891e-05 2.159467e-02 -3.593750e-01 3.632812e-01
-8.642342e+00 1.454548e+01 -5.357812e+01 2.192969e+01 1.753872e-05 2.150185e-02 -3.593750e-01 3.632812e-01
-9.115318e+00 1.532302e+01 -5.752344e+01 2.264062e+01 9.718448e-05 2.133888e-02 -3.593750e-01 3.632812e-01
-9.618027e+00 1.607650e+01 -6.071875e+01 2.316016e+01 1.616781e-04 2.160571e-02 -3.593750e-01 3.632812e-01
-1.014754e+01 1.684788e+01 -6.403516e+01 2.420703e+01 1.268782e-04 2.069693e-02 -3.593750e-01 3.632812e-01
-1.068192e+01 1.760686e+01 -6.564453e+01 2.492969e+01 1.438064e-04 2.097645e-02 -3.593750e-01 3.632812e-01
-1.118990e+01 1.839139e+01 -6.957031e+01 2.590625e+01 1.445834e-04 2.086426e-02 -3.593750e-01 3.632812e-01
-1.174351e+01 1.916163e+01 -7.232031e+01 2.699609e+01 1.035117e-04 2.044028e-02 -3.593750e-01 3.632812e-01
-1.234245e+01 1.991754e+01 -7.642578e+01 2.737109e+01 4.090518e-05 1.999571e-02 -3.593750e-01 3.632812e-01
-1.284708e+01 2.065638e+01 -7.877734e+01 2.803125e+01 5.716734e-05 2.018147e-02 -3.593750e-01 3.632812e-01
-1.328066e+01 2.144388e+01 -8.015234e+01 2.883203e+01 1.531585e-04 2.001834e-02 -3.593750e-01 3.632812e-01
-1.377366e+01 2.220383e+01 -8.353125e+01 2.883984e+01 1.397547e-04 1.984320e-02 -3.593750e-01 3.750000e-01
-1.426411e+01 2.294488e+01 -8.744141e+01 2.864453e+01 1.293480e-04 1.959651e-02 -3.593750e-01 3.632812e-01
-1.472956e+01 2.369940e+01 -9.082031e+01 2.887109e+01 1.339547e-04 1.942819e-02 -3.593750e-01 3.632812e-01
-1.517657e+01 2.447931e+01 -9.397656e+01 2.958984e+01 1.508274e-04 1.951958e-02 -3.710938e-01 3.750000e-01
-1.562323e+01 2.526241e+01 -9.789062e+01 3.000391e+01 1.388389e-04 1.963325e-02 -3.710938e-01 3.750000e-01
-1.609167e+01 2.605232e+01 -9.951172e+01 3.075000e+01 1.342045e-04 1.938973e-02 -3.710938e-01 3.750000e-01
-1.653767e+01 2.688514e+01 -1.034297e+02 3.114844e+01 1.851833e-04 1.959161e-02 -3.710938e-01 3.750000e-01
-1.700337e+01 2.770268e+01 -1.066797e+02 3.134375e+01 2.102149e-04 1.990756e-02 -3.710938e-01 3.750000e-01
-1.758962e+01 2.842638e+01 -1.104141e+02 3.221875e+01 1.993364e-04 1.971580e-02 -3.710938e-01 3.750000e-01
-1.821320e+01 2.912258e+01 -1.143945e+02 3.289844e+01 1.383117e-04 1.926349e-02 -3.710938e-01 3.750000e-01
-1.889113e+01 2.981188e+01 -1.176602e+02 3.342969e+01 2.949946e-05 1.886197e-02 -3.710938e-01 3.750000e-01
-1.945998e+01 3.057856e+01 -1.190273e+02 3.377344e+01 3.851858e-05 1.908134e-02 -3.710938e-01 3.750000e-01
-1.992437e+01 3.142861e+01 -1.225469e+02 3.474219e+01 5.256065e-05 1.904566e-02 -3.710938e-01 3.750000e-01
-2.036964e+01 3.230105e+01 -1.264336e+02 3.566797e+01 8.325341e-05 1.909012e-02 -3.710938e-01 3.750000e-01
-2.083459e+01 3.314860e+01 -1.280000e+02 3.602344e+01 3.221907e-05 1.903816e-02 -3.710938e-01 3.750000e-01
-2.128051e+01 3.398554e+01 -1.280000e+02 3.750391e+01 7.853572e-06 1.895186e-02 -3.828125e-01 3.750000e-01
-2.174627e+01 3.481473e+01 -1.280000e+02 3.783203e+01 -1.418083e-05 1.911381e-02 -3.828125e-01 3.750000e-01
-2.214993e+01 3.566089e+01 -1.280000e+02 3.883203e+01 -1.726121e-05 1.893865e-02 -3.828125e-01 3.750000e-01
-2.255876e+01 3.652385e+01 -1.280000e+02 4.052734e+01 4.381904e-05 1.903198e-02 -3.710938e-01 3.750000e-01
-2.298490e+01 3.726651e+01 -1.280000e+02 4.112109e+01 4.884200e-05 1.887513e-02 -3.710938e-01 3.750000e-01
-2.340519e+01 3.798233e+01 -1.280000e+02 4.198047e+01 3.113678e-05 1.849337e-02 -3.710938e-01 3.750000e-01
-2.378338e+01 3.870031e+01 -1.280000e+02 4.263281e+01 6.751852e-05 1.889373e-02 -3.828125e-01 3.750000e-01
-2.415272e+01 3.938362e+01 -1.280000e+02 4.305859e+01 9.485339e-05 1.893482e-02 -3.828125e-01 3.750000e-01
-2.454752e+01 4.003290e+01 -1.280000e+02 4.339453e+01 9.729549e-05 1.901260e-02 -3.710938e-01 3.750000e-01
-2.503341e+01 4.062961e+01 -1.280000e+02 4.429297e+01 7.481706e-05 1.908704e-02 -3.710938e-01 3.750000e-01
-2.550630e+01 4.120799e+01 -1.280000e+02 4.451562e+01 4.970229e-05 1.896317e-02 -3.710938e-01 3.750000e-01
-2.590586e+01 4.180301e+01 -1.280000e+02 4.617578e+01 2.050809e-05 1.881723e-02 -3.710938e-01 3.750000e-01
-2.624071e+01 4.242085e+01 -1.280000e+02 4.748828e+01 2.528129e-05 1.900948e-02 -3.828125e-01 3.750000e-01
-2.659870e+01 4.299896e+01 -1.280000e+02 4.773438e+01 3.846308e-05 1.887924e-02 -3.828125e-01 3.750000e-01
-2.695944e+01 4.354660e+01 -1.280000e+02 4.821484e+01 5.355969e-05 1.892458e-02 -3.828125e-01 3.750000e-01
-2.733316e+01 4.408280e+01 -1.280000e+02 4.846094e+01 7.445630e-05 1.882245e-02 -3.828125e-01 3.750000e-01
-2.768835e+01 4.460166e+01 -1.280000e+02 4.960156e+01 1.009031e-04 1.875564e-02 -3.828125e-01 3.750000e-01
-2.812924e+01 4.503553e+01 -1.280000e+02 4.982422e+01 8.949742e-05 1.877008e-02 -3.828125e-01 3.750000e-01
-2.855887e+01 4.544292e+01 -1.280000e+02 5.008984e+01 8.747158e-05 1.899344e-02 -3.828125e-01 3.750000e-01
-2.890834e+01 4.587870e+01 -1.280000e+02 5.080859e+01 7.398453e-05 1.886145e-02 -3.828125e-01 3.867188e-01
-2.917395e+01 4.634860e+01 -1.280000e+02 5.262109e+01 2.469851e-05 1.849467e-02 -3.828125e-01 3.867188e-01
-2.938389e+01 4.684631e+01 -1.280000e+02 5.353516e+01 5.675107e-05 1.854994e-02 -3.945312e-01 3.867188e-01
-2.958243e+01 4.733225e+01 -1.280000e+02 5.491797e+01 1.095060e-04 1.878561e-02 -3.945312e-01 3.867188e-01
-2.983169e+01 4.775627e+01 -1.280000e+02 5.532422e+01 8.991368e-05 1.875445e-02 -3.945312e-01 3.867188e-01
-3.012214e+01 4.814492e+01 -1.280000e+02 5.564062e+01 8.699981e-05 1.866144e-02 -3.945312e-01 3.867188e-01
-3.048066e+01 4.847997e+01 -1.280000e+02 5.684375e+01 5.314343e-05 1.839366e-02 -3.945312e-01 3.867188e-01
-3.085986e+01 4.880042e+01 -1.280000e+02 5.768750e+01 3.810231e-05 1.826603e-02 -3.945312e-01 3.867188e-01
-3.123798e+01 4.911710e+01 -1.280000e+02 5.826172e+01 -1.556839e-05 1.791992e-02 -3.945312e-01 3.867188e-01
-3.162146e+01 4.942201e+01 -1.280000e+02 5.785156e+01 -5.380945e-05 1.777530e-02 -3.945312e-01 3.867188e-01
-3.191717e+01 4.976307e+01 -1.280000e+02 5.780078e+01 -6.890607e-05 1.782859e-02 -3.945312e-01 3.867188e-01
-3.212767e+01 5.013840e+01 -1.280000e+02 5.769531e+01 -3.690901e-05 1.778678e-02 -3.945312e-01 3.867188e-01
-3.228137e+01 5.053779e+01 -1.280000e+02 5.875781e+01 4.767645e-05 1.802507e-02 -3.945312e-01 3.867188e-01
-3.247575e+01 5.092299e+01 -1.280000e+02 5.988281e+01 8.422470e-05 1.820736e-02 -3.945312e-01 3.867188e-01
-3.268626e+01 5.128201e+01 -1.280000e+02 6.099609e+01 7.132042e-05 1.816006e-02 -3.945312e-01 3.867188e-01
-3.290421e+01 5.160665e+01 -1.280000e+02 6.172266e+01 7.292999e-05 1.797950e-02 -3.945312e-01 3.867188e-01
-3.313434e+01 5.189354e+01 -1.280000e+02 6.193750e+01 5.319893e-05 1.762967e-02 -3.945312e-01 3.867188e-01
-3.337471e+01 5.217564e+01 -1.280000e+02 6.231641e+01 8.597302e-05 1.796797e-02 -3.945312e-01 3.867188e-01
-3.371636e+01 5.240204e+01 -1.280000e+02 6.189844e+01 3.099802e-05 1.782925e-02 -3.945312e-01 3.867188e-01
-3.402182e+01 5.263015e+01 -1.280000e+02 6.185547e+01 2.716836e-05 1.809368e-02 -3.945312e-01 3.867188e-01
-3.425551e+01 5.289107e+01 -1.280000e+02 6.199219e+01 1.634542e-05 1.766428e-02 -3.945312e-01 3.867188e-01
-3.444456e+01 5.316280e+01 -1.280000e+02 6.226953e+01 3.205256e-05 1.762366e-02 -3.945312e-01 3.867188e-01
-3.460580e+01 5.342498e+01 -1.280000e+02 6.288672e+01 8.128308e-05 1.782247e-02 -3.945312e-01 3.867188e-01
-3.478901e+01 5.365963e+01 -1.280000e+02 6.376953e+01 8.955292e-05 1.786381e-02 -3.945312e-01 3.867188e-01
-3.497377e+01 5.388320e+01 -1.280000e+02 6.405859e+01 1.334830e-04 1.804498e-02 -3.945312e-01 3.867188e-01
-3.521840e+01 5.405942e+01 -1.280000e+02 6.501172e+01 4.825923e-05 1.777553e-02 -3.945312e-01 3.867188e-01
-3.547520e+01 5.420523e+01 -1.280000e+02 6.508984e+01 3.840757e-05 1.751663e-02 -3.945312e-01 3.867188e-01
-3.567154e+01 5.437070e+01 -1.280000e+02 6.561719e+01 5.025731e-05 1.755409e-02 -3.945312e-01 3.867188e-01
-3.583279e+01 5.454798e+01 -1.280000e+02 6.565625e+01 6.485441e-05 1.747144e-02 -3.945312e-01 3.867188e-01
-3.597051e+01 5.473021e+01 -1.280000e+02 6.576562e+01 6.527067e-05 1.738838e-02 -3.945312e-01 3.867188e-01
-3.608541e+01 5.491142e+01 -1.280000e+02 6.605469e+01 1.075079e-04 1.759971e-02 -3.945312e-01 3.867188e-01
-3.619639e+01 5.509733e+01 -1.280000e+02 6.629297e+01 9.027445e-05 1.765637e-02 -3.945312e-01 3.867188e-01
-3.632489e+01 5.526855e+01 -1.280000e+02 6.637891e+01 9.096823e-05 1.777861e-02 -3.945312e-01 3.867188e-01
-3.650428e+01 5.540091e+01 -1.280000e+02 6.658594e+01 9.343808e-05 1.776829e-02 -3.945312e-01 3.867188e-01
-3.672649e+01 5.550027e+01 -1.280000e+02 6.671484e+01 3.721427e-05 1.736561e-02 -3.945312e-01 3.867188e-01
-3.690966e+01 5.562022e+01 -1.280000e+02 6.780078e+01 9.213377e-06 1.717221e-02 -3.945312e-01 3.867188e-01
-3.698069e+01 5.581794e+01 -1.280000e+02 6.862109e+01 6.660273e-06 1.711385e-02 -3.945312e-01 3.867188e-01
-3.702661e+01 5.603011e+01 -1.280000e+02 6.892188e+01 8.283714e-05 1.744427e-02 -3.945312e-01 3.867188e-01
-3.717278e+01 5.617689e+01 -1.280000e+02 6.933203e+01 4.426306e-05 1.745183e-02 -3.945312e-01 3.867188e-01
-3.735004e+01 5.629238e+01 -1.280000e+02 6.930078e+01 5.411472e-05 1.751913e-02 -3.945312e-01 3.867188e-01
-3.750156e+01 5.641238e+01 -1.280000e+02 6.942969e+01 2.683535e-05 1.753206e-02 -3.945312e-01 3.867188e-01
-3.762455e+01 5.654290e+01 -1.280000e+02 6.979688e+01 5.669557e-05 1.764689e-02 -3.945312e-01 3.867188e-01
-3.772484e+01 5.669049e+01 -1.280000e+02 7.042578e+01 9.160650e-05 1.761848e-02 -3.945312e-01 3.867188e-01
-3.785215e+01 5.681329e+01 -1.280000e+02 7.089453e+01 6.352235e-05 1.747485e-02 -3.945312e-01 3.867188e-01
-3.796786e+01 5.694846e+01 -1.280000e+02 7.163281e+01 7.317975e-05 1.737929e-02 -3.945312e-01 3.867188e-01
-3.806771e+01 5.709828e+01 -1.280000e+02 7.216406e+01 8.119983e-05 1.740709e-02 -3.945312e-01 3.867188e-01
-3.819802e+01 5.722432e+01 -1.280000e+02 7.223828e+01 5.034056e-05 1.715115e-02 -3.945312e-01 3.867188e-01
-3.831503e+01 5.734435e+01 -1.280000e+02 7.191406e+01 4.304201e-05 1.703065e-02 -3.945312e-01 3.867188e-01
-3.838620e+01 5.748621e+01 -1.280000e+02 7.160938e+01 2.442100e-05 1.703930e-02 -3.945312e-01 3.867188e-01
-3.846970e+01 5.761664e+01 -1.280000e+02 7.132422e+01 4.501234e-05 1.735324e-02 -3.945312e-01 3.867188e-01
-3.858713e+01 5.772956e+01 -1.280000e+02 7.130859e+01 4.609464e-05 1.712376e-02 -3.945312e-01 3.867188e-01
-3.870343e+01 5.783321e+01 -1.280000e+02 7.120312e+01 1.762197e-05 1.701594e-02 -3.945312e-01 3.867188e-01
-3.876048e+01 5.797589e+01 -1.280000e+02 7.143359e+01 3.846308e-05 1.717847e-02 -3.945312e-01 3.867188e-01
-3.884299e+01 5.809194e+01 -1.280000e+02 7.165234e+01 3.973963e-05 1.729788e-02 -3.945312e-01 3.867188e-01
-3.893971e+01 5.819931e+01 -1.280000e+02 7.267188e+01 6.327259e-06 1.703286e-02 -3.945312e-01 3.867188e-01
-3.897633e+01 5.834239e+01 -1.280000e+02 7.335156e+01 1.706695e-05 1.714386e-02 -3.945312e-01 3.867188e-01
-3.902281e+01 5.846432e+01 -1.280000e+02 7.367188e+01 -4.218173e-06 1.704531e-02 -3.945312e-01 3.867188e-01
-3.907024e+01 5.858218e+01 -1.280000e+02 7.466797e+01 1.545738e-05 1.713256e-02 -3.945312e-01 3.867188e-01
-3.912941e+01 5.869659e+01 -1.280000e+02 7.535938e+01 2.156263e-05 1.704427e-02 -3.945312e-01 3.867188e-01
-3.922313e+01 5.878707e+01 -1.280000e+02 7.602344e+01 3.149754e-05 1.701037e-02 -3.945312e-01 3.867188e-01
-3.936819e+01 5.883297e+01 -1.280000e+02 7.626953e+01 5.827739e-07 1.711177e-02 -3.945312e-01 3.867188e-01
-3.947254e+01 5.889269e+01 -1.280000e+02 7.641406e+01 -2.580856e-06 1.715454e-02 -3.945312e-01 3.867188e-01
-3.955283e+01 5.897381e+01 -1.280000e+02 7.725781e+01 1.159998e-05 1.716874e-02 -3.945312e-01 3.984375e-01
-3.961220e+01 5.905953e+01 -1.280000e+02 7.740234e+01 1.892628e-05 1.708126e-02 -3.945312e-01 3.984375e-01
-3.969945e+01 5.913269e+01 -1.280000e+02 7.913281e+01 4.334728e-05 1.754982e-02 -4.023438e-01 3.984375e-01
-3.980182e+01 5.919607e+01 -1.280000e+02 7.957422e+01 3.665925e-05 1.716511e-02 -3.945312e-01 3.984375e-01
-3.986729e+01 5.926735e+01 -1.280000e+02 8.028516e+01 4.159895e-05 1.730942e-02 -3.945312e-01 3.984375e-01
-3.987570e+01 5.936745e+01 -1.280000e+02 8.062891e+01 5.644581e-05 1.729686e-02 -3.945312e-01 3.984375e-01
-3.990766e+01 5.944298e+01 -1.280000e+02 8.125000e+01 5.053482e-05 1.719070e-02 -3.945312e-01 3.984375e-01
-3.994820e+01 5.950840e+01 -1.280000e+02 8.194922e+01 3.935111e-05 1.689506e-02 -3.945312e-01 3.984375e-01
-3.995671e+01 5.958781e+01 -1.280000e+02 8.210938e+01 2.583631e-05 1.699593e-02 -3.945312e-01 3.984375e-01
-3.994254e+01 5.967803e+01 -1.280000e+02 8.275000e+01 7.739792e-05 1.749429e-02 -3.945312e-01 3.984375e-01
-3.996703e+01 5.974314e+01 -1.280000e+02 8.331250e+01 8.772134e-05 1.744363e-02 -3.945312e-01 3.984375e-01
-4.002804e+01 5.978478e+01 -1.280000e+02 8.410547e+01 5.547452e-05 1.722061e-02 -3.945312e-01 3.984375e-01
-4.008500e+01 5.983013e+01 -1.280000e+02 8.469141e+01 2.342196e-05 1.717707e-02 -3.945312e-01 3.984375e-01
-4.010116e+01 5.990194e+01 -1.280000e+02 8.507422e+01 3.363438e-05 1.698553e-02 -4.023438e-01 3.984375e-01
-4.010447e+01 5.998158e+01 -1.280000e+02 8.606250e+01 2.381048e-05 1.682626e-02 -4.023438e-01 3.984375e-01
-4.010825e+01 6.006566e+01 -1.280000e+02 8.689453e+01 6.207929e-05 1.694776e-02 -4.023438e-01 3.984375e-01
-4.012769e+01 6.012854e+01 -1.280000e+02 8.746875e+01 8.597302e-05 1.735008e-02 -4.023438e-01 3.984375e-01
-4.018823e+01 6.016215e+01 -1.280000e+02 8.844922e+01 8.267064e-05 1.710815e-02 -4.023438e-01 3.984375e-01
-4.027787e+01 6.016893e+01 -1.280000e+02 8.869141e+01 5.597404e-05 1.702202e-02 -4.023438e-01 3.984375e-01
-4.031856e+01 6.021847e+01 -1.280000e+02 8.961719e+01 2.661334e-05 1.687072e-02 -4.023438e-01 3.984375e-01
-4.032158e+01 6.029720e+01 -1.280000e+02 8.984375e+01 1.606791e-05 1.674976e-02 -4.023438e-01 3.984375e-01
-4.026362e+01 6.041052e+01 -1.280000e+02 9.030859e+01 5.422572e-05 1.691305e-02 -4.023438e-01 3.984375e-01
-4.021877e+01 6.051769e+01 -1.280000e+02 9.092188e+01 8.891464e-05 1.695545e-02 -4.023438e-01 3.984375e-01
-4.025245e+01 6.057015e+01 -1.280000e+02 9.153906e+01 5.775012e-05 1.678535e-02 -4.023438e-01 3.984375e-01
-4.031977e+01 6.059917e+01 -1.280000e+02 9.183594e+01 3.868508e-05 1.666614e-02 -4.023438e-01 3.984375e-01
-4.037926e+01 6.063696e+01 -1.280000e+02 9.221875e+01 2.636358e-05 1.664886e-02 -4.023438e-01 3.984375e-01
-4.042381e+01 6.068293e+01 -1.280000e+02 9.280469e+01 3.468892e-05 1.680970e-02 -4.023438e-01 3.984375e-01
-4.043287e+01 6.075437e+01 -1.280000e+02 9.318750e+01 2.522578e-05 1.680224e-02 -4.023438e-01 3.984375e-01
-4.044771e+01 6.082026e+01 -1.280000e+02 9.367578e+01 3.563246e-05 1.703204e-02 -4.023438e-01 3.984375e-01
-4.049909e+01 6.086404e+01 -1.280000e+02 9.418750e+01 2.836166e-05 1.700641e-02 -4.023438e-01 3.984375e-01
-4.052901e+01 6.091650e+01 -1.280000e+02 9.457422e+01 3.097027e-05 1.697140e-02 -4.023438e-01 3.984375e-01
-4.057036e+01 6.095875e+01 -1.280000e+02 9.482812e+01 2.109086e-05 1.693142e-02 -4.023438e-01 3.984375e-01
-4.063753e+01 6.098727e+01 -1.280000e+02 9.533984e+01 7.132042e-06 1.675605e-02 -4.023438e-01 3.984375e-01
-4.069746e+01 6.101692e+01 -1.280000e+02 9.594922e+01 1.429184e-05 1.697660e-02 -4.023438e-01 3.984375e-01
-4.072625e+01 6.106344e+01 -1.280000e+02 9.669531e+01 8.325341e-06 1.671521e-02 -4.023438e-01 3.984375e-01
-4.072881e+01 6.112384e+01 -1.280000e+02 9.708203e+01 7.132042e-06 1.668117e-02 -4.023438e-01 3.984375e-01
-4.076903e+01 6.117284e+01 -1.280000e+02 9.815625e+01 2.691860e-05 1.668036e-02 -4.023438e-01 3.984375e-01
-4.081830e+01 6.121027e+01 -1.280000e+02 9.857031e+01 1.620666e-05 1.681349e-02 -4.023438e-01 3.984375e-01
-4.082922e+01 6.126375e+01 -1.280000e+02 9.929297e+01 -6.965535e-06 1.660672e-02 -4.023438e-01 3.984375e-01
-4.080681e+01 6.133876e+01 -1.280000e+02 9.983984e+01 9.435386e-07 1.661153e-02 -4.023438e-01 3.984375e-01
-4.074812e+01 6.143945e+01 -1.280000e+02 1.007617e+02 4.861999e-05 1.680446e-02 -4.023438e-01 3.984375e-01
-4.070414e+01 6.153419e+01 -1.280000e+02 1.019766e+02 6.762952e-05 1.701154e-02 -4.023438e-01 3.984375e-01
-4.072792e+01 6.157813e+01 -1.280000e+02 1.022852e+02 7.742567e-05 1.712800e-02 -4.023438e-01 3.984375e-01
-4.080578e+01 6.158539e+01 -1.280000e+02 1.034531e+02 3.829657e-05 1.690655e-02 -4.023438e-01 3.984375e-01
-4.090206e+01 6.157490e+01 -1.280000e+02 1.040625e+02 8.131083e-06 1.651739e-02 -4.023438e-01 3.984375e-01
-4.095422e+01 6.159015e+01 -1.280000e+02 1.042070e+02 1.856551e-05 1.675272e-02 -4.023438e-01 3.984375e-01
-4.095283e+01 6.163676e+01 -1.280000e+02 1.054805e+02 1.887077e-06 1.657884e-02 -4.023438e-01 3.984375e-01
-4.090166e+01 6.170968e+01 -1.280000e+02 1.055977e+02 2.020283e-05 1.662843e-02 -4.023438e-01 3.984375e-01
-4.082430e+01 6.180101e+01 -1.280000e+02 1.061602e+02 4.012814e-05 1.648071e-02 -4.023438e-01 3.984375e-01
-4.073143e+01 6.191705e+01 -1.280000e+02 1.070430e+02 6.713000e-05 1.637625e-02 -4.023438e-01 3.984375e-01
-4.072396e+01 6.197981e+01 -1.280000e+02 1.079180e+02 8.605627e-05 1.648920e-02 -4.023438e-01 3.984375e-01
-4.079726e+01 6.198676e+01 -1.280000e+02 1.085000e+02 5.217214e-05 1.649211e-02 -4.023438e-01 3.984375e-01
-4.091561e+01 6.196418e+01 -1.280000e+02 1.088398e+02 4.873100e-05 1.664949e-02 -4.023438e-01 3.984375e-01
-4.106517e+01 6.192540e+01 -1.280000e+02 1.095469e+02 1.082294e-06 1.637944e-02 -4.023438e-01 3.984375e-01
-4.117632e+01 6.190993e+01 -1.280000e+02 1.100156e+02 -1.806599e-05 1.634982e-02 -4.023438e-01 3.984375e-01
-4.122272e+01 6.193029e+01 -1.280000e+02 1.102109e+02 -2.020283e-05 1.631158e-02 -4.023438e-01 3.984375e-01
-4.122546e+01 6.197813e+01 -1.280000e+02 1.109648e+02 -1.243251e-05 1.640942e-02 -4.023438e-01 3.984375e-01
-4.121219e+01 6.203236e+01 -1.280000e+02 1.111836e+02 2.775114e-06 1.638686e-02 -4.023438e-01 3.984375e-01
-4.118326e+01 6.209707e+01 -1.280000e+02 1.115938e+02 -1.665068e-06 1.643207e-02 -4.023438e-01 3.984375e-01
-4.118235e+01 6.215076e+01 -1.280000e+02 1.118281e+02 -1.931479e-05 1.641918e-02 -4.023438e-01 3.984375e-01
-4.117611e+01 6.221216e+01 -1.280000e+02 1.118828e+02 -2.353296e-05 1.651558e-02 -4.023438e-01 3.984375e-01
-4.115634e+01 6.228588e+01 -1.280000e+02 1.123828e+02 -1.035117e-05 1.647612e-02 -4.023438e-01 3.984375e-01
-4.113605e+01 6.235774e+01 -1.280000e+02 1.134648e+02 3.524394e-06 1.673750e-02 -4.023438e-01 3.984375e-01
-4.111969e+01 6.242154e+01 -1.280000e+02 1.136562e+02 1.085069e-05 1.672922e-02 -4.023438e-01 3.984375e-01
-4.115145e+01 6.244700e+01 -1.280000e+02 1.145742e+02 -1.806599e-05 1.660657e-02 -4.023438e-01 3.984375e-01
-4.120973e+01 6.246378e+01 -1.280000e+02 1.149570e+02 -3.663150e-05 1.628546e-02 -4.023438e-01 3.984375e-01
-4.122560e+01 6.250474e+01 -1.280000e+02 1.155352e+02 -2.192340e-05 1.633177e-02 -4.023438e-01 3.984375e-01
-4.121904e+01 6.256255e+01 -1.280000e+02 1.161016e+02 -3.305160e-05 1.631792e-02 -4.023438e-01 3.984375e-01
-4.124198e+01 6.260180e+01 -1.280000e+02 1.169023e+02 -3.405064e-05 1.623774e-02 -4.023438e-01 3.984375e-01
-4.124558e+01 6.265104e+01 -1.280000e+02 1.175586e+02 -1.312629e-05 1.643407e-02 -4.023438e-01 3.984375e-01
-4.125849e+01 6.269364e+01 -1.280000e+02 1.182344e+02 1.970331e-06 1.641183e-02 -4.023438e-01 3.984375e-01
-4.128566e+01 6.272146e+01 -1.280000e+02 1.188789e+02 1.268227e-05 1.651664e-02 -4.023438e-01 3.984375e-01
-4.136042e+01 6.272315e+01 -1.280000e+02 1.194688e+02 -1.656743e-05 1.630902e-02 -4.023438e-01 3.984375e-01
-4.145039e+01 6.271158e+01 -1.280000e+02 1.198945e+02 -4.828698e-06 1.638893e-02 -4.023438e-01 3.984375e-01
-4.153778e+01 6.269895e+01 -1.280000e+02 1.206992e+02 -1.218275e-05 1.640205e-02 -4.023438e-01 3.984375e-01
-4.161331e+01 6.269367e+01 -1.280000e+02 1.216875e+02 -1.665068e-06 1.638064e-02 -4.023438e-01 3.984375e-01
-4.166939e+01 6.270469e+01 -1.280000e+02 1.226016e+02 -6.521517e-06 1.643540e-02 -4.023438e-01 3.984375e-01
-4.169357e+01 6.273525e+01 -1.280000e+02 1.236328e+02 -4.073867e-05 1.655187e-02 -4.023438e-01 3.984375e-01
-4.170382e+01 6.277385e+01 -1.280000e+02 1.237891e+02 -4.365254e-05 1.671929e-02 -4.023438e-01 3.984375e-01
-4.168049e+01 6.283600e+01 -1.280000e+02 1.248633e+02 -1.298753e-05 1.665220e-02 -4.023438e-01 3.984375e-01
-4.163093e+01 6.292272e+01 -1.280000e+02 1.256172e+02 -2.164589e-05 1.641967e-02 -4.023438e-01 3.984375e-01
-4.158951e+01 6.300238e+01 -1.280000e+02 1.268867e+02 2.111862e-05 1.677366e-02 -4.023438e-01 3.984375e-01
-4.162560e+01 6.303139e+01 -1.280000e+02 1.273672e+02 -3.496643e-06 1.639359e-02 -4.023438e-01 3.984375e-01
-4.167708e+01 6.305311e+01 -1.280000e+02 1.276680e+02 -3.821332e-05 1.634440e-02 -4.023438e-01 3.984375e-01
-4.171409e+01 6.308131e+01 -1.280000e+02 1.276680e+02 -6.019222e-05 1.623790e-02 -4.023438e-01 3.984375e-01
-4.173033e+01 6.311760e+01 -1.280000e+02 1.279961e+02 -3.760279e-05 1.631467e-02 -4.023438e-01 3.984375e-01
-4.172720e+01 6.316048e+01 -1.280000e+02 1.279961e+02 -4.520660e-05 1.632430e-02 -4.023438e-01 3.984375e-01
-4.167183e+01 6.322899e+01 -1.280000e+02 1.279961e+02 6.688024e-06 1.636723e-02 -4.023438e-01 3.984375e-01
-4.163074e+01 6.329085e+01 -1.280000e+02 1.279961e+02 3.493868e-05 1.645663e-02 -4.023438e-01 4.062500e-01
-4.171119e+01 6.328596e+01 -1.280000e+02 1.279961e+02 -1.359806e-06 1.614863e-02 -4.023438e-01 4.062500e-01
-4.185250e+01 6.323737e+01 -1.280000e+02 1.279961e+02 -3.799131e-05 1.606289e-02 -4.023438e-01 4.062500e-01
-4.195235e+01 6.321002e+01 -1.280000e+02 1.279961e+02 -7.673189e-05 1.605593e-02 -4.023438e-01 4.062500e-01
-4.194612e+01 6.323992e+01 -1.280000e+02 1.279961e+02 -8.480747e-05 1.609171e-02 -4.023438e-01 4.062500e-01
-4.183341e+01 6.332720e+01 -1.280000e+02 1.279961e+02 -2.503153e-05 1.610848e-02 -4.023438e-01 4.062500e-01
-4.174108e+01 6.341810e+01 -1.280000e+02 1.279961e+02 2.156263e-05 1.647398e-02 -4.023438e-01 4.062500e-01
-4.173217e+01 6.346842e+01 -1.280000e+02 1.279961e+02 -9.712898e-07 1.619005e-02 -4.023438e-01 4.062500e-01
-4.176981e+01 6.348690e+01 -1.280000e+02 1.279961e+02 -3.818556e-05 1.619556e-02 -4.023438e-01 4.062500e-01
-4.180670e+01 6.350388e+01 -1.280000e+02 1.279961e+02 -4.010039e-05 1.617132e-02 -4.023438e-01 4.062500e-01
-4.183227e+01 6.351984e+01 -1.280000e+02 1.279961e+02 -5.985920e-05 1.615793e-02 -4.023438e-01 4.062500e-01
-4.180484e+01 6.356428e+01 -1.280000e+02 1.279961e+02 -4.973004e-05 1.605735e-02 -4.023438e-01 4.062500e-01
-4.175620e+01 6.361449e+01 -1.280000e+02 1.279961e+02 -4.781521e-05 1.595607e-02 -4.023438e-01 4.062500e-01
-4.170462e+01 6.366319e+01 -1.280000e+02 1.279961e+02 -5.106209e-06 1.616738e-02 -4.023438e-01 4.062500e-01
-4.173724e+01 6.366396e+01 -1.280000e+02 1.279961e+02 -1.262677e-05 1.610587e-02 -4.023438e-01 4.062500e-01
-4.179802e+01 6.365306e+01 -1.280000e+02 1.279961e+02 -1.950905e-05 1.611693e-02 -4.023438e-01 4.062500e-01
-4.188799e+01 6.363281e+01 -1.280000e+02 1.279961e+02 -5.797212e-05 1.619668e-02 -4.023438e-01 4.062500e-01
-4.191535e+01 6.365743e+01 -1.280000e+02 1.279961e+02 -7.390128e-05 1.622963e-02 -4.023438e-01 4.062500e-01
-4.188852e+01 6.371007e+01 -1.280000e+02 1.279961e+02 -8.600077e-05 1.613189e-02 -4.023438e-01 3.984375e-01
-4.181854e+01 6.378421e+01 -1.280000e+02 1.279961e+02 -3.488318e-05 1.616811e-02 -4.023438e-01 3.984375e-01
-4.173402e+01 6.386725e+01 -1.280000e+02 1.279961e+02 -7.298549e-06 1.611010e-02 -4.023438e-01 3.984375e-01
-4.169852e+01 6.391956e+01 -1.280000e+02 1.279961e+02 -1.140572e-05 1.627983e-02 -4.023438e-01 3.984375e-01
-4.169535e+01 6.395177e+01 -1.280000e+02 1.279961e+02 -1.271002e-05 1.635249e-02 -4.023438e-01 3.984375e-01
-4.171573e+01 6.396770e+01 -1.280000e+02 1.279961e+02 -9.324382e-06 1.628432e-02 -4.023438e-01 3.984375e-01
-4.177266e+01 6.396663e+01 -1.280000e+02 1.279961e+02 -4.123819e-05 1.596771e-02 -4.023438e-01 3.984375e-01
-4.179654e+01 6.398346e+01 -1.280000e+02 1.279961e+02 -3.074826e-05 1.602723e-02 -4.023438e-01 3.984375e-01
-4.180820e+01 6.400862e+01 -1.280000e+02 1.279961e+02 -5.669557e-05 1.595443e-02 -4.023438e-01 3.984375e-01
-4.179296e+01 6.405116e+01 -1.280000e+02 1.279961e+02 -5.361520e-05 1.591552e-02 -4.023438e-01 3.984375e-01
-4.174486e+01 6.410496e+01 -1.280000e+02 1.279961e+02 -3.849083e-05 1.590127e-02 -4.023438e-01 3.984375e-01
-4.167293e+01 6.417470e+01 -1.280000e+02 1.279961e+02 2.159038e-05 1.617881e-02 -4.023438e-01 3.984375e-01
-4.164769e+01 6.422073e+01 -1.280000e+02 1.279961e+02 -5.633481e-06 1.613761e-02 -4.023438e-01 3.984375e-01
-4.163510e+01 6.426593e+01 -1.280000e+02 1.279961e+02 -2.278368e-05 1.611567e-02 -4.023438e-01 3.984375e-01
-4.160944e+01 6.433018e+01 -1.280000e+02 1.279961e+02 -1.748322e-05 1.621004e-02 -4.023438e-01 3.984375e-01
-4.157131e+01 6.439504e+01 -1.280000e+02 1.279961e+02 -5.106209e-06 1.607099e-02 -4.023438e-01 3.984375e-01
-4.157177e+01 6.442843e+01 -1.280000e+02 1.279961e+02 -8.075581e-06 1.606467e-02 -4.023438e-01 3.984375e-01
-4.158994e+01 6.445062e+01 -1.280000e+02 1.279961e+02 -2.519803e-05 1.609169e-02 -4.023438e-01 3.984375e-01
-4.156463e+01 6.450557e+01 -1.280000e+02 1.279961e+02 -1.184974e-05 1.619832e-02 -4.023438e-01 3.984375e-01
-4.153071e+01 6.457363e+01 -1.280000e+02 1.279961e+02 -4.606689e-06 1.616111e-02 -4.023438e-01 3.984375e-01
-4.153683e+01 6.462060e+01 -1.280000e+02 1.279961e+02 -2.275593e-05 1.616746e-02 -4.023438e-01 3.984375e-01
-4.157435e+01 6.464354e+01 -1.280000e+02 1.279961e+02 -7.992327e-06 1.619630e-02 -4.023438e-01 3.984375e-01
-4.165137e+01 6.464625e+01 -1.280000e+02 1.279961e+02 -1.257126e-05 1.604893e-02 -4.023438e-01 3.984375e-01
-4.173871e+01 6.464236e+01 -1.280000e+02 1.279961e+02 -1.748322e-06 1.602436e-02 -4.023438e-01 3.984375e-01
-4.179276e+01 6.465352e+01 -1.280000e+02 1.279961e+02 -1.184974e-05 1.611725e-02 -4.023438e-01 3.984375e-01
-4.180800e+01 6.468217e+01 -1.280000e+02 1.279961e+02 1.359806e-06 1.605503e-02 -4.023438e-01 3.984375e-01
-4.182198e+01 6.471495e+01 -1.280000e+02 1.279961e+02 -1.415308e-05 1.598810e-02 -4.023438e-01 3.984375e-01
-4.180472e+01 6.476205e+01 -1.280000e+02 1.279961e+02 -3.252433e-05 1.586113e-02 -4.023438e-01 3.984375e-01
-4.174748e+01 6.483265e+01 -1.280000e+02 1.279961e+02 -2.406024e-05 1.595037e-02 -4.023438e-01 3.984375e-01
-4.167817e+01 6.490911e+01 -1.280000e+02 1.279961e+02 -7.742567e-06 1.596898e-02 -4.023438e-01 3.984375e-01
-4.161654e+01 6.498031e+01 -1.280000e+02 1.279961e+02 -5.827739e-07 1.584588e-02 -4.023438e-01 3.984375e-01
-4.158601e+01 6.503499e+01 -1.280000e+02 1.279961e+02 2.961046e-05 1.592961e-02 -4.023438e-01 4.062500e-01
-4.159467e+01 6.506430e+01 -1.280000e+02 1.279961e+02 2.189565e-05 1.589829e-02 -4.023438e-01 4.062500e-01
-4.164074e+01 6.507212e+01 -1.280000e+02 1.279961e+02 1.046218e-05 1.607773e-02 -4.023438e-01 4.062500e-01
-4.171717e+01 6.506052e+01 -1.280000e+02 1.279961e+02 -2.278368e-05 1.584298e-02 -4.023438e-01 3.984375e-01
-4.177898e+01 6.504676e+01 -1.280000e+02 1.279961e+02 -4.548411e-05 1.602225e-02 -4.023438e-01 3.984375e-01
-4.182601e+01 6.503995e+01 -1.280000e+02 1.279961e+02 -3.904585e-05 1.581145e-02 -4.023438e-01 3.984375e-01
-4.184628e+01 6.504987e+01 -1.280000e+02 1.279961e+02 -2.733487e-05 1.602475e-02 -4.023438e-01 3.984375e-01
-4.188747e+01 6.504408e+01 -1.280000e+02 1.279961e+02 -1.817699e-05 1.613558e-02 -4.023438e-01 3.984375e-01
-4.195509e+01 6.503458e+01 -1.280000e+02 1.279961e+02 -5.028506e-05 1.585459e-02 -4.023438e-01 3.984375e-01
-4.200640e+01 6.503216e+01 -1.280000e+02 1.279961e+02 -5.805538e-05 1.587556e-02 -4.023438e-01 3.984375e-01
-4.201696e+01 6.506134e+01 -1.280000e+02 1.279961e+02 -6.779603e-05 1.579316e-02 -4.023438e-01 3.984375e-01
-4.197102e+01 6.512224e+01 -1.280000e+02 1.279961e+02 -5.822188e-05 1.598799e-02 -4.023438e-01 3.984375e-01
-4.191500e+01 6.519356e+01 -1.280000e+02 1.279961e+02 -3.535495e-05 1.583629e-02 -4.023438e-01 3.984375e-01
-4.188475e+01 6.525053e+01 -1.280000e+02 1.279961e+02 -1.404208e-05 1.611616e-02 -4.023438e-01 3.984375e-01
-4.188797e+01 6.527634e+01 -1.280000e+02 1.279961e+02 -1.612341e-05 1.593882e-02 -4.023438e-01 3.984375e-01
-4.192253e+01 6.527724e+01 -1.280000e+02 1.279961e+02 -2.025833e-05 1.590887e-02 -4.023438e-01 3.984375e-01
-4.195949e+01 6.527607e+01 -1.280000e+02 1.279961e+02 -2.339421e-05 1.585813e-02 -4.023438e-01 3.984375e-01
-4.200232e+01 6.527295e+01 -1.280000e+02 1.279961e+02 -3.552145e-05 1.583395e-02 -4.023438e-01 3.984375e-01
-4.200842e+01 6.529915e+01 -1.280000e+02 1.279961e+02 -3.105352e-05 1.582355e-02 -4.023438e-01 3.984375e-01
-4.198507e+01 6.534384e+01 -1.280000e+02 1.279961e+02 -1.642867e-05 1.599700e-02 -4.023438e-01 3.984375e-01
-4.197030e+01 6.538391e+01 -1.280000e+02 1.279961e+02 -1.898178e-05 1.588672e-02 -4.023438e-01 3.984375e-01
-4.196541e+01 6.541505e+01 -1.280000e+02 1.279961e+02 -2.478177e-05 1.594630e-02 -4.023438e-01 3.984375e-01
-4.195485e+01 6.544704e+01 -1.280000e+02 1.279961e+02 -1.409758e-05 1.593958e-02 -4.023438e-01 3.984375e-01
-4.193592e+01 6.548263e+01 -1.280000e+02 1.279961e+02 -1.104495e-05 1.581840e-02 -4.023438e-01 3.984375e-01
-4.193107e+01 6.551610e+01 -1.280000e+02 1.279961e+02 3.885159e-06 1.578847e-02 -4.023438e-01 3.984375e-01
-4.195005e+01 6.553058e+01 -1.280000e+02 1.279961e+02 6.438264e-06 1.576050e-02 -4.023438e-01 3.984375e-01
-4.199671e+01 6.553931e+01 -1.280000e+02 1.279961e+02 6.244006e-06 1.583643e-02 -4.023438e-01 3.984375e-01
-4.204404e+01 6.554852e+01 -1.280000e+02 1.279961e+02 -1.234926e-05 1.577460e-02 -4.023438e-01 3.984375e-01
-4.206737e+01 6.556627e+01 -1.280000e+02 1.279961e+02 -1.870427e-05 1.572156e-02 -4.023438e-01 3.984375e-01
-4.207101e+01 6.559860e+01 -1.280000e+02 1.279961e+02 -1.626217e-05 1.571687e-02 -4.023438e-01 3.984375e-01
-4.206539e+01 6.563099e+01 -1.280000e+02 1.279961e+02 -2.775114e-06 1.583218e-02 -4.023438e-01 3.984375e-01
-4.209957e+01 6.563220e+01 -1.280000e+02 1.279961e+02 -2.944396e-05 1.577242e-02 -4.023438e-01 3.984375e-01
-4.214899e+01 6.562370e+01 -1.280000e+02 1.279961e+02 -9.629644e-06 1.574256e-02 -4.023438e-01 4.062500e-01
-4.219187e+01 6.561788e+01 -1.280000e+02 1.279961e+02 -9.296631e-06 1.572268e-02 -4.023438e-01 4.062500e-01
-4.221080e+01 6.562949e+01 -1.280000e+02 1.279961e+02 -1.268227e-05 1.574069e-02 -4.023438e-01 4.062500e-01
-4.222573e+01 6.565113e+01 -1.280000e+02 1.279961e+02 -1.787173e-05 1.572323e-02 -4.023438e-01 4.062500e-01
-4.221761e+01 6.569083e+01 -1.280000e+02 1.279961e+02 -1.651193e-05 1.572819e-02 -4.023438e-01 4.062500e-01
-4.221206e+01 6.573076e+01 -1.280000e+02 1.279961e+02 2.247842e-06 1.583423e-02 -4.023438e-01 4.062500e-01
-4.220317e+01 6.576796e+01 -1.280000e+02 1.279961e+02 -8.741608e-06 1.582088e-02 -4.023438e-01 4.062500e-01
-4.217524e+01 6.581563e+01 -1.280000e+02 1.279961e+02 2.525353e-06 1.600786e-02 -4.023438e-01 4.062500e-01
-4.215208e+01 6.585749e+01 -1.280000e+02 1.279961e+02 2.877793e-05 1.633507e-02 -4.023438e-01 4.062500e-01
-4.214776e+01 6.589357e+01 -1.280000e+02 1.279961e+02 1.609566e-05 1.608037e-02 -4.023438e-01 4.062500e-01
-4.217688e+01 6.590930e+01 -1.280000e+02 1.279961e+02 6.133001e-06 1.590614e-02 -4.023438e-01 4.062500e-01
-4.223385e+01 6.589951e+01 -1.280000e+02 1.279961e+02 8.325341e-08 1.596455e-02 -4.023438e-01 4.062500e-01
-4.228961e+01 6.588624e+01 -1.280000e+02 1.279961e+02 -1.276552e-05 1.589102e-02 -4.023438e-01 4.062500e-01
-4.235948e+01 6.586033e+01 -1.280000e+02 1.279961e+02 -3.566021e-05 1.586669e-02 -4.023438e-01 4.062500e-01
-4.238561e+01 6.586254e+01 -1.280000e+02 1.279961e+02 -2.708511e-05 1.616682e-02 -4.023438e-01 4.062500e-01
-4.236786e+01 6.590573e+01 -1.280000e+02 1.279961e+02 -3.668700e-05 1.595589e-02 -4.023438e-01 4.062500e-01
-4.230847e+01 6.598089e+01 -1.280000e+02 1.279961e+02 -1.515212e-05 1.586060e-02 -4.023438e-01 4.062500e-01
-4.222977e+01 6.606648e+01 -1.280000e+02 1.279961e+02 1.648418e-05 1.595439e-02 -4.023438e-01 4.062500e-01
-4.219519e+01 6.611903e+01 -1.280000e+02 1.279961e+02 2.922195e-05 1.592703e-02 -4.023438e-01 4.062500e-01
-4.221312e+01 6.613392e+01 -1.280000e+02 1.279961e+02 2.669659e-05 1.589325e-02 -4.023438e-01 4.062500e-01
-4.226714e+01 6.613222e+01 -1.280000e+02 1.279961e+02 2.486502e-05 1.592327e-02 -4.023438e-01 4.062500e-01
-4.234650e+01 6.611562e+01 -1.280000e+02 1.279961e+02 -3.468892e-06 1.576283e-02 -4.023438e-01 4.062500e-01
-4.242724e+01 6.609554e+01 -1.280000e+02 1.279961e+02 -1.826025e-05 1.586822e-02 -4.023438e-01 4.062500e-01
-4.248907e+01 6.608545e+01 -1.280000e+02 1.279961e+02 -1.481911e-05 1.571485e-02 -4.023438e-01 4.062500e-01
-4.250966e+01 6.609435e+01 -1.280000e+02 1.279961e+02 -1.345930e-05 1.579334e-02 -4.023438e-01 4.062500e-01
-4.249588e+01 6.612470e+01 -1.280000e+02 1.279961e+02 -2.000857e-05 1.586269e-02 -4.023438e-01 4.062500e-01
-4.246228e+01 6.616807e+01 -1.280000e+02 1.279961e+02 2.192340e-06 1.570300e-02 -4.023438e-01 4.062500e-01
-4.244311e+01 6.619910e+01 -1.280000e+02 1.279961e+02 1.826025e-05 1.576308e-02 -4.023438e-01 4.062500e-01
-4.242356e+01 6.623086e+01 -1.280000e+02 1.279961e+02 8.103332e-06 1.570804e-02 -4.023438e-01 4.062500e-01
-4.242632e+01 6.625153e+01 -1.280000e+02 1.279961e+02 9.823902e-06 1.571467e-02 -4.023438e-01 4.062500e-01
-4.244287e+01 6.626113e+01 -1.280000e+02 1.279961e+02 2.053584e-06 1.573291e-02 -4.023438e-01 4.062500e-01
-4.247247e+01 6.625893e+01 -1.280000e+02 1.279961e+02 1.406983e-05 1.575970e-02 -4.023438e-01 4.062500e-01
-4.252026e+01 6.624948e+01 -1.280000e+02 1.279961e+02 1.676169e-05 1.592993e-02 -4.023438e-01 4.062500e-01
-4.259852e+01 6.623144e+01 -1.280000e+02 1.279961e+02 -2.350521e-05 1.586725e-02 -4.023438e-01 4.062500e-01
-4.265580e+01 6.622823e+01 -1.280000e+02 1.279961e+02 -2.389373e-05 1.594896e-02 -4.023438e-01 4.062500e-01
-4.267636e+01 6.624831e+01 -1.280000e+02 1.279961e+02 -2.497602e-07 1.582775e-02 -4.023438e-01 4.062500e-01
-4.269923e+01 6.626583e+01 -1.280000e+02 1.279961e+02 5.078458e-06 1.574015e-02 -4.023438e-01 4.062500e-01
-4.271442e+01 6.628748e+01 -1.280000e+02 1.279961e+02 2.941620e-06 1.576140e-02 -4.023438e-01 4.062500e-01
-4.274069e+01 6.629912e+01 -1.280000e+02 1.279961e+02 4.662191e-06 1.578225e-02 -4.023438e-01 4.062500e-01
-4.275646e+01 6.631423e+01 -1.280000e+02 1.279961e+02 -7.659314e-06 1.571676e-02 -4.023438e-01 4.062500e-01
-4.276625e+01 6.633294e+01 -1.280000e+02 1.279961e+02 -4.273675e-06 1.569927e-02 -4.023438e-01 4.062500e-01
-4.275733e+01 6.635938e+01 -1.280000e+02 1.279961e+02 -1.332055e-06 1.567682e-02 -4.023438e-01 4.062500e-01
-4.275188e+01 6.637554e+01 -1.280000e+02 1.279961e+02 -4.634440e-06 1.570700e-02 -4.023438e-01 4.062500e-01
-4.270369e+01 6.641038e+01 -1.280000e+02 1.279961e+02 7.576060e-06 1.575753e-02 -4.023438e-01 4.062500e-01
-4.263443e+01 6.645798e+01 -1.280000e+02 1.279961e+02 2.800090e-05 1.571632e-02 -4.023438e-01 4.062500e-01
-4.256741e+01 6.650540e+01 -1.280000e+02 1.279961e+02 2.389373e-05 1.571376e-02 -4.023438e-01 4.062500e-01
-4.250961e+01 6.655114e+01 -1.280000e+02 1.279961e+02 3.660375e-05 1.583022e-02 -4.023438e-01 4.062500e-01
-4.247763e+01 6.657919e+01 -1.280000e+02 1.279961e+02 4.004489e-05 1.578578e-02 -4.023438e-01 4.062500e-01
-4.248790e+01 6.658130e+01 -1.280000e+02 1.279961e+02 1.290428e-05 1.571388e-02 -4.101562e-01 4.062500e-01
-4.253480e+01 6.655803e+01 -1.280000e+02 1.279961e+02 1.012916e-05 1.567807e-02 -4.101562e-01 4.062500e-01
-4.259067e+01 6.653353e+01 -1.280000e+02 1.279961e+02 -1.817699e-05 1.567208e-02 -4.101562e-01 4.062500e-01
-4.262118e+01 6.652648e+01 -1.280000e+02 1.279961e+02 -1.612341e-05 1.568439e-02 -4.101562e-01 4.062500e-01
-4.263993e+01 6.652667e+01 -1.280000e+02 1.279961e+02 -1.146122e-05 1.573320e-02 -4.101562e-01 4.062500e-01
