8.984375e-01 9.960938e-01
4.453125e-01 9.765625e-01
2.226562e-01 9.570312e-01
1.132812e-01 9.375000e-01
5.859375e-02 9.179688e-01
2.734375e-02 8.984375e-01
1.562500e-02 8.789062e-01
1.562500e-02 8.593750e-01
1.562500e-02 8.398438e-01
1.562500e-02 8.203125e-01
1.562500e-02 8.007812e-01
1.562500e-02 7.812500e-01
1.562500e-02 7.617188e-01
1.562500e-02 7.421875e-01
1.562500e-02 7.226562e-01
1.562500e-02 7.031250e-01
1.562500e-02 6.835938e-01
1.562500e-02 6.640625e-01
1.562500e-02 6.445312e-01
1.562500e-02 6.250000e-01
1.562500e-02 6.054688e-01
1.562500e-02 5.859375e-01
1.562500e-02 5.664062e-01
1.562500e-02 5.468750e-01
1.562500e-02 5.273438e-01
1.562500e-02 5.078125e-01
1.562500e-02 5.000000e-01
1.562500e-02 5.000000e-01
1.562500e-02 5.000000e-01
1.562500e-02 5.000000e-01
1.562500e-02 5.000000e-01
1.562500e-02 5.000000e-01
1.562500e-02 5.000000e-01
1.562500e-02 5.000000e-01
1.562500e-02 5.000000e-01
1.562500e-02 5.000000e-01
1.562500e-02 5.000000e-01
1.562500e-02 5.000000e-01
1.562500e-02 5.000000e-01
1.562500e-02 5.000000e-01
1.562500e-02 5.000000e-01
1.562500e-02 5.000000e-01
1.562500e-02 5.000000e-01
1.562500e-02 5.000000e-01
1.562500e-02 5.000000e-01
1.562500e-02 5.000000e-01
1.562500e-02 5.000000e-01
1.562500e-02 5.000000e-01
1.562500e-02 5.000000e-01
1.562500e-02 5.000000e-01
1.562500e-02 5.000000e-01
1.562500e-02 5.000000e-01
1.562500e-02 5.000000e-01
1.562500e-02 5.000000e-01
1.562500e-02 5.000000e-01
1.562500e-02 5.000000e-01
1.562500e-02 5.000000e-01
1.562500e-02 5.000000e-01
1.562500e-02 5.000000e-01
1.562500e-02 5.000000e-01
1.562500e-02 5.000000e-01
1.562500e-02 5.000000e-01
1.562500e-02 5.000000e-01
1.562500e-02 5.000000e-01
1.562500e-02 5.000000e-01
1.562500e-02 5.000000e-01
1.562500e-02 5.000000e-01
1.562500e-02 5.000000e-01
1.562500e-02 5.000000e-01
1.562500e-02 5.000000e-01
1.562500e-02 5.000000e-01
1.562500e-02 5.000000e-01
1.562500e-02 5.000000e-01
1.562500e-02 5.000000e-01
1.562500e-02 5.000000e-01
1.562500e-02 5.000000e-01
1.562500e-02 5.000000e-01
1.562500e-02 5.000000e-01
1.562500e-02 5.000000e-01
1.562500e-02 5.000000e-01
1.562500e-02 5.000000e-01
1.562500e-02 5.000000e-01
1.562500e-02 5.000000e-01
1.562500e-02 5.000000e-01
1.562500e-02 5.000000e-01
1.562500e-02 5.000000e-01
1.562500e-02 5.000000e-01
1.562500e-02 5.000000e-01
1.562500e-02 5.000000e-01
1.562500e-02 5.000000e-01
1.562500e-02 5.000000e-01
1.562500e-02 5.000000e-01
1.562500e-02 5.000000e-01
1.562500e-02 5.000000e-01
1.562500e-02 5.000000e-01
1.562500e-02 5.000000e-01
1.562500e-02 5.000000e-01
1.562500e-02 5.000000e-01
1.562500e-02 5.000000e-01
1.562500e-02 5.000000e-01
1.562500e-02 5.000000e-01
1.562500e-02 5.000000e-01
1.562500e-02 5.000000e-01
1.562500e-02 5.000000e-01
1.562500e-02 5.000000e-01
1.562500e-02 5.000000e-01
1.562500e-02 5.000000e-01
1.562500e-02 5.000000e-01
1.562500e-02 5.000000e-01
1.562500e-02 5.000000e-01
1.562500e-02 5.000000e-01
1.562500e-02 5.000000e-01
1.562500e-02 5.000000e-01
1.562500e-02 5.000000e-01
1.562500e-02 5.000000e-01
1.562500e-02 5.000000e-01
1.562500e-02 5.000000e-01
1.562500e-02 5.000000e-01
1.562500e-02 5.000000e-01
1.562500e-02 5.000000e-01
1.562500e-02 5.000000e-01
1.562500e-02 5.000000e-01
1.562500e-02 5.000000e-01
1.562500e-02 5.000000e-01
1.562500e-02 5.000000e-01
1.562500e-02 5.000000e-01
1.562500e-02 5.000000e-01
1.562500e-02 5.000000e-01
1.562500e-02 5.000000e-01
1.562500e-02 5.000000e-01
1.562500e-02 5.000000e-01
1.562500e-02 5.000000e-01
1.562500e-02 5.000000e-01
1.562500e-02 5.000000e-01
1.562500e-02 5.000000e-01
1.562500e-02 5.000000e-01
1.562500e-02 5.000000e-01
1.562500e-02 5.000000e-01
1.562500e-02 5.000000e-01
1.562500e-02 5.000000e-01
1.562500e-02 5.000000e-01
1.562500e-02 5.000000e-01
1.562500e-02 5.000000e-01
1.562500e-02 5.000000e-01
1.562500e-02 5.000000e-01
1.562500e-02 5.000000e-01
1.562500e-02 5.000000e-01
1.562500e-02 5.000000e-01
1.562500e-02 5.000000e-01
1.562500e-02 5.000000e-01
1.562500e-02 5.000000e-01
1.562500e-02 5.000000e-01
1.562500e-02 5.000000e-01
1.562500e-02 5.000000e-01
1.562500e-02 5.000000e-01
1.562500e-02 5.000000e-01
1.562500e-02 5.000000e-01
1.562500e-02 5.000000e-01
1.562500e-02 5.000000e-01
1.562500e-02 5.000000e-01
1.562500e-02 5.000000e-01
1.562500e-02 5.000000e-01
1.562500e-02 5.000000e-01
1.562500e-02 5.000000e-01
1.562500e-02 5.000000e-01
1.562500e-02 5.000000e-01
1.562500e-02 5.000000e-01
1.562500e-02 5.000000e-01
1.562500e-02 5.000000e-01
1.562500e-02 5.000000e-01
1.562500e-02 5.000000e-01
1.562500e-02 5.000000e-01
1.562500e-02 5.000000e-01
1.562500e-02 5.000000e-01
1.562500e-02 5.000000e-01
1.562500e-02 5.000000e-01
1.562500e-02 5.000000e-01
1.562500e-02 5.000000e-01
1.562500e-02 5.000000e-01
1.562500e-02 5.000000e-01
1.562500e-02 5.000000e-01
1.562500e-02 5.000000e-01
1.562500e-02 5.000000e-01
1.562500e-02 5.000000e-01
1.562500e-02 5.000000e-01
1.562500e-02 5.000000e-01
1.562500e-02 5.000000e-01
1.562500e-02 5.000000e-01
1.562500e-02 5.000000e-01
1.562500e-02 5.000000e-01
1.562500e-02 5.000000e-01
1.562500e-02 5.000000e-01
1.562500e-02 5.000000e-01
1.562500e-02 5.000000e-01
1.562500e-02 5.000000e-01
1.562500e-02 5.000000e-01
1.562500e-02 5.000000e-01
1.562500e-02 5.000000e-01
1.562500e-02 5.000000e-01
1.562500e-02 5.000000e-01
1.562500e-02 5.000000e-01
1.562500e-02 5.000000e-01
1.562500e-02 5.000000e-01
1.562500e-02 5.000000e-01
1.562500e-02 5.000000e-01
1.562500e-02 5.000000e-01
1.562500e-02 5.000000e-01
1.562500e-02 5.000000e-01
1.562500e-02 5.000000e-01
1.562500e-02 5.000000e-01
1.562500e-02 5.000000e-01
1.562500e-02 5.000000e-01
1.562500e-02 5.000000e-01
1.562500e-02 5.000000e-01
1.562500e-02 5.000000e-01
1.562500e-02 5.000000e-01
1.562500e-02 5.000000e-01
1.562500e-02 5.000000e-01
1.562500e-02 5.000000e-01
1.562500e-02 5.000000e-01
1.562500e-02 5.000000e-01
1.562500e-02 5.000000e-01
1.562500e-02 5.000000e-01
1.562500e-02 5.000000e-01
1.562500e-02 5.000000e-01
1.562500e-02 5.000000e-01
1.562500e-02 5.000000e-01
1.562500e-02 5.000000e-01
1.562500e-02 5.000000e-01
1.562500e-02 5.000000e-01
1.562500e-02 5.000000e-01
1.562500e-02 5.000000e-01
1.562500e-02 5.000000e-01
1.562500e-02 5.000000e-01
1.562500e-02 5.000000e-01
1.562500e-02 5.000000e-01
1.562500e-02 5.000000e-01
1.562500e-02 5.000000e-01
1.562500e-02 5.000000e-01
1.562500e-02 5.000000e-01
1.562500e-02 5.000000e-01
1.562500e-02 5.000000e-01
1.562500e-02 5.000000e-01
1.562500e-02 5.000000e-01
1.562500e-02 5.000000e-01
1.562500e-02 5.000000e-01
1.562500e-02 5.000000e-01
1.562500e-02 5.000000e-01
1.562500e-02 5.000000e-01
1.562500e-02 5.000000e-01
1.562500e-02 5.000000e-01
1.562500e-02 5.000000e-01
1.562500e-02 5.000000e-01
1.562500e-02 5.000000e-01
1.562500e-02 5.000000e-01
1.562500e-02 5.000000e-01
1.562500e-02 5.000000e-01
1.562500e-02 5.000000e-01
1.562500e-02 5.000000e-01
1.562500e-02 5.000000e-01
1.562500e-02 5.000000e-01
1.562500e-02 5.000000e-01
1.562500e-02 5.000000e-01
1.562500e-02 5.000000e-01
1.562500e-02 5.000000e-01
1.562500e-02 5.000000e-01
1.562500e-02 5.000000e-01
1.562500e-02 5.000000e-01
1.562500e-02 5.000000e-01
1.562500e-02 5.000000e-01
1.562500e-02 5.000000e-01
1.562500e-02 5.000000e-01
1.562500e-02 5.000000e-01
1.562500e-02 5.000000e-01
1.562500e-02 5.000000e-01
1.562500e-02 5.000000e-01
1.562500e-02 5.000000e-01
1.562500e-02 5.000000e-01
1.562500e-02 5.000000e-01
1.562500e-02 5.000000e-01
1.562500e-02 5.000000e-01
1.562500e-02 5.000000e-01
1.562500e-02 5.000000e-01
1.562500e-02 5.000000e-01
1.562500e-02 5.000000e-01
1.562500e-02 5.000000e-01
1.562500e-02 5.000000e-01
1.562500e-02 5.000000e-01
1.562500e-02 5.000000e-01
1.562500e-02 5.000000e-01
1.562500e-02 5.000000e-01
1.562500e-02 5.000000e-01
1.562500e-02 5.000000e-01
1.562500e-02 5.000000e-01
1.562500e-02 5.000000e-01
1.562500e-02 5.000000e-01
1.562500e-02 5.000000e-01
1.562500e-02 5.000000e-01
1.562500e-02 5.000000e-01
1.562500e-02 5.000000e-01
1.562500e-02 5.000000e-01
1.562500e-02 5.000000e-01
1.562500e-02 5.000000e-01
1.562500e-02 5.000000e-01
1.562500e-02 5.000000e-01
1.562500e-02 5.000000e-01
1.562500e-02 5.000000e-01
1.562500e-02 5.000000e-01
1.562500e-02 5.000000e-01
1.562500e-02 5.000000e-01
1.562500e-02 5.000000e-01
1.562500e-02 5.000000e-01
1.562500e-02 5.000000e-01
1.562500e-02 5.000000e-01
1.562500e-02 5.000000e-01
1.562500e-02 5.000000e-01
1.562500e-02 5.000000e-01
1.562500e-02 5.000000e-01
1.562500e-02 5.000000e-01
1.562500e-02 5.000000e-01
1.562500e-02 5.000000e-01
1.562500e-02 5.000000e-01
1.562500e-02 5.000000e-01
1.562500e-02 5.000000e-01
1.562500e-02 5.000000e-01
1.562500e-02 5.000000e-01
1.562500e-02 5.000000e-01
1.562500e-02 5.000000e-01
1.562500e-02 5.000000e-01
1.562500e-02 5.000000e-01
1.562500e-02 5.000000e-01
1.562500e-02 5.000000e-01
1.562500e-02 5.000000e-01
1.562500e-02 5.000000e-01
1.562500e-02 5.000000e-01
1.562500e-02 5.000000e-01
1.562500e-02 5.000000e-01
1.562500e-02 5.000000e-01
1.562500e-02 5.000000e-01
1.562500e-02 5.000000e-01
1.562500e-02 5.000000e-01
1.562500e-02 5.000000e-01
1.562500e-02 5.000000e-01
1.562500e-02 5.000000e-01
1.562500e-02 5.000000e-01
1.562500e-02 5.000000e-01
1.562500e-02 5.000000e-01
1.562500e-02 5.000000e-01
1.562500e-02 5.000000e-01
1.562500e-02 5.000000e-01
1.562500e-02 5.000000e-01
1.562500e-02 5.000000e-01
1.562500e-02 5.000000e-01
1.562500e-02 5.000000e-01
1.562500e-02 5.000000e-01
