2.584010e-01 5.689300e+00 -2.493184e+01 2.389093e+01 8.313282e-04 2.364122e-02 -3.623352e-01 4.053650e-01
2.377660e-01 5.679560e+00 -2.537674e+01 2.304106e+01 8.093506e-04 2.438830e-02 -3.474426e-01 3.968506e-01
2.633913e-01 5.656048e+00 -2.537674e+01 2.304106e+01 7.826538e-04 2.349499e-02 -3.623352e-01 3.968506e-01
2.658987e-01 5.693899e+00 -2.024442e+01 2.269518e+01 7.885063e-04 2.356379e-02 -3.474426e-01 4.053650e-01
3.394339e-01 5.547257e+00 -2.350774e+01 2.895590e+01 8.469337e-04 2.397069e-02 -3.474426e-01 4.053650e-01
2.489768e-01 5.625293e+00 -2.537674e+01 2.123227e+01 8.318276e-04 2.380482e-02 -3.474426e-01 4.053650e-01
3.770754e-01 5.655442e+00 -2.463321e+01 2.895590e+01 7.560342e-04 2.319975e-02 -3.474426e-01 3.968506e-01
2.527674e-01 5.643511e+00 -2.245909e+01 2.895590e+01 8.401282e-04 2.460828e-02 -3.623352e-01 4.053650e-01
2.827594e-01 5.718997e+00 -2.493184e+01 2.895590e+01 8.008071e-04 2.402802e-02 -3.623352e-01 4.053650e-01
2.980567e-01 5.623809e+00 -2.137051e+01 2.389093e+01 7.569745e-04 2.418831e-02 -3.474426e-01 3.968506e-01
1.325910e-01 5.658319e+00 -2.537674e+01 2.269518e+01 8.088273e-04 2.497007e-02 -3.474426e-01 3.968506e-01
1.780240e-01 5.673941e+00 -2.268372e+01 2.389093e+01 8.901682e-04 2.448436e-02 -3.474426e-01 4.053650e-01
2.425275e-01 5.661589e+00 -2.463321e+01 2.895590e+01 8.089750e-04 2.411821e-02 -3.474426e-01 3.869324e-01
2.912650e-01 5.761129e+00 -2.268372e+01 2.123227e+01 8.060286e-04 2.370245e-02 -3.474426e-01 3.968506e-01
1.567853e-01 5.650615e+00 -2.537674e+01 2.109802e+01 7.702083e-04 2.382380e-02 -3.474426e-01 4.053650e-01
1.603593e-01 5.644492e+00 -2.537674e+01 2.895590e+01 8.414027e-04 2.387831e-02 -3.474426e-01 4.053650e-01
2.691093e-01 5.720936e+00 -2.537674e+01 2.895590e+01 8.177742e-04 2.298023e-02 -3.474426e-01 3.968506e-01
1.603217e-01 5.749255e+00 -2.350774e+01 2.389093e+01 7.553668e-04 2.334268e-02 -3.474426e-01 3.968506e-01
2.609519e-01 5.577838e+00 -2.537674e+01 2.123227e+01 8.045379e-04 2.419570e-02 -3.474426e-01 4.053650e-01
1.912623e-01 5.575046e+00 -2.389549e+01 2.150742e+01 7.115065e-04 2.361783e-02 -3.623352e-01 3.968506e-01
2.112907e-01 5.684330e+00 -2.268372e+01 2.123227e+01 8.232293e-04 2.358286e-02 -3.474426e-01 3.968506e-01
2.665951e-01 5.639513e+00 -2.537674e+01 2.389093e+01 7.854981e-04 2.271508e-02 -3.474426e-01 3.869324e-01
3.602110e-01 5.698703e+00 -2.463321e+01 2.389093e+01 6.993941e-04 2.272412e-02 -3.623352e-01 3.968506e-01
1.332975e-01 5.637389e+00 -2.074820e+01 1.967126e+01 8.718999e-04 2.446196e-02 -3.623352e-01 4.053650e-01
1.485745e-01 5.613686e+00 -2.389549e+01 2.895590e+01 7.621338e-04 2.368858e-02 -3.474426e-01 3.968506e-01
2.356237e-01 5.657151e+00 -2.493184e+01 2.895590e+01 7.705454e-04 2.276586e-02 -3.474426e-01 3.869324e-01
1.172495e-01 5.659942e+00 -2.537674e+01 2.109802e+01 7.445469e-04 2.367248e-02 -3.474426e-01 3.968506e-01
1.239918e-01 5.692641e+00 -2.493184e+01 2.895590e+01 8.812986e-04 2.387701e-02 -3.623352e-01 4.053650e-01
2.162305e-01 5.673465e+00 -2.537674e+01 2.895590e+01 7.194908e-04 2.332209e-02 -3.474426e-01 3.968506e-01
4.742915e-01 5.768027e+00 -2.463321e+01 2.895590e+01 7.578488e-04 2.435297e-02 -3.474426e-01 3.968506e-01
2.139084e-01 5.703728e+00 -2.537674e+01 2.895590e+01 8.477115e-04 2.322806e-02 -3.474426e-01 3.968506e-01
1.899302e-01 5.705070e+00 -2.493184e+01 2.895590e+01 7.439713e-04 2.231370e-02 -3.623352e-01 3.968506e-01
2.842066e-01 5.724328e+00 -2.537674e+01 2.123227e+01 8.212974e-04 2.428459e-02 -3.474426e-01 4.053650e-01
3.678258e-01 5.647396e+00 -2.463321e+01 2.150742e+01 8.157501e-04 2.334367e-02 -3.623352e-01 3.968506e-01
2.054663e-01 5.625242e+00 -2.537674e+01 2.150742e+01 8.292365e-04 2.373444e-02 -3.474426e-01 4.053650e-01
1.878596e-01 5.685911e+00 -2.463321e+01 2.389093e+01 7.210231e-04 2.364900e-02 -3.474426e-01 3.869324e-01
2.314273e-01 5.760825e+00 -2.537674e+01 2.304106e+01 8.486072e-04 2.341337e-02 -3.474426e-01 3.968506e-01
1.992475e-01 5.598575e+00 -2.268372e+01 2.304106e+01 8.505961e-04 2.396693e-02 -3.623352e-01 3.968506e-01
2.655705e-01 5.724592e+00 -2.493184e+01 2.389093e+01 7.690988e-04 2.428150e-02 -3.623352e-01 3.968506e-01
2.457662e-01 5.640193e+00 -2.389549e+01 2.389093e+01 8.229820e-04 2.375089e-02 -3.474426e-01 3.968506e-01
1.876774e-01 5.663824e+00 -2.463321e+01 2.084546e+01 8.446027e-04 2.332431e-02 -3.623352e-01 3.968506e-01
1.978607e-01 5.690704e+00 -2.463321e+01 2.304106e+01 7.774344e-04 2.364280e-02 -3.474426e-01 3.968506e-01
2.783972e-01 5.609856e+00 -2.245909e+01 2.269518e+01 8.677936e-04 2.457876e-02 -3.623352e-01 4.053650e-01
1.720671e-01 5.667391e+00 -2.245909e+01 2.123227e+01 8.206670e-04 2.375834e-02 -3.474426e-01 4.053650e-01
3.404515e-01 5.701860e+00 -2.493184e+01 1.997165e+01 8.500443e-04 2.464294e-02 -3.623352e-01 4.053650e-01
3.045296e-01 5.577100e+00 -2.537674e+01 2.389093e+01 8.372534e-04 2.295305e-02 -3.474426e-01 3.869324e-01
2.494067e-01 5.677779e+00 -2.537674e+01 2.269518e+01 7.795498e-04 2.351095e-02 -3.623352e-01 4.053650e-01
3.806994e-01 5.679770e+00 -2.537674e+01 2.304106e+01 7.319126e-04 2.266825e-02 -3.623352e-01 3.968506e-01
2.850971e-01 5.689761e+00 -2.537674e+01 2.895590e+01 7.986092e-04 2.279236e-02 -3.474426e-01 3.968506e-01
2.580832e-01 5.671056e+00 -2.389549e+01 2.895590e+01 8.162447e-04 2.343623e-02 -3.474426e-01 4.053650e-01
2.581829e-01 5.602948e+00 -2.389549e+01 2.895590e+01 9.396484e-04 2.367664e-02 -3.623352e-01 4.053650e-01
1.798813e-01 5.718576e+00 -2.389549e+01 2.150742e+01 8.484084e-04 2.441074e-02 -3.474426e-01 4.053650e-01
1.602393e-01 5.666280e+00 -2.493184e+01 2.389093e+01 8.211721e-04 2.426604e-02 -3.474426e-01 4.053650e-01
1.968577e-01 5.636274e+00 -2.493184e+01 1.993094e+01 8.124073e-04 2.426925e-02 -3.474426e-01 3.968506e-01
2.674802e-01 5.686182e+00 -2.108856e+01 2.150742e+01 7.940445e-04 2.371380e-02 -3.474426e-01 3.968506e-01
2.029956e-01 5.630554e+00 -2.537674e+01 2.389093e+01 7.915870e-04 2.360603e-02 -3.474426e-01 3.968506e-01
1.914354e-01 5.858045e+00 -2.537674e+01 2.895590e+01 8.253271e-04 2.404189e-02 -3.474426e-01 3.968506e-01
9.035346e-02 5.676791e+00 -2.137051e+01 2.389093e+01 8.082103e-04 2.467169e-02 -3.623352e-01 3.968506e-01
2.939489e-01 5.789507e+00 -2.463321e+01 2.109802e+01 7.678381e-04 2.323726e-02 -3.474426e-01 4.053650e-01
2.457059e-01 5.692902e+00 -2.493184e+01 2.895590e+01 7.511470e-04 2.411298e-02 -3.474426e-01 3.968506e-01
1.469125e-01 5.710465e+00 -2.537674e+01 2.095261e+01 7.923040e-04 2.379277e-02 -3.623352e-01 3.869324e-01
2.296777e-01 5.643196e+00 -2.493184e+01 2.389093e+01 8.094984e-04 2.443273e-02 -3.474426e-01 4.053650e-01
2.591344e-01 5.746727e+00 -2.537674e+01 2.389093e+01 7.785601e-04 2.318740e-02 -3.623352e-01 3.869324e-01
2.552315e-01 5.655546e+00 -2.463321e+01 2.389093e+01 7.518750e-04 2.418694e-02 -3.474426e-01 3.968506e-01
1.643704e-01 5.647900e+00 -2.537674e+01 2.109802e+01 8.178466e-04 2.353712e-02 -3.474426e-01 3.968506e-01
1.731118e-01 5.718298e+00 -2.537674e+01 2.109802e+01 7.542030e-04 2.456280e-02 -3.474426e-01 3.968506e-01
2.642301e-01 5.699115e+00 -2.537674e+01 2.389093e+01 8.020420e-04 2.359815e-02 -3.474426e-01 3.968506e-01
2.342066e-01 5.600897e+00 -2.537674e+01 2.123227e+01 8.599774e-04 2.388625e-02 -3.474426e-01 4.053650e-01
1.780376e-01 5.676455e+00 -2.245909e+01 2.046570e+01 7.904597e-04 2.322221e-02 -3.474426e-01 4.053650e-01
2.410592e-01 5.653309e+00 -2.350774e+01 2.895590e+01 7.810465e-04 2.419856e-02 -3.623352e-01 4.053650e-01
1.779704e-01 5.636984e+00 -2.493184e+01 2.269518e+01 7.613300e-04 2.291591e-02 -3.623352e-01 3.968506e-01
2.027197e-01 5.626993e+00 -2.537674e+01 2.150742e+01 7.638683e-04 2.438258e-02 -3.623352e-01 4.053650e-01
2.711995e-01 5.759869e+00 -2.350774e+01 2.389093e+01 8.181388e-04 2.379826e-02 -3.623352e-01 4.053650e-01
2.839810e-01 5.670860e+00 -2.268372e+01 2.895590e+01 7.452903e-04 2.270750e-02 -3.623352e-01 3.968506e-01
2.002643e-01 5.619596e+00 -2.493184e+01 2.150742e+01 7.887230e-04 2.353390e-02 -3.623352e-01 3.968506e-01
2.982098e-01 5.584068e+00 -2.245909e+01 2.304106e+01 8.715883e-04 2.442599e-02 -3.474426e-01 4.053650e-01
1.999655e-01 5.698562e+00 -2.389549e+01 2.269518e+01 7.174145e-04 2.428236e-02 -3.623352e-01 3.968506e-01
1.944339e-01 5.565360e+00 -2.493184e+01 2.389093e+01 8.468083e-04 2.467976e-02 -3.474426e-01 4.053650e-01
1.564625e-01 5.776277e+00 -2.537674e+01 2.895590e+01 8.208887e-04 2.352105e-02 -3.474426e-01 4.053650e-01
2.988038e-01 5.649167e+00 -2.245909e+01 2.389093e+01 8.307966e-04 2.390423e-02 -3.474426e-01 4.053650e-01
2.840488e-01 5.728343e+00 -2.493184e+01 2.389093e+01 8.381553e-04 2.471985e-02 -3.474426e-01 3.869324e-01
2.669064e-01 5.708920e+00 -2.245909e+01 2.095261e+01 7.553627e-04 2.372776e-02 -3.623352e-01 3.968506e-01
2.072051e-01 5.659783e+00 -2.245909e+01 2.389093e+01 7.308299e-04 2.317349e-02 -3.623352e-01 3.968506e-01
2.161367e-01 5.649272e+00 -2.493184e+01 2.895590e+01 8.337338e-04 2.354474e-02 -3.474426e-01 4.053650e-01
1.851050e-01 5.740644e+00 -2.537674e+01 2.895590e+01 7.671299e-04 2.369728e-02 -3.623352e-01 3.968506e-01
1.308698e-01 5.649340e+00 -2.537674e+01 2.046570e+01 7.600684e-04 2.341961e-02 -3.474426e-01 3.869324e-01
3.743712e-01 5.655901e+00 -2.389549e+01 2.895590e+01 8.087895e-04 2.420058e-02 -3.623352e-01 3.968506e-01
8.412079e-02 5.684391e+00 -2.537674e+01 2.304106e+01 7.845061e-04 2.371439e-02 -3.474426e-01 3.968506e-01
2.612382e-01 5.555678e+00 -2.493184e+01 2.304106e+01 8.160727e-04 2.478125e-02 -3.623352e-01 3.968506e-01
2.616894e-01 5.709655e+00 -2.493184e+01 2.304106e+01 7.973896e-04 2.376325e-02 -3.623352e-01 3.968506e-01
2.121345e-01 5.751365e+00 -2.537674e+01 2.895590e+01 8.270678e-04 2.362183e-02 -3.623352e-01 3.968506e-01
2.478286e-01 5.685836e+00 -2.350774e+01 2.389093e+01 7.495002e-04 2.323760e-02 -3.474426e-01 3.968506e-01
3.442568e-01 5.591773e+00 -2.537674e+01 2.150742e+01 8.282980e-04 2.297066e-02 -3.623352e-01 3.968506e-01
1.952106e-01 5.703847e+00 -2.537674e+01 2.389093e+01 7.682558e-04 2.385518e-02 -3.474426e-01 3.968506e-01
3.215183e-01 5.590421e+00 -2.024442e+01 2.389093e+01 8.061542e-04 2.469027e-02 -3.474426e-01 3.968506e-01
2.849280e-01 5.639887e+00 -2.350774e+01 2.895590e+01 7.797940e-04 2.322045e-02 -3.474426e-01 3.869324e-01
1.880589e-01 5.803913e+00 -2.537674e+01 2.304106e+01 8.401341e-04 2.367099e-02 -3.474426e-01 3.968506e-01
3.046191e-01 5.650403e+00 -2.463321e+01 2.269518e+01 7.710362e-04 2.297132e-02 -3.474426e-01 3.968506e-01
1.944597e-01 5.580365e+00 -2.350774e+01 2.895590e+01 7.844535e-04 2.457810e-02 -3.474426e-01 3.968506e-01
2.408626e-01 5.634263e+00 -2.537674e+01 2.389093e+01 8.810014e-04 2.395495e-02 -3.474426e-01 4.053650e-01
