-1.537353e+00 8.923039e+00 -5.564260e+01 4.903182e+01 1.426854e-05 2.964953e-03 -1.262285e-01 1.429005e-01
-1.754383e+00 1.015652e+01 -6.416701e+01 5.239767e+01 3.094357e-08 2.088732e-03 -1.262285e-01 1.262285e-01
-1.863898e+00 1.081549e+01 -7.600401e+01 5.965056e+01 1.293085e-07 1.918275e-03 -1.262285e-01 1.262285e-01
-1.867224e+00 1.126105e+01 -8.579606e+01 6.922972e+01 7.167624e-08 1.824500e-03 -1.262285e-01 1.262285e-01
-1.964154e+00 1.174715e+01 -8.934433e+01 7.290064e+01 -4.770069e-08 1.757311e-03 -1.262285e-01 1.262284e-01
-1.953815e+00 1.212165e+01 -8.726282e+01 7.612521e+01 3.077007e-08 1.713432e-03 -1.262285e-01 1.326907e-01
-1.955045e+00 1.249808e+01 -9.102010e+01 7.985599e+01 1.321286e-08 1.663399e-03 -1.316658e-01 1.457189e-01
-1.906225e+00 1.279428e+01 -9.087985e+01 8.392917e+01 3.083282e-08 1.639250e-03 -1.387320e-01 1.403347e-01
-1.931793e+00 1.301367e+01 -9.252757e+01 8.648524e+01 5.884058e-08 1.617938e-03 -1.361690e-01 1.455140e-01
-1.863514e+00 1.319425e+01 -9.231388e+01 8.861732e+01 -2.501729e-08 1.589484e-03 -1.502954e-01 1.542950e-01
-1.933123e+00 1.342580e+01 -9.330431e+01 9.001499e+01 -1.020082e-07 1.574962e-03 -1.598953e-01 1.582515e-01
-1.999376e+00 1.373973e+01 -9.482062e+01 9.311854e+01 7.460866e-08 1.552542e-03 -1.688633e-01 1.775381e-01
-2.104720e+00 1.406206e+01 -9.513922e+01 9.478827e+01 8.452364e-09 1.530221e-03 -1.682937e-01 1.769735e-01
-2.211794e+00 1.442355e+01 -9.598025e+01 9.412054e+01 6.168459e-08 1.507111e-03 -1.658148e-01 1.740098e-01
-2.256201e+00 1.462030e+01 -9.339343e+01 1.014181e+02 -4.511235e-09 1.496568e-03 -1.529568e-01 1.714741e-01
-2.364556e+00 1.476892e+01 -9.382646e+01 1.010695e+02 -2.196985e-08 1.470254e-03 -1.657449e-01 1.718082e-01
-2.427297e+00 1.497756e+01 -9.505054e+01 1.016762e+02 6.817594e-09 1.471495e-03 -1.489691e-01 1.769665e-01
-2.491844e+00 1.515919e+01 -9.798481e+01 1.032299e+02 9.659053e-09 1.467768e-03 -1.708630e-01 1.652953e-01
-2.517407e+00 1.537091e+01 -9.907108e+01 1.032855e+02 2.092986e-08 1.447721e-03 -1.525018e-01 1.810114e-01
-2.593078e+00 1.555249e+01 -1.004487e+02 1.072553e+02 2.127364e-08 1.434782e-03 -1.561610e-01 1.642581e-01
-2.605012e+00 1.573299e+01 -1.007027e+02 1.090416e+02 8.792827e-08 1.440059e-03 -1.550899e-01 1.713693e-01
-2.683657e+00 1.588205e+01 -1.032899e+02 1.084925e+02 -5.884712e-08 1.406734e-03 -1.616019e-01 1.735446e-01
-2.741295e+00 1.606600e+01 -1.030498e+02 1.124617e+02 -2.667308e-08 1.416739e-03 -1.707559e-01 1.668773e-01
-2.765814e+00 1.626958e+01 -1.057266e+02 1.135023e+02 2.845497e-10 1.404694e-03 -1.679874e-01 1.665961e-01
-2.827717e+00 1.640981e+01 -1.090560e+02 1.155223e+02 4.038977e-08 1.394523e-03 -1.619352e-01 1.667285e-01
-2.856671e+00 1.658547e+01 -1.084799e+02 1.153840e+02 -7.014293e-08 1.403797e-03 -1.697766e-01 1.602725e-01
-2.874422e+00 1.679725e+01 -1.075804e+02 1.167666e+02 -6.138901e-09 1.384039e-03 -1.611211e-01 1.624136e-01
-2.886223e+00 1.698258e+01 -1.088802e+02 1.188426e+02 8.086792e-08 1.371366e-03 -1.693584e-01 1.664800e-01
-2.921466e+00 1.719818e+01 -1.103046e+02 1.208206e+02 -4.360855e-08 1.377891e-03 -1.848547e-01 1.809562e-01
-2.975357e+00 1.731361e+01 -1.112346e+02 1.213786e+02 7.579869e-08 1.372394e-03 -1.925339e-01 1.761217e-01
