3.145925e+04 8.624000e-01 -6.231775e-03 5.770089e-01 -9.998670e-01 9.999358e-01
1.553640e+03 1.131000e-01 -1.494939e-02 5.856504e-01 -1.692364e+00 1.745342e+00
1.202410e+03 8.760000e-02 -1.668441e-02 5.982770e-01 -2.273485e+00 2.002508e+00
1.068435e+03 7.770000e-02 -1.670720e-02 6.103302e-01 -2.661853e+00 2.178737e+00
9.754297e+02 7.170000e-02 -1.727135e-02 6.239148e-01 -2.924429e+00 2.329708e+00
8.922185e+02 6.700000e-02 -1.911411e-02 6.393031e-01 -3.100789e+00 2.460315e+00
8.302499e+02 6.170000e-02 -1.916570e-02 6.557183e-01 -3.326553e+00 2.607685e+00
8.132502e+02 6.120000e-02 -1.977907e-02 6.728579e-01 -3.448973e+00 2.899389e+00
7.768784e+02 5.910000e-02 -1.903069e-02 6.907767e-01 -3.549246e+00 3.206220e+00
7.662406e+02 5.770000e-02 -1.908601e-02 7.082401e-01 -3.686153e+00 3.395715e+00
7.422950e+02 5.580000e-02 -1.918197e-02 7.269392e-01 -3.794642e+00 3.672493e+00
7.252734e+02 5.600000e-02 -2.019385e-02 7.465591e-01 -3.957335e+00 3.943748e+00
7.058907e+02 5.340000e-02 -2.194872e-02 7.659550e-01 -4.277012e+00 4.222566e+00
7.019834e+02 5.160000e-02 -2.364659e-02 7.851238e-01 -4.450261e+00 4.390104e+00
6.902382e+02 5.150000e-02 -2.618978e-02 8.047277e-01 -4.570957e+00 4.642083e+00
6.798813e+02 5.070000e-02 -2.701796e-02 8.248138e-01 -4.746864e+00 4.893484e+00
6.827200e+02 5.050000e-02 -2.880703e-02 8.454639e-01 -5.010170e+00 5.011313e+00
6.786920e+02 5.080000e-02 -3.059457e-02 8.649587e-01 -5.230436e+00 5.208125e+00
6.784501e+02 5.030000e-02 -3.231583e-02 8.856805e-01 -5.454346e+00 5.342280e+00
6.656889e+02 5.060000e-02 -3.338394e-02 9.057785e-01 -5.741247e+00 5.489826e+00
6.652159e+02 5.090000e-02 -3.386238e-02 9.272771e-01 -5.883224e+00 5.589482e+00
6.770803e+02 5.110000e-02 -3.403741e-02 9.473086e-01 -6.042709e+00 5.714171e+00
6.747839e+02 5.070000e-02 -3.567301e-02 9.682348e-01 -6.253695e+00 5.857281e+00
6.694133e+02 5.130000e-02 -3.646552e-02 9.902287e-01 -6.436071e+00 5.933192e+00
6.699120e+02 5.240000e-02 -3.782564e-02 1.011682e+00 -6.636852e+00 6.147277e+00
6.610416e+02 5.060000e-02 -3.898977e-02 1.032404e+00 -6.783092e+00 6.355269e+00
6.659604e+02 5.060000e-02 -3.928193e-02 1.053124e+00 -6.930861e+00 6.492678e+00
6.615427e+02 5.090000e-02 -4.027509e-02 1.073513e+00 -7.107940e+00 6.589222e+00
6.680137e+02 5.100000e-02 -4.064135e-02 1.093775e+00 -7.321701e+00 6.736538e+00
6.632263e+02 5.000000e-02 -4.155312e-02 1.114831e+00 -7.528499e+00 6.868064e+00
6.670786e+02 5.170000e-02 -4.250922e-02 1.135201e+00 -7.727444e+00 6.979442e+00
