-1.226985e+00 8.174813e+00 -4.300638e+01 5.297015e+01 3.502988e-05 1.991851e-03 -1.262285e-01 1.262285e-01
-1.421547e+00 9.875849e+00 -5.324869e+01 5.572254e+01 8.176720e-07 1.486574e-03 -1.262285e-01 1.262285e-01
-1.599398e+00 1.072221e+01 -5.645944e+01 5.828879e+01 3.821749e-08 1.293099e-03 -1.262285e-01 1.262284e-01
-1.754723e+00 1.126833e+01 -6.604893e+01 5.814867e+01 7.271735e-08 1.180545e-03 -1.262285e-01 1.262281e-01
-1.867523e+00 1.172176e+01 -6.938632e+01 5.828345e+01 -1.540219e-07 1.103139e-03 -1.262285e-01 1.262285e-01
-2.006395e+00 1.212089e+01 -7.589660e+01 5.856108e+01 -2.160359e-07 1.050726e-03 -1.262285e-01 1.262285e-01
-2.066585e+00 1.250517e+01 -7.669791e+01 6.401638e+01 6.318787e-07 1.001728e-03 -1.262285e-01 1.262285e-01
-2.152706e+00 1.283267e+01 -7.699164e+01 6.324159e+01 -6.971692e-08 9.710177e-04 -1.262285e-01 1.262285e-01
-2.230853e+00 1.318864e+01 -8.017641e+01 6.660281e+01 -1.063687e-07 9.315511e-04 -1.262284e-01 1.262284e-01
-2.263332e+00 1.354685e+01 -8.199926e+01 6.967120e+01 -4.724244e-08 9.033184e-04 -1.262285e-01 1.262282e-01
-2.343375e+00 1.391304e+01 -8.380901e+01 6.938675e+01 -1.322207e-07 8.764558e-04 -1.262285e-01 1.262284e-01
-2.428773e+00 1.425270e+01 -8.674676e+01 7.226513e+01 3.079748e-07 8.541156e-04 -1.262285e-01 1.262283e-01
-2.460011e+00 1.459453e+01 -8.864907e+01 7.779143e+01 7.184124e-08 8.339303e-04 -1.262285e-01 1.262264e-01
-2.541167e+00 1.493117e+01 -9.059196e+01 7.809994e+01 -1.232406e-07 8.136450e-04 -1.262276e-01 1.262284e-01
-2.593838e+00 1.527235e+01 -9.386750e+01 7.607812e+01 2.983112e-07 7.914851e-04 -1.262285e-01 1.262244e-01
-2.648736e+00 1.558512e+01 -9.519430e+01 8.041652e+01 -2.075591e-08 7.778382e-04 -1.262284e-01 1.262285e-01
-2.706466e+00 1.587047e+01 -9.672843e+01 8.190776e+01 1.881704e-07 7.628437e-04 -1.262285e-01 1.262285e-01
-2.786442e+00 1.614232e+01 -9.674734e+01 8.446042e+01 -4.166214e-07 7.458069e-04 -1.262284e-01 1.262270e-01
-2.846190e+00 1.641288e+01 -1.006376e+02 8.592057e+01 6.006160e-07 7.284233e-04 -1.262285e-01 1.262284e-01
-2.866687e+00 1.668411e+01 -1.018424e+02 8.768530e+01 3.735847e-08 7.174227e-04 -1.262285e-01 1.340109e-01
-2.939641e+00 1.693178e+01 -1.039594e+02 8.966983e+01 -1.175758e-07 7.047238e-04 -1.262282e-01 1.262285e-01
-2.993630e+00 1.715689e+01 -1.043935e+02 9.221839e+01 -1.497893e-08 6.928127e-04 -1.262283e-01 1.262284e-01
-3.032908e+00 1.742022e+01 -1.078174e+02 9.331778e+01 -1.047821e-08 6.822625e-04 -1.262285e-01 1.262212e-01
-3.065778e+00 1.762105e+01 -1.080076e+02 9.334545e+01 -4.461917e-08 6.722111e-04 -1.262285e-01 1.262261e-01
-3.136942e+00 1.787632e+01 -1.093300e+02 9.559142e+01 8.571962e-08 6.600612e-04 -1.262284e-01 1.262182e-01
-3.185232e+00 1.803110e+01 -1.099802e+02 9.837589e+01 -2.987962e-07 6.545996e-04 -1.262285e-01 1.262236e-01
-3.185825e+00 1.827114e+01 -1.105020e+02 1.019984e+02 2.214043e-07 6.437928e-04 -1.262280e-01 1.357814e-01
-3.240148e+00 1.848302e+01 -1.126314e+02 1.023863e+02 -1.513537e-07 6.348775e-04 -1.262285e-01 1.262218e-01
-3.283580e+00 1.865177e+01 -1.148201e+02 1.054474e+02 4.331673e-07 6.322374e-04 -1.262272e-01 1.262282e-01
-3.291082e+00 1.884814e+01 -1.156978e+02 1.052598e+02 6.623029e-08 6.169023e-04 -1.262285e-01 1.262281e-01
-3.306459e+00 1.903248e+01 -1.171079e+02 1.056979e+02 2.040031e-07 6.155563e-04 -1.262285e-01 1.262216e-01
-3.317796e+00 1.924861e+01 -1.192695e+02 1.083397e+02 -2.080450e-07 6.089870e-04 -1.262285e-01 1.262285e-01
-3.387920e+00 1.944996e+01 -1.196537e+02 1.066480e+02 7.149171e-08 5.999691e-04 -1.262284e-01 1.262278e-01
