1.749517e-01 7.892953e-01 -1.649170e+00 2.467529e+00 2.224596e-03 2.899055e-02 -1.240234e-01 1.469727e-01
1.198329e-01 8.068269e-01 -1.649170e+00 2.468506e+00 4.757426e-04 2.582131e-02 -1.240234e-01 1.335449e-01
1.196858e-01 8.071118e-01 -1.649170e+00 2.468750e+00 4.708334e-04 2.581188e-02 -1.240234e-01 1.335449e-01
1.127911e-01 8.255741e-01 -1.647949e+00 2.502686e+00 3.224143e-04 2.607457e-02 -1.335449e-01 1.335449e-01
8.531874e-02 8.619230e-01 -1.656250e+00 2.545166e+00 -7.783029e-04 2.611024e-02 -1.408691e-01 1.335449e-01
8.554367e-02 8.618581e-01 -1.656250e+00 2.545166e+00 -7.691444e-04 2.611579e-02 -1.408691e-01 1.335449e-01
1.212740e-01 8.408699e-01 -1.659424e+00 2.534912e+00 5.092379e-04 2.606441e-02 -1.335449e-01 1.335449e-01
1.229080e-01 8.401127e-01 -1.660889e+00 2.540527e+00 5.377918e-04 2.601729e-02 -1.296387e-01 1.335449e-01
1.203800e-01 8.433776e-01 -1.660645e+00 2.540527e+00 4.294995e-04 2.598185e-02 -1.296387e-01 1.335449e-01
1.073326e-01 8.410853e-01 -1.661377e+00 2.542725e+00 -3.199034e-05 2.597228e-02 -1.335449e-01 1.335449e-01
1.082177e-01 8.393500e-01 -1.669922e+00 2.542725e+00 -6.365877e-05 2.579721e-02 -1.335449e-01 1.335449e-01
1.210366e-01 8.415060e-01 -1.671875e+00 2.554688e+00 3.358302e-04 2.585605e-02 -1.296387e-01 1.335449e-01
1.200548e-01 8.418498e-01 -1.672119e+00 2.555176e+00 2.828188e-04 2.585690e-02 -1.296387e-01 1.335449e-01
1.125480e-01 8.466811e-01 -1.692871e+00 2.562744e+00 -5.938534e-05 2.586423e-02 -1.335449e-01 1.335449e-01
1.132999e-01 8.509641e-01 -1.693848e+00 2.573730e+00 1.253056e-05 2.616119e-02 -1.394043e-01 1.335449e-01
1.121558e-01 8.641477e-01 -1.699951e+00 2.573730e+00 -4.390121e-05 2.633164e-02 -1.394043e-01 1.335449e-01
1.153436e-01 9.835097e-01 -1.913086e+00 2.768555e+00 -1.030129e-03 2.677106e-02 -1.469727e-01 1.335449e-01
2.284720e-01 1.419635e+00 -2.202637e+00 5.217529e+00 -2.519873e-04 2.696194e-02 -1.469727e-01 1.333008e-01
2.763641e-01 1.549038e+00 -2.208496e+00 5.283691e+00 6.290066e-04 2.702512e-02 -1.508789e-01 1.469727e-01
2.688014e-01 1.555012e+00 -2.211426e+00 5.277100e+00 5.459765e-04 2.714268e-02 -1.508789e-01 1.469727e-01
2.031270e-01 1.550578e+00 -2.268066e+00 4.989502e+00 -3.338906e-04 2.738197e-02 -1.677246e-01 1.572266e-01
1.776260e-01 1.517128e+00 -2.268066e+00 4.922852e+00 2.254534e-04 2.728116e-02 -1.677246e-01 1.572266e-01
2.642144e-02 1.398966e+00 -2.358154e+00 3.711182e+00 -5.490267e-05 2.695994e-02 -1.801758e-01 1.572266e-01
3.180822e-03 1.369740e+00 -2.354736e+00 3.580566e+00 4.427705e-04 2.731046e-02 -1.889648e-01 1.635742e-01
1.003407e-03 1.368896e+00 -2.358643e+00 3.579834e+00 4.363965e-04 2.733425e-02 -1.889648e-01 1.635742e-01
-4.688588e-02 1.363168e+00 -2.361816e+00 3.575195e+00 -2.024123e-04 2.779634e-02 -1.904297e-01 1.635742e-01
-5.399979e-02 1.327211e+00 -2.368896e+00 3.544922e+00 6.646748e-04 2.876324e-02 -2.038574e-01 1.691895e-01
-3.019131e-01 1.324965e+00 -3.103027e+00 3.467773e+00 -9.655369e-04 3.176666e-02 -2.265625e-01 2.302246e-01
-3.130975e-01 1.348929e+00 -3.524414e+00 3.418457e+00 -5.239656e-04 3.224854e-02 -2.299805e-01 2.719727e-01
-3.025372e-01 1.364648e+00 -3.630371e+00 3.399414e+00 2.130275e-04 3.320533e-02 -2.333984e-01 3.103027e-01
-3.255949e-01 1.361711e+00 -3.678223e+00 3.389893e+00 -3.988049e-04 3.477070e-02 -2.514648e-01 3.244629e-01
-3.222937e-01 1.363068e+00 -3.631348e+00 3.377441e+00 -3.810995e-04 3.513705e-02 -2.514648e-01 3.208008e-01
-3.084195e-01 1.370121e+00 -3.684326e+00 3.377441e+00 -2.512469e-04 3.494684e-02 -2.539062e-01 3.127441e-01
-2.921660e-01 1.376073e+00 -3.684814e+00 3.375244e+00 -4.812635e-05 3.511935e-02 -2.644043e-01 3.125000e-01
-2.959274e-01 1.379913e+00 -3.706055e+00 3.376221e+00 -1.406046e-04 3.488838e-02 -2.629395e-01 3.059082e-01
-2.825372e-01 1.371933e+00 -3.565430e+00 3.376221e+00 -1.247342e-04 3.488072e-02 -2.719727e-01 2.973633e-01
-2.593758e-01 1.348720e+00 -3.478027e+00 3.372803e+00 6.016598e-05 3.541735e-02 -2.756348e-01 3.022461e-01
-2.564591e-01 1.361484e+00 -3.544189e+00 3.374023e+00 -9.652633e-05 3.506897e-02 -2.817383e-01 2.951660e-01
-2.564880e-01 1.362075e+00 -3.544189e+00 3.374023e+00 -1.027715e-04 3.506242e-02 -2.817383e-01 2.968750e-01
-2.548396e-01 1.364489e+00 -3.545166e+00 3.374023e+00 -1.272451e-04 3.522906e-02 -2.805176e-01 2.968750e-01
-2.178186e-01 1.364598e+00 -3.631836e+00 3.664551e+00 7.927166e-06 3.497851e-02 -3.129883e-01 2.563477e-01
-2.160625e-01 1.369288e+00 -3.616211e+00 3.653809e+00 -1.905980e-04 3.473152e-02 -3.132324e-01 2.365723e-01
-1.969980e-01 1.354250e+00 -3.447998e+00 3.477051e+00 2.025653e-05 3.453510e-02 -3.139648e-01 2.370605e-01
-1.639118e-01 1.371261e+00 -3.665771e+00 3.824463e+00 1.611106e-04 3.482005e-02 -3.183594e-01 2.062988e-01
-1.715750e-01 1.366229e+00 -3.662109e+00 3.793701e+00 3.547507e-05 3.468477e-02 -3.188477e-01 2.194824e-01
-1.820999e-01 1.357026e+00 -3.579834e+00 3.648438e+00 -1.858739e-04 3.479088e-02 -3.195801e-01 2.290039e-01
-1.802634e-01 1.359287e+00 -3.579834e+00 3.489258e+00 -1.907429e-04 3.473319e-02 -3.186035e-01 2.231445e-01
-1.640950e-01 1.351221e+00 -3.488525e+00 3.657959e+00 2.169146e-04 3.447336e-02 -3.151855e-01 2.207031e-01
-1.661423e-01 1.362411e+00 -3.666504e+00 3.780762e+00 1.260299e-04 3.460106e-02 -3.269043e-01 2.199707e-01
-1.846398e-01 1.350408e+00 -3.579834e+00 3.623535e+00 -1.395101e-04 3.445095e-02 -3.156738e-01 2.355957e-01
-2.000230e-01 1.350647e+00 -3.581299e+00 3.623779e+00 -4.091223e-04 3.459448e-02 -3.154297e-01 2.355957e-01
-1.828589e-01 1.367214e+00 -3.681152e+00 3.741943e+00 -3.804235e-05 3.474125e-02 -3.237305e-01 2.207031e-01
-1.827098e-01 1.366527e+00 -3.677734e+00 3.737549e+00 -3.069463e-05 3.475423e-02 -3.237305e-01 2.207031e-01
-1.993094e-01 1.365982e+00 -3.584717e+00 3.456299e+00 -2.435048e-04 3.490545e-02 -3.278809e-01 2.226562e-01
-1.916082e-01 1.343470e+00 -3.407227e+00 3.709229e+00 6.145365e-05 3.461203e-02 -3.024902e-01 2.509766e-01
-1.916317e-01 1.350385e+00 -3.620605e+00 3.653320e+00 -1.331925e-05 3.460508e-02 -3.110352e-01 2.368164e-01
-1.916909e-01 1.361908e+00 -3.630127e+00 3.666016e+00 -6.529249e-05 3.476352e-02 -3.149414e-01 2.368164e-01
-1.928668e-01 1.361283e+00 -3.633545e+00 3.676758e+00 -5.943363e-05 3.473452e-02 -3.146973e-01 2.395020e-01
-1.465783e-01 1.350393e+00 -3.520020e+00 3.897949e+00 2.408088e-04 3.461300e-02 -3.190918e-01 2.431641e-01
-1.485748e-01 1.357232e+00 -3.520020e+00 3.897949e+00 1.878376e-04 3.457465e-02 -3.278809e-01 2.431641e-01
-1.561023e-01 1.371093e+00 -3.985352e+00 3.927002e+00 -1.040913e-04 3.498497e-02 -3.334961e-01 2.229004e-01
-1.599786e-01 1.353042e+00 -3.784424e+00 4.246094e+00 -5.345244e-04 3.411094e-02 -3.269043e-01 2.219238e-01
-1.582021e-01 1.354034e+00 -3.788574e+00 4.223633e+00 -5.082963e-04 3.406750e-02 -3.310547e-01 2.216797e-01
-1.576546e-01 1.354834e+00 -3.854492e+00 4.215332e+00 -4.940596e-04 3.411247e-02 -3.310547e-01 2.216797e-01
-1.576546e-01 1.354834e+00 -3.854492e+00 4.215332e+00 -4.940596e-04 3.411247e-02 -3.310547e-01 2.216797e-01
-1.576546e-01 1.354834e+00 -3.854492e+00 4.215332e+00 -4.940596e-04 3.411247e-02 -3.310547e-01 2.216797e-01
-1.576546e-01 1.354834e+00 -3.854492e+00 4.215332e+00 -4.940596e-04 3.411247e-02 -3.310547e-01 2.216797e-01
-1.576546e-01 1.354834e+00 -3.854492e+00 4.215332e+00 -4.940596e-04 3.411247e-02 -3.310547e-01 2.216797e-01
-1.323269e-01 1.354332e+00 -3.713867e+00 4.224121e+00 1.019667e-05 3.422994e-02 -3.254395e-01 2.368164e-01
-1.231692e-01 1.355110e+00 -3.782715e+00 4.217529e+00 1.640642e-04 3.404290e-02 -3.254395e-01 2.365723e-01
-1.281482e-01 1.355809e+00 -3.800049e+00 4.190430e+00 7.859564e-05 3.418076e-02 -3.259277e-01 2.370605e-01
-1.323765e-01 1.354985e+00 -3.755859e+00 4.207520e+00 1.791459e-05 3.418833e-02 -3.259277e-01 2.370605e-01
-1.299786e-01 1.355476e+00 -3.736328e+00 4.218750e+00 3.197425e-05 3.426546e-02 -3.269043e-01 2.370605e-01
-1.279891e-01 1.353695e+00 -3.736328e+00 4.218750e+00 4.369197e-05 3.409017e-02 -3.254395e-01 2.370605e-01
-1.274805e-01 1.363944e+00 -3.996338e+00 4.017334e+00 2.043358e-05 3.483641e-02 -3.356934e-01 2.368164e-01
-1.282724e-01 1.372486e+00 -3.996338e+00 4.017334e+00 3.557165e-06 3.498224e-02 -3.356934e-01 2.070312e-01
-1.276567e-01 1.354842e+00 -3.815674e+00 4.218994e+00 2.611539e-05 3.416371e-02 -3.227539e-01 2.375488e-01
-1.276885e-01 1.357527e+00 -3.839355e+00 4.180664e+00 1.770535e-07 3.428976e-02 -3.344727e-01 2.373047e-01
-1.287429e-01 1.359727e+00 -3.851318e+00 4.140625e+00 1.818822e-05 3.434624e-02 -3.344727e-01 2.373047e-01
-1.292233e-01 1.361340e+00 -3.864258e+00 4.137939e+00 1.751220e-05 3.448345e-02 -3.344727e-01 2.373047e-01
-1.296096e-01 1.362686e+00 -3.866699e+00 4.109375e+00 4.675821e-06 3.450814e-02 -3.342285e-01 2.370605e-01
-1.172577e-01 1.365619e+00 -3.983154e+00 4.063232e+00 1.140466e-04 3.443075e-02 -3.378906e-01 2.370605e-01
-1.070242e-01 1.366629e+00 -3.895020e+00 4.063232e+00 1.524591e-04 3.426345e-02 -3.491211e-01 2.036133e-01
-1.115681e-01 1.367183e+00 -3.895020e+00 4.048584e+00 7.314722e-05 3.429813e-02 -3.496094e-01 2.036133e-01
-1.158844e-01 1.373367e+00 -4.022705e+00 4.029053e+00 1.648207e-05 3.434631e-02 -3.493652e-01 1.989746e-01
-1.224470e-01 1.368491e+00 -4.022705e+00 4.029053e+00 3.058196e-05 3.461463e-02 -3.493652e-01 2.377930e-01
-1.538698e-01 1.374650e+00 -3.961426e+00 4.085205e+00 -1.333132e-04 3.471556e-02 -3.320312e-01 2.248535e-01
-1.955556e-01 1.407220e+00 -3.947266e+00 4.194580e+00 -2.699260e-05 3.496016e-02 -3.374023e-01 2.446289e-01
-2.006057e-01 1.407836e+00 -3.940918e+00 4.206299e+00 -1.130647e-04 3.486189e-02 -3.291016e-01 2.443848e-01
-2.005003e-01 1.407111e+00 -3.940918e+00 4.206299e+00 -1.159861e-04 3.486173e-02 -3.291016e-01 2.443848e-01
-2.005080e-01 1.407322e+00 -3.941650e+00 4.203369e+00 -1.126865e-04 3.486157e-02 -3.291016e-01 2.443848e-01
-1.980595e-01 1.422391e+00 -3.952148e+00 4.139893e+00 -1.073588e-05 3.553375e-02 -3.369141e-01 2.463379e-01
-1.992656e-01 1.404382e+00 -3.909912e+00 4.241211e+00 -7.967406e-06 3.492861e-02 -3.271484e-01 2.468262e-01
-1.998821e-01 1.402485e+00 -3.882324e+00 4.287842e+00 -1.113827e-05 3.480435e-02 -3.271484e-01 2.468262e-01
-1.988963e-01 1.410044e+00 -3.934082e+00 4.239746e+00 -1.819627e-05 3.502172e-02 -3.366699e-01 2.438965e-01
-1.973229e-01 1.409996e+00 -3.914062e+00 4.279297e+00 -1.583824e-05 3.499998e-02 -3.366699e-01 2.441406e-01
-2.197349e-01 1.409122e+00 -3.914307e+00 4.274902e+00 -2.106695e-04 3.518564e-02 -3.286133e-01 2.573242e-01
-2.622645e-01 1.454753e+00 -4.045654e+00 4.437500e+00 -2.648317e-04 3.577310e-02 -3.352051e-01 2.763672e-01
-2.659839e-01 1.456643e+00 -3.930908e+00 4.469727e+00 -1.013148e-04 3.599360e-02 -3.288574e-01 2.939453e-01
-2.537399e-01 1.452657e+00 -3.875732e+00 4.611084e+00 3.919320e-06 3.578340e-02 -3.308105e-01 2.939453e-01
-2.196555e-01 1.448240e+00 -3.884766e+00 4.975342e+00 -2.767104e-04 3.497626e-02 -3.430176e-01 2.778320e-01
-1.979003e-01 1.443315e+00 -4.232422e+00 4.953857e+00 -5.412927e-04 3.429193e-02 -3.430176e-01 2.226562e-01
-1.857151e-01 1.446880e+00 -4.191650e+00 4.934814e+00 -2.777244e-04 3.448648e-02 -3.425293e-01 2.219238e-01
-1.755923e-01 1.436677e+00 -4.019287e+00 5.094727e+00 -1.347135e-04 3.414334e-02 -3.395996e-01 2.307129e-01
-1.731925e-01 1.441005e+00 -4.019775e+00 5.092773e+00 -6.682963e-05 3.395492e-02 -3.395996e-01 2.307129e-01
-1.711596e-01 1.454202e+00 -4.240479e+00 4.901367e+00 3.703636e-05 3.456590e-02 -3.476562e-01 2.209473e-01
-1.672989e-01 1.437895e+00 -3.992676e+00 5.088379e+00 5.069362e-05 3.371485e-02 -3.383789e-01 2.292480e-01
-1.685179e-01 1.441301e+00 -4.073242e+00 5.085938e+00 5.431517e-05 3.388537e-02 -3.378906e-01 2.290039e-01
-1.700072e-01 1.443934e+00 -4.078125e+00 5.005615e+00 5.989236e-05 3.399968e-02 -3.378906e-01 2.287598e-01
-1.802365e-01 1.455836e+00 -4.287354e+00 4.945068e+00 -1.268105e-04 3.429299e-02 -3.449707e-01 2.136230e-01
-1.765211e-01 1.448556e+00 -4.262451e+00 5.051025e+00 6.060057e-06 3.410418e-02 -3.452148e-01 2.285156e-01
-1.739296e-01 1.444056e+00 -4.145752e+00 5.051025e+00 4.559931e-05 3.389669e-02 -3.374023e-01 2.285156e-01
-1.787325e-01 1.447707e+00 -4.178467e+00 4.969482e+00 2.281575e-05 3.431474e-02 -3.366699e-01 2.285156e-01
-1.986261e-01 1.461032e+00 -4.269043e+00 4.757324e+00 -1.069483e-04 3.500130e-02 -3.359375e-01 2.287598e-01
-1.982396e-01 1.439662e+00 -3.935059e+00 4.853516e+00 -1.203159e-05 3.423697e-02 -3.286133e-01 2.377930e-01
-1.957116e-01 1.448237e+00 -4.038086e+00 4.827148e+00 7.577083e-05 3.422483e-02 -3.278809e-01 2.209473e-01
-1.974691e-01 1.443624e+00 -4.038086e+00 4.827148e+00 4.780443e-05 3.442824e-02 -3.278809e-01 2.292480e-01
-1.991378e-01 1.439016e+00 -3.981445e+00 4.970703e+00 1.201549e-05 3.407582e-02 -3.281250e-01 2.348633e-01
-2.001173e-01 1.444947e+00 -4.028564e+00 4.840820e+00 3.323776e-05 3.434526e-02 -3.242188e-01 2.214355e-01
-2.047296e-01 1.443387e+00 -3.979736e+00 4.893799e+00 -7.379910e-06 3.439510e-02 -3.239746e-01 2.343750e-01
-2.092066e-01 1.440606e+00 -3.979736e+00 4.893799e+00 -4.737790e-05 3.443714e-02 -3.234863e-01 2.343750e-01
-2.078865e-01 1.445932e+00 -4.055176e+00 4.800781e+00 -1.206378e-05 3.442625e-02 -3.229980e-01 2.441406e-01
-2.078347e-01 1.445995e+00 -4.060303e+00 4.790527e+00 -4.506815e-06 3.442337e-02 -3.229980e-01 2.441406e-01
-2.081509e-01 1.452229e+00 -4.084473e+00 4.731689e+00 -7.049947e-06 3.477106e-02 -3.457031e-01 2.275391e-01
-2.199403e-01 1.435718e+00 -3.782471e+00 4.759766e+00 -4.474624e-06 3.472483e-02 -3.229980e-01 2.465820e-01
-2.217375e-01 1.434709e+00 -3.782471e+00 4.655518e+00 1.022081e-05 3.450761e-02 -3.229980e-01 2.480469e-01
-2.205563e-01 1.450197e+00 -4.018066e+00 4.608398e+00 1.197525e-05 3.456844e-02 -3.395996e-01 2.426758e-01
-2.242704e-01 1.455589e+00 -4.034668e+00 4.518311e+00 -9.359690e-06 3.481793e-02 -3.447266e-01 2.451172e-01
-2.247928e-01 1.443235e+00 -3.896729e+00 4.621826e+00 -9.745988e-06 3.430140e-02 -3.256836e-01 2.456055e-01
-2.246857e-01 1.442502e+00 -3.896729e+00 4.629150e+00 -1.335949e-05 3.430755e-02 -3.256836e-01 2.456055e-01
-2.290769e-01 1.431698e+00 -3.809326e+00 4.776855e+00 1.027715e-05 3.450716e-02 -3.229980e-01 2.626953e-01
-2.329139e-01 1.455111e+00 -3.994629e+00 4.492676e+00 1.978170e-05 3.490756e-02 -3.305664e-01 2.458496e-01
-2.336038e-01 1.452252e+00 -3.988037e+00 4.510498e+00 -1.142800e-06 3.485508e-02 -3.259277e-01 2.458496e-01
-2.497012e-01 1.436586e+00 -3.932373e+00 4.597168e+00 -2.248338e-04 3.475762e-02 -3.183594e-01 2.521973e-01
-2.459527e-01 1.442787e+00 -3.988525e+00 4.516602e+00 -1.793713e-04 3.501105e-02 -3.234863e-01 2.463379e-01
-2.403351e-01 1.438265e+00 -3.894287e+00 4.516602e+00 -9.700920e-05 3.485381e-02 -3.266602e-01 2.463379e-01
-2.035612e-01 1.437531e+00 -3.901367e+00 4.571289e+00 2.845571e-04 3.477555e-02 -3.332520e-01 2.436523e-01
-1.931951e-01 1.439252e+00 -4.011475e+00 4.709961e+00 2.493235e-04 3.463806e-02 -3.320312e-01 2.392578e-01
-2.000276e-01 1.443627e+00 -4.083740e+00 4.681641e+00 1.175233e-04 3.481685e-02 -3.432617e-01 2.338867e-01
-2.056900e-01 1.440064e+00 -4.083740e+00 4.870605e+00 -7.315527e-06 3.474594e-02 -3.432617e-01 2.556152e-01
-2.064570e-01 1.430934e+00 -3.948975e+00 4.870605e+00 -2.116594e-05 3.447905e-02 -3.244629e-01 2.451172e-01
-2.047102e-01 1.446759e+00 -4.081543e+00 4.694824e+00 2.655802e-05 3.465540e-02 -3.425293e-01 2.333984e-01
-2.061475e-01 1.442739e+00 -4.061768e+00 4.728516e+00 1.990242e-05 3.453534e-02 -3.427734e-01 2.268066e-01
-2.088892e-01 1.435278e+00 -3.989014e+00 4.753174e+00 5.251245e-05 3.458752e-02 -3.334961e-01 2.558594e-01
-2.092833e-01 1.436539e+00 -4.000977e+00 4.740234e+00 6.060862e-05 3.452935e-02 -3.332520e-01 2.453613e-01
-2.108680e-01 1.437616e+00 -4.017822e+00 4.731934e+00 3.789749e-05 3.462371e-02 -3.332520e-01 2.451172e-01
-2.102674e-01 1.437123e+00 -4.017822e+00 4.740723e+00 4.370001e-05 3.457142e-02 -3.332520e-01 2.451172e-01
-2.157964e-01 1.437767e+00 -4.000732e+00 4.740723e+00 -4.146270e-05 3.468620e-02 -3.334961e-01 2.451172e-01
-1.875404e-01 1.452357e+00 -3.820068e+00 4.898682e+00 5.901031e-04 3.406080e-02 -3.273926e-01 2.248535e-01
-2.294742e-01 1.467505e+00 -4.247314e+00 4.877686e+00 -1.206539e-04 3.401792e-02 -3.354492e-01 2.202148e-01
-2.376408e-01 1.465519e+00 -4.000244e+00 5.118896e+00 -2.424425e-04 3.389597e-02 -3.203125e-01 2.141113e-01
-2.334233e-01 1.460588e+00 -4.000244e+00 4.979004e+00 -1.499160e-04 3.378456e-02 -3.171387e-01 2.285156e-01
-2.137140e-01 1.466778e+00 -4.009277e+00 4.939697e+00 1.749288e-04 3.392685e-02 -3.283691e-01 2.194824e-01
-2.188663e-01 1.466264e+00 -3.888916e+00 5.083008e+00 9.930285e-05 3.367229e-02 -3.242188e-01 2.231445e-01
-2.394464e-01 1.467358e+00 -4.010498e+00 5.005127e+00 -2.018973e-04 3.309138e-02 -3.178711e-01 2.124023e-01
-2.290816e-01 1.469617e+00 -3.967529e+00 5.078369e+00 8.748855e-05 3.272313e-02 -3.183594e-01 2.133789e-01
-2.326438e-01 1.474726e+00 -4.008545e+00 5.036133e+00 6.092249e-05 3.273589e-02 -3.183594e-01 2.133789e-01
-2.360947e-01 1.477284e+00 -4.009521e+00 5.036133e+00 2.263065e-05 3.274252e-02 -3.181152e-01 1.960449e-01
-2.373860e-01 1.473105e+00 -4.009521e+00 5.033691e+00 7.025803e-06 3.292669e-02 -3.181152e-01 2.111816e-01
-2.385535e-01 1.475493e+00 -3.954590e+00 5.096924e+00 2.336301e-05 3.276675e-02 -3.193359e-01 2.136230e-01
-2.392717e-01 1.478142e+00 -3.996338e+00 5.039795e+00 3.258588e-05 3.278439e-02 -3.186035e-01 2.136230e-01
-2.392484e-01 1.480925e+00 -4.009033e+00 5.014648e+00 4.666968e-05 3.295761e-02 -3.190918e-01 1.916504e-01
-2.502133e-01 1.478030e+00 -3.977539e+00 5.028564e+00 -1.579800e-05 3.279727e-02 -3.112793e-01 2.141113e-01
-2.486249e-01 1.476739e+00 -3.951416e+00 5.083008e+00 1.939540e-06 3.276195e-02 -3.068848e-01 2.143555e-01
-2.478645e-01 1.482545e+00 -3.991699e+00 5.035400e+00 -2.543132e-06 3.274355e-02 -3.105469e-01 1.962891e-01
-2.477950e-01 1.482534e+00 -3.992920e+00 5.033203e+00 -4.989688e-07 3.272560e-02 -3.105469e-01 1.962891e-01
-2.477676e-01 1.482319e+00 -3.989014e+00 5.037598e+00 4.337810e-06 3.270919e-02 -3.105469e-01 1.962891e-01
-2.477676e-01 1.482319e+00 -3.989014e+00 5.037598e+00 4.337810e-06 3.270919e-02 -3.105469e-01 1.962891e-01
-2.477676e-01 1.482319e+00 -3.989014e+00 5.037598e+00 4.337810e-06 3.270919e-02 -3.105469e-01 1.962891e-01
-2.477676e-01 1.482319e+00 -3.989014e+00 5.037598e+00 4.337810e-06 3.270919e-02 -3.105469e-01 1.962891e-01
-2.480575e-01 1.480541e+00 -3.974121e+00 5.062256e+00 2.299281e-05 3.273802e-02 -3.107910e-01 2.109375e-01
-2.483131e-01 1.480827e+00 -3.974121e+00 5.062256e+00 1.546803e-05 3.273074e-02 -3.107910e-01 2.138672e-01
-2.486075e-01 1.481835e+00 -3.982910e+00 5.035889e+00 7.057995e-06 3.270784e-02 -3.107910e-01 1.994629e-01
-2.483109e-01 1.482137e+00 -3.985107e+00 5.032471e+00 1.324682e-05 3.273450e-02 -3.107910e-01 1.994629e-01
-2.484980e-01 1.482420e+00 -3.985107e+00 5.036133e+00 1.093708e-05 3.276123e-02 -3.107910e-01 1.994629e-01
-2.487128e-01 1.482453e+00 -3.984131e+00 5.039795e+00 1.029324e-05 3.274377e-02 -3.107910e-01 1.994629e-01
-2.487243e-01 1.481985e+00 -3.984131e+00 5.039795e+00 7.235048e-06 3.271813e-02 -3.107910e-01 1.994629e-01
-2.489317e-01 1.482343e+00 -3.985840e+00 5.037598e+00 8.241034e-06 3.272456e-02 -3.107910e-01 1.994629e-01
-2.492626e-01 1.485067e+00 -3.986328e+00 5.037109e+00 1.785826e-05 3.328034e-02 -3.305664e-01 1.953125e-01
-2.500764e-01 1.485533e+00 -3.972900e+00 4.947021e+00 8.554901e-06 3.317528e-02 -3.305664e-01 2.141113e-01
-2.560274e-01 1.482410e+00 -4.009033e+00 4.758057e+00 1.843770e-05 3.335501e-02 -3.281250e-01 2.304688e-01
-2.920863e-01 1.495640e+00 -4.177246e+00 4.502686e+00 -2.527036e-06 3.431672e-02 -3.210449e-01 2.553711e-01
-3.011786e-01 1.505140e+00 -4.177246e+00 4.058594e+00 2.463457e-05 3.444107e-02 -3.210449e-01 2.680664e-01
-3.356181e-01 1.528549e+00 -4.270264e+00 3.954346e+00 -3.536321e-04 3.481885e-02 -3.154297e-01 2.609863e-01
-3.110691e-01 1.508638e+00 -4.272461e+00 4.185791e+00 1.515336e-04 3.438834e-02 -3.132324e-01 2.729492e-01
-3.013353e-01 1.503554e+00 -4.315918e+00 4.286133e+00 3.005724e-04 3.429582e-02 -2.961426e-01 2.705078e-01
-3.440632e-01 1.503173e+00 -4.336670e+00 4.294189e+00 -4.288798e-04 3.409857e-02 -3.125000e-01 2.622070e-01
-3.536893e-01 1.506496e+00 -4.332275e+00 4.250977e+00 -5.781278e-04 3.389848e-02 -3.208008e-01 2.614746e-01
-3.530909e-01 1.506613e+00 -4.328125e+00 4.243164e+00 -5.700799e-04 3.398427e-02 -3.205566e-01 2.614746e-01
-3.012407e-01 1.511166e+00 -4.299561e+00 4.431885e+00 2.937961e-04 3.403701e-02 -3.122559e-01 2.612305e-01
-3.089070e-01 1.512253e+00 -4.312012e+00 4.305908e+00 1.197928e-04 3.395571e-02 -3.242188e-01 2.585449e-01
-3.179938e-01 1.516646e+00 -4.300049e+00 4.332520e+00 -1.149721e-04 3.389169e-02 -3.234863e-01 2.521973e-01
-3.231961e-01 1.513179e+00 -4.424805e+00 4.324707e+00 -8.645842e-05 3.385387e-02 -3.234863e-01 2.521973e-01
-3.283884e-01 1.513649e+00 -4.424805e+00 4.522217e+00 -7.168251e-05 3.364391e-02 -2.993164e-01 2.521973e-01
-3.283884e-01 1.513649e+00 -4.424805e+00 4.522217e+00 -7.168251e-05 3.364391e-02 -2.993164e-01 2.521973e-01
-3.283937e-01 1.514532e+00 -4.424805e+00 4.510742e+00 -8.377043e-05 3.369387e-02 -2.993164e-01 2.521973e-01
-3.271121e-01 1.516551e+00 -4.368896e+00 4.510742e+00 -8.508224e-05 3.383328e-02 -2.993164e-01 2.500000e-01
-3.220575e-01 1.514181e+00 -4.406494e+00 4.443604e+00 -6.240330e-05 3.390243e-02 -2.976074e-01 2.500000e-01
-3.201892e-01 1.514383e+00 -4.406494e+00 4.441162e+00 -6.324832e-05 3.397927e-02 -3.022461e-01 2.521973e-01
-3.157278e-01 1.508176e+00 -4.381836e+00 4.614014e+00 -5.480609e-05 3.371306e-02 -2.929688e-01 2.517090e-01
-3.146912e-01 1.516072e+00 -4.355469e+00 4.535889e+00 -5.885418e-05 3.371470e-02 -3.139648e-01 2.441406e-01
-3.181236e-01 1.528596e+00 -4.328125e+00 4.426270e+00 -1.593079e-04 3.399854e-02 -3.212891e-01 2.346191e-01
-3.215834e-01 1.533567e+00 -4.401367e+00 4.761963e+00 -2.001992e-04 3.399975e-02 -3.212891e-01 2.199707e-01
-3.284483e-01 1.538957e+00 -4.445312e+00 4.761963e+00 -2.795272e-04 3.395948e-02 -3.281250e-01 2.434082e-01
-3.113266e-01 1.542197e+00 -4.395508e+00 4.770752e+00 4.128565e-06 3.376058e-02 -3.278809e-01 2.336426e-01
-3.131480e-01 1.523428e+00 -4.458252e+00 5.118652e+00 -5.335747e-05 3.370121e-02 -2.985840e-01 2.346191e-01
-3.084086e-01 1.523781e+00 -4.458252e+00 5.118652e+00 -6.434284e-05 3.357084e-02 -3.078613e-01 2.346191e-01
-3.123747e-01 1.527897e+00 -4.358643e+00 4.841309e+00 -1.659796e-04 3.337788e-02 -3.090820e-01 2.314453e-01
-3.234476e-01 1.505058e+00 -4.333008e+00 4.883545e+00 -3.445380e-04 3.276104e-02 -2.961426e-01 2.187500e-01
-3.176647e-01 1.508067e+00 -4.345215e+00 4.883545e+00 -2.436175e-04 3.267462e-02 -2.932129e-01 2.187500e-01
-2.965450e-01 1.508065e+00 -4.319336e+00 4.826416e+00 9.631708e-05 3.283287e-02 -3.120117e-01 2.192383e-01
-2.902511e-01 1.507509e+00 -4.309082e+00 4.911377e+00 2.074262e-04 3.274531e-02 -2.934570e-01 2.250977e-01
-3.233814e-01 1.519068e+00 -4.315430e+00 4.757568e+00 -2.987053e-04 3.300397e-02 -3.044434e-01 2.167969e-01
-3.167155e-01 1.507475e+00 -4.367432e+00 4.909424e+00 -1.703335e-04 3.281625e-02 -2.890625e-01 2.270508e-01
-3.124854e-01 1.503698e+00 -4.378418e+00 4.979004e+00 -4.707208e-05 3.305232e-02 -2.834473e-01 2.421875e-01
-3.104057e-01 1.518006e+00 -4.303955e+00 4.769531e+00 -3.686736e-05 3.283754e-02 -3.164062e-01 2.167969e-01
-2.979213e-01 1.511843e+00 -4.239502e+00 4.768311e+00 1.840471e-04 3.315471e-02 -3.041992e-01 2.534180e-01
-2.870282e-01 1.511004e+00 -4.239502e+00 4.768311e+00 4.269644e-04 3.355098e-02 -3.041992e-01 2.534180e-01
-2.882712e-01 1.511873e+00 -4.230713e+00 4.748779e+00 4.130335e-04 3.350730e-02 -3.046875e-01 2.529297e-01
-3.031542e-01 1.515693e+00 -4.219971e+00 4.698242e+00 1.463427e-04 3.371381e-02 -3.168945e-01 2.429199e-01
-3.190630e-01 1.519263e+00 -4.235352e+00 4.654785e+00 -1.055963e-04 3.372283e-02 -3.166504e-01 2.429199e-01
-3.113603e-01 1.527086e+00 -4.230469e+00 4.633057e+00 4.951059e-05 3.385698e-02 -3.291016e-01 2.419434e-01
-3.149549e-01 1.514097e+00 -4.335938e+00 4.797363e+00 2.889191e-05 3.330731e-02 -2.980957e-01 2.487793e-01
-3.185097e-01 1.517171e+00 -4.332520e+00 4.772705e+00 -5.336552e-05 3.326317e-02 -3.049316e-01 2.421875e-01
-3.142966e-01 1.515758e+00 -4.311768e+00 4.772705e+00 3.104874e-05 3.330074e-02 -3.032227e-01 2.482910e-01
-3.110077e-01 1.515445e+00 -4.311768e+00 4.756348e+00 4.925305e-05 3.327612e-02 -3.107910e-01 2.416992e-01
-3.422315e-01 1.520218e+00 -4.497314e+00 4.811279e+00 -1.084694e-04 3.312027e-02 -2.971191e-01 2.509766e-01
-3.430176e-01 1.521734e+00 -4.486572e+00 4.780762e+00 -1.108355e-04 3.320173e-02 -2.971191e-01 2.482910e-01
-3.430564e-01 1.524088e+00 -4.484375e+00 4.774902e+00 -1.177325e-04 3.316955e-02 -2.968750e-01 2.463379e-01
-3.353772e-01 1.530187e+00 -4.483154e+00 4.713623e+00 -6.486595e-06 3.341895e-02 -3.017578e-01 2.458496e-01
-3.274648e-01 1.527814e+00 -4.469238e+00 4.834961e+00 1.145858e-04 3.351278e-02 -3.027344e-01 2.458496e-01
-3.270866e-01 1.523570e+00 -4.469238e+00 4.813232e+00 1.191006e-04 3.312612e-02 -2.968750e-01 2.482910e-01
-3.332484e-01 1.528114e+00 -4.451416e+00 4.780029e+00 -5.120064e-05 3.324962e-02 -3.029785e-01 2.460938e-01
-3.224019e-01 1.525757e+00 -4.564941e+00 5.151123e+00 -1.534732e-04 3.299012e-02 -2.983398e-01 2.370605e-01
-3.138663e-01 1.529295e+00 -4.506592e+00 5.151123e+00 -6.430260e-06 3.294586e-02 -3.183594e-01 2.370605e-01
-3.081978e-01 1.539841e+00 -4.506592e+00 4.980713e+00 8.792314e-05 3.309051e-02 -3.176270e-01 2.106934e-01
-3.098682e-01 1.536994e+00 -4.539307e+00 4.980713e+00 6.130074e-05 3.301182e-02 -3.176270e-01 2.280273e-01
-3.241809e-01 1.532106e+00 -4.517578e+00 5.141846e+00 -5.261707e-05 3.268811e-02 -3.183594e-01 2.275391e-01
-3.347855e-01 1.533566e+00 -4.580566e+00 5.140381e+00 -9.704139e-05 3.296897e-02 -2.963867e-01 2.265625e-01
-3.335003e-01 1.533641e+00 -4.577881e+00 4.993652e+00 -5.259293e-05 3.270537e-02 -2.963867e-01 2.255859e-01
-3.311980e-01 1.530680e+00 -4.578613e+00 5.105469e+00 -2.617977e-05 3.252715e-02 -2.927246e-01 2.260742e-01
-3.268161e-01 1.523714e+00 -4.610352e+00 5.220947e+00 5.606156e-05 3.291435e-02 -2.807617e-01 2.419434e-01
-3.293638e-01 1.535018e+00 -4.610352e+00 5.241211e+00 4.635581e-05 3.307767e-02 -3.159180e-01 2.419434e-01
-3.315228e-01 1.526802e+00 -4.582031e+00 5.234131e+00 1.014838e-05 3.276271e-02 -2.807617e-01 2.392578e-01
-3.332231e-01 1.539873e+00 -4.534424e+00 5.108643e+00 -8.393944e-06 3.315960e-02 -3.120117e-01 2.248535e-01
-3.346803e-01 1.535316e+00 -4.673584e+00 4.983154e+00 4.176852e-05 3.346214e-02 -3.156738e-01 2.426758e-01
-3.365783e-01 1.525285e+00 -4.673584e+00 5.281982e+00 6.285398e-06 3.274419e-02 -2.812500e-01 2.395020e-01
-3.369408e-01 1.538336e+00 -4.588379e+00 5.067139e+00 -2.027262e-05 3.286919e-02 -2.929688e-01 2.265625e-01
-3.368424e-01 1.543223e+00 -4.580811e+00 5.039307e+00 -1.583019e-05 3.289596e-02 -3.166504e-01 2.265625e-01
-3.417584e-01 1.537230e+00 -4.682373e+00 5.001709e+00 7.057995e-06 3.294787e-02 -2.944336e-01 2.395020e-01
-3.490375e-01 1.541116e+00 -4.725342e+00 5.046387e+00 -3.054977e-05 3.258068e-02 -2.919922e-01 2.280273e-01
-3.496474e-01 1.541278e+00 -4.731445e+00 5.060059e+00 -4.901162e-05 3.254070e-02 -2.919922e-01 2.277832e-01
-3.493536e-01 1.540966e+00 -4.725586e+00 5.057861e+00 -4.855289e-05 3.258084e-02 -2.922363e-01 2.277832e-01
-3.105522e-01 1.536283e+00 -4.362549e+00 5.070312e+00 1.462301e-05 3.361279e-02 -3.142090e-01 2.514648e-01
-2.746617e-01 1.529526e+00 -4.362549e+00 5.426514e+00 6.699059e-05 3.410383e-02 -3.188477e-01 2.514648e-01
-2.775984e-01 1.539948e+00 -4.355957e+00 5.295166e+00 1.094834e-04 3.422433e-02 -3.225098e-01 2.438965e-01
-2.772311e-01 1.542734e+00 -4.344727e+00 5.270264e+00 1.518877e-04 3.426513e-02 -3.217773e-01 2.436523e-01
-3.290370e-01 1.549631e+00 -4.518066e+00 5.316895e+00 1.297560e-04 3.325374e-02 -3.220215e-01 2.495117e-01
-3.811986e-01 1.562213e+00 -5.091797e+00 4.902832e+00 1.321785e-04 3.242574e-02 -2.817383e-01 2.495117e-01
-3.848818e-01 1.561349e+00 -5.094238e+00 4.918945e+00 9.783008e-05 3.239905e-02 -2.817383e-01 2.495117e-01
-3.856029e-01 1.555013e+00 -5.094238e+00 4.919189e+00 5.904733e-05 3.293013e-02 -2.824707e-01 2.526855e-01
-3.846593e-01 1.549259e+00 -5.111816e+00 5.047852e+00 -3.082340e-06 3.275421e-02 -2.812500e-01 2.595215e-01
-3.835824e-01 1.555853e+00 -4.885010e+00 4.957275e+00 -3.435400e-04 3.278018e-02 -2.978516e-01 2.084961e-01
-3.703126e-01 1.544181e+00 -4.953369e+00 5.086182e+00 -7.140888e-05 3.244169e-02 -2.888184e-01 2.373047e-01
-3.629870e-01 1.538654e+00 -4.958740e+00 5.093994e+00 2.473920e-05 3.288691e-02 -2.875977e-01 2.524414e-01
-3.596304e-01 1.538437e+00 -4.975342e+00 5.193604e+00 2.475529e-05 3.268862e-02 -2.805176e-01 2.382812e-01
-3.778192e-01 1.554635e+00 -5.208252e+00 5.184082e+00 -9.653437e-05 3.297377e-02 -2.875977e-01 2.512207e-01
-3.986470e-01 1.577248e+00 -5.240479e+00 5.156006e+00 -1.781721e-04 3.291341e-02 -2.854004e-01 2.446289e-01
-3.553176e-01 1.583052e+00 -5.239258e+00 5.343994e+00 4.723625e-04 3.307367e-02 -2.973633e-01 2.548828e-01
-3.741069e-01 1.579076e+00 -5.174316e+00 5.302002e+00 -2.387003e-05 3.321168e-02 -3.122559e-01 2.541504e-01
-3.805865e-01 1.571309e+00 -5.104980e+00 5.269531e+00 -1.960867e-04 3.315939e-02 -3.122559e-01 2.473145e-01
-3.745517e-01 1.565632e+00 -5.190918e+00 5.461182e+00 -9.007997e-05 3.286029e-02 -2.946777e-01 2.465820e-01
-3.554303e-01 1.583251e+00 -5.128906e+00 5.331055e+00 2.292923e-04 3.276511e-02 -2.937012e-01 2.124023e-01
-3.597786e-01 1.578123e+00 -5.145996e+00 5.396729e+00 1.272451e-04 3.273255e-02 -2.946777e-01 2.351074e-01
-3.708888e-01 1.566982e+00 -5.181885e+00 5.485352e+00 -8.797947e-05 3.255803e-02 -2.919922e-01 2.448730e-01
-3.598910e-01 1.563247e+00 -5.061523e+00 5.576904e+00 2.255017e-05 3.312714e-02 -2.939453e-01 2.456055e-01
-3.305069e-01 1.553788e+00 -4.916260e+00 5.530029e+00 3.146320e-04 3.288240e-02 -2.971191e-01 2.487793e-01
-3.363145e-01 1.555918e+00 -4.903564e+00 5.493652e+00 2.109190e-04 3.288142e-02 -2.985840e-01 2.443848e-01
-3.686978e-01 1.566764e+00 -4.979736e+00 5.409912e+00 -1.372164e-04 3.302127e-02 -3.168945e-01 2.434082e-01
-4.227336e-01 1.557642e+00 -5.190674e+00 5.531982e+00 -4.985343e-04 3.228566e-02 -2.714844e-01 2.412109e-01
-4.067068e-01 1.559489e+00 -5.269043e+00 5.531982e+00 -2.020341e-04 3.192697e-02 -2.802734e-01 2.412109e-01
-4.008589e-01 1.568753e+00 -5.262451e+00 5.356201e+00 -1.538192e-04 3.170580e-02 -2.802734e-01 2.309570e-01
-3.760685e-01 1.568779e+00 -5.243652e+00 5.406250e+00 1.666958e-04 3.195930e-02 -2.817383e-01 2.324219e-01
-3.748363e-01 1.567816e+00 -5.250977e+00 5.444336e+00 1.441376e-04 3.189415e-02 -2.683105e-01 2.326660e-01
-3.768599e-01 1.567143e+00 -5.251221e+00 5.443115e+00 9.222876e-05 3.188115e-02 -2.683105e-01 2.326660e-01
-3.774481e-01 1.572199e+00 -5.222168e+00 5.386963e+00 4.424727e-05 3.203374e-02 -2.932129e-01 2.321777e-01
-3.775197e-01 1.572253e+00 -5.221924e+00 5.386230e+00 4.481867e-05 3.202290e-02 -2.932129e-01 2.321777e-01
-3.805071e-01 1.572036e+00 -5.226074e+00 5.377197e+00 2.229264e-05 3.203995e-02 -2.934570e-01 2.324219e-01
-3.795656e-01 1.572776e+00 -5.219482e+00 5.371826e+00 2.350787e-05 3.215046e-02 -2.934570e-01 2.324219e-01
-3.800165e-01 1.573559e+00 -5.216797e+00 5.362305e+00 2.568080e-05 3.227490e-02 -3.044434e-01 2.324219e-01
-3.959232e-01 1.572878e+00 -5.218994e+00 5.448242e+00 -1.261828e-04 3.228373e-02 -3.044434e-01 2.414551e-01
-4.110014e-01 1.577507e+00 -5.410889e+00 5.364014e+00 -3.156622e-04 3.219247e-02 -2.832031e-01 2.414551e-01
-3.525656e-01 1.575879e+00 -5.245850e+00 5.490967e+00 4.709542e-04 3.230057e-02 -2.727051e-01 2.414551e-01
-4.073267e-01 1.558843e+00 -5.271973e+00 5.503418e+00 -6.408691e-04 3.225185e-02 -2.705078e-01 2.333984e-01
-3.896887e-01 1.563495e+00 -5.218018e+00 5.428955e+00 -3.573100e-04 3.252185e-02 -2.968750e-01 2.351074e-01
-3.548599e-01 1.574042e+00 -5.287109e+00 5.437500e+00 3.627825e-04 3.231499e-02 -2.746582e-01 2.448730e-01
-3.598211e-01 1.571469e+00 -5.306396e+00 5.472168e+00 2.667471e-04 3.226500e-02 -2.785645e-01 2.380371e-01
-3.654402e-01 1.566834e+00 -5.358887e+00 5.606201e+00 1.291444e-04 3.268417e-02 -2.785645e-01 2.460938e-01
-3.711366e-01 1.569039e+00 -5.293945e+00 5.443115e+00 -1.139580e-05 3.256998e-02 -2.807617e-01 2.460938e-01
-3.688154e-01 1.572278e+00 -5.295166e+00 5.448730e+00 1.611186e-05 3.262231e-02 -2.807617e-01 2.363281e-01
-3.539152e-01 1.556202e+00 -5.248535e+00 5.609619e+00 -6.287007e-05 3.287924e-02 -2.844238e-01 2.443848e-01
-3.363736e-01 1.564663e+00 -5.096436e+00 5.438965e+00 1.287179e-04 3.295100e-02 -3.010254e-01 2.377930e-01
-3.431524e-01 1.557933e+00 -5.154785e+00 5.520508e+00 4.119712e-05 3.289203e-02 -2.844238e-01 2.395020e-01
-3.436368e-01 1.552174e+00 -5.210205e+00 5.700439e+00 3.737438e-05 3.293792e-02 -2.800293e-01 2.395020e-01
-3.479809e-01 1.556483e+00 -5.211426e+00 5.700439e+00 2.064282e-05 3.277328e-02 -2.817383e-01 2.392578e-01
-3.560143e-01 1.573128e+00 -5.191650e+00 5.347900e+00 4.691917e-05 3.298533e-02 -3.103027e-01 2.373047e-01
-3.598727e-01 1.563875e+00 -5.240723e+00 5.431396e+00 2.180977e-05 3.281029e-02 -2.846680e-01 2.395020e-01
-3.610689e-01 1.560534e+00 -5.277344e+00 5.470947e+00 7.846687e-06 3.276460e-02 -2.873535e-01 2.446289e-01
-3.424273e-01 1.564582e+00 -5.238037e+00 5.434082e+00 1.405161e-04 3.281111e-02 -2.880859e-01 2.399902e-01
-3.439778e-01 1.572331e+00 -5.231445e+00 5.399170e+00 1.248388e-04 3.325937e-02 -2.966309e-01 2.390137e-01
-3.446414e-01 1.571165e+00 -5.308594e+00 5.610352e+00 1.058458e-04 3.301301e-02 -2.966309e-01 2.399902e-01
-3.442843e-01 1.563663e+00 -5.307861e+00 5.599609e+00 2.927820e-05 3.261974e-02 -2.880859e-01 2.399902e-01
-3.446496e-01 1.565194e+00 -5.312256e+00 5.589844e+00 3.616719e-05 3.266570e-02 -2.878418e-01 2.397461e-01
-3.764930e-01 1.598865e+00 -5.392090e+00 5.471191e+00 -1.532961e-04 3.294278e-02 -3.117676e-01 2.380371e-01
-3.996585e-01 1.615358e+00 -5.756592e+00 5.155029e+00 -2.771611e-04 3.259632e-02 -2.980957e-01 2.165527e-01
-3.464470e-01 1.591777e+00 -5.297363e+00 5.455566e+00 3.127488e-04 3.286207e-02 -3.078613e-01 2.341309e-01
-3.029590e-01 1.573969e+00 -5.248535e+00 5.583740e+00 5.438680e-04 3.300391e-02 -3.049316e-01 2.387695e-01
-3.091547e-01 1.573198e+00 -5.234863e+00 5.583496e+00 4.345938e-04 3.315951e-02 -3.049316e-01 2.431641e-01
-3.460423e-01 1.557188e+00 -5.232910e+00 5.677246e+00 -3.592576e-04 3.319000e-02 -2.878418e-01 2.509766e-01
-3.400221e-01 1.563953e+00 -5.214355e+00 5.545898e+00 -1.539721e-04 3.339038e-02 -3.166504e-01 2.500000e-01
-3.164364e-01 1.571468e+00 -5.271484e+00 5.610352e+00 3.521191e-04 3.321739e-02 -3.056641e-01 2.436523e-01
-3.267870e-01 1.564283e+00 -5.324463e+00 5.689209e+00 1.971410e-04 3.305014e-02 -2.805176e-01 2.502441e-01
-3.432199e-01 1.556415e+00 -5.282715e+00 5.653564e+00 -9.395905e-05 3.315374e-02 -2.910156e-01 2.514648e-01
-3.620125e-01 1.550973e+00 -5.215332e+00 5.462402e+00 -3.630401e-04 3.317356e-02 -3.078613e-01 2.485352e-01
-3.593428e-01 1.553395e+00 -5.159912e+00 5.411133e+00 -2.724048e-04 3.327558e-02 -3.190918e-01 2.529297e-01
-3.334825e-01 1.565635e+00 -5.249023e+00 5.406982e+00 3.203782e-04 3.317452e-02 -3.032227e-01 2.551270e-01
-3.432839e-01 1.561735e+00 -5.335693e+00 5.512207e+00 1.830089e-04 3.327489e-02 -3.032227e-01 2.558594e-01
-3.526686e-01 1.560775e+00 -5.297363e+00 5.512207e+00 3.406670e-05 3.321972e-02 -2.915039e-01 2.558594e-01
-3.783476e-01 1.568295e+00 -5.641357e+00 5.616943e+00 -1.623258e-05 3.320061e-02 -2.807617e-01 2.597656e-01
-3.771850e-01 1.570238e+00 -5.572998e+00 5.530518e+00 -7.079724e-05 3.303747e-02 -2.910156e-01 2.551270e-01
-3.732941e-01 1.597568e+00 -5.430420e+00 5.186035e+00 5.998893e-05 3.381295e-02 -3.220215e-01 2.631836e-01
-3.725170e-01 1.591543e+00 -5.439697e+00 5.186035e+00 1.941150e-05 3.318679e-02 -3.012695e-01 2.512207e-01
-3.836736e-01 1.573110e+00 -5.692627e+00 5.576172e+00 -5.806549e-05 3.293627e-02 -2.802734e-01 2.553711e-01
-3.883086e-01 1.598669e+00 -5.605957e+00 5.349609e+00 -5.613399e-05 3.353548e-02 -2.941895e-01 2.360840e-01
-3.908932e-01 1.597777e+00 -5.562988e+00 5.371582e+00 -3.359187e-05 3.344393e-02 -3.122559e-01 2.502441e-01
-3.913957e-01 1.594140e+00 -5.592773e+00 5.279541e+00 -1.220945e-04 3.282253e-02 -3.005371e-01 2.363281e-01
-3.913505e-01 1.593516e+00 -5.594482e+00 5.284424e+00 -1.133303e-04 3.276594e-02 -2.900391e-01 2.363281e-01
-3.854049e-01 1.583283e+00 -5.717529e+00 5.285400e+00 -5.295508e-06 3.428983e-02 -2.900391e-01 2.714844e-01
-3.795402e-01 1.576546e+00 -5.717529e+00 5.719482e+00 3.170867e-05 3.326029e-02 -2.897949e-01 2.692871e-01
-3.799128e-01 1.576881e+00 -5.625244e+00 5.375244e+00 -4.169609e-05 3.290798e-02 -2.890625e-01 2.539062e-01
-3.780963e-01 1.590386e+00 -5.602051e+00 5.561279e+00 4.668578e-05 3.302192e-02 -3.063965e-01 2.500000e-01
-3.758223e-01 1.595357e+00 -5.873779e+00 5.805420e+00 1.822041e-05 3.250026e-02 -2.690430e-01 2.358398e-01
-3.747612e-01 1.600160e+00 -5.773926e+00 5.729004e+00 -3.395402e-05 3.267021e-02 -2.902832e-01 2.355957e-01
-3.749094e-01 1.597359e+00 -5.773926e+00 5.722412e+00 -3.484734e-05 3.286923e-02 -3.063965e-01 2.473145e-01
-3.790928e-01 1.601036e+00 -5.887939e+00 5.906738e+00 -4.355515e-05 3.284428e-02 -3.063965e-01 2.473145e-01
-3.615398e-01 1.588422e+00 -5.625244e+00 5.740234e+00 1.173623e-04 3.269759e-02 -2.961426e-01 2.568359e-01
-4.447556e-01 1.614727e+00 -5.953613e+00 5.683350e+00 -6.530778e-04 3.249267e-02 -2.807617e-01 2.416992e-01
-5.026708e-01 1.652867e+00 -6.623291e+00 5.777344e+00 -8.455188e-04 3.217680e-02 -2.585449e-01 2.563477e-01
-4.916615e-01 1.653643e+00 -6.592285e+00 5.748291e+00 -6.912408e-04 3.218338e-02 -2.585449e-01 2.563477e-01
-4.688606e-01 1.652912e+00 -6.534668e+00 5.727295e+00 -3.734299e-04 3.219382e-02 -2.658691e-01 2.465820e-01
-4.191545e-01 1.641130e+00 -6.326416e+00 5.720459e+00 6.672501e-05 3.244652e-02 -2.802734e-01 2.463379e-01
-3.760670e-01 1.628708e+00 -6.017578e+00 5.762695e+00 5.506121e-04 3.250983e-02 -2.971191e-01 2.482910e-01
-4.028820e-01 1.615816e+00 -6.056152e+00 5.867188e+00 6.388411e-05 3.266979e-02 -2.885742e-01 2.480469e-01
-4.403451e-01 1.602642e+00 -6.061035e+00 5.906738e+00 -6.334973e-04 3.252726e-02 -2.739258e-01 2.485352e-01
-4.043287e-01 1.601081e+00 -6.085693e+00 6.052246e+00 -6.303908e-05 3.268126e-02 -2.722168e-01 2.531738e-01
-4.019324e-01 1.601146e+00 -6.057129e+00 6.009033e+00 -2.909310e-05 3.252910e-02 -2.722168e-01 2.531738e-01
-4.000741e-01 1.617682e+00 -5.931885e+00 5.785889e+00 2.622001e-05 3.246219e-02 -3.068848e-01 2.573242e-01
-4.025428e-01 1.614673e+00 -5.921387e+00 5.742432e+00 -1.470349e-05 3.251620e-02 -3.068848e-01 2.575684e-01
-4.041536e-01 1.598826e+00 -6.051025e+00 6.022705e+00 -6.690206e-05 3.255406e-02 -2.719727e-01 2.529297e-01
-3.975506e-01 1.608042e+00 -5.944336e+00 5.928467e+00 3.524973e-06 3.274910e-02 -3.063965e-01 2.648926e-01
-3.855596e-01 1.571507e+00 -5.782715e+00 5.763428e+00 -9.935113e-05 3.308232e-02 -2.927246e-01 2.653809e-01
-3.808763e-01 1.572302e+00 -5.686523e+00 5.567383e+00 -2.469896e-05 3.306461e-02 -2.961426e-01 2.766113e-01
-3.810111e-01 1.582849e+00 -5.746582e+00 5.669189e+00 1.331844e-04 3.304005e-02 -2.951660e-01 2.868652e-01
-3.876144e-01 1.586799e+00 -5.839844e+00 5.782959e+00 1.126301e-04 3.337187e-02 -2.810059e-01 2.868652e-01
-3.909218e-01 1.581578e+00 -5.730957e+00 5.557861e+00 6.491424e-05 3.305974e-02 -3.103027e-01 2.912598e-01
-3.900574e-01 1.587649e+00 -5.832031e+00 5.604492e+00 7.036265e-05 3.287827e-02 -3.107910e-01 2.851562e-01
-3.880895e-01 1.593425e+00 -5.728760e+00 6.003174e+00 -3.972436e-05 3.275523e-02 -2.961426e-01 2.788086e-01
-3.906141e-01 1.611508e+00 -6.154053e+00 6.357178e+00 -3.199597e-04 3.225126e-02 -2.719727e-01 2.448730e-01
-3.874305e-01 1.615564e+00 -6.264893e+00 6.357178e+00 -2.307328e-04 3.204189e-02 -2.719727e-01 2.448730e-01
-3.692865e-01 1.633327e+00 -6.140625e+00 6.085693e+00 2.222584e-04 3.225253e-02 -2.939453e-01 2.744141e-01
-3.738297e-01 1.616419e+00 -6.173828e+00 6.260254e+00 5.109602e-05 3.211886e-02 -2.717285e-01 2.507324e-01
-3.728681e-01 1.616670e+00 -6.183105e+00 6.188721e+00 7.024194e-05 3.221322e-02 -2.915039e-01 2.590332e-01
-3.825676e-01 1.618333e+00 -6.242676e+00 6.218750e+00 1.722247e-06 3.215114e-02 -2.719727e-01 2.456055e-01
-3.883058e-01 1.638854e+00 -6.257812e+00 6.046143e+00 6.014184e-05 3.286392e-02 -3.000488e-01 2.741699e-01
-3.946990e-01 1.645207e+00 -6.247314e+00 6.254883e+00 5.817816e-05 3.221462e-02 -2.973633e-01 2.788086e-01
-3.989669e-01 1.631888e+00 -6.365479e+00 6.221191e+00 -3.500830e-05 3.212404e-02 -2.817383e-01 2.468262e-01
-3.977966e-01 1.627726e+00 -6.374268e+00 6.239258e+00 -5.603742e-05 3.217961e-02 -2.824707e-01 2.468262e-01
-3.926838e-01 1.631567e+00 -6.265381e+00 6.136963e+00 9.101353e-05 3.225797e-02 -2.932129e-01 2.729492e-01
-3.693598e-01 1.624286e+00 -6.260986e+00 6.325928e+00 1.434214e-04 3.302421e-02 -3.151855e-01 3.115234e-01
-3.696562e-01 1.628938e+00 -5.779541e+00 6.325928e+00 2.030481e-04 3.273806e-02 -2.968750e-01 2.927246e-01
-4.165817e-01 1.640443e+00 -6.394531e+00 6.152100e+00 -7.686535e-05 3.202820e-02 -2.802734e-01 2.543945e-01
-4.386268e-01 1.631246e+00 -6.394287e+00 6.105713e+00 -3.536965e-04 3.218626e-02 -2.810059e-01 2.546387e-01
-4.248281e-01 1.632006e+00 -6.394287e+00 6.210693e+00 -1.137971e-04 3.227462e-02 -2.810059e-01 2.546387e-01
-4.123396e-01 1.633539e+00 -6.386230e+00 6.210693e+00 1.382385e-04 3.215285e-02 -2.790527e-01 2.529297e-01
-4.185583e-01 1.638508e+00 -6.314453e+00 6.027100e+00 8.453498e-05 3.224868e-02 -2.915039e-01 2.734375e-01
-4.186711e-01 1.638421e+00 -6.314453e+00 6.030029e+00 8.860721e-05 3.223801e-02 -2.915039e-01 2.734375e-01
-4.204070e-01 1.628682e+00 -6.325684e+00 6.150146e+00 -3.986922e-05 3.231719e-02 -2.863770e-01 2.634277e-01
-4.210336e-01 1.623486e+00 -6.272705e+00 6.065674e+00 -4.802977e-05 3.214234e-02 -2.817383e-01 2.587891e-01
-4.162943e-01 1.624687e+00 -6.242920e+00 6.112061e+00 -3.573261e-06 3.212638e-02 -2.814941e-01 2.592773e-01
-4.152306e-01 1.621453e+00 -6.244385e+00 6.112061e+00 5.963482e-06 3.236945e-02 -2.814941e-01 2.592773e-01
-4.166739e-01 1.625556e+00 -6.244385e+00 6.179932e+00 4.390121e-05 3.234933e-02 -2.949219e-01 2.919922e-01
-4.207462e-01 1.619648e+00 -6.263672e+00 6.188965e+00 -1.435743e-05 3.262965e-02 -2.836914e-01 2.714844e-01
-4.211831e-01 1.619756e+00 -6.198242e+00 6.188965e+00 -7.323575e-06 3.254783e-02 -2.863770e-01 2.778320e-01
-4.232385e-01 1.618838e+00 -6.240479e+00 6.179443e+00 -1.320658e-05 3.225945e-02 -2.873535e-01 2.780762e-01
-4.237585e-01 1.622584e+00 -6.199463e+00 6.043457e+00 4.032795e-05 3.253112e-02 -2.873535e-01 2.802734e-01
-4.251183e-01 1.625067e+00 -6.194092e+00 6.233887e+00 7.934409e-05 3.240848e-02 -2.873535e-01 2.802734e-01
-4.291693e-01 1.633036e+00 -6.161133e+00 6.098633e+00 7.749308e-05 3.233602e-02 -2.946777e-01 3.024902e-01
-4.326928e-01 1.634511e+00 -6.161133e+00 6.212891e+00 4.404607e-05 3.227192e-02 -2.946777e-01 3.024902e-01
-4.732814e-01 1.643596e+00 -6.373535e+00 5.687500e+00 -1.981389e-05 3.194294e-02 -2.731934e-01 2.587891e-01
-5.209553e-01 1.660021e+00 -6.604004e+00 5.565674e+00 5.826668e-06 3.234163e-02 -2.714844e-01 2.905273e-01
-5.345052e-01 1.672113e+00 -6.531494e+00 5.240234e+00 -9.993863e-05 3.213509e-02 -3.012695e-01 2.819824e-01
-5.331620e-01 1.651284e+00 -6.492676e+00 5.387695e+00 -1.605955e-04 3.194726e-02 -2.810059e-01 2.775879e-01
-4.352526e-01 1.639216e+00 -6.299561e+00 6.241211e+00 8.513857e-05 3.298182e-02 -2.988281e-01 2.924805e-01
-4.241807e-01 1.641266e+00 -6.299561e+00 6.241211e+00 1.192053e-04 3.291682e-02 -3.029785e-01 2.851562e-01
-4.457673e-01 1.637278e+00 -6.385986e+00 6.321289e+00 -1.339248e-04 3.265013e-02 -3.029785e-01 2.851562e-01
-4.475409e-01 1.640008e+00 -6.367432e+00 6.215332e+00 -1.125819e-04 3.261996e-02 -2.963867e-01 2.937012e-01
-4.535887e-01 1.647694e+00 -6.533936e+00 6.039551e+00 9.535134e-05 3.259020e-02 -2.827148e-01 2.656250e-01
-4.686720e-01 1.642457e+00 -6.524902e+00 6.039551e+00 1.224083e-05 3.272918e-02 -2.839355e-01 2.658691e-01
-4.696546e-01 1.638261e+00 -6.524902e+00 6.091064e+00 -4.236406e-05 3.230480e-02 -2.863770e-01 2.658691e-01
-4.691606e-01 1.644258e+00 -6.425293e+00 6.002441e+00 -6.798048e-05 3.232165e-02 -2.873535e-01 3.010254e-01
-4.689652e-01 1.643803e+00 -6.432861e+00 6.002441e+00 -6.230672e-05 3.233404e-02 -2.873535e-01 3.010254e-01
-4.677849e-01 1.640719e+00 -6.419922e+00 6.044922e+00 -8.858306e-05 3.235729e-02 -2.946777e-01 3.010254e-01
-4.631293e-01 1.636302e+00 -6.408447e+00 6.065674e+00 -8.851063e-05 3.242524e-02 -2.810059e-01 2.868652e-01
-4.552032e-01 1.632332e+00 -6.356201e+00 6.113281e+00 -5.019466e-05 3.248791e-02 -2.932129e-01 3.024902e-01
-4.567841e-01 1.631235e+00 -6.569336e+00 6.309814e+00 -8.015693e-05 3.260011e-02 -2.631836e-01 2.641602e-01
-4.533674e-01 1.632288e+00 -6.455322e+00 6.222412e+00 -7.132840e-05 3.237234e-02 -2.800293e-01 2.873535e-01
-4.514401e-01 1.635578e+00 -6.418945e+00 6.168945e+00 -4.134198e-05 3.247764e-02 -2.932129e-01 3.022461e-01
-4.512655e-01 1.635729e+00 -6.417480e+00 6.167969e+00 -3.424375e-05 3.249583e-02 -2.932129e-01 3.022461e-01
-4.488552e-01 1.647753e+00 -6.404541e+00 6.073975e+00 -4.672602e-05 3.244907e-02 -3.034668e-01 3.029785e-01
-4.501655e-01 1.640961e+00 -6.439209e+00 6.148682e+00 -9.218852e-05 3.249524e-02 -2.915039e-01 3.027344e-01
-4.475269e-01 1.637581e+00 -6.434082e+00 6.230225e+00 -5.861274e-05 3.246346e-02 -2.924805e-01 3.027344e-01
-4.436631e-01 1.639772e+00 -6.334473e+00 6.037842e+00 7.355766e-06 3.302078e-02 -2.983398e-01 3.105469e-01
-4.427630e-01 1.649214e+00 -6.355225e+00 6.037842e+00 4.533373e-05 3.266045e-02 -3.034668e-01 3.105469e-01
-4.427767e-01 1.646571e+00 -6.355957e+00 6.085449e+00 4.504401e-05 3.257398e-02 -3.037109e-01 3.032227e-01
-4.427767e-01 1.646571e+00 -6.355957e+00 6.085449e+00 4.504401e-05 3.257398e-02 -3.037109e-01 3.032227e-01
-4.427767e-01 1.646571e+00 -6.355957e+00 6.085449e+00 4.504401e-05 3.257398e-02 -3.037109e-01 3.032227e-01
-4.427359e-01 1.644197e+00 -6.362549e+00 6.101318e+00 1.743977e-05 3.263106e-02 -2.915039e-01 3.032227e-01
-4.442239e-01 1.633915e+00 -6.423096e+00 6.224609e+00 -4.096373e-05 3.258060e-02 -2.910156e-01 2.880859e-01
-4.448478e-01 1.635736e+00 -6.460693e+00 6.278809e+00 -5.230320e-05 3.248473e-02 -2.910156e-01 2.880859e-01
-4.497448e-01 1.655880e+00 -6.424561e+00 6.073242e+00 -6.216991e-05 3.265157e-02 -3.071289e-01 3.110352e-01
-4.483850e-01 1.654049e+00 -6.432861e+00 6.073242e+00 -3.122579e-05 3.266567e-02 -3.071289e-01 3.110352e-01
-4.509034e-01 1.640061e+00 -6.596436e+00 6.198975e+00 -8.207233e-05 3.245877e-02 -2.983398e-01 3.107910e-01
-4.516848e-01 1.636720e+00 -6.589355e+00 6.305176e+00 -8.614456e-05 3.237335e-02 -2.849121e-01 2.834473e-01
-4.480323e-01 1.637629e+00 -6.525146e+00 6.277100e+00 -8.105829e-05 3.222200e-02 -2.849121e-01 2.834473e-01
-4.468460e-01 1.634812e+00 -6.452393e+00 6.277100e+00 -5.887832e-05 3.239907e-02 -2.900391e-01 2.893066e-01
-4.487721e-01 1.632387e+00 -6.452393e+00 6.271729e+00 -6.287812e-05 3.238244e-02 -2.900391e-01 2.893066e-01
-4.493355e-01 1.633425e+00 -6.439941e+00 6.243408e+00 -6.514763e-05 3.253570e-02 -2.912598e-01 3.039551e-01
-4.445651e-01 1.654850e+00 -6.310059e+00 6.036133e+00 1.015321e-04 3.307593e-02 -3.105469e-01 3.208008e-01
-4.439196e-01 1.647788e+00 -6.326904e+00 6.088623e+00 7.420954e-05 3.288962e-02 -3.107910e-01 3.205566e-01
-4.518850e-01 1.632415e+00 -6.487549e+00 6.333740e+00 -7.739651e-05 3.227287e-02 -2.844238e-01 2.839355e-01
-4.516324e-01 1.632321e+00 -6.486328e+00 6.337891e+00 -7.507067e-05 3.233242e-02 -2.763672e-01 2.761230e-01
-4.504159e-01 1.633988e+00 -6.458496e+00 6.261230e+00 -7.614104e-05 3.244654e-02 -2.905273e-01 3.041992e-01
-4.116600e-01 1.649327e+00 -6.442627e+00 6.271973e+00 2.235863e-04 3.219000e-02 -2.937012e-01 3.046875e-01
-4.154554e-01 1.643390e+00 -6.443604e+00 6.320801e+00 1.283879e-04 3.226566e-02 -2.932129e-01 3.046875e-01
-4.244653e-01 1.635337e+00 -6.445801e+00 6.353271e+00 -4.357125e-05 3.224562e-02 -2.893066e-01 2.934570e-01
-4.195534e-01 1.629603e+00 -6.401123e+00 6.463379e+00 -4.614657e-05 3.248186e-02 -2.893066e-01 2.934570e-01
-4.124194e-01 1.628934e+00 -6.401123e+00 6.326904e+00 2.554399e-05 3.279830e-02 -2.939453e-01 3.142090e-01
-4.388849e-01 1.641672e+00 -6.651123e+00 6.425049e+00 -1.544470e-04 3.183913e-02 -2.656250e-01 2.641602e-01
-4.475708e-01 1.646473e+00 -6.736328e+00 6.376221e+00 -9.811176e-05 3.221073e-02 -2.766113e-01 2.722168e-01
-4.672974e-01 1.657097e+00 -6.664062e+00 6.157959e+00 -2.572104e-05 3.208696e-02 -2.785645e-01 2.780762e-01
-4.789024e-01 1.642554e+00 -6.655518e+00 6.299072e+00 -3.183985e-04 3.211670e-02 -2.768555e-01 2.788086e-01
-4.172406e-01 1.638874e+00 -6.499756e+00 6.320557e+00 3.018359e-04 3.302445e-02 -3.149414e-01 3.461914e-01
-3.752523e-01 1.627579e+00 -6.033203e+00 6.434326e+00 4.980192e-04 3.352248e-02 -3.015137e-01 3.234863e-01
-3.821278e-01 1.618542e+00 -6.026855e+00 6.580078e+00 3.026246e-04 3.305594e-02 -3.012695e-01 3.234863e-01
-3.974003e-01 1.631585e+00 -5.986816e+00 6.395752e+00 2.831648e-04 3.323280e-02 -3.061523e-01 3.332520e-01
-4.278433e-01 1.645577e+00 -6.185059e+00 6.349121e+00 7.030632e-05 3.275693e-02 -2.995605e-01 3.110352e-01
-4.442731e-01 1.652144e+00 -6.404785e+00 6.270264e+00 3.340677e-05 3.226016e-02 -2.900391e-01 3.066406e-01
-4.404808e-01 1.657688e+00 -6.455322e+00 6.341797e+00 2.515769e-05 3.204642e-02 -2.900391e-01 3.066406e-01
-4.382123e-01 1.644247e+00 -6.494873e+00 6.471191e+00 1.249032e-05 3.225107e-02 -2.907715e-01 3.168945e-01
-4.390813e-01 1.641184e+00 -6.260254e+00 6.362793e+00 4.026357e-05 3.225509e-02 -2.910156e-01 3.168945e-01
-4.393890e-01 1.639836e+00 -6.286865e+00 6.389404e+00 2.798249e-05 3.221252e-02 -2.910156e-01 3.166504e-01
-4.399539e-01 1.638938e+00 -6.298584e+00 6.389404e+00 2.051406e-05 3.222098e-02 -2.910156e-01 3.166504e-01
-4.404967e-01 1.638162e+00 -6.300781e+00 6.396729e+00 1.496907e-05 3.217298e-02 -2.912598e-01 3.166504e-01
-4.453940e-01 1.629004e+00 -6.437012e+00 6.603271e+00 -9.964891e-05 3.256700e-02 -2.680664e-01 2.707520e-01
-4.403956e-01 1.636522e+00 -6.268311e+00 6.428711e+00 9.438559e-05 3.303586e-02 -2.973633e-01 3.168945e-01
-4.439203e-01 1.642077e+00 -6.272949e+00 6.333496e+00 1.445481e-04 3.233724e-02 -2.978516e-01 3.168945e-01
-4.460683e-01 1.639356e+00 -6.256592e+00 6.395264e+00 8.121925e-05 3.221130e-02 -2.924805e-01 3.166504e-01
-4.482714e-01 1.637193e+00 -6.325928e+00 6.395264e+00 2.850561e-05 3.207513e-02 -2.924805e-01 3.166504e-01
-4.426356e-01 1.629813e+00 -6.324707e+00 6.495850e+00 3.573261e-06 3.243102e-02 -2.851562e-01 3.012695e-01
-4.396881e-01 1.637780e+00 -6.218018e+00 6.405029e+00 1.253860e-04 3.268438e-02 -3.068848e-01 3.332520e-01
-4.415522e-01 1.634909e+00 -6.218018e+00 6.405273e+00 1.045098e-04 3.280099e-02 -3.000488e-01 3.127441e-01
-4.432613e-01 1.631084e+00 -6.327393e+00 6.440674e+00 1.283638e-05 3.239543e-02 -2.863770e-01 3.015137e-01
-4.392918e-01 1.640917e+00 -6.239014e+00 6.383789e+00 1.223439e-04 3.265628e-02 -2.993164e-01 3.178711e-01
-4.401503e-01 1.636665e+00 -6.353760e+00 6.400879e+00 1.155274e-04 3.277956e-02 -2.993164e-01 3.129883e-01
-4.714231e-01 1.646851e+00 -6.585449e+00 6.286133e+00 1.172818e-04 3.241670e-02 -2.814941e-01 3.151855e-01
-4.742427e-01 1.644913e+00 -6.310303e+00 6.303223e+00 8.049494e-05 3.233346e-02 -2.766113e-01 3.151855e-01
-5.043740e-01 1.639095e+00 -6.310791e+00 6.347168e+00 -4.442110e-04 3.238790e-02 -2.885742e-01 3.073730e-01
-5.136967e-01 1.637823e+00 -6.593262e+00 6.381836e+00 -5.754157e-04 3.178847e-02 -2.770996e-01 2.893066e-01
-5.127098e-01 1.637983e+00 -6.589111e+00 6.381836e+00 -5.592314e-04 3.183614e-02 -2.770996e-01 2.893066e-01
-5.018969e-01 1.641885e+00 -6.549316e+00 6.336426e+00 -3.514028e-04 3.182806e-02 -2.766113e-01 2.895508e-01
-4.709098e-01 1.654590e+00 -6.524902e+00 6.299805e+00 1.806589e-04 3.209258e-02 -2.895508e-01 3.259277e-01
-4.815395e-01 1.654795e+00 -6.516602e+00 6.301025e+00 2.900458e-05 3.209370e-02 -2.895508e-01 3.259277e-01
-5.196068e-01 1.641913e+00 -6.572998e+00 6.385742e+00 -4.854323e-04 3.193664e-02 -2.778320e-01 2.897949e-01
-5.039528e-01 1.656605e+00 -6.352783e+00 6.354980e+00 -1.096685e-04 3.268444e-02 -3.012695e-01 3.159180e-01
-4.943835e-01 1.658001e+00 -6.552734e+00 6.355469e+00 5.087068e-05 3.231294e-02 -2.824707e-01 3.020020e-01
-4.970267e-01 1.648506e+00 -6.548828e+00 6.350342e+00 -5.073386e-05 3.180616e-02 -2.824707e-01 3.020020e-01
-4.967232e-01 1.648743e+00 -6.547119e+00 6.351074e+00 -4.902771e-05 3.181770e-02 -2.824707e-01 3.020020e-01
-4.821221e-01 1.650947e+00 -6.426514e+00 6.377930e+00 3.524169e-05 3.191580e-02 -2.895508e-01 3.193359e-01
-4.750524e-01 1.664722e+00 -6.304443e+00 6.241943e+00 1.688124e-04 3.252900e-02 -2.937012e-01 3.271484e-01
-4.818094e-01 1.647882e+00 -6.409668e+00 6.433105e+00 -1.150847e-05 3.182357e-02 -2.885742e-01 3.193359e-01
-4.836595e-01 1.650039e+00 -6.418213e+00 6.423584e+00 4.474624e-06 3.193428e-02 -2.807617e-01 3.024902e-01
-4.993754e-01 1.647189e+00 -6.657959e+00 6.575195e+00 -1.194145e-04 3.189443e-02 -2.570801e-01 2.658691e-01
-4.879243e-01 1.646865e+00 -6.233398e+00 6.292480e+00 4.155928e-05 3.232518e-02 -3.073730e-01 3.620605e-01
-4.784842e-01 1.643859e+00 -6.233398e+00 6.177734e+00 9.057089e-05 3.266047e-02 -3.073730e-01 3.615723e-01
-4.814805e-01 1.632618e+00 -6.556396e+00 6.520508e+00 -7.095015e-05 3.237968e-02 -2.639160e-01 2.839355e-01
-4.769623e-01 1.646949e+00 -6.332275e+00 6.250732e+00 9.635732e-05 3.230558e-02 -2.839355e-01 3.339844e-01
-4.838600e-01 1.638854e+00 -6.462646e+00 6.349854e+00 -3.135456e-05 3.192699e-02 -2.846680e-01 3.249512e-01
-4.731242e-01 1.635526e+00 -6.280029e+00 6.530762e+00 2.320205e-05 3.237477e-02 -2.885742e-01 3.344727e-01
