2.048000e+03 9.398000e-01 4.463895e-04 5.758535e-01 -9.997559e-01 9.997559e-01
1.892994e+03 1.408000e-01 -8.741046e-03 5.739139e-01 -1.341064e+00 1.281738e+00
1.376238e+03 9.770000e-02 -1.060727e-02 5.730930e-01 -1.459473e+00 1.692871e+00
1.231169e+03 9.160000e-02 -1.151625e-02 5.729248e-01 -1.512207e+00 2.080322e+00
1.107844e+03 8.320000e-02 -1.226932e-02 5.728513e-01 -1.602539e+00 2.300537e+00
1.060788e+03 7.720000e-02 -1.285565e-02 5.728202e-01 -1.808838e+00 2.453369e+00
1.011270e+03 7.660000e-02 -1.331271e-02 5.728030e-01 -1.981934e+00 2.563477e+00
9.497815e+02 7.380000e-02 -1.372369e-02 5.728117e-01 -2.105713e+00 2.656006e+00
9.070571e+02 6.980000e-02 -1.407962e-02 5.728154e-01 -2.186523e+00 2.718262e+00
8.775037e+02 6.890000e-02 -1.441109e-02 5.728228e-01 -2.265381e+00 2.770508e+00
8.580464e+02 6.960000e-02 -1.466850e-02 5.728424e-01 -2.343506e+00 2.822754e+00
8.411245e+02 6.770000e-02 -1.489507e-02 5.728654e-01 -2.390869e+00 2.856445e+00
8.056340e+02 6.510000e-02 -1.509788e-02 5.728837e-01 -2.463135e+00 2.893799e+00
7.938320e+02 6.340000e-02 -1.530407e-02 5.729107e-01 -2.512695e+00 2.919434e+00
7.810349e+02 6.310000e-02 -1.544536e-02 5.729399e-01 -2.531250e+00 2.929443e+00
7.685071e+02 6.110000e-02 -1.562396e-02 5.729663e-01 -2.547119e+00 2.961426e+00
7.461545e+02 6.080000e-02 -1.582369e-02 5.729990e-01 -2.584961e+00 2.974854e+00
7.452881e+02 6.020000e-02 -1.592108e-02 5.730396e-01 -2.613281e+00 2.995117e+00
7.389629e+02 5.900000e-02 -1.607517e-02 5.730766e-01 -2.634766e+00 3.005371e+00
7.327412e+02 5.820000e-02 -1.622175e-02 5.731129e-01 -2.655273e+00 3.003906e+00
7.148364e+02 5.730000e-02 -1.636753e-02 5.731552e-01 -2.676025e+00 3.020996e+00
7.196335e+02 5.910000e-02 -1.647538e-02 5.731918e-01 -2.695557e+00 3.019043e+00
6.952019e+02 5.630000e-02 -1.657954e-02 5.732412e-01 -2.724121e+00 3.021729e+00
7.075381e+02 5.510000e-02 -1.672681e-02 5.732719e-01 -2.720947e+00 3.029785e+00
7.098594e+02 5.490000e-02 -1.685209e-02 5.733163e-01 -2.738037e+00 3.034424e+00
6.771914e+02 5.400000e-02 -1.693116e-02 5.733594e-01 -2.743652e+00 3.052490e+00
6.756348e+02 5.170000e-02 -1.707508e-02 5.734029e-01 -2.766846e+00 3.077393e+00
6.853989e+02 5.270000e-02 -1.717684e-02 5.734462e-01 -2.782227e+00 3.104248e+00
6.622856e+02 5.210000e-02 -1.728257e-02 5.734947e-01 -2.776855e+00 3.116699e+00
6.518621e+02 5.180000e-02 -1.739191e-02 5.735406e-01 -2.843506e+00 3.142578e+00
6.432637e+02 5.000000e-02 -1.748230e-02 5.735801e-01 -2.915527e+00 3.164551e+00
6.567568e+02 5.010000e-02 -1.757958e-02 5.736259e-01 -2.985107e+00 3.182373e+00
6.435249e+02 4.990000e-02 -1.770406e-02 5.736759e-01 -3.064697e+00 3.206055e+00
6.400913e+02 4.960000e-02 -1.778111e-02 5.737189e-01 -3.119141e+00 3.229492e+00
6.482698e+02 5.000000e-02 -1.782593e-02 5.737651e-01 -3.177490e+00 3.246338e+00
6.243003e+02 4.790000e-02 -1.791352e-02 5.738137e-01 -3.247559e+00 3.259277e+00
6.192275e+02 4.750000e-02 -1.801676e-02 5.738682e-01 -3.325195e+00 3.281738e+00
6.264607e+02 4.640000e-02 -1.811941e-02 5.739201e-01 -3.376221e+00 3.301270e+00
6.147402e+02 4.590000e-02 -1.820150e-02 5.739786e-01 -3.440918e+00 3.318359e+00
6.189683e+02 4.690000e-02 -1.828904e-02 5.740371e-01 -3.492676e+00 3.356445e+00
6.129236e+02 4.640000e-02 -1.834372e-02 5.740913e-01 -3.547363e+00 3.369385e+00
6.062114e+02 4.540000e-02 -1.840605e-02 5.741410e-01 -3.601074e+00 3.390381e+00
6.021013e+02 4.500000e-02 -1.849786e-02 5.742002e-01 -3.653564e+00 3.412354e+00
6.132307e+02 4.800000e-02 -1.856808e-02 5.742588e-01 -3.697021e+00 3.430908e+00
6.028552e+02 4.510000e-02 -1.865213e-02 5.743104e-01 -3.762451e+00 3.454346e+00
5.963721e+02 4.500000e-02 -1.869767e-02 5.743614e-01 -3.821533e+00 3.480713e+00
5.965649e+02 4.400000e-02 -1.880369e-02 5.744186e-01 -3.860352e+00 3.503906e+00
5.896516e+02 4.440000e-02 -1.888445e-02 5.744741e-01 -3.903076e+00 3.523682e+00
5.860698e+02 4.410000e-02 -1.891130e-02 5.745388e-01 -3.950928e+00 3.544678e+00
6.044265e+02 4.570000e-02 -1.899857e-02 5.745917e-01 -3.983154e+00 3.562012e+00
5.788252e+02 4.290000e-02 -1.905050e-02 5.746486e-01 -4.030273e+00 3.574219e+00
5.835266e+02 4.530000e-02 -1.912232e-02 5.747067e-01 -4.069092e+00 3.596436e+00
5.801357e+02 4.410000e-02 -1.920487e-02 5.747588e-01 -4.111084e+00 3.615723e+00
5.869553e+02 4.320000e-02 -1.926154e-02 5.748214e-01 -4.149170e+00 3.632568e+00
5.742004e+02 4.340000e-02 -1.933301e-02 5.748738e-01 -4.178467e+00 3.645264e+00
5.923767e+02 4.450000e-02 -1.941435e-02 5.749373e-01 -4.213379e+00 3.668945e+00
5.756682e+02 4.330000e-02 -1.940612e-02 5.749950e-01 -4.245117e+00 3.684326e+00
5.678254e+02 4.290000e-02 -1.947802e-02 5.750482e-01 -4.284424e+00 3.703613e+00
5.661243e+02 4.280000e-02 -1.956505e-02 5.751002e-01 -4.310791e+00 3.719971e+00
5.685098e+02 4.280000e-02 -1.961635e-02 5.751598e-01 -4.346680e+00 3.736572e+00
5.731689e+02 4.370000e-02 -1.966320e-02 5.752193e-01 -4.372559e+00 3.751221e+00
5.698491e+02 4.330000e-02 -1.970485e-02 5.752797e-01 -4.395020e+00 3.769775e+00
5.595117e+02 4.160000e-02 -1.980132e-02 5.753439e-01 -4.419678e+00 3.788086e+00
5.734194e+02 4.270000e-02 -1.981326e-02 5.753998e-01 -4.444580e+00 3.795654e+00
5.834507e+02 4.340000e-02 -1.989099e-02 5.754633e-01 -4.466309e+00 3.811279e+00
5.548499e+02 4.250000e-02 -1.993692e-02 5.755161e-01 -4.491943e+00 3.822510e+00
5.583965e+02 4.190000e-02 -1.997496e-02 5.755765e-01 -4.511963e+00 3.840088e+00
5.518423e+02 4.200000e-02 -2.003494e-02 5.756344e-01 -4.533691e+00 3.853271e+00
5.607620e+02 4.210000e-02 -2.009036e-02 5.756899e-01 -4.554199e+00 3.870361e+00
5.682358e+02 4.230000e-02 -2.012237e-02 5.757629e-01 -4.572021e+00 3.890137e+00
5.539563e+02 4.180000e-02 -2.020669e-02 5.758184e-01 -4.583252e+00 3.901611e+00
5.486392e+02 4.140000e-02 -2.022633e-02 5.758808e-01 -4.615479e+00 3.900879e+00
5.715374e+02 4.260000e-02 -2.029273e-02 5.759352e-01 -4.634766e+00 3.921387e+00
5.526895e+02 4.120000e-02 -2.030689e-02 5.759967e-01 -4.658447e+00 3.934814e+00
5.451431e+02 4.130000e-02 -2.036357e-02 5.760624e-01 -4.675293e+00 3.940674e+00
5.437954e+02 4.130000e-02 -2.038634e-02 5.761292e-01 -4.693115e+00 3.952148e+00
5.535361e+02 4.170000e-02 -2.047434e-02 5.761961e-01 -4.713623e+00 3.965332e+00
5.423220e+02 4.030000e-02 -2.046696e-02 5.762659e-01 -4.730713e+00 3.975830e+00
5.568762e+02 4.120000e-02 -2.052885e-02 5.763305e-01 -4.736816e+00 3.983643e+00
5.501697e+02 4.170000e-02 -2.058153e-02 5.763971e-01 -4.764648e+00 3.998291e+00
5.527554e+02 4.180000e-02 -2.060818e-02 5.764574e-01 -4.774658e+00 4.002686e+00
5.363179e+02 4.030000e-02 -2.066824e-02 5.765202e-01 -4.788818e+00 4.001953e+00
5.382417e+02 4.050000e-02 -2.070456e-02 5.765895e-01 -4.798340e+00 4.003662e+00
5.412310e+02 3.990000e-02 -2.075433e-02 5.766555e-01 -4.820557e+00 4.004150e+00
5.374246e+02 4.050000e-02 -2.081050e-02 5.767209e-01 -4.834229e+00 4.003906e+00
5.365039e+02 4.000000e-02 -2.084156e-02 5.767863e-01 -4.853027e+00 4.004395e+00
5.350574e+02 4.060000e-02 -2.086070e-02 5.768559e-01 -4.872314e+00 4.004883e+00
5.338025e+02 3.940000e-02 -2.092371e-02 5.769168e-01 -4.876465e+00 4.005859e+00
5.319897e+02 4.060000e-02 -2.091612e-02 5.769930e-01 -4.888672e+00 4.006592e+00
5.286499e+02 3.990000e-02 -2.098972e-02 5.770626e-01 -4.888672e+00 4.005859e+00
5.331572e+02 3.920000e-02 -2.100867e-02 5.771296e-01 -4.908203e+00 4.004395e+00
5.298799e+02 3.960000e-02 -2.102912e-02 5.771952e-01 -4.917236e+00 4.007568e+00
5.325469e+02 4.010000e-02 -2.110445e-02 5.772622e-01 -4.927734e+00 4.007324e+00
5.303130e+02 4.020000e-02 -2.112951e-02 5.773343e-01 -4.946533e+00 4.008057e+00
5.297334e+02 3.940000e-02 -2.118107e-02 5.774113e-01 -4.959229e+00 4.007568e+00
