-4.004602e-01 5.455686e+00 -2.364453e+01 2.358594e+01 4.797660e-04 2.621354e-02 -3.828125e-01 3.867188e-01
-1.796918e-01 5.464325e+00 -2.257031e+01 2.762500e+01 4.286982e-04 2.668307e-02 -3.710938e-01 3.476562e-01
-2.901491e-01 5.420928e+00 -2.364453e+01 2.312109e+01 5.301665e-04 2.610726e-02 -3.828125e-01 3.867188e-01
-3.220227e-01 5.464288e+00 -2.294531e+01 2.491406e+01 4.716787e-04 2.630807e-02 -3.828125e-01 3.632812e-01
-4.256847e-01 5.450803e+00 -2.257031e+01 2.762500e+01 3.599325e-04 2.655776e-02 -3.945312e-01 3.867188e-01
-2.653835e-01 5.451520e+00 -2.659766e+01 2.762500e+01 4.240421e-04 2.674887e-02 -3.710938e-01 3.867188e-01
-3.435263e-01 5.364142e+00 -2.294531e+01 2.762500e+01 4.046168e-04 2.720278e-02 -3.828125e-01 3.750000e-01
-3.296896e-01 5.446959e+00 -2.364453e+01 2.762500e+01 5.092494e-04 2.586444e-02 -3.828125e-01 3.867188e-01
-2.377550e-01 5.520895e+00 -2.659766e+01 2.166016e+01 5.539337e-04 2.554709e-02 -3.828125e-01 3.867188e-01
-3.792969e-01 5.476858e+00 -2.195312e+01 2.762500e+01 4.706344e-04 2.480980e-02 -3.828125e-01 3.750000e-01
-4.011286e-01 5.422807e+00 -2.354688e+01 2.762500e+01 4.150047e-04 2.510202e-02 -3.945312e-01 3.750000e-01
-2.771314e-01 5.472144e+00 -2.659766e+01 2.358594e+01 3.864714e-04 2.565385e-02 -3.945312e-01 3.632812e-01
-4.116555e-01 5.393792e+00 -2.659766e+01 2.762500e+01 3.993483e-04 2.590391e-02 -3.828125e-01 3.632812e-01
-3.765540e-01 5.518572e+00 -2.364453e+01 2.246875e+01 4.872723e-04 2.592746e-02 -3.828125e-01 3.750000e-01
-2.397202e-01 5.497555e+00 -2.659766e+01 2.156250e+01 4.628141e-04 2.649011e-02 -3.828125e-01 3.867188e-01
-1.869666e-01 5.384108e+00 -2.659766e+01 2.358594e+01 4.370839e-04 2.521287e-02 -3.828125e-01 3.867188e-01
-4.636882e-01 5.508285e+00 -2.364453e+01 2.491406e+01 4.521828e-04 2.546804e-02 -3.828125e-01 3.632812e-01
-4.062337e-01 5.442227e+00 -2.364453e+01 2.762500e+01 4.603879e-04 2.591033e-02 -3.828125e-01 3.632812e-01
-2.604602e-01 5.388751e+00 -2.257031e+01 2.358594e+01 4.585349e-04 2.466013e-02 -3.828125e-01 3.476562e-01
-3.692386e-01 5.488569e+00 -2.354688e+01 2.358594e+01 4.557553e-04 2.460135e-02 -3.828125e-01 3.750000e-01
-2.193800e-01 5.451977e+00 -2.659766e+01 2.312109e+01 4.594771e-04 2.528622e-02 -3.828125e-01 3.867188e-01
-3.128075e-01 5.394467e+00 -2.659766e+01 2.312109e+01 4.284234e-04 2.581420e-02 -3.945312e-01 3.867188e-01
-3.097557e-01 5.455233e+00 -2.364453e+01 2.491406e+01 4.771749e-04 2.567792e-02 -3.710938e-01 3.867188e-01
-3.074858e-01 5.473780e+00 -2.294531e+01 2.762500e+01 4.299388e-04 2.662799e-02 -3.828125e-01 3.750000e-01
-2.320724e-01 5.464862e+00 -2.119922e+01 2.762500e+01 4.198100e-04 2.574459e-02 -3.710938e-01 3.750000e-01
-4.196108e-01 5.464580e+00 -2.364453e+01 2.312109e+01 4.554099e-04 2.522232e-02 -3.945312e-01 3.867188e-01
-2.244268e-01 5.418237e+00 -2.119922e+01 2.358594e+01 5.176743e-04 2.497705e-02 -3.710938e-01 3.632812e-01
-2.842976e-01 5.418051e+00 -2.364453e+01 2.491406e+01 3.836762e-04 2.561632e-02 -3.828125e-01 3.632812e-01
-3.117095e-01 5.543023e+00 -2.119922e+01 2.762500e+01 4.672346e-04 2.579710e-02 -3.710938e-01 3.867188e-01
-3.550895e-01 5.498496e+00 -2.294531e+01 2.312109e+01 4.340845e-04 2.462855e-02 -3.828125e-01 3.632812e-01
-2.575753e-01 5.462177e+00 -2.364453e+01 2.491406e+01 3.671011e-04 2.650312e-02 -3.828125e-01 3.867188e-01
-2.410021e-01 5.471087e+00 -2.659766e+01 2.762500e+01 4.657271e-04 2.647306e-02 -3.828125e-01 3.867188e-01
-2.446378e-01 5.446588e+00 -2.294531e+01 2.358594e+01 4.745289e-04 2.394246e-02 -3.945312e-01 3.750000e-01
-2.849709e-01 5.509996e+00 -2.364453e+01 2.358594e+01 4.747802e-04 2.596867e-02 -3.828125e-01 3.750000e-01
-2.771577e-01 5.546005e+00 -2.659766e+01 2.762500e+01 4.314227e-04 2.657815e-02 -3.828125e-01 3.632812e-01
-3.848842e-01 5.549655e+00 -2.364453e+01 2.358594e+01 3.795854e-04 2.610295e-02 -3.828125e-01 3.867188e-01
-4.537472e-01 5.462007e+00 -2.659766e+01 2.312109e+01 4.416457e-04 2.599587e-02 -3.828125e-01 3.750000e-01
-2.770398e-01 5.430373e+00 -2.364453e+01 2.358594e+01 4.570509e-04 2.582429e-02 -3.945312e-01 3.750000e-01
-4.287216e-01 5.489510e+00 -2.294531e+01 2.358594e+01 4.314934e-04 2.584831e-02 -3.945312e-01 3.867188e-01
-3.432053e-01 5.500206e+00 -2.294531e+01 2.358594e+01 5.470556e-04 2.521708e-02 -3.828125e-01 3.476562e-01
-3.152770e-01 5.399644e+00 -2.364453e+01 2.491406e+01 4.879554e-04 2.521386e-02 -3.828125e-01 3.632812e-01
-2.999176e-01 5.440123e+00 -2.354688e+01 2.312109e+01 4.795776e-04 2.564958e-02 -3.828125e-01 3.632812e-01
-3.203984e-01 5.491010e+00 -2.354688e+01 2.762500e+01 3.978172e-04 2.516603e-02 -3.828125e-01 3.750000e-01
-3.769808e-01 5.484890e+00 -2.354688e+01 2.762500e+01 3.405700e-04 2.481209e-02 -3.945312e-01 3.632812e-01
-3.331726e-01 5.443823e+00 -2.364453e+01 2.491406e+01 4.447786e-04 2.631009e-02 -3.828125e-01 3.632812e-01
-3.055128e-01 5.435903e+00 -2.176172e+01 2.491406e+01 4.246859e-04 2.555925e-02 -3.828125e-01 3.632812e-01
-3.183693e-01 5.441919e+00 -2.176172e+01 2.762500e+01 5.201084e-04 2.601713e-02 -3.945312e-01 3.867188e-01
-3.671044e-01 5.423903e+00 -2.364453e+01 2.166016e+01 4.907349e-04 2.671759e-02 -3.710938e-01 3.750000e-01
-2.929581e-01 5.533998e+00 -2.364453e+01 2.762500e+01 4.521357e-04 2.567285e-02 -3.828125e-01 3.867188e-01
-2.760675e-01 5.391502e+00 -2.364453e+01 2.358594e+01 5.238379e-04 2.692851e-02 -3.828125e-01 3.750000e-01
-3.070227e-01 5.451285e+00 -2.364453e+01 2.491406e+01 4.573257e-04 2.495673e-02 -3.945312e-01 3.750000e-01
-2.847599e-01 5.427063e+00 -2.659766e+01 2.491406e+01 4.705088e-04 2.554224e-02 -3.945312e-01 3.476562e-01
-2.197386e-01 5.429462e+00 -2.294531e+01 2.491406e+01 3.594064e-04 2.622919e-02 -3.828125e-01 3.750000e-01
-1.553161e-01 5.427325e+00 -2.659766e+01 2.312109e+01 4.810459e-04 2.584067e-02 -3.828125e-01 3.867188e-01
-4.376513e-01 5.377694e+00 -2.354688e+01 2.491406e+01 4.558103e-04 2.698461e-02 -3.945312e-01 3.632812e-01
-3.523814e-01 5.467181e+00 -2.364453e+01 2.229688e+01 3.624215e-04 2.613656e-02 -3.945312e-01 3.750000e-01
-3.613402e-01 5.399664e+00 -2.117969e+01 2.117969e+01 3.794598e-04 2.546805e-02 -3.828125e-01 3.867188e-01
-3.051861e-01 5.416071e+00 -2.257031e+01 2.491406e+01 4.427921e-04 2.612547e-02 -3.710938e-01 3.867188e-01
-2.849041e-01 5.403515e+00 -2.294531e+01 2.312109e+01 3.855371e-04 2.646094e-02 -3.828125e-01 3.867188e-01
-3.188800e-01 5.468689e+00 -2.354688e+01 2.246875e+01 3.823807e-04 2.567293e-02 -3.828125e-01 3.867188e-01
-3.317415e-01 5.449195e+00 -2.257031e+01 2.762500e+01 4.458229e-04 2.738043e-02 -3.828125e-01 3.750000e-01
-4.430938e-01 5.477208e+00 -2.257031e+01 2.312109e+01 5.073100e-04 2.540634e-02 -3.945312e-01 3.632812e-01
-3.138977e-01 5.443583e+00 -2.354688e+01 2.166016e+01 4.665908e-04 2.609005e-02 -3.828125e-01 3.476562e-01
-2.624957e-01 5.441371e+00 -2.659766e+01 2.312109e+01 4.723932e-04 2.482354e-02 -3.828125e-01 3.867188e-01
-3.412259e-01 5.405643e+00 -2.364453e+01 2.156250e+01 4.294441e-04 2.690975e-02 -3.828125e-01 3.632812e-01
-3.002578e-01 5.488710e+00 -2.176172e+01 2.762500e+01 4.966787e-04 2.594966e-02 -3.828125e-01 3.750000e-01
-3.958878e-01 5.443143e+00 -2.294531e+01 2.164844e+01 4.924466e-04 2.691467e-02 -3.945312e-01 3.750000e-01
-2.392479e-01 5.490526e+00 -2.354688e+01 2.762500e+01 4.911746e-04 2.618083e-02 -3.710938e-01 3.750000e-01
-3.933295e-01 5.442248e+00 -2.659766e+01 2.312109e+01 4.735082e-04 2.506678e-02 -3.945312e-01 3.750000e-01
-2.689126e-01 5.516979e+00 -2.050000e+01 2.762500e+01 4.436322e-04 2.563049e-02 -3.828125e-01 3.632812e-01
-2.276151e-01 5.425918e+00 -2.354688e+01 2.312109e+01 3.878690e-04 2.412992e-02 -3.710938e-01 3.476562e-01
-3.257990e-01 5.516386e+00 -2.364453e+01 2.762500e+01 4.530936e-04 2.581206e-02 -3.828125e-01 3.476562e-01
-2.860213e-01 5.393203e+00 -2.364453e+01 2.358594e+01 4.594614e-04 2.574447e-02 -3.945312e-01 3.750000e-01
-2.298587e-01 5.343337e+00 -2.076562e+01 2.312109e+01 4.954460e-04 2.666865e-02 -3.593750e-01 3.867188e-01
-3.647159e-01 5.452971e+00 -2.364453e+01 2.762500e+01 4.500864e-04 2.748291e-02 -3.828125e-01 3.867188e-01
-2.297443e-01 5.511599e+00 -2.659766e+01 2.762500e+01 4.699749e-04 2.578791e-02 -3.828125e-01 3.632812e-01
-2.843494e-01 5.456810e+00 -2.195312e+01 2.762500e+01 3.800487e-04 2.537637e-02 -3.828125e-01 3.476562e-01
-4.298530e-01 5.372253e+00 -2.257031e+01 2.762500e+01 4.582443e-04 2.529040e-02 -3.710938e-01 3.476562e-01
-2.214922e-01 5.504213e+00 -2.195312e+01 2.762500e+01 4.220948e-04 2.454110e-02 -3.828125e-01 3.867188e-01
-3.751946e-01 5.440487e+00 -2.195312e+01 2.491406e+01 3.966316e-04 2.637563e-02 -3.945312e-01 3.476562e-01
-3.935994e-01 5.375428e+00 -2.354688e+01 2.016406e+01 3.903580e-04 2.650609e-02 -3.710938e-01 3.867188e-01
-2.437933e-01 5.385871e+00 -2.354688e+01 2.229688e+01 5.272770e-04 2.563732e-02 -3.828125e-01 3.750000e-01
-4.762692e-01 5.467721e+00 -2.659766e+01 2.312109e+01 3.883323e-04 2.515422e-02 -3.828125e-01 3.632812e-01
-2.372187e-01 5.448768e+00 -2.659766e+01 2.358594e+01 5.305826e-04 2.590360e-02 -3.828125e-01 3.632812e-01
-4.209077e-01 5.568710e+00 -2.294531e+01 2.229688e+01 4.241520e-04 2.628786e-02 -3.710938e-01 3.632812e-01
-3.681484e-01 5.479728e+00 -2.659766e+01 2.358594e+01 4.140311e-04 2.438694e-02 -3.828125e-01 3.632812e-01
-2.819602e-01 5.474500e+00 -2.354688e+01 2.762500e+01 4.849246e-04 2.574259e-02 -3.945312e-01 3.476562e-01
-3.138864e-01 5.525635e+00 -2.294531e+01 2.246875e+01 4.105135e-04 2.516760e-02 -3.710938e-01 3.750000e-01
-2.946115e-01 5.410081e+00 -2.659766e+01 2.491406e+01 3.220320e-04 2.573221e-02 -3.828125e-01 3.632812e-01
-3.694957e-01 5.459494e+00 -2.659766e+01 2.246875e+01 3.877041e-04 2.545693e-02 -3.945312e-01 3.476562e-01
-3.053849e-01 5.443855e+00 -2.659766e+01 2.166016e+01 4.578046e-04 2.483483e-02 -3.710938e-01 3.632812e-01
-3.869901e-01 5.493125e+00 -2.659766e+01 2.762500e+01 4.709249e-04 2.747889e-02 -3.710938e-01 3.867188e-01
-3.989815e-01 5.377987e+00 -2.364453e+01 2.762500e+01 4.452104e-04 2.570146e-02 -3.710938e-01 3.632812e-01
-2.339588e-01 5.421499e+00 -1.936719e+01 2.762500e+01 4.707758e-04 2.559223e-02 -3.828125e-01 3.476562e-01
-2.565298e-01 5.452093e+00 -2.294531e+01 2.358594e+01 4.408763e-04 2.568322e-02 -3.828125e-01 3.867188e-01
-3.669063e-01 5.477430e+00 -2.354688e+01 2.491406e+01 4.263034e-04 2.565319e-02 -3.710938e-01 3.632812e-01
-3.507820e-01 5.430886e+00 -2.659766e+01 2.024219e+01 4.647299e-04 2.671972e-02 -3.945312e-01 3.867188e-01
-3.120135e-01 5.383186e+00 -2.294531e+01 2.762500e+01 4.992933e-04 2.604115e-02 -3.710938e-01 3.750000e-01
-2.199666e-01 5.430782e+00 -2.659766e+01 2.762500e+01 3.906093e-04 2.636116e-02 -3.945312e-01 3.750000e-01
-3.320504e-01 5.464172e+00 -2.257031e+01 2.312109e+01 4.835113e-04 2.540888e-02 -3.828125e-01 3.750000e-01
