7.452734e+01 6.302083e-01 -8.098822e-03 5.419619e-01 -9.882812e-01 9.960938e-01
7.307812e+01 6.302083e-01 -1.093136e-02 5.421057e-01 -1.031250e+00 1.117188e+00
6.016406e+01 4.583333e-01 -1.292539e-02 5.550484e-01 -1.246094e+00 1.375000e+00
5.901562e+01 5.364583e-01 -7.158050e-03 5.946220e-01 -1.621094e+00 1.785156e+00
5.765625e+01 5.312500e-01 2.362156e-03 6.553702e-01 -2.062500e+00 2.136719e+00
5.745703e+01 3.697917e-01 6.176374e-03 7.319589e-01 -2.496094e+00 2.375000e+00
5.731641e+01 3.697917e-01 7.669339e-03 8.133265e-01 -2.875000e+00 2.746094e+00
5.674219e+01 3.697917e-01 9.499755e-03 8.908510e-01 -3.144531e+00 3.011719e+00
5.885156e+01 3.697917e-01 6.963760e-03 9.586700e-01 -3.351562e+00 3.218750e+00
5.966406e+01 3.697917e-01 4.018734e-03 1.021647e+00 -3.511719e+00 3.378906e+00
5.854297e+01 3.697917e-01 -9.816754e-04 1.077528e+00 -3.632812e+00 3.574219e+00
5.784375e+01 3.697917e-01 -8.927111e-03 1.132183e+00 -3.824219e+00 3.738281e+00
5.842578e+01 3.697917e-01 -1.985848e-02 1.181357e+00 -3.968750e+00 3.835938e+00
5.804297e+01 3.697917e-01 -3.143406e-02 1.226062e+00 -4.082031e+00 3.949219e+00
5.812891e+01 3.697917e-01 -4.511616e-02 1.267458e+00 -4.167969e+00 4.035156e+00
5.786719e+01 3.697917e-01 -6.013784e-02 1.311300e+00 -4.226562e+00 4.093750e+00
5.786719e+01 3.697917e-01 -7.658091e-02 1.357096e+00 -4.320312e+00 4.187500e+00
5.791406e+01 3.697917e-01 -9.072317e-02 1.403439e+00 -4.382812e+00 4.250000e+00
5.719531e+01 3.697917e-01 -1.056937e-01 1.450897e+00 -4.476562e+00 4.343750e+00
5.574219e+01 3.697917e-01 -1.217073e-01 1.500832e+00 -4.539062e+00 4.406250e+00
5.737500e+01 3.697917e-01 -1.378436e-01 1.551527e+00 -4.632812e+00 4.500000e+00
5.690234e+01 3.697917e-01 -1.524256e-01 1.601971e+00 -4.695312e+00 4.562500e+00
5.646094e+01 3.697917e-01 -1.656884e-01 1.650869e+00 -4.789062e+00 4.656250e+00
5.589453e+01 3.697917e-01 -1.783070e-01 1.700192e+00 -4.851562e+00 4.718750e+00
5.628516e+01 3.697917e-01 -1.899235e-01 1.748316e+00 -4.968750e+00 4.812500e+00
5.673047e+01 3.697917e-01 -2.016218e-01 1.797942e+00 -5.136719e+00 4.875000e+00
5.710156e+01 3.697917e-01 -2.131156e-01 1.846599e+00 -5.261719e+00 4.968750e+00
5.752344e+01 3.697917e-01 -2.245071e-01 1.896052e+00 -5.363281e+00 5.031250e+00
5.859766e+01 3.697917e-01 -2.351113e-01 1.943775e+00 -5.433594e+00 5.125000e+00
5.855469e+01 3.697917e-01 -2.458074e-01 1.992380e+00 -5.511719e+00 5.187500e+00
5.855469e+01 3.697917e-01 -2.557776e-01 2.040086e+00 -5.589844e+00 5.281250e+00
5.656250e+01 3.697917e-01 -2.691529e-01 2.101094e+00 -5.714844e+00 5.375000e+00
5.676562e+01 3.697917e-01 -2.819556e-01 2.161026e+00 -5.792969e+00 5.468750e+00
5.855469e+01 3.697917e-01 -2.924881e-01 2.210797e+00 -5.871094e+00 5.531250e+00
5.855469e+01 3.697917e-01 -3.025196e-01 2.259550e+00 -5.949219e+00 5.625000e+00
5.729688e+01 3.697917e-01 -3.129704e-01 2.309713e+00 -6.027344e+00 5.687500e+00
5.855469e+01 3.697917e-01 -3.230632e-01 2.358803e+00 -6.105469e+00 5.781250e+00
5.855469e+01 3.697917e-01 -3.337287e-01 2.409242e+00 -6.183594e+00 5.843750e+00
5.855469e+01 3.697917e-01 -3.437091e-01 2.458682e+00 -6.261719e+00 5.937500e+00
5.855469e+01 3.697917e-01 -3.542519e-01 2.509463e+00 -6.339844e+00 6.000000e+00
5.786719e+01 3.697917e-01 -3.643243e-01 2.559144e+00 -6.417969e+00 6.093750e+00
5.683594e+01 3.697917e-01 -3.749080e-01 2.610179e+00 -6.496094e+00 6.156250e+00
5.683594e+01 3.697917e-01 -3.849497e-01 2.660148e+00 -6.574219e+00 6.250000e+00
5.786719e+01 3.697917e-01 -3.954822e-01 2.711447e+00 -6.652344e+00 6.312500e+00
5.786719e+01 3.697917e-01 -4.055342e-01 2.761629e+00 -6.730469e+00 6.406250e+00
5.786719e+01 3.697917e-01 -4.163838e-01 2.813121e+00 -6.808594e+00 6.468750e+00
5.786719e+01 3.697917e-01 -4.269879e-01 2.863382e+00 -6.886719e+00 6.562500e+00
5.786719e+01 3.697917e-01 -4.380829e-01 2.914955e+00 -6.964844e+00 6.625000e+00
5.786719e+01 3.697917e-01 -4.485541e-01 2.965438e+00 -7.042969e+00 6.718750e+00
5.786719e+01 3.697917e-01 -4.594854e-01 3.017267e+00 -7.121094e+00 6.781250e+00
5.737500e+01 3.697917e-01 -4.698544e-01 3.067967e+00 -7.199219e+00 6.875000e+00
5.917969e+01 3.697917e-01 -4.807448e-01 3.119998e+00 -7.277344e+00 6.937500e+00
5.917969e+01 3.697917e-01 -4.914001e-01 3.170744e+00 -7.355469e+00 7.031250e+00
5.876953e+01 3.697917e-01 -5.027610e-01 3.222760e+00 -7.433594e+00 7.093750e+00
5.876953e+01 3.697917e-01 -5.136719e-01 3.273612e+00 -7.511719e+00 7.187500e+00
5.876953e+01 3.697917e-01 -5.249714e-01 3.325793e+00 -7.589844e+00 7.250000e+00
5.876953e+01 3.697917e-01 -5.356062e-01 3.376832e+00 -7.667969e+00 7.343750e+00
5.876953e+01 3.697917e-01 -5.464966e-01 3.429217e+00 -7.746094e+00 7.406250e+00
5.688281e+01 3.697917e-01 -5.567736e-01 3.480433e+00 -7.824219e+00 7.500000e+00
5.688281e+01 3.697917e-01 -5.676640e-01 3.532950e+00 -7.902344e+00 7.562500e+00
5.688281e+01 3.697917e-01 -5.778387e-01 3.584327e+00 -7.980469e+00 7.656250e+00
5.688281e+01 3.697917e-01 -5.884837e-01 3.637023e+00 -8.058594e+00 7.718750e+00
5.896484e+01 3.697917e-01 -6.058676e-01 3.725159e+00 -8.207031e+00 7.898438e+00
5.896484e+01 3.697917e-01 -6.274542e-01 3.828622e+00 -8.363281e+00 8.023438e+00
5.896484e+01 3.697917e-01 -6.475070e-01 3.929572e+00 -8.511719e+00 8.203125e+00
5.808203e+01 3.697917e-01 -6.686027e-01 4.033429e+00 -8.667969e+00 8.328125e+00
5.731641e+01 3.697917e-01 -6.882056e-01 4.134744e+00 -8.816406e+00 8.507812e+00
5.737500e+01 3.697917e-01 -7.088821e-01 4.238968e+00 -8.972656e+00 8.632812e+00
5.737500e+01 3.697917e-01 -7.281373e-01 4.340586e+00 -9.121094e+00 8.812500e+00
5.737500e+01 3.697917e-01 -7.488036e-01 4.445016e+00 -9.277344e+00 8.937500e+00
5.806250e+01 3.697917e-01 -7.681303e-01 4.546799e+00 -9.425781e+00 9.117188e+00
5.737500e+01 3.697917e-01 -7.890318e-01 4.651385e+00 -9.582031e+00 9.242188e+00
5.737500e+01 3.697917e-01 -8.086756e-01 4.753307e+00 -9.730469e+00 9.421875e+00
5.786719e+01 3.697917e-01 -8.297407e-01 4.858046e+00 -9.886719e+00 9.546875e+00
5.786719e+01 3.697917e-01 -8.493537e-01 4.960115e+00 -1.003516e+01 9.726562e+00
5.786719e+01 3.697917e-01 -8.703166e-01 5.064995e+00 -1.019141e+01 9.851562e+00
5.786719e+01 3.697917e-01 -8.898581e-01 5.167199e+00 -1.033984e+01 1.003125e+01
5.786719e+01 3.697917e-01 -9.108516e-01 5.272192e+00 -1.049609e+01 1.015625e+01
5.786719e+01 3.697917e-01 -9.305976e-01 5.374484e+00 -1.064453e+01 1.033594e+01
5.786719e+01 3.697917e-01 -9.517241e-01 5.479600e+00 -1.080078e+01 1.046094e+01
5.786719e+01 3.697917e-01 -9.714292e-01 5.581976e+00 -1.094922e+01 1.064062e+01
5.786719e+01 3.697917e-01 -9.924227e-01 5.687176e+00 -1.110547e+01 1.076562e+01
5.786719e+01 3.697917e-01 -1.011882e+00 5.789670e+00 -1.125391e+01 1.094531e+01
5.786719e+01 3.697917e-01 -1.032661e+00 5.895000e+00 -1.141016e+01 1.107031e+01
5.786719e+01 3.697917e-01 -1.051988e+00 5.997583e+00 -1.155859e+01 1.125000e+01
5.786719e+01 3.697917e-01 -1.072797e+00 6.102982e+00 -1.171484e+01 1.137500e+01
5.786719e+01 3.697917e-01 -1.092400e+00 6.205628e+00 -1.186328e+01 1.155469e+01
5.786719e+01 3.697917e-01 -1.113363e+00 6.311079e+00 -1.201953e+01 1.167969e+01
5.709766e+01 3.697917e-01 -1.132925e+00 6.413783e+00 -1.216797e+01 1.185938e+01
5.709766e+01 3.697917e-01 -1.153826e+00 6.519301e+00 -1.232422e+01 1.198438e+01
5.855469e+01 3.697917e-01 -1.173337e+00 6.622051e+00 -1.247266e+01 1.216406e+01
5.855469e+01 3.697917e-01 -1.194341e+00 6.727606e+00 -1.262891e+01 1.228906e+01
5.855469e+01 3.697917e-01 -1.213964e+00 6.830400e+00 -1.277734e+01 1.246875e+01
5.855469e+01 3.697917e-01 -1.235050e+00 6.936024e+00 -1.293359e+01 1.259375e+01
5.855469e+01 3.697917e-01 -1.254724e+00 7.038868e+00 -1.308203e+01 1.277344e+01
5.786719e+01 3.697917e-01 -1.275483e+00 7.144582e+00 -1.323828e+01 1.289844e+01
5.786719e+01 3.697917e-01 -1.294891e+00 7.247527e+00 -1.338672e+01 1.307812e+01
5.786719e+01 3.697917e-01 -1.315690e+00 7.353292e+00 -1.354297e+01 1.320312e+01
5.786719e+01 3.697917e-01 -1.335334e+00 7.456243e+00 -1.369141e+01 1.338281e+01
5.786719e+01 3.697917e-01 -1.356348e+00 7.562017e+00 -1.384766e+01 1.350781e+01
5.786719e+01 3.697917e-01 -1.376012e+00 7.665019e+00 -1.399609e+01 1.368750e+01
5.786719e+01 3.697917e-01 -1.397221e+00 7.770821e+00 -1.415234e+01 1.381250e+01
5.786719e+01 3.697917e-01 -1.416946e+00 7.873828e+00 -1.430078e+01 1.399219e+01
5.737500e+01 3.697917e-01 -1.438001e+00 7.979671e+00 -1.445703e+01 1.411719e+01
5.786719e+01 3.697917e-01 -1.457491e+00 8.082742e+00 -1.460547e+01 1.429688e+01
5.737500e+01 3.697917e-01 -1.478557e+00 8.188604e+00 -1.476172e+01 1.442188e+01
5.786719e+01 3.697917e-01 -1.498200e+00 8.291672e+00 -1.491016e+01 1.460156e+01
5.737500e+01 3.697917e-01 -1.519102e+00 8.397559e+00 -1.506641e+01 1.472656e+01
5.786719e+01 3.697917e-01 -1.538561e+00 8.500673e+00 -1.521484e+01 1.490625e+01
5.786719e+01 3.697917e-01 -1.559381e+00 8.606632e+00 -1.537109e+01 1.503125e+01
5.786719e+01 3.697917e-01 -1.578687e+00 8.709800e+00 -1.551953e+01 1.521094e+01
5.786719e+01 3.697917e-01 -1.599323e+00 8.815818e+00 -1.567578e+01 1.533594e+01
5.737500e+01 3.697917e-01 -1.618527e+00 8.919018e+00 -1.582422e+01 1.551562e+01
5.786719e+01 3.697917e-01 -1.639296e+00 9.025030e+00 -1.598047e+01 1.564062e+01
5.786719e+01 3.697917e-01 -1.658684e+00 9.128229e+00 -1.612891e+01 1.582031e+01
5.737500e+01 3.697917e-01 -1.679340e+00 9.234279e+00 -1.628516e+01 1.594531e+01
5.737500e+01 3.697917e-01 -1.698748e+00 9.337492e+00 -1.643359e+01 1.612500e+01
5.786719e+01 3.697917e-01 -1.719824e+00 9.443490e+00 -1.658984e+01 1.625000e+01
5.786719e+01 3.697917e-01 -1.739447e+00 9.546677e+00 -1.673828e+01 1.642969e+01
5.786719e+01 3.697917e-01 -1.760369e+00 9.652706e+00 -1.689453e+01 1.655469e+01
5.786719e+01 3.697917e-01 -1.779829e+00 9.755911e+00 -1.704297e+01 1.673438e+01
5.737500e+01 3.697917e-01 -1.800669e+00 9.861964e+00 -1.719922e+01 1.685938e+01
5.786719e+01 3.697917e-01 -1.820006e+00 9.965202e+00 -1.734766e+01 1.703906e+01
5.786719e+01 3.697917e-01 -1.840825e+00 1.007129e+01 -1.750391e+01 1.716406e+01
5.786719e+01 3.697917e-01 -1.860408e+00 1.017455e+01 -1.765234e+01 1.734375e+01
5.847266e+01 3.697917e-01 -1.881514e+00 1.028062e+01 -1.780859e+01 1.746875e+01
5.847266e+01 3.697917e-01 -1.901198e+00 1.038388e+01 -1.795703e+01 1.764844e+01
6.228125e+01 3.697917e-01 -1.922090e+00 1.049000e+01 -1.811328e+01 1.777344e+01
6.073047e+01 3.697917e-01 -1.941774e+00 1.059325e+01 -1.826172e+01 1.795312e+01
5.808203e+01 3.697917e-01 -1.962993e+00 1.069930e+01 -1.841797e+01 1.807812e+01
5.786719e+01 3.697917e-01 -1.982739e+00 1.080253e+01 -1.856641e+01 1.825781e+01
5.786719e+01 3.697917e-01 -2.003927e+00 1.090860e+01 -1.872266e+01 1.838281e+01
5.731641e+01 3.697917e-01 -2.023775e+00 1.101185e+01 -1.887109e+01 1.856250e+01
5.731641e+01 3.697917e-01 -2.045055e+00 1.111795e+01 -1.902734e+01 1.868750e+01
5.731641e+01 3.697917e-01 -2.064872e+00 1.122122e+01 -1.917578e+01 1.886719e+01
5.639062e+01 3.697917e-01 -2.086162e+00 1.132734e+01 -1.933203e+01 1.899219e+01
5.639062e+01 3.697917e-01 -2.105939e+00 1.143065e+01 -1.948047e+01 1.917188e+01
5.786719e+01 3.697917e-01 -2.126933e+00 1.153681e+01 -1.963672e+01 1.929688e+01
5.876953e+01 3.697917e-01 -2.146658e+00 1.164016e+01 -1.978516e+01 1.947656e+01
5.808203e+01 3.697917e-01 -2.167744e+00 1.174632e+01 -1.994141e+01 1.960156e+01
5.808203e+01 3.697917e-01 -2.187408e+00 1.184966e+01 -2.008984e+01 1.978125e+01
5.688281e+01 3.697917e-01 -2.208330e+00 1.195587e+01 -2.024609e+01 1.990625e+01
5.688281e+01 3.697917e-01 -2.227718e+00 1.205927e+01 -2.039453e+01 2.008594e+01
5.688281e+01 3.697917e-01 -2.248466e+00 1.216554e+01 -2.055078e+01 2.021094e+01
5.688281e+01 3.697917e-01 -2.267537e+00 1.226904e+01 -2.069922e+01 2.039062e+01
5.688281e+01 3.697917e-01 -2.288071e+00 1.237537e+01 -2.085547e+01 2.051562e+01
5.737500e+01 3.697917e-01 -2.307408e+00 1.247883e+01 -2.100391e+01 2.069531e+01
5.737500e+01 3.697917e-01 -2.328217e+00 1.258511e+01 -2.116016e+01 2.082031e+01
5.786719e+01 3.697917e-01 -2.347810e+00 1.268853e+01 -2.130859e+01 2.100000e+01
5.786719e+01 3.697917e-01 -2.368803e+00 1.279477e+01 -2.146484e+01 2.112500e+01
5.786719e+01 3.697917e-01 -2.388416e+00 1.289818e+01 -2.161328e+01 2.130469e+01
5.786719e+01 3.697917e-01 -2.409308e+00 1.300446e+01 -2.176953e+01 2.142969e+01
5.786719e+01 3.697917e-01 -2.428788e+00 1.310788e+01 -2.191797e+01 2.160938e+01
5.786719e+01 3.697917e-01 -2.449853e+00 1.321414e+01 -2.207422e+01 2.173438e+01
5.786719e+01 3.697917e-01 -2.469496e+00 1.331753e+01 -2.222266e+01 2.191406e+01
5.786719e+01 3.697917e-01 -2.490674e+00 1.342377e+01 -2.237891e+01 2.203906e+01
5.965234e+01 3.697917e-01 -2.510481e+00 1.352717e+01 -2.252734e+01 2.221875e+01
5.786719e+01 3.697917e-01 -2.531649e+00 1.363340e+01 -2.268359e+01 2.234375e+01
5.786719e+01 3.697917e-01 -2.551497e+00 1.373680e+01 -2.283203e+01 2.252344e+01
5.786719e+01 3.697917e-01 -2.572685e+00 1.384303e+01 -2.298828e+01 2.264844e+01
5.737500e+01 3.697917e-01 -2.592462e+00 1.394644e+01 -2.313672e+01 2.282812e+01
5.737500e+01 3.697917e-01 -2.613506e+00 1.405273e+01 -2.329297e+01 2.295312e+01
5.737500e+01 3.697917e-01 -2.633037e+00 1.415618e+01 -2.344141e+01 2.313281e+01
5.737500e+01 3.697917e-01 -2.653796e+00 1.426252e+01 -2.359766e+01 2.325781e+01
5.737500e+01 3.697917e-01 -2.672990e+00 1.436603e+01 -2.374609e+01 2.343750e+01
5.786719e+01 3.697917e-01 -2.693451e+00 1.447242e+01 -2.390234e+01 2.356250e+01
5.786719e+01 3.697917e-01 -2.712471e+00 1.457597e+01 -2.405078e+01 2.374219e+01
5.786719e+01 3.697917e-01 -2.732933e+00 1.468235e+01 -2.420703e+01 2.386719e+01
5.786719e+01 3.697917e-01 -2.752188e+00 1.478586e+01 -2.435547e+01 2.404688e+01
5.786719e+01 3.697917e-01 -2.772793e+00 1.489225e+01 -2.451172e+01 2.417188e+01
5.786719e+01 3.697917e-01 -2.792110e+00 1.499578e+01 -2.466016e+01 2.435156e+01
5.786719e+01 3.697917e-01 -2.812848e+00 1.510215e+01 -2.481641e+01 2.447656e+01
5.786719e+01 3.697917e-01 -2.832123e+00 1.520565e+01 -2.496484e+01 2.465625e+01
5.786719e+01 3.697917e-01 -2.852861e+00 1.531200e+01 -2.512109e+01 2.478125e+01
5.786719e+01 3.697917e-01 -2.872208e+00 1.541549e+01 -2.526953e+01 2.496094e+01
5.786719e+01 3.697917e-01 -2.892803e+00 1.552187e+01 -2.542578e+01 2.508594e+01
5.965234e+01 3.697917e-01 -2.912058e+00 1.562546e+01 -2.557422e+01 2.526562e+01
5.965234e+01 3.697917e-01 -2.933011e+00 1.573185e+01 -2.573047e+01 2.539062e+01
5.896484e+01 3.697917e-01 -2.952532e+00 1.583537e+01 -2.587891e+01 2.557031e+01
5.737500e+01 3.697917e-01 -2.973577e+00 1.594170e+01 -2.603516e+01 2.569531e+01
5.737500e+01 3.697917e-01 -2.993057e+00 1.604518e+01 -2.618359e+01 2.587500e+01
5.737500e+01 3.697917e-01 -3.013948e+00 1.615153e+01 -2.633984e+01 2.600000e+01
5.688281e+01 3.697917e-01 -3.033336e+00 1.625502e+01 -2.648828e+01 2.617969e+01
5.688281e+01 3.697917e-01 -3.054166e+00 1.636136e+01 -2.664453e+01 2.630469e+01
5.688281e+01 3.697917e-01 -3.073585e+00 1.646485e+01 -2.679297e+01 2.648438e+01
5.737500e+01 3.697917e-01 -3.094486e+00 1.657117e+01 -2.694922e+01 2.660938e+01
5.737500e+01 3.697917e-01 -3.114058e+00 1.667464e+01 -2.709766e+01 2.678906e+01
5.737500e+01 3.697917e-01 -3.134939e+00 1.678097e+01 -2.725391e+01 2.691406e+01
5.786719e+01 3.697917e-01 -3.154450e+00 1.688443e+01 -2.740234e+01 2.709375e+01
5.786719e+01 3.697917e-01 -3.175393e+00 1.699075e+01 -2.755859e+01 2.721875e+01
5.786719e+01 3.697917e-01 -3.194893e+00 1.709420e+01 -2.770703e+01 2.739844e+01
5.786719e+01 3.697917e-01 -3.215795e+00 1.720054e+01 -2.786328e+01 2.752344e+01
5.786719e+01 3.697917e-01 -3.235224e+00 1.730401e+01 -2.801172e+01 2.770312e+01
5.737500e+01 3.697917e-01 -3.256084e+00 1.741035e+01 -2.816797e+01 2.782812e+01
5.737500e+01 3.697917e-01 -3.275534e+00 1.751382e+01 -2.831641e+01 2.800781e+01
5.737500e+01 3.697917e-01 -3.296272e+00 1.762018e+01 -2.847266e+01 2.813281e+01
5.786719e+01 3.697917e-01 -3.315731e+00 1.772367e+01 -2.862109e+01 2.831250e+01
5.786719e+01 3.697917e-01 -3.336551e+00 1.783003e+01 -2.877734e+01 2.843750e+01
5.786719e+01 3.697917e-01 -3.356021e+00 1.793351e+01 -2.892578e+01 2.861719e+01
5.737500e+01 3.697917e-01 -3.376871e+00 1.803986e+01 -2.908203e+01 2.874219e+01
5.786719e+01 3.697917e-01 -3.396300e+00 1.814335e+01 -2.923047e+01 2.892188e+01
5.737500e+01 3.697917e-01 -3.417110e+00 1.824972e+01 -2.938672e+01 2.904688e+01
5.737500e+01 3.697917e-01 -3.436488e+00 1.835322e+01 -2.953516e+01 2.922656e+01
5.786719e+01 3.697917e-01 -3.457451e+00 1.845956e+01 -2.969141e+01 2.935156e+01
5.786719e+01 3.697917e-01 -3.476941e+00 1.856306e+01 -2.983984e+01 2.953125e+01
5.786719e+01 3.697917e-01 -3.497801e+00 1.866941e+01 -2.999609e+01 2.965625e+01
5.786719e+01 3.697917e-01 -3.517241e+00 1.877292e+01 -3.014453e+01 2.983594e+01
5.786719e+01 3.697917e-01 -3.538071e+00 1.887928e+01 -3.030078e+01 2.996094e+01
5.786719e+01 3.697917e-01 -3.557673e+00 1.898276e+01 -3.044922e+01 3.014062e+01
5.737500e+01 3.697917e-01 -3.578759e+00 1.908908e+01 -3.060547e+01 3.026562e+01
5.737500e+01 3.697917e-01 -3.598474e+00 1.919253e+01 -3.075391e+01 3.044531e+01
5.786719e+01 3.697917e-01 -3.619621e+00 1.929886e+01 -3.091016e+01 3.057031e+01
5.737500e+01 3.697917e-01 -3.639337e+00 1.940232e+01 -3.105859e+01 3.075000e+01
5.688281e+01 3.697917e-01 -3.660340e+00 1.950867e+01 -3.121484e+01 3.087500e+01
5.737500e+01 3.697917e-01 -3.679994e+00 1.961214e+01 -3.136328e+01 3.105469e+01
5.786719e+01 3.697917e-01 -3.700794e+00 1.971853e+01 -3.151953e+01 3.117969e+01
5.786719e+01 3.697917e-01 -3.720130e+00 1.982206e+01 -3.166797e+01 3.135938e+01
5.786719e+01 3.697917e-01 -3.740807e+00 1.992847e+01 -3.182422e+01 3.148438e+01
5.786719e+01 3.697917e-01 -3.760185e+00 2.003201e+01 -3.197266e+01 3.166406e+01
5.786719e+01 3.697917e-01 -3.780964e+00 2.013841e+01 -3.212891e+01 3.178906e+01
5.786719e+01 3.697917e-01 -3.800290e+00 2.024194e+01 -3.227734e+01 3.196875e+01
5.786719e+01 3.697917e-01 -3.820987e+00 2.034836e+01 -3.243359e+01 3.209375e+01
5.786719e+01 3.697917e-01 -3.840304e+00 2.045190e+01 -3.258203e+01 3.227344e+01
5.786719e+01 3.697917e-01 -3.861072e+00 2.055830e+01 -3.273828e+01 3.239844e+01
5.737500e+01 3.697917e-01 -3.880379e+00 2.066184e+01 -3.288672e+01 3.257812e+01
5.737500e+01 3.697917e-01 -3.901096e+00 2.076825e+01 -3.304297e+01 3.270312e+01
5.786719e+01 3.697917e-01 -3.920454e+00 2.087179e+01 -3.319141e+01 3.288281e+01
5.786719e+01 3.697917e-01 -3.941171e+00 2.097820e+01 -3.334766e+01 3.300781e+01
5.786719e+01 3.697917e-01 -3.960549e+00 2.108174e+01 -3.349609e+01 3.318750e+01
5.786719e+01 3.697917e-01 -3.981348e+00 2.118815e+01 -3.365234e+01 3.331250e+01
5.786719e+01 3.697917e-01 -4.000900e+00 2.129168e+01 -3.380078e+01 3.349219e+01
5.786719e+01 3.697917e-01 -4.021791e+00 2.139808e+01 -3.395703e+01 3.361719e+01
5.786719e+01 3.697917e-01 -4.041210e+00 2.150162e+01 -3.410547e+01 3.379688e+01
5.737500e+01 3.697917e-01 -4.062111e+00 2.160802e+01 -3.426172e+01 3.392188e+01
5.786719e+01 3.697917e-01 -4.081540e+00 2.171156e+01 -3.441016e+01 3.410156e+01
5.786719e+01 3.697917e-01 -4.102360e+00 2.181796e+01 -3.456641e+01 3.422656e+01
5.786719e+01 3.697917e-01 -4.121748e+00 2.192151e+01 -3.471484e+01 3.440625e+01
5.786719e+01 3.697917e-01 -4.142455e+00 2.202793e+01 -3.487109e+01 3.453125e+01
5.786719e+01 3.697917e-01 -4.161823e+00 2.213148e+01 -3.501953e+01 3.471094e+01
5.786719e+01 3.697917e-01 -4.182694e+00 2.223789e+01 -3.517578e+01 3.483594e+01
5.786719e+01 3.697917e-01 -4.202266e+00 2.234140e+01 -3.532422e+01 3.501562e+01
5.786719e+01 3.697917e-01 -4.223219e+00 2.244780e+01 -3.548047e+01 3.514062e+01
5.688281e+01 3.697917e-01 -4.242842e+00 2.255130e+01 -3.562891e+01 3.532031e+01
5.688281e+01 3.697917e-01 -4.264040e+00 2.265767e+01 -3.578516e+01 3.544531e+01
5.737500e+01 3.697917e-01 -4.283674e+00 2.276119e+01 -3.593359e+01 3.562500e+01
5.737500e+01 3.697917e-01 -4.304616e+00 2.286759e+01 -3.608984e+01 3.575000e+01
5.786719e+01 3.697917e-01 -4.324229e+00 2.297111e+01 -3.623828e+01 3.592969e+01
5.786719e+01 3.697917e-01 -4.345223e+00 2.307751e+01 -3.639453e+01 3.605469e+01
5.786719e+01 3.697917e-01 -4.364672e+00 2.318107e+01 -3.654297e+01 3.623438e+01
5.786719e+01 3.697917e-01 -4.385420e+00 2.328750e+01 -3.669922e+01 3.635938e+01
5.737500e+01 3.697917e-01 -4.404675e+00 2.339108e+01 -3.684766e+01 3.653906e+01
5.737500e+01 3.697917e-01 -4.425372e+00 2.349752e+01 -3.700391e+01 3.666406e+01
5.786719e+01 3.697917e-01 -4.444709e+00 2.360108e+01 -3.715234e+01 3.684375e+01
5.786719e+01 3.697917e-01 -4.465549e+00 2.370751e+01 -3.730859e+01 3.696875e+01
5.786719e+01 3.697917e-01 -4.485029e+00 2.381105e+01 -3.745703e+01 3.714844e+01
5.786719e+01 3.697917e-01 -4.505890e+00 2.391747e+01 -3.761328e+01 3.727344e+01
5.786719e+01 3.697917e-01 -4.525401e+00 2.402100e+01 -3.776172e+01 3.745312e+01
5.786719e+01 3.697917e-01 -4.546210e+00 2.412742e+01 -3.791797e+01 3.757812e+01
5.737500e+01 3.697917e-01 -4.565578e+00 2.423099e+01 -3.806641e+01 3.775781e+01
5.737500e+01 3.697917e-01 -4.586347e+00 2.433743e+01 -3.822266e+01 3.788281e+01
5.786719e+01 3.697917e-01 -4.605776e+00 2.444098e+01 -3.837109e+01 3.806250e+01
5.786719e+01 3.697917e-01 -4.626544e+00 2.454742e+01 -3.852734e+01 3.818750e+01
5.786719e+01 3.697917e-01 -4.645891e+00 2.465098e+01 -3.867578e+01 3.836719e+01
5.786719e+01 3.697917e-01 -4.666691e+00 2.475741e+01 -3.883203e+01 3.849219e+01
5.786719e+01 3.697917e-01 -4.686089e+00 2.486096e+01 -3.898047e+01 3.867188e+01
5.786719e+01 3.697917e-01 -4.706888e+00 2.496738e+01 -3.913672e+01 3.879688e+01
5.786719e+01 3.697917e-01 -4.726307e+00 2.507094e+01 -3.928516e+01 3.897656e+01
5.737500e+01 3.697917e-01 -4.747014e+00 2.517738e+01 -3.944141e+01 3.910156e+01
5.786719e+01 3.697917e-01 -4.766341e+00 2.528095e+01 -3.958984e+01 3.928125e+01
5.786719e+01 3.697917e-01 -4.786976e+00 2.538742e+01 -3.974609e+01 3.940625e+01
5.786719e+01 3.697917e-01 -4.806191e+00 2.549102e+01 -3.989453e+01 3.958594e+01
5.786719e+01 3.697917e-01 -4.826908e+00 2.559747e+01 -4.005078e+01 3.971094e+01
5.786719e+01 3.697917e-01 -4.846214e+00 2.570105e+01 -4.019922e+01 3.989062e+01
5.786719e+01 3.697917e-01 -4.866819e+00 2.580753e+01 -4.035547e+01 4.001562e+01
5.786719e+01 3.697917e-01 -4.885972e+00 2.591114e+01 -4.050391e+01 4.019531e+01
5.786719e+01 3.697917e-01 -4.906577e+00 2.601761e+01 -4.066016e+01 4.032031e+01
5.786719e+01 3.697917e-01 -4.925679e+00 2.612123e+01 -4.080859e+01 4.050000e+01
5.786719e+01 3.697917e-01 -4.946131e+00 2.622773e+01 -4.096484e+01 4.062500e+01
5.802344e+01 3.697917e-01 -4.965324e+00 2.633133e+01 -4.111328e+01 4.080469e+01
5.786719e+01 3.697917e-01 -4.985991e+00 2.643779e+01 -4.126953e+01 4.092969e+01
5.786719e+01 3.697917e-01 -5.005184e+00 2.654139e+01 -4.141797e+01 4.110938e+01
5.737500e+01 3.697917e-01 -5.025912e+00 2.664784e+01 -4.157422e+01 4.123438e+01
5.786719e+01 3.697917e-01 -5.045300e+00 2.675140e+01 -4.172266e+01 4.141406e+01
5.786719e+01 3.697917e-01 -5.066048e+00 2.685786e+01 -4.187891e+01 4.153906e+01
5.786719e+01 3.697917e-01 -5.085263e+00 2.696147e+01 -4.202734e+01 4.171875e+01
5.786719e+01 3.697917e-01 -5.105868e+00 2.706795e+01 -4.218359e+01 4.184375e+01
5.786719e+01 3.697917e-01 -5.125133e+00 2.717155e+01 -4.233203e+01 4.202344e+01
5.737500e+01 3.697917e-01 -5.145769e+00 2.727802e+01 -4.248828e+01 4.214844e+01
5.737500e+01 3.697917e-01 -5.165044e+00 2.738162e+01 -4.263672e+01 4.232812e+01
5.786719e+01 3.697917e-01 -5.185803e+00 2.748808e+01 -4.279297e+01 4.245312e+01
5.786719e+01 3.697917e-01 -5.205150e+00 2.759165e+01 -4.294141e+01 4.263281e+01
5.786719e+01 3.697917e-01 -5.225867e+00 2.769811e+01 -4.309766e+01 4.275781e+01
5.786719e+01 3.697917e-01 -5.245194e+00 2.780170e+01 -4.324609e+01 4.293750e+01
5.786719e+01 3.697917e-01 -5.266034e+00 2.790814e+01 -4.340234e+01 4.306250e+01
5.786719e+01 3.697917e-01 -5.285443e+00 2.801171e+01 -4.355078e+01 4.324219e+01
5.737500e+01 3.697917e-01 -5.306252e+00 2.811815e+01 -4.370703e+01 4.336719e+01
5.737500e+01 3.697917e-01 -5.325661e+00 2.822173e+01 -4.385547e+01 4.354688e+01
5.737500e+01 3.697917e-01 -5.346470e+00 2.832817e+01 -4.401172e+01 4.367188e+01
5.737500e+01 3.697917e-01 -5.365950e+00 2.843173e+01 -4.416016e+01 4.385156e+01
5.786719e+01 3.697917e-01 -5.386698e+00 2.853819e+01 -4.431641e+01 4.397656e+01
5.786719e+01 3.697917e-01 -5.406045e+00 2.864177e+01 -4.446484e+01 4.415625e+01
5.786719e+01 3.697917e-01 -5.426681e+00 2.874828e+01 -4.462109e+01 4.428125e+01
5.786719e+01 3.697917e-01 -5.445957e+00 2.885189e+01 -4.476953e+01 4.446094e+01
5.786719e+01 3.697917e-01 -5.466654e+00 2.895838e+01 -4.492578e+01 4.458594e+01
5.786719e+01 3.697917e-01 -5.485878e+00 2.906199e+01 -4.507422e+01 4.476562e+01
5.737500e+01 3.697917e-01 -5.506463e+00 2.916848e+01 -4.523047e+01 4.489062e+01
5.737500e+01 3.697917e-01 -5.525789e+00 2.927208e+01 -4.537891e+01 4.507031e+01
5.786719e+01 3.697917e-01 -5.546384e+00 2.937857e+01 -4.553516e+01 4.519531e+01
5.786719e+01 3.697917e-01 -5.565650e+00 2.948218e+01 -4.568359e+01 4.537500e+01
5.786719e+01 3.697917e-01 -5.586439e+00 2.958863e+01 -4.583984e+01 4.550000e+01
5.786719e+01 3.697917e-01 -5.605847e+00 2.969220e+01 -4.598828e+01 4.567969e+01
5.786719e+01 3.697917e-01 -5.626677e+00 2.979866e+01 -4.614453e+01 4.580469e+01
5.786719e+01 3.697917e-01 -5.646126e+00 2.990222e+01 -4.629297e+01 4.598438e+01
5.780859e+01 3.697917e-01 -5.666977e+00 3.000868e+01 -4.644922e+01 4.610938e+01
5.780859e+01 3.697917e-01 -5.686477e+00 3.011225e+01 -4.659766e+01 4.628906e+01
5.688281e+01 3.697917e-01 -5.707318e+00 3.021869e+01 -4.675391e+01 4.641406e+01
5.786719e+01 3.697917e-01 -5.726869e+00 3.032225e+01 -4.690234e+01 4.659375e+01
5.786719e+01 3.697917e-01 -5.747730e+00 3.042869e+01 -4.705859e+01 4.671875e+01
5.855469e+01 3.697917e-01 -5.767230e+00 3.053227e+01 -4.720703e+01 4.689844e+01
5.855469e+01 3.697917e-01 -5.788173e+00 3.063870e+01 -4.736328e+01 4.702344e+01
