-1.676583e+00 8.566042e+00 -4.927928e+01 4.402163e+01 4.687894e-06 2.784561e-03 -1.262285e-01 1.280124e-01
-1.925433e+00 9.972795e+00 -6.726736e+01 4.577015e+01 1.639205e-07 2.085082e-03 -1.262285e-01 1.262285e-01
-2.217452e+00 1.077425e+01 -7.918835e+01 4.908443e+01 1.227492e-07 1.902324e-03 -1.262285e-01 1.262285e-01
-2.385804e+00 1.129000e+01 -8.704513e+01 5.124236e+01 1.543332e-07 1.801698e-03 -1.262285e-01 1.262285e-01
-2.539622e+00 1.176602e+01 -8.895455e+01 5.324508e+01 -2.480834e-08 1.730294e-03 -1.380209e-01 1.316159e-01
-2.616355e+00 1.209669e+01 -9.510173e+01 5.463835e+01 1.322323e-07 1.672972e-03 -1.410419e-01 1.364537e-01
-2.772920e+00 1.241175e+01 -9.312912e+01 5.823850e+01 9.074755e-08 1.636483e-03 -1.467595e-01 1.455498e-01
-2.883481e+00 1.264370e+01 -9.486673e+01 6.436397e+01 -3.269406e-08 1.600411e-03 -1.544886e-01 1.533220e-01
-2.909990e+00 1.297138e+01 -9.786002e+01 6.511105e+01 5.541467e-08 1.563158e-03 -1.526392e-01 1.562161e-01
-2.962240e+00 1.324261e+01 -9.661393e+01 6.890002e+01 -9.082920e-09 1.536297e-03 -1.546526e-01 1.564703e-01
-3.037497e+00 1.364138e+01 -9.911269e+01 6.868252e+01 9.851976e-08 1.523238e-03 -1.604320e-01 1.653145e-01
-3.075449e+00 1.391438e+01 -1.002255e+02 7.562053e+01 -6.645517e-08 1.497057e-03 -1.631724e-01 1.670644e-01
-3.090894e+00 1.416138e+01 -9.917863e+01 7.757793e+01 9.879214e-08 1.476831e-03 -1.583937e-01 1.714710e-01
-3.164463e+00 1.446153e+01 -9.770607e+01 7.905185e+01 -1.313334e-08 1.459217e-03 -1.675813e-01 1.679341e-01
-3.211768e+00 1.463534e+01 -9.903551e+01 8.076426e+01 3.155895e-09 1.439529e-03 -1.765373e-01 1.717948e-01
-3.234005e+00 1.478600e+01 -9.722681e+01 8.318476e+01 -1.100921e-08 1.428512e-03 -1.748534e-01 1.779689e-01
-3.242980e+00 1.499956e+01 -9.455750e+01 8.828219e+01 5.771899e-08 1.419110e-03 -1.661988e-01 1.808372e-01
-3.269600e+00 1.525950e+01 -9.486049e+01 8.940927e+01 -7.751191e-08 1.404893e-03 -1.663479e-01 1.840361e-01
-3.239453e+00 1.542008e+01 -9.567989e+01 9.126238e+01 1.521960e-08 1.398078e-03 -1.846058e-01 1.812983e-01
-3.254531e+00 1.569103e+01 -9.422077e+01 9.581620e+01 1.295114e-08 1.381682e-03 -1.833729e-01 1.885807e-01
-3.256565e+00 1.589683e+01 -9.928746e+01 9.633158e+01 7.520723e-08 1.385280e-03 -1.748126e-01 1.910583e-01
-3.294708e+00 1.608179e+01 -9.568456e+01 9.742409e+01 -6.217015e-08 1.368142e-03 -1.848898e-01 2.005544e-01
-3.254393e+00 1.624188e+01 -9.628644e+01 1.016481e+02 4.717366e-08 1.350410e-03 -1.916300e-01 1.959021e-01
-3.249815e+00 1.639697e+01 -9.532022e+01 1.019202e+02 -3.568264e-08 1.354329e-03 -1.955899e-01 1.950657e-01
-3.275803e+00 1.654279e+01 -9.957234e+01 1.051829e+02 7.919707e-08 1.326365e-03 -1.834080e-01 1.964232e-01
-3.280396e+00 1.667518e+01 -9.865192e+01 1.067954e+02 -8.481966e-08 1.321866e-03 -2.004599e-01 2.055735e-01
-3.261628e+00 1.692207e+01 -1.016944e+02 1.061559e+02 -2.654876e-08 1.326165e-03 -2.027939e-01 2.099457e-01
-3.272863e+00 1.710359e+01 -1.011284e+02 1.096525e+02 5.402675e-08 1.307397e-03 -1.971532e-01 1.921831e-01
-3.303483e+00 1.726044e+01 -1.030494e+02 1.100062e+02 -1.227778e-08 1.307935e-03 -2.029454e-01 2.093058e-01
-3.264265e+00 1.739141e+01 -1.031748e+02 1.110390e+02 7.227945e-08 1.297325e-03 -2.076714e-01 2.223622e-01
