2.393533e+04 9.107000e-01 -5.332829e-03 5.793746e-01 -9.998784e-01 9.999351e-01
1.573484e+03 1.215000e-01 -1.430593e-02 5.860685e-01 -1.723842e+00 1.917586e+00
1.215279e+03 9.550000e-02 -2.315620e-02 5.986124e-01 -2.345248e+00 2.330845e+00
1.048165e+03 8.220000e-02 -2.881110e-02 6.105640e-01 -2.739986e+00 2.556553e+00
9.516875e+02 7.350000e-02 -3.375550e-02 6.242536e-01 -2.932328e+00 2.744163e+00
9.031940e+02 6.970000e-02 -3.924954e-02 6.383187e-01 -3.096773e+00 2.832370e+00
8.601003e+02 6.910000e-02 -4.378801e-02 6.528832e-01 -3.202430e+00 2.924068e+00
8.149887e+02 6.280000e-02 -4.882465e-02 6.695470e-01 -3.295414e+00 2.971756e+00
7.929060e+02 6.050000e-02 -5.288658e-02 6.857141e-01 -3.418783e+00 3.009073e+00
7.879862e+02 5.740000e-02 -5.528773e-02 7.026889e-01 -3.556171e+00 3.006343e+00
7.622111e+02 5.760000e-02 -5.880172e-02 7.204289e-01 -3.734709e+00 3.215126e+00
7.400610e+02 5.500000e-02 -6.212635e-02 7.383562e-01 -3.949107e+00 3.467114e+00
7.227525e+02 5.170000e-02 -6.517992e-02 7.565024e-01 -4.143025e+00 3.665091e+00
7.212048e+02 5.370000e-02 -6.826898e-02 7.750183e-01 -4.364462e+00 3.892703e+00
7.118374e+02 5.310000e-02 -7.134218e-02 7.937966e-01 -4.572940e+00 4.118905e+00
7.231140e+02 5.510000e-02 -7.364788e-02 8.131276e-01 -4.769818e+00 4.346341e+00
6.824893e+02 5.020000e-02 -7.563846e-02 8.319702e-01 -4.920533e+00 4.441450e+00
6.841078e+02 5.120000e-02 -7.739774e-02 8.514516e-01 -5.054751e+00 4.576980e+00
6.832200e+02 4.930000e-02 -7.903548e-02 8.705128e-01 -5.287043e+00 4.788598e+00
6.784860e+02 4.980000e-02 -7.975256e-02 8.890642e-01 -5.474969e+00 4.983452e+00
6.687574e+02 4.910000e-02 -8.091069e-02 9.092546e-01 -5.525359e+00 5.043561e+00
6.759173e+02 4.930000e-02 -8.160285e-02 9.281129e-01 -5.672452e+00 5.161778e+00
6.719474e+02 5.010000e-02 -8.289804e-02 9.475712e-01 -5.845833e+00 5.259610e+00
6.680655e+02 4.810000e-02 -8.328745e-02 9.670029e-01 -6.000164e+00 5.361114e+00
6.676733e+02 4.820000e-02 -8.377239e-02 9.870438e-01 -6.118866e+00 5.578641e+00
6.618932e+02 4.860000e-02 -8.491591e-02 1.006845e+00 -6.180911e+00 5.671563e+00
6.671163e+02 4.760000e-02 -8.621188e-02 1.026896e+00 -6.272377e+00 5.791772e+00
6.634045e+02 4.740000e-02 -8.688317e-02 1.047712e+00 -6.421841e+00 5.859960e+00
6.663239e+02 4.970000e-02 -8.779588e-02 1.068735e+00 -6.496131e+00 6.066419e+00
6.690476e+02 5.080000e-02 -8.923855e-02 1.088213e+00 -6.615340e+00 6.164006e+00
6.663235e+02 4.920000e-02 -9.095461e-02 1.107677e+00 -6.811066e+00 6.208961e+00
