-2.946413e-01 4.188984e+00 -2.668138e+01 2.770477e+01 2.574553e-04 1.083116e-02 -1.916504e-01 1.504517e-01
-3.413417e-01 4.189974e+00 -2.666696e+01 2.771106e+01 1.549743e-05 9.039137e-03 -1.598663e-01 1.110077e-01
-3.288262e-01 4.201261e+00 -2.666830e+01 2.771822e+01 -8.206349e-06 8.934318e-03 -1.673737e-01 1.110077e-01
-3.371425e-01 4.205585e+00 -2.666840e+01 2.775026e+01 -9.659228e-06 8.929862e-03 -1.673737e-01 1.193695e-01
-3.356772e-01 4.207970e+00 -2.667485e+01 2.776482e+01 -4.925590e-06 8.927599e-03 -1.673737e-01 1.193695e-01
-3.436790e-01 4.200666e+00 -2.667725e+01 2.777498e+01 -1.638368e-06 8.907796e-03 -1.673737e-01 1.193695e-01
-3.335838e-01 4.193894e+00 -2.669395e+01 2.781010e+01 -2.966726e-06 8.938232e-03 -1.673737e-01 1.193695e-01
-3.589189e-01 4.215398e+00 -2.670300e+01 2.783615e+01 -2.314483e-06 8.935508e-03 -1.673737e-01 1.193695e-01
-3.304426e-01 4.205707e+00 -2.671487e+01 2.785190e+01 -2.657108e-06 8.945238e-03 -1.673737e-01 1.193695e-01
-3.357847e-01 4.199357e+00 -2.673402e+01 2.789693e+01 -8.724729e-07 8.967151e-03 -1.673737e-01 1.140137e-01
-3.431508e-01 4.217483e+00 -2.675003e+01 2.791515e+01 -4.076981e-06 8.996053e-03 -1.673737e-01 1.193695e-01
-3.393164e-01 4.212105e+00 -2.676672e+01 2.795122e+01 2.622634e-06 8.972756e-03 -1.673737e-01 1.193695e-01
-3.453292e-01 4.205938e+00 -2.677901e+01 2.802132e+01 -4.956508e-06 9.002613e-03 -1.745453e-01 1.193695e-01
-3.456407e-01 4.229404e+00 -2.680878e+01 2.803049e+01 -1.512227e-06 9.032776e-03 -1.745453e-01 1.193695e-01
-3.487662e-01 4.209375e+00 -2.683113e+01 2.807460e+01 1.013248e-06 9.070244e-03 -1.745453e-01 1.193695e-01
-3.386307e-01 4.222716e+00 -2.684973e+01 2.812854e+01 -2.327030e-06 9.076922e-03 -1.745453e-01 1.245117e-01
-3.558557e-01 4.233220e+00 -2.687706e+01 2.817300e+01 2.664878e-07 9.119369e-03 -1.745453e-01 1.245117e-01
-3.429958e-01 4.236259e+00 -2.692583e+01 2.821648e+01 -7.249474e-08 9.154116e-03 -1.808624e-01 1.245117e-01
-3.587854e-01 4.232471e+00 -2.694447e+01 2.826508e+01 -9.417738e-07 9.168526e-03 -1.745453e-01 1.245117e-01
-3.468790e-01 4.240220e+00 -2.696866e+01 2.830318e+01 2.397637e-06 9.224349e-03 -1.808624e-01 1.245117e-01
-3.532750e-01 4.232811e+00 -2.702632e+01 2.834393e+01 -2.024228e-06 9.264137e-03 -1.808624e-01 1.245117e-01
-3.540318e-01 4.229847e+00 -2.703563e+01 2.838731e+01 1.978180e-06 9.337791e-03 -1.808624e-01 1.245117e-01
-3.483057e-01 4.231971e+00 -2.710307e+01 2.845714e+01 3.349021e-06 9.362502e-03 -1.808624e-01 1.245117e-01
-3.508455e-01 4.254402e+00 -2.713708e+01 2.852515e+01 3.366849e-06 9.403101e-03 -1.808624e-01 1.245117e-01
-3.584089e-01 4.231176e+00 -2.714919e+01 2.858949e+01 3.714545e-06 9.408237e-03 -1.808624e-01 1.245117e-01
-3.597888e-01 4.256514e+00 -2.720906e+01 2.861954e+01 4.563641e-06 9.465183e-03 -1.808624e-01 1.245117e-01
-3.584832e-01 4.251010e+00 -2.725627e+01 2.864771e+01 5.603756e-06 9.540805e-03 -1.808624e-01 1.245117e-01
-3.606511e-01 4.261024e+00 -2.726123e+01 2.874306e+01 6.802865e-06 9.566864e-03 -1.808624e-01 1.245117e-01
-3.720726e-01 4.268259e+00 -2.730705e+01 2.876364e+01 4.739358e-06 9.648642e-03 -1.808624e-01 1.344452e-01
-3.656247e-01 4.270649e+00 -2.385979e+01 2.884242e+01 5.502326e-06 9.726612e-03 -1.808624e-01 1.344452e-01
-3.641578e-01 4.263927e+00 -2.740630e+01 2.888152e+01 5.331786e-06 9.764494e-03 -1.808624e-01 1.344452e-01
-3.705227e-01 4.286432e+00 -2.742067e+01 2.893050e+01 8.849936e-06 9.827455e-03 -1.863861e-01 1.344452e-01
-3.703133e-01 4.290281e+00 -2.747754e+01 2.899951e+01 8.607397e-06 9.853608e-03 -1.863861e-01 1.344452e-01
-3.799826e-01 4.283945e+00 -2.750398e+01 2.906769e+01 6.391349e-06 9.962665e-03 -1.863861e-01 1.344452e-01
-3.867528e-01 4.290280e+00 -2.754585e+01 2.911313e+01 6.949923e-06 9.999530e-03 -1.863861e-01 1.344452e-01
-3.856787e-01 4.300853e+00 -2.758754e+01 2.916154e+01 6.555807e-06 1.007742e-02 -1.863861e-01 1.344452e-01
-3.885398e-01 4.300996e+00 -2.762497e+01 2.924257e+01 9.217224e-06 1.010095e-02 -1.911621e-01 1.437073e-01
-3.836165e-01 4.297837e+00 -2.767809e+01 2.928915e+01 9.044777e-06 1.020704e-02 -1.808624e-01 1.437073e-01
-3.873086e-01 4.307965e+00 -2.769939e+01 2.932874e+01 8.267556e-06 1.022166e-02 -1.911621e-01 1.437073e-01
-4.053690e-01 4.302987e+00 -2.773547e+01 2.941676e+01 9.275666e-06 1.035700e-02 -1.911621e-01 1.437073e-01
-3.958338e-01 4.307517e+00 -2.780792e+01 2.946083e+01 1.010258e-05 1.043249e-02 -1.911621e-01 1.437073e-01
-3.967900e-01 4.327538e+00 -2.784749e+01 2.950946e+01 1.069029e-05 1.045940e-02 -1.825867e-01 1.437073e-01
-3.983497e-01 4.333862e+00 -2.785219e+01 2.956490e+01 8.510553e-06 1.058934e-02 -1.825867e-01 1.437073e-01
-4.005715e-01 4.339695e+00 -2.401704e+01 2.959764e+01 1.367065e-05 1.060184e-02 -1.863861e-01 1.437073e-01
-4.130648e-01 4.343190e+00 -2.792209e+01 2.966766e+01 1.259987e-05 1.072999e-02 -1.863861e-01 1.437073e-01
-4.183003e-01 4.356669e+00 -2.798280e+01 2.970393e+01 1.168865e-05 1.080425e-02 -1.863861e-01 1.437073e-01
-4.146309e-01 4.354082e+00 -2.800697e+01 2.978018e+01 1.823086e-05 1.086519e-02 -1.863861e-01 1.428833e-01
-4.188555e-01 4.365419e+00 -2.805626e+01 2.983405e+01 1.067175e-05 1.098025e-02 -1.863861e-01 1.437073e-01
-4.115520e-01 4.363729e+00 -2.806219e+01 2.985960e+01 1.657037e-05 1.102668e-02 -1.863861e-01 1.428833e-01
-4.161500e-01 4.364852e+00 -2.809286e+01 2.990179e+01 1.442451e-05 1.111561e-02 -1.863861e-01 1.437073e-01
-4.383145e-01 4.387133e+00 -2.814119e+01 2.997330e+01 1.144997e-05 1.118274e-02 -1.865082e-01 1.437073e-01
-4.271472e-01 4.392115e+00 -2.815660e+01 3.001146e+01 1.538330e-05 1.128158e-02 -1.865082e-01 1.437073e-01
-4.283980e-01 4.380374e+00 -2.818665e+01 3.010506e+01 2.006712e-05 1.135277e-02 -1.863861e-01 1.437073e-01
-4.269298e-01 4.387868e+00 -2.820937e+01 3.015205e+01 1.860107e-05 1.140925e-02 -1.865082e-01 1.437073e-01
-4.342888e-01 4.389104e+00 -2.826581e+01 3.020219e+01 1.677369e-05 1.150784e-02 -1.863861e-01 1.500854e-01
-4.423994e-01 4.396870e+00 -2.827681e+01 3.022697e+01 1.718540e-05 1.151294e-02 -1.863861e-01 1.500854e-01
-4.457904e-01 4.400456e+00 -2.829639e+01 3.028085e+01 1.766513e-05 1.165101e-02 -1.863861e-01 1.500854e-01
-4.630030e-01 4.421815e+00 -2.834277e+01 3.034694e+01 1.849659e-05 1.166270e-02 -1.863861e-01 1.500854e-01
-4.486877e-01 4.420832e+00 -2.835110e+01 3.041209e+01 1.940157e-05 1.176317e-02 -1.911621e-01 1.500854e-01
-4.577323e-01 4.423264e+00 -2.836369e+01 3.049255e+01 1.879655e-05 1.178702e-02 -1.911621e-01 1.500854e-01
-4.646390e-01 4.423001e+00 -2.839079e+01 3.052345e+01 1.952884e-05 1.185518e-02 -1.911621e-01 1.500854e-01
-4.606321e-01 4.433780e+00 -2.841446e+01 3.058066e+01 1.811933e-05 1.194981e-02 -1.911621e-01 1.500854e-01
-4.677833e-01 4.442518e+00 -2.842703e+01 3.060342e+01 2.407531e-05 1.200697e-02 -1.911621e-01 1.500854e-01
-4.535042e-01 4.453388e+00 -2.845380e+01 3.066092e+01 2.254192e-05 1.208468e-02 -1.911621e-01 1.500854e-01
-4.710766e-01 4.460764e+00 -2.847946e+01 3.070522e+01 2.184974e-05 1.214998e-02 -1.911621e-01 1.500854e-01
-4.717009e-01 4.455451e+00 -2.848254e+01 3.080731e+01 2.221418e-05 1.224405e-02 -1.911621e-01 1.500854e-01
-4.789805e-01 4.465539e+00 -2.444171e+01 3.086278e+01 2.262534e-05 1.231363e-02 -1.911621e-01 1.500854e-01
-4.695535e-01 4.466123e+00 -2.851166e+01 3.085974e+01 2.763943e-05 1.235904e-02 -1.911621e-01 1.500854e-01
-4.797405e-01 4.473397e+00 -2.853915e+01 3.093137e+01 2.728585e-05 1.249242e-02 -1.911621e-01 1.500854e-01
-4.709849e-01 4.480072e+00 -2.855591e+01 3.094949e+01 2.812993e-05 1.247790e-02 -1.911621e-01 1.500854e-01
-4.717860e-01 4.472742e+00 -2.856830e+01 3.103764e+01 2.729240e-05 1.260754e-02 -1.911621e-01 1.504517e-01
-4.761657e-01 4.495972e+00 -2.859679e+01 3.103127e+01 2.168349e-05 1.262489e-02 -1.911621e-01 1.500854e-01
-4.772284e-01 4.492135e+00 -2.859264e+01 3.106702e+01 2.852022e-05 1.258517e-02 -1.911621e-01 1.504517e-01
-4.840235e-01 4.515626e+00 -2.858859e+01 3.110112e+01 2.699697e-05 1.272751e-02 -1.911621e-01 1.504517e-01
-4.892996e-01 4.519232e+00 -2.861229e+01 3.112291e+01 2.508502e-05 1.275808e-02 -1.911621e-01 1.504517e-01
-4.924950e-01 4.519038e+00 -2.859666e+01 3.121719e+01 2.513143e-05 1.285219e-02 -1.911621e-01 1.504517e-01
-4.777718e-01 4.514249e+00 -2.862292e+01 2.711832e+01 2.709605e-05 1.288350e-02 -1.911621e-01 1.504517e-01
-4.947584e-01 4.525046e+00 -2.860721e+01 3.129475e+01 2.645965e-05 1.292632e-02 -1.911621e-01 1.504517e-01
-4.880645e-01 4.536541e+00 -2.860355e+01 3.128719e+01 2.216461e-05 1.283160e-02 -1.911621e-01 1.504517e-01
-5.014409e-01 4.548077e+00 -2.861098e+01 3.131664e+01 2.701517e-05 1.302793e-02 -1.911621e-01 1.504517e-01
-4.934482e-01 4.543568e+00 -2.859824e+01 3.135393e+01 2.619635e-05 1.312191e-02 -1.877289e-01 1.593475e-01
-4.850290e-01 4.535837e+00 -2.477399e+01 3.138942e+01 3.837296e-05 1.309252e-02 -1.877289e-01 1.500854e-01
-4.926203e-01 4.544998e+00 -2.859225e+01 3.142740e+01 3.053338e-05 1.316134e-02 -1.877289e-01 1.593475e-01
-4.948542e-01 4.562911e+00 -2.860335e+01 3.151282e+01 2.030762e-05 1.312902e-02 -1.859741e-01 1.593475e-01
-4.957357e-01 4.561105e+00 -2.859720e+01 3.152078e+01 2.627443e-05 1.314532e-02 -1.859741e-01 1.593475e-01
-4.911103e-01 4.558901e+00 -2.860738e+01 2.724342e+01 2.742746e-05 1.313584e-02 -1.859741e-01 1.565094e-01
-4.935944e-01 4.572841e+00 -2.860472e+01 3.159798e+01 2.607854e-05 1.314885e-02 -1.916504e-01 1.673737e-01
-4.842249e-01 4.581208e+00 -2.862337e+01 3.163939e+01 2.182929e-05 1.316277e-02 -1.859741e-01 1.673737e-01
-4.993862e-01 4.571989e+00 -2.862802e+01 3.167087e+01 2.785984e-05 1.326996e-02 -1.916504e-01 1.673737e-01
-4.901410e-01 4.591081e+00 -2.862326e+01 3.173456e+01 2.544604e-05 1.324155e-02 -1.916504e-01 1.673737e-01
-5.014510e-01 4.595004e+00 -2.860500e+01 3.176781e+01 2.700914e-05 1.318566e-02 -1.916504e-01 1.673737e-01
-4.902160e-01 4.587533e+00 -2.863170e+01 3.182190e+01 2.068222e-05 1.324041e-02 -1.877289e-01 1.673737e-01
-4.919809e-01 4.601883e+00 -2.861278e+01 3.183815e+01 2.021745e-05 1.339399e-02 -1.916504e-01 1.673737e-01
-4.918687e-01 4.600281e+00 -2.861420e+01 3.189403e+01 2.829530e-05 1.341223e-02 -1.916504e-01 1.673737e-01
-4.903039e-01 4.614181e+00 -2.861177e+01 3.196283e+01 2.493279e-05 1.332650e-02 -1.916504e-01 1.673737e-01
-4.703104e-01 4.610858e+00 -2.859525e+01 3.198341e+01 2.272470e-05 1.342977e-02 -1.934509e-01 1.673737e-01
-4.787076e-01 4.617562e+00 -2.859842e+01 3.198061e+01 2.586158e-05 1.351625e-02 -1.965637e-01 1.673737e-01
-4.831624e-01 4.611234e+00 -2.860219e+01 3.202429e+01 2.089222e-05 1.345302e-02 -1.965637e-01 1.745453e-01
-4.931850e-01 4.628003e+00 -2.862471e+01 3.206186e+01 2.952750e-05 1.349908e-02 -1.965637e-01 1.745453e-01
-4.976255e-01 4.627234e+00 -2.861369e+01 3.209929e+01 2.345424e-05 1.356430e-02 -1.984253e-01 1.745453e-01
-4.760391e-01 4.636752e+00 -2.861003e+01 3.210933e+01 2.502801e-05 1.340011e-02 -1.965637e-01 1.745453e-01
-4.769923e-01 4.631898e+00 -2.862990e+01 3.212137e+01 2.391259e-05 1.361763e-02 -1.965637e-01 1.745453e-01
-4.728698e-01 4.635334e+00 -2.861909e+01 2.737140e+01 2.170389e-05 1.353963e-02 -1.965637e-01 1.745453e-01
-4.716207e-01 4.650655e+00 -2.863850e+01 3.214375e+01 2.548843e-05 1.357384e-02 -1.965637e-01 1.745453e-01
-4.735780e-01 4.653009e+00 -2.863896e+01 3.216278e+01 2.262051e-05 1.347016e-02 -1.965637e-01 1.745453e-01
-4.541034e-01 4.647108e+00 -2.468358e+01 3.217516e+01 1.821490e-05 1.347941e-02 -2.007904e-01 1.745453e-01
-4.679802e-01 4.657927e+00 -2.865671e+01 3.218983e+01 1.865228e-05 1.343182e-02 -2.007904e-01 1.745453e-01
-4.633363e-01 4.661695e+00 -2.865427e+01 3.220053e+01 1.932130e-05 1.352193e-02 -1.965637e-01 1.808624e-01
-4.594471e-01 4.659851e+00 -2.864484e+01 3.222318e+01 2.375055e-05 1.371283e-02 -2.007904e-01 1.808624e-01
-4.633451e-01 4.670756e+00 -2.865625e+01 3.226178e+01 1.377410e-05 1.358648e-02 -2.043915e-01 1.808624e-01
-4.458203e-01 4.671411e+00 -2.865140e+01 3.225328e+01 1.925371e-05 1.353286e-02 -2.007904e-01 1.808624e-01
-4.607350e-01 4.673971e+00 -2.865303e+01 3.225278e+01 1.798062e-05 1.358181e-02 -2.007904e-01 1.598663e-01
-4.644320e-01 4.676335e+00 -2.863968e+01 3.225360e+01 1.815136e-05 1.364789e-02 -2.043915e-01 1.808624e-01
-4.565668e-01 4.672646e+00 -2.866206e+01 3.226854e+01 2.069165e-05 1.365945e-02 -2.043915e-01 1.673737e-01
-4.449602e-01 4.692277e+00 -2.864090e+01 3.226974e+01 2.486608e-05 1.375122e-02 -2.007904e-01 1.808624e-01
-4.542233e-01 4.699874e+00 -2.867635e+01 3.223305e+01 1.857227e-05 1.358621e-02 -2.043915e-01 1.808624e-01
-4.445255e-01 4.686704e+00 -2.865968e+01 3.223688e+01 1.560993e-05 1.364384e-02 -2.043915e-01 1.808624e-01
-4.494187e-01 4.692714e+00 -2.866119e+01 3.224529e+01 1.766950e-05 1.366921e-02 -2.043915e-01 1.808624e-01
-4.525949e-01 4.696661e+00 -2.867081e+01 3.227290e+01 1.043720e-05 1.356330e-02 -1.984253e-01 1.808624e-01
-4.461732e-01 4.703080e+00 -2.865567e+01 3.220557e+01 1.924157e-05 1.358095e-02 -2.043915e-01 1.808624e-01
-4.397249e-01 4.707229e+00 -2.866812e+01 3.220171e+01 1.174515e-05 1.350987e-02 -2.043915e-01 1.808624e-01
-4.363988e-01 4.704373e+00 -2.868520e+01 3.222641e+01 1.404958e-05 1.358493e-02 -2.043915e-01 1.808624e-01
-4.319364e-01 4.709888e+00 -2.868102e+01 3.223036e+01 1.603406e-05 1.360501e-02 -1.984253e-01 1.863861e-01
-4.342940e-01 4.722818e+00 -2.865363e+01 3.225441e+01 1.064853e-05 1.366463e-02 -2.074432e-01 1.863861e-01
-4.301929e-01 4.717531e+00 -2.444310e+01 3.222977e+01 1.602896e-05 1.368084e-02 -2.043915e-01 1.863861e-01
-4.319383e-01 4.719409e+00 -2.864470e+01 3.220490e+01 1.942279e-05 1.371749e-02 -2.043915e-01 1.863861e-01
-4.256059e-01 4.719834e+00 -2.865942e+01 3.224199e+01 1.798561e-05 1.357003e-02 -2.043915e-01 1.863861e-01
-4.319014e-01 4.731321e+00 -2.866637e+01 3.221136e+01 2.504451e-05 1.362754e-02 -2.074432e-01 1.911774e-01
-4.242453e-01 4.724727e+00 -2.865776e+01 3.220703e+01 1.891391e-05 1.359118e-02 -2.043915e-01 1.863861e-01
-4.167390e-01 4.731435e+00 -2.865559e+01 3.218564e+01 2.092507e-05 1.368605e-02 -2.043915e-01 1.863861e-01
-4.305910e-01 4.743801e+00 -2.866528e+01 3.212558e+01 1.720944e-05 1.367765e-02 -2.074432e-01 1.863861e-01
-4.271740e-01 4.738317e+00 -2.866458e+01 3.214771e+01 1.865961e-05 1.364549e-02 -2.074432e-01 1.911774e-01
-4.126475e-01 4.754892e+00 -2.863542e+01 3.210655e+01 1.610429e-05 1.358262e-02 -2.074432e-01 1.863861e-01
-4.155572e-01 4.750420e+00 -2.866093e+01 3.212700e+01 1.551455e-05 1.372428e-02 -2.074432e-01 1.863861e-01
-4.172227e-01 4.748671e+00 -2.866783e+01 3.210046e+01 2.270305e-05 1.361023e-02 -2.074432e-01 1.863861e-01
-4.112857e-01 4.760255e+00 -2.865884e+01 3.206871e+01 1.532874e-05 1.364495e-02 -2.074432e-01 1.863861e-01
-4.206039e-01 4.748657e+00 -2.866887e+01 3.207648e+01 1.734751e-05 1.342552e-02 -2.074432e-01 1.863861e-01
-4.214435e-01 4.761275e+00 -2.866531e+01 3.205606e+01 1.761203e-05 1.370841e-02 -2.074432e-01 1.863861e-01
-4.063847e-01 4.754466e+00 -2.866275e+01 3.203828e+01 1.612382e-05 1.357610e-02 -2.074432e-01 1.863861e-01
-4.108742e-01 4.771146e+00 -2.866679e+01 3.201718e+01 1.297931e-05 1.371369e-02 -2.074432e-01 1.863861e-01
-4.146624e-01 4.773909e+00 -2.865968e+01 3.198726e+01 1.253818e-05 1.372192e-02 -2.100220e-01 1.863861e-01
-4.075436e-01 4.779318e+00 -2.866591e+01 3.196458e+01 1.646035e-05 1.382401e-02 -1.984253e-01 1.863861e-01
-4.186532e-01 4.780004e+00 -2.866891e+01 3.196367e+01 1.011558e-05 1.373567e-02 -2.074432e-01 1.863861e-01
-4.072496e-01 4.781923e+00 -2.866306e+01 3.192389e+01 1.660454e-05 1.373725e-02 -2.100220e-01 1.745453e-01
-4.102564e-01 4.779448e+00 -2.865599e+01 3.187546e+01 1.810484e-05 1.348687e-02 -2.074432e-01 1.911774e-01
-4.019332e-01 4.778042e+00 -2.864290e+01 3.186426e+01 2.057025e-05 1.377778e-02 -2.074432e-01 1.863861e-01
-4.072568e-01 4.788981e+00 -2.866391e+01 3.184973e+01 1.179870e-05 1.381561e-02 -2.100220e-01 1.911774e-01
-4.057641e-01 4.795271e+00 -2.867508e+01 2.768698e+01 1.015727e-05 1.384176e-02 -2.100220e-01 1.911774e-01
-3.982132e-01 4.798680e+00 -2.866341e+01 3.182410e+01 1.477409e-05 1.374445e-02 -2.100220e-01 1.911774e-01
-3.980542e-01 4.800194e+00 -2.864082e+01 3.177306e+01 1.130189e-05 1.369934e-02 -2.100220e-01 1.911774e-01
-3.936607e-01 4.804272e+00 -2.864801e+01 3.175562e+01 1.427060e-05 1.383350e-02 -2.100220e-01 1.911774e-01
-3.941837e-01 4.808478e+00 -2.865189e+01 3.172263e+01 1.439575e-05 1.377628e-02 -2.100220e-01 1.911774e-01
-3.984719e-01 4.808148e+00 -2.864560e+01 3.168718e+01 9.090615e-06 1.372219e-02 -2.074432e-01 1.745453e-01
-3.897254e-01 4.812866e+00 -2.863716e+01 3.169464e+01 1.622978e-05 1.393446e-02 -2.074432e-01 1.911774e-01
-3.840592e-01 4.793578e+00 -2.864198e+01 3.166199e+01 1.764697e-05 1.371257e-02 -2.100220e-01 1.911774e-01
-3.936465e-01 4.815961e+00 -2.863463e+01 3.161130e+01 7.248473e-06 1.393728e-02 -2.100220e-01 1.911774e-01
-4.003470e-01 4.826321e+00 -2.862083e+01 3.155911e+01 1.438125e-05 1.404558e-02 -2.074432e-01 1.911774e-01
-3.864276e-01 4.819460e+00 -2.861469e+01 3.155969e+01 9.797334e-06 1.385895e-02 -2.100220e-01 1.911774e-01
-3.790466e-01 4.827385e+00 -2.860765e+01 3.151208e+01 1.754144e-05 1.355587e-02 -1.984253e-01 1.911774e-01
-3.861359e-01 4.830902e+00 -2.860474e+01 3.148468e+01 1.034628e-05 1.391618e-02 -2.100220e-01 1.911774e-01
-3.852561e-01 4.827462e+00 -2.857785e+01 3.144092e+01 1.565237e-05 1.389269e-02 -2.026825e-01 1.911774e-01
-3.907727e-01 4.832403e+00 -2.859164e+01 3.142540e+01 1.941421e-05 1.376125e-02 -2.100220e-01 1.826019e-01
-3.832989e-01 4.844589e+00 -2.858643e+01 3.140376e+01 9.396706e-06 1.374596e-02 -2.026825e-01 1.826019e-01
-3.872371e-01 4.842812e+00 -2.858426e+01 3.137096e+01 9.868790e-06 1.393000e-02 -2.100220e-01 1.826019e-01
-3.759555e-01 4.839697e+00 -2.860123e+01 3.133650e+01 1.831658e-05 1.388745e-02 -2.100220e-01 1.865082e-01
-3.696474e-01 4.852254e+00 -2.468149e+01 3.131320e+01 7.047253e-06 1.363932e-02 -2.100220e-01 1.865082e-01
-3.854592e-01 4.842695e+00 -2.859076e+01 3.130234e+01 1.479002e-05 1.384476e-02 -2.100220e-01 1.865082e-01
-3.783587e-01 4.830736e+00 -2.857675e+01 3.127910e+01 7.797437e-06 1.389230e-02 -2.100220e-01 1.826019e-01
-3.717219e-01 4.846931e+00 -2.859435e+01 3.122722e+01 1.432884e-05 1.379138e-02 -2.100220e-01 1.865082e-01
-3.705976e-01 4.850657e+00 -2.860211e+01 3.121411e+01 3.492933e-06 1.384575e-02 -2.100220e-01 1.865082e-01
-3.713468e-01 4.851259e+00 -2.860805e+01 3.121648e+01 1.339642e-05 1.374876e-02 -2.100220e-01 1.865082e-01
-3.808928e-01 4.858870e+00 -2.858385e+01 3.116925e+01 1.478676e-05 1.379032e-02 -2.100220e-01 1.865082e-01
-3.673406e-01 4.852428e+00 -2.858463e+01 3.111787e+01 8.935749e-06 1.395821e-02 -2.100220e-01 1.865082e-01
-3.633781e-01 4.852721e+00 -2.856932e+01 3.110852e+01 6.326158e-06 1.393012e-02 -2.100220e-01 1.865082e-01
-3.683562e-01 4.858840e+00 -2.857956e+01 3.105191e+01 1.060886e-05 1.397281e-02 -2.100220e-01 1.826019e-01
-3.697583e-01 4.874638e+00 -2.856361e+01 3.105875e+01 1.268297e-05 1.375772e-02 -2.100220e-01 1.826019e-01
-3.569585e-01 4.862496e+00 -2.856616e+01 3.095673e+01 1.020383e-05 1.389719e-02 -2.100220e-01 1.865082e-01
-3.642332e-01 4.861358e+00 -2.855302e+01 3.096077e+01 6.799194e-06 1.392754e-02 -2.100220e-01 1.865082e-01
-3.686404e-01 4.862972e+00 -2.853839e+01 3.092789e+01 1.044967e-05 1.391973e-02 -2.074432e-01 1.865082e-01
-3.571471e-01 4.872179e+00 -2.853755e+01 3.087086e+01 6.735642e-06 1.397158e-02 -2.100220e-01 1.865082e-01
-3.617173e-01 4.869439e+00 -2.453506e+01 3.085580e+01 1.460495e-05 1.402039e-02 -2.074432e-01 1.865082e-01
-3.597100e-01 4.886299e+00 -2.854431e+01 3.082765e+01 9.777962e-06 1.380445e-02 -2.074432e-01 1.865082e-01
-3.609439e-01 4.875761e+00 -2.853873e+01 3.075229e+01 4.463212e-06 1.393952e-02 -2.074432e-01 1.865082e-01
-3.571563e-01 4.882272e+00 -2.852625e+01 3.072556e+01 1.169162e-05 1.379478e-02 -2.074432e-01 1.811676e-01
-3.456673e-01 4.880400e+00 -2.850410e+01 3.073875e+01 1.385718e-05 1.366349e-02 -2.100220e-01 1.865082e-01
-3.577242e-01 4.890975e+00 -2.849510e+01 3.069417e+01 1.449025e-05 1.397096e-02 -2.074432e-01 1.865082e-01
-3.505008e-01 4.892982e+00 -2.849580e+01 3.066365e+01 6.811941e-06 1.380058e-02 -2.074432e-01 1.865082e-01
-3.443308e-01 4.892498e+00 -2.848412e+01 3.062219e+01 1.264863e-05 1.363764e-02 -2.100220e-01 1.865082e-01
-3.501647e-01 4.887239e+00 -2.848569e+01 3.061142e+01 9.807297e-06 1.382800e-02 -2.100220e-01 1.877289e-01
-3.578413e-01 4.882298e+00 -2.846930e+01 3.057936e+01 1.235984e-05 1.393106e-02 -2.074432e-01 1.877289e-01
-3.424205e-01 4.897289e+00 -2.845522e+01 3.054683e+01 8.097474e-06 1.359905e-02 -2.074432e-01 1.865082e-01
-3.438161e-01 4.891007e+00 -2.845924e+01 3.052367e+01 1.200914e-05 1.345567e-02 -2.074432e-01 1.877289e-01
-3.598383e-01 4.897911e+00 -2.844539e+01 3.050253e+01 7.138291e-06 1.379272e-02 -2.074432e-01 1.877289e-01
-3.410630e-01 4.901895e+00 -2.842470e+01 3.047316e+01 9.387964e-06 1.351765e-02 -2.074432e-01 1.877289e-01
-3.449682e-01 4.898110e+00 -2.842636e+01 3.046234e+01 1.064691e-05 1.381044e-02 -2.074432e-01 1.877289e-01
-3.466555e-01 4.909065e+00 -2.840680e+01 3.037613e+01 1.392743e-05 1.371697e-02 -2.074432e-01 1.877289e-01
-3.356022e-01 4.912290e+00 -2.839635e+01 3.038982e+01 1.199041e-05 1.364416e-02 -2.063141e-01 1.877289e-01
-3.416066e-01 4.909329e+00 -2.837920e+01 3.038840e+01 1.847253e-06 1.364037e-02 -2.063141e-01 1.877289e-01
-3.424560e-01 4.910222e+00 -2.838069e+01 3.037340e+01 8.046811e-06 1.367917e-02 -2.063141e-01 1.877289e-01
-3.403850e-01 4.918012e+00 -2.836652e+01 3.033533e+01 7.576368e-06 1.354787e-02 -2.063141e-01 1.934662e-01
-3.321682e-01 4.909060e+00 -2.837070e+01 3.025311e+01 1.511964e-05 1.376178e-02 -2.009125e-01 1.926422e-01
-3.316909e-01 4.916372e+00 -2.836179e+01 3.026366e+01 1.349296e-05 1.363959e-02 -2.063141e-01 1.925812e-01
-3.465938e-01 4.929540e+00 -2.835356e+01 3.022716e+01 1.321516e-05 1.361204e-02 -2.178192e-01 2.178192e-01
-3.392543e-01 4.909506e+00 -2.832478e+01 3.020851e+01 9.774072e-06 1.323391e-02 -2.063141e-01 1.865082e-01
-3.421702e-01 4.921784e+00 -2.833081e+01 3.017941e+01 8.545322e-06 1.350678e-02 -2.146912e-01 2.146912e-01
-3.460224e-01 4.932692e+00 -2.831300e+01 3.017461e+01 2.855515e-06 1.351429e-02 -2.360992e-01 2.360992e-01
-3.329691e-01 4.933296e+00 -2.830678e+01 3.017943e+01 1.175376e-05 1.353166e-02 -2.372894e-01 2.372894e-01
-3.271897e-01 4.928718e+00 -2.829872e+01 3.010318e+01 1.456866e-05 1.362500e-02 -2.451782e-01 2.451782e-01
-3.354656e-01 4.931043e+00 -2.828094e+01 3.003513e+01 9.951314e-06 1.342196e-02 -2.474976e-01 2.474976e-01
-3.420168e-01 4.937562e+00 -2.826755e+01 2.999883e+01 1.138165e-05 1.343544e-02 -2.484283e-01 2.484283e-01
-3.382148e-01 4.942631e+00 -2.826532e+01 2.715189e+01 6.128885e-06 1.333682e-02 -2.389526e-01 2.389526e-01
-3.386069e-01 4.940456e+00 -2.825218e+01 2.998816e+01 1.447045e-05 1.329609e-02 -2.511444e-01 2.511444e-01
-3.358567e-01 4.926137e+00 -2.823952e+01 2.997084e+01 3.975055e-06 1.333405e-02 -2.243805e-01 2.243805e-01
-3.307258e-01 4.945479e+00 -2.821060e+01 2.994345e+01 1.205258e-05 1.339686e-02 -2.349396e-01 2.349396e-01
-3.336786e-01 4.950503e+00 -2.821565e+01 2.988431e+01 8.009601e-06 1.335576e-02 -2.288055e-01 2.288055e-01
-3.433141e-01 4.938601e+00 -2.818405e+01 2.990286e+01 1.175912e-05 1.332225e-02 -2.333832e-01 2.333832e-01
-3.302135e-01 4.951770e+00 -2.429294e+01 2.982591e+01 7.381316e-06 1.310949e-02 -2.185364e-01 2.185364e-01
-3.404529e-01 4.960688e+00 -2.817479e+01 2.984113e+01 1.132731e-05 1.328947e-02 -2.179871e-01 2.061768e-01
-3.390858e-01 4.945149e+00 -2.815627e+01 2.978740e+01 9.485247e-06 1.338681e-02 -2.184296e-01 1.984253e-01
-3.374605e-01 4.953567e+00 -2.813829e+01 2.982281e+01 1.357563e-05 1.319463e-02 -2.187958e-01 1.984253e-01
-3.324624e-01 4.963398e+00 -2.812094e+01 2.981003e+01 7.243687e-06 1.335528e-02 -2.210999e-01 1.984253e-01
-3.368164e-01 4.945837e+00 -2.812517e+01 2.977274e+01 1.119731e-05 1.313709e-02 -2.281494e-01 1.984253e-01
-3.378406e-01 4.963971e+00 -2.811014e+01 2.978932e+01 7.296237e-06 1.314160e-02 -2.216339e-01 1.984253e-01
-3.329862e-01 4.963773e+00 -2.810184e+01 2.979333e+01 1.070916e-05 1.303319e-02 -2.297516e-01 1.984253e-01
-3.319633e-01 4.966677e+00 -2.809625e+01 2.973734e+01 1.109657e-05 1.279245e-02 -2.295990e-01 1.984253e-01
-3.326524e-01 4.963800e+00 -2.806419e+01 2.971483e+01 1.004360e-05 1.309976e-02 -2.300415e-01 1.984253e-01
-3.233164e-01 4.970816e+00 -2.806563e+01 2.970006e+01 8.266441e-06 1.296525e-02 -2.305145e-01 1.984253e-01
-3.404491e-01 4.961452e+00 -2.803584e+01 2.970059e+01 1.143469e-05 1.278772e-02 -2.308960e-01 1.984253e-01
-3.289369e-01 4.968091e+00 -2.805562e+01 2.971468e+01 8.874876e-06 1.295706e-02 -2.314606e-01 1.984253e-01
-3.374803e-01 4.968772e+00 -2.802803e+01 2.968155e+01 1.159131e-05 1.284480e-02 -2.319641e-01 1.984253e-01
-3.279565e-01 4.974481e+00 -2.803876e+01 2.969530e+01 9.284065e-06 1.271130e-02 -2.325897e-01 1.984253e-01
-3.293898e-01 4.985415e+00 -2.799312e+01 2.967799e+01 1.669437e-05 1.279161e-02 -2.326355e-01 1.984253e-01
-3.270262e-01 4.982660e+00 -2.799373e+01 2.967281e+01 1.396267e-05 1.274548e-02 -2.331085e-01 1.984253e-01
-3.277721e-01 4.974012e+00 -2.797749e+01 2.967284e+01 1.287201e-05 1.282138e-02 -2.334595e-01 1.984253e-01
-3.389033e-01 4.980829e+00 -2.794846e+01 2.967697e+01 1.925813e-05 1.262408e-02 -2.340851e-01 1.984253e-01
-3.359073e-01 4.976740e+00 -2.795410e+01 2.968848e+01 1.361300e-05 1.262840e-02 -2.343140e-01 1.984253e-01
-3.281768e-01 4.984375e+00 -2.792015e+01 2.967058e+01 2.123837e-06 1.263536e-02 -2.351379e-01 1.984253e-01
-3.328746e-01 4.991260e+00 -2.790694e+01 2.965608e+01 1.254899e-05 1.248659e-02 -2.386322e-01 2.026825e-01
-3.342241e-01 4.982263e+00 -2.788132e+01 2.964638e+01 8.892742e-06 1.254533e-02 -2.389221e-01 2.026825e-01
-3.335739e-01 4.988615e+00 -2.786435e+01 2.964410e+01 1.359302e-05 1.264102e-02 -2.397308e-01 2.026825e-01
-3.357631e-01 4.985290e+00 -2.428232e+01 2.962488e+01 1.147189e-05 1.251470e-02 -2.398529e-01 2.026825e-01
-3.298297e-01 4.975536e+00 -2.785065e+01 2.960620e+01 4.419834e-06 1.262637e-02 -2.404633e-01 2.026825e-01
-3.312474e-01 4.996549e+00 -2.780551e+01 2.963258e+01 8.713889e-06 1.263019e-02 -2.406311e-01 2.026825e-01
-3.255434e-01 4.992603e+00 -2.778651e+01 2.963290e+01 6.699776e-06 1.256947e-02 -2.414551e-01 2.026825e-01
-3.342207e-01 4.987247e+00 -2.778551e+01 2.964528e+01 7.675910e-06 1.231494e-02 -2.417297e-01 2.026825e-01
-3.404509e-01 4.995317e+00 -2.776222e+01 2.961008e+01 6.802293e-06 1.234950e-02 -2.421265e-01 2.026825e-01
-3.278963e-01 4.998418e+00 -2.772966e+01 2.959880e+01 9.883863e-06 1.232133e-02 -2.423706e-01 2.026825e-01
-3.271840e-01 4.998847e+00 -2.772443e+01 2.960600e+01 9.002485e-06 1.221784e-02 -2.426453e-01 2.026825e-01
-3.365192e-01 5.000501e+00 -2.767609e+01 2.960577e+01 8.110030e-06 1.241041e-02 -2.402802e-01 2.026825e-01
-3.307305e-01 5.002868e+00 -2.765872e+01 2.958710e+01 1.253436e-05 1.227830e-02 -2.406006e-01 2.026825e-01
-3.345537e-01 5.003094e+00 -2.767810e+01 2.958989e+01 1.197546e-05 1.202343e-02 -2.446594e-01 2.026825e-01
-3.279714e-01 5.003193e+00 -2.765306e+01 2.961089e+01 4.470401e-06 1.234666e-02 -2.450409e-01 2.026825e-01
-3.273173e-01 4.996061e+00 -2.764201e+01 2.961264e+01 7.891411e-06 1.253298e-02 -2.456818e-01 2.026825e-01
-3.346798e-01 5.001199e+00 -2.759679e+01 2.961481e+01 1.024278e-05 1.213972e-02 -2.460022e-01 2.026825e-01
-3.184410e-01 5.008096e+00 -2.425761e+01 2.962091e+01 1.043015e-05 1.220295e-02 -2.463226e-01 2.026825e-01
-3.273459e-01 5.005430e+00 -2.755156e+01 2.961191e+01 6.832963e-06 1.234995e-02 -2.407684e-01 2.026825e-01
-3.358578e-01 5.009540e+00 -2.754849e+01 2.962718e+01 7.796178e-06 1.228973e-02 -2.433929e-01 2.063141e-01
-3.321431e-01 5.010865e+00 -2.750620e+01 2.960727e+01 2.051876e-06 1.235482e-02 -2.413025e-01 2.063141e-01
-3.298580e-01 5.019361e+00 -2.751033e+01 2.962076e+01 1.142673e-05 1.226449e-02 -2.437286e-01 1.898651e-01
-3.442135e-01 5.011915e+00 -2.748306e+01 2.962813e+01 1.003863e-05 1.230214e-02 -2.455444e-01 2.063141e-01
-3.182101e-01 5.024327e+00 -2.747658e+01 2.961121e+01 6.297766e-06 1.227276e-02 -2.460938e-01 2.063141e-01
-3.196479e-01 5.017601e+00 -2.744704e+01 2.962366e+01 2.853675e-06 1.206432e-02 -2.467194e-01 2.063141e-01
-3.312409e-01 5.011934e+00 -2.741254e+01 2.963228e+01 9.390805e-06 1.213228e-02 -2.466888e-01 2.063141e-01
-3.260782e-01 5.023682e+00 -2.740468e+01 2.964392e+01 5.092079e-06 1.213934e-02 -2.470398e-01 2.063141e-01
-3.251820e-01 5.039177e+00 -2.740298e+01 2.963774e+01 -5.463800e-08 1.203445e-02 -2.432404e-01 2.063141e-01
-3.209868e-01 5.022038e+00 -2.738000e+01 2.965091e+01 6.934774e-06 1.222917e-02 -2.437134e-01 2.026825e-01
-3.337962e-01 5.026705e+00 -2.736658e+01 2.965430e+01 4.132296e-06 1.218287e-02 -2.441711e-01 2.063141e-01
-3.250834e-01 5.014249e+00 -2.731383e+01 2.963936e+01 9.477391e-06 1.210986e-02 -2.441864e-01 2.063141e-01
-3.340394e-01 5.021341e+00 -2.730502e+01 2.963072e+01 6.370471e-06 1.218400e-02 -2.471313e-01 2.063141e-01
-3.304535e-01 5.029380e+00 -2.728407e+01 2.630331e+01 2.887205e-06 1.210747e-02 -2.456207e-01 2.063141e-01
-3.320004e-01 5.023913e+00 -2.727812e+01 2.627507e+01 2.954971e-06 1.199014e-02 -2.461090e-01 2.063141e-01
-3.399659e-01 5.033879e+00 -2.725105e+01 2.963701e+01 1.258285e-06 1.195983e-02 -2.467957e-01 2.063141e-01
-3.346888e-01 5.042324e+00 -2.722839e+01 2.962007e+01 9.020018e-06 1.192063e-02 -2.507477e-01 2.063141e-01
-3.334027e-01 5.029153e+00 -2.420612e+01 2.963040e+01 -1.330894e-06 1.207114e-02 -2.473145e-01 2.063141e-01
-3.326046e-01 5.032648e+00 -2.721791e+01 2.960751e+01 7.568188e-07 1.182344e-02 -2.491913e-01 2.063141e-01
-3.276208e-01 5.038172e+00 -2.716759e+01 2.961565e+01 2.176148e-06 1.175113e-02 -2.479858e-01 2.063141e-01
-3.243054e-01 5.027036e+00 -2.713547e+01 2.960587e+01 1.472871e-06 1.194382e-02 -2.450562e-01 2.063141e-01
-3.267847e-01 5.032295e+00 -2.713251e+01 2.963211e+01 5.868308e-06 1.179879e-02 -2.449341e-01 2.063141e-01
-3.307425e-01 5.034726e+00 -2.710823e+01 2.962570e+01 1.114572e-05 1.177602e-02 -2.532349e-01 1.927032e-01
-3.224754e-01 5.040244e+00 -2.710155e+01 2.961063e+01 6.535681e-07 1.171112e-02 -2.538147e-01 2.063141e-01
-3.349895e-01 5.038544e+00 -2.707562e+01 2.959677e+01 2.243533e-06 1.155530e-02 -2.464447e-01 2.063141e-01
-3.306638e-01 5.022881e+00 -2.705392e+01 2.956958e+01 1.052794e-06 1.166694e-02 -2.468719e-01 2.063141e-01
-3.373504e-01 5.050195e+00 -2.704553e+01 2.958987e+01 3.762338e-06 1.156194e-02 -2.469635e-01 2.063141e-01
-3.401332e-01 5.040440e+00 -2.702409e+01 2.963380e+01 4.474367e-06 1.185668e-02 -2.469177e-01 2.063141e-01
-3.369664e-01 5.043701e+00 -2.700549e+01 2.960992e+01 -1.593578e-06 1.161361e-02 -2.476196e-01 2.063141e-01
-3.353374e-01 5.035400e+00 -2.698830e+01 2.958313e+01 3.457858e-06 1.165922e-02 -2.478027e-01 2.063141e-01
-3.272291e-01 5.050062e+00 -2.695723e+01 2.961237e+01 -2.295587e-06 1.170627e-02 -2.478638e-01 2.063141e-01
-3.312345e-01 5.053342e+00 -2.696385e+01 2.957167e+01 8.430364e-06 1.148474e-02 -2.483673e-01 2.063141e-01
-3.279441e-01 5.046825e+00 -2.692369e+01 2.957031e+01 6.577134e-06 1.150927e-02 -2.488403e-01 2.063141e-01
-3.329334e-01 5.061620e+00 -2.692943e+01 2.959335e+01 1.286137e-05 1.157030e-02 -2.492065e-01 2.063141e-01
-3.349962e-01 5.042311e+00 -2.691701e+01 2.960393e+01 4.082768e-06 1.162399e-02 -2.498474e-01 2.063141e-01
-3.370535e-01 5.051762e+00 -2.690045e+01 2.958067e+01 6.251194e-06 1.138220e-02 -2.501831e-01 2.063141e-01
-3.270447e-01 5.059265e+00 -2.687265e+01 2.957129e+01 3.786096e-06 1.137771e-02 -2.503357e-01 2.063141e-01
-3.350744e-01 5.056511e+00 -2.687471e+01 2.956741e+01 3.644834e-06 1.130163e-02 -2.450256e-01 2.063141e-01
-3.411448e-01 5.058243e+00 -2.682814e+01 2.957915e+01 2.943006e-06 1.140651e-02 -2.506256e-01 2.063141e-01
-3.273902e-01 5.058826e+00 -2.682985e+01 2.956737e+01 1.144052e-09 1.144390e-02 -2.512970e-01 2.063141e-01
-3.352448e-01 5.059745e+00 -2.681563e+01 2.954536e+01 3.889776e-07 1.126102e-02 -2.515259e-01 2.063141e-01
-3.304833e-01 5.060025e+00 -2.681535e+01 2.953490e+01 1.132897e-07 1.123631e-02 -2.527466e-01 2.063141e-01
-3.353891e-01 5.063277e+00 -2.682176e+01 2.587007e+01 5.050397e-06 1.112891e-02 -2.521667e-01 2.063141e-01
-3.459845e-01 5.071077e+00 -2.678485e+01 2.951706e+01 -2.840699e-06 1.124041e-02 -2.535553e-01 2.063141e-01
-3.267201e-01 5.055464e+00 -2.678761e+01 2.949130e+01 -2.198019e-06 1.119180e-02 -2.544556e-01 2.063141e-01
-3.266367e-01 5.059867e+00 -2.677844e+01 2.948776e+01 2.199268e-06 1.131347e-02 -2.532959e-01 2.063141e-01
-3.373178e-01 5.065387e+00 -2.676674e+01 2.950764e+01 3.480358e-06 1.104387e-02 -2.479858e-01 2.063141e-01
-3.294160e-01 5.053033e+00 -2.675328e+01 2.949979e+01 6.018760e-06 1.125229e-02 -2.483521e-01 2.063141e-01
-3.291315e-01 5.058536e+00 -2.673659e+01 2.947107e+01 1.403456e-06 1.111173e-02 -2.489929e-01 2.063141e-01
-3.220941e-01 5.062174e+00 -2.422845e+01 2.949625e+01 1.005126e-06 1.103052e-02 -2.492981e-01 2.063141e-01
-3.230562e-01 5.069425e+00 -2.670509e+01 2.947739e+01 -3.471987e-06 1.096812e-02 -2.550812e-01 2.063141e-01
-3.226070e-01 5.072040e+00 -2.669853e+01 2.944720e+01 -5.846705e-06 1.103758e-02 -2.554321e-01 2.063141e-01
-3.273145e-01 5.082546e+00 -2.669913e+01 2.945447e+01 -8.555028e-07 1.095056e-02 -2.557220e-01 2.063141e-01
-3.265218e-01 5.073105e+00 -2.669907e+01 2.945746e+01 1.736499e-06 1.106306e-02 -2.562866e-01 2.063141e-01
-3.356587e-01 5.076977e+00 -2.669246e+01 2.942340e+01 8.810819e-07 1.091248e-02 -2.623138e-01 2.063141e-01
-3.181182e-01 5.067422e+00 -2.667607e+01 2.946017e+01 3.058241e-07 1.061111e-02 -2.626801e-01 2.063141e-01
-3.383691e-01 5.078291e+00 -2.667317e+01 2.944206e+01 6.836405e-06 1.074455e-02 -2.629089e-01 2.063141e-01
-3.205583e-01 5.072349e+00 -2.667041e+01 2.942171e+01 -2.364984e-06 1.066166e-02 -2.574310e-01 2.063141e-01
-3.362070e-01 5.075627e+00 -2.663249e+01 2.942639e+01 1.774043e-07 1.064981e-02 -2.578125e-01 2.063141e-01
-3.340018e-01 5.085151e+00 -2.663556e+01 2.942513e+01 -5.585966e-06 1.044345e-02 -2.580261e-01 2.063141e-01
-3.289186e-01 5.084865e+00 -2.663249e+01 2.940353e+01 -3.109437e-07 1.066805e-02 -2.587128e-01 2.022095e-01
-3.234084e-01 5.081037e+00 -2.662271e+01 2.940422e+01 5.482257e-06 1.063350e-02 -2.700195e-01 2.025452e-01
-3.352066e-01 5.098487e+00 -2.661143e+01 2.939114e+01 -3.249202e-07 1.062367e-02 -2.703857e-01 2.063141e-01
-3.269417e-01 5.093460e+00 -2.660994e+01 2.939532e+01 2.825169e-06 1.072705e-02 -2.709808e-01 2.063141e-01
-3.235391e-01 5.083646e+00 -2.661143e+01 2.937177e+01 1.869285e-06 1.071859e-02 -2.711487e-01 2.063141e-01
-3.331322e-01 5.088492e+00 -2.660658e+01 2.935277e+01 3.856160e-06 1.049416e-02 -2.613678e-01 2.063141e-01
-3.416229e-01 5.097704e+00 -2.658752e+01 2.934036e+01 7.245966e-06 1.051412e-02 -2.546844e-01 2.063141e-01
-3.279838e-01 5.090669e+00 -2.656429e+01 2.932706e+01 -6.244234e-07 1.044445e-02 -2.722321e-01 2.063141e-01
-3.361153e-01 5.096728e+00 -2.655505e+01 2.929132e+01 5.657621e-06 1.047888e-02 -2.724304e-01 2.063141e-01
-3.232161e-01 5.098512e+00 -2.653160e+01 2.929675e+01 -5.264544e-07 1.053543e-02 -2.727814e-01 2.063141e-01
-3.410696e-01 5.103153e+00 -2.653442e+01 2.925906e+01 -1.898687e-06 1.052534e-02 -2.771149e-01 2.063141e-01
-3.255219e-01 5.098467e+00 -2.654509e+01 2.927495e+01 -3.433290e-06 1.061030e-02 -2.737732e-01 2.063141e-01
-3.324548e-01 5.116198e+00 -2.654066e+01 2.926700e+01 4.606715e-06 1.042739e-02 -2.736969e-01 2.063141e-01
-3.306310e-01 5.101235e+00 -2.652116e+01 2.926875e+01 -3.919778e-06 1.036165e-02 -2.741394e-01 2.063141e-01
-3.354753e-01 5.107206e+00 -2.650786e+01 2.925435e+01 2.571885e-06 1.016850e-02 -2.572021e-01 2.063141e-01
-3.355640e-01 5.106986e+00 -2.650926e+01 2.925096e+01 -2.759453e-07 1.033784e-02 -2.747040e-01 2.063141e-01
-3.339384e-01 5.100962e+00 -2.649899e+01 2.924063e+01 -7.502538e-06 1.013366e-02 -2.749786e-01 2.063141e-01
-3.297520e-01 5.100010e+00 -2.650006e+01 2.922540e+01 -2.610497e-06 1.019793e-02 -2.755737e-01 2.063141e-01
-3.206990e-01 5.113303e+00 -2.649690e+01 2.918961e+01 -4.264662e-06 1.008493e-02 -2.757721e-01 2.063141e-01
-3.398268e-01 5.105077e+00 -2.647702e+01 2.918369e+01 2.223388e-06 1.025890e-02 -2.760620e-01 2.093964e-01
-3.334207e-01 5.113591e+00 -2.649112e+01 2.918057e+01 -3.832935e-06 1.015039e-02 -2.761841e-01 2.063141e-01
-3.313586e-01 5.119595e+00 -2.646587e+01 2.916617e+01 1.587562e-07 1.025826e-02 -2.593231e-01 2.063141e-01
-3.365148e-01 5.104852e+00 -2.646320e+01 2.915584e+01 -2.937963e-06 1.010172e-02 -2.770996e-01 1.973114e-01
-3.425508e-01 5.108345e+00 -2.645091e+01 2.917036e+01 -3.945672e-06 9.923977e-03 -2.775879e-01 2.063141e-01
-3.226944e-01 5.120924e+00 -2.646066e+01 2.913985e+01 8.439383e-07 1.004045e-02 -2.768402e-01 2.063141e-01
-3.370702e-01 5.136191e+00 -2.643164e+01 2.913181e+01 -2.280362e-06 9.985427e-03 -2.780914e-01 2.063141e-01
-3.266971e-01 5.110338e+00 -2.644318e+01 2.911435e+01 -1.469820e-07 9.883719e-03 -2.489471e-01 2.063141e-01
-3.259693e-01 5.129490e+00 -2.642134e+01 2.908362e+01 -3.353940e-06 1.001011e-02 -2.786713e-01 2.063141e-01
-3.299014e-01 5.121808e+00 -2.642999e+01 2.906682e+01 -2.585051e-06 9.932344e-03 -2.707825e-01 2.063141e-01
-3.469559e-01 5.109506e+00 -2.640784e+01 2.908040e+01 4.904073e-07 9.840821e-03 -2.781982e-01 2.063141e-01
-3.396336e-01 5.135751e+00 -2.641432e+01 2.903908e+01 -5.982065e-06 9.792282e-03 -2.635345e-01 2.063141e-01
-3.367214e-01 5.132485e+00 -2.639218e+01 2.903790e+01 2.056852e-06 9.780101e-03 -2.638550e-01 2.063141e-01
-3.314777e-01 5.132085e+00 -2.640106e+01 2.901727e+01 -6.728692e-06 9.665795e-03 -2.505188e-01 2.063141e-01
-3.270606e-01 5.139295e+00 -2.639828e+01 2.900740e+01 2.866393e-06 9.802559e-03 -2.641754e-01 1.927032e-01
-3.360869e-01 5.140647e+00 -2.639847e+01 2.899536e+01 -4.899468e-06 9.748481e-03 -2.723541e-01 2.063141e-01
-3.350791e-01 5.132156e+00 -2.636813e+01 2.505820e+01 9.988048e-07 9.694673e-03 -2.726898e-01 2.063141e-01
-3.300801e-01 5.147510e+00 -2.636258e+01 2.896486e+01 -3.089130e-07 9.630804e-03 -2.732086e-01 2.063141e-01
-3.187018e-01 5.139462e+00 -2.636003e+01 2.897556e+01 -1.927126e-06 9.612847e-03 -2.733612e-01 2.063141e-01
-3.402876e-01 5.142687e+00 -2.636606e+01 2.894623e+01 -3.580672e-06 9.584463e-03 -2.656860e-01 2.063141e-01
-3.294117e-01 5.138521e+00 -2.635800e+01 2.894727e+01 -4.323228e-06 9.440039e-03 -2.660522e-01 2.063141e-01
-3.300281e-01 5.137591e+00 -2.635957e+01 2.892897e+01 3.164666e-06 9.650335e-03 -2.662964e-01 2.063141e-01
-3.356793e-01 5.156847e+00 -2.634694e+01 2.889944e+01 -2.056576e-06 9.492390e-03 -2.528992e-01 2.063141e-01
-3.391063e-01 5.140555e+00 -2.633791e+01 2.889508e+01 -3.948837e-06 9.566432e-03 -2.666321e-01 2.063141e-01
-3.303621e-01 5.138101e+00 -2.634734e+01 2.887437e+01 -2.935007e-06 9.446162e-03 -2.670898e-01 2.093964e-01
-3.252220e-01 5.147213e+00 -2.432254e+01 2.887180e+01 -8.994687e-06 9.633689e-03 -2.674255e-01 2.063141e-01
-3.394849e-01 5.156221e+00 -2.631357e+01 2.889200e+01 2.707856e-06 9.460762e-03 -2.677307e-01 2.063141e-01
-3.413286e-01 5.156791e+00 -2.633618e+01 2.885883e+01 -1.721998e-06 9.413282e-03 -2.677765e-01 2.093964e-01
-3.351111e-01 5.145687e+00 -2.633411e+01 2.885217e+01 -2.765516e-06 9.500275e-03 -2.543488e-01 2.063141e-01
-3.319365e-01 5.157022e+00 -2.631270e+01 2.884300e+01 1.492072e-06 9.497150e-03 -2.682190e-01 2.063141e-01
-3.336436e-01 5.147405e+00 -2.631023e+01 2.885042e+01 -3.753500e-06 9.515566e-03 -2.688293e-01 2.063141e-01
-3.419409e-01 5.147984e+00 -2.628735e+01 2.883209e+01 2.079857e-06 9.380205e-03 -2.685852e-01 2.093964e-01
-3.390585e-01 5.159874e+00 -2.629289e+01 2.881596e+01 2.350988e-06 9.527765e-03 -2.691650e-01 2.093964e-01
-3.345590e-01 5.169659e+00 -2.626595e+01 2.880394e+01 -2.954752e-06 9.360534e-03 -2.697601e-01 2.093964e-01
-3.381181e-01 5.166917e+00 -2.628668e+01 2.878273e+01 -5.478596e-06 9.322791e-03 -2.696533e-01 2.063141e-01
-3.303770e-01 5.148054e+00 -2.629698e+01 2.878452e+01 1.883233e-06 9.378835e-03 -2.701569e-01 2.063141e-01
-3.182461e-01 5.161425e+00 -2.628406e+01 2.877240e+01 3.920551e-06 9.338395e-03 -2.704010e-01 2.093964e-01
-3.366023e-01 5.152252e+00 -2.627739e+01 2.876662e+01 7.636545e-08 9.291224e-03 -2.708588e-01 2.063141e-01
-3.294601e-01 5.169493e+00 -2.627376e+01 2.875818e+01 -3.103936e-06 9.114652e-03 -2.644043e-01 2.063141e-01
-3.356007e-01 5.176581e+00 -2.627361e+01 2.876385e+01 -3.600531e-06 9.170304e-03 -2.644348e-01 2.057190e-01
-3.337673e-01 5.169127e+00 -2.626439e+01 2.875346e+01 -8.213338e-08 9.092673e-03 -2.499847e-01 2.063141e-01
-3.342729e-01 5.182131e+00 -2.625700e+01 2.872929e+01 -2.741815e-06 9.145426e-03 -2.731781e-01 2.063141e-01
-3.385839e-01 5.159949e+00 -2.626680e+01 2.872369e+01 1.347578e-06 9.089390e-03 -2.734222e-01 2.063141e-01
-3.359995e-01 5.172465e+00 -2.625876e+01 2.871310e+01 -3.342776e-06 9.128022e-03 -2.736511e-01 2.063141e-01
-3.418099e-01 5.173053e+00 -2.626317e+01 2.870758e+01 1.517508e-06 9.084732e-03 -2.740631e-01 2.063141e-01
-3.349523e-01 5.156877e+00 -2.626682e+01 2.870412e+01 -6.388775e-06 9.107136e-03 -2.591705e-01 2.063141e-01
-3.404311e-01 5.176999e+00 -2.626561e+01 2.868488e+01 -3.347743e-06 9.043307e-03 -2.651825e-01 2.063141e-01
-3.253944e-01 5.179442e+00 -2.625810e+01 2.866565e+01 -1.446720e-06 8.892589e-03 -2.655029e-01 2.063141e-01
-3.156765e-01 5.184259e+00 -2.624564e+01 2.866347e+01 -1.570383e-06 9.046406e-03 -2.657623e-01 2.063141e-01
-3.372421e-01 5.174349e+00 -2.623605e+01 2.463745e+01 1.507364e-06 8.990127e-03 -2.658539e-01 2.063141e-01
-3.381202e-01 5.192086e+00 -2.622513e+01 2.862820e+01 -2.608533e-07 8.951812e-03 -2.662201e-01 2.063141e-01
-3.366154e-01 5.180112e+00 -2.623592e+01 2.863016e+01 -3.731839e-06 8.841202e-03 -2.664337e-01 2.063141e-01
-3.274508e-01 5.186109e+00 -2.624911e+01 2.863028e+01 -4.988914e-06 8.992344e-03 -2.666321e-01 2.063141e-01
-3.276330e-01 5.188493e+00 -2.622325e+01 2.862483e+01 -9.080052e-07 9.105255e-03 -2.668915e-01 2.063141e-01
-3.363939e-01 5.185835e+00 -2.622458e+01 2.861067e+01 -2.017611e-06 8.899571e-03 -2.672577e-01 2.063141e-01
-3.288551e-01 5.190958e+00 -2.621867e+01 2.860744e+01 -1.616993e-06 8.950668e-03 -2.676086e-01 2.002258e-01
-3.328428e-01 5.198894e+00 -2.621663e+01 2.857698e+01 -4.492357e-06 8.997423e-03 -2.675476e-01 2.063141e-01
-3.267733e-01 5.192467e+00 -2.622050e+01 2.857129e+01 7.956879e-08 8.813338e-03 -2.677460e-01 2.093964e-01
-3.407790e-01 5.200345e+00 -2.622917e+01 2.857585e+01 1.800137e-06 8.898658e-03 -2.461700e-01 2.063141e-01
-3.210516e-01 5.187671e+00 -2.621181e+01 2.856294e+01 -2.698427e-06 8.792849e-03 -2.682953e-01 2.063141e-01
-3.239697e-01 5.203191e+00 -2.621088e+01 2.855586e+01 1.652392e-07 8.887898e-03 -2.687225e-01 2.063141e-01
-3.229952e-01 5.208916e+00 -2.618759e+01 2.853877e+01 -9.215050e-07 8.893239e-03 -2.690735e-01 2.063141e-01
-3.247412e-01 5.204933e+00 -2.621370e+01 2.851852e+01 -1.884348e-06 8.868855e-03 -2.691345e-01 2.021790e-01
-3.325391e-01 5.195808e+00 -2.619615e+01 2.849672e+01 -2.142361e-06 8.644068e-03 -2.692413e-01 2.063141e-01
-3.432036e-01 5.207257e+00 -2.621008e+01 2.851532e+01 6.877934e-06 8.736251e-03 -2.695312e-01 2.023468e-01
-3.295078e-01 5.203292e+00 -2.619263e+01 2.849297e+01 -3.151405e-06 8.615887e-03 -2.701263e-01 2.063141e-01
-3.443515e-01 5.211326e+00 -2.619319e+01 2.849042e+01 3.531764e-06 8.735818e-03 -2.702026e-01 2.093964e-01
-3.210659e-01 5.202632e+00 -2.619368e+01 2.848563e+01 3.517673e-07 8.588496e-03 -2.705688e-01 2.093964e-01
-3.293373e-01 5.211992e+00 -2.619122e+01 2.847386e+01 -7.311834e-06 8.697574e-03 -2.706909e-01 2.093964e-01
-3.325941e-01 5.199370e+00 -2.617862e+01 2.845789e+01 -2.738040e-06 8.758636e-03 -2.709198e-01 2.093964e-01
-3.381881e-01 5.209011e+00 -2.619322e+01 2.846034e+01 5.672971e-07 8.692856e-03 -2.488098e-01 2.093964e-01
-3.231460e-01 5.213873e+00 -2.619452e+01 2.845221e+01 -2.742120e-06 8.622571e-03 -2.712250e-01 2.093964e-01
-3.326266e-01 5.207518e+00 -2.618466e+01 2.440227e+01 -3.580043e-06 8.662014e-03 -2.716522e-01 2.093964e-01
-3.315276e-01 5.214655e+00 -2.618414e+01 2.842784e+01 -1.398193e-06 8.543491e-03 -2.718201e-01 2.093964e-01
-3.343048e-01 5.212935e+00 -2.438148e+01 2.844130e+01 -5.372409e-06 8.527214e-03 -2.722473e-01 2.093964e-01
-3.255303e-01 5.219340e+00 -2.616902e+01 2.841342e+01 -2.743150e-07 8.535008e-03 -2.722626e-01 2.063141e-01
-3.258666e-01 5.221074e+00 -2.615576e+01 2.839725e+01 -5.146821e-06 8.450345e-03 -2.724304e-01 2.044373e-01
-3.252419e-01 5.219256e+00 -2.614343e+01 2.840886e+01 -2.822347e-06 8.282660e-03 -2.501984e-01 2.093964e-01
-3.305984e-01 5.218124e+00 -2.615332e+01 2.838124e+01 -6.300483e-07 8.381494e-03 -2.546997e-01 2.093964e-01
-3.227175e-01 5.232829e+00 -2.615401e+01 2.838354e+01 -5.578587e-07 8.485584e-03 -2.551880e-01 2.093964e-01
-3.302242e-01 5.235319e+00 -2.616234e+01 2.836931e+01 -2.780522e-06 8.363993e-03 -2.551727e-01 2.052155e-01
-3.319267e-01 5.228034e+00 -2.613062e+01 2.836102e+01 -5.422614e-07 8.563999e-03 -2.670898e-01 2.093964e-01
-3.253902e-01 5.224015e+00 -2.616586e+01 2.834248e+01 -3.451880e-06 8.353774e-03 -2.513885e-01 2.093964e-01
-3.214182e-01 5.222250e+00 -2.614125e+01 2.834914e+01 -7.216068e-06 8.387969e-03 -2.515869e-01 2.093964e-01
-3.329708e-01 5.223002e+00 -2.614647e+01 2.833983e+01 -2.853560e-06 8.328791e-03 -2.517700e-01 2.093964e-01
-3.378139e-01 5.231725e+00 -2.614986e+01 2.834479e+01 -2.116534e-06 8.305083e-03 -2.521667e-01 2.093964e-01
-3.225742e-01 5.226988e+00 -2.615251e+01 2.830911e+01 -2.861407e-06 8.221674e-03 -2.520294e-01 2.093964e-01
-3.293729e-01 5.224833e+00 -2.614038e+01 2.832579e+01 -3.983512e-06 8.334649e-03 -2.523651e-01 2.093964e-01
-3.390698e-01 5.224641e+00 -2.613092e+01 2.830190e+01 -4.695379e-07 8.409354e-03 -2.687531e-01 2.093964e-01
-3.300742e-01 5.230283e+00 -2.613815e+01 2.827596e+01 1.136425e-07 8.406468e-03 -2.529755e-01 2.093964e-01
-3.237095e-01 5.234817e+00 -2.613461e+01 2.828766e+01 -5.534350e-06 8.292609e-03 -2.530518e-01 2.093964e-01
-3.168655e-01 5.235247e+00 -2.612508e+01 2.826483e+01 -1.970677e-06 8.309454e-03 -2.532654e-01 2.093964e-01
-3.256409e-01 5.232109e+00 -2.612944e+01 2.826801e+01 -4.871086e-07 8.163681e-03 -2.534637e-01 2.093964e-01
-3.138877e-01 5.242018e+00 -2.611902e+01 2.824582e+01 -2.769282e-06 8.143927e-03 -2.536621e-01 2.093964e-01
-3.194747e-01 5.238658e+00 -2.611185e+01 2.824390e+01 6.921799e-07 8.125095e-03 -2.536163e-01 2.093964e-01
-3.232608e-01 5.253201e+00 -2.611743e+01 2.821127e+01 -3.419570e-07 8.040636e-03 -2.540131e-01 2.093964e-01
-3.179876e-01 5.255657e+00 -2.609688e+01 2.821394e+01 -1.249714e-06 7.982382e-03 -2.541351e-01 2.093964e-01
-3.251220e-01 5.251690e+00 -2.607639e+01 2.821236e+01 -3.982987e-06 8.099740e-03 -2.542725e-01 2.093964e-01
-3.124190e-01 5.249717e+00 -2.609784e+01 2.821848e+01 -4.901356e-06 8.115808e-03 -2.545319e-01 2.093964e-01
-3.258942e-01 5.238916e+00 -2.608609e+01 2.821150e+01 -3.082533e-06 8.071929e-03 -2.500458e-01 2.093964e-01
-3.294227e-01 5.228016e+00 -2.608530e+01 2.418182e+01 -3.838713e-06 8.066024e-03 -2.550354e-01 2.197571e-01
-3.194717e-01 5.241766e+00 -2.606816e+01 2.818507e+01 -2.959576e-06 8.044940e-03 -2.550354e-01 2.093964e-01
-3.136598e-01 5.257851e+00 -2.608852e+01 2.818138e+01 -7.330892e-06 8.066407e-03 -2.553253e-01 2.093964e-01
-3.190059e-01 5.248002e+00 -2.441025e+01 2.817476e+01 -3.418636e-06 7.985819e-03 -2.505798e-01 2.093964e-01
-3.281579e-01 5.234533e+00 -2.607913e+01 2.815884e+01 -3.035732e-06 8.116727e-03 -2.558136e-01 2.093964e-01
-3.247118e-01 5.255350e+00 -2.608565e+01 2.815472e+01 5.214969e-08 7.931992e-03 -2.512054e-01 2.093964e-01
-3.241461e-01 5.254495e+00 -2.607243e+01 2.814511e+01 -2.632863e-06 8.048877e-03 -2.561646e-01 2.093964e-01
-3.151686e-01 5.244342e+00 -2.608804e+01 2.411017e+01 7.758577e-08 8.028207e-03 -2.563629e-01 2.097321e-01
-3.237401e-01 5.252267e+00 -2.610033e+01 2.812650e+01 -3.662224e-06 7.958484e-03 -2.564545e-01 2.093964e-01
-3.233376e-01 5.259119e+00 -2.606160e+01 2.810910e+01 5.185414e-08 7.864106e-03 -2.568054e-01 2.093964e-01
-3.278521e-01 5.249844e+00 -2.608723e+01 2.810480e+01 -2.141445e-06 7.971744e-03 -2.569275e-01 2.215729e-01
-3.210128e-01 5.254112e+00 -2.608800e+01 2.809554e+01 -2.642597e-06 7.880958e-03 -2.571869e-01 2.104034e-01
-3.281075e-01 5.255645e+00 -2.608008e+01 2.809879e+01 -1.304114e-06 7.947040e-03 -2.572479e-01 2.104492e-01
-3.311486e-01 5.267115e+00 -2.607689e+01 2.808539e+01 -5.229746e-07 7.851911e-03 -2.574005e-01 2.106781e-01
-3.155880e-01 5.254593e+00 -2.606946e+01 2.808734e+01 -1.173244e-06 7.837027e-03 -2.577667e-01 2.093964e-01
-3.187358e-01 5.274123e+00 -2.607718e+01 2.807034e+01 -3.848409e-06 7.765547e-03 -2.579803e-01 2.093964e-01
-3.178442e-01 5.269679e+00 -2.608087e+01 2.808232e+01 -4.783023e-06 7.741421e-03 -2.488708e-01 2.093964e-01
-3.092662e-01 5.275701e+00 -2.443761e+01 2.806326e+01 -3.832830e-06 7.828256e-03 -2.582245e-01 2.093964e-01
-3.232477e-01 5.270587e+00 -2.607082e+01 2.805707e+01 -4.503397e-06 7.830864e-03 -2.585297e-01 2.093964e-01
-3.231456e-01 5.268186e+00 -2.607303e+01 2.804192e+01 -4.306439e-06 7.721758e-03 -2.494965e-01 2.093964e-01
-3.198073e-01 5.280144e+00 -2.607338e+01 2.803674e+01 -1.461984e-06 7.818156e-03 -2.494812e-01 2.093964e-01
-3.118798e-01 5.269237e+00 -2.606642e+01 2.801791e+01 1.952753e-06 7.737185e-03 -2.588654e-01 2.093964e-01
-3.153616e-01 5.278017e+00 -2.605495e+01 2.803935e+01 -1.669276e-06 7.738994e-03 -2.497711e-01 2.093964e-01
-3.344275e-01 5.268624e+00 -2.606595e+01 2.801344e+01 -3.092801e-06 7.808011e-03 -2.502594e-01 2.093964e-01
-3.242155e-01 5.263671e+00 -2.606053e+01 2.802170e+01 -2.808742e-07 7.790451e-03 -2.501526e-01 2.093964e-01
-3.148803e-01 5.276029e+00 -2.605861e+01 2.799492e+01 -1.468762e-06 7.754880e-03 -2.503510e-01 2.093964e-01
-3.092283e-01 5.271943e+00 -2.606546e+01 2.799704e+01 -4.187210e-06 7.721950e-03 -2.504730e-01 2.093964e-01
-3.154851e-01 5.275657e+00 -2.606529e+01 2.797783e+01 -4.813502e-06 7.846724e-03 -2.507629e-01 2.093964e-01
-3.312719e-01 5.282728e+00 -2.606015e+01 2.797728e+01 -5.304081e-06 7.816740e-03 -2.509460e-01 1.943359e-01
-3.206215e-01 5.285195e+00 -2.605893e+01 2.797182e+01 -6.926279e-08 7.534023e-03 -2.510529e-01 2.093964e-01
-3.327086e-01 5.269134e+00 -2.606477e+01 2.796135e+01 9.128865e-07 7.695342e-03 -2.512817e-01 2.093964e-01
-3.097700e-01 5.285047e+00 -2.605435e+01 2.796297e+01 3.089321e-07 7.759480e-03 -2.648773e-01 1.946869e-01
-3.254289e-01 5.283613e+00 -2.605513e+01 2.794073e+01 1.114907e-06 7.677638e-03 -2.517090e-01 2.093964e-01
-3.289131e-01 5.283442e+00 -2.603949e+01 2.389520e+01 6.018951e-07 7.729680e-03 -2.518005e-01 2.093964e-01
-3.129490e-01 5.282882e+00 -2.604973e+01 2.792639e+01 -5.705195e-07 7.650756e-03 -2.519226e-01 2.093964e-01
-3.190021e-01 5.268053e+00 -2.604718e+01 2.388538e+01 -2.534456e-06 7.729071e-03 -2.522430e-01 2.093964e-01
-3.196332e-01 5.285520e+00 -2.604353e+01 2.791797e+01 -4.101482e-06 7.839464e-03 -2.522125e-01 2.093964e-01
-3.104825e-01 5.293850e+00 -2.605516e+01 2.792030e+01 -4.398259e-06 7.833058e-03 -2.525482e-01 2.093964e-01
-3.273680e-01 5.297120e+00 -2.604478e+01 2.791103e+01 -3.792503e-06 7.811981e-03 -2.525787e-01 2.093964e-01
-3.219988e-01 5.286396e+00 -2.605556e+01 2.790826e+01 -2.502031e-06 7.667913e-03 -2.526550e-01 2.063141e-01
-3.233166e-01 5.271937e+00 -2.604219e+01 2.789503e+01 -6.340821e-06 7.623133e-03 -2.527771e-01 2.093964e-01
-3.168837e-01 5.290671e+00 -2.603822e+01 2.789104e+01 -6.302771e-07 7.664442e-03 -2.530670e-01 2.063141e-01
-3.129108e-01 5.290797e+00 -2.604004e+01 2.789311e+01 -1.269516e-06 7.669618e-03 -2.530975e-01 2.093964e-01
-3.245320e-01 5.290194e+00 -2.602182e+01 2.386171e+01 -1.417175e-06 7.652876e-03 -2.543488e-01 2.063141e-01
-3.120614e-01 5.298620e+00 -2.603723e+01 2.787361e+01 8.277214e-07 7.694171e-03 -2.534637e-01 2.063141e-01
-3.256426e-01 5.286228e+00 -2.603145e+01 2.784435e+01 2.346355e-07 7.710986e-03 -2.547455e-01 2.063141e-01
-3.261776e-01 5.302617e+00 -2.602174e+01 2.785284e+01 -1.966844e-06 7.660159e-03 -2.548218e-01 2.063141e-01
-3.051239e-01 5.311189e+00 -2.601576e+01 2.785413e+01 -4.008919e-06 7.682206e-03 -2.549286e-01 2.063141e-01
-3.232410e-01 5.306489e+00 -2.602711e+01 2.784746e+01 -4.944820e-06 7.668492e-03 -2.551575e-01 2.063141e-01
-3.053871e-01 5.303820e+00 -2.601476e+01 2.784061e+01 -2.085539e-06 7.550763e-03 -2.544403e-01 2.063141e-01
-3.168101e-01 5.307274e+00 -2.602585e+01 2.782285e+01 -4.853439e-06 7.590981e-03 -2.545013e-01 2.063141e-01
-3.195871e-01 5.298337e+00 -2.602979e+01 2.782352e+01 -6.616432e-09 7.605681e-03 -2.545776e-01 2.063141e-01
-2.963733e-01 5.294944e+00 -2.457419e+01 2.780373e+01 -1.027740e-06 7.608028e-03 -2.548065e-01 2.063141e-01
-3.114378e-01 5.317565e+00 -2.601711e+01 2.781404e+01 -7.350341e-06 7.520647e-03 -2.547760e-01 2.063141e-01
-3.131971e-01 5.300700e+00 -2.602260e+01 2.779582e+01 -5.870901e-06 7.600344e-03 -2.562256e-01 2.063141e-01
-3.169311e-01 5.302761e+00 -2.603035e+01 2.777599e+01 -1.859418e-06 7.477229e-03 -2.563782e-01 2.063141e-01
-3.098663e-01 5.309301e+00 -2.601804e+01 2.375230e+01 -3.383218e-06 7.559510e-03 -2.553406e-01 2.063141e-01
-3.153635e-01 5.307655e+00 -2.601677e+01 2.776616e+01 -1.541247e-06 7.411459e-03 -2.565460e-01 2.063141e-01
-3.224980e-01 5.311075e+00 -2.600630e+01 2.775542e+01 -5.371971e-06 7.615355e-03 -2.568970e-01 2.063141e-01
-3.259609e-01 5.304256e+00 -2.600606e+01 2.373755e+01 -2.826637e-06 7.569169e-03 -2.569885e-01 2.063141e-01
-3.171325e-01 5.309787e+00 -2.602925e+01 2.773274e+01 -5.520431e-06 7.449497e-03 -2.572632e-01 2.063141e-01
-3.225556e-01 5.314710e+00 -2.601457e+01 2.773779e+01 -2.323674e-06 7.595261e-03 -2.573395e-01 2.063141e-01
-3.096566e-01 5.314024e+00 -2.600859e+01 2.772884e+01 3.436588e-06 7.380329e-03 -2.575836e-01 2.063141e-01
-3.098030e-01 5.307102e+00 -2.460777e+01 2.771423e+01 9.993673e-07 7.443249e-03 -2.576447e-01 2.063141e-01
-3.200187e-01 5.318594e+00 -2.596873e+01 2.772810e+01 -4.624152e-06 7.460959e-03 -2.578583e-01 2.063141e-01
-3.028741e-01 5.320332e+00 -2.462071e+01 2.771368e+01 -3.173361e-06 7.393653e-03 -2.581329e-01 2.063141e-01
-3.021984e-01 5.309908e+00 -2.598416e+01 2.771909e+01 -2.490724e-06 7.291769e-03 -2.581482e-01 2.063141e-01
-3.199788e-01 5.314848e+00 -2.598271e+01 2.769606e+01 -1.429531e-06 7.353612e-03 -2.500610e-01 2.063141e-01
-3.143654e-01 5.313412e+00 -2.597681e+01 2.768497e+01 2.052429e-06 7.321203e-03 -2.501678e-01 1.898651e-01
-3.119367e-01 5.318529e+00 -2.596486e+01 2.766675e+01 -2.871331e-06 7.366829e-03 -2.503967e-01 1.898651e-01
-3.140275e-01 5.316580e+00 -2.597701e+01 2.766125e+01 -2.490171e-06 7.320351e-03 -2.505951e-01 2.063141e-01
-3.029686e-01 5.319721e+00 -2.598959e+01 2.765346e+01 -2.970082e-06 7.344815e-03 -2.579498e-01 2.063141e-01
-3.132622e-01 5.318741e+00 -2.598029e+01 2.765599e+01 -4.797447e-06 7.235382e-03 -2.509003e-01 2.063141e-01
-3.004250e-01 5.328825e+00 -2.598204e+01 2.763947e+01 -4.620548e-06 7.294810e-03 -2.583618e-01 2.063141e-01
-3.109017e-01 5.335177e+00 -2.599300e+01 2.763850e+01 -2.407943e-07 7.180078e-03 -2.486115e-01 1.898651e-01
-2.893954e-01 5.328508e+00 -2.599274e+01 2.763174e+01 -5.877441e-06 7.077670e-03 -2.513733e-01 2.063141e-01
-2.988117e-01 5.340137e+00 -2.465495e+01 2.762253e+01 -1.971964e-07 7.242695e-03 -2.516479e-01 2.063141e-01
-3.035628e-01 5.328452e+00 -2.599908e+01 2.760977e+01 2.389810e-06 7.260104e-03 -2.518005e-01 2.063141e-01
-3.034762e-01 5.322335e+00 -2.600533e+01 2.758209e+01 -3.715794e-06 7.214196e-03 -2.518158e-01 1.869354e-01
-3.092794e-01 5.337960e+00 -2.600499e+01 2.757440e+01 -3.939437e-06 7.101050e-03 -2.518158e-01 2.063141e-01
-3.061722e-01 5.331816e+00 -2.600760e+01 2.757184e+01 -4.460915e-06 7.015616e-03 -2.521210e-01 2.063141e-01
-3.085949e-01 5.327634e+00 -2.601685e+01 2.756154e+01 -5.062953e-06 7.187210e-03 -2.522430e-01 2.063141e-01
-3.074309e-01 5.337838e+00 -2.601669e+01 2.756166e+01 -4.686512e-07 7.216955e-03 -2.524414e-01 2.063141e-01
-3.059864e-01 5.333902e+00 -2.601167e+01 2.754916e+01 -3.061130e-06 7.087363e-03 -2.609406e-01 2.063141e-01
-3.101446e-01 5.336436e+00 -2.603349e+01 2.754562e+01 2.764506e-07 7.185632e-03 -2.527008e-01 2.063141e-01
-3.006576e-01 5.331901e+00 -2.602728e+01 2.754826e+01 -2.946915e-06 7.205004e-03 -2.611542e-01 2.063141e-01
-3.160506e-01 5.334664e+00 -2.603326e+01 2.752518e+01 -9.628720e-07 7.051223e-03 -2.530823e-01 2.063751e-01
-3.090116e-01 5.327797e+00 -2.470934e+01 2.752364e+01 1.885492e-06 7.117216e-03 -2.531433e-01 2.064209e-01
-3.079619e-01 5.343742e+00 -2.604349e+01 2.751628e+01 -2.709829e-06 7.068238e-03 -2.533112e-01 2.066193e-01
-2.961432e-01 5.340581e+00 -2.603964e+01 2.751221e+01 2.784507e-06 7.058463e-03 -2.534027e-01 2.066650e-01
-2.975588e-01 5.349424e+00 -2.604211e+01 2.749983e+01 -2.591029e-06 6.989716e-03 -2.620087e-01 2.067108e-01
-3.036699e-01 5.351989e+00 -2.606294e+01 2.750191e+01 -3.707643e-06 7.008702e-03 -2.619934e-01 2.063141e-01
-3.078844e-01 5.348863e+00 -2.605434e+01 2.748645e+01 1.785102e-06 7.044082e-03 -2.539368e-01 2.070923e-01
-3.079253e-01 5.346589e+00 -2.604831e+01 2.748325e+01 -4.164348e-06 7.099761e-03 -2.539978e-01 2.063141e-01
-2.987808e-01 5.350560e+00 -2.606747e+01 2.746373e+01 1.747310e-06 6.988381e-03 -2.541656e-01 2.073364e-01
-2.973669e-01 5.351961e+00 -2.605460e+01 2.746710e+01 -3.176297e-06 7.048849e-03 -2.542572e-01 2.073669e-01
-2.957502e-01 5.350206e+00 -2.606422e+01 2.746910e+01 -7.791469e-07 6.949365e-03 -2.543945e-01 2.074890e-01
-3.044833e-01 5.365244e+00 -2.606653e+01 2.746442e+01 3.653052e-07 6.814344e-03 -2.544556e-01 2.075500e-01
-3.084906e-01 5.358531e+00 -2.607439e+01 2.746083e+01 -3.035989e-06 6.959396e-03 -2.524719e-01 2.077484e-01
-3.085818e-01 5.353370e+00 -2.607556e+01 2.746432e+01 -5.888253e-06 7.034172e-03 -2.526550e-01 2.079926e-01
-2.926116e-01 5.358601e+00 -2.608614e+01 2.745131e+01 9.739216e-07 6.900670e-03 -2.527313e-01 2.079315e-01
-3.004659e-01 5.361074e+00 -2.608125e+01 2.743172e+01 -6.308148e-06 6.899985e-03 -2.551727e-01 2.081604e-01
-3.081678e-01 5.362786e+00 -2.609583e+01 2.368394e+01 -2.022188e-06 6.668058e-03 -2.551727e-01 2.082520e-01
-2.982715e-01 5.343746e+00 -2.609627e+01 2.743431e+01 -9.029904e-07 7.047436e-03 -2.552643e-01 2.083588e-01
-2.929155e-01 5.361008e+00 -2.609921e+01 2.742928e+01 -2.179504e-06 7.024861e-03 -2.533417e-01 2.085266e-01
-2.950077e-01 5.368102e+00 -2.611168e+01 2.371024e+01 -4.644468e-07 6.939128e-03 -2.557220e-01 2.086029e-01
-3.041828e-01 5.360373e+00 -2.611636e+01 2.742378e+01 -5.565554e-06 6.703886e-03 -2.559509e-01 2.087097e-01
-2.958422e-01 5.359306e+00 -2.611815e+01 2.740453e+01 -8.004834e-07 6.847063e-03 -2.560425e-01 2.088165e-01
-2.855569e-01 5.357926e+00 -2.611780e+01 2.740491e+01 -2.798188e-06 6.845216e-03 -2.561035e-01 2.089386e-01
-3.019995e-01 5.373179e+00 -2.612027e+01 2.739424e+01 -5.146354e-06 6.810957e-03 -2.561493e-01 2.091370e-01
-2.906669e-01 5.365065e+00 -2.612140e+01 2.738618e+01 -1.793701e-06 6.907250e-03 -2.564240e-01 2.092438e-01
-3.091099e-01 5.352773e+00 -2.613719e+01 2.738089e+01 -4.536336e-06 6.885925e-03 -2.566528e-01 2.093658e-01
-3.058655e-01 5.371694e+00 -2.614143e+01 2.737723e+01 -2.346965e-06 6.668575e-03 -2.568512e-01 2.094727e-01
-3.029085e-01 5.371689e+00 -2.614688e+01 2.737578e+01 -4.908449e-06 6.537739e-03 -2.568207e-01 2.063141e-01
-3.007062e-01 5.376584e+00 -2.613940e+01 2.737679e+01 6.917318e-07 6.627003e-03 -2.570648e-01 2.097626e-01
-2.845190e-01 5.364166e+00 -2.614597e+01 2.736647e+01 1.806286e-06 6.562794e-03 -2.570953e-01 2.097778e-01
-2.839631e-01 5.369498e+00 -2.615186e+01 2.736693e+01 -1.614066e-08 6.765822e-03 -2.572479e-01 2.063141e-01
-2.906321e-01 5.362172e+00 -2.615395e+01 2.735806e+01 -1.824457e-06 6.801482e-03 -2.573700e-01 2.100983e-01
