-3.409775e-01 5.460224e+00 -2.659766e+01 2.762500e+01 3.168316e-04 1.427284e-02 -1.914062e-01 1.875000e-01
-3.342682e-01 5.463252e+00 -2.659766e+01 2.762500e+01 3.211029e-04 1.424669e-02 -1.914062e-01 1.875000e-01
-3.143691e-01 5.463890e+00 -2.659766e+01 2.762500e+01 3.268242e-04 1.429733e-02 -1.914062e-01 1.875000e-01
-3.281432e-01 5.451939e+00 -2.659766e+01 2.762500e+01 3.208255e-04 1.432125e-02 -1.914062e-01 1.875000e-01
-3.145249e-01 5.457496e+00 -2.659766e+01 2.762500e+01 3.219090e-04 1.425864e-02 -1.914062e-01 1.875000e-01
-3.247348e-01 5.450132e+00 -2.659766e+01 2.762500e+01 3.197262e-04 1.430566e-02 -1.914062e-01 1.875000e-01
-3.369212e-01 5.437951e+00 -2.659766e+01 2.762500e+01 3.184778e-04 1.429252e-02 -1.914062e-01 1.835938e-01
-3.122609e-01 5.449848e+00 -2.659766e+01 2.762500e+01 3.236600e-04 1.428677e-02 -1.914062e-01 1.875000e-01
-3.296764e-01 5.452931e+00 -2.659766e+01 2.762500e+01 3.186008e-04 1.423463e-02 -1.914062e-01 1.875000e-01
-3.381300e-01 5.456473e+00 -2.659766e+01 2.762500e+01 3.207077e-04 1.429187e-02 -1.914062e-01 1.875000e-01
-3.093111e-01 5.445891e+00 -2.364453e+01 2.762500e+01 3.179674e-04 1.430656e-02 -1.914062e-01 1.875000e-01
-3.436525e-01 5.457354e+00 -2.659766e+01 2.762500e+01 3.190824e-04 1.430544e-02 -1.914062e-01 1.875000e-01
-3.399709e-01 5.451993e+00 -2.659766e+01 2.762500e+01 3.167216e-04 1.426988e-02 -1.914062e-01 1.875000e-01
-3.380850e-01 5.448100e+00 -2.659766e+01 2.491406e+01 3.199225e-04 1.430496e-02 -1.914062e-01 1.875000e-01
-3.285784e-01 5.466952e+00 -2.659766e+01 2.762500e+01 3.256281e-04 1.430579e-02 -1.914062e-01 1.875000e-01
-3.305597e-01 5.446289e+00 -2.659766e+01 2.762500e+01 3.189803e-04 1.429881e-02 -1.914062e-01 1.875000e-01
-3.393232e-01 5.450815e+00 -2.659766e+01 2.491406e+01 3.202445e-04 1.423293e-02 -1.914062e-01 1.875000e-01
-3.298321e-01 5.460326e+00 -2.659766e+01 2.762500e+01 3.209825e-04 1.425664e-02 -1.914062e-01 1.875000e-01
-3.225102e-01 5.470648e+00 -2.659766e+01 2.762500e+01 3.156486e-04 1.417700e-02 -1.914062e-01 1.875000e-01
-3.356068e-01 5.454348e+00 -2.659766e+01 2.762500e+01 3.217284e-04 1.429920e-02 -1.914062e-01 1.875000e-01
-3.288530e-01 5.464005e+00 -2.659766e+01 2.762500e+01 3.184150e-04 1.427836e-02 -1.914062e-01 1.875000e-01
-3.333215e-01 5.462168e+00 -2.659766e+01 2.762500e+01 3.223801e-04 1.429827e-02 -1.914062e-01 1.875000e-01
-3.284486e-01 5.450099e+00 -2.659766e+01 2.491406e+01 3.202523e-04 1.426717e-02 -1.914062e-01 1.875000e-01
-3.224441e-01 5.449911e+00 -2.659766e+01 2.762500e+01 3.189908e-04 1.429942e-02 -1.914062e-01 1.875000e-01
-3.281330e-01 5.463338e+00 -2.659766e+01 2.762500e+01 3.154915e-04 1.427728e-02 -1.914062e-01 1.875000e-01
-3.246444e-01 5.450494e+00 -2.659766e+01 2.762500e+01 3.209616e-04 1.426681e-02 -1.914062e-01 1.875000e-01
-3.184851e-01 5.445119e+00 -2.659766e+01 2.762500e+01 3.210401e-04 1.422580e-02 -1.914062e-01 1.875000e-01
-3.137741e-01 5.460007e+00 -2.659766e+01 2.491406e+01 3.207915e-04 1.428217e-02 -1.914062e-01 1.875000e-01
-3.343795e-01 5.455988e+00 -2.364453e+01 2.762500e+01 3.167295e-04 1.426634e-02 -1.914062e-01 1.875000e-01
-3.428061e-01 5.460380e+00 -2.659766e+01 2.762500e+01 3.108040e-04 1.426637e-02 -1.914062e-01 1.875000e-01
-3.356574e-01 5.454529e+00 -2.659766e+01 2.762500e+01 3.210061e-04 1.432164e-02 -1.914062e-01 1.875000e-01
-3.300289e-01 5.465549e+00 -2.659766e+01 2.762500e+01 3.164913e-04 1.429562e-02 -1.914062e-01 1.875000e-01
-3.320594e-01 5.453117e+00 -2.659766e+01 2.762500e+01 3.249320e-04 1.426657e-02 -1.914062e-01 1.875000e-01
-3.235824e-01 5.456694e+00 -2.364453e+01 2.762500e+01 3.239610e-04 1.426806e-02 -1.875000e-01 1.875000e-01
-3.379112e-01 5.452845e+00 -2.659766e+01 2.762500e+01 3.272063e-04 1.427450e-02 -1.914062e-01 1.875000e-01
-3.111444e-01 5.462485e+00 -2.659766e+01 2.762500e+01 3.279418e-04 1.427997e-02 -1.875000e-01 1.875000e-01
-3.276037e-01 5.454258e+00 -2.659766e+01 2.762500e+01 3.217965e-04 1.427105e-02 -1.914062e-01 1.875000e-01
-3.356013e-01 5.447490e+00 -2.659766e+01 2.762500e+01 3.184385e-04 1.426954e-02 -1.914062e-01 1.875000e-01
-3.307557e-01 5.449953e+00 -2.659766e+01 2.762500e+01 3.245577e-04 1.424921e-02 -1.914062e-01 1.875000e-01
-3.390921e-01 5.444862e+00 -2.659766e+01 2.491406e+01 3.210663e-04 1.430051e-02 -1.875000e-01 1.875000e-01
-3.272467e-01 5.456459e+00 -2.659766e+01 2.491406e+01 3.231339e-04 1.425787e-02 -1.914062e-01 1.875000e-01
-3.326281e-01 5.462484e+00 -2.659766e+01 2.762500e+01 3.205219e-04 1.427755e-02 -1.914062e-01 1.875000e-01
-3.491241e-01 5.457540e+00 -2.659766e+01 2.762500e+01 3.122357e-04 1.423378e-02 -1.914062e-01 1.835938e-01
-3.290945e-01 5.453617e+00 -2.659766e+01 2.762500e+01 3.167897e-04 1.426793e-02 -1.914062e-01 1.875000e-01
-3.139931e-01 5.447498e+00 -2.659766e+01 2.762500e+01 3.237437e-04 1.430646e-02 -1.914062e-01 1.875000e-01
-3.148172e-01 5.464876e+00 -2.659766e+01 2.762500e+01 3.124895e-04 1.428413e-02 -1.914062e-01 1.875000e-01
-3.358951e-01 5.444644e+00 -2.659766e+01 2.762500e+01 3.154444e-04 1.425195e-02 -1.914062e-01 1.875000e-01
-3.406624e-01 5.457340e+00 -2.659766e+01 2.762500e+01 3.161982e-04 1.426242e-02 -1.914062e-01 1.875000e-01
-3.385523e-01 5.458509e+00 -2.659766e+01 2.762500e+01 3.219247e-04 1.426612e-02 -1.914062e-01 1.875000e-01
-3.284882e-01 5.469613e+00 -2.659766e+01 2.762500e+01 3.210558e-04 1.422730e-02 -1.914062e-01 1.875000e-01
-3.191423e-01 5.455999e+00 -2.659766e+01 2.762500e+01 3.203832e-04 1.434235e-02 -1.914062e-01 1.875000e-01
-3.311759e-01 5.460657e+00 -2.659766e+01 2.762500e+01 3.196085e-04 1.433633e-02 -1.914062e-01 1.875000e-01
-3.284889e-01 5.441135e+00 -2.659766e+01 2.762500e+01 3.094195e-04 1.428665e-02 -1.914062e-01 1.875000e-01
-3.171565e-01 5.453286e+00 -2.659766e+01 2.762500e+01 3.185014e-04 1.427827e-02 -1.914062e-01 1.875000e-01
-3.396420e-01 5.454076e+00 -2.659766e+01 2.762500e+01 3.177188e-04 1.427430e-02 -1.914062e-01 1.875000e-01
-3.064654e-01 5.450443e+00 -2.659766e+01 2.762500e+01 3.264238e-04 1.428241e-02 -1.914062e-01 1.875000e-01
-3.292412e-01 5.462413e+00 -2.659766e+01 2.762500e+01 3.167687e-04 1.425798e-02 -1.914062e-01 1.875000e-01
-3.368842e-01 5.462873e+00 -2.659766e+01 2.762500e+01 3.184255e-04 1.427345e-02 -1.914062e-01 1.875000e-01
-3.311821e-01 5.470856e+00 -2.659766e+01 2.762500e+01 3.252486e-04 1.428868e-02 -1.914062e-01 1.875000e-01
-3.230109e-01 5.477178e+00 -2.659766e+01 2.762500e+01 3.190484e-04 1.422080e-02 -1.914062e-01 1.875000e-01
-3.119796e-01 5.457278e+00 -2.354688e+01 2.762500e+01 3.210898e-04 1.426642e-02 -1.914062e-01 1.875000e-01
-3.424794e-01 5.455460e+00 -2.659766e+01 2.762500e+01 3.280570e-04 1.429872e-02 -1.914062e-01 1.875000e-01
-3.374046e-01 5.458519e+00 -2.659766e+01 2.762500e+01 3.219797e-04 1.424355e-02 -1.914062e-01 1.875000e-01
-3.206520e-01 5.453546e+00 -2.659766e+01 2.762500e+01 3.250550e-04 1.432475e-02 -1.914062e-01 1.875000e-01
-3.331989e-01 5.449042e+00 -2.659766e+01 2.762500e+01 3.224429e-04 1.425757e-02 -1.914062e-01 1.835938e-01
-3.242860e-01 5.463265e+00 -2.659766e+01 2.762500e+01 3.231575e-04 1.425720e-02 -1.914062e-01 1.835938e-01
-3.347656e-01 5.463074e+00 -2.659766e+01 2.762500e+01 3.191138e-04 1.427779e-02 -1.914062e-01 1.875000e-01
-3.168909e-01 5.448487e+00 -2.659766e+01 2.762500e+01 3.195352e-04 1.427324e-02 -1.875000e-01 1.875000e-01
-3.333558e-01 5.462169e+00 -2.659766e+01 2.762500e+01 3.160778e-04 1.423032e-02 -1.914062e-01 1.875000e-01
-3.183797e-01 5.462926e+00 -2.659766e+01 2.762500e+01 3.195090e-04 1.424020e-02 -1.914062e-01 1.875000e-01
-3.147105e-01 5.453602e+00 -2.659766e+01 2.762500e+01 3.203753e-04 1.428893e-02 -1.914062e-01 1.835938e-01
-3.164197e-01 5.462615e+00 -2.659766e+01 2.762500e+01 3.236259e-04 1.430617e-02 -1.914062e-01 1.875000e-01
-3.351108e-01 5.456115e+00 -2.659766e+01 2.762500e+01 3.176167e-04 1.425446e-02 -1.914062e-01 1.875000e-01
-3.222481e-01 5.428541e+00 -2.659766e+01 2.762500e+01 3.246257e-04 1.426838e-02 -1.914062e-01 1.875000e-01
-3.381120e-01 5.457639e+00 -2.659766e+01 2.762500e+01 3.168446e-04 1.428124e-02 -1.914062e-01 1.875000e-01
-3.193407e-01 5.460568e+00 -2.659766e+01 2.762500e+01 3.213960e-04 1.422220e-02 -1.914062e-01 1.875000e-01
-3.229247e-01 5.464404e+00 -2.364453e+01 2.762500e+01 3.188390e-04 1.424719e-02 -1.914062e-01 1.875000e-01
-3.281520e-01 5.460566e+00 -2.659766e+01 2.762500e+01 3.188468e-04 1.427015e-02 -1.914062e-01 1.875000e-01
-3.132183e-01 5.441998e+00 -2.364453e+01 2.762500e+01 3.166536e-04 1.428012e-02 -1.914062e-01 1.875000e-01
-3.324571e-01 5.452829e+00 -2.659766e+01 2.762500e+01 3.207208e-04 1.427812e-02 -1.914062e-01 1.875000e-01
-3.263459e-01 5.452395e+00 -2.364453e+01 2.762500e+01 3.185773e-04 1.429319e-02 -1.914062e-01 1.875000e-01
-3.232680e-01 5.437510e+00 -2.659766e+01 2.762500e+01 3.201424e-04 1.426727e-02 -1.914062e-01 1.875000e-01
-3.324796e-01 5.453637e+00 -2.659766e+01 2.762500e+01 3.210061e-04 1.424980e-02 -1.914062e-01 1.875000e-01
-3.089105e-01 5.460736e+00 -2.659766e+01 2.762500e+01 3.199853e-04 1.430102e-02 -1.914062e-01 1.875000e-01
-3.192356e-01 5.466207e+00 -2.659766e+01 2.762500e+01 3.245708e-04 1.427035e-02 -1.914062e-01 1.875000e-01
-3.257353e-01 5.454833e+00 -2.659766e+01 2.762500e+01 3.140311e-04 1.424897e-02 -1.914062e-01 1.875000e-01
-3.240580e-01 5.471105e+00 -2.659766e+01 2.762500e+01 3.255287e-04 1.428623e-02 -1.914062e-01 1.875000e-01
-3.337244e-01 5.455486e+00 -2.659766e+01 2.762500e+01 3.175670e-04 1.424546e-02 -1.914062e-01 1.835938e-01
-3.382685e-01 5.460794e+00 -2.659766e+01 2.762500e+01 3.172215e-04 1.422751e-02 -1.914062e-01 1.875000e-01
-3.425724e-01 5.443282e+00 -2.659766e+01 2.762500e+01 3.175094e-04 1.425127e-02 -1.914062e-01 1.875000e-01
-3.213918e-01 5.458837e+00 -2.659766e+01 2.762500e+01 3.208412e-04 1.428352e-02 -1.914062e-01 1.875000e-01
-3.270296e-01 5.450091e+00 -2.659766e+01 2.762500e+01 3.166719e-04 1.427844e-02 -1.914062e-01 1.875000e-01
-3.283902e-01 5.453512e+00 -2.659766e+01 2.762500e+01 3.220634e-04 1.425745e-02 -1.914062e-01 1.835938e-01
-3.194157e-01 5.456715e+00 -2.659766e+01 2.762500e+01 3.184228e-04 1.427469e-02 -1.914062e-01 1.875000e-01
-3.193935e-01 5.459909e+00 -2.659766e+01 2.762500e+01 3.216787e-04 1.430906e-02 -1.914062e-01 1.875000e-01
-3.294799e-01 5.456930e+00 -2.364453e+01 2.762500e+01 3.206946e-04 1.429516e-02 -1.914062e-01 1.875000e-01
-3.208714e-01 5.453697e+00 -2.659766e+01 2.762500e+01 3.183731e-04 1.429741e-02 -1.914062e-01 1.875000e-01
-3.195580e-01 5.443916e+00 -2.659766e+01 2.762500e+01 3.272378e-04 1.428684e-02 -1.914062e-01 1.875000e-01
-3.314425e-01 5.443707e+00 -2.659766e+01 2.762500e+01 3.199094e-04 1.431361e-02 -1.914062e-01 1.875000e-01
-3.194086e-01 5.453642e+00 -2.659766e+01 2.762500e+01 3.215426e-04 1.430493e-02 -1.914062e-01 1.835938e-01
