1.982103e-01 9.249265e-01 -1.916260e+00 2.199219e+00 -2.107389e-03 2.975017e-02 -1.718750e-01 8.374023e-02
1.859164e-01 9.166657e-01 -1.916260e+00 2.395752e+00 -2.083230e-03 2.956712e-02 -1.718750e-01 8.374023e-02
1.939158e-01 9.233427e-01 -1.916260e+00 2.327637e+00 -2.133668e-03 2.960001e-02 -1.718750e-01 8.374023e-02
1.857652e-01 9.214963e-01 -1.916260e+00 2.471924e+00 -2.092394e-03 2.964961e-02 -1.718750e-01 8.374023e-02
1.921667e-01 9.192985e-01 -1.916260e+00 2.471924e+00 -2.104969e-03 2.942882e-02 -1.718750e-01 8.374023e-02
1.905251e-01 9.213508e-01 -1.916260e+00 2.471924e+00 -2.109480e-03 2.966190e-02 -1.718750e-01 8.374023e-02
1.946253e-01 9.191947e-01 -1.916260e+00 2.327637e+00 -2.197153e-03 2.961164e-02 -1.718750e-01 8.374023e-02
1.968858e-01 9.293412e-01 -1.916260e+00 2.395752e+00 -2.158365e-03 3.007122e-02 -1.718750e-01 8.374023e-02
2.090205e-01 9.320495e-01 -1.916260e+00 2.395752e+00 -2.218543e-03 2.962107e-02 -1.718750e-01 8.374023e-02
1.872853e-01 9.217625e-01 -1.916260e+00 2.327637e+00 -2.142861e-03 2.959721e-02 -1.718750e-01 8.374023e-02
1.970883e-01 9.248707e-01 -1.916260e+00 2.271240e+00 -2.139376e-03 2.994726e-02 -1.718750e-01 8.374023e-02
1.896745e-01 9.189914e-01 -1.916260e+00 2.471924e+00 -2.206402e-03 2.975698e-02 -1.718750e-01 8.374023e-02
1.896049e-01 9.239323e-01 -1.916260e+00 2.395752e+00 -2.181800e-03 2.974658e-02 -1.718750e-01 8.374023e-02
1.933146e-01 9.307549e-01 -1.916260e+00 2.327637e+00 -2.100231e-03 2.996297e-02 -1.718750e-01 8.374023e-02
1.949409e-01 9.210592e-01 -1.916260e+00 2.471924e+00 -2.135298e-03 2.940846e-02 -1.718750e-01 8.374023e-02
2.059033e-01 9.255283e-01 -1.906006e+00 2.471924e+00 -2.229224e-03 2.957825e-02 -1.718750e-01 8.374023e-02
1.924688e-01 9.204025e-01 -1.916260e+00 2.471924e+00 -2.142042e-03 2.935091e-02 -1.718750e-01 8.374023e-02
1.988729e-01 9.289173e-01 -1.916260e+00 2.199219e+00 -2.089173e-03 2.988296e-02 -1.718750e-01 8.374023e-02
1.972646e-01 9.247597e-01 -1.916260e+00 2.395752e+00 -2.167417e-03 2.975860e-02 -1.718750e-01 8.374023e-02
1.822445e-01 9.193851e-01 -1.916260e+00 2.471924e+00 -2.022317e-03 2.988123e-02 -1.718750e-01 8.374023e-02
1.952171e-01 9.214495e-01 -1.916260e+00 2.471924e+00 -2.059070e-03 2.947092e-02 -1.718750e-01 8.374023e-02
1.841114e-01 9.197892e-01 -1.916260e+00 2.471924e+00 -2.213890e-03 2.968670e-02 -1.718750e-01 8.374023e-02
1.971867e-01 9.220425e-01 -1.916260e+00 2.471924e+00 -2.095540e-03 2.974019e-02 -1.718750e-01 8.374023e-02
1.981884e-01 9.280503e-01 -1.916260e+00 2.471924e+00 -2.150858e-03 2.980674e-02 -1.718750e-01 8.374023e-02
1.915104e-01 9.266496e-01 -1.916260e+00 2.471924e+00 -2.183975e-03 2.974569e-02 -1.718750e-01 8.374023e-02
1.884543e-01 9.248027e-01 -1.916260e+00 2.327637e+00 -2.148579e-03 2.973580e-02 -1.718750e-01 8.374023e-02
1.904563e-01 9.261751e-01 -1.916260e+00 2.471924e+00 -2.136457e-03 2.965140e-02 -1.718750e-01 8.374023e-02
1.959825e-01 9.301055e-01 -1.916260e+00 2.471924e+00 -2.156783e-03 2.999474e-02 -1.718750e-01 8.374023e-02
1.882710e-01 9.232406e-01 -1.916260e+00 2.471924e+00 -2.066812e-03 2.953469e-02 -1.718750e-01 8.374023e-02
1.854653e-01 9.172977e-01 -1.916260e+00 2.232910e+00 -2.080649e-03 2.967783e-02 -1.718750e-01 8.374023e-02
1.935366e-01 9.228149e-01 -1.916260e+00 2.395752e+00 -2.165184e-03 2.958407e-02 -1.718750e-01 8.374023e-02
1.863164e-01 9.297948e-01 -1.916260e+00 2.395752e+00 -2.117882e-03 3.006079e-02 -1.718750e-01 8.374023e-02
1.999482e-01 9.263692e-01 -1.916260e+00 2.327637e+00 -2.220220e-03 2.975960e-02 -1.718750e-01 8.374023e-02
1.852919e-01 9.200620e-01 -1.904785e+00 2.471924e+00 -2.118899e-03 2.946903e-02 -1.718750e-01 8.374023e-02
1.895943e-01 9.191232e-01 -1.916260e+00 2.471924e+00 -2.151216e-03 2.960617e-02 -1.718750e-01 8.374023e-02
1.994662e-01 9.219875e-01 -1.916260e+00 2.471924e+00 -2.130381e-03 2.968000e-02 -1.718750e-01 8.374023e-02
1.847920e-01 9.226348e-01 -1.916260e+00 2.471924e+00 -2.144152e-03 2.976952e-02 -1.718750e-01 8.374023e-02
1.838692e-01 9.191980e-01 -1.916260e+00 2.471924e+00 -2.227708e-03 2.955049e-02 -1.718750e-01 8.374023e-02
1.888524e-01 9.197653e-01 -1.916260e+00 2.327637e+00 -2.188685e-03 2.952628e-02 -1.718750e-01 8.374023e-02
1.869730e-01 9.132020e-01 -1.916260e+00 2.327637e+00 -2.090388e-03 2.941263e-02 -1.718750e-01 8.374023e-02
1.939303e-01 9.260226e-01 -1.916260e+00 2.395752e+00 -2.128667e-03 2.996178e-02 -1.718750e-01 8.374023e-02
1.968985e-01 9.226651e-01 -1.916260e+00 2.471924e+00 -2.128526e-03 2.974696e-02 -1.718750e-01 8.374023e-02
1.928856e-01 9.187955e-01 -1.916260e+00 2.395752e+00 -2.221548e-03 2.966723e-02 -1.718750e-01 8.374023e-02
1.903869e-01 9.259678e-01 -1.916260e+00 2.395752e+00 -2.112466e-03 2.958564e-02 -1.718750e-01 8.374023e-02
1.922520e-01 9.219206e-01 -1.916260e+00 2.395752e+00 -2.168265e-03 2.955671e-02 -1.718750e-01 8.374023e-02
1.864868e-01 9.200748e-01 -1.916260e+00 2.199219e+00 -2.040006e-03 2.968728e-02 -1.718750e-01 8.374023e-02
2.018177e-01 9.271689e-01 -1.916260e+00 2.471924e+00 -2.170553e-03 2.975346e-02 -1.718750e-01 8.374023e-02
1.916081e-01 9.226353e-01 -1.916260e+00 2.471924e+00 -2.134884e-03 2.973318e-02 -1.718750e-01 8.374023e-02
1.942444e-01 9.259693e-01 -1.916260e+00 2.199219e+00 -2.161002e-03 3.013679e-02 -1.718750e-01 8.374023e-02
1.901131e-01 9.261190e-01 -1.916260e+00 2.327637e+00 -2.086828e-03 2.990438e-02 -1.718750e-01 8.374023e-02
1.967783e-01 9.339892e-01 -1.916260e+00 2.271240e+00 -2.126774e-03 2.980187e-02 -1.718750e-01 8.374023e-02
1.911112e-01 9.216711e-01 -1.916260e+00 2.395752e+00 -2.275509e-03 2.968476e-02 -1.718750e-01 8.374023e-02
1.915572e-01 9.253980e-01 -1.916260e+00 2.471924e+00 -2.205441e-03 2.970318e-02 -1.718750e-01 8.374023e-02
1.859305e-01 9.186539e-01 -1.916260e+00 2.395752e+00 -2.127056e-03 2.955461e-02 -1.718750e-01 8.374023e-02
1.894948e-01 9.228883e-01 -1.916260e+00 2.327637e+00 -2.102454e-03 2.948933e-02 -1.718750e-01 8.374023e-02
1.917151e-01 9.251732e-01 -1.916260e+00 2.395752e+00 -2.123053e-03 2.987038e-02 -1.718750e-01 8.374023e-02
1.955792e-01 9.298765e-01 -1.916260e+00 2.471924e+00 -2.170497e-03 2.991527e-02 -1.718750e-01 8.374023e-02
1.880234e-01 9.242338e-01 -1.916260e+00 2.327637e+00 -2.130212e-03 2.977938e-02 -1.718750e-01 8.374023e-02
1.873021e-01 9.181132e-01 -1.916260e+00 2.395752e+00 -2.096322e-03 2.944543e-02 -1.718750e-01 8.374023e-02
1.966151e-01 9.209660e-01 -1.916260e+00 2.395752e+00 -2.093214e-03 2.962495e-02 -1.718750e-01 8.374023e-02
1.912057e-01 9.256170e-01 -1.916260e+00 2.395752e+00 -2.109339e-03 3.004090e-02 -1.718750e-01 8.374023e-02
2.058645e-01 9.277650e-01 -1.916260e+00 2.471924e+00 -2.167558e-03 2.954329e-02 -1.718750e-01 8.374023e-02
1.949446e-01 9.238831e-01 -1.916260e+00 2.471924e+00 -2.097763e-03 2.953153e-02 -1.718750e-01 8.374023e-02
1.946406e-01 9.220020e-01 -1.916260e+00 2.395752e+00 -2.016383e-03 2.955715e-02 -1.718750e-01 8.374023e-02
1.954261e-01 9.237787e-01 -1.916260e+00 2.395752e+00 -2.116356e-03 2.976512e-02 -1.718750e-01 8.374023e-02
1.962457e-01 9.287815e-01 -1.916260e+00 2.471924e+00 -2.165599e-03 2.988433e-02 -1.718750e-01 8.374023e-02
1.889730e-01 9.246411e-01 -1.916260e+00 2.137451e+00 -2.152610e-03 2.969062e-02 -1.718750e-01 8.374023e-02
1.920251e-01 9.248094e-01 -1.916260e+00 2.395752e+00 -2.141420e-03 2.972292e-02 -1.718750e-01 8.374023e-02
2.004696e-01 9.217527e-01 -1.916260e+00 2.471924e+00 -2.256963e-03 2.956736e-02 -1.718750e-01 8.374023e-02
1.791146e-01 9.193878e-01 -1.916260e+00 2.327637e+00 -2.101766e-03 2.966994e-02 -1.718750e-01 8.374023e-02
1.923470e-01 9.236209e-01 -1.916260e+00 2.232910e+00 -2.138472e-03 2.984639e-02 -1.718750e-01 8.374023e-02
1.858009e-01 9.228543e-01 -1.916260e+00 2.471924e+00 -2.156886e-03 2.957756e-02 -1.718750e-01 8.374023e-02
1.960713e-01 9.313692e-01 -1.916260e+00 2.395752e+00 -2.258866e-03 2.986255e-02 -1.718750e-01 8.374023e-02
1.903435e-01 9.158655e-01 -1.916260e+00 2.471924e+00 -2.129279e-03 2.930826e-02 -1.718750e-01 8.374023e-02
1.910320e-01 9.233695e-01 -1.916260e+00 2.471924e+00 -2.034241e-03 2.955281e-02 -1.718750e-01 8.374023e-02
1.973447e-01 9.250623e-01 -1.916260e+00 2.327637e+00 -2.139631e-03 2.933221e-02 -1.718750e-01 8.374023e-02
2.032461e-01 9.279107e-01 -1.916260e+00 2.471924e+00 -2.181329e-03 2.982970e-02 -1.718750e-01 8.374023e-02
1.833917e-01 9.186481e-01 -1.916260e+00 2.395752e+00 -2.194431e-03 2.941606e-02 -1.718750e-01 8.374023e-02
1.852819e-01 9.139238e-01 -1.916260e+00 2.471924e+00 -2.061359e-03 2.942945e-02 -1.718750e-01 8.374023e-02
1.991706e-01 9.290377e-01 -1.904785e+00 2.327637e+00 -2.097104e-03 3.012403e-02 -1.718750e-01 8.374023e-02
1.870209e-01 9.149215e-01 -1.916260e+00 2.395752e+00 -2.126237e-03 2.942767e-02 -1.718750e-01 8.374023e-02
1.815019e-01 9.222026e-01 -1.916260e+00 2.327637e+00 -2.117138e-03 2.990184e-02 -1.718750e-01 8.374023e-02
1.819206e-01 9.203764e-01 -1.916260e+00 2.471924e+00 -2.098394e-03 2.981333e-02 -1.718750e-01 8.374023e-02
1.805263e-01 9.192110e-01 -1.916260e+00 2.327637e+00 -2.083145e-03 2.989249e-02 -1.718750e-01 8.374023e-02
1.939077e-01 9.207988e-01 -1.916260e+00 2.327637e+00 -2.066907e-03 2.966039e-02 -1.718750e-01 8.374023e-02
1.835893e-01 9.232233e-01 -1.916260e+00 2.471924e+00 -2.077418e-03 2.973327e-02 -1.718750e-01 8.374023e-02
1.958908e-01 9.241374e-01 -1.916260e+00 2.471924e+00 -2.147053e-03 2.961314e-02 -1.718750e-01 8.374023e-02
2.003434e-01 9.240734e-01 -1.916260e+00 2.471924e+00 -2.142588e-03 2.961493e-02 -1.718750e-01 8.374023e-02
1.865473e-01 9.209684e-01 -1.916260e+00 2.471924e+00 -2.046919e-03 2.979936e-02 -1.718750e-01 8.374023e-02
1.983375e-01 9.237171e-01 -1.916260e+00 2.471924e+00 -2.133932e-03 2.951390e-02 -1.718750e-01 8.374023e-02
1.833013e-01 9.203154e-01 -1.916260e+00 2.395752e+00 -2.088410e-03 2.953356e-02 -1.718750e-01 8.374023e-02
1.893986e-01 9.236558e-01 -1.916260e+00 2.395752e+00 -2.128253e-03 2.980964e-02 -1.718750e-01 8.374023e-02
1.920611e-01 9.242164e-01 -1.916260e+00 2.395752e+00 -2.124391e-03 2.974196e-02 -1.718750e-01 8.374023e-02
1.952930e-01 9.218653e-01 -1.916260e+00 2.327637e+00 -2.111166e-03 2.957750e-02 -1.718750e-01 8.374023e-02
1.937476e-01 9.285398e-01 -1.916260e+00 2.471924e+00 -2.117892e-03 2.993652e-02 -1.718750e-01 8.374023e-02
1.935871e-01 9.273637e-01 -1.916260e+00 2.271240e+00 -2.134714e-03 3.021128e-02 -1.718750e-01 8.374023e-02
1.948843e-01 9.252217e-01 -1.916260e+00 2.471924e+00 -2.134384e-03 2.979619e-02 -1.718750e-01 8.374023e-02
1.858382e-01 9.302837e-01 -1.916260e+00 2.395752e+00 -2.050470e-03 2.990788e-02 -1.718750e-01 8.374023e-02
2.005781e-01 9.283424e-01 -1.916260e+00 2.199219e+00 -2.183457e-03 2.976023e-02 -1.718750e-01 8.374023e-02
1.934394e-01 9.229305e-01 -1.911133e+00 2.471924e+00 -2.070994e-03 2.970646e-02 -1.718750e-01 8.374023e-02
1.865364e-01 9.220578e-01 -1.916260e+00 2.271240e+00 -2.117289e-03 2.993044e-02 -1.718750e-01 8.374023e-02
1.945683e-01 9.199376e-01 -1.916260e+00 2.471924e+00 -2.137822e-03 2.950608e-02 -1.718750e-01 8.374023e-02
1.923590e-01 9.258301e-01 -1.916260e+00 2.471924e+00 -2.074366e-03 2.981714e-02 -1.718750e-01 8.374023e-02
1.797311e-01 9.099339e-01 -1.916260e+00 2.471924e+00 -2.046590e-03 2.938670e-02 -1.718750e-01 8.374023e-02
1.946801e-01 9.248964e-01 -1.911133e+00 2.271240e+00 -2.102143e-03 2.971865e-02 -1.718750e-01 8.374023e-02
1.937687e-01 9.226109e-01 -1.916260e+00 2.395752e+00 -2.121245e-03 2.964141e-02 -1.718750e-01 8.374023e-02
1.943955e-01 9.209736e-01 -1.916260e+00 2.395752e+00 -2.139254e-03 2.938862e-02 -1.718750e-01 8.374023e-02
1.882009e-01 9.189764e-01 -1.906006e+00 2.471924e+00 -2.183768e-03 2.947746e-02 -1.718750e-01 8.374023e-02
2.005288e-01 9.244947e-01 -1.916260e+00 2.471924e+00 -2.122535e-03 2.969519e-02 -1.718750e-01 8.374023e-02
1.904848e-01 9.175233e-01 -1.904785e+00 2.471924e+00 -2.116093e-03 2.931121e-02 -1.718750e-01 8.374023e-02
1.959713e-01 9.256065e-01 -1.916260e+00 2.471924e+00 -2.187856e-03 2.961714e-02 -1.718750e-01 8.374023e-02
1.943548e-01 9.277700e-01 -1.916260e+00 2.471924e+00 -2.227030e-03 3.011746e-02 -1.718750e-01 8.374023e-02
1.903195e-01 9.216585e-01 -1.916260e+00 2.327637e+00 -2.167247e-03 2.981759e-02 -1.718750e-01 8.374023e-02
1.813842e-01 9.182888e-01 -1.916260e+00 2.327637e+00 -2.170431e-03 2.964979e-02 -1.718750e-01 8.374023e-02
1.874561e-01 9.173155e-01 -1.916260e+00 2.327637e+00 -2.038075e-03 2.938787e-02 -1.718750e-01 8.374023e-02
1.931245e-01 9.282485e-01 -1.916260e+00 2.471924e+00 -2.054106e-03 2.997496e-02 -1.718750e-01 8.374023e-02
1.914789e-01 9.232694e-01 -1.916260e+00 2.471924e+00 -2.094655e-03 2.970974e-02 -1.718750e-01 8.374023e-02
2.035930e-01 9.282988e-01 -1.916260e+00 2.395752e+00 -2.110187e-03 2.970900e-02 -1.718750e-01 8.374023e-02
1.943771e-01 9.229176e-01 -1.916260e+00 2.471924e+00 -2.054634e-03 2.960415e-02 -1.718750e-01 8.374023e-02
1.933112e-01 9.222312e-01 -1.916260e+00 2.471924e+00 -2.104978e-03 2.975943e-02 -1.718750e-01 8.374023e-02
1.928877e-01 9.178474e-01 -1.916260e+00 2.327637e+00 -2.086404e-03 2.943490e-02 -1.718750e-01 8.374023e-02
1.911998e-01 9.273411e-01 -1.916260e+00 2.395752e+00 -2.087544e-03 2.998897e-02 -1.718750e-01 8.374023e-02
1.943908e-01 9.228495e-01 -1.916260e+00 2.471924e+00 -2.140036e-03 2.977842e-02 -1.718750e-01 8.374023e-02
1.819355e-01 9.200797e-01 -1.916260e+00 2.271240e+00 -2.136052e-03 2.975097e-02 -1.718750e-01 8.374023e-02
1.856586e-01 9.189407e-01 -1.916260e+00 2.395752e+00 -2.138199e-03 2.943651e-02 -1.718750e-01 8.374023e-02
1.952507e-01 9.216825e-01 -1.916260e+00 2.471924e+00 -2.129110e-03 2.967688e-02 -1.718750e-01 8.374023e-02
1.907199e-01 9.202342e-01 -1.916260e+00 2.471924e+00 -2.179643e-03 2.950740e-02 -1.718750e-01 8.374023e-02
2.019401e-01 9.183023e-01 -1.916260e+00 2.199219e+00 -2.109424e-03 2.929867e-02 -1.718750e-01 8.374023e-02
1.951169e-01 9.173857e-01 -1.916260e+00 2.327637e+00 -2.158224e-03 2.938670e-02 -1.718750e-01 8.374023e-02
1.923003e-01 9.238549e-01 -1.916260e+00 2.471924e+00 -2.140818e-03 2.976242e-02 -1.718750e-01 8.374023e-02
1.908230e-01 9.185781e-01 -1.904785e+00 2.471924e+00 -2.154277e-03 2.966756e-02 -1.718750e-01 8.374023e-02
1.883661e-01 9.190691e-01 -1.916260e+00 2.471924e+00 -2.128516e-03 2.967356e-02 -1.718750e-01 8.374023e-02
1.960537e-01 9.237728e-01 -1.916260e+00 2.471924e+00 -2.114218e-03 2.980860e-02 -1.718750e-01 8.374023e-02
1.930611e-01 9.201240e-01 -1.916260e+00 2.471924e+00 -2.152045e-03 2.949046e-02 -1.718750e-01 8.374023e-02
1.897546e-01 9.241800e-01 -1.916260e+00 2.471924e+00 -2.169442e-03 2.970583e-02 -1.718750e-01 8.374023e-02
2.054724e-01 9.277118e-01 -1.916260e+00 2.471924e+00 -2.108265e-03 2.942577e-02 -1.718750e-01 8.374023e-02
1.946680e-01 9.191541e-01 -1.916260e+00 2.395752e+00 -2.149813e-03 2.946586e-02 -1.718750e-01 8.374023e-02
1.982044e-01 9.248599e-01 -1.916260e+00 2.471924e+00 -2.149182e-03 2.984482e-02 -1.718750e-01 8.374023e-02
1.785800e-01 9.135271e-01 -1.916260e+00 2.395752e+00 -2.154437e-03 2.961277e-02 -1.718750e-01 8.374023e-02
1.890875e-01 9.229861e-01 -1.916260e+00 2.471924e+00 -2.109801e-03 2.986313e-02 -1.718750e-01 8.374023e-02
1.991779e-01 9.254502e-01 -1.916260e+00 2.395752e+00 -2.117364e-03 2.976809e-02 -1.718750e-01 8.374023e-02
1.952446e-01 9.155650e-01 -1.911133e+00 2.471924e+00 -2.176337e-03 2.942700e-02 -1.718750e-01 8.374023e-02
1.863290e-01 9.247834e-01 -1.916260e+00 2.471924e+00 -2.076307e-03 2.978398e-02 -1.718750e-01 8.374023e-02
1.826840e-01 9.221828e-01 -1.916260e+00 2.395752e+00 -2.201165e-03 2.992410e-02 -1.718750e-01 8.374023e-02
1.878730e-01 9.237118e-01 -1.916260e+00 2.271240e+00 -2.147524e-03 2.972901e-02 -1.718750e-01 8.374023e-02
1.887753e-01 9.163366e-01 -1.916260e+00 2.471924e+00 -2.177118e-03 2.974332e-02 -1.718750e-01 8.374023e-02
1.915634e-01 9.264486e-01 -1.916260e+00 2.471924e+00 -2.136993e-03 2.973581e-02 -1.718750e-01 8.374023e-02
1.921563e-01 9.258775e-01 -1.916260e+00 2.395752e+00 -2.140752e-03 3.008243e-02 -1.718750e-01 8.374023e-02
1.914935e-01 9.153538e-01 -1.916260e+00 2.395752e+00 -2.109744e-03 2.934416e-02 -1.718750e-01 8.374023e-02
1.898077e-01 9.186518e-01 -1.916260e+00 2.471924e+00 -2.125238e-03 2.924917e-02 -1.718750e-01 8.374023e-02
1.941286e-01 9.252770e-01 -1.916260e+00 2.471924e+00 -2.107832e-03 2.963538e-02 -1.718750e-01 8.374023e-02
1.878088e-01 9.221190e-01 -1.916260e+00 2.395752e+00 -2.145668e-03 2.980795e-02 -1.718750e-01 8.374023e-02
1.999153e-01 9.217499e-01 -1.916260e+00 2.327637e+00 -2.157084e-03 2.982068e-02 -1.718750e-01 8.374023e-02
1.821154e-01 9.175573e-01 -1.916260e+00 2.471924e+00 -2.056357e-03 2.954798e-02 -1.718750e-01 8.374023e-02
1.884995e-01 9.191539e-01 -1.916260e+00 2.271240e+00 -2.119644e-03 2.977105e-02 -1.718750e-01 8.374023e-02
1.994406e-01 9.302657e-01 -1.916260e+00 2.395752e+00 -2.130089e-03 3.010054e-02 -1.718750e-01 8.374023e-02
1.857864e-01 9.205856e-01 -1.916260e+00 2.471924e+00 -2.060492e-03 2.945640e-02 -1.718750e-01 8.374023e-02
1.823757e-01 9.199584e-01 -1.916260e+00 2.327637e+00 -2.100146e-03 2.973184e-02 -1.718750e-01 8.374023e-02
1.937576e-01 9.274737e-01 -1.916260e+00 2.471924e+00 -2.197266e-03 3.000103e-02 -1.718750e-01 8.374023e-02
1.891406e-01 9.234766e-01 -1.916260e+00 2.395752e+00 -2.211658e-03 2.976091e-02 -1.718750e-01 8.374023e-02
1.989933e-01 9.263513e-01 -1.916260e+00 2.471924e+00 -2.170205e-03 2.976354e-02 -1.718750e-01 8.374023e-02
1.975454e-01 9.245348e-01 -1.916260e+00 2.395752e+00 -2.120689e-03 2.968448e-02 -1.718750e-01 8.374023e-02
1.951562e-01 9.204022e-01 -1.916260e+00 2.471924e+00 -2.119804e-03 2.957328e-02 -1.718750e-01 8.374023e-02
1.917154e-01 9.228560e-01 -1.916260e+00 2.395752e+00 -2.025623e-03 2.967099e-02 -1.718750e-01 8.374023e-02
1.924314e-01 9.212843e-01 -1.916260e+00 2.395752e+00 -2.231221e-03 2.979706e-02 -1.718750e-01 8.374023e-02
1.885262e-01 9.181903e-01 -1.916260e+00 2.471924e+00 -2.167417e-03 2.959043e-02 -1.718750e-01 8.374023e-02
1.930395e-01 9.249361e-01 -1.916260e+00 2.199219e+00 -2.026518e-03 2.982119e-02 -1.718750e-01 8.374023e-02
1.819255e-01 9.241811e-01 -1.916260e+00 2.471924e+00 -2.071465e-03 3.005317e-02 -1.718750e-01 8.374023e-02
1.953264e-01 9.259466e-01 -1.916260e+00 2.395752e+00 -2.210151e-03 2.975786e-02 -1.718750e-01 8.374023e-02
1.919409e-01 9.239023e-01 -1.916260e+00 2.327637e+00 -2.035052e-03 2.952082e-02 -1.718750e-01 8.374023e-02
1.885366e-01 9.254432e-01 -1.916260e+00 2.327637e+00 -2.134168e-03 2.980986e-02 -1.718750e-01 8.374023e-02
1.948189e-01 9.269165e-01 -1.916260e+00 2.395752e+00 -2.188920e-03 3.005759e-02 -1.718750e-01 8.374023e-02
2.005134e-01 9.242198e-01 -1.916260e+00 2.232910e+00 -2.174830e-03 2.959073e-02 -1.718750e-01 8.374023e-02
1.903854e-01 9.187919e-01 -1.916260e+00 2.327637e+00 -2.153439e-03 2.963096e-02 -1.718750e-01 8.374023e-02
1.938673e-01 9.210545e-01 -1.916260e+00 2.471924e+00 -2.177476e-03 2.965348e-02 -1.718750e-01 8.374023e-02
1.934268e-01 9.200241e-01 -1.916260e+00 2.395752e+00 -2.186566e-03 2.942043e-02 -1.718750e-01 8.374023e-02
1.966609e-01 9.227957e-01 -1.916260e+00 2.471924e+00 -2.220389e-03 2.962525e-02 -1.718750e-01 8.374023e-02
1.927150e-01 9.208823e-01 -1.916260e+00 2.471924e+00 -2.168010e-03 2.964123e-02 -1.718750e-01 8.374023e-02
1.972505e-01 9.284909e-01 -1.916260e+00 2.395752e+00 -2.100683e-03 2.984678e-02 -1.718750e-01 8.374023e-02
1.901046e-01 9.234511e-01 -1.916260e+00 2.327637e+00 -2.165985e-03 2.994300e-02 -1.718750e-01 8.374023e-02
1.883009e-01 9.157039e-01 -1.916260e+00 2.271240e+00 -2.165043e-03 2.931681e-02 -1.718750e-01 8.374023e-02
1.954030e-01 9.225413e-01 -1.916260e+00 2.471924e+00 -2.123854e-03 2.976263e-02 -1.718750e-01 8.374023e-02
2.046281e-01 9.298301e-01 -1.916260e+00 2.471924e+00 -2.182713e-03 2.980245e-02 -1.718750e-01 8.374023e-02
1.958802e-01 9.248646e-01 -1.916260e+00 2.471924e+00 -2.156086e-03 2.966782e-02 -1.718750e-01 8.374023e-02
1.940575e-01 9.231962e-01 -1.916260e+00 2.395752e+00 -2.116714e-03 2.952434e-02 -1.718750e-01 8.374023e-02
1.909595e-01 9.228035e-01 -1.916260e+00 2.232910e+00 -2.060850e-03 2.981508e-02 -1.718750e-01 8.374023e-02
1.944482e-01 9.271107e-01 -1.916260e+00 2.327637e+00 -2.092564e-03 2.987499e-02 -1.718750e-01 8.374023e-02
2.001453e-01 9.256899e-01 -1.916260e+00 2.471924e+00 -2.139310e-03 2.970302e-02 -1.718750e-01 8.374023e-02
1.836614e-01 9.198459e-01 -1.916260e+00 2.471924e+00 -2.055312e-03 2.971384e-02 -1.718750e-01 8.374023e-02
1.943971e-01 9.226058e-01 -1.916260e+00 2.395752e+00 -2.240970e-03 3.002838e-02 -1.718750e-01 8.374023e-02
1.992428e-01 9.295567e-01 -1.916260e+00 2.471924e+00 -2.202700e-03 2.995597e-02 -1.718750e-01 8.374023e-02
1.958588e-01 9.252372e-01 -1.916260e+00 2.471924e+00 -2.059861e-03 2.973287e-02 -1.718750e-01 8.374023e-02
2.017786e-01 9.195309e-01 -1.904785e+00 2.327637e+00 -2.186029e-03 2.951130e-02 -1.718750e-01 8.374023e-02
1.973341e-01 9.262287e-01 -1.916260e+00 2.471924e+00 -2.056141e-03 2.986108e-02 -1.718750e-01 8.374023e-02
1.937037e-01 9.226269e-01 -1.916260e+00 2.327637e+00 -2.118212e-03 2.965282e-02 -1.718750e-01 8.374023e-02
1.850584e-01 9.277234e-01 -1.916260e+00 2.199219e+00 -2.180076e-03 3.001379e-02 -1.718750e-01 8.374023e-02
1.955403e-01 9.278600e-01 -1.916260e+00 2.395752e+00 -2.155153e-03 2.995963e-02 -1.718750e-01 8.374023e-02
1.973790e-01 9.282271e-01 -1.916260e+00 2.471924e+00 -2.147863e-03 2.996608e-02 -1.718750e-01 8.374023e-02
1.864256e-01 9.200307e-01 -1.916260e+00 2.395752e+00 -2.035701e-03 2.940336e-02 -1.718750e-01 8.374023e-02
1.951481e-01 9.228799e-01 -1.916260e+00 2.395752e+00 -2.065447e-03 2.987697e-02 -1.718750e-01 8.374023e-02
1.846419e-01 9.200741e-01 -1.916260e+00 2.199219e+00 -2.075290e-03 2.955492e-02 -1.718750e-01 8.374023e-02
2.029084e-01 9.243684e-01 -1.916260e+00 2.395752e+00 -2.272213e-03 2.982187e-02 -1.718750e-01 8.374023e-02
1.985276e-01 9.292203e-01 -1.916260e+00 2.327637e+00 -2.166418e-03 2.983152e-02 -1.718750e-01 8.374023e-02
1.951861e-01 9.255640e-01 -1.916260e+00 2.271240e+00 -2.205799e-03 2.958850e-02 -1.718750e-01 8.374023e-02
1.869330e-01 9.210836e-01 -1.904785e+00 2.471924e+00 -2.208389e-03 2.983121e-02 -1.718750e-01 8.374023e-02
1.928250e-01 9.226002e-01 -1.916260e+00 2.471924e+00 -2.187941e-03 3.006082e-02 -1.718750e-01 8.374023e-02
1.957608e-01 9.223869e-01 -1.916260e+00 2.471924e+00 -2.089088e-03 2.956781e-02 -1.718750e-01 8.374023e-02
1.954229e-01 9.252340e-01 -1.916260e+00 2.471924e+00 -2.126793e-03 2.979576e-02 -1.718750e-01 8.374023e-02
1.819905e-01 9.161093e-01 -1.916260e+00 2.395752e+00 -2.095003e-03 2.949281e-02 -1.718750e-01 8.374023e-02
1.895235e-01 9.240285e-01 -1.916260e+00 2.471924e+00 -2.166042e-03 2.970356e-02 -1.718750e-01 8.374023e-02
1.956762e-01 9.214359e-01 -1.916260e+00 2.271240e+00 -2.094523e-03 2.965680e-02 -1.718750e-01 8.374023e-02
1.944109e-01 9.249609e-01 -1.916260e+00 2.395752e+00 -2.213890e-03 2.978709e-02 -1.718750e-01 8.374023e-02
1.956435e-01 9.219670e-01 -1.911133e+00 2.395752e+00 -2.186735e-03 2.964097e-02 -1.718750e-01 8.374023e-02
1.912564e-01 9.172991e-01 -1.916260e+00 2.395752e+00 -2.125248e-03 2.970271e-02 -1.718750e-01 8.374023e-02
1.942476e-01 9.270876e-01 -1.916260e+00 2.471924e+00 -2.158629e-03 2.993676e-02 -1.718750e-01 8.374023e-02
1.900810e-01 9.216285e-01 -1.916260e+00 2.395752e+00 -2.109763e-03 2.958632e-02 -1.718750e-01 8.374023e-02
1.981860e-01 9.311592e-01 -1.916260e+00 2.471924e+00 -2.099091e-03 3.002560e-02 -1.718750e-01 8.374023e-02
1.863982e-01 9.202476e-01 -1.916260e+00 2.471924e+00 -2.163866e-03 2.966334e-02 -1.718750e-01 8.374023e-02
2.002590e-01 9.208036e-01 -1.916260e+00 2.471924e+00 -2.169734e-03 2.963068e-02 -1.718750e-01 8.374023e-02
1.961076e-01 9.221810e-01 -1.916260e+00 2.471924e+00 -2.100881e-03 2.966517e-02 -1.718750e-01 8.374023e-02
2.030168e-01 9.276522e-01 -1.916260e+00 2.471924e+00 -2.153759e-03 2.980646e-02 -1.718750e-01 8.374023e-02
1.986806e-01 9.265111e-01 -1.916260e+00 2.471924e+00 -2.106890e-03 2.985063e-02 -1.718750e-01 8.374023e-02
1.981469e-01 9.305957e-01 -1.916260e+00 2.471924e+00 -2.241789e-03 2.996774e-02 -1.718750e-01 8.374023e-02
1.872999e-01 9.161280e-01 -1.916260e+00 2.471924e+00 -2.123345e-03 2.938477e-02 -1.718750e-01 8.374023e-02
1.946816e-01 9.242524e-01 -1.916260e+00 2.471924e+00 -2.128074e-03 2.981340e-02 -1.718750e-01 8.374023e-02
1.872636e-01 9.225758e-01 -1.916260e+00 2.471924e+00 -2.177618e-03 2.988004e-02 -1.718750e-01 8.374023e-02
1.930901e-01 9.181514e-01 -1.916260e+00 2.327637e+00 -2.142475e-03 2.939633e-02 -1.718750e-01 8.374023e-02
1.875841e-01 9.248282e-01 -1.916260e+00 2.471924e+00 -2.186048e-03 3.016065e-02 -1.718750e-01 8.374023e-02
1.971827e-01 9.217140e-01 -1.916260e+00 2.471924e+00 -2.227114e-03 2.963141e-02 -1.718750e-01 8.374023e-02
1.953849e-01 9.246348e-01 -1.916260e+00 2.327637e+00 -2.156830e-03 2.976573e-02 -1.718750e-01 8.374023e-02
1.993904e-01 9.241680e-01 -1.916260e+00 2.395752e+00 -2.140111e-03 2.950828e-02 -1.718750e-01 8.374023e-02
1.948225e-01 9.234737e-01 -1.916260e+00 2.395752e+00 -2.166221e-03 2.964299e-02 -1.718750e-01 8.374023e-02
1.977108e-01 9.261228e-01 -1.916260e+00 2.471924e+00 -2.160522e-03 2.993990e-02 -1.718750e-01 8.374023e-02
1.912325e-01 9.184560e-01 -1.911133e+00 2.471924e+00 -2.018418e-03 2.961827e-02 -1.718750e-01 8.374023e-02
1.879267e-01 9.164606e-01 -1.916260e+00 2.395752e+00 -2.115603e-03 2.960634e-02 -1.718750e-01 8.374023e-02
1.902613e-01 9.199209e-01 -1.916260e+00 2.471924e+00 -2.090134e-03 2.980543e-02 -1.718750e-01 8.374023e-02
1.963294e-01 9.221909e-01 -1.916260e+00 2.395752e+00 -2.154127e-03 2.955106e-02 -1.718750e-01 8.374023e-02
1.874218e-01 9.243898e-01 -1.916260e+00 2.471924e+00 -2.226766e-03 2.988525e-02 -1.718750e-01 8.374023e-02
1.930266e-01 9.214424e-01 -1.916260e+00 2.395752e+00 -2.157207e-03 2.953649e-02 -1.718750e-01 8.374023e-02
1.936756e-01 9.258336e-01 -1.916260e+00 2.471924e+00 -2.128855e-03 2.982084e-02 -1.718750e-01 8.374023e-02
1.919566e-01 9.217326e-01 -1.916260e+00 2.395752e+00 -2.148569e-03 2.959137e-02 -1.718750e-01 8.374023e-02
1.949139e-01 9.240106e-01 -1.916260e+00 2.471924e+00 -2.117722e-03 2.997941e-02 -1.718750e-01 8.374023e-02
1.836611e-01 9.197762e-01 -1.916260e+00 2.395752e+00 -2.095399e-03 2.983694e-02 -1.718750e-01 8.374023e-02
1.954241e-01 9.234867e-01 -1.916260e+00 2.471924e+00 -2.212911e-03 2.989198e-02 -1.718750e-01 8.374023e-02
2.025049e-01 9.238391e-01 -1.916260e+00 2.395752e+00 -2.120981e-03 2.942720e-02 -1.718750e-01 8.374023e-02
1.887530e-01 9.181789e-01 -1.916260e+00 2.471924e+00 -2.130607e-03 2.953051e-02 -1.718750e-01 8.374023e-02
1.876823e-01 9.211100e-01 -1.916260e+00 2.395752e+00 -2.091019e-03 2.971689e-02 -1.718750e-01 8.374023e-02
1.860430e-01 9.199187e-01 -1.916260e+00 2.395752e+00 -2.092338e-03 2.971220e-02 -1.718750e-01 8.374023e-02
2.003007e-01 9.233158e-01 -1.916260e+00 2.395752e+00 -2.096341e-03 2.971694e-02 -1.718750e-01 8.374023e-02
1.932298e-01 9.225544e-01 -1.916260e+00 2.471924e+00 -2.166192e-03 2.965046e-02 -1.718750e-01 8.374023e-02
1.960510e-01 9.171229e-01 -1.916260e+00 2.471924e+00 -2.202776e-03 2.939179e-02 -1.718750e-01 8.374023e-02
1.930958e-01 9.226624e-01 -1.916260e+00 2.327637e+00 -2.180151e-03 2.984262e-02 -1.718750e-01 8.374023e-02
1.948638e-01 9.200579e-01 -1.916260e+00 2.395752e+00 -2.143238e-03 2.965487e-02 -1.718750e-01 8.374023e-02
1.906029e-01 9.265549e-01 -1.916260e+00 2.471924e+00 -2.122102e-03 2.960581e-02 -1.718750e-01 8.374023e-02
2.002228e-01 9.247198e-01 -1.916260e+00 2.471924e+00 -2.093412e-03 2.965770e-02 -1.718750e-01 8.374023e-02
1.854389e-01 9.163531e-01 -1.911133e+00 2.327637e+00 -2.144595e-03 2.953024e-02 -1.718750e-01 8.374023e-02
1.911957e-01 9.247443e-01 -1.916260e+00 2.471924e+00 -2.082768e-03 2.970887e-02 -1.718750e-01 8.374023e-02
1.908506e-01 9.300128e-01 -1.916260e+00 2.471924e+00 -2.056028e-03 3.017272e-02 -1.718750e-01 8.374023e-02
1.983663e-01 9.218847e-01 -1.916260e+00 2.395752e+00 -2.126171e-03 2.970063e-02 -1.718750e-01 8.374023e-02
1.933081e-01 9.175955e-01 -1.916260e+00 2.327637e+00 -2.118146e-03 2.959853e-02 -1.718750e-01 8.374023e-02
1.912197e-01 9.206566e-01 -1.911133e+00 2.271240e+00 -2.116658e-03 2.963144e-02 -1.718750e-01 8.374023e-02
1.941728e-01 9.228872e-01 -1.916260e+00 2.471924e+00 -2.144378e-03 2.956798e-02 -1.718750e-01 8.374023e-02
1.959942e-01 9.226091e-01 -1.916260e+00 2.471924e+00 -2.117590e-03 2.961087e-02 -1.718750e-01 8.374023e-02
1.963247e-01 9.296195e-01 -1.916260e+00 2.471924e+00 -2.148503e-03 2.998666e-02 -1.718750e-01 8.374023e-02
1.908314e-01 9.187989e-01 -1.916260e+00 2.395752e+00 -2.092536e-03 2.959831e-02 -1.718750e-01 8.374023e-02
1.880699e-01 9.205457e-01 -1.916260e+00 2.471924e+00 -2.174010e-03 2.999262e-02 -1.718750e-01 8.374023e-02
1.893093e-01 9.214549e-01 -1.916260e+00 2.395752e+00 -2.142070e-03 2.956994e-02 -1.718750e-01 8.374023e-02
1.918724e-01 9.207829e-01 -1.916260e+00 2.327637e+00 -2.181555e-03 2.972801e-02 -1.718750e-01 8.374023e-02
1.925099e-01 9.238913e-01 -1.916260e+00 2.395752e+00 -2.101992e-03 2.994951e-02 -1.718750e-01 8.374023e-02
1.921744e-01 9.268004e-01 -1.916260e+00 2.232910e+00 -2.177891e-03 2.976736e-02 -1.718750e-01 8.374023e-02
1.961015e-01 9.283710e-01 -1.916260e+00 2.471924e+00 -2.165269e-03 2.975448e-02 -1.718750e-01 8.374023e-02
1.949248e-01 9.258633e-01 -1.916260e+00 2.471924e+00 -2.142522e-03 2.969396e-02 -1.718750e-01 8.374023e-02
1.982672e-01 9.175703e-01 -1.916260e+00 2.395752e+00 -2.159919e-03 2.939201e-02 -1.718750e-01 8.374023e-02
2.011717e-01 9.228463e-01 -1.916260e+00 2.471924e+00 -2.056602e-03 2.932977e-02 -1.718750e-01 8.374023e-02
1.885543e-01 9.285816e-01 -1.916260e+00 2.232910e+00 -2.151810e-03 3.012441e-02 -1.718750e-01 8.374023e-02
1.835728e-01 9.174169e-01 -1.916260e+00 2.471924e+00 -2.072963e-03 2.950382e-02 -1.718750e-01 8.374023e-02
1.992755e-01 9.272953e-01 -1.916260e+00 2.471924e+00 -2.104837e-03 2.988740e-02 -1.718750e-01 8.374023e-02
1.939569e-01 9.167481e-01 -1.916260e+00 2.471924e+00 -2.069874e-03 2.926002e-02 -1.718750e-01 8.374023e-02
1.906509e-01 9.278621e-01 -1.916260e+00 2.471924e+00 -2.087854e-03 2.972752e-02 -1.718750e-01 8.374023e-02
1.883202e-01 9.283497e-01 -1.916260e+00 2.471924e+00 -2.175932e-03 2.968320e-02 -1.718750e-01 8.374023e-02
1.972617e-01 9.221509e-01 -1.916260e+00 2.395752e+00 -2.235111e-03 2.963900e-02 -1.718750e-01 8.374023e-02
2.009572e-01 9.283147e-01 -1.916260e+00 2.471924e+00 -2.157536e-03 3.000627e-02 -1.718750e-01 8.374023e-02
1.910673e-01 9.257747e-01 -1.916260e+00 2.327637e+00 -2.130278e-03 2.988479e-02 -1.718750e-01 8.374023e-02
1.886175e-01 9.235846e-01 -1.916260e+00 2.327637e+00 -2.156255e-03 2.982933e-02 -1.718750e-01 8.374023e-02
1.856637e-01 9.172911e-01 -1.916260e+00 2.271240e+00 -2.111374e-03 2.961451e-02 -1.718750e-01 8.374023e-02
1.901240e-01 9.238983e-01 -1.916260e+00 2.471924e+00 -2.212863e-03 2.987610e-02 -1.718750e-01 8.374023e-02
1.856761e-01 9.219571e-01 -1.904785e+00 2.395752e+00 -2.136918e-03 2.958040e-02 -1.718750e-01 8.374023e-02
1.897226e-01 9.222456e-01 -1.911133e+00 2.232910e+00 -2.023664e-03 2.981578e-02 -1.718750e-01 8.374023e-02
1.958802e-01 9.233685e-01 -1.916260e+00 2.395752e+00 -2.073811e-03 2.971692e-02 -1.718750e-01 8.374023e-02
1.950723e-01 9.256794e-01 -1.916260e+00 2.471924e+00 -2.169649e-03 2.986385e-02 -1.718750e-01 8.374023e-02
1.870440e-01 9.192370e-01 -1.916260e+00 2.471924e+00 -1.997055e-03 2.948552e-02 -1.718750e-01 8.374023e-02
1.951085e-01 9.263914e-01 -1.916260e+00 2.471924e+00 -2.080319e-03 2.983554e-02 -1.718750e-01 8.374023e-02
2.039297e-01 9.317927e-01 -1.916260e+00 2.471924e+00 -2.118325e-03 2.977456e-02 -1.718750e-01 8.374023e-02
1.892275e-01 9.225109e-01 -1.916260e+00 2.395752e+00 -2.161869e-03 2.961781e-02 -1.718750e-01 8.374023e-02
1.896105e-01 9.221737e-01 -1.916260e+00 2.471924e+00 -2.140469e-03 2.976927e-02 -1.718750e-01 8.374023e-02
2.025004e-01 9.210598e-01 -1.916260e+00 2.327637e+00 -2.075723e-03 2.958072e-02 -1.718750e-01 8.374023e-02
1.905609e-01 9.284733e-01 -1.916260e+00 2.471924e+00 -2.215746e-03 3.009003e-02 -1.718750e-01 8.374023e-02
1.926835e-01 9.239349e-01 -1.916260e+00 2.471924e+00 -2.111298e-03 2.975865e-02 -1.718750e-01 8.374023e-02
1.860268e-01 9.188568e-01 -1.916260e+00 2.471924e+00 -2.163028e-03 2.966624e-02 -1.718750e-01 8.374023e-02
1.983153e-01 9.239190e-01 -1.916260e+00 2.327637e+00 -2.209416e-03 2.980768e-02 -1.718750e-01 8.374023e-02
