1.011953e+02 4.217391e-01 -2.126736e-02 5.688603e-01 -9.960938e-01 9.960938e-01
9.133984e+01 4.217391e-01 -2.154018e-02 5.678012e-01 -1.007812e+00 9.960938e-01
8.323047e+01 4.217391e-01 -2.166212e-02 5.665728e-01 -1.027344e+00 9.960938e-01
7.747266e+01 4.217391e-01 -2.148231e-02 5.657787e-01 -1.042969e+00 9.960938e-01
7.386719e+01 4.217391e-01 -2.118469e-02 5.653678e-01 -1.050781e+00 9.960938e-01
7.144922e+01 4.217391e-01 -2.080026e-02 5.651183e-01 -1.050781e+00 1.011719e+00
7.011328e+01 4.217391e-01 -2.042411e-02 5.649834e-01 -1.058594e+00 1.035156e+00
6.892969e+01 4.217391e-01 -2.010995e-02 5.648841e-01 -1.058594e+00 1.046875e+00
6.894531e+01 4.217391e-01 -1.990534e-02 5.648370e-01 -1.058594e+00 1.058594e+00
6.867578e+01 4.217391e-01 -1.980200e-02 5.648056e-01 -1.058594e+00 1.066406e+00
6.857031e+01 4.217391e-01 -1.974000e-02 5.647927e-01 -1.058594e+00 1.074219e+00
6.828906e+01 4.217391e-01 -1.962839e-02 5.648071e-01 -1.058594e+00 1.082031e+00
6.839453e+01 4.217391e-01 -1.953332e-02 5.648347e-01 -1.054688e+00 1.093750e+00
6.848828e+01 4.217391e-01 -1.944858e-02 5.648102e-01 -1.054688e+00 1.097656e+00
6.853906e+01 4.217391e-01 -1.941551e-02 5.647925e-01 -1.054688e+00 1.101562e+00
6.894922e+01 4.217391e-01 -1.939691e-02 5.647999e-01 -1.054688e+00 1.105469e+00
6.863281e+01 4.217391e-01 -1.933904e-02 5.648365e-01 -1.054688e+00 1.113281e+00
6.864453e+01 4.217391e-01 -1.929563e-02 5.648585e-01 -1.050781e+00 1.113281e+00
6.890234e+01 4.217391e-01 -1.925017e-02 5.648731e-01 -1.046875e+00 1.117188e+00
6.905859e+01 4.217391e-01 -1.915509e-02 5.648995e-01 -1.050781e+00 1.121094e+00
6.899219e+01 4.217391e-01 -1.911789e-02 5.649491e-01 -1.050781e+00 1.125000e+00
6.896094e+01 4.217391e-01 -1.909309e-02 5.649699e-01 -1.050781e+00 1.128906e+00
6.898438e+01 4.217391e-01 -1.908896e-02 5.650029e-01 -1.054688e+00 1.132812e+00
6.894531e+01 4.217391e-01 -1.909309e-02 5.650407e-01 -1.054688e+00 1.136719e+00
6.865234e+01 4.217391e-01 -1.907655e-02 5.650645e-01 -1.050781e+00 1.136719e+00
6.884375e+01 4.217391e-01 -1.907035e-02 5.650956e-01 -1.050781e+00 1.140625e+00
6.882812e+01 4.217391e-01 -1.907862e-02 5.651135e-01 -1.050781e+00 1.140625e+00
6.886328e+01 4.217391e-01 -1.908689e-02 5.651229e-01 -1.046875e+00 1.140625e+00
6.893359e+01 4.217391e-01 -1.907862e-02 5.651489e-01 -1.046875e+00 1.140625e+00
6.876562e+01 4.217391e-01 -1.909309e-02 5.651919e-01 -1.042969e+00 1.144531e+00
6.882422e+01 4.217391e-01 -1.910549e-02 5.652117e-01 -1.039062e+00 1.140625e+00
6.876953e+01 4.217391e-01 -1.911169e-02 5.652294e-01 -1.039062e+00 1.144531e+00
6.868750e+01 4.217391e-01 -1.910549e-02 5.652841e-01 -1.039062e+00 1.152344e+00
6.874609e+01 4.217391e-01 -1.907035e-02 5.653392e-01 -1.035156e+00 1.156250e+00
6.847266e+01 4.217391e-01 -1.906622e-02 5.653585e-01 -1.035156e+00 1.160156e+00
6.855469e+01 4.217391e-01 -1.905175e-02 5.653474e-01 -1.035156e+00 1.164062e+00
6.855469e+01 4.217391e-01 -1.905589e-02 5.653661e-01 -1.035156e+00 1.164062e+00
6.860547e+01 4.217391e-01 -1.904969e-02 5.653851e-01 -1.035156e+00 1.167969e+00
6.832031e+01 4.217391e-01 -1.903315e-02 5.654516e-01 -1.035156e+00 1.175781e+00
6.866406e+01 4.217391e-01 -1.903315e-02 5.655074e-01 -1.031250e+00 1.175781e+00
6.844531e+01 4.217391e-01 -1.902075e-02 5.655815e-01 -1.031250e+00 1.179688e+00
6.857031e+01 4.217391e-01 -1.900008e-02 5.656319e-01 -1.031250e+00 1.187500e+00
6.857422e+01 4.217391e-01 -1.900215e-02 5.657169e-01 -1.027344e+00 1.195312e+00
6.851172e+01 4.217391e-01 -1.900215e-02 5.657765e-01 -1.023438e+00 1.195312e+00
6.859766e+01 4.217391e-01 -1.901248e-02 5.657998e-01 -1.023438e+00 1.199219e+00
6.852734e+01 4.217391e-01 -1.900628e-02 5.658805e-01 -1.027344e+00 1.203125e+00
6.863672e+01 4.217391e-01 -1.899595e-02 5.658942e-01 -1.027344e+00 1.203125e+00
6.848047e+01 4.217391e-01 -1.900215e-02 5.659108e-01 -1.027344e+00 1.203125e+00
6.840625e+01 4.217391e-01 -1.899388e-02 5.659386e-01 -1.027344e+00 1.207031e+00
6.841016e+01 4.173913e-01 -1.900008e-02 5.659840e-01 -1.027344e+00 1.210938e+00
6.854297e+01 4.173913e-01 -1.898975e-02 5.660364e-01 -1.027344e+00 1.214844e+00
6.837500e+01 4.217391e-01 -1.898975e-02 5.661109e-01 -1.023438e+00 1.218750e+00
6.837500e+01 4.217391e-01 -1.898355e-02 5.661307e-01 -1.023438e+00 1.218750e+00
6.839062e+01 4.217391e-01 -1.898148e-02 5.661647e-01 -1.023438e+00 1.222656e+00
6.835547e+01 4.217391e-01 -1.898355e-02 5.661917e-01 -1.023438e+00 1.222656e+00
6.842969e+01 4.217391e-01 -1.895048e-02 5.662449e-01 -1.019531e+00 1.226562e+00
6.852734e+01 4.217391e-01 -1.895255e-02 5.663111e-01 -1.019531e+00 1.230469e+00
6.830859e+01 4.217391e-01 -1.899388e-02 5.663334e-01 -1.023438e+00 1.234375e+00
6.830859e+01 4.217391e-01 -1.901455e-02 5.663876e-01 -1.019531e+00 1.230469e+00
6.818750e+01 4.217391e-01 -1.898768e-02 5.664119e-01 -1.019531e+00 1.234375e+00
6.841016e+01 4.217391e-01 -1.900215e-02 5.664458e-01 -1.015625e+00 1.234375e+00
6.826172e+01 4.217391e-01 -1.898562e-02 5.664871e-01 -1.015625e+00 1.238281e+00
6.824609e+01 4.217391e-01 -1.897941e-02 5.665360e-01 -1.011719e+00 1.242188e+00
6.830078e+01 4.217391e-01 -1.897528e-02 5.665907e-01 -1.011719e+00 1.246094e+00
6.835547e+01 4.217391e-01 -1.895461e-02 5.666594e-01 -1.007812e+00 1.250000e+00
6.802734e+01 4.217391e-01 -1.896701e-02 5.667264e-01 -1.007812e+00 1.253906e+00
6.803125e+01 4.217391e-01 -1.898355e-02 5.667768e-01 -1.003906e+00 1.253906e+00
6.815625e+01 4.217391e-01 -1.901455e-02 5.668661e-01 -1.007812e+00 1.261719e+00
6.826562e+01 4.217391e-01 -1.901455e-02 5.669383e-01 -1.003906e+00 1.261719e+00
6.817578e+01 4.217391e-01 -1.902282e-02 5.669869e-01 -1.003906e+00 1.265625e+00
6.814453e+01 4.217391e-01 -1.903108e-02 5.670376e-01 -1.003906e+00 1.265625e+00
6.801562e+01 4.217391e-01 -1.902695e-02 5.671030e-01 -1.000000e+00 1.269531e+00
6.782422e+01 4.217391e-01 -1.902488e-02 5.671176e-01 -1.000000e+00 1.269531e+00
6.787891e+01 4.217391e-01 -1.901455e-02 5.672108e-01 -1.003906e+00 1.273438e+00
6.781641e+01 4.217391e-01 -1.902075e-02 5.672672e-01 -1.003906e+00 1.273438e+00
6.803516e+01 4.217391e-01 -1.902695e-02 5.672870e-01 -1.003906e+00 1.277344e+00
6.796484e+01 4.217391e-01 -1.904349e-02 5.673701e-01 -1.003906e+00 1.281250e+00
6.808594e+01 4.173913e-01 -1.904555e-02 5.673695e-01 -1.003906e+00 1.281250e+00
6.765234e+01 4.217391e-01 -1.905175e-02 5.674200e-01 -1.003906e+00 1.285156e+00
6.781641e+01 4.217391e-01 -1.907862e-02 5.675816e-01 -1.007812e+00 1.292969e+00
6.786719e+01 4.173913e-01 -1.909309e-02 5.676937e-01 -1.011719e+00 1.296875e+00
6.771094e+01 4.217391e-01 -1.910549e-02 5.677579e-01 -1.015625e+00 1.300781e+00
6.778125e+01 4.217391e-01 -1.912822e-02 5.678655e-01 -1.019531e+00 1.304688e+00
6.772656e+01 4.173913e-01 -1.913029e-02 5.678981e-01 -1.023438e+00 1.308594e+00
6.761719e+01 4.130435e-01 -1.914269e-02 5.680245e-01 -1.031250e+00 1.316406e+00
6.765234e+01 4.304348e-01 -1.917989e-02 5.681805e-01 -1.035156e+00 1.320312e+00
6.759375e+01 4.304348e-01 -1.918816e-02 5.682599e-01 -1.039062e+00 1.324219e+00
6.756250e+01 4.304348e-01 -1.920056e-02 5.683360e-01 -1.042969e+00 1.328125e+00
6.758984e+01 4.304348e-01 -1.920056e-02 5.683839e-01 -1.042969e+00 1.328125e+00
6.752344e+01 4.304348e-01 -1.918816e-02 5.684048e-01 -1.042969e+00 1.328125e+00
6.746484e+01 4.304348e-01 -1.920470e-02 5.684773e-01 -1.046875e+00 1.332031e+00
6.741406e+01 4.217391e-01 -1.921916e-02 5.685431e-01 -1.050781e+00 1.335938e+00
6.760156e+01 4.217391e-01 -1.924396e-02 5.686129e-01 -1.054688e+00 1.339844e+00
6.756250e+01 4.217391e-01 -1.924810e-02 5.686851e-01 -1.058594e+00 1.343750e+00
6.760938e+01 4.217391e-01 -1.926257e-02 5.687676e-01 -1.066406e+00 1.347656e+00
6.742969e+01 4.260870e-01 -1.926257e-02 5.688655e-01 -1.070312e+00 1.347656e+00
6.757031e+01 4.304348e-01 -1.925843e-02 5.689041e-01 -1.070312e+00 1.347656e+00
6.749219e+01 4.217391e-01 -1.925223e-02 5.689109e-01 -1.070312e+00 1.347656e+00
6.761328e+01 4.217391e-01 -1.925843e-02 5.689090e-01 -1.070312e+00 1.347656e+00
6.764453e+01 4.173913e-01 -1.927290e-02 5.689059e-01 -1.070312e+00 1.347656e+00
6.760938e+01 4.173913e-01 -1.926257e-02 5.689702e-01 -1.074219e+00 1.355469e+00
6.756641e+01 4.130435e-01 -1.924190e-02 5.690228e-01 -1.074219e+00 1.355469e+00
6.749219e+01 4.130435e-01 -1.921296e-02 5.690883e-01 -1.078125e+00 1.359375e+00
6.753125e+01 4.130435e-01 -1.922950e-02 5.691788e-01 -1.082031e+00 1.355469e+00
6.750000e+01 4.130435e-01 -1.922330e-02 5.692334e-01 -1.082031e+00 1.355469e+00
6.750391e+01 4.130435e-01 -1.922743e-02 5.692962e-01 -1.089844e+00 1.359375e+00
6.728125e+01 4.173913e-01 -1.921916e-02 5.694002e-01 -1.093750e+00 1.363281e+00
6.730469e+01 4.130435e-01 -1.922950e-02 5.694583e-01 -1.097656e+00 1.363281e+00
6.728125e+01 4.173913e-01 -1.923776e-02 5.695703e-01 -1.101562e+00 1.367188e+00
6.725000e+01 4.130435e-01 -1.923156e-02 5.696974e-01 -1.105469e+00 1.371094e+00
6.706250e+01 4.130435e-01 -1.923156e-02 5.697881e-01 -1.109375e+00 1.375000e+00
6.717578e+01 4.173913e-01 -1.923156e-02 5.698380e-01 -1.109375e+00 1.375000e+00
6.707812e+01 4.217391e-01 -1.925017e-02 5.698651e-01 -1.113281e+00 1.375000e+00
6.728906e+01 4.173913e-01 -1.927290e-02 5.699456e-01 -1.117188e+00 1.378906e+00
6.721484e+01 4.173913e-01 -1.926877e-02 5.699583e-01 -1.113281e+00 1.378906e+00
6.746875e+01 4.173913e-01 -1.925843e-02 5.700037e-01 -1.117188e+00 1.382812e+00
6.737109e+01 4.173913e-01 -1.925017e-02 5.701310e-01 -1.125000e+00 1.386719e+00
6.737109e+01 4.173913e-01 -1.925223e-02 5.702098e-01 -1.125000e+00 1.386719e+00
6.719141e+01 4.130435e-01 -1.922743e-02 5.702623e-01 -1.128906e+00 1.386719e+00
6.716797e+01 4.130435e-01 -1.921090e-02 5.703169e-01 -1.128906e+00 1.386719e+00
6.710156e+01 4.173913e-01 -1.920883e-02 5.703790e-01 -1.132812e+00 1.386719e+00
6.725000e+01 4.173913e-01 -1.922123e-02 5.703806e-01 -1.132812e+00 1.386719e+00
6.717188e+01 4.173913e-01 -1.922123e-02 5.704133e-01 -1.136719e+00 1.386719e+00
6.715625e+01 4.130435e-01 -1.923363e-02 5.704765e-01 -1.140625e+00 1.386719e+00
6.709375e+01 4.086957e-01 -1.922536e-02 5.706542e-01 -1.148438e+00 1.394531e+00
6.728906e+01 4.130435e-01 -1.923156e-02 5.707847e-01 -1.152344e+00 1.398438e+00
6.719141e+01 4.043478e-01 -1.920056e-02 5.708818e-01 -1.152344e+00 1.402344e+00
6.730469e+01 4.086957e-01 -1.919436e-02 5.708849e-01 -1.152344e+00 1.402344e+00
6.742578e+01 4.130435e-01 -1.916543e-02 5.709262e-01 -1.156250e+00 1.406250e+00
6.755859e+01 4.173913e-01 -1.913442e-02 5.710359e-01 -1.156250e+00 1.410156e+00
6.728516e+01 4.130435e-01 -1.911789e-02 5.710896e-01 -1.160156e+00 1.410156e+00
6.739062e+01 4.086957e-01 -1.912409e-02 5.711305e-01 -1.164062e+00 1.414062e+00
6.720703e+01 4.173913e-01 -1.910136e-02 5.713048e-01 -1.167969e+00 1.417969e+00
6.707031e+01 4.130435e-01 -1.906002e-02 5.714553e-01 -1.175781e+00 1.425781e+00
6.698828e+01 4.217391e-01 -1.904142e-02 5.715567e-01 -1.179688e+00 1.429688e+00
6.698828e+01 4.217391e-01 -1.905589e-02 5.716241e-01 -1.179688e+00 1.425781e+00
6.703516e+01 4.130435e-01 -1.906209e-02 5.716262e-01 -1.179688e+00 1.425781e+00
6.704297e+01 4.173913e-01 -1.905175e-02 5.717636e-01 -1.187500e+00 1.429688e+00
6.690625e+01 4.173913e-01 -1.903315e-02 5.718594e-01 -1.191406e+00 1.429688e+00
6.688672e+01 4.043478e-01 -1.902282e-02 5.719905e-01 -1.199219e+00 1.437500e+00
6.697656e+01 4.130435e-01 -1.903729e-02 5.721205e-01 -1.207031e+00 1.437500e+00
6.682812e+01 4.043478e-01 -1.904349e-02 5.721926e-01 -1.210938e+00 1.437500e+00
6.685547e+01 4.043478e-01 -1.903522e-02 5.722901e-01 -1.214844e+00 1.441406e+00
6.690234e+01 4.043478e-01 -1.902695e-02 5.723865e-01 -1.218750e+00 1.441406e+00
6.696484e+01 4.043478e-01 -1.902902e-02 5.725786e-01 -1.222656e+00 1.445312e+00
6.696094e+01 4.043478e-01 -1.902075e-02 5.726233e-01 -1.226562e+00 1.449219e+00
6.692188e+01 4.043478e-01 -1.899388e-02 5.727445e-01 -1.230469e+00 1.449219e+00
6.686328e+01 4.043478e-01 -1.898975e-02 5.728099e-01 -1.234375e+00 1.453125e+00
6.695703e+01 4.000000e-01 -1.897735e-02 5.729580e-01 -1.242188e+00 1.453125e+00
6.669531e+01 4.000000e-01 -1.895875e-02 5.730987e-01 -1.246094e+00 1.457031e+00
6.686719e+01 4.043478e-01 -1.894428e-02 5.732051e-01 -1.250000e+00 1.457031e+00
6.682031e+01 4.000000e-01 -1.897115e-02 5.733897e-01 -1.253906e+00 1.460938e+00
6.667969e+01 4.043478e-01 -1.897528e-02 5.735117e-01 -1.261719e+00 1.460938e+00
6.669531e+01 3.956522e-01 -1.897321e-02 5.736108e-01 -1.261719e+00 1.460938e+00
6.673047e+01 3.956522e-01 -1.897321e-02 5.736248e-01 -1.261719e+00 1.460938e+00
6.668359e+01 4.043478e-01 -1.896495e-02 5.737558e-01 -1.265625e+00 1.464844e+00
6.675000e+01 3.956522e-01 -1.898355e-02 5.739557e-01 -1.269531e+00 1.468750e+00
6.670312e+01 3.956522e-01 -1.900215e-02 5.740635e-01 -1.273438e+00 1.468750e+00
6.676562e+01 3.913043e-01 -1.896495e-02 5.742426e-01 -1.281250e+00 1.472656e+00
6.667578e+01 3.826087e-01 -1.895048e-02 5.744565e-01 -1.285156e+00 1.480469e+00
6.671094e+01 3.826087e-01 -1.895875e-02 5.746401e-01 -1.285156e+00 1.480469e+00
6.664453e+01 3.869565e-01 -1.898355e-02 5.747786e-01 -1.289062e+00 1.484375e+00
6.656641e+01 3.869565e-01 -1.896908e-02 5.749040e-01 -1.292969e+00 1.484375e+00
6.660938e+01 3.913043e-01 -1.897735e-02 5.749579e-01 -1.296875e+00 1.484375e+00
6.658594e+01 3.869565e-01 -1.897941e-02 5.750024e-01 -1.296875e+00 1.484375e+00
6.645312e+01 3.913043e-01 -1.897941e-02 5.751448e-01 -1.304688e+00 1.492188e+00
6.646094e+01 3.695652e-01 -1.897115e-02 5.752592e-01 -1.304688e+00 1.496094e+00
6.645703e+01 3.695652e-01 -1.897941e-02 5.753309e-01 -1.304688e+00 1.496094e+00
6.652734e+01 3.652174e-01 -1.897528e-02 5.754250e-01 -1.308594e+00 1.500000e+00
6.644922e+01 3.608696e-01 -1.897528e-02 5.755239e-01 -1.308594e+00 1.503906e+00
6.651562e+01 3.739130e-01 -1.896495e-02 5.757450e-01 -1.316406e+00 1.507812e+00
6.638281e+01 3.782609e-01 -1.894221e-02 5.758812e-01 -1.320312e+00 1.511719e+00
6.634375e+01 3.826087e-01 -1.892154e-02 5.760545e-01 -1.324219e+00 1.511719e+00
6.642969e+01 3.826087e-01 -1.892154e-02 5.760982e-01 -1.324219e+00 1.515625e+00
6.624219e+01 3.782609e-01 -1.891948e-02 5.762452e-01 -1.328125e+00 1.519531e+00
6.627734e+01 3.739130e-01 -1.889881e-02 5.764566e-01 -1.332031e+00 1.523438e+00
6.632031e+01 3.608696e-01 -1.891328e-02 5.766092e-01 -1.335938e+00 1.527344e+00
6.621484e+01 3.739130e-01 -1.892981e-02 5.767078e-01 -1.339844e+00 1.527344e+00
6.616797e+01 3.782609e-01 -1.893395e-02 5.767640e-01 -1.343750e+00 1.527344e+00
6.628906e+01 3.782609e-01 -1.891948e-02 5.769177e-01 -1.347656e+00 1.531250e+00
6.609375e+01 3.782609e-01 -1.890708e-02 5.770971e-01 -1.351562e+00 1.539062e+00
6.610547e+01 3.782609e-01 -1.891121e-02 5.772317e-01 -1.355469e+00 1.535156e+00
6.601953e+01 3.782609e-01 -1.891741e-02 5.773716e-01 -1.359375e+00 1.535156e+00
6.596094e+01 3.826087e-01 -1.891534e-02 5.774402e-01 -1.363281e+00 1.535156e+00
6.599219e+01 3.565217e-01 -1.890708e-02 5.776447e-01 -1.367188e+00 1.542969e+00
6.603125e+01 3.652174e-01 -1.890708e-02 5.778410e-01 -1.375000e+00 1.546875e+00
6.562891e+01 3.695652e-01 -1.892774e-02 5.780175e-01 -1.378906e+00 1.546875e+00
6.561328e+01 3.695652e-01 -1.893601e-02 5.781126e-01 -1.382812e+00 1.546875e+00
6.561328e+01 3.695652e-01 -1.893188e-02 5.781508e-01 -1.382812e+00 1.546875e+00
6.585156e+01 3.695652e-01 -1.891948e-02 5.782656e-01 -1.386719e+00 1.554688e+00
6.557031e+01 3.739130e-01 -1.891741e-02 5.785133e-01 -1.394531e+00 1.558594e+00
6.567188e+01 3.695652e-01 -1.892981e-02 5.787715e-01 -1.398438e+00 1.566406e+00
6.543750e+01 3.608696e-01 -1.894841e-02 5.789469e-01 -1.402344e+00 1.566406e+00
6.527344e+01 3.521739e-01 -1.893808e-02 5.791537e-01 -1.406250e+00 1.570312e+00
6.540234e+01 3.478261e-01 -1.891534e-02 5.792970e-01 -1.406250e+00 1.574219e+00
6.528125e+01 3.478261e-01 -1.890294e-02 5.794268e-01 -1.410156e+00 1.578125e+00
6.525000e+01 3.565217e-01 -1.891121e-02 5.795664e-01 -1.414062e+00 1.578125e+00
6.523047e+01 3.478261e-01 -1.890708e-02 5.797340e-01 -1.421875e+00 1.582031e+00
6.510938e+01 3.434783e-01 -1.891948e-02 5.799736e-01 -1.425781e+00 1.589844e+00
6.521875e+01 3.347826e-01 -1.891328e-02 5.801436e-01 -1.425781e+00 1.593750e+00
6.512109e+01 3.217391e-01 -1.891328e-02 5.802784e-01 -1.425781e+00 1.597656e+00
6.508984e+01 3.260870e-01 -1.893808e-02 5.804472e-01 -1.433594e+00 1.605469e+00
6.485938e+01 3.043478e-01 -1.893188e-02 5.807061e-01 -1.441406e+00 1.613281e+00
6.487109e+01 3.130435e-01 -1.892154e-02 5.810530e-01 -1.449219e+00 1.617188e+00
6.495703e+01 3.130435e-01 -1.892361e-02 5.812728e-01 -1.453125e+00 1.621094e+00
6.478906e+01 3.173913e-01 -1.893188e-02 5.815072e-01 -1.457031e+00 1.625000e+00
6.479688e+01 3.130435e-01 -1.894635e-02 5.816933e-01 -1.460938e+00 1.628906e+00
6.461328e+01 3.130435e-01 -1.893601e-02 5.820358e-01 -1.472656e+00 1.636719e+00
6.460547e+01 3.043478e-01 -1.898975e-02 5.823967e-01 -1.480469e+00 1.640625e+00
6.451953e+01 3.130435e-01 -1.899388e-02 5.825948e-01 -1.480469e+00 1.644531e+00
6.431250e+01 3.043478e-01 -1.901868e-02 5.828149e-01 -1.488281e+00 1.652344e+00
6.475781e+01 3.260870e-01 -1.899388e-02 5.831526e-01 -1.492188e+00 1.652344e+00
6.451172e+01 3.173913e-01 -1.902902e-02 5.834072e-01 -1.496094e+00 1.656250e+00
6.452344e+01 3.173913e-01 -1.903935e-02 5.834796e-01 -1.496094e+00 1.656250e+00
6.439844e+01 3.217391e-01 -1.907242e-02 5.835736e-01 -1.500000e+00 1.660156e+00
6.445703e+01 3.260870e-01 -1.909102e-02 5.840164e-01 -1.507812e+00 1.667969e+00
6.432422e+01 3.217391e-01 -1.908689e-02 5.843214e-01 -1.507812e+00 1.671875e+00
6.457422e+01 3.173913e-01 -1.917576e-02 5.846503e-01 -1.515625e+00 1.679688e+00
6.402734e+01 3.130435e-01 -1.919643e-02 5.851470e-01 -1.523438e+00 1.691406e+00
6.371094e+01 3.086957e-01 -1.926463e-02 5.856627e-01 -1.531250e+00 1.699219e+00
6.368359e+01 3.130435e-01 -1.932250e-02 5.859411e-01 -1.535156e+00 1.703125e+00
6.359766e+01 3.043478e-01 -1.941551e-02 5.863228e-01 -1.539062e+00 1.707031e+00
6.354688e+01 2.956522e-01 -1.942998e-02 5.867266e-01 -1.546875e+00 1.714844e+00
6.357031e+01 2.869565e-01 -1.947131e-02 5.869607e-01 -1.546875e+00 1.718750e+00
6.328906e+01 3.130435e-01 -1.952918e-02 5.873340e-01 -1.554688e+00 1.726562e+00
6.348047e+01 2.913043e-01 -1.963666e-02 5.877087e-01 -1.554688e+00 1.730469e+00
6.308594e+01 2.695652e-01 -1.969453e-02 5.879900e-01 -1.558594e+00 1.738281e+00
6.305859e+01 2.869565e-01 -1.982267e-02 5.885101e-01 -1.566406e+00 1.746094e+00
6.278516e+01 2.652174e-01 -1.989087e-02 5.888095e-01 -1.566406e+00 1.750000e+00
6.275000e+01 2.695652e-01 -2.000661e-02 5.891673e-01 -1.574219e+00 1.757812e+00
6.251172e+01 2.565217e-01 -2.013062e-02 5.895465e-01 -1.578125e+00 1.761719e+00
6.223828e+01 2.608696e-01 -2.023396e-02 5.898679e-01 -1.582031e+00 1.765625e+00
6.219922e+01 2.652174e-01 -2.035590e-02 5.902912e-01 -1.585938e+00 1.769531e+00
6.215625e+01 2.652174e-01 -2.052125e-02 5.907273e-01 -1.593750e+00 1.777344e+00
6.213281e+01 2.608696e-01 -2.067212e-02 5.912340e-01 -1.597656e+00 1.785156e+00
6.218750e+01 2.695652e-01 -2.081060e-02 5.917137e-01 -1.605469e+00 1.789062e+00
6.200391e+01 2.695652e-01 -2.092221e-02 5.921384e-01 -1.613281e+00 1.796875e+00
6.188672e+01 2.695652e-01 -2.101108e-02 5.926198e-01 -1.621094e+00 1.800781e+00
6.192188e+01 2.652174e-01 -2.109995e-02 5.930314e-01 -1.625000e+00 1.804688e+00
6.179297e+01 2.739130e-01 -2.122189e-02 5.933949e-01 -1.628906e+00 1.808594e+00
6.151172e+01 2.695652e-01 -2.135003e-02 5.938736e-01 -1.636719e+00 1.816406e+00
6.137500e+01 2.608696e-01 -2.150298e-02 5.942720e-01 -1.636719e+00 1.820312e+00
6.122266e+01 2.652174e-01 -2.164765e-02 5.947367e-01 -1.644531e+00 1.828125e+00
6.124219e+01 2.652174e-01 -2.175719e-02 5.951858e-01 -1.648438e+00 1.835938e+00
6.086719e+01 2.652174e-01 -2.186053e-02 5.956344e-01 -1.656250e+00 1.835938e+00
6.044531e+01 2.608696e-01 -2.195561e-02 5.960963e-01 -1.660156e+00 1.839844e+00
6.074609e+01 2.565217e-01 -2.208375e-02 5.965429e-01 -1.664062e+00 1.843750e+00
6.050391e+01 2.521739e-01 -2.223049e-02 5.970263e-01 -1.675781e+00 1.847656e+00
6.019922e+01 2.478261e-01 -2.237930e-02 5.974957e-01 -1.683594e+00 1.851562e+00
5.991797e+01 2.521739e-01 -2.249917e-02 5.979898e-01 -1.691406e+00 1.859375e+00
5.989062e+01 2.608696e-01 -2.262525e-02 5.985074e-01 -1.699219e+00 1.863281e+00
5.967188e+01 2.565217e-01 -2.275546e-02 5.990612e-01 -1.703125e+00 1.871094e+00
5.963281e+01 2.652174e-01 -2.292080e-02 5.996435e-01 -1.707031e+00 1.882812e+00
5.924219e+01 2.652174e-01 -2.302001e-02 6.002385e-01 -1.710938e+00 1.890625e+00
5.896484e+01 2.608696e-01 -2.310681e-02 6.007485e-01 -1.714844e+00 1.902344e+00
5.896484e+01 2.565217e-01 -2.323495e-02 6.013224e-01 -1.718750e+00 1.902344e+00
5.890625e+01 2.565217e-01 -2.336930e-02 6.018160e-01 -1.730469e+00 1.906250e+00
5.835547e+01 2.565217e-01 -2.349950e-02 6.024326e-01 -1.734375e+00 1.914062e+00
5.821875e+01 2.565217e-01 -2.364831e-02 6.029918e-01 -1.742188e+00 1.921875e+00
5.836719e+01 2.565217e-01 -2.375372e-02 6.035124e-01 -1.746094e+00 1.929688e+00
5.843359e+01 2.565217e-01 -2.383846e-02 6.040626e-01 -1.753906e+00 1.933594e+00
5.825391e+01 2.608696e-01 -2.398107e-02 6.045999e-01 -1.761719e+00 1.941406e+00
5.789062e+01 2.478261e-01 -2.411954e-02 6.052832e-01 -1.773438e+00 1.949219e+00
5.786719e+01 2.391304e-01 -2.422288e-02 6.058941e-01 -1.781250e+00 1.957031e+00
5.746875e+01 2.347826e-01 -2.432829e-02 6.065245e-01 -1.792969e+00 1.960938e+00
5.741016e+01 2.347826e-01 -2.437996e-02 6.070713e-01 -1.800781e+00 1.968750e+00
5.761328e+01 2.434783e-01 -2.445023e-02 6.076358e-01 -1.808594e+00 1.972656e+00
5.703906e+01 2.391304e-01 -2.459077e-02 6.082619e-01 -1.812500e+00 1.980469e+00
5.661719e+01 2.347826e-01 -2.469618e-02 6.088617e-01 -1.820312e+00 1.988281e+00
5.662109e+01 2.434783e-01 -2.476645e-02 6.093795e-01 -1.828125e+00 1.992188e+00
5.610938e+01 2.347826e-01 -2.482019e-02 6.099951e-01 -1.835938e+00 2.000000e+00
5.580078e+01 2.391304e-01 -2.488426e-02 6.105094e-01 -1.839844e+00 2.003906e+00
5.546875e+01 2.304348e-01 -2.503100e-02 6.111369e-01 -1.843750e+00 2.011719e+00
5.512500e+01 2.304348e-01 -2.507027e-02 6.117346e-01 -1.851562e+00 2.019531e+00
5.483984e+01 2.304348e-01 -2.514674e-02 6.123473e-01 -1.859375e+00 2.027344e+00
5.507422e+01 2.260870e-01 -2.523148e-02 6.129306e-01 -1.867188e+00 2.031250e+00
5.454297e+01 2.347826e-01 -2.532862e-02 6.137207e-01 -1.875000e+00 2.039062e+00
5.425000e+01 2.304348e-01 -2.545883e-02 6.143888e-01 -1.878906e+00 2.046875e+00
5.407812e+01 2.304348e-01 -2.548776e-02 6.148899e-01 -1.886719e+00 2.054688e+00
5.416406e+01 2.304348e-01 -2.557664e-02 6.155303e-01 -1.890625e+00 2.062500e+00
5.405469e+01 2.304348e-01 -2.561797e-02 6.160926e-01 -1.894531e+00 2.070312e+00
5.389453e+01 2.347826e-01 -2.574405e-02 6.167687e-01 -1.906250e+00 2.074219e+00
5.392188e+01 2.347826e-01 -2.579985e-02 6.173983e-01 -1.917969e+00 2.078125e+00
5.399219e+01 2.347826e-01 -2.581845e-02 6.178440e-01 -1.929688e+00 2.082031e+00
5.355469e+01 2.260870e-01 -2.584945e-02 6.184154e-01 -1.941406e+00 2.089844e+00
5.371875e+01 2.260870e-01 -2.592799e-02 6.191261e-01 -1.957031e+00 2.097656e+00
5.344141e+01 2.304348e-01 -2.597966e-02 6.196409e-01 -1.968750e+00 2.101562e+00
5.316406e+01 2.304348e-01 -2.607680e-02 6.202182e-01 -1.980469e+00 2.109375e+00
5.310547e+01 2.391304e-01 -2.610574e-02 6.209637e-01 -1.992188e+00 2.117188e+00
5.275391e+01 2.391304e-01 -2.617601e-02 6.216979e-01 -2.000000e+00 2.125000e+00
5.253125e+01 2.391304e-01 -2.623801e-02 6.222937e-01 -2.015625e+00 2.132812e+00
5.226562e+01 2.391304e-01 -2.634135e-02 6.229622e-01 -2.023438e+00 2.136719e+00
5.203906e+01 2.391304e-01 -2.645709e-02 6.236653e-01 -2.031250e+00 2.140625e+00
5.168359e+01 2.391304e-01 -2.647156e-02 6.241277e-01 -2.039062e+00 2.140625e+00
5.172266e+01 2.391304e-01 -2.655837e-02 6.247537e-01 -2.046875e+00 2.148438e+00
5.169922e+01 2.347826e-01 -2.663690e-02 6.251810e-01 -2.054688e+00 2.148438e+00
5.161328e+01 2.391304e-01 -2.665551e-02 6.256004e-01 -2.062500e+00 2.156250e+00
5.129688e+01 2.391304e-01 -2.664517e-02 6.260679e-01 -2.070312e+00 2.164062e+00
5.154688e+01 2.521739e-01 -2.665964e-02 6.266114e-01 -2.082031e+00 2.171875e+00
5.105859e+01 2.434783e-01 -2.675885e-02 6.271704e-01 -2.089844e+00 2.179688e+00
5.101172e+01 2.391304e-01 -2.682705e-02 6.276711e-01 -2.101562e+00 2.183594e+00
5.107031e+01 2.434783e-01 -2.689525e-02 6.281504e-01 -2.109375e+00 2.187500e+00
5.091016e+01 2.347826e-01 -2.689319e-02 6.285253e-01 -2.121094e+00 2.191406e+00
5.062109e+01 2.347826e-01 -2.688492e-02 6.290694e-01 -2.132812e+00 2.203125e+00
5.053906e+01 2.391304e-01 -2.690972e-02 6.295937e-01 -2.140625e+00 2.210938e+00
5.082422e+01 2.391304e-01 -2.689319e-02 6.302582e-01 -2.148438e+00 2.218750e+00
5.063672e+01 2.391304e-01 -2.691386e-02 6.307844e-01 -2.156250e+00 2.218750e+00
5.031641e+01 2.391304e-01 -2.692212e-02 6.313563e-01 -2.164062e+00 2.226562e+00
5.044922e+01 2.391304e-01 -2.690766e-02 6.317657e-01 -2.175781e+00 2.226562e+00
5.005859e+01 2.391304e-01 -2.694072e-02 6.322494e-01 -2.187500e+00 2.230469e+00
4.979688e+01 2.391304e-01 -2.697999e-02 6.328941e-01 -2.195312e+00 2.238281e+00
4.971484e+01 2.434783e-01 -2.697586e-02 6.332998e-01 -2.199219e+00 2.242188e+00
4.977344e+01 2.391304e-01 -2.694692e-02 6.338936e-01 -2.210938e+00 2.253906e+00
4.946875e+01 2.391304e-01 -2.696759e-02 6.344165e-01 -2.222656e+00 2.257812e+00
4.945312e+01 2.347826e-01 -2.698413e-02 6.348987e-01 -2.234375e+00 2.261719e+00
4.946094e+01 2.434783e-01 -2.691592e-02 6.355830e-01 -2.246094e+00 2.273438e+00
4.923438e+01 2.391304e-01 -2.699653e-02 6.362535e-01 -2.253906e+00 2.277344e+00
4.901953e+01 2.391304e-01 -2.702340e-02 6.367246e-01 -2.261719e+00 2.281250e+00
4.897266e+01 2.347826e-01 -2.703166e-02 6.371537e-01 -2.269531e+00 2.289062e+00
4.884766e+01 2.347826e-01 -2.698206e-02 6.374302e-01 -2.273438e+00 2.292969e+00
4.849219e+01 2.347826e-01 -2.690972e-02 6.378366e-01 -2.281250e+00 2.296875e+00
4.851172e+01 2.347826e-01 -2.695933e-02 6.382596e-01 -2.289062e+00 2.304688e+00
4.819922e+01 2.347826e-01 -2.693866e-02 6.389418e-01 -2.300781e+00 2.312500e+00
4.803516e+01 2.347826e-01 -2.697793e-02 6.394959e-01 -2.304688e+00 2.316406e+00
4.776172e+01 2.260870e-01 -2.705233e-02 6.399176e-01 -2.312500e+00 2.316406e+00
4.786719e+01 2.304348e-01 -2.702546e-02 6.402497e-01 -2.316406e+00 2.320312e+00
4.757812e+01 2.260870e-01 -2.703580e-02 6.406870e-01 -2.324219e+00 2.324219e+00
4.770703e+01 2.304348e-01 -2.703373e-02 6.409676e-01 -2.328125e+00 2.320312e+00
4.758594e+01 2.260870e-01 -2.702960e-02 6.414028e-01 -2.332031e+00 2.324219e+00
4.742969e+01 2.217391e-01 -2.709367e-02 6.418652e-01 -2.343750e+00 2.332031e+00
4.718359e+01 2.217391e-01 -2.702753e-02 6.423163e-01 -2.347656e+00 2.332031e+00
4.719531e+01 2.217391e-01 -2.702133e-02 6.425247e-01 -2.351562e+00 2.332031e+00
4.708203e+01 2.217391e-01 -2.701100e-02 6.427937e-01 -2.359375e+00 2.339844e+00
4.733203e+01 2.260870e-01 -2.699033e-02 6.430880e-01 -2.363281e+00 2.343750e+00
4.739453e+01 2.217391e-01 -2.699239e-02 6.433590e-01 -2.371094e+00 2.347656e+00
4.729297e+01 2.217391e-01 -2.701513e-02 6.437973e-01 -2.375000e+00 2.347656e+00
4.733984e+01 2.260870e-01 -2.697173e-02 6.442405e-01 -2.382812e+00 2.355469e+00
4.742578e+01 2.260870e-01 -2.698206e-02 6.445382e-01 -2.386719e+00 2.359375e+00
4.721094e+01 2.304348e-01 -2.689112e-02 6.448273e-01 -2.394531e+00 2.363281e+00
4.737109e+01 2.347826e-01 -2.685805e-02 6.452141e-01 -2.406250e+00 2.367188e+00
4.728516e+01 2.304348e-01 -2.689319e-02 6.456636e-01 -2.410156e+00 2.367188e+00
4.714844e+01 2.304348e-01 -2.683325e-02 6.460600e-01 -2.414062e+00 2.375000e+00
4.712891e+01 2.304348e-01 -2.685185e-02 6.463589e-01 -2.421875e+00 2.375000e+00
4.699219e+01 2.304348e-01 -2.682912e-02 6.468360e-01 -2.429688e+00 2.382812e+00
4.685547e+01 2.304348e-01 -2.682085e-02 6.474497e-01 -2.433594e+00 2.386719e+00
4.694922e+01 2.304348e-01 -2.675058e-02 6.478412e-01 -2.437500e+00 2.390625e+00
4.668750e+01 2.391304e-01 -2.680638e-02 6.483689e-01 -2.449219e+00 2.398438e+00
4.651953e+01 2.391304e-01 -2.684565e-02 6.489136e-01 -2.460938e+00 2.398438e+00
4.644141e+01 2.304348e-01 -2.684152e-02 6.492922e-01 -2.468750e+00 2.402344e+00
4.612109e+01 2.391304e-01 -2.690146e-02 6.496442e-01 -2.476562e+00 2.406250e+00
4.610547e+01 2.347826e-01 -2.691799e-02 6.500396e-01 -2.484375e+00 2.410156e+00
4.607812e+01 2.391304e-01 -2.695106e-02 6.504333e-01 -2.496094e+00 2.414062e+00
4.616797e+01 2.434783e-01 -2.706473e-02 6.506994e-01 -2.503906e+00 2.417969e+00
4.612891e+01 2.434783e-01 -2.709573e-02 6.510515e-01 -2.511719e+00 2.425781e+00
4.607812e+01 2.434783e-01 -2.713914e-02 6.516251e-01 -2.523438e+00 2.433594e+00
4.598047e+01 2.434783e-01 -2.710813e-02 6.518659e-01 -2.527344e+00 2.433594e+00
4.616016e+01 2.434783e-01 -2.716394e-02 6.520959e-01 -2.531250e+00 2.433594e+00
4.602734e+01 2.434783e-01 -2.721147e-02 6.522252e-01 -2.535156e+00 2.433594e+00
4.598828e+01 2.391304e-01 -2.727761e-02 6.525515e-01 -2.542969e+00 2.437500e+00
4.609375e+01 2.434783e-01 -2.727968e-02 6.529834e-01 -2.546875e+00 2.445312e+00
4.582031e+01 2.347826e-01 -2.724868e-02 6.533985e-01 -2.554688e+00 2.453125e+00
4.576562e+01 2.304348e-01 -2.722388e-02 6.537721e-01 -2.562500e+00 2.460938e+00
4.577734e+01 2.304348e-01 -2.720114e-02 6.543358e-01 -2.570312e+00 2.468750e+00
4.576172e+01 2.304348e-01 -2.715154e-02 6.547016e-01 -2.574219e+00 2.472656e+00
4.576953e+01 2.347826e-01 -2.723834e-02 6.550413e-01 -2.578125e+00 2.472656e+00
4.570703e+01 2.304348e-01 -2.726728e-02 6.552366e-01 -2.582031e+00 2.476562e+00
4.523438e+01 2.347826e-01 -2.720321e-02 6.554434e-01 -2.585938e+00 2.480469e+00
4.514062e+01 2.347826e-01 -2.728381e-02 6.556695e-01 -2.589844e+00 2.480469e+00
4.501953e+01 2.304348e-01 -2.725694e-02 6.558692e-01 -2.593750e+00 2.484375e+00
4.500391e+01 2.173913e-01 -2.723214e-02 6.559548e-01 -2.597656e+00 2.484375e+00
4.487891e+01 2.173913e-01 -2.724454e-02 6.562118e-01 -2.605469e+00 2.488281e+00
4.479688e+01 2.173913e-01 -2.719907e-02 6.566025e-01 -2.609375e+00 2.492188e+00
4.473047e+01 2.173913e-01 -2.715154e-02 6.569120e-01 -2.613281e+00 2.492188e+00
4.467969e+01 2.173913e-01 -2.715154e-02 6.569887e-01 -2.613281e+00 2.492188e+00
4.474219e+01 2.217391e-01 -2.709573e-02 6.573133e-01 -2.621094e+00 2.496094e+00
4.477344e+01 2.217391e-01 -2.717634e-02 6.575760e-01 -2.625000e+00 2.500000e+00
4.466016e+01 2.173913e-01 -2.729001e-02 6.577598e-01 -2.628906e+00 2.503906e+00
4.451953e+01 2.217391e-01 -2.721561e-02 6.581164e-01 -2.636719e+00 2.507812e+00
4.465625e+01 2.260870e-01 -2.719907e-02 6.583848e-01 -2.640625e+00 2.511719e+00
4.460156e+01 2.217391e-01 -2.734582e-02 6.586950e-01 -2.644531e+00 2.515625e+00
4.480859e+01 2.217391e-01 -2.727968e-02 6.589506e-01 -2.648438e+00 2.519531e+00
4.485938e+01 2.260870e-01 -2.728175e-02 6.592173e-01 -2.656250e+00 2.519531e+00
4.481641e+01 2.304348e-01 -2.731895e-02 6.597914e-01 -2.664062e+00 2.523438e+00
4.472656e+01 2.173913e-01 -2.721768e-02 6.600027e-01 -2.667969e+00 2.527344e+00
4.462500e+01 2.217391e-01 -2.724454e-02 6.602765e-01 -2.671875e+00 2.531250e+00
4.449609e+01 2.217391e-01 -2.731275e-02 6.605297e-01 -2.675781e+00 2.535156e+00
4.457031e+01 2.217391e-01 -2.726108e-02 6.608677e-01 -2.679688e+00 2.535156e+00
4.456641e+01 2.217391e-01 -2.726108e-02 6.610560e-01 -2.683594e+00 2.535156e+00
4.454688e+01 2.217391e-01 -2.727141e-02 6.613493e-01 -2.687500e+00 2.539062e+00
4.460938e+01 2.217391e-01 -2.724454e-02 6.616052e-01 -2.695312e+00 2.542969e+00
4.458984e+01 2.173913e-01 -2.731275e-02 6.621532e-01 -2.703125e+00 2.542969e+00
4.453125e+01 2.173913e-01 -2.722801e-02 6.626186e-01 -2.710938e+00 2.542969e+00
4.442969e+01 2.173913e-01 -2.717221e-02 6.627926e-01 -2.710938e+00 2.542969e+00
4.427344e+01 2.130435e-01 -2.721147e-02 6.629507e-01 -2.714844e+00 2.546875e+00
4.423828e+01 2.130435e-01 -2.720941e-02 6.629987e-01 -2.718750e+00 2.546875e+00
4.420703e+01 2.130435e-01 -2.718667e-02 6.631772e-01 -2.718750e+00 2.546875e+00
4.418750e+01 2.217391e-01 -2.727141e-02 6.633912e-01 -2.722656e+00 2.550781e+00
4.407812e+01 2.130435e-01 -2.716807e-02 6.636321e-01 -2.726562e+00 2.550781e+00
4.438281e+01 2.173913e-01 -2.719907e-02 6.638352e-01 -2.734375e+00 2.550781e+00
4.412891e+01 2.130435e-01 -2.726935e-02 6.641483e-01 -2.738281e+00 2.550781e+00
4.409766e+01 2.173913e-01 -2.727761e-02 6.644093e-01 -2.742188e+00 2.554688e+00
4.402734e+01 2.173913e-01 -2.733755e-02 6.647938e-01 -2.746094e+00 2.554688e+00
4.405469e+01 2.260870e-01 -2.734375e-02 6.648627e-01 -2.750000e+00 2.554688e+00
4.414844e+01 2.260870e-01 -2.733548e-02 6.651761e-01 -2.750000e+00 2.554688e+00
4.412109e+01 2.260870e-01 -2.729001e-02 6.653109e-01 -2.750000e+00 2.554688e+00
4.391797e+01 2.217391e-01 -2.726108e-02 6.655749e-01 -2.757812e+00 2.558594e+00
4.375391e+01 2.173913e-01 -2.727761e-02 6.657481e-01 -2.761719e+00 2.558594e+00
4.373047e+01 2.173913e-01 -2.729208e-02 6.659367e-01 -2.769531e+00 2.562500e+00
4.377344e+01 2.173913e-01 -2.728381e-02 6.662491e-01 -2.773438e+00 2.566406e+00
4.390625e+01 2.173913e-01 -2.732722e-02 6.664059e-01 -2.777344e+00 2.566406e+00
4.386719e+01 2.173913e-01 -2.733962e-02 6.664672e-01 -2.777344e+00 2.566406e+00
4.356250e+01 2.217391e-01 -2.735615e-02 6.664694e-01 -2.777344e+00 2.566406e+00
4.370703e+01 2.173913e-01 -2.741609e-02 6.668068e-01 -2.785156e+00 2.570312e+00
4.357422e+01 2.130435e-01 -2.738715e-02 6.670161e-01 -2.789062e+00 2.574219e+00
4.346875e+01 2.130435e-01 -2.748016e-02 6.673187e-01 -2.796875e+00 2.574219e+00
4.335156e+01 2.173913e-01 -2.745949e-02 6.675555e-01 -2.800781e+00 2.578125e+00
4.349219e+01 2.173913e-01 -2.745742e-02 6.677653e-01 -2.804688e+00 2.578125e+00
4.343750e+01 2.173913e-01 -2.743469e-02 6.679090e-01 -2.804688e+00 2.578125e+00
4.342188e+01 2.173913e-01 -2.745329e-02 6.680706e-01 -2.808594e+00 2.578125e+00
4.333594e+01 2.173913e-01 -2.751323e-02 6.683372e-01 -2.812500e+00 2.578125e+00
4.346484e+01 2.130435e-01 -2.741815e-02 6.685535e-01 -2.816406e+00 2.578125e+00
4.331641e+01 2.130435e-01 -2.750083e-02 6.687462e-01 -2.820312e+00 2.582031e+00
4.317188e+01 2.130435e-01 -2.751943e-02 6.690313e-01 -2.824219e+00 2.582031e+00
4.310938e+01 2.086957e-01 -2.757937e-02 6.691245e-01 -2.828125e+00 2.582031e+00
4.296094e+01 2.086957e-01 -2.754836e-02 6.693556e-01 -2.832031e+00 2.585938e+00
4.286328e+01 2.043478e-01 -2.759177e-02 6.696290e-01 -2.835938e+00 2.593750e+00
4.316797e+01 2.086957e-01 -2.762277e-02 6.699502e-01 -2.835938e+00 2.593750e+00
4.300391e+01 2.086957e-01 -2.754836e-02 6.703041e-01 -2.843750e+00 2.601562e+00
4.282031e+01 2.043478e-01 -2.758763e-02 6.706996e-01 -2.847656e+00 2.605469e+00
4.279297e+01 2.000000e-01 -2.757110e-02 6.708139e-01 -2.847656e+00 2.601562e+00
4.260156e+01 2.000000e-01 -2.755870e-02 6.709117e-01 -2.851562e+00 2.601562e+00
4.280078e+01 2.000000e-01 -2.762070e-02 6.710498e-01 -2.851562e+00 2.601562e+00
4.287891e+01 2.086957e-01 -2.766824e-02 6.711401e-01 -2.851562e+00 2.601562e+00
4.270703e+01 2.130435e-01 -2.771991e-02 6.711985e-01 -2.851562e+00 2.601562e+00
4.253516e+01 2.130435e-01 -2.774264e-02 6.713143e-01 -2.855469e+00 2.601562e+00
4.279297e+01 2.086957e-01 -2.774264e-02 6.714868e-01 -2.859375e+00 2.605469e+00
4.278906e+01 2.130435e-01 -2.768891e-02 6.716917e-01 -2.859375e+00 2.605469e+00
4.274219e+01 2.086957e-01 -2.770337e-02 6.717311e-01 -2.863281e+00 2.609375e+00
4.272266e+01 2.086957e-01 -2.766410e-02 6.718206e-01 -2.867188e+00 2.609375e+00
4.269531e+01 2.130435e-01 -2.764344e-02 6.720706e-01 -2.871094e+00 2.609375e+00
4.262500e+01 2.086957e-01 -2.768064e-02 6.723249e-01 -2.875000e+00 2.609375e+00
4.248828e+01 2.086957e-01 -2.765377e-02 6.725430e-01 -2.878906e+00 2.609375e+00
4.264844e+01 2.130435e-01 -2.763310e-02 6.726568e-01 -2.882812e+00 2.609375e+00
4.285938e+01 2.173913e-01 -2.766824e-02 6.728996e-01 -2.886719e+00 2.609375e+00
4.246875e+01 2.043478e-01 -2.766617e-02 6.730997e-01 -2.890625e+00 2.609375e+00
4.215234e+01 2.043478e-01 -2.757523e-02 6.734594e-01 -2.894531e+00 2.617188e+00
4.229688e+01 2.086957e-01 -2.765997e-02 6.736822e-01 -2.894531e+00 2.617188e+00
4.232031e+01 2.130435e-01 -2.766617e-02 6.738894e-01 -2.902344e+00 2.617188e+00
4.245703e+01 2.086957e-01 -2.774884e-02 6.740689e-01 -2.902344e+00 2.617188e+00
4.228516e+01 2.130435e-01 -2.779638e-02 6.742079e-01 -2.906250e+00 2.621094e+00
4.239844e+01 2.130435e-01 -2.780051e-02 6.744523e-01 -2.910156e+00 2.625000e+00
4.223047e+01 2.130435e-01 -2.782945e-02 6.745110e-01 -2.910156e+00 2.625000e+00
4.228906e+01 2.130435e-01 -2.780465e-02 6.745275e-01 -2.914062e+00 2.625000e+00
4.224609e+01 2.173913e-01 -2.776538e-02 6.745884e-01 -2.917969e+00 2.628906e+00
4.243750e+01 2.130435e-01 -2.774678e-02 6.747719e-01 -2.925781e+00 2.628906e+00
4.235938e+01 2.130435e-01 -2.785632e-02 6.748756e-01 -2.925781e+00 2.628906e+00
4.232812e+01 2.130435e-01 -2.789765e-02 6.749954e-01 -2.929688e+00 2.628906e+00
4.235938e+01 2.086957e-01 -2.790385e-02 6.752533e-01 -2.937500e+00 2.632812e+00
4.235938e+01 2.086957e-01 -2.790592e-02 6.754115e-01 -2.937500e+00 2.628906e+00
4.229688e+01 2.086957e-01 -2.791625e-02 6.755276e-01 -2.941406e+00 2.632812e+00
4.227344e+01 2.086957e-01 -2.784185e-02 6.757292e-01 -2.941406e+00 2.632812e+00
4.232812e+01 2.043478e-01 -2.780051e-02 6.759561e-01 -2.945312e+00 2.632812e+00
4.210547e+01 2.043478e-01 -2.779638e-02 6.761429e-01 -2.945312e+00 2.636719e+00
4.226953e+01 2.043478e-01 -2.771577e-02 6.763034e-01 -2.949219e+00 2.636719e+00
4.208594e+01 2.000000e-01 -2.774264e-02 6.765306e-01 -2.953125e+00 2.640625e+00
4.228516e+01 2.043478e-01 -2.770751e-02 6.766821e-01 -2.957031e+00 2.640625e+00
4.221484e+01 2.043478e-01 -2.764964e-02 6.768455e-01 -2.960938e+00 2.636719e+00
4.224609e+01 2.043478e-01 -2.766410e-02 6.769406e-01 -2.964844e+00 2.632812e+00
4.224609e+01 2.043478e-01 -2.765170e-02 6.770815e-01 -2.964844e+00 2.632812e+00
4.216797e+01 2.043478e-01 -2.768064e-02 6.771657e-01 -2.968750e+00 2.636719e+00
4.214844e+01 2.043478e-01 -2.769717e-02 6.773930e-01 -2.972656e+00 2.636719e+00
4.205078e+01 2.043478e-01 -2.766204e-02 6.774768e-01 -2.972656e+00 2.640625e+00
4.197656e+01 1.956522e-01 -2.774471e-02 6.775870e-01 -2.972656e+00 2.640625e+00
4.201953e+01 1.956522e-01 -2.773644e-02 6.775850e-01 -2.972656e+00 2.640625e+00
4.208203e+01 2.000000e-01 -2.776744e-02 6.776858e-01 -2.976562e+00 2.640625e+00
4.200781e+01 2.043478e-01 -2.775091e-02 6.776966e-01 -2.976562e+00 2.640625e+00
4.192578e+01 2.000000e-01 -2.779018e-02 6.777453e-01 -2.976562e+00 2.640625e+00
4.183203e+01 2.000000e-01 -2.776744e-02 6.779233e-01 -2.984375e+00 2.640625e+00
4.175391e+01 2.000000e-01 -2.782945e-02 6.782191e-01 -2.992188e+00 2.644531e+00
4.168359e+01 1.956522e-01 -2.789765e-02 6.787057e-01 -2.992188e+00 2.644531e+00
4.179297e+01 2.000000e-01 -2.777571e-02 6.789560e-01 -2.996094e+00 2.648438e+00
4.179688e+01 1.956522e-01 -2.786045e-02 6.791338e-01 -2.996094e+00 2.652344e+00
4.186719e+01 1.956522e-01 -2.789765e-02 6.793522e-01 -3.000000e+00 2.652344e+00
4.185938e+01 1.956522e-01 -2.788938e-02 6.795385e-01 -3.003906e+00 2.652344e+00
4.173047e+01 1.956522e-01 -2.784392e-02 6.797636e-01 -3.003906e+00 2.652344e+00
4.172266e+01 2.000000e-01 -2.781085e-02 6.800384e-01 -3.007812e+00 2.656250e+00
4.155469e+01 1.956522e-01 -2.793072e-02 6.802553e-01 -3.011719e+00 2.664062e+00
4.148438e+01 2.000000e-01 -2.781498e-02 6.806313e-01 -3.015625e+00 2.667969e+00
4.154297e+01 2.000000e-01 -2.780878e-02 6.807515e-01 -3.015625e+00 2.667969e+00
4.137891e+01 2.000000e-01 -2.788112e-02 6.808630e-01 -3.019531e+00 2.671875e+00
4.139844e+01 2.000000e-01 -2.792659e-02 6.810738e-01 -3.019531e+00 2.671875e+00
4.144141e+01 2.000000e-01 -2.786458e-02 6.812631e-01 -3.023438e+00 2.675781e+00
4.146875e+01 2.000000e-01 -2.788938e-02 6.812489e-01 -3.023438e+00 2.679688e+00
4.140625e+01 2.000000e-01 -2.792245e-02 6.814324e-01 -3.027344e+00 2.683594e+00
4.148438e+01 2.000000e-01 -2.801753e-02 6.816420e-01 -3.031250e+00 2.687500e+00
4.129297e+01 2.000000e-01 -2.809193e-02 6.819491e-01 -3.035156e+00 2.691406e+00
4.133984e+01 2.000000e-01 -2.806713e-02 6.821897e-01 -3.039062e+00 2.695312e+00
4.138281e+01 1.956522e-01 -2.809400e-02 6.824333e-01 -3.039062e+00 2.695312e+00
4.149609e+01 2.000000e-01 -2.808573e-02 6.824311e-01 -3.042969e+00 2.699219e+00
4.132812e+01 2.000000e-01 -2.812707e-02 6.826330e-01 -3.046875e+00 2.703125e+00
4.138672e+01 1.956522e-01 -2.811673e-02 6.826613e-01 -3.046875e+00 2.703125e+00
4.119922e+01 1.956522e-01 -2.820354e-02 6.827858e-01 -3.050781e+00 2.707031e+00
4.132812e+01 1.956522e-01 -2.824281e-02 6.829441e-01 -3.050781e+00 2.707031e+00
4.139844e+01 1.956522e-01 -2.832341e-02 6.830064e-01 -3.054688e+00 2.707031e+00
4.142578e+01 2.000000e-01 -2.837302e-02 6.830213e-01 -3.058594e+00 2.710938e+00
4.141016e+01 1.956522e-01 -2.845569e-02 6.831931e-01 -3.058594e+00 2.710938e+00
4.142969e+01 1.956522e-01 -2.852183e-02 6.832392e-01 -3.062500e+00 2.718750e+00
4.138672e+01 1.956522e-01 -2.851356e-02 6.832414e-01 -3.062500e+00 2.718750e+00
4.128125e+01 2.000000e-01 -2.858590e-02 6.834789e-01 -3.066406e+00 2.722656e+00
4.110156e+01 1.956522e-01 -2.860656e-02 6.835860e-01 -3.066406e+00 2.722656e+00
4.112500e+01 1.913043e-01 -2.865617e-02 6.839143e-01 -3.074219e+00 2.730469e+00
4.113281e+01 1.913043e-01 -2.867890e-02 6.839939e-01 -3.074219e+00 2.734375e+00
4.079297e+01 1.869565e-01 -2.868304e-02 6.841013e-01 -3.078125e+00 2.738281e+00
4.097656e+01 1.869565e-01 -2.875744e-02 6.844695e-01 -3.082031e+00 2.742188e+00
4.099609e+01 1.869565e-01 -2.869130e-02 6.845701e-01 -3.082031e+00 2.742188e+00
4.102344e+01 1.869565e-01 -2.866650e-02 6.847294e-01 -3.085938e+00 2.746094e+00
4.083594e+01 1.869565e-01 -2.868097e-02 6.847028e-01 -3.082031e+00 2.746094e+00
4.087891e+01 1.869565e-01 -2.882564e-02 6.849067e-01 -3.089844e+00 2.753906e+00
4.090234e+01 1.782609e-01 -2.877811e-02 6.851946e-01 -3.093750e+00 2.757812e+00
4.104297e+01 1.869565e-01 -2.870990e-02 6.853262e-01 -3.097656e+00 2.761719e+00
4.108203e+01 1.826087e-01 -2.874504e-02 6.854733e-01 -3.101562e+00 2.765625e+00
4.105859e+01 1.826087e-01 -2.882151e-02 6.855779e-01 -3.101562e+00 2.765625e+00
4.094141e+01 1.869565e-01 -2.888145e-02 6.857901e-01 -3.105469e+00 2.769531e+00
4.092578e+01 1.869565e-01 -2.881738e-02 6.858321e-01 -3.105469e+00 2.773438e+00
4.091797e+01 1.869565e-01 -2.888352e-02 6.859400e-01 -3.105469e+00 2.769531e+00
4.100000e+01 1.869565e-01 -2.890418e-02 6.860193e-01 -3.105469e+00 2.769531e+00
4.087891e+01 1.826087e-01 -2.889385e-02 6.860535e-01 -3.109375e+00 2.773438e+00
4.110547e+01 1.826087e-01 -2.883391e-02 6.861386e-01 -3.109375e+00 2.773438e+00
4.079297e+01 1.826087e-01 -2.888558e-02 6.862392e-01 -3.113281e+00 2.777344e+00
4.063281e+01 1.826087e-01 -2.885045e-02 6.865384e-01 -3.117188e+00 2.781250e+00
4.059375e+01 1.782609e-01 -2.876364e-02 6.865854e-01 -3.121094e+00 2.785156e+00
4.067969e+01 1.826087e-01 -2.883598e-02 6.865644e-01 -3.121094e+00 2.785156e+00
4.072266e+01 1.826087e-01 -2.879051e-02 6.865456e-01 -3.121094e+00 2.785156e+00
4.061328e+01 1.782609e-01 -2.881738e-02 6.865597e-01 -3.121094e+00 2.785156e+00
4.071875e+01 1.782609e-01 -2.880704e-02 6.865742e-01 -3.121094e+00 2.785156e+00
4.085938e+01 1.826087e-01 -2.875537e-02 6.867319e-01 -3.125000e+00 2.789062e+00
4.083594e+01 1.869565e-01 -2.883185e-02 6.869140e-01 -3.125000e+00 2.792969e+00
4.090625e+01 1.869565e-01 -2.885458e-02 6.870787e-01 -3.125000e+00 2.792969e+00
4.076953e+01 1.869565e-01 -2.890212e-02 6.871686e-01 -3.125000e+00 2.796875e+00
4.069531e+01 1.869565e-01 -2.886285e-02 6.871570e-01 -3.125000e+00 2.796875e+00
4.070703e+01 1.869565e-01 -2.883391e-02 6.872021e-01 -3.125000e+00 2.800781e+00
4.049609e+01 1.869565e-01 -2.881118e-02 6.874937e-01 -3.128906e+00 2.804688e+00
4.059375e+01 1.826087e-01 -2.884425e-02 6.874489e-01 -3.128906e+00 2.804688e+00
4.060156e+01 1.826087e-01 -2.885458e-02 6.875175e-01 -3.128906e+00 2.804688e+00
4.071094e+01 1.826087e-01 -2.881944e-02 6.876279e-01 -3.128906e+00 2.804688e+00
4.085547e+01 1.826087e-01 -2.885045e-02 6.877838e-01 -3.128906e+00 2.808594e+00
4.099219e+01 1.826087e-01 -2.882564e-02 6.878414e-01 -3.128906e+00 2.808594e+00
4.090234e+01 1.826087e-01 -2.892072e-02 6.879128e-01 -3.128906e+00 2.808594e+00
4.092969e+01 1.826087e-01 -2.897032e-02 6.880413e-01 -3.128906e+00 2.808594e+00
4.100781e+01 1.869565e-01 -2.901372e-02 6.881891e-01 -3.132812e+00 2.812500e+00
4.101953e+01 1.869565e-01 -2.901372e-02 6.883399e-01 -3.136719e+00 2.812500e+00
4.098828e+01 1.869565e-01 -2.899099e-02 6.885575e-01 -3.144531e+00 2.820312e+00
4.075000e+01 1.869565e-01 -2.898272e-02 6.885819e-01 -3.144531e+00 2.820312e+00
4.083984e+01 1.869565e-01 -2.906953e-02 6.888020e-01 -3.148438e+00 2.824219e+00
4.076953e+01 1.869565e-01 -2.897445e-02 6.889585e-01 -3.152344e+00 2.828125e+00
4.048438e+01 1.913043e-01 -2.891865e-02 6.891205e-01 -3.152344e+00 2.832031e+00
4.086719e+01 1.869565e-01 -2.891245e-02 6.893444e-01 -3.152344e+00 2.839844e+00
4.080078e+01 1.913043e-01 -2.907573e-02 6.894831e-01 -3.156250e+00 2.843750e+00
4.060156e+01 1.913043e-01 -2.901579e-02 6.896013e-01 -3.156250e+00 2.843750e+00
4.072266e+01 1.913043e-01 -2.895999e-02 6.897371e-01 -3.156250e+00 2.847656e+00
4.086328e+01 1.913043e-01 -2.906746e-02 6.898676e-01 -3.160156e+00 2.851562e+00
4.061328e+01 1.869565e-01 -2.907779e-02 6.900524e-01 -3.164062e+00 2.855469e+00
4.061719e+01 1.869565e-01 -2.904886e-02 6.902376e-01 -3.164062e+00 2.855469e+00
4.071875e+01 1.913043e-01 -2.910880e-02 6.902616e-01 -3.164062e+00 2.855469e+00
4.087500e+01 1.913043e-01 -2.906126e-02 6.902416e-01 -3.164062e+00 2.855469e+00
4.081250e+01 1.913043e-01 -2.906746e-02 6.902950e-01 -3.164062e+00 2.855469e+00
4.075000e+01 1.913043e-01 -2.910673e-02 6.903768e-01 -3.167969e+00 2.859375e+00
4.043750e+01 1.913043e-01 -2.909846e-02 6.904531e-01 -3.167969e+00 2.859375e+00
4.054297e+01 1.913043e-01 -2.915840e-02 6.905437e-01 -3.167969e+00 2.859375e+00
4.094922e+01 1.956522e-01 -2.915840e-02 6.905837e-01 -3.167969e+00 2.859375e+00
4.101953e+01 1.956522e-01 -2.922867e-02 6.907517e-01 -3.171875e+00 2.863281e+00
4.120703e+01 1.956522e-01 -2.919147e-02 6.907455e-01 -3.171875e+00 2.863281e+00
4.112500e+01 1.956522e-01 -2.928861e-02 6.908784e-01 -3.175781e+00 2.867188e+00
4.096875e+01 1.913043e-01 -2.917080e-02 6.910913e-01 -3.179688e+00 2.871094e+00
4.082031e+01 1.869565e-01 -2.919974e-02 6.909471e-01 -3.175781e+00 2.867188e+00
4.054297e+01 1.869565e-01 -2.920180e-02 6.910223e-01 -3.179688e+00 2.871094e+00
4.059766e+01 1.869565e-01 -2.915013e-02 6.910289e-01 -3.183594e+00 2.875000e+00
4.051562e+01 1.869565e-01 -2.921420e-02 6.909802e-01 -3.179688e+00 2.871094e+00
4.048438e+01 1.869565e-01 -2.924934e-02 6.912190e-01 -3.183594e+00 2.875000e+00
4.078125e+01 1.913043e-01 -2.924314e-02 6.913779e-01 -3.187500e+00 2.878906e+00
4.066797e+01 1.913043e-01 -2.930308e-02 6.914712e-01 -3.187500e+00 2.878906e+00
4.058203e+01 1.869565e-01 -2.936095e-02 6.914631e-01 -3.187500e+00 2.878906e+00
4.060156e+01 1.869565e-01 -2.936095e-02 6.915013e-01 -3.187500e+00 2.878906e+00
4.069141e+01 1.869565e-01 -2.935888e-02 6.916370e-01 -3.191406e+00 2.882812e+00
4.056250e+01 1.869565e-01 -2.940228e-02 6.917200e-01 -3.191406e+00 2.882812e+00
4.050781e+01 1.869565e-01 -2.938988e-02 6.917570e-01 -3.191406e+00 2.886719e+00
4.072266e+01 1.869565e-01 -2.929274e-02 6.918264e-01 -3.195312e+00 2.890625e+00
4.081250e+01 1.869565e-01 -2.944155e-02 6.918796e-01 -3.195312e+00 2.890625e+00
4.071484e+01 1.913043e-01 -2.947049e-02 6.918828e-01 -3.195312e+00 2.890625e+00
4.073828e+01 1.913043e-01 -2.952009e-02 6.919766e-01 -3.199219e+00 2.894531e+00
4.089062e+01 1.956522e-01 -2.954282e-02 6.920182e-01 -3.199219e+00 2.894531e+00
4.085938e+01 2.000000e-01 -2.961103e-02 6.920891e-01 -3.199219e+00 2.894531e+00
4.078125e+01 2.043478e-01 -2.967303e-02 6.921483e-01 -3.199219e+00 2.894531e+00
4.083203e+01 2.043478e-01 -2.958829e-02 6.921434e-01 -3.199219e+00 2.894531e+00
4.079688e+01 1.913043e-01 -2.965236e-02 6.921640e-01 -3.199219e+00 2.894531e+00
4.082031e+01 1.913043e-01 -2.962550e-02 6.920775e-01 -3.199219e+00 2.894531e+00
4.069141e+01 1.913043e-01 -2.971644e-02 6.921058e-01 -3.199219e+00 2.894531e+00
4.055469e+01 1.913043e-01 -2.982391e-02 6.923615e-01 -3.203125e+00 2.898438e+00
4.058203e+01 1.956522e-01 -2.977844e-02 6.922577e-01 -3.203125e+00 2.898438e+00
4.092578e+01 1.956522e-01 -2.972470e-02 6.923140e-01 -3.207031e+00 2.902344e+00
4.063672e+01 1.956522e-01 -2.978671e-02 6.923709e-01 -3.207031e+00 2.902344e+00
4.073047e+01 2.000000e-01 -2.978257e-02 6.923983e-01 -3.207031e+00 2.906250e+00
4.078516e+01 2.000000e-01 -2.978257e-02 6.924753e-01 -3.207031e+00 2.906250e+00
4.076562e+01 2.000000e-01 -2.986938e-02 6.928632e-01 -3.210938e+00 2.910156e+00
4.092188e+01 2.000000e-01 -2.991071e-02 6.929131e-01 -3.214844e+00 2.917969e+00
4.087891e+01 2.000000e-01 -2.994792e-02 6.928393e-01 -3.214844e+00 2.917969e+00
4.079297e+01 2.043478e-01 -3.003886e-02 6.930220e-01 -3.218750e+00 2.921875e+00
4.091797e+01 2.043478e-01 -3.008846e-02 6.931632e-01 -3.222656e+00 2.925781e+00
4.052344e+01 2.000000e-01 -2.997892e-02 6.933949e-01 -3.222656e+00 2.929688e+00
4.040625e+01 2.043478e-01 -3.005332e-02 6.935146e-01 -3.226562e+00 2.933594e+00
4.041797e+01 2.043478e-01 -3.023107e-02 6.936739e-01 -3.230469e+00 2.937500e+00
4.046875e+01 2.043478e-01 -3.024967e-02 6.936597e-01 -3.230469e+00 2.937500e+00
4.044922e+01 2.043478e-01 -3.027240e-02 6.937671e-01 -3.234375e+00 2.941406e+00
4.036719e+01 2.043478e-01 -3.031787e-02 6.939135e-01 -3.234375e+00 2.945312e+00
4.037109e+01 2.043478e-01 -3.029927e-02 6.940024e-01 -3.234375e+00 2.945312e+00
4.019922e+01 2.043478e-01 -3.031167e-02 6.941467e-01 -3.238281e+00 2.949219e+00
4.016016e+01 2.043478e-01 -3.033854e-02 6.942767e-01 -3.238281e+00 2.949219e+00
4.013672e+01 2.043478e-01 -3.034681e-02 6.943313e-01 -3.238281e+00 2.949219e+00
4.002344e+01 2.043478e-01 -3.038194e-02 6.943760e-01 -3.238281e+00 2.949219e+00
4.015625e+01 2.043478e-01 -3.035921e-02 6.943375e-01 -3.238281e+00 2.949219e+00
4.021484e+01 2.043478e-01 -3.039021e-02 6.944196e-01 -3.238281e+00 2.949219e+00
4.011719e+01 2.000000e-01 -3.037781e-02 6.943756e-01 -3.238281e+00 2.949219e+00
4.028906e+01 2.043478e-01 -3.049355e-02 6.944653e-01 -3.242188e+00 2.949219e+00
4.031250e+01 2.043478e-01 -3.044188e-02 6.945240e-01 -3.242188e+00 2.949219e+00
4.043359e+01 2.043478e-01 -3.039228e-02 6.945102e-01 -3.242188e+00 2.949219e+00
4.048828e+01 2.043478e-01 -3.042948e-02 6.945522e-01 -3.242188e+00 2.949219e+00
4.043750e+01 2.043478e-01 -3.051422e-02 6.946412e-01 -3.246094e+00 2.953125e+00
4.046875e+01 2.043478e-01 -3.049355e-02 6.947657e-01 -3.246094e+00 2.953125e+00
4.036719e+01 2.043478e-01 -3.048735e-02 6.947481e-01 -3.246094e+00 2.953125e+00
4.062891e+01 2.043478e-01 -3.052869e-02 6.948385e-01 -3.250000e+00 2.957031e+00
4.066406e+01 2.000000e-01 -3.051422e-02 6.949090e-01 -3.250000e+00 2.957031e+00
4.055859e+01 2.000000e-01 -3.066510e-02 6.948931e-01 -3.250000e+00 2.960938e+00
4.071094e+01 2.000000e-01 -3.058862e-02 6.951572e-01 -3.250000e+00 2.960938e+00
4.060156e+01 2.000000e-01 -3.055349e-02 6.952989e-01 -3.253906e+00 2.964844e+00
4.060938e+01 2.000000e-01 -3.057209e-02 6.953077e-01 -3.253906e+00 2.964844e+00
4.059375e+01 2.000000e-01 -3.058449e-02 6.952900e-01 -3.253906e+00 2.964844e+00
4.017578e+01 2.000000e-01 -3.058449e-02 6.952801e-01 -3.253906e+00 2.964844e+00
4.020703e+01 2.000000e-01 -3.067956e-02 6.953392e-01 -3.253906e+00 2.968750e+00
4.014844e+01 2.000000e-01 -3.063616e-02 6.952811e-01 -3.253906e+00 2.968750e+00
4.014844e+01 2.000000e-01 -3.053695e-02 6.954142e-01 -3.257812e+00 2.972656e+00
4.042188e+01 2.000000e-01 -3.065476e-02 6.956024e-01 -3.261719e+00 2.976562e+00
4.025391e+01 2.000000e-01 -3.073537e-02 6.957811e-01 -3.265625e+00 2.980469e+00
4.046094e+01 2.000000e-01 -3.068370e-02 6.959956e-01 -3.265625e+00 2.980469e+00
4.014844e+01 2.000000e-01 -3.061343e-02 6.961245e-01 -3.265625e+00 2.984375e+00
4.055859e+01 2.000000e-01 -3.058449e-02 6.963516e-01 -3.269531e+00 2.988281e+00
4.041406e+01 2.000000e-01 -3.064649e-02 6.964190e-01 -3.269531e+00 2.988281e+00
4.049609e+01 2.000000e-01 -3.062169e-02 6.965270e-01 -3.269531e+00 2.988281e+00
4.050391e+01 2.000000e-01 -3.073950e-02 6.965877e-01 -3.269531e+00 2.984375e+00
4.040625e+01 2.000000e-01 -3.078497e-02 6.966315e-01 -3.269531e+00 2.984375e+00
4.011719e+01 2.000000e-01 -3.077670e-02 6.966527e-01 -3.269531e+00 2.984375e+00
4.012891e+01 2.000000e-01 -3.065683e-02 6.965931e-01 -3.269531e+00 2.988281e+00
4.022266e+01 2.000000e-01 -3.065270e-02 6.968015e-01 -3.273438e+00 2.992188e+00
4.018359e+01 2.000000e-01 -3.069403e-02 6.971566e-01 -3.277344e+00 2.996094e+00
4.016406e+01 2.000000e-01 -3.078910e-02 6.972569e-01 -3.277344e+00 2.996094e+00
4.016406e+01 2.000000e-01 -3.069403e-02 6.972330e-01 -3.277344e+00 2.996094e+00
4.021094e+01 2.000000e-01 -3.069196e-02 6.971896e-01 -3.277344e+00 2.996094e+00
4.011719e+01 2.000000e-01 -3.073950e-02 6.973693e-01 -3.277344e+00 2.996094e+00
4.023828e+01 2.000000e-01 -3.070850e-02 6.974646e-01 -3.281250e+00 3.000000e+00
4.034766e+01 2.000000e-01 -3.073330e-02 6.977404e-01 -3.281250e+00 3.000000e+00
4.048828e+01 2.000000e-01 -3.077670e-02 6.980025e-01 -3.285156e+00 3.003906e+00
4.068359e+01 2.000000e-01 -3.073537e-02 6.981581e-01 -3.285156e+00 3.007812e+00
4.058203e+01 2.000000e-01 -3.087178e-02 6.982056e-01 -3.285156e+00 3.003906e+00
4.053906e+01 2.000000e-01 -3.079944e-02 6.982312e-01 -3.289062e+00 3.007812e+00
4.044531e+01 2.000000e-01 -3.092138e-02 6.982552e-01 -3.285156e+00 3.007812e+00
4.021484e+01 2.000000e-01 -3.089864e-02 6.981392e-01 -3.285156e+00 3.007812e+00
4.029297e+01 2.000000e-01 -3.078704e-02 6.982385e-01 -3.289062e+00 3.011719e+00
4.038281e+01 2.000000e-01 -3.091518e-02 6.981964e-01 -3.289062e+00 3.011719e+00
4.040625e+01 2.000000e-01 -3.098958e-02 6.983759e-01 -3.289062e+00 3.011719e+00
4.017578e+01 2.000000e-01 -3.098132e-02 6.984262e-01 -3.289062e+00 3.015625e+00
4.021875e+01 2.000000e-01 -3.088418e-02 6.984192e-01 -3.289062e+00 3.015625e+00
4.027344e+01 2.000000e-01 -3.091104e-02 6.984214e-01 -3.289062e+00 3.015625e+00
4.013672e+01 2.000000e-01 -3.098958e-02 6.984162e-01 -3.289062e+00 3.019531e+00
4.007422e+01 2.000000e-01 -3.091931e-02 6.986036e-01 -3.289062e+00 3.019531e+00
4.000391e+01 2.000000e-01 -3.089451e-02 6.987133e-01 -3.289062e+00 3.019531e+00
4.015234e+01 2.043478e-01 -3.089244e-02 6.986756e-01 -3.289062e+00 3.019531e+00
4.010938e+01 2.000000e-01 -3.095651e-02 6.988521e-01 -3.292969e+00 3.023438e+00
4.024219e+01 1.956522e-01 -3.083251e-02 6.989742e-01 -3.292969e+00 3.023438e+00
4.022656e+01 2.000000e-01 -3.086351e-02 6.991214e-01 -3.296875e+00 3.027344e+00
3.998828e+01 1.956522e-01 -3.095651e-02 6.992930e-01 -3.300781e+00 3.031250e+00
4.008984e+01 2.000000e-01 -3.088831e-02 6.993024e-01 -3.300781e+00 3.035156e+00
4.001172e+01 2.000000e-01 -3.078084e-02 6.992982e-01 -3.300781e+00 3.035156e+00
4.000000e+01 2.000000e-01 -3.089658e-02 6.993915e-01 -3.300781e+00 3.035156e+00
4.009375e+01 2.000000e-01 -3.092551e-02 6.994704e-01 -3.300781e+00 3.035156e+00
4.007812e+01 2.000000e-01 -3.091311e-02 6.995218e-01 -3.300781e+00 3.035156e+00
4.005859e+01 2.000000e-01 -3.102059e-02 6.996083e-01 -3.304688e+00 3.039062e+00
4.004688e+01 2.000000e-01 -3.096065e-02 6.996664e-01 -3.304688e+00 3.039062e+00
4.007422e+01 2.000000e-01 -3.090484e-02 6.998579e-01 -3.308594e+00 3.042969e+00
4.008984e+01 2.043478e-01 -3.092345e-02 7.000018e-01 -3.312500e+00 3.046875e+00
4.009766e+01 2.000000e-01 -3.096065e-02 7.001058e-01 -3.316406e+00 3.050781e+00
4.003906e+01 2.000000e-01 -3.093378e-02 7.000744e-01 -3.320312e+00 3.054688e+00
4.011719e+01 2.043478e-01 -3.098958e-02 7.000859e-01 -3.316406e+00 3.050781e+00
4.001172e+01 2.000000e-01 -3.103919e-02 7.001350e-01 -3.316406e+00 3.050781e+00
4.010547e+01 2.000000e-01 -3.099992e-02 7.001422e-01 -3.316406e+00 3.050781e+00
3.998438e+01 2.000000e-01 -3.105779e-02 7.001918e-01 -3.316406e+00 3.050781e+00
3.992188e+01 2.000000e-01 -3.104952e-02 7.002242e-01 -3.316406e+00 3.050781e+00
4.006250e+01 2.000000e-01 -3.101645e-02 7.001834e-01 -3.316406e+00 3.050781e+00
3.994531e+01 2.000000e-01 -3.109292e-02 7.002703e-01 -3.316406e+00 3.054688e+00
3.994141e+01 2.000000e-01 -3.100818e-02 7.003006e-01 -3.316406e+00 3.054688e+00
3.973828e+01 2.000000e-01 -3.116939e-02 7.003585e-01 -3.320312e+00 3.058594e+00
3.991406e+01 2.000000e-01 -3.110946e-02 7.005312e-01 -3.320312e+00 3.058594e+00
3.991406e+01 2.000000e-01 -3.105365e-02 7.004790e-01 -3.320312e+00 3.058594e+00
3.987109e+01 2.000000e-01 -3.106192e-02 7.004912e-01 -3.320312e+00 3.062500e+00
4.007422e+01 2.000000e-01 -3.103299e-02 7.003087e-01 -3.320312e+00 3.062500e+00
4.000781e+01 2.000000e-01 -3.106399e-02 7.002851e-01 -3.320312e+00 3.062500e+00
4.017578e+01 2.000000e-01 -3.108052e-02 7.002864e-01 -3.320312e+00 3.062500e+00
4.017578e+01 2.000000e-01 -3.111772e-02 7.003394e-01 -3.320312e+00 3.062500e+00
3.975391e+01 2.000000e-01 -3.115906e-02 7.004184e-01 -3.324219e+00 3.066406e+00
3.977734e+01 2.000000e-01 -3.114046e-02 7.006200e-01 -3.324219e+00 3.066406e+00
3.999219e+01 2.000000e-01 -3.108879e-02 7.006799e-01 -3.328125e+00 3.070312e+00
3.986719e+01 2.000000e-01 -3.123967e-02 7.005552e-01 -3.328125e+00 3.066406e+00
3.970703e+01 2.000000e-01 -3.119420e-02 7.005921e-01 -3.328125e+00 3.066406e+00
3.981641e+01 2.000000e-01 -3.111772e-02 7.006304e-01 -3.332031e+00 3.070312e+00
3.992188e+01 2.000000e-01 -3.110532e-02 7.007664e-01 -3.335938e+00 3.074219e+00
3.993359e+01 2.043478e-01 -3.114666e-02 7.007921e-01 -3.335938e+00 3.078125e+00
3.999219e+01 1.956522e-01 -3.142568e-02 7.009247e-01 -3.339844e+00 3.082031e+00
4.001172e+01 1.956522e-01 -3.132440e-02 7.011114e-01 -3.339844e+00 3.082031e+00
4.017578e+01 1.956522e-01 -3.140501e-02 7.013043e-01 -3.343750e+00 3.085938e+00
4.019141e+01 1.956522e-01 -3.141741e-02 7.014612e-01 -3.343750e+00 3.085938e+00
4.012500e+01 2.000000e-01 -3.143601e-02 7.015343e-01 -3.343750e+00 3.085938e+00
3.987109e+01 2.000000e-01 -3.135747e-02 7.013846e-01 -3.343750e+00 3.085938e+00
3.972266e+01 2.000000e-01 -3.141741e-02 7.014318e-01 -3.343750e+00 3.085938e+00
4.012891e+01 2.000000e-01 -3.157449e-02 7.014977e-01 -3.343750e+00 3.085938e+00
4.015625e+01 2.000000e-01 -3.155175e-02 7.014824e-01 -3.343750e+00 3.085938e+00
4.003516e+01 2.043478e-01 -3.151662e-02 7.014860e-01 -3.347656e+00 3.089844e+00
4.017969e+01 2.043478e-01 -3.151042e-02 7.015328e-01 -3.347656e+00 3.089844e+00
4.025781e+01 2.000000e-01 -3.154349e-02 7.017164e-01 -3.351562e+00 3.093750e+00
4.010547e+01 2.000000e-01 -3.162409e-02 7.018196e-01 -3.351562e+00 3.093750e+00
4.030859e+01 2.000000e-01 -3.167783e-02 7.020020e-01 -3.359375e+00 3.101562e+00
4.014062e+01 2.000000e-01 -3.167163e-02 7.021853e-01 -3.359375e+00 3.101562e+00
4.019141e+01 2.000000e-01 -3.173570e-02 7.022033e-01 -3.359375e+00 3.101562e+00
4.012500e+01 2.000000e-01 -3.170676e-02 7.023479e-01 -3.363281e+00 3.105469e+00
4.017969e+01 2.000000e-01 -3.180804e-02 7.024895e-01 -3.363281e+00 3.105469e+00
4.004688e+01 2.000000e-01 -3.181217e-02 7.023847e-01 -3.363281e+00 3.105469e+00
4.011719e+01 2.000000e-01 -3.181010e-02 7.025417e-01 -3.367188e+00 3.109375e+00
4.000781e+01 2.000000e-01 -3.189691e-02 7.027238e-01 -3.367188e+00 3.109375e+00
3.990625e+01 2.000000e-01 -3.183697e-02 7.027497e-01 -3.367188e+00 3.109375e+00
3.992969e+01 2.000000e-01 -3.180390e-02 7.027287e-01 -3.367188e+00 3.109375e+00
3.993750e+01 2.000000e-01 -3.187004e-02 7.027633e-01 -3.367188e+00 3.109375e+00
3.992578e+01 2.000000e-01 -3.184730e-02 7.029990e-01 -3.371094e+00 3.113281e+00
3.987891e+01 2.000000e-01 -3.175843e-02 7.029725e-01 -3.371094e+00 3.109375e+00
3.992188e+01 2.000000e-01 -3.171090e-02 7.029870e-01 -3.371094e+00 3.109375e+00
3.995312e+01 1.956522e-01 -3.175223e-02 7.031780e-01 -3.375000e+00 3.113281e+00
3.976562e+01 1.956522e-01 -3.175430e-02 7.033124e-01 -3.375000e+00 3.113281e+00
3.992969e+01 1.956522e-01 -3.184524e-02 7.033374e-01 -3.378906e+00 3.117188e+00
3.975391e+01 1.956522e-01 -3.181010e-02 7.036467e-01 -3.382812e+00 3.121094e+00
4.010156e+01 1.956522e-01 -3.171296e-02 7.037219e-01 -3.382812e+00 3.121094e+00
3.992969e+01 1.956522e-01 -3.170470e-02 7.036553e-01 -3.382812e+00 3.121094e+00
3.994922e+01 1.956522e-01 -3.174810e-02 7.038084e-01 -3.382812e+00 3.121094e+00
3.979688e+01 1.913043e-01 -3.185557e-02 7.039494e-01 -3.386719e+00 3.125000e+00
3.982422e+01 1.956522e-01 -3.184317e-02 7.040664e-01 -3.386719e+00 3.125000e+00
3.981250e+01 1.913043e-01 -3.187211e-02 7.040481e-01 -3.386719e+00 3.125000e+00
3.989062e+01 1.956522e-01 -3.179770e-02 7.041662e-01 -3.390625e+00 3.128906e+00
3.994531e+01 1.913043e-01 -3.182870e-02 7.042343e-01 -3.390625e+00 3.128906e+00
3.969922e+01 1.913043e-01 -3.191551e-02 7.042302e-01 -3.390625e+00 3.125000e+00
3.973438e+01 1.913043e-01 -3.190104e-02 7.042726e-01 -3.390625e+00 3.125000e+00
3.986328e+01 1.956522e-01 -3.179357e-02 7.043039e-01 -3.390625e+00 3.128906e+00
3.988672e+01 1.956522e-01 -3.191758e-02 7.043416e-01 -3.390625e+00 3.128906e+00
3.977734e+01 1.956522e-01 -3.180597e-02 7.043597e-01 -3.390625e+00 3.128906e+00
3.989844e+01 1.956522e-01 -3.188244e-02 7.043947e-01 -3.390625e+00 3.128906e+00
4.003125e+01 1.956522e-01 -3.185144e-02 7.045861e-01 -3.394531e+00 3.132812e+00
4.005078e+01 1.956522e-01 -3.184524e-02 7.046748e-01 -3.394531e+00 3.132812e+00
4.016016e+01 2.000000e-01 -3.192171e-02 7.045056e-01 -3.394531e+00 3.132812e+00
4.016406e+01 2.000000e-01 -3.193204e-02 7.046882e-01 -3.398438e+00 3.136719e+00
4.024219e+01 2.000000e-01 -3.186177e-02 7.049092e-01 -3.402344e+00 3.140625e+00
4.026172e+01 2.000000e-01 -3.192584e-02 7.050155e-01 -3.402344e+00 3.140625e+00
4.025000e+01 1.956522e-01 -3.194238e-02 7.050566e-01 -3.402344e+00 3.144531e+00
4.028516e+01 1.956522e-01 -3.195685e-02 7.050980e-01 -3.402344e+00 3.144531e+00
4.002734e+01 1.956522e-01 -3.204778e-02 7.050973e-01 -3.402344e+00 3.144531e+00
4.021484e+01 1.956522e-01 -3.205192e-02 7.051712e-01 -3.402344e+00 3.144531e+00
4.011719e+01 1.956522e-01 -3.205812e-02 7.052701e-01 -3.406250e+00 3.148438e+00
4.009766e+01 1.956522e-01 -3.205192e-02 7.053482e-01 -3.406250e+00 3.148438e+00
4.012891e+01 1.956522e-01 -3.207465e-02 7.053437e-01 -3.406250e+00 3.148438e+00
4.015625e+01 2.000000e-01 -3.214699e-02 7.055047e-01 -3.406250e+00 3.148438e+00
4.050000e+01 2.000000e-01 -3.217799e-02 7.056282e-01 -3.410156e+00 3.152344e+00
4.041406e+01 2.000000e-01 -3.206639e-02 7.056402e-01 -3.414062e+00 3.152344e+00
4.045312e+01 2.000000e-01 -3.207259e-02 7.057771e-01 -3.414062e+00 3.152344e+00
4.058203e+01 2.000000e-01 -3.210152e-02 7.057797e-01 -3.414062e+00 3.152344e+00
4.037500e+01 1.956522e-01 -3.219039e-02 7.059578e-01 -3.414062e+00 3.156250e+00
4.028516e+01 2.043478e-01 -3.209532e-02 7.058676e-01 -3.414062e+00 3.156250e+00
4.023438e+01 2.043478e-01 -3.209532e-02 7.057971e-01 -3.414062e+00 3.156250e+00
4.044141e+01 2.043478e-01 -3.209532e-02 7.056863e-01 -3.414062e+00 3.156250e+00
4.023047e+01 2.000000e-01 -3.213459e-02 7.057715e-01 -3.414062e+00 3.156250e+00
4.028125e+01 2.000000e-01 -3.205605e-02 7.057317e-01 -3.414062e+00 3.156250e+00
4.031641e+01 2.000000e-01 -3.207259e-02 7.057503e-01 -3.414062e+00 3.156250e+00
4.042578e+01 2.000000e-01 -3.203952e-02 7.057362e-01 -3.414062e+00 3.156250e+00
4.025781e+01 2.043478e-01 -3.207052e-02 7.057978e-01 -3.414062e+00 3.156250e+00
4.026172e+01 2.043478e-01 -3.215319e-02 7.058236e-01 -3.414062e+00 3.156250e+00
4.030078e+01 2.043478e-01 -3.210359e-02 7.058168e-01 -3.414062e+00 3.156250e+00
4.030859e+01 2.000000e-01 -3.213666e-02 7.060280e-01 -3.417969e+00 3.160156e+00
4.028906e+01 2.043478e-01 -3.216766e-02 7.061952e-01 -3.417969e+00 3.160156e+00
4.030859e+01 2.043478e-01 -3.214492e-02 7.061768e-01 -3.417969e+00 3.160156e+00
4.024219e+01 2.043478e-01 -3.210152e-02 7.061232e-01 -3.421875e+00 3.164062e+00
4.032422e+01 2.000000e-01 -3.212426e-02 7.061077e-01 -3.417969e+00 3.164062e+00
4.032031e+01 2.000000e-01 -3.218213e-02 7.060951e-01 -3.417969e+00 3.164062e+00
4.015234e+01 2.043478e-01 -3.210565e-02 7.060018e-01 -3.417969e+00 3.164062e+00
4.039062e+01 2.086957e-01 -3.209119e-02 7.059047e-01 -3.417969e+00 3.160156e+00
4.014453e+01 1.956522e-01 -3.214492e-02 7.059048e-01 -3.417969e+00 3.160156e+00
4.007031e+01 2.000000e-01 -3.195064e-02 7.057402e-01 -3.417969e+00 3.160156e+00
4.005859e+01 1.956522e-01 -3.196305e-02 7.056187e-01 -3.417969e+00 3.160156e+00
4.003906e+01 2.000000e-01 -3.184317e-02 7.055576e-01 -3.417969e+00 3.160156e+00
4.011328e+01 2.043478e-01 -3.185351e-02 7.054625e-01 -3.414062e+00 3.156250e+00
4.019531e+01 2.043478e-01 -3.199818e-02 7.054749e-01 -3.414062e+00 3.156250e+00
4.010938e+01 2.086957e-01 -3.195478e-02 7.053849e-01 -3.417969e+00 3.160156e+00
3.988672e+01 1.956522e-01 -3.194238e-02 7.054500e-01 -3.417969e+00 3.160156e+00
3.991406e+01 1.956522e-01 -3.185764e-02 7.053892e-01 -3.417969e+00 3.160156e+00
3.978516e+01 1.956522e-01 -3.189071e-02 7.054093e-01 -3.417969e+00 3.160156e+00
3.972266e+01 1.956522e-01 -3.204158e-02 7.055025e-01 -3.421875e+00 3.164062e+00
3.969922e+01 1.956522e-01 -3.197958e-02 7.055649e-01 -3.421875e+00 3.164062e+00
4.006250e+01 2.000000e-01 -3.192378e-02 7.056499e-01 -3.425781e+00 3.167969e+00
3.985938e+01 2.000000e-01 -3.194858e-02 7.057182e-01 -3.425781e+00 3.167969e+00
3.994922e+01 2.043478e-01 -3.196305e-02 7.057083e-01 -3.425781e+00 3.167969e+00
3.994922e+01 2.043478e-01 -3.198371e-02 7.058448e-01 -3.425781e+00 3.167969e+00
3.996094e+01 2.086957e-01 -3.191758e-02 7.059248e-01 -3.429688e+00 3.167969e+00
4.035547e+01 2.043478e-01 -3.188657e-02 7.062423e-01 -3.433594e+00 3.171875e+00
4.014844e+01 2.000000e-01 -3.196098e-02 7.063484e-01 -3.433594e+00 3.171875e+00
4.009766e+01 2.043478e-01 -3.202712e-02 7.063640e-01 -3.433594e+00 3.171875e+00
4.001562e+01 2.086957e-01 -3.200025e-02 7.063201e-01 -3.433594e+00 3.171875e+00
4.008594e+01 2.086957e-01 -3.205605e-02 7.063294e-01 -3.429688e+00 3.167969e+00
4.030469e+01 2.130435e-01 -3.198991e-02 7.062992e-01 -3.429688e+00 3.164062e+00
4.030469e+01 2.086957e-01 -3.197958e-02 7.062598e-01 -3.429688e+00 3.164062e+00
4.001172e+01 2.043478e-01 -3.197131e-02 7.061477e-01 -3.429688e+00 3.164062e+00
4.016797e+01 2.043478e-01 -3.192998e-02 7.061750e-01 -3.429688e+00 3.164062e+00
3.996484e+01 1.913043e-01 -3.188451e-02 7.062499e-01 -3.433594e+00 3.167969e+00
3.991797e+01 1.913043e-01 -3.183284e-02 7.064034e-01 -3.433594e+00 3.167969e+00
3.992578e+01 1.913043e-01 -3.178323e-02 7.063258e-01 -3.433594e+00 3.167969e+00
3.994922e+01 1.913043e-01 -3.178117e-02 7.063331e-01 -3.433594e+00 3.167969e+00
3.967578e+01 1.913043e-01 -3.184730e-02 7.063569e-01 -3.437500e+00 3.171875e+00
3.994531e+01 1.956522e-01 -3.177497e-02 7.063855e-01 -3.437500e+00 3.171875e+00
4.018359e+01 2.000000e-01 -3.178323e-02 7.064281e-01 -3.437500e+00 3.171875e+00
4.013281e+01 2.000000e-01 -3.184937e-02 7.063993e-01 -3.437500e+00 3.171875e+00
4.008984e+01 2.000000e-01 -3.180804e-02 7.065255e-01 -3.437500e+00 3.175781e+00
3.991797e+01 1.956522e-01 -3.186591e-02 7.066372e-01 -3.437500e+00 3.175781e+00
3.981250e+01 1.956522e-01 -3.180597e-02 7.065991e-01 -3.437500e+00 3.175781e+00
3.998828e+01 2.000000e-01 -3.187417e-02 7.065702e-01 -3.437500e+00 3.175781e+00
3.995312e+01 2.086957e-01 -3.188451e-02 7.066745e-01 -3.437500e+00 3.175781e+00
3.996484e+01 2.000000e-01 -3.190311e-02 7.066111e-01 -3.441406e+00 3.175781e+00
3.992969e+01 1.913043e-01 -3.187004e-02 7.067374e-01 -3.445312e+00 3.179688e+00
3.984766e+01 1.913043e-01 -3.177703e-02 7.069917e-01 -3.449219e+00 3.183594e+00
3.998438e+01 2.000000e-01 -3.190724e-02 7.069268e-01 -3.445312e+00 3.179688e+00
3.962891e+01 2.000000e-01 -3.187831e-02 7.070030e-01 -3.445312e+00 3.179688e+00
3.974219e+01 2.000000e-01 -3.189071e-02 7.069930e-01 -3.445312e+00 3.179688e+00
4.012891e+01 2.000000e-01 -3.182457e-02 7.072559e-01 -3.449219e+00 3.183594e+00
3.973438e+01 1.956522e-01 -3.198785e-02 7.073921e-01 -3.449219e+00 3.183594e+00
4.046875e+01 2.086957e-01 -3.184317e-02 7.073513e-01 -3.449219e+00 3.183594e+00
4.028906e+01 2.043478e-01 -3.191344e-02 7.073946e-01 -3.445312e+00 3.183594e+00
4.017188e+01 2.086957e-01 -3.204365e-02 7.075114e-01 -3.449219e+00 3.187500e+00
4.017578e+01 2.086957e-01 -3.198991e-02 7.074123e-01 -3.449219e+00 3.187500e+00
4.005859e+01 2.086957e-01 -3.197751e-02 7.074356e-01 -3.449219e+00 3.191406e+00
3.991016e+01 2.086957e-01 -3.207672e-02 7.073022e-01 -3.445312e+00 3.191406e+00
3.983984e+01 2.043478e-01 -3.207672e-02 7.073146e-01 -3.445312e+00 3.191406e+00
3.989453e+01 2.043478e-01 -3.195064e-02 7.074734e-01 -3.449219e+00 3.195312e+00
3.953906e+01 2.000000e-01 -3.203952e-02 7.075060e-01 -3.449219e+00 3.199219e+00
3.953516e+01 2.000000e-01 -3.203538e-02 7.075027e-01 -3.449219e+00 3.199219e+00
3.948047e+01 2.000000e-01 -3.198371e-02 7.073920e-01 -3.449219e+00 3.199219e+00
3.957031e+01 2.043478e-01 -3.204365e-02 7.074610e-01 -3.449219e+00 3.199219e+00
3.956641e+01 2.000000e-01 -3.202918e-02 7.075028e-01 -3.449219e+00 3.199219e+00
3.933984e+01 1.956522e-01 -3.194444e-02 7.074436e-01 -3.449219e+00 3.199219e+00
3.972656e+01 2.043478e-01 -3.205398e-02 7.075264e-01 -3.453125e+00 3.203125e+00
3.980469e+01 2.000000e-01 -3.196718e-02 7.075282e-01 -3.453125e+00 3.203125e+00
4.007422e+01 2.043478e-01 -3.194651e-02 7.074583e-01 -3.453125e+00 3.207031e+00
4.011719e+01 2.086957e-01 -3.204985e-02 7.074617e-01 -3.457031e+00 3.207031e+00
3.980859e+01 2.086957e-01 -3.204158e-02 7.075477e-01 -3.457031e+00 3.207031e+00
3.998828e+01 2.043478e-01 -3.187004e-02 7.074884e-01 -3.457031e+00 3.207031e+00
3.967969e+01 2.086957e-01 -3.193824e-02 7.074284e-01 -3.457031e+00 3.207031e+00
3.977734e+01 2.043478e-01 -3.188037e-02 7.074536e-01 -3.460938e+00 3.207031e+00
3.989062e+01 2.043478e-01 -3.180597e-02 7.076650e-01 -3.464844e+00 3.210938e+00
3.984766e+01 2.043478e-01 -3.189484e-02 7.076645e-01 -3.464844e+00 3.210938e+00
3.987891e+01 2.043478e-01 -3.196925e-02 7.077297e-01 -3.464844e+00 3.210938e+00
3.967969e+01 2.043478e-01 -3.200025e-02 7.079108e-01 -3.468750e+00 3.214844e+00
3.975781e+01 2.043478e-01 -3.194238e-02 7.081073e-01 -3.468750e+00 3.214844e+00
3.998047e+01 2.043478e-01 -3.185971e-02 7.081414e-01 -3.468750e+00 3.218750e+00
4.000000e+01 2.086957e-01 -3.193618e-02 7.081685e-01 -3.468750e+00 3.218750e+00
4.006641e+01 2.086957e-01 -3.193824e-02 7.082553e-01 -3.472656e+00 3.222656e+00
4.013672e+01 2.086957e-01 -3.190724e-02 7.082046e-01 -3.472656e+00 3.222656e+00
4.007422e+01 2.086957e-01 -3.196925e-02 7.081584e-01 -3.468750e+00 3.222656e+00
4.009375e+01 2.130435e-01 -3.198991e-02 7.082776e-01 -3.472656e+00 3.226562e+00
4.005469e+01 2.130435e-01 -3.202298e-02 7.084665e-01 -3.472656e+00 3.226562e+00
3.985547e+01 2.086957e-01 -3.190931e-02 7.085170e-01 -3.472656e+00 3.226562e+00
3.979688e+01 2.086957e-01 -3.200852e-02 7.086114e-01 -3.472656e+00 3.226562e+00
3.981250e+01 2.086957e-01 -3.188657e-02 7.085162e-01 -3.472656e+00 3.226562e+00
3.980078e+01 2.043478e-01 -3.202298e-02 7.083123e-01 -3.468750e+00 3.222656e+00
3.987891e+01 2.086957e-01 -3.205812e-02 7.083434e-01 -3.468750e+00 3.222656e+00
4.001172e+01 2.130435e-01 -3.198991e-02 7.082892e-01 -3.468750e+00 3.222656e+00
3.979297e+01 2.043478e-01 -3.209739e-02 7.084107e-01 -3.468750e+00 3.226562e+00
4.007031e+01 2.043478e-01 -3.200438e-02 7.085615e-01 -3.472656e+00 3.230469e+00
3.973047e+01 1.956522e-01 -3.214286e-02 7.085046e-01 -3.472656e+00 3.230469e+00
3.962891e+01 2.000000e-01 -3.223793e-02 7.084500e-01 -3.476562e+00 3.230469e+00
4.011328e+01 2.130435e-01 -3.214699e-02 7.084413e-01 -3.476562e+00 3.230469e+00
4.005078e+01 2.086957e-01 -3.220693e-02 7.084049e-01 -3.476562e+00 3.230469e+00
3.985156e+01 2.043478e-01 -3.225446e-02 7.083657e-01 -3.476562e+00 3.230469e+00
3.983203e+01 2.043478e-01 -3.226273e-02 7.083560e-01 -3.476562e+00 3.230469e+00
3.989062e+01 2.000000e-01 -3.220279e-02 7.085461e-01 -3.480469e+00 3.234375e+00
4.005078e+01 2.130435e-01 -3.237847e-02 7.086187e-01 -3.480469e+00 3.234375e+00
4.005469e+01 2.043478e-01 -3.232887e-02 7.086664e-01 -3.484375e+00 3.238281e+00
3.998047e+01 2.000000e-01 -3.229580e-02 7.088529e-01 -3.488281e+00 3.242188e+00
3.998438e+01 2.000000e-01 -3.235160e-02 7.090963e-01 -3.492188e+00 3.246094e+00
4.000000e+01 2.000000e-01 -3.238261e-02 7.093179e-01 -3.496094e+00 3.250000e+00
4.006250e+01 2.000000e-01 -3.240121e-02 7.094580e-01 -3.496094e+00 3.250000e+00
4.002344e+01 2.000000e-01 -3.240741e-02 7.093808e-01 -3.496094e+00 3.250000e+00
4.002344e+01 2.000000e-01 -3.246321e-02 7.093116e-01 -3.492188e+00 3.250000e+00
4.011328e+01 2.000000e-01 -3.249628e-02 7.093240e-01 -3.492188e+00 3.250000e+00
4.002734e+01 2.000000e-01 -3.248181e-02 7.093404e-01 -3.492188e+00 3.250000e+00
4.004688e+01 1.956522e-01 -3.243841e-02 7.091775e-01 -3.492188e+00 3.250000e+00
3.996094e+01 1.956522e-01 -3.240327e-02 7.091753e-01 -3.492188e+00 3.253906e+00
3.985938e+01 1.956522e-01 -3.255002e-02 7.092827e-01 -3.492188e+00 3.257812e+00
3.997266e+01 2.000000e-01 -3.249215e-02 7.094416e-01 -3.492188e+00 3.261719e+00
3.981641e+01 2.000000e-01 -3.258515e-02 7.094487e-01 -3.492188e+00 3.261719e+00
3.980859e+01 1.956522e-01 -3.267609e-02 7.098086e-01 -3.496094e+00 3.265625e+00
3.988672e+01 2.000000e-01 -3.266369e-02 7.098509e-01 -3.496094e+00 3.265625e+00
3.983984e+01 2.000000e-01 -3.264302e-02 7.098242e-01 -3.492188e+00 3.261719e+00
3.996875e+01 1.956522e-01 -3.263062e-02 7.098681e-01 -3.492188e+00 3.261719e+00
4.007422e+01 1.956522e-01 -3.256448e-02 7.100472e-01 -3.496094e+00 3.265625e+00
3.988672e+01 2.000000e-01 -3.258929e-02 7.099400e-01 -3.492188e+00 3.261719e+00
3.969531e+01 2.000000e-01 -3.253348e-02 7.098876e-01 -3.492188e+00 3.261719e+00
3.969922e+01 2.000000e-01 -3.253555e-02 7.098150e-01 -3.492188e+00 3.261719e+00
3.986328e+01 1.956522e-01 -3.254588e-02 7.098841e-01 -3.492188e+00 3.261719e+00
3.978125e+01 2.000000e-01 -3.249008e-02 7.099302e-01 -3.492188e+00 3.261719e+00
3.987891e+01 2.043478e-01 -3.252935e-02 7.099937e-01 -3.492188e+00 3.261719e+00
3.973438e+01 2.000000e-01 -3.252315e-02 7.100924e-01 -3.496094e+00 3.265625e+00
3.960938e+01 2.000000e-01 -3.255828e-02 7.102170e-01 -3.496094e+00 3.265625e+00
3.963672e+01 2.000000e-01 -3.243221e-02 7.102710e-01 -3.496094e+00 3.265625e+00
3.971875e+01 2.000000e-01 -3.250041e-02 7.103104e-01 -3.496094e+00 3.265625e+00
3.963281e+01 2.000000e-01 -3.251281e-02 7.104016e-01 -3.496094e+00 3.269531e+00
3.956641e+01 2.000000e-01 -3.249835e-02 7.103478e-01 -3.496094e+00 3.269531e+00
3.958203e+01 2.000000e-01 -3.257068e-02 7.102200e-01 -3.496094e+00 3.269531e+00
3.968750e+01 2.000000e-01 -3.249835e-02 7.101165e-01 -3.492188e+00 3.269531e+00
3.973047e+01 2.000000e-01 -3.244874e-02 7.101682e-01 -3.492188e+00 3.269531e+00
3.962109e+01 2.000000e-01 -3.238054e-02 7.101628e-01 -3.492188e+00 3.269531e+00
3.963672e+01 1.956522e-01 -3.246941e-02 7.102345e-01 -3.492188e+00 3.269531e+00
3.962500e+01 1.956522e-01 -3.254382e-02 7.102688e-01 -3.492188e+00 3.269531e+00
3.980078e+01 2.000000e-01 -3.250455e-02 7.102233e-01 -3.492188e+00 3.269531e+00
3.966016e+01 2.000000e-01 -3.239294e-02 7.102742e-01 -3.492188e+00 3.273438e+00
3.967578e+01 1.956522e-01 -3.240121e-02 7.104451e-01 -3.492188e+00 3.273438e+00
3.976172e+01 1.956522e-01 -3.248801e-02 7.104891e-01 -3.492188e+00 3.273438e+00
3.976172e+01 1.956522e-01 -3.248801e-02 7.105848e-01 -3.492188e+00 3.273438e+00
3.977734e+01 1.913043e-01 -3.249835e-02 7.105842e-01 -3.492188e+00 3.273438e+00
3.979297e+01 1.913043e-01 -3.251488e-02 7.105971e-01 -3.492188e+00 3.273438e+00
4.010938e+01 1.956522e-01 -3.246941e-02 7.106551e-01 -3.492188e+00 3.277344e+00
4.004688e+01 1.956522e-01 -3.244461e-02 7.104320e-01 -3.488281e+00 3.273438e+00
4.000391e+01 1.956522e-01 -3.245288e-02 7.104420e-01 -3.488281e+00 3.273438e+00
4.002734e+01 1.913043e-01 -3.240121e-02 7.106282e-01 -3.492188e+00 3.277344e+00
3.992578e+01 1.956522e-01 -3.250041e-02 7.107803e-01 -3.496094e+00 3.281250e+00
3.998438e+01 1.956522e-01 -3.249628e-02 7.108023e-01 -3.496094e+00 3.281250e+00
3.985938e+01 1.956522e-01 -3.234747e-02 7.107699e-01 -3.496094e+00 3.281250e+00
3.985938e+01 1.956522e-01 -3.248595e-02 7.105925e-01 -3.492188e+00 3.277344e+00
3.992188e+01 1.956522e-01 -3.243841e-02 7.105610e-01 -3.492188e+00 3.277344e+00
3.971484e+01 1.956522e-01 -3.241567e-02 7.106411e-01 -3.496094e+00 3.281250e+00
3.951562e+01 1.956522e-01 -3.247561e-02 7.106733e-01 -3.496094e+00 3.281250e+00
3.969922e+01 1.956522e-01 -3.242808e-02 7.106902e-01 -3.496094e+00 3.281250e+00
3.958203e+01 1.956522e-01 -3.243634e-02 7.106728e-01 -3.496094e+00 3.281250e+00
3.943359e+01 1.913043e-01 -3.244461e-02 7.106664e-01 -3.496094e+00 3.281250e+00
3.958203e+01 1.913043e-01 -3.255828e-02 7.106492e-01 -3.496094e+00 3.281250e+00
3.966797e+01 1.913043e-01 -3.242394e-02 7.107357e-01 -3.496094e+00 3.281250e+00
3.981641e+01 1.956522e-01 -3.246321e-02 7.107297e-01 -3.496094e+00 3.281250e+00
3.941016e+01 1.956522e-01 -3.262235e-02 7.108101e-01 -3.496094e+00 3.285156e+00
3.989453e+01 1.913043e-01 -3.255415e-02 7.108889e-01 -3.496094e+00 3.285156e+00
3.961328e+01 1.913043e-01 -3.260375e-02 7.109675e-01 -3.496094e+00 3.285156e+00
3.945703e+01 1.913043e-01 -3.258309e-02 7.111034e-01 -3.500000e+00 3.289062e+00
3.959766e+01 1.913043e-01 -3.270089e-02 7.113231e-01 -3.500000e+00 3.289062e+00
3.957031e+01 1.913043e-01 -3.265542e-02 7.113770e-01 -3.500000e+00 3.292969e+00
3.967578e+01 1.913043e-01 -3.274016e-02 7.114172e-01 -3.500000e+00 3.292969e+00
3.978516e+01 1.913043e-01 -3.266989e-02 7.113275e-01 -3.500000e+00 3.292969e+00
3.967969e+01 1.913043e-01 -3.279597e-02 7.113300e-01 -3.500000e+00 3.296875e+00
3.949609e+01 1.956522e-01 -3.274843e-02 7.115676e-01 -3.503906e+00 3.300781e+00
3.957031e+01 1.913043e-01 -3.261202e-02 7.115639e-01 -3.503906e+00 3.300781e+00
3.939844e+01 1.956522e-01 -3.269056e-02 7.114691e-01 -3.503906e+00 3.300781e+00
3.943750e+01 1.956522e-01 -3.263476e-02 7.115195e-01 -3.503906e+00 3.304688e+00
3.941016e+01 1.956522e-01 -3.250248e-02 7.118718e-01 -3.507812e+00 3.308594e+00
3.956250e+01 1.956522e-01 -3.251901e-02 7.120882e-01 -3.511719e+00 3.312500e+00
3.952344e+01 1.956522e-01 -3.251488e-02 7.120794e-01 -3.507812e+00 3.312500e+00
3.961328e+01 2.000000e-01 -3.260995e-02 7.122362e-01 -3.507812e+00 3.312500e+00
3.990234e+01 1.956522e-01 -3.258722e-02 7.122570e-01 -3.507812e+00 3.316406e+00
3.971875e+01 1.956522e-01 -3.255208e-02 7.123253e-01 -3.507812e+00 3.316406e+00
3.963672e+01 1.956522e-01 -3.261409e-02 7.124309e-01 -3.507812e+00 3.316406e+00
4.000391e+01 1.913043e-01 -3.256448e-02 7.122955e-01 -3.507812e+00 3.316406e+00
3.984766e+01 1.956522e-01 -3.244048e-02 7.122443e-01 -3.503906e+00 3.316406e+00
3.999219e+01 1.956522e-01 -3.245494e-02 7.124035e-01 -3.503906e+00 3.316406e+00
3.988672e+01 1.956522e-01 -3.236194e-02 7.125446e-01 -3.507812e+00 3.320312e+00
3.976562e+01 1.869565e-01 -3.247148e-02 7.124958e-01 -3.507812e+00 3.320312e+00
3.987891e+01 1.956522e-01 -3.257068e-02 7.125503e-01 -3.507812e+00 3.320312e+00
3.984766e+01 2.000000e-01 -3.249835e-02 7.124812e-01 -3.507812e+00 3.320312e+00
3.989062e+01 2.000000e-01 -3.247768e-02 7.124265e-01 -3.507812e+00 3.320312e+00
4.000391e+01 2.000000e-01 -3.240947e-02 7.124945e-01 -3.507812e+00 3.324219e+00
3.958203e+01 1.956522e-01 -3.240741e-02 7.125388e-01 -3.511719e+00 3.328125e+00
3.976953e+01 1.956522e-01 -3.228133e-02 7.126458e-01 -3.511719e+00 3.328125e+00
4.004688e+01 2.000000e-01 -3.218006e-02 7.127444e-01 -3.511719e+00 3.332031e+00
3.997656e+01 2.000000e-01 -3.232887e-02 7.126913e-01 -3.511719e+00 3.328125e+00
4.004297e+01 2.000000e-01 -3.223793e-02 7.127110e-01 -3.511719e+00 3.328125e+00
4.005469e+01 2.000000e-01 -3.222346e-02 7.127796e-01 -3.511719e+00 3.328125e+00
4.005469e+01 2.000000e-01 -3.237227e-02 7.129038e-01 -3.511719e+00 3.328125e+00
4.004297e+01 1.956522e-01 -3.243634e-02 7.129060e-01 -3.511719e+00 3.328125e+00
3.997266e+01 1.956522e-01 -3.241361e-02 7.128611e-01 -3.511719e+00 3.328125e+00
3.996875e+01 1.956522e-01 -3.229993e-02 7.129034e-01 -3.511719e+00 3.324219e+00
3.990234e+01 1.956522e-01 -3.238054e-02 7.128860e-01 -3.511719e+00 3.324219e+00
3.992188e+01 1.956522e-01 -3.238054e-02 7.129053e-01 -3.511719e+00 3.324219e+00
3.991406e+01 1.956522e-01 -3.241981e-02 7.129163e-01 -3.511719e+00 3.324219e+00
3.984766e+01 2.000000e-01 -3.234127e-02 7.128265e-01 -3.511719e+00 3.324219e+00
3.987109e+01 2.000000e-01 -3.222966e-02 7.128558e-01 -3.511719e+00 3.324219e+00
3.974219e+01 1.913043e-01 -3.217593e-02 7.127804e-01 -3.511719e+00 3.324219e+00
3.988281e+01 1.956522e-01 -3.210979e-02 7.129810e-01 -3.515625e+00 3.328125e+00
3.981641e+01 1.913043e-01 -3.218626e-02 7.129539e-01 -3.515625e+00 3.328125e+00
3.982812e+01 1.913043e-01 -3.219659e-02 7.129588e-01 -3.515625e+00 3.328125e+00
3.981641e+01 1.913043e-01 -3.222966e-02 7.129373e-01 -3.515625e+00 3.328125e+00
3.957812e+01 1.913043e-01 -3.214286e-02 7.128948e-01 -3.515625e+00 3.328125e+00
3.959375e+01 1.956522e-01 -3.210565e-02 7.129013e-01 -3.515625e+00 3.328125e+00
3.973828e+01 1.913043e-01 -3.203332e-02 7.128016e-01 -3.515625e+00 3.328125e+00
3.975781e+01 1.913043e-01 -3.212219e-02 7.128325e-01 -3.515625e+00 3.328125e+00
3.980859e+01 1.913043e-01 -3.216559e-02 7.128352e-01 -3.515625e+00 3.328125e+00
3.990625e+01 1.913043e-01 -3.205605e-02 7.128804e-01 -3.515625e+00 3.328125e+00
4.000781e+01 1.913043e-01 -3.203125e-02 7.127635e-01 -3.515625e+00 3.328125e+00
3.988281e+01 1.913043e-01 -3.211186e-02 7.128764e-01 -3.515625e+00 3.328125e+00
4.011328e+01 1.913043e-01 -3.208705e-02 7.128407e-01 -3.519531e+00 3.332031e+00
4.010938e+01 1.913043e-01 -3.225240e-02 7.129153e-01 -3.523438e+00 3.332031e+00
4.010156e+01 1.956522e-01 -3.211806e-02 7.129541e-01 -3.523438e+00 3.332031e+00
4.003516e+01 1.913043e-01 -3.229787e-02 7.128640e-01 -3.523438e+00 3.335938e+00
4.004297e+01 1.913043e-01 -3.217593e-02 7.129095e-01 -3.519531e+00 3.335938e+00
4.017969e+01 2.000000e-01 -3.215526e-02 7.128708e-01 -3.519531e+00 3.335938e+00
3.994141e+01 2.000000e-01 -3.217593e-02 7.128625e-01 -3.519531e+00 3.335938e+00
4.006641e+01 2.000000e-01 -3.221933e-02 7.128980e-01 -3.519531e+00 3.335938e+00
3.999219e+01 2.000000e-01 -3.219866e-02 7.128562e-01 -3.519531e+00 3.335938e+00
3.975781e+01 1.956522e-01 -3.221933e-02 7.128448e-01 -3.519531e+00 3.335938e+00
3.972266e+01 1.956522e-01 -3.222346e-02 7.129354e-01 -3.519531e+00 3.335938e+00
3.990625e+01 1.956522e-01 -3.216766e-02 7.131649e-01 -3.523438e+00 3.339844e+00
3.993359e+01 1.956522e-01 -3.227513e-02 7.133652e-01 -3.523438e+00 3.347656e+00
3.997656e+01 2.000000e-01 -3.221726e-02 7.133737e-01 -3.523438e+00 3.347656e+00
3.998438e+01 2.000000e-01 -3.225860e-02 7.132682e-01 -3.523438e+00 3.347656e+00
3.990625e+01 1.956522e-01 -3.229993e-02 7.132879e-01 -3.523438e+00 3.347656e+00
3.995312e+01 1.956522e-01 -3.210565e-02 7.134196e-01 -3.523438e+00 3.351562e+00
3.979688e+01 1.956522e-01 -3.221520e-02 7.135466e-01 -3.523438e+00 3.351562e+00
4.003516e+01 1.956522e-01 -3.212012e-02 7.135641e-01 -3.523438e+00 3.351562e+00
3.996094e+01 2.000000e-01 -3.222966e-02 7.136520e-01 -3.527344e+00 3.351562e+00
4.008594e+01 2.000000e-01 -3.214699e-02 7.137186e-01 -3.527344e+00 3.351562e+00
3.999219e+01 1.913043e-01 -3.221313e-02 7.139039e-01 -3.527344e+00 3.351562e+00
4.000391e+01 1.956522e-01 -3.225240e-02 7.140086e-01 -3.531250e+00 3.355469e+00
4.020312e+01 1.913043e-01 -3.204365e-02 7.141069e-01 -3.531250e+00 3.355469e+00
3.992578e+01 2.000000e-01 -3.214079e-02 7.141561e-01 -3.531250e+00 3.355469e+00
4.001172e+01 2.000000e-01 -3.214079e-02 7.140973e-01 -3.535156e+00 3.355469e+00
3.990625e+01 1.956522e-01 -3.203538e-02 7.141091e-01 -3.535156e+00 3.355469e+00
3.982031e+01 2.000000e-01 -3.218419e-02 7.141573e-01 -3.535156e+00 3.355469e+00
3.979688e+01 2.000000e-01 -3.221106e-02 7.141444e-01 -3.535156e+00 3.355469e+00
3.972266e+01 1.956522e-01 -3.217593e-02 7.141536e-01 -3.535156e+00 3.359375e+00
3.971094e+01 1.956522e-01 -3.210565e-02 7.141382e-01 -3.535156e+00 3.359375e+00
3.988672e+01 2.000000e-01 -3.221933e-02 7.140297e-01 -3.531250e+00 3.355469e+00
3.986328e+01 2.000000e-01 -3.227100e-02 7.140609e-01 -3.531250e+00 3.355469e+00
3.969922e+01 1.913043e-01 -3.226066e-02 7.140882e-01 -3.531250e+00 3.355469e+00
3.986328e+01 2.000000e-01 -3.228753e-02 7.142254e-01 -3.531250e+00 3.359375e+00
3.944922e+01 1.956522e-01 -3.210979e-02 7.142059e-01 -3.531250e+00 3.359375e+00
3.950000e+01 1.956522e-01 -3.218006e-02 7.142096e-01 -3.531250e+00 3.359375e+00
3.947656e+01 1.956522e-01 -3.219453e-02 7.141606e-01 -3.531250e+00 3.359375e+00
3.960547e+01 2.000000e-01 -3.216146e-02 7.141631e-01 -3.531250e+00 3.363281e+00
3.961328e+01 1.913043e-01 -3.220899e-02 7.141971e-01 -3.531250e+00 3.363281e+00
3.967969e+01 2.000000e-01 -3.226480e-02 7.143360e-01 -3.535156e+00 3.367188e+00
4.001172e+01 1.956522e-01 -3.212426e-02 7.144891e-01 -3.535156e+00 3.367188e+00
4.005859e+01 1.956522e-01 -3.208499e-02 7.146074e-01 -3.535156e+00 3.367188e+00
3.985938e+01 2.000000e-01 -3.205398e-02 7.146677e-01 -3.535156e+00 3.367188e+00
3.968750e+01 1.913043e-01 -3.207465e-02 7.147161e-01 -3.539062e+00 3.371094e+00
3.975391e+01 2.000000e-01 -3.189691e-02 7.148000e-01 -3.539062e+00 3.371094e+00
