8.999023e-01 9.987793e-01
9.765625e-04 5.429688e-01
9.765625e-04 2.919922e-01
9.765625e-04 1.699219e-01
9.765625e-04 9.985352e-02
9.765625e-04 9.985352e-02
9.765625e-04 9.985352e-02
9.765625e-04 9.985352e-02
9.765625e-04 9.985352e-02
9.765625e-04 9.985352e-02
9.765625e-04 9.985352e-02
9.765625e-04 9.985352e-02
9.765625e-04 9.985352e-02
9.765625e-04 9.985352e-02
