8.999023e-01 9.987793e-01
4.497070e-01 9.926758e-01
2.248535e-01 9.865723e-01
1.125488e-01 9.804688e-01
5.639648e-02 9.743652e-01
2.807617e-02 9.682617e-01
1.416016e-02 9.621582e-01
7.324219e-03 9.560547e-01
3.662109e-03 9.499512e-01
1.708984e-03 9.438477e-01
9.765625e-04 9.377441e-01
9.765625e-04 9.316406e-01
9.765625e-04 9.255371e-01
9.765625e-04 9.194336e-01
9.765625e-04 9.133301e-01
9.765625e-04 9.072266e-01
9.765625e-04 9.011230e-01
9.765625e-04 8.950195e-01
9.765625e-04 8.889160e-01
9.765625e-04 8.828125e-01
9.765625e-04 8.767090e-01
9.765625e-04 8.706055e-01
9.765625e-04 8.645020e-01
9.765625e-04 8.583984e-01
9.765625e-04 8.522949e-01
9.765625e-04 8.461914e-01
9.765625e-04 8.400879e-01
9.765625e-04 8.339844e-01
9.765625e-04 8.278809e-01
9.765625e-04 8.217773e-01
9.765625e-04 8.156738e-01
9.765625e-04 8.095703e-01
9.765625e-04 8.034668e-01
9.765625e-04 7.973633e-01
9.765625e-04 7.912598e-01
9.765625e-04 7.851562e-01
9.765625e-04 7.790527e-01
9.765625e-04 7.729492e-01
9.765625e-04 7.668457e-01
9.765625e-04 7.607422e-01
9.765625e-04 7.546387e-01
9.765625e-04 7.485352e-01
9.765625e-04 7.424316e-01
9.765625e-04 7.363281e-01
9.765625e-04 7.302246e-01
9.765625e-04 7.241211e-01
9.765625e-04 7.180176e-01
9.765625e-04 7.119141e-01
9.765625e-04 7.058105e-01
9.765625e-04 6.997070e-01
9.765625e-04 6.936035e-01
9.765625e-04 6.875000e-01
9.765625e-04 6.813965e-01
9.765625e-04 6.752930e-01
9.765625e-04 6.691895e-01
9.765625e-04 6.630859e-01
9.765625e-04 6.569824e-01
9.765625e-04 6.508789e-01
9.765625e-04 6.447754e-01
9.765625e-04 6.386719e-01
9.765625e-04 6.325684e-01
9.765625e-04 6.264648e-01
9.765625e-04 6.203613e-01
9.765625e-04 6.142578e-01
9.765625e-04 6.081543e-01
9.765625e-04 6.020508e-01
9.765625e-04 5.959473e-01
9.765625e-04 5.898438e-01
9.765625e-04 5.837402e-01
9.765625e-04 5.776367e-01
9.765625e-04 5.715332e-01
9.765625e-04 5.654297e-01
9.765625e-04 5.593262e-01
9.765625e-04 5.532227e-01
9.765625e-04 5.471191e-01
9.765625e-04 5.410156e-01
9.765625e-04 5.349121e-01
9.765625e-04 5.288086e-01
9.765625e-04 5.227051e-01
9.765625e-04 5.166016e-01
9.765625e-04 5.104980e-01
9.765625e-04 5.043945e-01
9.765625e-04 4.992676e-01
9.765625e-04 4.968262e-01
9.765625e-04 4.943848e-01
9.765625e-04 4.919434e-01
9.765625e-04 4.895020e-01
9.765625e-04 4.870605e-01
9.765625e-04 4.846191e-01
9.765625e-04 4.821777e-01
9.765625e-04 4.797363e-01
9.765625e-04 4.772949e-01
9.765625e-04 4.748535e-01
9.765625e-04 4.724121e-01
9.765625e-04 4.699707e-01
9.765625e-04 4.675293e-01
9.765625e-04 4.650879e-01
9.765625e-04 4.626465e-01
9.765625e-04 4.602051e-01
9.765625e-04 4.577637e-01
9.765625e-04 4.553223e-01
9.765625e-04 4.528809e-01
9.765625e-04 4.504395e-01
9.765625e-04 4.479980e-01
9.765625e-04 4.455566e-01
9.765625e-04 4.431152e-01
9.765625e-04 4.406738e-01
9.765625e-04 4.382324e-01
9.765625e-04 4.357910e-01
9.765625e-04 4.333496e-01
9.765625e-04 4.309082e-01
9.765625e-04 4.284668e-01
9.765625e-04 4.260254e-01
9.765625e-04 4.235840e-01
9.765625e-04 4.211426e-01
9.765625e-04 4.187012e-01
9.765625e-04 4.162598e-01
9.765625e-04 4.138184e-01
9.765625e-04 4.113770e-01
9.765625e-04 4.089355e-01
9.765625e-04 4.064941e-01
9.765625e-04 4.040527e-01
9.765625e-04 4.016113e-01
9.765625e-04 3.991699e-01
9.765625e-04 3.967285e-01
9.765625e-04 3.942871e-01
9.765625e-04 3.918457e-01
9.765625e-04 3.894043e-01
9.765625e-04 3.869629e-01
9.765625e-04 3.845215e-01
9.765625e-04 3.820801e-01
9.765625e-04 3.796387e-01
9.765625e-04 3.771973e-01
9.765625e-04 3.747559e-01
9.765625e-04 3.723145e-01
9.765625e-04 3.698730e-01
9.765625e-04 3.674316e-01
9.765625e-04 3.649902e-01
9.765625e-04 3.625488e-01
9.765625e-04 3.601074e-01
9.765625e-04 3.576660e-01
9.765625e-04 3.552246e-01
9.765625e-04 3.527832e-01
9.765625e-04 3.503418e-01
9.765625e-04 3.479004e-01
9.765625e-04 3.454590e-01
9.765625e-04 3.430176e-01
9.765625e-04 3.405762e-01
9.765625e-04 3.381348e-01
9.765625e-04 3.356934e-01
9.765625e-04 3.332520e-01
9.765625e-04 3.308105e-01
9.765625e-04 3.283691e-01
9.765625e-04 3.259277e-01
9.765625e-04 3.234863e-01
9.765625e-04 3.210449e-01
9.765625e-04 3.186035e-01
9.765625e-04 3.161621e-01
9.765625e-04 3.137207e-01
9.765625e-04 3.112793e-01
9.765625e-04 3.088379e-01
9.765625e-04 3.063965e-01
9.765625e-04 3.039551e-01
9.765625e-04 3.015137e-01
9.765625e-04 2.990723e-01
9.765625e-04 2.966309e-01
9.765625e-04 2.941895e-01
9.765625e-04 2.917480e-01
9.765625e-04 2.893066e-01
9.765625e-04 2.868652e-01
9.765625e-04 2.844238e-01
9.765625e-04 2.819824e-01
9.765625e-04 2.795410e-01
9.765625e-04 2.770996e-01
9.765625e-04 2.746582e-01
9.765625e-04 2.722168e-01
9.765625e-04 2.697754e-01
9.765625e-04 2.673340e-01
9.765625e-04 2.648926e-01
9.765625e-04 2.624512e-01
9.765625e-04 2.600098e-01
9.765625e-04 2.575684e-01
9.765625e-04 2.551270e-01
9.765625e-04 2.526855e-01
9.765625e-04 2.502441e-01
9.765625e-04 2.487793e-01
9.765625e-04 2.475586e-01
9.765625e-04 2.463379e-01
9.765625e-04 2.451172e-01
9.765625e-04 2.438965e-01
9.765625e-04 2.426758e-01
9.765625e-04 2.414551e-01
9.765625e-04 2.402344e-01
9.765625e-04 2.390137e-01
9.765625e-04 2.377930e-01
9.765625e-04 2.365723e-01
9.765625e-04 2.353516e-01
9.765625e-04 2.341309e-01
9.765625e-04 2.329102e-01
9.765625e-04 2.316895e-01
9.765625e-04 2.304688e-01
9.765625e-04 2.292480e-01
9.765625e-04 2.280273e-01
9.765625e-04 2.268066e-01
9.765625e-04 2.255859e-01
9.765625e-04 2.243652e-01
9.765625e-04 2.231445e-01
9.765625e-04 2.219238e-01
9.765625e-04 2.207031e-01
9.765625e-04 2.194824e-01
9.765625e-04 2.182617e-01
9.765625e-04 2.170410e-01
9.765625e-04 2.158203e-01
9.765625e-04 2.145996e-01
9.765625e-04 2.133789e-01
9.765625e-04 2.121582e-01
9.765625e-04 2.109375e-01
9.765625e-04 2.097168e-01
9.765625e-04 2.084961e-01
9.765625e-04 2.072754e-01
9.765625e-04 2.060547e-01
9.765625e-04 2.048340e-01
9.765625e-04 2.036133e-01
9.765625e-04 2.023926e-01
9.765625e-04 2.011719e-01
9.765625e-04 1.999512e-01
9.765625e-04 1.987305e-01
9.765625e-04 1.975098e-01
9.765625e-04 1.962891e-01
9.765625e-04 1.950684e-01
9.765625e-04 1.938477e-01
9.765625e-04 1.926270e-01
9.765625e-04 1.914062e-01
9.765625e-04 1.901855e-01
9.765625e-04 1.889648e-01
9.765625e-04 1.877441e-01
9.765625e-04 1.865234e-01
9.765625e-04 1.853027e-01
9.765625e-04 1.840820e-01
9.765625e-04 1.828613e-01
9.765625e-04 1.816406e-01
9.765625e-04 1.804199e-01
9.765625e-04 1.791992e-01
9.765625e-04 1.779785e-01
9.765625e-04 1.767578e-01
9.765625e-04 1.755371e-01
9.765625e-04 1.743164e-01
9.765625e-04 1.730957e-01
9.765625e-04 1.718750e-01
9.765625e-04 1.706543e-01
9.765625e-04 1.694336e-01
9.765625e-04 1.682129e-01
9.765625e-04 1.669922e-01
9.765625e-04 1.657715e-01
9.765625e-04 1.645508e-01
9.765625e-04 1.633301e-01
9.765625e-04 1.621094e-01
9.765625e-04 1.608887e-01
9.765625e-04 1.596680e-01
9.765625e-04 1.584473e-01
9.765625e-04 1.572266e-01
9.765625e-04 1.560059e-01
9.765625e-04 1.547852e-01
9.765625e-04 1.535645e-01
9.765625e-04 1.523438e-01
9.765625e-04 1.511230e-01
9.765625e-04 1.499023e-01
9.765625e-04 1.486816e-01
9.765625e-04 1.474609e-01
9.765625e-04 1.462402e-01
9.765625e-04 1.450195e-01
9.765625e-04 1.437988e-01
9.765625e-04 1.425781e-01
9.765625e-04 1.413574e-01
9.765625e-04 1.401367e-01
9.765625e-04 1.389160e-01
9.765625e-04 1.376953e-01
9.765625e-04 1.364746e-01
9.765625e-04 1.352539e-01
9.765625e-04 1.340332e-01
9.765625e-04 1.328125e-01
9.765625e-04 1.315918e-01
9.765625e-04 1.303711e-01
9.765625e-04 1.291504e-01
9.765625e-04 1.279297e-01
9.765625e-04 1.267090e-01
9.765625e-04 1.254883e-01
9.765625e-04 1.242676e-01
9.765625e-04 1.230469e-01
9.765625e-04 1.218262e-01
9.765625e-04 1.206055e-01
9.765625e-04 1.193848e-01
9.765625e-04 1.181641e-01
9.765625e-04 1.169434e-01
9.765625e-04 1.157227e-01
9.765625e-04 1.145020e-01
9.765625e-04 1.132812e-01
9.765625e-04 1.120605e-01
9.765625e-04 1.108398e-01
9.765625e-04 1.096191e-01
9.765625e-04 1.083984e-01
9.765625e-04 1.071777e-01
9.765625e-04 1.059570e-01
9.765625e-04 1.047363e-01
9.765625e-04 1.035156e-01
9.765625e-04 1.022949e-01
9.765625e-04 1.010742e-01
9.765625e-04 9.985352e-02
9.765625e-04 9.863281e-02
9.765625e-04 9.741211e-02
9.765625e-04 9.619141e-02
9.765625e-04 9.497070e-02
9.765625e-04 9.375000e-02
9.765625e-04 9.252930e-02
9.765625e-04 9.130859e-02
9.765625e-04 9.008789e-02
9.765625e-04 8.886719e-02
9.765625e-04 8.764648e-02
9.765625e-04 8.642578e-02
9.765625e-04 8.520508e-02
9.765625e-04 8.398438e-02
9.765625e-04 8.276367e-02
9.765625e-04 8.154297e-02
9.765625e-04 8.032227e-02
9.765625e-04 7.910156e-02
9.765625e-04 7.788086e-02
9.765625e-04 7.666016e-02
9.765625e-04 7.543945e-02
9.765625e-04 7.421875e-02
9.765625e-04 7.299805e-02
9.765625e-04 7.177734e-02
9.765625e-04 7.055664e-02
9.765625e-04 6.933594e-02
9.765625e-04 6.811523e-02
9.765625e-04 6.689453e-02
9.765625e-04 6.567383e-02
9.765625e-04 6.445312e-02
9.765625e-04 6.323242e-02
9.765625e-04 6.250000e-02
9.765625e-04 6.250000e-02
9.765625e-04 6.250000e-02
9.765625e-04 6.250000e-02
9.765625e-04 6.250000e-02
9.765625e-04 6.250000e-02
9.765625e-04 6.250000e-02
9.765625e-04 6.250000e-02
9.765625e-04 6.250000e-02
9.765625e-04 6.250000e-02
9.765625e-04 6.250000e-02
9.765625e-04 6.250000e-02
9.765625e-04 6.250000e-02
9.765625e-04 6.250000e-02
9.765625e-04 6.250000e-02
9.765625e-04 6.250000e-02
9.765625e-04 6.250000e-02
9.765625e-04 6.250000e-02
9.765625e-04 6.250000e-02
9.765625e-04 6.250000e-02
9.765625e-04 6.250000e-02
9.765625e-04 6.250000e-02
9.765625e-04 6.250000e-02
9.765625e-04 6.250000e-02
9.765625e-04 6.250000e-02
9.765625e-04 6.250000e-02
9.765625e-04 6.250000e-02
9.765625e-04 6.250000e-02
9.765625e-04 6.250000e-02
9.765625e-04 6.250000e-02
9.765625e-04 6.250000e-02
9.765625e-04 6.250000e-02
9.765625e-04 6.250000e-02
9.765625e-04 6.250000e-02
9.765625e-04 6.250000e-02
9.765625e-04 6.250000e-02
9.765625e-04 6.250000e-02
9.765625e-04 6.250000e-02
9.765625e-04 6.250000e-02
9.765625e-04 6.250000e-02
9.765625e-04 6.250000e-02
9.765625e-04 6.250000e-02
9.765625e-04 6.250000e-02
9.765625e-04 6.250000e-02
9.765625e-04 6.250000e-02
9.765625e-04 6.250000e-02
9.765625e-04 6.250000e-02
9.765625e-04 6.250000e-02
9.765625e-04 6.250000e-02
9.765625e-04 6.250000e-02
9.765625e-04 6.250000e-02
9.765625e-04 6.250000e-02
9.765625e-04 6.250000e-02
9.765625e-04 6.250000e-02
9.765625e-04 6.250000e-02
9.765625e-04 6.250000e-02
9.765625e-04 6.250000e-02
9.765625e-04 6.250000e-02
9.765625e-04 6.250000e-02
9.765625e-04 6.250000e-02
9.765625e-04 6.250000e-02
9.765625e-04 6.250000e-02
9.765625e-04 6.250000e-02
9.765625e-04 6.250000e-02
9.765625e-04 6.250000e-02
9.765625e-04 6.250000e-02
9.765625e-04 6.250000e-02
9.765625e-04 6.250000e-02
9.765625e-04 6.250000e-02
9.765625e-04 6.250000e-02
9.765625e-04 6.250000e-02
9.765625e-04 6.250000e-02
9.765625e-04 6.250000e-02
9.765625e-04 6.250000e-02
9.765625e-04 6.250000e-02
9.765625e-04 6.250000e-02
9.765625e-04 6.250000e-02
9.765625e-04 6.250000e-02
9.765625e-04 6.250000e-02
9.765625e-04 6.250000e-02
9.765625e-04 6.250000e-02
9.765625e-04 6.250000e-02
9.765625e-04 6.250000e-02
9.765625e-04 6.250000e-02
9.765625e-04 6.250000e-02
9.765625e-04 6.250000e-02
9.765625e-04 6.250000e-02
9.765625e-04 6.250000e-02
9.765625e-04 6.250000e-02
9.765625e-04 6.250000e-02
9.765625e-04 6.250000e-02
9.765625e-04 6.250000e-02
9.765625e-04 6.250000e-02
9.765625e-04 6.250000e-02
9.765625e-04 6.250000e-02
9.765625e-04 6.250000e-02
9.765625e-04 6.250000e-02
9.765625e-04 6.250000e-02
9.765625e-04 6.250000e-02
9.765625e-04 6.250000e-02
9.765625e-04 6.250000e-02
9.765625e-04 6.250000e-02
9.765625e-04 6.250000e-02
9.765625e-04 6.250000e-02
9.765625e-04 6.250000e-02
9.765625e-04 6.250000e-02
9.765625e-04 6.250000e-02
9.765625e-04 6.250000e-02
9.765625e-04 6.250000e-02
9.765625e-04 6.250000e-02
9.765625e-04 6.250000e-02
9.765625e-04 6.250000e-02
9.765625e-04 6.250000e-02
9.765625e-04 6.250000e-02
9.765625e-04 6.250000e-02
9.765625e-04 6.250000e-02
9.765625e-04 6.250000e-02
9.765625e-04 6.250000e-02
9.765625e-04 6.250000e-02
9.765625e-04 6.250000e-02
9.765625e-04 6.250000e-02
9.765625e-04 6.250000e-02
9.765625e-04 6.250000e-02
9.765625e-04 6.250000e-02
9.765625e-04 6.250000e-02
9.765625e-04 6.250000e-02
9.765625e-04 6.250000e-02
9.765625e-04 6.250000e-02
9.765625e-04 6.250000e-02
9.765625e-04 6.250000e-02
9.765625e-04 6.250000e-02
9.765625e-04 6.250000e-02
9.765625e-04 6.250000e-02
9.765625e-04 6.250000e-02
9.765625e-04 6.250000e-02
9.765625e-04 6.250000e-02
9.765625e-04 6.250000e-02
9.765625e-04 6.250000e-02
9.765625e-04 6.250000e-02
9.765625e-04 6.250000e-02
9.765625e-04 6.250000e-02
9.765625e-04 6.250000e-02
9.765625e-04 6.250000e-02
9.765625e-04 6.250000e-02
9.765625e-04 6.250000e-02
9.765625e-04 6.250000e-02
9.765625e-04 6.250000e-02
9.765625e-04 6.250000e-02
9.765625e-04 6.250000e-02
9.765625e-04 6.250000e-02
9.765625e-04 6.250000e-02
9.765625e-04 6.250000e-02
9.765625e-04 6.250000e-02
9.765625e-04 6.250000e-02
9.765625e-04 6.250000e-02
9.765625e-04 6.250000e-02
9.765625e-04 6.250000e-02
9.765625e-04 6.250000e-02
9.765625e-04 6.250000e-02
9.765625e-04 6.250000e-02
9.765625e-04 6.250000e-02
9.765625e-04 6.250000e-02
9.765625e-04 6.250000e-02
9.765625e-04 6.250000e-02
9.765625e-04 6.250000e-02
9.765625e-04 6.250000e-02
9.765625e-04 6.250000e-02
9.765625e-04 6.250000e-02
9.765625e-04 6.250000e-02
9.765625e-04 6.250000e-02
9.765625e-04 6.250000e-02
9.765625e-04 6.250000e-02
9.765625e-04 6.250000e-02
9.765625e-04 6.250000e-02
9.765625e-04 6.250000e-02
9.765625e-04 6.250000e-02
9.765625e-04 6.250000e-02
9.765625e-04 6.250000e-02
9.765625e-04 6.250000e-02
9.765625e-04 6.250000e-02
9.765625e-04 6.250000e-02
9.765625e-04 6.250000e-02
9.765625e-04 6.250000e-02
9.765625e-04 6.250000e-02
9.765625e-04 6.250000e-02
9.765625e-04 6.250000e-02
9.765625e-04 6.250000e-02
9.765625e-04 6.250000e-02
9.765625e-04 6.250000e-02
9.765625e-04 6.250000e-02
9.765625e-04 6.250000e-02
9.765625e-04 6.250000e-02
9.765625e-04 6.250000e-02
9.765625e-04 6.250000e-02
9.765625e-04 6.250000e-02
9.765625e-04 6.250000e-02
9.765625e-04 6.250000e-02
9.765625e-04 6.250000e-02
9.765625e-04 6.250000e-02
9.765625e-04 6.250000e-02
9.765625e-04 6.250000e-02
9.765625e-04 6.250000e-02
9.765625e-04 6.250000e-02
9.765625e-04 6.250000e-02
9.765625e-04 6.250000e-02
9.765625e-04 6.250000e-02
9.765625e-04 6.250000e-02
9.765625e-04 6.250000e-02
9.765625e-04 6.250000e-02
9.765625e-04 6.250000e-02
9.765625e-04 6.250000e-02
9.765625e-04 6.250000e-02
9.765625e-04 6.250000e-02
9.765625e-04 6.250000e-02
9.765625e-04 6.250000e-02
9.765625e-04 6.250000e-02
9.765625e-04 6.250000e-02
9.765625e-04 6.250000e-02
9.765625e-04 6.250000e-02
9.765625e-04 6.250000e-02
9.765625e-04 6.250000e-02
9.765625e-04 6.250000e-02
9.765625e-04 6.250000e-02
9.765625e-04 6.250000e-02
9.765625e-04 6.250000e-02
9.765625e-04 6.250000e-02
9.765625e-04 6.250000e-02
9.765625e-04 6.250000e-02
9.765625e-04 6.250000e-02
9.765625e-04 6.250000e-02
9.765625e-04 6.250000e-02
9.765625e-04 6.250000e-02
9.765625e-04 6.250000e-02
9.765625e-04 6.250000e-02
9.765625e-04 6.250000e-02
9.765625e-04 6.250000e-02
9.765625e-04 6.250000e-02
9.765625e-04 6.250000e-02
9.765625e-04 6.250000e-02
9.765625e-04 6.250000e-02
9.765625e-04 6.250000e-02
9.765625e-04 6.250000e-02
9.765625e-04 6.250000e-02
9.765625e-04 6.250000e-02
9.765625e-04 6.250000e-02
9.765625e-04 6.250000e-02
9.765625e-04 6.250000e-02
9.765625e-04 6.250000e-02
9.765625e-04 6.250000e-02
9.765625e-04 6.250000e-02
9.765625e-04 6.250000e-02
9.765625e-04 6.250000e-02
9.765625e-04 6.250000e-02
9.765625e-04 6.250000e-02
9.765625e-04 6.250000e-02
9.765625e-04 6.250000e-02
9.765625e-04 6.250000e-02
9.765625e-04 6.250000e-02
9.765625e-04 6.250000e-02
9.765625e-04 6.250000e-02
9.765625e-04 6.250000e-02
9.765625e-04 6.250000e-02
9.765625e-04 6.250000e-02
9.765625e-04 6.250000e-02
9.765625e-04 6.250000e-02
9.765625e-04 6.250000e-02
9.765625e-04 6.250000e-02
9.765625e-04 6.250000e-02
9.765625e-04 6.250000e-02
9.765625e-04 6.250000e-02
9.765625e-04 6.250000e-02
9.765625e-04 6.250000e-02
9.765625e-04 6.250000e-02
9.765625e-04 6.250000e-02
9.765625e-04 6.250000e-02
9.765625e-04 6.250000e-02
9.765625e-04 6.250000e-02
9.765625e-04 6.250000e-02
9.765625e-04 6.250000e-02
9.765625e-04 6.250000e-02
9.765625e-04 6.250000e-02
9.765625e-04 6.250000e-02
9.765625e-04 6.250000e-02
9.765625e-04 6.250000e-02
9.765625e-04 6.250000e-02
9.765625e-04 6.250000e-02
9.765625e-04 6.250000e-02
9.765625e-04 6.250000e-02
9.765625e-04 6.250000e-02
9.765625e-04 6.250000e-02
9.765625e-04 6.250000e-02
9.765625e-04 6.250000e-02
9.765625e-04 6.250000e-02
9.765625e-04 6.250000e-02
9.765625e-04 6.250000e-02
9.765625e-04 6.250000e-02
9.765625e-04 6.250000e-02
9.765625e-04 6.250000e-02
9.765625e-04 6.250000e-02
9.765625e-04 6.250000e-02
9.765625e-04 6.250000e-02
9.765625e-04 6.250000e-02
9.765625e-04 6.250000e-02
9.765625e-04 6.250000e-02
9.765625e-04 6.250000e-02
9.765625e-04 6.250000e-02
9.765625e-04 6.250000e-02
9.765625e-04 6.250000e-02
9.765625e-04 6.250000e-02
9.765625e-04 6.250000e-02
9.765625e-04 6.250000e-02
9.765625e-04 6.250000e-02
9.765625e-04 6.250000e-02
9.765625e-04 6.250000e-02
9.765625e-04 6.250000e-02
9.765625e-04 6.250000e-02
9.765625e-04 6.250000e-02
9.765625e-04 6.250000e-02
9.765625e-04 6.250000e-02
9.765625e-04 6.250000e-02
9.765625e-04 6.250000e-02
9.765625e-04 6.250000e-02
9.765625e-04 6.250000e-02
9.765625e-04 6.250000e-02
9.765625e-04 6.250000e-02
9.765625e-04 6.250000e-02
9.765625e-04 6.250000e-02
9.765625e-04 6.250000e-02
9.765625e-04 6.250000e-02
9.765625e-04 6.250000e-02
9.765625e-04 6.250000e-02
9.765625e-04 6.250000e-02
9.765625e-04 6.250000e-02
9.765625e-04 6.250000e-02
9.765625e-04 6.250000e-02
9.765625e-04 6.250000e-02
9.765625e-04 6.250000e-02
9.765625e-04 6.250000e-02
9.765625e-04 6.250000e-02
9.765625e-04 6.250000e-02
9.765625e-04 6.250000e-02
9.765625e-04 6.250000e-02
9.765625e-04 6.250000e-02
9.765625e-04 6.250000e-02
9.765625e-04 6.250000e-02
9.765625e-04 6.250000e-02
9.765625e-04 6.250000e-02
9.765625e-04 6.250000e-02
9.765625e-04 6.250000e-02
9.765625e-04 6.250000e-02
9.765625e-04 6.250000e-02
