3.651298e+04 8.270000e-01 8.626391e-04 5.780923e-01 -9.999875e-01 9.999874e-01
1.665250e+03 8.800000e-02 -1.364694e-02 5.842043e-01 -2.726312e+00 2.721797e+00
1.259805e+03 6.900000e-02 -1.971983e-02 5.860153e-01 -2.586655e+00 2.302186e+00
9.874813e+02 5.820000e-02 -2.302037e-02 5.875043e-01 -2.654268e+00 2.199350e+00
7.948168e+02 4.760000e-02 -2.529328e-02 5.884774e-01 -2.553334e+00 2.294544e+00
8.576341e+02 4.950000e-02 -2.544248e-02 5.887332e-01 -2.644148e+00 2.041061e+00
8.762181e+02 5.010000e-02 -2.628944e-02 5.891178e-01 -2.733278e+00 2.115803e+00
6.864421e+02 4.410000e-02 -2.701780e-02 5.895537e-01 -2.801946e+00 2.157337e+00
7.341089e+02 4.370000e-02 -2.791735e-02 5.901953e-01 -2.877135e+00 2.204293e+00
6.551099e+02 4.230000e-02 -2.835057e-02 5.907160e-01 -2.938735e+00 2.222969e+00
8.306172e+02 4.530000e-02 -2.869900e-02 5.911960e-01 -3.057474e+00 2.246589e+00
7.604060e+02 4.430000e-02 -2.976575e-02 5.923818e-01 -3.145429e+00 2.316672e+00
6.513270e+02 3.890000e-02 -3.043724e-02 5.931529e-01 -3.179491e+00 2.347491e+00
6.574418e+02 4.080000e-02 -3.067097e-02 5.935956e-01 -3.217984e+00 2.364982e+00
6.117281e+02 3.850000e-02 -3.089050e-02 5.941114e-01 -3.252529e+00 2.422808e+00
5.911718e+02 3.660000e-02 -3.117704e-02 5.946144e-01 -3.280325e+00 2.498105e+00
6.080037e+02 3.780000e-02 -3.154879e-02 5.952428e-01 -3.365165e+00 2.536083e+00
5.979238e+02 3.880000e-02 -3.225685e-02 5.959531e-01 -3.377052e+00 2.581789e+00
5.773736e+02 3.730000e-02 -3.251677e-02 5.964030e-01 -3.414801e+00 2.664851e+00
6.263666e+02 3.700000e-02 -3.298917e-02 5.969988e-01 -3.458667e+00 2.695537e+00
5.741898e+02 3.710000e-02 -3.331268e-02 5.979692e-01 -3.508610e+00 2.759379e+00
5.563944e+02 3.630000e-02 -3.373121e-02 5.985861e-01 -3.527056e+00 2.815625e+00
5.631395e+02 3.590000e-02 -3.387735e-02 5.988853e-01 -3.524159e+00 2.832587e+00
5.809001e+02 3.470000e-02 -3.404682e-02 5.994144e-01 -3.540494e+00 2.846749e+00
6.973156e+02 4.020000e-02 -3.432511e-02 5.999513e-01 -3.546326e+00 2.895541e+00
5.414494e+02 3.560000e-02 -3.459357e-02 6.004693e-01 -3.564169e+00 2.929412e+00
5.453950e+02 3.460000e-02 -3.474836e-02 6.009483e-01 -3.576505e+00 2.966316e+00
5.071291e+02 3.310000e-02 -3.506343e-02 6.013974e-01 -3.585394e+00 2.993139e+00
5.443199e+02 3.520000e-02 -3.507058e-02 6.018073e-01 -3.579870e+00 3.007564e+00
6.043921e+02 3.860000e-02 -3.541139e-02 6.021011e-01 -3.619728e+00 3.043227e+00
5.426640e+02 3.400000e-02 -3.541012e-02 6.024259e-01 -3.661346e+00 3.060709e+00
5.749019e+02 3.330000e-02 -3.563631e-02 6.027925e-01 -3.677547e+00 3.092688e+00
5.206659e+02 3.330000e-02 -3.597747e-02 6.032458e-01 -3.723860e+00 3.103101e+00
