8.999939e-01 9.989929e-01
7.031097e-01 8.887329e-01
5.501862e-01 8.267212e-01
4.254913e-01 7.918396e-01
3.377686e-01 7.722168e-01
2.673340e-01 7.611847e-01
2.083740e-01 7.549744e-01
1.617432e-01 7.514801e-01
1.296539e-01 7.495117e-01
1.015015e-01 6.939392e-01
7.936096e-02 6.626740e-01
6.398010e-02 6.450958e-01
5.017090e-02 6.352081e-01
3.935242e-02 6.296539e-01
3.179932e-02 6.265259e-01
2.497864e-02 6.247559e-01
1.960754e-02 5.965271e-01
1.586914e-02 5.806427e-01
1.246643e-02 5.717163e-01
9.796143e-03 5.666962e-01
7.919312e-03 5.638733e-01
6.225586e-03 5.622711e-01
4.898071e-03 5.477600e-01
3.967285e-03 5.395966e-01
3.112793e-03 5.350037e-01
2.441406e-03 5.324249e-01
1.983643e-03 5.309753e-01
1.556396e-03 5.233459e-01
1.220703e-03 5.190582e-01
9.918213e-04 5.166473e-01
7.781982e-04 5.152893e-01
6.103516e-04 5.111237e-01
4.882812e-04 5.087738e-01
3.814697e-04 5.074615e-01
2.899170e-04 5.050049e-01
2.288818e-04 5.036316e-01
1.831055e-04 5.020142e-01
1.525879e-04 5.008545e-01
1.220703e-04 4.997559e-01
9.155273e-05 4.445190e-01
6.103516e-05 4.134369e-01
6.103516e-05 3.959656e-01
6.103516e-05 3.861389e-01
6.103516e-05 3.806152e-01
6.103516e-05 3.775024e-01
6.103516e-05 3.757477e-01
6.103516e-05 3.747559e-01
6.103516e-05 3.469696e-01
6.103516e-05 3.313446e-01
6.103516e-05 3.225555e-01
6.103516e-05 3.176117e-01
6.103516e-05 3.148346e-01
6.103516e-05 3.132629e-01
6.103516e-05 3.123779e-01
6.103516e-05 2.982635e-01
6.103516e-05 2.903290e-01
6.103516e-05 2.858582e-01
6.103516e-05 2.833405e-01
6.103516e-05 2.819214e-01
6.103516e-05 2.811279e-01
6.103516e-05 2.738647e-01
6.103516e-05 2.697906e-01
6.103516e-05 2.675018e-01
6.103516e-05 2.662201e-01
6.103516e-05 2.654877e-01
6.103516e-05 2.616730e-01
6.103516e-05 2.595367e-01
6.103516e-05 2.583313e-01
6.103516e-05 2.576447e-01
6.103516e-05 2.555542e-01
6.103516e-05 2.543793e-01
6.103516e-05 2.537231e-01
6.103516e-05 2.525024e-01
6.103516e-05 2.518158e-01
6.103516e-05 2.510071e-01
6.103516e-05 2.504272e-01
6.103516e-05 2.498627e-01
6.103516e-05 2.222443e-01
6.103516e-05 2.067108e-01
6.103516e-05 1.979828e-01
6.103516e-05 1.930695e-01
6.103516e-05 1.902924e-01
6.103516e-05 1.887360e-01
6.103516e-05 1.878662e-01
6.103516e-05 1.873779e-01
6.103516e-05 1.734924e-01
6.103516e-05 1.656647e-01
6.103516e-05 1.612701e-01
6.103516e-05 1.587982e-01
6.103516e-05 1.574097e-01
6.103516e-05 1.566315e-01
6.103516e-05 1.561890e-01
6.103516e-05 1.491394e-01
6.103516e-05 1.451569e-01
6.103516e-05 1.429138e-01
6.103516e-05 1.416626e-01
6.103516e-05 1.409607e-01
6.103516e-05 1.405640e-01
6.103516e-05 1.369324e-01
6.103516e-05 1.349030e-01
6.103516e-05 1.337585e-01
6.103516e-05 1.331177e-01
6.103516e-05 1.327515e-01
6.103516e-05 1.308289e-01
6.103516e-05 1.297607e-01
6.103516e-05 1.291504e-01
6.103516e-05 1.288147e-01
6.103516e-05 1.277771e-01
6.103516e-05 1.271973e-01
6.103516e-05 1.268768e-01
6.103516e-05 1.262665e-01
6.103516e-05 1.259155e-01
6.103516e-05 1.255035e-01
6.103516e-05 1.252136e-01
6.103516e-05 1.249390e-01
6.103516e-05 1.111298e-01
6.103516e-05 1.033630e-01
6.103516e-05 9.898376e-02
6.103516e-05 9.652710e-02
6.103516e-05 9.513855e-02
6.103516e-05 9.436035e-02
6.103516e-05 9.393311e-02
6.103516e-05 9.368896e-02
6.103516e-05 8.674622e-02
6.103516e-05 8.283997e-02
6.103516e-05 8.064270e-02
6.103516e-05 7.940674e-02
6.103516e-05 7.870483e-02
6.103516e-05 7.830811e-02
6.103516e-05 7.809448e-02
6.103516e-05 7.456970e-02
6.103516e-05 7.258606e-02
6.103516e-05 7.147217e-02
6.103516e-05 7.083130e-02
6.103516e-05 7.048035e-02
6.103516e-05 7.028198e-02
6.103516e-05 6.846619e-02
6.103516e-05 6.744385e-02
6.103516e-05 6.687927e-02
6.103516e-05 6.655884e-02
6.103516e-05 6.637573e-02
6.103516e-05 6.541443e-02
6.103516e-05 6.488037e-02
6.103516e-05 6.457520e-02
6.103516e-05 6.440735e-02
6.103516e-05 6.388855e-02
6.103516e-05 6.359863e-02
6.103516e-05 6.343079e-02
6.103516e-05 6.312561e-02
6.103516e-05 6.295776e-02
6.103516e-05 6.274414e-02
6.103516e-05 6.260681e-02
6.103516e-05 6.246948e-02
6.103516e-05 5.555725e-02
6.103516e-05 5.168152e-02
6.103516e-05 4.949951e-02
6.103516e-05 4.826355e-02
6.103516e-05 4.757690e-02
6.103516e-05 4.718018e-02
6.103516e-05 4.696655e-02
6.103516e-05 4.684448e-02
6.103516e-05 4.336548e-02
6.103516e-05 4.141235e-02
6.103516e-05 4.031372e-02
6.103516e-05 3.970337e-02
6.103516e-05 3.935242e-02
6.103516e-05 3.915405e-02
6.103516e-05 3.904724e-02
6.103516e-05 3.727722e-02
6.103516e-05 3.628540e-02
6.103516e-05 3.572083e-02
6.103516e-05 3.540039e-02
6.103516e-05 3.523254e-02
6.103516e-05 3.512573e-02
6.103516e-05 3.422546e-02
6.103516e-05 3.372192e-02
6.103516e-05 3.343201e-02
6.103516e-05 3.327942e-02
6.103516e-05 3.318787e-02
6.103516e-05 3.271484e-02
6.103516e-05 3.244019e-02
6.103516e-05 3.228760e-02
6.103516e-05 3.221130e-02
6.103516e-05 3.195190e-02
6.103516e-05 3.179932e-02
6.103516e-05 3.172302e-02
6.103516e-05 3.157043e-02
6.103516e-05 3.147888e-02
6.103516e-05 3.137207e-02
6.103516e-05 3.129578e-02
6.103516e-05 3.123474e-02
6.103516e-05 2.778625e-02
6.103516e-05 2.583313e-02
6.103516e-05 2.473450e-02
6.103516e-05 2.412415e-02
6.103516e-05 2.377319e-02
6.103516e-05 2.359009e-02
6.103516e-05 2.348328e-02
6.103516e-05 2.342224e-02
6.103516e-05 2.168274e-02
6.103516e-05 2.070618e-02
6.103516e-05 2.015686e-02
6.103516e-05 1.983643e-02
6.103516e-05 1.966858e-02
6.103516e-05 1.956177e-02
6.103516e-05 1.951599e-02
6.103516e-05 1.863098e-02
6.103516e-05 1.814270e-02
6.103516e-05 1.786804e-02
6.103516e-05 1.771545e-02
6.103516e-05 1.762390e-02
6.103516e-05 1.757812e-02
6.103516e-05 1.730347e-02
6.103516e-05 1.696777e-02
6.103516e-05 1.678467e-02
6.103516e-05 1.667786e-02
6.103516e-05 1.661682e-02
6.103516e-05 1.658630e-02
6.103516e-05 1.634216e-02
6.103516e-05 1.620483e-02
6.103516e-05 1.612854e-02
6.103516e-05 1.609802e-02
6.103516e-05 1.596069e-02
6.103516e-05 1.588440e-02
6.103516e-05 1.585388e-02
6.103516e-05 1.577759e-02
6.103516e-05 1.573181e-02
6.103516e-05 1.568604e-02
6.103516e-05 1.565552e-02
6.103516e-05 1.562500e-02
6.103516e-05 1.461792e-02
6.103516e-05 1.333618e-02
6.103516e-05 1.260376e-02
6.103516e-05 1.219177e-02
6.103516e-05 1.196289e-02
6.103516e-05 1.182556e-02
6.103516e-05 1.174927e-02
6.103516e-05 1.171875e-02
6.103516e-05 1.121521e-02
6.103516e-05 1.057434e-02
6.103516e-05 1.020813e-02
6.103516e-05 9.994507e-03
6.103516e-05 9.887695e-03
6.103516e-05 9.811401e-03
6.103516e-05 9.780884e-03
6.103516e-05 9.750366e-03
6.103516e-05 9.323120e-03
6.103516e-05 9.078979e-03
6.103516e-05 8.941650e-03
6.103516e-05 8.865356e-03
6.103516e-05 8.819580e-03
6.103516e-05 8.789062e-03
6.103516e-05 8.651733e-03
6.103516e-05 8.483887e-03
6.103516e-05 8.377075e-03
6.103516e-05 8.331299e-03
6.103516e-05 8.300781e-03
6.103516e-05 8.224487e-03
6.103516e-05 8.132935e-03
6.103516e-05 8.087158e-03
6.103516e-05 8.056641e-03
6.103516e-05 8.010864e-03
6.103516e-05 7.965088e-03
6.103516e-05 7.934570e-03
6.103516e-05 7.904053e-03
6.103516e-05 7.873535e-03
6.103516e-05 7.843018e-03
6.103516e-05 7.812500e-03
6.103516e-05 7.308960e-03
6.103516e-05 6.668091e-03
6.103516e-05 6.301880e-03
6.103516e-05 6.088257e-03
6.103516e-05 5.981445e-03
6.103516e-05 5.920410e-03
6.103516e-05 5.889893e-03
6.103516e-05 5.859375e-03
6.103516e-05 5.859375e-03
6.103516e-05 5.859375e-03
6.103516e-05 5.859375e-03
6.103516e-05 5.859375e-03
6.103516e-05 5.859375e-03
6.103516e-05 5.859375e-03
6.103516e-05 5.859375e-03
6.103516e-05 5.859375e-03
6.103516e-05 5.859375e-03
6.103516e-05 5.859375e-03
6.103516e-05 5.859375e-03
6.103516e-05 5.859375e-03
6.103516e-05 5.859375e-03
6.103516e-05 5.859375e-03
6.103516e-05 5.859375e-03
6.103516e-05 5.859375e-03
6.103516e-05 5.859375e-03
6.103516e-05 5.859375e-03
6.103516e-05 5.859375e-03
6.103516e-05 5.859375e-03
6.103516e-05 5.859375e-03
6.103516e-05 5.859375e-03
6.103516e-05 5.859375e-03
6.103516e-05 5.859375e-03
6.103516e-05 5.859375e-03
6.103516e-05 5.859375e-03
6.103516e-05 5.859375e-03
6.103516e-05 5.859375e-03
6.103516e-05 5.859375e-03
6.103516e-05 5.859375e-03
6.103516e-05 5.859375e-03
6.103516e-05 5.859375e-03
6.103516e-05 5.859375e-03
6.103516e-05 5.859375e-03
6.103516e-05 5.859375e-03
6.103516e-05 5.859375e-03
6.103516e-05 5.859375e-03
6.103516e-05 5.859375e-03
6.103516e-05 5.859375e-03
6.103516e-05 5.859375e-03
6.103516e-05 5.859375e-03
6.103516e-05 5.859375e-03
6.103516e-05 5.859375e-03
6.103516e-05 5.859375e-03
6.103516e-05 5.859375e-03
6.103516e-05 5.859375e-03
6.103516e-05 5.859375e-03
6.103516e-05 5.859375e-03
6.103516e-05 5.859375e-03
6.103516e-05 5.859375e-03
6.103516e-05 5.859375e-03
6.103516e-05 5.859375e-03
6.103516e-05 5.859375e-03
6.103516e-05 5.859375e-03
6.103516e-05 5.859375e-03
6.103516e-05 5.859375e-03
6.103516e-05 5.859375e-03
6.103516e-05 5.859375e-03
6.103516e-05 5.859375e-03
6.103516e-05 5.859375e-03
6.103516e-05 5.859375e-03
6.103516e-05 5.859375e-03
6.103516e-05 5.859375e-03
6.103516e-05 5.859375e-03
6.103516e-05 5.859375e-03
6.103516e-05 5.859375e-03
6.103516e-05 5.859375e-03
6.103516e-05 5.859375e-03
6.103516e-05 5.859375e-03
6.103516e-05 5.859375e-03
6.103516e-05 5.859375e-03
6.103516e-05 5.859375e-03
6.103516e-05 5.859375e-03
6.103516e-05 5.859375e-03
6.103516e-05 5.859375e-03
6.103516e-05 5.859375e-03
6.103516e-05 5.859375e-03
6.103516e-05 5.859375e-03
6.103516e-05 5.859375e-03
6.103516e-05 5.859375e-03
6.103516e-05 5.859375e-03
6.103516e-05 5.859375e-03
6.103516e-05 5.859375e-03
6.103516e-05 5.859375e-03
6.103516e-05 5.859375e-03
6.103516e-05 5.859375e-03
6.103516e-05 5.859375e-03
6.103516e-05 5.859375e-03
6.103516e-05 5.859375e-03
6.103516e-05 5.859375e-03
6.103516e-05 5.859375e-03
6.103516e-05 5.859375e-03
6.103516e-05 5.859375e-03
6.103516e-05 5.859375e-03
6.103516e-05 5.859375e-03
6.103516e-05 5.859375e-03
6.103516e-05 5.859375e-03
6.103516e-05 5.859375e-03
6.103516e-05 5.859375e-03
6.103516e-05 5.859375e-03
6.103516e-05 5.859375e-03
6.103516e-05 5.859375e-03
6.103516e-05 5.859375e-03
6.103516e-05 5.859375e-03
6.103516e-05 5.859375e-03
6.103516e-05 5.859375e-03
6.103516e-05 5.859375e-03
6.103516e-05 5.859375e-03
6.103516e-05 5.859375e-03
6.103516e-05 5.859375e-03
6.103516e-05 5.859375e-03
6.103516e-05 5.859375e-03
6.103516e-05 5.859375e-03
6.103516e-05 5.859375e-03
6.103516e-05 5.859375e-03
6.103516e-05 5.859375e-03
6.103516e-05 5.859375e-03
6.103516e-05 5.859375e-03
6.103516e-05 5.859375e-03
6.103516e-05 5.859375e-03
6.103516e-05 5.859375e-03
6.103516e-05 5.859375e-03
6.103516e-05 5.859375e-03
6.103516e-05 5.859375e-03
6.103516e-05 5.859375e-03
6.103516e-05 5.859375e-03
6.103516e-05 5.859375e-03
6.103516e-05 5.859375e-03
6.103516e-05 5.859375e-03
6.103516e-05 5.859375e-03
6.103516e-05 5.859375e-03
6.103516e-05 5.859375e-03
6.103516e-05 5.859375e-03
6.103516e-05 5.859375e-03
6.103516e-05 5.859375e-03
6.103516e-05 5.859375e-03
6.103516e-05 5.859375e-03
6.103516e-05 5.859375e-03
6.103516e-05 5.859375e-03
6.103516e-05 5.859375e-03
6.103516e-05 5.859375e-03
6.103516e-05 5.859375e-03
6.103516e-05 5.859375e-03
6.103516e-05 5.859375e-03
6.103516e-05 5.859375e-03
6.103516e-05 5.859375e-03
6.103516e-05 5.859375e-03
6.103516e-05 5.859375e-03
6.103516e-05 5.859375e-03
6.103516e-05 5.859375e-03
6.103516e-05 5.859375e-03
6.103516e-05 5.859375e-03
6.103516e-05 5.859375e-03
6.103516e-05 5.859375e-03
6.103516e-05 5.859375e-03
6.103516e-05 5.859375e-03
6.103516e-05 5.859375e-03
6.103516e-05 5.859375e-03
6.103516e-05 5.859375e-03
6.103516e-05 5.859375e-03
6.103516e-05 5.859375e-03
6.103516e-05 5.859375e-03
6.103516e-05 5.859375e-03
6.103516e-05 5.859375e-03
6.103516e-05 5.859375e-03
6.103516e-05 5.859375e-03
6.103516e-05 5.859375e-03
6.103516e-05 5.859375e-03
6.103516e-05 5.859375e-03
6.103516e-05 5.859375e-03
6.103516e-05 5.859375e-03
6.103516e-05 5.859375e-03
6.103516e-05 5.859375e-03
6.103516e-05 5.859375e-03
6.103516e-05 5.859375e-03
6.103516e-05 5.859375e-03
6.103516e-05 5.859375e-03
6.103516e-05 5.859375e-03
6.103516e-05 5.859375e-03
6.103516e-05 5.859375e-03
6.103516e-05 5.859375e-03
6.103516e-05 5.859375e-03
6.103516e-05 5.859375e-03
6.103516e-05 5.859375e-03
6.103516e-05 5.859375e-03
6.103516e-05 5.859375e-03
6.103516e-05 5.859375e-03
6.103516e-05 5.859375e-03
6.103516e-05 5.859375e-03
6.103516e-05 5.859375e-03
6.103516e-05 5.859375e-03
6.103516e-05 5.859375e-03
6.103516e-05 5.859375e-03
6.103516e-05 5.859375e-03
6.103516e-05 5.859375e-03
6.103516e-05 5.859375e-03
6.103516e-05 5.859375e-03
6.103516e-05 5.859375e-03
6.103516e-05 5.859375e-03
6.103516e-05 5.859375e-03
6.103516e-05 5.859375e-03
6.103516e-05 5.859375e-03
6.103516e-05 5.859375e-03
6.103516e-05 5.859375e-03
6.103516e-05 5.859375e-03
6.103516e-05 5.859375e-03
6.103516e-05 5.859375e-03
6.103516e-05 5.859375e-03
6.103516e-05 5.859375e-03
6.103516e-05 5.859375e-03
6.103516e-05 5.859375e-03
6.103516e-05 5.859375e-03
6.103516e-05 5.859375e-03
6.103516e-05 5.859375e-03
6.103516e-05 5.859375e-03
6.103516e-05 5.859375e-03
6.103516e-05 5.859375e-03
6.103516e-05 5.859375e-03
6.103516e-05 5.859375e-03
6.103516e-05 5.859375e-03
6.103516e-05 5.859375e-03
6.103516e-05 5.859375e-03
6.103516e-05 5.859375e-03
6.103516e-05 5.859375e-03
6.103516e-05 5.859375e-03
6.103516e-05 5.859375e-03
6.103516e-05 5.859375e-03
6.103516e-05 5.859375e-03
6.103516e-05 5.859375e-03
6.103516e-05 5.859375e-03
6.103516e-05 5.859375e-03
6.103516e-05 5.859375e-03
6.103516e-05 5.859375e-03
6.103516e-05 5.859375e-03
6.103516e-05 5.859375e-03
6.103516e-05 5.859375e-03
6.103516e-05 5.859375e-03
6.103516e-05 5.859375e-03
6.103516e-05 5.859375e-03
6.103516e-05 5.859375e-03
6.103516e-05 5.859375e-03
6.103516e-05 5.859375e-03
6.103516e-05 5.859375e-03
6.103516e-05 5.859375e-03
6.103516e-05 5.859375e-03
6.103516e-05 5.859375e-03
6.103516e-05 5.859375e-03
6.103516e-05 5.859375e-03
6.103516e-05 5.859375e-03
6.103516e-05 5.859375e-03
6.103516e-05 5.859375e-03
6.103516e-05 5.859375e-03
6.103516e-05 5.859375e-03
6.103516e-05 5.859375e-03
6.103516e-05 5.859375e-03
6.103516e-05 5.859375e-03
6.103516e-05 5.859375e-03
6.103516e-05 5.859375e-03
6.103516e-05 5.859375e-03
6.103516e-05 5.859375e-03
6.103516e-05 5.859375e-03
6.103516e-05 5.859375e-03
6.103516e-05 5.859375e-03
6.103516e-05 5.859375e-03
6.103516e-05 5.859375e-03
6.103516e-05 5.859375e-03
6.103516e-05 5.859375e-03
6.103516e-05 5.859375e-03
6.103516e-05 5.859375e-03
6.103516e-05 5.859375e-03
6.103516e-05 5.859375e-03
6.103516e-05 5.859375e-03
6.103516e-05 5.859375e-03
6.103516e-05 5.859375e-03
6.103516e-05 5.859375e-03
6.103516e-05 5.859375e-03
6.103516e-05 5.859375e-03
6.103516e-05 5.859375e-03
6.103516e-05 5.859375e-03
6.103516e-05 5.859375e-03
6.103516e-05 5.859375e-03
6.103516e-05 5.859375e-03
6.103516e-05 5.859375e-03
6.103516e-05 5.859375e-03
6.103516e-05 5.859375e-03
6.103516e-05 5.859375e-03
6.103516e-05 5.859375e-03
6.103516e-05 5.859375e-03
6.103516e-05 5.859375e-03
6.103516e-05 5.859375e-03
6.103516e-05 5.859375e-03
6.103516e-05 5.859375e-03
6.103516e-05 5.859375e-03
6.103516e-05 5.859375e-03
6.103516e-05 5.859375e-03
6.103516e-05 5.859375e-03
6.103516e-05 5.859375e-03
6.103516e-05 5.859375e-03
6.103516e-05 5.859375e-03
6.103516e-05 5.859375e-03
6.103516e-05 5.859375e-03
6.103516e-05 5.859375e-03
6.103516e-05 5.859375e-03
6.103516e-05 5.859375e-03
6.103516e-05 5.859375e-03
6.103516e-05 5.859375e-03
6.103516e-05 5.859375e-03
6.103516e-05 5.859375e-03
6.103516e-05 5.859375e-03
6.103516e-05 5.859375e-03
6.103516e-05 5.859375e-03
6.103516e-05 5.859375e-03
6.103516e-05 5.859375e-03
6.103516e-05 5.859375e-03
6.103516e-05 5.859375e-03
6.103516e-05 5.859375e-03
6.103516e-05 5.859375e-03
6.103516e-05 5.859375e-03
6.103516e-05 5.859375e-03
6.103516e-05 5.859375e-03
6.103516e-05 5.859375e-03
6.103516e-05 5.859375e-03
6.103516e-05 5.859375e-03
6.103516e-05 5.859375e-03
6.103516e-05 5.859375e-03
6.103516e-05 5.859375e-03
6.103516e-05 5.859375e-03
6.103516e-05 5.859375e-03
6.103516e-05 5.859375e-03
6.103516e-05 5.859375e-03
6.103516e-05 5.859375e-03
6.103516e-05 5.859375e-03
6.103516e-05 5.859375e-03
6.103516e-05 5.859375e-03
6.103516e-05 5.859375e-03
6.103516e-05 5.859375e-03
6.103516e-05 5.859375e-03
6.103516e-05 5.859375e-03
6.103516e-05 5.859375e-03
6.103516e-05 5.859375e-03
6.103516e-05 5.859375e-03
6.103516e-05 5.859375e-03
6.103516e-05 5.859375e-03
6.103516e-05 5.859375e-03
6.103516e-05 5.859375e-03
6.103516e-05 5.859375e-03
6.103516e-05 5.859375e-03
6.103516e-05 5.859375e-03
6.103516e-05 5.859375e-03
6.103516e-05 5.859375e-03
6.103516e-05 5.859375e-03
6.103516e-05 5.859375e-03
6.103516e-05 5.859375e-03
6.103516e-05 5.859375e-03
6.103516e-05 5.859375e-03
6.103516e-05 5.859375e-03
6.103516e-05 5.859375e-03
6.103516e-05 5.859375e-03
6.103516e-05 5.859375e-03
6.103516e-05 5.859375e-03
6.103516e-05 5.859375e-03
6.103516e-05 5.859375e-03
6.103516e-05 5.859375e-03
6.103516e-05 5.859375e-03
6.103516e-05 5.859375e-03
6.103516e-05 5.859375e-03
6.103516e-05 5.859375e-03
6.103516e-05 5.859375e-03
6.103516e-05 5.859375e-03
6.103516e-05 5.859375e-03
6.103516e-05 5.859375e-03
6.103516e-05 5.859375e-03
6.103516e-05 5.859375e-03
6.103516e-05 5.859375e-03
6.103516e-05 5.859375e-03
6.103516e-05 5.859375e-03
6.103516e-05 5.859375e-03
6.103516e-05 5.859375e-03
6.103516e-05 5.859375e-03
6.103516e-05 5.859375e-03
6.103516e-05 5.859375e-03
6.103516e-05 5.859375e-03
6.103516e-05 5.859375e-03
6.103516e-05 5.859375e-03
6.103516e-05 5.859375e-03
6.103516e-05 5.859375e-03
6.103516e-05 5.859375e-03
6.103516e-05 5.859375e-03
6.103516e-05 5.859375e-03
6.103516e-05 5.859375e-03
6.103516e-05 5.859375e-03
6.103516e-05 5.859375e-03
6.103516e-05 5.859375e-03
6.103516e-05 5.859375e-03
6.103516e-05 5.859375e-03
6.103516e-05 5.859375e-03
6.103516e-05 5.859375e-03
6.103516e-05 5.859375e-03
6.103516e-05 5.859375e-03
6.103516e-05 5.859375e-03
6.103516e-05 5.859375e-03
6.103516e-05 5.859375e-03
6.103516e-05 5.859375e-03
6.103516e-05 5.859375e-03
6.103516e-05 5.859375e-03
6.103516e-05 5.859375e-03
6.103516e-05 5.859375e-03
6.103516e-05 5.859375e-03
6.103516e-05 5.859375e-03
