-2.522810e-01 1.038896e+00 -2.375839e+00 2.428802e+00 -6.336617e-03 3.714728e-02 -3.474426e-01 7.225037e-02
-2.530512e-01 1.044437e+00 -2.375839e+00 2.428802e+00 -6.450744e-03 3.694677e-02 -3.474426e-01 7.225037e-02
-2.526223e-01 1.038009e+00 -2.220001e+00 2.428802e+00 -6.301700e-03 3.736843e-02 -3.623352e-01 1.298065e-01
-2.479675e-01 1.048192e+00 -2.375839e+00 2.428802e+00 -6.298276e-03 3.843162e-02 -3.623352e-01 1.298065e-01
-2.580251e-01 1.042791e+00 -2.375839e+00 2.322952e+00 -6.371746e-03 3.855929e-02 -3.869171e-01 1.423645e-01
-2.452547e-01 1.040493e+00 -2.375839e+00 2.322952e+00 -6.287947e-03 3.705722e-02 -3.623352e-01 1.298065e-01
-2.496150e-01 1.044580e+00 -2.172256e+00 2.322952e+00 -6.465813e-03 3.722805e-02 -3.623352e-01 1.298065e-01
-2.542957e-01 1.037698e+00 -2.375839e+00 2.123291e+00 -6.361719e-03 3.678420e-02 -3.623352e-01 1.298065e-01
-2.504362e-01 1.039488e+00 -2.375839e+00 2.428802e+00 -6.370619e-03 3.850306e-02 -3.869171e-01 1.423645e-01
-2.513273e-01 1.035511e+00 -2.375839e+00 1.951065e+00 -6.171822e-03 3.752055e-02 -3.623352e-01 1.298065e-01
-2.493276e-01 1.046122e+00 -2.375839e+00 2.123291e+00 -6.139986e-03 3.864085e-02 -3.869171e-01 1.423645e-01
-2.473289e-01 1.045570e+00 -2.375839e+00 2.322952e+00 -6.348342e-03 3.705631e-02 -3.623352e-01 1.298065e-01
-2.424197e-01 1.040268e+00 -2.194626e+00 2.428802e+00 -6.358521e-03 3.732071e-02 -3.623352e-01 1.298065e-01
-2.485709e-01 1.043260e+00 -2.375839e+00 2.428802e+00 -6.296684e-03 3.869347e-02 -3.869171e-01 1.423645e-01
-2.549149e-01 1.042371e+00 -2.200424e+00 2.428802e+00 -6.186925e-03 3.845638e-02 -3.623352e-01 1.298065e-01
-2.482171e-01 1.041135e+00 -2.375839e+00 2.322952e+00 -6.218764e-03 3.755303e-02 -3.623352e-01 1.298065e-01
-2.587512e-01 1.038632e+00 -2.375839e+00 2.322952e+00 -6.306327e-03 3.834251e-02 -3.869171e-01 1.423645e-01
-2.543729e-01 1.041970e+00 -2.375839e+00 2.123291e+00 -6.299678e-03 3.803276e-02 -3.623352e-01 1.298065e-01
-2.508610e-01 1.045719e+00 -2.220001e+00 2.428802e+00 -6.298596e-03 3.705975e-02 -3.623352e-01 1.298065e-01
-2.420219e-01 1.046188e+00 -2.375839e+00 2.428802e+00 -6.221781e-03 3.766498e-02 -3.869171e-01 1.423645e-01
-2.532806e-01 1.033846e+00 -2.375839e+00 2.322952e+00 -6.193425e-03 3.756104e-02 -3.623352e-01 1.298065e-01
-2.512133e-01 1.051665e+00 -2.375839e+00 2.428802e+00 -6.251650e-03 3.837014e-02 -3.869171e-01 1.423645e-01
-2.509965e-01 1.044731e+00 -2.375839e+00 2.047592e+00 -6.426187e-03 3.848142e-02 -3.869171e-01 1.423645e-01
-2.413023e-01 1.051531e+00 -2.375839e+00 2.322952e+00 -6.214697e-03 3.806206e-02 -3.623352e-01 1.298065e-01
-2.468152e-01 1.051463e+00 -2.200424e+00 2.189651e+00 -6.288586e-03 3.809438e-02 -3.869171e-01 1.423645e-01
-2.517837e-01 1.035239e+00 -2.200424e+00 2.428802e+00 -6.280776e-03 3.743516e-02 -3.623352e-01 1.298065e-01
-2.487104e-01 1.029293e+00 -2.200424e+00 2.428802e+00 -6.346001e-03 3.773770e-02 -3.869171e-01 1.423645e-01
-2.457577e-01 1.048454e+00 -2.375839e+00 2.322952e+00 -6.307667e-03 3.720625e-02 -3.623352e-01 1.298065e-01
-2.457356e-01 1.047892e+00 -2.375839e+00 2.322952e+00 -6.330029e-03 3.727184e-02 -3.623352e-01 1.298065e-01
-2.502216e-01 1.037187e+00 -2.220001e+00 2.047592e+00 -6.370389e-03 3.754351e-02 -3.869171e-01 1.423645e-01
-2.507696e-01 1.051148e+00 -2.375839e+00 2.428802e+00 -6.157650e-03 3.882217e-02 -3.869171e-01 1.423645e-01
-2.423875e-01 1.045532e+00 -2.162613e+00 2.428802e+00 -6.228454e-03 3.850210e-02 -3.869171e-01 1.423645e-01
-2.499163e-01 1.042238e+00 -2.375839e+00 2.322952e+00 -6.448019e-03 3.848273e-02 -3.869171e-01 1.423645e-01
-2.443025e-01 1.047077e+00 -2.375839e+00 2.189651e+00 -6.265900e-03 3.780496e-02 -3.869171e-01 1.423645e-01
-2.475055e-01 1.040203e+00 -2.375839e+00 2.322952e+00 -6.313736e-03 3.776801e-02 -3.869171e-01 1.423645e-01
-2.560453e-01 1.042002e+00 -2.220001e+00 2.428802e+00 -6.314647e-03 3.793818e-02 -3.869171e-01 1.423645e-01
-2.500446e-01 1.038682e+00 -2.200424e+00 2.047592e+00 -6.218122e-03 3.802429e-02 -3.869171e-01 1.423645e-01
-2.528896e-01 1.042836e+00 -2.220001e+00 2.123291e+00 -6.428760e-03 3.715925e-02 -3.623352e-01 1.298065e-01
-2.396551e-01 1.046183e+00 -2.200424e+00 2.428802e+00 -6.244991e-03 3.829265e-02 -3.869171e-01 1.423645e-01
-2.467293e-01 1.047794e+00 -2.194626e+00 2.428802e+00 -6.312647e-03 3.793352e-02 -3.623352e-01 1.298065e-01
-2.443244e-01 1.051617e+00 -2.375839e+00 2.428802e+00 -6.265787e-03 3.794562e-02 -3.869171e-01 1.423645e-01
-2.503570e-01 1.049295e+00 -2.375839e+00 2.322952e+00 -6.314171e-03 3.761773e-02 -3.623352e-01 1.298065e-01
-2.442153e-01 1.038515e+00 -2.200424e+00 2.428802e+00 -6.247687e-03 3.882496e-02 -3.869171e-01 1.423645e-01
-2.522183e-01 1.039084e+00 -2.375839e+00 2.428802e+00 -6.210197e-03 3.776078e-02 -3.869171e-01 1.423645e-01
-2.495316e-01 1.035870e+00 -2.200424e+00 2.428802e+00 -6.360146e-03 3.731769e-02 -3.623352e-01 1.298065e-01
-2.510614e-01 1.039646e+00 -2.220001e+00 2.322952e+00 -6.301990e-03 3.746338e-02 -3.869171e-01 1.423645e-01
-2.545865e-01 1.046805e+00 -2.375839e+00 2.428802e+00 -6.331761e-03 3.839976e-02 -3.869171e-01 1.423645e-01
-2.434001e-01 1.043757e+00 -2.220001e+00 2.428802e+00 -6.295712e-03 3.767319e-02 -3.623352e-01 1.298065e-01
-2.503788e-01 1.039945e+00 -2.375839e+00 2.428802e+00 -6.440722e-03 3.745358e-02 -3.869171e-01 1.423645e-01
-2.451334e-01 1.042032e+00 -2.375839e+00 2.123291e+00 -6.339458e-03 3.798188e-02 -3.869171e-01 1.423645e-01
-2.490632e-01 1.050395e+00 -2.194626e+00 2.322952e+00 -6.168583e-03 3.840987e-02 -3.869171e-01 1.423645e-01
-2.469902e-01 1.037306e+00 -2.375839e+00 2.428802e+00 -6.368000e-03 3.794789e-02 -3.869171e-01 1.423645e-01
-2.499636e-01 1.039530e+00 -2.194626e+00 2.428802e+00 -6.374668e-03 3.785198e-02 -3.623352e-01 1.298065e-01
-2.412784e-01 1.052574e+00 -2.375839e+00 2.322952e+00 -6.238531e-03 3.796753e-02 -3.869171e-01 1.423645e-01
-2.452208e-01 1.050383e+00 -2.375839e+00 2.428802e+00 -6.272099e-03 3.758570e-02 -3.623352e-01 1.298065e-01
-2.486421e-01 1.032147e+00 -2.375839e+00 2.322952e+00 -6.336003e-03 3.714867e-02 -3.623352e-01 1.298065e-01
-2.486583e-01 1.036229e+00 -2.220001e+00 2.428802e+00 -6.417790e-03 3.685464e-02 -3.474426e-01 7.225037e-02
-2.473523e-01 1.044962e+00 -2.375839e+00 2.322952e+00 -6.332643e-03 3.768429e-02 -3.623352e-01 1.298065e-01
-2.492852e-01 1.040631e+00 -2.200424e+00 2.428802e+00 -6.410707e-03 3.759469e-02 -3.869171e-01 1.423645e-01
-2.493856e-01 1.045700e+00 -2.375839e+00 2.123291e+00 -6.171871e-03 3.759666e-02 -3.623352e-01 1.298065e-01
-2.486984e-01 1.039368e+00 -2.194626e+00 2.322952e+00 -6.311438e-03 3.836225e-02 -3.869171e-01 1.423645e-01
-2.466850e-01 1.037233e+00 -2.220001e+00 2.428802e+00 -6.363695e-03 3.682207e-02 -3.623352e-01 1.298065e-01
-2.529756e-01 1.041224e+00 -2.375839e+00 2.322952e+00 -6.239907e-03 3.752753e-02 -3.307800e-01 7.225037e-02
-2.482849e-01 1.040551e+00 -2.194626e+00 2.189651e+00 -6.281377e-03 3.727732e-02 -3.623352e-01 1.298065e-01
-2.537306e-01 1.032833e+00 -2.375839e+00 2.322952e+00 -6.237743e-03 3.773865e-02 -3.623352e-01 1.298065e-01
-2.470406e-01 1.047852e+00 -2.172256e+00 2.428802e+00 -6.093729e-03 3.869834e-02 -3.869171e-01 1.423645e-01
-2.487777e-01 1.044201e+00 -2.375839e+00 2.428802e+00 -6.260048e-03 3.789228e-02 -3.869171e-01 1.423645e-01
-2.484516e-01 1.043030e+00 -2.375839e+00 2.428802e+00 -6.407903e-03 3.732498e-02 -3.623352e-01 1.298065e-01
-2.525444e-01 1.047051e+00 -2.375839e+00 2.189651e+00 -6.238480e-03 3.813335e-02 -3.869171e-01 1.423645e-01
-2.412445e-01 1.037822e+00 -2.194626e+00 2.322952e+00 -6.354098e-03 3.694576e-02 -3.869171e-01 1.423645e-01
-2.455170e-01 1.047187e+00 -2.375839e+00 2.428802e+00 -6.256801e-03 3.825821e-02 -3.869171e-01 1.423645e-01
-2.447355e-01 1.037012e+00 -2.194626e+00 2.123291e+00 -6.390010e-03 3.780898e-02 -3.869171e-01 1.423645e-01
-2.477709e-01 1.035697e+00 -2.375839e+00 2.189651e+00 -6.367465e-03 3.689072e-02 -3.623352e-01 1.298065e-01
-2.560623e-01 1.041407e+00 -2.375839e+00 1.951065e+00 -6.310312e-03 3.762478e-02 -3.623352e-01 1.298065e-01
-2.509973e-01 1.040230e+00 -2.200424e+00 2.047592e+00 -6.577384e-03 3.786838e-02 -3.869171e-01 1.423645e-01
-2.523513e-01 1.037851e+00 -2.220001e+00 1.951065e+00 -6.069804e-03 3.806734e-02 -3.623352e-01 1.298065e-01
-2.422031e-01 1.057217e+00 -2.375839e+00 2.428802e+00 -6.201590e-03 3.951072e-02 -3.869171e-01 1.423645e-01
-2.539640e-01 1.035385e+00 -2.220001e+00 2.428802e+00 -6.461976e-03 3.701375e-02 -3.623352e-01 1.298065e-01
-2.498470e-01 1.045480e+00 -2.200424e+00 2.322952e+00 -6.454943e-03 3.747422e-02 -3.623352e-01 1.298065e-01
-2.525303e-01 1.036178e+00 -2.220001e+00 2.428802e+00 -6.306537e-03 3.775543e-02 -3.623352e-01 1.298065e-01
-2.479652e-01 1.046313e+00 -2.375839e+00 2.428802e+00 -6.427559e-03 3.735604e-02 -3.623352e-01 1.298065e-01
-2.491094e-01 1.047861e+00 -2.185455e+00 2.428802e+00 -6.333426e-03 3.738646e-02 -3.623352e-01 1.298065e-01
-2.481789e-01 1.044348e+00 -2.375839e+00 2.428802e+00 -6.321912e-03 3.692707e-02 -3.474426e-01 7.225037e-02
-2.454858e-01 1.045449e+00 -2.200424e+00 2.047592e+00 -6.364907e-03 3.774699e-02 -3.869171e-01 1.423645e-01
-2.431254e-01 1.032318e+00 -2.200424e+00 1.951065e+00 -6.506450e-03 3.689043e-02 -3.623352e-01 1.298065e-01
-2.500117e-01 1.046885e+00 -2.375839e+00 2.428802e+00 -6.294653e-03 3.815240e-02 -3.869171e-01 1.423645e-01
-2.497463e-01 1.040794e+00 -2.200424e+00 1.974030e+00 -6.395969e-03 3.742670e-02 -3.623352e-01 1.298065e-01
-2.493242e-01 1.053618e+00 -2.220001e+00 2.322952e+00 -6.235247e-03 3.858397e-02 -3.623352e-01 1.298065e-01
-2.556442e-01 1.036782e+00 -2.375839e+00 2.322952e+00 -6.356799e-03 3.740920e-02 -3.623352e-01 1.298065e-01
-2.525246e-01 1.046626e+00 -2.220001e+00 2.322952e+00 -6.194603e-03 3.738820e-02 -3.623352e-01 1.298065e-01
-2.500827e-01 1.039045e+00 -2.220001e+00 2.428802e+00 -6.258119e-03 3.755371e-02 -3.623352e-01 1.298065e-01
-2.514717e-01 1.034244e+00 -2.375839e+00 2.322952e+00 -6.316805e-03 3.705444e-02 -3.623352e-01 1.298065e-01
-2.457805e-01 1.039800e+00 -2.172256e+00 2.047592e+00 -6.303947e-03 3.795556e-02 -3.869171e-01 1.423645e-01
-2.406350e-01 1.042106e+00 -2.375839e+00 2.428802e+00 -6.320039e-03 3.729308e-02 -3.474426e-01 7.225037e-02
-2.513704e-01 1.050467e+00 -2.375839e+00 2.428802e+00 -6.203113e-03 3.847980e-02 -3.869171e-01 1.423645e-01
-2.509941e-01 1.044187e+00 -2.375839e+00 2.428802e+00 -6.203952e-03 3.815049e-02 -3.623352e-01 1.298065e-01
-2.497747e-01 1.048021e+00 -2.200424e+00 2.322952e+00 -6.348902e-03 3.714299e-02 -3.623352e-01 1.298065e-01
-2.485937e-01 1.048394e+00 -2.375839e+00 2.322952e+00 -6.221381e-03 3.814074e-02 -3.623352e-01 1.298065e-01
-2.464757e-01 1.038578e+00 -2.220001e+00 2.123291e+00 -6.295317e-03 3.755615e-02 -3.869171e-01 1.423645e-01
-2.471564e-01 1.052214e+00 -2.375839e+00 2.428802e+00 -6.258647e-03 3.791620e-02 -3.623352e-01 1.298065e-01
-2.554036e-01 1.051058e+00 -2.375839e+00 2.428802e+00 -6.268065e-03 3.835553e-02 -3.623352e-01 1.298065e-01
-2.430296e-01 1.051732e+00 -2.200424e+00 2.428802e+00 -6.336026e-03 3.738005e-02 -3.623352e-01 1.298065e-01
-2.495513e-01 1.049501e+00 -2.220001e+00 2.322952e+00 -6.253878e-03 3.838355e-02 -3.869171e-01 1.423645e-01
-2.527800e-01 1.050923e+00 -2.375839e+00 2.428802e+00 -6.294750e-03 3.849257e-02 -3.869171e-01 1.423645e-01
-2.447622e-01 1.040053e+00 -2.220001e+00 2.428802e+00 -6.235694e-03 3.719913e-02 -3.623352e-01 1.298065e-01
-2.525713e-01 1.044624e+00 -2.220001e+00 2.322952e+00 -6.254665e-03 3.748423e-02 -3.623352e-01 1.298065e-01
-2.500263e-01 1.041302e+00 -2.200424e+00 2.189651e+00 -6.399841e-03 3.726461e-02 -3.623352e-01 1.298065e-01
-2.432398e-01 1.045198e+00 -2.375839e+00 2.428802e+00 -6.315942e-03 3.724257e-02 -3.623352e-01 1.298065e-01
-2.462009e-01 1.047359e+00 -2.375839e+00 2.428802e+00 -6.273011e-03 3.783092e-02 -3.869171e-01 1.423645e-01
-2.514302e-01 1.042740e+00 -2.375839e+00 2.322952e+00 -6.261921e-03 3.787672e-02 -3.869171e-01 1.423645e-01
-2.468627e-01 1.044262e+00 -2.200424e+00 2.428802e+00 -6.225113e-03 3.874018e-02 -3.869171e-01 1.423645e-01
-2.461687e-01 1.043434e+00 -2.375839e+00 2.322952e+00 -6.272141e-03 3.736991e-02 -3.623352e-01 1.298065e-01
-2.517465e-01 1.044774e+00 -2.220001e+00 2.428802e+00 -6.369197e-03 3.841347e-02 -3.869171e-01 1.423645e-01
-2.491588e-01 1.051591e+00 -2.220001e+00 2.322952e+00 -6.284359e-03 3.778844e-02 -3.623352e-01 1.298065e-01
-2.521230e-01 1.042567e+00 -2.375839e+00 2.189651e+00 -6.181640e-03 3.726414e-02 -3.623352e-01 1.298065e-01
-2.484582e-01 1.056512e+00 -2.375839e+00 2.189651e+00 -6.349709e-03 3.807649e-02 -3.623352e-01 1.298065e-01
-2.493445e-01 1.050634e+00 -2.375839e+00 2.428802e+00 -6.297028e-03 3.849047e-02 -3.869171e-01 1.423645e-01
-2.455928e-01 1.041576e+00 -2.200424e+00 2.322952e+00 -6.377983e-03 3.748931e-02 -3.623352e-01 1.298065e-01
-2.425245e-01 1.043124e+00 -2.375839e+00 2.428802e+00 -6.216566e-03 3.795961e-02 -3.623352e-01 1.298065e-01
-2.523895e-01 1.046629e+00 -2.375839e+00 2.428802e+00 -6.354993e-03 3.822884e-02 -3.623352e-01 1.298065e-01
-2.498036e-01 1.053274e+00 -2.375839e+00 2.428802e+00 -6.383366e-03 3.796047e-02 -3.623352e-01 1.298065e-01
-2.498367e-01 1.049360e+00 -2.375839e+00 2.428802e+00 -6.310549e-03 3.809475e-02 -3.623352e-01 1.298065e-01
-2.466427e-01 1.052763e+00 -2.375839e+00 2.322952e+00 -6.381467e-03 3.878335e-02 -3.869171e-01 1.423645e-01
-2.542608e-01 1.031703e+00 -2.375839e+00 2.322952e+00 -6.343393e-03 3.737882e-02 -3.623352e-01 1.298065e-01
-2.499697e-01 1.049068e+00 -2.220001e+00 2.428802e+00 -6.431371e-03 3.842709e-02 -3.869171e-01 1.423645e-01
-2.480572e-01 1.048711e+00 -2.174500e+00 2.428802e+00 -6.294453e-03 3.790417e-02 -3.869171e-01 1.423645e-01
-2.493775e-01 1.030239e+00 -2.194626e+00 2.189651e+00 -6.324785e-03 3.656108e-02 -3.623352e-01 1.298065e-01
-2.526651e-01 1.046209e+00 -2.220001e+00 2.428802e+00 -6.400578e-03 3.861904e-02 -3.869171e-01 1.423645e-01
-2.481420e-01 1.047711e+00 -2.375839e+00 2.322952e+00 -6.313821e-03 3.748233e-02 -3.623352e-01 1.298065e-01
-2.502236e-01 1.043997e+00 -2.220001e+00 2.123291e+00 -6.297705e-03 3.757823e-02 -3.623352e-01 1.298065e-01
-2.511659e-01 1.043934e+00 -2.200424e+00 2.428802e+00 -6.241730e-03 3.786332e-02 -3.623352e-01 1.298065e-01
-2.564444e-01 1.038764e+00 -2.375839e+00 2.428802e+00 -6.302920e-03 3.892274e-02 -3.869171e-01 1.423645e-01
-2.467506e-01 1.034878e+00 -2.220001e+00 2.322952e+00 -6.453589e-03 3.792600e-02 -3.623352e-01 1.298065e-01
-2.541396e-01 1.035458e+00 -2.375839e+00 2.047592e+00 -6.275196e-03 3.757233e-02 -3.869171e-01 1.423645e-01
-2.428534e-01 1.047417e+00 -2.375839e+00 2.322952e+00 -6.427040e-03 3.801110e-02 -3.869171e-01 1.423645e-01
-2.463270e-01 1.052018e+00 -2.375839e+00 2.428802e+00 -6.096381e-03 3.862777e-02 -3.623352e-01 1.298065e-01
-2.440534e-01 1.044843e+00 -2.375839e+00 2.322952e+00 -6.183596e-03 3.731545e-02 -3.623352e-01 1.298065e-01
-2.500038e-01 1.053993e+00 -2.375839e+00 2.322952e+00 -6.206279e-03 3.854680e-02 -3.869171e-01 1.423645e-01
-2.504021e-01 1.041934e+00 -2.375839e+00 2.428802e+00 -6.103208e-03 3.842791e-02 -3.623352e-01 1.298065e-01
-2.547455e-01 1.039963e+00 -2.220001e+00 2.428802e+00 -6.226454e-03 3.894985e-02 -3.869171e-01 1.423645e-01
-2.481547e-01 1.049757e+00 -2.200424e+00 2.322952e+00 -6.281348e-03 3.785155e-02 -3.623352e-01 1.298065e-01
-2.545131e-01 1.053350e+00 -2.220001e+00 2.428802e+00 -6.296321e-03 3.850619e-02 -3.623352e-01 1.298065e-01
-2.514312e-01 1.044964e+00 -2.375839e+00 2.322952e+00 -6.216057e-03 3.791280e-02 -3.869171e-01 1.423645e-01
-2.544102e-01 1.044653e+00 -2.185455e+00 2.189651e+00 -6.204768e-03 3.766904e-02 -3.869171e-01 1.423645e-01
-2.467950e-01 1.052286e+00 -2.375839e+00 2.428802e+00 -6.308228e-03 3.830304e-02 -3.623352e-01 1.298065e-01
-2.552426e-01 1.034319e+00 -2.375839e+00 2.322952e+00 -6.368428e-03 3.711599e-02 -3.623352e-01 1.298065e-01
-2.448863e-01 1.046841e+00 -2.220001e+00 2.428802e+00 -6.417876e-03 3.796260e-02 -3.869171e-01 1.423645e-01
-2.497101e-01 1.044133e+00 -2.220001e+00 2.322952e+00 -6.361218e-03 3.779514e-02 -3.623352e-01 1.298065e-01
-2.445384e-01 1.033363e+00 -2.220001e+00 2.428802e+00 -6.437151e-03 3.703699e-02 -3.474426e-01 7.225037e-02
-2.515112e-01 1.052644e+00 -2.375839e+00 2.322952e+00 -6.262222e-03 3.844899e-02 -3.869171e-01 1.423645e-01
-2.452332e-01 1.032689e+00 -2.220001e+00 2.047592e+00 -6.324145e-03 3.742159e-02 -3.869171e-01 1.423645e-01
-2.500857e-01 1.042202e+00 -2.220001e+00 2.189651e+00 -6.374558e-03 3.716049e-02 -3.869171e-01 1.423645e-01
-2.477776e-01 1.045321e+00 -2.375839e+00 2.428802e+00 -6.341904e-03 3.873190e-02 -3.869171e-01 1.423645e-01
-2.521862e-01 1.035750e+00 -2.200424e+00 2.428802e+00 -6.435392e-03 3.675641e-02 -3.474426e-01 7.225037e-02
-2.495796e-01 1.035726e+00 -2.200424e+00 2.428802e+00 -6.455599e-03 3.682860e-02 -3.623352e-01 1.298065e-01
-2.505153e-01 1.045503e+00 -2.194626e+00 2.428802e+00 -6.265817e-03 3.890902e-02 -3.869171e-01 1.423645e-01
-2.521764e-01 1.033517e+00 -2.174500e+00 2.428802e+00 -6.397321e-03 3.770761e-02 -3.623352e-01 1.298065e-01
-2.529244e-01 1.042209e+00 -2.185455e+00 2.428802e+00 -6.330752e-03 3.855143e-02 -3.869171e-01 1.423645e-01
-2.505922e-01 1.038008e+00 -2.375839e+00 2.428802e+00 -6.310922e-03 3.783248e-02 -3.623352e-01 1.298065e-01
-2.519911e-01 1.028159e+00 -2.375839e+00 1.974030e+00 -6.477361e-03 3.656446e-02 -1.960907e-01 7.225037e-02
-2.517695e-01 1.041002e+00 -2.220001e+00 2.189651e+00 -6.287039e-03 3.771585e-02 -3.869171e-01 1.423645e-01
-2.593611e-01 1.041911e+00 -2.220001e+00 2.189651e+00 -6.420054e-03 3.733549e-02 -3.623352e-01 1.298065e-01
-2.462447e-01 1.047372e+00 -2.375839e+00 2.428802e+00 -6.421683e-03 3.790773e-02 -3.869171e-01 1.423645e-01
-2.450864e-01 1.043439e+00 -2.220001e+00 2.428802e+00 -6.256771e-03 3.761967e-02 -3.623352e-01 1.298065e-01
-2.494632e-01 1.046210e+00 -2.375839e+00 2.189651e+00 -6.459875e-03 3.699843e-02 -3.623352e-01 1.298065e-01
-2.524605e-01 1.033473e+00 -2.200424e+00 2.047592e+00 -6.389643e-03 3.770402e-02 -3.869171e-01 1.423645e-01
-2.444151e-01 1.052443e+00 -2.220001e+00 2.189651e+00 -6.253472e-03 3.819863e-02 -3.869171e-01 1.423645e-01
-2.453254e-01 1.047560e+00 -2.220001e+00 2.428802e+00 -6.278008e-03 3.850151e-02 -3.869171e-01 1.423645e-01
-2.559074e-01 1.036070e+00 -2.194626e+00 2.322952e+00 -6.476452e-03 3.698910e-02 -3.623352e-01 1.298065e-01
-2.453578e-01 1.045807e+00 -2.185455e+00 2.428802e+00 -6.206599e-03 3.731833e-02 -3.623352e-01 1.298065e-01
-2.445268e-01 1.042934e+00 -2.185455e+00 2.189651e+00 -5.967697e-03 3.726028e-02 -3.623352e-01 1.298065e-01
-2.433404e-01 1.051680e+00 -2.220001e+00 2.428802e+00 -6.152396e-03 3.843362e-02 -3.869171e-01 1.423645e-01
-2.438305e-01 1.045025e+00 -2.200424e+00 2.428802e+00 -6.241865e-03 3.764234e-02 -3.869171e-01 1.423645e-01
-2.525689e-01 1.043163e+00 -2.200424e+00 2.428802e+00 -6.104501e-03 3.830537e-02 -3.623352e-01 1.298065e-01
-2.472498e-01 1.045074e+00 -2.194626e+00 2.428802e+00 -6.278948e-03 3.740172e-02 -3.623352e-01 1.298065e-01
-2.559558e-01 1.041808e+00 -2.375839e+00 2.189651e+00 -6.408817e-03 3.703350e-02 -3.623352e-01 1.298065e-01
-2.497503e-01 1.029626e+00 -2.200424e+00 1.974030e+00 -6.308946e-03 3.736109e-02 -3.623352e-01 1.298065e-01
-2.542392e-01 1.047658e+00 -2.172256e+00 2.428802e+00 -6.431678e-03 3.727172e-02 -3.623352e-01 1.298065e-01
-2.544713e-01 1.033893e+00 -2.220001e+00 2.047592e+00 -6.598354e-03 3.771371e-02 -3.869171e-01 1.423645e-01
-2.529707e-01 1.033291e+00 -2.200424e+00 2.428802e+00 -6.660735e-03 3.704709e-02 -3.869171e-01 1.423645e-01
-2.526407e-01 1.048937e+00 -2.220001e+00 2.189651e+00 -6.321669e-03 3.850000e-02 -3.869171e-01 1.423645e-01
-2.557409e-01 1.049736e+00 -2.375839e+00 2.189651e+00 -6.458079e-03 3.837897e-02 -3.869171e-01 1.423645e-01
-2.447839e-01 1.034445e+00 -2.185455e+00 2.189651e+00 -6.411385e-03 3.654247e-02 -3.623352e-01 1.298065e-01
-2.452235e-01 1.036388e+00 -2.172256e+00 2.189651e+00 -6.258266e-03 3.749157e-02 -3.869171e-01 1.423645e-01
-2.499795e-01 1.049769e+00 -2.200424e+00 2.428802e+00 -6.270164e-03 3.875295e-02 -3.869171e-01 1.423645e-01
-2.507589e-01 1.040906e+00 -2.194626e+00 2.428802e+00 -6.413525e-03 3.734699e-02 -3.623352e-01 1.298065e-01
-2.511263e-01 1.043727e+00 -2.375839e+00 2.189651e+00 -6.302517e-03 3.773161e-02 -3.869171e-01 1.423645e-01
-2.494400e-01 1.035696e+00 -2.375839e+00 2.322952e+00 -6.144715e-03 3.784735e-02 -3.623352e-01 1.298065e-01
-2.475972e-01 1.037803e+00 -2.169495e+00 2.123291e+00 -6.284104e-03 3.770275e-02 -3.623352e-01 1.298065e-01
-2.510923e-01 1.052240e+00 -2.174500e+00 2.428802e+00 -6.292704e-03 3.848742e-02 -3.869171e-01 1.423645e-01
-2.476145e-01 1.042285e+00 -2.220001e+00 2.428802e+00 -6.354325e-03 3.727987e-02 -3.623352e-01 1.298065e-01
-2.462042e-01 1.046942e+00 -2.220001e+00 2.428802e+00 -6.353212e-03 3.862426e-02 -3.869171e-01 1.423645e-01
-2.525848e-01 1.044580e+00 -2.375839e+00 2.428802e+00 -6.447173e-03 3.823726e-02 -3.623352e-01 1.298065e-01
-2.508944e-01 1.045532e+00 -2.375839e+00 2.189651e+00 -6.195052e-03 3.777307e-02 -3.869171e-01 1.423645e-01
-2.564127e-01 1.033439e+00 -2.375839e+00 2.322952e+00 -6.302987e-03 3.838131e-02 -3.869171e-01 1.423645e-01
-2.478144e-01 1.046376e+00 -2.375839e+00 2.428802e+00 -6.185597e-03 3.844635e-02 -3.869171e-01 1.423645e-01
-2.447434e-01 1.049533e+00 -2.185455e+00 2.189651e+00 -6.386698e-03 3.712020e-02 -3.623352e-01 1.298065e-01
-2.474523e-01 1.046015e+00 -2.220001e+00 2.428802e+00 -6.283244e-03 3.774846e-02 -3.869171e-01 1.423645e-01
-2.466950e-01 1.044685e+00 -2.220001e+00 2.189651e+00 -6.356253e-03 3.668656e-02 -1.960907e-01 7.225037e-02
-2.567907e-01 1.032535e+00 -2.375839e+00 2.047592e+00 -6.287400e-03 3.770990e-02 -3.869171e-01 1.423645e-01
-2.495173e-01 1.046236e+00 -2.200424e+00 2.322952e+00 -6.183576e-03 3.802682e-02 -3.869171e-01 1.423645e-01
-2.453414e-01 1.050022e+00 -2.220001e+00 2.322952e+00 -6.320759e-03 3.822814e-02 -3.869171e-01 1.423645e-01
-2.448013e-01 1.047271e+00 -2.200424e+00 2.428802e+00 -6.406189e-03 3.764455e-02 -3.623352e-01 1.298065e-01
-2.571638e-01 1.038799e+00 -2.220001e+00 2.322952e+00 -6.458139e-03 3.690448e-02 -3.623352e-01 1.298065e-01
-2.501807e-01 1.043169e+00 -2.375839e+00 2.322952e+00 -6.367324e-03 3.779836e-02 -3.869171e-01 1.423645e-01
-2.472497e-01 1.045389e+00 -2.220001e+00 2.428802e+00 -6.483282e-03 3.780999e-02 -3.869171e-01 1.423645e-01
-2.493030e-01 1.050187e+00 -2.375839e+00 2.428802e+00 -6.264043e-03 3.831949e-02 -3.869171e-01 1.423645e-01
-2.487168e-01 1.045872e+00 -2.220001e+00 2.428802e+00 -6.325403e-03 3.820458e-02 -3.623352e-01 1.298065e-01
-2.447420e-01 1.042770e+00 -2.200424e+00 2.189651e+00 -6.423688e-03 3.723816e-02 -3.869171e-01 1.423645e-01
-2.515262e-01 1.035275e+00 -2.174500e+00 2.428802e+00 -6.293203e-03 3.705238e-02 -3.623352e-01 1.298065e-01
-2.510599e-01 1.037281e+00 -2.375839e+00 2.428802e+00 -6.318179e-03 3.713488e-02 -3.623352e-01 1.298065e-01
-2.473651e-01 1.044890e+00 -2.375839e+00 2.428802e+00 -6.262880e-03 3.839044e-02 -3.623352e-01 1.298065e-01
-2.467299e-01 1.046086e+00 -2.185455e+00 2.428802e+00 -6.404833e-03 3.752581e-02 -3.623352e-01 1.298065e-01
-2.503359e-01 1.045792e+00 -2.200424e+00 2.428802e+00 -6.404509e-03 3.752342e-02 -3.869171e-01 1.423645e-01
-2.528425e-01 1.045331e+00 -2.194626e+00 2.428802e+00 -6.244164e-03 3.797912e-02 -3.623352e-01 1.298065e-01
-2.515840e-01 1.046513e+00 -2.220001e+00 2.322952e+00 -6.242443e-03 3.753646e-02 -3.623352e-01 1.298065e-01
-2.481651e-01 1.048383e+00 -2.375839e+00 2.322952e+00 -6.241262e-03 3.825820e-02 -3.869171e-01 1.423645e-01
-2.573499e-01 1.050587e+00 -2.375839e+00 2.322952e+00 -6.456572e-03 3.833094e-02 -3.869171e-01 1.423645e-01
-2.406047e-01 1.044560e+00 -2.194626e+00 2.428802e+00 -6.238143e-03 3.754250e-02 -3.623352e-01 1.298065e-01
-2.447252e-01 1.042306e+00 -2.375839e+00 2.428802e+00 -6.276955e-03 3.732759e-02 -3.623352e-01 1.298065e-01
-2.545974e-01 1.041055e+00 -2.375839e+00 2.428802e+00 -6.401739e-03 3.781600e-02 -3.623352e-01 1.298065e-01
-2.493807e-01 1.036944e+00 -2.172256e+00 2.322952e+00 -6.256533e-03 3.787200e-02 -3.623352e-01 1.298065e-01
-2.502728e-01 1.038836e+00 -2.375839e+00 2.322952e+00 -6.428547e-03 3.849692e-02 -3.869171e-01 1.423645e-01
-2.463686e-01 1.047807e+00 -2.185455e+00 2.428802e+00 -6.303582e-03 3.809046e-02 -3.623352e-01 1.298065e-01
-2.496750e-01 1.049859e+00 -2.375839e+00 2.322952e+00 -6.350361e-03 3.758647e-02 -3.623352e-01 1.298065e-01
-2.510372e-01 1.043276e+00 -2.220001e+00 2.322952e+00 -6.436964e-03 3.768454e-02 -3.623352e-01 1.298065e-01
-2.539779e-01 1.042696e+00 -2.375839e+00 2.322952e+00 -6.396677e-03 3.827127e-02 -3.623352e-01 1.298065e-01
-2.548590e-01 1.035761e+00 -2.375839e+00 2.322952e+00 -6.272109e-03 3.805384e-02 -3.869171e-01 1.423645e-01
-2.462108e-01 1.043729e+00 -2.375839e+00 2.428802e+00 -6.442296e-03 3.721120e-02 -3.623352e-01 1.298065e-01
-2.508753e-01 1.044773e+00 -2.200424e+00 2.428802e+00 -6.414517e-03 3.822503e-02 -3.869171e-01 1.423645e-01
-2.472417e-01 1.040270e+00 -2.174500e+00 2.123291e+00 -6.306193e-03 3.735904e-02 -3.623352e-01 1.298065e-01
-2.536395e-01 1.043040e+00 -2.375839e+00 2.189651e+00 -6.246976e-03 3.701148e-02 -3.623352e-01 1.298065e-01
-2.538586e-01 1.056573e+00 -2.375839e+00 2.428802e+00 -6.364395e-03 3.873040e-02 -3.869171e-01 1.423645e-01
-2.530366e-01 1.039594e+00 -2.174500e+00 2.322952e+00 -6.392529e-03 3.739948e-02 -3.869171e-01 1.423645e-01
-2.495491e-01 1.039550e+00 -2.200424e+00 2.189651e+00 -6.234105e-03 3.762755e-02 -3.869171e-01 1.423645e-01
-2.497728e-01 1.042212e+00 -2.220001e+00 2.428802e+00 -6.242155e-03 3.740438e-02 -3.474426e-01 7.225037e-02
-2.496145e-01 1.046871e+00 -2.185455e+00 2.428802e+00 -6.372886e-03 3.794186e-02 -3.623352e-01 1.298065e-01
-2.500178e-01 1.045177e+00 -2.220001e+00 2.428802e+00 -6.144285e-03 3.812095e-02 -3.623352e-01 1.298065e-01
-2.509250e-01 1.047983e+00 -2.194626e+00 2.322952e+00 -6.349037e-03 3.851429e-02 -3.869171e-01 1.423645e-01
-2.473371e-01 1.038900e+00 -2.194626e+00 2.428802e+00 -6.414843e-03 3.738144e-02 -3.623352e-01 1.298065e-01
-2.478332e-01 1.035499e+00 -2.220001e+00 2.123291e+00 -6.244822e-03 3.775404e-02 -3.623352e-01 1.298065e-01
-2.449435e-01 1.041078e+00 -2.220001e+00 2.322952e+00 -6.141015e-03 3.872511e-02 -3.869171e-01 1.423645e-01
-2.452535e-01 1.044456e+00 -2.194626e+00 2.428802e+00 -6.288481e-03 3.802795e-02 -3.869171e-01 1.423645e-01
-2.415851e-01 1.041003e+00 -2.220001e+00 2.322952e+00 -6.209299e-03 3.704332e-02 -3.307800e-01 7.225037e-02
-2.519884e-01 1.039104e+00 -2.375839e+00 2.322952e+00 -6.216073e-03 3.853405e-02 -3.869171e-01 1.423645e-01
-2.500560e-01 1.047246e+00 -2.185455e+00 2.428802e+00 -6.438348e-03 3.822960e-02 -3.869171e-01 1.423645e-01
-2.461134e-01 1.047343e+00 -2.375839e+00 2.428802e+00 -6.129172e-03 3.810449e-02 -3.869171e-01 1.423645e-01
-2.535699e-01 1.046205e+00 -2.375839e+00 2.428802e+00 -6.153142e-03 3.875151e-02 -3.869171e-01 1.423645e-01
-2.484705e-01 1.034209e+00 -2.220001e+00 2.428802e+00 -6.293582e-03 3.808593e-02 -3.869171e-01 1.423645e-01
-2.461203e-01 1.039514e+00 -2.220001e+00 2.428802e+00 -6.169073e-03 3.837417e-02 -3.869171e-01 1.423645e-01
-2.379484e-01 1.044083e+00 -2.220001e+00 2.428802e+00 -6.251853e-03 3.782696e-02 -3.623352e-01 1.298065e-01
-2.534543e-01 1.050347e+00 -2.375839e+00 2.322952e+00 -6.379508e-03 3.832700e-02 -3.869171e-01 1.423645e-01
-2.529574e-01 1.045492e+00 -2.375839e+00 2.123291e+00 -6.314450e-03 3.771003e-02 -3.869171e-01 1.423645e-01
-2.483090e-01 1.044039e+00 -2.375839e+00 2.428802e+00 -6.210615e-03 3.814548e-02 -3.623352e-01 1.298065e-01
-2.516903e-01 1.038569e+00 -2.375839e+00 2.123291e+00 -6.278334e-03 3.812600e-02 -3.869171e-01 1.423645e-01
-2.436329e-01 1.045887e+00 -2.172256e+00 2.428802e+00 -6.191136e-03 3.797296e-02 -3.869171e-01 1.423645e-01
-2.534758e-01 1.039505e+00 -2.375839e+00 2.189651e+00 -6.390330e-03 3.868683e-02 -3.869171e-01 1.423645e-01
-2.495703e-01 1.021366e+00 -2.220001e+00 2.428802e+00 -6.389913e-03 3.750213e-02 -3.869171e-01 1.423645e-01
-2.505491e-01 1.037428e+00 -2.220001e+00 2.189651e+00 -6.406504e-03 3.774141e-02 -3.869171e-01 1.423645e-01
-2.386036e-01 1.056172e+00 -2.220001e+00 2.428802e+00 -6.169068e-03 3.811703e-02 -3.623352e-01 1.298065e-01
-2.437140e-01 1.043560e+00 -2.375839e+00 2.189651e+00 -6.221197e-03 3.847868e-02 -3.869171e-01 1.423645e-01
-2.508395e-01 1.040010e+00 -2.375839e+00 2.428802e+00 -6.337944e-03 3.732712e-02 -3.623352e-01 1.298065e-01
-2.452200e-01 1.047045e+00 -2.375839e+00 2.428802e+00 -6.296908e-03 3.749199e-02 -3.623352e-01 1.298065e-01
-2.498674e-01 1.042281e+00 -2.220001e+00 2.189651e+00 -6.304612e-03 3.738519e-02 -3.623352e-01 1.298065e-01
-2.543668e-01 1.041885e+00 -2.200424e+00 2.322952e+00 -6.312008e-03 3.869038e-02 -3.869171e-01 1.423645e-01
-2.561964e-01 1.030572e+00 -2.375839e+00 2.189651e+00 -6.413942e-03 3.791816e-02 -3.869171e-01 1.423645e-01
-2.524597e-01 1.033425e+00 -2.375839e+00 2.189651e+00 -6.584486e-03 3.705025e-02 -3.869171e-01 1.423645e-01
-2.521304e-01 1.038036e+00 -2.174500e+00 1.974030e+00 -6.290183e-03 3.747969e-02 -3.623352e-01 1.298065e-01
-2.495951e-01 1.038477e+00 -2.375839e+00 2.123291e+00 -6.327767e-03 3.736446e-02 -3.623352e-01 1.298065e-01
-2.440198e-01 1.039370e+00 -2.375839e+00 2.047592e+00 -6.405070e-03 3.690901e-02 -3.869171e-01 1.423645e-01
-2.512927e-01 1.041048e+00 -2.220001e+00 2.189651e+00 -6.372153e-03 3.792101e-02 -3.869171e-01 1.423645e-01
-2.487593e-01 1.043596e+00 -2.220001e+00 2.189651e+00 -6.434888e-03 3.648373e-02 -1.960907e-01 7.225037e-02
-2.483688e-01 1.044116e+00 -2.200424e+00 2.322952e+00 -6.203503e-03 3.761743e-02 -3.623352e-01 1.298065e-01
-2.511729e-01 1.047839e+00 -2.375839e+00 2.322952e+00 -6.454750e-03 3.753009e-02 -3.623352e-01 1.298065e-01
-2.503392e-01 1.043660e+00 -2.375839e+00 2.322952e+00 -6.403220e-03 3.699694e-02 -3.623352e-01 1.298065e-01
-2.496768e-01 1.053088e+00 -2.375839e+00 2.428802e+00 -6.288036e-03 3.847064e-02 -3.869171e-01 1.423645e-01
-2.547090e-01 1.029518e+00 -2.220001e+00 2.322952e+00 -6.190516e-03 3.695730e-02 -3.623352e-01 1.298065e-01
-2.490481e-01 1.052912e+00 -2.375839e+00 2.322952e+00 -6.148207e-03 3.889151e-02 -3.869171e-01 1.423645e-01
-2.442061e-01 1.058208e+00 -2.375839e+00 2.322952e+00 -6.242837e-03 3.873444e-02 -3.869171e-01 1.423645e-01
-2.517256e-01 1.043566e+00 -2.200424e+00 2.189651e+00 -6.351098e-03 3.753197e-02 -3.623352e-01 1.298065e-01
-2.476873e-01 1.037888e+00 -2.220001e+00 2.189651e+00 -6.383234e-03 3.741392e-02 -3.869171e-01 1.423645e-01
-2.513366e-01 1.041814e+00 -2.375839e+00 2.123291e+00 -6.333453e-03 3.750960e-02 -3.623352e-01 1.298065e-01
-2.472778e-01 1.042441e+00 -2.200424e+00 2.428802e+00 -6.305146e-03 3.745707e-02 -3.623352e-01 1.298065e-01
-2.507476e-01 1.044867e+00 -2.375839e+00 2.428802e+00 -6.290686e-03 3.798744e-02 -3.623352e-01 1.298065e-01
-2.454274e-01 1.043013e+00 -2.375839e+00 2.428802e+00 -6.442650e-03 3.767541e-02 -3.869171e-01 1.423645e-01
-2.572230e-01 1.033466e+00 -2.375839e+00 2.189651e+00 -6.443263e-03 3.750787e-02 -3.869171e-01 1.423645e-01
-2.512957e-01 1.038961e+00 -2.194626e+00 2.428802e+00 -6.282199e-03 3.812841e-02 -3.869171e-01 1.423645e-01
-2.518711e-01 1.037032e+00 -2.220001e+00 2.322952e+00 -6.352486e-03 3.729972e-02 -3.623352e-01 1.298065e-01
-2.469248e-01 1.046465e+00 -2.375839e+00 2.428802e+00 -6.293449e-03 3.815559e-02 -3.869171e-01 1.423645e-01
-2.473049e-01 1.051869e+00 -2.375839e+00 2.428802e+00 -6.308508e-03 3.871921e-02 -3.869171e-01 1.423645e-01
-2.493856e-01 1.035110e+00 -2.375839e+00 2.428802e+00 -6.315925e-03 3.781503e-02 -3.869171e-01 1.423645e-01
-2.544586e-01 1.037949e+00 -2.375839e+00 2.189651e+00 -6.361450e-03 3.708183e-02 -3.623352e-01 1.298065e-01
-2.490814e-01 1.046069e+00 -2.194626e+00 2.428802e+00 -6.345279e-03 3.777492e-02 -3.869171e-01 1.423645e-01
-2.448536e-01 1.053865e+00 -2.200424e+00 2.189651e+00 -6.220346e-03 3.808930e-02 -3.869171e-01 1.423645e-01
-2.475278e-01 1.049181e+00 -2.375839e+00 2.428802e+00 -6.364445e-03 3.728375e-02 -3.474426e-01 7.225037e-02
-2.460113e-01 1.050700e+00 -2.200424e+00 2.428802e+00 -6.175536e-03 3.774368e-02 -3.623352e-01 1.298065e-01
-2.489623e-01 1.046342e+00 -2.375839e+00 2.428802e+00 -6.411633e-03 3.792392e-02 -3.623352e-01 1.298065e-01
-2.533155e-01 1.032589e+00 -2.194626e+00 2.322952e+00 -6.458145e-03 3.733874e-02 -3.623352e-01 1.298065e-01
-2.420076e-01 1.036249e+00 -2.200424e+00 1.974030e+00 -6.348734e-03 3.678276e-02 -3.623352e-01 1.298065e-01
-2.449577e-01 1.053027e+00 -2.220001e+00 2.428802e+00 -6.120181e-03 3.749791e-02 -3.474426e-01 7.225037e-02
