-1.069065e-02 3.624989e+00 -2.349210e+01 2.210931e+01 3.698147e-04 9.426262e-03 -1.262285e-01 1.258295e-01
-5.582788e-02 3.633395e+00 -2.348765e+01 2.211085e+01 3.893799e-05 8.398601e-03 -1.262285e-01 1.195001e-01
-7.110389e-02 3.626584e+00 -2.348122e+01 2.210611e+01 4.865573e-06 8.166910e-03 -1.262283e-01 1.202424e-01
-7.366079e-02 3.634869e+00 -2.347383e+01 2.210731e+01 -2.207246e-06 8.178126e-03 -1.262285e-01 1.188967e-01
-8.014485e-02 3.631331e+00 -2.346565e+01 2.210536e+01 -1.726981e-06 8.173506e-03 -1.262285e-01 1.169156e-01
-7.835138e-02 3.633277e+00 -2.346247e+01 2.209965e+01 -2.252537e-06 8.160074e-03 -1.262285e-01 1.173764e-01
-7.857064e-02 3.635249e+00 -2.345807e+01 2.210289e+01 -1.842209e-06 8.067848e-03 -1.262285e-01 1.195733e-01
-8.153958e-02 3.631370e+00 -2.345190e+01 2.210165e+01 -1.982333e-06 8.113225e-03 -1.262285e-01 1.156252e-01
-7.700506e-02 3.640091e+00 -2.344659e+01 2.209985e+01 -1.307751e-06 8.088565e-03 -1.262285e-01 1.159763e-01
-8.520157e-02 3.629889e+00 -2.344309e+01 2.209954e+01 -5.071255e-06 8.023868e-03 -1.262284e-01 1.183230e-01
-9.240280e-02 3.631479e+00 -2.343874e+01 2.210073e+01 -1.707537e-06 8.093194e-03 -1.262285e-01 1.151388e-01
-1.010710e-01 3.637429e+00 -2.343354e+01 2.209896e+01 -3.941519e-06 8.064211e-03 -1.262285e-01 1.143535e-01
-1.015050e-01 3.628728e+00 -2.342885e+01 2.190254e+01 -2.361477e-06 8.044387e-03 -1.262285e-01 1.147579e-01
-9.012185e-02 3.636092e+00 -2.292319e+01 2.209711e+01 -2.904261e-06 8.007695e-03 -1.262285e-01 1.162352e-01
-9.550954e-02 3.632550e+00 -2.342455e+01 2.209439e+01 -1.944639e-06 8.000102e-03 -1.262285e-01 1.171676e-01
-9.928204e-02 3.638097e+00 -2.341932e+01 2.209164e+01 -4.385838e-06 8.008312e-03 -1.262285e-01 1.160798e-01
-9.574370e-02 3.633096e+00 -2.341897e+01 2.209239e+01 -3.338099e-06 7.991063e-03 -1.262285e-01 1.157692e-01
-9.613102e-02 3.634768e+00 -2.341624e+01 2.208999e+01 -3.016925e-06 7.951152e-03 -1.262284e-01 1.171316e-01
-1.104572e-01 3.648182e+00 -2.341072e+01 2.209007e+01 -3.973629e-06 7.969760e-03 -1.262285e-01 1.155666e-01
-1.133469e-01 3.624134e+00 -2.340978e+01 2.208851e+01 -3.829854e-06 7.970772e-03 -1.262285e-01 1.166426e-01
-1.077504e-01 3.636160e+00 -2.340558e+01 2.208765e+01 -4.142700e-06 7.981633e-03 -1.262285e-01 1.142226e-01
-1.067006e-01 3.636804e+00 -2.340497e+01 2.208762e+01 -3.260756e-06 7.960502e-03 -1.262285e-01 1.143870e-01
-1.122378e-01 3.630499e+00 -2.340209e+01 2.208593e+01 -3.665388e-06 7.941832e-03 -1.262285e-01 1.147104e-01
-1.181389e-01 3.640082e+00 -2.340060e+01 2.208323e+01 -4.773716e-06 7.912064e-03 -1.262285e-01 1.155888e-01
-1.137459e-01 3.633481e+00 -2.339717e+01 2.207947e+01 -5.610315e-06 7.960205e-03 -1.262285e-01 1.140556e-01
-1.233771e-01 3.632886e+00 -2.339756e+01 2.208173e+01 -4.868612e-06 7.937118e-03 -1.262285e-01 1.151435e-01
-1.154205e-01 3.630619e+00 -2.339643e+01 2.207914e+01 -6.240405e-06 7.982490e-03 -1.262285e-01 1.116839e-01
-1.244519e-01 3.640661e+00 -2.339561e+01 2.207876e+01 -4.294381e-06 7.919565e-03 -1.262285e-01 1.162209e-01
-1.339490e-01 3.629901e+00 -2.339314e+01 2.207914e+01 -5.314541e-06 7.939431e-03 -1.262285e-01 1.128164e-01
-1.199866e-01 3.636649e+00 -2.339165e+01 2.207794e+01 -5.272710e-06 7.978222e-03 -1.262285e-01 1.133694e-01
-1.290906e-01 3.638140e+00 -2.339185e+01 2.207618e+01 -3.128828e-06 7.898980e-03 -1.262285e-01 1.176000e-01
-1.356749e-01 3.632606e+00 -2.339025e+01 2.207516e+01 -5.974880e-06 7.917453e-03 -1.262285e-01 1.149261e-01
-1.302361e-01 3.624486e+00 -2.338898e+01 2.207348e+01 -5.752090e-06 7.930610e-03 -1.262285e-01 1.153300e-01
-1.345424e-01 3.631336e+00 -2.338932e+01 2.207264e+01 -7.100531e-06 8.003542e-03 -1.262285e-01 1.116254e-01
-1.390445e-01 3.635183e+00 -2.338817e+01 2.206980e+01 -5.626871e-06 7.955917e-03 -1.262285e-01 1.153348e-01
-1.377654e-01 3.636468e+00 -2.338804e+01 2.207132e+01 -5.100105e-06 7.988161e-03 -1.262285e-01 1.138104e-01
-1.463573e-01 3.632541e+00 -2.338791e+01 2.206739e+01 -5.730638e-06 7.968824e-03 -1.262285e-01 1.144612e-01
-1.480620e-01 3.641736e+00 -2.338791e+01 2.206677e+01 -6.725225e-06 7.975786e-03 -1.262285e-01 1.150985e-01
-1.471907e-01 3.635739e+00 -2.338815e+01 2.206797e+01 -5.996249e-06 7.980701e-03 -1.262285e-01 1.144222e-01
-1.480228e-01 3.633946e+00 -2.338769e+01 2.206662e+01 -6.062791e-06 7.997894e-03 -1.262285e-01 1.154743e-01
-1.500084e-01 3.638838e+00 -2.338758e+01 2.206536e+01 -7.584698e-06 7.981589e-03 -1.262285e-01 1.157681e-01
-1.606583e-01 3.635679e+00 -2.338745e+01 2.206383e+01 -6.498658e-06 7.964150e-03 -1.262285e-01 1.178313e-01
-1.495127e-01 3.637426e+00 -2.338812e+01 2.206290e+01 -7.922435e-06 8.000082e-03 -1.262285e-01 1.150133e-01
-1.511583e-01 3.643728e+00 -2.338832e+01 2.205961e+01 -9.118443e-06 8.036319e-03 -1.262285e-01 1.147964e-01
-1.556018e-01 3.635529e+00 -2.338893e+01 2.205903e+01 -6.674129e-06 8.011198e-03 -1.262285e-01 1.160267e-01
-1.547086e-01 3.642991e+00 -2.338990e+01 2.205916e+01 -7.850922e-06 8.031647e-03 -1.262285e-01 1.160628e-01
-1.593928e-01 3.642098e+00 -2.339112e+01 2.205661e+01 -7.863023e-06 8.034917e-03 -1.262285e-01 1.167619e-01
-1.595350e-01 3.629838e+00 -2.295559e+01 2.205576e+01 -8.846011e-06 8.077706e-03 -1.262285e-01 1.167125e-01
-1.627468e-01 3.642354e+00 -2.339344e+01 2.205411e+01 -9.231991e-06 8.073796e-03 -1.262285e-01 1.168597e-01
-1.592003e-01 3.638964e+00 -2.339406e+01 2.205281e+01 -8.879982e-06 8.086301e-03 -1.262285e-01 1.171816e-01
-1.687188e-01 3.643696e+00 -2.339688e+01 2.121568e+01 -8.983863e-06 8.107905e-03 -1.262285e-01 1.176764e-01
-1.677266e-01 3.644518e+00 -2.339923e+01 2.205135e+01 -1.058423e-05 8.160805e-03 -1.262285e-01 1.165448e-01
-1.757671e-01 3.653036e+00 -2.340132e+01 2.204704e+01 -7.523399e-06 8.102421e-03 -1.262285e-01 1.193287e-01
-1.730701e-01 3.635904e+00 -2.340423e+01 2.204875e+01 -1.056903e-05 8.159505e-03 -1.262285e-01 1.167501e-01
-1.725647e-01 3.644540e+00 -2.340372e+01 2.204851e+01 -9.236347e-06 8.168146e-03 -1.262285e-01 1.177420e-01
-1.769795e-01 3.649540e+00 -2.340550e+01 2.204648e+01 -1.101783e-05 8.187697e-03 -1.262285e-01 1.178213e-01
-1.784483e-01 3.651989e+00 -2.340925e+01 2.204647e+01 -1.004229e-05 8.222095e-03 -1.262285e-01 1.177235e-01
-1.888782e-01 3.654520e+00 -2.341055e+01 2.204526e+01 -1.034915e-05 8.255462e-03 -1.262285e-01 1.201229e-01
-1.858416e-01 3.639686e+00 -2.341540e+01 2.204257e+01 -1.155470e-05 8.286970e-03 -1.262285e-01 1.186991e-01
-1.887350e-01 3.655145e+00 -2.341575e+01 2.204107e+01 -1.082119e-05 8.308648e-03 -1.262285e-01 1.197818e-01
-1.921718e-01 3.644455e+00 -2.341947e+01 2.204105e+01 -1.228239e-05 8.365937e-03 -1.262285e-01 1.196749e-01
-1.922633e-01 3.650081e+00 -2.341980e+01 2.203994e+01 -1.395824e-05 8.410840e-03 -1.262285e-01 1.195308e-01
-1.916951e-01 3.656143e+00 -2.342254e+01 2.203714e+01 -1.084800e-05 8.376072e-03 -1.262285e-01 1.203932e-01
-1.953440e-01 3.654932e+00 -2.342903e+01 2.203846e+01 -1.202257e-05 8.394184e-03 -1.262285e-01 1.206073e-01
-1.918122e-01 3.650318e+00 -2.342965e+01 2.203796e+01 -1.351703e-05 8.449999e-03 -1.262285e-01 1.207700e-01
-2.038156e-01 3.649761e+00 -2.343232e+01 2.203681e+01 -1.350510e-05 8.484279e-03 -1.262284e-01 1.205554e-01
-1.897533e-01 3.653109e+00 -2.343584e+01 2.203450e+01 -1.445493e-05 8.517748e-03 -1.262285e-01 1.208835e-01
-1.994818e-01 3.653592e+00 -2.344390e+01 2.203303e+01 -1.396454e-05 8.568799e-03 -1.262285e-01 1.207368e-01
-2.044868e-01 3.652475e+00 -2.344525e+01 2.203069e+01 -9.391370e-06 8.592981e-03 -1.262285e-01 1.224581e-01
-2.087158e-01 3.660487e+00 -2.344927e+01 2.202743e+01 -1.500545e-05 8.667323e-03 -1.262285e-01 1.227115e-01
-2.020399e-01 3.663512e+00 -2.345288e+01 2.202887e+01 -1.519461e-05 8.706917e-03 -1.262285e-01 1.224157e-01
-2.137111e-01 3.666955e+00 -2.345396e+01 2.202238e+01 -1.633352e-05 8.730568e-03 -1.262285e-01 1.225796e-01
-2.146770e-01 3.670874e+00 -2.345847e+01 2.202529e+01 -1.417052e-05 8.805908e-03 -1.262285e-01 1.225782e-01
-2.123010e-01 3.664663e+00 -2.347285e+01 2.202114e+01 -1.588524e-05 8.825873e-03 -1.262285e-01 1.227226e-01
-2.142343e-01 3.664118e+00 -2.347150e+01 2.202187e+01 -1.376910e-05 8.840645e-03 -1.262283e-01 1.246982e-01
-2.201622e-01 3.668348e+00 -2.347272e+01 2.201914e+01 -1.735356e-05 8.960465e-03 -1.262285e-01 1.237581e-01
-2.264691e-01 3.663397e+00 -2.347600e+01 2.202139e+01 -1.504580e-05 8.948770e-03 -1.262285e-01 1.247637e-01
-2.249047e-01 3.678274e+00 -2.348245e+01 2.203957e+01 -1.634230e-05 9.040906e-03 -1.262285e-01 1.243485e-01
-2.229643e-01 3.675999e+00 -2.348227e+01 2.207074e+01 -1.499200e-05 9.134973e-03 -1.262285e-01 1.249262e-01
-2.294625e-01 3.682122e+00 -2.349296e+01 2.209358e+01 -1.720923e-05 9.154217e-03 -1.262285e-01 1.248440e-01
-2.325713e-01 3.686908e+00 -2.349533e+01 2.211815e+01 -1.664899e-05 9.183940e-03 -1.262285e-01 1.253605e-01
-2.296228e-01 3.692372e+00 -2.349780e+01 2.214168e+01 -1.456966e-05 9.270477e-03 -1.262285e-01 1.259086e-01
-2.339788e-01 3.699624e+00 -2.349694e+01 2.217379e+01 -1.543671e-05 9.361296e-03 -1.262285e-01 1.260779e-01
-2.356002e-01 3.696116e+00 -2.350495e+01 2.220094e+01 -1.648358e-05 9.410419e-03 -1.262285e-01 1.258298e-01
-2.407706e-01 3.690816e+00 -2.351096e+01 2.221882e+01 -1.496763e-05 9.493290e-03 -1.262285e-01 1.260581e-01
-2.454446e-01 3.691870e+00 -2.351674e+01 2.200293e+01 -1.515064e-05 9.521942e-03 -1.262285e-01 1.262259e-01
-2.466806e-01 3.701989e+00 -2.350954e+01 2.224204e+01 -1.287064e-05 9.581955e-03 -1.262285e-01 1.262225e-01
-2.483096e-01 3.705388e+00 -2.351648e+01 2.225511e+01 -1.651881e-05 9.628957e-03 -1.262285e-01 1.262284e-01
-2.563486e-01 3.714535e+00 -2.355377e+01 2.228988e+01 -1.350772e-05 9.683600e-03 -1.262285e-01 1.262280e-01
-2.475815e-01 3.721091e+00 -2.357930e+01 2.228327e+01 -1.520097e-05 9.798939e-03 -1.262285e-01 1.262283e-01
-2.589154e-01 3.723491e+00 -2.363327e+01 2.229043e+01 -1.450943e-05 9.826171e-03 -1.262284e-01 1.262217e-01
-2.609442e-01 3.721486e+00 -2.367531e+01 2.227315e+01 -1.551531e-05 9.892522e-03 -1.262285e-01 1.262284e-01
-2.570161e-01 3.729775e+00 -2.372838e+01 2.228065e+01 -1.169649e-05 9.934303e-03 -1.262285e-01 1.262275e-01
-2.548565e-01 3.740634e+00 -2.378344e+01 2.231626e+01 -1.177065e-05 1.003212e-02 -1.262285e-01 1.262234e-01
-2.713583e-01 3.736384e+00 -2.381238e+01 2.229762e+01 -1.282440e-05 1.010531e-02 -1.262284e-01 1.262284e-01
-2.707029e-01 3.731928e+00 -2.386267e+01 2.229860e+01 -1.185380e-05 1.017336e-02 -1.262283e-01 1.262279e-01
-2.705201e-01 3.740673e+00 -2.393130e+01 2.229098e+01 -1.358318e-05 1.019060e-02 -1.262284e-01 1.262268e-01
-2.739684e-01 3.737057e+00 -2.396734e+01 2.197767e+01 -9.907862e-06 1.031501e-02 -1.262285e-01 1.262240e-01
-2.783628e-01 3.756197e+00 -2.402508e+01 2.227360e+01 -9.947554e-06 1.039984e-02 -1.262285e-01 1.262281e-01
-2.694072e-01 3.757708e+00 -2.404741e+01 2.196692e+01 -8.824944e-06 1.032171e-02 -1.262285e-01 1.262233e-01
-2.818661e-01 3.759075e+00 -2.408671e+01 2.224637e+01 -1.319310e-05 1.041955e-02 -1.262285e-01 1.262285e-01
-2.846165e-01 3.773137e+00 -2.413607e+01 2.223562e+01 -1.108867e-05 1.050879e-02 -1.262285e-01 1.262285e-01
-2.830630e-01 3.769506e+00 -2.419823e+01 2.223510e+01 -5.173026e-06 1.050580e-02 -1.262285e-01 1.262281e-01
-2.858892e-01 3.775408e+00 -2.425651e+01 2.220540e+01 -3.567784e-06 1.056681e-02 -1.262285e-01 1.262241e-01
-2.896764e-01 3.775559e+00 -2.430094e+01 2.218043e+01 -5.190119e-06 1.066891e-02 -1.262284e-01 1.262048e-01
-2.926706e-01 3.783854e+00 -2.354188e+01 2.218122e+01 -3.336057e-06 1.069257e-02 -1.262285e-01 1.262285e-01
-2.938249e-01 3.789785e+00 -2.441316e+01 2.216385e+01 -7.841891e-06 1.071054e-02 -1.262283e-01 1.262285e-01
-2.964184e-01 3.796922e+00 -2.441939e+01 2.213869e+01 -4.615268e-06 1.068579e-02 -1.262285e-01 1.262284e-01
-3.000568e-01 3.804926e+00 -2.449701e+01 2.210979e+01 -3.738972e-06 1.075241e-02 -1.262285e-01 1.262285e-01
-3.037443e-01 3.810318e+00 -2.451175e+01 2.203693e+01 -5.515435e-06 1.083561e-02 -1.262284e-01 1.262277e-01
-3.069631e-01 3.808949e+00 -2.455478e+01 2.205521e+01 1.141866e-06 1.080243e-02 -1.262280e-01 1.262283e-01
-2.982323e-01 3.809141e+00 -2.462968e+01 2.203345e+01 1.493273e-06 1.081751e-02 -1.262284e-01 1.262264e-01
-2.997272e-01 3.822832e+00 -2.466600e+01 2.197508e+01 -4.287162e-06 1.085807e-02 -1.262283e-01 1.262284e-01
-3.042814e-01 3.815598e+00 -2.468149e+01 2.195766e+01 1.119885e-06 1.088902e-02 -1.262285e-01 1.262284e-01
-3.067225e-01 3.822190e+00 -2.475886e+01 2.191952e+01 -2.923152e-06 1.096043e-02 -1.262275e-01 1.262273e-01
-3.097704e-01 3.823106e+00 -2.478627e+01 2.192083e+01 -1.768453e-06 1.085775e-02 -1.262285e-01 1.262285e-01
-3.109998e-01 3.825714e+00 -2.483755e+01 2.191880e+01 -1.260892e-06 1.093112e-02 -1.262285e-01 1.262249e-01
-3.066097e-01 3.830943e+00 -2.485146e+01 2.184034e+01 2.510539e-07 1.092934e-02 -1.262285e-01 1.262234e-01
-3.091462e-01 3.840543e+00 -2.490181e+01 2.190660e+01 -2.020134e-06 1.098272e-02 -1.262283e-01 1.262272e-01
-3.265287e-01 3.850398e+00 -2.492953e+01 2.189534e+01 -3.117869e-06 1.093390e-02 -1.262285e-01 1.262284e-01
-3.084189e-01 3.841802e+00 -2.496518e+01 2.189865e+01 7.803519e-08 1.101925e-02 -1.262285e-01 1.262204e-01
-3.114481e-01 3.834634e+00 -2.240068e+01 2.189543e+01 6.380408e-07 1.103724e-02 -1.262285e-01 1.262270e-01
-3.165402e-01 3.848733e+00 -2.503628e+01 2.189595e+01 2.694767e-06 1.098365e-02 -1.262285e-01 1.261530e-01
-3.156831e-01 3.861693e+00 -2.508022e+01 2.189581e+01 2.493517e-07 1.103083e-02 -1.262284e-01 1.262209e-01
-3.153839e-01 3.858235e+00 -2.512135e+01 2.188279e+01 4.483221e-06 1.100451e-02 -1.262285e-01 1.262274e-01
-3.224361e-01 3.859078e+00 -2.339050e+01 2.188352e+01 7.567355e-07 1.108293e-02 -1.262285e-01 1.262262e-01
-3.205198e-01 3.866293e+00 -2.518348e+01 2.188109e+01 -8.706730e-07 1.100347e-02 -1.262277e-01 1.262199e-01
-3.209671e-01 3.872992e+00 -2.522618e+01 2.187450e+01 6.461545e-06 1.111845e-02 -1.262282e-01 1.262275e-01
-3.240563e-01 3.869545e+00 -2.523487e+01 2.132233e+01 3.848732e-06 1.110498e-02 -1.262285e-01 1.262270e-01
-3.222369e-01 3.870204e+00 -2.528360e+01 2.186775e+01 3.703439e-06 1.111033e-02 -1.262283e-01 1.262206e-01
-3.313638e-01 3.866892e+00 -2.532174e+01 2.185995e+01 4.173609e-06 1.113743e-02 -1.262277e-01 1.262280e-01
-3.332712e-01 3.876498e+00 -2.535211e+01 2.048066e+01 3.724398e-07 1.106719e-02 -1.262285e-01 1.262201e-01
-3.263196e-01 3.886772e+00 -2.539288e+01 2.185319e+01 5.735606e-06 1.117140e-02 -1.262285e-01 1.262265e-01
-3.164020e-01 3.880410e+00 -2.538963e+01 2.185018e+01 4.503160e-06 1.112077e-02 -1.262284e-01 1.262280e-01
-3.282484e-01 3.895378e+00 -2.542484e+01 2.183971e+01 1.816967e-06 1.118996e-02 -1.262285e-01 1.262285e-01
-3.225391e-01 3.892895e+00 -2.547818e+01 2.183118e+01 1.453524e-06 1.106733e-02 -1.262284e-01 1.262282e-01
-3.368648e-01 3.881448e+00 -2.549608e+01 2.183531e+01 3.479466e-06 1.107550e-02 -1.262282e-01 1.262266e-01
-3.310651e-01 3.895587e+00 -2.550819e+01 2.183058e+01 -2.665764e-06 1.113218e-02 -1.262270e-01 1.262195e-01
-3.258501e-01 3.888868e+00 -2.317918e+01 2.182435e+01 1.627233e-07 1.122136e-02 -1.262285e-01 1.262162e-01
-3.350428e-01 3.902642e+00 -2.556780e+01 2.182289e+01 -1.724138e-06 1.121612e-02 -1.262284e-01 1.262044e-01
-3.341598e-01 3.913282e+00 -2.558355e+01 2.181380e+01 5.978436e-07 1.109246e-02 -1.262285e-01 1.262238e-01
-3.331152e-01 3.904601e+00 -2.560372e+01 2.180370e+01 -1.270394e-07 1.106962e-02 -1.262283e-01 1.262226e-01
-3.298133e-01 3.908723e+00 -2.563439e+01 2.180267e+01 -3.401901e-06 1.115812e-02 -1.262283e-01 1.262241e-01
-3.375716e-01 3.910645e+00 -2.565084e+01 2.064166e+01 -2.191283e-06 1.117231e-02 -1.262285e-01 1.262103e-01
-3.319155e-01 3.907123e+00 -2.568507e+01 2.179396e+01 1.232383e-07 1.104456e-02 -1.262285e-01 1.262280e-01
-3.285474e-01 3.919589e+00 -2.569085e+01 2.179072e+01 -2.759916e-06 1.108701e-02 -1.262272e-01 1.262271e-01
-3.347053e-01 3.911986e+00 -2.571450e+01 2.178601e+01 -7.819170e-07 1.112635e-02 -1.262284e-01 1.262284e-01
-3.413702e-01 3.911657e+00 -2.574078e+01 2.178433e+01 -4.541992e-06 1.115045e-02 -1.262284e-01 1.262209e-01
-3.373693e-01 3.919138e+00 -2.575811e+01 2.178151e+01 5.193723e-07 1.110022e-02 -1.262283e-01 1.262053e-01
-3.403444e-01 3.936668e+00 -2.577663e+01 2.177207e+01 -5.831942e-06 1.108368e-02 -1.262270e-01 1.262284e-01
-3.378698e-01 3.930254e+00 -2.582145e+01 2.175764e+01 -6.739732e-06 1.110014e-02 -1.262256e-01 1.268780e-01
-3.294848e-01 3.921453e+00 -2.296921e+01 2.175866e+01 -7.458117e-06 1.096782e-02 -1.262282e-01 1.270606e-01
-3.376915e-01 3.930757e+00 -2.584126e+01 2.174489e+01 -4.494510e-06 1.104955e-02 -1.262277e-01 1.278260e-01
-3.382146e-01 3.933536e+00 -2.586120e+01 2.174259e+01 -5.569355e-06 1.108461e-02 -1.262284e-01 1.275277e-01
-3.445500e-01 3.924134e+00 -2.291576e+01 2.173965e+01 -6.139714e-06 1.110305e-02 -1.262285e-01 1.282177e-01
-3.352649e-01 3.931334e+00 -2.590144e+01 2.172921e+01 -4.071983e-06 1.101091e-02 -1.262285e-01 1.289370e-01
-3.494805e-01 3.932054e+00 -2.594074e+01 2.172230e+01 -5.488192e-06 1.110138e-02 -1.262285e-01 1.293295e-01
-3.419806e-01 3.935776e+00 -2.594347e+01 2.172068e+01 -1.055404e-05 1.095581e-02 -1.262284e-01 1.289976e-01
-3.403307e-01 3.956757e+00 -2.595822e+01 2.170514e+01 -8.319069e-06 1.104777e-02 -1.262285e-01 1.298733e-01
-3.412745e-01 3.941914e+00 -2.597970e+01 2.169766e+01 -5.532135e-06 1.096268e-02 -1.262285e-01 1.304535e-01
-3.428012e-01 3.942480e+00 -2.597898e+01 2.168976e+01 -4.850459e-06 1.097657e-02 -1.262283e-01 1.305703e-01
-3.395817e-01 3.945846e+00 -2.599567e+01 2.168657e+01 -1.354417e-06 1.090529e-02 -1.262281e-01 1.309974e-01
-3.354223e-01 3.946086e+00 -2.602677e+01 2.168706e+01 -6.888295e-06 1.089328e-02 -1.262284e-01 1.310572e-01
-3.255842e-01 3.944535e+00 -2.602927e+01 2.168704e+01 -8.640722e-06 1.100937e-02 -1.262285e-01 1.321785e-01
-3.309825e-01 3.951633e+00 -2.604797e+01 2.167964e+01 -4.290763e-06 1.098003e-02 -1.262284e-01 1.324404e-01
-3.339210e-01 3.949293e+00 -2.605316e+01 2.167355e+01 -1.078165e-05 1.108880e-02 -1.262284e-01 1.326756e-01
-3.374626e-01 3.954486e+00 -2.606174e+01 2.166446e+01 -7.700570e-06 1.090773e-02 -1.262283e-01 1.334478e-01
-3.364760e-01 3.952230e+00 -2.607121e+01 2.165154e+01 -5.740935e-06 1.097406e-02 -1.262284e-01 1.340005e-01
-3.446624e-01 3.951750e+00 -2.609343e+01 2.164435e+01 -4.138810e-06 1.095652e-02 -1.262284e-01 1.331890e-01
-3.297466e-01 3.958151e+00 -2.609819e+01 2.164101e+01 -9.667305e-06 1.099677e-02 -1.262282e-01 1.346973e-01
-3.349104e-01 3.953575e+00 -2.610744e+01 2.164026e+01 -5.005271e-06 1.092313e-02 -1.262255e-01 1.349498e-01
-3.384214e-01 3.950193e+00 -2.612922e+01 2.162886e+01 -7.588673e-06 1.095948e-02 -1.262283e-01 1.354231e-01
-3.292481e-01 3.949852e+00 -2.612477e+01 2.162109e+01 -6.606782e-06 1.101745e-02 -1.262282e-01 1.354166e-01
-3.421404e-01 3.951997e+00 -2.613439e+01 2.161520e+01 -6.070153e-06 1.107130e-02 -1.262274e-01 1.357339e-01
-3.379513e-01 3.956503e+00 -2.291370e+01 2.161032e+01 -4.254617e-06 1.094215e-02 -1.262562e-01 1.364227e-01
-3.220422e-01 3.956871e+00 -2.615078e+01 2.160230e+01 -3.256206e-06 1.098517e-02 -1.262283e-01 1.363270e-01
-3.336543e-01 3.958089e+00 -2.615930e+01 2.160543e+01 -4.850315e-06 1.100407e-02 -1.262282e-01 1.370583e-01
-3.302308e-01 3.961370e+00 -2.616572e+01 2.160326e+01 -2.030771e-06 1.105592e-02 -1.262284e-01 1.375508e-01
-3.303019e-01 3.966567e+00 -2.618183e+01 2.161540e+01 -6.215084e-06 1.085100e-02 -1.262284e-01 1.374619e-01
-3.250077e-01 3.961651e+00 -2.618142e+01 2.160910e+01 7.646987e-07 1.098772e-02 -1.262282e-01 1.382112e-01
-3.270021e-01 3.958305e+00 -2.619521e+01 2.164155e+01 -3.548363e-06 1.092709e-02 -1.262278e-01 1.383468e-01
-3.269668e-01 3.965659e+00 -2.619991e+01 2.169559e+01 -4.009650e-07 1.087878e-02 -1.262284e-01 1.384580e-01
-3.304995e-01 3.965532e+00 -2.620461e+01 2.170956e+01 -2.333356e-06 1.101682e-02 -1.262282e-01 1.389712e-01
-3.276025e-01 3.969673e+00 -2.621693e+01 2.171183e+01 -2.499965e-06 1.089535e-02 -1.262264e-01 1.392614e-01
-3.286750e-01 3.975055e+00 -2.621243e+01 2.174252e+01 -4.183980e-06 1.092080e-02 -1.279575e-01 1.394753e-01
-3.233321e-01 3.962960e+00 -2.622616e+01 2.155706e+01 -2.377925e-06 1.095875e-02 -1.275413e-01 1.389900e-01
-3.235366e-01 3.972396e+00 -2.623068e+01 2.177615e+01 1.050633e-06 1.090362e-02 -1.278657e-01 1.396057e-01
-3.205361e-01 3.969783e+00 -2.623681e+01 2.180180e+01 4.498697e-06 1.080936e-02 -1.280864e-01 1.388461e-01
-3.292689e-01 3.972862e+00 -2.624301e+01 2.182092e+01 -1.682854e-06 1.101605e-02 -1.285342e-01 1.396605e-01
-3.303850e-01 3.980678e+00 -2.625075e+01 2.184670e+01 -1.481082e-06 1.101202e-02 -1.289356e-01 1.405340e-01
-3.246728e-01 3.961966e+00 -2.624968e+01 2.186927e+01 -4.867941e-06 1.103835e-02 -1.277726e-01 1.393828e-01
-3.173628e-01 3.977545e+00 -2.625348e+01 2.186318e+01 -7.239562e-07 1.090958e-02 -1.294333e-01 1.403512e-01
-3.294494e-01 3.980417e+00 -2.626030e+01 2.187551e+01 -3.743115e-06 1.100608e-02 -1.286495e-01 1.399881e-01
-3.271176e-01 3.972043e+00 -2.626736e+01 2.189002e+01 -5.462534e-06 1.110916e-02 -1.287684e-01 1.398526e-01
-3.239693e-01 3.974795e+00 -2.625820e+01 2.190749e+01 -3.789110e-06 1.085717e-02 -1.294009e-01 1.408719e-01
-3.227199e-01 3.979984e+00 -2.626316e+01 2.142114e+01 -1.800863e-06 1.101211e-02 -1.298113e-01 1.402746e-01
-3.211271e-01 3.972752e+00 -2.626915e+01 2.192795e+01 6.896618e-06 1.090726e-02 -1.295743e-01 1.413096e-01
-3.154409e-01 3.970509e+00 -2.626854e+01 2.195268e+01 -3.978139e-06 1.097451e-02 -1.301581e-01 1.408516e-01
-3.254027e-01 3.970205e+00 -2.626858e+01 2.196781e+01 -7.458472e-06 1.098949e-02 -1.296750e-01 1.416273e-01
-3.224874e-01 3.977339e+00 -2.627114e+01 2.197173e+01 2.676530e-08 1.092710e-02 -1.310244e-01 1.415830e-01
-3.197973e-01 3.979453e+00 -2.626528e+01 2.198733e+01 -1.115814e-06 1.092255e-02 -1.308723e-01 1.422010e-01
-3.160562e-01 3.974748e+00 -2.627416e+01 2.198886e+01 -4.061032e-06 1.088270e-02 -1.310677e-01 1.426997e-01
-3.224762e-01 3.981625e+00 -2.628614e+01 2.150142e+01 -1.362970e-06 1.093707e-02 -1.310272e-01 1.428495e-01
-3.124556e-01 3.997994e+00 -2.629070e+01 2.196715e+01 -2.223249e-06 1.097697e-02 -1.313105e-01 1.434744e-01
-3.232762e-01 3.990179e+00 -2.628632e+01 2.198806e+01 -7.097565e-07 1.096876e-02 -1.312737e-01 1.442922e-01
-3.189960e-01 3.992371e+00 -2.628187e+01 2.199877e+01 -9.632636e-07 1.089739e-02 -1.316332e-01 1.445512e-01
-3.185934e-01 3.990093e+00 -2.628387e+01 2.201442e+01 -2.214693e-06 1.097501e-02 -1.320919e-01 1.452244e-01
-3.142060e-01 3.976278e+00 -2.628576e+01 2.200168e+01 -2.061826e-06 1.102101e-02 -1.313255e-01 1.448660e-01
-3.179535e-01 3.991392e+00 -2.628758e+01 2.200954e+01 3.962796e-06 1.083324e-02 -1.324498e-01 1.449783e-01
-3.027864e-01 3.990861e+00 -2.628001e+01 2.202502e+01 1.342206e-06 1.097042e-02 -1.325019e-01 1.462030e-01
-3.047592e-01 3.979785e+00 -2.627852e+01 2.204855e+01 -3.883032e-06 1.101046e-02 -1.328745e-01 1.469501e-01
-3.081154e-01 3.989260e+00 -2.631208e+01 2.205360e+01 -3.663056e-06 1.095547e-02 -1.328281e-01 1.465889e-01
-3.126731e-01 3.987803e+00 -2.629419e+01 2.159789e+01 2.244631e-06 1.092327e-02 -1.328973e-01 1.478957e-01
-3.154536e-01 3.987876e+00 -2.629135e+01 2.208304e+01 3.128772e-06 1.102312e-02 -1.340658e-01 1.478080e-01
-3.008051e-01 3.985127e+00 -2.629429e+01 2.205695e+01 8.773420e-07 1.095862e-02 -1.333801e-01 1.488876e-01
-3.120399e-01 3.982894e+00 -2.631236e+01 2.206988e+01 4.095381e-07 1.101989e-02 -1.338814e-01 1.475442e-01
-3.010112e-01 3.996129e+00 -2.629840e+01 2.206931e+01 -1.043738e-06 1.094964e-02 -1.346462e-01 1.494058e-01
-3.091431e-01 3.995272e+00 -2.630709e+01 2.207805e+01 -3.554217e-06 1.105691e-02 -1.336979e-01 1.492113e-01
-3.079254e-01 3.994322e+00 -2.629801e+01 2.159749e+01 3.250637e-06 1.102629e-02 -1.351490e-01 1.494320e-01
-3.019024e-01 3.989782e+00 -2.630656e+01 2.210239e+01 -3.512390e-06 1.109119e-02 -1.337104e-01 1.501629e-01
-3.076055e-01 4.006730e+00 -2.631308e+01 2.211134e+01 3.509011e-06 1.102993e-02 -1.347626e-01 1.506994e-01
-2.963335e-01 3.996084e+00 -2.631560e+01 2.213128e+01 2.015036e-06 1.106728e-02 -1.339206e-01 1.504005e-01
-2.920540e-01 4.003698e+00 -2.631167e+01 2.211846e+01 -3.434852e-06 1.101743e-02 -1.344121e-01 1.513758e-01
-3.015818e-01 4.002004e+00 -2.632063e+01 2.214343e+01 -1.217551e-06 1.105162e-02 -1.341315e-01 1.514555e-01
-2.964299e-01 4.000980e+00 -2.632617e+01 2.211150e+01 -2.952693e-06 1.099372e-02 -1.353003e-01 1.519750e-01
-2.932498e-01 4.003899e+00 -2.632420e+01 2.213407e+01 -1.933893e-06 1.105044e-02 -1.347360e-01 1.514636e-01
-2.916724e-01 4.008895e+00 -2.634169e+01 2.214586e+01 -2.067318e-06 1.099063e-02 -1.344589e-01 1.523074e-01
-2.831898e-01 4.004026e+00 -2.634533e+01 2.217848e+01 4.678729e-07 1.110688e-02 -1.364330e-01 1.519256e-01
-2.936511e-01 3.999673e+00 -2.635013e+01 2.216470e+01 -1.745863e-06 1.092441e-02 -1.363223e-01 1.530604e-01
-2.927636e-01 4.008606e+00 -2.635194e+01 2.160102e+01 2.893319e-07 1.104676e-02 -1.354612e-01 1.522826e-01
-2.963151e-01 4.000714e+00 -2.636732e+01 2.219199e+01 2.063158e-06 1.118375e-02 -1.368748e-01 1.529685e-01
-2.843651e-01 4.005362e+00 -2.372106e+01 2.216878e+01 2.723985e-06 1.116550e-02 -1.371015e-01 1.529127e-01
-2.808080e-01 4.007136e+00 -2.635688e+01 2.219958e+01 -2.258601e-06 1.113456e-02 -1.362673e-01 1.536488e-01
-2.803917e-01 4.019018e+00 -2.637110e+01 2.220377e+01 -4.292460e-07 1.104970e-02 -1.362471e-01 1.538934e-01
-2.905026e-01 4.008052e+00 -2.635391e+01 2.221209e+01 -3.560126e-06 1.110861e-02 -1.372197e-01 1.545903e-01
-2.821316e-01 4.022134e+00 -2.635130e+01 2.222307e+01 7.748430e-06 1.113683e-02 -1.376223e-01 1.551726e-01
-2.825574e-01 4.019379e+00 -2.636306e+01 2.156698e+01 3.227735e-06 1.113418e-02 -1.358552e-01 1.548884e-01
-2.748219e-01 4.010908e+00 -2.635840e+01 2.223854e+01 -2.077630e-06 1.118144e-02 -1.362866e-01 1.552774e-01
-2.762138e-01 4.007726e+00 -2.635097e+01 2.224502e+01 -3.117730e-06 1.118271e-02 -1.382703e-01 1.558052e-01
-2.778637e-01 4.020117e+00 -2.634942e+01 2.226332e+01 2.780319e-06 1.123487e-02 -1.375599e-01 1.563893e-01
-2.711664e-01 4.025727e+00 -2.636231e+01 2.225854e+01 1.229718e-06 1.118852e-02 -1.368113e-01 1.567712e-01
-2.728575e-01 4.021301e+00 -2.635952e+01 2.227237e+01 5.599910e-06 1.115521e-02 -1.401436e-01 1.575049e-01
-2.670589e-01 4.025069e+00 -2.635517e+01 2.229731e+01 2.465458e-06 1.117236e-02 -1.395240e-01 1.577064e-01
-2.703056e-01 4.027863e+00 -2.635480e+01 2.229199e+01 4.530619e-06 1.117271e-02 -1.415122e-01 1.589691e-01
-2.688476e-01 4.018695e+00 -2.636204e+01 2.228135e+01 -3.959286e-06 1.114660e-02 -1.415868e-01 1.591684e-01
-2.675723e-01 4.020596e+00 -2.635833e+01 2.229547e+01 3.503862e-06 1.114991e-02 -1.424734e-01 1.591092e-01
-2.645209e-01 4.026335e+00 -2.636599e+01 2.227443e+01 3.920540e-06 1.121953e-02 -1.419398e-01 1.594264e-01
-2.510239e-01 4.021906e+00 -2.635834e+01 2.231847e+01 -3.309213e-06 1.129079e-02 -1.431590e-01 1.605143e-01
-2.626615e-01 4.020311e+00 -2.636404e+01 2.230746e+01 -2.555044e-07 1.112639e-02 -1.443783e-01 1.606864e-01
-2.511371e-01 4.025169e+00 -2.635287e+01 2.230955e+01 5.245065e-07 1.128702e-02 -1.438930e-01 1.612419e-01
-2.617780e-01 4.028125e+00 -2.636247e+01 2.229964e+01 -1.139700e-06 1.126172e-02 -1.440841e-01 1.617981e-01
-2.534757e-01 4.028925e+00 -2.637021e+01 2.231097e+01 8.434241e-06 1.123765e-02 -1.466232e-01 1.618628e-01
-2.450533e-01 4.022054e+00 -2.636380e+01 2.232290e+01 -3.793085e-06 1.126024e-02 -1.479547e-01 1.624840e-01
-2.488811e-01 4.029813e+00 -2.637310e+01 2.232407e+01 6.536368e-06 1.131410e-02 -1.425956e-01 1.628151e-01
-2.512031e-01 4.034429e+00 -2.638090e+01 2.232111e+01 2.396105e-06 1.134096e-02 -1.477326e-01 1.631739e-01
-2.584010e-01 4.041804e+00 -2.636761e+01 2.234283e+01 1.035798e-05 1.130435e-02 -1.449273e-01 1.630291e-01
-2.562428e-01 4.034165e+00 -2.638161e+01 2.234593e+01 2.868803e-06 1.116196e-02 -1.479595e-01 1.642911e-01
-2.565807e-01 4.031363e+00 -2.637320e+01 2.235443e+01 4.457416e-06 1.139437e-02 -1.483962e-01 1.639352e-01
-2.554438e-01 4.054547e+00 -2.638302e+01 2.238455e+01 -3.278830e-06 1.130604e-02 -1.492112e-01 1.644409e-01
-2.428458e-01 4.036710e+00 -2.636563e+01 2.237592e+01 4.233182e-06 1.124110e-02 -1.491615e-01 1.638056e-01
-2.478747e-01 4.036867e+00 -2.636328e+01 2.238833e+01 7.468927e-06 1.132323e-02 -1.509074e-01 1.643285e-01
-2.457753e-01 4.045163e+00 -2.635741e+01 2.237598e+01 2.782831e-06 1.143102e-02 -1.513955e-01 1.655002e-01
-2.433818e-01 4.045199e+00 -2.635295e+01 2.238841e+01 2.699055e-06 1.128202e-02 -1.525102e-01 1.653019e-01
-2.326700e-01 4.045918e+00 -2.636994e+01 2.239447e+01 -1.320693e-06 1.127585e-02 -1.526266e-01 1.656616e-01
-2.323587e-01 4.049745e+00 -2.635474e+01 2.236901e+01 5.195861e-06 1.132753e-02 -1.523798e-01 1.670140e-01
-2.301041e-01 4.044946e+00 -2.637146e+01 2.236537e+01 2.361523e-06 1.139308e-02 -1.516094e-01 1.670511e-01
-2.344265e-01 4.037951e+00 -2.637725e+01 2.236368e+01 2.053969e-06 1.144872e-02 -1.539029e-01 1.640545e-01
-2.268447e-01 4.040348e+00 -2.638218e+01 2.235150e+01 5.537777e-06 1.141275e-02 -1.549944e-01 1.688349e-01
-2.230385e-01 4.058001e+00 -2.636921e+01 2.234752e+01 5.790511e-06 1.130651e-02 -1.556985e-01 1.692797e-01
-2.376892e-01 4.044489e+00 -2.637740e+01 2.237631e+01 1.265969e-06 1.156637e-02 -1.540016e-01 1.702524e-01
-2.240805e-01 4.054017e+00 -2.638319e+01 2.236044e+01 3.531722e-06 1.146423e-02 -1.575791e-01 1.710224e-01
-2.245361e-01 4.063540e+00 -2.637962e+01 2.235179e+01 7.717961e-06 1.155332e-02 -1.537676e-01 1.716402e-01
-2.261546e-01 4.056700e+00 -2.637444e+01 2.235385e+01 4.676316e-06 1.156239e-02 -1.555045e-01 1.727925e-01
-2.145460e-01 4.052700e+00 -2.639098e+01 2.233463e+01 5.117557e-06 1.154393e-02 -1.559914e-01 1.727617e-01
-2.200120e-01 4.062163e+00 -2.636856e+01 2.234566e+01 4.795243e-06 1.137614e-02 -1.526627e-01 1.738016e-01
-2.278298e-01 4.053783e+00 -2.638127e+01 2.233479e+01 7.867717e-06 1.160972e-02 -1.581296e-01 1.740421e-01
-2.238072e-01 4.058196e+00 -2.636587e+01 2.232118e+01 7.430062e-06 1.158407e-02 -1.562583e-01 1.748277e-01
-2.249373e-01 4.061227e+00 -2.636621e+01 2.232431e+01 3.725828e-06 1.169172e-02 -1.590737e-01 1.757249e-01
-2.202121e-01 4.070704e+00 -2.634240e+01 2.234304e+01 1.035646e-05 1.146001e-02 -1.592128e-01 1.763637e-01
-2.283407e-01 4.080602e+00 -2.635375e+01 2.233073e+01 4.380189e-06 1.169841e-02 -1.588291e-01 1.775679e-01
-2.186853e-01 4.077139e+00 -2.635089e+01 2.232236e+01 6.427914e-06 1.177699e-02 -1.597660e-01 1.779292e-01
-2.183462e-01 4.071450e+00 -2.634857e+01 2.235021e+01 1.297282e-05 1.172815e-02 -1.591238e-01 1.781589e-01
-2.159680e-01 4.075114e+00 -2.635208e+01 2.198719e+01 4.413665e-06 1.178576e-02 -1.617558e-01 1.794744e-01
-2.124788e-01 4.070111e+00 -2.631665e+01 2.233542e+01 4.327008e-06 1.175578e-02 -1.609459e-01 1.800416e-01
-2.054237e-01 4.072852e+00 -2.633063e+01 2.233808e+01 7.194856e-06 1.169695e-02 -1.643525e-01 1.807092e-01
-2.110765e-01 4.080546e+00 -2.631884e+01 2.233705e+01 5.714390e-06 1.185545e-02 -1.632344e-01 1.815437e-01
-2.097275e-01 4.082407e+00 -2.632786e+01 2.230709e+01 5.229740e-06 1.178013e-02 -1.727283e-01 1.823055e-01
-2.037309e-01 4.084871e+00 -2.629999e+01 2.231601e+01 1.175544e-05 1.183139e-02 -1.783403e-01 1.833980e-01
-2.090812e-01 4.081952e+00 -2.630653e+01 2.231507e+01 4.192111e-06 1.199744e-02 -1.867175e-01 1.867175e-01
-2.047865e-01 4.091175e+00 -2.629916e+01 2.228888e+01 1.286518e-06 1.192939e-02 -1.874810e-01 1.874810e-01
-2.026954e-01 4.088914e+00 -2.628968e+01 2.229345e+01 3.762418e-06 1.192102e-02 -1.876420e-01 1.876420e-01
-2.005232e-01 4.086959e+00 -2.629699e+01 2.227628e+01 3.285618e-06 1.179185e-02 -1.831803e-01 1.831803e-01
-1.983622e-01 4.089761e+00 -2.627389e+01 2.227240e+01 8.011816e-06 1.198228e-02 -1.794689e-01 1.868392e-01
-1.989219e-01 4.090673e+00 -2.628111e+01 2.225282e+01 1.016626e-05 1.203572e-02 -1.738087e-01 1.875843e-01
-1.896812e-01 4.073606e+00 -2.626674e+01 2.225529e+01 2.699132e-06 1.191625e-02 -1.675242e-01 1.882829e-01
-1.969314e-01 4.094722e+00 -2.628280e+01 2.228145e+01 5.346396e-06 1.207968e-02 -1.660302e-01 1.883862e-01
-2.030824e-01 4.107635e+00 -2.628145e+01 2.229345e+01 1.658701e-06 1.201703e-02 -1.699688e-01 1.881703e-01
-1.890963e-01 4.096050e+00 -2.629918e+01 2.230922e+01 7.714312e-06 1.200558e-02 -1.678746e-01 1.886663e-01
-1.961531e-01 4.098438e+00 -2.628137e+01 2.232795e+01 5.470047e-06 1.195675e-02 -1.623653e-01 1.903788e-01
-1.920522e-01 4.100763e+00 -2.626811e+01 2.217922e+01 1.548848e-06 1.206836e-02 -1.670393e-01 1.898833e-01
-1.912306e-01 4.104284e+00 -2.627349e+01 2.236030e+01 1.025431e-05 1.213957e-02 -1.701956e-01 1.904341e-01
-1.883325e-01 4.101798e+00 -2.624244e+01 2.236494e+01 7.000369e-06 1.202371e-02 -1.710161e-01 1.917812e-01
-1.904546e-01 4.101558e+00 -2.623893e+01 2.237328e+01 7.315653e-06 1.210452e-02 -1.711699e-01 1.911947e-01
-1.904260e-01 4.101508e+00 -2.624759e+01 2.239715e+01 1.104624e-06 1.209715e-02 -1.662761e-01 1.914408e-01
-1.803147e-01 4.109973e+00 -2.624218e+01 2.210445e+01 7.042957e-07 1.220744e-02 -1.721901e-01 1.938680e-01
-1.884425e-01 4.111741e+00 -2.624178e+01 2.241162e+01 1.494835e-06 1.220782e-02 -1.720051e-01 1.922184e-01
-1.849013e-01 4.108657e+00 -2.586665e+01 2.242532e+01 6.667812e-06 1.237870e-02 -1.724045e-01 1.922779e-01
-1.757548e-01 4.106335e+00 -2.622720e+01 2.240918e+01 1.084956e-07 1.234757e-02 -1.724208e-01 1.920684e-01
-1.693427e-01 4.110010e+00 -2.622208e+01 2.245760e+01 2.894299e-06 1.221100e-02 -1.734000e-01 1.961177e-01
-1.741634e-01 4.112794e+00 -2.597998e+01 2.244859e+01 4.891158e-06 1.230607e-02 -1.716927e-01 1.942391e-01
-1.723083e-01 4.115924e+00 -2.621086e+01 2.246539e+01 -1.819548e-07 1.228826e-02 -1.733717e-01 1.951420e-01
-1.753467e-01 4.123768e+00 -2.619027e+01 2.248365e+01 5.366367e-06 1.230940e-02 -1.741466e-01 1.965275e-01
-1.753419e-01 4.128796e+00 -2.619148e+01 2.248451e+01 -3.482485e-06 1.213860e-02 -1.733187e-01 1.967543e-01
-1.779822e-01 4.121075e+00 -2.618645e+01 2.250025e+01 6.067217e-06 1.219305e-02 -1.761075e-01 1.981313e-01
-1.681797e-01 4.122979e+00 -2.618248e+01 2.248719e+01 5.995490e-06 1.228408e-02 -1.774090e-01 1.982806e-01
-1.728646e-01 4.120374e+00 -2.619218e+01 2.250537e+01 5.908254e-07 1.228671e-02 -1.756735e-01 1.983421e-01
-1.696695e-01 4.124343e+00 -2.623374e+01 2.251112e+01 -2.449866e-07 1.215750e-02 -1.772589e-01 1.994390e-01
-1.652030e-01 4.130835e+00 -2.630418e+01 2.251743e+01 4.520218e-06 1.233345e-02 -1.795341e-01 1.978607e-01
-1.682293e-01 4.133231e+00 -2.632003e+01 2.252608e+01 -2.921644e-06 1.220790e-02 -1.783409e-01 1.984432e-01
-1.642519e-01 4.142069e+00 -2.638207e+01 2.252517e+01 3.108290e-06 1.224725e-02 -1.774340e-01 2.005001e-01
-1.696517e-01 4.128891e+00 -2.639434e+01 2.252755e+01 5.341102e-07 1.212678e-02 -1.808731e-01 1.972504e-01
-1.656155e-01 4.136576e+00 -2.644061e+01 2.253568e+01 -2.705004e-06 1.223415e-02 -1.818964e-01 1.998003e-01
-1.766981e-01 4.138217e+00 -2.645829e+01 2.254122e+01 6.134097e-06 1.223427e-02 -1.838590e-01 1.979951e-01
-1.693687e-01 4.140313e+00 -2.611234e+01 2.253982e+01 -7.445962e-08 1.208879e-02 -1.843898e-01 1.984600e-01
-1.669583e-01 4.143652e+00 -2.652023e+01 2.254329e+01 -5.034776e-06 1.214139e-02 -1.808412e-01 2.014565e-01
-1.688929e-01 4.150897e+00 -2.658469e+01 2.182910e+01 5.029879e-07 1.234001e-02 -1.837132e-01 2.009147e-01
-1.521078e-01 4.140243e+00 -2.659444e+01 2.254818e+01 2.046763e-06 1.219181e-02 -1.868889e-01 1.970266e-01
-1.571895e-01 4.150635e+00 -2.661901e+01 2.257267e+01 6.133975e-06 1.211059e-02 -1.860278e-01 1.998925e-01
-1.516027e-01 4.140193e+00 -2.664798e+01 2.257135e+01 5.716151e-07 1.208853e-02 -1.862558e-01 2.022569e-01
-1.635444e-01 4.150934e+00 -2.668880e+01 2.177667e+01 1.917811e-06 1.227770e-02 -1.900844e-01 1.971222e-01
-1.500479e-01 4.145368e+00 -2.672417e+01 2.257275e+01 -8.822829e-06 1.209654e-02 -1.833062e-01 2.032594e-01
-1.603949e-01 4.149013e+00 -2.675335e+01 2.257856e+01 3.311035e-06 1.207363e-02 -1.906058e-01 1.981623e-01
-1.538060e-01 4.151376e+00 -2.679433e+01 2.259907e+01 2.531091e-06 1.196121e-02 -1.931690e-01 2.049183e-01
-1.545299e-01 4.144298e+00 -2.680512e+01 2.258832e+01 -2.325799e-06 1.203637e-02 -1.897358e-01 2.050353e-01
-1.522714e-01 4.150722e+00 -2.683100e+01 2.261467e+01 2.901958e-06 1.215077e-02 -1.926444e-01 2.046323e-01
-1.610691e-01 4.171556e+00 -2.686016e+01 2.261558e+01 -2.473674e-06 1.192883e-02 -1.975137e-01 2.078916e-01
-1.522650e-01 4.160479e+00 -2.689019e+01 2.261433e+01 4.511295e-07 1.199047e-02 -1.960779e-01 2.001412e-01
-1.551370e-01 4.166474e+00 -2.691183e+01 2.262844e+01 -1.357124e-06 1.195024e-02 -1.930271e-01 2.101225e-01
-1.640897e-01 4.157946e+00 -2.693547e+01 2.163344e+01 -9.088067e-06 1.199078e-02 -1.961950e-01 2.084433e-01
-1.402896e-01 4.169360e+00 -2.695370e+01 2.265085e+01 -3.413603e-06 1.167957e-02 -1.960326e-01 2.083859e-01
-1.558128e-01 4.157646e+00 -2.697242e+01 2.265143e+01 -1.444464e-07 1.189468e-02 -2.012554e-01 2.029945e-01
-1.513741e-01 4.169423e+00 -2.701284e+01 2.266023e+01 -4.199032e-06 1.189496e-02 -1.983535e-01 2.014676e-01
-1.483383e-01 4.168229e+00 -2.703822e+01 2.266953e+01 2.175017e-06 1.188739e-02 -1.984890e-01 2.095848e-01
-1.492750e-01 4.166617e+00 -2.705122e+01 2.154166e+01 -4.278578e-06 1.181712e-02 -1.985184e-01 2.133274e-01
-1.588914e-01 4.177019e+00 -2.706205e+01 2.269452e+01 -4.042481e-06 1.174204e-02 -2.007033e-01 2.081046e-01
-1.486840e-01 4.170172e+00 -2.588399e+01 2.269489e+01 -5.315220e-06 1.176881e-02 -2.030659e-01 2.110088e-01
-1.501160e-01 4.179523e+00 -2.710977e+01 2.272889e+01 -4.723459e-06 1.192990e-02 -2.015336e-01 2.127523e-01
-1.559086e-01 4.180287e+00 -2.712922e+01 2.274197e+01 -2.549175e-06 1.170430e-02 -2.053966e-01 2.062106e-01
-1.535539e-01 4.171319e+00 -2.715202e+01 2.275216e+01 -3.501727e-06 1.175912e-02 -2.029568e-01 2.136333e-01
-1.546544e-01 4.189682e+00 -2.716924e+01 2.277558e+01 -1.161571e-06 1.169003e-02 -2.019232e-01 2.127660e-01
-1.498813e-01 4.186058e+00 -2.578598e+01 2.280122e+01 -1.311727e-07 1.173603e-02 -2.056216e-01 2.134888e-01
-1.318621e-01 4.192904e+00 -2.718681e+01 2.281369e+01 -5.812616e-06 1.176472e-02 -2.090970e-01 2.093014e-01
-1.349875e-01 4.185465e+00 -2.720064e+01 2.281599e+01 -7.737003e-06 1.162197e-02 -2.074807e-01 2.129712e-01
-1.347950e-01 4.190982e+00 -2.722308e+01 2.282909e+01 -9.676130e-06 1.172744e-02 -2.117877e-01 2.159947e-01
-1.450128e-01 4.190486e+00 -2.721787e+01 2.285294e+01 -4.936707e-06 1.181895e-02 -2.117454e-01 2.174210e-01
-1.460260e-01 4.194908e+00 -2.721519e+01 2.287254e+01 -3.754204e-06 1.171244e-02 -2.128874e-01 2.130565e-01
-1.384338e-01 4.200159e+00 -2.571071e+01 2.289440e+01 -4.960142e-06 1.163253e-02 -2.131537e-01 2.182040e-01
-1.379809e-01 4.193762e+00 -2.726531e+01 2.294288e+01 -8.404425e-06 1.169992e-02 -2.128875e-01 2.228242e-01
-1.527565e-01 4.204945e+00 -2.730617e+01 2.295438e+01 -2.178165e-06 1.167570e-02 -2.143982e-01 2.143142e-01
-1.487025e-01 4.201630e+00 -2.730098e+01 2.298217e+01 -7.101216e-06 1.163590e-02 -2.136362e-01 2.158585e-01
-1.598953e-01 4.206310e+00 -2.732596e+01 2.299071e+01 -4.936268e-06 1.189188e-02 -2.165946e-01 2.120606e-01
-1.490655e-01 4.210585e+00 -2.733270e+01 2.301393e+01 -9.320651e-06 1.157551e-02 -2.130667e-01 2.217987e-01
-1.482647e-01 4.206260e+00 -2.735524e+01 2.304253e+01 -7.070345e-06 1.177637e-02 -2.198054e-01 2.121631e-01
-1.433538e-01 4.199472e+00 -2.737591e+01 2.306000e+01 -1.289469e-05 1.177131e-02 -2.143197e-01 2.215129e-01
-1.501108e-01 4.211122e+00 -2.736686e+01 2.308690e+01 -7.617572e-06 1.161525e-02 -2.166138e-01 2.199614e-01
-1.424702e-01 4.211924e+00 -2.739141e+01 2.310607e+01 -7.051663e-06 1.160610e-02 -2.214003e-01 2.122929e-01
-1.366730e-01 4.204162e+00 -2.739081e+01 2.313150e+01 -8.623881e-06 1.169904e-02 -2.181210e-01 2.209659e-01
-1.389780e-01 4.211793e+00 -2.741659e+01 2.315721e+01 -3.616674e-06 1.154000e-02 -2.224743e-01 2.136720e-01
-1.328596e-01 4.213231e+00 -2.743217e+01 2.316596e+01 -7.013347e-06 1.149237e-02 -2.193863e-01 2.178634e-01
-1.393336e-01 4.212140e+00 -2.559904e+01 2.320969e+01 -3.676872e-06 1.137454e-02 -2.208221e-01 2.172236e-01
-1.369999e-01 4.221770e+00 -2.746993e+01 2.322268e+01 -7.335944e-06 1.171367e-02 -2.247293e-01 2.174571e-01
-1.372855e-01 4.216713e+00 -2.747019e+01 2.327531e+01 -1.083064e-05 1.165755e-02 -2.204897e-01 2.151685e-01
-1.451120e-01 4.230381e+00 -2.748392e+01 2.327732e+01 -6.768994e-06 1.150444e-02 -2.205076e-01 2.240051e-01
-1.455981e-01 4.217092e+00 -2.751512e+01 2.334166e+01 -8.964072e-06 1.169255e-02 -2.224513e-01 2.281034e-01
-1.401360e-01 4.229260e+00 -2.751653e+01 2.335475e+01 -4.012808e-06 1.145983e-02 -2.227585e-01 2.229457e-01
-1.351767e-01 4.222017e+00 -2.555825e+01 2.339412e+01 -5.876772e-06 1.148574e-02 -2.276082e-01 2.194788e-01
-1.362281e-01 4.220787e+00 -2.754481e+01 2.343026e+01 -1.061192e-05 1.139148e-02 -2.287966e-01 2.165050e-01
-1.450087e-01 4.218916e+00 -2.756140e+01 2.345876e+01 -7.451503e-06 1.142747e-02 -2.256784e-01 2.245545e-01
-1.387038e-01 4.231082e+00 -2.756641e+01 2.346727e+01 3.764965e-08 1.159801e-02 -2.283837e-01 2.177027e-01
-1.510362e-01 4.228806e+00 -2.757505e+01 2.349775e+01 -8.559899e-06 1.130827e-02 -2.303164e-01 2.235714e-01
-1.411088e-01 4.234823e+00 -2.757785e+01 2.351533e+01 -4.607325e-06 1.131124e-02 -2.289822e-01 2.213094e-01
-1.367436e-01 4.242392e+00 -2.759346e+01 2.354986e+01 -8.928912e-06 1.130167e-02 -2.306094e-01 2.347570e-01
-1.426667e-01 4.231982e+00 -2.759388e+01 2.357594e+01 -1.331263e-06 1.127929e-02 -2.314357e-01 2.180596e-01
-1.331245e-01 4.237412e+00 -2.761167e+01 2.358722e+01 -4.155952e-06 1.119441e-02 -2.321346e-01 2.274977e-01
-1.404506e-01 4.236741e+00 -2.761852e+01 2.359925e+01 -5.395553e-06 1.121937e-02 -2.333773e-01 2.162152e-01
-1.414545e-01 4.245462e+00 -2.762938e+01 2.365386e+01 -5.468319e-06 1.119360e-02 -2.337575e-01 2.244000e-01
-1.407357e-01 4.238225e+00 -2.764441e+01 2.366069e+01 -8.204140e-06 1.130433e-02 -2.353493e-01 2.205164e-01
-1.370392e-01 4.246986e+00 -2.764587e+01 2.371596e+01 -1.031232e-06 1.092300e-02 -2.363838e-01 2.193286e-01
-1.374266e-01 4.250413e+00 -2.766018e+01 2.371304e+01 -6.163686e-06 1.110234e-02 -2.367171e-01 2.206194e-01
-1.412759e-01 4.254296e+00 -2.766397e+01 2.373576e+01 -2.650465e-06 1.116455e-02 -2.366987e-01 2.205401e-01
-1.352203e-01 4.245976e+00 -2.766818e+01 2.377655e+01 -6.350800e-06 1.088484e-02 -2.379488e-01 2.229702e-01
-1.298217e-01 4.246154e+00 -2.766220e+01 2.377515e+01 -1.750573e-06 1.102468e-02 -2.362344e-01 2.230694e-01
-1.452905e-01 4.257273e+00 -2.767074e+01 2.381515e+01 -7.083665e-06 1.097181e-02 -2.378096e-01 2.255475e-01
-1.509436e-01 4.258778e+00 -2.767390e+01 2.382891e+01 -3.356052e-06 1.085881e-02 -2.393947e-01 2.172387e-01
-1.398798e-01 4.262948e+00 -2.767645e+01 2.386502e+01 1.238971e-06 1.083501e-02 -2.395013e-01 2.274738e-01
-1.326766e-01 4.256003e+00 -2.768838e+01 2.388089e+01 -1.494794e-06 1.080091e-02 -2.401832e-01 2.203881e-01
-1.408456e-01 4.261763e+00 -2.770424e+01 2.387782e+01 -3.014885e-06 1.079650e-02 -2.349048e-01 2.263786e-01
-1.402222e-01 4.260191e+00 -2.771365e+01 2.391334e+01 -5.576828e-06 1.065959e-02 -2.410138e-01 2.227241e-01
-1.407251e-01 4.273592e+00 -2.770472e+01 2.391582e+01 -4.760045e-06 1.097868e-02 -2.426790e-01 2.263115e-01
-1.329434e-01 4.262621e+00 -2.771288e+01 2.394145e+01 1.205893e-06 1.080434e-02 -2.434635e-01 2.203703e-01
-1.375132e-01 4.264900e+00 -2.770791e+01 2.395726e+01 -2.431833e-06 1.075762e-02 -2.389728e-01 2.310528e-01
-1.362027e-01 4.270015e+00 -2.771371e+01 2.397534e+01 -2.400883e-07 1.082378e-02 -2.447624e-01 2.252104e-01
-1.329385e-01 4.258764e+00 -2.772528e+01 2.399870e+01 -1.682070e-06 1.067242e-02 -2.444098e-01 2.380911e-01
-1.252302e-01 4.286965e+00 -2.772340e+01 2.400668e+01 -3.946615e-06 1.056575e-02 -2.455118e-01 2.344301e-01
-1.341562e-01 4.272232e+00 -2.772591e+01 2.403033e+01 6.135204e-07 1.068989e-02 -2.470610e-01 2.174923e-01
-1.423437e-01 4.270798e+00 -2.772031e+01 2.405126e+01 -5.245457e-07 1.072270e-02 -2.422585e-01 2.330032e-01
-1.402179e-01 4.278827e+00 -2.773041e+01 2.406369e+01 4.116231e-06 1.036388e-02 -2.460278e-01 2.299632e-01
-1.476700e-01 4.263858e+00 -2.557060e+01 2.408454e+01 -1.637253e-06 1.061383e-02 -2.453802e-01 2.316073e-01
-1.386466e-01 4.269753e+00 -2.772518e+01 2.410454e+01 2.487347e-06 1.062009e-02 -2.434991e-01 2.350426e-01
-1.346899e-01 4.273338e+00 -2.772060e+01 2.412990e+01 3.533606e-07 1.049007e-02 -2.455151e-01 2.291192e-01
-1.450494e-01 4.275600e+00 -2.772623e+01 2.413212e+01 9.227268e-07 1.047989e-02 -2.415795e-01 2.370478e-01
-1.377602e-01 4.282110e+00 -2.773064e+01 2.414782e+01 -2.304255e-07 1.053728e-02 -2.398949e-01 2.464278e-01
-1.442399e-01 4.286221e+00 -2.772194e+01 2.416775e+01 2.604005e-06 1.038207e-02 -2.197310e-01 2.422537e-01
-1.405475e-01 4.283300e+00 -2.773549e+01 2.417411e+01 1.032408e-06 1.030734e-02 -2.510514e-01 2.351127e-01
-1.446973e-01 4.278576e+00 -2.775008e+01 2.419226e+01 6.654702e-07 1.018149e-02 -2.392751e-01 2.452925e-01
-1.436271e-01 4.293852e+00 -2.774851e+01 2.420188e+01 2.620302e-06 9.934049e-03 -2.419572e-01 2.411272e-01
-1.361409e-01 4.284317e+00 -2.774638e+01 2.419928e+01 3.267097e-06 1.022899e-02 -2.409066e-01 2.428081e-01
-1.427740e-01 4.286542e+00 -2.775663e+01 2.421179e+01 -1.682986e-06 1.022954e-02 -2.454795e-01 2.374522e-01
-1.350195e-01 4.296032e+00 -2.775175e+01 2.421306e+01 -2.239462e-06 9.948220e-03 -2.402091e-01 2.420810e-01
-1.364274e-01 4.298440e+00 -2.560500e+01 2.423204e+01 -1.709919e-06 1.008901e-02 -2.390720e-01 2.377748e-01
-1.410733e-01 4.289139e+00 -2.774897e+01 2.424171e+01 -7.374651e-07 1.007067e-02 -2.417958e-01 2.453159e-01
-1.311409e-01 4.302682e+00 -2.775213e+01 2.423721e+01 4.234253e-06 1.014235e-02 -2.301634e-01 2.547898e-01
-1.357221e-01 4.301701e+00 -2.775064e+01 2.424902e+01 1.817587e-07 9.989162e-03 -2.480342e-01 2.447279e-01
-1.403575e-01 4.301427e+00 -2.775024e+01 2.426162e+01 4.284447e-07 9.991497e-03 -2.411640e-01 2.460513e-01
-1.458798e-01 4.303266e+00 -2.773968e+01 2.426623e+01 3.608200e-07 9.947088e-03 -2.396676e-01 2.485023e-01
-1.424954e-01 4.305414e+00 -2.775995e+01 2.427365e+01 5.647778e-06 9.917343e-03 -2.376266e-01 2.479585e-01
-1.363188e-01 4.308335e+00 -2.775536e+01 2.427178e+01 -2.154015e-06 9.695063e-03 -2.361030e-01 2.489723e-01
-1.434781e-01 4.315862e+00 -2.775588e+01 2.427234e+01 1.375970e-06 9.884623e-03 -2.406112e-01 2.435255e-01
-1.281855e-01 4.300851e+00 -2.775909e+01 2.427567e+01 3.689521e-07 9.684802e-03 -2.354014e-01 2.522745e-01
-1.400201e-01 4.302794e+00 -2.775384e+01 2.426309e+01 -3.682442e-06 9.759127e-03 -2.404134e-01 2.446801e-01
-1.363006e-01 4.307931e+00 -2.775519e+01 2.429719e+01 5.853613e-07 9.661007e-03 -2.391265e-01 2.423873e-01
-1.380341e-01 4.311705e+00 -2.775428e+01 2.428734e+01 3.061040e-06 9.526678e-03 -2.330276e-01 2.560273e-01
-1.329162e-01 4.312014e+00 -2.557859e+01 2.427455e+01 -2.216608e-06 9.666468e-03 -2.372219e-01 2.476038e-01
-1.385509e-01 4.307072e+00 -2.775031e+01 2.426349e+01 1.140281e-06 9.714883e-03 -2.418499e-01 2.557263e-01
-1.432287e-01 4.312565e+00 -2.774968e+01 2.428129e+01 6.049575e-07 9.634189e-03 -2.372570e-01 2.539600e-01
-1.374663e-01 4.319769e+00 -2.553848e+01 2.429553e+01 -1.316902e-06 9.541644e-03 -2.414530e-01 2.454286e-01
-1.320118e-01 4.316150e+00 -2.774582e+01 2.429203e+01 3.361537e-06 9.725754e-03 -2.360233e-01 2.514307e-01
-1.338571e-01 4.324877e+00 -2.773585e+01 2.429715e+01 1.756876e-06 9.467732e-03 -2.307035e-01 2.481479e-01
-1.395505e-01 4.327318e+00 -2.774531e+01 2.429555e+01 -2.088562e-06 9.517008e-03 -2.303327e-01 2.545458e-01
-1.334765e-01 4.320726e+00 -2.772338e+01 2.429482e+01 -7.287016e-07 9.417798e-03 -2.272456e-01 2.566934e-01
-1.331206e-01 4.325837e+00 -2.772740e+01 2.431100e+01 6.043438e-06 9.452203e-03 -2.387423e-01 2.598471e-01
-1.406826e-01 4.327565e+00 -2.772998e+01 2.429113e+01 2.262623e-06 9.367246e-03 -2.248842e-01 2.605199e-01
-1.434804e-01 4.332388e+00 -2.771967e+01 2.430097e+01 -1.664944e-06 9.195374e-03 -2.379624e-01 2.576214e-01
-1.328450e-01 4.338693e+00 -2.772453e+01 2.431275e+01 2.667322e-06 9.253795e-03 -2.372489e-01 2.575044e-01
-1.414025e-01 4.333552e+00 -2.773142e+01 2.432542e+01 -3.883507e-06 9.344898e-03 -2.400955e-01 2.557854e-01
-1.330339e-01 4.336327e+00 -2.771275e+01 2.431773e+01 3.295558e-06 9.251169e-03 -2.396185e-01 2.571946e-01
-1.342009e-01 4.320226e+00 -2.771431e+01 2.431987e+01 -3.005166e-06 9.089733e-03 -2.287888e-01 2.639943e-01
-1.416106e-01 4.338035e+00 -2.770379e+01 2.432754e+01 -6.089919e-07 9.144991e-03 -2.378114e-01 2.548049e-01
-1.388739e-01 4.339180e+00 -2.769889e+01 2.431944e+01 2.021848e-06 9.152714e-03 -2.318529e-01 2.621268e-01
-1.412636e-01 4.341798e+00 -2.769615e+01 2.431884e+01 2.627110e-06 9.196762e-03 -2.395458e-01 2.583038e-01
-1.363388e-01 4.338138e+00 -2.767543e+01 2.431428e+01 -4.464856e-07 9.005745e-03 -2.380778e-01 2.589144e-01
-1.348218e-01 4.342275e+00 -2.767065e+01 2.432460e+01 -3.192012e-07 9.156755e-03 -2.327222e-01 2.612729e-01
-1.324095e-01 4.346275e+00 -2.768080e+01 2.431545e+01 6.860451e-07 9.121762e-03 -2.397534e-01 2.612393e-01
-1.436041e-01 4.342330e+00 -2.768342e+01 2.432014e+01 4.149710e-06 9.076967e-03 -2.354683e-01 2.639369e-01
-1.388243e-01 4.353855e+00 -2.766708e+01 2.431890e+01 -3.771726e-06 9.120407e-03 -2.481538e-01 2.601257e-01
-1.423804e-01 4.346183e+00 -2.537575e+01 2.432286e+01 -4.247418e-06 9.253760e-03 -2.372210e-01 2.698588e-01
-1.412231e-01 4.349682e+00 -2.766100e+01 2.432253e+01 1.275858e-07 9.167071e-03 -2.428194e-01 2.615505e-01
-1.397989e-01 4.354658e+00 -2.765931e+01 2.432651e+01 -5.877299e-07 8.958080e-03 -2.335377e-01 2.691492e-01
-1.442516e-01 4.352598e+00 -2.765139e+01 2.433600e+01 4.713567e-06 9.091970e-03 -2.450940e-01 2.669045e-01
-1.304523e-01 4.360149e+00 -2.765714e+01 2.433794e+01 -1.827094e-06 9.091930e-03 -2.450082e-01 2.620649e-01
-1.444724e-01 4.349639e+00 -2.764925e+01 2.434639e+01 -1.361547e-06 9.012451e-03 -2.339038e-01 2.411814e-01
-1.291518e-01 4.364765e+00 -2.764673e+01 2.434796e+01 2.676115e-06 9.035485e-03 -2.416395e-01 2.669594e-01
-1.372635e-01 4.355782e+00 -2.764116e+01 2.434573e+01 1.855739e-06 8.953530e-03 -2.360807e-01 2.720547e-01
-1.363447e-01 4.349754e+00 -2.763826e+01 2.436611e+01 -4.840181e-06 8.746457e-03 -2.375743e-01 2.743083e-01
-1.322314e-01 4.363175e+00 -2.763679e+01 2.436082e+01 5.015456e-06 8.942246e-03 -2.456366e-01 2.617733e-01
-1.347701e-01 4.360419e+00 -2.764223e+01 2.435306e+01 1.584835e-06 9.021985e-03 -2.430023e-01 2.698272e-01
-1.258145e-01 4.363262e+00 -2.765157e+01 2.234951e+01 -3.364407e-06 8.572368e-03 -2.417895e-01 2.745329e-01
-1.308471e-01 4.379536e+00 -2.764839e+01 2.437245e+01 5.000855e-06 8.953674e-03 -2.477950e-01 2.690411e-01
-1.355285e-01 4.366172e+00 -2.763308e+01 2.437569e+01 1.251681e-06 9.027637e-03 -2.389410e-01 2.718418e-01
-1.413005e-01 4.365454e+00 -2.764814e+01 2.437877e+01 2.318783e-06 8.901506e-03 -2.428219e-01 2.738508e-01
-1.428313e-01 4.366421e+00 -2.764134e+01 2.438339e+01 1.809238e-06 8.947970e-03 -2.485764e-01 2.713967e-01
-1.385424e-01 4.377680e+00 -2.765820e+01 2.438536e+01 5.771042e-06 8.831555e-03 -2.434572e-01 2.762406e-01
-1.348008e-01 4.365392e+00 -2.765062e+01 2.438989e+01 2.214448e-06 8.882994e-03 -2.428282e-01 2.763627e-01
-1.491540e-01 4.372263e+00 -2.763876e+01 2.440962e+01 3.031286e-06 8.661923e-03 -2.435714e-01 2.712907e-01
-1.263578e-01 4.372475e+00 -2.765491e+01 2.242334e+01 -1.966527e-06 8.667726e-03 -2.400561e-01 2.729680e-01
-1.382510e-01 4.378269e+00 -2.765552e+01 2.439181e+01 1.608195e-06 8.739889e-03 -2.420260e-01 2.778582e-01
-1.300812e-01 4.373395e+00 -2.765498e+01 2.438328e+01 2.226199e-06 8.724125e-03 -2.463705e-01 2.826155e-01
-1.284135e-01 4.377024e+00 -2.765639e+01 2.439985e+01 1.761791e-06 8.642300e-03 -2.518031e-01 2.707607e-01
-1.475131e-01 4.369458e+00 -2.765347e+01 2.440556e+01 -1.596389e-06 8.524429e-03 -2.438626e-01 2.793626e-01
-1.296062e-01 4.372428e+00 -2.463203e+01 2.441072e+01 3.002606e-06 8.325528e-03 -2.477892e-01 2.724268e-01
-1.353093e-01 4.377129e+00 -2.765881e+01 2.442092e+01 2.799848e-06 8.433590e-03 -2.534647e-01 2.780661e-01
-1.318964e-01 4.375004e+00 -2.765729e+01 2.441749e+01 -2.739391e-06 8.401183e-03 -2.477690e-01 2.757921e-01
-1.319245e-01 4.390274e+00 -2.766029e+01 2.441395e+01 3.238304e-06 8.314349e-03 -2.520685e-01 2.709231e-01
-1.390834e-01 4.392072e+00 -2.767204e+01 2.443360e+01 -3.921415e-06 8.384108e-03 -2.558014e-01 2.716463e-01
-1.367020e-01 4.384664e+00 -2.766986e+01 2.444165e+01 -6.950629e-06 8.101109e-03 -2.542554e-01 2.618517e-01
-1.302453e-01 4.390366e+00 -2.767358e+01 2.444279e+01 1.288166e-06 8.233507e-03 -2.496841e-01 2.835178e-01
-1.373389e-01 4.385500e+00 -2.767234e+01 2.444614e+01 -5.213834e-07 8.198185e-03 -2.574228e-01 2.794542e-01
-1.220511e-01 4.394613e+00 -2.769195e+01 2.445305e+01 -2.493246e-06 8.198594e-03 -2.523259e-01 2.768106e-01
-1.342346e-01 4.387226e+00 -2.768315e+01 2.446826e+01 2.644118e-06 8.213534e-03 -2.538426e-01 2.839594e-01
-1.295912e-01 4.397757e+00 -2.768422e+01 2.446406e+01 3.765644e-06 8.145812e-03 -2.555469e-01 2.752465e-01
-1.272785e-01 4.399527e+00 -2.769056e+01 2.446928e+01 -4.415487e-06 8.112577e-03 -2.591804e-01 2.796347e-01
-1.276785e-01 4.398768e+00 -2.768818e+01 2.448157e+01 2.036374e-06 8.050439e-03 -2.542777e-01 2.810856e-01
-1.233794e-01 4.399346e+00 -2.769706e+01 2.448491e+01 3.334181e-06 8.003568e-03 -2.533633e-01 2.871353e-01
-1.293143e-01 4.399361e+00 -2.770395e+01 2.448571e+01 -8.307257e-07 8.038921e-03 -2.575745e-01 2.785359e-01
-1.339932e-01 4.404513e+00 -2.770182e+01 2.448583e+01 -3.980215e-06 7.873702e-03 -2.605288e-01 2.785513e-01
-1.340092e-01 4.406035e+00 -2.770578e+01 2.449374e+01 -2.872583e-07 8.040793e-03 -2.677207e-01 2.827062e-01
-1.364183e-01 4.411462e+00 -2.770496e+01 2.449617e+01 2.113269e-06 8.063614e-03 -2.536327e-01 2.827614e-01
-1.415467e-01 4.411560e+00 -2.771087e+01 2.449905e+01 -4.607714e-08 8.014991e-03 -2.656623e-01 2.819716e-01
-1.401141e-01 4.409264e+00 -2.771163e+01 2.449777e+01 -4.752434e-06 8.079035e-03 -2.518394e-01 2.862035e-01
-1.287574e-01 4.409697e+00 -2.771556e+01 2.451084e+01 -1.638844e-07 8.104521e-03 -2.577711e-01 2.844091e-01
-1.289718e-01 4.411623e+00 -2.771693e+01 2.451690e+01 8.699038e-07 7.811258e-03 -2.576011e-01 2.881848e-01
-1.422421e-01 4.407203e+00 -2.771830e+01 2.450667e+01 -1.018283e-06 8.203577e-03 -2.631418e-01 2.791509e-01
-1.267834e-01 4.417125e+00 -2.772077e+01 2.451943e+01 -1.804704e-07 8.070750e-03 -2.567982e-01 2.848908e-01
-1.381344e-01 4.408119e+00 -2.772356e+01 2.452183e+01 6.952951e-08 7.952573e-03 -2.616251e-01 2.788788e-01
-1.346064e-01 4.415550e+00 -2.773526e+01 2.453409e+01 -2.715001e-06 8.042946e-03 -2.674565e-01 2.835059e-01
-1.256502e-01 4.420381e+00 -2.773075e+01 2.453370e+01 1.065828e-07 8.126141e-03 -2.573087e-01 2.875275e-01
-1.217367e-01 4.404143e+00 -2.773472e+01 2.453759e+01 -8.149606e-07 8.076851e-03 -2.665119e-01 2.790680e-01
-1.273859e-01 4.417806e+00 -2.773459e+01 2.454316e+01 9.416523e-07 8.199462e-03 -2.707367e-01 2.795738e-01
-1.324809e-01 4.414288e+00 -2.773848e+01 2.454892e+01 5.716119e-06 8.057146e-03 -2.644205e-01 2.805690e-01
-1.223410e-01 4.423564e+00 -2.774552e+01 2.456322e+01 1.487622e-06 8.071748e-03 -2.575730e-01 2.887520e-01
-1.320702e-01 4.425137e+00 -2.774456e+01 2.455867e+01 1.649487e-06 7.947999e-03 -2.737896e-01 2.824188e-01
-1.303738e-01 4.420192e+00 -2.774418e+01 2.455782e+01 -5.374241e-06 7.773141e-03 -2.610142e-01 2.900299e-01
-1.263135e-01 4.425396e+00 -2.774899e+01 2.457038e+01 7.314058e-07 7.863154e-03 -2.721989e-01 2.831290e-01
-1.264614e-01 4.424931e+00 -2.774756e+01 2.456805e+01 1.194582e-06 7.949556e-03 -2.659405e-01 2.842458e-01
-1.250960e-01 4.421562e+00 -2.774756e+01 2.456961e+01 4.576196e-07 7.776705e-03 -2.632315e-01 2.848587e-01
-1.275804e-01 4.424863e+00 -2.775485e+01 2.457024e+01 2.039104e-06 7.627003e-03 -2.574561e-01 2.885586e-01
-1.314605e-01 4.417414e+00 -2.774463e+01 2.458674e+01 2.085511e-06 7.714526e-03 -2.709377e-01 2.818824e-01
-1.304529e-01 4.425485e+00 -2.774799e+01 2.458281e+01 -1.645673e-06 7.711699e-03 -2.656466e-01 2.839157e-01
-1.369580e-01 4.433629e+00 -2.775444e+01 2.459194e+01 1.140643e-07 7.433728e-03 -2.706104e-01 2.850000e-01
-1.248750e-01 4.434854e+00 -2.775676e+01 2.459144e+01 -1.504723e-07 7.592352e-03 -2.723591e-01 2.797666e-01
-1.239437e-01 4.437865e+00 -2.775432e+01 2.459800e+01 7.971306e-07 7.501606e-03 -2.684776e-01 2.821247e-01
-1.311836e-01 4.433646e+00 -2.510059e+01 2.459305e+01 2.822832e-06 7.655528e-03 -2.720592e-01 2.868992e-01
-1.228375e-01 4.434095e+00 -2.776033e+01 2.459461e+01 1.635827e-06 7.604459e-03 -2.647161e-01 2.963143e-01
