8.999023e-01 9.987793e-01
7.287598e-01 9.963379e-01
5.900879e-01 9.938965e-01
4.777832e-01 9.914551e-01
3.869629e-01 9.890137e-01
3.132324e-01 9.865723e-01
2.536621e-01 9.841309e-01
2.053223e-01 9.816895e-01
1.662598e-01 9.792480e-01
1.347656e-01 9.768066e-01
1.091309e-01 9.743652e-01
8.837891e-02 9.719238e-01
7.153320e-02 9.694824e-01
5.810547e-02 9.670410e-01
4.711914e-02 9.645996e-01
3.833008e-02 9.621582e-01
3.100586e-02 9.597168e-01
2.514648e-02 9.572754e-01
2.050781e-02 9.548340e-01
1.660156e-02 9.523926e-01
1.342773e-02 9.499512e-01
1.074219e-02 9.475098e-01
8.789062e-03 9.450684e-01
7.080078e-03 9.426270e-01
5.615234e-03 9.401855e-01
4.638672e-03 9.377441e-01
3.662109e-03 9.353027e-01
2.929688e-03 9.328613e-01
2.441406e-03 9.304199e-01
1.953125e-03 9.279785e-01
1.464844e-03 9.255371e-01
9.765625e-04 9.230957e-01
9.765625e-04 9.206543e-01
9.765625e-04 9.182129e-01
9.765625e-04 9.157715e-01
9.765625e-04 9.133301e-01
9.765625e-04 9.108887e-01
9.765625e-04 9.084473e-01
9.765625e-04 9.060059e-01
9.765625e-04 9.035645e-01
9.765625e-04 9.011230e-01
9.765625e-04 8.989258e-01
9.765625e-04 8.969727e-01
9.765625e-04 8.950195e-01
9.765625e-04 8.930664e-01
9.765625e-04 8.911133e-01
9.765625e-04 8.891602e-01
9.765625e-04 8.872070e-01
9.765625e-04 8.852539e-01
9.765625e-04 8.833008e-01
9.765625e-04 8.813477e-01
9.765625e-04 8.793945e-01
9.765625e-04 8.774414e-01
9.765625e-04 8.754883e-01
9.765625e-04 8.735352e-01
9.765625e-04 8.715820e-01
9.765625e-04 8.696289e-01
9.765625e-04 8.676758e-01
9.765625e-04 8.657227e-01
9.765625e-04 8.637695e-01
9.765625e-04 8.618164e-01
9.765625e-04 8.598633e-01
9.765625e-04 8.579102e-01
9.765625e-04 8.559570e-01
9.765625e-04 8.540039e-01
9.765625e-04 8.520508e-01
9.765625e-04 8.500977e-01
9.765625e-04 8.481445e-01
9.765625e-04 8.461914e-01
9.765625e-04 8.442383e-01
9.765625e-04 8.422852e-01
9.765625e-04 8.403320e-01
9.765625e-04 8.383789e-01
9.765625e-04 8.364258e-01
9.765625e-04 8.344727e-01
9.765625e-04 8.325195e-01
9.765625e-04 8.305664e-01
9.765625e-04 8.286133e-01
9.765625e-04 8.266602e-01
9.765625e-04 8.247070e-01
9.765625e-04 8.227539e-01
9.765625e-04 8.208008e-01
9.765625e-04 8.188477e-01
9.765625e-04 8.168945e-01
9.765625e-04 8.149414e-01
9.765625e-04 8.129883e-01
9.765625e-04 8.110352e-01
9.765625e-04 8.090820e-01
9.765625e-04 8.071289e-01
9.765625e-04 8.051758e-01
9.765625e-04 8.032227e-01
9.765625e-04 8.012695e-01
9.765625e-04 7.993164e-01
9.765625e-04 7.973633e-01
9.765625e-04 7.954102e-01
9.765625e-04 7.934570e-01
9.765625e-04 7.915039e-01
9.765625e-04 7.895508e-01
9.765625e-04 7.875977e-01
9.765625e-04 7.856445e-01
9.765625e-04 7.836914e-01
9.765625e-04 7.817383e-01
9.765625e-04 7.797852e-01
9.765625e-04 7.778320e-01
9.765625e-04 7.758789e-01
9.765625e-04 7.739258e-01
9.765625e-04 7.719727e-01
9.765625e-04 7.700195e-01
9.765625e-04 7.680664e-01
9.765625e-04 7.661133e-01
9.765625e-04 7.641602e-01
9.765625e-04 7.622070e-01
9.765625e-04 7.602539e-01
9.765625e-04 7.583008e-01
9.765625e-04 7.563477e-01
9.765625e-04 7.543945e-01
9.765625e-04 7.524414e-01
9.765625e-04 7.504883e-01
9.765625e-04 7.485352e-01
9.765625e-04 7.465820e-01
9.765625e-04 7.446289e-01
9.765625e-04 7.426758e-01
9.765625e-04 7.407227e-01
9.765625e-04 7.387695e-01
9.765625e-04 7.368164e-01
9.765625e-04 7.348633e-01
9.765625e-04 7.329102e-01
9.765625e-04 7.309570e-01
9.765625e-04 7.290039e-01
9.765625e-04 7.270508e-01
9.765625e-04 7.250977e-01
9.765625e-04 7.231445e-01
9.765625e-04 7.211914e-01
9.765625e-04 7.192383e-01
9.765625e-04 7.172852e-01
9.765625e-04 7.153320e-01
9.765625e-04 7.133789e-01
9.765625e-04 7.114258e-01
9.765625e-04 7.094727e-01
9.765625e-04 7.075195e-01
9.765625e-04 7.055664e-01
9.765625e-04 7.036133e-01
9.765625e-04 7.016602e-01
9.765625e-04 6.997070e-01
9.765625e-04 6.982422e-01
9.765625e-04 6.967773e-01
9.765625e-04 6.953125e-01
9.765625e-04 6.938477e-01
9.765625e-04 6.923828e-01
9.765625e-04 6.909180e-01
9.765625e-04 6.894531e-01
9.765625e-04 6.879883e-01
9.765625e-04 6.865234e-01
9.765625e-04 6.850586e-01
9.765625e-04 6.835938e-01
9.765625e-04 6.821289e-01
9.765625e-04 6.806641e-01
9.765625e-04 6.791992e-01
9.765625e-04 6.777344e-01
9.765625e-04 6.762695e-01
9.765625e-04 6.748047e-01
9.765625e-04 6.733398e-01
9.765625e-04 6.718750e-01
9.765625e-04 6.704102e-01
9.765625e-04 6.689453e-01
9.765625e-04 6.674805e-01
9.765625e-04 6.660156e-01
9.765625e-04 6.645508e-01
9.765625e-04 6.630859e-01
9.765625e-04 6.616211e-01
9.765625e-04 6.601562e-01
9.765625e-04 6.586914e-01
9.765625e-04 6.572266e-01
9.765625e-04 6.557617e-01
9.765625e-04 6.542969e-01
9.765625e-04 6.528320e-01
9.765625e-04 6.513672e-01
9.765625e-04 6.499023e-01
9.765625e-04 6.484375e-01
9.765625e-04 6.469727e-01
9.765625e-04 6.455078e-01
9.765625e-04 6.440430e-01
9.765625e-04 6.425781e-01
9.765625e-04 6.411133e-01
9.765625e-04 6.396484e-01
9.765625e-04 6.381836e-01
9.765625e-04 6.367188e-01
9.765625e-04 6.352539e-01
9.765625e-04 6.337891e-01
9.765625e-04 6.323242e-01
9.765625e-04 6.308594e-01
9.765625e-04 6.293945e-01
9.765625e-04 6.279297e-01
9.765625e-04 6.264648e-01
9.765625e-04 6.250000e-01
9.765625e-04 6.235352e-01
9.765625e-04 6.220703e-01
9.765625e-04 6.206055e-01
9.765625e-04 6.191406e-01
9.765625e-04 6.176758e-01
9.765625e-04 6.162109e-01
9.765625e-04 6.147461e-01
9.765625e-04 6.132812e-01
9.765625e-04 6.118164e-01
9.765625e-04 6.103516e-01
9.765625e-04 6.088867e-01
9.765625e-04 6.074219e-01
9.765625e-04 6.059570e-01
9.765625e-04 6.044922e-01
9.765625e-04 6.030273e-01
9.765625e-04 6.015625e-01
9.765625e-04 6.000977e-01
9.765625e-04 5.986328e-01
9.765625e-04 5.971680e-01
9.765625e-04 5.957031e-01
9.765625e-04 5.942383e-01
9.765625e-04 5.927734e-01
9.765625e-04 5.913086e-01
9.765625e-04 5.898438e-01
9.765625e-04 5.883789e-01
9.765625e-04 5.869141e-01
9.765625e-04 5.854492e-01
9.765625e-04 5.839844e-01
9.765625e-04 5.825195e-01
9.765625e-04 5.810547e-01
9.765625e-04 5.795898e-01
9.765625e-04 5.781250e-01
9.765625e-04 5.766602e-01
9.765625e-04 5.751953e-01
9.765625e-04 5.737305e-01
9.765625e-04 5.722656e-01
9.765625e-04 5.708008e-01
9.765625e-04 5.693359e-01
9.765625e-04 5.678711e-01
9.765625e-04 5.664062e-01
9.765625e-04 5.649414e-01
9.765625e-04 5.634766e-01
9.765625e-04 5.620117e-01
9.765625e-04 5.605469e-01
9.765625e-04 5.590820e-01
9.765625e-04 5.576172e-01
9.765625e-04 5.561523e-01
9.765625e-04 5.546875e-01
9.765625e-04 5.532227e-01
9.765625e-04 5.517578e-01
9.765625e-04 5.502930e-01
9.765625e-04 5.488281e-01
9.765625e-04 5.473633e-01
9.765625e-04 5.458984e-01
9.765625e-04 5.444336e-01
9.765625e-04 5.429688e-01
9.765625e-04 5.415039e-01
9.765625e-04 5.400391e-01
9.765625e-04 5.385742e-01
9.765625e-04 5.371094e-01
9.765625e-04 5.356445e-01
9.765625e-04 5.341797e-01
9.765625e-04 5.327148e-01
9.765625e-04 5.312500e-01
9.765625e-04 5.297852e-01
9.765625e-04 5.283203e-01
9.765625e-04 5.268555e-01
9.765625e-04 5.253906e-01
9.765625e-04 5.239258e-01
9.765625e-04 5.224609e-01
9.765625e-04 5.209961e-01
9.765625e-04 5.195312e-01
9.765625e-04 5.180664e-01
9.765625e-04 5.166016e-01
9.765625e-04 5.151367e-01
9.765625e-04 5.136719e-01
9.765625e-04 5.122070e-01
9.765625e-04 5.107422e-01
9.765625e-04 5.092773e-01
9.765625e-04 5.078125e-01
9.765625e-04 5.063477e-01
9.765625e-04 5.048828e-01
9.765625e-04 5.034180e-01
9.765625e-04 5.019531e-01
9.765625e-04 5.004883e-01
9.765625e-04 4.992676e-01
9.765625e-04 4.982910e-01
9.765625e-04 4.973145e-01
9.765625e-04 4.963379e-01
9.765625e-04 4.953613e-01
9.765625e-04 4.943848e-01
9.765625e-04 4.934082e-01
9.765625e-04 4.924316e-01
9.765625e-04 4.914551e-01
9.765625e-04 4.904785e-01
9.765625e-04 4.895020e-01
9.765625e-04 4.885254e-01
9.765625e-04 4.875488e-01
9.765625e-04 4.865723e-01
9.765625e-04 4.855957e-01
9.765625e-04 4.846191e-01
9.765625e-04 4.836426e-01
9.765625e-04 4.826660e-01
9.765625e-04 4.816895e-01
9.765625e-04 4.807129e-01
9.765625e-04 4.797363e-01
9.765625e-04 4.787598e-01
9.765625e-04 4.777832e-01
9.765625e-04 4.768066e-01
9.765625e-04 4.758301e-01
9.765625e-04 4.748535e-01
9.765625e-04 4.738770e-01
9.765625e-04 4.729004e-01
9.765625e-04 4.719238e-01
9.765625e-04 4.709473e-01
9.765625e-04 4.699707e-01
9.765625e-04 4.689941e-01
9.765625e-04 4.680176e-01
9.765625e-04 4.670410e-01
9.765625e-04 4.660645e-01
9.765625e-04 4.650879e-01
9.765625e-04 4.641113e-01
9.765625e-04 4.631348e-01
9.765625e-04 4.621582e-01
9.765625e-04 4.611816e-01
9.765625e-04 4.602051e-01
9.765625e-04 4.592285e-01
9.765625e-04 4.582520e-01
9.765625e-04 4.572754e-01
9.765625e-04 4.562988e-01
9.765625e-04 4.553223e-01
9.765625e-04 4.543457e-01
9.765625e-04 4.533691e-01
9.765625e-04 4.523926e-01
9.765625e-04 4.514160e-01
9.765625e-04 4.504395e-01
9.765625e-04 4.494629e-01
9.765625e-04 4.484863e-01
9.765625e-04 4.475098e-01
9.765625e-04 4.465332e-01
9.765625e-04 4.455566e-01
9.765625e-04 4.445801e-01
9.765625e-04 4.436035e-01
9.765625e-04 4.426270e-01
9.765625e-04 4.416504e-01
9.765625e-04 4.406738e-01
9.765625e-04 4.396973e-01
9.765625e-04 4.387207e-01
9.765625e-04 4.377441e-01
9.765625e-04 4.367676e-01
9.765625e-04 4.357910e-01
9.765625e-04 4.348145e-01
9.765625e-04 4.338379e-01
9.765625e-04 4.328613e-01
9.765625e-04 4.318848e-01
9.765625e-04 4.309082e-01
9.765625e-04 4.299316e-01
9.765625e-04 4.289551e-01
9.765625e-04 4.279785e-01
9.765625e-04 4.270020e-01
9.765625e-04 4.260254e-01
9.765625e-04 4.250488e-01
9.765625e-04 4.240723e-01
9.765625e-04 4.230957e-01
9.765625e-04 4.221191e-01
9.765625e-04 4.211426e-01
9.765625e-04 4.201660e-01
9.765625e-04 4.191895e-01
9.765625e-04 4.182129e-01
9.765625e-04 4.172363e-01
9.765625e-04 4.162598e-01
9.765625e-04 4.152832e-01
9.765625e-04 4.143066e-01
9.765625e-04 4.133301e-01
9.765625e-04 4.123535e-01
9.765625e-04 4.113770e-01
9.765625e-04 4.104004e-01
9.765625e-04 4.094238e-01
9.765625e-04 4.084473e-01
9.765625e-04 4.074707e-01
9.765625e-04 4.064941e-01
9.765625e-04 4.055176e-01
9.765625e-04 4.045410e-01
9.765625e-04 4.035645e-01
9.765625e-04 4.025879e-01
9.765625e-04 4.016113e-01
9.765625e-04 4.006348e-01
9.765625e-04 3.996582e-01
9.765625e-04 3.986816e-01
9.765625e-04 3.977051e-01
9.765625e-04 3.967285e-01
9.765625e-04 3.957520e-01
9.765625e-04 3.947754e-01
9.765625e-04 3.937988e-01
9.765625e-04 3.928223e-01
9.765625e-04 3.918457e-01
9.765625e-04 3.908691e-01
9.765625e-04 3.898926e-01
9.765625e-04 3.889160e-01
9.765625e-04 3.879395e-01
9.765625e-04 3.869629e-01
9.765625e-04 3.859863e-01
9.765625e-04 3.850098e-01
9.765625e-04 3.840332e-01
9.765625e-04 3.830566e-01
9.765625e-04 3.820801e-01
9.765625e-04 3.811035e-01
9.765625e-04 3.801270e-01
9.765625e-04 3.791504e-01
9.765625e-04 3.781738e-01
9.765625e-04 3.771973e-01
9.765625e-04 3.762207e-01
9.765625e-04 3.752441e-01
9.765625e-04 3.742676e-01
9.765625e-04 3.732910e-01
9.765625e-04 3.723145e-01
9.765625e-04 3.713379e-01
9.765625e-04 3.703613e-01
9.765625e-04 3.693848e-01
9.765625e-04 3.684082e-01
9.765625e-04 3.674316e-01
9.765625e-04 3.664551e-01
9.765625e-04 3.654785e-01
9.765625e-04 3.645020e-01
9.765625e-04 3.635254e-01
9.765625e-04 3.625488e-01
9.765625e-04 3.615723e-01
9.765625e-04 3.605957e-01
9.765625e-04 3.596191e-01
9.765625e-04 3.586426e-01
9.765625e-04 3.576660e-01
9.765625e-04 3.566895e-01
9.765625e-04 3.557129e-01
9.765625e-04 3.547363e-01
9.765625e-04 3.537598e-01
9.765625e-04 3.527832e-01
9.765625e-04 3.518066e-01
9.765625e-04 3.508301e-01
9.765625e-04 3.498535e-01
9.765625e-04 3.488770e-01
9.765625e-04 3.479004e-01
9.765625e-04 3.469238e-01
9.765625e-04 3.459473e-01
9.765625e-04 3.449707e-01
9.765625e-04 3.439941e-01
9.765625e-04 3.430176e-01
9.765625e-04 3.420410e-01
9.765625e-04 3.410645e-01
9.765625e-04 3.400879e-01
9.765625e-04 3.391113e-01
9.765625e-04 3.381348e-01
9.765625e-04 3.371582e-01
9.765625e-04 3.361816e-01
9.765625e-04 3.352051e-01
9.765625e-04 3.342285e-01
9.765625e-04 3.332520e-01
9.765625e-04 3.322754e-01
9.765625e-04 3.312988e-01
9.765625e-04 3.303223e-01
9.765625e-04 3.293457e-01
9.765625e-04 3.283691e-01
9.765625e-04 3.273926e-01
9.765625e-04 3.264160e-01
9.765625e-04 3.254395e-01
9.765625e-04 3.244629e-01
9.765625e-04 3.234863e-01
9.765625e-04 3.225098e-01
9.765625e-04 3.215332e-01
9.765625e-04 3.205566e-01
9.765625e-04 3.195801e-01
9.765625e-04 3.186035e-01
9.765625e-04 3.176270e-01
9.765625e-04 3.166504e-01
9.765625e-04 3.156738e-01
9.765625e-04 3.146973e-01
9.765625e-04 3.137207e-01
9.765625e-04 3.127441e-01
9.765625e-04 3.117676e-01
9.765625e-04 3.107910e-01
9.765625e-04 3.098145e-01
9.765625e-04 3.088379e-01
9.765625e-04 3.078613e-01
9.765625e-04 3.068848e-01
9.765625e-04 3.059082e-01
9.765625e-04 3.049316e-01
9.765625e-04 3.039551e-01
9.765625e-04 3.029785e-01
9.765625e-04 3.020020e-01
9.765625e-04 3.010254e-01
9.765625e-04 3.000488e-01
9.765625e-04 2.993164e-01
9.765625e-04 2.988281e-01
9.765625e-04 2.983398e-01
9.765625e-04 2.978516e-01
9.765625e-04 2.973633e-01
9.765625e-04 2.968750e-01
9.765625e-04 2.963867e-01
9.765625e-04 2.958984e-01
9.765625e-04 2.954102e-01
9.765625e-04 2.949219e-01
9.765625e-04 2.944336e-01
9.765625e-04 2.939453e-01
9.765625e-04 2.934570e-01
9.765625e-04 2.929688e-01
9.765625e-04 2.924805e-01
9.765625e-04 2.919922e-01
9.765625e-04 2.915039e-01
9.765625e-04 2.910156e-01
9.765625e-04 2.905273e-01
9.765625e-04 2.900391e-01
9.765625e-04 2.895508e-01
9.765625e-04 2.890625e-01
9.765625e-04 2.885742e-01
9.765625e-04 2.880859e-01
9.765625e-04 2.875977e-01
9.765625e-04 2.871094e-01
9.765625e-04 2.866211e-01
9.765625e-04 2.861328e-01
9.765625e-04 2.856445e-01
9.765625e-04 2.851562e-01
9.765625e-04 2.846680e-01
9.765625e-04 2.841797e-01
9.765625e-04 2.836914e-01
9.765625e-04 2.832031e-01
9.765625e-04 2.827148e-01
9.765625e-04 2.822266e-01
9.765625e-04 2.817383e-01
9.765625e-04 2.812500e-01
9.765625e-04 2.807617e-01
9.765625e-04 2.802734e-01
9.765625e-04 2.797852e-01
9.765625e-04 2.792969e-01
9.765625e-04 2.788086e-01
9.765625e-04 2.783203e-01
9.765625e-04 2.778320e-01
9.765625e-04 2.773438e-01
9.765625e-04 2.768555e-01
9.765625e-04 2.763672e-01
9.765625e-04 2.758789e-01
9.765625e-04 2.753906e-01
9.765625e-04 2.749023e-01
9.765625e-04 2.744141e-01
9.765625e-04 2.739258e-01
9.765625e-04 2.734375e-01
9.765625e-04 2.729492e-01
9.765625e-04 2.724609e-01
9.765625e-04 2.719727e-01
9.765625e-04 2.714844e-01
9.765625e-04 2.709961e-01
9.765625e-04 2.705078e-01
9.765625e-04 2.700195e-01
9.765625e-04 2.695312e-01
9.765625e-04 2.690430e-01
9.765625e-04 2.685547e-01
9.765625e-04 2.680664e-01
9.765625e-04 2.675781e-01
9.765625e-04 2.670898e-01
9.765625e-04 2.666016e-01
9.765625e-04 2.661133e-01
9.765625e-04 2.656250e-01
9.765625e-04 2.651367e-01
9.765625e-04 2.646484e-01
9.765625e-04 2.641602e-01
9.765625e-04 2.636719e-01
9.765625e-04 2.631836e-01
9.765625e-04 2.626953e-01
9.765625e-04 2.622070e-01
9.765625e-04 2.617188e-01
9.765625e-04 2.612305e-01
9.765625e-04 2.607422e-01
9.765625e-04 2.602539e-01
9.765625e-04 2.597656e-01
9.765625e-04 2.592773e-01
9.765625e-04 2.587891e-01
9.765625e-04 2.583008e-01
9.765625e-04 2.578125e-01
9.765625e-04 2.573242e-01
9.765625e-04 2.568359e-01
9.765625e-04 2.563477e-01
9.765625e-04 2.558594e-01
9.765625e-04 2.553711e-01
9.765625e-04 2.548828e-01
9.765625e-04 2.543945e-01
9.765625e-04 2.539062e-01
9.765625e-04 2.534180e-01
9.765625e-04 2.529297e-01
9.765625e-04 2.524414e-01
9.765625e-04 2.519531e-01
9.765625e-04 2.514648e-01
9.765625e-04 2.509766e-01
9.765625e-04 2.504883e-01
9.765625e-04 2.500000e-01
9.765625e-04 2.495117e-01
9.765625e-04 2.490234e-01
9.765625e-04 2.485352e-01
9.765625e-04 2.480469e-01
9.765625e-04 2.475586e-01
9.765625e-04 2.470703e-01
9.765625e-04 2.465820e-01
9.765625e-04 2.460938e-01
9.765625e-04 2.456055e-01
9.765625e-04 2.451172e-01
9.765625e-04 2.446289e-01
9.765625e-04 2.441406e-01
9.765625e-04 2.436523e-01
9.765625e-04 2.431641e-01
9.765625e-04 2.426758e-01
9.765625e-04 2.421875e-01
9.765625e-04 2.416992e-01
9.765625e-04 2.412109e-01
9.765625e-04 2.407227e-01
9.765625e-04 2.402344e-01
9.765625e-04 2.397461e-01
9.765625e-04 2.392578e-01
9.765625e-04 2.387695e-01
9.765625e-04 2.382812e-01
9.765625e-04 2.377930e-01
9.765625e-04 2.373047e-01
9.765625e-04 2.368164e-01
9.765625e-04 2.363281e-01
9.765625e-04 2.358398e-01
9.765625e-04 2.353516e-01
9.765625e-04 2.348633e-01
9.765625e-04 2.343750e-01
9.765625e-04 2.338867e-01
9.765625e-04 2.333984e-01
9.765625e-04 2.329102e-01
9.765625e-04 2.324219e-01
9.765625e-04 2.319336e-01
9.765625e-04 2.314453e-01
9.765625e-04 2.309570e-01
9.765625e-04 2.304688e-01
9.765625e-04 2.299805e-01
9.765625e-04 2.294922e-01
9.765625e-04 2.290039e-01
9.765625e-04 2.285156e-01
9.765625e-04 2.280273e-01
9.765625e-04 2.275391e-01
9.765625e-04 2.270508e-01
9.765625e-04 2.265625e-01
9.765625e-04 2.260742e-01
9.765625e-04 2.255859e-01
9.765625e-04 2.250977e-01
9.765625e-04 2.246094e-01
9.765625e-04 2.241211e-01
9.765625e-04 2.236328e-01
9.765625e-04 2.231445e-01
9.765625e-04 2.226562e-01
9.765625e-04 2.221680e-01
9.765625e-04 2.216797e-01
9.765625e-04 2.211914e-01
9.765625e-04 2.207031e-01
9.765625e-04 2.202148e-01
9.765625e-04 2.197266e-01
9.765625e-04 2.192383e-01
9.765625e-04 2.187500e-01
9.765625e-04 2.182617e-01
9.765625e-04 2.177734e-01
9.765625e-04 2.172852e-01
9.765625e-04 2.167969e-01
9.765625e-04 2.163086e-01
9.765625e-04 2.158203e-01
9.765625e-04 2.153320e-01
9.765625e-04 2.148438e-01
9.765625e-04 2.143555e-01
9.765625e-04 2.138672e-01
9.765625e-04 2.133789e-01
9.765625e-04 2.128906e-01
9.765625e-04 2.124023e-01
9.765625e-04 2.119141e-01
9.765625e-04 2.114258e-01
9.765625e-04 2.109375e-01
9.765625e-04 2.104492e-01
9.765625e-04 2.099609e-01
9.765625e-04 2.094727e-01
9.765625e-04 2.089844e-01
9.765625e-04 2.084961e-01
9.765625e-04 2.080078e-01
9.765625e-04 2.075195e-01
9.765625e-04 2.070312e-01
9.765625e-04 2.065430e-01
9.765625e-04 2.060547e-01
9.765625e-04 2.055664e-01
9.765625e-04 2.050781e-01
9.765625e-04 2.045898e-01
9.765625e-04 2.041016e-01
9.765625e-04 2.036133e-01
9.765625e-04 2.031250e-01
9.765625e-04 2.026367e-01
9.765625e-04 2.021484e-01
9.765625e-04 2.016602e-01
9.765625e-04 2.011719e-01
9.765625e-04 2.006836e-01
9.765625e-04 2.001953e-01
9.765625e-04 1.997070e-01
9.765625e-04 1.992188e-01
9.765625e-04 1.987305e-01
9.765625e-04 1.982422e-01
9.765625e-04 1.977539e-01
9.765625e-04 1.972656e-01
9.765625e-04 1.967773e-01
9.765625e-04 1.962891e-01
9.765625e-04 1.958008e-01
9.765625e-04 1.953125e-01
9.765625e-04 1.948242e-01
9.765625e-04 1.943359e-01
9.765625e-04 1.938477e-01
9.765625e-04 1.933594e-01
9.765625e-04 1.928711e-01
9.765625e-04 1.923828e-01
9.765625e-04 1.918945e-01
9.765625e-04 1.914062e-01
9.765625e-04 1.909180e-01
9.765625e-04 1.904297e-01
9.765625e-04 1.899414e-01
9.765625e-04 1.894531e-01
9.765625e-04 1.889648e-01
9.765625e-04 1.884766e-01
9.765625e-04 1.879883e-01
9.765625e-04 1.875000e-01
9.765625e-04 1.870117e-01
9.765625e-04 1.865234e-01
9.765625e-04 1.860352e-01
9.765625e-04 1.855469e-01
9.765625e-04 1.850586e-01
9.765625e-04 1.845703e-01
9.765625e-04 1.840820e-01
9.765625e-04 1.835938e-01
9.765625e-04 1.831055e-01
9.765625e-04 1.826172e-01
9.765625e-04 1.821289e-01
9.765625e-04 1.816406e-01
9.765625e-04 1.811523e-01
9.765625e-04 1.806641e-01
9.765625e-04 1.801758e-01
9.765625e-04 1.796875e-01
9.765625e-04 1.791992e-01
9.765625e-04 1.787109e-01
9.765625e-04 1.782227e-01
9.765625e-04 1.777344e-01
9.765625e-04 1.772461e-01
9.765625e-04 1.767578e-01
9.765625e-04 1.762695e-01
9.765625e-04 1.757812e-01
9.765625e-04 1.752930e-01
9.765625e-04 1.748047e-01
9.765625e-04 1.743164e-01
9.765625e-04 1.738281e-01
9.765625e-04 1.733398e-01
9.765625e-04 1.728516e-01
9.765625e-04 1.723633e-01
9.765625e-04 1.718750e-01
9.765625e-04 1.713867e-01
9.765625e-04 1.708984e-01
9.765625e-04 1.704102e-01
9.765625e-04 1.699219e-01
9.765625e-04 1.694336e-01
9.765625e-04 1.689453e-01
9.765625e-04 1.684570e-01
9.765625e-04 1.679688e-01
9.765625e-04 1.674805e-01
9.765625e-04 1.669922e-01
9.765625e-04 1.665039e-01
9.765625e-04 1.660156e-01
9.765625e-04 1.655273e-01
9.765625e-04 1.650391e-01
9.765625e-04 1.645508e-01
9.765625e-04 1.640625e-01
9.765625e-04 1.635742e-01
9.765625e-04 1.630859e-01
9.765625e-04 1.625977e-01
9.765625e-04 1.621094e-01
9.765625e-04 1.616211e-01
9.765625e-04 1.611328e-01
9.765625e-04 1.606445e-01
9.765625e-04 1.601562e-01
9.765625e-04 1.596680e-01
9.765625e-04 1.591797e-01
9.765625e-04 1.586914e-01
9.765625e-04 1.582031e-01
9.765625e-04 1.577148e-01
9.765625e-04 1.572266e-01
9.765625e-04 1.567383e-01
9.765625e-04 1.562500e-01
9.765625e-04 1.557617e-01
9.765625e-04 1.552734e-01
9.765625e-04 1.547852e-01
9.765625e-04 1.542969e-01
9.765625e-04 1.538086e-01
9.765625e-04 1.533203e-01
9.765625e-04 1.528320e-01
9.765625e-04 1.523438e-01
9.765625e-04 1.518555e-01
9.765625e-04 1.513672e-01
9.765625e-04 1.508789e-01
9.765625e-04 1.503906e-01
9.765625e-04 1.499023e-01
9.765625e-04 1.494141e-01
9.765625e-04 1.489258e-01
9.765625e-04 1.484375e-01
9.765625e-04 1.479492e-01
9.765625e-04 1.474609e-01
9.765625e-04 1.469727e-01
9.765625e-04 1.464844e-01
9.765625e-04 1.459961e-01
9.765625e-04 1.455078e-01
9.765625e-04 1.450195e-01
9.765625e-04 1.445312e-01
9.765625e-04 1.440430e-01
9.765625e-04 1.435547e-01
9.765625e-04 1.430664e-01
9.765625e-04 1.425781e-01
9.765625e-04 1.420898e-01
9.765625e-04 1.416016e-01
9.765625e-04 1.411133e-01
9.765625e-04 1.406250e-01
9.765625e-04 1.401367e-01
9.765625e-04 1.396484e-01
9.765625e-04 1.391602e-01
9.765625e-04 1.386719e-01
9.765625e-04 1.381836e-01
9.765625e-04 1.376953e-01
9.765625e-04 1.372070e-01
9.765625e-04 1.367188e-01
9.765625e-04 1.362305e-01
9.765625e-04 1.357422e-01
9.765625e-04 1.352539e-01
9.765625e-04 1.347656e-01
9.765625e-04 1.342773e-01
9.765625e-04 1.337891e-01
9.765625e-04 1.333008e-01
9.765625e-04 1.328125e-01
9.765625e-04 1.323242e-01
9.765625e-04 1.318359e-01
9.765625e-04 1.313477e-01
9.765625e-04 1.308594e-01
9.765625e-04 1.303711e-01
9.765625e-04 1.298828e-01
9.765625e-04 1.293945e-01
9.765625e-04 1.289062e-01
9.765625e-04 1.284180e-01
9.765625e-04 1.279297e-01
9.765625e-04 1.274414e-01
9.765625e-04 1.269531e-01
9.765625e-04 1.264648e-01
9.765625e-04 1.259766e-01
9.765625e-04 1.254883e-01
9.765625e-04 1.250000e-01
9.765625e-04 1.245117e-01
9.765625e-04 1.240234e-01
9.765625e-04 1.235352e-01
9.765625e-04 1.230469e-01
9.765625e-04 1.225586e-01
9.765625e-04 1.220703e-01
9.765625e-04 1.215820e-01
9.765625e-04 1.210938e-01
9.765625e-04 1.206055e-01
9.765625e-04 1.201172e-01
9.765625e-04 1.196289e-01
9.765625e-04 1.191406e-01
9.765625e-04 1.186523e-01
9.765625e-04 1.181641e-01
9.765625e-04 1.176758e-01
9.765625e-04 1.171875e-01
9.765625e-04 1.166992e-01
9.765625e-04 1.162109e-01
9.765625e-04 1.157227e-01
9.765625e-04 1.152344e-01
9.765625e-04 1.147461e-01
9.765625e-04 1.142578e-01
9.765625e-04 1.137695e-01
9.765625e-04 1.132812e-01
9.765625e-04 1.127930e-01
9.765625e-04 1.123047e-01
9.765625e-04 1.118164e-01
9.765625e-04 1.113281e-01
9.765625e-04 1.108398e-01
9.765625e-04 1.103516e-01
9.765625e-04 1.098633e-01
9.765625e-04 1.093750e-01
9.765625e-04 1.088867e-01
9.765625e-04 1.083984e-01
9.765625e-04 1.079102e-01
9.765625e-04 1.074219e-01
9.765625e-04 1.069336e-01
9.765625e-04 1.064453e-01
9.765625e-04 1.059570e-01
9.765625e-04 1.054688e-01
9.765625e-04 1.049805e-01
9.765625e-04 1.044922e-01
9.765625e-04 1.040039e-01
9.765625e-04 1.035156e-01
9.765625e-04 1.030273e-01
9.765625e-04 1.025391e-01
9.765625e-04 1.020508e-01
9.765625e-04 1.015625e-01
9.765625e-04 1.010742e-01
9.765625e-04 1.005859e-01
9.765625e-04 1.000977e-01
9.765625e-04 9.985352e-02
9.765625e-04 9.985352e-02
9.765625e-04 9.985352e-02
9.765625e-04 9.985352e-02
9.765625e-04 9.985352e-02
9.765625e-04 9.985352e-02
9.765625e-04 9.985352e-02
9.765625e-04 9.985352e-02
9.765625e-04 9.985352e-02
9.765625e-04 9.985352e-02
9.765625e-04 9.985352e-02
9.765625e-04 9.985352e-02
9.765625e-04 9.985352e-02
9.765625e-04 9.985352e-02
9.765625e-04 9.985352e-02
9.765625e-04 9.985352e-02
9.765625e-04 9.985352e-02
9.765625e-04 9.985352e-02
9.765625e-04 9.985352e-02
9.765625e-04 9.985352e-02
9.765625e-04 9.985352e-02
9.765625e-04 9.985352e-02
9.765625e-04 9.985352e-02
9.765625e-04 9.985352e-02
9.765625e-04 9.985352e-02
9.765625e-04 9.985352e-02
9.765625e-04 9.985352e-02
9.765625e-04 9.985352e-02
9.765625e-04 9.985352e-02
9.765625e-04 9.985352e-02
9.765625e-04 9.985352e-02
9.765625e-04 9.985352e-02
9.765625e-04 9.985352e-02
9.765625e-04 9.985352e-02
9.765625e-04 9.985352e-02
9.765625e-04 9.985352e-02
9.765625e-04 9.985352e-02
9.765625e-04 9.985352e-02
9.765625e-04 9.985352e-02
9.765625e-04 9.985352e-02
9.765625e-04 9.985352e-02
9.765625e-04 9.985352e-02
9.765625e-04 9.985352e-02
9.765625e-04 9.985352e-02
9.765625e-04 9.985352e-02
9.765625e-04 9.985352e-02
9.765625e-04 9.985352e-02
9.765625e-04 9.985352e-02
9.765625e-04 9.985352e-02
9.765625e-04 9.985352e-02
9.765625e-04 9.985352e-02
9.765625e-04 9.985352e-02
9.765625e-04 9.985352e-02
9.765625e-04 9.985352e-02
9.765625e-04 9.985352e-02
9.765625e-04 9.985352e-02
9.765625e-04 9.985352e-02
9.765625e-04 9.985352e-02
9.765625e-04 9.985352e-02
9.765625e-04 9.985352e-02
9.765625e-04 9.985352e-02
9.765625e-04 9.985352e-02
9.765625e-04 9.985352e-02
9.765625e-04 9.985352e-02
9.765625e-04 9.985352e-02
9.765625e-04 9.985352e-02
9.765625e-04 9.985352e-02
9.765625e-04 9.985352e-02
