9.226660e+01 6.302083e-01 -2.311017e-02 5.858244e-01 -9.985352e-01 9.965820e-01
8.559326e+01 6.302083e-01 -1.805013e-02 6.034917e-01 -1.456055e+00 1.719482e+00
7.779883e+01 6.302083e-01 6.079102e-03 7.512484e-01 -2.096436e+00 2.775146e+00
7.166626e+01 6.302083e-01 5.927101e-02 1.036317e+00 -2.757568e+00 4.201416e+00
6.639209e+01 6.302083e-01 1.208614e-01 1.340761e+00 -3.352295e+00 5.742920e+00
6.280322e+01 6.302083e-01 1.835097e-01 1.635248e+00 -3.890625e+00 7.116943e+00
6.025171e+01 3.802083e-01 2.393238e-01 1.898482e+00 -4.362305e+00 8.292725e+00
5.943701e+01 3.697917e-01 2.862956e-01 2.124332e+00 -4.769043e+00 9.282227e+00
5.939624e+01 3.697917e-01 3.248490e-01 2.313341e+00 -5.110840e+00 1.010425e+01
5.793115e+01 3.697917e-01 3.564119e-01 2.469656e+00 -5.401367e+00 1.078613e+01
5.706738e+01 3.697917e-01 3.820882e-01 2.597679e+00 -5.700439e+00 1.134668e+01
5.754565e+01 3.697917e-01 4.029821e-01 2.702354e+00 -5.943115e+00 1.180981e+01
5.744043e+01 3.697917e-01 4.198360e-01 2.787651e+00 -6.137939e+00 1.218921e+01
5.791260e+01 3.697917e-01 4.346707e-01 2.863949e+00 -6.319580e+00 1.254077e+01
5.785352e+01 3.697917e-01 4.469745e-01 2.927920e+00 -6.468018e+00 1.282593e+01
5.884180e+01 3.697917e-01 4.569318e-01 2.979839e+00 -6.587158e+00 1.305640e+01
5.880908e+01 3.697917e-01 4.648374e-01 3.021836e+00 -6.682861e+00 1.324194e+01
5.883179e+01 3.697917e-01 4.709789e-01 3.055792e+00 -6.760986e+00 1.339038e+01
5.874976e+01 3.697917e-01 4.758201e-01 3.083933e+00 -6.827148e+00 1.351660e+01
5.873682e+01 3.697917e-01 4.800826e-01 3.109072e+00 -6.882080e+00 1.362427e+01
5.879077e+01 3.697917e-01 4.835702e-01 3.129497e+00 -6.928223e+00 1.371216e+01
5.870117e+01 3.697917e-01 4.864701e-01 3.146132e+00 -6.965576e+00 1.378247e+01
5.876270e+01 3.697917e-01 4.885950e-01 3.159438e+00 -6.994141e+00 1.383740e+01
5.906812e+01 3.697917e-01 4.901421e-01 3.170782e+00 -7.014893e+00 1.388599e+01
5.757324e+01 3.697917e-01 4.912091e-01 3.181363e+00 -7.034424e+00 1.392749e+01
5.771997e+01 3.697917e-01 4.918258e-01 3.190821e+00 -7.053955e+00 1.395923e+01
5.779419e+01 3.697917e-01 4.920238e-01 3.199281e+00 -7.073486e+00 1.398120e+01
5.786304e+01 3.697917e-01 4.919768e-01 3.207360e+00 -7.093018e+00 1.400073e+01
5.776367e+01 3.697917e-01 4.916658e-01 3.214979e+00 -7.112549e+00 1.402026e+01
5.788672e+01 3.697917e-01 4.910482e-01 3.222563e+00 -7.134033e+00 1.404175e+01
5.784570e+01 3.697917e-01 4.901213e-01 3.229738e+00 -7.155518e+00 1.406323e+01
5.786499e+01 3.697917e-01 4.890110e-01 3.236708e+00 -7.177002e+00 1.408472e+01
5.782275e+01 3.697917e-01 4.875877e-01 3.243227e+00 -7.198486e+00 1.410620e+01
5.787817e+01 3.697917e-01 4.860261e-01 3.249622e+00 -7.219971e+00 1.412769e+01
5.805249e+01 3.697917e-01 4.842584e-01 3.256159e+00 -7.242432e+00 1.415015e+01
5.838525e+01 3.697917e-01 4.821506e-01 3.262986e+00 -7.265869e+00 1.417358e+01
5.858252e+01 3.697917e-01 4.795311e-01 3.269214e+00 -7.289307e+00 1.419702e+01
5.862817e+01 3.697917e-01 4.765761e-01 3.275151e+00 -7.312744e+00 1.422046e+01
5.814722e+01 3.697917e-01 4.730975e-01 3.280756e+00 -7.336182e+00 1.424390e+01
5.811377e+01 3.697917e-01 4.694526e-01 3.286563e+00 -7.359619e+00 1.426733e+01
5.781006e+01 3.697917e-01 4.654586e-01 3.292416e+00 -7.384033e+00 1.429175e+01
5.778442e+01 3.697917e-01 4.609502e-01 3.298824e+00 -7.409424e+00 1.431714e+01
5.783179e+01 3.697917e-01 4.560438e-01 3.305273e+00 -7.434814e+00 1.434253e+01
5.783179e+01 3.697917e-01 4.508961e-01 3.311977e+00 -7.460205e+00 1.436792e+01
5.781006e+01 3.697917e-01 4.459681e-01 3.319205e+00 -7.485596e+00 1.439331e+01
5.793433e+01 3.697917e-01 4.408972e-01 3.326826e+00 -7.510986e+00 1.441870e+01
5.781396e+01 3.697917e-01 4.364375e-01 3.335300e+00 -7.536377e+00 1.444409e+01
5.674316e+01 3.697917e-01 4.324861e-01 3.344541e+00 -7.561768e+00 1.446948e+01
5.688892e+01 3.697917e-01 4.289723e-01 3.354430e+00 -7.588135e+00 1.449585e+01
5.676587e+01 3.697917e-01 4.255606e-01 3.365457e+00 -7.615479e+00 1.452319e+01
5.682544e+01 3.697917e-01 4.225559e-01 3.376910e+00 -7.642822e+00 1.455054e+01
5.728467e+01 3.697917e-01 4.205594e-01 3.389189e+00 -7.670166e+00 1.457788e+01
5.774878e+01 3.697917e-01 4.198586e-01 3.402497e+00 -7.697510e+00 1.460522e+01
5.765405e+01 3.697917e-01 4.198287e-01 3.416477e+00 -7.724854e+00 1.463257e+01
5.777051e+01 3.697917e-01 4.217204e-01 3.432090e+00 -7.752197e+00 1.465991e+01
5.787915e+01 3.697917e-01 4.237612e-01 3.448091e+00 -7.779541e+00 1.468726e+01
5.790479e+01 3.697917e-01 4.270463e-01 3.464947e+00 -7.806885e+00 1.471460e+01
5.785742e+01 3.697917e-01 4.309010e-01 3.482690e+00 -7.835205e+00 1.474292e+01
5.785742e+01 3.697917e-01 4.347918e-01 3.502028e+00 -7.864502e+00 1.477222e+01
5.784863e+01 3.697917e-01 4.395354e-01 3.522265e+00 -7.893799e+00 1.480151e+01
5.697363e+01 3.697917e-01 4.431731e-01 3.542567e+00 -7.923096e+00 1.483081e+01
5.703003e+01 3.697917e-01 4.471417e-01 3.563166e+00 -7.952393e+00 1.486011e+01
5.691357e+01 3.697917e-01 4.511791e-01 3.584466e+00 -7.981689e+00 1.488940e+01
5.688989e+01 3.697917e-01 4.549597e-01 3.605913e+00 -8.010986e+00 1.491870e+01
5.683350e+01 3.697917e-01 4.572275e-01 3.627030e+00 -8.040283e+00 1.494800e+01
5.675269e+01 3.697917e-01 4.591046e-01 3.648195e+00 -8.069580e+00 1.497729e+01
5.676807e+01 3.697917e-01 4.596047e-01 3.668816e+00 -8.095215e+00 1.500659e+01
5.664624e+01 3.697917e-01 4.613372e-01 3.691500e+00 -8.122559e+00 1.503784e+01
5.724292e+01 3.697917e-01 4.633473e-01 3.714566e+00 -8.138184e+00 1.506909e+01
5.759814e+01 3.697917e-01 4.651123e-01 3.738525e+00 -8.153809e+00 1.510034e+01
5.708887e+01 3.697917e-01 4.687111e-01 3.763845e+00 -8.169434e+00 1.513159e+01
5.683228e+01 3.697917e-01 4.730469e-01 3.789539e+00 -8.177246e+00 1.516284e+01
5.689551e+01 3.697917e-01 4.779523e-01 3.815560e+00 -8.181152e+00 1.519409e+01
5.666821e+01 3.697917e-01 4.814996e-01 3.841042e+00 -8.177246e+00 1.522534e+01
5.648486e+01 3.697917e-01 4.876673e-01 3.867387e+00 -8.165527e+00 1.525659e+01
5.637134e+01 3.697917e-01 4.931514e-01 3.892790e+00 -8.151123e+00 1.528784e+01
5.598682e+01 3.697917e-01 4.991781e-01 3.918441e+00 -8.186279e+00 1.531909e+01
5.575928e+01 3.697917e-01 5.029586e-01 3.942503e+00 -8.222656e+00 1.535132e+01
5.505884e+01 3.697917e-01 5.078885e-01 3.968201e+00 -8.260010e+00 1.540161e+01
5.527979e+01 3.697917e-01 5.118616e-01 3.992787e+00 -8.297363e+00 1.573779e+01
5.496704e+01 3.697917e-01 5.159207e-01 4.017224e+00 -8.334717e+00 1.606567e+01
5.501294e+01 3.697917e-01 5.194544e-01 4.040630e+00 -8.372070e+00 1.637280e+01
5.496167e+01 3.697917e-01 5.229501e-01 4.063166e+00 -8.409424e+00 1.665503e+01
5.494971e+01 3.697917e-01 5.272235e-01 4.086180e+00 -8.442627e+00 1.697876e+01
5.506030e+01 3.697917e-01 5.299805e-01 4.107523e+00 -8.467529e+00 1.725684e+01
5.496875e+01 3.697917e-01 5.369331e-01 4.129339e+00 -8.496582e+00 1.757227e+01
5.480151e+01 3.697917e-01 5.456868e-01 4.151832e+00 -8.533936e+00 1.791675e+01
5.451807e+01 3.697917e-01 5.544750e-01 4.174866e+00 -8.571289e+00 1.826538e+01
5.475781e+01 3.697917e-01 5.616763e-01 4.198616e+00 -8.606445e+00 1.862573e+01
5.454517e+01 3.697917e-01 5.680809e-01 4.221503e+00 -8.641602e+00 1.895532e+01
5.444043e+01 3.697917e-01 5.757288e-01 4.245109e+00 -8.672363e+00 1.929810e+01
5.437134e+01 3.697917e-01 5.798466e-01 4.265415e+00 -8.689941e+00 1.956177e+01
5.418164e+01 3.697917e-01 5.865424e-01 4.285615e+00 -8.707520e+00 1.984741e+01
5.403809e+01 3.697917e-01 5.925447e-01 4.305318e+00 -8.725098e+00 2.012427e+01
5.386060e+01 3.697917e-01 5.977186e-01 4.324503e+00 -8.742676e+00 2.038794e+01
5.377881e+01 3.697917e-01 6.050881e-01 4.343857e+00 -8.755859e+00 2.064722e+01
5.376904e+01 3.697917e-01 6.119647e-01 4.363313e+00 -8.777832e+00 2.088892e+01
5.358228e+01 3.697917e-01 6.171224e-01 4.381259e+00 -8.791016e+00 2.111304e+01
5.350977e+01 3.697917e-01 6.215549e-01 4.397982e+00 -8.808594e+00 2.132397e+01
5.345654e+01 3.697917e-01 6.282154e-01 4.414507e+00 -8.826172e+00 2.152612e+01
5.345581e+01 3.697917e-01 6.340730e-01 4.431395e+00 -8.844727e+00 2.174414e+01
5.343530e+01 3.697917e-01 6.411784e-01 4.447731e+00 -8.881348e+00 2.192505e+01
5.333594e+01 3.697917e-01 6.505814e-01 4.466464e+00 -8.918457e+00 2.216626e+01
5.350684e+01 3.697917e-01 6.605442e-01 4.485323e+00 -8.955566e+00 2.238892e+01
5.334692e+01 3.697917e-01 6.677300e-01 4.502088e+00 -8.992676e+00 2.254663e+01
5.328516e+01 3.697917e-01 6.743643e-01 4.519260e+00 -9.029785e+00 2.271826e+01
5.314648e+01 3.697917e-01 6.803512e-01 4.534819e+00 -9.066895e+00 2.282959e+01
5.321191e+01 3.697917e-01 6.874494e-01 4.551941e+00 -9.113770e+00 2.296875e+01
5.314526e+01 3.697917e-01 6.956109e-01 4.570651e+00 -9.169434e+00 2.313110e+01
5.320728e+01 3.697917e-01 7.020743e-01 4.589336e+00 -9.248291e+00 2.329346e+01
5.264014e+01 3.697917e-01 7.077103e-01 4.607637e+00 -9.322510e+00 2.340942e+01
5.180762e+01 3.697917e-01 7.145490e-01 4.626677e+00 -9.424561e+00 2.354395e+01
5.149756e+01 3.697917e-01 7.221481e-01 4.649915e+00 -9.585693e+00 2.374414e+01
5.116553e+01 3.697917e-01 7.285238e-01 4.674903e+00 -9.781006e+00 2.392969e+01
5.123535e+01 3.697917e-01 7.302382e-01 4.695412e+00 -9.961670e+00 2.400293e+01
5.114331e+01 3.697917e-01 7.334120e-01 4.719818e+00 -1.015210e+01 2.412988e+01
5.092407e+01 3.697917e-01 7.327573e-01 4.743866e+00 -1.036206e+01 2.426172e+01
5.087280e+01 3.697917e-01 7.329346e-01 4.766983e+00 -1.054761e+01 2.439844e+01
5.082397e+01 3.697917e-01 7.285961e-01 4.784134e+00 -1.068433e+01 2.441309e+01
5.087183e+01 3.697917e-01 7.341688e-01 4.810675e+00 -1.084546e+01 2.458398e+01
5.073413e+01 3.697917e-01 7.388193e-01 4.835613e+00 -1.098706e+01 2.470605e+01
5.049902e+01 3.697917e-01 7.349148e-01 4.853795e+00 -1.110425e+01 2.471582e+01
5.052710e+01 3.697917e-01 7.390462e-01 4.876711e+00 -1.125073e+01 2.486230e+01
5.054272e+01 3.697917e-01 7.440032e-01 4.903597e+00 -1.141187e+01 2.501367e+01
5.043677e+01 3.697917e-01 7.368924e-01 4.917227e+00 -1.149683e+01 2.499414e+01
5.023169e+01 3.697917e-01 7.293050e-01 4.930859e+00 -1.157886e+01 2.492236e+01
5.008765e+01 3.697917e-01 7.313775e-01 4.952208e+00 -1.169165e+01 2.498901e+01
5.020459e+01 3.697917e-01 7.375633e-01 4.972168e+00 -1.178394e+01 2.503003e+01
5.030273e+01 3.697917e-01 7.431270e-01 4.990373e+00 -1.186597e+01 2.503003e+01
5.016138e+01 3.697917e-01 7.431831e-01 5.005709e+00 -1.190698e+01 2.497363e+01
5.016431e+01 3.697917e-01 7.443631e-01 5.022137e+00 -1.195312e+01 2.490186e+01
4.988477e+01 3.697917e-01 7.403067e-01 5.030988e+00 -1.196338e+01 2.471216e+01
4.968945e+01 3.697917e-01 7.414912e-01 5.044991e+00 -1.201978e+01 2.461475e+01
4.986914e+01 3.697917e-01 7.502125e-01 5.065275e+00 -1.210181e+01 2.464038e+01
4.956763e+01 3.697917e-01 7.500271e-01 5.077026e+00 -1.214795e+01 2.452759e+01
4.925293e+01 3.697917e-01 7.466073e-01 5.084613e+00 -1.218384e+01 2.433276e+01
4.924316e+01 3.697917e-01 7.462882e-01 5.094845e+00 -1.221460e+01 2.410205e+01
4.950757e+01 3.750000e-01 7.522036e-01 5.112970e+00 -1.228125e+01 2.402002e+01
4.912695e+01 3.437500e-01 7.568911e-01 5.128812e+00 -1.230273e+01 2.386011e+01
4.923853e+01 3.593750e-01 7.563006e-01 5.140873e+00 -1.231885e+01 2.367212e+01
4.924756e+01 3.958333e-01 7.568368e-01 5.151580e+00 -1.232959e+01 2.353784e+01
4.920483e+01 3.906250e-01 7.569173e-01 5.163774e+00 -1.236182e+01 2.336597e+01
4.866724e+01 3.593750e-01 7.587565e-01 5.177120e+00 -1.242627e+01 2.322095e+01
4.923413e+01 4.010417e-01 7.547119e-01 5.183937e+00 -1.247998e+01 2.296313e+01
4.936621e+01 4.062500e-01 7.576597e-01 5.198534e+00 -1.256055e+01 2.275903e+01
4.937183e+01 3.854167e-01 7.670564e-01 5.219026e+00 -1.266797e+01 2.266235e+01
4.922559e+01 3.958333e-01 7.706389e-01 5.236194e+00 -1.273779e+01 2.246899e+01
4.866382e+01 3.385417e-01 7.589157e-01 5.234921e+00 -1.276465e+01 2.204468e+01
4.900708e+01 3.593750e-01 7.473190e-01 5.234703e+00 -1.280225e+01 2.152368e+01
4.853149e+01 3.333333e-01 7.576362e-01 5.259391e+00 -1.300635e+01 2.156128e+01
4.827393e+01 3.072917e-01 7.687934e-01 5.286130e+00 -1.315674e+01 2.152905e+01
4.836206e+01 3.177083e-01 7.734836e-01 5.306187e+00 -1.326953e+01 2.137866e+01
4.834961e+01 3.125000e-01 7.754159e-01 5.319918e+00 -1.331787e+01 2.126050e+01
4.841650e+01 3.229167e-01 7.683549e-01 5.321444e+00 -1.335010e+01 2.093286e+01
4.845703e+01 3.437500e-01 7.596128e-01 5.321841e+00 -1.335107e+01 2.034204e+01
4.809473e+01 3.281250e-01 7.620642e-01 5.336638e+00 -1.344092e+01 2.003882e+01
4.823120e+01 3.281250e-01 7.638383e-01 5.349873e+00 -1.348022e+01 1.964014e+01
4.832715e+01 3.125000e-01 7.769477e-01 5.373760e+00 -1.363745e+01 1.967383e+01
4.805591e+01 3.125000e-01 7.737088e-01 5.381451e+00 -1.369922e+01 1.936499e+01
4.791064e+01 3.229167e-01 7.655979e-01 5.384013e+00 -1.371606e+01 1.879224e+01
4.771216e+01 3.177083e-01 7.698848e-01 5.398278e+00 -1.382837e+01 1.859351e+01
4.793652e+01 3.281250e-01 7.696054e-01 5.412278e+00 -1.392944e+01 1.863843e+01
4.799512e+01 3.385417e-01 7.654107e-01 5.419648e+00 -1.403613e+01 1.868335e+01
4.797412e+01 3.385417e-01 7.622721e-01 5.429760e+00 -1.414282e+01 1.872827e+01
4.785815e+01 3.281250e-01 7.645083e-01 5.438636e+00 -1.426636e+01 1.877319e+01
4.774585e+01 3.281250e-01 7.638283e-01 5.446142e+00 -1.438989e+01 1.881812e+01
4.733960e+01 2.968750e-01 7.618155e-01 5.451256e+00 -1.447412e+01 1.886304e+01
4.774341e+01 3.229167e-01 7.566325e-01 5.451939e+00 -1.458643e+01 1.890796e+01
4.767432e+01 3.072917e-01 7.633681e-01 5.466500e+00 -1.481104e+01 1.895288e+01
4.786230e+01 3.229167e-01 7.571370e-01 5.470824e+00 -1.496826e+01 1.899780e+01
4.788062e+01 3.177083e-01 7.574047e-01 5.481916e+00 -1.517603e+01 1.904272e+01
4.823511e+01 3.385417e-01 7.564417e-01 5.489236e+00 -1.535571e+01 1.908765e+01
4.845752e+01 3.541667e-01 7.513871e-01 5.490934e+00 -1.549048e+01 1.913257e+01
4.800220e+01 3.385417e-01 7.587755e-01 5.505964e+00 -1.569824e+01 1.917749e+01
4.789868e+01 3.229167e-01 7.635390e-01 5.519310e+00 -1.585254e+01 1.922339e+01
4.890137e+01 3.385417e-01 7.545962e-01 5.524538e+00 -1.594629e+01 1.927026e+01
4.844629e+01 3.125000e-01 7.668710e-01 5.552662e+00 -1.620996e+01 1.931714e+01
4.753833e+01 2.968750e-01 7.926378e-01 5.583807e+00 -1.633301e+01 1.936401e+01
4.730005e+01 3.177083e-01 7.935095e-01 5.590621e+00 -1.622168e+01 1.941089e+01
4.735449e+01 3.125000e-01 7.883943e-01 5.605306e+00 -1.623340e+01 1.945776e+01
4.717188e+01 3.020833e-01 7.856093e-01 5.631050e+00 -1.631543e+01 1.950464e+01
4.730786e+01 2.864583e-01 7.817021e-01 5.663966e+00 -1.642090e+01 1.955151e+01
4.735571e+01 2.916667e-01 7.774396e-01 5.681122e+00 -1.634473e+01 1.959839e+01
4.749341e+01 3.125000e-01 7.746826e-01 5.688960e+00 -1.614551e+01 1.964526e+01
4.760791e+01 3.125000e-01 7.739475e-01 5.712277e+00 -1.616895e+01 1.969214e+01
4.717212e+01 3.125000e-01 7.728416e-01 5.735560e+00 -1.617480e+01 1.973901e+01
4.688232e+01 3.020833e-01 7.693929e-01 5.760850e+00 -1.624512e+01 1.978589e+01
4.657446e+01 3.020833e-01 7.789062e-01 5.777491e+00 -1.611035e+01 1.983276e+01
4.658691e+01 3.125000e-01 7.881076e-01 5.795573e+00 -1.605176e+01 1.987964e+01
4.639209e+01 3.125000e-01 7.987377e-01 5.812852e+00 -1.594629e+01 1.992651e+01
4.627026e+01 3.125000e-01 8.036323e-01 5.832071e+00 -1.583496e+01 1.997339e+01
4.628467e+01 3.020833e-01 8.089645e-01 5.848716e+00 -1.557715e+01 2.002026e+01
4.639697e+01 2.916667e-01 8.066732e-01 5.870819e+00 -1.555371e+01 2.006714e+01
4.627271e+01 2.916667e-01 8.068269e-01 5.890189e+00 -1.543066e+01 2.011401e+01
4.602612e+01 2.916667e-01 8.136113e-01 5.909076e+00 -1.530762e+01 2.016187e+01
4.635596e+01 2.916667e-01 8.248481e-01 5.923192e+00 -1.489868e+01 2.021069e+01
4.608887e+01 2.864583e-01 8.257984e-01 5.945956e+00 -1.483154e+01 2.025952e+01
4.635474e+01 2.916667e-01 8.237956e-01 5.969795e+00 -1.484985e+01 2.030835e+01
4.621655e+01 2.916667e-01 8.203469e-01 5.996076e+00 -1.497803e+01 2.035718e+01
4.597437e+01 2.812500e-01 8.324562e-01 6.013764e+00 -1.479492e+01 2.040601e+01
4.579883e+01 2.760417e-01 8.405138e-01 6.033397e+00 -1.465454e+01 2.045483e+01
4.582446e+01 2.916667e-01 8.435900e-01 6.057216e+00 -1.467896e+01 2.050366e+01
4.575854e+01 2.916667e-01 8.409469e-01 6.080181e+00 -1.466675e+01 2.055249e+01
4.571533e+01 2.864583e-01 8.413113e-01 6.101281e+00 -1.459351e+01 2.060132e+01
4.535474e+01 2.864583e-01 8.468198e-01 6.121390e+00 -1.453247e+01 2.065015e+01
4.523193e+01 2.916667e-01 8.585603e-01 6.140142e+00 -1.435547e+01 2.069897e+01
4.504395e+01 2.864583e-01 8.556170e-01 6.166011e+00 -1.444092e+01 2.074780e+01
4.492651e+01 2.812500e-01 8.525156e-01 6.189609e+00 -1.442871e+01 2.079663e+01
4.457031e+01 2.760417e-01 8.598497e-01 6.210474e+00 -1.440430e+01 2.084546e+01
4.494116e+01 2.760417e-01 8.688992e-01 6.230340e+00 -1.429443e+01 2.089429e+01
4.508301e+01 2.760417e-01 8.713876e-01 6.252342e+00 -1.429443e+01 2.094312e+01
4.485913e+01 2.760417e-01 8.700675e-01 6.276973e+00 -1.431274e+01 2.099194e+01
4.448755e+01 2.708333e-01 8.724130e-01 6.297772e+00 -1.420898e+01 2.104077e+01
4.432227e+01 2.760417e-01 8.748607e-01 6.316623e+00 -1.407471e+01 2.108960e+01
4.457373e+01 2.760417e-01 8.867034e-01 6.336311e+00 -1.392822e+01 2.113843e+01
4.442578e+01 2.708333e-01 8.865442e-01 6.358052e+00 -1.388916e+01 2.118726e+01
4.438843e+01 2.708333e-01 8.890851e-01 6.380363e+00 -1.393994e+01 2.123804e+01
4.423096e+01 2.760417e-01 9.026855e-01 6.395415e+00 -1.399072e+01 2.128882e+01
4.419019e+01 2.760417e-01 9.030219e-01 6.417297e+00 -1.404150e+01 2.133960e+01
4.378052e+01 2.760417e-01 8.981436e-01 6.440354e+00 -1.409229e+01 2.139038e+01
4.354102e+01 2.760417e-01 8.978859e-01 6.461964e+00 -1.414307e+01 2.144116e+01
4.393506e+01 2.916667e-01 9.182228e-01 6.476519e+00 -1.419385e+01 2.149194e+01
4.367065e+01 2.708333e-01 9.185285e-01 6.497718e+00 -1.424463e+01 2.154272e+01
4.328809e+01 2.760417e-01 9.074327e-01 6.526334e+00 -1.429541e+01 2.159351e+01
4.364429e+01 2.812500e-01 9.083876e-01 6.546751e+00 -1.434619e+01 2.164429e+01
4.344922e+01 2.812500e-01 9.152570e-01 6.562359e+00 -1.439697e+01 2.169507e+01
4.426685e+01 3.020833e-01 9.225179e-01 6.577755e+00 -1.444775e+01 2.174585e+01
4.421899e+01 3.020833e-01 9.264802e-01 6.598852e+00 -1.449854e+01 2.179663e+01
4.362329e+01 2.916667e-01 9.289280e-01 6.622083e+00 -1.454932e+01 2.184741e+01
4.311206e+01 2.760417e-01 9.292896e-01 6.648589e+00 -1.460010e+01 2.189819e+01
4.330493e+01 2.708333e-01 9.297490e-01 6.674723e+00 -1.465088e+01 2.194897e+01
4.330591e+01 2.708333e-01 9.339383e-01 6.694174e+00 -1.470166e+01 2.199976e+01
4.332495e+01 2.760417e-01 9.383237e-01 6.713314e+00 -1.475244e+01 2.205054e+01
4.343579e+01 2.864583e-01 9.435348e-01 6.731068e+00 -1.480322e+01 2.210132e+01
4.346777e+01 2.812500e-01 9.471634e-01 6.751138e+00 -1.485400e+01 2.215210e+01
4.362573e+01 2.760417e-01 9.512741e-01 6.770422e+00 -1.490479e+01 2.220288e+01
4.327441e+01 2.656250e-01 9.519423e-01 6.794941e+00 -1.495557e+01 2.225366e+01
4.300269e+01 2.604167e-01 9.524776e-01 6.819965e+00 -1.500732e+01 2.230542e+01
4.294434e+01 2.552083e-01 9.552960e-01 6.842010e+00 -1.506006e+01 2.235815e+01
4.275806e+01 2.552083e-01 9.574246e-01 6.865190e+00 -1.511279e+01 2.241089e+01
4.314233e+01 2.604167e-01 9.639784e-01 6.881620e+00 -1.516553e+01 2.246362e+01
4.303760e+01 2.500000e-01 9.684308e-01 6.901265e+00 -1.521826e+01 2.251636e+01
4.270020e+01 2.447917e-01 9.659098e-01 6.931202e+00 -1.527100e+01 2.256909e+01
4.248950e+01 2.552083e-01 9.636583e-01 6.961198e+00 -1.532373e+01 2.262183e+01
4.260596e+01 2.500000e-01 9.665446e-01 6.983307e+00 -1.537646e+01 2.267456e+01
4.277271e+01 2.604167e-01 9.740063e-01 6.998395e+00 -1.542920e+01 2.272729e+01
4.287988e+01 2.708333e-01 9.774315e-01 7.019616e+00 -1.548193e+01 2.278003e+01
4.256104e+01 2.552083e-01 9.769405e-01 7.046495e+00 -1.553467e+01 2.283276e+01
4.255591e+01 2.604167e-01 9.768320e-01 7.072892e+00 -1.558740e+01 2.288550e+01
4.259351e+01 2.604167e-01 9.787580e-01 7.096122e+00 -1.564014e+01 2.293823e+01
4.243701e+01 2.500000e-01 9.816515e-01 7.118043e+00 -1.569287e+01 2.299097e+01
4.238062e+01 2.395833e-01 9.871736e-01 7.136082e+00 -1.574561e+01 2.304370e+01
4.280811e+01 2.604167e-01 9.919135e-01 7.155471e+00 -1.579834e+01 2.309644e+01
4.212939e+01 2.500000e-01 9.907941e-01 7.183310e+00 -1.585107e+01 2.314917e+01
4.208936e+01 2.552083e-01 9.947284e-01 7.204421e+00 -1.590381e+01 2.320190e+01
4.236792e+01 2.447917e-01 1.002139e+00 7.220638e+00 -1.595654e+01 2.325464e+01
4.214917e+01 2.552083e-01 1.004442e+00 7.244014e+00 -1.600928e+01 2.330737e+01
4.184473e+01 2.447917e-01 1.008331e+00 7.265083e+00 -1.606201e+01 2.336011e+01
4.139282e+01 2.395833e-01 1.007846e+00 7.291842e+00 -1.611475e+01 2.341284e+01
4.154712e+01 2.395833e-01 1.010071e+00 7.315602e+00 -1.616748e+01 2.346558e+01
4.148022e+01 2.447917e-01 1.011913e+00 7.340054e+00 -1.622119e+01 2.351929e+01
4.174512e+01 2.552083e-01 1.017925e+00 7.360354e+00 -1.627588e+01 2.357397e+01
4.169873e+01 2.395833e-01 1.025171e+00 7.379326e+00 -1.633057e+01 2.362866e+01
4.157397e+01 2.395833e-01 1.028688e+00 7.402763e+00 -1.638525e+01 2.368335e+01
4.134668e+01 2.604167e-01 1.027424e+00 7.431603e+00 -1.643994e+01 2.373804e+01
4.109521e+01 2.552083e-01 1.030679e+00 7.455366e+00 -1.649463e+01 2.379272e+01
4.106348e+01 2.447917e-01 1.030669e+00 7.482834e+00 -1.654932e+01 2.384741e+01
4.095508e+01 2.500000e-01 1.035373e+00 7.504805e+00 -1.660400e+01 2.390210e+01
4.110181e+01 2.500000e-01 1.041941e+00 7.524941e+00 -1.665869e+01 2.395679e+01
4.118994e+01 2.447917e-01 1.047910e+00 7.546118e+00 -1.671338e+01 2.401147e+01
4.095068e+01 2.447917e-01 1.048965e+00 7.572209e+00 -1.676807e+01 2.406616e+01
4.104517e+01 2.343750e-01 1.046866e+00 7.602030e+00 -1.682275e+01 2.412085e+01
4.097876e+01 2.343750e-01 1.048066e+00 7.628325e+00 -1.687744e+01 2.417554e+01
4.057666e+01 2.343750e-01 1.047709e+00 7.656335e+00 -1.693213e+01 2.423022e+01
4.127783e+01 2.343750e-01 1.058403e+00 7.672111e+00 -1.698682e+01 2.428491e+01
4.120166e+01 2.291667e-01 1.060254e+00 7.697429e+00 -1.704150e+01 2.433960e+01
4.039624e+01 2.343750e-01 1.058122e+00 7.726790e+00 -1.709619e+01 2.439429e+01
4.045264e+01 2.395833e-01 1.055376e+00 7.757099e+00 -1.715088e+01 2.444897e+01
4.074976e+01 2.343750e-01 1.059612e+00 7.779575e+00 -1.720557e+01 2.450366e+01
4.054761e+01 2.291667e-01 1.066970e+00 7.799042e+00 -1.726025e+01 2.455835e+01
4.041699e+01 2.291667e-01 1.070294e+00 7.822826e+00 -1.731494e+01 2.461304e+01
4.034668e+01 2.395833e-01 1.065724e+00 7.855103e+00 -1.736963e+01 2.466772e+01
3.999561e+01 2.395833e-01 1.065958e+00 7.882680e+00 -1.742432e+01 2.472241e+01
4.037476e+01 2.291667e-01 1.069978e+00 7.905589e+00 -1.747900e+01 2.477710e+01
4.012012e+01 2.239583e-01 1.077236e+00 7.925320e+00 -1.753369e+01 2.483179e+01
4.004834e+01 2.239583e-01 1.079598e+00 7.950484e+00 -1.758936e+01 2.488745e+01
3.980322e+01 2.239583e-01 1.084333e+00 7.974120e+00 -1.764600e+01 2.494409e+01
3.979272e+01 2.291667e-01 1.084064e+00 8.002504e+00 -1.770264e+01 2.500073e+01
3.957764e+01 2.239583e-01 1.089184e+00 8.025532e+00 -1.775928e+01 2.505737e+01
4.009106e+01 2.395833e-01 1.085943e+00 8.057148e+00 -1.781592e+01 2.511401e+01
3.957593e+01 2.291667e-01 1.094633e+00 8.076758e+00 -1.787256e+01 2.517065e+01
3.984814e+01 2.239583e-01 1.101897e+00 8.098168e+00 -1.792920e+01 2.522729e+01
3.995581e+01 2.239583e-01 1.104956e+00 8.123705e+00 -1.798584e+01 2.528394e+01
3.959912e+01 2.291667e-01 1.105990e+00 8.150735e+00 -1.804248e+01 2.534058e+01
3.940601e+01 2.291667e-01 1.108556e+00 8.176737e+00 -1.809912e+01 2.539722e+01
3.917676e+01 2.291667e-01 1.112073e+00 8.201867e+00 -1.815576e+01 2.545386e+01
3.910962e+01 2.291667e-01 1.112638e+00 8.229640e+00 -1.821240e+01 2.551050e+01
3.929443e+01 2.291667e-01 1.114526e+00 8.256417e+00 -1.826904e+01 2.556714e+01
3.987720e+01 2.187500e-01 1.121163e+00 8.278986e+00 -1.832568e+01 2.562378e+01
3.994067e+01 2.187500e-01 1.125328e+00 8.303835e+00 -1.838232e+01 2.568042e+01
3.918921e+01 2.291667e-01 1.119097e+00 8.337673e+00 -1.843896e+01 2.573706e+01
3.940747e+01 2.343750e-01 1.116987e+00 8.368379e+00 -1.849561e+01 2.579370e+01
3.980713e+01 2.239583e-01 1.127014e+00 8.387567e+00 -1.855225e+01 2.585034e+01
3.967725e+01 2.187500e-01 1.131579e+00 8.411986e+00 -1.860889e+01 2.590698e+01
3.969727e+01 2.239583e-01 1.131463e+00 8.440434e+00 -1.866553e+01 2.596362e+01
3.924463e+01 2.343750e-01 1.122660e+00 8.477612e+00 -1.872217e+01 2.602026e+01
3.941431e+01 2.343750e-01 1.122223e+00 8.506972e+00 -1.877881e+01 2.607690e+01
3.983081e+01 2.239583e-01 1.131675e+00 8.526117e+00 -1.883545e+01 2.613354e+01
3.999292e+01 2.343750e-01 1.137322e+00 8.549367e+00 -1.889209e+01 2.619019e+01
4.095850e+01 2.395833e-01 1.148973e+00 8.567610e+00 -1.894873e+01 2.624683e+01
3.962451e+01 2.187500e-01 1.150502e+00 8.594177e+00 -1.900537e+01 2.630347e+01
3.893237e+01 2.291667e-01 1.151812e+00 8.620872e+00 -1.906201e+01 2.636011e+01
3.885571e+01 2.135417e-01 1.153616e+00 8.647422e+00 -1.911865e+01 2.641675e+01
3.901758e+01 2.239583e-01 1.156339e+00 8.673841e+00 -1.917529e+01 2.647339e+01
3.915381e+01 2.187500e-01 1.159557e+00 8.700219e+00 -1.923193e+01 2.653003e+01
3.973999e+01 2.291667e-01 1.162884e+00 8.726511e+00 -1.928857e+01 2.658667e+01
4.008545e+01 2.291667e-01 1.165904e+00 8.752876e+00 -1.934521e+01 2.664331e+01
3.975708e+01 2.343750e-01 1.167943e+00 8.779474e+00 -1.940186e+01 2.669995e+01
3.918237e+01 2.187500e-01 1.169933e+00 8.806084e+00 -1.945850e+01 2.675659e+01
3.874829e+01 2.291667e-01 1.172056e+00 8.832706e+00 -1.951514e+01 2.681323e+01
3.867676e+01 2.291667e-01 1.174403e+00 8.859331e+00 -1.957178e+01 2.686987e+01
3.896094e+01 2.291667e-01 1.176920e+00 8.885804e+00 -1.962842e+01 2.692651e+01
3.930029e+01 2.239583e-01 1.179671e+00 8.912301e+00 -1.968506e+01 2.698315e+01
3.961401e+01 2.291667e-01 1.182464e+00 8.939466e+00 -1.974365e+01 2.704175e+01
3.956470e+01 2.239583e-01 1.185222e+00 8.966927e+00 -1.980225e+01 2.710034e+01
3.912280e+01 2.187500e-01 1.187657e+00 8.994466e+00 -1.986084e+01 2.715894e+01
3.887744e+01 2.187500e-01 1.190148e+00 9.021963e+00 -1.991943e+01 2.721753e+01
3.875757e+01 2.187500e-01 1.192498e+00 9.049450e+00 -1.997803e+01 2.727612e+01
3.896729e+01 2.239583e-01 1.194668e+00 9.077040e+00 -2.003662e+01 2.733472e+01
3.861450e+01 2.187500e-01 1.197276e+00 9.104565e+00 -2.009521e+01 2.739331e+01
3.865015e+01 2.135417e-01 1.200258e+00 9.131953e+00 -2.015381e+01 2.745190e+01
3.838574e+01 2.031250e-01 1.203118e+00 9.159450e+00 -2.021240e+01 2.751050e+01
3.830688e+01 2.031250e-01 1.205528e+00 9.187004e+00 -2.027100e+01 2.756909e+01
3.803345e+01 2.031250e-01 1.207907e+00 9.214599e+00 -2.032959e+01 2.762769e+01
3.818091e+01 2.083333e-01 1.210086e+00 9.242192e+00 -2.038818e+01 2.768628e+01
3.837451e+01 2.135417e-01 1.212422e+00 9.269840e+00 -2.044678e+01 2.774487e+01
3.809961e+01 2.083333e-01 1.214837e+00 9.297412e+00 -2.050537e+01 2.780347e+01
3.790356e+01 2.083333e-01 1.217569e+00 9.324920e+00 -2.056396e+01 2.786206e+01
3.815210e+01 2.135417e-01 1.220332e+00 9.352454e+00 -2.062256e+01 2.792065e+01
3.819531e+01 2.135417e-01 1.222835e+00 9.380050e+00 -2.068115e+01 2.797925e+01
3.778003e+01 2.083333e-01 1.225063e+00 9.407742e+00 -2.073975e+01 2.803784e+01
3.813428e+01 2.135417e-01 1.227575e+00 9.435339e+00 -2.079834e+01 2.809644e+01
3.825122e+01 2.083333e-01 1.230204e+00 9.462964e+00 -2.085693e+01 2.815503e+01
3.812158e+01 2.083333e-01 1.232660e+00 9.490621e+00 -2.091553e+01 2.821362e+01
3.843359e+01 2.083333e-01 1.235175e+00 9.518237e+00 -2.097412e+01 2.827222e+01
3.847754e+01 2.187500e-01 1.238080e+00 9.545783e+00 -2.103271e+01 2.833081e+01
3.849854e+01 2.083333e-01 1.240468e+00 9.573473e+00 -2.109131e+01 2.838940e+01
3.866064e+01 2.291667e-01 1.243385e+00 9.601071e+00 -2.114990e+01 2.844800e+01
3.873096e+01 2.291667e-01 1.246334e+00 9.628663e+00 -2.120850e+01 2.850659e+01
3.871362e+01 2.291667e-01 1.248834e+00 9.656297e+00 -2.126709e+01 2.856519e+01
3.903613e+01 2.291667e-01 1.251095e+00 9.684034e+00 -2.132568e+01 2.862378e+01
3.885669e+01 2.239583e-01 1.253516e+00 9.711758e+00 -2.138428e+01 2.868237e+01
3.885791e+01 2.239583e-01 1.256046e+00 9.739432e+00 -2.144287e+01 2.874097e+01
3.877393e+01 2.135417e-01 1.258317e+00 9.767174e+00 -2.150146e+01 2.879956e+01
3.878198e+01 2.135417e-01 1.260896e+00 9.794860e+00 -2.156006e+01 2.885815e+01
3.905615e+01 2.291667e-01 1.263602e+00 9.822483e+00 -2.161865e+01 2.891675e+01
3.917114e+01 2.343750e-01 1.266305e+00 9.850172e+00 -2.167725e+01 2.897534e+01
3.935840e+01 2.291667e-01 1.268773e+00 9.877798e+00 -2.173584e+01 2.903394e+01
3.917578e+01 2.291667e-01 1.270902e+00 9.905045e+00 -2.179443e+01 2.909253e+01
3.876001e+01 2.239583e-01 1.273023e+00 9.932202e+00 -2.185303e+01 2.915112e+01
3.865405e+01 2.187500e-01 1.275064e+00 9.959124e+00 -2.191162e+01 2.920972e+01
3.878442e+01 2.187500e-01 1.277236e+00 9.986061e+00 -2.197021e+01 2.926831e+01
3.901929e+01 2.239583e-01 1.279555e+00 1.001359e+01 -2.203076e+01 2.932886e+01
3.913867e+01 2.239583e-01 1.281824e+00 1.004115e+01 -2.209131e+01 2.938940e+01
3.915698e+01 2.291667e-01 1.284344e+00 1.006868e+01 -2.215186e+01 2.944995e+01
3.905688e+01 2.187500e-01 1.286872e+00 1.009614e+01 -2.221240e+01 2.951050e+01
3.902026e+01 2.291667e-01 1.288656e+00 1.012329e+01 -2.227295e+01 2.957104e+01
3.910620e+01 2.291667e-01 1.290365e+00 1.015042e+01 -2.233350e+01 2.963159e+01
3.919116e+01 2.187500e-01 1.291999e+00 1.017730e+01 -2.239404e+01 2.969214e+01
3.889429e+01 2.135417e-01 1.293401e+00 1.020395e+01 -2.245459e+01 2.975269e+01
3.893091e+01 2.135417e-01 1.294946e+00 1.023056e+01 -2.251514e+01 2.981323e+01
3.896802e+01 2.135417e-01 1.297026e+00 1.025710e+01 -2.257568e+01 2.987378e+01
3.883911e+01 2.083333e-01 1.298757e+00 1.028354e+01 -2.263623e+01 2.993433e+01
3.878491e+01 2.083333e-01 1.300392e+00 1.031015e+01 -2.269678e+01 2.999487e+01
3.865649e+01 2.135417e-01 1.302087e+00 1.033655e+01 -2.275732e+01 3.005542e+01
3.865674e+01 2.187500e-01 1.303922e+00 1.036323e+01 -2.281787e+01 3.011597e+01
3.847583e+01 2.135417e-01 1.305452e+00 1.038993e+01 -2.287842e+01 3.017651e+01
3.842822e+01 2.083333e-01 1.307020e+00 1.041662e+01 -2.293896e+01 3.023706e+01
3.892065e+01 2.083333e-01 1.308253e+00 1.044320e+01 -2.299951e+01 3.029761e+01
3.889575e+01 2.083333e-01 1.309777e+00 1.047000e+01 -2.306006e+01 3.035815e+01
3.879272e+01 2.083333e-01 1.311425e+00 1.049691e+01 -2.312061e+01 3.041870e+01
3.891919e+01 2.083333e-01 1.313190e+00 1.052369e+01 -2.318115e+01 3.047925e+01
3.868066e+01 2.187500e-01 1.315188e+00 1.055050e+01 -2.324170e+01 3.053979e+01
3.860156e+01 2.239583e-01 1.317006e+00 1.057731e+01 -2.330225e+01 3.060034e+01
3.876929e+01 2.239583e-01 1.318663e+00 1.060420e+01 -2.336279e+01 3.066089e+01
3.863525e+01 2.239583e-01 1.320581e+00 1.063107e+01 -2.342334e+01 3.072144e+01
3.858154e+01 2.187500e-01 1.322298e+00 1.065797e+01 -2.348389e+01 3.078198e+01
3.881812e+01 2.135417e-01 1.323928e+00 1.068475e+01 -2.354443e+01 3.084253e+01
3.856104e+01 2.083333e-01 1.325595e+00 1.071172e+01 -2.360498e+01 3.090308e+01
3.858643e+01 2.083333e-01 1.327144e+00 1.073871e+01 -2.366553e+01 3.096362e+01
3.848315e+01 2.083333e-01 1.328872e+00 1.076553e+01 -2.372607e+01 3.102417e+01
3.875684e+01 2.187500e-01 1.330839e+00 1.079250e+01 -2.378662e+01 3.108472e+01
3.856177e+01 2.135417e-01 1.332646e+00 1.081938e+01 -2.384717e+01 3.114526e+01
3.854150e+01 2.187500e-01 1.334886e+00 1.084644e+01 -2.390771e+01 3.120581e+01
3.869312e+01 2.135417e-01 1.336699e+00 1.087343e+01 -2.396826e+01 3.126636e+01
3.847827e+01 2.135417e-01 1.338204e+00 1.090058e+01 -2.402881e+01 3.132690e+01
3.820630e+01 2.083333e-01 1.339758e+00 1.092759e+01 -2.408936e+01 3.138745e+01
3.835376e+01 2.135417e-01 1.341621e+00 1.095469e+01 -2.414990e+01 3.144800e+01
3.827612e+01 2.135417e-01 1.343368e+00 1.098172e+01 -2.421045e+01 3.150854e+01
3.855396e+01 2.135417e-01 1.345082e+00 1.100879e+01 -2.427100e+01 3.156909e+01
3.844263e+01 2.135417e-01 1.346770e+00 1.103598e+01 -2.433154e+01 3.162964e+01
3.846240e+01 2.187500e-01 1.348427e+00 1.106331e+01 -2.439307e+01 3.169116e+01
3.840918e+01 2.187500e-01 1.350099e+00 1.109138e+01 -2.445557e+01 3.175366e+01
3.830029e+01 2.135417e-01 1.351538e+00 1.111952e+01 -2.451807e+01 3.181616e+01
3.841724e+01 2.187500e-01 1.353341e+00 1.114761e+01 -2.458057e+01 3.187866e+01
3.859106e+01 2.187500e-01 1.355178e+00 1.117572e+01 -2.464307e+01 3.194116e+01
3.873633e+01 2.239583e-01 1.356893e+00 1.120374e+01 -2.470557e+01 3.200366e+01
3.869775e+01 2.239583e-01 1.358886e+00 1.123189e+01 -2.476807e+01 3.206616e+01
3.852759e+01 2.239583e-01 1.360789e+00 1.126004e+01 -2.483057e+01 3.212866e+01
3.878662e+01 2.187500e-01 1.362249e+00 1.128813e+01 -2.489307e+01 3.219116e+01
3.891382e+01 2.187500e-01 1.364053e+00 1.131656e+01 -2.495557e+01 3.225366e+01
3.884082e+01 2.135417e-01 1.365897e+00 1.134502e+01 -2.501807e+01 3.231616e+01
3.864087e+01 2.187500e-01 1.367874e+00 1.137327e+01 -2.508057e+01 3.237866e+01
3.863354e+01 2.239583e-01 1.369835e+00 1.140147e+01 -2.514307e+01 3.244116e+01
3.856055e+01 2.239583e-01 1.371630e+00 1.142969e+01 -2.520557e+01 3.250366e+01
3.869385e+01 2.187500e-01 1.373235e+00 1.145787e+01 -2.526807e+01 3.256616e+01
3.877637e+01 2.187500e-01 1.374688e+00 1.148611e+01 -2.533057e+01 3.262866e+01
3.872534e+01 2.187500e-01 1.376173e+00 1.151431e+01 -2.539307e+01 3.269116e+01
3.874976e+01 2.187500e-01 1.377932e+00 1.154260e+01 -2.545557e+01 3.275366e+01
3.880469e+01 2.187500e-01 1.379554e+00 1.157088e+01 -2.551807e+01 3.281616e+01
3.878247e+01 2.187500e-01 1.381349e+00 1.159923e+01 -2.558057e+01 3.287866e+01
3.878979e+01 2.187500e-01 1.383092e+00 1.162756e+01 -2.564307e+01 3.294116e+01
3.887695e+01 2.239583e-01 1.384770e+00 1.165581e+01 -2.570557e+01 3.300366e+01
3.878442e+01 2.291667e-01 1.386868e+00 1.168421e+01 -2.576807e+01 3.306616e+01
3.892749e+01 2.291667e-01 1.388693e+00 1.171246e+01 -2.583057e+01 3.312866e+01
3.901636e+01 2.291667e-01 1.390327e+00 1.174083e+01 -2.589307e+01 3.319116e+01
3.898511e+01 2.239583e-01 1.392401e+00 1.176932e+01 -2.595557e+01 3.325366e+01
3.880933e+01 2.031250e-01 1.394295e+00 1.179776e+01 -2.601807e+01 3.331616e+01
3.898584e+01 2.343750e-01 1.396563e+00 1.182633e+01 -2.608057e+01 3.337866e+01
3.887671e+01 2.343750e-01 1.398454e+00 1.185473e+01 -2.614307e+01 3.344116e+01
3.869458e+01 2.083333e-01 1.400170e+00 1.188315e+01 -2.620557e+01 3.350366e+01
3.864429e+01 2.083333e-01 1.401698e+00 1.191151e+01 -2.626807e+01 3.356616e+01
3.874658e+01 2.031250e-01 1.403375e+00 1.194003e+01 -2.633057e+01 3.362866e+01
3.878223e+01 2.031250e-01 1.405051e+00 1.196848e+01 -2.639307e+01 3.369116e+01
3.844434e+01 2.031250e-01 1.406797e+00 1.199697e+01 -2.645557e+01 3.375366e+01
3.885718e+01 2.239583e-01 1.408910e+00 1.202543e+01 -2.651807e+01 3.381616e+01
3.895654e+01 2.187500e-01 1.410961e+00 1.205410e+01 -2.658057e+01 3.387866e+01
3.878784e+01 2.031250e-01 1.412435e+00 1.208264e+01 -2.664307e+01 3.394116e+01
3.861182e+01 2.031250e-01 1.414133e+00 1.211124e+01 -2.670557e+01 3.400366e+01
3.853149e+01 2.083333e-01 1.415720e+00 1.213990e+01 -2.676807e+01 3.406616e+01
3.848657e+01 2.031250e-01 1.417291e+00 1.216847e+01 -2.683057e+01 3.412866e+01
3.863159e+01 2.031250e-01 1.419548e+00 1.219741e+01 -2.689307e+01 3.419116e+01
3.863867e+01 2.031250e-01 1.421758e+00 1.222645e+01 -2.695654e+01 3.425464e+01
3.866895e+01 2.031250e-01 1.423664e+00 1.225617e+01 -2.702100e+01 3.431909e+01
3.864722e+01 2.083333e-01 1.425211e+00 1.228578e+01 -2.708545e+01 3.438354e+01
3.866260e+01 2.031250e-01 1.427082e+00 1.231536e+01 -2.714990e+01 3.444800e+01
3.865332e+01 2.031250e-01 1.428632e+00 1.234488e+01 -2.721436e+01 3.451245e+01
3.854834e+01 2.031250e-01 1.430482e+00 1.237464e+01 -2.727881e+01 3.457690e+01
3.858838e+01 2.031250e-01 1.432688e+00 1.240421e+01 -2.734326e+01 3.464136e+01
3.854834e+01 2.031250e-01 1.434245e+00 1.243376e+01 -2.740771e+01 3.470581e+01
3.835498e+01 2.031250e-01 1.435344e+00 1.246327e+01 -2.747217e+01 3.477026e+01
3.801074e+01 2.031250e-01 1.436723e+00 1.249296e+01 -2.753662e+01 3.483472e+01
3.813672e+01 2.083333e-01 1.438233e+00 1.252280e+01 -2.760107e+01 3.489917e+01
3.791626e+01 2.083333e-01 1.439404e+00 1.255249e+01 -2.766553e+01 3.496362e+01
3.800195e+01 2.083333e-01 1.440855e+00 1.258211e+01 -2.772998e+01 3.502808e+01
3.834302e+01 2.083333e-01 1.442621e+00 1.261181e+01 -2.779443e+01 3.509253e+01
3.826343e+01 2.135417e-01 1.444317e+00 1.264168e+01 -2.785889e+01 3.515698e+01
3.831689e+01 2.083333e-01 1.445342e+00 1.267137e+01 -2.792334e+01 3.522144e+01
3.809595e+01 2.031250e-01 1.446427e+00 1.270117e+01 -2.798779e+01 3.528589e+01
3.795166e+01 2.083333e-01 1.447015e+00 1.273082e+01 -2.805225e+01 3.535034e+01
3.798950e+01 2.031250e-01 1.448974e+00 1.276073e+01 -2.811670e+01 3.541479e+01
3.809277e+01 2.031250e-01 1.450018e+00 1.279056e+01 -2.818115e+01 3.547925e+01
3.849927e+01 2.135417e-01 1.451182e+00 1.282044e+01 -2.824561e+01 3.554370e+01
3.829883e+01 2.135417e-01 1.452810e+00 1.285050e+01 -2.831006e+01 3.560815e+01
3.841870e+01 2.135417e-01 1.453743e+00 1.288043e+01 -2.837451e+01 3.567261e+01
3.831519e+01 2.031250e-01 1.454321e+00 1.291040e+01 -2.843896e+01 3.573706e+01
3.817236e+01 2.031250e-01 1.454919e+00 1.294038e+01 -2.850342e+01 3.580151e+01
3.822852e+01 2.031250e-01 1.455845e+00 1.297037e+01 -2.856787e+01 3.586597e+01
3.818188e+01 2.031250e-01 1.455614e+00 1.300044e+01 -2.863232e+01 3.593042e+01
3.843848e+01 2.187500e-01 1.455998e+00 1.303072e+01 -2.869678e+01 3.599487e+01
3.841577e+01 2.187500e-01 1.456350e+00 1.306092e+01 -2.876123e+01 3.605933e+01
3.844238e+01 2.239583e-01 1.456444e+00 1.309121e+01 -2.882568e+01 3.612378e+01
3.850220e+01 2.187500e-01 1.457226e+00 1.312148e+01 -2.889014e+01 3.618823e+01
3.860132e+01 2.239583e-01 1.456626e+00 1.315168e+01 -2.895459e+01 3.625269e+01
3.844531e+01 2.187500e-01 1.456654e+00 1.318209e+01 -2.901904e+01 3.631714e+01
3.832080e+01 2.187500e-01 1.457178e+00 1.321262e+01 -2.908350e+01 3.638159e+01
3.830566e+01 2.187500e-01 1.456878e+00 1.324319e+01 -2.914795e+01 3.644604e+01
3.827563e+01 2.187500e-01 1.457521e+00 1.327350e+01 -2.921240e+01 3.651050e+01
3.832690e+01 2.187500e-01 1.458719e+00 1.330385e+01 -2.927686e+01 3.657495e+01
3.859766e+01 2.187500e-01 1.458786e+00 1.333430e+01 -2.934131e+01 3.663940e+01
3.876172e+01 2.187500e-01 1.459235e+00 1.336452e+01 -2.940576e+01 3.670386e+01
3.862305e+01 2.187500e-01 1.459002e+00 1.339465e+01 -2.947021e+01 3.676831e+01
3.855371e+01 2.187500e-01 1.457690e+00 1.342494e+01 -2.953467e+01 3.683276e+01
3.827832e+01 2.239583e-01 1.456312e+00 1.345507e+01 -2.959912e+01 3.689722e+01
3.840723e+01 2.239583e-01 1.454168e+00 1.348524e+01 -2.966357e+01 3.696167e+01
3.866138e+01 2.187500e-01 1.454534e+00 1.351574e+01 -2.972900e+01 3.702710e+01
3.875488e+01 2.187500e-01 1.453111e+00 1.354673e+01 -2.979541e+01 3.709351e+01
3.871289e+01 2.291667e-01 1.450245e+00 1.357798e+01 -2.986182e+01 3.715991e+01
3.876758e+01 2.291667e-01 1.447050e+00 1.360967e+01 -2.992822e+01 3.722632e+01
3.889111e+01 2.187500e-01 1.444333e+00 1.364164e+01 -2.999463e+01 3.729272e+01
3.864795e+01 2.135417e-01 1.443484e+00 1.367389e+01 -3.006104e+01 3.735913e+01
3.849048e+01 2.135417e-01 1.444340e+00 1.370607e+01 -3.012744e+01 3.742554e+01
3.896948e+01 2.135417e-01 1.450923e+00 1.373815e+01 -3.019385e+01 3.749194e+01
3.873901e+01 2.135417e-01 1.457016e+00 1.377037e+01 -3.026025e+01 3.755835e+01
3.876196e+01 2.135417e-01 1.463904e+00 1.380304e+01 -3.032666e+01 3.762476e+01
3.893311e+01 2.083333e-01 1.469771e+00 1.383620e+01 -3.039307e+01 3.769116e+01
3.928857e+01 2.135417e-01 1.474465e+00 1.386946e+01 -3.045947e+01 3.775757e+01
3.905933e+01 2.135417e-01 1.476861e+00 1.390270e+01 -3.052588e+01 3.782397e+01
3.898877e+01 2.135417e-01 1.479691e+00 1.393611e+01 -3.059229e+01 3.789038e+01
3.887476e+01 2.135417e-01 1.481582e+00 1.396980e+01 -3.065869e+01 3.795679e+01
3.865186e+01 2.135417e-01 1.486305e+00 1.400319e+01 -3.072510e+01 3.802319e+01
3.873535e+01 2.083333e-01 1.488777e+00 1.403686e+01 -3.079150e+01 3.808960e+01
3.853540e+01 2.083333e-01 1.491172e+00 1.407096e+01 -3.085791e+01 3.815601e+01
3.836353e+01 2.083333e-01 1.496580e+00 1.410475e+01 -3.092432e+01 3.822241e+01
3.852637e+01 2.083333e-01 1.501050e+00 1.413916e+01 -3.099072e+01 3.834351e+01
3.785400e+01 2.083333e-01 1.504456e+00 1.417381e+01 -3.105713e+01 3.858423e+01
3.785742e+01 2.031250e-01 1.508190e+00 1.420861e+01 -3.112354e+01 3.882495e+01
3.830811e+01 2.083333e-01 1.512320e+00 1.424310e+01 -3.118994e+01 3.904907e+01
3.906006e+01 2.083333e-01 1.519293e+00 1.427761e+01 -3.125635e+01 3.928149e+01
3.888647e+01 2.083333e-01 1.525479e+00 1.431245e+01 -3.132275e+01 3.951392e+01
3.863867e+01 2.083333e-01 1.530608e+00 1.434680e+01 -3.138916e+01 3.973804e+01
3.833813e+01 2.083333e-01 1.531056e+00 1.438151e+01 -3.145557e+01 3.995386e+01
3.836646e+01 2.031250e-01 1.532121e+00 1.441607e+01 -3.152197e+01 4.016138e+01
3.826123e+01 2.031250e-01 1.537332e+00 1.445048e+01 -3.158838e+01 4.038550e+01
3.832300e+01 2.083333e-01 1.539504e+00 1.448509e+01 -3.165479e+01 4.060132e+01
3.855908e+01 2.135417e-01 1.541844e+00 1.451963e+01 -3.172119e+01 4.081714e+01
3.891553e+01 2.135417e-01 1.545620e+00 1.455422e+01 -3.178760e+01 4.104126e+01
3.887817e+01 2.135417e-01 1.552803e+00 1.458885e+01 -3.185400e+01 4.127368e+01
3.878271e+01 2.135417e-01 1.558620e+00 1.462325e+01 -3.192041e+01 4.148950e+01
3.815967e+01 2.031250e-01 1.562811e+00 1.465760e+01 -3.198682e+01 4.170532e+01
3.822632e+01 2.083333e-01 1.566885e+00 1.469178e+01 -3.205322e+01 4.191284e+01
3.793066e+01 2.083333e-01 1.571495e+00 1.472611e+01 -3.211963e+01 4.213696e+01
3.802319e+01 2.083333e-01 1.572502e+00 1.476087e+01 -3.218604e+01 4.234448e+01
3.830981e+01 2.135417e-01 1.577322e+00 1.479548e+01 -3.225244e+01 4.256860e+01
3.837012e+01 2.135417e-01 1.579177e+00 1.483007e+01 -3.231885e+01 4.278442e+01
3.836084e+01 2.135417e-01 1.584445e+00 1.486449e+01 -3.238525e+01 4.300024e+01
3.836987e+01 2.187500e-01 1.588766e+00 1.489879e+01 -3.245166e+01 4.321606e+01
3.841528e+01 2.135417e-01 1.590709e+00 1.493358e+01 -3.251807e+01 4.343188e+01
3.783325e+01 2.135417e-01 1.595727e+00 1.496817e+01 -3.258447e+01 4.365601e+01
3.787891e+01 2.031250e-01 1.599813e+00 1.500302e+01 -3.265088e+01 4.387183e+01
3.794678e+01 2.135417e-01 1.604052e+00 1.503785e+01 -3.271729e+01 4.408765e+01
3.814429e+01 2.135417e-01 1.609130e+00 1.507265e+01 -3.278369e+01 4.431177e+01
3.808130e+01 2.187500e-01 1.612590e+00 1.510750e+01 -3.285010e+01 4.452759e+01
3.810889e+01 2.187500e-01 1.616594e+00 1.514223e+01 -3.291650e+01 4.475171e+01
3.813232e+01 2.135417e-01 1.618407e+00 1.517731e+01 -3.298291e+01 4.497583e+01
3.810913e+01 2.135417e-01 1.620952e+00 1.521262e+01 -3.304932e+01 4.519995e+01
3.810889e+01 2.135417e-01 1.623424e+00 1.524792e+01 -3.311572e+01 4.541577e+01
3.803052e+01 2.135417e-01 1.627882e+00 1.528297e+01 -3.318213e+01 4.563159e+01
3.807910e+01 2.187500e-01 1.634022e+00 1.531774e+01 -3.324854e+01 4.584741e+01
3.810596e+01 2.187500e-01 1.638985e+00 1.535278e+01 -3.331494e+01 4.607153e+01
3.805249e+01 2.135417e-01 1.643919e+00 1.538786e+01 -3.338135e+01 4.628735e+01
3.805273e+01 2.083333e-01 1.648806e+00 1.542291e+01 -3.344775e+01 4.651147e+01
3.788379e+01 2.083333e-01 1.654082e+00 1.545777e+01 -3.351416e+01 4.671069e+01
3.793701e+01 2.135417e-01 1.657171e+00 1.549284e+01 -3.358057e+01 4.690991e+01
3.817749e+01 2.239583e-01 1.662182e+00 1.552758e+01 -3.364697e+01 4.710913e+01
3.836719e+01 2.239583e-01 1.666484e+00 1.556234e+01 -3.371338e+01 4.730005e+01
3.829883e+01 2.239583e-01 1.669717e+00 1.559699e+01 -3.377979e+01 4.748267e+01
3.806055e+01 2.083333e-01 1.670128e+00 1.563191e+01 -3.384619e+01 4.765698e+01
3.817578e+01 2.083333e-01 1.672018e+00 1.566629e+01 -3.391260e+01 4.782300e+01
3.834863e+01 2.083333e-01 1.674416e+00 1.570058e+01 -3.397900e+01 4.798901e+01
3.819897e+01 2.135417e-01 1.679215e+00 1.573473e+01 -3.404541e+01 4.816333e+01
3.804883e+01 2.083333e-01 1.683561e+00 1.576891e+01 -3.411182e+01 4.832104e+01
3.793262e+01 2.083333e-01 1.689669e+00 1.580256e+01 -3.417822e+01 4.847046e+01
3.818164e+01 2.083333e-01 1.695114e+00 1.583614e+01 -3.424463e+01 4.861157e+01
3.820410e+01 2.083333e-01 1.699037e+00 1.586952e+01 -3.431104e+01 4.874438e+01
3.821777e+01 2.083333e-01 1.702461e+00 1.590279e+01 -3.437744e+01 4.886890e+01
3.809326e+01 2.083333e-01 1.707770e+00 1.593583e+01 -3.444385e+01 4.898511e+01
3.807690e+01 2.083333e-01 1.709927e+00 1.596902e+01 -3.451025e+01 4.910132e+01
3.803613e+01 2.031250e-01 1.713259e+00 1.600209e+01 -3.457666e+01 4.921753e+01
3.800488e+01 2.135417e-01 1.716801e+00 1.603492e+01 -3.464307e+01 4.931714e+01
3.813745e+01 2.187500e-01 1.720133e+00 1.606739e+01 -3.470947e+01 4.940845e+01
3.807080e+01 2.083333e-01 1.720438e+00 1.609999e+01 -3.477588e+01 4.949146e+01
3.786426e+01 2.083333e-01 1.724602e+00 1.613274e+01 -3.484229e+01 4.959937e+01
3.827271e+01 2.187500e-01 1.728543e+00 1.616520e+01 -3.490869e+01 4.968237e+01
3.827808e+01 2.239583e-01 1.731566e+00 1.619775e+01 -3.497510e+01 4.975708e+01
3.806982e+01 2.239583e-01 1.736115e+00 1.623017e+01 -3.504150e+01 4.984009e+01
3.809814e+01 2.187500e-01 1.739436e+00 1.626275e+01 -3.510791e+01 4.992310e+01
3.804321e+01 2.187500e-01 1.741221e+00 1.629560e+01 -3.517432e+01 5.000610e+01
3.801807e+01 2.187500e-01 1.745183e+00 1.632817e+01 -3.524072e+01 5.009741e+01
3.792627e+01 2.187500e-01 1.749667e+00 1.636061e+01 -3.530713e+01 5.018042e+01
3.786157e+01 2.187500e-01 1.751443e+00 1.639327e+01 -3.537354e+01 5.026343e+01
3.800269e+01 2.187500e-01 1.756003e+00 1.642569e+01 -3.543994e+01 5.035474e+01
3.747461e+01 2.135417e-01 1.757638e+00 1.645909e+01 -3.550830e+01 5.044019e+01
3.750610e+01 2.135417e-01 1.761338e+00 1.649229e+01 -3.557666e+01 5.052563e+01
3.750562e+01 2.135417e-01 1.764991e+00 1.652541e+01 -3.564502e+01 5.060254e+01
3.785205e+01 2.187500e-01 1.767912e+00 1.655859e+01 -3.571338e+01 5.068799e+01
3.804028e+01 2.187500e-01 1.773263e+00 1.659151e+01 -3.578174e+01 5.077344e+01
3.791040e+01 2.187500e-01 1.775869e+00 1.662479e+01 -3.585010e+01 5.085889e+01
3.768726e+01 2.135417e-01 1.777821e+00 1.665828e+01 -3.591846e+01 5.094434e+01
3.772949e+01 2.135417e-01 1.781709e+00 1.669202e+01 -3.598682e+01 5.104688e+01
3.764380e+01 2.135417e-01 1.787139e+00 1.672547e+01 -3.605518e+01 5.114941e+01
3.765918e+01 2.135417e-01 1.790147e+00 1.675960e+01 -3.612354e+01 5.125195e+01
3.755225e+01 2.135417e-01 1.795221e+00 1.679356e+01 -3.619189e+01 5.136304e+01
3.777539e+01 2.187500e-01 1.797274e+00 1.682763e+01 -3.626025e+01 5.146558e+01
3.768774e+01 2.187500e-01 1.799745e+00 1.686173e+01 -3.632861e+01 5.157666e+01
3.753564e+01 2.135417e-01 1.802931e+00 1.689552e+01 -3.639697e+01 5.167065e+01
3.742456e+01 2.083333e-01 1.804206e+00 1.692940e+01 -3.646533e+01 5.176465e+01
3.762891e+01 2.187500e-01 1.806758e+00 1.696313e+01 -3.653369e+01 5.185864e+01
3.741626e+01 2.187500e-01 1.811844e+00 1.699642e+01 -3.660205e+01 5.195264e+01
3.762158e+01 2.187500e-01 1.815615e+00 1.703004e+01 -3.667041e+01 5.205518e+01
3.735840e+01 2.083333e-01 1.821676e+00 1.706331e+01 -3.673877e+01 5.216626e+01
3.736499e+01 2.135417e-01 1.824713e+00 1.709680e+01 -3.680713e+01 5.226880e+01
3.744434e+01 2.135417e-01 1.829436e+00 1.713020e+01 -3.687549e+01 5.237134e+01
3.737354e+01 2.083333e-01 1.833207e+00 1.716359e+01 -3.694385e+01 5.245679e+01
3.726221e+01 2.187500e-01 1.834635e+00 1.719703e+01 -3.701221e+01 5.254224e+01
3.740015e+01 2.187500e-01 1.835918e+00 1.723050e+01 -3.708057e+01 5.262769e+01
3.733008e+01 2.187500e-01 1.837721e+00 1.726394e+01 -3.714893e+01 5.271313e+01
3.764771e+01 2.083333e-01 1.841701e+00 1.729717e+01 -3.721729e+01 5.279004e+01
3.757837e+01 2.083333e-01 1.846220e+00 1.733047e+01 -3.728564e+01 5.287549e+01
3.774097e+01 2.083333e-01 1.849089e+00 1.736405e+01 -3.735400e+01 5.296094e+01
3.730396e+01 2.135417e-01 1.854767e+00 1.739733e+01 -3.742236e+01 5.305493e+01
3.735547e+01 2.135417e-01 1.857709e+00 1.743058e+01 -3.749072e+01 5.313184e+01
3.751929e+01 2.135417e-01 1.861034e+00 1.746378e+01 -3.755908e+01 5.321729e+01
3.751904e+01 2.135417e-01 1.863044e+00 1.749729e+01 -3.762744e+01 5.329419e+01
3.744482e+01 2.135417e-01 1.866926e+00 1.753074e+01 -3.769580e+01 5.337964e+01
3.770703e+01 2.135417e-01 1.868223e+00 1.756446e+01 -3.776416e+01 5.346509e+01
3.788965e+01 2.083333e-01 1.869949e+00 1.759822e+01 -3.783252e+01 5.355908e+01
3.743823e+01 2.083333e-01 1.873596e+00 1.763196e+01 -3.790088e+01 5.366162e+01
3.756763e+01 2.135417e-01 1.877857e+00 1.766567e+01 -3.796924e+01 5.377271e+01
3.777197e+01 2.135417e-01 1.881722e+00 1.769930e+01 -3.803760e+01 5.386670e+01
3.774438e+01 2.135417e-01 1.888771e+00 1.773275e+01 -3.810596e+01 5.397778e+01
3.771631e+01 2.135417e-01 1.894145e+00 1.776611e+01 -3.817432e+01 5.407178e+01
3.772534e+01 2.135417e-01 1.897135e+00 1.779958e+01 -3.824268e+01 5.415723e+01
3.785742e+01 2.187500e-01 1.898991e+00 1.783281e+01 -3.831104e+01 5.423413e+01
3.785425e+01 2.135417e-01 1.899086e+00 1.786661e+01 -3.837939e+01 5.431958e+01
3.773999e+01 2.135417e-01 1.898730e+00 1.790031e+01 -3.844775e+01 5.440503e+01
3.780371e+01 2.135417e-01 1.901333e+00 1.793403e+01 -3.851611e+01 5.450757e+01
3.799048e+01 2.135417e-01 1.905804e+00 1.796754e+01 -3.858447e+01 5.461865e+01
3.810059e+01 2.187500e-01 1.911553e+00 1.800101e+01 -3.865283e+01 5.472974e+01
3.818701e+01 2.187500e-01 1.916753e+00 1.803423e+01 -3.872119e+01 5.483228e+01
3.815869e+01 2.187500e-01 1.920312e+00 1.806773e+01 -3.878955e+01 5.493481e+01
3.782837e+01 2.135417e-01 1.925007e+00 1.810091e+01 -3.885791e+01 5.502881e+01
3.767456e+01 2.083333e-01 1.926219e+00 1.813408e+01 -3.892627e+01 5.510571e+01
3.767578e+01 2.031250e-01 1.927591e+00 1.816738e+01 -3.899463e+01 5.519116e+01
3.824146e+01 2.187500e-01 1.929922e+00 1.820065e+01 -3.906299e+01 5.527661e+01
3.815698e+01 2.187500e-01 1.933511e+00 1.823394e+01 -3.913135e+01 5.536206e+01
3.801392e+01 2.187500e-01 1.936991e+00 1.826718e+01 -3.919971e+01 5.544751e+01
3.807544e+01 2.187500e-01 1.941450e+00 1.830009e+01 -3.926807e+01 5.552441e+01
3.802222e+01 2.187500e-01 1.944829e+00 1.833354e+01 -3.933643e+01 5.560986e+01
3.805640e+01 2.187500e-01 1.949074e+00 1.836666e+01 -3.940479e+01 5.568677e+01
3.799146e+01 2.135417e-01 1.952205e+00 1.839989e+01 -3.947314e+01 5.577222e+01
3.808374e+01 2.135417e-01 1.956794e+00 1.843307e+01 -3.954150e+01 5.586621e+01
3.806934e+01 2.135417e-01 1.958618e+00 1.846649e+01 -3.960986e+01 5.595166e+01
3.804199e+01 2.135417e-01 1.962123e+00 1.849994e+01 -3.967822e+01 5.603711e+01
3.821997e+01 2.135417e-01 1.962712e+00 1.853374e+01 -3.974658e+01 5.612256e+01
3.793726e+01 2.187500e-01 1.965070e+00 1.856696e+01 -3.981494e+01 5.619946e+01
3.791943e+01 2.187500e-01 1.967681e+00 1.860023e+01 -3.988330e+01 5.628491e+01
3.788525e+01 2.135417e-01 1.969919e+00 1.863352e+01 -3.995166e+01 5.636182e+01
3.792188e+01 2.187500e-01 1.971802e+00 1.866694e+01 -4.002002e+01 5.644727e+01
3.765942e+01 2.187500e-01 1.975452e+00 1.870047e+01 -4.008838e+01 5.654980e+01
3.768799e+01 2.187500e-01 1.982016e+00 1.873386e+01 -4.015674e+01 5.666089e+01
3.762134e+01 2.187500e-01 1.985500e+00 1.876745e+01 -4.022510e+01 5.676343e+01
3.802734e+01 2.187500e-01 1.989964e+00 1.880091e+01 -4.029346e+01 5.686597e+01
3.815723e+01 2.187500e-01 1.994062e+00 1.883422e+01 -4.036182e+01 5.695996e+01
3.807129e+01 2.083333e-01 1.997813e+00 1.886721e+01 -4.043018e+01 5.703687e+01
3.781982e+01 2.083333e-01 2.001291e+00 1.890028e+01 -4.049854e+01 5.711377e+01
3.812305e+01 2.083333e-01 2.003276e+00 1.893372e+01 -4.056689e+01 5.719922e+01
3.799829e+01 2.083333e-01 2.006736e+00 1.896671e+01 -4.063525e+01 5.727612e+01
3.785864e+01 2.083333e-01 2.008643e+00 1.899958e+01 -4.070361e+01 5.735303e+01
3.803662e+01 2.083333e-01 2.010889e+00 1.903255e+01 -4.077197e+01 5.743848e+01
3.783594e+01 2.083333e-01 2.013808e+00 1.906531e+01 -4.084033e+01 5.751538e+01
3.818872e+01 2.135417e-01 2.014978e+00 1.909848e+01 -4.090869e+01 5.760083e+01
3.783130e+01 2.083333e-01 2.018363e+00 1.913205e+01 -4.097705e+01 5.771191e+01
3.780127e+01 2.083333e-01 2.023432e+00 1.916534e+01 -4.104541e+01 5.781445e+01
3.770483e+01 2.083333e-01 2.027755e+00 1.919878e+01 -4.111377e+01 5.791699e+01
3.766724e+01 2.083333e-01 2.032012e+00 1.923187e+01 -4.118213e+01 5.800244e+01
3.754834e+01 2.083333e-01 2.036004e+00 1.926490e+01 -4.125049e+01 5.807935e+01
3.745312e+01 2.083333e-01 2.038848e+00 1.929793e+01 -4.131885e+01 5.815625e+01
3.737134e+01 2.083333e-01 2.041771e+00 1.933118e+01 -4.138721e+01 5.824170e+01
3.781738e+01 2.135417e-01 2.044246e+00 1.936440e+01 -4.145557e+01 5.832715e+01
3.765430e+01 2.083333e-01 2.047984e+00 1.939716e+01 -4.152393e+01 5.840405e+01
3.724219e+01 2.083333e-01 2.050600e+00 1.943088e+01 -4.159424e+01 5.849194e+01
3.745215e+01 2.083333e-01 2.051889e+00 1.946505e+01 -4.166455e+01 5.857983e+01
3.748633e+01 2.083333e-01 2.053348e+00 1.949933e+01 -4.173486e+01 5.866772e+01
3.725415e+01 2.083333e-01 2.056934e+00 1.953329e+01 -4.180518e+01 5.875562e+01
3.778369e+01 2.135417e-01 2.061940e+00 1.956713e+01 -4.187549e+01 5.884351e+01
3.772656e+01 2.135417e-01 2.065783e+00 1.960115e+01 -4.194580e+01 5.893140e+01
3.777783e+01 2.135417e-01 2.067905e+00 1.963545e+01 -4.201611e+01 5.901929e+01
3.764307e+01 2.135417e-01 2.070918e+00 1.966973e+01 -4.208643e+01 5.910718e+01
3.768359e+01 2.135417e-01 2.073371e+00 1.970393e+01 -4.215674e+01 5.918628e+01
3.763232e+01 2.135417e-01 2.077292e+00 1.973794e+01 -4.222705e+01 5.926538e+01
3.773169e+01 2.135417e-01 2.081743e+00 1.977181e+01 -4.229736e+01 5.935327e+01
3.761987e+01 2.135417e-01 2.087028e+00 1.980590e+01 -4.236768e+01 5.944116e+01
3.763696e+01 2.135417e-01 2.089386e+00 1.984032e+01 -4.243799e+01 5.952905e+01
3.763574e+01 2.135417e-01 2.092354e+00 1.987483e+01 -4.250830e+01 5.961694e+01
3.757666e+01 2.135417e-01 2.095829e+00 1.990905e+01 -4.257861e+01 5.969604e+01
3.754932e+01 2.135417e-01 2.100091e+00 1.994315e+01 -4.264893e+01 5.977515e+01
3.772681e+01 2.135417e-01 2.103070e+00 1.997742e+01 -4.271924e+01 5.986304e+01
3.772681e+01 2.135417e-01 2.105761e+00 2.001161e+01 -4.278955e+01 5.995093e+01
3.761377e+01 2.135417e-01 2.107041e+00 2.004593e+01 -4.285986e+01 6.003882e+01
3.762036e+01 2.135417e-01 2.109163e+00 2.008031e+01 -4.293018e+01 6.012671e+01
3.760913e+01 2.135417e-01 2.112403e+00 2.011434e+01 -4.300049e+01 6.020581e+01
3.747461e+01 2.083333e-01 2.115868e+00 2.014832e+01 -4.307080e+01 6.028491e+01
3.758936e+01 2.083333e-01 2.121360e+00 2.018239e+01 -4.314111e+01 6.037280e+01
3.774878e+01 2.135417e-01 2.127195e+00 2.021640e+01 -4.321143e+01 6.046069e+01
3.776489e+01 2.135417e-01 2.129688e+00 2.025088e+01 -4.328174e+01 6.054858e+01
3.773706e+01 2.135417e-01 2.133797e+00 2.028493e+01 -4.335205e+01 6.062769e+01
3.767529e+01 2.135417e-01 2.134161e+00 2.031920e+01 -4.342236e+01 6.070679e+01
3.782715e+01 2.083333e-01 2.136908e+00 2.035340e+01 -4.349268e+01 6.079468e+01
3.785327e+01 2.135417e-01 2.139002e+00 2.038784e+01 -4.356299e+01 6.088257e+01
3.759082e+01 2.135417e-01 2.141832e+00 2.042216e+01 -4.363330e+01 6.096167e+01
3.756274e+01 2.135417e-01 2.145744e+00 2.045636e+01 -4.370361e+01 6.104077e+01
3.755371e+01 2.135417e-01 2.150268e+00 2.049076e+01 -4.377393e+01 6.112866e+01
3.766602e+01 2.135417e-01 2.155832e+00 2.052478e+01 -4.384424e+01 6.120776e+01
3.763306e+01 2.135417e-01 2.160493e+00 2.055875e+01 -4.391455e+01 6.128687e+01
3.746997e+01 2.135417e-01 2.163458e+00 2.059293e+01 -4.398486e+01 6.136597e+01
3.758765e+01 2.135417e-01 2.164845e+00 2.062747e+01 -4.405518e+01 6.144507e+01
3.780249e+01 2.135417e-01 2.169029e+00 2.066189e+01 -4.412549e+01 6.153296e+01
3.776074e+01 2.135417e-01 2.172227e+00 2.069626e+01 -4.419580e+01 6.162085e+01
3.794189e+01 2.187500e-01 2.175260e+00 2.073061e+01 -4.426611e+01 6.169995e+01
3.776074e+01 2.135417e-01 2.177731e+00 2.076483e+01 -4.433643e+01 6.177905e+01
3.785278e+01 2.187500e-01 2.179628e+00 2.079920e+01 -4.440674e+01 6.185815e+01
3.788062e+01 2.187500e-01 2.184799e+00 2.083339e+01 -4.447705e+01 6.195483e+01
3.754004e+01 2.135417e-01 2.188722e+00 2.086756e+01 -4.454736e+01 6.203394e+01
3.746411e+01 2.135417e-01 2.191367e+00 2.090170e+01 -4.461768e+01 6.211304e+01
3.751196e+01 2.135417e-01 2.194029e+00 2.093593e+01 -4.468799e+01 6.219214e+01
3.799316e+01 2.187500e-01 2.198748e+00 2.096992e+01 -4.475830e+01 6.227124e+01
3.822681e+01 2.239583e-01 2.203625e+00 2.100409e+01 -4.482861e+01 6.235034e+01
3.832007e+01 2.239583e-01 2.207585e+00 2.103827e+01 -4.489893e+01 6.242944e+01
3.759326e+01 2.135417e-01 2.210003e+00 2.107244e+01 -4.496924e+01 6.250854e+01
3.765845e+01 2.135417e-01 2.213385e+00 2.110695e+01 -4.503955e+01 6.259644e+01
3.772607e+01 2.135417e-01 2.217046e+00 2.114116e+01 -4.510986e+01 6.267554e+01
3.748340e+01 2.083333e-01 2.219557e+00 2.117515e+01 -4.518018e+01 6.275464e+01
3.790039e+01 2.187500e-01 2.222278e+00 2.120935e+01 -4.525049e+01 6.283374e+01
3.864551e+01 2.239583e-01 2.225976e+00 2.124326e+01 -4.532080e+01 6.291284e+01
3.862939e+01 2.239583e-01 2.227450e+00 2.127766e+01 -4.539111e+01 6.300073e+01
3.846216e+01 2.239583e-01 2.231188e+00 2.131176e+01 -4.546143e+01 6.307983e+01
3.803125e+01 2.187500e-01 2.233036e+00 2.134598e+01 -4.553174e+01 6.315894e+01
3.818188e+01 2.187500e-01 2.236485e+00 2.138000e+01 -4.560205e+01 6.324683e+01
3.821753e+01 2.187500e-01 2.242503e+00 2.141372e+01 -4.567236e+01 6.332593e+01
3.820850e+01 2.187500e-01 2.248385e+00 2.144742e+01 -4.574268e+01 6.340503e+01
3.812402e+01 2.187500e-01 2.252218e+00 2.148131e+01 -4.581299e+01 6.348413e+01
3.827490e+01 2.187500e-01 2.255097e+00 2.151549e+01 -4.588330e+01 6.356323e+01
3.849658e+01 2.239583e-01 2.256221e+00 2.155006e+01 -4.595361e+01 6.365112e+01
3.825000e+01 2.187500e-01 2.258123e+00 2.158430e+01 -4.602393e+01 6.373022e+01
3.823560e+01 2.187500e-01 2.261265e+00 2.161834e+01 -4.609424e+01 6.380933e+01
3.837280e+01 2.187500e-01 2.263342e+00 2.165272e+01 -4.616455e+01 6.389722e+01
3.803833e+01 2.187500e-01 2.266505e+00 2.168701e+01 -4.623486e+01 6.397632e+01
3.822827e+01 2.187500e-01 2.271653e+00 2.172076e+01 -4.630518e+01 6.405542e+01
3.827563e+01 2.187500e-01 2.277008e+00 2.175455e+01 -4.637549e+01 6.413452e+01
3.826758e+01 2.187500e-01 2.280071e+00 2.178862e+01 -4.644580e+01 6.421362e+01
3.884302e+01 2.291667e-01 2.283219e+00 2.182290e+01 -4.651611e+01 6.429272e+01
3.867578e+01 2.239583e-01 2.287074e+00 2.185701e+01 -4.658643e+01 6.437183e+01
3.862012e+01 2.239583e-01 2.290396e+00 2.189098e+01 -4.665674e+01 6.445093e+01
3.844189e+01 2.239583e-01 2.293481e+00 2.192493e+01 -4.672705e+01 6.453003e+01
3.836548e+01 2.239583e-01 2.297360e+00 2.195882e+01 -4.679736e+01 6.460913e+01
3.850342e+01 2.239583e-01 2.298540e+00 2.199274e+01 -4.686768e+01 6.468823e+01
3.890674e+01 2.291667e-01 2.301680e+00 2.202672e+01 -4.693799e+01 6.476733e+01
3.891772e+01 2.291667e-01 2.305358e+00 2.206058e+01 -4.700830e+01 6.484644e+01
3.891577e+01 2.291667e-01 2.307849e+00 2.209463e+01 -4.707861e+01 6.492554e+01
3.824512e+01 2.239583e-01 2.310918e+00 2.212847e+01 -4.714893e+01 6.500464e+01
3.873364e+01 2.239583e-01 2.313687e+00 2.216265e+01 -4.721924e+01 6.509253e+01
3.873779e+01 2.239583e-01 2.317614e+00 2.219654e+01 -4.728955e+01 6.518042e+01
3.871118e+01 2.239583e-01 2.321388e+00 2.223054e+01 -4.735986e+01 6.525952e+01
3.881812e+01 2.239583e-01 2.325284e+00 2.226440e+01 -4.743018e+01 6.533862e+01
3.896289e+01 2.239583e-01 2.330288e+00 2.229836e+01 -4.750049e+01 6.541772e+01
3.900781e+01 2.239583e-01 2.333473e+00 2.233250e+01 -4.757080e+01 6.549683e+01
3.899536e+01 2.239583e-01 2.336892e+00 2.236680e+01 -4.764111e+01 6.557593e+01
3.867163e+01 2.239583e-01 2.339535e+00 2.240085e+01 -4.771143e+01 6.564624e+01
3.850049e+01 2.239583e-01 2.340735e+00 2.243534e+01 -4.778174e+01 6.573413e+01
3.847607e+01 2.239583e-01 2.344170e+00 2.246936e+01 -4.785205e+01 6.581323e+01
3.844507e+01 2.187500e-01 2.346025e+00 2.250338e+01 -4.792236e+01 6.589233e+01
3.883887e+01 2.239583e-01 2.348396e+00 2.253778e+01 -4.799365e+01 6.598145e+01
3.877368e+01 2.239583e-01 2.351361e+00 2.257285e+01 -4.806592e+01 6.606274e+01
3.899805e+01 2.239583e-01 2.356358e+00 2.260762e+01 -4.813818e+01 6.614404e+01
3.895386e+01 2.239583e-01 2.361731e+00 2.264239e+01 -4.821045e+01 6.622534e+01
3.874658e+01 2.239583e-01 2.363696e+00 2.267759e+01 -4.828271e+01 6.630664e+01
3.838330e+01 2.187500e-01 2.368306e+00 2.271262e+01 -4.835498e+01 6.638794e+01
3.836548e+01 2.187500e-01 2.370463e+00 2.274791e+01 -4.842725e+01 6.646924e+01
3.873975e+01 2.239583e-01 2.372830e+00 2.278305e+01 -4.849951e+01 6.655054e+01
3.883105e+01 2.239583e-01 2.377273e+00 2.281794e+01 -4.857178e+01 6.663184e+01
3.878223e+01 2.239583e-01 2.381476e+00 2.285276e+01 -4.864404e+01 6.671313e+01
3.895874e+01 2.239583e-01 2.385494e+00 2.288773e+01 -4.871631e+01 6.679443e+01
3.886597e+01 2.239583e-01 2.388381e+00 2.292304e+01 -4.878857e+01 6.687573e+01
3.855371e+01 2.187500e-01 2.390087e+00 2.295836e+01 -4.886084e+01 6.695703e+01
3.843652e+01 2.187500e-01 2.392645e+00 2.299353e+01 -4.893311e+01 6.703833e+01
3.833716e+01 2.187500e-01 2.397769e+00 2.302832e+01 -4.900537e+01 6.711963e+01
3.848828e+01 2.187500e-01 2.402913e+00 2.306298e+01 -4.907764e+01 6.720093e+01
3.887964e+01 2.239583e-01 2.407671e+00 2.309796e+01 -4.914990e+01 6.729126e+01
3.905859e+01 2.239583e-01 2.410284e+00 2.313319e+01 -4.922217e+01 6.737256e+01
3.872827e+01 2.187500e-01 2.411516e+00 2.316832e+01 -4.929443e+01 6.745386e+01
3.826440e+01 2.187500e-01 2.414365e+00 2.320357e+01 -4.936670e+01 6.753516e+01
3.829248e+01 2.239583e-01 2.417560e+00 2.323885e+01 -4.943896e+01 6.761646e+01
3.824512e+01 2.239583e-01 2.420809e+00 2.327398e+01 -4.951123e+01 6.769775e+01
3.888354e+01 2.187500e-01 2.423579e+00 2.330942e+01 -4.958350e+01 6.777905e+01
3.891943e+01 2.187500e-01 2.428463e+00 2.334452e+01 -4.965576e+01 6.786035e+01
3.904175e+01 2.187500e-01 2.433558e+00 2.337952e+01 -4.972803e+01 6.795068e+01
3.854761e+01 2.239583e-01 2.437654e+00 2.341475e+01 -4.980029e+01 6.804102e+01
3.859912e+01 2.239583e-01 2.441323e+00 2.344983e+01 -4.987256e+01 6.812231e+01
3.809766e+01 2.343750e-01 2.444687e+00 2.348501e+01 -4.994482e+01 6.820361e+01
3.841162e+01 2.291667e-01 2.446528e+00 2.352005e+01 -5.001709e+01 6.828491e+01
3.871411e+01 2.239583e-01 2.449423e+00 2.355525e+01 -5.008936e+01 6.836621e+01
3.935864e+01 2.239583e-01 2.452474e+00 2.359034e+01 -5.016162e+01 6.845654e+01
3.935864e+01 2.239583e-01 2.453970e+00 2.362545e+01 -5.023389e+01 6.853784e+01
3.894702e+01 2.239583e-01 2.457313e+00 2.366050e+01 -5.030615e+01 6.862817e+01
3.891235e+01 2.239583e-01 2.460227e+00 2.369555e+01 -5.037842e+01 6.870947e+01
3.852539e+01 2.291667e-01 2.463833e+00 2.373043e+01 -5.045068e+01 6.879077e+01
3.830981e+01 2.291667e-01 2.467657e+00 2.376559e+01 -5.052295e+01 6.888110e+01
3.853467e+01 2.291667e-01 2.473383e+00 2.380072e+01 -5.059521e+01 6.898047e+01
3.883032e+01 2.291667e-01 2.477706e+00 2.383561e+01 -5.066748e+01 6.906177e+01
3.906421e+01 2.239583e-01 2.482520e+00 2.387020e+01 -5.073975e+01 6.913403e+01
3.873120e+01 2.291667e-01 2.485750e+00 2.390510e+01 -5.081201e+01 6.921533e+01
3.875488e+01 2.291667e-01 2.488803e+00 2.394017e+01 -5.088428e+01 6.929663e+01
3.856714e+01 2.291667e-01 2.489395e+00 2.397550e+01 -5.095654e+01 6.937793e+01
3.852319e+01 2.291667e-01 2.492663e+00 2.401048e+01 -5.102881e+01 6.945923e+01
3.859595e+01 2.291667e-01 2.496216e+00 2.404540e+01 -5.110107e+01 6.954053e+01
3.868433e+01 2.291667e-01 2.499866e+00 2.408051e+01 -5.117334e+01 6.962183e+01
3.896021e+01 2.291667e-01 2.501996e+00 2.411574e+01 -5.124561e+01 6.971216e+01
3.902246e+01 2.291667e-01 2.506390e+00 2.415081e+01 -5.131787e+01 6.979346e+01
3.906470e+01 2.291667e-01 2.510118e+00 2.418586e+01 -5.139014e+01 6.987476e+01
3.904956e+01 2.291667e-01 2.513737e+00 2.422110e+01 -5.146240e+01 6.995605e+01
3.893945e+01 2.239583e-01 2.517120e+00 2.425619e+01 -5.153467e+01 7.003735e+01
3.884668e+01 2.239583e-01 2.520912e+00 2.429115e+01 -5.160693e+01 7.011865e+01
3.882520e+01 2.239583e-01 2.524044e+00 2.432604e+01 -5.167920e+01 7.019092e+01
3.899097e+01 2.239583e-01 2.527050e+00 2.436111e+01 -5.175146e+01 7.027222e+01
3.886768e+01 2.239583e-01 2.529325e+00 2.439609e+01 -5.182373e+01 7.035352e+01
3.868164e+01 2.187500e-01 2.531913e+00 2.443109e+01 -5.189600e+01 7.043481e+01
3.864111e+01 2.187500e-01 2.535191e+00 2.446615e+01 -5.196826e+01 7.051611e+01
3.908936e+01 2.239583e-01 2.539091e+00 2.450100e+01 -5.204053e+01 7.059741e+01
3.908545e+01 2.239583e-01 2.542717e+00 2.453582e+01 -5.211279e+01 7.067871e+01
3.891626e+01 2.239583e-01 2.545589e+00 2.457073e+01 -5.218506e+01 7.076001e+01
3.844360e+01 2.187500e-01 2.549515e+00 2.460565e+01 -5.225732e+01 7.084131e+01
3.839551e+01 2.187500e-01 2.553715e+00 2.464057e+01 -5.232959e+01 7.092261e+01
3.849170e+01 2.187500e-01 2.557159e+00 2.467595e+01 -5.240186e+01 7.100391e+01
3.829492e+01 2.187500e-01 2.559950e+00 2.471132e+01 -5.247412e+01 7.108521e+01
3.901465e+01 2.239583e-01 2.564138e+00 2.474661e+01 -5.254639e+01 7.116650e+01
3.901343e+01 2.239583e-01 2.566587e+00 2.478187e+01 -5.261865e+01 7.124780e+01
3.850806e+01 2.187500e-01 2.570463e+00 2.481715e+01 -5.269092e+01 7.132910e+01
3.840894e+01 2.187500e-01 2.574114e+00 2.485233e+01 -5.276318e+01 7.141040e+01
3.843457e+01 2.187500e-01 2.578130e+00 2.488739e+01 -5.283545e+01 7.148267e+01
3.842480e+01 2.187500e-01 2.581819e+00 2.492239e+01 -5.290771e+01 7.155493e+01
3.850732e+01 2.187500e-01 2.585087e+00 2.495751e+01 -5.297998e+01 7.163623e+01
3.892407e+01 2.239583e-01 2.587964e+00 2.499268e+01 -5.305225e+01 7.171753e+01
3.891748e+01 2.291667e-01 2.591177e+00 2.502792e+01 -5.312451e+01 7.179883e+01
3.837549e+01 2.187500e-01 2.592410e+00 2.506325e+01 -5.319678e+01 7.188013e+01
3.848633e+01 2.187500e-01 2.593911e+00 2.509866e+01 -5.326904e+01 7.197046e+01
3.841602e+01 2.187500e-01 2.598026e+00 2.513351e+01 -5.334131e+01 7.205176e+01
3.847437e+01 2.187500e-01 2.602692e+00 2.516824e+01 -5.341357e+01 7.213306e+01
3.847485e+01 2.187500e-01 2.606683e+00 2.520316e+01 -5.348584e+01 7.221436e+01
3.840015e+01 2.187500e-01 2.610770e+00 2.523823e+01 -5.355811e+01 7.229565e+01
3.836182e+01 2.187500e-01 2.613833e+00 2.527337e+01 -5.363037e+01 7.237695e+01
3.849951e+01 2.187500e-01 2.618499e+00 2.530847e+01 -5.370264e+01 7.245825e+01
3.869141e+01 2.187500e-01 2.621182e+00 2.534367e+01 -5.377490e+01 7.253955e+01
3.864160e+01 2.187500e-01 2.624529e+00 2.537889e+01 -5.384717e+01 7.262085e+01
3.830688e+01 2.187500e-01 2.628371e+00 2.541370e+01 -5.391943e+01 7.269312e+01
3.831152e+01 2.187500e-01 2.630703e+00 2.544910e+01 -5.399170e+01 7.277441e+01
3.827686e+01 2.187500e-01 2.634248e+00 2.548422e+01 -5.406396e+01 7.285571e+01
3.834302e+01 2.187500e-01 2.636866e+00 2.551965e+01 -5.413623e+01 7.293701e+01
3.831689e+01 2.187500e-01 2.640374e+00 2.555495e+01 -5.420850e+01 7.301831e+01
3.861523e+01 2.239583e-01 2.644355e+00 2.559019e+01 -5.428076e+01 7.309961e+01
3.874707e+01 2.239583e-01 2.648105e+00 2.562552e+01 -5.435303e+01 7.318091e+01
3.877368e+01 2.239583e-01 2.652760e+00 2.566085e+01 -5.442529e+01 7.326221e+01
3.886597e+01 2.239583e-01 2.655773e+00 2.569612e+01 -5.449756e+01 7.334351e+01
3.847192e+01 2.239583e-01 2.657913e+00 2.573162e+01 -5.456982e+01 7.342480e+01
3.843701e+01 2.239583e-01 2.660654e+00 2.576688e+01 -5.464209e+01 7.350610e+01
3.847168e+01 2.187500e-01 2.662860e+00 2.580209e+01 -5.471436e+01 7.358740e+01
3.849731e+01 2.239583e-01 2.667806e+00 2.583701e+01 -5.478662e+01 7.366870e+01
3.885815e+01 2.239583e-01 2.673363e+00 2.587266e+01 -5.486084e+01 7.375220e+01
3.888818e+01 2.239583e-01 2.677129e+00 2.590876e+01 -5.493506e+01 7.383569e+01
3.888745e+01 2.239583e-01 2.680443e+00 2.594487e+01 -5.500928e+01 7.391919e+01
3.868970e+01 2.239583e-01 2.684780e+00 2.598088e+01 -5.508350e+01 7.400269e+01
3.819165e+01 2.187500e-01 2.687521e+00 2.601720e+01 -5.515771e+01 7.408618e+01
3.856470e+01 2.187500e-01 2.690412e+00 2.605336e+01 -5.523193e+01 7.416968e+01
3.888232e+01 2.239583e-01 2.692584e+00 2.608969e+01 -5.530615e+01 7.425317e+01
3.862622e+01 2.187500e-01 2.695930e+00 2.612591e+01 -5.538037e+01 7.433667e+01
3.860913e+01 2.187500e-01 2.698599e+00 2.616210e+01 -5.545459e+01 7.442017e+01
3.836084e+01 2.187500e-01 2.702823e+00 2.619820e+01 -5.552881e+01 7.450366e+01
3.874731e+01 2.187500e-01 2.706699e+00 2.623432e+01 -5.560303e+01 7.458716e+01
3.881982e+01 2.187500e-01 2.710659e+00 2.627067e+01 -5.567725e+01 7.467065e+01
3.870483e+01 2.187500e-01 2.713823e+00 2.630683e+01 -5.575146e+01 7.475415e+01
3.901758e+01 2.187500e-01 2.718443e+00 2.634304e+01 -5.582568e+01 7.483765e+01
3.856738e+01 2.187500e-01 2.723551e+00 2.637932e+01 -5.589990e+01 7.492114e+01
3.895874e+01 2.187500e-01 2.727069e+00 2.641560e+01 -5.597412e+01 7.500464e+01
3.873438e+01 2.187500e-01 2.729805e+00 2.645206e+01 -5.604834e+01 7.508813e+01
3.851172e+01 2.187500e-01 2.732954e+00 2.648833e+01 -5.612256e+01 7.516235e+01
3.850415e+01 2.187500e-01 2.735870e+00 2.652484e+01 -5.619678e+01 7.524585e+01
3.867383e+01 2.187500e-01 2.738398e+00 2.656138e+01 -5.627100e+01 7.532935e+01
3.872559e+01 2.187500e-01 2.742072e+00 2.659800e+01 -5.634521e+01 7.542212e+01
3.939136e+01 2.239583e-01 2.747500e+00 2.663426e+01 -5.641943e+01 7.550562e+01
3.930542e+01 2.239583e-01 2.750560e+00 2.667072e+01 -5.649365e+01 7.558911e+01
3.927051e+01 2.239583e-01 2.753819e+00 2.670709e+01 -5.656787e+01 7.567261e+01
3.866357e+01 2.187500e-01 2.756818e+00 2.674344e+01 -5.664209e+01 7.575610e+01
3.865356e+01 2.187500e-01 2.760988e+00 2.677966e+01 -5.671631e+01 7.583960e+01
3.846118e+01 2.187500e-01 2.765441e+00 2.681573e+01 -5.679053e+01 7.592310e+01
3.813696e+01 2.187500e-01 2.771266e+00 2.685161e+01 -5.686475e+01 7.600659e+01
3.871753e+01 2.187500e-01 2.775629e+00 2.688752e+01 -5.693896e+01 7.609009e+01
3.915332e+01 2.239583e-01 2.779253e+00 2.692361e+01 -5.701318e+01 7.617358e+01
3.940186e+01 2.239583e-01 2.780465e+00 2.696003e+01 -5.708740e+01 7.625708e+01
3.909692e+01 2.239583e-01 2.782317e+00 2.699645e+01 -5.716162e+01 7.634058e+01
3.886279e+01 2.187500e-01 2.783883e+00 2.703285e+01 -5.723584e+01 7.642407e+01
3.859937e+01 2.187500e-01 2.787585e+00 2.706887e+01 -5.731006e+01 7.650757e+01
3.860303e+01 2.187500e-01 2.791988e+00 2.710492e+01 -5.738428e+01 7.659106e+01
3.857422e+01 2.187500e-01 2.795994e+00 2.714104e+01 -5.745850e+01 7.667456e+01
3.901343e+01 2.187500e-01 2.800809e+00 2.717715e+01 -5.753271e+01 7.675806e+01
3.919604e+01 2.187500e-01 2.804111e+00 2.721357e+01 -5.760693e+01 7.684155e+01
3.913110e+01 2.187500e-01 2.806283e+00 2.725004e+01 -5.768115e+01 7.692505e+01
3.866357e+01 2.187500e-01 2.809953e+00 2.728645e+01 -5.775537e+01 7.700854e+01
3.855225e+01 2.187500e-01 2.815022e+00 2.732252e+01 -5.782959e+01 7.709204e+01
3.880444e+01 2.187500e-01 2.820105e+00 2.735853e+01 -5.790381e+01 7.717554e+01
3.889062e+01 2.187500e-01 2.823183e+00 2.739487e+01 -5.797803e+01 7.725903e+01
3.883594e+01 2.187500e-01 2.825873e+00 2.743108e+01 -5.805225e+01 7.734253e+01
3.881567e+01 2.187500e-01 2.829127e+00 2.746746e+01 -5.812646e+01 7.742603e+01
3.863257e+01 2.187500e-01 2.830820e+00 2.750379e+01 -5.820068e+01 7.750952e+01
3.879272e+01 2.187500e-01 2.833232e+00 2.754005e+01 -5.827490e+01 7.759302e+01
3.889917e+01 2.187500e-01 2.836226e+00 2.757605e+01 -5.834912e+01 7.767651e+01
3.864551e+01 2.187500e-01 2.840576e+00 2.761201e+01 -5.842334e+01 7.776929e+01
3.905298e+01 2.187500e-01 2.846010e+00 2.764759e+01 -5.849756e+01 7.785278e+01
3.896655e+01 2.187500e-01 2.850571e+00 2.768333e+01 -5.857178e+01 7.793628e+01
3.894971e+01 2.187500e-01 2.855078e+00 2.771906e+01 -5.864600e+01 7.801978e+01
3.892261e+01 2.187500e-01 2.860119e+00 2.775485e+01 -5.872021e+01 7.810327e+01
3.886719e+01 2.187500e-01 2.862703e+00 2.779082e+01 -5.879443e+01 7.818677e+01
3.867944e+01 2.187500e-01 2.865111e+00 2.782678e+01 -5.886865e+01 7.827026e+01
3.884399e+01 2.187500e-01 2.868647e+00 2.786281e+01 -5.894287e+01 7.835376e+01
3.885181e+01 2.187500e-01 2.870403e+00 2.789906e+01 -5.901709e+01 7.843726e+01
3.889795e+01 2.187500e-01 2.873747e+00 2.793495e+01 -5.909131e+01 7.852075e+01
3.890869e+01 2.187500e-01 2.875533e+00 2.797105e+01 -5.916553e+01 7.860425e+01
3.903198e+01 2.187500e-01 2.877827e+00 2.800725e+01 -5.923975e+01 7.868774e+01
3.895190e+01 2.187500e-01 2.880990e+00 2.804342e+01 -5.931396e+01 7.878052e+01
3.896851e+01 2.187500e-01 2.885061e+00 2.807946e+01 -5.938818e+01 7.887329e+01
3.890186e+01 2.187500e-01 2.891141e+00 2.811522e+01 -5.946240e+01 7.895679e+01
3.870898e+01 2.187500e-01 2.895028e+00 2.815122e+01 -5.953662e+01 7.904028e+01
3.872876e+01 2.187500e-01 2.898728e+00 2.818724e+01 -5.961084e+01 7.912378e+01
3.888330e+01 2.187500e-01 2.903734e+00 2.822325e+01 -5.968506e+01 7.920728e+01
3.902637e+01 2.187500e-01 2.906991e+00 2.825937e+01 -5.975928e+01 7.928149e+01
3.907935e+01 2.239583e-01 2.909329e+00 2.829567e+01 -5.983350e+01 7.936499e+01
3.892651e+01 2.239583e-01 2.911456e+00 2.833204e+01 -5.990771e+01 7.944849e+01
3.902954e+01 2.187500e-01 2.914341e+00 2.836844e+01 -5.998193e+01 7.953198e+01
3.860474e+01 2.187500e-01 2.916441e+00 2.840474e+01 -6.005615e+01 7.961548e+01
3.871899e+01 2.187500e-01 2.920111e+00 2.844101e+01 -6.013037e+01 7.969897e+01
3.873315e+01 2.187500e-01 2.924514e+00 2.847705e+01 -6.020459e+01 7.978247e+01
3.885376e+01 2.187500e-01 2.929380e+00 2.851309e+01 -6.027881e+01 7.986597e+01
3.877173e+01 2.187500e-01 2.933741e+00 2.854905e+01 -6.035303e+01 7.994946e+01
3.868896e+01 2.187500e-01 2.938110e+00 2.858507e+01 -6.042725e+01 8.003296e+01
3.860376e+01 2.187500e-01 2.941430e+00 2.862098e+01 -6.050146e+01 8.011646e+01
3.872729e+01 2.187500e-01 2.944648e+00 2.865699e+01 -6.057568e+01 8.019995e+01
3.877954e+01 2.187500e-01 2.948951e+00 2.869289e+01 -6.064990e+01 8.028345e+01
3.876099e+01 2.187500e-01 2.950847e+00 2.872914e+01 -6.072412e+01 8.036694e+01
3.879175e+01 2.187500e-01 2.953591e+00 2.876515e+01 -6.079834e+01 8.045044e+01
3.883032e+01 2.187500e-01 2.955946e+00 2.880145e+01 -6.087256e+01 8.053394e+01
3.873047e+01 2.187500e-01 2.958639e+00 2.883759e+01 -6.094678e+01 8.061743e+01
3.863306e+01 2.187500e-01 2.963141e+00 2.887350e+01 -6.102100e+01 8.070093e+01
3.872681e+01 2.187500e-01 2.966897e+00 2.890957e+01 -6.109521e+01 8.078442e+01
3.863306e+01 2.187500e-01 2.971234e+00 2.894572e+01 -6.116943e+01 8.086792e+01
3.861279e+01 2.187500e-01 2.974013e+00 2.898208e+01 -6.124365e+01 8.095142e+01
3.855762e+01 2.187500e-01 2.978256e+00 2.901818e+01 -6.131787e+01 8.103491e+01
3.853271e+01 2.187500e-01 2.981804e+00 2.905456e+01 -6.139209e+01 8.111841e+01
3.855396e+01 2.187500e-01 2.985977e+00 2.909076e+01 -6.146631e+01 8.120190e+01
3.856079e+01 2.135417e-01 2.988373e+00 2.912719e+01 -6.154053e+01 8.128540e+01
3.861060e+01 2.135417e-01 2.991067e+00 2.916339e+01 -6.161475e+01 8.136890e+01
3.858423e+01 2.135417e-01 2.994582e+00 2.919971e+01 -6.168896e+01 8.145239e+01
3.857788e+01 2.135417e-01 2.996997e+00 2.923623e+01 -6.176318e+01 8.153589e+01
3.854834e+01 2.135417e-01 3.001933e+00 2.927228e+01 -6.183740e+01 8.161938e+01
3.864258e+01 2.135417e-01 3.005385e+00 2.930847e+01 -6.191162e+01 8.170288e+01
3.855640e+01 2.135417e-01 3.009231e+00 2.934442e+01 -6.198584e+01 8.178638e+01
3.847998e+01 2.135417e-01 3.012243e+00 2.938054e+01 -6.206006e+01 8.186987e+01
3.848022e+01 2.135417e-01 3.015610e+00 2.941675e+01 -6.213428e+01 8.195337e+01
3.840112e+01 2.135417e-01 3.020619e+00 2.945280e+01 -6.220850e+01 8.203687e+01
3.859668e+01 2.135417e-01 3.023547e+00 2.948891e+01 -6.228271e+01 8.211108e+01
3.867139e+01 2.187500e-01 3.027535e+00 2.952507e+01 -6.235693e+01 8.219458e+01
3.878125e+01 2.187500e-01 3.030160e+00 2.956124e+01 -6.243115e+01 8.227808e+01
3.877100e+01 2.187500e-01 3.034026e+00 2.959740e+01 -6.250537e+01 8.236157e+01
3.845923e+01 2.135417e-01 3.037847e+00 2.963348e+01 -6.257959e+01 8.244507e+01
3.895020e+01 2.187500e-01 3.042478e+00 2.966954e+01 -6.265381e+01 8.252856e+01
3.870728e+01 2.187500e-01 3.046366e+00 2.970548e+01 -6.272803e+01 8.260278e+01
3.830884e+01 2.135417e-01 3.049597e+00 2.974149e+01 -6.280225e+01 8.267700e+01
3.846094e+01 2.135417e-01 3.050780e+00 2.977791e+01 -6.287646e+01 8.276050e+01
3.858350e+01 2.135417e-01 3.053859e+00 2.981432e+01 -6.295068e+01 8.284399e+01
3.879907e+01 2.187500e-01 3.056985e+00 2.985056e+01 -6.302490e+01 8.292749e+01
3.863940e+01 2.135417e-01 3.061343e+00 2.988674e+01 -6.309912e+01 8.301099e+01
3.848950e+01 2.135417e-01 3.064477e+00 2.992296e+01 -6.317334e+01 8.309448e+01
3.846948e+01 2.135417e-01 3.067624e+00 2.995913e+01 -6.324756e+01 8.317798e+01
3.847778e+01 2.135417e-01 3.070925e+00 2.999537e+01 -6.332178e+01 8.326147e+01
