-1.707133e-01 1.443589e+00 -5.697266e+00 5.629883e+00 -3.246110e-04 1.608202e-02 -1.926270e-01 7.543945e-02
-1.618843e-01 1.414313e+00 -5.710205e+00 5.629883e+00 -3.645878e-04 1.552559e-02 -1.896973e-01 8.471680e-02
-1.536262e-01 1.391137e+00 -5.723877e+00 5.629883e+00 -3.923071e-04 1.505042e-02 -1.865234e-01 9.643555e-02
-1.457644e-01 1.372903e+00 -5.728271e+00 5.629883e+00 -4.038528e-04 1.459236e-02 -1.779785e-01 9.643555e-02
-1.380514e-01 1.359069e+00 -5.737793e+00 5.629883e+00 -4.053917e-04 1.422542e-02 -1.726074e-01 9.643555e-02
-1.310151e-01 1.348342e+00 -5.746826e+00 5.629883e+00 -4.110066e-04 1.391003e-02 -1.665039e-01 9.912109e-02
-1.241912e-01 1.340083e+00 -5.753662e+00 5.629883e+00 -4.065121e-04 1.362364e-02 -1.596680e-01 9.643555e-02
-1.173752e-01 1.334406e+00 -5.754883e+00 5.630127e+00 -3.932604e-04 1.335400e-02 -1.596680e-01 9.643555e-02
-1.113231e-01 1.329975e+00 -5.757812e+00 5.630615e+00 -3.869688e-04 1.317970e-02 -1.520996e-01 9.912109e-02
-1.058163e-01 1.326886e+00 -5.760254e+00 5.630615e+00 -3.720575e-04 1.302567e-02 -1.520996e-01 1.030273e-01
-1.003113e-01 1.324904e+00 -5.764160e+00 5.630615e+00 -3.554052e-04 1.297478e-02 -1.435547e-01 1.030273e-01
-9.552612e-02 1.323315e+00 -5.765625e+00 5.630615e+00 -3.247949e-04 1.289406e-02 -1.435547e-01 1.079102e-01
-9.075235e-02 1.322730e+00 -5.766113e+00 5.630615e+00 -2.969858e-04 1.283660e-02 -1.342773e-01 1.079102e-01
-8.680641e-02 1.322114e+00 -5.767578e+00 5.630615e+00 -2.654264e-04 1.283299e-02 -1.342773e-01 1.079102e-01
-8.315029e-02 1.321962e+00 -5.768311e+00 5.630615e+00 -2.351574e-04 1.278121e-02 -1.342773e-01 1.079102e-01
-8.002750e-02 1.321933e+00 -5.768311e+00 5.630615e+00 -2.141271e-04 1.273074e-02 -1.245117e-01 1.079102e-01
-7.716831e-02 1.322081e+00 -5.768555e+00 5.630615e+00 -1.899798e-04 1.267506e-02 -1.245117e-01 1.079102e-01
-7.469376e-02 1.322136e+00 -5.768555e+00 5.630859e+00 -1.702792e-04 1.267553e-02 -1.245117e-01 1.140137e-01
-7.252014e-02 1.322362e+00 -5.768555e+00 5.630859e+00 -1.451561e-04 1.267138e-02 -1.245117e-01 1.140137e-01
-7.090327e-02 1.322630e+00 -5.768555e+00 5.630859e+00 -1.286091e-04 1.265887e-02 -1.245117e-01 1.140137e-01
-6.913712e-02 1.323119e+00 -5.768555e+00 5.630859e+00 -1.078540e-04 1.266856e-02 -1.245117e-01 1.140137e-01
-6.781233e-02 1.323451e+00 -5.768555e+00 5.630859e+00 -9.276726e-05 1.263377e-02 -1.245117e-01 1.140137e-01
-6.679575e-02 1.323730e+00 -5.768555e+00 5.630859e+00 -8.490303e-05 1.262191e-02 -1.245117e-01 1.140137e-01
-6.587628e-02 1.324051e+00 -5.768555e+00 5.630859e+00 -7.800200e-05 1.261303e-02 -1.245117e-01 1.140137e-01
-6.488532e-02 1.324543e+00 -5.768555e+00 5.630859e+00 -6.829001e-05 1.262129e-02 -1.245117e-01 1.140137e-01
-6.439595e-02 1.324726e+00 -5.768555e+00 5.630859e+00 -6.601962e-05 1.257836e-02 -1.191406e-01 1.140137e-01
-6.361069e-02 1.325204e+00 -5.768555e+00 5.630859e+00 -5.702512e-05 1.259038e-02 -1.191406e-01 1.140137e-01
-6.307568e-02 1.325579e+00 -5.768555e+00 5.630859e+00 -5.276094e-05 1.257291e-02 -1.140137e-01 1.193848e-01
-6.258507e-02 1.325956e+00 -5.768555e+00 5.630859e+00 -5.070116e-05 1.257100e-02 -1.140137e-01 1.140137e-01
-6.203289e-02 1.326401e+00 -5.768555e+00 5.630859e+00 -4.503572e-05 1.257392e-02 -1.140137e-01 1.193848e-01
-6.164456e-02 1.326793e+00 -5.768555e+00 5.630859e+00 -4.386472e-05 1.256420e-02 -1.140137e-01 1.140137e-01
-6.123041e-02 1.327145e+00 -5.768555e+00 5.630859e+00 -4.364849e-05 1.255359e-02 -1.140137e-01 1.140137e-01
-6.074216e-02 1.327578e+00 -5.768555e+00 5.630859e+00 -3.729786e-05 1.253439e-02 -1.140137e-01 1.140137e-01
-6.040251e-02 1.327917e+00 -5.768555e+00 5.630859e+00 -3.404040e-05 1.252713e-02 -1.140137e-01 1.140137e-01
-6.028033e-02 1.328133e+00 -5.768555e+00 5.630859e+00 -3.530407e-05 1.251452e-02 -1.140137e-01 1.140137e-01
-5.988094e-02 1.328461e+00 -5.768555e+00 5.630859e+00 -3.137406e-05 1.252003e-02 -1.140137e-01 1.140137e-01
-5.964155e-02 1.328828e+00 -5.768555e+00 5.630859e+00 -2.867403e-05 1.251122e-02 -1.140137e-01 1.140137e-01
-5.953661e-02 1.329206e+00 -5.768555e+00 5.630859e+00 -2.578163e-05 1.250007e-02 -1.140137e-01 1.140137e-01
-5.949209e-02 1.329454e+00 -5.768555e+00 5.630859e+00 -2.633203e-05 1.249893e-02 -1.140137e-01 1.140137e-01
-5.916807e-02 1.329932e+00 -5.768555e+00 5.630859e+00 -2.286256e-05 1.250170e-02 -1.140137e-01 1.140137e-01
-5.913912e-02 1.330123e+00 -5.768555e+00 5.630859e+00 -2.671534e-05 1.250948e-02 -1.140137e-01 1.140137e-01
-5.896335e-02 1.330507e+00 -5.768555e+00 5.630859e+00 -2.158625e-05 1.249717e-02 -1.191406e-01 1.140137e-01
-5.901705e-02 1.330598e+00 -5.768555e+00 5.630859e+00 -2.366709e-05 1.250276e-02 -1.191406e-01 1.140137e-01
-5.880322e-02 1.331019e+00 -5.768555e+00 5.630859e+00 -1.808309e-05 1.247354e-02 -1.191406e-01 1.140137e-01
-5.863727e-02 1.331330e+00 -5.768555e+00 5.630859e+00 -2.089685e-05 1.248128e-02 -1.191406e-01 1.140137e-01
-5.847283e-02 1.331548e+00 -5.768555e+00 5.630859e+00 -2.141636e-05 1.248336e-02 -1.140137e-01 1.140137e-01
-5.832679e-02 1.331863e+00 -5.768555e+00 5.630859e+00 -1.825719e-05 1.248926e-02 -1.140137e-01 1.140137e-01
-5.826737e-02 1.332117e+00 -5.768555e+00 5.630859e+00 -1.528055e-05 1.247046e-02 -1.191406e-01 1.140137e-01
-5.824096e-02 1.332280e+00 -5.768555e+00 5.630859e+00 -1.692051e-05 1.247646e-02 -1.191406e-01 1.140137e-01
-5.818785e-02 1.332529e+00 -5.768555e+00 5.630859e+00 -1.745125e-05 1.246305e-02 -1.191406e-01 1.140137e-01
-5.817821e-02 1.332792e+00 -5.768555e+00 5.630859e+00 -1.666216e-05 1.245154e-02 -1.140137e-01 1.140137e-01
-5.802173e-02 1.333240e+00 -5.768555e+00 5.630859e+00 -7.926005e-06 1.246204e-02 -1.191406e-01 1.140137e-01
-5.803709e-02 1.333314e+00 -5.768555e+00 5.630859e+00 -1.303684e-05 1.245093e-02 -1.140137e-01 1.140137e-01
-5.798956e-02 1.333614e+00 -5.768555e+00 5.630859e+00 -1.320814e-05 1.245974e-02 -1.191406e-01 1.140137e-01
-5.781011e-02 1.333944e+00 -5.768555e+00 5.630859e+00 -1.108096e-05 1.245510e-02 -1.191406e-01 1.140137e-01
-5.783031e-02 1.334015e+00 -5.768555e+00 5.630859e+00 -1.434123e-05 1.243475e-02 -1.140137e-01 1.140137e-01
-5.771865e-02 1.334190e+00 -5.768555e+00 5.630859e+00 -1.111887e-05 1.242560e-02 -1.140137e-01 1.140137e-01
-5.775943e-02 1.334309e+00 -5.768555e+00 5.630859e+00 -8.123980e-06 1.242428e-02 -1.140137e-01 1.140137e-01
-5.764319e-02 1.334522e+00 -5.768555e+00 5.630859e+00 -6.930516e-06 1.242197e-02 -1.140137e-01 1.140137e-01
-5.754996e-02 1.334881e+00 -5.768555e+00 5.630859e+00 -4.804746e-06 1.242739e-02 -1.140137e-01 1.140137e-01
-5.765304e-02 1.334950e+00 -5.768555e+00 5.630859e+00 -6.433473e-06 1.242123e-02 -1.191406e-01 1.140137e-01
-5.757788e-02 1.335193e+00 -5.768555e+00 5.630859e+00 -5.728628e-06 1.241598e-02 -1.191406e-01 1.140137e-01
-5.757936e-02 1.335179e+00 -5.768555e+00 5.630859e+00 -5.993998e-06 1.241219e-02 -1.140137e-01 1.140137e-01
-5.745567e-02 1.335622e+00 -5.768555e+00 5.630859e+00 4.366674e-07 1.241419e-02 -1.191406e-01 1.140137e-01
-5.760843e-02 1.335585e+00 -5.768555e+00 5.630859e+00 -1.347912e-06 1.240655e-02 -1.140137e-01 1.140137e-01
-5.771582e-02 1.335587e+00 -5.768555e+00 5.630615e+00 -3.343103e-06 1.240487e-02 -1.140137e-01 1.140137e-01
-5.773566e-02 1.335818e+00 -5.768555e+00 5.630859e+00 -1.614687e-06 1.240747e-02 -1.191406e-01 1.140137e-01
-5.778809e-02 1.335920e+00 -5.768555e+00 5.630615e+00 -8.424452e-07 1.240191e-02 -1.140137e-01 1.140137e-01
-5.773469e-02 1.336128e+00 -5.768555e+00 5.630615e+00 4.535163e-07 1.241155e-02 -1.191406e-01 1.140137e-01
-5.758779e-02 1.336351e+00 -5.768555e+00 5.630859e+00 2.177721e-06 1.240945e-02 -1.140137e-01 1.140137e-01
-5.754150e-02 1.336454e+00 -5.768555e+00 5.630859e+00 4.035313e-06 1.241144e-02 -1.140137e-01 1.140137e-01
-5.772039e-02 1.336427e+00 -5.768555e+00 5.630127e+00 3.105815e-06 1.240547e-02 -1.140137e-01 1.140137e-01
-5.768161e-02 1.336720e+00 -5.768555e+00 5.630127e+00 4.703652e-06 1.241112e-02 -1.140137e-01 1.140137e-01
-5.783273e-02 1.336705e+00 -5.768555e+00 5.629883e+00 4.332977e-06 1.239754e-02 -1.140137e-01 1.140137e-01
-5.793254e-02 1.336889e+00 -5.768555e+00 5.629639e+00 4.978851e-06 1.239659e-02 -1.140137e-01 1.140137e-01
-5.810172e-02 1.336885e+00 -5.768555e+00 5.629395e+00 1.746670e-06 1.240379e-02 -1.140137e-01 1.140137e-01
-5.808315e-02 1.337220e+00 -5.768555e+00 5.629395e+00 5.214736e-06 1.238976e-02 -1.140137e-01 1.140137e-01
-5.816344e-02 1.337262e+00 -5.768555e+00 5.628906e+00 1.637152e-06 1.238840e-02 -1.140137e-01 1.140137e-01
-5.806852e-02 1.337519e+00 -5.768555e+00 5.629150e+00 5.143128e-06 1.240177e-02 -1.140137e-01 1.140137e-01
-5.812487e-02 1.337608e+00 -5.768555e+00 5.628906e+00 5.270899e-06 1.240718e-02 -1.191406e-01 1.140137e-01
-5.815760e-02 1.337790e+00 -5.768555e+00 5.628174e+00 5.122067e-06 1.240503e-02 -1.191406e-01 1.140137e-01
-5.825694e-02 1.337953e+00 -5.768555e+00 5.628906e+00 9.081559e-06 1.240065e-02 -1.191406e-01 1.140137e-01
-5.842495e-02 1.337975e+00 -5.768555e+00 5.628662e+00 8.945364e-06 1.240177e-02 -1.191406e-01 1.140137e-01
-5.848701e-02 1.338152e+00 -5.768555e+00 5.628906e+00 1.125366e-05 1.239845e-02 -1.191406e-01 1.140137e-01
-5.857520e-02 1.338141e+00 -5.768555e+00 5.628906e+00 8.174527e-06 1.240870e-02 -1.191406e-01 1.140137e-01
-5.869934e-02 1.338125e+00 -5.768555e+00 5.627930e+00 6.434877e-06 1.238757e-02 -1.191406e-01 1.140137e-01
-5.867545e-02 1.338379e+00 -5.768555e+00 5.627930e+00 1.523983e-05 1.238447e-02 -1.191406e-01 1.140137e-01
-5.892859e-02 1.338390e+00 -5.768555e+00 5.627441e+00 1.529459e-05 1.238096e-02 -1.191406e-01 1.140137e-01
-5.912134e-02 1.338595e+00 -5.768555e+00 5.627686e+00 1.639258e-05 1.238421e-02 -1.191406e-01 1.140137e-01
-5.936052e-02 1.338627e+00 -5.768555e+00 5.627686e+00 1.384559e-05 1.237328e-02 -1.191406e-01 1.140137e-01
-5.957031e-02 1.338776e+00 -5.768555e+00 5.627197e+00 1.469224e-05 1.237786e-02 -1.191406e-01 1.140137e-01
-5.986703e-02 1.338773e+00 -5.768555e+00 5.627930e+00 1.324324e-05 1.237711e-02 -1.191406e-01 1.140137e-01
-6.001168e-02 1.338922e+00 -5.768555e+00 5.627441e+00 1.316882e-05 1.236711e-02 -1.191406e-01 1.140137e-01
-6.006378e-02 1.339097e+00 -5.768555e+00 5.627441e+00 1.565965e-05 1.235750e-02 -1.191406e-01 1.140137e-01
-6.019570e-02 1.339217e+00 -5.768555e+00 5.626953e+00 1.824034e-05 1.237177e-02 -1.191406e-01 1.140137e-01
-6.037173e-02 1.339153e+00 -5.768555e+00 5.625488e+00 1.958404e-05 1.237283e-02 -1.191406e-01 1.140137e-01
-6.057863e-02 1.339245e+00 -5.768555e+00 5.625977e+00 1.712691e-05 1.236810e-02 -1.191406e-01 1.140137e-01
-6.073216e-02 1.339308e+00 -5.768555e+00 5.626709e+00 1.883427e-05 1.236559e-02 -1.191406e-01 1.140137e-01
-6.094343e-02 1.339289e+00 -5.768555e+00 5.626221e+00 2.099373e-05 1.237183e-02 -1.191406e-01 1.140137e-01
-6.106674e-02 1.339460e+00 -5.768555e+00 5.626221e+00 2.384962e-05 1.236615e-02 -1.191406e-01 1.140137e-01
-6.138471e-02 1.339511e+00 -5.768555e+00 5.626953e+00 2.755638e-05 1.236622e-02 -1.191406e-01 1.140137e-01
-6.165686e-02 1.339407e+00 -5.768555e+00 5.625732e+00 2.384401e-05 1.236955e-02 -1.191406e-01 1.140137e-01
-6.180839e-02 1.339485e+00 -5.768555e+00 5.625732e+00 2.549520e-05 1.238827e-02 -1.191406e-01 1.140137e-01
-6.197864e-02 1.339554e+00 -5.768555e+00 5.625000e+00 2.519894e-05 1.238940e-02 -1.191406e-01 1.140137e-01
-6.230180e-02 1.339389e+00 -5.768555e+00 5.624023e+00 2.426804e-05 1.239132e-02 -1.191406e-01 1.140137e-01
-6.262266e-02 1.339297e+00 -5.768555e+00 5.623047e+00 2.340734e-05 1.239627e-02 -1.191406e-01 1.140137e-01
-6.286058e-02 1.339372e+00 -5.768555e+00 5.623291e+00 2.599926e-05 1.239256e-02 -1.191406e-01 1.140137e-01
-6.284710e-02 1.339700e+00 -5.768555e+00 5.622559e+00 2.765748e-05 1.238502e-02 -1.191406e-01 1.140137e-01
-6.308408e-02 1.339583e+00 -5.768555e+00 5.623047e+00 2.934518e-05 1.238948e-02 -1.191406e-01 1.140137e-01
-6.339241e-02 1.339514e+00 -5.768555e+00 5.621826e+00 2.962037e-05 1.238631e-02 -1.191406e-01 1.140137e-01
-6.363077e-02 1.339555e+00 -5.768555e+00 5.622803e+00 3.162259e-05 1.237963e-02 -1.191406e-01 1.140137e-01
-6.378843e-02 1.339675e+00 -5.768555e+00 5.623291e+00 3.180371e-05 1.238175e-02 -1.191406e-01 1.140137e-01
-6.407836e-02 1.339572e+00 -5.768555e+00 5.621826e+00 3.349281e-05 1.239342e-02 -1.191406e-01 1.140137e-01
-6.448459e-02 1.339430e+00 -5.768555e+00 5.620605e+00 3.146814e-05 1.238206e-02 -1.191406e-01 1.140137e-01
-6.479610e-02 1.339460e+00 -5.768555e+00 5.619629e+00 3.033084e-05 1.239200e-02 -1.191406e-01 1.140137e-01
-6.510072e-02 1.339396e+00 -5.768555e+00 5.619629e+00 3.043614e-05 1.238456e-02 -1.191406e-01 1.140137e-01
-6.542695e-02 1.339185e+00 -5.768555e+00 5.619141e+00 3.084894e-05 1.237934e-02 -1.191406e-01 1.140137e-01
-6.561238e-02 1.339272e+00 -5.768555e+00 5.618652e+00 3.262229e-05 1.238879e-02 -1.191406e-01 1.140137e-01
-6.580215e-02 1.339433e+00 -5.768555e+00 5.618164e+00 3.573793e-05 1.238969e-02 -1.191406e-01 1.140137e-01
-6.614521e-02 1.339124e+00 -5.768555e+00 5.617188e+00 3.515664e-05 1.238443e-02 -1.191406e-01 1.140137e-01
-6.647427e-02 1.339159e+00 -5.768555e+00 5.616211e+00 3.550626e-05 1.238629e-02 -1.191406e-01 1.140137e-01
-6.671918e-02 1.339165e+00 -5.768555e+00 5.616211e+00 3.628692e-05 1.239745e-02 -1.191406e-01 1.140137e-01
-6.711703e-02 1.338838e+00 -5.768555e+00 5.616211e+00 3.657336e-05 1.237747e-02 -1.191406e-01 1.140137e-01
-6.728660e-02 1.338975e+00 -5.768555e+00 5.616943e+00 4.030960e-05 1.240062e-02 -1.191406e-01 1.140137e-01
-6.762026e-02 1.338984e+00 -5.768555e+00 5.616211e+00 4.037840e-05 1.239801e-02 -1.191406e-01 1.140137e-01
-6.801147e-02 1.338861e+00 -5.768555e+00 5.616211e+00 4.076873e-05 1.239254e-02 -1.191406e-01 1.140137e-01
-6.835416e-02 1.338744e+00 -5.768555e+00 5.614502e+00 4.201415e-05 1.238458e-02 -1.191406e-01 1.140137e-01
-6.878585e-02 1.338821e+00 -5.768555e+00 5.614502e+00 3.957386e-05 1.239655e-02 -1.191406e-01 1.140137e-01
-6.921646e-02 1.338637e+00 -5.768555e+00 5.613281e+00 3.866543e-05 1.239829e-02 -1.191406e-01 1.140137e-01
-6.963881e-02 1.338567e+00 -5.768555e+00 5.613525e+00 4.306159e-05 1.240541e-02 -1.191406e-01 1.140137e-01
-7.009171e-02 1.338339e+00 -5.768555e+00 5.612549e+00 4.406550e-05 1.240570e-02 -1.191406e-01 1.140137e-01
-7.049127e-02 1.338311e+00 -5.768555e+00 5.610840e+00 4.304755e-05 1.240474e-02 -1.191406e-01 1.140137e-01
-7.089847e-02 1.338130e+00 -5.768555e+00 5.610596e+00 4.399811e-05 1.240124e-02 -1.191406e-01 1.140137e-01
-7.111168e-02 1.338400e+00 -5.768555e+00 5.608643e+00 4.536848e-05 1.242307e-02 -1.191406e-01 1.193848e-01
-7.157260e-02 1.338116e+00 -5.768555e+00 5.607178e+00 4.227952e-05 1.241410e-02 -1.191406e-01 1.140137e-01
-7.192474e-02 1.338190e+00 -5.768555e+00 5.608643e+00 4.475771e-05 1.241810e-02 -1.191406e-01 1.193848e-01
-7.232690e-02 1.338094e+00 -5.768555e+00 5.606689e+00 4.613511e-05 1.243060e-02 -1.191406e-01 1.193848e-01
-7.277867e-02 1.337926e+00 -5.768555e+00 5.606201e+00 4.568159e-05 1.242571e-02 -1.191406e-01 1.140137e-01
-7.312315e-02 1.338025e+00 -5.768555e+00 5.605957e+00 4.889552e-05 1.242859e-02 -1.191406e-01 1.193848e-01
-7.362367e-02 1.337763e+00 -5.768555e+00 5.604004e+00 4.837601e-05 1.242256e-02 -1.191406e-01 1.140137e-01
-7.399593e-02 1.337557e+00 -5.768555e+00 5.603027e+00 4.963406e-05 1.244296e-02 -1.191406e-01 1.140137e-01
-7.435090e-02 1.337761e+00 -5.768555e+00 5.603516e+00 5.123190e-05 1.243862e-02 -1.191406e-01 1.140137e-01
-7.475601e-02 1.337699e+00 -5.768555e+00 5.603516e+00 5.046528e-05 1.245413e-02 -1.191406e-01 1.140137e-01
-7.520658e-02 1.337485e+00 -5.768555e+00 5.602051e+00 4.865823e-05 1.246176e-02 -1.191406e-01 1.140137e-01
-7.566402e-02 1.337368e+00 -5.768555e+00 5.601318e+00 4.808677e-05 1.245952e-02 -1.191406e-01 1.140137e-01
-7.612552e-02 1.337323e+00 -5.768555e+00 5.601807e+00 4.728645e-05 1.246196e-02 -1.191406e-01 1.140137e-01
-7.653590e-02 1.337334e+00 -5.768555e+00 5.601074e+00 4.975762e-05 1.246393e-02 -1.191406e-01 1.140137e-01
-7.669908e-02 1.337364e+00 -5.768555e+00 5.600830e+00 5.103252e-05 1.247456e-02 -1.191406e-01 1.140137e-01
-7.710772e-02 1.337469e+00 -5.768555e+00 5.601562e+00 5.026169e-05 1.246898e-02 -1.191406e-01 1.140137e-01
-7.751385e-02 1.337259e+00 -5.768555e+00 5.600342e+00 4.791548e-05 1.245632e-02 -1.191406e-01 1.140137e-01
-7.801166e-02 1.336981e+00 -5.768555e+00 5.598633e+00 5.034874e-05 1.247703e-02 -1.191406e-01 1.140137e-01
-7.842555e-02 1.337089e+00 -5.768555e+00 5.600342e+00 5.406673e-05 1.246720e-02 -1.225586e-01 1.193848e-01
-7.897286e-02 1.336985e+00 -5.768555e+00 5.599609e+00 5.203222e-05 1.248363e-02 -1.225586e-01 1.193848e-01
-7.942384e-02 1.337148e+00 -5.768555e+00 5.599121e+00 5.250399e-05 1.248453e-02 -1.225586e-01 1.193848e-01
-7.985430e-02 1.336925e+00 -5.768555e+00 5.599365e+00 5.389965e-05 1.250535e-02 -1.225586e-01 1.193848e-01
-8.042508e-02 1.336712e+00 -5.768555e+00 5.598145e+00 5.545255e-05 1.250926e-02 -1.225586e-01 1.193848e-01
-8.083912e-02 1.336763e+00 -5.768555e+00 5.597656e+00 5.568001e-05 1.252150e-02 -1.225586e-01 1.193848e-01
-8.125802e-02 1.336695e+00 -5.768555e+00 5.595459e+00 5.954543e-05 1.251745e-02 -1.225586e-01 1.193848e-01
-8.175081e-02 1.336764e+00 -5.768555e+00 5.594727e+00 5.876617e-05 1.251006e-02 -1.225586e-01 1.193848e-01
-8.231517e-02 1.336300e+00 -5.768555e+00 5.593506e+00 5.760781e-05 1.253095e-02 -1.225586e-01 1.193848e-01
-8.262665e-02 1.336572e+00 -5.768555e+00 5.594482e+00 6.093547e-05 1.252877e-02 -1.225586e-01 1.193848e-01
-8.327516e-02 1.336288e+00 -5.768555e+00 5.593262e+00 6.025730e-05 1.253922e-02 -1.225586e-01 1.193848e-01
-8.375905e-02 1.336164e+00 -5.768555e+00 5.593262e+00 5.874371e-05 1.254482e-02 -1.225586e-01 1.193848e-01
-8.434964e-02 1.335944e+00 -5.768555e+00 5.591553e+00 5.912561e-05 1.255291e-02 -1.225586e-01 1.193848e-01
-8.484019e-02 1.336190e+00 -5.768555e+00 5.593262e+00 6.230444e-05 1.256469e-02 -1.225586e-01 1.193848e-01
-8.547133e-02 1.336153e+00 -5.768555e+00 5.592285e+00 5.822701e-05 1.257552e-02 -1.225586e-01 1.193848e-01
-8.596289e-02 1.336150e+00 -5.768555e+00 5.592529e+00 6.004528e-05 1.256371e-02 -1.225586e-01 1.193848e-01
-8.642257e-02 1.336153e+00 -5.768555e+00 5.595459e+00 6.253611e-05 1.258633e-02 -1.225586e-01 1.193848e-01
-8.705026e-02 1.335769e+00 -5.768555e+00 5.592529e+00 5.937554e-05 1.257793e-02 -1.225586e-01 1.193848e-01
-8.761411e-02 1.336038e+00 -5.768555e+00 5.592773e+00 6.182425e-05 1.259048e-02 -1.225586e-01 1.193848e-01
-8.803888e-02 1.336004e+00 -5.768555e+00 5.591797e+00 6.414799e-05 1.259382e-02 -1.225586e-01 1.193848e-01
-8.891180e-02 1.335291e+00 -5.768555e+00 5.592285e+00 6.127806e-05 1.259027e-02 -1.225586e-01 1.193848e-01
-8.937260e-02 1.335840e+00 -5.768555e+00 5.593262e+00 6.347825e-05 1.260798e-02 -1.225586e-01 1.193848e-01
-8.981011e-02 1.335970e+00 -5.768555e+00 5.594238e+00 6.530355e-05 1.261665e-02 -1.225586e-01 1.193848e-01
-9.035497e-02 1.335937e+00 -5.768555e+00 5.591064e+00 6.542710e-05 1.263442e-02 -1.225586e-01 1.193848e-01
-9.109134e-02 1.335642e+00 -5.768555e+00 5.590820e+00 6.289556e-05 1.263117e-02 -1.301270e-01 1.193848e-01
-9.162329e-02 1.335652e+00 -5.768555e+00 5.593994e+00 6.248557e-05 1.262914e-02 -1.301270e-01 1.193848e-01
-9.220440e-02 1.335643e+00 -5.768555e+00 5.593994e+00 6.037243e-05 1.264294e-02 -1.301270e-01 1.193848e-01
-9.253266e-02 1.335962e+00 -5.768555e+00 5.596436e+00 6.498482e-05 1.263408e-02 -1.301270e-01 1.140137e-01
-9.301147e-02 1.335986e+00 -5.768555e+00 5.595459e+00 6.543412e-05 1.265773e-02 -1.301270e-01 1.140137e-01
-9.359738e-02 1.335929e+00 -5.768555e+00 5.596680e+00 6.550012e-05 1.266621e-02 -1.301270e-01 1.140137e-01
-9.428926e-02 1.335708e+00 -5.768555e+00 5.595703e+00 6.672868e-05 1.268452e-02 -1.301270e-01 1.140137e-01
-9.485382e-02 1.335868e+00 -5.768555e+00 5.597168e+00 6.724679e-05 1.269431e-02 -1.301270e-01 1.193848e-01
-9.555564e-02 1.335892e+00 -5.768555e+00 5.597900e+00 6.791653e-05 1.269262e-02 -1.301270e-01 1.193848e-01
-9.607833e-02 1.335858e+00 -5.768555e+00 5.598145e+00 6.508030e-05 1.269499e-02 -1.301270e-01 1.193848e-01
-9.660768e-02 1.335640e+00 -5.768555e+00 5.600586e+00 6.579076e-05 1.269878e-02 -1.301270e-01 1.193848e-01
-9.719141e-02 1.335340e+00 -5.768555e+00 5.599609e+00 6.508311e-05 1.269495e-02 -1.301270e-01 1.193848e-01
-9.789429e-02 1.335453e+00 -5.768555e+00 5.599365e+00 6.236903e-05 1.271826e-02 -1.340332e-01 1.193848e-01
-9.841615e-02 1.335789e+00 -5.768555e+00 5.599121e+00 6.552679e-05 1.270498e-02 -1.340332e-01 1.193848e-01
-9.894315e-02 1.335709e+00 -5.768555e+00 5.599121e+00 6.654615e-05 1.271875e-02 -1.340332e-01 1.193848e-01
-9.969376e-02 1.335488e+00 -5.768555e+00 5.599854e+00 6.711901e-05 1.273596e-02 -1.340332e-01 1.140137e-01
-1.002326e-01 1.335741e+00 -5.768555e+00 5.600342e+00 6.792636e-05 1.275283e-02 -1.340332e-01 1.245117e-01
-1.010312e-01 1.335355e+00 -5.768555e+00 5.602051e+00 6.599716e-05 1.276695e-02 -1.340332e-01 1.193848e-01
-1.015277e-01 1.335698e+00 -5.768555e+00 5.602783e+00 6.793057e-05 1.277894e-02 -1.340332e-01 1.193848e-01
-1.021773e-01 1.335585e+00 -5.768555e+00 5.604492e+00 6.528108e-05 1.277846e-02 -1.340332e-01 1.193848e-01
-1.028989e-01 1.335458e+00 -5.768555e+00 5.603271e+00 6.055637e-05 1.278156e-02 -1.340332e-01 1.193848e-01
-1.033731e-01 1.335852e+00 -5.768555e+00 5.608154e+00 6.619513e-05 1.279585e-02 -1.340332e-01 1.193848e-01
-1.040138e-01 1.335521e+00 -5.768555e+00 5.606201e+00 6.382927e-05 1.278494e-02 -1.340332e-01 1.193848e-01
-1.045529e-01 1.335631e+00 -5.768555e+00 5.605469e+00 6.354705e-05 1.280163e-02 -1.340332e-01 1.193848e-01
-1.051944e-01 1.335486e+00 -5.768555e+00 5.607422e+00 6.532601e-05 1.282064e-02 -1.340332e-01 1.193848e-01
-1.057285e-01 1.335929e+00 -5.768555e+00 5.611084e+00 6.276498e-05 1.283423e-02 -1.340332e-01 1.193848e-01
-1.065103e-01 1.335833e+00 -5.768555e+00 5.611328e+00 6.190990e-05 1.285432e-02 -1.340332e-01 1.193848e-01
-1.071532e-01 1.335893e+00 -5.768555e+00 5.610107e+00 6.378995e-05 1.286208e-02 -1.340332e-01 1.193848e-01
-1.076328e-01 1.336257e+00 -5.768555e+00 5.612793e+00 6.151114e-05 1.288287e-02 -1.340332e-01 1.245117e-01
-1.081781e-01 1.336464e+00 -5.768555e+00 5.614014e+00 6.282956e-05 1.287399e-02 -1.340332e-01 1.245117e-01
-1.087915e-01 1.336434e+00 -5.768555e+00 5.614502e+00 6.455658e-05 1.289995e-02 -1.340332e-01 1.245117e-01
-1.091813e-01 1.336798e+00 -5.768555e+00 5.617920e+00 6.583990e-05 1.289641e-02 -1.340332e-01 1.245117e-01
-1.098505e-01 1.336657e+00 -5.768555e+00 5.619873e+00 6.444004e-05 1.289608e-02 -1.340332e-01 1.245117e-01
-1.104886e-01 1.336840e+00 -5.768555e+00 5.619629e+00 6.401460e-05 1.291865e-02 -1.340332e-01 1.245117e-01
-1.111084e-01 1.336773e+00 -5.768555e+00 5.619873e+00 6.374081e-05 1.292950e-02 -1.340332e-01 1.245117e-01
-1.115965e-01 1.337093e+00 -5.768555e+00 5.623291e+00 6.551135e-05 1.293416e-02 -1.340332e-01 1.245117e-01
-1.124874e-01 1.336553e+00 -5.768799e+00 5.621582e+00 6.364112e-05 1.296180e-02 -1.340332e-01 1.245117e-01
-1.127478e-01 1.337015e+00 -5.768799e+00 5.626465e+00 6.525019e-05 1.295660e-02 -1.340332e-01 1.245117e-01
-1.133415e-01 1.336805e+00 -5.768799e+00 5.626221e+00 6.284782e-05 1.297977e-02 -1.340332e-01 1.245117e-01
-1.138585e-01 1.337161e+00 -5.768799e+00 5.629395e+00 6.403847e-05 1.298371e-02 -1.340332e-01 1.245117e-01
-1.142172e-01 1.337753e+00 -5.768799e+00 5.634766e+00 6.633133e-05 1.297567e-02 -1.340332e-01 1.245117e-01
-1.149692e-01 1.337396e+00 -5.768799e+00 5.631348e+00 6.346842e-05 1.300026e-02 -1.340332e-01 1.245117e-01
-1.154591e-01 1.337741e+00 -5.768799e+00 5.635010e+00 6.732401e-05 1.301155e-02 -1.340332e-01 1.245117e-01
-1.160902e-01 1.337743e+00 -5.768799e+00 5.637939e+00 6.552679e-05 1.300810e-02 -1.340332e-01 1.245117e-01
-1.168237e-01 1.337539e+00 -5.768799e+00 5.639160e+00 6.341506e-05 1.303852e-02 -1.340332e-01 1.245117e-01
-1.173668e-01 1.338112e+00 -5.768799e+00 5.644043e+00 6.642961e-05 1.302697e-02 -1.340332e-01 1.245117e-01
-1.180512e-01 1.337975e+00 -5.768799e+00 5.643066e+00 6.606315e-05 1.305563e-02 -1.340332e-01 1.245117e-01
-1.186129e-01 1.338297e+00 -5.768799e+00 5.647949e+00 6.510697e-05 1.307894e-02 -1.340332e-01 1.245117e-01
-1.192828e-01 1.338722e+00 -5.768799e+00 5.646973e+00 6.272847e-05 1.308357e-02 -1.340332e-01 1.245117e-01
-1.199594e-01 1.338448e+00 -5.768799e+00 5.649414e+00 6.094389e-05 1.311474e-02 -1.340332e-01 1.245117e-01
-1.205352e-01 1.338709e+00 -5.768799e+00 5.649902e+00 6.197167e-05 1.311523e-02 -1.340332e-01 1.245117e-01
-1.210292e-01 1.338982e+00 -5.768799e+00 5.654541e+00 6.386437e-05 1.310566e-02 -1.340332e-01 1.245117e-01
-1.217678e-01 1.338892e+00 -5.768799e+00 5.656006e+00 6.407638e-05 1.313449e-02 -1.340332e-01 1.245117e-01
-1.223584e-01 1.339300e+00 -5.768799e+00 5.657227e+00 6.538217e-05 1.315481e-02 -1.340332e-01 1.245117e-01
-1.229928e-01 1.339152e+00 -5.768799e+00 5.660400e+00 6.372536e-05 1.316603e-02 -1.340332e-01 1.245117e-01
-1.235117e-01 1.339472e+00 -5.768799e+00 5.663330e+00 6.182284e-05 1.319365e-02 -1.340332e-01 1.245117e-01
-1.239562e-01 1.339892e+00 -5.768799e+00 5.670654e+00 6.747565e-05 1.321723e-02 -1.340332e-01 1.245117e-01
-1.247720e-01 1.339897e+00 -5.768799e+00 5.669678e+00 6.248135e-05 1.321152e-02 -1.340332e-01 1.245117e-01
-1.249933e-01 1.340994e+00 -5.768799e+00 5.674316e+00 6.493287e-05 1.321867e-02 -1.340332e-01 1.245117e-01
-1.258148e-01 1.340746e+00 -5.768799e+00 5.676514e+00 6.287730e-05 1.322822e-02 -1.340332e-01 1.245117e-01
-1.262643e-01 1.341336e+00 -5.768799e+00 5.680420e+00 6.402584e-05 1.323431e-02 -1.340332e-01 1.245117e-01
-1.270493e-01 1.341176e+00 -5.768799e+00 5.678955e+00 6.311880e-05 1.326202e-02 -1.340332e-01 1.245117e-01
-1.278415e-01 1.341137e+00 -5.768799e+00 5.683350e+00 5.757551e-05 1.327826e-02 -1.340332e-01 1.245117e-01
-1.283869e-01 1.341285e+00 -5.768799e+00 5.684814e+00 5.900206e-05 1.328828e-02 -1.340332e-01 1.245117e-01
-1.290681e-01 1.340943e+00 -5.769043e+00 5.682129e+00 5.978413e-05 1.332950e-02 -1.340332e-01 1.245117e-01
-1.292554e-01 1.342621e+00 -5.769043e+00 5.696045e+00 6.330274e-05 1.332194e-02 -1.459961e-01 1.245117e-01
-1.300149e-01 1.342024e+00 -5.769043e+00 5.693604e+00 5.954122e-05 1.333516e-02 -1.340332e-01 1.245117e-01
-1.304826e-01 1.342700e+00 -5.769043e+00 5.697266e+00 6.112080e-05 1.335424e-02 -1.352539e-01 1.303711e-01
-1.312210e-01 1.342979e+00 -5.769043e+00 5.701172e+00 6.149008e-05 1.336151e-02 -1.459961e-01 1.303711e-01
-1.317265e-01 1.343188e+00 -5.769043e+00 5.704590e+00 6.070520e-05 1.338905e-02 -1.459961e-01 1.303711e-01
-1.323385e-01 1.343308e+00 -5.769043e+00 5.705566e+00 6.210787e-05 1.341038e-02 -1.459961e-01 1.303711e-01
-1.329765e-01 1.343859e+00 -5.769043e+00 5.708496e+00 6.242659e-05 1.341034e-02 -1.459961e-01 1.303711e-01
-1.335149e-01 1.344620e+00 -5.769043e+00 5.713135e+00 6.081612e-05 1.341694e-02 -1.445312e-01 1.345215e-01
-1.342019e-01 1.344976e+00 -5.769531e+00 5.714600e+00 6.289275e-05 1.343708e-02 -1.459961e-01 1.303711e-01
-1.346778e-01 1.345131e+00 -5.769531e+00 5.717285e+00 6.202363e-05 1.342978e-02 -1.445312e-01 1.345215e-01
-1.353273e-01 1.345633e+00 -5.769531e+00 5.724609e+00 6.107868e-05 1.344060e-02 -1.445312e-01 1.345215e-01
-1.357927e-01 1.346410e+00 -5.769531e+00 5.728760e+00 6.040753e-05 1.343407e-02 -1.459961e-01 1.345215e-01
-1.366124e-01 1.345851e+00 -5.769531e+00 5.724609e+00 5.462836e-05 1.342882e-02 -1.445312e-01 1.345215e-01
-1.371939e-01 1.346533e+00 -5.769531e+00 5.730225e+00 5.659126e-05 1.344940e-02 -1.459961e-01 1.303711e-01
-1.376788e-01 1.347084e+00 -5.769531e+00 5.733398e+00 5.578251e-05 1.346194e-02 -1.459961e-01 1.303711e-01
-1.383501e-01 1.347195e+00 -5.769531e+00 5.734375e+00 5.462274e-05 1.346485e-02 -1.459961e-01 1.345215e-01
-1.387633e-01 1.348186e+00 -5.769531e+00 5.740479e+00 5.731716e-05 1.348415e-02 -1.459961e-01 1.345215e-01
-1.394355e-01 1.348029e+00 -5.769531e+00 5.744385e+00 5.577549e-05 1.348241e-02 -1.459961e-01 1.345215e-01
-1.398864e-01 1.348346e+00 -5.769531e+00 5.743896e+00 5.289012e-05 1.350939e-02 -1.459961e-01 1.345215e-01
-1.403539e-01 1.349098e+00 -5.769531e+00 5.752197e+00 5.381821e-05 1.351272e-02 -1.459961e-01 1.345215e-01
-1.407309e-01 1.350149e+00 -5.769531e+00 5.759033e+00 5.609141e-05 1.351201e-02 -1.459961e-01 1.345215e-01
-1.412930e-01 1.349998e+00 -5.769531e+00 5.755127e+00 5.333802e-05 1.350232e-02 -1.459961e-01 1.345215e-01
-1.419276e-01 1.350748e+00 -5.769531e+00 5.758789e+00 5.188620e-05 1.352351e-02 -1.459961e-01 1.345215e-01
-1.421914e-01 1.351370e+00 -5.769531e+00 5.762451e+00 5.341664e-05 1.351904e-02 -1.459961e-01 1.345215e-01
-1.426503e-01 1.352217e+00 -5.769531e+00 5.768311e+00 5.370869e-05 1.351992e-02 -1.459961e-01 1.345215e-01
-1.433376e-01 1.352666e+00 -5.769531e+00 5.772705e+00 5.266827e-05 1.353118e-02 -1.459961e-01 1.345215e-01
-1.437870e-01 1.353204e+00 -5.769531e+00 5.773193e+00 4.815698e-05 1.355515e-02 -1.459961e-01 1.345215e-01
-1.443022e-01 1.353918e+00 -5.769531e+00 5.781006e+00 4.900785e-05 1.356312e-02 -1.459961e-01 1.345215e-01
-1.447815e-01 1.354109e+00 -5.769531e+00 5.779541e+00 4.737350e-05 1.356414e-02 -1.459961e-01 1.345215e-01
-1.452808e-01 1.354634e+00 -5.769531e+00 5.784180e+00 4.545132e-05 1.359052e-02 -1.459961e-01 1.345215e-01
-1.454952e-01 1.355324e+00 -5.769531e+00 5.793213e+00 4.522386e-05 1.360655e-02 -1.459961e-01 1.345215e-01
-1.458730e-01 1.355808e+00 -5.769531e+00 5.798096e+00 4.479562e-05 1.362046e-02 -1.459961e-01 1.345215e-01
-1.461607e-01 1.356905e+00 -5.769531e+00 5.800293e+00 4.978851e-05 1.362463e-02 -1.459961e-01 1.345215e-01
-1.467215e-01 1.356613e+00 -5.769287e+00 5.802002e+00 4.176422e-05 1.363311e-02 -1.459961e-01 1.345215e-01
-1.469750e-01 1.358160e+00 -5.769287e+00 5.811768e+00 4.489391e-05 1.365207e-02 -1.459961e-01 1.345215e-01
-1.476813e-01 1.357822e+00 -5.769287e+00 5.812744e+00 3.893641e-05 1.365784e-02 -1.459961e-01 1.345215e-01
-1.480016e-01 1.359058e+00 -5.769287e+00 5.814697e+00 4.348281e-05 1.368097e-02 -1.459961e-01 1.437988e-01
-1.484617e-01 1.359562e+00 -5.769287e+00 5.817627e+00 4.287063e-05 1.369783e-02 -1.459961e-01 1.437988e-01
-1.488553e-01 1.360473e+00 -5.769287e+00 5.824951e+00 4.374116e-05 1.370083e-02 -1.459961e-01 1.437988e-01
-1.491714e-01 1.361247e+00 -5.769287e+00 5.825928e+00 4.153676e-05 1.371707e-02 -1.560059e-01 1.437988e-01
-1.498346e-01 1.361273e+00 -5.769287e+00 5.830811e+00 4.131351e-05 1.372507e-02 -1.459961e-01 1.437988e-01
-1.501500e-01 1.362345e+00 -5.769287e+00 5.834229e+00 4.181758e-05 1.373139e-02 -1.560059e-01 1.437988e-01
-1.505097e-01 1.363448e+00 -5.769531e+00 5.841309e+00 4.381277e-05 1.373096e-02 -1.560059e-01 1.437988e-01
-1.509490e-01 1.363871e+00 -5.769531e+00 5.843994e+00 4.148481e-05 1.374995e-02 -1.560059e-01 1.437988e-01
-1.512061e-01 1.364891e+00 -5.769531e+00 5.848633e+00 4.083753e-05 1.373616e-02 -1.560059e-01 1.437988e-01
-1.516242e-01 1.365638e+00 -5.769531e+00 5.848145e+00 3.896309e-05 1.376709e-02 -1.560059e-01 1.437988e-01
-1.522592e-01 1.365559e+00 -5.769531e+00 5.845459e+00 3.627288e-05 1.379286e-02 -1.560059e-01 1.437988e-01
-1.522118e-01 1.367375e+00 -5.769531e+00 5.859131e+00 4.157748e-05 1.377828e-02 -1.560059e-01 1.437988e-01
-1.527791e-01 1.367386e+00 -5.769531e+00 5.855225e+00 4.196360e-05 1.380232e-02 -1.560059e-01 1.437988e-01
-1.531027e-01 1.368365e+00 -5.769531e+00 5.862549e+00 4.343788e-05 1.381091e-02 -1.560059e-01 1.437988e-01
-1.535428e-01 1.368978e+00 -5.769531e+00 5.864014e+00 3.952051e-05 1.381192e-02 -1.560059e-01 1.437988e-01
-1.539360e-01 1.369752e+00 -5.769531e+00 5.866211e+00 3.872299e-05 1.382328e-02 -1.560059e-01 1.437988e-01
-1.540710e-01 1.371343e+00 -5.769775e+00 5.879639e+00 4.175018e-05 1.384836e-02 -1.560059e-01 1.437988e-01
-1.545210e-01 1.371413e+00 -5.769775e+00 5.874268e+00 4.004283e-05 1.384192e-02 -1.560059e-01 1.437988e-01
-1.548984e-01 1.371754e+00 -5.769775e+00 5.882324e+00 3.788195e-05 1.382960e-02 -1.560059e-01 1.437988e-01
-1.550596e-01 1.373087e+00 -5.769775e+00 5.884766e+00 3.704232e-05 1.383562e-02 -1.560059e-01 1.437988e-01
-1.553809e-01 1.373516e+00 -5.769775e+00 5.888184e+00 3.474104e-05 1.384299e-02 -1.560059e-01 1.437988e-01
-1.557969e-01 1.374330e+00 -5.769775e+00 5.893066e+00 3.495446e-05 1.385047e-02 -1.560059e-01 1.437988e-01
-1.561357e-01 1.374865e+00 -5.769775e+00 5.894043e+00 3.646524e-05 1.385837e-02 -1.560059e-01 1.437988e-01
-1.564861e-01 1.376031e+00 -5.769775e+00 5.897949e+00 3.899539e-05 1.385803e-02 -1.560059e-01 1.437988e-01
-1.567562e-01 1.377022e+00 -5.769775e+00 5.898682e+00 3.950226e-05 1.386209e-02 -1.560059e-01 1.437988e-01
-1.571181e-01 1.377600e+00 -5.769775e+00 5.906738e+00 3.440125e-05 1.386969e-02 -1.560059e-01 1.437988e-01
-1.574498e-01 1.378989e+00 -5.769775e+00 5.909424e+00 3.423136e-05 1.389299e-02 -1.652832e-01 1.437988e-01
-1.578683e-01 1.379144e+00 -5.769775e+00 5.914551e+00 3.004300e-05 1.389760e-02 -1.652832e-01 1.437988e-01
-1.583118e-01 1.380098e+00 -5.769775e+00 5.914795e+00 2.954034e-05 1.391455e-02 -1.652832e-01 1.437988e-01
-1.584634e-01 1.381562e+00 -5.769775e+00 5.918213e+00 3.436334e-05 1.394856e-02 -1.652832e-01 1.437988e-01
-1.588350e-01 1.382042e+00 -5.769775e+00 5.918701e+00 2.674342e-05 1.393719e-02 -1.652832e-01 1.437988e-01
-1.590743e-01 1.382659e+00 -5.769775e+00 5.924072e+00 2.793548e-05 1.394232e-02 -1.652832e-01 1.503906e-01
-1.595143e-01 1.383237e+00 -5.770264e+00 5.927490e+00 2.545308e-05 1.397533e-02 -1.652832e-01 1.437988e-01
-1.597807e-01 1.384369e+00 -5.770264e+00 5.925049e+00 2.853362e-05 1.397761e-02 -1.652832e-01 1.503906e-01
-1.600514e-01 1.385188e+00 -5.770264e+00 5.928711e+00 2.620987e-05 1.400178e-02 -1.652832e-01 1.503906e-01
-1.601366e-01 1.386340e+00 -5.770264e+00 5.939697e+00 3.026204e-05 1.402109e-02 -1.652832e-01 1.520996e-01
-1.605501e-01 1.387236e+00 -5.770264e+00 5.940186e+00 2.710708e-05 1.402058e-02 -1.652832e-01 1.520996e-01
-1.606412e-01 1.389111e+00 -5.770264e+00 5.951416e+00 3.664075e-05 1.402429e-02 -1.652832e-01 1.520996e-01
-1.611010e-01 1.388730e+00 -5.770264e+00 5.945312e+00 2.530705e-05 1.405735e-02 -1.652832e-01 1.520996e-01
-1.611840e-01 1.390250e+00 -5.770264e+00 5.951172e+00 3.379329e-05 1.405735e-02 -1.652832e-01 1.520996e-01
-1.615830e-01 1.390573e+00 -5.770264e+00 5.952393e+00 2.483669e-05 1.407636e-02 -1.652832e-01 1.520996e-01
-1.617132e-01 1.392426e+00 -5.770264e+00 5.958740e+00 3.278797e-05 1.409164e-02 -1.652832e-01 1.520996e-01
-1.620678e-01 1.392537e+00 -5.770508e+00 5.957520e+00 2.326834e-05 1.408661e-02 -1.652832e-01 1.520996e-01
-1.620639e-01 1.394009e+00 -5.770508e+00 5.961182e+00 2.770522e-05 1.409324e-02 -1.652832e-01 1.520996e-01
-1.625501e-01 1.394564e+00 -5.770508e+00 5.964844e+00 2.311529e-05 1.412009e-02 -1.652832e-01 1.520996e-01
-1.625791e-01 1.395762e+00 -5.770752e+00 5.962646e+00 2.231637e-05 1.412427e-02 -1.652832e-01 1.520996e-01
-1.626959e-01 1.396352e+00 -5.770752e+00 5.965820e+00 2.161995e-05 1.414247e-02 -1.652832e-01 1.520996e-01
-1.627654e-01 1.397053e+00 -5.770752e+00 5.969238e+00 1.691630e-05 1.413669e-02 -1.652832e-01 1.520996e-01
-1.627830e-01 1.398442e+00 -5.770752e+00 5.974854e+00 2.552469e-05 1.420144e-02 -1.652832e-01 1.520996e-01
-1.631238e-01 1.398826e+00 -5.770508e+00 5.975342e+00 1.696123e-05 1.419025e-02 -1.652832e-01 1.520996e-01
-1.632580e-01 1.400017e+00 -5.770508e+00 5.979004e+00 1.767310e-05 1.419078e-02 -1.652832e-01 1.520996e-01
-1.635392e-01 1.400752e+00 -5.770508e+00 5.985107e+00 1.670007e-05 1.419426e-02 -1.652832e-01 1.520996e-01
-1.638007e-01 1.401119e+00 -5.770508e+00 5.984863e+00 1.302701e-05 1.421347e-02 -1.652832e-01 1.520996e-01
-1.636841e-01 1.402847e+00 -5.770508e+00 5.985840e+00 1.980308e-05 1.422259e-02 -1.652832e-01 1.520996e-01
-1.637752e-01 1.403373e+00 -5.770508e+00 5.989014e+00 1.808309e-05 1.422573e-02 -1.652832e-01 1.520996e-01
-1.639095e-01 1.404534e+00 -5.770752e+00 5.996338e+00 2.098391e-05 1.423805e-02 -1.652832e-01 1.520996e-01
-1.641490e-01 1.405334e+00 -5.770752e+00 5.994629e+00 2.103867e-05 1.425543e-02 -1.652832e-01 1.520996e-01
-1.643076e-01 1.406746e+00 -5.770508e+00 6.000732e+00 1.901258e-05 1.427002e-02 -1.652832e-01 1.520996e-01
-1.646063e-01 1.407490e+00 -5.770508e+00 6.001465e+00 1.579304e-05 1.428444e-02 -1.735840e-01 1.520996e-01
-1.648911e-01 1.407805e+00 -5.770508e+00 5.999512e+00 1.273918e-05 1.429597e-02 -1.652832e-01 1.520996e-01
-1.646580e-01 1.410017e+00 -5.770508e+00 6.010742e+00 2.029591e-05 1.429796e-02 -1.735840e-01 1.520996e-01
-1.650127e-01 1.409961e+00 -5.770996e+00 6.009766e+00 1.626060e-05 1.431966e-02 -1.735840e-01 1.520996e-01
-1.651884e-01 1.410623e+00 -5.770996e+00 6.008057e+00 1.424715e-05 1.434653e-02 -1.735840e-01 1.520996e-01
-1.654067e-01 1.411809e+00 -5.770996e+00 6.014404e+00 1.222248e-05 1.435560e-02 -1.735840e-01 1.599121e-01
-1.653600e-01 1.413385e+00 -5.770996e+00 6.020020e+00 1.791319e-05 1.435944e-02 -1.735840e-01 1.599121e-01
-1.654279e-01 1.414807e+00 -5.770996e+00 6.018555e+00 1.837794e-05 1.439430e-02 -1.735840e-01 1.599121e-01
-1.656747e-01 1.414657e+00 -5.770996e+00 6.023438e+00 1.485231e-05 1.438115e-02 -1.735840e-01 1.599121e-01
-1.656293e-01 1.416029e+00 -5.770996e+00 6.025146e+00 1.684890e-05 1.437553e-02 -1.735840e-01 1.599121e-01
-1.660067e-01 1.416492e+00 -5.770996e+00 6.029053e+00 1.334293e-05 1.439907e-02 -1.735840e-01 1.599121e-01
-1.660664e-01 1.418119e+00 -5.771240e+00 6.024902e+00 1.894378e-05 1.440016e-02 -1.735840e-01 1.599121e-01
-1.663889e-01 1.418964e+00 -5.770996e+00 6.026367e+00 1.793566e-05 1.442286e-02 -1.735840e-01 1.599121e-01
-1.668126e-01 1.419470e+00 -5.770996e+00 6.026611e+00 1.533952e-05 1.441691e-02 -1.735840e-01 1.599121e-01
-1.668586e-01 1.420884e+00 -5.770996e+00 6.028076e+00 1.538586e-05 1.444896e-02 -1.735840e-01 1.599121e-01
-1.671513e-01 1.421036e+00 -5.770996e+00 6.026611e+00 1.468522e-05 1.447275e-02 -1.735840e-01 1.599121e-01
-1.673372e-01 1.422110e+00 -5.770996e+00 6.031006e+00 1.443530e-05 1.451088e-02 -1.735840e-01 1.599121e-01
-1.675595e-01 1.422850e+00 -5.770996e+00 6.032471e+00 1.287116e-05 1.452467e-02 -1.735840e-01 1.599121e-01
-1.676429e-01 1.423637e+00 -5.770996e+00 6.034180e+00 1.049546e-05 1.452526e-02 -1.735840e-01 1.599121e-01
-1.677482e-01 1.424872e+00 -5.770996e+00 6.041992e+00 1.242185e-05 1.455048e-02 -1.735840e-01 1.599121e-01
-1.679070e-01 1.425944e+00 -5.770996e+00 6.040039e+00 1.274760e-05 1.460071e-02 -1.735840e-01 1.599121e-01
-1.682347e-01 1.426222e+00 -5.770996e+00 6.036865e+00 9.220563e-06 1.459817e-02 -1.735840e-01 1.599121e-01
-1.682672e-01 1.426607e+00 -5.770996e+00 6.035400e+00 8.211033e-06 1.460447e-02 -1.735840e-01 1.599121e-01
-1.682886e-01 1.428044e+00 -5.770996e+00 6.038330e+00 1.161030e-05 1.463423e-02 -1.735840e-01 1.599121e-01
-1.683850e-01 1.428310e+00 -5.770996e+00 6.037842e+00 7.056883e-06 1.461272e-02 -1.735840e-01 1.599121e-01
-1.684426e-01 1.430651e+00 -5.770996e+00 6.047607e+00 1.056707e-05 1.465576e-02 -1.735840e-01 1.599121e-01
-1.687532e-01 1.430661e+00 -5.770996e+00 6.043945e+00 4.365270e-06 1.465111e-02 -1.735840e-01 1.599121e-01
-1.687214e-01 1.431475e+00 -5.770996e+00 6.043701e+00 3.979150e-06 1.468056e-02 -1.735840e-01 1.599121e-01
-1.688241e-01 1.432483e+00 -5.770996e+00 6.046387e+00 -5.616301e-08 1.466580e-02 -1.735840e-01 1.599121e-01
-1.687927e-01 1.433142e+00 -5.770996e+00 6.052490e+00 8.761430e-07 1.469420e-02 -1.735840e-01 1.599121e-01
-1.688723e-01 1.433783e+00 -5.770996e+00 6.042725e+00 -3.042631e-06 1.470471e-02 -1.735840e-01 1.599121e-01
-1.688520e-01 1.435175e+00 -5.770996e+00 6.052490e+00 2.214227e-06 1.470224e-02 -1.735840e-01 1.599121e-01
-1.687956e-01 1.435682e+00 -5.770996e+00 6.049561e+00 -1.936220e-06 1.474674e-02 -1.735840e-01 1.599121e-01
-1.687035e-01 1.436822e+00 -5.770752e+00 6.056152e+00 -6.220054e-07 1.472331e-02 -1.735840e-01 1.599121e-01
-1.686204e-01 1.438314e+00 -5.770752e+00 6.054199e+00 5.897117e-08 1.475492e-02 -1.735840e-01 1.599121e-01
-1.685858e-01 1.438556e+00 -5.770752e+00 6.061523e+00 -2.896607e-06 1.476572e-02 -1.735840e-01 1.599121e-01
-1.686026e-01 1.439208e+00 -5.770752e+00 6.057861e+00 -3.750285e-06 1.482560e-02 -1.735840e-01 1.599121e-01
-1.683525e-01 1.441723e+00 -5.770752e+00 6.068848e+00 5.491339e-06 1.481915e-02 -1.735840e-01 1.667480e-01
-1.684581e-01 1.442072e+00 -5.771240e+00 6.063232e+00 4.258561e-06 1.484851e-02 -1.811523e-01 1.667480e-01
-1.684653e-01 1.442623e+00 -5.771240e+00 6.061768e+00 3.299577e-06 1.483284e-02 -1.735840e-01 1.667480e-01
-1.686276e-01 1.442908e+00 -5.771240e+00 6.064697e+00 -1.207505e-06 1.487016e-02 -1.735840e-01 1.667480e-01
-1.686641e-01 1.443485e+00 -5.771240e+00 6.065430e+00 -4.507082e-07 1.489505e-02 -1.811523e-01 1.667480e-01
-1.685710e-01 1.444535e+00 -5.771240e+00 6.065430e+00 -3.072117e-06 1.488726e-02 -1.811523e-01 1.667480e-01
-1.685930e-01 1.445263e+00 -5.771484e+00 6.066162e+00 -1.509381e-06 1.489699e-02 -1.811523e-01 1.667480e-01
-1.687839e-01 1.445497e+00 -5.771484e+00 6.060059e+00 -4.662934e-06 1.492161e-02 -1.811523e-01 1.667480e-01
-1.686676e-01 1.446614e+00 -5.771484e+00 6.068359e+00 -2.516103e-06 1.493001e-02 -1.811523e-01 1.667480e-01
-1.686394e-01 1.447845e+00 -5.771484e+00 6.068359e+00 -8.845675e-07 1.496035e-02 -1.811523e-01 1.667480e-01
-1.685634e-01 1.448603e+00 -5.771484e+00 6.068848e+00 2.278814e-06 1.496479e-02 -1.811523e-01 1.667480e-01
-1.685261e-01 1.449477e+00 -5.771484e+00 6.070068e+00 2.148235e-06 1.495221e-02 -1.811523e-01 1.667480e-01
-1.687018e-01 1.449480e+00 -5.771484e+00 6.064941e+00 -1.665233e-06 1.497755e-02 -1.811523e-01 1.667480e-01
-1.685391e-01 1.450918e+00 -5.771484e+00 6.066895e+00 -4.675571e-07 1.495625e-02 -1.811523e-01 1.667480e-01
-1.684308e-01 1.451651e+00 -5.771484e+00 6.067139e+00 -3.791003e-07 1.496746e-02 -1.811523e-01 1.667480e-01
-1.686018e-01 1.452343e+00 -5.771484e+00 6.069824e+00 -9.884691e-07 1.499548e-02 -1.811523e-01 1.667480e-01
-1.684936e-01 1.453467e+00 -5.771484e+00 6.072998e+00 2.861506e-06 1.502247e-02 -1.811523e-01 1.667480e-01
-1.682957e-01 1.454845e+00 -5.771484e+00 6.079102e+00 3.924391e-06 1.503466e-02 -1.811523e-01 1.667480e-01
-1.685510e-01 1.454355e+00 -5.771240e+00 6.061279e+00 -5.172614e-06 1.502485e-02 -1.811523e-01 1.667480e-01
-1.685180e-01 1.455652e+00 -5.771729e+00 6.072754e+00 -4.304895e-06 1.506262e-02 -1.811523e-01 1.667480e-01
-1.685008e-01 1.456130e+00 -5.771729e+00 6.070068e+00 -3.528441e-06 1.506991e-02 -1.811523e-01 1.667480e-01
-1.687407e-01 1.456534e+00 -5.771729e+00 6.069092e+00 -8.630851e-06 1.508677e-02 -1.811523e-01 1.667480e-01
-1.687430e-01 1.457367e+00 -5.771729e+00 6.063232e+00 -6.385735e-06 1.508434e-02 -1.811523e-01 1.667480e-01
-1.686590e-01 1.457821e+00 -5.771729e+00 6.062988e+00 -7.871247e-06 1.515337e-02 -1.811523e-01 1.667480e-01
-1.684653e-01 1.458898e+00 -5.771484e+00 6.072021e+00 -7.508995e-06 1.512696e-02 -1.811523e-01 1.667480e-01
-1.681340e-01 1.460686e+00 -5.771484e+00 6.082764e+00 -1.381610e-06 1.515622e-02 -1.811523e-01 1.667480e-01
-1.684123e-01 1.460250e+00 -5.771484e+00 6.069824e+00 -6.446110e-06 1.517619e-02 -1.811523e-01 1.667480e-01
-1.685286e-01 1.460524e+00 -5.771484e+00 6.067627e+00 -9.382032e-06 1.521836e-02 -1.811523e-01 1.667480e-01
-1.682400e-01 1.461720e+00 -5.771484e+00 6.064697e+00 -6.177932e-06 1.521732e-02 -1.811523e-01 1.667480e-01
-1.683123e-01 1.462198e+00 -5.771729e+00 6.069092e+00 -5.647191e-06 1.524182e-02 -1.811523e-01 1.667480e-01
-1.681396e-01 1.463157e+00 -5.771484e+00 6.078613e+00 -4.248732e-06 1.525910e-02 -1.811523e-01 1.667480e-01
-1.682439e-01 1.463383e+00 -5.771729e+00 6.069092e+00 -3.660424e-06 1.530493e-02 -1.811523e-01 1.667480e-01
-1.683859e-01 1.464024e+00 -5.771729e+00 6.067139e+00 -5.727223e-06 1.529445e-02 -1.811523e-01 1.667480e-01
-1.683844e-01 1.464355e+00 -5.771729e+00 6.068359e+00 -8.779683e-06 1.530887e-02 -1.811523e-01 1.667480e-01
-1.683311e-01 1.464966e+00 -5.771729e+00 6.068115e+00 -9.243028e-06 1.535276e-02 -1.811523e-01 1.667480e-01
-1.680586e-01 1.466153e+00 -5.771729e+00 6.068604e+00 -4.953578e-06 1.540469e-02 -1.811523e-01 1.667480e-01
-1.680776e-01 1.467624e+00 -5.771729e+00 6.068848e+00 -5.223160e-06 1.540304e-02 -1.811523e-01 1.667480e-01
-1.681845e-01 1.467507e+00 -5.771973e+00 6.068115e+00 -1.053478e-05 1.537634e-02 -1.811523e-01 1.667480e-01
-1.676348e-01 1.469693e+00 -5.771973e+00 6.074951e+00 -5.899925e-06 1.541018e-02 -1.811523e-01 1.667480e-01
-1.678201e-01 1.469607e+00 -5.771973e+00 6.072754e+00 -5.346719e-06 1.543037e-02 -1.811523e-01 1.667480e-01
-1.679455e-01 1.469424e+00 -5.772217e+00 6.065918e+00 -1.048985e-05 1.542143e-02 -1.811523e-01 1.667480e-01
-1.679590e-01 1.469605e+00 -5.772217e+00 6.069092e+00 -1.476806e-05 1.542627e-02 -1.811523e-01 1.667480e-01
-1.676747e-01 1.472178e+00 -5.772217e+00 6.075684e+00 -4.240308e-06 1.545527e-02 -1.877441e-01 1.667480e-01
-1.678428e-01 1.471569e+00 -5.772217e+00 6.068115e+00 -8.796532e-06 1.544724e-02 -1.811523e-01 1.667480e-01
-1.678880e-01 1.472346e+00 -5.772217e+00 6.072998e+00 -9.765344e-06 1.546873e-02 -1.877441e-01 1.667480e-01
-1.678384e-01 1.472511e+00 -5.772217e+00 6.067871e+00 -1.041122e-05 1.549147e-02 -1.877441e-01 1.667480e-01
-1.676518e-01 1.473873e+00 -5.772217e+00 6.073242e+00 -5.503975e-06 1.547580e-02 -1.877441e-01 1.667480e-01
-1.676037e-01 1.474062e+00 -5.771973e+00 6.081299e+00 -8.418836e-06 1.551279e-02 -1.877441e-01 1.667480e-01
-1.673308e-01 1.475442e+00 -5.771973e+00 6.084473e+00 -2.575074e-06 1.548988e-02 -1.877441e-01 1.667480e-01
-1.677892e-01 1.475045e+00 -5.772217e+00 6.076416e+00 -8.988891e-06 1.549095e-02 -1.877441e-01 1.667480e-01
-1.675825e-01 1.476607e+00 -5.772461e+00 6.081543e+00 -3.041227e-06 1.550680e-02 -1.877441e-01 1.667480e-01
-1.676822e-01 1.476351e+00 -5.772461e+00 6.078369e+00 -7.809467e-06 1.551851e-02 -1.877441e-01 1.667480e-01
-1.675519e-01 1.477205e+00 -5.772461e+00 6.079346e+00 -9.645998e-06 1.553341e-02 -1.877441e-01 1.667480e-01
-1.674659e-01 1.477252e+00 -5.772461e+00 6.073730e+00 -1.443951e-05 1.557240e-02 -1.877441e-01 1.667480e-01
-1.674084e-01 1.477801e+00 -5.772461e+00 6.076904e+00 -1.580989e-05 1.558894e-02 -1.877441e-01 1.726074e-01
-1.672480e-01 1.478912e+00 -5.772461e+00 6.080078e+00 -1.377679e-05 1.556017e-02 -1.877441e-01 1.726074e-01
-1.671864e-01 1.479385e+00 -5.772217e+00 6.081055e+00 -1.540832e-05 1.557629e-02 -1.877441e-01 1.726074e-01
-1.671161e-01 1.480117e+00 -5.772217e+00 6.080566e+00 -1.663970e-05 1.557725e-02 -1.877441e-01 1.726074e-01
-1.670319e-01 1.480701e+00 -5.772217e+00 6.082520e+00 -1.608228e-05 1.561950e-02 -1.877441e-01 1.726074e-01
-1.667628e-01 1.481308e+00 -5.772217e+00 6.093018e+00 -1.573828e-05 1.566340e-02 -1.877441e-01 1.726074e-01
-1.668568e-01 1.481486e+00 -5.772217e+00 6.083008e+00 -1.902241e-05 1.567975e-02 -1.877441e-01 1.726074e-01
-1.666688e-01 1.482009e+00 -5.772217e+00 6.078613e+00 -1.930604e-05 1.565853e-02 -1.877441e-01 1.726074e-01
-1.663089e-01 1.483200e+00 -5.772217e+00 6.092285e+00 -1.546589e-05 1.568738e-02 -1.877441e-01 1.726074e-01
-1.661227e-01 1.483369e+00 -5.772217e+00 6.090820e+00 -1.890587e-05 1.571739e-02 -1.877441e-01 1.726074e-01
-1.662237e-01 1.483882e+00 -5.772217e+00 6.085938e+00 -1.914176e-05 1.573136e-02 -1.877441e-01 1.726074e-01
-1.660857e-01 1.484520e+00 -5.772217e+00 6.086670e+00 -1.877951e-05 1.574839e-02 -1.877441e-01 1.726074e-01
-1.658757e-01 1.484883e+00 -5.772217e+00 6.088623e+00 -1.983537e-05 1.578221e-02 -1.877441e-01 1.726074e-01
-1.657100e-01 1.485631e+00 -5.772217e+00 6.086914e+00 -1.998982e-05 1.578840e-02 -1.877441e-01 1.726074e-01
-1.657036e-01 1.485349e+00 -5.772217e+00 6.081543e+00 -2.425400e-05 1.579470e-02 -1.877441e-01 1.726074e-01
-1.656082e-01 1.486664e+00 -5.772217e+00 6.088623e+00 -1.878653e-05 1.584075e-02 -1.877441e-01 1.726074e-01
-1.654395e-01 1.487689e+00 -5.772217e+00 6.091797e+00 -1.830493e-05 1.585135e-02 -1.877441e-01 1.726074e-01
-1.654611e-01 1.487558e+00 -5.772217e+00 6.088135e+00 -2.059779e-05 1.587999e-02 -1.877441e-01 1.726074e-01
-1.649930e-01 1.488502e+00 -5.772217e+00 6.101074e+00 -1.908981e-05 1.589331e-02 -1.877441e-01 1.726074e-01
-1.651717e-01 1.487593e+00 -5.772217e+00 6.083740e+00 -2.599505e-05 1.589672e-02 -1.877441e-01 1.726074e-01
-1.648410e-01 1.489683e+00 -5.772705e+00 6.096191e+00 -1.671692e-05 1.592016e-02 -1.877441e-01 1.726074e-01
-1.648433e-01 1.488974e+00 -5.772705e+00 6.093262e+00 -2.478193e-05 1.592492e-02 -1.877441e-01 1.726074e-01
-1.644599e-01 1.490724e+00 -5.772705e+00 6.096680e+00 -1.984239e-05 1.592872e-02 -1.877441e-01 1.726074e-01
-1.644684e-01 1.491038e+00 -5.772705e+00 6.097412e+00 -2.080418e-05 1.593854e-02 -1.877441e-01 1.726074e-01
-1.640679e-01 1.492161e+00 -5.772705e+00 6.102295e+00 -1.943100e-05 1.594203e-02 -1.877441e-01 1.726074e-01
-1.639306e-01 1.491289e+00 -5.772461e+00 6.094971e+00 -2.772066e-05 1.594730e-02 -1.877441e-01 1.726074e-01
-1.637331e-01 1.492030e+00 -5.772461e+00 6.096191e+00 -2.570020e-05 1.594595e-02 -1.877441e-01 1.726074e-01
-1.633935e-01 1.492212e+00 -5.772461e+00 6.091309e+00 -2.585464e-05 1.596384e-02 -1.877441e-01 1.726074e-01
-1.628861e-01 1.493402e+00 -5.772461e+00 6.104736e+00 -1.703705e-05 1.593632e-02 -1.877441e-01 1.726074e-01
-1.627878e-01 1.493846e+00 -5.772461e+00 6.099609e+00 -1.923162e-05 1.599796e-02 -1.877441e-01 1.726074e-01
-1.629449e-01 1.493594e+00 -5.772461e+00 6.096924e+00 -2.409253e-05 1.600007e-02 -1.877441e-01 1.726074e-01
-1.629089e-01 1.493655e+00 -5.772461e+00 6.103027e+00 -2.717869e-05 1.598833e-02 -1.877441e-01 1.726074e-01
-1.624995e-01 1.494723e+00 -5.772461e+00 6.102295e+00 -2.013163e-05 1.600966e-02 -1.877441e-01 1.726074e-01
-1.625115e-01 1.495021e+00 -5.772461e+00 6.106689e+00 -2.020184e-05 1.601082e-02 -1.877441e-01 1.726074e-01
-1.625589e-01 1.495341e+00 -5.772461e+00 6.111328e+00 -2.071292e-05 1.603181e-02 -1.877441e-01 1.726074e-01
-1.624033e-01 1.495776e+00 -5.772461e+00 6.099609e+00 -2.121698e-05 1.603294e-02 -1.877441e-01 1.726074e-01
-1.623542e-01 1.495875e+00 -5.772461e+00 6.102051e+00 -2.378223e-05 1.600820e-02 -1.877441e-01 1.726074e-01
-1.620256e-01 1.496933e+00 -5.772461e+00 6.103027e+00 -2.126753e-05 1.603372e-02 -1.877441e-01 1.726074e-01
-1.620154e-01 1.496716e+00 -5.772461e+00 6.096680e+00 -2.472577e-05 1.603290e-02 -1.877441e-01 1.726074e-01
-1.615997e-01 1.498396e+00 -5.772461e+00 6.104492e+00 -1.294417e-05 1.604904e-02 -1.877441e-01 1.726074e-01
-1.617546e-01 1.498062e+00 -5.772461e+00 6.103516e+00 -1.697246e-05 1.607948e-02 -1.877441e-01 1.726074e-01
-1.616666e-01 1.498018e+00 -5.772461e+00 6.097168e+00 -2.392685e-05 1.606768e-02 -1.877441e-01 1.726074e-01
-1.611699e-01 1.499615e+00 -5.772461e+00 6.113525e+00 -1.315338e-05 1.609586e-02 -1.877441e-01 1.726074e-01
-1.613947e-01 1.498929e+00 -5.772461e+00 6.100586e+00 -2.374993e-05 1.608881e-02 -1.877441e-01 1.726074e-01
-1.612309e-01 1.499155e+00 -5.772949e+00 6.099365e+00 -2.498412e-05 1.609749e-02 -1.877441e-01 1.726074e-01
-1.608710e-01 1.500465e+00 -5.772949e+00 6.100586e+00 -1.614687e-05 1.612682e-02 -1.877441e-01 1.726074e-01
-1.605541e-01 1.501360e+00 -5.772949e+00 6.114258e+00 -1.611598e-05 1.614164e-02 -1.877441e-01 1.726074e-01
-1.605735e-01 1.501549e+00 -5.772949e+00 6.105469e+00 -1.475543e-05 1.612431e-02 -1.877441e-01 1.726074e-01
-1.603789e-01 1.501541e+00 -5.772949e+00 6.103027e+00 -1.809572e-05 1.612578e-02 -1.877441e-01 1.726074e-01
-1.603619e-01 1.501856e+00 -5.772949e+00 6.103516e+00 -1.986205e-05 1.613729e-02 -1.877441e-01 1.726074e-01
-1.602814e-01 1.502155e+00 -5.772949e+00 6.107422e+00 -2.062025e-05 1.614629e-02 -1.877441e-01 1.726074e-01
-1.601314e-01 1.501670e+00 -5.772705e+00 6.104248e+00 -2.752128e-05 1.616769e-02 -1.877441e-01 1.726074e-01
-1.596143e-01 1.503642e+00 -5.772705e+00 6.112305e+00 -1.509381e-05 1.616886e-02 -1.877441e-01 1.726074e-01
-1.595547e-01 1.503264e+00 -5.772705e+00 6.106445e+00 -1.829651e-05 1.618396e-02 -1.877441e-01 1.726074e-01
-1.594256e-01 1.502912e+00 -5.772949e+00 6.109375e+00 -2.946452e-05 1.623073e-02 -1.877441e-01 1.726074e-01
-1.590982e-01 1.504005e+00 -5.772949e+00 6.114990e+00 -1.982695e-05 1.619913e-02 -1.877441e-01 1.726074e-01
-1.590151e-01 1.503692e+00 -5.772949e+00 6.106934e+00 -2.206785e-05 1.620735e-02 -1.877441e-01 1.726074e-01
-1.588203e-01 1.504605e+00 -5.772949e+00 6.114502e+00 -2.197659e-05 1.618999e-02 -1.877441e-01 1.726074e-01
-1.587112e-01 1.505164e+00 -5.772949e+00 6.118896e+00 -2.026362e-05 1.618195e-02 -1.877441e-01 1.726074e-01
-1.587926e-01 1.504947e+00 -5.772949e+00 6.111328e+00 -2.752549e-05 1.621883e-02 -1.877441e-01 1.726074e-01
-1.584461e-01 1.505528e+00 -5.772949e+00 6.114746e+00 -2.249469e-05 1.621189e-02 -1.877441e-01 1.726074e-01
-1.582973e-01 1.505233e+00 -5.772705e+00 6.115479e+00 -2.577742e-05 1.623077e-02 -1.877441e-01 1.726074e-01
-1.579841e-01 1.506320e+00 -5.772705e+00 6.114502e+00 -1.996174e-05 1.623488e-02 -1.877441e-01 1.726074e-01
-1.578492e-01 1.506593e+00 -5.773193e+00 6.125000e+00 -2.136301e-05 1.623833e-02 -1.877441e-01 1.726074e-01
-1.574574e-01 1.507125e+00 -5.773193e+00 6.126709e+00 -2.089124e-05 1.625464e-02 -1.933594e-01 1.726074e-01
-1.576373e-01 1.506580e+00 -5.773193e+00 6.116211e+00 -2.324306e-05 1.624247e-02 -1.877441e-01 1.726074e-01
-1.572476e-01 1.507962e+00 -5.773193e+00 6.118408e+00 -1.889324e-05 1.627859e-02 -1.933594e-01 1.726074e-01
-1.571198e-01 1.507145e+00 -5.773193e+00 6.122070e+00 -2.284431e-05 1.625122e-02 -1.877441e-01 1.726074e-01
-1.569928e-01 1.507517e+00 -5.773193e+00 6.122803e+00 -2.382575e-05 1.627188e-02 -1.933594e-01 1.726074e-01
-1.569227e-01 1.507770e+00 -5.773193e+00 6.122070e+00 -2.440985e-05 1.627253e-02 -1.877441e-01 1.726074e-01
-1.565740e-01 1.508261e+00 -5.773193e+00 6.123535e+00 -2.438598e-05 1.632371e-02 -1.877441e-01 1.726074e-01
-1.563237e-01 1.508788e+00 -5.773193e+00 6.122559e+00 -2.207909e-05 1.630646e-02 -1.877441e-01 1.726074e-01
-1.562598e-01 1.509239e+00 -5.773193e+00 6.129395e+00 -1.991821e-05 1.632954e-02 -1.877441e-01 1.726074e-01
-1.560800e-01 1.509082e+00 -5.773193e+00 6.125977e+00 -2.407287e-05 1.633680e-02 -1.877441e-01 1.726074e-01
-1.559086e-01 1.509281e+00 -5.772949e+00 6.120850e+00 -2.202713e-05 1.635445e-02 -1.877441e-01 1.726074e-01
-1.555250e-01 1.510127e+00 -5.773193e+00 6.133301e+00 -1.794128e-05 1.633381e-02 -1.877441e-01 1.726074e-01
-1.555487e-01 1.510052e+00 -5.773193e+00 6.127930e+00 -2.296506e-05 1.635451e-02 -1.877441e-01 1.726074e-01
-1.555113e-01 1.510516e+00 -5.773193e+00 6.127930e+00 -2.300016e-05 1.635650e-02 -1.877441e-01 1.726074e-01
-1.553964e-01 1.510770e+00 -5.773193e+00 6.128174e+00 -2.074100e-05 1.635695e-02 -1.877441e-01 1.726074e-01
-1.554044e-01 1.510579e+00 -5.773193e+00 6.122070e+00 -2.558647e-05 1.638273e-02 -1.877441e-01 1.726074e-01
-1.551252e-01 1.511435e+00 -5.773438e+00 6.129395e+00 -1.714797e-05 1.639452e-02 -1.877441e-01 1.726074e-01
-1.548858e-01 1.511913e+00 -5.773438e+00 6.134766e+00 -1.828527e-05 1.637090e-02 -1.877441e-01 1.726074e-01
-1.547297e-01 1.512015e+00 -5.773438e+00 6.137451e+00 -2.072977e-05 1.643705e-02 -1.877441e-01 1.726074e-01
-1.548486e-01 1.511873e+00 -5.773682e+00 6.119629e+00 -2.233884e-05 1.638941e-02 -1.877441e-01 1.726074e-01
-1.543568e-01 1.512948e+00 -5.773682e+00 6.140869e+00 -1.168050e-05 1.644052e-02 -1.877441e-01 1.726074e-01
-1.542979e-01 1.513238e+00 -5.773682e+00 6.135498e+00 -1.350440e-05 1.641979e-02 -1.877441e-01 1.726074e-01
-1.546293e-01 1.512089e+00 -5.774658e+00 6.127686e+00 -2.690349e-05 1.642606e-02 -1.877441e-01 1.726074e-01
-1.546989e-01 1.511344e+00 -5.774658e+00 6.116943e+00 -3.478878e-05 1.645968e-02 -1.877441e-01 1.726074e-01
-1.541522e-01 1.512977e+00 -5.774902e+00 6.131348e+00 -2.041526e-05 1.643793e-02 -1.877441e-01 1.726074e-01
-1.540118e-01 1.513447e+00 -5.774902e+00 6.129883e+00 -1.985643e-05 1.642637e-02 -1.877441e-01 1.726074e-01
-1.538388e-01 1.514166e+00 -5.774902e+00 6.136719e+00 -1.773628e-05 1.644221e-02 -1.877441e-01 1.726074e-01
-1.540916e-01 1.513436e+00 -5.775146e+00 6.130615e+00 -2.833705e-05 1.643686e-02 -1.933594e-01 1.779785e-01
-1.539946e-01 1.514013e+00 -5.775146e+00 6.131592e+00 -2.832441e-05 1.644292e-02 -1.933594e-01 1.726074e-01
-1.537789e-01 1.514551e+00 -5.775635e+00 6.128662e+00 -2.168173e-05 1.644484e-02 -1.933594e-01 1.779785e-01
-1.534700e-01 1.514677e+00 -5.775635e+00 6.125488e+00 -1.872756e-05 1.647470e-02 -1.933594e-01 1.779785e-01
-1.533038e-01 1.515105e+00 -5.775635e+00 6.131592e+00 -1.987469e-05 1.648729e-02 -1.933594e-01 1.779785e-01
-1.533164e-01 1.514736e+00 -5.775635e+00 6.124512e+00 -2.344806e-05 1.647616e-02 -1.933594e-01 1.779785e-01
-1.532004e-01 1.515816e+00 -5.775635e+00 6.132080e+00 -1.948716e-05 1.651889e-02 -1.933594e-01 1.779785e-01
-1.530064e-01 1.515063e+00 -5.775635e+00 6.130127e+00 -2.271654e-05 1.650800e-02 -1.933594e-01 1.779785e-01
-1.530198e-01 1.515079e+00 -5.775391e+00 6.135498e+00 -2.740896e-05 1.650371e-02 -1.933594e-01 1.779785e-01
-1.527806e-01 1.516057e+00 -5.775879e+00 6.130859e+00 -2.256630e-05 1.654116e-02 -1.933594e-01 1.779785e-01
-1.526133e-01 1.516494e+00 -5.775879e+00 6.132812e+00 -1.958124e-05 1.655172e-02 -1.933594e-01 1.779785e-01
-1.524585e-01 1.515825e+00 -5.775879e+00 6.127686e+00 -2.728680e-05 1.651997e-02 -1.933594e-01 1.779785e-01
-1.522422e-01 1.516699e+00 -5.775879e+00 6.127930e+00 -2.370781e-05 1.652179e-02 -1.933594e-01 1.779785e-01
-1.524253e-01 1.515391e+00 -5.775635e+00 6.116699e+00 -3.092616e-05 1.655386e-02 -1.933594e-01 1.779785e-01
-1.516909e-01 1.517498e+00 -5.775879e+00 6.130127e+00 -1.866297e-05 1.654235e-02 -1.933594e-01 1.779785e-01
-1.515432e-01 1.517155e+00 -5.775635e+00 6.129395e+00 -2.472015e-05 1.654002e-02 -1.933594e-01 1.779785e-01
-1.515487e-01 1.516707e+00 -5.775635e+00 6.118652e+00 -3.173772e-05 1.659911e-02 -1.933594e-01 1.779785e-01
-1.510722e-01 1.517806e+00 -5.775635e+00 6.128906e+00 -2.093476e-05 1.656284e-02 -1.933594e-01 1.779785e-01
-1.512039e-01 1.517178e+00 -5.775391e+00 6.120850e+00 -3.115503e-05 1.660473e-02 -1.933594e-01 1.779785e-01
-1.506964e-01 1.517418e+00 -5.775879e+00 6.128418e+00 -2.623515e-05 1.659260e-02 -1.933594e-01 1.779785e-01
-1.504964e-01 1.519249e+00 -5.775879e+00 6.135254e+00 -1.603314e-05 1.656602e-02 -1.933594e-01 1.779785e-01
-1.505993e-01 1.517468e+00 -5.775635e+00 6.127197e+00 -3.554698e-05 1.662740e-02 -1.933594e-01 1.779785e-01
-1.499746e-01 1.519341e+00 -5.775635e+00 6.135254e+00 -1.808589e-05 1.657782e-02 -1.933594e-01 1.779785e-01
-1.500389e-01 1.518702e+00 -5.775635e+00 6.123535e+00 -2.350563e-05 1.661259e-02 -1.933594e-01 1.779785e-01
-1.496800e-01 1.519686e+00 -5.775146e+00 6.141113e+00 -1.743581e-05 1.660999e-02 -1.933594e-01 1.779785e-01
-1.495792e-01 1.518828e+00 -5.774658e+00 6.125000e+00 -2.565246e-05 1.660642e-02 -1.933594e-01 1.779785e-01
-1.492024e-01 1.519429e+00 -5.774658e+00 6.133301e+00 -2.527616e-05 1.661533e-02 -1.933594e-01 1.779785e-01
-1.490831e-01 1.519364e+00 -5.774658e+00 6.123291e+00 -2.978465e-05 1.662232e-02 -1.933594e-01 1.779785e-01
-1.488508e-01 1.519470e+00 -5.774658e+00 6.129150e+00 -3.017218e-05 1.662860e-02 -1.933594e-01 1.779785e-01
-1.484328e-01 1.520256e+00 -5.774658e+00 6.131104e+00 -2.076768e-05 1.662730e-02 -1.933594e-01 1.779785e-01
-1.483275e-01 1.519424e+00 -5.774658e+00 6.121826e+00 -3.067343e-05 1.665738e-02 -1.933594e-01 1.779785e-01
-1.477954e-01 1.520600e+00 -5.774658e+00 6.128662e+00 -2.122260e-05 1.660997e-02 -1.933594e-01 1.779785e-01
-1.475855e-01 1.520574e+00 -5.774658e+00 6.124268e+00 -2.484090e-05 1.663695e-02 -1.933594e-01 1.779785e-01
-1.474509e-01 1.520818e+00 -5.774902e+00 6.127930e+00 -2.685715e-05 1.663413e-02 -1.933594e-01 1.779785e-01
-1.472199e-01 1.521236e+00 -5.774902e+00 6.125488e+00 -2.417677e-05 1.664254e-02 -1.933594e-01 1.779785e-01
-1.469219e-01 1.522163e+00 -5.775391e+00 6.128662e+00 -1.695140e-05 1.664940e-02 -1.933594e-01 1.779785e-01
-1.470603e-01 1.521597e+00 -5.775146e+00 6.122070e+00 -2.692595e-05 1.664373e-02 -1.933594e-01 1.779785e-01
-1.467284e-01 1.521627e+00 -5.775146e+00 6.124268e+00 -2.408972e-05 1.663652e-02 -1.933594e-01 1.779785e-01
-1.463223e-01 1.522534e+00 -5.775146e+00 6.128662e+00 -1.952086e-05 1.667240e-02 -1.933594e-01 1.779785e-01
-1.462332e-01 1.521719e+00 -5.774902e+00 6.125977e+00 -2.609755e-05 1.668170e-02 -1.933594e-01 1.779785e-01
-1.461512e-01 1.522064e+00 -5.774902e+00 6.120850e+00 -2.354213e-05 1.666807e-02 -1.933594e-01 1.779785e-01
-1.458416e-01 1.522730e+00 -5.775391e+00 6.123291e+00 -2.351405e-05 1.670068e-02 -1.933594e-01 1.779785e-01
-1.458723e-01 1.522421e+00 -5.775391e+00 6.121826e+00 -2.792004e-05 1.669053e-02 -1.933594e-01 1.779785e-01
-1.455579e-01 1.523295e+00 -5.775879e+00 6.132324e+00 -1.987047e-05 1.671090e-02 -1.933594e-01 1.779785e-01
-1.455914e-01 1.522602e+00 -5.775391e+00 6.122559e+00 -2.815873e-05 1.671452e-02 -1.933594e-01 1.779785e-01
-1.452105e-01 1.524034e+00 -5.775391e+00 6.137939e+00 -2.019622e-05 1.671089e-02 -1.933594e-01 1.779785e-01
-1.452284e-01 1.523340e+00 -5.775391e+00 6.125977e+00 -2.296084e-05 1.673488e-02 -1.933594e-01 1.779785e-01
-1.452956e-01 1.522921e+00 -5.775146e+00 6.122314e+00 -3.149622e-05 1.674681e-02 -1.933594e-01 1.779785e-01
-1.448165e-01 1.523186e+00 -5.775146e+00 6.128174e+00 -2.642610e-05 1.673006e-02 -1.933594e-01 1.779785e-01
-1.445901e-01 1.523762e+00 -5.775146e+00 6.125977e+00 -2.436352e-05 1.673323e-02 -1.933594e-01 1.779785e-01
-1.444943e-01 1.523818e+00 -5.775146e+00 6.125732e+00 -2.629693e-05 1.675111e-02 -1.933594e-01 1.779785e-01
-1.440636e-01 1.524258e+00 -5.775146e+00 6.127441e+00 -2.487600e-05 1.672309e-02 -1.933594e-01 1.779785e-01
-1.437157e-01 1.525365e+00 -5.775391e+00 6.127441e+00 -1.838918e-05 1.674511e-02 -1.933594e-01 1.779785e-01
-1.441306e-01 1.524134e+00 -5.775391e+00 6.118164e+00 -2.777401e-05 1.674428e-02 -1.933594e-01 1.779785e-01
-1.438233e-01 1.524971e+00 -5.775635e+00 6.129150e+00 -2.188392e-05 1.674245e-02 -1.933594e-01 1.779785e-01
-1.437603e-01 1.524964e+00 -5.775635e+00 6.125977e+00 -2.245397e-05 1.675335e-02 -1.933594e-01 1.779785e-01
-1.435405e-01 1.524835e+00 -5.775635e+00 6.126465e+00 -2.644014e-05 1.677120e-02 -1.933594e-01 1.779785e-01
-1.431010e-01 1.526046e+00 -5.775635e+00 6.127441e+00 -2.162136e-05 1.674139e-02 -1.933594e-01 1.779785e-01
-1.430323e-01 1.525441e+00 -5.775391e+00 6.124268e+00 -2.766590e-05 1.677143e-02 -1.933594e-01 1.779785e-01
-1.430905e-01 1.524725e+00 -5.775146e+00 6.125244e+00 -2.928199e-05 1.679017e-02 -1.933594e-01 1.779785e-01
-1.430543e-01 1.524654e+00 -5.775391e+00 6.121826e+00 -3.391965e-05 1.683100e-02 -1.933594e-01 1.779785e-01
-1.423299e-01 1.526579e+00 -5.775391e+00 6.131104e+00 -2.048827e-05 1.678432e-02 -1.933594e-01 1.779785e-01
-1.422713e-01 1.525936e+00 -5.775391e+00 6.125977e+00 -2.567211e-05 1.680902e-02 -1.933594e-01 1.779785e-01
-1.415779e-01 1.527062e+00 -5.775391e+00 6.135742e+00 -1.833161e-05 1.680137e-02 -1.933594e-01 1.779785e-01
-1.417427e-01 1.525771e+00 -5.775146e+00 6.124756e+00 -2.837075e-05 1.685727e-02 -1.933594e-01 1.779785e-01
-1.418594e-01 1.525591e+00 -5.775146e+00 6.116699e+00 -3.062569e-05 1.685023e-02 -1.933594e-01 1.779785e-01
-1.413861e-01 1.526588e+00 -5.775391e+00 6.124756e+00 -2.440704e-05 1.684120e-02 -1.933594e-01 1.779785e-01
-1.410085e-01 1.527583e+00 -5.775391e+00 6.125732e+00 -1.812521e-05 1.682941e-02 -1.933594e-01 1.779785e-01
-1.410131e-01 1.527006e+00 -5.775391e+00 6.125977e+00 -2.234165e-05 1.684897e-02 -1.933594e-01 1.779785e-01
-1.407076e-01 1.527766e+00 -5.775391e+00 6.134033e+00 -1.566246e-05 1.682166e-02 -1.933594e-01 1.779785e-01
-1.405032e-01 1.527449e+00 -5.775391e+00 6.128906e+00 -1.981993e-05 1.682732e-02 -1.933594e-01 1.779785e-01
-1.404525e-01 1.527456e+00 -5.775391e+00 6.125244e+00 -2.207909e-05 1.681508e-02 -1.933594e-01 1.779785e-01
-1.404049e-01 1.527777e+00 -5.775391e+00 6.121338e+00 -2.128438e-05 1.684216e-02 -1.933594e-01 1.779785e-01
-1.400150e-01 1.527870e+00 -5.775391e+00 6.124268e+00 -1.997297e-05 1.682058e-02 -1.933594e-01 1.779785e-01
-1.400187e-01 1.527497e+00 -5.775391e+00 6.117920e+00 -2.512593e-05 1.682375e-02 -1.933594e-01 1.779785e-01
-1.397242e-01 1.528298e+00 -5.775391e+00 6.120361e+00 -2.087018e-05 1.683815e-02 -1.933594e-01 1.779785e-01
-1.394614e-01 1.528411e+00 -5.775391e+00 6.127686e+00 -2.328238e-05 1.686629e-02 -1.933594e-01 1.779785e-01
-1.395418e-01 1.527303e+00 -5.775146e+00 6.117432e+00 -2.802675e-05 1.686033e-02 -1.933594e-01 1.779785e-01
-1.390622e-01 1.528024e+00 -5.775146e+00 6.123047e+00 -2.574513e-05 1.689900e-02 -1.933594e-01 1.779785e-01
-1.390979e-01 1.527612e+00 -5.775391e+00 6.110596e+00 -2.735420e-05 1.684276e-02 -1.933594e-01 1.779785e-01
-1.384922e-01 1.530106e+00 -5.775635e+00 6.123535e+00 -1.202871e-05 1.684735e-02 -1.933594e-01 1.779785e-01
-1.389707e-01 1.527670e+00 -5.775391e+00 6.118164e+00 -3.022272e-05 1.685596e-02 -1.933594e-01 1.779785e-01
-1.384932e-01 1.528564e+00 -5.775391e+00 6.118896e+00 -2.439862e-05 1.687136e-02 -1.933594e-01 1.779785e-01
-1.380417e-01 1.529938e+00 -5.775391e+00 6.119873e+00 -1.423311e-05 1.685492e-02 -1.933594e-01 1.779785e-01
-1.379813e-01 1.529760e+00 -5.774902e+00 6.124023e+00 -1.793847e-05 1.684384e-02 -1.933594e-01 1.779785e-01
-1.380997e-01 1.528610e+00 -5.774658e+00 6.116211e+00 -2.791021e-05 1.689368e-02 -1.933594e-01 1.779785e-01
-1.378655e-01 1.529079e+00 -5.774902e+00 6.112793e+00 -2.920056e-05 1.690104e-02 -1.933594e-01 1.779785e-01
-1.375308e-01 1.529745e+00 -5.774902e+00 6.117920e+00 -2.180389e-05 1.685622e-02 -1.933594e-01 1.779785e-01
-1.374897e-01 1.529988e+00 -5.774902e+00 6.124268e+00 -2.213806e-05 1.686330e-02 -1.933594e-01 1.779785e-01
-1.374292e-01 1.530021e+00 -5.774902e+00 6.112061e+00 -2.656230e-05 1.690835e-02 -1.933594e-01 1.779785e-01
-1.368325e-01 1.530748e+00 -5.775146e+00 6.120117e+00 -2.161714e-05 1.686690e-02 -1.933594e-01 1.779785e-01
-1.366564e-01 1.531012e+00 -5.775391e+00 6.120117e+00 -2.042930e-05 1.686379e-02 -1.933594e-01 1.779785e-01
-1.368015e-01 1.530518e+00 -5.775146e+00 6.110840e+00 -2.729382e-05 1.691957e-02 -1.933594e-01 1.779785e-01
-1.363721e-01 1.531187e+00 -5.774658e+00 6.119873e+00 -2.527195e-05 1.689659e-02 -1.933594e-01 1.779785e-01
-1.364178e-01 1.530584e+00 -5.774658e+00 6.120850e+00 -2.830897e-05 1.692882e-02 -1.933594e-01 1.779785e-01
-1.362493e-01 1.531361e+00 -5.774658e+00 6.119873e+00 -2.337785e-05 1.688078e-02 -1.933594e-01 1.779785e-01
-1.359706e-01 1.532278e+00 -5.775146e+00 6.117920e+00 -1.786265e-05 1.690725e-02 -1.933594e-01 1.779785e-01
-1.360537e-01 1.531475e+00 -5.775146e+00 6.112793e+00 -2.471032e-05 1.694683e-02 -1.933594e-01 1.779785e-01
-1.357997e-01 1.531998e+00 -5.775146e+00 6.123291e+00 -1.921898e-05 1.689833e-02 -1.933594e-01 1.779785e-01
-1.357249e-01 1.532030e+00 -5.774902e+00 6.110840e+00 -2.145568e-05 1.693271e-02 -1.933594e-01 1.779785e-01
-1.353738e-01 1.532033e+00 -5.774414e+00 6.115967e+00 -2.320235e-05 1.696898e-02 -1.933594e-01 1.779785e-01
-1.352539e-01 1.531969e+00 -5.774658e+00 6.124512e+00 -2.418801e-05 1.696278e-02 -1.933594e-01 1.779785e-01
-1.351188e-01 1.531699e+00 -5.774414e+00 6.109863e+00 -2.732752e-05 1.694023e-02 -1.933594e-01 1.779785e-01
-1.348111e-01 1.533269e+00 -5.774414e+00 6.116943e+00 -1.905471e-05 1.691077e-02 -1.933594e-01 1.779785e-01
-1.349228e-01 1.532153e+00 -5.773926e+00 6.110352e+00 -2.840304e-05 1.693818e-02 -1.933594e-01 1.779785e-01
-1.348421e-01 1.532283e+00 -5.773438e+00 6.101562e+00 -2.878916e-05 1.697396e-02 -1.933594e-01 1.779785e-01
-1.342825e-01 1.532407e+00 -5.773682e+00 6.115723e+00 -2.330344e-05 1.692602e-02 -1.933594e-01 1.779785e-01
-1.342889e-01 1.532548e+00 -5.773926e+00 6.115723e+00 -2.956702e-05 1.696318e-02 -1.933594e-01 1.779785e-01
-1.338629e-01 1.533963e+00 -5.773926e+00 6.117676e+00 -1.875845e-05 1.693058e-02 -1.933594e-01 1.779785e-01
-1.339889e-01 1.533224e+00 -5.773682e+00 6.106689e+00 -2.472156e-05 1.694680e-02 -1.933594e-01 1.779785e-01
-1.336578e-01 1.533958e+00 -5.774170e+00 6.116699e+00 -1.988171e-05 1.693402e-02 -1.933594e-01 1.779785e-01
-1.337709e-01 1.533253e+00 -5.773682e+00 6.104736e+00 -2.924970e-05 1.696609e-02 -1.933594e-01 1.779785e-01
-1.335802e-01 1.533554e+00 -5.773926e+00 6.106689e+00 -2.661425e-05 1.696155e-02 -1.933594e-01 1.779785e-01
-1.329651e-01 1.534928e+00 -5.773926e+00 6.119141e+00 -1.527915e-05 1.694961e-02 -1.933594e-01 1.779785e-01
-1.329764e-01 1.534625e+00 -5.773926e+00 6.113770e+00 -1.766888e-05 1.697898e-02 -1.933594e-01 1.779785e-01
-1.331100e-01 1.534021e+00 -5.773926e+00 6.111572e+00 -2.695263e-05 1.695367e-02 -1.933594e-01 1.779785e-01
-1.325991e-01 1.535317e+00 -5.773682e+00 6.121582e+00 -1.818418e-05 1.690584e-02 -1.933594e-01 1.779785e-01
-1.327192e-01 1.534947e+00 -5.773682e+00 6.112061e+00 -2.417677e-05 1.695461e-02 -1.933594e-01 1.779785e-01
-1.323181e-01 1.535321e+00 -5.773682e+00 6.112061e+00 -2.216895e-05 1.696979e-02 -1.933594e-01 1.779785e-01
-1.322901e-01 1.534997e+00 -5.773438e+00 6.105469e+00 -2.526914e-05 1.699068e-02 -1.933594e-01 1.779785e-01
-1.321053e-01 1.535349e+00 -5.773438e+00 6.110840e+00 -2.237394e-05 1.696035e-02 -1.933594e-01 1.779785e-01
-1.320126e-01 1.534821e+00 -5.773193e+00 6.112793e+00 -3.156502e-05 1.698189e-02 -1.933594e-01 1.779785e-01
-1.316790e-01 1.535538e+00 -5.773193e+00 6.110352e+00 -2.072415e-05 1.694331e-02 -1.933594e-01 1.779785e-01
-1.312336e-01 1.536709e+00 -5.773193e+00 6.111328e+00 -1.252154e-05 1.693895e-02 -1.933594e-01 1.779785e-01
-1.312331e-01 1.536877e+00 -5.773682e+00 6.110107e+00 -1.392702e-05 1.694707e-02 -1.933594e-01 1.779785e-01
-1.312022e-01 1.536028e+00 -5.773926e+00 6.110840e+00 -2.268143e-05 1.696569e-02 -1.933594e-01 1.779785e-01
-1.306835e-01 1.537136e+00 -5.773926e+00 6.118896e+00 -1.567229e-05 1.695527e-02 -1.933594e-01 1.779785e-01
-1.307181e-01 1.536325e+00 -5.773926e+00 6.108887e+00 -2.276287e-05 1.697163e-02 -1.933594e-01 1.779785e-01
-1.306204e-01 1.536981e+00 -5.773682e+00 6.110352e+00 -1.664531e-05 1.695839e-02 -1.933594e-01 1.779785e-01
-1.305075e-01 1.537138e+00 -5.773682e+00 6.107910e+00 -1.848184e-05 1.699396e-02 -1.933594e-01 1.779785e-01
-1.302629e-01 1.537197e+00 -5.773682e+00 6.110596e+00 -1.895642e-05 1.699888e-02 -1.933594e-01 1.779785e-01
-1.305817e-01 1.536023e+00 -5.773438e+00 6.101074e+00 -2.645559e-05 1.702217e-02 -1.933594e-01 1.779785e-01
-1.299088e-01 1.537067e+00 -5.773438e+00 6.111816e+00 -1.737824e-05 1.700623e-02 -1.933594e-01 1.779785e-01
-1.299084e-01 1.537252e+00 -5.772705e+00 6.108154e+00 -2.094459e-05 1.702276e-02 -1.933594e-01 1.779785e-01
-1.294793e-01 1.537748e+00 -5.772705e+00 6.108154e+00 -1.633642e-05 1.700520e-02 -1.933594e-01 1.779785e-01
-1.297739e-01 1.537278e+00 -5.772705e+00 6.106445e+00 -2.133352e-05 1.700017e-02 -1.933594e-01 1.779785e-01
-1.295540e-01 1.537381e+00 -5.772705e+00 6.106934e+00 -1.928076e-05 1.702339e-02 -1.933594e-01 1.779785e-01
-1.295263e-01 1.537184e+00 -5.772705e+00 6.099121e+00 -2.218158e-05 1.704114e-02 -1.933594e-01 1.779785e-01
-1.292488e-01 1.538140e+00 -5.772705e+00 6.107666e+00 -1.265774e-05 1.700633e-02 -1.933594e-01 1.779785e-01
-1.291026e-01 1.537842e+00 -5.772705e+00 6.106201e+00 -1.683206e-05 1.701912e-02 -1.933594e-01 1.779785e-01
-1.289799e-01 1.537695e+00 -5.772705e+00 6.095215e+00 -1.773909e-05 1.703282e-02 -1.933594e-01 1.779785e-01
-1.288866e-01 1.537255e+00 -5.772705e+00 6.094482e+00 -2.444495e-05 1.702769e-02 -1.933594e-01 1.779785e-01
-1.284779e-01 1.538021e+00 -5.772949e+00 6.095459e+00 -1.490566e-05 1.702993e-02 -1.933594e-01 1.779785e-01
-1.284278e-01 1.538213e+00 -5.772949e+00 6.101807e+00 -1.424856e-05 1.704826e-02 -1.933594e-01 1.779785e-01
-1.286362e-01 1.536574e+00 -5.772949e+00 6.093750e+00 -2.827667e-05 1.705434e-02 -1.933594e-01 1.779785e-01
-1.283202e-01 1.537293e+00 -5.772949e+00 6.099854e+00 -2.247503e-05 1.705829e-02 -1.933594e-01 1.779785e-01
-1.275592e-01 1.539479e+00 -5.772949e+00 6.109619e+00 -6.293066e-06 1.700763e-02 -1.933594e-01 1.779785e-01
-1.278851e-01 1.537852e+00 -5.772949e+00 6.095215e+00 -2.090809e-05 1.708006e-02 -1.933594e-01 1.779785e-01
-1.277335e-01 1.538840e+00 -5.773438e+00 6.099365e+00 -1.438756e-05 1.700742e-02 -1.933594e-01 1.779785e-01
-1.278910e-01 1.538662e+00 -5.773438e+00 6.097412e+00 -1.955877e-05 1.706934e-02 -1.933594e-01 1.779785e-01
-1.279229e-01 1.538433e+00 -5.773438e+00 6.090820e+00 -2.546712e-05 1.709653e-02 -1.933594e-01 1.779785e-01
-1.272636e-01 1.539745e+00 -5.773438e+00 6.093994e+00 -9.912772e-06 1.701580e-02 -1.933594e-01 1.779785e-01
-1.273545e-01 1.539311e+00 -5.773438e+00 6.097656e+00 -1.904628e-05 1.704477e-02 -1.933594e-01 1.779785e-01
-1.270194e-01 1.539397e+00 -5.773438e+00 6.090576e+00 -1.519490e-05 1.706074e-02 -1.933594e-01 1.779785e-01
-1.271128e-01 1.539318e+00 -5.773438e+00 6.088379e+00 -2.056830e-05 1.705863e-02 -1.933594e-01 1.779785e-01
-1.271636e-01 1.538461e+00 -5.773193e+00 6.088135e+00 -2.916124e-05 1.711635e-02 -1.933594e-01 1.779785e-01
-1.270449e-01 1.539467e+00 -5.773682e+00 6.086426e+00 -1.787248e-05 1.703598e-02 -1.933594e-01 1.779785e-01
-1.265370e-01 1.540297e+00 -5.773682e+00 6.094238e+00 -1.489584e-05 1.704476e-02 -1.933594e-01 1.779785e-01
-1.265012e-01 1.540037e+00 -5.773682e+00 6.084961e+00 -1.696123e-05 1.708214e-02 -1.933594e-01 1.779785e-01
-1.266394e-01 1.539349e+00 -5.773682e+00 6.084961e+00 -2.104428e-05 1.707820e-02 -1.933594e-01 1.779785e-01
-1.265178e-01 1.539337e+00 -5.773682e+00 6.086670e+00 -2.528038e-05 1.707892e-02 -1.933594e-01 1.779785e-01
-1.262637e-01 1.540283e+00 -5.774170e+00 6.093994e+00 -1.267459e-05 1.705365e-02 -1.982422e-01 1.779785e-01
-1.264140e-01 1.539142e+00 -5.774414e+00 6.076660e+00 -2.786247e-05 1.711726e-02 -1.933594e-01 1.779785e-01
-1.260606e-01 1.540167e+00 -5.774414e+00 6.083740e+00 -1.667480e-05 1.708284e-02 -1.982422e-01 1.826172e-01
-1.259082e-01 1.540291e+00 -5.774414e+00 6.080078e+00 -1.622549e-05 1.705823e-02 -1.933594e-01 1.779785e-01
-1.256666e-01 1.540574e+00 -5.774414e+00 6.083008e+00 -1.510785e-05 1.705299e-02 -1.933594e-01 1.779785e-01
