1.052461e+02 4.217391e-01 -1.366154e-02 5.975714e-01 -9.960938e-01 9.960938e-01
1.026602e+02 4.217391e-01 -1.911789e-02 5.960657e-01 -1.003906e+00 9.882812e-01
1.026602e+02 4.217391e-01 -1.911789e-02 5.960657e-01 -1.003906e+00 9.882812e-01
1.026602e+02 4.217391e-01 -1.911789e-02 5.960657e-01 -1.003906e+00 9.882812e-01
1.026602e+02 4.217391e-01 -1.911789e-02 5.960657e-01 -1.003906e+00 9.882812e-01
1.026602e+02 4.217391e-01 -1.911789e-02 5.960657e-01 -1.003906e+00 9.882812e-01
1.026602e+02 4.217391e-01 -1.911789e-02 5.960657e-01 -1.003906e+00 9.882812e-01
1.026602e+02 4.217391e-01 -1.911789e-02 5.960657e-01 -1.003906e+00 9.882812e-01
1.026602e+02 4.217391e-01 -1.911789e-02 5.960657e-01 -1.003906e+00 9.882812e-01
1.026602e+02 4.217391e-01 -1.911789e-02 5.960657e-01 -1.003906e+00 9.882812e-01
1.026602e+02 4.217391e-01 -1.911789e-02 5.960657e-01 -1.003906e+00 9.882812e-01
1.026602e+02 4.217391e-01 -1.911789e-02 5.960657e-01 -1.003906e+00 9.882812e-01
1.026602e+02 4.217391e-01 -1.911789e-02 5.960657e-01 -1.003906e+00 9.882812e-01
8.105859e+01 4.217391e-01 -9.295222e-02 6.309038e-01 -2.253906e+00 1.636719e+00
7.767188e+01 4.217391e-01 -2.401124e-01 8.261065e-01 -3.156250e+00 3.050781e+00
7.032031e+01 4.217391e-01 -3.338004e-01 1.055782e+00 -4.574219e+00 4.613281e+00
6.704297e+01 4.217391e-01 -4.180246e-01 1.254734e+00 -6.105469e+00 5.863281e+00
6.577344e+01 4.217391e-01 -5.052352e-01 1.412903e+00 -7.636719e+00 6.472656e+00
6.192188e+01 4.217391e-01 -5.903832e-01 1.557052e+00 -9.167969e+00 6.585938e+00
6.052734e+01 3.434783e-01 -6.744998e-01 1.699321e+00 -1.069922e+01 6.562500e+00
5.883203e+01 3.565217e-01 -7.565497e-01 1.846693e+00 -1.223047e+01 6.734375e+00
5.699609e+01 3.652174e-01 -8.324694e-01 2.000144e+00 -1.376172e+01 6.957031e+00
5.402734e+01 2.130435e-01 -9.038318e-01 2.158227e+00 -1.529297e+01 7.289062e+00
5.397656e+01 2.086957e-01 -9.786024e-01 2.315508e+00 -1.682422e+01 7.347656e+00
5.228125e+01 2.086957e-01 -1.058474e+00 2.469556e+00 -1.835547e+01 7.515625e+00
5.099219e+01 2.000000e-01 -1.142119e+00 2.623045e+00 -1.988672e+01 7.722656e+00
5.018750e+01 2.086957e-01 -1.223847e+00 2.777075e+00 -2.141797e+01 7.921875e+00
4.978125e+01 2.086957e-01 -1.305202e+00 2.931479e+00 -2.294922e+01 8.113281e+00
4.906250e+01 1.869565e-01 -1.383850e+00 3.089975e+00 -2.448047e+01 8.296875e+00
4.879297e+01 1.913043e-01 -1.457910e+00 3.250052e+00 -2.601172e+01 8.503906e+00
4.906641e+01 2.043478e-01 -1.530948e+00 3.409381e+00 -2.754297e+01 8.703125e+00
4.921875e+01 2.086957e-01 -1.603693e+00 3.566016e+00 -2.907422e+01 8.894531e+00
4.908984e+01 1.956522e-01 -1.679714e+00 3.720306e+00 -3.060547e+01 9.078125e+00
4.800781e+01 1.782609e-01 -1.758048e+00 3.876576e+00 -3.213672e+01 9.285156e+00
4.810547e+01 2.043478e-01 -1.833164e+00 4.034016e+00 -3.366797e+01 9.484375e+00
4.760938e+01 1.956522e-01 -1.910107e+00 4.190650e+00 -3.519922e+01 9.675781e+00
4.787500e+01 2.043478e-01 -1.987864e+00 4.348898e+00 -3.673047e+01 9.859375e+00
4.781641e+01 1.956522e-01 -2.065931e+00 4.507011e+00 -3.826172e+01 1.006641e+01
4.811328e+01 1.913043e-01 -2.142181e+00 4.665499e+00 -3.979297e+01 1.026562e+01
4.956250e+01 2.000000e-01 -2.216297e+00 4.827407e+00 -4.132422e+01 1.045703e+01
5.053516e+01 2.173913e-01 -2.288761e+00 4.990512e+00 -4.285547e+01 1.064062e+01
4.965625e+01 2.000000e-01 -2.361161e+00 5.152977e+00 -4.438672e+01 1.084766e+01
4.973047e+01 2.000000e-01 -2.437500e+00 5.314267e+00 -4.591797e+01 1.104688e+01
5.020703e+01 2.043478e-01 -2.517956e+00 5.473061e+00 -4.744922e+01 1.123828e+01
5.024609e+01 2.086957e-01 -2.595813e+00 5.634259e+00 -4.898047e+01 1.142188e+01
5.013672e+01 2.086957e-01 -2.676581e+00 5.795887e+00 -5.051172e+01 1.162891e+01
4.907031e+01 2.086957e-01 -2.757957e+00 5.956858e+00 -5.204297e+01 1.182812e+01
4.757422e+01 1.956522e-01 -2.837304e+00 6.118296e+00 -5.357422e+01 1.201953e+01
4.791016e+01 1.956522e-01 -2.916826e+00 6.280179e+00 -5.510547e+01 1.220312e+01
4.801562e+01 2.043478e-01 -3.001250e+00 6.442614e+00 -5.663672e+01 1.241016e+01
4.751172e+01 1.956522e-01 -3.078361e+00 6.607193e+00 -5.816797e+01 1.260938e+01
4.741016e+01 1.956522e-01 -3.153218e+00 6.771331e+00 -5.969922e+01 1.280078e+01
4.788672e+01 2.043478e-01 -3.231064e+00 6.933297e+00 -6.123047e+01 1.298438e+01
4.806250e+01 1.956522e-01 -3.310964e+00 7.094486e+00 -6.276172e+01 1.319141e+01
4.651562e+01 2.000000e-01 -3.388941e+00 7.256511e+00 -6.429297e+01 1.339062e+01
4.781250e+01 2.043478e-01 -3.462634e+00 7.420980e+00 -6.582422e+01 1.358203e+01
4.782031e+01 2.086957e-01 -3.531856e+00 7.587655e+00 -6.735547e+01 1.376562e+01
4.867969e+01 2.173913e-01 -3.598003e+00 7.755708e+00 -6.888672e+01 1.397266e+01
4.777344e+01 2.043478e-01 -3.667183e+00 7.921985e+00 -7.041797e+01 1.417188e+01
4.780859e+01 2.130435e-01 -3.741528e+00 8.084253e+00 -7.194922e+01 1.436328e+01
4.679688e+01 2.086957e-01 -3.818060e+00 8.246203e+00 -7.348047e+01 1.454688e+01
4.733203e+01 2.043478e-01 -3.890342e+00 8.410785e+00 -7.501172e+01 1.475391e+01
4.579297e+01 2.043478e-01 -3.961121e+00 8.575200e+00 -7.654297e+01 1.495312e+01
4.614453e+01 1.956522e-01 -4.033185e+00 8.738358e+00 -7.807422e+01 1.514453e+01
4.626562e+01 2.043478e-01 -4.108534e+00 8.899216e+00 -7.960547e+01 1.532812e+01
4.695312e+01 2.086957e-01 -4.181258e+00 9.061104e+00 -8.113672e+01 1.553516e+01
4.761328e+01 2.173913e-01 -4.250808e+00 9.224112e+00 -8.266797e+01 1.573438e+01
4.783594e+01 2.086957e-01 -4.322063e+00 9.386696e+00 -8.419922e+01 1.592578e+01
4.841406e+01 2.130435e-01 -4.397030e+00 9.548736e+00 -8.573047e+01 1.610938e+01
4.653906e+01 2.086957e-01 -4.477982e+00 9.707702e+00 -8.726172e+01 1.631641e+01
4.658984e+01 2.043478e-01 -4.558017e+00 9.868150e+00 -8.879297e+01 1.651562e+01
4.666797e+01 2.043478e-01 -4.632480e+00 1.003104e+01 -9.032422e+01 1.670703e+01
4.641797e+01 2.043478e-01 -4.706634e+00 1.019493e+01 -9.185547e+01 1.689062e+01
4.640625e+01 2.043478e-01 -4.781188e+00 1.035855e+01 -9.338672e+01 1.709766e+01
4.614062e+01 2.086957e-01 -4.854460e+00 1.052184e+01 -9.491797e+01 1.729688e+01
4.599609e+01 2.043478e-01 -4.928505e+00 1.068474e+01 -9.644922e+01 1.748828e+01
4.544141e+01 2.043478e-01 -5.004559e+00 1.084599e+01 -9.798047e+01 1.767188e+01
4.621875e+01 2.130435e-01 -5.078784e+00 1.100707e+01 -9.951172e+01 1.787891e+01
4.635938e+01 2.130435e-01 -5.154375e+00 1.116777e+01 -1.010430e+02 1.807812e+01
4.638281e+01 2.130435e-01 -5.232252e+00 1.132749e+01 -1.025742e+02 1.826953e+01
4.622266e+01 2.086957e-01 -5.312266e+00 1.148638e+01 -1.041055e+02 1.845312e+01
4.596875e+01 2.043478e-01 -5.392783e+00 1.164541e+01 -1.056367e+02 1.866016e+01
4.564453e+01 2.043478e-01 -5.470323e+00 1.180579e+01 -1.071680e+02 1.885938e+01
4.579297e+01 2.086957e-01 -5.540927e+00 1.197002e+01 -1.086992e+02 1.905078e+01
4.613672e+01 2.130435e-01 -5.606963e+00 1.213735e+01 -1.102305e+02 1.923438e+01
4.582031e+01 2.086957e-01 -5.674735e+00 1.230353e+01 -1.117617e+02 1.944141e+01
4.619922e+01 2.173913e-01 -5.746441e+00 1.246798e+01 -1.132930e+02 1.964062e+01
4.584375e+01 2.130435e-01 -5.823729e+00 1.263005e+01 -1.148242e+02 1.983203e+01
4.639062e+01 2.130435e-01 -5.900940e+00 1.279265e+01 -1.163555e+02 2.001562e+01
4.628125e+01 2.173913e-01 -5.977290e+00 1.295473e+01 -1.178867e+02 2.022266e+01
4.580078e+01 2.173913e-01 -6.052048e+00 1.311884e+01 -1.194180e+02 2.042188e+01
4.529688e+01 2.130435e-01 -6.124659e+00 1.328440e+01 -1.209492e+02 2.061328e+01
4.497266e+01 2.130435e-01 -6.198865e+00 1.344908e+01 -1.224805e+02 2.079688e+01
4.512891e+01 2.173913e-01 -6.273768e+00 1.361353e+01 -1.240117e+02 2.100391e+01
4.507031e+01 2.173913e-01 -6.347923e+00 1.377814e+01 -1.255430e+02 2.120312e+01
4.482422e+01 2.173913e-01 -6.421166e+00 1.394284e+01 -1.270742e+02 2.139453e+01
4.492578e+01 2.173913e-01 -6.494139e+00 1.410386e+01 -1.280000e+02 2.157812e+01
4.556250e+01 2.217391e-01 -6.561847e+00 1.421844e+01 -1.280000e+02 2.178516e+01
4.503516e+01 2.173913e-01 -6.627689e+00 1.431414e+01 -1.280000e+02 2.198438e+01
4.497656e+01 2.173913e-01 -6.693833e+00 1.441074e+01 -1.280000e+02 2.217578e+01
4.496484e+01 2.173913e-01 -6.761006e+00 1.450814e+01 -1.280000e+02 2.235938e+01
4.491016e+01 2.130435e-01 -6.828714e+00 1.460534e+01 -1.280000e+02 2.256641e+01
4.542188e+01 2.217391e-01 -6.893231e+00 1.470329e+01 -1.280000e+02 2.276562e+01
4.403906e+01 2.130435e-01 -6.955851e+00 1.480254e+01 -1.280000e+02 2.295703e+01
4.459766e+01 2.217391e-01 -7.021652e+00 1.490167e+01 -1.280000e+02 2.314062e+01
4.456250e+01 2.217391e-01 -7.087798e+00 1.500078e+01 -1.280000e+02 2.334766e+01
4.443359e+01 2.217391e-01 -7.155551e+00 1.509940e+01 -1.280000e+02 2.354688e+01
4.417969e+01 2.130435e-01 -7.224202e+00 1.519779e+01 -1.280000e+02 2.373828e+01
4.443750e+01 2.173913e-01 -7.291714e+00 1.529746e+01 -1.280000e+02 2.392188e+01
4.572266e+01 2.260870e-01 -7.358776e+00 1.539772e+01 -1.280000e+02 2.412891e+01
4.541797e+01 2.217391e-01 -7.428900e+00 1.549695e+01 -1.280000e+02 2.432812e+01
4.573828e+01 2.217391e-01 -7.502521e+00 1.559502e+01 -1.280000e+02 2.451953e+01
4.562109e+01 2.217391e-01 -7.574086e+00 1.569376e+01 -1.280000e+02 2.470312e+01
4.537109e+01 2.217391e-01 -7.644201e+00 1.579272e+01 -1.280000e+02 2.491016e+01
4.513672e+01 2.173913e-01 -7.715555e+00 1.589075e+01 -1.280000e+02 2.510938e+01
4.526953e+01 2.130435e-01 -7.786601e+00 1.598863e+01 -1.280000e+02 2.530078e+01
4.510547e+01 2.130435e-01 -7.857608e+00 1.608635e+01 -1.280000e+02 2.548438e+01
4.567969e+01 2.173913e-01 -7.924091e+00 1.618657e+01 -1.280000e+02 2.569141e+01
4.425391e+01 2.086957e-01 -7.986485e+00 1.628942e+01 -1.280000e+02 2.589062e+01
4.430078e+01 2.086957e-01 -8.046391e+00 1.639354e+01 -1.280000e+02 2.608203e+01
4.482422e+01 2.130435e-01 -8.111090e+00 1.649576e+01 -1.280000e+02 2.626562e+01
4.456641e+01 2.086957e-01 -8.180163e+00 1.659675e+01 -1.280000e+02 2.647266e+01
4.451172e+01 2.130435e-01 -8.247303e+00 1.669971e+01 -1.280000e+02 2.667188e+01
4.459375e+01 2.173913e-01 -8.312355e+00 1.680341e+01 -1.280000e+02 2.686328e+01
4.469531e+01 2.217391e-01 -8.377918e+00 1.690762e+01 -1.280000e+02 2.704688e+01
4.502344e+01 2.173913e-01 -8.446815e+00 1.701055e+01 -1.280000e+02 2.725391e+01
4.515625e+01 2.130435e-01 -8.519544e+00 1.711305e+01 -1.280000e+02 2.745312e+01
4.498828e+01 2.130435e-01 -8.593800e+00 1.721460e+01 -1.280000e+02 2.764453e+01
4.568359e+01 2.173913e-01 -8.667591e+00 1.731631e+01 -1.280000e+02 2.782812e+01
4.523828e+01 2.173913e-01 -8.737450e+00 1.741997e+01 -1.280000e+02 2.803516e+01
4.555859e+01 2.173913e-01 -8.802563e+00 1.752673e+01 -1.280000e+02 2.823438e+01
4.552734e+01 2.130435e-01 -8.868215e+00 1.763318e+01 -1.280000e+02 2.842578e+01
4.567188e+01 2.173913e-01 -8.937421e+00 1.773850e+01 -1.280000e+02 2.860938e+01
4.535547e+01 2.217391e-01 -9.010152e+00 1.784262e+01 -1.280000e+02 2.881641e+01
4.528906e+01 2.173913e-01 -9.083592e+00 1.794657e+01 -1.280000e+02 2.901562e+01
4.562109e+01 2.173913e-01 -9.153735e+00 1.805343e+01 -1.280000e+02 2.920703e+01
4.623047e+01 2.173913e-01 -9.219920e+00 1.816291e+01 -1.280000e+02 2.939062e+01
4.624609e+01 2.173913e-01 -9.286772e+00 1.827199e+01 -1.280000e+02 2.959766e+01
4.643750e+01 2.130435e-01 -9.355516e+00 1.837930e+01 -1.280000e+02 2.979688e+01
4.687500e+01 2.217391e-01 -9.424636e+00 1.848625e+01 -1.280000e+02 2.998828e+01
4.675000e+01 2.173913e-01 -9.495284e+00 1.859343e+01 -1.280000e+02 3.017188e+01
4.746875e+01 2.260870e-01 -9.565954e+00 1.870101e+01 -1.280000e+02 3.037891e+01
4.746875e+01 2.260870e-01 -9.635764e+00 1.880886e+01 -1.280000e+02 3.057812e+01
4.747266e+01 2.217391e-01 -9.707312e+00 1.891621e+01 -1.280000e+02 3.076953e+01
4.715625e+01 2.173913e-01 -9.777666e+00 1.902458e+01 -1.280000e+02 3.095312e+01
4.728906e+01 2.173913e-01 -9.841828e+00 1.913670e+01 -1.280000e+02 3.116016e+01
4.747656e+01 2.173913e-01 -9.908383e+00 1.924803e+01 -1.280000e+02 3.135938e+01
4.756250e+01 2.173913e-01 -9.975942e+00 1.936006e+01 -1.280000e+02 3.155078e+01
4.739062e+01 2.173913e-01 -1.004431e+01 1.947131e+01 -1.280000e+02 3.173438e+01
4.732031e+01 2.173913e-01 -1.011314e+01 1.958205e+01 -1.280000e+02 3.194141e+01
4.760547e+01 2.217391e-01 -1.017926e+01 1.969322e+01 -1.280000e+02 3.214062e+01
4.780859e+01 2.260870e-01 -1.024551e+01 1.980407e+01 -1.280000e+02 3.233203e+01
4.769141e+01 2.260870e-01 -1.031304e+01 1.991540e+01 -1.280000e+02 3.251562e+01
4.759375e+01 2.260870e-01 -1.038053e+01 2.002740e+01 -1.280000e+02 3.272266e+01
4.760547e+01 2.260870e-01 -1.044753e+01 2.013978e+01 -1.280000e+02 3.292188e+01
4.749219e+01 2.260870e-01 -1.051275e+01 2.025290e+01 -1.280000e+02 3.311328e+01
4.691016e+01 2.217391e-01 -1.058058e+01 2.036569e+01 -1.280000e+02 3.329688e+01
4.714844e+01 2.260870e-01 -1.064703e+01 2.047954e+01 -1.280000e+02 3.350391e+01
4.695703e+01 2.217391e-01 -1.071267e+01 2.059340e+01 -1.280000e+02 3.370312e+01
4.736328e+01 2.217391e-01 -1.078142e+01 2.070508e+01 -1.280000e+02 3.389453e+01
4.744531e+01 2.130435e-01 -1.085004e+01 2.081689e+01 -1.280000e+02 3.407812e+01
4.841797e+01 2.304348e-01 -1.091783e+01 2.092878e+01 -1.280000e+02 3.428516e+01
4.792969e+01 2.304348e-01 -1.098356e+01 2.104236e+01 -1.280000e+02 3.448438e+01
4.817188e+01 2.304348e-01 -1.105224e+01 2.115510e+01 -1.280000e+02 3.467578e+01
4.810938e+01 2.260870e-01 -1.112674e+01 2.126531e+01 -1.280000e+02 3.485938e+01
4.713672e+01 2.217391e-01 -1.120086e+01 2.137649e+01 -1.280000e+02 3.506641e+01
4.822656e+01 2.304348e-01 -1.126743e+01 2.149135e+01 -1.280000e+02 3.526562e+01
4.771875e+01 2.304348e-01 -1.133097e+01 2.160760e+01 -1.280000e+02 3.545703e+01
4.704297e+01 2.217391e-01 -1.139515e+01 2.172390e+01 -1.280000e+02 3.564062e+01
4.708594e+01 2.217391e-01 -1.146136e+01 2.183949e+01 -1.280000e+02 3.584766e+01
4.728125e+01 2.260870e-01 -1.153265e+01 2.195159e+01 -1.280000e+02 3.604688e+01
4.745703e+01 2.260870e-01 -1.160198e+01 2.206469e+01 -1.280000e+02 3.623828e+01
4.754297e+01 2.260870e-01 -1.167133e+01 2.217852e+01 -1.280000e+02 3.642188e+01
4.733984e+01 2.260870e-01 -1.174229e+01 2.229110e+01 -1.280000e+02 3.662891e+01
4.727734e+01 2.217391e-01 -1.181118e+01 2.240387e+01 -1.280000e+02 3.682812e+01
4.721094e+01 2.217391e-01 -1.188016e+01 2.251671e+01 -1.280000e+02 3.701953e+01
4.731250e+01 2.217391e-01 -1.195074e+01 2.262918e+01 -1.280000e+02 3.720312e+01
4.681250e+01 2.217391e-01 -1.202103e+01 2.274187e+01 -1.280000e+02 3.741016e+01
4.700781e+01 2.217391e-01 -1.209098e+01 2.285437e+01 -1.280000e+02 3.760938e+01
4.637109e+01 2.173913e-01 -1.215645e+01 2.297060e+01 -1.280000e+02 3.780078e+01
4.679688e+01 2.173913e-01 -1.222182e+01 2.308730e+01 -1.280000e+02 3.798438e+01
4.678125e+01 2.173913e-01 -1.228998e+01 2.320206e+01 -1.280000e+02 3.819141e+01
4.669531e+01 2.173913e-01 -1.235687e+01 2.331716e+01 -1.280000e+02 3.839062e+01
4.662500e+01 2.217391e-01 -1.242463e+01 2.343108e+01 -1.280000e+02 3.858203e+01
4.737109e+01 2.217391e-01 -1.249215e+01 2.354605e+01 -1.280000e+02 3.876562e+01
4.694922e+01 2.173913e-01 -1.256036e+01 2.366101e+01 -1.280000e+02 3.897266e+01
4.681250e+01 2.173913e-01 -1.262858e+01 2.377527e+01 -1.280000e+02 3.917188e+01
4.638672e+01 2.173913e-01 -1.269709e+01 2.388933e+01 -1.280000e+02 3.936328e+01
4.638281e+01 2.173913e-01 -1.276405e+01 2.400482e+01 -1.280000e+02 3.954688e+01
4.645312e+01 2.130435e-01 -1.283092e+01 2.412066e+01 -1.280000e+02 3.975391e+01
4.636719e+01 2.130435e-01 -1.289856e+01 2.423584e+01 -1.280000e+02 3.995312e+01
4.637891e+01 2.130435e-01 -1.296817e+01 2.434937e+01 -1.280000e+02 4.014453e+01
4.565625e+01 2.086957e-01 -1.303675e+01 2.446412e+01 -1.280000e+02 4.032812e+01
4.645312e+01 2.130435e-01 -1.310612e+01 2.457848e+01 -1.280000e+02 4.053516e+01
4.636719e+01 2.130435e-01 -1.317372e+01 2.469274e+01 -1.280000e+02 4.073438e+01
4.653906e+01 2.130435e-01 -1.324026e+01 2.480746e+01 -1.280000e+02 4.092578e+01
4.685938e+01 2.173913e-01 -1.331070e+01 2.492106e+01 -1.280000e+02 4.110938e+01
4.700781e+01 2.173913e-01 -1.338166e+01 2.503425e+01 -1.280000e+02 4.131641e+01
4.703516e+01 2.173913e-01 -1.344920e+01 2.514946e+01 -1.280000e+02 4.151562e+01
4.687500e+01 2.173913e-01 -1.351475e+01 2.526632e+01 -1.280000e+02 4.170703e+01
4.687109e+01 2.173913e-01 -1.358271e+01 2.538310e+01 -1.280000e+02 4.189062e+01
4.704297e+01 2.173913e-01 -1.364941e+01 2.550075e+01 -1.280000e+02 4.209766e+01
4.725000e+01 2.217391e-01 -1.371872e+01 2.561716e+01 -1.280000e+02 4.229688e+01
4.783594e+01 2.217391e-01 -1.378774e+01 2.573334e+01 -1.280000e+02 4.248828e+01
4.690625e+01 2.173913e-01 -1.385567e+01 2.585097e+01 -1.280000e+02 4.267188e+01
4.644922e+01 2.173913e-01 -1.392421e+01 2.596882e+01 -1.280000e+02 4.287891e+01
4.656641e+01 2.173913e-01 -1.399261e+01 2.608641e+01 -1.280000e+02 4.307812e+01
4.692188e+01 2.173913e-01 -1.406007e+01 2.620377e+01 -1.280000e+02 4.326953e+01
4.669531e+01 2.173913e-01 -1.412830e+01 2.632180e+01 -1.280000e+02 4.345312e+01
4.667578e+01 2.173913e-01 -1.419824e+01 2.643861e+01 -1.280000e+02 4.366016e+01
4.661328e+01 2.130435e-01 -1.426661e+01 2.655548e+01 -1.280000e+02 4.385938e+01
4.621094e+01 2.130435e-01 -1.433750e+01 2.667063e+01 -1.280000e+02 4.405078e+01
4.690234e+01 2.130435e-01 -1.441330e+01 2.678404e+01 -1.280000e+02 4.423438e+01
4.719141e+01 2.173913e-01 -1.449088e+01 2.689651e+01 -1.280000e+02 4.444141e+01
4.753906e+01 2.173913e-01 -1.456268e+01 2.701157e+01 -1.280000e+02 4.464062e+01
4.755469e+01 2.173913e-01 -1.463117e+01 2.712717e+01 -1.280000e+02 4.483203e+01
4.769141e+01 2.217391e-01 -1.469895e+01 2.724394e+01 -1.280000e+02 4.501562e+01
4.798047e+01 2.260870e-01 -1.477127e+01 2.735802e+01 -1.280000e+02 4.522266e+01
4.881641e+01 2.304348e-01 -1.484863e+01 2.746997e+01 -1.280000e+02 4.542188e+01
4.777734e+01 2.217391e-01 -1.492216e+01 2.758398e+01 -1.280000e+02 4.561328e+01
4.849609e+01 2.304348e-01 -1.498854e+01 2.770284e+01 -1.280000e+02 4.579688e+01
4.915234e+01 2.347826e-01 -1.504912e+01 2.782535e+01 -1.280000e+02 4.600391e+01
4.785156e+01 2.217391e-01 -1.511298e+01 2.794521e+01 -1.280000e+02 4.620312e+01
4.835938e+01 2.260870e-01 -1.518130e+01 2.806192e+01 -1.280000e+02 4.639453e+01
4.876172e+01 2.260870e-01 -1.525468e+01 2.817686e+01 -1.280000e+02 4.657812e+01
4.859766e+01 2.260870e-01 -1.533144e+01 2.828960e+01 -1.280000e+02 4.678516e+01
4.819141e+01 2.217391e-01 -1.540907e+01 2.840100e+01 -1.280000e+02 4.698438e+01
4.758203e+01 2.173913e-01 -1.548139e+01 2.851521e+01 -1.280000e+02 4.717578e+01
4.752344e+01 2.217391e-01 -1.554937e+01 2.863241e+01 -1.280000e+02 4.735938e+01
4.744141e+01 2.260870e-01 -1.561462e+01 2.875187e+01 -1.280000e+02 4.756641e+01
4.741797e+01 2.173913e-01 -1.568196e+01 2.887062e+01 -1.280000e+02 4.776562e+01
4.703906e+01 2.173913e-01 -1.575146e+01 2.898728e+01 -1.280000e+02 4.795703e+01
4.707031e+01 2.173913e-01 -1.582176e+01 2.910372e+01 -1.280000e+02 4.814062e+01
4.745703e+01 2.173913e-01 -1.589424e+01 2.921900e+01 -1.280000e+02 4.834766e+01
4.782812e+01 2.217391e-01 -1.596502e+01 2.933514e+01 -1.280000e+02 4.854688e+01
4.642188e+01 2.086957e-01 -1.603540e+01 2.945162e+01 -1.280000e+02 4.873828e+01
4.594922e+01 2.086957e-01 -1.610448e+01 2.956967e+01 -1.280000e+02 4.892188e+01
4.580859e+01 2.043478e-01 -1.617975e+01 2.968555e+01 -1.280000e+02 4.912891e+01
4.547656e+01 2.043478e-01 -1.625164e+01 2.980343e+01 -1.280000e+02 4.932812e+01
4.601172e+01 2.086957e-01 -1.631546e+01 2.992472e+01 -1.280000e+02 4.951953e+01
4.726172e+01 2.217391e-01 -1.637834e+01 3.004710e+01 -1.280000e+02 4.970312e+01
4.801953e+01 2.217391e-01 -1.644406e+01 3.016680e+01 -1.280000e+02 4.991016e+01
4.731641e+01 2.130435e-01 -1.651568e+01 3.028323e+01 -1.280000e+02 5.010938e+01
4.686719e+01 2.130435e-01 -1.659002e+01 3.039806e+01 -1.280000e+02 5.030078e+01
4.709375e+01 2.130435e-01 -1.666004e+01 3.051589e+01 -1.280000e+02 5.048438e+01
4.700000e+01 2.130435e-01 -1.672462e+01 3.063692e+01 -1.280000e+02 5.069141e+01
4.857422e+01 2.217391e-01 -1.678715e+01 3.075815e+01 -1.280000e+02 5.089062e+01
4.858984e+01 2.217391e-01 -1.685067e+01 3.087805e+01 -1.280000e+02 5.108203e+01
4.807812e+01 2.217391e-01 -1.691814e+01 3.099617e+01 -1.280000e+02 5.126562e+01
4.821484e+01 2.217391e-01 -1.698601e+01 3.111413e+01 -1.280000e+02 5.147266e+01
4.767969e+01 2.304348e-01 -1.705159e+01 3.123371e+01 -1.280000e+02 5.167188e+01
4.811328e+01 2.260870e-01 -1.711830e+01 3.135256e+01 -1.280000e+02 5.186328e+01
4.742188e+01 2.173913e-01 -1.718885e+01 3.147001e+01 -1.280000e+02 5.204688e+01
4.694141e+01 2.173913e-01 -1.725659e+01 3.158982e+01 -1.280000e+02 5.225391e+01
4.657812e+01 2.130435e-01 -1.732029e+01 3.171202e+01 -1.280000e+02 5.245312e+01
4.713672e+01 2.173913e-01 -1.738410e+01 3.183405e+01 -1.280000e+02 5.264453e+01
4.688281e+01 2.173913e-01 -1.744968e+01 3.195591e+01 -1.280000e+02 5.282812e+01
4.728906e+01 2.173913e-01 -1.751789e+01 3.207613e+01 -1.280000e+02 5.303516e+01
4.787109e+01 2.173913e-01 -1.758820e+01 3.219463e+01 -1.280000e+02 5.323438e+01
4.724609e+01 2.173913e-01 -1.766028e+01 3.231188e+01 -1.280000e+02 5.342578e+01
4.751172e+01 2.130435e-01 -1.772922e+01 3.243118e+01 -1.280000e+02 5.360938e+01
4.754297e+01 2.130435e-01 -1.779698e+01 3.255065e+01 -1.280000e+02 5.381641e+01
4.719141e+01 2.130435e-01 -1.786518e+01 3.266954e+01 -1.280000e+02 5.401562e+01
4.728516e+01 2.130435e-01 -1.792854e+01 3.279148e+01 -1.280000e+02 5.420703e+01
4.733203e+01 2.130435e-01 -1.799404e+01 3.291345e+01 -1.280000e+02 5.439062e+01
4.718750e+01 2.130435e-01 -1.806464e+01 3.303307e+01 -1.280000e+02 5.459766e+01
4.853125e+01 2.173913e-01 -1.813783e+01 3.315191e+01 -1.280000e+02 5.479688e+01
4.769531e+01 2.173913e-01 -1.821187e+01 3.326953e+01 -1.280000e+02 5.498828e+01
4.767578e+01 2.173913e-01 -1.828288e+01 3.338876e+01 -1.280000e+02 5.517188e+01
4.690234e+01 2.086957e-01 -1.834678e+01 3.351201e+01 -1.280000e+02 5.537891e+01
4.695703e+01 2.130435e-01 -1.840850e+01 3.363571e+01 -1.280000e+02 5.557812e+01
4.689844e+01 2.130435e-01 -1.847569e+01 3.375619e+01 -1.280000e+02 5.576953e+01
4.663281e+01 2.086957e-01 -1.854600e+01 3.387552e+01 -1.280000e+02 5.595312e+01
4.668359e+01 2.086957e-01 -1.861641e+01 3.399512e+01 -1.280000e+02 5.616016e+01
4.641406e+01 2.086957e-01 -1.868719e+01 3.411433e+01 -1.280000e+02 5.635938e+01
4.652344e+01 2.086957e-01 -1.875425e+01 3.423501e+01 -1.280000e+02 5.655078e+01
4.641406e+01 2.086957e-01 -1.881893e+01 3.435782e+01 -1.280000e+02 5.673438e+01
4.689062e+01 2.130435e-01 -1.888205e+01 3.448202e+01 -1.280000e+02 5.694141e+01
4.764062e+01 2.130435e-01 -1.894597e+01 3.460614e+01 -1.280000e+02 5.714062e+01
4.726172e+01 2.130435e-01 -1.901181e+01 3.472899e+01 -1.280000e+02 5.733203e+01
4.707812e+01 2.173913e-01 -1.908006e+01 3.485109e+01 -1.280000e+02 5.751562e+01
4.735547e+01 2.130435e-01 -1.915014e+01 3.497190e+01 -1.280000e+02 5.772266e+01
4.772266e+01 2.130435e-01 -1.921798e+01 3.509313e+01 -1.280000e+02 5.792188e+01
4.726953e+01 2.086957e-01 -1.928406e+01 3.521486e+01 -1.280000e+02 5.811328e+01
4.751172e+01 2.130435e-01 -1.934977e+01 3.533748e+01 -1.280000e+02 5.829688e+01
4.734375e+01 2.130435e-01 -1.941544e+01 3.546021e+01 -1.280000e+02 5.850391e+01
4.748047e+01 2.130435e-01 -1.948090e+01 3.558307e+01 -1.280000e+02 5.870312e+01
4.712891e+01 2.130435e-01 -1.954802e+01 3.570483e+01 -1.280000e+02 5.889453e+01
4.784766e+01 2.173913e-01 -1.961410e+01 3.582755e+01 -1.280000e+02 5.907812e+01
4.790625e+01 2.173913e-01 -1.967818e+01 3.595135e+01 -1.280000e+02 5.928516e+01
4.792578e+01 2.173913e-01 -1.974191e+01 3.607543e+01 -1.280000e+02 5.948438e+01
4.803906e+01 2.173913e-01 -1.980556e+01 3.619974e+01 -1.280000e+02 5.967578e+01
4.753516e+01 2.130435e-01 -1.986695e+01 3.632570e+01 -1.280000e+02 5.985938e+01
4.751953e+01 2.173913e-01 -1.993002e+01 3.645076e+01 -1.280000e+02 6.006641e+01
4.737891e+01 2.173913e-01 -1.999490e+01 3.657494e+01 -1.280000e+02 6.026562e+01
4.721875e+01 2.130435e-01 -2.006077e+01 3.669851e+01 -1.280000e+02 6.045703e+01
4.757031e+01 2.173913e-01 -2.012758e+01 3.682173e+01 -1.280000e+02 6.064062e+01
4.757031e+01 2.173913e-01 -2.019319e+01 3.694530e+01 -1.280000e+02 6.084766e+01
4.800781e+01 2.217391e-01 -2.026024e+01 3.706829e+01 -1.280000e+02 6.104688e+01
4.755469e+01 2.173913e-01 -2.032471e+01 3.719273e+01 -1.280000e+02 6.123828e+01
4.755078e+01 2.173913e-01 -2.038842e+01 3.731780e+01 -1.280000e+02 6.142188e+01
4.785156e+01 2.217391e-01 -2.045176e+01 3.744319e+01 -1.280000e+02 6.162891e+01
4.774609e+01 2.173913e-01 -2.051578e+01 3.756833e+01 -1.280000e+02 6.182812e+01
4.786719e+01 2.173913e-01 -2.058052e+01 3.769339e+01 -1.280000e+02 6.201953e+01
