1.279961e+02 7.670025e-01 1.314287e-02 5.664791e-01 -9.960938e-01 9.960938e-01
1.279961e+02 7.783375e-01 1.410570e-02 5.662430e-01 -9.960938e-01 1.027344e+00
1.279961e+02 7.783375e-01 1.410570e-02 5.662430e-01 -9.960938e-01 1.027344e+00
1.279961e+02 7.783375e-01 1.410570e-02 5.662430e-01 -9.960938e-01 1.027344e+00
1.279961e+02 7.783375e-01 1.410570e-02 5.662430e-01 -9.960938e-01 1.027344e+00
1.279961e+02 7.783375e-01 1.410570e-02 5.662430e-01 -9.960938e-01 1.027344e+00
1.279961e+02 7.783375e-01 1.410570e-02 5.662430e-01 -9.960938e-01 1.027344e+00
1.279961e+02 7.783375e-01 1.410570e-02 5.662430e-01 -9.960938e-01 1.027344e+00
1.279961e+02 7.783375e-01 1.410570e-02 5.662430e-01 -9.960938e-01 1.027344e+00
1.279961e+02 7.783375e-01 1.410570e-02 5.662430e-01 -9.960938e-01 1.027344e+00
1.279961e+02 7.783375e-01 1.410570e-02 5.662430e-01 -9.960938e-01 1.027344e+00
1.279961e+02 7.783375e-01 1.410570e-02 5.662430e-01 -9.960938e-01 1.027344e+00
1.279961e+02 7.783375e-01 1.410570e-02 5.662430e-01 -9.960938e-01 1.027344e+00
1.279961e+02 7.783375e-01 1.410570e-02 5.662430e-01 -9.960938e-01 1.027344e+00
1.279961e+02 7.783375e-01 1.410570e-02 5.662430e-01 -9.960938e-01 1.027344e+00
1.279961e+02 7.783375e-01 1.410570e-02 5.662430e-01 -9.960938e-01 1.027344e+00
1.279961e+02 7.783375e-01 1.410570e-02 5.662430e-01 -9.960938e-01 1.027344e+00
1.279961e+02 7.783375e-01 1.410570e-02 5.662430e-01 -9.960938e-01 1.027344e+00
1.279961e+02 7.783375e-01 1.410570e-02 5.662430e-01 -9.960938e-01 1.027344e+00
1.279961e+02 7.783375e-01 1.410570e-02 5.662430e-01 -9.960938e-01 1.027344e+00
1.279961e+02 7.783375e-01 1.410570e-02 5.662430e-01 -9.960938e-01 1.027344e+00
1.279961e+02 7.544081e-01 2.498365e-02 5.764186e-01 -1.207031e+00 1.285156e+00
1.279961e+02 7.607053e-01 5.615555e-02 6.513774e-01 -1.718750e+00 1.996094e+00
1.279961e+02 7.581864e-01 8.341509e-02 7.618461e-01 -2.437500e+00 2.628906e+00
1.279961e+02 7.052897e-01 1.044290e-01 8.734760e-01 -3.132812e+00 3.035156e+00
1.279961e+02 6.309824e-01 1.213659e-01 9.785851e-01 -3.628906e+00 3.273438e+00
1.279961e+02 5.629723e-01 1.360183e-01 1.076629e+00 -3.972656e+00 3.687500e+00
1.279961e+02 5.251889e-01 1.493332e-01 1.167365e+00 -4.195312e+00 4.214844e+00
1.279961e+02 5.088161e-01 1.608872e-01 1.251112e+00 -4.328125e+00 4.527344e+00
1.279961e+02 4.899244e-01 1.738788e-01 1.331279e+00 -4.421875e+00 4.648438e+00
1.279961e+02 4.773300e-01 1.834986e-01 1.407320e+00 -4.542969e+00 4.707031e+00
1.279961e+02 4.798489e-01 1.899577e-01 1.482847e+00 -4.917969e+00 4.710938e+00
1.279961e+02 4.823678e-01 1.953052e-01 1.557146e+00 -5.296875e+00 4.824219e+00
1.279961e+02 4.735516e-01 2.009406e-01 1.631780e+00 -5.929688e+00 5.132812e+00
1.279961e+02 4.836272e-01 2.058378e-01 1.705091e+00 -6.785156e+00 5.363281e+00
1.279961e+02 4.722922e-01 2.100479e-01 1.776125e+00 -7.429688e+00 5.519531e+00
1.279961e+02 4.584383e-01 2.124934e-01 1.845671e+00 -7.921875e+00 5.617188e+00
1.279961e+02 4.609572e-01 2.145667e-01 1.913416e+00 -8.382812e+00 5.742188e+00
1.279961e+02 4.534005e-01 2.195371e-01 1.982912e+00 -8.871094e+00 5.859375e+00
1.279961e+02 4.521411e-01 2.265247e-01 2.050591e+00 -9.199219e+00 5.925781e+00
1.279961e+02 4.672544e-01 2.324689e-01 2.116768e+00 -9.417969e+00 6.097656e+00
1.279961e+02 4.647355e-01 2.375393e-01 2.181420e+00 -9.570312e+00 6.238281e+00
1.279961e+02 4.622166e-01 2.420179e-01 2.244513e+00 -9.691406e+00 6.324219e+00
1.279961e+02 4.458438e-01 2.468259e-01 2.306829e+00 -9.988281e+00 6.382812e+00
1.279961e+02 4.471033e-01 2.535816e-01 2.370529e+00 -1.017578e+01 6.421875e+00
1.279961e+02 4.395466e-01 2.617151e-01 2.434682e+00 -1.042188e+01 6.519531e+00
1.279961e+02 4.458438e-01 2.688564e-01 2.498890e+00 -1.061719e+01 6.648438e+00
1.279961e+02 4.445844e-01 2.754181e-01 2.563081e+00 -1.076172e+01 6.746094e+00
1.279961e+02 4.496222e-01 2.813183e-01 2.626706e+00 -1.083594e+01 6.863281e+00
1.279961e+02 4.521411e-01 2.865828e-01 2.690365e+00 -1.087891e+01 6.960938e+00
1.279961e+02 4.534005e-01 2.925026e-01 2.753624e+00 -1.094531e+01 7.054688e+00
1.279961e+02 4.571788e-01 2.988214e-01 2.817327e+00 -1.100781e+01 7.339844e+00
1.279961e+02 4.559194e-01 3.032109e-01 2.881249e+00 -1.108984e+01 7.535156e+00
1.279961e+02 4.534005e-01 3.061433e-01 2.945288e+00 -1.122656e+01 7.812500e+00
1.279961e+02 4.458438e-01 3.102046e-01 3.008552e+00 -1.131641e+01 8.015625e+00
1.279961e+02 4.433249e-01 3.150017e-01 3.072250e+00 -1.135938e+01 8.156250e+00
1.279961e+02 4.357683e-01 3.206664e-01 3.135330e+00 -1.136719e+01 8.250000e+00
1.279961e+02 4.382872e-01 3.251035e-01 3.198270e+00 -1.140625e+01 8.386719e+00
1.279961e+02 4.319899e-01 3.307206e-01 3.260283e+00 -1.151562e+01 8.500000e+00
1.279961e+02 4.345088e-01 3.366904e-01 3.322469e+00 -1.162109e+01 8.628906e+00
1.279961e+02 4.357683e-01 3.426822e-01 3.384880e+00 -1.187109e+01 8.742188e+00
1.279961e+02 4.370277e-01 3.473329e-01 3.446161e+00 -1.201562e+01 8.875000e+00
1.279961e+02 4.420655e-01 3.512708e-01 3.506783e+00 -1.208984e+01 8.992188e+00
1.279961e+02 4.345088e-01 3.557018e-01 3.566330e+00 -1.218359e+01 9.121094e+00
1.279961e+02 4.319899e-01 3.602817e-01 3.627079e+00 -1.226953e+01 9.230469e+00
1.279961e+02 4.357683e-01 3.653546e-01 3.688097e+00 -1.235156e+01 9.335938e+00
1.279961e+02 4.345088e-01 3.709070e-01 3.749756e+00 -1.247266e+01 9.460938e+00
1.279961e+02 4.408060e-01 3.754808e-01 3.810271e+00 -1.256250e+01 9.535156e+00
1.279961e+02 4.319899e-01 3.790502e-01 3.869627e+00 -1.264453e+01 9.585938e+00
1.279961e+02 4.282116e-01 3.825428e-01 3.929929e+00 -1.277734e+01 9.652344e+00
1.279961e+02 4.294710e-01 3.870251e-01 3.989386e+00 -1.287891e+01 9.800781e+00
1.279961e+02 4.319899e-01 3.913352e-01 4.050188e+00 -1.293750e+01 9.898438e+00
1.279961e+02 4.231738e-01 3.956466e-01 4.110635e+00 -1.298047e+01 1.004297e+01
1.279961e+02 4.156171e-01 3.989891e-01 4.170479e+00 -1.298438e+01 1.016016e+01
1.279961e+02 4.143577e-01 4.022437e-01 4.230871e+00 -1.299609e+01 1.030469e+01
1.279961e+02 4.080605e-01 4.059901e-01 4.292301e+00 -1.300781e+01 1.041797e+01
1.279961e+02 4.042821e-01 4.087114e-01 4.353416e+00 -1.300391e+01 1.051953e+01
1.279961e+02 4.055416e-01 4.099122e-01 4.414774e+00 -1.298828e+01 1.060938e+01
1.279961e+02 3.979849e-01 4.131595e-01 4.473996e+00 -1.295312e+01 1.086328e+01
1.279961e+02 3.967254e-01 4.178272e-01 4.530994e+00 -1.297266e+01 1.107031e+01
1.279961e+02 3.954660e-01 4.222618e-01 4.590097e+00 -1.310938e+01 1.132422e+01
1.279961e+02 3.853904e-01 4.264488e-01 4.648426e+00 -1.325000e+01 1.152734e+01
1.279961e+02 3.551637e-01 4.301573e-01 4.707536e+00 -1.334766e+01 1.167188e+01
1.279961e+02 3.702771e-01 4.302122e-01 4.765650e+00 -1.339453e+01 1.177344e+01
1.279961e+02 3.614610e-01 4.311934e-01 4.825107e+00 -1.348828e+01 1.187500e+01
1.279961e+02 3.362720e-01 4.336011e-01 4.884113e+00 -1.353516e+01 1.200391e+01
1.279961e+02 3.211587e-01 4.369984e-01 4.940882e+00 -1.359375e+01 1.211719e+01
1.279961e+02 3.387909e-01 4.424081e-01 4.998140e+00 -1.369531e+01 1.223438e+01
1.279961e+02 3.387909e-01 4.483218e-01 5.054555e+00 -1.376172e+01 1.235938e+01
1.279961e+02 3.274559e-01 4.544857e-01 5.108848e+00 -1.376562e+01 1.248047e+01
1.279961e+02 3.274559e-01 4.586860e-01 5.163194e+00 -1.378906e+01 1.256641e+01
1.279961e+02 3.249370e-01 4.621212e-01 5.217213e+00 -1.381641e+01 1.262109e+01
1.279961e+02 3.236776e-01 4.640493e-01 5.270620e+00 -1.380859e+01 1.266406e+01
1.279961e+02 3.186398e-01 4.662166e-01 5.322257e+00 -1.382031e+01 1.279688e+01
1.279961e+02 3.123426e-01 4.701851e-01 5.374185e+00 -1.381250e+01 1.298828e+01
1.279961e+02 3.110831e-01 4.730760e-01 5.424890e+00 -1.379297e+01 1.312891e+01
1.279961e+02 2.972292e-01 4.756363e-01 5.475746e+00 -1.375391e+01 1.333984e+01
1.279961e+02 3.035264e-01 4.810594e-01 5.527333e+00 -1.376562e+01 1.356641e+01
1.279961e+02 3.022670e-01 4.879676e-01 5.578345e+00 -1.388281e+01 1.379688e+01
1.279961e+02 2.947103e-01 4.978669e-01 5.628514e+00 -1.405078e+01 1.405859e+01
1.279961e+02 2.909320e-01 5.078149e-01 5.677461e+00 -1.423047e+01 1.422266e+01
