-3.430379e-01 1.058180e+00 -2.394531e+00 1.886719e+00 6.954599e-04 1.580055e-02 -1.328125e-01 1.328125e-01
-4.037153e-01 1.019367e+00 -2.398438e+00 1.855469e+00 -7.914332e-05 1.495323e-02 -1.328125e-01 1.328125e-01
-4.166490e-01 9.911826e-01 -2.343750e+00 1.824219e+00 -2.224108e-04 1.440128e-02 -1.210938e-01 1.132812e-01
-4.103783e-01 9.995809e-01 -2.375000e+00 1.824219e+00 1.540792e-04 1.475822e-02 -1.210938e-01 1.289062e-01
-4.111465e-01 9.981177e-01 -2.390625e+00 1.804688e+00 3.953970e-04 1.477516e-02 -1.054688e-01 1.328125e-01
-4.220537e-01 9.937704e-01 -2.398438e+00 1.785156e+00 1.749035e-04 1.470854e-02 -1.210938e-01 1.328125e-01
-4.262129e-01 9.863296e-01 -2.390625e+00 1.769531e+00 -1.087555e-04 1.417363e-02 -1.171875e-01 1.289062e-01
-4.248131e-01 9.886485e-01 -2.390625e+00 1.769531e+00 1.464631e-05 1.442086e-02 -1.210938e-01 1.328125e-01
-4.299361e-01 9.903012e-01 -2.421875e+00 1.761719e+00 -1.396459e-04 1.422950e-02 -1.210938e-01 1.132812e-01
-4.274080e-01 9.891248e-01 -2.425781e+00 1.761719e+00 -7.813139e-05 1.447112e-02 -1.210938e-01 1.132812e-01
-4.259944e-01 9.899582e-01 -2.425781e+00 1.750000e+00 -7.658687e-05 1.442502e-02 -1.210938e-01 1.132812e-01
-4.292443e-01 9.896846e-01 -2.425781e+00 1.750000e+00 -1.499782e-04 1.414774e-02 -1.210938e-01 1.132812e-01
-4.268427e-01 9.900358e-01 -2.421875e+00 1.761719e+00 -1.337874e-04 1.423135e-02 -1.210938e-01 1.132812e-01
-4.238865e-01 9.908118e-01 -2.425781e+00 1.742188e+00 -3.738803e-05 1.444575e-02 -1.210938e-01 1.289062e-01
-4.233841e-01 9.923786e-01 -2.421875e+00 1.761719e+00 -4.495085e-05 1.439563e-02 -1.210938e-01 1.289062e-01
-4.268684e-01 9.893393e-01 -2.441406e+00 1.750000e+00 1.535466e-04 1.459876e-02 -1.210938e-01 1.289062e-01
-4.238900e-01 9.903193e-01 -2.445312e+00 1.734375e+00 2.803569e-04 1.445292e-02 -1.210938e-01 1.289062e-01
-4.247667e-01 9.908863e-01 -2.437500e+00 1.730469e+00 2.962282e-04 1.455369e-02 -1.210938e-01 1.289062e-01
-4.250019e-01 9.921584e-01 -2.445312e+00 1.734375e+00 2.579880e-04 1.441912e-02 -1.210938e-01 1.289062e-01
-4.259378e-01 9.895377e-01 -2.437500e+00 1.734375e+00 2.506383e-04 1.435552e-02 -1.210938e-01 1.289062e-01
-4.266269e-01 9.912703e-01 -2.445312e+00 1.734375e+00 1.839576e-04 1.424545e-02 -1.210938e-01 1.289062e-01
-4.252001e-01 9.907745e-01 -2.445312e+00 1.730469e+00 3.307402e-04 1.462402e-02 -1.210938e-01 1.289062e-01
-4.232611e-01 9.905495e-01 -2.445312e+00 1.734375e+00 3.113539e-04 1.462732e-02 -1.210938e-01 1.289062e-01
-4.256733e-01 9.912727e-01 -2.445312e+00 1.734375e+00 1.359177e-04 1.395549e-02 -1.210938e-01 1.289062e-01
-4.349179e-01 9.853655e-01 -2.449219e+00 1.734375e+00 2.383354e-04 1.466079e-02 -1.210938e-01 1.289062e-01
-4.452674e-01 9.783758e-01 -2.449219e+00 1.703125e+00 -1.749035e-04 1.410848e-02 -1.210938e-01 1.132812e-01
-4.468826e-01 9.770348e-01 -2.449219e+00 1.699219e+00 -1.565823e-04 1.416448e-02 -1.210938e-01 1.132812e-01
-4.447835e-01 9.759134e-01 -2.429688e+00 1.699219e+00 -9.064733e-05 1.433129e-02 -1.210938e-01 1.132812e-01
-4.431692e-01 9.809722e-01 -2.433594e+00 1.683594e+00 2.678943e-04 1.430937e-02 -1.054688e-01 1.289062e-01
-4.402634e-01 9.807788e-01 -2.398438e+00 1.683594e+00 4.658058e-04 1.489230e-02 -1.054688e-01 1.289062e-01
-4.377468e-01 9.806712e-01 -2.433594e+00 1.683594e+00 2.784396e-04 1.433272e-02 -1.054688e-01 1.289062e-01
-4.395947e-01 9.790759e-01 -2.441406e+00 1.683594e+00 4.909442e-04 1.494616e-02 -1.054688e-01 1.289062e-01
-4.414496e-01 9.803379e-01 -2.441406e+00 1.683594e+00 3.381965e-04 1.452129e-02 -1.054688e-01 1.289062e-01
-4.390728e-01 9.795127e-01 -2.433594e+00 1.683594e+00 3.518309e-04 1.451787e-02 -1.054688e-01 1.289062e-01
-4.406765e-01 9.791265e-01 -2.433594e+00 1.667969e+00 2.624618e-04 1.428728e-02 -1.054688e-01 1.289062e-01
-4.395186e-01 9.799840e-01 -2.441406e+00 1.683594e+00 3.424573e-04 1.452394e-02 -1.054688e-01 1.289062e-01
-4.384810e-01 9.799052e-01 -2.441406e+00 1.683594e+00 4.382175e-04 1.478827e-02 -1.054688e-01 1.289062e-01
-4.393045e-01 9.799449e-01 -2.441406e+00 1.683594e+00 3.350010e-04 1.450077e-02 -1.054688e-01 1.289062e-01
-4.371329e-01 9.805424e-01 -2.441406e+00 1.683594e+00 3.561982e-04 1.456067e-02 -1.054688e-01 1.289062e-01
-4.405473e-01 9.815456e-01 -2.433594e+00 1.683594e+00 2.039831e-04 1.434407e-02 -1.210938e-01 1.289062e-01
-4.358821e-01 9.904933e-01 -2.449219e+00 1.675781e+00 4.173399e-04 1.470267e-02 -1.210938e-01 1.289062e-01
-4.376920e-01 9.899619e-01 -2.449219e+00 1.660156e+00 4.352350e-04 1.473336e-02 -1.171875e-01 1.289062e-01
-4.368100e-01 9.913636e-01 -2.449219e+00 1.660156e+00 3.780345e-04 1.451070e-02 -1.171875e-01 1.289062e-01
-4.352037e-01 9.900713e-01 -2.449219e+00 1.675781e+00 2.563370e-04 1.421265e-02 -1.210938e-01 1.289062e-01
-4.359325e-01 9.952081e-01 -2.445312e+00 1.675781e+00 5.836154e-04 1.479116e-02 -1.210938e-01 1.367188e-01
-4.359290e-01 9.937528e-01 -2.449219e+00 1.667969e+00 4.810380e-04 1.432578e-02 -1.210938e-01 1.367188e-01
-4.350719e-01 9.949071e-01 -2.445312e+00 1.660156e+00 5.291844e-04 1.453032e-02 -1.210938e-01 1.367188e-01
-4.343784e-01 9.939338e-01 -2.449219e+00 1.675781e+00 5.046851e-04 1.444460e-02 -1.210938e-01 1.367188e-01
-4.352222e-01 9.945983e-01 -2.449219e+00 1.667969e+00 3.796323e-04 1.410723e-02 -1.210938e-01 1.367188e-01
-4.346340e-01 9.940044e-01 -2.441406e+00 1.660156e+00 3.523635e-04 1.392445e-02 -1.210938e-01 1.367188e-01
-4.350449e-01 9.938005e-01 -2.445312e+00 1.675781e+00 5.545358e-04 1.480168e-02 -1.210938e-01 1.367188e-01
-4.368861e-01 9.932490e-01 -2.449219e+00 1.660156e+00 5.025547e-04 1.460698e-02 -1.210938e-01 1.367188e-01
-4.427035e-01 9.855509e-01 -2.445312e+00 1.667969e+00 4.308145e-04 1.488470e-02 -1.210938e-01 1.367188e-01
-4.777584e-01 9.579724e-01 -2.378906e+00 1.558594e+00 -3.195558e-04 1.427954e-02 -1.328125e-01 1.132812e-01
-4.696036e-01 9.623161e-01 -2.382812e+00 1.574219e+00 -1.970594e-05 1.467786e-02 -1.250000e-01 1.132812e-01
-4.705187e-01 9.568188e-01 -2.390625e+00 1.578125e+00 1.974855e-04 1.480182e-02 -1.250000e-01 1.289062e-01
-4.682971e-01 9.522779e-01 -2.390625e+00 1.546875e+00 3.243491e-04 1.476757e-02 -1.054688e-01 1.289062e-01
-4.674753e-01 9.522955e-01 -2.390625e+00 1.546875e+00 3.242426e-04 1.474048e-02 -1.054688e-01 1.289062e-01
-4.682714e-01 9.514195e-01 -2.390625e+00 1.546875e+00 2.409451e-04 1.454972e-02 -1.054688e-01 1.289062e-01
-4.712144e-01 9.513318e-01 -2.390625e+00 1.546875e+00 2.774809e-04 1.459460e-02 -1.054688e-01 1.289062e-01
-4.672975e-01 9.518713e-01 -2.390625e+00 1.546875e+00 1.933313e-04 1.435470e-02 -1.054688e-01 1.289062e-01
-4.684245e-01 9.515604e-01 -2.390625e+00 1.542969e+00 3.204079e-04 1.475380e-02 -1.054688e-01 1.289062e-01
-4.694767e-01 9.512489e-01 -2.390625e+00 1.542969e+00 3.543874e-04 1.481469e-02 -1.054688e-01 1.289062e-01
-4.690171e-01 9.511275e-01 -2.390625e+00 1.546875e+00 1.524281e-04 1.421216e-02 -1.054688e-01 1.289062e-01
-4.698177e-01 9.520143e-01 -2.390625e+00 1.546875e+00 2.559642e-04 1.455145e-02 -1.054688e-01 1.289062e-01
-4.692339e-01 9.524895e-01 -2.390625e+00 1.531250e+00 2.968673e-04 1.463260e-02 -1.054688e-01 1.289062e-01
-4.701025e-01 9.520219e-01 -2.390625e+00 1.531250e+00 4.011490e-04 1.499168e-02 -1.054688e-01 1.289062e-01
-4.687491e-01 9.493625e-01 -2.390625e+00 1.546875e+00 1.873662e-04 1.434892e-02 -1.054688e-01 1.289062e-01
-4.709495e-01 9.489737e-01 -2.390625e+00 1.546875e+00 3.500201e-04 1.494951e-02 -1.054688e-01 1.289062e-01
-5.629909e-01 8.950953e-01 -2.652344e+00 1.386719e+00 -3.711108e-04 1.350950e-02 -1.367188e-01 1.132812e-01
-5.614363e-01 8.958527e-01 -2.652344e+00 1.402344e+00 -1.124304e-04 1.410338e-02 -1.367188e-01 1.289062e-01
-5.581784e-01 8.966713e-01 -2.652344e+00 1.394531e+00 -4.569648e-05 1.396913e-02 -1.367188e-01 1.289062e-01
-5.554022e-01 8.964099e-01 -2.636719e+00 1.402344e+00 -2.407320e-05 1.398547e-02 -1.367188e-01 1.289062e-01
-5.447043e-01 8.884685e-01 -2.601562e+00 1.363281e+00 3.749455e-05 1.354834e-02 -1.093750e-01 1.289062e-01
-5.448016e-01 8.948550e-01 -2.609375e+00 1.363281e+00 2.654443e-04 1.396683e-02 -1.093750e-01 1.367188e-01
-5.462673e-01 8.930755e-01 -2.605469e+00 1.386719e+00 1.618017e-04 1.367635e-02 -1.093750e-01 1.367188e-01
-5.433358e-01 8.903245e-01 -2.609375e+00 1.386719e+00 3.399008e-04 1.417722e-02 -1.093750e-01 1.367188e-01
-5.447007e-01 8.929339e-01 -2.601562e+00 1.386719e+00 1.468891e-04 1.357593e-02 -1.093750e-01 1.367188e-01
-5.450731e-01 8.934032e-01 -2.601562e+00 1.371094e+00 2.447797e-04 1.396426e-02 -1.093750e-01 1.367188e-01
-5.445972e-01 8.935467e-01 -2.605469e+00 1.386719e+00 2.494666e-04 1.396466e-02 -1.093750e-01 1.367188e-01
-5.441505e-01 8.925061e-01 -2.605469e+00 1.371094e+00 1.456109e-04 1.370474e-02 -1.093750e-01 1.367188e-01
-5.459542e-01 8.901791e-01 -2.609375e+00 1.339844e+00 1.907748e-04 1.377616e-02 -1.093750e-01 1.367188e-01
-5.441368e-01 8.942735e-01 -2.613281e+00 1.390625e+00 2.128242e-04 1.380927e-02 -1.093750e-01 1.367188e-01
-5.478348e-01 8.952537e-01 -2.605469e+00 1.371094e+00 2.178305e-04 1.387049e-02 -1.093750e-01 1.367188e-01
-5.450165e-01 8.928733e-01 -2.609375e+00 1.375000e+00 2.743919e-04 1.400804e-02 -1.093750e-01 1.367188e-01
-5.445061e-01 8.924654e-01 -2.613281e+00 1.390625e+00 3.092235e-04 1.413804e-02 -1.093750e-01 1.367188e-01
-5.564098e-01 8.863563e-01 -2.617188e+00 1.445312e+00 4.441826e-05 1.384165e-02 -1.289062e-01 1.289062e-01
-5.612939e-01 8.746788e-01 -2.625000e+00 1.406250e+00 1.259050e-04 1.403497e-02 -1.289062e-01 1.289062e-01
-5.664239e-01 8.575179e-01 -2.554688e+00 1.406250e+00 -2.375365e-05 1.345962e-02 -1.093750e-01 1.132812e-01
-5.657764e-01 8.561682e-01 -2.554688e+00 1.351562e+00 -3.291425e-05 1.345843e-02 -1.093750e-01 1.132812e-01
-5.672546e-01 8.560169e-01 -2.531250e+00 1.398438e+00 -4.090314e-05 1.341550e-02 -1.093750e-01 1.132812e-01
-5.665195e-01 8.564924e-01 -2.554688e+00 1.406250e+00 2.652313e-05 1.360367e-02 -1.093750e-01 1.132812e-01
-5.653001e-01 8.654232e-01 -2.546875e+00 1.441406e+00 1.233485e-04 1.372652e-02 -1.093750e-01 1.289062e-01
-5.679056e-01 8.684049e-01 -2.539062e+00 1.433594e+00 9.309725e-05 1.367463e-02 -1.289062e-01 1.289062e-01
-5.662170e-01 8.669557e-01 -2.542969e+00 1.441406e+00 9.022125e-05 1.368416e-02 -1.289062e-01 1.289062e-01
-5.675518e-01 8.668750e-01 -2.550781e+00 1.441406e+00 1.328820e-04 1.409635e-02 -1.289062e-01 1.289062e-01
-5.694744e-01 8.650334e-01 -2.535156e+00 1.457031e+00 -7.877050e-05 1.336002e-02 -1.093750e-01 1.289062e-01
-5.684204e-01 8.712661e-01 -2.539062e+00 1.457031e+00 5.815915e-05 1.355656e-02 -1.289062e-01 1.289062e-01
-5.680383e-01 8.670941e-01 -2.539062e+00 1.457031e+00 4.090314e-05 1.342567e-02 -1.289062e-01 1.289062e-01
-5.691679e-01 8.693075e-01 -2.539062e+00 1.390625e+00 1.419360e-04 1.375038e-02 -1.289062e-01 1.289062e-01
-5.709127e-01 8.712536e-01 -2.531250e+00 1.468750e+00 1.441197e-04 1.388801e-02 -1.289062e-01 1.289062e-01
-5.714731e-01 8.722335e-01 -2.531250e+00 1.468750e+00 7.754554e-05 1.364796e-02 -1.289062e-01 1.289062e-01
-5.721710e-01 8.701867e-01 -2.523438e+00 1.468750e+00 -8.755829e-05 1.318938e-02 -1.289062e-01 1.289062e-01
-5.712316e-01 8.709013e-01 -2.531250e+00 1.468750e+00 1.331482e-05 1.346813e-02 -1.289062e-01 1.289062e-01
-5.696358e-01 8.720764e-01 -2.523438e+00 1.468750e+00 -2.492535e-05 1.336006e-02 -1.289062e-01 1.289062e-01
-5.706495e-01 8.718713e-01 -2.531250e+00 1.468750e+00 1.714949e-05 1.343633e-02 -1.289062e-01 1.289062e-01
-5.704753e-01 8.707986e-01 -2.531250e+00 1.421875e+00 7.211309e-05 1.357362e-02 -1.289062e-01 1.289062e-01
-5.715199e-01 8.708615e-01 -2.531250e+00 1.468750e+00 5.624182e-05 1.363464e-02 -1.289062e-01 1.289062e-01
-5.708530e-01 8.715239e-01 -2.523438e+00 1.453125e+00 8.787784e-05 1.369961e-02 -1.289062e-01 1.289062e-01
-5.698906e-01 8.716288e-01 -2.531250e+00 1.468750e+00 7.775858e-06 1.343399e-02 -1.289062e-01 1.289062e-01
-5.694633e-01 8.727709e-01 -2.523438e+00 1.468750e+00 4.761381e-05 1.359793e-02 -1.289062e-01 1.289062e-01
-5.693828e-01 8.724685e-01 -2.523438e+00 1.468750e+00 4.601603e-05 1.359945e-02 -1.289062e-01 1.289062e-01
-5.717880e-01 8.710827e-01 -2.531250e+00 1.468750e+00 3.760106e-05 1.349833e-02 -1.289062e-01 1.289062e-01
-5.694960e-01 8.716092e-01 -2.531250e+00 1.468750e+00 2.588402e-05 1.362235e-02 -1.289062e-01 1.289062e-01
-5.686088e-01 8.722279e-01 -2.531250e+00 1.468750e+00 1.097142e-04 1.374329e-02 -1.289062e-01 1.289062e-01
-5.717588e-01 8.714258e-01 -2.531250e+00 1.468750e+00 5.283322e-05 1.360597e-02 -1.289062e-01 1.289062e-01
-5.697446e-01 8.713666e-01 -2.523438e+00 1.468750e+00 1.054534e-05 1.346325e-02 -1.289062e-01 1.289062e-01
-5.705460e-01 8.728254e-01 -2.523438e+00 1.468750e+00 -9.586674e-07 1.332674e-02 -1.289062e-01 1.289062e-01
-5.696110e-01 8.717895e-01 -2.523438e+00 1.468750e+00 6.103516e-05 1.355285e-02 -1.289062e-01 1.289062e-01
-5.719498e-01 8.713097e-01 -2.523438e+00 1.468750e+00 2.556446e-05 1.339819e-02 -1.289062e-01 1.289062e-01
-5.712201e-01 8.707741e-01 -2.531250e+00 1.468750e+00 7.126094e-05 1.369238e-02 -1.289062e-01 1.289062e-01
-5.706309e-01 8.721144e-01 -2.531250e+00 1.468750e+00 1.181291e-04 1.381302e-02 -1.289062e-01 1.289062e-01
-5.717287e-01 8.710368e-01 -2.519531e+00 1.468750e+00 -7.349783e-06 1.336913e-02 -1.289062e-01 1.289062e-01
-5.719489e-01 8.709242e-01 -2.523438e+00 1.468750e+00 1.736253e-05 1.348730e-02 -1.289062e-01 1.289062e-01
-5.691051e-01 8.710613e-01 -2.531250e+00 1.468750e+00 1.595649e-04 1.381937e-02 -1.289062e-01 1.289062e-01
-5.709308e-01 8.699929e-01 -2.523438e+00 1.468750e+00 5.144848e-05 1.354647e-02 -1.289062e-01 1.289062e-01
-5.724470e-01 8.710317e-01 -2.523438e+00 1.468750e+00 3.813366e-05 1.351590e-02 -1.289062e-01 1.289062e-01
-5.723222e-01 8.700195e-01 -2.523438e+00 1.414062e+00 1.480609e-05 1.338536e-02 -1.289062e-01 1.289062e-01
-5.724399e-01 8.697317e-01 -2.531250e+00 1.414062e+00 6.976968e-05 1.366334e-02 -1.289062e-01 1.289062e-01
-5.720427e-01 8.713343e-01 -2.531250e+00 1.468750e+00 6.316553e-05 1.357652e-02 -1.289062e-01 1.289062e-01
-5.695916e-01 8.693723e-01 -2.531250e+00 1.468750e+00 1.303788e-04 1.383000e-02 -1.289062e-01 1.289062e-01
-5.749061e-01 8.707335e-01 -2.523438e+00 1.414062e+00 2.375365e-05 1.343991e-02 -1.289062e-01 1.289062e-01
-5.706805e-01 8.731860e-01 -2.531250e+00 1.468750e+00 1.686189e-04 1.397479e-02 -1.289062e-01 1.289062e-01
-5.703443e-01 8.712210e-01 -2.531250e+00 1.468750e+00 9.714496e-05 1.368896e-02 -1.289062e-01 1.289062e-01
-5.708848e-01 8.726099e-01 -2.531250e+00 1.476562e+00 1.761818e-04 1.388745e-02 -1.289062e-01 1.289062e-01
-5.729910e-01 8.720112e-01 -2.519531e+00 1.476562e+00 5.666789e-05 1.358055e-02 -1.289062e-01 1.289062e-01
-5.746150e-01 8.696233e-01 -2.527344e+00 1.441406e+00 9.852970e-05 1.373442e-02 -1.289062e-01 1.289062e-01
-5.729759e-01 8.726413e-01 -2.527344e+00 1.476562e+00 8.276495e-05 1.372980e-02 -1.289062e-01 1.289062e-01
-5.743700e-01 8.714123e-01 -2.519531e+00 1.441406e+00 2.684269e-05 1.350312e-02 -1.289062e-01 1.289062e-01
-5.728477e-01 8.712042e-01 -2.527344e+00 1.476562e+00 1.105663e-04 1.379308e-02 -1.289062e-01 1.289062e-01
-5.741666e-01 8.711313e-01 -2.527344e+00 1.476562e+00 9.480155e-06 1.354223e-02 -1.289062e-01 1.289062e-01
-5.714633e-01 8.715004e-01 -2.527344e+00 1.441406e+00 -1.060925e-04 1.323365e-02 -1.289062e-01 1.289062e-01
-5.734863e-01 8.729725e-01 -2.519531e+00 1.476562e+00 9.096688e-05 1.382288e-02 -1.289062e-01 1.289062e-01
-5.698401e-01 8.720836e-01 -2.519531e+00 1.476562e+00 1.390068e-04 1.386928e-02 -1.289062e-01 1.289062e-01
-5.730157e-01 8.712822e-01 -2.527344e+00 1.476562e+00 2.726876e-05 1.365775e-02 -1.289062e-01 1.289062e-01
-5.714677e-01 8.717352e-01 -2.519531e+00 1.476562e+00 -7.168702e-05 1.334445e-02 -1.289062e-01 1.289062e-01
-5.743674e-01 8.702539e-01 -2.527344e+00 1.476562e+00 9.267118e-05 1.374029e-02 -1.289062e-01 1.289062e-01
-5.710980e-01 8.736746e-01 -2.527344e+00 1.476562e+00 1.087555e-04 1.383456e-02 -1.289062e-01 1.289062e-01
-5.723444e-01 8.695744e-01 -2.527344e+00 1.476562e+00 -1.256919e-05 1.336768e-02 -1.289062e-01 1.289062e-01
-5.715058e-01 8.699751e-01 -2.519531e+00 1.441406e+00 1.128032e-04 1.376693e-02 -1.289062e-01 1.132812e-01
-5.740135e-01 8.720291e-01 -2.527344e+00 1.476562e+00 -1.810816e-05 1.340841e-02 -1.289062e-01 1.289062e-01
-5.715925e-01 8.709821e-01 -2.519531e+00 1.433594e+00 1.235616e-04 1.387472e-02 -1.289062e-01 1.289062e-01
-5.726495e-01 8.706457e-01 -2.527344e+00 1.417969e+00 3.206210e-05 1.363107e-02 -1.289062e-01 1.289062e-01
-5.738676e-01 8.722839e-01 -2.519531e+00 1.476562e+00 6.135471e-05 1.366382e-02 -1.289062e-01 1.289062e-01
-5.742453e-01 8.704033e-01 -2.527344e+00 1.476562e+00 -5.166152e-05 1.338284e-02 -1.289062e-01 1.289062e-01
-5.749582e-01 8.691814e-01 -2.515625e+00 1.441406e+00 -7.328479e-05 1.320598e-02 -1.289062e-01 1.289062e-01
-5.692891e-01 8.720416e-01 -2.527344e+00 1.476562e+00 -2.631009e-05 1.343725e-02 -1.289062e-01 1.289062e-01
-5.724558e-01 8.711838e-01 -2.519531e+00 1.476562e+00 7.030227e-05 1.373761e-02 -1.289062e-01 1.289062e-01
-5.728432e-01 8.713951e-01 -2.519531e+00 1.476562e+00 6.369812e-05 1.375595e-02 -1.289062e-01 1.289062e-01
-5.726725e-01 8.740890e-01 -2.519531e+00 1.476562e+00 1.643582e-04 1.391088e-02 -1.289062e-01 1.289062e-01
-5.748813e-01 8.713628e-01 -2.519531e+00 1.480469e+00 7.562820e-06 1.344061e-02 -1.289062e-01 1.289062e-01
-5.720215e-01 8.723101e-01 -2.527344e+00 1.480469e+00 4.750729e-05 1.360057e-02 -1.289062e-01 1.289062e-01
-5.738614e-01 8.709380e-01 -2.527344e+00 1.480469e+00 5.847871e-05 1.368460e-02 -1.289062e-01 1.289062e-01
-5.736747e-01 8.711377e-01 -2.527344e+00 1.480469e+00 7.797161e-05 1.377051e-02 -1.289062e-01 1.289062e-01
-5.740463e-01 8.721521e-01 -2.519531e+00 1.480469e+00 3.919884e-05 1.363211e-02 -1.289062e-01 1.289062e-01
-5.743629e-01 8.727964e-01 -2.527344e+00 1.480469e+00 5.208759e-05 1.362002e-02 -1.289062e-01 1.289062e-01
-5.742258e-01 8.734044e-01 -2.527344e+00 1.480469e+00 1.259050e-04 1.381249e-02 -1.289062e-01 1.289062e-01
-5.749414e-01 8.720519e-01 -2.527344e+00 1.480469e+00 1.260115e-04 1.386350e-02 -1.289062e-01 1.289062e-01
-5.722656e-01 8.725098e-01 -2.527344e+00 1.480469e+00 7.349783e-05 1.362986e-02 -1.289062e-01 1.289062e-01
-5.726725e-01 8.713763e-01 -2.500000e+00 1.480469e+00 2.066461e-05 1.346727e-02 -1.289062e-01 1.289062e-01
-5.730034e-01 8.680864e-01 -2.527344e+00 1.480469e+00 2.577750e-05 1.350487e-02 -1.289062e-01 1.289062e-01
-5.719914e-01 8.724487e-01 -2.527344e+00 1.468750e+00 -9.256466e-05 1.326031e-02 -1.289062e-01 1.289062e-01
-5.735465e-01 8.711206e-01 -2.519531e+00 1.480469e+00 -2.279498e-05 1.340741e-02 -1.289062e-01 1.289062e-01
-5.717588e-01 8.712745e-01 -2.519531e+00 1.480469e+00 1.292071e-04 1.367764e-02 -1.289062e-01 1.289062e-01
-5.861923e-01 9.040145e-01 -2.457031e+00 1.605469e+00 3.511918e-04 1.419894e-02 -1.367188e-01 1.367188e-01
-5.855067e-01 9.029061e-01 -2.449219e+00 1.613281e+00 4.442891e-04 1.445461e-02 -1.367188e-01 1.367188e-01
-5.871821e-01 9.016123e-01 -2.457031e+00 1.597656e+00 2.446732e-04 1.372202e-02 -1.367188e-01 1.367188e-01
-6.220137e-01 8.671513e-01 -2.414062e+00 1.554688e+00 -1.184487e-04 1.333206e-02 -1.093750e-01 1.289062e-01
-6.243702e-01 8.762345e-01 -2.414062e+00 1.554688e+00 1.460370e-04 1.380490e-02 -1.367188e-01 1.289062e-01
-6.285042e-01 8.787635e-01 -2.406250e+00 1.527344e+00 7.264568e-05 1.385765e-02 -1.367188e-01 1.289062e-01
-6.274122e-01 8.784060e-01 -2.406250e+00 1.582031e+00 7.679991e-05 1.389063e-02 -1.367188e-01 1.289062e-01
-6.281446e-01 8.773376e-01 -2.406250e+00 1.582031e+00 1.246268e-05 1.363422e-02 -1.367188e-01 1.289062e-01
-6.281499e-01 8.773882e-01 -2.414062e+00 1.582031e+00 -1.214312e-05 1.360499e-02 -1.367188e-01 1.289062e-01
-6.283047e-01 8.778527e-01 -2.406250e+00 1.550781e+00 2.631009e-05 1.386878e-02 -1.367188e-01 1.289062e-01
-6.282517e-01 8.803105e-01 -2.414062e+00 1.554688e+00 1.120576e-04 1.398364e-02 -1.367188e-01 1.289062e-01
-6.250433e-01 8.789902e-01 -2.406250e+00 1.582031e+00 1.374090e-05 1.375142e-02 -1.367188e-01 1.289062e-01
-6.261650e-01 8.775221e-01 -2.414062e+00 1.554688e+00 8.990170e-05 1.398937e-02 -1.367188e-01 1.289062e-01
-6.268479e-01 8.777714e-01 -2.406250e+00 1.550781e+00 1.512564e-05 1.372257e-02 -1.367188e-01 1.289062e-01
-6.268443e-01 8.796057e-01 -2.414062e+00 1.554688e+00 5.858523e-05 1.387071e-02 -1.367188e-01 1.289062e-01
-6.271672e-01 8.774531e-01 -2.406250e+00 1.550781e+00 1.021513e-04 1.403111e-02 -1.367188e-01 1.289062e-01
-6.278297e-01 8.765894e-01 -2.414062e+00 1.582031e+00 4.793337e-06 1.367813e-02 -1.367188e-01 1.289062e-01
-6.278784e-01 8.775400e-01 -2.414062e+00 1.554688e+00 -4.974418e-05 1.347061e-02 -1.367188e-01 1.289062e-01
-6.287355e-01 8.780707e-01 -2.406250e+00 1.554688e+00 4.622907e-05 1.386533e-02 -1.367188e-01 1.289062e-01
-6.288939e-01 8.769330e-01 -2.414062e+00 1.582031e+00 6.604153e-06 1.366719e-02 -1.367188e-01 1.289062e-01
-6.297775e-01 8.780313e-01 -2.414062e+00 1.554688e+00 -1.789512e-05 1.369482e-02 -1.367188e-01 1.289062e-01
-6.294166e-01 8.769186e-01 -2.414062e+00 1.582031e+00 -3.717499e-05 1.362288e-02 -1.367188e-01 1.289062e-01
-6.287532e-01 8.779875e-01 -2.414062e+00 1.582031e+00 1.991898e-05 1.366883e-02 -1.367188e-01 1.289062e-01
-6.279332e-01 8.779953e-01 -2.406250e+00 1.582031e+00 1.409241e-04 1.416886e-02 -1.367188e-01 1.289062e-01
-6.285462e-01 8.798217e-01 -2.414062e+00 1.554688e+00 3.685543e-05 1.379073e-02 -1.367188e-01 1.289062e-01
-6.270655e-01 8.787837e-01 -2.406250e+00 1.582031e+00 -3.834670e-06 1.371869e-02 -1.367188e-01 1.289062e-01
-6.290195e-01 8.781533e-01 -2.414062e+00 1.527344e+00 2.513839e-05 1.377796e-02 -1.367188e-01 1.289062e-01
-6.291699e-01 8.741221e-01 -2.406250e+00 1.582031e+00 -6.774583e-05 1.345377e-02 -1.367188e-01 1.289062e-01
-6.275697e-01 8.778076e-01 -2.406250e+00 1.582031e+00 -2.130372e-07 1.363888e-02 -1.367188e-01 1.289062e-01
-6.301181e-01 8.766198e-01 -2.414062e+00 1.531250e+00 1.041752e-04 1.406908e-02 -1.367188e-01 1.289062e-01
-6.276785e-01 8.790613e-01 -2.406250e+00 1.582031e+00 5.357885e-05 1.385355e-02 -1.367188e-01 1.289062e-01
-6.301101e-01 8.702629e-01 -2.394531e+00 1.527344e+00 1.141879e-04 1.393577e-02 -1.367188e-01 1.289062e-01
-6.359527e-01 8.596622e-01 -2.375000e+00 1.558594e+00 -6.156775e-05 1.331824e-02 -1.093750e-01 1.132812e-01
-6.353397e-01 8.630792e-01 -2.375000e+00 1.531250e+00 1.821468e-05 1.352159e-02 -1.093750e-01 1.132812e-01
-6.326745e-01 8.654912e-01 -2.367188e+00 1.570312e+00 -1.727199e-04 1.313938e-02 -1.289062e-01 1.289062e-01
-6.309390e-01 8.696880e-01 -2.371094e+00 1.546875e+00 -1.348525e-04 1.331598e-02 -1.289062e-01 1.132812e-01
-6.312026e-01 8.702561e-01 -2.363281e+00 1.546875e+00 -3.557721e-05 1.366799e-02 -1.289062e-01 1.132812e-01
-6.329934e-01 8.697319e-01 -2.367188e+00 1.570312e+00 2.023853e-05 1.375442e-02 -1.289062e-01 1.289062e-01
-6.320580e-01 8.683205e-01 -2.367188e+00 1.570312e+00 -6.625457e-05 1.340519e-02 -1.289062e-01 1.289062e-01
-6.302756e-01 8.710512e-01 -2.382812e+00 1.570312e+00 -9.852970e-05 1.340252e-02 -1.289062e-01 1.289062e-01
-6.342420e-01 8.704280e-01 -2.371094e+00 1.546875e+00 -5.752004e-05 1.355042e-02 -1.289062e-01 1.289062e-01
-6.317351e-01 8.697438e-01 -2.371094e+00 1.570312e+00 -5.954390e-05 1.346634e-02 -1.289062e-01 1.289062e-01
-6.322004e-01 8.691166e-01 -2.382812e+00 1.546875e+00 8.841044e-06 1.366132e-02 -1.289062e-01 1.289062e-01
-6.307072e-01 8.689539e-01 -2.371094e+00 1.542969e+00 -7.434998e-05 1.347876e-02 -1.289062e-01 1.289062e-01
-6.319217e-01 8.682591e-01 -2.382812e+00 1.542969e+00 -1.025774e-04 1.328008e-02 -1.289062e-01 1.289062e-01
-6.325480e-01 8.702682e-01 -2.371094e+00 1.570312e+00 -6.550894e-05 1.342162e-02 -1.289062e-01 1.289062e-01
-6.297404e-01 8.717153e-01 -2.382812e+00 1.570312e+00 -1.206856e-04 1.340123e-02 -1.289062e-01 1.289062e-01
-6.317731e-01 8.691491e-01 -2.382812e+00 1.511719e+00 -6.316553e-05 1.350717e-02 -1.289062e-01 1.289062e-01
-6.312088e-01 8.715847e-01 -2.382812e+00 1.511719e+00 -7.775858e-05 1.346357e-02 -1.289062e-01 1.289062e-01
-6.321747e-01 8.682630e-01 -2.382812e+00 1.570312e+00 3.003824e-05 1.369987e-02 -1.289062e-01 1.289062e-01
-6.297678e-01 8.736793e-01 -2.386719e+00 1.578125e+00 1.253724e-04 1.374519e-02 -1.289062e-01 1.289062e-01
-6.298359e-01 8.730131e-01 -2.386719e+00 1.550781e+00 1.090750e-04 1.388471e-02 -1.289062e-01 1.289062e-01
-6.378130e-01 8.701713e-01 -2.386719e+00 1.515625e+00 1.340537e-04 1.373082e-02 -1.289062e-01 1.289062e-01
-6.444932e-01 8.657879e-01 -2.382812e+00 1.519531e+00 1.817207e-04 1.363297e-02 -1.093750e-01 1.132812e-01
-6.419404e-01 8.671223e-01 -2.371094e+00 1.496094e+00 6.987620e-05 1.331213e-02 -1.093750e-01 1.132812e-01
-6.432743e-01 8.646822e-01 -2.390625e+00 1.496094e+00 2.748180e-05 1.321151e-02 -1.093750e-01 1.132812e-01
-6.421597e-01 8.681616e-01 -2.371094e+00 1.519531e+00 1.386872e-04 1.350089e-02 -1.093750e-01 1.132812e-01
-6.477873e-01 8.708684e-01 -2.371094e+00 1.484375e+00 1.941834e-04 1.352673e-02 -1.093750e-01 1.289062e-01
-6.449780e-01 8.737002e-01 -2.390625e+00 1.507812e+00 1.770339e-04 1.352840e-02 -1.093750e-01 1.289062e-01
-6.463234e-01 8.732662e-01 -2.375000e+00 1.527344e+00 1.783121e-04 1.354495e-02 -1.093750e-01 1.289062e-01
-6.490921e-01 8.724322e-01 -2.390625e+00 1.527344e+00 8.020850e-05 1.322800e-02 -1.093750e-01 1.289062e-01
-6.482040e-01 8.732746e-01 -2.390625e+00 1.507812e+00 1.796969e-04 1.352462e-02 -1.093750e-01 1.289062e-01
-6.476237e-01 8.722113e-01 -2.390625e+00 1.527344e+00 2.002550e-04 1.354483e-02 -1.093750e-01 1.289062e-01
-6.764358e-01 9.205127e-01 -2.386719e+00 1.570312e+00 2.573489e-04 1.425472e-02 -1.445312e-01 1.367188e-01
-6.784544e-01 9.175259e-01 -2.394531e+00 1.593750e+00 1.729862e-04 1.391346e-02 -1.445312e-01 1.367188e-01
-6.805526e-01 9.035103e-01 -2.394531e+00 1.593750e+00 1.290473e-04 1.369827e-02 -1.445312e-01 1.367188e-01
-6.849940e-01 8.842069e-01 -2.351562e+00 1.554688e+00 1.757557e-05 1.322417e-02 -1.289062e-01 1.289062e-01
-6.823217e-01 8.867529e-01 -2.351562e+00 1.554688e+00 1.579671e-04 1.342035e-02 -1.289062e-01 1.289062e-01
-6.881851e-01 8.788744e-01 -2.351562e+00 1.539062e+00 1.220703e-04 1.371832e-02 -1.289062e-01 1.289062e-01
-6.971506e-01 8.670898e-01 -2.347656e+00 1.527344e+00 -2.180436e-04 1.299102e-02 -1.093750e-01 1.132812e-01
-6.978415e-01 8.704400e-01 -2.347656e+00 1.527344e+00 -1.232420e-04 1.300260e-02 -1.093750e-01 1.132812e-01
-6.959927e-01 8.685694e-01 -2.347656e+00 1.539062e+00 -8.383014e-05 1.307841e-02 -1.093750e-01 1.132812e-01
-6.968322e-01 8.702879e-01 -2.347656e+00 1.539062e+00 -3.195558e-05 1.322564e-02 -1.093750e-01 1.132812e-01
-6.927711e-01 8.805770e-01 -2.363281e+00 1.546875e+00 -1.638256e-04 1.282817e-02 -1.289062e-01 1.132812e-01
-6.934841e-01 8.798413e-01 -2.363281e+00 1.539062e+00 -3.866625e-05 1.328728e-02 -1.289062e-01 1.132812e-01
-6.942678e-01 8.813403e-01 -2.367188e+00 1.558594e+00 -1.390068e-05 1.327366e-02 -1.289062e-01 1.289062e-01
-6.992723e-01 8.839037e-01 -2.367188e+00 1.558594e+00 1.337341e-04 1.358737e-02 -1.289062e-01 1.289062e-01
-7.083285e-01 8.832980e-01 -2.378906e+00 1.574219e+00 -1.342134e-05 1.289881e-02 -1.289062e-01 1.289062e-01
-7.064377e-01 8.869351e-01 -2.378906e+00 1.554688e+00 9.437548e-05 1.305224e-02 -1.289062e-01 1.289062e-01
-7.085624e-01 8.866402e-01 -2.378906e+00 1.554688e+00 1.524281e-04 1.328346e-02 -1.289062e-01 1.289062e-01
-7.062643e-01 8.854193e-01 -2.347656e+00 1.574219e+00 3.483158e-05 1.289424e-02 -1.289062e-01 1.289062e-01
-7.074647e-01 8.881840e-01 -2.347656e+00 1.574219e+00 1.785252e-04 1.339196e-02 -1.289062e-01 1.289062e-01
-7.084855e-01 8.872757e-01 -2.378906e+00 1.554688e+00 1.281419e-04 1.314675e-02 -1.289062e-01 1.289062e-01
-7.087128e-01 8.896827e-01 -2.378906e+00 1.554688e+00 2.512774e-04 1.354574e-02 -1.289062e-01 1.289062e-01
-7.076266e-01 8.900167e-01 -2.371094e+00 1.574219e+00 1.860880e-04 1.336466e-02 -1.289062e-01 1.289062e-01
-7.079999e-01 8.877787e-01 -2.355469e+00 1.574219e+00 1.958877e-04 1.340487e-02 -1.289062e-01 1.289062e-01
-7.064740e-01 8.874401e-01 -2.378906e+00 1.574219e+00 1.155727e-04 1.313436e-02 -1.289062e-01 1.289062e-01
-7.063722e-01 8.888569e-01 -2.378906e+00 1.554688e+00 2.292280e-04 1.351306e-02 -1.289062e-01 1.289062e-01
-7.079149e-01 8.879895e-01 -2.378906e+00 1.574219e+00 1.133358e-04 1.312035e-02 -1.289062e-01 1.289062e-01
-7.088004e-01 8.858235e-01 -2.371094e+00 1.527344e+00 1.246268e-05 1.278764e-02 -1.289062e-01 1.289062e-01
-7.051462e-01 8.854209e-01 -2.378906e+00 1.554688e+00 8.904955e-05 1.309114e-02 -1.289062e-01 1.289062e-01
-7.076115e-01 8.878395e-01 -2.347656e+00 1.574219e+00 1.378351e-04 1.319853e-02 -1.289062e-01 1.289062e-01
-7.069817e-01 8.865654e-01 -2.347656e+00 1.519531e+00 -1.118445e-05 1.273740e-02 -1.289062e-01 1.289062e-01
-7.064934e-01 8.872941e-01 -2.378906e+00 1.554688e+00 4.260744e-06 1.276418e-02 -1.289062e-01 1.289062e-01
-7.084121e-01 8.878695e-01 -2.371094e+00 1.535156e+00 1.682994e-04 1.330975e-02 -1.289062e-01 1.289062e-01
-7.082502e-01 8.862448e-01 -2.355469e+00 1.574219e+00 1.957812e-04 1.337244e-02 -1.289062e-01 1.289062e-01
-7.058707e-01 8.867021e-01 -2.355469e+00 1.535156e+00 9.022125e-05 1.300291e-02 -1.289062e-01 1.289062e-01
-7.073807e-01 8.881597e-01 -2.371094e+00 1.574219e+00 9.022125e-05 1.300473e-02 -1.289062e-01 1.289062e-01
-7.064333e-01 8.881743e-01 -2.371094e+00 1.535156e+00 1.014057e-04 1.306942e-02 -1.289062e-01 1.289062e-01
-7.085695e-01 8.872830e-01 -2.378906e+00 1.554688e+00 1.493391e-04 1.318822e-02 -1.289062e-01 1.289062e-01
-7.068596e-01 8.862281e-01 -2.378906e+00 1.554688e+00 6.231338e-05 1.299187e-02 -1.289062e-01 1.289062e-01
-7.088411e-01 8.852727e-01 -2.378906e+00 1.554688e+00 -1.256919e-05 1.275622e-02 -1.289062e-01 1.289062e-01
-7.073090e-01 8.875308e-01 -2.347656e+00 1.574219e+00 1.321896e-04 1.322626e-02 -1.289062e-01 1.289062e-01
-7.074691e-01 8.880006e-01 -2.347656e+00 1.535156e+00 1.707493e-04 1.332842e-02 -1.289062e-01 1.289062e-01
-7.077566e-01 8.862696e-01 -2.378906e+00 1.554688e+00 1.028970e-04 1.312963e-02 -1.289062e-01 1.289062e-01
-7.070596e-01 8.870041e-01 -2.378906e+00 1.574219e+00 1.234551e-04 1.318772e-02 -1.289062e-01 1.289062e-01
-7.085271e-01 8.880933e-01 -2.371094e+00 1.574219e+00 6.518938e-05 1.306204e-02 -1.289062e-01 1.289062e-01
-7.072276e-01 8.858787e-01 -2.378906e+00 1.574219e+00 6.263294e-05 1.292133e-02 -1.289062e-01 1.289062e-01
-7.075523e-01 8.874421e-01 -2.378906e+00 1.554688e+00 1.352786e-04 1.315989e-02 -1.289062e-01 1.289062e-01
-7.072754e-01 8.881091e-01 -2.378906e+00 1.554688e+00 7.275220e-05 1.300599e-02 -1.289062e-01 1.289062e-01
-7.066022e-01 8.880049e-01 -2.355469e+00 1.574219e+00 3.408595e-05 1.290574e-02 -1.289062e-01 1.289062e-01
-7.070153e-01 8.883903e-01 -2.378906e+00 1.554688e+00 1.565823e-04 1.324365e-02 -1.289062e-01 1.289062e-01
-7.078902e-01 8.856490e-01 -2.355469e+00 1.535156e+00 9.054081e-05 1.308302e-02 -1.289062e-01 1.289062e-01
-7.087420e-01 8.866008e-01 -2.371094e+00 1.574219e+00 1.292071e-04 1.317848e-02 -1.289062e-01 1.289062e-01
-7.073276e-01 8.882162e-01 -2.355469e+00 1.574219e+00 1.317635e-04 1.324261e-02 -1.289062e-01 1.289062e-01
-7.079335e-01 8.865324e-01 -2.378906e+00 1.554688e+00 -1.384742e-05 1.274587e-02 -1.289062e-01 1.289062e-01
-7.069322e-01 8.874280e-01 -2.371094e+00 1.535156e+00 9.501459e-05 1.308436e-02 -1.289062e-01 1.289062e-01
-7.080547e-01 8.890670e-01 -2.355469e+00 1.531250e+00 2.024919e-04 1.345487e-02 -1.289062e-01 1.289062e-01
-7.048729e-01 8.859593e-01 -2.355469e+00 1.574219e+00 1.495521e-04 1.322389e-02 -1.289062e-01 1.289062e-01
-7.053771e-01 8.873163e-01 -2.378906e+00 1.574219e+00 2.961217e-05 1.284185e-02 -1.289062e-01 1.289062e-01
-7.064704e-01 8.866103e-01 -2.355469e+00 1.574219e+00 -1.544520e-05 1.270426e-02 -1.289062e-01 1.289062e-01
-7.061458e-01 8.858905e-01 -2.355469e+00 1.535156e+00 1.340004e-04 1.318668e-02 -1.289062e-01 1.289062e-01
-7.086624e-01 8.874018e-01 -2.371094e+00 1.535156e+00 1.559432e-04 1.330159e-02 -1.289062e-01 1.289062e-01
-7.061193e-01 8.874371e-01 -2.371094e+00 1.535156e+00 1.463566e-04 1.332526e-02 -1.289062e-01 1.289062e-01
-7.061732e-01 8.878966e-01 -2.378906e+00 1.574219e+00 9.341681e-05 1.309199e-02 -1.289062e-01 1.289062e-01
-7.084050e-01 8.881079e-01 -2.378906e+00 1.574219e+00 8.670614e-05 1.290362e-02 -1.289062e-01 1.289062e-01
-7.072993e-01 8.875737e-01 -2.355469e+00 1.531250e+00 1.345330e-04 1.313716e-02 -1.289062e-01 1.289062e-01
-7.086987e-01 8.872395e-01 -2.347656e+00 1.531250e+00 1.703232e-04 1.329382e-02 -1.289062e-01 1.289062e-01
-7.085881e-01 8.893900e-01 -2.378906e+00 1.554688e+00 1.579671e-04 1.326747e-02 -1.289062e-01 1.289062e-01
-7.077805e-01 8.865719e-01 -2.371094e+00 1.535156e+00 1.787382e-04 1.333532e-02 -1.289062e-01 1.289062e-01
-7.065138e-01 8.863518e-01 -2.371094e+00 1.535156e+00 1.600975e-04 1.325169e-02 -1.289062e-01 1.289062e-01
-7.089923e-01 8.868333e-01 -2.371094e+00 1.574219e+00 1.889640e-04 1.340412e-02 -1.289062e-01 1.289062e-01
-7.077999e-01 8.887903e-01 -2.378906e+00 1.554688e+00 1.643582e-04 1.332887e-02 -1.289062e-01 1.289062e-01
-7.091622e-01 8.853042e-01 -2.378906e+00 1.554688e+00 1.756492e-04 1.331230e-02 -1.289062e-01 1.289062e-01
-7.084413e-01 8.855281e-01 -2.371094e+00 1.535156e+00 2.284824e-04 1.353842e-02 -1.289062e-01 1.289062e-01
-7.112710e-01 8.858811e-01 -2.367188e+00 1.574219e+00 4.953115e-05 1.296592e-02 -1.289062e-01 1.289062e-01
-7.120069e-01 8.846996e-01 -2.367188e+00 1.574219e+00 3.493810e-05 1.294041e-02 -1.289062e-01 1.289062e-01
-7.119034e-01 8.848638e-01 -2.367188e+00 1.535156e+00 1.031100e-04 1.320036e-02 -1.289062e-01 1.289062e-01
-7.096257e-01 8.849116e-01 -2.347656e+00 1.574219e+00 8.233888e-05 1.310378e-02 -1.289062e-01 1.289062e-01
-7.106093e-01 8.843479e-01 -2.378906e+00 1.554688e+00 1.716015e-04 1.334463e-02 -1.289062e-01 1.289062e-01
-7.093736e-01 8.839263e-01 -2.355469e+00 1.531250e+00 1.318700e-04 1.323345e-02 -1.289062e-01 1.289062e-01
-7.106597e-01 8.841827e-01 -2.378906e+00 1.574219e+00 1.106728e-04 1.327463e-02 -1.289062e-01 1.289062e-01
-7.121768e-01 8.845245e-01 -2.367188e+00 1.574219e+00 1.022579e-04 1.319290e-02 -1.289062e-01 1.289062e-01
-7.114346e-01 8.855538e-01 -2.378906e+00 1.554688e+00 5.954390e-05 1.301121e-02 -1.289062e-01 1.289062e-01
-7.115178e-01 8.835848e-01 -2.378906e+00 1.554688e+00 7.733250e-05 1.309325e-02 -1.289062e-01 1.289062e-01
-7.111445e-01 8.842685e-01 -2.367188e+00 1.574219e+00 7.285872e-05 1.308199e-02 -1.289062e-01 1.289062e-01
-7.113055e-01 8.847802e-01 -2.378906e+00 1.574219e+00 9.458851e-05 1.312304e-02 -1.289062e-01 1.289062e-01
-7.102440e-01 8.842020e-01 -2.378906e+00 1.554688e+00 1.024709e-04 1.319883e-02 -1.289062e-01 1.289062e-01
-7.099547e-01 8.833208e-01 -2.355469e+00 1.574219e+00 1.050273e-04 1.318348e-02 -1.289062e-01 1.289062e-01
-7.100122e-01 8.852336e-01 -2.378906e+00 1.554688e+00 1.415632e-04 1.330914e-02 -1.289062e-01 1.289062e-01
-7.118362e-01 8.851543e-01 -2.367188e+00 1.535156e+00 1.864075e-04 1.336479e-02 -1.289062e-01 1.289062e-01
-7.103767e-01 8.847255e-01 -2.378906e+00 1.574219e+00 1.056664e-04 1.316009e-02 -1.289062e-01 1.289062e-01
-7.108287e-01 8.842714e-01 -2.378906e+00 1.554688e+00 9.512111e-05 1.316945e-02 -1.289062e-01 1.289062e-01
-7.117637e-01 8.832372e-01 -2.367188e+00 1.574219e+00 5.560271e-05 1.300878e-02 -1.289062e-01 1.289062e-01
-7.123493e-01 8.828185e-01 -2.347656e+00 1.535156e+00 2.098416e-05 1.294946e-02 -1.289062e-01 1.289062e-01
-7.118415e-01 8.846214e-01 -2.378906e+00 1.574219e+00 2.684269e-05 1.293625e-02 -1.289062e-01 1.289062e-01
-7.104846e-01 8.854307e-01 -2.378906e+00 1.574219e+00 1.077968e-04 1.315495e-02 -1.289062e-01 1.289062e-01
-7.118539e-01 8.849865e-01 -2.355469e+00 1.574219e+00 1.541324e-04 1.335893e-02 -1.289062e-01 1.289062e-01
-7.111719e-01 8.833479e-01 -2.378906e+00 1.574219e+00 2.056874e-04 1.354126e-02 -1.289062e-01 1.289062e-01
-7.092241e-01 8.842384e-01 -2.378906e+00 1.554688e+00 9.735800e-05 1.309874e-02 -1.289062e-01 1.289062e-01
-7.111418e-01 8.834108e-01 -2.367188e+00 1.535156e+00 1.237746e-04 1.319328e-02 -1.289062e-01 1.289062e-01
-7.122962e-01 8.834656e-01 -2.367188e+00 1.531250e+00 6.817190e-06 1.290643e-02 -1.289062e-01 1.289062e-01
-7.124262e-01 8.841035e-01 -2.355469e+00 1.531250e+00 1.259050e-04 1.319578e-02 -1.289062e-01 1.289062e-01
-7.111153e-01 8.831060e-01 -2.347656e+00 1.523438e+00 7.584124e-05 1.308766e-02 -1.289062e-01 1.289062e-01
-7.122732e-01 8.850676e-01 -2.355469e+00 1.535156e+00 8.180628e-05 1.305251e-02 -1.289062e-01 1.289062e-01
-7.108703e-01 8.854511e-01 -2.378906e+00 1.574219e+00 7.733250e-05 1.312753e-02 -1.289062e-01 1.289062e-01
-7.108685e-01 8.842170e-01 -2.367188e+00 1.535156e+00 1.708558e-04 1.336559e-02 -1.289062e-01 1.289062e-01
-7.123316e-01 8.828728e-01 -2.378906e+00 1.554688e+00 9.501459e-05 1.320002e-02 -1.289062e-01 1.289062e-01
-7.117708e-01 8.835490e-01 -2.355469e+00 1.535156e+00 1.680863e-04 1.338983e-02 -1.289062e-01 1.289062e-01
-7.136841e-01 8.851339e-01 -2.378906e+00 1.574219e+00 1.091816e-04 1.321155e-02 -1.289062e-01 1.289062e-01
-7.123997e-01 8.838903e-01 -2.378906e+00 1.574219e+00 1.513629e-04 1.329026e-02 -1.289062e-01 1.289062e-01
-7.095355e-01 8.834438e-01 -2.367188e+00 1.574219e+00 1.378351e-04 1.329747e-02 -1.289062e-01 1.289062e-01
-7.107995e-01 8.848300e-01 -2.347656e+00 1.574219e+00 4.069010e-05 1.296119e-02 -1.289062e-01 1.289062e-01
-7.114001e-01 8.840965e-01 -2.355469e+00 1.519531e+00 2.000419e-04 1.346454e-02 -1.289062e-01 1.289062e-01
-7.119848e-01 8.822716e-01 -2.367188e+00 1.535156e+00 9.117992e-05 1.307287e-02 -1.289062e-01 1.289062e-01
-7.108977e-01 8.848152e-01 -2.378906e+00 1.554688e+00 1.140814e-04 1.316371e-02 -1.289062e-01 1.289062e-01
-7.118636e-01 8.823887e-01 -2.378906e+00 1.574219e+00 8.116717e-05 1.312094e-02 -1.289062e-01 1.289062e-01
-7.127128e-01 8.839693e-01 -2.378906e+00 1.574219e+00 1.079033e-04 1.321496e-02 -1.289062e-01 1.289062e-01
-7.129074e-01 8.824461e-01 -2.367188e+00 1.535156e+00 1.566889e-04 1.332144e-02 -1.289062e-01 1.289062e-01
-7.111321e-01 8.848206e-01 -2.367188e+00 1.574219e+00 4.644211e-05 1.293732e-02 -1.289062e-01 1.289062e-01
-7.085713e-01 8.846934e-01 -2.378906e+00 1.574219e+00 -2.716224e-05 1.274567e-02 -1.289062e-01 1.289062e-01
-7.116000e-01 8.839922e-01 -2.367188e+00 1.519531e+00 1.212182e-04 1.321634e-02 -1.289062e-01 1.289062e-01
-7.129764e-01 8.831480e-01 -2.367188e+00 1.574219e+00 1.076903e-04 1.318069e-02 -1.289062e-01 1.289062e-01
-7.123475e-01 8.835101e-01 -2.347656e+00 1.535156e+00 1.001275e-04 1.314793e-02 -1.289062e-01 1.289062e-01
-7.111772e-01 8.841606e-01 -2.367188e+00 1.527344e+00 5.443100e-05 1.301756e-02 -1.289062e-01 1.289062e-01
-7.127119e-01 8.831090e-01 -2.378906e+00 1.554688e+00 1.779926e-04 1.335580e-02 -1.289062e-01 1.289062e-01
-7.113780e-01 8.835236e-01 -2.378906e+00 1.554688e+00 1.441197e-04 1.328756e-02 -1.289062e-01 1.289062e-01
-7.137274e-01 8.835582e-01 -2.367188e+00 1.535156e+00 1.612692e-04 1.335908e-02 -1.289062e-01 1.289062e-01
-7.124483e-01 8.846349e-01 -2.378906e+00 1.574219e+00 1.069447e-04 1.319721e-02 -1.289062e-01 1.289062e-01
-7.109216e-01 8.828909e-01 -2.378906e+00 1.574219e+00 -4.260744e-06 1.281406e-02 -1.289062e-01 1.289062e-01
-7.103687e-01 8.833832e-01 -2.367188e+00 1.574219e+00 -5.432448e-05 1.270011e-02 -1.289062e-01 1.289062e-01
-7.113992e-01 8.839885e-01 -2.378906e+00 1.574219e+00 1.663820e-04 1.336210e-02 -1.289062e-01 1.289062e-01
-7.097124e-01 8.854226e-01 -2.378906e+00 1.574219e+00 1.463566e-04 1.328720e-02 -1.289062e-01 1.289062e-01
-7.112338e-01 8.845422e-01 -2.347656e+00 1.574219e+00 8.489532e-05 1.310824e-02 -1.289062e-01 1.289062e-01
-7.112666e-01 8.862331e-01 -2.378906e+00 1.554688e+00 1.694711e-04 1.331869e-02 -1.289062e-01 1.289062e-01
-7.120494e-01 8.846386e-01 -2.347656e+00 1.574219e+00 1.082229e-04 1.314156e-02 -1.289062e-01 1.289062e-01
-7.105085e-01 8.831424e-01 -2.367188e+00 1.531250e+00 6.849146e-05 1.305981e-02 -1.289062e-01 1.289062e-01
-7.113727e-01 8.835611e-01 -2.378906e+00 1.554688e+00 4.303351e-05 1.298879e-02 -1.289062e-01 1.289062e-01
-7.113709e-01 8.829299e-01 -2.378906e+00 1.574219e+00 -1.171705e-05 1.280587e-02 -1.289062e-01 1.289062e-01
-7.087270e-01 8.844660e-01 -2.378906e+00 1.554688e+00 8.990170e-05 1.307791e-02 -1.289062e-01 1.289062e-01
-7.119070e-01 8.841663e-01 -2.378906e+00 1.574219e+00 6.241990e-05 1.304159e-02 -1.289062e-01 1.289062e-01
-7.088588e-01 8.844958e-01 -2.378906e+00 1.554688e+00 8.755829e-05 1.309706e-02 -1.289062e-01 1.289062e-01
-7.119901e-01 8.824673e-01 -2.347656e+00 1.574219e+00 5.869175e-05 1.303026e-02 -1.289062e-01 1.289062e-01
-7.106385e-01 8.866565e-01 -2.367188e+00 1.574219e+00 1.891770e-04 1.341023e-02 -1.289062e-01 1.289062e-01
-7.124404e-01 8.846530e-01 -2.367188e+00 1.535156e+00 8.084762e-05 1.308463e-02 -1.289062e-01 1.289062e-01
-7.105182e-01 8.839645e-01 -2.367188e+00 1.535156e+00 1.110989e-04 1.316275e-02 -1.289062e-01 1.289062e-01
-7.109357e-01 8.849182e-01 -2.367188e+00 1.574219e+00 1.063056e-04 1.320677e-02 -1.289062e-01 1.289062e-01
-7.124952e-01 8.849149e-01 -2.378906e+00 1.574219e+00 3.855973e-05 1.304286e-02 -1.289062e-01 1.289062e-01
-7.112498e-01 8.838939e-01 -2.378906e+00 1.574219e+00 6.316553e-05 1.303972e-02 -1.289062e-01 1.289062e-01
-7.128066e-01 8.837234e-01 -2.355469e+00 1.531250e+00 9.906230e-05 1.317345e-02 -1.289062e-01 1.289062e-01
-7.119079e-01 8.855826e-01 -2.378906e+00 1.554688e+00 6.614805e-05 1.309647e-02 -1.289062e-01 1.289062e-01
-7.099468e-01 8.838450e-01 -2.378906e+00 1.574219e+00 1.320831e-04 1.326444e-02 -1.289062e-01 1.289062e-01
-7.115921e-01 8.845334e-01 -2.347656e+00 1.574219e+00 1.802295e-04 1.335691e-02 -1.289062e-01 1.289062e-01
-7.095629e-01 8.841365e-01 -2.367188e+00 1.523438e+00 3.440551e-05 1.293632e-02 -1.289062e-01 1.289062e-01
-7.106518e-01 8.838758e-01 -2.347656e+00 1.574219e+00 9.267118e-05 1.318044e-02 -1.289062e-01 1.289062e-01
-7.111595e-01 8.862267e-01 -2.378906e+00 1.554688e+00 8.372362e-05 1.308749e-02 -1.289062e-01 1.289062e-01
-7.121936e-01 8.855769e-01 -2.367188e+00 1.574219e+00 8.798436e-05 1.308924e-02 -1.289062e-01 1.289062e-01
-7.130746e-01 8.858428e-01 -2.378906e+00 1.554688e+00 1.853424e-04 1.337639e-02 -1.289062e-01 1.289062e-01
-7.123997e-01 8.838261e-01 -2.378906e+00 1.554688e+00 1.367699e-04 1.327703e-02 -1.289062e-01 1.289062e-01
-7.116390e-01 8.851534e-01 -2.367188e+00 1.523438e+00 1.718145e-04 1.342573e-02 -1.289062e-01 1.289062e-01
-7.113064e-01 8.835390e-01 -2.367188e+00 1.531250e+00 9.586674e-05 1.308915e-02 -1.289062e-01 1.289062e-01
-7.092250e-01 8.845617e-01 -2.378906e+00 1.574219e+00 9.213859e-05 1.311483e-02 -1.289062e-01 1.289062e-01
-7.127013e-01 8.833215e-01 -2.378906e+00 1.554688e+00 7.786509e-05 1.308182e-02 -1.289062e-01 1.289062e-01
-7.106766e-01 8.835680e-01 -2.378906e+00 1.574219e+00 3.824018e-05 1.296612e-02 -1.289062e-01 1.289062e-01
-7.120892e-01 8.808129e-01 -2.378906e+00 1.554688e+00 1.223899e-04 1.324719e-02 -1.289062e-01 1.289062e-01
-7.101883e-01 8.824700e-01 -2.378906e+00 1.554688e+00 1.493391e-04 1.330926e-02 -1.289062e-01 1.289062e-01
-7.125916e-01 8.832562e-01 -2.378906e+00 1.574219e+00 2.236891e-05 1.286239e-02 -1.289062e-01 1.289062e-01
-7.102688e-01 8.835662e-01 -2.367188e+00 1.574219e+00 9.117992e-05 1.315128e-02 -1.289062e-01 1.289062e-01
-7.109304e-01 8.852537e-01 -2.378906e+00 1.574219e+00 2.257129e-04 1.354395e-02 -1.289062e-01 1.289062e-01
-7.119733e-01 8.818166e-01 -2.367188e+00 1.574219e+00 6.391116e-07 1.288436e-02 -1.289062e-01 1.289062e-01
-7.119088e-01 8.843100e-01 -2.367188e+00 1.574219e+00 1.478478e-04 1.333542e-02 -1.289062e-01 1.289062e-01
-7.096053e-01 8.821719e-01 -2.367188e+00 1.535156e+00 6.774583e-05 1.302164e-02 -1.289062e-01 1.289062e-01
-7.119433e-01 8.849548e-01 -2.355469e+00 1.574219e+00 2.204935e-05 1.290301e-02 -1.289062e-01 1.289062e-01
-7.121272e-01 8.848477e-01 -2.367188e+00 1.515625e+00 1.350656e-04 1.330694e-02 -1.289062e-01 1.289062e-01
-7.124643e-01 8.851748e-01 -2.378906e+00 1.574219e+00 1.345330e-04 1.322872e-02 -1.289062e-01 1.289062e-01
-7.105624e-01 8.842207e-01 -2.367188e+00 1.574219e+00 1.518955e-04 1.330392e-02 -1.289062e-01 1.289062e-01
-7.114514e-01 8.844802e-01 -2.378906e+00 1.554688e+00 1.312309e-04 1.327273e-02 -1.289062e-01 1.289062e-01
-7.116213e-01 8.834938e-01 -2.378906e+00 1.574219e+00 9.224511e-05 1.308769e-02 -1.289062e-01 1.289062e-01
-7.105872e-01 8.843756e-01 -2.378906e+00 1.554688e+00 1.115250e-04 1.314424e-02 -1.289062e-01 1.289062e-01
-7.113833e-01 8.850682e-01 -2.367188e+00 1.527344e+00 1.667016e-04 1.337973e-02 -1.289062e-01 1.289062e-01
-7.119088e-01 8.837085e-01 -2.347656e+00 1.527344e+00 6.252642e-05 1.302634e-02 -1.289062e-01 1.289062e-01
-7.130092e-01 8.841039e-01 -2.367188e+00 1.574219e+00 1.267571e-05 1.290309e-02 -1.289062e-01 1.289062e-01
-7.133745e-01 8.848478e-01 -2.378906e+00 1.554688e+00 7.584124e-05 1.304882e-02 -1.289062e-01 1.289062e-01
-7.088340e-01 8.827916e-01 -2.367188e+00 1.574219e+00 1.346395e-04 1.321259e-02 -1.289062e-01 1.289062e-01
-7.107455e-01 8.839707e-01 -2.367188e+00 1.574219e+00 8.734525e-05 1.306325e-02 -1.289062e-01 1.289062e-01
-7.095620e-01 8.815685e-01 -2.378906e+00 1.554688e+00 -6.998272e-05 1.260194e-02 -1.289062e-01 1.289062e-01
-7.105757e-01 8.870766e-01 -2.347656e+00 1.535156e+00 1.880053e-04 1.342211e-02 -1.289062e-01 1.289062e-01
-7.124192e-01 8.825812e-01 -2.367188e+00 1.535156e+00 1.499782e-04 1.327661e-02 -1.289062e-01 1.289062e-01
-7.114373e-01 8.853487e-01 -2.355469e+00 1.574219e+00 1.056664e-04 1.318710e-02 -1.289062e-01 1.289062e-01
-7.097265e-01 8.838549e-01 -2.355469e+00 1.574219e+00 -1.203660e-05 1.276657e-02 -1.289062e-01 1.289062e-01
-7.110242e-01 8.840029e-01 -2.378906e+00 1.574219e+00 9.970141e-05 1.317824e-02 -1.289062e-01 1.289062e-01
-7.106677e-01 8.845388e-01 -2.378906e+00 1.574219e+00 1.268636e-04 1.320455e-02 -1.289062e-01 1.289062e-01
-7.113718e-01 8.843223e-01 -2.378906e+00 1.574219e+00 1.342134e-05 1.286639e-02 -1.289062e-01 1.289062e-01
-7.109808e-01 8.821418e-01 -2.378906e+00 1.574219e+00 3.515114e-05 1.289148e-02 -1.289062e-01 1.289062e-01
-7.114249e-01 8.845492e-01 -2.378906e+00 1.554688e+00 1.528542e-04 1.332876e-02 -1.289062e-01 1.289062e-01
-7.096204e-01 8.841415e-01 -2.378906e+00 1.574219e+00 9.331029e-05 1.315323e-02 -1.289062e-01 1.289062e-01
-7.109118e-01 8.848513e-01 -2.367188e+00 1.531250e+00 2.270976e-04 1.349874e-02 -1.289062e-01 1.289062e-01
-7.098911e-01 8.840188e-01 -2.378906e+00 1.574219e+00 1.370894e-04 1.329299e-02 -1.289062e-01 1.289062e-01
-7.115594e-01 8.843332e-01 -2.378906e+00 1.554688e+00 1.597779e-04 1.333073e-02 -1.289062e-01 1.289062e-01
-7.105492e-01 8.841566e-01 -2.347656e+00 1.535156e+00 1.031100e-04 1.317016e-02 -1.289062e-01 1.289062e-01
-7.122891e-01 8.857796e-01 -2.378906e+00 1.574219e+00 1.815077e-04 1.335599e-02 -1.289062e-01 1.289062e-01
-7.092144e-01 8.830205e-01 -2.355469e+00 1.574219e+00 8.223236e-05 1.311738e-02 -1.289062e-01 1.289062e-01
-7.098574e-01 8.830974e-01 -2.378906e+00 1.554688e+00 5.006374e-06 1.283669e-02 -1.289062e-01 1.289062e-01
-7.106332e-01 8.831752e-01 -2.378906e+00 1.574219e+00 5.624182e-05 1.300212e-02 -1.289062e-01 1.289062e-01
-7.130437e-01 8.845809e-01 -2.378906e+00 1.574219e+00 3.600329e-05 1.294854e-02 -1.289062e-01 1.289062e-01
-7.104103e-01 8.834921e-01 -2.355469e+00 1.535156e+00 9.735800e-05 1.310763e-02 -1.289062e-01 1.289062e-01
-7.104625e-01 8.837390e-01 -2.367188e+00 1.574219e+00 9.661237e-05 1.311597e-02 -1.289062e-01 1.289062e-01
-7.103342e-01 8.816691e-01 -2.378906e+00 1.554688e+00 4.878552e-05 1.295772e-02 -1.289062e-01 1.289062e-01
-7.085527e-01 8.835481e-01 -2.367188e+00 1.531250e+00 1.287810e-04 1.326932e-02 -1.289062e-01 1.289062e-01
-7.097566e-01 8.852960e-01 -2.355469e+00 1.535156e+00 1.720275e-04 1.334397e-02 -1.289062e-01 1.289062e-01
-7.119008e-01 8.832008e-01 -2.378906e+00 1.574219e+00 1.712819e-04 1.335023e-02 -1.289062e-01 1.289062e-01
-7.114789e-01 8.842305e-01 -2.347656e+00 1.574219e+00 2.479753e-04 1.355282e-02 -1.289062e-01 1.289062e-01
-7.122520e-01 8.830260e-01 -2.378906e+00 1.574219e+00 1.363438e-05 1.283365e-02 -1.289062e-01 1.289062e-01
-7.120140e-01 8.845957e-01 -2.378906e+00 1.554688e+00 1.649973e-04 1.329217e-02 -1.289062e-01 1.289062e-01
-7.104722e-01 8.838975e-01 -2.347656e+00 1.574219e+00 4.899855e-06 1.279557e-02 -1.289062e-01 1.289062e-01
-7.104280e-01 8.839359e-01 -2.378906e+00 1.574219e+00 1.070512e-04 1.321642e-02 -1.289062e-01 1.289062e-01
-7.131631e-01 8.852469e-01 -2.378906e+00 1.574219e+00 1.100337e-04 1.314919e-02 -1.289062e-01 1.289062e-01
-7.121706e-01 8.836971e-01 -2.355469e+00 1.535156e+00 1.653169e-04 1.345119e-02 -1.289062e-01 1.289062e-01
-7.115169e-01 8.843535e-01 -2.378906e+00 1.574219e+00 1.342134e-05 1.286726e-02 -1.289062e-01 1.289062e-01
-7.100467e-01 8.830719e-01 -2.378906e+00 1.574219e+00 6.817190e-05 1.308443e-02 -1.289062e-01 1.289062e-01
-7.099609e-01 8.837727e-01 -2.347656e+00 1.574219e+00 1.230290e-04 1.331039e-02 -1.289062e-01 1.289062e-01
-7.117363e-01 8.835266e-01 -2.367188e+00 1.519531e+00 7.339131e-05 1.306520e-02 -1.289062e-01 1.289062e-01
-7.119158e-01 8.830304e-01 -2.347656e+00 1.531250e+00 8.223236e-05 1.310637e-02 -1.289062e-01 1.289062e-01
-7.097946e-01 8.855221e-01 -2.367188e+00 1.531250e+00 2.212391e-04 1.349762e-02 -1.289062e-01 1.289062e-01
-7.109800e-01 8.839548e-01 -2.347656e+00 1.531250e+00 1.832120e-05 1.285260e-02 -1.289062e-01 1.289062e-01
-7.111976e-01 8.826785e-01 -2.378906e+00 1.554688e+00 2.142089e-04 1.353040e-02 -1.289062e-01 1.289062e-01
-7.082139e-01 8.827168e-01 -2.378906e+00 1.554688e+00 -1.022579e-05 1.278346e-02 -1.289062e-01 1.289062e-01
-7.107455e-01 8.851708e-01 -2.367188e+00 1.535156e+00 1.713884e-04 1.340350e-02 -1.289062e-01 1.289062e-01
-7.135620e-01 8.847155e-01 -2.378906e+00 1.554688e+00 8.862347e-05 1.304877e-02 -1.289062e-01 1.289062e-01
-7.115788e-01 8.843466e-01 -2.378906e+00 1.574219e+00 2.101612e-04 1.353618e-02 -1.289062e-01 1.289062e-01
-7.124130e-01 8.845793e-01 -2.378906e+00 1.574219e+00 1.203660e-04 1.315706e-02 -1.289062e-01 1.289062e-01
-7.129101e-01 8.843423e-01 -2.367188e+00 1.574219e+00 1.746905e-05 1.290036e-02 -1.289062e-01 1.289062e-01
-7.115063e-01 8.816394e-01 -2.378906e+00 1.554688e+00 7.083487e-05 1.305390e-02 -1.289062e-01 1.289062e-01
-7.102891e-01 8.847627e-01 -2.367188e+00 1.574219e+00 2.929261e-05 1.291073e-02 -1.289062e-01 1.289062e-01
-7.107022e-01 8.832349e-01 -2.355469e+00 1.527344e+00 8.319102e-05 1.313340e-02 -1.289062e-01 1.289062e-01
-7.120972e-01 8.854756e-01 -2.367188e+00 1.527344e+00 1.097142e-05 1.286197e-02 -1.289062e-01 1.289062e-01
-7.136859e-01 8.838467e-01 -2.367188e+00 1.574219e+00 1.074773e-04 1.314339e-02 -1.289062e-01 1.289062e-01
-7.102776e-01 8.813494e-01 -2.378906e+00 1.554688e+00 1.107793e-05 1.286720e-02 -1.289062e-01 1.289062e-01
-7.101812e-01 8.833779e-01 -2.347656e+00 1.535156e+00 1.535998e-04 1.334530e-02 -1.289062e-01 1.289062e-01
-7.090286e-01 8.860324e-01 -2.378906e+00 1.574219e+00 9.650585e-05 1.319127e-02 -1.289062e-01 1.289062e-01
-7.126792e-01 8.850943e-01 -2.347656e+00 1.527344e+00 1.669146e-04 1.339042e-02 -1.289062e-01 1.289062e-01
-7.114116e-01 8.843138e-01 -2.367188e+00 1.574219e+00 5.496360e-05 1.308577e-02 -1.289062e-01 1.289062e-01
-7.126465e-01 8.826779e-01 -2.367188e+00 1.519531e+00 5.656138e-05 1.300425e-02 -1.289062e-01 1.289062e-01
-7.107287e-01 8.854278e-01 -2.378906e+00 1.554688e+00 2.541534e-04 1.358175e-02 -1.289062e-01 1.289062e-01
-7.139946e-01 8.822764e-01 -2.367188e+00 1.574219e+00 8.830392e-05 1.308465e-02 -1.289062e-01 1.289062e-01
-7.114152e-01 8.841789e-01 -2.367188e+00 1.574219e+00 9.117992e-05 1.312176e-02 -1.289062e-01 1.289062e-01
-7.105748e-01 8.845782e-01 -2.347656e+00 1.574219e+00 9.586674e-06 1.288016e-02 -1.289062e-01 1.289062e-01
-7.119804e-01 8.825857e-01 -2.378906e+00 1.574219e+00 1.171705e-05 1.285623e-02 -1.289062e-01 1.289062e-01
-7.107314e-01 8.844804e-01 -2.378906e+00 1.554688e+00 1.243072e-04 1.325565e-02 -1.289062e-01 1.289062e-01
-7.114629e-01 8.835518e-01 -2.355469e+00 1.535156e+00 5.357885e-05 1.302600e-02 -1.289062e-01 1.289062e-01
-7.122299e-01 8.846864e-01 -2.347656e+00 1.574219e+00 2.132502e-04 1.350562e-02 -1.289062e-01 1.289062e-01
-7.095514e-01 8.851276e-01 -2.347656e+00 1.574219e+00 1.182356e-04 1.319958e-02 -1.289062e-01 1.289062e-01
-7.116177e-01 8.830651e-01 -2.378906e+00 1.554688e+00 7.552169e-05 1.308244e-02 -1.289062e-01 1.289062e-01
-7.108358e-01 8.832243e-01 -2.367188e+00 1.527344e+00 1.189813e-04 1.319769e-02 -1.289062e-01 1.289062e-01
-7.129225e-01 8.853199e-01 -2.378906e+00 1.554688e+00 9.874274e-05 1.318644e-02 -1.289062e-01 1.289062e-01
-7.107889e-01 8.851090e-01 -2.367188e+00 1.574219e+00 8.713221e-05 1.315362e-02 -1.289062e-01 1.289062e-01
-7.115231e-01 8.836954e-01 -2.378906e+00 1.554688e+00 6.966316e-05 1.306950e-02 -1.289062e-01 1.289062e-01
-7.105341e-01 8.843563e-01 -2.355469e+00 1.531250e+00 1.620148e-04 1.332893e-02 -1.289062e-01 1.289062e-01
-7.123696e-01 8.843888e-01 -2.378906e+00 1.554688e+00 1.490195e-04 1.330815e-02 -1.289062e-01 1.289062e-01
-7.119335e-01 8.854691e-01 -2.378906e+00 1.574219e+00 1.238811e-04 1.323316e-02 -1.289062e-01 1.289062e-01
-7.107190e-01 8.853110e-01 -2.367188e+00 1.535156e+00 2.417972e-04 1.365695e-02 -1.289062e-01 1.289062e-01
-7.106482e-01 8.840666e-01 -2.367188e+00 1.535156e+00 1.140814e-04 1.318938e-02 -1.289062e-01 1.289062e-01
-7.104076e-01 8.857221e-01 -2.367188e+00 1.574219e+00 1.508303e-04 1.337004e-02 -1.289062e-01 1.289062e-01
-7.108835e-01 8.836581e-01 -2.347656e+00 1.531250e+00 9.703844e-05 1.316141e-02 -1.289062e-01 1.289062e-01
-7.108818e-01 8.847696e-01 -2.378906e+00 1.574219e+00 1.006601e-04 1.314458e-02 -1.289062e-01 1.289062e-01
-7.118451e-01 8.846139e-01 -2.355469e+00 1.574219e+00 1.608431e-04 1.337045e-02 -1.289062e-01 1.289062e-01
-7.112630e-01 8.845880e-01 -2.367188e+00 1.574219e+00 9.213859e-05 1.314142e-02 -1.289062e-01 1.289062e-01
-7.122537e-01 8.843064e-01 -2.347656e+00 1.535156e+00 5.911782e-05 1.296460e-02 -1.289062e-01 1.289062e-01
-7.105872e-01 8.861641e-01 -2.378906e+00 1.574219e+00 7.232613e-05 1.307316e-02 -1.289062e-01 1.289062e-01
-7.124828e-01 8.824688e-01 -2.378906e+00 1.554688e+00 4.995722e-05 1.301994e-02 -1.289062e-01 1.289062e-01
-7.109136e-01 8.841576e-01 -2.378906e+00 1.554688e+00 1.201530e-04 1.323607e-02 -1.289062e-01 1.289062e-01
-7.129198e-01 8.822991e-01 -2.367188e+00 1.574219e+00 7.765206e-05 1.308249e-02 -1.289062e-01 1.289062e-01
-7.119486e-01 8.838652e-01 -2.367188e+00 1.515625e+00 2.459514e-04 1.357459e-02 -1.289062e-01 1.289062e-01
-7.115779e-01 8.842339e-01 -2.378906e+00 1.554688e+00 1.808686e-04 1.341239e-02 -1.289062e-01 1.289062e-01
-7.132347e-01 8.831659e-01 -2.367188e+00 1.527344e+00 8.904955e-05 1.311445e-02 -1.289062e-01 1.289062e-01
-7.121379e-01 8.845563e-01 -2.378906e+00 1.554688e+00 7.456302e-05 1.314490e-02 -1.289062e-01 1.289062e-01
-7.106040e-01 8.825597e-01 -2.378906e+00 1.554688e+00 5.443100e-05 1.296494e-02 -1.289062e-01 1.289062e-01
-7.111639e-01 8.826451e-01 -2.355469e+00 1.527344e+00 -2.865350e-05 1.275367e-02 -1.289062e-01 1.289062e-01
-7.111816e-01 8.835864e-01 -2.367188e+00 1.531250e+00 9.426896e-05 1.317843e-02 -1.289062e-01 1.289062e-01
-7.111772e-01 8.816628e-01 -2.367188e+00 1.574219e+00 1.661690e-05 1.283397e-02 -1.289062e-01 1.289062e-01
-7.120069e-01 8.834254e-01 -2.378906e+00 1.554688e+00 7.999547e-05 1.307181e-02 -1.289062e-01 1.289062e-01
-7.099618e-01 8.857244e-01 -2.378906e+00 1.574219e+00 1.882184e-04 1.341550e-02 -1.289062e-01 1.289062e-01
-7.125430e-01 8.838949e-01 -2.378906e+00 1.574219e+00 1.006601e-04 1.314968e-02 -1.289062e-01 1.289062e-01
-7.114594e-01 8.839260e-01 -2.355469e+00 1.574219e+00 3.802714e-05 1.297991e-02 -1.289062e-01 1.289062e-01
-7.108216e-01 8.843152e-01 -2.378906e+00 1.574219e+00 1.832120e-05 1.290629e-02 -1.289062e-01 1.289062e-01
-7.088561e-01 8.829867e-01 -2.378906e+00 1.574219e+00 1.105663e-04 1.319170e-02 -1.289062e-01 1.289062e-01
-7.103581e-01 8.849184e-01 -2.378906e+00 1.574219e+00 8.106065e-05 1.311944e-02 -1.289062e-01 1.289062e-01
-7.107119e-01 8.822041e-01 -2.355469e+00 1.535156e+00 5.272671e-05 1.303664e-02 -1.289062e-01 1.289062e-01
-7.112745e-01 8.837976e-01 -2.367188e+00 1.519531e+00 9.341681e-05 1.311196e-02 -1.289062e-01 1.289062e-01
-7.115001e-01 8.850793e-01 -2.347656e+00 1.523438e+00 1.136553e-04 1.326513e-02 -1.289062e-01 1.289062e-01
-7.112630e-01 8.829778e-01 -2.367188e+00 1.574219e+00 9.437548e-05 1.310407e-02 -1.289062e-01 1.289062e-01
-7.091215e-01 8.825333e-01 -2.355469e+00 1.574219e+00 4.292699e-05 1.300315e-02 -1.289062e-01 1.289062e-01
-7.105978e-01 8.826791e-01 -2.378906e+00 1.574219e+00 4.047707e-06 1.286946e-02 -1.289062e-01 1.289062e-01
-7.115452e-01 8.846113e-01 -2.378906e+00 1.554688e+00 2.115459e-04 1.345206e-02 -1.289062e-01 1.289062e-01
-7.112542e-01 8.851089e-01 -2.378906e+00 1.554688e+00 7.807813e-05 1.306778e-02 -1.289062e-01 1.289062e-01
-7.102396e-01 8.843929e-01 -2.378906e+00 1.574219e+00 1.276093e-04 1.322364e-02 -1.289062e-01 1.289062e-01
-7.120184e-01 8.840050e-01 -2.378906e+00 1.554688e+00 8.915607e-05 1.309024e-02 -1.289062e-01 1.289062e-01
-7.133143e-01 8.841209e-01 -2.378906e+00 1.574219e+00 1.505108e-04 1.325171e-02 -1.289062e-01 1.289062e-01
-7.102475e-01 8.855769e-01 -2.378906e+00 1.574219e+00 2.234760e-04 1.351740e-02 -1.289062e-01 1.289062e-01
-7.093488e-01 8.846684e-01 -2.367188e+00 1.574219e+00 1.389003e-04 1.328879e-02 -1.289062e-01 1.289062e-01
-7.119565e-01 8.824098e-01 -2.355469e+00 1.535156e+00 5.219411e-05 1.298132e-02 -1.289062e-01 1.289062e-01
-7.112383e-01 8.847158e-01 -2.367188e+00 1.535156e+00 1.487000e-04 1.332748e-02 -1.289062e-01 1.289062e-01
-7.106137e-01 8.836715e-01 -2.378906e+00 1.574219e+00 1.262245e-04 1.316856e-02 -1.289062e-01 1.289062e-01
-7.131816e-01 8.826677e-01 -2.367188e+00 1.531250e+00 1.215377e-04 1.325354e-02 -1.289062e-01 1.289062e-01
-7.108871e-01 8.813449e-01 -2.355469e+00 1.574219e+00 1.736253e-05 1.298915e-02 -1.289062e-01 1.289062e-01
-7.109587e-01 8.854408e-01 -2.367188e+00 1.574219e+00 2.610771e-04 1.363780e-02 -1.289062e-01 1.289062e-01
-7.094974e-01 8.835071e-01 -2.367188e+00 1.531250e+00 1.303788e-04 1.326449e-02 -1.289062e-01 1.289062e-01
-7.088092e-01 8.837695e-01 -2.367188e+00 1.574219e+00 3.355336e-05 1.301229e-02 -1.289062e-01 1.289062e-01
-7.123121e-01 8.846975e-01 -2.378906e+00 1.574219e+00 1.314439e-04 1.324986e-02 -1.289062e-01 1.289062e-01
-7.115523e-01 8.842872e-01 -2.355469e+00 1.574219e+00 1.016187e-04 1.318700e-02 -1.289062e-01 1.289062e-01
-7.104616e-01 8.843930e-01 -2.367188e+00 1.535156e+00 8.734525e-05 1.309487e-02 -1.289062e-01 1.289062e-01
-7.103316e-01 8.855436e-01 -2.378906e+00 1.574219e+00 8.574747e-05 1.312638e-02 -1.289062e-01 1.289062e-01
-7.090215e-01 8.836939e-01 -2.378906e+00 1.574219e+00 6.518938e-05 1.304052e-02 -1.289062e-01 1.289062e-01
-7.118628e-01 8.828039e-01 -2.367188e+00 1.527344e+00 1.248398e-04 1.319501e-02 -1.289062e-01 1.289062e-01
-7.107854e-01 8.820316e-01 -2.378906e+00 1.574219e+00 -6.774583e-05 1.261975e-02 -1.289062e-01 1.289062e-01
-7.118911e-01 8.846925e-01 -2.347656e+00 1.535156e+00 9.267118e-05 1.316876e-02 -1.289062e-01 1.289062e-01
-7.095549e-01 8.864075e-01 -2.378906e+00 1.554688e+00 1.151466e-04 1.318773e-02 -1.289062e-01 1.289062e-01
-7.113674e-01 8.836399e-01 -2.355469e+00 1.574219e+00 -1.981246e-05 1.272349e-02 -1.289062e-01 1.289062e-01
-7.120140e-01 8.828729e-01 -2.367188e+00 1.574219e+00 4.846596e-05 1.304629e-02 -1.289062e-01 1.289062e-01
-7.103086e-01 8.840582e-01 -2.378906e+00 1.574219e+00 8.809088e-05 1.312703e-02 -1.289062e-01 1.289062e-01
-7.107800e-01 8.830972e-01 -2.355469e+00 1.535156e+00 6.902405e-05 1.306094e-02 -1.289062e-01 1.289062e-01
-7.113329e-01 8.838702e-01 -2.347656e+00 1.535156e+00 1.317635e-04 1.327738e-02 -1.289062e-01 1.289062e-01
-7.108959e-01 8.843325e-01 -2.378906e+00 1.574219e+00 7.594776e-05 1.307766e-02 -1.289062e-01 1.289062e-01
-7.118928e-01 8.821125e-01 -2.347656e+00 1.535156e+00 5.112893e-05 1.301542e-02 -1.289062e-01 1.289062e-01
-7.123563e-01 8.827478e-01 -2.367188e+00 1.574219e+00 1.885379e-04 1.340732e-02 -1.289062e-01 1.289062e-01
-7.118159e-01 8.842092e-01 -2.378906e+00 1.574219e+00 4.218136e-05 1.302149e-02 -1.289062e-01 1.289062e-01
-7.134744e-01 8.831584e-01 -2.378906e+00 1.554688e+00 9.725148e-05 1.314594e-02 -1.289062e-01 1.289062e-01
-7.117212e-01 8.841418e-01 -2.378906e+00 1.574219e+00 7.147398e-05 1.309578e-02 -1.289062e-01 1.289062e-01
-7.105111e-01 8.852559e-01 -2.347656e+00 1.574219e+00 4.058359e-05 1.303183e-02 -1.289062e-01 1.289062e-01
-7.108349e-01 8.829812e-01 -2.367188e+00 1.574219e+00 -5.006374e-06 1.282527e-02 -1.289062e-01 1.289062e-01
-7.111834e-01 8.842491e-01 -2.378906e+00 1.574219e+00 1.343200e-04 1.329674e-02 -1.289062e-01 1.289062e-01
-7.133426e-01 8.838571e-01 -2.378906e+00 1.574219e+00 7.264568e-05 1.300978e-02 -1.289062e-01 1.289062e-01
-7.110118e-01 8.862184e-01 -2.378906e+00 1.574219e+00 6.124819e-05 1.302753e-02 -1.289062e-01 1.289062e-01
-7.107199e-01 8.835242e-01 -2.367188e+00 1.535156e+00 7.434998e-05 1.309768e-02 -1.289062e-01 1.289062e-01
-7.105439e-01 8.848114e-01 -2.378906e+00 1.574219e+00 1.327222e-04 1.326494e-02 -1.289062e-01 1.289062e-01
-7.108729e-01 8.837352e-01 -2.378906e+00 1.554688e+00 7.413694e-05 1.305979e-02 -1.289062e-01 1.289062e-01
-7.106739e-01 8.846003e-01 -2.367188e+00 1.535156e+00 1.672342e-04 1.335595e-02 -1.289062e-01 1.289062e-01
-7.114355e-01 8.849504e-01 -2.355469e+00 1.535156e+00 9.437548e-05 1.310832e-02 -1.289062e-01 1.289062e-01
-7.126376e-01 8.821517e-01 -2.378906e+00 1.554688e+00 6.881101e-05 1.305377e-02 -1.289062e-01 1.289062e-01
-7.106412e-01 8.847872e-01 -2.367188e+00 1.574219e+00 2.022788e-04 1.344906e-02 -1.289062e-01 1.289062e-01
-7.093612e-01 8.859063e-01 -2.378906e+00 1.554688e+00 1.042817e-04 1.316053e-02 -1.289062e-01 1.289062e-01
-7.110339e-01 8.831625e-01 -2.347656e+00 1.574219e+00 1.107793e-05 1.285730e-02 -1.289062e-01 1.289062e-01
-7.132621e-01 8.852549e-01 -2.378906e+00 1.554688e+00 1.177031e-04 1.319682e-02 -1.289062e-01 1.289062e-01
-7.117504e-01 8.842228e-01 -2.367188e+00 1.574219e+00 2.045157e-05 1.295683e-02 -1.289062e-01 1.289062e-01
-7.125173e-01 8.823086e-01 -2.355469e+00 1.535156e+00 4.122270e-05 1.299669e-02 -1.289062e-01 1.289062e-01
-7.116487e-01 8.828912e-01 -2.367188e+00 1.574219e+00 1.459305e-04 1.324603e-02 -1.289062e-01 1.289062e-01
-7.122281e-01 8.850243e-01 -2.378906e+00 1.574219e+00 1.400720e-04 1.331660e-02 -1.289062e-01 1.289062e-01
-7.123714e-01 8.839216e-01 -2.367188e+00 1.531250e+00 9.011473e-05 1.315170e-02 -1.289062e-01 1.289062e-01
-7.093860e-01 8.838308e-01 -2.378906e+00 1.554688e+00 7.381739e-05 1.305038e-02 -1.289062e-01 1.289062e-01
-7.129048e-01 8.849607e-01 -2.378906e+00 1.574219e+00 6.380464e-05 1.308247e-02 -1.289062e-01 1.289062e-01
-7.112772e-01 8.843269e-01 -2.378906e+00 1.574219e+00 1.169574e-04 1.324211e-02 -1.289062e-01 1.289062e-01
-7.116381e-01 8.845347e-01 -2.367188e+00 1.574219e+00 1.324026e-04 1.320466e-02 -1.289062e-01 1.289062e-01
-7.103537e-01 8.839943e-01 -2.347656e+00 1.535156e+00 9.000821e-05 1.305643e-02 -1.289062e-01 1.289062e-01
-7.114037e-01 8.832491e-01 -2.378906e+00 1.574219e+00 3.312728e-05 1.285627e-02 -1.289062e-01 1.289062e-01
-7.097327e-01 8.844148e-01 -2.355469e+00 1.574219e+00 -2.876002e-06 1.280579e-02 -1.289062e-01 1.289062e-01
-7.110436e-01 8.851322e-01 -2.355469e+00 1.574219e+00 1.198334e-04 1.326583e-02 -1.289062e-01 1.289062e-01
-7.117955e-01 8.830577e-01 -2.367188e+00 1.519531e+00 9.767755e-05 1.312959e-02 -1.289062e-01 1.289062e-01
-7.109322e-01 8.848587e-01 -2.378906e+00 1.574219e+00 1.327222e-04 1.323643e-02 -1.289062e-01 1.289062e-01
-7.116965e-01 8.840613e-01 -2.355469e+00 1.535156e+00 8.383014e-05 1.304888e-02 -1.289062e-01 1.289062e-01
-7.120591e-01 8.864779e-01 -2.378906e+00 1.574219e+00 1.480609e-04 1.332683e-02 -1.289062e-01 1.289062e-01
-7.118990e-01 8.832597e-01 -2.378906e+00 1.574219e+00 4.782685e-05 1.298917e-02 -1.289062e-01 1.289062e-01
-7.105448e-01 8.828329e-01 -2.367188e+00 1.574219e+00 1.271832e-04 1.324688e-02 -1.289062e-01 1.289062e-01
-7.103917e-01 8.845513e-01 -2.378906e+00 1.554688e+00 9.938185e-05 1.310719e-02 -1.289062e-01 1.289062e-01
-7.123289e-01 8.856219e-01 -2.378906e+00 1.574219e+00 1.722406e-04 1.334291e-02 -1.289062e-01 1.289062e-01
-7.107703e-01 8.837908e-01 -2.378906e+00 1.574219e+00 3.877277e-05 1.300849e-02 -1.289062e-01 1.289062e-01
-7.122051e-01 8.852170e-01 -2.367188e+00 1.574219e+00 1.051339e-04 1.318639e-02 -1.289062e-01 1.289062e-01
-7.107217e-01 8.841773e-01 -2.367188e+00 1.574219e+00 5.794612e-05 1.301692e-02 -1.289062e-01 1.289062e-01
-7.097106e-01 8.853307e-01 -2.378906e+00 1.574219e+00 1.613757e-04 1.341284e-02 -1.289062e-01 1.289062e-01
-7.116912e-01 8.848000e-01 -2.378906e+00 1.574219e+00 9.586674e-05 1.321217e-02 -1.289062e-01 1.289062e-01
-7.109738e-01 8.850728e-01 -2.367188e+00 1.574219e+00 4.772033e-05 1.298015e-02 -1.289062e-01 1.289062e-01
-7.097973e-01 8.862748e-01 -2.378906e+00 1.554688e+00 1.701102e-04 1.329733e-02 -1.289062e-01 1.289062e-01
-7.096133e-01 8.826648e-01 -2.355469e+00 1.531250e+00 -2.620357e-05 1.280851e-02 -1.289062e-01 1.289062e-01
-7.129773e-01 8.843958e-01 -2.347656e+00 1.574219e+00 8.297799e-05 1.312729e-02 -1.289062e-01 1.289062e-01
-7.114373e-01 8.863223e-01 -2.367188e+00 1.527344e+00 1.538129e-04 1.331224e-02 -1.289062e-01 1.289062e-01
-7.114452e-01 8.851692e-01 -2.367188e+00 1.574219e+00 7.658687e-05 1.308939e-02 -1.289062e-01 1.289062e-01
