7.600366e+01 6.302083e-01 1.372383e-01 5.591240e-01 -9.594421e-01 9.913025e-01
5.686687e+01 3.697917e-01 1.187500e-01 5.645979e-01 -1.095444e+00 9.810944e-01
5.750333e+01 3.697917e-01 1.174800e-01 5.655052e-01 -1.139755e+00 9.810944e-01
5.744159e+01 3.697917e-01 1.161944e-01 5.664008e-01 -1.139755e+00 9.808807e-01
5.750333e+01 3.697917e-01 1.161706e-01 5.664087e-01 -1.139725e+00 9.807434e-01
5.611337e+01 3.697917e-01 1.155027e-01 5.647856e-01 -1.088104e+00 9.735565e-01
5.662242e+01 3.697917e-01 1.157638e-01 5.659094e-01 -1.118088e+00 9.739532e-01
5.663190e+01 3.697917e-01 1.157546e-01 5.659228e-01 -1.118088e+00 9.739532e-01
5.663190e+01 3.697917e-01 1.157431e-01 5.659210e-01 -1.115463e+00 9.730835e-01
5.943105e+01 3.697917e-01 1.164863e-01 5.686222e-01 -1.173355e+00 9.753876e-01
5.685776e+01 3.697917e-01 1.167305e-01 5.643341e-01 -1.080139e+00 9.788818e-01
5.686928e+01 3.697917e-01 1.138366e-01 5.664790e-01 -1.133575e+00 9.798279e-01
5.701791e+01 3.697917e-01 1.143542e-01 5.663133e-01 -1.136108e+00 9.798737e-01
5.688501e+01 3.697917e-01 1.146972e-01 5.663607e-01 -1.138626e+00 9.848328e-01
5.701993e+01 3.697917e-01 1.145973e-01 5.665856e-01 -1.139130e+00 9.850159e-01
5.693983e+01 3.697917e-01 1.146266e-01 5.666378e-01 -1.140167e+00 9.850159e-01
5.701810e+01 3.697917e-01 1.146161e-01 5.667895e-01 -1.142212e+00 9.852753e-01
5.652316e+01 3.697917e-01 1.287953e-01 5.901532e-01 -1.130768e+00 1.362640e+00
5.332251e+01 3.697917e-01 1.649930e-01 6.927928e-01 -1.627655e+00 2.370728e+00
5.429720e+01 3.697917e-01 1.624364e-01 6.903753e-01 -1.552536e+00 2.336212e+00
5.355804e+01 3.697917e-01 1.601591e-01 6.922454e-01 -1.552536e+00 2.332672e+00
5.250455e+01 3.697917e-01 1.552703e-01 6.968470e-01 -1.529556e+00 2.347473e+00
5.289090e+01 3.697917e-01 1.486349e-01 7.029573e-01 -1.545700e+00 2.343430e+00
5.227284e+01 3.697917e-01 1.513255e-01 7.031590e-01 -1.553879e+00 2.359940e+00
5.306668e+01 3.697917e-01 1.516229e-01 7.033619e-01 -1.558990e+00 2.359024e+00
5.088420e+01 3.645833e-01 1.459354e-01 7.254098e-01 -1.878571e+00 2.479706e+00
5.133022e+01 3.645833e-01 1.378634e-01 7.470235e-01 -1.895370e+00 2.479980e+00
5.133022e+01 3.645833e-01 1.378211e-01 7.476907e-01 -1.895370e+00 2.479980e+00
5.167670e+01 3.645833e-01 1.376303e-01 7.489016e-01 -1.911911e+00 2.484756e+00
5.085144e+01 3.541667e-01 1.348119e-01 7.540314e-01 -1.934616e+00 2.518295e+00
5.070787e+01 3.541667e-01 1.348011e-01 7.551721e-01 -1.941696e+00 2.526550e+00
4.960739e+01 3.125000e-01 1.416377e-01 7.612807e-01 -2.002060e+00 2.714066e+00
4.992946e+01 3.541667e-01 1.379385e-01 7.650735e-01 -2.079208e+00 2.681534e+00
4.905530e+01 3.072917e-01 1.363396e-01 7.766576e-01 -2.096069e+00 2.760086e+00
4.866643e+01 3.125000e-01 1.362974e-01 7.777338e-01 -2.112457e+00 2.760010e+00
4.843024e+01 3.072917e-01 1.336951e-01 7.863260e-01 -2.212402e+00 2.781296e+00
4.970026e+01 3.489583e-01 1.257911e-01 7.957601e-01 -2.385605e+00 2.733597e+00
4.821606e+01 3.333333e-01 1.304253e-01 7.966663e-01 -2.385605e+00 2.793930e+00
5.103180e+01 3.489583e-01 1.385964e-01 7.958170e-01 -2.330994e+00 2.765808e+00
4.847624e+01 3.229167e-01 1.292642e-01 8.071105e-01 -2.419128e+00 2.807678e+00
4.814668e+01 3.125000e-01 1.321181e-01 8.309901e-01 -2.420059e+00 2.898880e+00
4.880498e+01 3.385417e-01 1.416755e-01 8.366219e-01 -2.480347e+00 2.952576e+00
4.782988e+01 2.968750e-01 1.387550e-01 8.404848e-01 -2.479553e+00 2.975662e+00
4.797775e+01 3.333333e-01 1.346802e-01 8.654631e-01 -3.093872e+00 3.060379e+00
4.605276e+01 3.072917e-01 1.400204e-01 9.465592e-01 -3.459534e+00 3.253098e+00
4.494983e+01 2.760417e-01 1.263243e-01 9.544063e-01 -3.506592e+00 3.224030e+00
4.522420e+01 2.812500e-01 1.213665e-01 9.591839e-01 -3.573807e+00 3.223679e+00
4.486798e+01 2.968750e-01 1.257300e-01 9.625729e-01 -3.625977e+00 3.244812e+00
4.456271e+01 2.864583e-01 1.285092e-01 9.652607e-01 -3.625977e+00 3.256088e+00
4.555885e+01 3.020833e-01 1.280985e-01 9.804453e-01 -3.658188e+00 3.282455e+00
4.428242e+01 2.760417e-01 1.299326e-01 9.820973e-01 -3.599915e+00 3.321442e+00
4.465903e+01 2.708333e-01 1.300094e-01 9.848660e-01 -3.631317e+00 3.324203e+00
4.374864e+01 2.500000e-01 1.264945e-01 1.012603e+00 -3.639572e+00 3.427246e+00
4.324536e+01 2.760417e-01 1.273193e-01 1.038483e+00 -3.689194e+00 3.499451e+00
4.428088e+01 2.864583e-01 1.313181e-01 1.043157e+00 -3.748505e+00 3.499054e+00
4.404158e+01 2.864583e-01 1.308194e-01 1.043529e+00 -3.751205e+00 3.498138e+00
4.372304e+01 2.604167e-01 1.284389e-01 1.047004e+00 -3.744110e+00 3.513824e+00
4.339566e+01 2.812500e-01 1.236626e-01 1.048424e+00 -3.740616e+00 3.494171e+00
4.274539e+01 2.708333e-01 1.112959e-01 1.102390e+00 -4.609299e+00 3.756760e+00
4.427386e+01 2.812500e-01 1.037578e-01 1.105314e+00 -4.620087e+00 3.728271e+00
4.194394e+01 2.708333e-01 1.089543e-01 1.106309e+00 -4.654114e+00 3.775314e+00
4.220206e+01 2.864583e-01 1.079424e-01 1.107415e+00 -4.633667e+00 3.761688e+00
4.233667e+01 2.604167e-01 1.090590e-01 1.109984e+00 -4.652649e+00 3.790833e+00
4.238368e+01 2.500000e-01 1.166098e-01 1.121702e+00 -4.657196e+00 3.828979e+00
4.252873e+01 2.656250e-01 1.158361e-01 1.122910e+00 -4.657196e+00 3.828979e+00
4.344070e+01 2.656250e-01 1.150634e-01 1.125946e+00 -4.646225e+00 3.819916e+00
4.221501e+01 2.656250e-01 1.157034e-01 1.127376e+00 -4.667542e+00 3.839798e+00
4.205537e+01 2.656250e-01 1.158549e-01 1.128158e+00 -4.669189e+00 3.841843e+00
4.221448e+01 2.656250e-01 1.158641e-01 1.128350e+00 -4.669189e+00 3.841843e+00
4.237587e+01 2.656250e-01 1.159541e-01 1.128553e+00 -4.668732e+00 3.842239e+00
4.170648e+01 2.552083e-01 1.144550e-01 1.139050e+00 -4.710526e+00 3.902023e+00
4.164761e+01 2.552083e-01 1.172117e-01 1.149802e+00 -4.724747e+00 3.951950e+00
4.146317e+01 2.343750e-01 1.168813e-01 1.151848e+00 -4.724747e+00 3.951950e+00
4.146317e+01 2.343750e-01 1.162735e-01 1.152939e+00 -4.709610e+00 3.941437e+00
4.116748e+01 2.552083e-01 1.159174e-01 1.155046e+00 -4.728134e+00 3.956482e+00
4.116226e+01 2.500000e-01 1.159112e-01 1.155090e+00 -4.727463e+00 3.956100e+00
4.122583e+01 2.500000e-01 1.159687e-01 1.155101e+00 -4.727005e+00 3.956558e+00
4.164651e+01 2.395833e-01 1.196718e-01 1.161781e+00 -4.730530e+00 4.015686e+00
4.158736e+01 2.552083e-01 1.173173e-01 1.163777e+00 -4.725616e+00 4.000916e+00
4.169373e+01 2.552083e-01 1.169567e-01 1.166965e+00 -4.762543e+00 4.029877e+00
4.163135e+01 2.552083e-01 1.167956e-01 1.170179e+00 -4.762878e+00 4.036209e+00
4.015524e+01 2.187500e-01 1.213170e-01 1.179743e+00 -4.770355e+00 4.104843e+00
4.011690e+01 2.187500e-01 1.227011e-01 1.184806e+00 -4.763565e+00 4.104843e+00
4.084703e+01 2.343750e-01 1.205848e-01 1.185302e+00 -4.763550e+00 4.100555e+00
4.050273e+01 2.291667e-01 1.176290e-01 1.191097e+00 -4.805679e+00 4.117569e+00
4.179677e+01 2.604167e-01 1.186568e-01 1.191763e+00 -4.804962e+00 4.117523e+00
4.169310e+01 2.500000e-01 1.193563e-01 1.193198e+00 -4.783890e+00 4.124161e+00
4.169310e+01 2.500000e-01 1.190825e-01 1.193975e+00 -4.783890e+00 4.124161e+00
4.144310e+01 2.552083e-01 1.197628e-01 1.195646e+00 -4.789230e+00 4.140533e+00
4.105154e+01 2.395833e-01 1.201195e-01 1.196798e+00 -4.794052e+00 4.146194e+00
4.111461e+01 2.447917e-01 1.201364e-01 1.197023e+00 -4.794052e+00 4.146194e+00
4.111461e+01 2.447917e-01 1.201131e-01 1.197027e+00 -4.793716e+00 4.145828e+00
4.012598e+01 2.239583e-01 1.169521e-01 1.208934e+00 -4.867676e+00 4.233658e+00
3.998306e+01 2.291667e-01 1.169158e-01 1.209192e+00 -4.859573e+00 4.229034e+00
4.046317e+01 2.291667e-01 1.163717e-01 1.209532e+00 -4.851486e+00 4.223892e+00
4.088193e+01 2.291667e-01 1.163176e-01 1.209750e+00 -4.851166e+00 4.223892e+00
4.053127e+01 2.291667e-01 1.163023e-01 1.209985e+00 -4.848633e+00 4.223495e+00
4.053127e+01 2.291667e-01 1.163821e-01 1.210031e+00 -4.848801e+00 4.223755e+00
4.053127e+01 2.291667e-01 1.163834e-01 1.210049e+00 -4.848801e+00 4.223755e+00
4.006021e+01 2.239583e-01 1.181231e-01 1.210432e+00 -4.857452e+00 4.239029e+00
4.184792e+01 2.395833e-01 1.168713e-01 1.212307e+00 -4.836044e+00 4.222198e+00
4.075548e+01 2.291667e-01 1.175697e-01 1.212852e+00 -4.850616e+00 4.234772e+00
4.074966e+01 2.291667e-01 1.175519e-01 1.213183e+00 -4.851715e+00 4.236008e+00
4.074966e+01 2.291667e-01 1.175120e-01 1.213407e+00 -4.851715e+00 4.236008e+00
4.136835e+01 2.447917e-01 1.168889e-01 1.214203e+00 -4.847733e+00 4.231857e+00
4.136835e+01 2.447917e-01 1.168703e-01 1.214244e+00 -4.847733e+00 4.231857e+00
4.012517e+01 2.291667e-01 1.173843e-01 1.215354e+00 -4.866501e+00 4.249725e+00
4.089227e+01 2.343750e-01 1.171396e-01 1.215700e+00 -4.854874e+00 4.242828e+00
4.019444e+01 2.239583e-01 1.161791e-01 1.217969e+00 -4.875046e+00 4.263153e+00
3.978844e+01 2.187500e-01 1.194871e-01 1.220650e+00 -4.886536e+00 4.292770e+00
3.974707e+01 2.083333e-01 1.190498e-01 1.220848e+00 -4.880096e+00 4.286667e+00
4.060649e+01 2.291667e-01 1.187855e-01 1.220563e+00 -4.879623e+00 4.286026e+00
4.060649e+01 2.291667e-01 1.185529e-01 1.220285e+00 -4.870972e+00 4.272675e+00
3.956775e+01 2.135417e-01 1.179972e-01 1.222744e+00 -4.900757e+00 4.297211e+00
3.942534e+01 2.083333e-01 1.177894e-01 1.222964e+00 -4.898666e+00 4.295670e+00
4.091258e+01 2.291667e-01 1.171066e-01 1.224334e+00 -4.896545e+00 4.293961e+00
4.092955e+01 2.291667e-01 1.165827e-01 1.225539e+00 -4.888672e+00 4.294098e+00
4.092955e+01 2.291667e-01 1.166094e-01 1.225532e+00 -4.888672e+00 4.294098e+00
3.945506e+01 2.187500e-01 1.172260e-01 1.226372e+00 -4.911880e+00 4.315170e+00
3.945506e+01 2.187500e-01 1.172035e-01 1.226449e+00 -4.911880e+00 4.315170e+00
4.066737e+01 2.239583e-01 1.161194e-01 1.227115e+00 -4.906921e+00 4.308868e+00
3.965077e+01 2.135417e-01 1.086634e-01 1.253855e+00 -5.039291e+00 4.456161e+00
3.894626e+01 2.239583e-01 1.124625e-01 1.255176e+00 -5.051804e+00 4.487137e+00
3.968248e+01 2.187500e-01 1.119674e-01 1.255446e+00 -5.038406e+00 4.475266e+00
4.014864e+01 2.291667e-01 1.148830e-01 1.258285e+00 -5.031204e+00 4.474808e+00
4.009355e+01 2.291667e-01 1.149765e-01 1.258385e+00 -5.031281e+00 4.474808e+00
4.009338e+01 2.291667e-01 1.149336e-01 1.258389e+00 -5.031357e+00 4.474625e+00
4.009338e+01 2.291667e-01 1.149346e-01 1.258390e+00 -5.031387e+00 4.474640e+00
4.024471e+01 2.291667e-01 1.148910e-01 1.258437e+00 -5.031372e+00 4.474472e+00
4.010365e+01 2.291667e-01 1.148892e-01 1.258453e+00 -5.031601e+00 4.474548e+00
4.010365e+01 2.291667e-01 1.148875e-01 1.258469e+00 -5.031601e+00 4.474548e+00
3.966037e+01 2.291667e-01 1.150349e-01 1.259695e+00 -5.059158e+00 4.494827e+00
3.944495e+01 2.239583e-01 1.148910e-01 1.259971e+00 -5.051010e+00 4.488876e+00
4.000061e+01 2.239583e-01 1.148297e-01 1.260139e+00 -5.036209e+00 4.480652e+00
3.885300e+01 2.135417e-01 1.142885e-01 1.261762e+00 -5.054001e+00 4.494034e+00
4.040720e+01 2.291667e-01 1.137873e-01 1.262273e+00 -5.039001e+00 4.484100e+00
4.108502e+01 2.291667e-01 1.143364e-01 1.263372e+00 -5.032852e+00 4.485550e+00
3.909082e+01 2.135417e-01 1.155241e-01 1.263588e+00 -5.047073e+00 4.500168e+00
4.108192e+01 2.135417e-01 1.150596e-01 1.264588e+00 -5.036377e+00 4.490601e+00
3.933028e+01 2.031250e-01 1.155629e-01 1.267956e+00 -5.071579e+00 4.525421e+00
4.040392e+01 2.187500e-01 1.159756e-01 1.271560e+00 -5.071579e+00 4.525421e+00
4.032545e+01 2.135417e-01 1.161015e-01 1.272258e+00 -5.051605e+00 4.517349e+00
3.940450e+01 2.031250e-01 1.167125e-01 1.272470e+00 -5.060760e+00 4.527802e+00
3.986578e+01 2.031250e-01 1.173052e-01 1.272541e+00 -5.060760e+00 4.527802e+00
3.972026e+01 2.187500e-01 1.176761e-01 1.272314e+00 -5.047379e+00 4.519363e+00
3.980557e+01 2.083333e-01 1.179406e-01 1.272295e+00 -5.047379e+00 4.519363e+00
3.980557e+01 2.083333e-01 1.178993e-01 1.272374e+00 -5.045380e+00 4.518127e+00
3.855595e+01 2.135417e-01 1.193514e-01 1.272494e+00 -5.063034e+00 4.539047e+00
3.988113e+01 2.031250e-01 1.185309e-01 1.272816e+00 -5.048874e+00 4.525726e+00
4.118236e+01 2.135417e-01 1.248998e-01 1.268638e+00 -4.949661e+00 4.473083e+00
3.892123e+01 2.083333e-01 1.248435e-01 1.268584e+00 -4.967377e+00 4.483475e+00
3.982405e+01 2.083333e-01 1.246927e-01 1.270503e+00 -4.992798e+00 4.504883e+00
4.000964e+01 2.239583e-01 1.233200e-01 1.271158e+00 -4.977463e+00 4.489090e+00
4.097884e+01 2.135417e-01 1.234755e-01 1.271976e+00 -4.966049e+00 4.485168e+00
3.876823e+01 2.031250e-01 1.229146e-01 1.273486e+00 -4.986908e+00 4.502548e+00
3.886372e+01 2.031250e-01 1.229148e-01 1.273492e+00 -4.986694e+00 4.502457e+00
3.857027e+01 2.083333e-01 1.243618e-01 1.277998e+00 -5.004852e+00 4.562515e+00
3.982175e+01 2.187500e-01 1.224338e-01 1.278476e+00 -5.002686e+00 4.556396e+00
3.996033e+01 2.187500e-01 1.209360e-01 1.278280e+00 -5.000580e+00 4.539169e+00
3.972734e+01 2.239583e-01 1.207100e-01 1.278576e+00 -5.013840e+00 4.549988e+00
3.922879e+01 2.239583e-01 1.201935e-01 1.289607e+00 -5.036530e+00 4.564407e+00
4.118584e+01 2.187500e-01 1.166354e-01 1.304449e+00 -5.027847e+00 4.591476e+00
3.955746e+01 2.291667e-01 1.109454e-01 1.318436e+00 -5.030090e+00 4.602707e+00
3.955746e+01 2.291667e-01 1.124198e-01 1.318307e+00 -5.030090e+00 4.602707e+00
3.917567e+01 2.135417e-01 1.165305e-01 1.317404e+00 -5.014297e+00 4.614594e+00
3.914522e+01 2.239583e-01 1.169479e-01 1.317389e+00 -5.010208e+00 4.617325e+00
3.918394e+01 2.239583e-01 1.171530e-01 1.317416e+00 -5.010193e+00 4.617325e+00
3.918394e+01 2.239583e-01 1.171663e-01 1.317418e+00 -5.009811e+00 4.617249e+00
4.082771e+01 2.239583e-01 1.173787e-01 1.317039e+00 -4.985519e+00 4.603439e+00
3.938715e+01 2.239583e-01 1.180526e-01 1.317227e+00 -5.001358e+00 4.617798e+00
3.992671e+01 2.291667e-01 1.180041e-01 1.317627e+00 -4.992889e+00 4.612747e+00
3.975371e+01 2.239583e-01 1.180838e-01 1.317775e+00 -4.996872e+00 4.616882e+00
3.960213e+01 2.291667e-01 1.170542e-01 1.320872e+00 -5.019302e+00 4.668579e+00
3.891478e+01 2.239583e-01 1.172163e-01 1.321438e+00 -5.023499e+00 4.672699e+00
3.862048e+01 2.239583e-01 1.175098e-01 1.323094e+00 -5.043427e+00 4.708511e+00
3.856386e+01 2.239583e-01 1.178085e-01 1.324364e+00 -5.043427e+00 4.708511e+00
3.856386e+01 2.239583e-01 1.177637e-01 1.324376e+00 -5.042297e+00 4.707260e+00
3.903862e+01 2.239583e-01 1.190557e-01 1.322897e+00 -5.041046e+00 4.705673e+00
3.908525e+01 2.187500e-01 1.204614e-01 1.322426e+00 -5.012634e+00 4.691681e+00
4.035222e+01 2.239583e-01 1.187556e-01 1.323147e+00 -5.021576e+00 4.687149e+00
3.883041e+01 2.187500e-01 1.183506e-01 1.323422e+00 -5.031586e+00 4.695053e+00
3.893161e+01 2.187500e-01 1.184673e-01 1.323517e+00 -5.031586e+00 4.695053e+00
3.912494e+01 2.187500e-01 1.182638e-01 1.323721e+00 -5.030090e+00 4.693497e+00
3.912494e+01 2.187500e-01 1.182232e-01 1.323791e+00 -5.030090e+00 4.693497e+00
4.046849e+01 2.239583e-01 1.198530e-01 1.323599e+00 -5.004379e+00 4.675323e+00
4.035901e+01 2.239583e-01 1.198684e-01 1.323597e+00 -5.004547e+00 4.675476e+00
4.072015e+01 2.187500e-01 1.193631e-01 1.325125e+00 -5.007355e+00 4.674744e+00
3.933600e+01 2.239583e-01 1.199660e-01 1.325324e+00 -5.023911e+00 4.692169e+00
3.937073e+01 2.291667e-01 1.200733e-01 1.325262e+00 -5.023911e+00 4.692169e+00
3.937073e+01 2.291667e-01 1.202028e-01 1.325130e+00 -5.015793e+00 4.686813e+00
3.925296e+01 2.239583e-01 1.197886e-01 1.325445e+00 -5.020370e+00 4.689407e+00
3.929015e+01 2.239583e-01 1.193401e-01 1.325736e+00 -5.020386e+00 4.689392e+00
4.066185e+01 2.239583e-01 1.185625e-01 1.325974e+00 -5.009567e+00 4.682938e+00
3.914066e+01 2.239583e-01 1.192615e-01 1.325395e+00 -5.020035e+00 4.693237e+00
4.083296e+01 2.291667e-01 1.188308e-01 1.325571e+00 -5.003235e+00 4.679916e+00
3.944479e+01 2.239583e-01 1.192507e-01 1.325502e+00 -5.012695e+00 4.690125e+00
4.062138e+01 2.239583e-01 1.199265e-01 1.324082e+00 -4.987610e+00 4.664780e+00
3.886766e+01 2.239583e-01 1.204332e-01 1.325007e+00 -5.008469e+00 4.686523e+00
3.886766e+01 2.239583e-01 1.204332e-01 1.325007e+00 -5.008469e+00 4.686523e+00
4.041083e+01 2.239583e-01 1.196901e-01 1.325306e+00 -4.996292e+00 4.676407e+00
4.041083e+01 2.239583e-01 1.196901e-01 1.325306e+00 -4.996292e+00 4.676407e+00
3.871231e+01 2.291667e-01 1.205821e-01 1.325562e+00 -5.011566e+00 4.692017e+00
3.889345e+01 2.343750e-01 1.202333e-01 1.328953e+00 -5.038483e+00 4.721298e+00
3.926784e+01 2.187500e-01 1.192878e-01 1.329339e+00 -5.022949e+00 4.706970e+00
3.844099e+01 2.395833e-01 1.201697e-01 1.329237e+00 -5.034500e+00 4.718765e+00
3.844099e+01 2.395833e-01 1.201730e-01 1.329241e+00 -5.034500e+00 4.718765e+00
4.119215e+01 2.187500e-01 1.210108e-01 1.332649e+00 -5.033218e+00 4.717834e+00
4.003905e+01 2.135417e-01 1.222342e-01 1.335897e+00 -5.009140e+00 4.700668e+00
4.003905e+01 2.135417e-01 1.226879e-01 1.335879e+00 -5.009140e+00 4.700668e+00
3.905786e+01 2.135417e-01 1.254697e-01 1.333394e+00 -5.027237e+00 4.709229e+00
3.918318e+01 2.083333e-01 1.253181e-01 1.333390e+00 -5.021484e+00 4.704849e+00
3.900600e+01 2.187500e-01 1.256926e-01 1.333411e+00 -5.024323e+00 4.708344e+00
3.849934e+01 2.135417e-01 1.257253e-01 1.333914e+00 -5.035614e+00 4.722412e+00
3.907701e+01 2.083333e-01 1.251271e-01 1.334164e+00 -5.024094e+00 4.712128e+00
3.904202e+01 2.083333e-01 1.251579e-01 1.333960e+00 -5.023911e+00 4.711945e+00
3.903870e+01 2.083333e-01 1.251987e-01 1.333771e+00 -5.022339e+00 4.710495e+00
3.912749e+01 2.083333e-01 1.252160e-01 1.333786e+00 -5.022522e+00 4.710739e+00
3.927660e+01 2.031250e-01 1.249339e-01 1.341050e+00 -5.094452e+00 4.765778e+00
3.927660e+01 2.031250e-01 1.257232e-01 1.345439e+00 -5.094574e+00 4.754166e+00
3.898163e+01 2.083333e-01 1.257579e-01 1.345423e+00 -5.097031e+00 4.755173e+00
3.901680e+01 2.187500e-01 1.257992e-01 1.345396e+00 -5.098480e+00 4.756149e+00
3.901680e+01 2.187500e-01 1.258064e-01 1.345385e+00 -5.098480e+00 4.756149e+00
3.914436e+01 2.187500e-01 1.258329e-01 1.345393e+00 -5.101196e+00 4.758530e+00
3.879794e+01 2.187500e-01 1.262132e-01 1.347937e+00 -5.104172e+00 4.738403e+00
3.893378e+01 2.187500e-01 1.306444e-01 1.347899e+00 -5.097336e+00 4.773407e+00
3.914000e+01 2.135417e-01 1.297505e-01 1.347859e+00 -5.084763e+00 4.757904e+00
3.914000e+01 2.135417e-01 1.297463e-01 1.347857e+00 -5.084671e+00 4.757751e+00
3.960287e+01 2.031250e-01 1.281420e-01 1.349291e+00 -5.091537e+00 4.758163e+00
3.940746e+01 2.135417e-01 1.265726e-01 1.350767e+00 -5.096542e+00 4.763458e+00
3.927396e+01 2.135417e-01 1.267192e-01 1.350715e+00 -5.097488e+00 4.765503e+00
3.927396e+01 2.135417e-01 1.266771e-01 1.350684e+00 -5.097183e+00 4.765503e+00
3.927396e+01 2.135417e-01 1.266771e-01 1.350684e+00 -5.097183e+00 4.765503e+00
3.927396e+01 2.135417e-01 1.266775e-01 1.350684e+00 -5.097183e+00 4.765503e+00
3.927551e+01 2.135417e-01 1.266766e-01 1.350691e+00 -5.097336e+00 4.765686e+00
3.927551e+01 2.135417e-01 1.266758e-01 1.350698e+00 -5.097336e+00 4.765686e+00
3.927551e+01 2.135417e-01 1.266758e-01 1.350698e+00 -5.097336e+00 4.765686e+00
3.939664e+01 2.083333e-01 1.263981e-01 1.350521e+00 -5.090118e+00 4.758896e+00
3.939664e+01 2.083333e-01 1.263974e-01 1.350512e+00 -5.089706e+00 4.758575e+00
3.955383e+01 2.083333e-01 1.264272e-01 1.350495e+00 -5.090607e+00 4.759552e+00
3.933144e+01 2.187500e-01 1.271011e-01 1.349072e+00 -5.086044e+00 4.758255e+00
3.866727e+01 2.187500e-01 1.267223e-01 1.349884e+00 -5.105301e+00 4.796387e+00
3.898892e+01 2.135417e-01 1.261027e-01 1.350621e+00 -5.105301e+00 4.796387e+00
3.883922e+01 2.135417e-01 1.258313e-01 1.350605e+00 -5.097214e+00 4.786819e+00
3.883130e+01 2.135417e-01 1.258108e-01 1.350638e+00 -5.097214e+00 4.786819e+00
3.884813e+01 2.135417e-01 1.251203e-01 1.347696e+00 -5.083191e+00 4.760971e+00
3.975107e+01 2.083333e-01 1.248620e-01 1.347582e+00 -5.074478e+00 4.755005e+00
3.975107e+01 2.083333e-01 1.248519e-01 1.347484e+00 -5.071320e+00 4.754456e+00
3.803635e+01 2.135417e-01 1.271839e-01 1.346584e+00 -5.088242e+00 4.773361e+00
4.089182e+01 2.135417e-01 1.285325e-01 1.345402e+00 -5.080093e+00 4.766037e+00
3.873947e+01 2.083333e-01 1.300804e-01 1.344264e+00 -5.036758e+00 4.740540e+00
3.896877e+01 2.135417e-01 1.299314e-01 1.344224e+00 -5.036758e+00 4.740540e+00
3.962318e+01 2.135417e-01 1.294190e-01 1.341793e+00 -5.031921e+00 4.718750e+00
3.944987e+01 2.083333e-01 1.298317e-01 1.341114e+00 -5.018539e+00 4.707443e+00
3.946300e+01 2.083333e-01 1.299775e-01 1.341248e+00 -5.018738e+00 4.707901e+00
3.966597e+01 2.135417e-01 1.298760e-01 1.341360e+00 -5.018250e+00 4.707657e+00
3.958125e+01 2.083333e-01 1.299002e-01 1.341365e+00 -5.018860e+00 4.708572e+00
3.958125e+01 2.083333e-01 1.299178e-01 1.341368e+00 -5.018860e+00 4.708572e+00
3.885983e+01 2.083333e-01 1.301882e-01 1.341710e+00 -5.026901e+00 4.718460e+00
3.909883e+01 2.135417e-01 1.301840e-01 1.341853e+00 -5.026901e+00 4.718460e+00
3.909883e+01 2.135417e-01 1.300715e-01 1.341822e+00 -5.022461e+00 4.714478e+00
3.906839e+01 2.083333e-01 1.300393e-01 1.341863e+00 -5.023605e+00 4.715103e+00
3.904819e+01 2.083333e-01 1.301019e-01 1.341811e+00 -5.023911e+00 4.715408e+00
3.902577e+01 2.083333e-01 1.301496e-01 1.341794e+00 -5.024994e+00 4.716461e+00
3.796954e+01 2.187500e-01 1.100217e-01 1.363341e+00 -5.229645e+00 4.858597e+00
3.882628e+01 2.083333e-01 1.101489e-01 1.363437e+00 -5.208710e+00 4.849747e+00
3.874086e+01 2.135417e-01 1.116879e-01 1.363122e+00 -5.208344e+00 4.855865e+00
3.835591e+01 2.135417e-01 1.192393e-01 1.360005e+00 -5.196823e+00 4.842758e+00
3.830698e+01 2.135417e-01 1.192337e-01 1.360172e+00 -5.202164e+00 4.846756e+00
3.844756e+01 2.187500e-01 1.191792e-01 1.360199e+00 -5.202164e+00 4.846756e+00
3.840105e+01 2.187500e-01 1.191038e-01 1.360204e+00 -5.201294e+00 4.845535e+00
3.844067e+01 2.135417e-01 1.190168e-01 1.360083e+00 -5.201294e+00 4.845413e+00
3.840121e+01 2.135417e-01 1.189710e-01 1.359937e+00 -5.196854e+00 4.838852e+00
3.835919e+01 2.135417e-01 1.189899e-01 1.359916e+00 -5.196930e+00 4.838913e+00
3.828609e+01 2.135417e-01 1.186156e-01 1.360222e+00 -5.199921e+00 4.840652e+00
3.861082e+01 2.135417e-01 1.181246e-01 1.360403e+00 -5.195847e+00 4.836075e+00
3.837915e+01 2.187500e-01 1.182543e-01 1.360487e+00 -5.200714e+00 4.840607e+00
3.784685e+01 2.083333e-01 1.184403e-01 1.360668e+00 -5.203308e+00 4.842957e+00
3.895691e+01 2.135417e-01 1.182411e-01 1.361147e+00 -5.203308e+00 4.842957e+00
3.895691e+01 2.135417e-01 1.180337e-01 1.361572e+00 -5.195587e+00 4.839188e+00
3.823914e+01 2.083333e-01 1.186115e-01 1.359874e+00 -5.194595e+00 4.838226e+00
3.818039e+01 2.239583e-01 1.202885e-01 1.359434e+00 -5.161224e+00 4.827423e+00
3.935988e+01 2.187500e-01 1.208444e-01 1.360413e+00 -5.136749e+00 4.809250e+00
3.840669e+01 2.239583e-01 1.214154e-01 1.360635e+00 -5.143326e+00 4.817444e+00
3.827094e+01 2.187500e-01 1.218565e-01 1.360788e+00 -5.146683e+00 4.826859e+00
4.028946e+01 2.187500e-01 1.200226e-01 1.363897e+00 -5.162521e+00 4.826859e+00
4.028946e+01 2.187500e-01 1.179564e-01 1.367009e+00 -5.162521e+00 4.826569e+00
3.842781e+01 2.187500e-01 1.217416e-01 1.367362e+00 -5.194290e+00 4.867310e+00
3.984898e+01 2.135417e-01 1.218470e-01 1.367327e+00 -5.144119e+00 4.833527e+00
3.788277e+01 2.135417e-01 1.226501e-01 1.367281e+00 -5.161591e+00 4.849503e+00
3.827806e+01 2.135417e-01 1.238048e-01 1.367761e+00 -5.169235e+00 4.857162e+00
3.826135e+01 2.187500e-01 1.232817e-01 1.368010e+00 -5.155472e+00 4.845596e+00
3.803961e+01 2.187500e-01 1.234353e-01 1.367899e+00 -5.155411e+00 4.845581e+00
3.803961e+01 2.187500e-01 1.234399e-01 1.367894e+00 -5.155380e+00 4.845581e+00
3.926749e+01 2.239583e-01 1.230749e-01 1.368384e+00 -5.148468e+00 4.838470e+00
3.791635e+01 2.187500e-01 1.236416e-01 1.368988e+00 -5.166794e+00 4.858826e+00
3.779712e+01 2.083333e-01 1.231714e-01 1.369588e+00 -5.162247e+00 4.854309e+00
3.783958e+01 2.083333e-01 1.231347e-01 1.369778e+00 -5.162247e+00 4.854309e+00
3.783958e+01 2.083333e-01 1.231280e-01 1.369764e+00 -5.161621e+00 4.853775e+00
3.822658e+01 2.187500e-01 1.237644e-01 1.371974e+00 -5.181671e+00 4.876495e+00
3.890479e+01 2.187500e-01 1.225798e-01 1.371639e+00 -5.159409e+00 4.855576e+00
3.934819e+01 2.135417e-01 1.225104e-01 1.371564e+00 -5.159409e+00 4.855576e+00
3.934819e+01 2.135417e-01 1.224410e-01 1.371489e+00 -5.155563e+00 4.851547e+00
3.874161e+01 2.239583e-01 1.223584e-01 1.371504e+00 -5.160446e+00 4.855026e+00
3.890514e+01 2.187500e-01 1.222005e-01 1.371596e+00 -5.160446e+00 4.855026e+00
3.923746e+01 2.187500e-01 1.218040e-01 1.371537e+00 -5.159531e+00 4.854706e+00
3.825401e+01 2.239583e-01 1.233864e-01 1.370998e+00 -5.177811e+00 4.874954e+00
3.949336e+01 2.135417e-01 1.225005e-01 1.371224e+00 -5.146973e+00 4.852097e+00
3.796858e+01 2.135417e-01 1.226038e-01 1.370914e+00 -5.165405e+00 4.867737e+00
3.846701e+01 2.083333e-01 1.215934e-01 1.370950e+00 -5.154236e+00 4.856049e+00
3.805762e+01 2.187500e-01 1.219793e-01 1.370609e+00 -5.155167e+00 4.856979e+00
3.802365e+01 2.187500e-01 1.220217e-01 1.370458e+00 -5.155167e+00 4.856888e+00
3.809312e+01 2.187500e-01 1.221210e-01 1.370297e+00 -5.152359e+00 4.854294e+00
3.809312e+01 2.187500e-01 1.222345e-01 1.370249e+00 -5.152359e+00 4.854294e+00
3.810556e+01 2.187500e-01 1.222465e-01 1.370246e+00 -5.152649e+00 4.854584e+00
3.802893e+01 2.187500e-01 1.222654e-01 1.370220e+00 -5.152649e+00 4.854584e+00
3.810736e+01 2.187500e-01 1.222497e-01 1.370198e+00 -5.151688e+00 4.853745e+00
3.810736e+01 2.187500e-01 1.222270e-01 1.370200e+00 -5.151505e+00 4.853531e+00
3.810736e+01 2.187500e-01 1.222271e-01 1.370199e+00 -5.151489e+00 4.853531e+00
3.810736e+01 2.187500e-01 1.222271e-01 1.370199e+00 -5.151489e+00 4.853531e+00
3.793924e+01 2.083333e-01 1.231523e-01 1.370867e+00 -5.158707e+00 4.862015e+00
3.793924e+01 2.083333e-01 1.231487e-01 1.370857e+00 -5.158447e+00 4.861786e+00
3.939983e+01 2.187500e-01 1.224117e-01 1.371164e+00 -5.146515e+00 4.849899e+00
3.939983e+01 2.187500e-01 1.224195e-01 1.371173e+00 -5.146027e+00 4.849533e+00
3.788434e+01 2.083333e-01 1.235292e-01 1.371135e+00 -5.156448e+00 4.860916e+00
3.785263e+01 2.083333e-01 1.235806e-01 1.371399e+00 -5.156342e+00 4.861862e+00
3.793324e+01 2.083333e-01 1.236561e-01 1.371531e+00 -5.156342e+00 4.861862e+00
3.785948e+01 2.083333e-01 1.236115e-01 1.371635e+00 -5.157974e+00 4.863098e+00
3.791171e+01 2.083333e-01 1.235506e-01 1.371796e+00 -5.158279e+00 4.863281e+00
3.945667e+01 2.083333e-01 1.188754e-01 1.375028e+00 -5.161575e+00 4.876160e+00
3.774911e+01 2.031250e-01 1.173204e-01 1.372690e+00 -5.182816e+00 4.892868e+00
3.827043e+01 2.083333e-01 1.180472e-01 1.372397e+00 -5.182816e+00 4.892868e+00
3.827043e+01 2.083333e-01 1.180443e-01 1.372397e+00 -5.168152e+00 4.883408e+00
3.828545e+01 2.083333e-01 1.180246e-01 1.372389e+00 -5.167191e+00 4.882812e+00
3.828545e+01 2.083333e-01 1.180263e-01 1.372392e+00 -5.167175e+00 4.882812e+00
3.995920e+01 2.135417e-01 1.172533e-01 1.372401e+00 -5.153168e+00 4.871765e+00
3.925954e+01 2.031250e-01 1.172661e-01 1.372356e+00 -5.153091e+00 4.870712e+00
3.795639e+01 2.135417e-01 1.177607e-01 1.371988e+00 -5.167206e+00 4.884079e+00
3.834077e+01 2.083333e-01 1.180686e-01 1.371651e+00 -5.167206e+00 4.884079e+00
3.834077e+01 2.083333e-01 1.180518e-01 1.371682e+00 -5.158981e+00 4.880127e+00
3.834416e+01 2.083333e-01 1.180470e-01 1.371705e+00 -5.158707e+00 4.880051e+00
3.834416e+01 2.083333e-01 1.180525e-01 1.371710e+00 -5.157715e+00 4.879883e+00
3.834416e+01 2.083333e-01 1.180526e-01 1.371708e+00 -5.157669e+00 4.879868e+00
3.834416e+01 2.083333e-01 1.182230e-01 1.371715e+00 -5.157578e+00 4.880554e+00
3.816812e+01 2.083333e-01 1.182454e-01 1.371723e+00 -5.156937e+00 4.880264e+00
3.810793e+01 2.083333e-01 1.180611e-01 1.372048e+00 -5.160141e+00 4.883698e+00
3.815219e+01 2.083333e-01 1.177799e-01 1.372215e+00 -5.160049e+00 4.883621e+00
3.814896e+01 2.083333e-01 1.177959e-01 1.372212e+00 -5.159943e+00 4.883606e+00
3.813885e+01 2.083333e-01 1.177929e-01 1.372214e+00 -5.159378e+00 4.883133e+00
3.801932e+01 2.083333e-01 1.179592e-01 1.372348e+00 -5.160843e+00 4.886246e+00
3.801932e+01 2.083333e-01 1.181084e-01 1.372486e+00 -5.160843e+00 4.886246e+00
3.842157e+01 2.083333e-01 1.180095e-01 1.372717e+00 -5.160492e+00 4.886215e+00
3.872368e+01 2.135417e-01 1.191222e-01 1.372371e+00 -5.159393e+00 4.886200e+00
3.876889e+01 2.135417e-01 1.209806e-01 1.371764e+00 -5.133743e+00 4.875458e+00
3.862254e+01 2.083333e-01 1.209182e-01 1.371742e+00 -5.133743e+00 4.875458e+00
3.889902e+01 2.083333e-01 1.208241e-01 1.371730e+00 -5.132645e+00 4.873566e+00
3.871988e+01 2.083333e-01 1.208005e-01 1.371736e+00 -5.132706e+00 4.873337e+00
3.818051e+01 2.083333e-01 1.194230e-01 1.372600e+00 -5.144409e+00 4.878830e+00
3.813652e+01 2.083333e-01 1.194188e-01 1.372601e+00 -5.144318e+00 4.878754e+00
3.922749e+01 2.031250e-01 1.197425e-01 1.372377e+00 -5.128998e+00 4.868851e+00
3.841989e+01 2.083333e-01 1.197847e-01 1.372608e+00 -5.140427e+00 4.876480e+00
3.846912e+01 2.083333e-01 1.196811e-01 1.372787e+00 -5.140427e+00 4.876480e+00
3.846912e+01 2.083333e-01 1.196646e-01 1.372850e+00 -5.139236e+00 4.876053e+00
3.862047e+01 2.031250e-01 1.196526e-01 1.372898e+00 -5.139038e+00 4.876038e+00
3.862047e+01 2.031250e-01 1.196650e-01 1.372906e+00 -5.138855e+00 4.876022e+00
3.817137e+01 2.083333e-01 1.197065e-01 1.373219e+00 -5.147385e+00 4.883011e+00
3.799905e+01 2.083333e-01 1.196053e-01 1.373375e+00 -5.147385e+00 4.883011e+00
3.829727e+01 2.083333e-01 1.194655e-01 1.373737e+00 -5.148087e+00 4.884689e+00
3.829727e+01 2.083333e-01 1.192275e-01 1.373850e+00 -5.148087e+00 4.884689e+00
3.813158e+01 2.135417e-01 1.199737e-01 1.373923e+00 -5.152603e+00 4.892593e+00
3.789613e+01 2.031250e-01 1.214336e-01 1.374512e+00 -5.152908e+00 4.894287e+00
3.788643e+01 2.031250e-01 1.218290e-01 1.374775e+00 -5.152588e+00 4.894287e+00
3.808025e+01 2.083333e-01 1.220377e-01 1.374821e+00 -5.151459e+00 4.894211e+00
3.871515e+01 2.083333e-01 1.212435e-01 1.374971e+00 -5.139297e+00 4.882355e+00
3.906960e+01 2.031250e-01 1.203517e-01 1.375364e+00 -5.137756e+00 4.878967e+00
3.883105e+01 2.135417e-01 1.167149e-01 1.373207e+00 -5.129257e+00 4.863617e+00
3.856723e+01 2.083333e-01 1.143811e-01 1.366080e+00 -5.098816e+00 4.853165e+00
3.856723e+01 2.083333e-01 1.145081e-01 1.360801e+00 -5.094070e+00 4.853165e+00
3.848958e+01 2.083333e-01 1.146729e-01 1.360764e+00 -5.093826e+00 4.853409e+00
3.771579e+01 2.083333e-01 1.157831e-01 1.361644e+00 -5.106064e+00 4.869522e+00
3.771579e+01 2.083333e-01 1.157825e-01 1.361645e+00 -5.105865e+00 4.869370e+00
3.854112e+01 2.031250e-01 1.150840e-01 1.361513e+00 -5.090088e+00 4.854630e+00
4.020279e+01 2.135417e-01 1.110629e-01 1.360985e+00 -5.092865e+00 4.876068e+00
3.955095e+01 2.083333e-01 1.115469e-01 1.361468e+00 -5.087097e+00 4.878021e+00
3.947469e+01 2.083333e-01 1.116657e-01 1.361492e+00 -5.087906e+00 4.878937e+00
3.853189e+01 2.083333e-01 1.119615e-01 1.362124e+00 -5.103546e+00 4.897598e+00
3.982639e+01 2.135417e-01 1.194105e-01 1.375890e+00 -5.132782e+00 4.970871e+00
3.926009e+01 2.239583e-01 1.154776e-01 1.375791e+00 -5.160019e+00 4.969162e+00
3.948595e+01 2.031250e-01 1.118496e-01 1.375978e+00 -5.145950e+00 4.947495e+00
3.786409e+01 2.135417e-01 1.140181e-01 1.375942e+00 -5.158539e+00 4.964981e+00
3.849718e+01 2.239583e-01 1.158824e-01 1.373714e+00 -5.128113e+00 4.943710e+00
3.846631e+01 2.187500e-01 1.149098e-01 1.376009e+00 -5.134384e+00 4.949265e+00
3.861229e+01 2.187500e-01 1.139950e-01 1.378363e+00 -5.134384e+00 4.949265e+00
3.861229e+01 2.187500e-01 1.140639e-01 1.378427e+00 -5.131775e+00 4.947983e+00
3.861229e+01 2.187500e-01 1.140639e-01 1.378427e+00 -5.131775e+00 4.947983e+00
3.866006e+01 2.187500e-01 1.141087e-01 1.378426e+00 -5.131821e+00 4.948212e+00
3.866006e+01 2.187500e-01 1.141087e-01 1.378426e+00 -5.131821e+00 4.948212e+00
3.884218e+01 2.239583e-01 1.160881e-01 1.379888e+00 -5.127945e+00 4.953888e+00
3.907562e+01 2.239583e-01 1.160126e-01 1.379865e+00 -5.127945e+00 4.953888e+00
3.913554e+01 2.239583e-01 1.159871e-01 1.379780e+00 -5.125290e+00 4.951263e+00
3.913554e+01 2.239583e-01 1.159871e-01 1.379780e+00 -5.125290e+00 4.951263e+00
3.929581e+01 2.239583e-01 1.159794e-01 1.379780e+00 -5.124588e+00 4.950516e+00
3.928854e+01 2.135417e-01 1.158613e-01 1.379661e+00 -5.123444e+00 4.947327e+00
3.911838e+01 2.239583e-01 1.159546e-01 1.379668e+00 -5.124451e+00 4.948334e+00
3.911838e+01 2.239583e-01 1.159515e-01 1.379672e+00 -5.124451e+00 4.948334e+00
3.921014e+01 2.239583e-01 1.162569e-01 1.379681e+00 -5.123398e+00 4.947388e+00
3.863751e+01 2.239583e-01 1.167464e-01 1.379632e+00 -5.130081e+00 4.953796e+00
3.797035e+01 2.187500e-01 1.163585e-01 1.380294e+00 -5.139130e+00 4.960571e+00
3.901204e+01 2.031250e-01 1.156852e-01 1.379567e+00 -5.121033e+00 4.949631e+00
3.888078e+01 2.187500e-01 1.161200e-01 1.379519e+00 -5.125839e+00 4.953979e+00
3.880482e+01 2.187500e-01 1.161192e-01 1.379553e+00 -5.125778e+00 4.953766e+00
3.881488e+01 2.135417e-01 1.160481e-01 1.379537e+00 -5.125778e+00 4.953766e+00
3.881488e+01 2.135417e-01 1.159886e-01 1.379526e+00 -5.124237e+00 4.951859e+00
3.877319e+01 2.135417e-01 1.159783e-01 1.379522e+00 -5.124237e+00 4.951859e+00
3.877151e+01 2.135417e-01 1.158484e-01 1.379513e+00 -5.123734e+00 4.951157e+00
3.883093e+01 2.135417e-01 1.158912e-01 1.379399e+00 -5.123581e+00 4.950958e+00
3.879994e+01 2.135417e-01 1.159376e-01 1.379286e+00 -5.122833e+00 4.949982e+00
3.879994e+01 2.135417e-01 1.159365e-01 1.379286e+00 -5.122742e+00 4.949905e+00
3.876515e+01 2.187500e-01 1.160138e-01 1.379280e+00 -5.123199e+00 4.950043e+00
3.912509e+01 2.239583e-01 1.155286e-01 1.380021e+00 -5.132889e+00 4.955765e+00
3.877643e+01 2.187500e-01 1.155431e-01 1.380501e+00 -5.134232e+00 4.958557e+00
3.889616e+01 2.187500e-01 1.155534e-01 1.380998e+00 -5.134232e+00 4.958557e+00
3.889616e+01 2.187500e-01 1.155494e-01 1.381015e+00 -5.133530e+00 4.957947e+00
3.910710e+01 2.031250e-01 1.150482e-01 1.381036e+00 -5.125320e+00 4.950241e+00
3.889658e+01 2.187500e-01 1.153403e-01 1.381190e+00 -5.134323e+00 4.959808e+00
3.879657e+01 2.187500e-01 1.158125e-01 1.381455e+00 -5.134262e+00 4.960312e+00
3.885077e+01 2.135417e-01 1.157072e-01 1.381733e+00 -5.134735e+00 4.960999e+00
3.899947e+01 2.239583e-01 1.157495e-01 1.381831e+00 -5.137238e+00 4.963181e+00
3.899947e+01 2.239583e-01 1.157499e-01 1.381831e+00 -5.137238e+00 4.963181e+00
3.898669e+01 2.239583e-01 1.157941e-01 1.381808e+00 -5.137436e+00 4.963364e+00
3.898669e+01 2.239583e-01 1.158382e-01 1.381785e+00 -5.137436e+00 4.963364e+00
3.891046e+01 2.239583e-01 1.165423e-01 1.382150e+00 -5.133850e+00 4.962158e+00
3.891046e+01 2.239583e-01 1.165513e-01 1.382150e+00 -5.133820e+00 4.962173e+00
3.902483e+01 2.239583e-01 1.165634e-01 1.382127e+00 -5.133896e+00 4.962265e+00
3.791771e+01 2.135417e-01 1.172700e-01 1.382368e+00 -5.147217e+00 4.974060e+00
3.893246e+01 2.291667e-01 1.174471e-01 1.382853e+00 -5.128159e+00 4.958557e+00
3.834491e+01 2.187500e-01 1.177890e-01 1.382819e+00 -5.133163e+00 4.962524e+00
3.883029e+01 2.291667e-01 1.179751e-01 1.381707e+00 -5.132919e+00 4.962296e+00
3.883029e+01 2.291667e-01 1.181685e-01 1.380592e+00 -5.123459e+00 4.953232e+00
3.797615e+01 2.187500e-01 1.163942e-01 1.379896e+00 -5.124252e+00 4.953308e+00
3.885052e+01 2.187500e-01 1.146889e-01 1.378598e+00 -5.117020e+00 4.949661e+00
3.921436e+01 2.187500e-01 1.144022e-01 1.379578e+00 -5.100998e+00 4.947876e+00
3.915918e+01 2.187500e-01 1.148902e-01 1.379754e+00 -5.093124e+00 4.945267e+00
3.923312e+01 2.187500e-01 1.149031e-01 1.379751e+00 -5.093277e+00 4.945450e+00
3.918689e+01 2.187500e-01 1.149202e-01 1.379762e+00 -5.093277e+00 4.945450e+00
3.908517e+01 2.239583e-01 1.181204e-01 1.381750e+00 -5.088913e+00 4.953934e+00
3.802284e+01 2.135417e-01 1.177745e-01 1.383124e+00 -5.116318e+00 4.970047e+00
3.788087e+01 2.135417e-01 1.173436e-01 1.384395e+00 -5.116302e+00 4.970901e+00
3.795190e+01 2.135417e-01 1.173418e-01 1.384399e+00 -5.116257e+00 4.970886e+00
3.784393e+01 2.031250e-01 1.182431e-01 1.385117e+00 -5.116074e+00 4.976898e+00
3.904903e+01 2.135417e-01 1.177020e-01 1.387388e+00 -5.125259e+00 4.979904e+00
3.937296e+01 2.083333e-01 1.153399e-01 1.387418e+00 -5.125290e+00 4.976059e+00
3.881721e+01 2.135417e-01 1.199190e-01 1.380060e+00 -5.106339e+00 4.967834e+00
3.871443e+01 2.135417e-01 1.202961e-01 1.380169e+00 -5.105682e+00 4.966919e+00
3.870386e+01 2.135417e-01 1.206472e-01 1.380280e+00 -5.101212e+00 4.965195e+00
3.856709e+01 2.135417e-01 1.171962e-01 1.383564e+00 -5.127625e+00 4.984512e+00
3.911038e+01 2.135417e-01 1.184188e-01 1.383625e+00 -5.127625e+00 4.988159e+00
3.900487e+01 2.135417e-01 1.195075e-01 1.383768e+00 -5.098007e+00 4.988159e+00
3.900487e+01 2.135417e-01 1.193689e-01 1.383674e+00 -5.097351e+00 4.984680e+00
3.853107e+01 2.083333e-01 1.190059e-01 1.383991e+00 -5.109024e+00 4.989288e+00
3.876958e+01 2.135417e-01 1.171598e-01 1.384259e+00 -5.116440e+00 4.975174e+00
3.832271e+01 2.135417e-01 1.221595e-01 1.387780e+00 -5.129501e+00 4.984482e+00
3.855034e+01 2.135417e-01 1.222010e-01 1.387774e+00 -5.129501e+00 4.984482e+00
3.888638e+01 2.083333e-01 1.227166e-01 1.387713e+00 -5.118149e+00 4.981445e+00
3.887694e+01 2.083333e-01 1.226494e-01 1.387712e+00 -5.117798e+00 4.981445e+00
3.895551e+01 2.083333e-01 1.235149e-01 1.387515e+00 -5.112686e+00 4.983612e+00
3.827084e+01 2.083333e-01 1.252177e-01 1.387861e+00 -5.123657e+00 5.000992e+00
3.914514e+01 2.083333e-01 1.245287e-01 1.387845e+00 -5.105850e+00 4.984390e+00
3.876471e+01 2.135417e-01 1.248471e-01 1.388086e+00 -5.109726e+00 4.989883e+00
3.876471e+01 2.135417e-01 1.251613e-01 1.388328e+00 -5.109726e+00 4.989883e+00
3.933263e+01 2.083333e-01 1.250554e-01 1.388000e+00 -5.102234e+00 4.983078e+00
3.897707e+01 2.083333e-01 1.252918e-01 1.388270e+00 -5.106155e+00 4.987915e+00
3.894299e+01 2.083333e-01 1.255049e-01 1.388592e+00 -5.106323e+00 4.988083e+00
3.894299e+01 2.083333e-01 1.255118e-01 1.388595e+00 -5.106323e+00 4.988083e+00
3.897707e+01 2.083333e-01 1.255089e-01 1.388598e+00 -5.106323e+00 4.988083e+00
3.897707e+01 2.083333e-01 1.255059e-01 1.388601e+00 -5.106125e+00 4.987885e+00
3.889896e+01 2.135417e-01 1.255390e-01 1.388580e+00 -5.107239e+00 4.988602e+00
3.889896e+01 2.135417e-01 1.255721e-01 1.388559e+00 -5.107239e+00 4.988602e+00
3.886888e+01 2.135417e-01 1.255850e-01 1.388575e+00 -5.107178e+00 4.988541e+00
3.893645e+01 2.135417e-01 1.257189e-01 1.388595e+00 -5.108017e+00 4.989456e+00
3.893645e+01 2.135417e-01 1.257189e-01 1.388595e+00 -5.108017e+00 4.989456e+00
3.893645e+01 2.135417e-01 1.257189e-01 1.388595e+00 -5.108017e+00 4.989456e+00
3.897227e+01 2.083333e-01 1.256277e-01 1.388613e+00 -5.103027e+00 4.984268e+00
3.850595e+01 2.135417e-01 1.225691e-01 1.390425e+00 -5.146469e+00 5.008514e+00
3.887102e+01 2.135417e-01 1.203667e-01 1.391837e+00 -5.146469e+00 5.008514e+00
3.908849e+01 2.135417e-01 1.204471e-01 1.391870e+00 -5.135452e+00 5.000351e+00
3.882683e+01 2.083333e-01 1.206726e-01 1.391778e+00 -5.135300e+00 5.000854e+00
3.865778e+01 2.135417e-01 1.210329e-01 1.391671e+00 -5.135086e+00 5.001740e+00
3.865778e+01 2.135417e-01 1.211644e-01 1.391657e+00 -5.135086e+00 5.001740e+00
3.851047e+01 2.083333e-01 1.223839e-01 1.391351e+00 -5.142059e+00 5.009781e+00
3.851047e+01 2.083333e-01 1.224954e-01 1.391317e+00 -5.140915e+00 5.009659e+00
3.831210e+01 2.083333e-01 1.221369e-01 1.390836e+00 -5.122711e+00 4.993149e+00
3.861461e+01 2.135417e-01 1.222349e-01 1.390944e+00 -5.121796e+00 4.992828e+00
3.954747e+01 2.083333e-01 1.227021e-01 1.391114e+00 -5.120010e+00 4.991684e+00
3.841470e+01 2.083333e-01 1.232854e-01 1.391225e+00 -5.117126e+00 4.991852e+00
3.841470e+01 2.083333e-01 1.235419e-01 1.391182e+00 -5.117126e+00 4.991852e+00
3.841470e+01 2.083333e-01 1.235419e-01 1.391182e+00 -5.117126e+00 4.991852e+00
3.865262e+01 2.135417e-01 1.241627e-01 1.391106e+00 -5.117126e+00 4.991852e+00
3.870573e+01 2.083333e-01 1.247646e-01 1.391036e+00 -5.113037e+00 4.989395e+00
3.994009e+01 2.239583e-01 1.215337e-01 1.419558e+00 -5.286011e+00 5.083206e+00
3.957957e+01 2.239583e-01 1.217875e-01 1.419465e+00 -5.286011e+00 5.083847e+00
3.957957e+01 2.239583e-01 1.220406e-01 1.419371e+00 -5.284973e+00 5.083847e+00
3.935289e+01 2.135417e-01 1.231807e-01 1.420115e+00 -5.286880e+00 5.105972e+00
3.974559e+01 2.135417e-01 1.137902e-01 1.416343e+00 -5.273300e+00 5.106598e+00
3.853273e+01 2.083333e-01 1.104932e-01 1.415576e+00 -5.277100e+00 5.114563e+00
3.864349e+01 2.083333e-01 1.111570e-01 1.415487e+00 -5.277100e+00 5.114655e+00
3.864349e+01 2.083333e-01 1.112238e-01 1.415482e+00 -5.276138e+00 5.114655e+00
3.876733e+01 2.083333e-01 1.113829e-01 1.415436e+00 -5.276138e+00 5.115707e+00
3.876733e+01 2.083333e-01 1.115419e-01 1.415390e+00 -5.275299e+00 5.115707e+00
3.886087e+01 2.031250e-01 1.140871e-01 1.415842e+00 -5.272339e+00 5.122818e+00
3.882207e+01 2.031250e-01 1.153046e-01 1.416172e+00 -5.263626e+00 5.122818e+00
3.859088e+01 2.083333e-01 1.154799e-01 1.416126e+00 -5.262955e+00 5.122818e+00
3.880354e+01 2.187500e-01 1.166702e-01 1.415870e+00 -5.256790e+00 5.119583e+00
3.880354e+01 2.187500e-01 1.166702e-01 1.415870e+00 -5.256790e+00 5.119583e+00
3.909486e+01 2.031250e-01 1.167491e-01 1.414745e+00 -5.241257e+00 5.106583e+00
3.891809e+01 2.031250e-01 1.164294e-01 1.415032e+00 -5.247284e+00 5.110306e+00
3.902486e+01 2.031250e-01 1.160489e-01 1.415158e+00 -5.247070e+00 5.109924e+00
3.853290e+01 2.135417e-01 1.203627e-01 1.411917e+00 -5.221268e+00 5.092819e+00
3.794719e+01 2.135417e-01 1.210660e-01 1.412301e+00 -5.225479e+00 5.096756e+00
3.857182e+01 2.135417e-01 1.209556e-01 1.412548e+00 -5.225479e+00 5.096756e+00
3.862740e+01 2.135417e-01 1.208004e-01 1.412739e+00 -5.222061e+00 5.092316e+00
3.917377e+01 2.083333e-01 1.207323e-01 1.413748e+00 -5.224792e+00 5.091949e+00
3.919586e+01 2.083333e-01 1.204879e-01 1.414268e+00 -5.218277e+00 5.085876e+00
3.919586e+01 2.083333e-01 1.205665e-01 1.414272e+00 -5.218277e+00 5.085876e+00
3.920644e+01 2.135417e-01 1.204020e-01 1.413997e+00 -5.213684e+00 5.080704e+00
3.911101e+01 2.135417e-01 1.204314e-01 1.413943e+00 -5.213043e+00 5.079666e+00
3.911101e+01 2.135417e-01 1.204732e-01 1.413933e+00 -5.213043e+00 5.079666e+00
3.922586e+01 2.083333e-01 1.205842e-01 1.413933e+00 -5.215240e+00 5.081512e+00
3.922586e+01 2.083333e-01 1.205865e-01 1.413934e+00 -5.215256e+00 5.081528e+00
3.914301e+01 2.135417e-01 1.204871e-01 1.413952e+00 -5.212738e+00 5.078583e+00
3.915730e+01 2.135417e-01 1.205524e-01 1.413920e+00 -5.213715e+00 5.079071e+00
3.915730e+01 2.135417e-01 1.206225e-01 1.413902e+00 -5.213715e+00 5.079071e+00
3.839343e+01 2.135417e-01 1.209388e-01 1.414544e+00 -5.225159e+00 5.088486e+00
3.857491e+01 2.031250e-01 1.210358e-01 1.414470e+00 -5.225159e+00 5.088486e+00
3.844601e+01 2.135417e-01 1.213867e-01 1.414017e+00 -5.220123e+00 5.083984e+00
3.844601e+01 2.135417e-01 1.216406e-01 1.413637e+00 -5.218597e+00 5.082565e+00
3.844601e+01 2.135417e-01 1.216406e-01 1.413637e+00 -5.218597e+00 5.082565e+00
3.820667e+01 2.135417e-01 1.221777e-01 1.413563e+00 -5.222336e+00 5.086472e+00
3.820667e+01 2.135417e-01 1.221779e-01 1.413564e+00 -5.222336e+00 5.086472e+00
3.786292e+01 2.135417e-01 1.226416e-01 1.412673e+00 -5.218979e+00 5.082047e+00
3.832634e+01 2.083333e-01 1.225735e-01 1.411845e+00 -5.218979e+00 5.070145e+00
3.844756e+01 2.083333e-01 1.228248e-01 1.411469e+00 -5.206802e+00 5.061371e+00
4.015820e+01 2.135417e-01 1.225625e-01 1.411115e+00 -5.187119e+00 5.048279e+00
3.831346e+01 2.083333e-01 1.238664e-01 1.410130e+00 -5.195694e+00 5.055740e+00
4.012978e+01 2.135417e-01 1.244738e-01 1.413373e+00 -5.219986e+00 5.068817e+00
3.974226e+01 2.135417e-01 1.246570e-01 1.415322e+00 -5.222229e+00 5.070175e+00
3.911298e+01 2.083333e-01 1.246419e-01 1.415378e+00 -5.227036e+00 5.073105e+00
3.883647e+01 2.083333e-01 1.248391e-01 1.417224e+00 -5.230057e+00 5.073410e+00
3.814626e+01 2.083333e-01 1.262613e-01 1.420051e+00 -5.231033e+00 5.072693e+00
3.899486e+01 2.135417e-01 1.265803e-01 1.417937e+00 -5.228455e+00 5.069763e+00
3.827309e+01 2.083333e-01 1.296006e-01 1.413476e+00 -5.174362e+00 5.029434e+00
3.827309e+01 2.083333e-01 1.296006e-01 1.413476e+00 -5.174362e+00 5.029434e+00
3.827309e+01 2.083333e-01 1.296006e-01 1.413476e+00 -5.174362e+00 5.029434e+00
3.884877e+01 2.083333e-01 1.301702e-01 1.412666e+00 -5.170288e+00 5.028137e+00
3.878983e+01 2.083333e-01 1.304389e-01 1.412513e+00 -5.164825e+00 5.027771e+00
3.895622e+01 2.083333e-01 1.301343e-01 1.412418e+00 -5.160950e+00 5.023575e+00
3.864787e+01 2.135417e-01 1.312711e-01 1.412573e+00 -5.173401e+00 5.035217e+00
3.850597e+01 2.135417e-01 1.312792e-01 1.412589e+00 -5.173401e+00 5.035217e+00
3.909760e+01 2.083333e-01 1.310217e-01 1.412244e+00 -5.172592e+00 5.034409e+00
3.900229e+01 2.083333e-01 1.308294e-01 1.411837e+00 -5.153564e+00 5.015900e+00
3.900229e+01 2.083333e-01 1.308372e-01 1.411831e+00 -5.153305e+00 5.015732e+00
3.900229e+01 2.083333e-01 1.308372e-01 1.411832e+00 -5.153305e+00 5.015732e+00
3.905461e+01 2.083333e-01 1.308720e-01 1.411832e+00 -5.153046e+00 5.015411e+00
3.898051e+01 2.083333e-01 1.307398e-01 1.411986e+00 -5.152939e+00 5.015015e+00
4.192941e+01 2.187500e-01 1.293582e-01 1.410912e+00 -5.123383e+00 4.983017e+00
3.858244e+01 2.135417e-01 1.304855e-01 1.410288e+00 -5.148514e+00 5.008881e+00
3.858244e+01 2.135417e-01 1.316129e-01 1.409663e+00 -5.148514e+00 5.008881e+00
3.859842e+01 2.135417e-01 1.315234e-01 1.409614e+00 -5.146301e+00 5.006866e+00
3.862515e+01 2.135417e-01 1.315226e-01 1.409663e+00 -5.146301e+00 5.006866e+00
3.911459e+01 2.135417e-01 1.322242e-01 1.410056e+00 -5.142456e+00 5.002167e+00
3.916264e+01 2.135417e-01 1.329802e-01 1.410423e+00 -5.130081e+00 4.989014e+00
3.947803e+01 2.031250e-01 1.336359e-01 1.410696e+00 -5.129837e+00 4.988876e+00
3.947803e+01 2.031250e-01 1.342772e-01 1.410977e+00 -5.114944e+00 4.983536e+00
3.947803e+01 2.031250e-01 1.342783e-01 1.410979e+00 -5.114975e+00 4.983551e+00
3.831897e+01 2.135417e-01 1.348647e-01 1.411743e+00 -5.130157e+00 4.996948e+00
4.123271e+01 2.135417e-01 1.330186e-01 1.411803e+00 -5.104248e+00 4.973236e+00
3.924832e+01 2.083333e-01 1.341549e-01 1.410885e+00 -5.119156e+00 4.987808e+00
3.868726e+01 2.135417e-01 1.348077e-01 1.410965e+00 -5.123505e+00 4.992706e+00
3.945372e+01 2.083333e-01 1.355910e-01 1.411209e+00 -5.121811e+00 4.992706e+00
3.945372e+01 2.083333e-01 1.361735e-01 1.411360e+00 -5.104263e+00 4.977814e+00
3.909145e+01 2.187500e-01 1.364846e-01 1.410885e+00 -5.106125e+00 4.978790e+00
3.871458e+01 2.239583e-01 1.386441e-01 1.410473e+00 -5.114090e+00 4.961945e+00
3.907353e+01 2.083333e-01 1.388051e-01 1.410608e+00 -5.096054e+00 4.946228e+00
3.926654e+01 2.083333e-01 1.394092e-01 1.410543e+00 -5.081787e+00 4.935532e+00
3.861548e+01 2.083333e-01 1.395830e-01 1.410500e+00 -5.085861e+00 4.939514e+00
3.891843e+01 2.239583e-01 1.402889e-01 1.411572e+00 -5.102768e+00 4.951736e+00
3.891843e+01 2.239583e-01 1.402889e-01 1.411572e+00 -5.102768e+00 4.951736e+00
3.891843e+01 2.239583e-01 1.402889e-01 1.411572e+00 -5.102768e+00 4.951736e+00
3.965802e+01 2.083333e-01 1.399635e-01 1.411119e+00 -5.077728e+00 4.928909e+00
3.858818e+01 2.187500e-01 1.409577e-01 1.411185e+00 -5.089050e+00 4.940796e+00
3.887912e+01 2.083333e-01 1.406333e-01 1.411430e+00 -5.089050e+00 4.940796e+00
3.963130e+01 2.083333e-01 1.419676e-01 1.410330e+00 -5.071869e+00 4.926727e+00
3.874756e+01 2.135417e-01 1.366378e-01 1.413989e+00 -5.163971e+00 4.937454e+00
3.874756e+01 2.135417e-01 1.299788e-01 1.418330e+00 -5.163971e+00 4.937454e+00
4.021422e+01 2.083333e-01 1.352400e-01 1.416382e+00 -5.111023e+00 4.939819e+00
3.835703e+01 2.187500e-01 1.395001e-01 1.414947e+00 -5.116211e+00 4.963364e+00
3.849724e+01 2.239583e-01 1.393201e-01 1.414757e+00 -5.106110e+00 4.955063e+00
3.841864e+01 2.239583e-01 1.394683e-01 1.414620e+00 -5.097565e+00 4.950043e+00
3.841864e+01 2.239583e-01 1.395329e-01 1.414613e+00 -5.097565e+00 4.950043e+00
4.047182e+01 2.135417e-01 1.394541e-01 1.414655e+00 -5.079117e+00 4.934601e+00
3.811281e+01 2.135417e-01 1.419591e-01 1.413859e+00 -5.083450e+00 4.949524e+00
3.811281e+01 2.135417e-01 1.419591e-01 1.413859e+00 -5.083450e+00 4.949524e+00
4.074710e+01 2.239583e-01 1.405278e-01 1.413723e+00 -5.064667e+00 4.926270e+00
3.829776e+01 2.135417e-01 1.422048e-01 1.413612e+00 -5.083084e+00 4.947174e+00
3.844548e+01 2.187500e-01 1.430463e-01 1.413702e+00 -5.087387e+00 4.948624e+00
4.012730e+01 2.135417e-01 1.415803e-01 1.413610e+00 -5.059189e+00 4.919861e+00
3.855382e+01 2.135417e-01 1.437994e-01 1.412653e+00 -5.072281e+00 4.935959e+00
4.422278e+01 2.239583e-01 1.413215e-01 1.412337e+00 -5.018692e+00 4.881378e+00
3.844011e+01 2.135417e-01 1.427801e-01 1.412686e+00 -5.059067e+00 4.928345e+00
3.808549e+01 2.135417e-01 1.430862e-01 1.413008e+00 -5.059067e+00 4.928345e+00
3.872476e+01 2.187500e-01 1.442316e-01 1.412011e+00 -5.038010e+00 4.906097e+00
3.889252e+01 2.135417e-01 1.449170e-01 1.411649e+00 -5.030792e+00 4.905945e+00
3.930229e+01 2.135417e-01 1.448457e-01 1.411683e+00 -5.028992e+00 4.903900e+00
3.970680e+01 2.083333e-01 1.449600e-01 1.411398e+00 -5.019501e+00 4.899094e+00
3.931264e+01 2.187500e-01 1.424295e-01 1.412095e+00 -5.049301e+00 4.899414e+00
3.923827e+01 2.187500e-01 1.398918e-01 1.412749e+00 -5.049469e+00 4.899307e+00
3.839394e+01 2.135417e-01 1.408139e-01 1.412772e+00 -5.051971e+00 4.908112e+00
3.923216e+01 2.135417e-01 1.406254e-01 1.412753e+00 -5.046722e+00 4.904282e+00
4.058965e+01 2.187500e-01 1.411755e-01 1.413132e+00 -5.035751e+00 4.902634e+00
3.872865e+01 2.135417e-01 1.449834e-01 1.412178e+00 -5.027710e+00 4.908569e+00
3.872865e+01 2.135417e-01 1.449817e-01 1.412178e+00 -5.027695e+00 4.908554e+00
3.893411e+01 2.135417e-01 1.445253e-01 1.412030e+00 -5.027695e+00 4.908554e+00
3.939854e+01 2.135417e-01 1.440065e-01 1.411863e+00 -5.023163e+00 4.895172e+00
3.939854e+01 2.135417e-01 1.439441e-01 1.411845e+00 -5.020645e+00 4.893387e+00
3.856534e+01 2.187500e-01 1.440894e-01 1.412112e+00 -5.032883e+00 4.903595e+00
3.856534e+01 2.187500e-01 1.439736e-01 1.412203e+00 -5.032883e+00 4.903595e+00
3.955551e+01 2.187500e-01 1.431014e-01 1.413438e+00 -5.036194e+00 4.900635e+00
3.955551e+01 2.187500e-01 1.427284e-01 1.414205e+00 -5.036194e+00 4.900635e+00
3.879805e+01 2.135417e-01 1.474571e-01 1.412950e+00 -5.012360e+00 4.886856e+00
3.831857e+01 2.135417e-01 1.495727e-01 1.412475e+00 -5.009628e+00 4.888336e+00
3.846336e+01 2.135417e-01 1.495846e-01 1.412523e+00 -5.009384e+00 4.888336e+00
3.846336e+01 2.135417e-01 1.496030e-01 1.412509e+00 -5.008453e+00 4.887634e+00
3.846007e+01 2.135417e-01 1.496399e-01 1.412478e+00 -5.008133e+00 4.887634e+00
3.943726e+01 2.135417e-01 1.491291e-01 1.412793e+00 -4.998276e+00 4.878830e+00
3.956657e+01 2.083333e-01 1.490618e-01 1.412788e+00 -4.998276e+00 4.878769e+00
3.922589e+01 2.135417e-01 1.498198e-01 1.412166e+00 -4.991623e+00 4.870026e+00
3.902548e+01 2.135417e-01 1.505535e-01 1.411855e+00 -4.983414e+00 4.869675e+00
3.915643e+01 2.083333e-01 1.498256e-01 1.412460e+00 -4.999344e+00 4.882324e+00
3.900781e+01 2.083333e-01 1.493954e-01 1.412741e+00 -4.999344e+00 4.882324e+00
3.899333e+01 2.135417e-01 1.494172e-01 1.412735e+00 -4.998703e+00 4.881805e+00
3.864728e+01 2.135417e-01 1.469707e-01 1.414644e+00 -5.009216e+00 4.924805e+00
3.854501e+01 2.135417e-01 1.468856e-01 1.414662e+00 -5.009216e+00 4.924805e+00
3.909805e+01 2.187500e-01 1.455468e-01 1.414471e+00 -5.010681e+00 4.918045e+00
3.909805e+01 2.187500e-01 1.455291e-01 1.414479e+00 -5.010681e+00 4.917786e+00
3.908295e+01 2.291667e-01 1.450074e-01 1.414586e+00 -5.015823e+00 4.917786e+00
3.948862e+01 2.135417e-01 1.399343e-01 1.414382e+00 -5.018112e+00 4.884506e+00
3.785472e+01 2.083333e-01 1.422500e-01 1.413650e+00 -5.018433e+00 4.898254e+00
3.970486e+01 2.239583e-01 1.423222e-01 1.412781e+00 -4.999527e+00 4.882278e+00
3.933961e+01 2.239583e-01 1.423346e-01 1.412775e+00 -4.999619e+00 4.882401e+00
3.821715e+01 2.083333e-01 1.425307e-01 1.413099e+00 -5.006927e+00 4.899124e+00
3.821715e+01 2.083333e-01 1.428086e-01 1.413309e+00 -5.006927e+00 4.899124e+00
3.791135e+01 2.083333e-01 1.433735e-01 1.413271e+00 -5.012115e+00 4.903732e+00
3.975714e+01 2.187500e-01 1.428799e-01 1.414116e+00 -5.006439e+00 4.898254e+00
3.984990e+01 2.187500e-01 1.425684e-01 1.414839e+00 -4.999435e+00 4.888046e+00
3.945412e+01 2.187500e-01 1.429098e-01 1.414615e+00 -4.998672e+00 4.888016e+00
3.985579e+01 2.187500e-01 1.427468e-01 1.414561e+00 -4.996216e+00 4.884933e+00
3.873399e+01 2.187500e-01 1.429361e-01 1.414465e+00 -4.999054e+00 4.888855e+00
3.857344e+01 2.187500e-01 1.431081e-01 1.414321e+00 -4.999878e+00 4.889038e+00
3.833893e+01 2.187500e-01 1.429637e-01 1.416956e+00 -5.006638e+00 4.931885e+00
3.831308e+01 2.187500e-01 1.429617e-01 1.419490e+00 -5.006622e+00 4.931946e+00
3.809509e+01 2.135417e-01 1.436495e-01 1.419475e+00 -5.024307e+00 4.944733e+00
3.823036e+01 2.187500e-01 1.431996e-01 1.419352e+00 -5.006836e+00 4.927673e+00
3.864417e+01 2.187500e-01 1.429998e-01 1.419494e+00 -5.006714e+00 4.927536e+00
3.874397e+01 2.187500e-01 1.428571e-01 1.419360e+00 -5.003220e+00 4.922729e+00
3.874397e+01 2.187500e-01 1.428901e-01 1.419227e+00 -5.001663e+00 4.917770e+00
3.862527e+01 2.187500e-01 1.455567e-01 1.422090e+00 -4.996597e+00 4.899887e+00
3.810301e+01 2.135417e-01 1.472052e-01 1.427696e+00 -5.026184e+00 4.927475e+00
3.879378e+01 2.291667e-01 1.453729e-01 1.431537e+00 -5.023987e+00 4.927811e+00
3.879378e+01 2.291667e-01 1.453906e-01 1.431569e+00 -5.022186e+00 4.927811e+00
3.922699e+01 2.187500e-01 1.468272e-01 1.431304e+00 -5.006241e+00 4.926590e+00
3.847502e+01 2.239583e-01 1.470201e-01 1.431583e+00 -5.015533e+00 4.934967e+00
3.941933e+01 2.187500e-01 1.466302e-01 1.431985e+00 -5.015533e+00 4.934967e+00
3.941933e+01 2.187500e-01 1.462497e-01 1.432319e+00 -5.009842e+00 4.928955e+00
3.808308e+01 2.135417e-01 1.456303e-01 1.431855e+00 -5.011993e+00 4.946915e+00
4.000568e+01 2.083333e-01 1.447215e-01 1.431408e+00 -5.011993e+00 4.946915e+00
3.855865e+01 2.291667e-01 1.448953e-01 1.430825e+00 -4.992691e+00 4.923294e+00
3.904503e+01 2.187500e-01 1.453852e-01 1.430205e+00 -4.992691e+00 4.923294e+00
3.904503e+01 2.187500e-01 1.453402e-01 1.430215e+00 -4.988525e+00 4.919067e+00
3.812097e+01 2.083333e-01 1.467152e-01 1.430003e+00 -4.991440e+00 4.921097e+00
3.962846e+01 2.135417e-01 1.459777e-01 1.429851e+00 -4.974594e+00 4.903778e+00
