-2.087141e+00 5.784318e+00 -3.352734e+01 3.083594e+01 8.443087e-05 3.194339e-03 -2.226562e-01 2.265625e-01
-2.418447e+00 5.966362e+00 -3.364062e+01 3.056641e+01 4.429884e-06 2.377947e-03 -2.187500e-01 2.187500e-01
-2.508046e+00 6.034328e+00 -3.366016e+01 3.065234e+01 4.767385e-06 2.257695e-03 -2.187500e-01 2.148438e-01
-2.564631e+00 6.095032e+00 -3.487500e+01 3.097656e+01 4.761564e-06 2.193215e-03 -2.226562e-01 2.187500e-01
-2.619015e+00 6.162180e+00 -3.593359e+01 3.153516e+01 6.605515e-06 2.135920e-03 -2.187500e-01 2.148438e-01
