-2.212569e-01 6.049771e+00 -2.911229e+01 3.558095e+01 2.383184e-06 3.192266e-03 -1.262285e-01 1.262285e-01
-1.448338e-01 6.807428e+00 -3.315802e+01 3.933054e+01 -4.521359e-07 2.630210e-03 -1.262285e-01 1.262285e-01
-1.187130e-01 7.307851e+00 -3.701017e+01 4.060108e+01 -2.399424e-07 2.433513e-03 -1.262285e-01 1.262285e-01
-1.232022e-01 7.697763e+00 -3.863731e+01 4.150770e+01 -1.082756e-08 2.315600e-03 -1.262285e-01 1.262285e-01
-1.429141e-01 8.004473e+00 -4.133221e+01 4.182982e+01 -1.771810e-08 2.233875e-03 -1.262285e-01 1.262285e-01
-1.675738e-01 8.264848e+00 -4.240649e+01 4.249462e+01 -6.352329e-08 2.174300e-03 -1.262285e-01 1.262285e-01
-1.616548e-01 8.479418e+00 -4.372655e+01 4.301163e+01 1.415699e-08 2.130510e-03 -1.262285e-01 1.262285e-01
-1.772013e-01 8.652042e+00 -4.430479e+01 4.353959e+01 1.424876e-08 2.093139e-03 -1.262285e-01 1.262285e-01
-1.792796e-01 8.807370e+00 -4.567606e+01 4.373843e+01 -9.016259e-08 2.066644e-03 -1.273766e-01 1.296375e-01
-1.789283e-01 8.951092e+00 -4.618309e+01 4.419651e+01 2.309642e-08 2.040580e-03 -1.359328e-01 1.366138e-01
-1.707101e-01 9.078683e+00 -4.649300e+01 4.484074e+01 -9.272917e-08 2.017144e-03 -1.415861e-01 1.399677e-01
-1.644847e-01 9.186004e+00 -4.710573e+01 4.520128e+01 1.169625e-07 1.998010e-03 -1.437402e-01 1.376171e-01
-1.597194e-01 9.296681e+00 -4.755462e+01 4.563501e+01 -4.978166e-08 1.983593e-03 -1.519087e-01 1.445428e-01
-1.512746e-01 9.386901e+00 -4.803266e+01 4.577091e+01 1.358987e-07 1.968047e-03 -1.502986e-01 1.495087e-01
-1.436277e-01 9.476443e+00 -4.864253e+01 4.599257e+01 6.046362e-08 1.953759e-03 -1.528186e-01 1.505433e-01
-1.527797e-01 9.557444e+00 -4.860845e+01 4.669486e+01 -1.466260e-07 1.940082e-03 -1.584409e-01 1.540832e-01
-1.323345e-01 9.630198e+00 -4.904085e+01 4.748302e+01 -5.335576e-09 1.929347e-03 -1.601008e-01 1.575761e-01
-1.307939e-01 9.705423e+00 -4.934588e+01 4.732985e+01 1.403788e-07 1.915462e-03 -1.601099e-01 1.559310e-01
-1.167899e-01 9.764228e+00 -4.959721e+01 4.776653e+01 6.575913e-08 1.908881e-03 -1.576014e-01 1.594679e-01
-1.108042e-01 9.827044e+00 -4.962671e+01 4.790342e+01 -6.457185e-08 1.896491e-03 -1.600905e-01 1.607054e-01
-1.129580e-01 9.889951e+00 -4.976796e+01 4.850137e+01 -3.940067e-08 1.885703e-03 -1.582580e-01 1.525792e-01
-9.331622e-02 9.939529e+00 -5.036773e+01 4.879712e+01 1.518069e-07 1.881648e-03 -1.673149e-01 1.606545e-01
-9.158465e-02 9.988517e+00 -5.059666e+01 4.904350e+01 3.827726e-08 1.870546e-03 -1.692259e-01 1.631268e-01
-9.350752e-02 1.004455e+01 -5.077327e+01 4.924873e+01 -2.286045e-08 1.865540e-03 -1.642128e-01 1.690859e-01
-8.778278e-02 1.008949e+01 -5.080383e+01 4.970964e+01 5.133014e-08 1.856333e-03 -1.613139e-01 1.694461e-01
-8.852571e-02 1.013230e+01 -5.108696e+01 4.951819e+01 -1.181285e-07 1.849358e-03 -1.644592e-01 1.737358e-01
-7.260994e-02 1.017778e+01 -5.136383e+01 5.009873e+01 1.775009e-07 1.841768e-03 -1.724462e-01 1.716803e-01
-7.270235e-02 1.021642e+01 -5.089551e+01 5.068609e+01 2.483137e-08 1.834121e-03 -1.754773e-01 1.715657e-01
-7.389381e-02 1.026293e+01 -5.102538e+01 5.093431e+01 -5.297035e-08 1.827734e-03 -1.608546e-01 1.690842e-01
-6.379083e-02 1.029739e+01 -5.145955e+01 5.102185e+01 3.640680e-08 1.824001e-03 -1.648536e-01 1.730149e-01
-6.387033e-02 1.033064e+01 -5.154036e+01 5.165128e+01 -5.369608e-08 1.817581e-03 -1.774697e-01 1.720037e-01
-5.616557e-02 1.037065e+01 -5.150655e+01 5.151133e+01 -1.069520e-08 1.813384e-03 -1.794109e-01 1.645803e-01
-5.129077e-02 1.040327e+01 -5.142553e+01 5.189169e+01 8.838042e-08 1.807948e-03 -1.806197e-01 1.713885e-01
-3.765062e-02 1.043968e+01 -5.142886e+01 5.239794e+01 1.000570e-07 1.803637e-03 -1.730487e-01 1.553324e-01
-3.829875e-02 1.047855e+01 -5.206507e+01 5.284015e+01 4.163125e-08 1.799302e-03 -1.736455e-01 1.688348e-01
-3.268183e-02 1.050704e+01 -5.221472e+01 5.309724e+01 -3.359217e-08 1.794990e-03 -1.808492e-01 1.655114e-01
-3.344366e-02 1.053554e+01 -5.212017e+01 5.251631e+01 -1.292425e-07 1.794211e-03 -1.734381e-01 1.698425e-01
-1.861295e-02 1.056244e+01 -5.244319e+01 5.268649e+01 1.015339e-07 1.787668e-03 -1.787717e-01 1.701736e-01
-7.799828e-03 1.059546e+01 -5.270149e+01 5.286837e+01 1.966732e-09 1.784804e-03 -1.661361e-01 1.698550e-01
-1.089814e-02 1.062361e+01 -5.304890e+01 5.350468e+01 -5.560790e-08 1.783596e-03 -1.740751e-01 1.809379e-01
1.923325e-03 1.064076e+01 -5.340187e+01 5.437084e+01 9.522603e-08 1.776689e-03 -1.821082e-01 1.595855e-01
4.403189e-03 1.067399e+01 -5.327087e+01 5.386812e+01 -7.964622e-08 1.775954e-03 -1.743778e-01 1.779924e-01
1.301317e-02 1.068981e+01 -5.353803e+01 5.419121e+01 1.638751e-07 1.772700e-03 -1.793185e-01 1.654103e-01
2.096065e-02 1.072443e+01 -5.365752e+01 5.484839e+01 -1.330570e-07 1.769530e-03 -1.845607e-01 1.623619e-01
2.651182e-02 1.073403e+01 -5.389773e+01 5.418588e+01 4.136431e-08 1.765039e-03 -1.803545e-01 1.661803e-01
3.325507e-02 1.075694e+01 -5.373973e+01 5.489906e+01 3.915102e-08 1.764564e-03 -1.796634e-01 1.896758e-01
3.557936e-02 1.078079e+01 -5.394941e+01 5.500010e+01 -1.167803e-07 1.761131e-03 -1.800095e-01 1.790796e-01
4.475340e-02 1.080148e+01 -5.391611e+01 5.517052e+01 2.980269e-08 1.756789e-03 -1.813461e-01 1.943840e-01
5.351827e-02 1.081660e+01 -5.444473e+01 5.550824e+01 1.213199e-07 1.757480e-03 -1.731813e-01 1.716527e-01
5.138555e-02 1.084326e+01 -5.410335e+01 5.550408e+01 -1.136101e-08 1.758978e-03 -1.648815e-01 2.005605e-01
5.930273e-02 1.085434e+01 -5.479815e+01 5.592215e+01 1.006650e-07 1.754657e-03 -1.617707e-01 1.670746e-01
5.703089e-02 1.087185e+01 -5.527830e+01 5.629695e+01 -9.272512e-08 1.750774e-03 -1.767052e-01 1.954628e-01
7.286676e-02 1.089643e+01 -5.509199e+01 5.666727e+01 3.190312e-08 1.748695e-03 -1.837371e-01 1.899396e-01
6.433239e-02 1.091496e+01 -5.546191e+01 5.656880e+01 -1.407683e-08 1.746524e-03 -1.769851e-01 1.867666e-01
7.692387e-02 1.092399e+01 -5.610175e+01 5.684919e+01 9.032197e-08 1.744552e-03 -1.908868e-01 1.880426e-01
8.103971e-02 1.094746e+01 -5.620258e+01 5.625480e+01 -9.975768e-08 1.741696e-03 -1.739464e-01 1.927263e-01
8.253407e-02 1.095699e+01 -5.589751e+01 5.727496e+01 7.517753e-08 1.741587e-03 -1.753245e-01 1.866328e-01
8.898289e-02 1.098486e+01 -5.608661e+01 5.736623e+01 3.275057e-08 1.737503e-03 -1.762568e-01 2.135894e-01
9.287482e-02 1.098564e+01 -5.702825e+01 5.749511e+01 2.195540e-09 1.733557e-03 -1.830497e-01 2.007472e-01
9.314168e-02 1.100285e+01 -5.700517e+01 5.734489e+01 1.853069e-08 1.739045e-03 -1.841792e-01 2.150139e-01
9.724526e-02 1.102070e+01 -5.732246e+01 5.803689e+01 -3.970398e-08 1.732437e-03 -1.766724e-01 2.158076e-01
1.027636e-01 1.103620e+01 -5.714614e+01 5.826573e+01 -6.943493e-08 1.729921e-03 -1.774628e-01 1.882650e-01
1.149114e-01 1.104496e+01 -5.756573e+01 5.860510e+01 1.424554e-07 1.734338e-03 -1.781599e-01 1.985963e-01
1.107628e-01 1.105713e+01 -5.839464e+01 5.856271e+01 5.665427e-09 1.729942e-03 -1.772452e-01 1.980252e-01
1.199072e-01 1.107324e+01 -5.830428e+01 5.862810e+01 -1.061374e-07 1.729502e-03 -1.787877e-01 2.040319e-01
1.313006e-01 1.108547e+01 -5.873817e+01 5.859716e+01 6.356514e-08 1.725903e-03 -1.721799e-01 2.039699e-01
1.322432e-01 1.110512e+01 -5.873970e+01 5.805799e+01 -1.562056e-08 1.722880e-03 -1.807368e-01 2.258515e-01
1.364959e-01 1.112125e+01 -5.883581e+01 5.945438e+01 5.372669e-08 1.720316e-03 -1.768458e-01 2.094982e-01
1.382937e-01 1.113287e+01 -5.888101e+01 5.947037e+01 -5.891779e-09 1.720270e-03 -1.834662e-01 2.108372e-01
1.412892e-01 1.114267e+01 -5.938545e+01 5.907645e+01 1.503846e-08 1.721048e-03 -2.056445e-01 2.218395e-01
1.465530e-01 1.116188e+01 -5.963548e+01 5.922230e+01 5.160115e-09 1.714589e-03 -1.835305e-01 2.179771e-01
1.441693e-01 1.117087e+01 -5.984801e+01 5.981751e+01 -1.705016e-07 1.715987e-03 -1.789356e-01 2.243333e-01
1.606076e-01 1.118549e+01 -6.011338e+01 5.979423e+01 1.924747e-07 1.712744e-03 -1.825890e-01 2.130338e-01
1.544311e-01 1.120027e+01 -6.049354e+01 6.086156e+01 -8.425137e-08 1.712298e-03 -2.001642e-01 2.175565e-01
1.631762e-01 1.121313e+01 -5.981732e+01 6.001150e+01 5.785448e-08 1.710780e-03 -1.803742e-01 2.178311e-01
1.634976e-01 1.122941e+01 -6.050014e+01 6.058937e+01 -1.862154e-08 1.704815e-03 -1.761731e-01 2.117880e-01
1.636512e-01 1.124015e+01 -6.053233e+01 6.049779e+01 2.793955e-08 1.706597e-03 -1.960906e-01 2.196654e-01
1.705760e-01 1.125144e+01 -6.034788e+01 6.049688e+01 -1.982261e-09 1.702150e-03 -1.808304e-01 2.289746e-01
1.739372e-01 1.126602e+01 -6.114196e+01 6.043669e+01 4.788934e-08 1.698614e-03 -2.010396e-01 1.883397e-01
1.730760e-01 1.127925e+01 -6.101086e+01 6.050372e+01 -8.554108e-08 1.701273e-03 -1.807012e-01 2.247421e-01
1.829771e-01 1.129563e+01 -6.114235e+01 6.128913e+01 1.076209e-07 1.699768e-03 -1.748547e-01 2.036822e-01
1.771372e-01 1.129988e+01 -6.167490e+01 6.098739e+01 -1.173193e-07 1.699280e-03 -1.891158e-01 2.320972e-01
1.881972e-01 1.130702e+01 -6.178692e+01 6.071184e+01 8.495693e-08 1.694330e-03 -1.820390e-01 2.403949e-01
1.890103e-01 1.131805e+01 -6.140563e+01 6.141036e+01 -7.949527e-09 1.693895e-03 -1.848362e-01 2.242226e-01
1.880220e-01 1.133696e+01 -6.163465e+01 6.138010e+01 1.236079e-08 1.693215e-03 -2.041862e-01 2.301092e-01
1.904700e-01 1.133658e+01 -6.205558e+01 6.168048e+01 -6.319777e-08 1.689898e-03 -1.909771e-01 2.423745e-01
1.921694e-01 1.135081e+01 -6.187231e+01 6.102062e+01 5.268750e-08 1.691696e-03 -2.067412e-01 2.422706e-01
1.972164e-01 1.135989e+01 -6.224412e+01 6.144975e+01 -3.187640e-08 1.688004e-03 -2.059094e-01 2.360525e-01
2.009273e-01 1.136666e+01 -6.247860e+01 6.192555e+01 3.747546e-08 1.687412e-03 -1.769798e-01 2.437558e-01
2.044159e-01 1.138493e+01 -6.266878e+01 6.253872e+01 9.786628e-08 1.687277e-03 -2.125908e-01 2.355629e-01
2.043740e-01 1.139122e+01 -6.296181e+01 6.265093e+01 -5.059713e-08 1.685728e-03 -2.012000e-01 2.389520e-01
2.038629e-01 1.139397e+01 -6.257149e+01 6.332547e+01 -5.530992e-08 1.684524e-03 -1.856912e-01 2.428950e-01
2.091417e-01 1.141371e+01 -6.341788e+01 6.265557e+01 7.688186e-08 1.681821e-03 -2.012342e-01 2.307203e-01
