3.733682e+04 9.279000e-01 1.488895e-03 5.783156e-01 -9.999527e-01 9.999899e-01
1.825258e+03 1.021000e-01 -6.303414e-03 5.830934e-01 -2.404610e+00 3.218906e+00
1.466338e+03 7.220000e-02 -1.462823e-02 5.933246e-01 -3.267611e+00 3.653911e+00
1.286842e+03 6.930000e-02 -1.746972e-02 5.949392e-01 -3.069951e+00 3.069520e+00
9.177314e+02 5.350000e-02 -1.885590e-02 5.947691e-01 -3.069587e+00 2.539875e+00
8.873154e+02 5.270000e-02 -1.898061e-02 5.943139e-01 -3.068208e+00 2.546825e+00
8.666071e+02 5.400000e-02 -1.910387e-02 5.941590e-01 -3.067241e+00 2.505090e+00
9.905126e+02 5.500000e-02 -1.920127e-02 5.944000e-01 -3.066003e+00 2.506611e+00
7.970791e+02 5.180000e-02 -1.988234e-02 5.951173e-01 -3.065663e+00 2.467570e+00
7.893532e+02 4.950000e-02 -2.004187e-02 5.951693e-01 -3.065443e+00 2.444986e+00
7.938889e+02 5.180000e-02 -2.039166e-02 5.955397e-01 -3.064801e+00 2.477414e+00
7.751005e+02 4.710000e-02 -2.081271e-02 5.958240e-01 -3.063658e+00 2.504545e+00
6.417460e+02 4.280000e-02 -2.082666e-02 5.959955e-01 -3.062803e+00 2.621168e+00
6.936631e+02 4.390000e-02 -2.123350e-02 5.964194e-01 -3.061479e+00 2.700449e+00
6.263071e+02 4.140000e-02 -2.164638e-02 5.969676e-01 -3.162542e+00 2.714684e+00
6.924311e+02 4.320000e-02 -2.192945e-02 5.973774e-01 -3.324450e+00 2.745961e+00
7.466197e+02 4.860000e-02 -2.215354e-02 5.976310e-01 -3.420090e+00 2.744508e+00
6.123324e+02 4.060000e-02 -2.224838e-02 5.981037e-01 -3.531366e+00 2.810696e+00
6.672317e+02 4.360000e-02 -2.254138e-02 5.984919e-01 -3.646168e+00 2.735441e+00
6.593059e+02 4.340000e-02 -2.280273e-02 5.988217e-01 -3.668082e+00 2.803706e+00
6.857595e+02 4.400000e-02 -2.304444e-02 5.991983e-01 -3.801335e+00 2.903164e+00
7.523548e+02 4.340000e-02 -2.315902e-02 5.995661e-01 -3.928137e+00 2.896870e+00
6.249764e+02 4.240000e-02 -2.336789e-02 6.001007e-01 -4.070591e+00 2.770212e+00
