3.165374e+04 8.758000e-01 -8.586271e-04 5.772530e-01 -9.999947e-01 9.999862e-01
1.550916e+03 8.440000e-02 -8.481893e-03 5.811842e-01 -2.905408e+00 2.863250e+00
1.343208e+03 8.050000e-02 -1.303621e-02 5.833785e-01 -2.877050e+00 2.844046e+00
1.213265e+03 7.640000e-02 -1.435908e-02 5.833810e-01 -2.219757e+00 2.822715e+00
1.035296e+03 6.560000e-02 -1.520586e-02 5.834940e-01 -2.166884e+00 2.825629e+00
9.008142e+02 5.800000e-02 -1.592858e-02 5.839545e-01 -2.199241e+00 2.789381e+00
8.152242e+02 5.510000e-02 -1.655961e-02 5.844511e-01 -2.223083e+00 2.734592e+00
7.575290e+02 5.080000e-02 -1.672905e-02 5.847313e-01 -2.300448e+00 2.711546e+00
7.387885e+02 4.870000e-02 -1.729470e-02 5.851210e-01 -2.425537e+00 2.704964e+00
7.577534e+02 4.990000e-02 -1.750992e-02 5.855118e-01 -2.481056e+00 2.686339e+00
6.771982e+02 4.590000e-02 -1.774930e-02 5.858199e-01 -2.583650e+00 2.721574e+00
8.437570e+02 5.440000e-02 -1.809700e-02 5.861407e-01 -2.625436e+00 2.801909e+00
6.462786e+02 4.370000e-02 -1.846770e-02 5.866644e-01 -2.670449e+00 2.886887e+00
8.268238e+02 4.760000e-02 -1.873736e-02 5.870878e-01 -2.759886e+00 2.984134e+00
7.200351e+02 4.450000e-02 -1.902694e-02 5.876168e-01 -2.893615e+00 3.064860e+00
6.441166e+02 4.390000e-02 -1.913318e-02 5.879803e-01 -2.937794e+00 3.081611e+00
6.672480e+02 4.310000e-02 -1.935858e-02 5.881995e-01 -2.934464e+00 3.138729e+00
6.949809e+02 4.130000e-02 -1.939323e-02 5.886158e-01 -3.012065e+00 3.342368e+00
6.231603e+02 4.190000e-02 -1.993294e-02 5.891570e-01 -3.056739e+00 3.387178e+00
6.587177e+02 4.040000e-02 -1.993444e-02 5.895014e-01 -3.145328e+00 3.450488e+00
6.510970e+02 4.070000e-02 -2.014580e-02 5.897705e-01 -3.156949e+00 3.461082e+00
5.858842e+02 4.160000e-02 -2.042393e-02 5.900575e-01 -3.144544e+00 3.499432e+00
6.736642e+02 4.180000e-02 -2.053171e-02 5.903757e-01 -3.187266e+00 3.532203e+00
5.650362e+02 3.620000e-02 -2.091103e-02 5.907184e-01 -3.290194e+00 3.597124e+00
5.721641e+02 3.710000e-02 -2.089070e-02 5.909814e-01 -3.370892e+00 3.637503e+00
5.463077e+02 3.530000e-02 -2.110926e-02 5.913801e-01 -3.375031e+00 3.678571e+00
5.806550e+02 3.590000e-02 -2.134192e-02 5.917512e-01 -3.345365e+00 3.759367e+00
5.914990e+02 3.560000e-02 -2.140642e-02 5.922788e-01 -3.394818e+00 3.761295e+00
5.606414e+02 3.550000e-02 -2.157371e-02 5.926337e-01 -3.382812e+00 3.714087e+00
5.404173e+02 3.550000e-02 -2.176182e-02 5.930748e-01 -3.455039e+00 3.733010e+00
5.375000e+02 3.560000e-02 -2.176738e-02 5.933765e-01 -3.493335e+00 3.719852e+00
5.799985e+02 3.610000e-02 -2.197632e-02 5.936673e-01 -3.503412e+00 3.725659e+00
7.311548e+02 3.830000e-02 -2.207060e-02 5.940247e-01 -3.539395e+00 3.733121e+00
5.714433e+02 3.440000e-02 -2.257816e-02 5.946491e-01 -3.591378e+00 3.744437e+00
6.382541e+02 3.650000e-02 -2.260897e-02 5.949800e-01 -3.639036e+00 3.737538e+00
5.469197e+02 3.580000e-02 -2.265689e-02 5.954579e-01 -3.660975e+00 3.686710e+00
