8.114917e+01 4.217391e-01 3.452588e-02 5.838338e-01 -9.997559e-01 9.997559e-01
7.213599e+01 4.217391e-01 3.193656e-02 5.833252e-01 -1.020508e+00 1.011475e+00
7.225391e+01 4.217391e-01 3.188799e-02 5.833215e-01 -1.021240e+00 1.011963e+00
6.997485e+01 4.217391e-01 3.091905e-02 5.835937e-01 -1.027832e+00 1.012939e+00
7.079077e+01 4.217391e-01 3.129663e-02 5.832240e-01 -1.030518e+00 1.020264e+00
7.124390e+01 3.391304e-01 3.166594e-02 5.829281e-01 -1.030518e+00 1.020264e+00
6.945874e+01 4.217391e-01 3.225640e-02 5.825745e-01 -1.030518e+00 1.025146e+00
6.957544e+01 4.217391e-01 3.226118e-02 5.826973e-01 -1.028809e+00 1.024414e+00
6.938452e+01 4.217391e-01 3.257973e-02 5.827436e-01 -1.026855e+00 1.025635e+00
6.750366e+01 4.217391e-01 3.360744e-02 5.837342e-01 -1.068848e+00 1.070068e+00
6.795923e+01 4.217391e-01 3.399703e-02 5.845603e-01 -1.069336e+00 1.070068e+00
6.279810e+01 2.565217e-01 5.399590e-02 6.249065e-01 -2.475586e+00 2.538086e+00
6.247607e+01 2.347826e-01 5.731272e-02 6.340805e-01 -2.487305e+00 2.520020e+00
6.125977e+01 2.217391e-01 5.255896e-02 6.370432e-01 -2.490967e+00 2.555664e+00
5.538501e+01 2.347826e-01 4.014240e-02 6.504068e-01 -2.417969e+00 2.718262e+00
4.694556e+01 2.000000e-01 3.628382e-02 6.663630e-01 -2.496826e+00 2.704346e+00
4.443408e+01 2.130435e-01 3.839518e-02 6.755264e-01 -2.456787e+00 2.679443e+00
4.282593e+01 2.043478e-01 4.235388e-02 6.755694e-01 -2.416748e+00 2.672607e+00
4.397827e+01 2.086957e-01 4.390088e-02 6.759787e-01 -2.416748e+00 2.649658e+00
4.385132e+01 2.086957e-01 4.703221e-02 6.761056e-01 -2.398682e+00 2.620361e+00
4.269922e+01 1.913043e-01 4.034275e-02 7.296703e-01 -3.782227e+00 2.577637e+00
4.171973e+01 1.913043e-01 4.375207e-02 7.393875e-01 -3.777832e+00 2.540283e+00
4.067236e+01 1.956522e-01 4.724483e-02 7.385929e-01 -3.687012e+00 2.511475e+00
4.037524e+01 2.000000e-01 4.855867e-02 7.385243e-01 -3.625488e+00 2.503418e+00
4.251294e+01 1.869565e-01 4.351723e-02 7.376182e-01 -3.621826e+00 2.531494e+00
4.135815e+01 2.000000e-01 4.024871e-02 7.367053e-01 -3.576904e+00 2.553467e+00
4.116162e+01 2.043478e-01 4.064438e-02 7.365898e-01 -3.574463e+00 2.572754e+00
4.025171e+01 2.000000e-01 4.209256e-02 7.352815e-01 -3.573730e+00 2.572754e+00
3.983960e+01 1.913043e-01 4.826311e-02 7.373517e-01 -3.491455e+00 2.645264e+00
3.960181e+01 1.956522e-01 5.079520e-02 7.381288e-01 -3.486816e+00 2.667725e+00
3.982959e+01 2.000000e-01 4.994161e-02 7.385567e-01 -3.484375e+00 2.667725e+00
3.991187e+01 1.695652e-01 4.916786e-02 7.405596e-01 -3.462891e+00 2.811035e+00
4.006909e+01 1.695652e-01 5.300383e-02 7.467786e-01 -3.440918e+00 2.811035e+00
4.020703e+01 1.913043e-01 5.341177e-02 7.466225e-01 -3.455078e+00 2.816650e+00
3.954956e+01 1.695652e-01 5.137843e-02 7.468596e-01 -3.443604e+00 2.819580e+00
3.972144e+01 1.739130e-01 4.875553e-02 7.472710e-01 -3.423340e+00 2.821777e+00
3.780127e+01 1.782609e-01 4.262024e-02 7.532317e-01 -3.514160e+00 2.901611e+00
3.833105e+01 1.695652e-01 4.299820e-02 7.532218e-01 -3.513672e+00 2.902100e+00
3.766528e+01 1.739130e-01 4.316600e-02 7.531032e-01 -3.508545e+00 2.909912e+00
3.794946e+01 1.739130e-01 4.315993e-02 7.530867e-01 -3.498291e+00 2.913086e+00
3.826001e+01 1.782609e-01 4.329595e-02 7.531760e-01 -3.481445e+00 2.916992e+00
3.780054e+01 1.739130e-01 4.278584e-02 7.534569e-01 -3.481934e+00 2.920654e+00
3.792041e+01 1.782609e-01 4.050642e-02 7.542619e-01 -3.507324e+00 2.941162e+00
3.764844e+01 1.695652e-01 4.361462e-02 7.533130e-01 -3.507080e+00 2.947510e+00
3.757983e+01 1.695652e-01 4.329324e-02 7.533199e-01 -3.483887e+00 2.931152e+00
3.747290e+01 1.695652e-01 4.328781e-02 7.533251e-01 -3.478271e+00 2.930176e+00
3.714697e+01 1.782609e-01 4.364576e-02 7.546310e-01 -3.491943e+00 2.956299e+00
4.349536e+01 1.782609e-01 4.529157e-02 7.715087e-01 -3.487549e+00 3.071045e+00
4.424951e+01 1.869565e-01 4.634965e-02 7.706795e-01 -3.476807e+00 3.071045e+00
4.245215e+01 1.826087e-01 4.669558e-02 7.693677e-01 -3.423828e+00 3.056152e+00
4.136987e+01 2.043478e-01 4.601637e-02 7.686361e-01 -3.409912e+00 3.037109e+00
4.134131e+01 1.956522e-01 5.093226e-02 7.644354e-01 -3.333984e+00 3.002441e+00
4.009644e+01 1.913043e-01 5.017477e-02 7.636492e-01 -3.312500e+00 2.993896e+00
3.994189e+01 2.000000e-01 5.014338e-02 7.634942e-01 -3.296631e+00 2.985352e+00
4.005103e+01 1.869565e-01 5.268258e-02 7.625077e-01 -3.299072e+00 2.986328e+00
4.157031e+01 1.608696e-01 5.592215e-02 7.614637e-01 -3.232666e+00 3.004639e+00
4.165015e+01 1.913043e-01 5.661789e-02 7.612646e-01 -3.234863e+00 3.023193e+00
4.013867e+01 1.913043e-01 5.694367e-02 7.585185e-01 -3.211914e+00 3.021484e+00
3.998291e+01 1.739130e-01 5.473000e-02 7.587820e-01 -3.170898e+00 3.009033e+00
3.995703e+01 1.782609e-01 5.335403e-02 7.591670e-01 -3.173584e+00 3.008301e+00
4.000317e+01 1.739130e-01 5.408128e-02 7.589426e-01 -3.172119e+00 3.003174e+00
4.032031e+01 1.739130e-01 6.069930e-02 7.536823e-01 -3.170898e+00 3.001953e+00
4.053296e+01 1.695652e-01 6.191613e-02 7.527426e-01 -3.060303e+00 2.964844e+00
4.050244e+01 1.695652e-01 6.001765e-02 7.533696e-01 -3.061035e+00 2.961426e+00
4.020093e+01 1.695652e-01 5.992257e-02 7.533145e-01 -3.068604e+00 2.967041e+00
3.977124e+01 1.652174e-01 5.849441e-02 7.542277e-01 -3.137695e+00 2.987549e+00
3.996973e+01 1.869565e-01 5.505268e-02 7.585679e-01 -3.151855e+00 3.050049e+00
3.954150e+01 1.782609e-01 5.449813e-02 7.595454e-01 -3.151855e+00 3.040527e+00
4.132227e+01 1.826087e-01 5.421653e-02 7.597197e-01 -3.129150e+00 3.030273e+00
3.948364e+01 1.739130e-01 5.459992e-02 7.595108e-01 -3.131592e+00 3.022461e+00
4.028174e+01 1.782609e-01 5.483114e-02 7.588882e-01 -3.121338e+00 3.014160e+00
3.893359e+01 1.652174e-01 5.688735e-02 7.491348e-01 -3.043457e+00 2.989746e+00
4.014355e+01 1.782609e-01 5.838875e-02 7.489673e-01 -2.896484e+00 2.947510e+00
3.811084e+01 1.695652e-01 5.917220e-02 7.490706e-01 -2.931396e+00 2.959717e+00
3.700879e+01 1.652174e-01 4.754464e-02 7.624850e-01 -2.968506e+00 2.984619e+00
3.753149e+01 1.739130e-01 5.221587e-02 7.613244e-01 -2.972900e+00 2.982422e+00
3.784814e+01 1.826087e-01 5.340686e-02 7.616920e-01 -2.937012e+00 2.971680e+00
4.367651e+01 2.000000e-01 5.108029e-02 7.631592e-01 -2.969971e+00 2.971680e+00
4.224512e+01 2.000000e-01 5.075335e-02 7.624228e-01 -2.981201e+00 2.983398e+00
3.880713e+01 1.652174e-01 4.936743e-02 7.613164e-01 -2.956299e+00 2.939209e+00
3.896484e+01 1.652174e-01 4.854665e-02 7.611688e-01 -2.950195e+00 2.934082e+00
4.101147e+01 1.869565e-01 4.686014e-02 7.623966e-01 -2.934570e+00 2.927002e+00
3.860864e+01 1.695652e-01 4.668576e-02 7.632211e-01 -2.965088e+00 2.960938e+00
3.934033e+01 1.608696e-01 4.753198e-02 7.644851e-01 -2.964844e+00 2.958740e+00
3.830591e+01 1.739130e-01 4.816313e-02 7.643810e-01 -2.973389e+00 2.968994e+00
3.880664e+01 1.913043e-01 5.022141e-02 7.637984e-01 -2.988281e+00 2.987549e+00
3.953125e+01 1.565217e-01 4.828869e-02 7.645996e-01 -2.954102e+00 2.949219e+00
3.797754e+01 1.565217e-01 4.944016e-02 7.639713e-01 -2.959961e+00 2.957764e+00
3.888574e+01 1.652174e-01 4.777871e-02 7.651406e-01 -2.956299e+00 2.956055e+00
3.848633e+01 1.608696e-01 4.742671e-02 7.656307e-01 -2.962891e+00 2.962891e+00
3.924072e+01 1.695652e-01 5.050624e-02 7.667407e-01 -2.970215e+00 2.956543e+00
3.960303e+01 1.739130e-01 5.066809e-02 7.673821e-01 -2.996582e+00 2.966064e+00
3.967554e+01 1.782609e-01 5.002067e-02 7.677143e-01 -2.983154e+00 2.958252e+00
3.986206e+01 1.739130e-01 5.387383e-02 7.691323e-01 -3.007812e+00 2.977051e+00
3.947510e+01 1.782609e-01 4.915210e-02 7.708084e-01 -3.025635e+00 2.983398e+00
4.074976e+01 1.869565e-01 5.219442e-02 7.708415e-01 -2.972412e+00 2.981689e+00
3.946143e+01 1.782609e-01 5.158046e-02 7.712145e-01 -3.002197e+00 2.991943e+00
4.031348e+01 1.782609e-01 4.503490e-02 7.731039e-01 -3.021240e+00 2.986572e+00
3.927148e+01 1.869565e-01 4.178396e-02 7.783737e-01 -3.034912e+00 3.037842e+00
3.882642e+01 1.826087e-01 4.252749e-02 7.796181e-01 -3.037842e+00 3.018555e+00
4.241602e+01 1.913043e-01 4.142395e-02 7.798789e-01 -3.021973e+00 2.998291e+00
3.822949e+01 1.913043e-01 4.478882e-02 7.756454e-01 -3.028564e+00 3.000977e+00
3.932788e+01 1.869565e-01 4.638711e-02 7.729154e-01 -2.987061e+00 2.890625e+00
3.837817e+01 1.869565e-01 4.653979e-02 7.728068e-01 -2.991455e+00 2.896973e+00
3.994556e+01 1.826087e-01 4.651912e-02 7.726378e-01 -2.991455e+00 2.896973e+00
3.907056e+01 1.913043e-01 4.699875e-02 7.723486e-01 -2.973145e+00 2.878662e+00
4.063501e+01 1.782609e-01 4.704732e-02 7.723027e-01 -2.973145e+00 2.878662e+00
3.808105e+01 1.869565e-01 4.704977e-02 7.723388e-01 -2.982910e+00 2.889893e+00
3.927246e+01 1.869565e-01 4.828042e-02 7.729541e-01 -2.963867e+00 2.884277e+00
4.012769e+01 1.782609e-01 4.876909e-02 7.734479e-01 -2.971191e+00 2.874023e+00
3.847046e+01 1.782609e-01 4.987560e-02 7.739844e-01 -2.990479e+00 2.893311e+00
3.834814e+01 1.826087e-01 5.105006e-02 7.749568e-01 -2.985596e+00 2.887695e+00
3.902075e+01 1.826087e-01 4.977020e-02 7.757748e-01 -2.982178e+00 2.879883e+00
3.787915e+01 1.826087e-01 4.963159e-02 7.758736e-01 -2.986084e+00 2.888184e+00
3.924316e+01 1.782609e-01 4.893650e-02 7.768168e-01 -2.988281e+00 2.888672e+00
4.251685e+01 2.000000e-01 3.972891e-02 7.782281e-01 -2.972656e+00 2.864502e+00
4.222656e+01 2.173913e-01 1.234137e-02 7.771530e-01 -2.908447e+00 2.874023e+00
4.218774e+01 2.173913e-01 1.259481e-02 7.772758e-01 -2.909424e+00 2.874023e+00
4.215063e+01 2.043478e-01 1.272464e-02 7.772367e-01 -2.909424e+00 2.872070e+00
4.293994e+01 2.173913e-01 1.850961e-02 7.870671e-01 -2.905029e+00 2.819580e+00
4.299780e+01 2.173913e-01 1.933310e-02 7.869650e-01 -2.864746e+00 2.823975e+00
4.142700e+01 2.043478e-01 1.872261e-02 7.868337e-01 -2.863037e+00 2.835205e+00
4.096899e+01 1.956522e-01 -6.807519e-04 7.867146e-01 -2.893555e+00 2.837402e+00
4.056689e+01 1.826087e-01 -6.935273e-03 7.881287e-01 -2.854004e+00 2.798828e+00
3.996899e+01 2.130435e-01 -4.736716e-03 7.832089e-01 -2.789062e+00 2.783447e+00
4.007251e+01 2.043478e-01 -4.635055e-03 7.831872e-01 -2.794434e+00 2.761719e+00
3.943774e+01 2.043478e-01 -4.044209e-03 7.825572e-01 -2.782715e+00 2.739746e+00
3.922632e+01 1.826087e-01 -1.259326e-03 7.827527e-01 -2.784912e+00 2.734375e+00
3.889771e+01 1.956522e-01 7.303680e-03 7.841388e-01 -2.782959e+00 2.713867e+00
4.264502e+01 1.826087e-01 4.174650e-02 7.876657e-01 -2.722900e+00 2.706299e+00
4.069360e+01 1.956522e-01 3.934010e-02 7.876126e-01 -2.766602e+00 2.713379e+00
4.121436e+01 1.956522e-01 3.048063e-02 7.906663e-01 -2.812988e+00 2.729248e+00
4.074683e+01 2.000000e-01 2.966438e-02 7.920700e-01 -2.816895e+00 2.728027e+00
4.064087e+01 2.043478e-01 3.026620e-02 7.922019e-01 -2.811523e+00 2.730469e+00
4.162134e+01 1.956522e-01 3.015524e-02 7.925463e-01 -2.803223e+00 2.725586e+00
3.999243e+01 1.956522e-01 3.130296e-02 7.945567e-01 -2.830811e+00 2.751709e+00
4.141699e+01 1.782609e-01 3.619779e-02 7.963086e-01 -2.808350e+00 2.731201e+00
4.155151e+01 1.913043e-01 3.805067e-02 7.955662e-01 -2.815430e+00 2.732666e+00
4.093848e+01 1.826087e-01 3.674278e-02 7.953110e-01 -2.838867e+00 2.732666e+00
3.970728e+01 1.956522e-01 3.618836e-02 7.941023e-01 -2.834229e+00 2.689697e+00
4.080225e+01 1.869565e-01 3.520689e-02 7.959672e-01 -2.881104e+00 2.711914e+00
4.118530e+01 1.826087e-01 3.329303e-02 7.999085e-01 -2.877441e+00 2.710938e+00
4.098438e+01 1.826087e-01 3.333230e-02 7.998843e-01 -2.875244e+00 2.712158e+00
4.101001e+01 1.869565e-01 3.337738e-02 7.996850e-01 -2.872314e+00 2.712891e+00
4.034570e+01 1.869565e-01 3.261163e-02 8.012808e-01 -2.900146e+00 2.741699e+00
4.086719e+01 1.869565e-01 3.066070e-02 8.026545e-01 -2.896973e+00 2.727783e+00
4.157935e+01 1.826087e-01 3.068098e-02 8.024728e-01 -2.876709e+00 2.709961e+00
4.141284e+01 1.956522e-01 3.092241e-02 8.023443e-01 -2.870850e+00 2.708740e+00
4.218848e+01 2.000000e-01 3.088702e-02 8.021969e-01 -2.859863e+00 2.699463e+00
4.224146e+01 1.782609e-01 3.062919e-02 8.021000e-01 -2.859619e+00 2.699219e+00
4.182471e+01 2.043478e-01 3.067259e-02 8.036671e-01 -2.893066e+00 2.735840e+00
4.257690e+01 1.913043e-01 3.043258e-02 8.047975e-01 -2.874023e+00 2.709961e+00
4.128296e+01 2.000000e-01 3.040778e-02 8.041987e-01 -2.881348e+00 2.715088e+00
4.168457e+01 2.000000e-01 2.997427e-02 8.042716e-01 -2.863525e+00 2.695312e+00
4.058057e+01 1.869565e-01 3.413060e-02 8.000890e-01 -2.842285e+00 2.673340e+00
4.016479e+01 2.000000e-01 3.468799e-02 7.996355e-01 -2.767578e+00 2.627686e+00
4.127905e+01 1.869565e-01 3.397236e-02 8.002762e-01 -2.767578e+00 2.627686e+00
4.062671e+01 1.913043e-01 3.392082e-02 8.025235e-01 -2.783203e+00 2.673096e+00
4.146997e+01 1.739130e-01 3.464226e-02 8.045042e-01 -2.783203e+00 2.673096e+00
4.049121e+01 1.869565e-01 3.473514e-02 8.061425e-01 -2.797119e+00 2.687988e+00
3.980835e+01 1.956522e-01 3.340050e-02 8.069752e-01 -2.816406e+00 2.695557e+00
3.960767e+01 2.000000e-01 3.077515e-02 8.073829e-01 -2.824707e+00 2.689697e+00
3.920776e+01 2.000000e-01 3.011533e-02 8.067331e-01 -2.814697e+00 2.667236e+00
3.864453e+01 1.826087e-01 2.540419e-02 8.079121e-01 -2.847168e+00 2.681641e+00
3.910815e+01 1.869565e-01 2.620469e-02 8.078648e-01 -2.785645e+00 2.668701e+00
3.921191e+01 1.913043e-01 2.661456e-02 8.078780e-01 -2.780273e+00 2.659180e+00
3.899243e+01 1.869565e-01 2.699330e-02 8.080508e-01 -2.781250e+00 2.659180e+00
3.838672e+01 1.913043e-01 2.697302e-02 8.082292e-01 -2.795166e+00 2.673096e+00
3.920093e+01 1.869565e-01 2.923720e-02 8.116095e-01 -2.829834e+00 2.724121e+00
3.970386e+01 1.869565e-01 2.930333e-02 8.140739e-01 -2.833496e+00 2.721680e+00
3.982446e+01 1.869565e-01 2.944517e-02 8.151566e-01 -2.848633e+00 2.734619e+00
3.941650e+01 1.913043e-01 2.585901e-02 8.178563e-01 -2.869629e+00 2.747803e+00
3.950684e+01 1.913043e-01 2.346023e-02 8.191764e-01 -2.866211e+00 2.731689e+00
3.957568e+01 1.869565e-01 2.255898e-02 8.206374e-01 -2.895020e+00 2.739014e+00
3.931714e+01 2.000000e-01 2.261013e-02 8.207892e-01 -2.894775e+00 2.739990e+00
3.996558e+01 2.000000e-01 2.204603e-02 8.208503e-01 -2.891602e+00 2.739014e+00
4.008569e+01 2.000000e-01 2.113302e-02 8.210973e-01 -2.891602e+00 2.739014e+00
4.042358e+01 1.695652e-01 2.311895e-02 8.211748e-01 -2.879883e+00 2.720947e+00
3.888745e+01 1.826087e-01 2.919857e-02 8.222329e-01 -2.888428e+00 2.726807e+00
3.873267e+01 1.739130e-01 2.888662e-02 8.227716e-01 -2.896240e+00 2.733154e+00
3.822510e+01 1.826087e-01 2.176339e-02 8.240813e-01 -2.900391e+00 2.745850e+00
3.949707e+01 1.608696e-01 2.036495e-02 8.241866e-01 -2.878662e+00 2.746826e+00
3.940747e+01 1.652174e-01 2.022879e-02 8.242579e-01 -2.866943e+00 2.749268e+00
3.885693e+01 1.782609e-01 3.989387e-02 8.312162e-01 -2.877686e+00 2.844971e+00
3.901367e+01 1.869565e-01 3.743399e-02 8.311846e-01 -2.900879e+00 2.801758e+00
3.791772e+01 1.956522e-01 3.727562e-02 8.309804e-01 -2.919434e+00 2.803223e+00
3.904907e+01 1.913043e-01 3.688603e-02 8.312041e-01 -2.931152e+00 2.803223e+00
3.784888e+01 2.000000e-01 3.271084e-02 8.317584e-01 -2.936279e+00 2.797852e+00
3.775488e+01 2.000000e-01 3.175908e-02 8.319487e-01 -2.916016e+00 2.773193e+00
3.782422e+01 1.956522e-01 3.182896e-02 8.319776e-01 -2.917725e+00 2.774170e+00
3.822461e+01 1.782609e-01 3.165897e-02 8.325233e-01 -2.913330e+00 2.766846e+00
3.855151e+01 1.782609e-01 3.161854e-02 8.328511e-01 -2.913330e+00 2.766846e+00
3.952734e+01 1.869565e-01 2.884877e-02 8.345300e-01 -3.010010e+00 2.767822e+00
3.900732e+01 1.782609e-01 2.863925e-02 8.353409e-01 -3.005371e+00 2.766602e+00
3.823071e+01 1.956522e-01 2.703205e-02 8.376137e-01 -3.006104e+00 2.766846e+00
3.945825e+01 1.608696e-01 2.670718e-02 8.376565e-01 -3.003906e+00 2.761475e+00
3.920483e+01 1.739130e-01 2.611078e-02 8.376250e-01 -2.993896e+00 2.734375e+00
3.908594e+01 1.782609e-01 2.683222e-02 8.374974e-01 -2.993896e+00 2.734375e+00
3.764722e+01 1.869565e-01 2.942980e-02 8.451825e-01 -3.000732e+00 2.745605e+00
3.866357e+01 1.869565e-01 2.693866e-02 8.483940e-01 -3.000732e+00 2.683838e+00
3.856714e+01 1.869565e-01 2.314931e-02 8.493554e-01 -2.986816e+00 2.679932e+00
3.869971e+01 1.826087e-01 2.312606e-02 8.492843e-01 -2.985840e+00 2.678467e+00
3.848096e+01 1.869565e-01 2.205313e-02 8.499565e-01 -2.996826e+00 2.712402e+00
3.901758e+01 1.826087e-01 2.163964e-02 8.502606e-01 -2.995117e+00 2.712402e+00
3.876221e+01 1.826087e-01 2.344913e-02 8.492973e-01 -2.985107e+00 2.704834e+00
3.767676e+01 1.826087e-01 2.487767e-02 8.485619e-01 -2.948730e+00 2.714844e+00
3.919995e+01 1.826087e-01 2.482807e-02 8.484427e-01 -2.948730e+00 2.714844e+00
3.984570e+01 1.695652e-01 2.084858e-02 8.467823e-01 -2.927246e+00 2.688721e+00
3.988843e+01 1.652174e-01 1.954972e-02 8.467132e-01 -2.921387e+00 2.597900e+00
4.003174e+01 1.695652e-01 1.978017e-02 8.466997e-01 -2.921387e+00 2.597900e+00
3.924072e+01 1.826087e-01 2.046790e-02 8.465566e-01 -2.907227e+00 2.604248e+00
3.904272e+01 2.000000e-01 1.959687e-02 8.475257e-01 -2.937256e+00 2.646240e+00
3.924780e+01 1.956522e-01 1.771518e-02 8.487362e-01 -2.934570e+00 2.640137e+00
3.899658e+01 1.869565e-01 1.657444e-02 8.497790e-01 -2.934570e+00 2.642090e+00
3.984863e+01 1.869565e-01 1.402039e-02 8.524525e-01 -2.921631e+00 2.645996e+00
3.961865e+01 1.913043e-01 1.499036e-02 8.523699e-01 -2.915771e+00 2.647949e+00
3.881641e+01 1.913043e-01 1.510120e-02 8.527403e-01 -2.931152e+00 2.689209e+00
4.047339e+01 1.913043e-01 1.604637e-02 8.535074e-01 -2.940430e+00 2.689209e+00
3.917188e+01 2.000000e-01 1.892942e-02 8.541516e-01 -2.940430e+00 2.719727e+00
4.058618e+01 1.826087e-01 1.370301e-02 8.559687e-01 -2.935303e+00 2.668457e+00
4.032764e+01 1.782609e-01 1.573893e-02 8.558753e-01 -2.931396e+00 2.701172e+00
4.151807e+01 1.782609e-01 1.372677e-02 8.576236e-01 -2.969727e+00 2.668945e+00
4.025073e+01 2.000000e-01 1.385685e-02 8.577640e-01 -2.959961e+00 2.674316e+00
4.039258e+01 1.913043e-01 1.295573e-02 8.588231e-01 -2.982910e+00 2.707031e+00
3.905151e+01 2.000000e-01 3.162267e-02 8.671271e-01 -2.882080e+00 3.359619e+00
4.100366e+01 1.913043e-01 2.841681e-02 8.701633e-01 -2.891602e+00 3.359375e+00
4.076343e+01 1.956522e-01 3.083793e-02 8.729415e-01 -2.891602e+00 3.345215e+00
4.062085e+01 1.913043e-01 3.106593e-02 8.726642e-01 -2.884033e+00 3.343506e+00
4.061841e+01 1.956522e-01 3.126137e-02 8.726640e-01 -2.878662e+00 3.343506e+00
4.243652e+01 1.608696e-01 2.670705e-02 8.728158e-01 -2.876953e+00 3.337158e+00
4.024438e+01 1.739130e-01 2.893544e-02 8.727630e-01 -2.879150e+00 3.327881e+00
3.989966e+01 1.869565e-01 2.907508e-02 8.732168e-01 -2.900146e+00 3.334473e+00
3.976221e+01 2.000000e-01 2.793679e-02 8.741544e-01 -2.904785e+00 3.333496e+00
3.986572e+01 1.782609e-01 2.473532e-02 8.762470e-01 -2.923828e+00 3.329834e+00
4.053003e+01 1.826087e-01 2.454582e-02 8.765264e-01 -2.923828e+00 3.329834e+00
3.965503e+01 1.739130e-01 2.445424e-02 8.756229e-01 -2.916016e+00 3.325195e+00
3.945850e+01 1.913043e-01 2.389400e-02 8.759457e-01 -2.921143e+00 3.323975e+00
3.985962e+01 1.956522e-01 2.393586e-02 8.759149e-01 -2.921143e+00 3.323242e+00
3.768604e+01 1.956522e-01 1.592727e-02 8.774452e-01 -2.898926e+00 3.324463e+00
3.827124e+01 2.000000e-01 9.437908e-03 8.787895e-01 -2.884766e+00 3.325195e+00
3.815356e+01 2.000000e-01 9.492162e-03 8.791277e-01 -2.885498e+00 3.325195e+00
3.927563e+01 2.043478e-01 1.092497e-02 8.803859e-01 -2.887207e+00 3.323730e+00
3.897632e+01 2.086957e-01 1.238374e-02 8.812864e-01 -2.861816e+00 3.297607e+00
3.994238e+01 2.130435e-01 1.341443e-02 8.816074e-01 -2.862305e+00 3.296387e+00
3.915625e+01 2.130435e-01 1.380441e-02 8.821495e-01 -2.863770e+00 3.296387e+00
3.915356e+01 1.782609e-01 1.512509e-02 8.841004e-01 -2.867676e+00 3.291748e+00
3.985010e+01 1.739130e-01 1.626726e-02 8.848900e-01 -2.884277e+00 3.297363e+00
3.885376e+01 1.826087e-01 1.734096e-02 8.845107e-01 -2.881104e+00 3.302490e+00
3.901929e+01 2.043478e-01 1.714836e-02 8.838242e-01 -2.875244e+00 3.302490e+00
3.783008e+01 2.000000e-01 1.725196e-02 8.842665e-01 -2.884277e+00 3.299561e+00
3.896826e+01 1.782609e-01 1.642550e-02 8.851104e-01 -2.888672e+00 3.295654e+00
3.763306e+01 2.000000e-01 3.869693e-03 8.901211e-01 -2.900391e+00 3.294922e+00
3.979883e+01 2.000000e-01 3.600364e-03 8.909223e-01 -2.898926e+00 3.386719e+00
3.972607e+01 2.043478e-01 2.176598e-04 8.936906e-01 -2.821045e+00 3.386719e+00
3.948511e+01 2.000000e-01 2.729466e-04 8.937670e-01 -2.822510e+00 3.386475e+00
3.937646e+01 1.826087e-01 2.690326e-03 9.095519e-01 -2.987061e+00 3.385498e+00
3.857642e+01 1.913043e-01 4.664119e-03 9.092629e-01 -2.849121e+00 3.356201e+00
3.808350e+01 1.956522e-01 4.388718e-03 9.102197e-01 -2.849121e+00 3.328857e+00
3.871509e+01 1.913043e-01 4.150778e-03 9.103918e-01 -2.849854e+00 3.327148e+00
3.922046e+01 1.913043e-01 7.115085e-03 9.128941e-01 -2.873047e+00 3.316406e+00
3.861401e+01 1.826087e-01 7.212870e-03 9.128513e-01 -2.870361e+00 3.314941e+00
3.857446e+01 1.826087e-01 7.186002e-03 9.127419e-01 -2.868164e+00 3.314697e+00
3.793506e+01 1.956522e-01 7.651936e-03 9.120145e-01 -2.880859e+00 3.312988e+00
3.902295e+01 1.826087e-01 7.383510e-03 9.116187e-01 -2.866211e+00 3.306885e+00
3.850366e+01 1.782609e-01 6.353469e-03 9.119375e-01 -2.883057e+00 3.302734e+00
3.852026e+01 1.869565e-01 5.475725e-03 9.117935e-01 -2.890137e+00 3.302734e+00
3.824292e+01 1.826087e-01 4.969876e-03 9.115745e-01 -2.893066e+00 3.302002e+00
3.873291e+01 1.695652e-01 5.057328e-03 9.114452e-01 -2.893066e+00 3.301514e+00
3.795483e+01 1.956522e-01 5.279509e-03 9.113907e-01 -2.899658e+00 3.297607e+00
3.870801e+01 1.956522e-01 5.400804e-03 9.120304e-01 -2.901367e+00 3.298340e+00
3.878735e+01 1.913043e-01 5.121786e-03 9.122925e-01 -2.901367e+00 3.298340e+00
3.855591e+01 1.826087e-01 4.976981e-03 9.123628e-01 -2.897949e+00 3.297119e+00
3.856567e+01 1.869565e-01 4.969618e-03 9.123648e-01 -2.898438e+00 3.297119e+00
4.128882e+01 1.695652e-01 5.281576e-03 9.124794e-01 -2.886963e+00 3.295166e+00
4.073779e+01 1.608696e-01 2.986008e-03 9.170171e-01 -2.945801e+00 3.292725e+00
