3.704105e-01 1.377449e+00 -3.998734e+00 5.017975e+00 1.208550e-03 2.060812e-02 -2.705994e-01 3.307953e-01
1.432188e-01 1.451459e+00 -4.721649e+00 5.232544e+00 -1.195691e-04 1.797066e-02 -2.705994e-01 2.922211e-01
1.506178e-01 1.494357e+00 -4.944046e+00 5.257050e+00 -2.065250e-04 1.793443e-02 -2.922058e-01 2.922211e-01
2.295405e-01 1.538711e+00 -5.266663e+00 5.179871e+00 1.822135e-04 1.765986e-02 -3.307800e-01 2.922211e-01
2.068730e-01 1.592361e+00 -5.353271e+00 5.188370e+00 -1.107865e-04 1.799673e-02 -3.623352e-01 2.922211e-01
2.218085e-01 1.730626e+00 -5.708069e+00 5.197037e+00 8.282413e-05 1.911242e-02 -3.968353e-01 4.053650e-01
2.171225e-01 1.770559e+00 -5.931824e+00 5.177277e+00 1.229781e-04 1.917600e-02 -4.053497e-01 3.307953e-01
1.912914e-01 1.771086e+00 -5.928513e+00 5.179520e+00 3.393986e-06 1.861298e-02 -4.053497e-01 3.307953e-01
2.026158e-01 1.754346e+00 -5.826981e+00 5.157211e+00 1.776840e-04 1.968905e-02 -4.053497e-01 3.453369e-01
2.034502e-01 1.760686e+00 -5.911194e+00 5.160110e+00 1.434328e-04 1.927246e-02 -3.968353e-01 3.307953e-01
1.768444e-01 1.785421e+00 -6.124100e+00 5.190689e+00 9.670090e-05 1.914114e-02 -4.053497e-01 3.474579e-01
1.709378e-01 1.767229e+00 -6.093948e+00 5.170105e+00 8.938153e-05 1.917193e-02 -4.053497e-01 3.289490e-01
1.762903e-01 1.797982e+00 -5.910507e+00 5.168808e+00 2.035510e-04 1.990544e-02 -4.053497e-01 4.400787e-01
1.237094e-01 1.896401e+00 -6.330948e+00 5.266449e+00 2.183122e-04 2.038244e-02 -4.239960e-01 4.673920e-01
-3.208659e-02 1.967272e+00 -6.711456e+00 5.416656e+00 2.450531e-04 1.979295e-02 -4.053497e-01 5.259399e-01
-1.103099e-01 1.999667e+00 -6.657639e+00 5.487732e+00 -2.673681e-05 1.848378e-02 -4.126282e-01 4.519348e-01
-8.841202e-02 2.053392e+00 -7.433990e+00 5.759293e+00 2.292617e-04 1.862012e-02 -3.968353e-01 5.054626e-01
-1.190828e-01 2.082207e+00 -7.577957e+00 5.741943e+00 8.335000e-05 1.777243e-02 -4.053497e-01 3.573761e-01
-1.146391e-01 2.090128e+00 -7.898956e+00 5.711868e+00 -3.171781e-05 1.830464e-02 -4.053497e-01 5.153046e-01
-8.407722e-02 2.073630e+00 -7.768631e+00 5.711807e+00 8.992680e-05 1.837649e-02 -4.126282e-01 4.564209e-01
-9.258051e-02 2.089160e+00 -7.786926e+00 5.743073e+00 5.691769e-05 1.810404e-02 -4.053497e-01 4.221191e-01
-1.236118e-01 2.093568e+00 -7.720215e+00 5.701782e+00 -1.117708e-04 1.615957e-02 -4.053497e-01 2.922211e-01
-1.059217e-01 2.081060e+00 -7.610779e+00 5.685455e+00 5.965974e-05 1.806967e-02 -4.126282e-01 4.899445e-01
-1.136954e-01 2.098303e+00 -7.814514e+00 5.702881e+00 2.722256e-05 1.762490e-02 -4.053497e-01 4.960938e-01
-1.210952e-01 2.084027e+00 -7.688141e+00 5.641312e+00 4.494611e-05 1.792839e-02 -4.126282e-01 4.940338e-01
-1.428847e-01 2.116283e+00 -7.920853e+00 5.682388e+00 -8.188428e-06 1.728189e-02 -4.053497e-01 5.298615e-01
-1.467557e-01 2.097319e+00 -7.857574e+00 5.667465e+00 -2.829846e-05 1.749010e-02 -4.053497e-01 5.387726e-01
-1.432778e-01 2.106736e+00 -7.868500e+00 5.680038e+00 -4.341470e-05 1.764763e-02 -4.053497e-01 5.307922e-01
-1.445180e-01 2.115356e+00 -7.854782e+00 5.645859e+00 1.421574e-05 1.838410e-02 -4.126282e-01 5.426941e-01
-8.821099e-02 2.094296e+00 -7.617752e+00 5.684753e+00 1.669154e-04 1.841027e-02 -4.126282e-01 3.648529e-01
-9.290928e-02 2.091665e+00 -7.635880e+00 5.645050e+00 2.045962e-04 1.943908e-02 -4.126282e-01 5.351562e-01
-1.413001e-01 2.107460e+00 -7.839767e+00 5.665115e+00 1.489114e-04 1.949445e-02 -4.053497e-01 5.643311e-01
-1.858149e-01 2.127991e+00 -7.885254e+00 5.693008e+00 4.220016e-06 1.859343e-02 -4.053497e-01 5.460510e-01
-1.976250e-01 2.116808e+00 -7.972534e+00 5.708984e+00 -1.011725e-04 1.803620e-02 -4.053497e-01 3.623505e-01
-1.980962e-01 2.118845e+00 -8.037430e+00 5.700394e+00 -6.881577e-05 1.829604e-02 -4.126282e-01 4.497681e-01
-2.079370e-01 2.117575e+00 -8.039215e+00 5.682053e+00 -1.020805e-04 1.768710e-02 -4.053497e-01 3.754730e-01
-2.113643e-01 2.129602e+00 -8.002701e+00 5.708237e+00 -9.768552e-05 1.819965e-02 -4.053497e-01 5.546417e-01
-2.016423e-01 2.138449e+00 -8.130234e+00 5.709641e+00 -7.805603e-05 1.800851e-02 -4.053497e-01 5.513000e-01
-1.963856e-01 2.135439e+00 -8.080612e+00 5.715210e+00 3.582715e-06 1.985861e-02 -4.053497e-01 5.707550e-01
-2.224645e-01 2.161047e+00 -8.266174e+00 5.736557e+00 -7.473468e-05 1.779040e-02 -4.053497e-01 5.514832e-01
-1.915436e-01 2.145042e+00 -8.098465e+00 5.726624e+00 -3.533175e-05 1.839950e-02 -4.053497e-01 5.410767e-01
-1.808171e-01 2.145087e+00 -8.014481e+00 5.701324e+00 -1.295740e-06 1.827988e-02 -4.053497e-01 5.522766e-01
-1.886806e-01 2.137993e+00 -7.951782e+00 5.733948e+00 -5.598889e-05 1.821540e-02 -4.126282e-01 5.752106e-01
-2.114310e-01 2.158964e+00 -8.230820e+00 5.721268e+00 -8.948181e-05 1.749445e-02 -4.053497e-01 3.863373e-01
-2.041528e-01 2.160667e+00 -8.251434e+00 5.721268e+00 -6.149132e-05 1.750784e-02 -4.053497e-01 3.841705e-01
-1.961809e-01 2.151573e+00 -8.098801e+00 5.717987e+00 -4.097152e-05 1.785064e-02 -4.053497e-01 3.861389e-01
-1.949537e-01 2.151513e+00 -8.101822e+00 5.757080e+00 -8.396616e-05 1.768081e-02 -4.053497e-01 3.902588e-01
-2.087560e-01 2.151055e+00 -8.121353e+00 5.737518e+00 -1.158635e-04 1.782950e-02 -3.968353e-01 4.192200e-01
-2.048802e-01 2.155163e+00 -8.153687e+00 5.748184e+00 -8.319162e-05 1.764881e-02 -3.968353e-01 3.885956e-01
-1.921863e-01 2.155135e+00 -8.142319e+00 5.755280e+00 1.849841e-05 1.871597e-02 -4.053497e-01 4.798431e-01
-1.819026e-01 2.170000e+00 -8.142319e+00 5.733398e+00 8.735592e-05 1.887142e-02 -4.053497e-01 3.841400e-01
-1.841953e-01 2.154488e+00 -8.074020e+00 5.740860e+00 5.310440e-05 1.953165e-02 -4.053497e-01 4.998627e-01
-1.866646e-01 2.176154e+00 -7.984161e+00 5.748077e+00 7.513989e-05 1.915360e-02 -4.053497e-01 5.440521e-01
-2.136066e-01 2.193316e+00 -8.258560e+00 5.748077e+00 -1.684895e-05 1.816540e-02 -4.126282e-01 4.748230e-01
-2.052896e-01 2.187322e+00 -8.444000e+00 5.793121e+00 -6.529149e-05 1.764436e-02 -4.053497e-01 3.971710e-01
-1.757980e-01 2.195359e+00 -8.263702e+00 5.766251e+00 7.061830e-05 1.802741e-02 -4.053497e-01 4.689636e-01
-1.827752e-01 2.188058e+00 -8.233429e+00 5.755005e+00 -1.914070e-05 1.734643e-02 -4.053497e-01 3.950348e-01
-1.840031e-01 2.187583e+00 -8.238663e+00 5.761124e+00 1.017957e-05 1.751478e-02 -4.053497e-01 3.988495e-01
-1.858995e-01 2.182537e+00 -8.291290e+00 5.775208e+00 -1.828052e-05 1.747842e-02 -4.053497e-01 3.972778e-01
-1.874268e-01 2.178356e+00 -8.291260e+00 5.776672e+00 -2.966347e-05 1.774782e-02 -4.053497e-01 3.971710e-01
-2.092794e-01 2.200439e+00 -8.649033e+00 5.887680e+00 -4.016652e-06 1.841162e-02 -4.126282e-01 5.392151e-01
-2.016744e-01 2.160186e+00 -8.375870e+00 5.785568e+00 -8.212765e-05 1.833621e-02 -4.053497e-01 3.912201e-01
-1.991459e-01 2.182261e+00 -8.501862e+00 5.816208e+00 -8.055158e-05 1.790708e-02 -3.869171e-01 3.701935e-01
-1.906059e-01 2.172184e+00 -8.515701e+00 5.893402e+00 -7.504829e-05 1.816976e-02 -3.968353e-01 3.738403e-01
-1.814921e-01 2.155158e+00 -8.350113e+00 5.872009e+00 -8.556825e-05 1.845341e-02 -4.053497e-01 3.917542e-01
-1.962526e-01 2.175854e+00 -8.485229e+00 5.894302e+00 -8.597888e-05 1.827431e-02 -4.053497e-01 4.385071e-01
-1.857820e-01 2.179275e+00 -8.554062e+00 5.899612e+00 -7.599280e-05 1.778234e-02 -4.053497e-01 3.798981e-01
-1.898827e-01 2.173077e+00 -8.595993e+00 5.854233e+00 -5.647270e-05 1.872294e-02 -4.126282e-01 4.004974e-01
-1.859198e-01 2.197435e+00 -8.671570e+00 5.902359e+00 6.638917e-05 1.901975e-02 -4.053497e-01 4.251862e-01
-2.331432e-01 2.189356e+00 -8.568420e+00 5.952072e+00 -5.721840e-05 1.818729e-02 -3.869171e-01 4.548187e-01
-2.519121e-01 2.185188e+00 -8.538986e+00 5.925812e+00 -9.857128e-05 1.791332e-02 -3.968353e-01 4.207764e-01
-2.452121e-01 2.174084e+00 -8.519196e+00 5.899017e+00 -1.200674e-04 1.841424e-02 -4.126282e-01 4.113007e-01
-2.689794e-01 2.244337e+00 -8.804016e+00 6.039230e+00 3.558617e-05 1.837870e-02 -4.053497e-01 4.013367e-01
-2.847535e-01 2.218247e+00 -8.655670e+00 6.018692e+00 -1.497339e-04 1.778473e-02 -4.053497e-01 5.522614e-01
-2.670194e-01 2.214665e+00 -8.623978e+00 5.968292e+00 -7.221897e-05 1.769470e-02 -4.053497e-01 5.349426e-01
-2.555592e-01 2.228647e+00 -8.548111e+00 5.987274e+00 2.266888e-05 1.747346e-02 -3.968353e-01 4.186096e-01
-2.510520e-01 2.218897e+00 -8.533157e+00 5.987274e+00 -3.577512e-06 1.765834e-02 -4.126282e-01 4.488373e-01
-2.428875e-01 2.188076e+00 -8.326523e+00 5.924225e+00 -6.442177e-05 1.787336e-02 -4.126282e-01 4.168549e-01
-2.347755e-01 2.188271e+00 -8.456238e+00 5.898941e+00 9.438639e-07 1.837783e-02 -4.126282e-01 6.022186e-01
-2.361252e-01 2.196691e+00 -8.307800e+00 5.920517e+00 6.604890e-05 1.832754e-02 -4.126282e-01 4.489288e-01
-2.311823e-01 2.210123e+00 -8.420258e+00 5.928955e+00 1.752911e-04 1.879102e-02 -4.053497e-01 4.581451e-01
-2.355345e-01 2.194476e+00 -8.306305e+00 5.930862e+00 4.728078e-05 1.822532e-02 -4.126282e-01 4.432678e-01
-2.435107e-01 2.189051e+00 -8.194229e+00 5.893066e+00 6.734735e-05 1.918859e-02 -4.126282e-01 5.989990e-01
-2.328770e-01 2.246311e+00 -8.533417e+00 6.123474e+00 2.247620e-04 1.920480e-02 -4.126282e-01 4.758148e-01
-2.391622e-01 2.219243e+00 -8.388412e+00 6.089584e+00 5.906038e-05 1.829142e-02 -4.126282e-01 4.461060e-01
-2.310121e-01 2.207969e+00 -8.346497e+00 6.019562e+00 1.306445e-04 2.056297e-02 -4.126282e-01 6.173706e-01
-2.331226e-01 2.208496e+00 -8.212814e+00 5.970520e+00 8.671959e-05 1.996331e-02 -4.239960e-01 6.345367e-01
-2.412220e-01 2.224149e+00 -8.321945e+00 6.001526e+00 1.040984e-04 1.967890e-02 -4.239960e-01 6.382904e-01
-2.845258e-01 2.238969e+00 -8.508453e+00 5.955582e+00 -7.643736e-05 1.799191e-02 -4.053497e-01 4.699402e-01
-2.786622e-01 2.236361e+00 -8.533920e+00 5.978455e+00 -5.916044e-05 1.828271e-02 -4.053497e-01 4.991150e-01
-2.539176e-01 2.245492e+00 -8.510376e+00 6.001068e+00 4.463738e-05 1.783828e-02 -4.126282e-01 4.496155e-01
-2.413429e-01 2.233548e+00 -8.446976e+00 5.982849e+00 7.333162e-05 1.857801e-02 -4.053497e-01 4.430847e-01
-2.561700e-01 2.235446e+00 -8.466202e+00 5.927521e+00 -3.287220e-05 1.836518e-02 -4.187927e-01 4.626770e-01
-2.741513e-01 2.250391e+00 -8.456131e+00 5.972534e+00 1.961940e-05 1.844950e-02 -3.869171e-01 5.065002e-01
-2.737117e-01 2.241096e+00 -8.438141e+00 5.982864e+00 -6.784156e-05 1.823787e-02 -3.968353e-01 3.903503e-01
-2.720929e-01 2.252765e+00 -8.601578e+00 6.003159e+00 -5.396111e-05 1.839881e-02 -3.968353e-01 3.893433e-01
-2.634765e-01 2.254918e+00 -8.546234e+00 5.978775e+00 6.519566e-06 1.882769e-02 -3.869171e-01 4.639893e-01
-2.360734e-01 2.254113e+00 -8.466766e+00 5.960480e+00 2.002626e-04 2.055597e-02 -3.968353e-01 5.035706e-01
-2.677784e-01 2.256996e+00 -8.355743e+00 5.945541e+00 -4.959540e-05 1.860332e-02 -4.053497e-01 3.793030e-01
-2.683433e-01 2.273079e+00 -8.355515e+00 5.990005e+00 8.061846e-05 1.866732e-02 -3.968353e-01 4.905243e-01
-2.835968e-01 2.266656e+00 -8.440414e+00 5.952042e+00 6.674582e-06 1.917314e-02 -3.869171e-01 5.156860e-01
-2.889151e-01 2.266090e+00 -8.471939e+00 5.957413e+00 -1.317060e-04 1.790037e-02 -3.968353e-01 3.988953e-01
-2.763148e-01 2.279448e+00 -8.602737e+00 6.008148e+00 -1.949908e-05 1.798972e-02 -3.968353e-01 4.071960e-01
-2.674874e-01 2.281312e+00 -8.528839e+00 6.025299e+00 4.924396e-05 1.813734e-02 -3.869171e-01 4.829559e-01
-2.723005e-01 2.280410e+00 -8.559830e+00 5.998611e+00 4.144903e-05 1.876378e-02 -3.869171e-01 4.738770e-01
-2.933611e-01 2.287157e+00 -8.707947e+00 6.027145e+00 2.356202e-05 1.964939e-02 -4.239960e-01 6.589203e-01
-2.852437e-01 2.294882e+00 -8.582397e+00 6.034393e+00 6.493593e-05 2.048740e-02 -3.968353e-01 5.277557e-01
-3.059540e-01 2.301410e+00 -8.674347e+00 6.006134e+00 -3.347318e-05 1.816035e-02 -3.968353e-01 4.257660e-01
-3.024446e-01 2.298599e+00 -8.553894e+00 6.023972e+00 -6.589497e-05 1.859891e-02 -4.283752e-01 6.693573e-01
-3.004588e-01 2.296381e+00 -8.553894e+00 6.023972e+00 -9.433782e-05 1.814454e-02 -3.968353e-01 4.099121e-01
-2.813915e-01 2.304725e+00 -8.579620e+00 6.062241e+00 1.376037e-04 1.962625e-02 -3.869171e-01 4.991302e-01
-2.925944e-01 2.303415e+00 -8.489822e+00 6.008469e+00 6.696371e-05 1.870135e-02 -3.754578e-01 5.037994e-01
-3.163750e-01 2.309885e+00 -8.842133e+00 6.121841e+00 4.930185e-05 2.058752e-02 -4.053497e-01 6.386871e-01
-3.355620e-01 2.315247e+00 -8.814285e+00 6.075958e+00 -5.714675e-05 1.868115e-02 -4.283752e-01 6.839294e-01
-3.082986e-01 2.315359e+00 -8.712448e+00 5.968048e+00 -4.913902e-07 1.942407e-02 -4.320374e-01 6.986084e-01
-2.872803e-01 2.322998e+00 -8.810837e+00 5.749817e+00 3.112113e-04 2.023061e-02 -4.320374e-01 6.986084e-01
-3.390030e-01 2.316436e+00 -8.810959e+00 5.838104e+00 -8.231789e-06 1.912867e-02 -4.320374e-01 6.943817e-01
-3.391984e-01 2.321594e+00 -8.745789e+00 5.870438e+00 -3.598065e-05 1.893746e-02 -3.869171e-01 6.388092e-01
-3.474116e-01 2.318987e+00 -8.733795e+00 5.870438e+00 -9.249551e-05 1.891964e-02 -4.320374e-01 6.937561e-01
-3.384726e-01 2.343646e+00 -8.665161e+00 5.965332e+00 1.702771e-05 1.859410e-02 -4.283752e-01 6.942749e-01
-3.199541e-01 2.330514e+00 -8.482742e+00 5.945511e+00 6.414849e-06 1.972979e-02 -4.053497e-01 6.088867e-01
-3.299252e-01 2.356843e+00 -8.668564e+00 6.044830e+00 1.360257e-04 1.956794e-02 -4.320374e-01 7.008820e-01
-4.021666e-01 2.387559e+00 -9.026413e+00 6.038589e+00 -3.824659e-05 1.871513e-02 -3.754578e-01 6.391296e-01
-4.039541e-01 2.388926e+00 -9.021866e+00 6.010498e+00 -6.610245e-05 1.870200e-02 -3.754578e-01 6.405945e-01
-3.930164e-01 2.373532e+00 -8.854187e+00 6.038528e+00 -1.027145e-04 1.910066e-02 -3.869171e-01 6.542511e-01
-3.678267e-01 2.361733e+00 -8.794067e+00 6.085968e+00 -5.244304e-05 1.970152e-02 -3.968353e-01 6.459351e-01
-3.816667e-01 2.378407e+00 -8.866516e+00 6.064285e+00 -6.408247e-05 1.853277e-02 -3.869171e-01 3.623505e-01
-3.855323e-01 2.369933e+00 -8.885361e+00 6.083862e+00 -1.597297e-04 1.864078e-02 -3.869171e-01 3.758392e-01
-3.824978e-01 2.379424e+00 -8.930389e+00 6.019531e+00 -8.476942e-05 1.857550e-02 -3.754578e-01 3.729553e-01
-3.815784e-01 2.373636e+00 -8.876083e+00 5.982162e+00 -4.900428e-05 1.938152e-02 -3.869171e-01 6.697693e-01
-3.753070e-01 2.366252e+00 -9.004318e+00 5.919724e+00 -3.236986e-05 1.968726e-02 -3.968353e-01 6.547394e-01
-3.721671e-01 2.378441e+00 -8.738281e+00 5.919724e+00 3.649394e-05 1.928991e-02 -3.869171e-01 6.627350e-01
-3.604786e-01 2.376539e+00 -8.663986e+00 5.801437e+00 6.145023e-05 1.973723e-02 -4.126282e-01 6.949158e-01
-3.925668e-01 2.377278e+00 -8.794617e+00 5.737045e+00 -7.024908e-05 1.941633e-02 -4.187927e-01 7.071991e-01
-3.871729e-01 2.396889e+00 -8.908783e+00 5.756256e+00 3.376706e-05 1.890683e-02 -3.869171e-01 6.682739e-01
-4.025154e-01 2.373706e+00 -8.842148e+00 5.742279e+00 -1.582240e-04 1.937253e-02 -3.968353e-01 7.003021e-01
-3.893857e-01 2.368717e+00 -8.692612e+00 5.680466e+00 -1.269955e-04 1.862975e-02 -3.968353e-01 3.474579e-01
-3.775947e-01 2.383488e+00 -8.955063e+00 5.754166e+00 3.045113e-05 1.976070e-02 -3.869171e-01 6.848297e-01
-3.840400e-01 2.402449e+00 -9.095016e+00 5.755829e+00 1.016303e-04 1.954508e-02 -3.869171e-01 6.848297e-01
-3.788502e-01 2.376002e+00 -8.915848e+00 5.803146e+00 -2.498675e-05 2.050635e-02 -3.968353e-01 6.907196e-01
-3.882080e-01 2.406070e+00 -9.109039e+00 5.835724e+00 5.673362e-05 1.974998e-02 -3.869171e-01 6.896667e-01
-4.020479e-01 2.404166e+00 -9.098495e+00 5.798462e+00 -3.911403e-05 1.969595e-02 -3.869171e-01 6.881714e-01
-3.993801e-01 2.408727e+00 -9.201813e+00 5.783661e+00 1.698077e-05 1.996903e-02 -3.869171e-01 6.871033e-01
-4.234418e-01 2.419240e+00 -9.300308e+00 5.837814e+00 -2.504594e-05 1.879717e-02 -3.754578e-01 3.474579e-01
-4.167219e-01 2.402322e+00 -9.084457e+00 5.823517e+00 -7.361509e-05 1.950645e-02 -3.968353e-01 7.091675e-01
-4.226004e-01 2.406299e+00 -9.071625e+00 5.816055e+00 -1.063214e-04 1.943011e-02 -3.968353e-01 7.091675e-01
-4.258189e-01 2.413799e+00 -9.153000e+00 5.833984e+00 -8.395749e-05 1.921077e-02 -3.869171e-01 6.979523e-01
-4.325722e-01 2.421039e+00 -9.304672e+00 5.848511e+00 -7.922093e-05 1.939687e-02 -3.869171e-01 6.976624e-01
-4.172654e-01 2.406891e+00 -9.304672e+00 5.848511e+00 -1.178711e-04 1.949239e-02 -3.968353e-01 7.099457e-01
-4.091067e-01 2.428624e+00 -9.301743e+00 5.885757e+00 4.271019e-05 2.126180e-02 -4.053497e-01 7.270966e-01
-4.107654e-01 2.428850e+00 -9.529312e+00 5.885757e+00 -5.564753e-06 2.068048e-02 -4.053497e-01 7.270966e-01
-4.283141e-01 2.443013e+00 -9.529312e+00 5.831818e+00 -4.081325e-05 1.890655e-02 -3.754578e-01 3.642120e-01
-4.250956e-01 2.455532e+00 -9.587494e+00 5.889816e+00 -5.455776e-05 1.952474e-02 -3.968353e-01 7.177277e-01
-4.272008e-01 2.431031e+00 -9.521057e+00 5.867279e+00 -9.572614e-05 2.335589e-02 -4.239960e-01 7.421875e-01
-4.119587e-01 2.461965e+00 -9.611603e+00 5.858139e+00 1.249972e-05 1.819345e-02 -3.754578e-01 3.307953e-01
-4.092309e-01 2.442475e+00 -9.481674e+00 5.856491e+00 -7.693244e-05 1.880555e-02 -3.968353e-01 3.504791e-01
-4.235342e-01 2.450097e+00 -9.587189e+00 5.876282e+00 -8.172146e-05 1.822581e-02 -3.869171e-01 3.474579e-01
-4.327778e-01 2.447546e+00 -9.561020e+00 5.867493e+00 -2.022123e-04 1.841980e-02 -3.968353e-01 3.307953e-01
-4.139993e-01 2.451032e+00 -9.593979e+00 5.867493e+00 -4.966521e-05 1.858114e-02 -3.968353e-01 3.474579e-01
-4.057657e-01 2.458633e+00 -9.671570e+00 5.924347e+00 2.681248e-05 1.865329e-02 -3.869171e-01 3.474579e-01
-4.156398e-01 2.461933e+00 -9.632996e+00 5.929672e+00 -5.502281e-05 1.843983e-02 -3.869171e-01 3.307953e-01
-4.206971e-01 2.467118e+00 -9.688797e+00 5.906906e+00 -1.551354e-05 1.856887e-02 -3.754578e-01 3.307953e-01
-4.144162e-01 2.464373e+00 -9.619736e+00 5.855759e+00 -2.090766e-05 1.943769e-02 -3.968353e-01 7.301331e-01
-4.011729e-01 2.465834e+00 -9.448776e+00 5.788086e+00 1.359645e-04 2.251487e-02 -4.187927e-01 7.465820e-01
-4.337119e-01 2.494132e+00 -9.874680e+00 5.771103e+00 8.504119e-05 1.902985e-02 -3.754578e-01 5.668945e-01
-4.181649e-01 2.469176e+00 -9.703979e+00 5.704376e+00 9.994713e-05 2.049804e-02 -3.968353e-01 7.327271e-01
-4.332141e-01 2.469606e+00 -9.707047e+00 5.652512e+00 7.555778e-05 2.073018e-02 -4.053497e-01 7.431946e-01
-4.557189e-01 2.488255e+00 -1.003540e+01 5.824081e+00 4.573192e-05 1.945473e-02 -3.623352e-01 5.830688e-01
-4.332261e-01 2.459845e+00 -9.732559e+00 5.729980e+00 7.729776e-06 2.056920e-02 -4.053497e-01 7.431183e-01
-4.304831e-01 2.470004e+00 -9.808548e+00 5.782623e+00 6.946998e-05 1.893190e-02 -3.968353e-01 3.307953e-01
-4.471430e-01 2.472340e+00 -1.000441e+01 5.766434e+00 1.945485e-05 2.029129e-02 -4.053497e-01 7.500610e-01
-4.474224e-01 2.481093e+00 -9.876892e+00 5.785721e+00 6.822411e-05 1.949472e-02 -3.869171e-01 5.781097e-01
-4.553093e-01 2.465451e+00 -9.876892e+00 5.744415e+00 -1.017399e-04 1.912998e-02 -3.869171e-01 5.619049e-01
-4.624543e-01 2.487250e+00 -1.002141e+01 5.743637e+00 5.976652e-05 1.931652e-02 -3.869171e-01 5.781403e-01
-4.773027e-01 2.484990e+00 -9.837036e+00 5.775665e+00 -4.283399e-05 1.923215e-02 -3.869171e-01 3.885803e-01
-4.760617e-01 2.495133e+00 -9.911438e+00 5.701614e+00 3.355394e-05 2.077699e-02 -4.053497e-01 5.791016e-01
-4.690953e-01 2.509624e+00 -9.940750e+00 5.857391e+00 7.943969e-05 2.011611e-02 -4.053497e-01 7.539520e-01
-4.647332e-01 2.490227e+00 -9.830948e+00 5.792526e+00 -6.934120e-05 2.033392e-02 -4.053497e-01 7.540283e-01
-4.678227e-01 2.508806e+00 -1.001329e+01 5.847778e+00 2.105173e-05 1.891074e-02 -3.869171e-01 3.474579e-01
-4.804643e-01 2.515423e+00 -1.012582e+01 5.814148e+00 -2.287474e-05 1.983352e-02 -3.754578e-01 5.828094e-01
-4.642122e-01 2.529365e+00 -1.013412e+01 5.900803e+00 -7.254971e-06 1.925002e-02 -3.754578e-01 3.493500e-01
-4.549452e-01 2.505653e+00 -1.022136e+01 5.866547e+00 1.143471e-04 1.998385e-02 -3.869171e-01 5.882263e-01
-4.912880e-01 2.518122e+00 -1.047142e+01 5.833969e+00 2.947789e-05 2.007539e-02 -3.623352e-01 5.820160e-01
-4.863465e-01 2.517433e+00 -1.020726e+01 5.827103e+00 -2.243322e-05 1.925221e-02 -3.968353e-01 3.623505e-01
-4.895295e-01 2.526943e+00 -1.027007e+01 5.840469e+00 -1.330565e-04 1.896060e-02 -3.869171e-01 3.307953e-01
-4.722471e-01 2.537160e+00 -1.027740e+01 5.863571e+00 4.163061e-05 1.840139e-02 -3.754578e-01 3.623505e-01
-4.441290e-01 2.524392e+00 -1.021526e+01 5.881363e+00 1.088490e-04 2.023981e-02 -3.869171e-01 4.529114e-01
-5.353380e-01 2.537990e+00 -1.054053e+01 5.803146e+00 -7.015943e-05 2.022255e-02 -3.869171e-01 5.475311e-01
-5.324855e-01 2.562389e+00 -1.042862e+01 5.804291e+00 -9.644767e-05 1.976954e-02 -3.869171e-01 5.419006e-01
-5.230287e-01 2.570570e+00 -1.043982e+01 5.794891e+00 4.142616e-06 1.964759e-02 -3.869171e-01 5.455933e-01
-5.188355e-01 2.558135e+00 -1.024426e+01 5.810974e+00 -3.670261e-05 1.977078e-02 -3.754578e-01 4.823456e-01
-5.179216e-01 2.584526e+00 -1.041930e+01 5.971832e+00 -5.535539e-05 1.844942e-02 -3.754578e-01 4.617157e-01
-5.119964e-01 2.604213e+00 -1.055385e+01 6.034668e+00 1.354633e-04 1.935192e-02 -3.754578e-01 3.623505e-01
-5.159669e-01 2.607229e+00 -1.060501e+01 6.004013e+00 7.557578e-05 1.874605e-02 -3.754578e-01 4.559021e-01
-5.232949e-01 2.596164e+00 -1.054695e+01 6.050583e+00 9.026610e-05 2.127743e-02 -3.869171e-01 7.477570e-01
-5.554145e-01 2.578289e+00 -1.054695e+01 5.918274e+00 -1.068365e-04 2.025534e-02 -3.869171e-01 4.891205e-01
-5.495014e-01 2.585867e+00 -1.043803e+01 5.929153e+00 -1.472729e-05 1.997180e-02 -3.754578e-01 6.187744e-01
-5.705552e-01 2.608651e+00 -1.069235e+01 5.959122e+00 -2.039147e-04 1.835091e-02 -3.754578e-01 3.307953e-01
-5.695606e-01 2.616291e+00 -1.067393e+01 5.969818e+00 -7.086816e-05 1.865394e-02 -3.754578e-01 3.307953e-01
-5.533877e-01 2.605651e+00 -1.062601e+01 6.009491e+00 -9.193507e-05 1.825664e-02 -3.869171e-01 3.474579e-01
-5.448814e-01 2.601962e+00 -1.064859e+01 6.031906e+00 -8.703309e-05 1.871330e-02 -3.968353e-01 3.372040e-01
-5.595717e-01 2.626889e+00 -1.087923e+01 6.031097e+00 2.014949e-05 1.877543e-02 -3.754578e-01 3.623505e-01
-5.528099e-01 2.604014e+00 -1.074629e+01 6.008820e+00 -2.225110e-05 1.882494e-02 -3.754578e-01 3.474579e-01
-5.541878e-01 2.588925e+00 -1.050433e+01 5.986298e+00 -1.509310e-04 1.893337e-02 -3.968353e-01 4.876251e-01
-5.361384e-01 2.610514e+00 -1.072939e+01 6.015594e+00 8.854792e-05 1.878001e-02 -3.754578e-01 3.623505e-01
-5.457927e-01 2.594507e+00 -1.054901e+01 6.047653e+00 -8.311314e-05 1.929232e-02 -3.968353e-01 3.623505e-01
-5.520550e-01 2.612750e+00 -1.076657e+01 6.041992e+00 1.036613e-05 1.823491e-02 -3.754578e-01 3.623505e-01
-5.505959e-01 2.613966e+00 -1.069882e+01 6.041992e+00 5.399547e-07 1.855854e-02 -3.754578e-01 3.474579e-01
-5.627996e-01 2.614307e+00 -1.058430e+01 6.041550e+00 -3.783054e-05 1.976080e-02 -3.869171e-01 4.774170e-01
-5.561719e-01 2.617153e+00 -1.076874e+01 6.074646e+00 -4.313340e-05 1.901281e-02 -3.754578e-01 4.862671e-01
-5.585478e-01 2.615146e+00 -1.070833e+01 6.018112e+00 -5.816541e-05 1.882665e-02 -3.754578e-01 3.623505e-01
-5.690195e-01 2.618618e+00 -1.082097e+01 6.006775e+00 -1.004863e-04 1.856264e-02 -3.754578e-01 3.623505e-01
-5.709640e-01 2.621881e+00 -1.082097e+01 6.032181e+00 -1.096734e-04 1.836117e-02 -3.754578e-01 3.623505e-01
-5.628300e-01 2.620780e+00 -1.082097e+01 6.032181e+00 -8.141338e-05 1.845266e-02 -3.869171e-01 3.623505e-01
-5.383890e-01 2.628554e+00 -1.072032e+01 6.117218e+00 6.085954e-05 1.890684e-02 -3.754578e-01 3.754730e-01
-5.433542e-01 2.638364e+00 -1.088472e+01 6.103333e+00 5.435244e-05 1.864781e-02 -3.754578e-01 3.623505e-01
-5.538359e-01 2.637448e+00 -1.082776e+01 6.108704e+00 -6.956668e-05 1.829257e-02 -3.754578e-01 3.623505e-01
-5.505670e-01 2.633828e+00 -1.082245e+01 6.156525e+00 -5.044495e-05 1.953692e-02 -3.968353e-01 4.908447e-01
-5.476122e-01 2.649563e+00 -1.097191e+01 6.171295e+00 -2.270422e-05 1.883991e-02 -3.754578e-01 3.752594e-01
-5.463416e-01 2.650294e+00 -1.094814e+01 6.153229e+00 2.136361e-05 1.903438e-02 -3.869171e-01 3.754730e-01
-5.536975e-01 2.652467e+00 -1.090425e+01 6.154968e+00 1.324499e-05 1.835446e-02 -3.754578e-01 3.474579e-01
-5.592310e-01 2.652325e+00 -1.083308e+01 6.148819e+00 -3.663746e-05 1.852396e-02 -3.869171e-01 3.474579e-01
-5.501722e-01 2.640286e+00 -1.094080e+01 6.208878e+00 3.654922e-05 1.927774e-02 -3.754578e-01 4.948273e-01
-6.245561e-01 2.668544e+00 -1.105429e+01 6.253815e+00 -2.574547e-05 2.237660e-02 -4.053497e-01 8.600769e-01
-6.196935e-01 2.711411e+00 -1.136014e+01 6.243622e+00 1.557882e-04 1.972477e-02 -4.053497e-01 4.105072e-01
-6.403873e-01 2.660675e+00 -1.110286e+01 6.292374e+00 -1.604728e-04 1.960287e-02 -4.053497e-01 4.177246e-01
-6.303358e-01 2.675395e+00 -1.131689e+01 6.292374e+00 -3.349031e-05 1.887849e-02 -3.869171e-01 3.754730e-01
-6.121211e-01 2.693355e+00 -1.159669e+01 6.313599e+00 -9.203404e-07 1.923810e-02 -3.623352e-01 3.887177e-01
-5.951528e-01 2.699648e+00 -1.148045e+01 6.471695e+00 7.593058e-05 1.924562e-02 -3.754578e-01 3.811188e-01
-6.439441e-01 2.676152e+00 -1.144328e+01 6.239883e+00 -8.055895e-05 2.004393e-02 -4.053497e-01 5.104370e-01
-6.465540e-01 2.685749e+00 -1.155713e+01 6.317093e+00 -2.896828e-05 2.000626e-02 -4.053497e-01 5.145874e-01
-6.748503e-01 2.699487e+00 -1.184174e+01 6.282013e+00 -1.120593e-04 2.148588e-02 -4.053497e-01 9.390259e-01
-6.413210e-01 2.702849e+00 -1.173763e+01 6.307220e+00 -3.379568e-05 1.918383e-02 -3.869171e-01 4.201202e-01
-6.440301e-01 2.720030e+00 -1.168379e+01 6.492386e+00 2.950477e-05 1.946299e-02 -3.869171e-01 3.623505e-01
-6.465848e-01 2.713896e+00 -1.167241e+01 6.562439e+00 5.443808e-05 2.385780e-02 -4.865570e-01 8.508911e-01
-6.500957e-01 2.704914e+00 -1.170694e+01 6.492188e+00 -1.365876e-04 1.926176e-02 -3.869171e-01 4.479218e-01
-6.504154e-01 2.711001e+00 -1.170694e+01 6.511581e+00 -8.430568e-05 1.919358e-02 -3.869171e-01 4.479218e-01
-6.349842e-01 2.695514e+00 -1.161249e+01 6.479080e+00 -3.221950e-05 2.175168e-02 -4.968567e-01 7.014160e-01
-6.564775e-01 2.699553e+00 -1.152972e+01 6.451172e+00 -7.699011e-05 2.386064e-02 -4.968567e-01 8.070679e-01
-6.414114e-01 2.727191e+00 -1.158853e+01 6.502136e+00 1.049698e-05 2.058524e-02 -3.754578e-01 5.492401e-01
-6.613696e-01 2.716141e+00 -1.159341e+01 6.559921e+00 -1.671804e-04 1.974572e-02 -3.968353e-01 3.973694e-01
-6.503440e-01 2.726467e+00 -1.163634e+01 6.599548e+00 -4.128383e-05 1.944604e-02 -3.869171e-01 4.284821e-01
-6.467029e-01 2.721759e+00 -1.147261e+01 6.648483e+00 -9.188596e-05 1.862447e-02 -3.968353e-01 4.284821e-01
-6.501891e-01 2.728168e+00 -1.170975e+01 6.629425e+00 -7.196206e-05 1.859254e-02 -4.126282e-01 3.307953e-01
-6.594848e-01 2.720124e+00 -1.165486e+01 6.652481e+00 -1.555710e-04 1.932564e-02 -3.869171e-01 3.703308e-01
-6.441176e-01 2.740112e+00 -1.187514e+01 6.676743e+00 1.052332e-05 1.868243e-02 -3.754578e-01 3.474579e-01
-6.197471e-01 2.725880e+00 -1.162749e+01 6.726456e+00 1.799181e-04 2.327823e-02 -3.968353e-01 8.688660e-01
-6.296930e-01 2.722316e+00 -1.185083e+01 6.663345e+00 -2.943355e-05 1.992287e-02 -3.754578e-01 3.964996e-01
-6.352554e-01 2.716223e+00 -1.170302e+01 6.625687e+00 -1.012429e-05 1.901585e-02 -3.869171e-01 4.441223e-01
-6.330573e-01 2.712374e+00 -1.167616e+01 6.646317e+00 -7.666349e-05 2.098382e-02 -3.869171e-01 4.628296e-01
-6.529701e-01 2.744231e+00 -1.194582e+01 6.646317e+00 4.852861e-05 2.227154e-02 -4.053497e-01 5.782471e-01
-6.574459e-01 2.757083e+00 -1.191978e+01 6.778458e+00 4.630017e-05 1.973928e-02 -4.053497e-01 5.569916e-01
-6.695921e-01 2.741717e+00 -1.182364e+01 6.825897e+00 -1.474771e-04 2.288020e-02 -3.869171e-01 8.903961e-01
-5.857927e-01 2.731020e+00 -1.186409e+01 6.849289e+00 1.223771e-04 2.272784e-02 -4.320374e-01 9.978180e-01
-6.252868e-01 2.728606e+00 -1.146727e+01 6.886169e+00 -8.799669e-05 2.243058e-02 -4.187927e-01 9.770508e-01
-6.561020e-01 2.750132e+00 -1.166505e+01 6.898453e+00 -2.138496e-05 2.669355e-02 -4.351044e-01 1.004517e+00
-6.498752e-01 2.775597e+00 -1.189690e+01 6.931000e+00 -6.156752e-05 1.950024e-02 -3.869171e-01 4.978638e-01
-6.280497e-01 2.733045e+00 -1.164796e+01 6.803909e+00 -4.416322e-05 2.074162e-02 -3.968353e-01 5.626831e-01
-6.153563e-01 2.753762e+00 -1.177676e+01 6.847488e+00 1.124102e-04 1.937740e-02 -3.869171e-01 3.623505e-01
-6.350718e-01 2.756399e+00 -1.189529e+01 6.795578e+00 2.997296e-05 1.982894e-02 -3.869171e-01 4.202118e-01
-6.320526e-01 2.721839e+00 -1.176797e+01 6.773392e+00 -9.487452e-05 1.908597e-02 -3.968353e-01 3.623505e-01
-6.267218e-01 2.730488e+00 -1.180113e+01 6.786774e+00 -8.025065e-07 1.927176e-02 -3.869171e-01 3.623505e-01
-6.448230e-01 2.729950e+00 -1.173654e+01 6.786774e+00 -9.500233e-05 1.892488e-02 -3.869171e-01 3.474579e-01
-6.637099e-01 2.740652e+00 -1.191461e+01 6.773499e+00 -1.158558e-04 1.895930e-02 -3.869171e-01 3.623505e-01
-6.608478e-01 2.730757e+00 -1.179280e+01 6.774155e+00 -7.224401e-06 2.036957e-02 -3.869171e-01 5.481262e-01
-6.590265e-01 2.727241e+00 -1.154964e+01 6.792999e+00 1.969420e-05 2.017775e-02 -3.968353e-01 5.374756e-01
-6.592814e-01 2.749867e+00 -1.185054e+01 6.973862e+00 -8.054442e-06 2.003909e-02 -3.869171e-01 3.644714e-01
-6.596769e-01 2.725389e+00 -1.168517e+01 6.870560e+00 3.635312e-05 2.182260e-02 -3.754578e-01 8.954773e-01
-6.698074e-01 2.715455e+00 -1.169977e+01 6.840729e+00 -6.359021e-05 2.017538e-02 -3.869171e-01 5.357056e-01
-6.759764e-01 2.708256e+00 -1.173169e+01 6.808289e+00 -9.357868e-05 2.034206e-02 -3.869171e-01 5.357056e-01
-6.647588e-01 2.715694e+00 -1.172144e+01 6.881577e+00 -6.489061e-05 1.959436e-02 -3.968353e-01 4.319458e-01
-6.669710e-01 2.732807e+00 -1.186050e+01 6.881577e+00 -3.055389e-05 1.959528e-02 -3.869171e-01 4.321747e-01
-6.714492e-01 2.729452e+00 -1.184805e+01 6.867783e+00 -5.276120e-05 1.931078e-02 -3.869171e-01 3.754730e-01
-6.621651e-01 2.715177e+00 -1.169095e+01 6.892776e+00 -1.123019e-04 1.992161e-02 -3.869171e-01 4.313354e-01
-6.541621e-01 2.721980e+00 -1.166359e+01 6.937164e+00 -4.675449e-05 2.040621e-02 -3.869171e-01 5.403595e-01
-6.375691e-01 2.739234e+00 -1.173956e+01 6.937164e+00 1.161762e-04 2.000858e-02 -3.623352e-01 3.869324e-01
-6.567395e-01 2.704853e+00 -1.159169e+01 6.874252e+00 -2.216730e-05 2.068897e-02 -3.869171e-01 5.775909e-01
-6.589096e-01 2.709531e+00 -1.144099e+01 6.874252e+00 4.236612e-05 2.394386e-02 -3.968353e-01 9.417572e-01
-6.671348e-01 2.730826e+00 -1.170001e+01 6.856155e+00 -6.666864e-05 1.875444e-02 -3.869171e-01 3.623505e-01
-6.858202e-01 2.726843e+00 -1.170001e+01 6.893112e+00 -1.963773e-04 1.856824e-02 -3.869171e-01 3.474579e-01
-6.836155e-01 2.723411e+00 -1.170001e+01 6.874542e+00 -2.054262e-04 1.851252e-02 -3.869171e-01 3.474579e-01
-6.719079e-01 2.746133e+00 -1.162227e+01 6.921295e+00 -8.133240e-05 1.992293e-02 -3.869171e-01 4.542236e-01
-6.409139e-01 2.737552e+00 -1.161209e+01 7.035583e+00 -2.941555e-05 1.911355e-02 -3.869171e-01 3.754730e-01
-6.366899e-01 2.737109e+00 -1.164595e+01 6.997009e+00 3.919523e-06 1.911335e-02 -3.968353e-01 3.754730e-01
-6.370109e-01 2.734679e+00 -1.179466e+01 7.064453e+00 5.747521e-06 2.117011e-02 -3.906555e-01 5.987701e-01
-6.273890e-01 2.749789e+00 -1.174812e+01 7.064453e+00 2.989166e-05 2.042775e-02 -3.906555e-01 5.987701e-01
-6.333896e-01 2.755782e+00 -1.175470e+01 7.110565e+00 -3.887360e-05 1.935033e-02 -3.968353e-01 4.281769e-01
-6.391188e-01 2.746057e+00 -1.164705e+01 7.057785e+00 -9.255275e-05 1.956212e-02 -3.869171e-01 5.786743e-01
-6.366112e-01 2.743505e+00 -1.177283e+01 7.074768e+00 -1.198556e-05 1.980712e-02 -3.869171e-01 4.634705e-01
-6.383495e-01 2.750646e+00 -1.196254e+01 7.139771e+00 1.408012e-05 2.162494e-02 -3.968353e-01 5.719147e-01
-6.884261e-01 2.800518e+00 -1.181137e+01 7.442917e+00 2.302726e-05 2.300479e-02 -3.955231e-01 6.219177e-01
-6.939563e-01 2.795797e+00 -1.175310e+01 7.319916e+00 -1.947805e-05 2.070701e-02 -3.968353e-01 6.074219e-01
-7.164459e-01 2.812610e+00 -1.210077e+01 7.229248e+00 -1.032111e-04 1.925533e-02 -3.754578e-01 3.808441e-01
-7.038952e-01 2.788138e+00 -1.179709e+01 7.167023e+00 -1.917309e-04 1.893291e-02 -3.968353e-01 3.307953e-01
-6.846895e-01 2.802611e+00 -1.197807e+01 7.122238e+00 8.297807e-06 1.915334e-02 -3.754578e-01 3.623505e-01
-6.910146e-01 2.781501e+00 -1.163280e+01 7.166672e+00 -1.327831e-04 2.048403e-02 -4.053497e-01 5.911102e-01
-6.794728e-01 2.790978e+00 -1.161734e+01 7.162094e+00 -1.092820e-04 2.064473e-02 -4.053497e-01 5.911102e-01
-6.640003e-01 2.784665e+00 -1.156943e+01 7.184204e+00 -6.956256e-05 1.930164e-02 -3.968353e-01 3.560333e-01
-6.574918e-01 2.792825e+00 -1.153096e+01 7.204330e+00 4.531739e-05 2.010861e-02 -3.968353e-01 5.091248e-01
-6.591515e-01 2.796662e+00 -1.163708e+01 7.202682e+00 -1.012353e-05 1.962570e-02 -3.968353e-01 5.802155e-01
-6.615501e-01 2.806246e+00 -1.169296e+01 7.199783e+00 -1.881364e-05 1.926202e-02 -3.968353e-01 3.754730e-01
-6.600914e-01 2.821467e+00 -1.172025e+01 7.328201e+00 2.905923e-05 1.938883e-02 -3.869171e-01 3.623505e-01
-6.451280e-01 2.830065e+00 -1.176579e+01 7.373184e+00 9.304252e-05 2.063225e-02 -3.869171e-01 5.769043e-01
-6.624140e-01 2.812435e+00 -1.166957e+01 7.360718e+00 2.961751e-05 2.211400e-02 -4.053497e-01 6.568146e-01
