-3.975909e+00 1.418263e+02 -3.260951e+03 1.749715e+03 2.368000e-05 5.416183e-03 -4.430084e-01 4.481812e-01
-1.729375e+01 4.458876e+02 -7.183319e+03 4.625875e+03 2.472440e-06 4.391845e-03 -4.376526e-01 4.192657e-01
-3.193956e+01 8.341941e+02 -1.279084e+04 9.052632e+03 1.205422e-06 4.075815e-03 -4.351044e-01 5.589905e-01
-4.764485e+01 1.275002e+03 -1.862138e+04 1.318914e+04 7.822631e-07 3.935000e-03 -4.351044e-01 6.344757e-01
-6.377072e+01 1.708034e+03 -2.451986e+04 1.603316e+04 7.983280e-07 3.854599e-03 -4.376526e-01 6.929779e-01
-8.216631e+01 2.181959e+03 -3.114831e+04 1.927279e+04 8.592270e-07 3.791732e-03 -4.351044e-01 7.048645e-01
-1.004926e+02 2.682878e+03 -3.276800e+04 2.370815e+04 4.001550e-07 3.717093e-03 -4.351044e-01 7.271118e-01
-1.160658e+02 3.122284e+03 -3.276800e+04 2.910169e+04 8.539706e-07 3.656114e-03 -4.376526e-01 6.993103e-01
-1.326302e+02 3.574486e+03 -3.276800e+04 3.276800e+04 1.840426e-07 3.589675e-03 -4.351044e-01 6.941833e-01
-1.510530e+02 4.034113e+03 -3.276800e+04 3.276800e+04 6.035573e-07 3.590758e-03 -4.376526e-01 7.042542e-01
-1.637754e+02 4.490852e+03 -3.276800e+04 3.276800e+04 2.575711e-07 3.550460e-03 -4.351044e-01 7.830811e-01
-1.721772e+02 4.935666e+03 -3.276800e+04 3.276800e+04 3.535839e-07 3.506558e-03 -4.397888e-01 7.473145e-01
-1.728997e+02 5.302914e+03 -3.276800e+04 3.276800e+04 5.049169e-07 3.547750e-03 -4.376526e-01 7.839508e-01
-1.723779e+02 5.609024e+03 -3.276800e+04 3.276800e+04 2.857122e-07 3.458756e-03 -4.351044e-01 7.854614e-01
-1.691060e+02 5.908669e+03 -3.276800e+04 3.276800e+04 6.588064e-07 3.482770e-03 -4.351044e-01 7.973480e-01
-1.597226e+02 6.199203e+03 -3.276800e+04 3.276800e+04 2.858983e-07 3.415773e-03 -4.351044e-01 8.212433e-01
-1.472069e+02 6.480308e+03 -3.276800e+04 3.276800e+04 2.538798e-07 3.353101e-03 -4.376526e-01 7.509460e-01
-1.346215e+02 6.749809e+03 -3.276800e+04 3.276800e+04 2.503980e-07 3.332962e-03 -4.376526e-01 8.161774e-01
-1.206065e+02 7.009444e+03 -3.276800e+04 3.276800e+04 1.322116e-07 3.323226e-03 -4.397888e-01 8.222046e-01
-1.053077e+02 7.260346e+03 -3.276800e+04 3.276800e+04 4.149175e-07 3.325546e-03 -4.397888e-01 7.742767e-01
-8.942800e+01 7.503103e+03 -3.276800e+04 3.276800e+04 4.244898e-07 3.355894e-03 -4.415436e-01 7.596436e-01
-7.209821e+01 7.737269e+03 -3.276800e+04 3.276800e+04 7.066701e-08 3.283594e-03 -4.415436e-01 8.290100e-01
-5.546064e+01 7.963368e+03 -3.276800e+04 3.276800e+04 2.330087e-07 3.289632e-03 -4.415436e-01 8.294678e-01
-3.985449e+01 8.152999e+03 -3.276800e+04 3.276800e+04 2.676773e-07 3.294502e-03 -4.397888e-01 8.511353e-01
-2.644993e+01 8.305693e+03 -3.276800e+04 3.276800e+04 3.662614e-07 3.268467e-03 -4.397888e-01 8.078461e-01
-1.250363e+01 8.458784e+03 -3.276800e+04 3.276800e+04 -2.253238e-07 3.276232e-03 -4.415436e-01 8.320007e-01
-8.501667e-02 8.607333e+03 -3.276800e+04 3.276800e+04 4.841058e-07 3.246743e-03 -4.415436e-01 7.411194e-01
1.290459e+01 8.753366e+03 -3.276800e+04 3.276800e+04 9.770493e-08 3.231097e-03 -4.397888e-01 8.240662e-01
2.426269e+01 8.894592e+03 -3.276800e+04 3.276800e+04 3.980854e-07 3.241610e-03 -4.415436e-01 8.127441e-01
3.538786e+01 9.033698e+03 -3.276800e+04 3.276800e+04 1.378807e-07 3.217220e-03 -4.415436e-01 7.789917e-01
4.683006e+01 9.169560e+03 -3.276800e+04 3.276800e+04 4.314674e-07 3.215953e-03 -4.415436e-01 8.449249e-01
5.706519e+01 9.300268e+03 -3.276800e+04 3.276800e+04 2.420999e-07 3.198023e-03 -4.415436e-01 8.171844e-01
6.618815e+01 9.427664e+03 -3.276800e+04 3.276800e+04 4.681535e-08 3.189471e-03 -4.415436e-01 8.745117e-01
7.291766e+01 9.550295e+03 -3.276800e+04 3.276800e+04 2.240179e-07 3.208893e-03 -4.415436e-01 8.522186e-01
7.938035e+01 9.669947e+03 -3.276800e+04 3.276800e+04 1.362944e-07 3.184510e-03 -4.415436e-01 8.310242e-01
8.504902e+01 9.785419e+03 -3.276800e+04 3.276800e+04 2.073509e-07 3.211276e-03 -4.415436e-01 8.421936e-01
8.896603e+01 9.896534e+03 -3.276800e+04 3.276800e+04 4.488592e-07 3.203548e-03 -4.415436e-01 8.463135e-01
9.224066e+01 1.000383e+04 -3.276800e+04 3.276800e+04 3.429334e-08 3.224240e-03 -4.415436e-01 8.469086e-01
9.439095e+01 1.010808e+04 -3.276800e+04 3.276800e+04 2.255817e-07 3.200765e-03 -4.430084e-01 8.462067e-01
9.577300e+01 1.020890e+04 -3.276800e+04 3.276800e+04 -6.231246e-08 3.141975e-03 -4.430084e-01 8.382874e-01
9.752348e+01 1.030699e+04 -3.276800e+04 3.276800e+04 1.141054e-07 3.123797e-03 -4.430084e-01 8.346710e-01
9.746256e+01 1.040208e+04 -3.276800e+04 3.276800e+04 2.430474e-07 3.182753e-03 -4.430084e-01 8.856506e-01
9.686427e+01 1.049363e+04 -3.276800e+04 3.276800e+04 2.197672e-07 3.176805e-03 -4.415436e-01 8.675690e-01
9.493032e+01 1.058094e+04 -3.276800e+04 3.276800e+04 1.284501e-09 3.139912e-03 -4.415436e-01 9.024048e-01
9.281140e+01 1.066589e+04 -3.276800e+04 3.276800e+04 1.317311e-07 3.127293e-03 -4.415436e-01 8.631287e-01
8.989581e+01 1.074128e+04 -3.276800e+04 3.276800e+04 8.404091e-08 3.116877e-03 -4.430084e-01 9.360352e-01
8.722663e+01 1.079578e+04 -3.276800e+04 3.276800e+04 1.959009e-07 3.150235e-03 -4.415436e-01 8.842926e-01
8.436504e+01 1.085077e+04 -3.276800e+04 3.276800e+04 1.200085e-07 3.120093e-03 -4.430084e-01 9.689789e-01
8.169524e+01 1.090534e+04 -3.276800e+04 3.276800e+04 2.354462e-07 3.129789e-03 -4.430084e-01 9.747467e-01
7.849752e+01 1.095892e+04 -3.276800e+04 3.276800e+04 1.926115e-07 3.143482e-03 -4.442291e-01 8.579865e-01
7.419486e+01 1.101150e+04 -3.276800e+04 3.276800e+04 -1.411802e-07 3.105297e-03 -4.442291e-01 8.962402e-01
6.987057e+01 1.106341e+04 -3.276800e+04 3.276800e+04 2.146991e-07 3.074110e-03 -4.442291e-01 8.621063e-01
6.602290e+01 1.111485e+04 -3.276800e+04 3.276800e+04 2.572652e-07 3.092569e-03 -4.430084e-01 8.859558e-01
6.244200e+01 1.116566e+04 -3.276800e+04 3.276800e+04 -2.696050e-08 3.100727e-03 -4.442291e-01 8.702087e-01
5.956885e+01 1.121562e+04 -3.276800e+04 3.276800e+04 1.856589e-07 3.149524e-03 -4.442291e-01 8.912201e-01
5.634425e+01 1.126417e+04 -3.276800e+04 3.276800e+04 2.909166e-07 3.072397e-03 -4.442291e-01 8.787384e-01
5.196998e+01 1.131127e+04 -3.276800e+04 3.276800e+04 -2.073614e-07 3.039523e-03 -4.430084e-01 8.544159e-01
4.772740e+01 1.135786e+04 -3.276800e+04 3.276800e+04 2.150266e-07 3.086035e-03 -4.442291e-01 9.682159e-01
4.386700e+01 1.140291e+04 -3.276800e+04 3.276800e+04 -1.049019e-07 3.071642e-03 -4.442291e-01 8.965149e-01
3.953552e+01 1.144730e+04 -3.276800e+04 3.276800e+04 1.828242e-07 3.065280e-03 -4.442291e-01 9.002075e-01
3.338576e+01 1.149030e+04 -3.276800e+04 3.276800e+04 2.025213e-07 3.071309e-03 -4.442291e-01 8.981781e-01
2.699976e+01 1.153240e+04 -3.276800e+04 3.276800e+04 -4.466126e-08 3.041579e-03 -4.442291e-01 9.170380e-01
2.157645e+01 1.157398e+04 -3.276800e+04 3.276800e+04 3.010105e-07 3.058333e-03 -4.442291e-01 9.692383e-01
1.711389e+01 1.161599e+04 -3.276800e+04 3.276800e+04 -1.526754e-07 3.050547e-03 -4.430084e-01 9.250183e-01
1.322012e+01 1.165802e+04 -3.276800e+04 3.276800e+04 1.879539e-07 3.090223e-03 -4.442291e-01 8.879852e-01
