-2.390108e+00 9.364728e+00 -4.883341e+01 4.364173e+01 2.831120e-06 1.991144e-03 -1.301852e-01 1.262285e-01
-2.917133e+00 1.038119e+01 -5.359398e+01 4.774923e+01 5.845734e-07 1.525815e-03 -1.262285e-01 1.262285e-01
-2.968757e+00 1.077219e+01 -5.777242e+01 5.205178e+01 2.708103e-07 1.423234e-03 -1.262285e-01 1.262285e-01
-3.060561e+00 1.120157e+01 -6.127866e+01 5.370260e+01 6.786728e-07 1.386309e-03 -1.262285e-01 1.262285e-01
-3.148055e+00 1.147827e+01 -5.947940e+01 5.696991e+01 7.604798e-07 1.333281e-03 -1.262285e-01 1.262285e-01
-3.134049e+00 1.178492e+01 -6.413019e+01 5.861956e+01 3.818546e-07 1.289610e-03 -1.262285e-01 1.262285e-01
-3.197884e+00 1.194421e+01 -6.800723e+01 5.889659e+01 7.471683e-07 1.263313e-03 -1.262285e-01 1.262285e-01
-3.256393e+00 1.211737e+01 -6.527974e+01 6.135010e+01 6.488638e-07 1.226275e-03 -1.262285e-01 1.262285e-01
-3.274903e+00 1.224799e+01 -6.603852e+01 6.060404e+01 1.629075e-08 1.196681e-03 -1.262285e-01 1.262285e-01
-3.255608e+00 1.241273e+01 -6.608129e+01 6.210371e+01 4.493219e-07 1.190575e-03 -1.262285e-01 1.402027e-01
-3.313411e+00 1.259920e+01 -7.251582e+01 6.274806e+01 3.465594e-07 1.186060e-03 -1.265568e-01 1.269869e-01
-3.341331e+00 1.273119e+01 -7.170606e+01 6.133159e+01 5.780734e-08 1.156159e-03 -1.299277e-01 1.262282e-01
-3.341769e+00 1.280715e+01 -7.182834e+01 6.221209e+01 1.883718e-07 1.135442e-03 -1.366881e-01 1.431083e-01
-3.375316e+00 1.299157e+01 -6.990073e+01 6.305496e+01 3.903023e-07 1.146393e-03 -1.334899e-01 1.366601e-01
-3.386424e+00 1.307962e+01 -7.201972e+01 6.394243e+01 3.593188e-07 1.101960e-03 -1.335545e-01 1.424721e-01
-3.374476e+00 1.315900e+01 -7.282983e+01 6.538380e+01 2.558517e-07 1.101028e-03 -1.304748e-01 1.417476e-01
-3.419078e+00 1.328127e+01 -7.446734e+01 6.237133e+01 -2.512115e-07 1.092032e-03 -1.329457e-01 1.262285e-01
-3.393250e+00 1.337289e+01 -7.338387e+01 6.492016e+01 5.217270e-07 1.087481e-03 -1.262285e-01 1.383180e-01
