-2.969653e-01 3.542121e+00 -2.659766e+01 2.762500e+01 1.077380e-04 8.025042e-03 -1.562500e-01 1.250000e-01
-3.110531e-01 3.544699e+00 -2.659766e+01 2.762500e+01 4.707620e-05 7.975675e-03 -1.484375e-01 1.132812e-01
-3.082514e-01 3.548623e+00 -2.659766e+01 2.762500e+01 2.830974e-05 7.910670e-03 -1.484375e-01 1.132812e-01
-3.119035e-01 3.545532e+00 -2.659766e+01 2.762500e+01 2.317685e-05 7.888183e-03 -1.484375e-01 1.132812e-01
-3.143229e-01 3.534638e+00 -2.659766e+01 2.762500e+01 1.953925e-05 7.878610e-03 -1.484375e-01 1.132812e-01
-3.166135e-01 3.544052e+00 -2.659766e+01 2.762500e+01 1.458471e-05 7.888719e-03 -1.484375e-01 1.132812e-01
-3.248053e-01 3.544278e+00 -2.659766e+01 2.762500e+01 4.147461e-06 7.843539e-03 -1.484375e-01 1.132812e-01
-3.186069e-01 3.541990e+00 -2.659766e+01 2.762500e+01 1.225947e-05 7.858614e-03 -1.484375e-01 1.132812e-01
-3.131619e-01 3.541375e+00 -2.659766e+01 2.491406e+01 1.005542e-05 7.856526e-03 -1.484375e-01 1.132812e-01
-3.179307e-01 3.545459e+00 -2.659766e+01 2.762500e+01 1.201026e-05 7.822480e-03 -1.484375e-01 1.132812e-01
-3.164259e-01 3.543781e+00 -2.659766e+01 2.762500e+01 1.407942e-05 7.832153e-03 -1.484375e-01 1.132812e-01
-3.173407e-01 3.544958e+00 -2.659766e+01 2.762500e+01 1.721631e-05 7.834851e-03 -1.523438e-01 1.132812e-01
-3.160235e-01 3.542472e+00 -2.659766e+01 2.762500e+01 1.966500e-05 7.836662e-03 -1.523438e-01 1.132812e-01
-3.106708e-01 3.535457e+00 -2.659766e+01 2.762500e+01 1.728261e-05 7.791179e-03 -1.523438e-01 1.132812e-01
-3.274230e-01 3.540499e+00 -2.659766e+01 2.762500e+01 1.890822e-05 7.794762e-03 -1.523438e-01 1.132812e-01
-3.263027e-01 3.538204e+00 -2.659766e+01 2.762500e+01 1.874817e-05 7.776058e-03 -1.523438e-01 1.132812e-01
-3.249027e-01 3.541253e+00 -2.659766e+01 2.762500e+01 2.180961e-05 7.777117e-03 -1.523438e-01 1.132812e-01
-3.284067e-01 3.544158e+00 -2.659766e+01 2.762500e+01 2.483218e-05 7.794550e-03 -1.523438e-01 1.132812e-01
-3.241871e-01 3.536841e+00 -2.659766e+01 2.762500e+01 2.361355e-05 7.776607e-03 -1.523438e-01 1.132812e-01
-3.287943e-01 3.543697e+00 -2.659766e+01 2.762500e+01 2.495336e-05 7.758748e-03 -1.523438e-01 1.132812e-01
-3.223729e-01 3.531452e+00 -2.659766e+01 2.762500e+01 2.229432e-05 7.719974e-03 -1.523438e-01 1.132812e-01
-3.362697e-01 3.543638e+00 -2.659766e+01 2.762500e+01 2.281104e-05 7.711767e-03 -1.523438e-01 1.132812e-01
-3.343565e-01 3.551175e+00 -2.659766e+01 2.762500e+01 2.957638e-05 7.709774e-03 -1.523438e-01 1.132812e-01
-3.346291e-01 3.532623e+00 -2.659766e+01 2.762500e+01 2.514770e-05 7.685182e-03 -1.523438e-01 1.132812e-01
-3.332106e-01 3.539265e+00 -2.659766e+01 2.762500e+01 2.403424e-05 7.698930e-03 -1.523438e-01 1.132812e-01
-3.258974e-01 3.535106e+00 -2.659766e+01 2.762500e+01 2.018172e-05 7.661550e-03 -1.523438e-01 1.132812e-01
-3.309664e-01 3.541611e+00 -2.659766e+01 2.762500e+01 1.629033e-05 7.682136e-03 -1.523438e-01 1.132812e-01
-3.336649e-01 3.549514e+00 -2.659766e+01 2.762500e+01 1.686878e-05 7.707871e-03 -1.523438e-01 1.132812e-01
-3.368116e-01 3.541888e+00 -2.659766e+01 2.762500e+01 1.751354e-05 7.664644e-03 -1.523438e-01 1.132812e-01
-3.295690e-01 3.532454e+00 -2.659766e+01 2.762500e+01 2.245208e-05 7.712189e-03 -1.523438e-01 1.132812e-01
-3.289903e-01 3.536548e+00 -2.659766e+01 2.762500e+01 2.313113e-05 7.681410e-03 -1.523438e-01 1.132812e-01
-3.377230e-01 3.530482e+00 -2.659766e+01 2.762500e+01 2.548379e-05 7.656074e-03 -1.523438e-01 1.132812e-01
-3.286198e-01 3.538363e+00 -2.659766e+01 2.762500e+01 2.264185e-05 7.642384e-03 -1.562500e-01 1.132812e-01
-3.387118e-01 3.541539e+00 -2.659766e+01 2.762500e+01 2.686933e-05 7.645054e-03 -1.562500e-01 1.132812e-01
-3.305775e-01 3.537676e+00 -2.659766e+01 2.762500e+01 2.168157e-05 7.645304e-03 -1.562500e-01 1.132812e-01
-3.303395e-01 3.539637e+00 -2.659766e+01 2.762500e+01 2.110770e-05 7.661230e-03 -1.562500e-01 1.132812e-01
-3.367005e-01 3.535658e+00 -2.659766e+01 2.762500e+01 1.947752e-05 7.657329e-03 -1.562500e-01 1.132812e-01
-3.351260e-01 3.536417e+00 -2.659766e+01 2.762500e+01 2.161298e-05 7.638436e-03 -1.562500e-01 1.132812e-01
-3.364506e-01 3.542470e+00 -2.659766e+01 2.762500e+01 2.361584e-05 7.640136e-03 -1.562500e-01 1.132812e-01
-3.360540e-01 3.541558e+00 -2.659766e+01 2.762500e+01 2.484819e-05 7.640997e-03 -1.562500e-01 1.132812e-01
-3.372822e-01 3.536089e+00 -2.659766e+01 2.491406e+01 2.518657e-05 7.632631e-03 -1.562500e-01 1.132812e-01
-3.362664e-01 3.541347e+00 -2.659766e+01 2.762500e+01 2.775187e-05 7.616489e-03 -1.562500e-01 1.132812e-01
-3.398289e-01 3.539310e+00 -2.659766e+01 2.762500e+01 2.656067e-05 7.607077e-03 -1.562500e-01 1.132812e-01
-3.404483e-01 3.537630e+00 -2.659766e+01 2.762500e+01 2.854066e-05 7.627974e-03 -1.562500e-01 1.132812e-01
-3.374556e-01 3.543810e+00 -2.659766e+01 2.762500e+01 3.004737e-05 7.627070e-03 -1.562500e-01 1.132812e-01
-3.517875e-01 3.537574e+00 -2.659766e+01 2.762500e+01 2.582218e-05 7.629025e-03 -1.562500e-01 1.132812e-01
-3.432472e-01 3.537970e+00 -2.659766e+01 2.762500e+01 2.867327e-05 7.630639e-03 -1.562500e-01 1.132812e-01
-3.465791e-01 3.539882e+00 -2.659766e+01 2.762500e+01 3.278415e-05 7.597953e-03 -1.562500e-01 1.132812e-01
-3.470452e-01 3.536116e+00 -2.659766e+01 2.762500e+01 2.858639e-05 7.604290e-03 -1.562500e-01 1.132812e-01
-3.490444e-01 3.539942e+00 -2.659766e+01 2.762500e+01 3.698648e-05 7.604743e-03 -1.562500e-01 1.132812e-01
-3.498556e-01 3.541035e+00 -2.659766e+01 2.762500e+01 4.109965e-05 7.574029e-03 -1.562500e-01 1.132812e-01
-3.538335e-01 3.536276e+00 -2.659766e+01 2.762500e+01 3.800620e-05 7.595873e-03 -1.562500e-01 1.132812e-01
-3.540442e-01 3.537565e+00 -2.659766e+01 2.762500e+01 3.452636e-05 7.578536e-03 -1.562500e-01 1.132812e-01
-3.523874e-01 3.535114e+00 -2.659766e+01 2.762500e+01 3.459723e-05 7.584658e-03 -1.562500e-01 1.132812e-01
-3.538809e-01 3.537247e+00 -2.659766e+01 2.762500e+01 3.613824e-05 7.549919e-03 -1.562500e-01 1.132812e-01
-3.559719e-01 3.543905e+00 -2.659766e+01 2.762500e+01 3.260581e-05 7.548081e-03 -1.562500e-01 1.132812e-01
-3.619845e-01 3.537643e+00 -2.659766e+01 2.762500e+01 3.268126e-05 7.580618e-03 -1.562500e-01 1.132812e-01
-3.571915e-01 3.549504e+00 -2.659766e+01 2.762500e+01 3.209824e-05 7.559852e-03 -1.562500e-01 1.132812e-01
-3.604045e-01 3.537132e+00 -2.659766e+01 2.762500e+01 3.080645e-05 7.584495e-03 -1.562500e-01 1.132812e-01
-3.588489e-01 3.536282e+00 -2.659766e+01 2.762500e+01 3.403708e-05 7.556293e-03 -1.562500e-01 1.132812e-01
-3.596266e-01 3.546403e+00 -2.659766e+01 2.762500e+01 2.865955e-05 7.544945e-03 -1.562500e-01 1.132812e-01
-3.542029e-01 3.536839e+00 -2.659766e+01 2.762500e+01 2.686933e-05 7.563331e-03 -1.562500e-01 1.132812e-01
-3.618315e-01 3.543217e+00 -2.659766e+01 2.762500e+01 2.997192e-05 7.558412e-03 -1.562500e-01 1.132812e-01
-3.632053e-01 3.539442e+00 -2.364453e+01 2.762500e+01 2.675273e-05 7.569036e-03 -1.562500e-01 1.132812e-01
-3.734946e-01 3.537223e+00 -2.659766e+01 2.762500e+01 2.292535e-05 7.560773e-03 -1.562500e-01 1.132812e-01
-3.612514e-01 3.536754e+00 -2.659766e+01 2.762500e+01 2.534661e-05 7.563467e-03 -1.562500e-01 1.132812e-01
-3.644689e-01 3.536862e+00 -2.659766e+01 2.762500e+01 2.270815e-05 7.533013e-03 -1.562500e-01 1.132812e-01
-3.627566e-01 3.538321e+00 -2.659766e+01 2.762500e+01 2.339406e-05 7.567314e-03 -1.562500e-01 1.132812e-01
-3.646150e-01 3.539893e+00 -2.659766e+01 2.762500e+01 2.565756e-05 7.571732e-03 -1.562500e-01 1.132812e-01
-3.658441e-01 3.546586e+00 -2.659766e+01 2.762500e+01 2.814512e-05 7.563061e-03 -1.562500e-01 1.132812e-01
-3.629689e-01 3.532682e+00 -2.659766e+01 2.762500e+01 3.145349e-05 7.566248e-03 -1.562500e-01 1.132812e-01
-3.667072e-01 3.538013e+00 -2.659766e+01 2.762500e+01 2.973414e-05 7.587916e-03 -1.562500e-01 1.132812e-01
-3.722991e-01 3.538176e+00 -2.659766e+01 2.762500e+01 2.879445e-05 7.589664e-03 -1.562500e-01 1.132812e-01
-3.729519e-01 3.540095e+00 -2.659766e+01 2.762500e+01 2.445493e-05 7.590370e-03 -1.562500e-01 1.132812e-01
-3.764934e-01 3.540452e+00 -2.659766e+01 2.762500e+01 1.903397e-05 7.606391e-03 -1.562500e-01 1.132812e-01
-3.755188e-01 3.543855e+00 -2.659766e+01 2.762500e+01 2.022516e-05 7.612163e-03 -1.562500e-01 1.132812e-01
-3.707858e-01 3.541475e+00 -2.659766e+01 2.762500e+01 1.425547e-05 7.625493e-03 -1.562500e-01 1.132812e-01
-3.694782e-01 3.538768e+00 -2.659766e+01 2.762500e+01 1.733291e-05 7.609092e-03 -1.562500e-01 1.132812e-01
-3.786432e-01 3.539102e+00 -2.659766e+01 2.762500e+01 1.578505e-05 7.622771e-03 -1.562500e-01 1.132812e-01
-3.757171e-01 3.535603e+00 -2.659766e+01 2.762500e+01 1.397196e-05 7.630864e-03 -1.640625e-01 1.132812e-01
-3.793554e-01 3.535303e+00 -2.659766e+01 2.491406e+01 1.270532e-05 7.621769e-03 -1.640625e-01 1.132812e-01
-3.757532e-01 3.536136e+00 -2.659766e+01 2.762500e+01 1.212687e-05 7.632890e-03 -1.640625e-01 1.132812e-01
-3.791059e-01 3.545756e+00 -2.659766e+01 2.762500e+01 1.190509e-05 7.619071e-03 -1.640625e-01 1.132812e-01
-3.861807e-01 3.543047e+00 -2.659766e+01 2.762500e+01 1.409771e-05 7.640382e-03 -1.562500e-01 1.132812e-01
-3.813746e-01 3.547714e+00 -2.659766e+01 2.762500e+01 1.173590e-05 7.641912e-03 -1.640625e-01 1.132812e-01
-3.788854e-01 3.530861e+00 -2.659766e+01 2.762500e+01 1.174962e-05 7.639189e-03 -1.562500e-01 1.132812e-01
-3.859749e-01 3.521473e+00 -2.659766e+01 2.762500e+01 9.870226e-06 7.629321e-03 -1.640625e-01 1.132812e-01
-3.853295e-01 3.532901e+00 -2.659766e+01 2.762500e+01 9.598149e-06 7.658290e-03 -1.640625e-01 1.132812e-01
-3.818653e-01 3.534568e+00 -2.659766e+01 2.762500e+01 1.559756e-05 7.693057e-03 -1.640625e-01 1.132812e-01
-3.894017e-01 3.538961e+00 -2.659766e+01 2.762500e+01 1.584449e-05 7.650945e-03 -1.640625e-01 1.132812e-01
-3.892316e-01 3.534717e+00 -2.659766e+01 2.762500e+01 1.379134e-05 7.710635e-03 -1.640625e-01 1.132812e-01
-3.865155e-01 3.532615e+00 -2.659766e+01 2.762500e+01 1.302083e-05 7.697712e-03 -1.640625e-01 1.132812e-01
-3.853461e-01 3.534556e+00 -2.659766e+01 2.762500e+01 1.789764e-05 7.715629e-03 -1.640625e-01 1.132812e-01
-3.822445e-01 3.533123e+00 -2.659766e+01 2.762500e+01 2.315170e-05 7.732529e-03 -1.640625e-01 1.132812e-01
-3.837862e-01 3.548702e+00 -2.659766e+01 2.762500e+01 1.021547e-05 7.730905e-03 -1.640625e-01 1.132812e-01
-3.879631e-01 3.532477e+00 -2.659766e+01 2.762500e+01 1.496195e-05 7.765341e-03 -1.640625e-01 1.132812e-01
-3.964889e-01 3.538340e+00 -2.659766e+01 2.762500e+01 1.334550e-05 7.784499e-03 -1.640625e-01 1.132812e-01
-3.905926e-01 3.537151e+00 -2.659766e+01 2.762500e+01 1.588565e-05 7.796975e-03 -1.640625e-01 1.132812e-01
-3.925861e-01 3.532910e+00 -2.659766e+01 2.762500e+01 1.296825e-05 7.813739e-03 -1.640625e-01 1.132812e-01
-3.827889e-01 3.532172e+00 -2.659766e+01 2.762500e+01 1.558156e-05 7.834814e-03 -1.640625e-01 1.132812e-01
