1.170785e+02 5.695652e-01 4.066821e-02 5.770424e-01 -9.907451e-01 9.998197e-01
6.506460e+01 4.217391e-01 1.884797e-02 5.768349e-01 -1.027550e+00 1.005805e+00
4.736931e+01 2.043478e-01 7.207503e-03 5.895628e-01 -1.584967e+00 1.222628e+00
4.204895e+01 2.000000e-01 1.643901e-03 6.415704e-01 -2.195639e+00 2.271312e+00
4.132141e+01 1.869565e-01 -2.407606e-03 6.602690e-01 -2.263618e+00 2.533027e+00
4.122718e+01 1.782609e-01 -6.065846e-03 6.719695e-01 -2.258296e+00 2.629514e+00
4.068301e+01 1.956522e-01 -4.119061e-03 6.729935e-01 -2.233486e+00 2.604920e+00
4.054300e+01 1.913043e-01 -1.119050e-03 6.744341e-01 -2.222808e+00 2.550142e+00
4.166137e+01 2.000000e-01 -1.370510e-03 6.718795e-01 -2.161212e+00 2.471557e+00
4.074838e+01 1.956522e-01 -8.831889e-04 6.706064e-01 -2.149332e+00 2.464050e+00
4.061681e+01 1.869565e-01 -6.358222e-04 6.700835e-01 -2.135309e+00 2.444336e+00
3.890791e+01 2.043478e-01 -1.483939e-03 6.707175e-01 -2.116851e+00 2.410881e+00
3.925217e+01 1.826087e-01 -2.383773e-03 6.699991e-01 -2.093556e+00 2.366981e+00
3.889957e+01 1.826087e-01 -2.883781e-03 6.693577e-01 -2.060299e+00 2.335632e+00
3.921184e+01 1.869565e-01 -2.001829e-03 6.707417e-01 -2.041073e+00 2.320869e+00
3.999295e+01 1.869565e-01 -2.733972e-03 6.706445e-01 -2.026263e+00 2.305017e+00
3.908425e+01 1.826087e-01 -4.149550e-03 6.738666e-01 -2.063846e+00 2.349690e+00
3.962225e+01 2.000000e-01 -3.720997e-03 6.755130e-01 -2.109406e+00 2.386536e+00
3.974775e+01 1.826087e-01 -6.686356e-03 6.755645e-01 -2.100607e+00 2.377974e+00
3.982108e+01 1.913043e-01 -9.482235e-03 6.763333e-01 -2.106804e+00 2.364662e+00
4.087697e+01 1.869565e-01 -5.568656e-03 6.788773e-01 -2.120563e+00 2.384891e+00
3.913165e+01 1.826087e-01 -4.941526e-03 6.794859e-01 -2.120189e+00 2.369137e+00
4.062936e+01 1.869565e-01 -4.881949e-03 6.861855e-01 -2.273587e+00 2.523003e+00
4.171840e+01 2.000000e-01 -4.909269e-03 6.971014e-01 -2.342123e+00 2.578334e+00
4.036138e+01 1.913043e-01 -8.954816e-03 6.988261e-01 -2.327953e+00 2.536411e+00
4.013164e+01 1.913043e-01 -6.492862e-03 6.991690e-01 -2.324565e+00 2.558799e+00
3.965701e+01 1.869565e-01 -6.307332e-03 7.002713e-01 -2.313705e+00 2.536781e+00
3.959584e+01 1.913043e-01 -7.378832e-03 7.002439e-01 -2.292370e+00 2.515018e+00
4.047704e+01 2.000000e-01 -1.398698e-02 7.004699e-01 -2.280740e+00 2.479824e+00
3.891985e+01 1.826087e-01 -1.346759e-02 7.006686e-01 -2.266234e+00 2.464845e+00
3.972960e+01 1.869565e-01 -1.014352e-02 7.035989e-01 -2.298583e+00 2.493078e+00
3.986212e+01 1.782609e-01 -8.380822e-03 7.062537e-01 -2.297103e+00 2.486270e+00
3.922094e+01 1.913043e-01 -8.611552e-03 7.067737e-01 -2.301912e+00 2.490512e+00
3.943370e+01 1.913043e-01 -8.235749e-03 7.092803e-01 -2.319576e+00 2.498256e+00
3.958152e+01 1.739130e-01 -9.412461e-03 7.110327e-01 -2.328109e+00 2.503890e+00
3.868802e+01 1.869565e-01 -1.093681e-02 7.126791e-01 -2.267969e+00 2.439880e+00
4.064931e+01 1.956522e-01 -1.100497e-02 7.134625e-01 -2.270439e+00 2.440893e+00
3.935305e+01 1.739130e-01 -1.078642e-02 7.144831e-01 -2.277414e+00 2.446828e+00
3.892223e+01 1.782609e-01 -1.001281e-02 7.159420e-01 -2.267479e+00 2.422551e+00
4.089773e+01 1.956522e-01 -8.174495e-03 7.169134e-01 -2.262624e+00 2.420445e+00
3.902661e+01 1.782609e-01 -1.143342e-02 7.172339e-01 -2.254515e+00 2.415574e+00
3.980145e+01 1.869565e-01 -1.214377e-02 7.183350e-01 -2.239988e+00 2.400434e+00
4.012953e+01 1.826087e-01 -1.062132e-02 7.218535e-01 -2.273601e+00 2.411767e+00
3.977659e+01 1.913043e-01 -1.020238e-02 7.239068e-01 -2.265613e+00 2.411934e+00
4.029774e+01 1.782609e-01 -9.142292e-03 7.257297e-01 -2.311615e+00 2.456610e+00
3.890944e+01 1.956522e-01 -8.160323e-03 7.275144e-01 -2.271679e+00 2.416639e+00
4.031544e+01 1.782609e-01 -1.020342e-02 7.348517e-01 -2.247163e+00 2.391922e+00
4.108197e+01 1.782609e-01 -1.696512e-02 7.549251e-01 -2.279033e+00 2.387798e+00
4.057704e+01 1.826087e-01 -1.884846e-02 7.617430e-01 -2.284294e+00 2.410449e+00
4.025710e+01 1.826087e-01 -1.522264e-02 7.641837e-01 -2.298887e+00 2.436649e+00
3.984946e+01 1.913043e-01 -1.264237e-02 7.673401e-01 -2.318817e+00 2.436477e+00
3.979217e+01 1.913043e-01 -1.291626e-02 7.678929e-01 -2.318817e+00 2.432287e+00
4.179577e+01 1.913043e-01 -1.498325e-02 7.744924e-01 -2.374380e+00 2.432299e+00
3.985031e+01 2.000000e-01 -1.571878e-02 7.906279e-01 -2.381978e+00 2.458201e+00
4.031379e+01 2.000000e-01 -1.581399e-02 7.920347e-01 -2.386349e+00 2.468616e+00
4.254016e+01 1.956522e-01 -1.447124e-02 7.940858e-01 -2.397558e+00 2.499342e+00
4.155354e+01 1.956522e-01 -1.407405e-02 7.961143e-01 -2.401608e+00 2.505542e+00
4.082938e+01 1.956522e-01 -1.627123e-02 8.114040e-01 -2.482006e+00 2.591073e+00
4.017527e+01 1.956522e-01 -2.059050e-02 8.225338e-01 -2.484202e+00 2.556261e+00
4.146139e+01 1.956522e-01 -1.883019e-02 8.372325e-01 -2.587173e+00 2.608725e+00
4.209240e+01 1.956522e-01 -1.606339e-02 8.624990e-01 -2.601695e+00 2.635755e+00
4.014278e+01 1.913043e-01 -1.397789e-02 8.652561e-01 -2.595170e+00 2.622425e+00
4.025613e+01 1.782609e-01 -1.365487e-02 8.667341e-01 -2.612326e+00 2.639448e+00
4.045807e+01 1.913043e-01 -1.398417e-02 8.674967e-01 -2.598089e+00 2.623861e+00
4.114319e+01 1.913043e-01 -1.489747e-02 8.682071e-01 -2.596392e+00 2.621893e+00
4.021324e+01 1.913043e-01 -1.912482e-02 8.720273e-01 -2.628050e+00 2.650188e+00
3.992381e+01 1.695652e-01 -2.198439e-02 8.736958e-01 -2.634451e+00 2.660830e+00
4.083929e+01 1.826087e-01 -2.225525e-02 8.788672e-01 -2.642908e+00 2.674064e+00
4.018100e+01 1.956522e-01 -2.304274e-02 8.807804e-01 -2.616372e+00 2.630742e+00
3.960454e+01 1.869565e-01 -2.097854e-02 8.829153e-01 -2.620788e+00 2.641843e+00
4.185151e+01 1.913043e-01 -2.098605e-02 8.851858e-01 -2.625600e+00 2.646486e+00
4.094114e+01 1.956522e-01 -2.034011e-02 8.860663e-01 -2.619304e+00 2.637959e+00
4.038904e+01 1.782609e-01 -2.039903e-02 8.877198e-01 -2.640096e+00 2.658700e+00
3.969225e+01 1.869565e-01 -2.135576e-02 8.888551e-01 -2.656901e+00 2.674807e+00
3.967382e+01 1.869565e-01 -2.003953e-02 8.916024e-01 -2.668857e+00 2.686378e+00
4.310083e+01 1.652174e-01 -1.381871e-02 9.097127e-01 -2.646116e+00 2.660830e+00
4.155263e+01 1.913043e-01 -1.689746e-02 9.318295e-01 -2.669681e+00 2.698614e+00
4.013214e+01 1.826087e-01 -2.767684e-02 9.430125e-01 -2.670443e+00 2.694700e+00
4.050239e+01 1.869565e-01 -3.887551e-02 9.516503e-01 -2.624405e+00 2.605984e+00
4.053286e+01 1.913043e-01 -3.877742e-02 9.544271e-01 -2.629027e+00 2.595851e+00
4.112313e+01 1.869565e-01 -3.396958e-02 9.574958e-01 -2.650830e+00 2.641962e+00
4.076315e+01 1.869565e-01 -3.252116e-02 9.582778e-01 -2.657747e+00 2.629276e+00
4.084759e+01 1.826087e-01 -3.250817e-02 9.635729e-01 -2.771129e+00 2.681980e+00
3.991160e+01 1.869565e-01 -3.345182e-02 9.733385e-01 -2.940003e+00 2.711247e+00
4.080796e+01 1.869565e-01 -3.432618e-02 9.784431e-01 -2.957122e+00 2.723534e+00
4.016314e+01 1.913043e-01 -3.441576e-02 9.795497e-01 -2.957122e+00 2.713340e+00
4.001276e+01 1.869565e-01 -3.369254e-02 9.818190e-01 -2.970190e+00 2.714774e+00
4.111966e+01 1.826087e-01 -3.438676e-02 9.871433e-01 -2.982961e+00 2.737165e+00
4.034857e+01 1.826087e-01 -3.453578e-02 9.891732e-01 -2.995463e+00 2.755100e+00
3.964554e+01 1.956522e-01 -3.540161e-02 9.907437e-01 -2.994768e+00 2.764651e+00
4.006386e+01 1.782609e-01 -3.449439e-02 9.920615e-01 -2.990189e+00 2.773656e+00
4.207835e+01 1.913043e-01 -3.615872e-02 9.940164e-01 -2.998663e+00 2.799156e+00
4.096716e+01 1.826087e-01 -3.521060e-02 9.972346e-01 -3.025884e+00 2.865636e+00
4.086615e+01 1.913043e-01 -3.551573e-02 1.002656e+00 -3.032251e+00 2.895893e+00
4.076491e+01 1.913043e-01 -3.457657e-02 1.004108e+00 -3.070501e+00 2.874847e+00
4.006830e+01 1.956522e-01 -3.733390e-02 1.006307e+00 -3.104279e+00 2.875471e+00
3.996411e+01 1.869565e-01 -3.626991e-02 1.011526e+00 -3.170430e+00 2.878315e+00
4.033506e+01 1.869565e-01 -3.478508e-02 1.014584e+00 -3.171223e+00 2.904161e+00
4.050933e+01 1.869565e-01 -3.336808e-02 1.018429e+00 -3.172657e+00 2.951761e+00
4.366670e+01 2.000000e-01 -3.558241e-02 1.020528e+00 -3.184412e+00 2.948034e+00
4.080687e+01 1.782609e-01 -3.710096e-02 1.021793e+00 -3.192677e+00 2.958556e+00
4.142666e+01 1.869565e-01 -3.490656e-02 1.025992e+00 -3.203420e+00 2.989527e+00
4.063695e+01 1.826087e-01 -3.708435e-02 1.028491e+00 -3.218079e+00 2.995673e+00
4.127733e+01 1.956522e-01 -4.499307e-02 1.035643e+00 -3.249553e+00 3.048840e+00
4.011139e+01 1.869565e-01 -4.476199e-02 1.039552e+00 -3.262676e+00 3.066859e+00
4.085917e+01 1.826087e-01 -4.023550e-02 1.042400e+00 -3.268606e+00 3.090370e+00
4.038179e+01 1.826087e-01 -4.153926e-02 1.044585e+00 -3.317040e+00 3.108566e+00
4.035634e+01 1.913043e-01 -4.479897e-02 1.049119e+00 -3.343557e+00 3.131417e+00
4.115035e+01 1.956522e-01 -4.612179e-02 1.053761e+00 -3.345215e+00 3.150201e+00
4.069242e+01 1.869565e-01 -4.591064e-02 1.058834e+00 -3.364532e+00 3.180590e+00
4.070475e+01 1.913043e-01 -4.638980e-02 1.060020e+00 -3.362458e+00 3.185609e+00
4.105651e+01 2.043478e-01 -4.904799e-02 1.065165e+00 -3.381776e+00 3.181466e+00
4.091508e+01 2.086957e-01 -5.185718e-02 1.071845e+00 -3.409653e+00 3.197893e+00
4.127873e+01 2.043478e-01 -5.191795e-02 1.072787e+00 -3.417639e+00 3.209559e+00
4.234719e+01 1.913043e-01 -5.013491e-02 1.074372e+00 -3.436284e+00 3.221502e+00
4.254548e+01 2.000000e-01 -4.975855e-02 1.080838e+00 -3.489218e+00 3.224333e+00
4.165362e+01 2.043478e-01 -4.899977e-02 1.083963e+00 -3.498393e+00 3.244752e+00
4.242625e+01 2.000000e-01 -4.932135e-02 1.087408e+00 -3.511855e+00 3.226725e+00
4.274328e+01 2.043478e-01 -5.133416e-02 1.095377e+00 -3.544220e+00 3.251311e+00
4.253150e+01 2.043478e-01 -5.321003e-02 1.096836e+00 -3.563928e+00 3.266156e+00
4.244208e+01 1.956522e-01 -5.381919e-02 1.098997e+00 -3.575689e+00 3.283237e+00
4.267837e+01 1.956522e-01 -5.563208e-02 1.100185e+00 -3.589744e+00 3.290735e+00
4.188433e+01 2.043478e-01 -5.620157e-02 1.101463e+00 -3.616141e+00 3.295882e+00
4.300061e+01 2.000000e-01 -5.695889e-02 1.103320e+00 -3.629083e+00 3.311893e+00
4.218085e+01 2.000000e-01 -5.720987e-02 1.104923e+00 -3.629118e+00 3.322612e+00
4.306016e+01 2.000000e-01 -5.812891e-02 1.106146e+00 -3.636286e+00 3.319529e+00
4.384429e+01 2.000000e-01 -5.003001e-02 1.112635e+00 -3.666414e+00 3.371913e+00
4.205971e+01 2.043478e-01 -5.376026e-02 1.114900e+00 -3.686444e+00 3.437664e+00
4.180536e+01 2.043478e-01 -5.963909e-02 1.118739e+00 -3.723193e+00 3.462938e+00
4.156548e+01 1.956522e-01 -6.046285e-02 1.119986e+00 -3.724591e+00 3.441628e+00
4.242646e+01 1.913043e-01 -5.952737e-02 1.121226e+00 -3.726853e+00 3.441628e+00
4.254149e+01 1.956522e-01 -5.947511e-02 1.122210e+00 -3.733210e+00 3.438050e+00
4.187354e+01 2.130435e-01 -5.757594e-02 1.123808e+00 -3.766645e+00 3.457716e+00
4.195074e+01 2.130435e-01 -5.720618e-02 1.125595e+00 -3.784605e+00 3.468572e+00
4.234005e+01 2.086957e-01 -5.672468e-02 1.127424e+00 -3.798024e+00 3.472123e+00
4.170303e+01 1.869565e-01 -5.926750e-02 1.128883e+00 -3.800308e+00 3.467079e+00
4.358838e+01 2.043478e-01 -6.504783e-02 1.132514e+00 -3.813674e+00 3.485375e+00
4.208022e+01 1.956522e-01 -6.230091e-02 1.133806e+00 -3.825898e+00 3.483199e+00
4.265192e+01 2.000000e-01 -5.833273e-02 1.135793e+00 -3.845168e+00 3.479705e+00
4.177634e+01 2.043478e-01 -5.753526e-02 1.136936e+00 -3.846953e+00 3.495216e+00
4.380746e+01 2.043478e-01 -5.772262e-02 1.138110e+00 -3.849673e+00 3.499539e+00
4.162385e+01 1.956522e-01 -5.831913e-02 1.139189e+00 -3.862476e+00 3.500334e+00
4.223632e+01 2.086957e-01 -5.958429e-02 1.140743e+00 -3.873146e+00 3.508840e+00
4.373966e+01 2.000000e-01 -5.995622e-02 1.143245e+00 -3.886665e+00 3.527236e+00
4.227218e+01 1.913043e-01 -6.048929e-02 1.144300e+00 -3.886665e+00 3.526066e+00
4.220909e+01 2.043478e-01 -6.028808e-02 1.145195e+00 -3.890281e+00 3.529558e+00
4.366078e+01 1.956522e-01 -6.055361e-02 1.146244e+00 -3.891862e+00 3.529558e+00
4.354912e+01 1.956522e-01 -6.433432e-02 1.149266e+00 -3.909063e+00 3.557816e+00
4.323567e+01 2.043478e-01 -6.603034e-02 1.150687e+00 -3.913415e+00 3.560142e+00
4.360333e+01 2.086957e-01 -6.498946e-02 1.151547e+00 -3.927049e+00 3.560142e+00
4.320188e+01 2.000000e-01 -6.499628e-02 1.152919e+00 -3.941458e+00 3.548542e+00
4.276016e+01 2.086957e-01 -6.156031e-02 1.155883e+00 -3.960754e+00 3.557034e+00
4.283355e+01 1.913043e-01 -6.354610e-02 1.160105e+00 -3.974980e+00 3.566605e+00
4.191425e+01 1.956522e-01 -6.506670e-02 1.164341e+00 -3.982480e+00 3.591264e+00
4.392415e+01 1.869565e-01 -6.158212e-02 1.166704e+00 -4.035773e+00 3.591166e+00
4.253692e+01 1.913043e-01 -6.088501e-02 1.175878e+00 -4.085569e+00 3.690711e+00
4.398451e+01 1.956522e-01 -6.483898e-02 1.180547e+00 -4.089512e+00 3.690711e+00
4.207446e+01 1.913043e-01 -6.542632e-02 1.185510e+00 -4.135050e+00 3.675814e+00
4.268009e+01 2.000000e-01 -6.715201e-02 1.188766e+00 -4.132878e+00 3.702317e+00
4.334226e+01 2.043478e-01 -6.847872e-02 1.189320e+00 -4.138294e+00 3.689639e+00
4.290246e+01 1.956522e-01 -7.000288e-02 1.190868e+00 -4.142563e+00 3.680337e+00
4.268670e+01 2.043478e-01 -7.025254e-02 1.192716e+00 -4.158508e+00 3.689036e+00
4.301654e+01 2.000000e-01 -6.797572e-02 1.194677e+00 -4.182441e+00 3.681230e+00
4.212697e+01 2.086957e-01 -6.889799e-02 1.195172e+00 -4.182241e+00 3.699329e+00
4.296704e+01 2.000000e-01 -6.654905e-02 1.198373e+00 -4.182715e+00 3.710770e+00
4.235670e+01 1.913043e-01 -6.821088e-02 1.201012e+00 -4.197876e+00 3.747050e+00
4.287953e+01 1.956522e-01 -7.015651e-02 1.202442e+00 -4.204075e+00 3.754306e+00
4.399037e+01 2.043478e-01 -6.994950e-02 1.203691e+00 -4.213505e+00 3.735277e+00
4.231107e+01 2.000000e-01 -7.027659e-02 1.204711e+00 -4.221824e+00 3.745408e+00
4.428096e+01 1.956522e-01 -6.995041e-02 1.206058e+00 -4.222134e+00 3.751610e+00
4.274027e+01 1.869565e-01 -7.325885e-02 1.208399e+00 -4.215530e+00 3.793270e+00
4.309007e+01 1.869565e-01 -7.483037e-02 1.211152e+00 -4.222438e+00 3.791640e+00
4.279927e+01 1.913043e-01 -7.323363e-02 1.212897e+00 -4.235857e+00 3.821407e+00
4.276465e+01 1.869565e-01 -7.170302e-02 1.214400e+00 -4.239966e+00 3.821407e+00
4.270073e+01 2.043478e-01 -7.215065e-02 1.215589e+00 -4.239204e+00 3.825779e+00
4.225941e+01 2.000000e-01 -6.896097e-02 1.219345e+00 -4.250261e+00 3.818286e+00
4.238873e+01 2.000000e-01 -7.039497e-02 1.220679e+00 -4.257148e+00 3.816098e+00
4.208909e+01 1.913043e-01 -7.051100e-02 1.221404e+00 -4.265268e+00 3.818977e+00
4.207436e+01 1.913043e-01 -7.121979e-02 1.222011e+00 -4.264872e+00 3.817168e+00
4.325379e+01 2.000000e-01 -7.100436e-02 1.223243e+00 -4.272189e+00 3.814489e+00
4.198319e+01 2.043478e-01 -7.252885e-02 1.225123e+00 -4.287444e+00 3.830173e+00
4.235616e+01 2.000000e-01 -7.231189e-02 1.226263e+00 -4.291469e+00 3.830974e+00
4.427146e+01 2.000000e-01 -7.288230e-02 1.228506e+00 -4.292710e+00 3.841013e+00
4.222462e+01 2.043478e-01 -7.041274e-02 1.229880e+00 -4.291315e+00 3.850990e+00
4.301190e+01 2.000000e-01 -7.025627e-02 1.231476e+00 -4.285070e+00 3.860631e+00
4.335033e+01 1.956522e-01 -7.086636e-02 1.233130e+00 -4.292372e+00 3.871763e+00
4.231013e+01 2.000000e-01 -6.989717e-02 1.233933e+00 -4.294032e+00 3.865028e+00
4.298265e+01 2.000000e-01 -7.212688e-02 1.235400e+00 -4.300985e+00 3.864447e+00
4.303759e+01 2.000000e-01 -7.392841e-02 1.236217e+00 -4.308468e+00 3.857415e+00
4.285637e+01 2.000000e-01 -7.303437e-02 1.236981e+00 -4.312925e+00 3.871874e+00
4.330285e+01 2.000000e-01 -7.588200e-02 1.238608e+00 -4.321987e+00 3.859469e+00
4.341889e+01 2.086957e-01 -7.737917e-02 1.241635e+00 -4.332459e+00 3.875841e+00
4.317919e+01 2.086957e-01 -7.691176e-02 1.243015e+00 -4.336404e+00 3.887798e+00
4.302203e+01 2.043478e-01 -7.719467e-02 1.243859e+00 -4.345590e+00 3.884309e+00
4.483935e+01 2.000000e-01 -7.822970e-02 1.246297e+00 -4.342223e+00 3.902693e+00
4.283567e+01 2.000000e-01 -7.703300e-02 1.248000e+00 -4.354533e+00 3.909961e+00
4.386784e+01 2.000000e-01 -7.837779e-02 1.250687e+00 -4.384682e+00 3.899890e+00
4.278560e+01 2.000000e-01 -7.243636e-02 1.253163e+00 -4.395474e+00 3.928767e+00
4.807441e+01 2.086957e-01 -7.129129e-02 1.255664e+00 -4.400847e+00 3.941897e+00
4.298586e+01 1.956522e-01 -7.201125e-02 1.256958e+00 -4.393272e+00 3.915262e+00
4.389260e+01 2.000000e-01 -7.270670e-02 1.258224e+00 -4.409963e+00 3.919219e+00
4.349726e+01 2.043478e-01 -7.357338e-02 1.259034e+00 -4.415186e+00 3.904666e+00
4.393626e+01 2.043478e-01 -7.509970e-02 1.261070e+00 -4.435431e+00 3.944523e+00
4.335539e+01 2.043478e-01 -7.634820e-02 1.263075e+00 -4.453217e+00 3.961525e+00
4.342523e+01 2.000000e-01 -7.757257e-02 1.264316e+00 -4.449213e+00 3.969794e+00
4.374986e+01 2.086957e-01 -7.754070e-02 1.265832e+00 -4.450226e+00 3.987363e+00
4.359243e+01 2.086957e-01 -7.960137e-02 1.269125e+00 -4.463616e+00 4.034164e+00
4.282509e+01 1.956522e-01 -7.663351e-02 1.271211e+00 -4.469141e+00 4.058615e+00
4.474235e+01 2.000000e-01 -7.820826e-02 1.272369e+00 -4.471937e+00 4.058615e+00
4.300178e+01 2.000000e-01 -7.797529e-02 1.273789e+00 -4.484692e+00 4.067061e+00
4.428795e+01 1.956522e-01 -7.712937e-02 1.276429e+00 -4.503074e+00 4.072904e+00
4.351747e+01 2.000000e-01 -8.170647e-02 1.277657e+00 -4.488427e+00 4.054867e+00
4.363099e+01 1.956522e-01 -7.802065e-02 1.280034e+00 -4.496959e+00 4.050383e+00
4.424241e+01 2.000000e-01 -7.915127e-02 1.281621e+00 -4.524206e+00 4.054132e+00
4.270025e+01 1.956522e-01 -7.876665e-02 1.282721e+00 -4.529717e+00 4.058158e+00
4.388164e+01 2.000000e-01 -7.596600e-02 1.283997e+00 -4.532200e+00 4.054921e+00
4.431314e+01 2.000000e-01 -7.842402e-02 1.285452e+00 -4.540436e+00 4.097942e+00
4.336661e+01 1.956522e-01 -7.676980e-02 1.286208e+00 -4.546369e+00 4.081004e+00
4.400082e+01 2.000000e-01 -7.974489e-02 1.287897e+00 -4.549569e+00 4.084076e+00
4.343795e+01 2.000000e-01 -8.011855e-02 1.289774e+00 -4.562436e+00 4.081008e+00
4.364720e+01 2.000000e-01 -8.302061e-02 1.290124e+00 -4.558861e+00 4.080012e+00
4.273862e+01 1.913043e-01 -8.096872e-02 1.292108e+00 -4.556505e+00 4.096077e+00
4.282018e+01 2.043478e-01 -7.865300e-02 1.293736e+00 -4.559781e+00 4.087442e+00
4.351863e+01 2.000000e-01 -8.150625e-02 1.295277e+00 -4.564841e+00 4.086992e+00
4.480165e+01 2.043478e-01 -8.178074e-02 1.297342e+00 -4.568412e+00 4.094484e+00
4.291577e+01 1.956522e-01 -8.096548e-02 1.299055e+00 -4.572730e+00 4.109848e+00
4.397505e+01 2.000000e-01 -8.198490e-02 1.300963e+00 -4.599768e+00 4.127910e+00
4.358844e+01 2.000000e-01 -8.121152e-02 1.301710e+00 -4.601654e+00 4.121372e+00
4.342093e+01 2.000000e-01 -8.011463e-02 1.303166e+00 -4.598478e+00 4.141384e+00
4.338622e+01 2.000000e-01 -8.002306e-02 1.304360e+00 -4.599427e+00 4.154232e+00
4.269650e+01 1.913043e-01 -7.989579e-02 1.305559e+00 -4.613200e+00 4.154232e+00
4.356752e+01 2.000000e-01 -7.953199e-02 1.308391e+00 -4.627130e+00 4.145824e+00
4.299785e+01 2.000000e-01 -8.003985e-02 1.311071e+00 -4.626490e+00 4.218332e+00
4.428032e+01 2.043478e-01 -8.023210e-02 1.313794e+00 -4.622844e+00 4.218852e+00
4.210897e+01 1.869565e-01 -8.353922e-02 1.315810e+00 -4.629428e+00 4.245546e+00
4.282384e+01 1.956522e-01 -8.352890e-02 1.317362e+00 -4.637406e+00 4.245546e+00
