8.999939e-01 9.989929e-01
5.999756e-01 9.959717e-01
3.999786e-01 9.929504e-01
2.499847e-01 9.899292e-01
1.750031e-01 9.869080e-01
1.125031e-01 9.838867e-01
7.501221e-02 9.808655e-01
5.000305e-02 9.778442e-01
3.125000e-02 9.748230e-01
2.186584e-02 9.718018e-01
1.406860e-02 9.687805e-01
9.399414e-03 9.657593e-01
6.271362e-03 9.627380e-01
3.936768e-03 9.597168e-01
2.731323e-03 9.566956e-01
1.754761e-03 9.536743e-01
1.159668e-03 9.506531e-01
7.934570e-04 9.476318e-01
5.187988e-04 9.446106e-01
3.662109e-04 9.415894e-01
2.288818e-04 9.385681e-01
1.373291e-04 9.355469e-01
9.155273e-05 9.325256e-01
6.103516e-05 9.295044e-01
6.103516e-05 9.264832e-01
6.103516e-05 9.234619e-01
6.103516e-05 9.204407e-01
6.103516e-05 9.174194e-01
6.103516e-05 9.143982e-01
6.103516e-05 9.113770e-01
6.103516e-05 9.083557e-01
6.103516e-05 9.053345e-01
6.103516e-05 9.023132e-01
6.103516e-05 8.992920e-01
6.103516e-05 8.962708e-01
6.103516e-05 8.932495e-01
6.103516e-05 8.902283e-01
6.103516e-05 8.872070e-01
6.103516e-05 8.841858e-01
6.103516e-05 8.811646e-01
6.103516e-05 8.781433e-01
6.103516e-05 8.751221e-01
6.103516e-05 8.721008e-01
6.103516e-05 8.690796e-01
6.103516e-05 8.660583e-01
6.103516e-05 8.630371e-01
6.103516e-05 8.600159e-01
6.103516e-05 8.569946e-01
6.103516e-05 8.539734e-01
6.103516e-05 8.509521e-01
6.103516e-05 8.479309e-01
6.103516e-05 8.449097e-01
6.103516e-05 8.418884e-01
6.103516e-05 8.388672e-01
6.103516e-05 8.358459e-01
6.103516e-05 8.328247e-01
6.103516e-05 8.298035e-01
6.103516e-05 8.267822e-01
6.103516e-05 8.237610e-01
6.103516e-05 8.207397e-01
6.103516e-05 8.177185e-01
6.103516e-05 8.146973e-01
6.103516e-05 8.116760e-01
6.103516e-05 8.086548e-01
6.103516e-05 8.056335e-01
6.103516e-05 8.026123e-01
6.103516e-05 7.995911e-01
6.103516e-05 7.965698e-01
6.103516e-05 7.935486e-01
6.103516e-05 7.905273e-01
6.103516e-05 7.875061e-01
6.103516e-05 7.844849e-01
6.103516e-05 7.814636e-01
6.103516e-05 7.784424e-01
6.103516e-05 7.754211e-01
6.103516e-05 7.723999e-01
6.103516e-05 7.693787e-01
6.103516e-05 7.663574e-01
6.103516e-05 7.633362e-01
6.103516e-05 7.603149e-01
6.103516e-05 7.572937e-01
6.103516e-05 7.542725e-01
6.103516e-05 7.512512e-01
6.103516e-05 7.482300e-01
6.103516e-05 7.452087e-01
6.103516e-05 7.421875e-01
6.103516e-05 7.391663e-01
6.103516e-05 7.361450e-01
6.103516e-05 7.331238e-01
6.103516e-05 7.301025e-01
6.103516e-05 7.270813e-01
6.103516e-05 7.240601e-01
6.103516e-05 7.210388e-01
6.103516e-05 7.180176e-01
6.103516e-05 7.149963e-01
6.103516e-05 7.119751e-01
6.103516e-05 7.089539e-01
6.103516e-05 7.059326e-01
6.103516e-05 7.029114e-01
6.103516e-05 6.998901e-01
6.103516e-05 6.968689e-01
6.103516e-05 6.938477e-01
6.103516e-05 6.908264e-01
6.103516e-05 6.878052e-01
6.103516e-05 6.847839e-01
6.103516e-05 6.817627e-01
6.103516e-05 6.787415e-01
6.103516e-05 6.757202e-01
6.103516e-05 6.726990e-01
6.103516e-05 6.696777e-01
6.103516e-05 6.666565e-01
6.103516e-05 6.636353e-01
6.103516e-05 6.606140e-01
6.103516e-05 6.575928e-01
6.103516e-05 6.545715e-01
6.103516e-05 6.515503e-01
6.103516e-05 6.485291e-01
6.103516e-05 6.455078e-01
6.103516e-05 6.424866e-01
6.103516e-05 6.394653e-01
6.103516e-05 6.364441e-01
6.103516e-05 6.334229e-01
6.103516e-05 6.304016e-01
6.103516e-05 6.273804e-01
6.103516e-05 6.243591e-01
6.103516e-05 6.213379e-01
6.103516e-05 6.183167e-01
6.103516e-05 6.152954e-01
6.103516e-05 6.122742e-01
6.103516e-05 6.092529e-01
6.103516e-05 6.062317e-01
6.103516e-05 6.032104e-01
6.103516e-05 6.001892e-01
6.103516e-05 5.971680e-01
6.103516e-05 5.941467e-01
6.103516e-05 5.911255e-01
6.103516e-05 5.881042e-01
6.103516e-05 5.850830e-01
6.103516e-05 5.820618e-01
6.103516e-05 5.790405e-01
6.103516e-05 5.760193e-01
6.103516e-05 5.729980e-01
6.103516e-05 5.699768e-01
6.103516e-05 5.669556e-01
6.103516e-05 5.639343e-01
6.103516e-05 5.609131e-01
6.103516e-05 5.578918e-01
6.103516e-05 5.548706e-01
6.103516e-05 5.518494e-01
6.103516e-05 5.488281e-01
6.103516e-05 5.458069e-01
6.103516e-05 5.427856e-01
6.103516e-05 5.397644e-01
6.103516e-05 5.367432e-01
6.103516e-05 5.337219e-01
6.103516e-05 5.307007e-01
6.103516e-05 5.276794e-01
6.103516e-05 5.246582e-01
6.103516e-05 5.216370e-01
6.103516e-05 5.186157e-01
6.103516e-05 5.155945e-01
6.103516e-05 5.125732e-01
6.103516e-05 5.095520e-01
6.103516e-05 5.065308e-01
6.103516e-05 5.035095e-01
6.103516e-05 5.004883e-01
6.103516e-05 4.987335e-01
6.103516e-05 4.972229e-01
6.103516e-05 4.957123e-01
6.103516e-05 4.942017e-01
6.103516e-05 4.926910e-01
6.103516e-05 4.911804e-01
6.103516e-05 4.896698e-01
6.103516e-05 4.881592e-01
6.103516e-05 4.866486e-01
6.103516e-05 4.851379e-01
6.103516e-05 4.836273e-01
6.103516e-05 4.821167e-01
6.103516e-05 4.806061e-01
6.103516e-05 4.790955e-01
6.103516e-05 4.775848e-01
6.103516e-05 4.760742e-01
6.103516e-05 4.745636e-01
6.103516e-05 4.730530e-01
6.103516e-05 4.715424e-01
6.103516e-05 4.700317e-01
6.103516e-05 4.685211e-01
6.103516e-05 4.670105e-01
6.103516e-05 4.654999e-01
6.103516e-05 4.639893e-01
6.103516e-05 4.624786e-01
6.103516e-05 4.609680e-01
6.103516e-05 4.594574e-01
6.103516e-05 4.579468e-01
6.103516e-05 4.564362e-01
6.103516e-05 4.549255e-01
6.103516e-05 4.534149e-01
6.103516e-05 4.519043e-01
6.103516e-05 4.503937e-01
6.103516e-05 4.488831e-01
6.103516e-05 4.473724e-01
6.103516e-05 4.458618e-01
6.103516e-05 4.443512e-01
6.103516e-05 4.428406e-01
6.103516e-05 4.413300e-01
6.103516e-05 4.398193e-01
6.103516e-05 4.383087e-01
6.103516e-05 4.367981e-01
6.103516e-05 4.352875e-01
6.103516e-05 4.337769e-01
6.103516e-05 4.322662e-01
6.103516e-05 4.307556e-01
6.103516e-05 4.292450e-01
6.103516e-05 4.277344e-01
6.103516e-05 4.262238e-01
6.103516e-05 4.247131e-01
6.103516e-05 4.232025e-01
6.103516e-05 4.216919e-01
6.103516e-05 4.201813e-01
6.103516e-05 4.186707e-01
6.103516e-05 4.171600e-01
6.103516e-05 4.156494e-01
6.103516e-05 4.141388e-01
6.103516e-05 4.126282e-01
6.103516e-05 4.111176e-01
6.103516e-05 4.096069e-01
6.103516e-05 4.080963e-01
6.103516e-05 4.065857e-01
6.103516e-05 4.050751e-01
6.103516e-05 4.035645e-01
6.103516e-05 4.020538e-01
6.103516e-05 4.005432e-01
6.103516e-05 3.990326e-01
6.103516e-05 3.975220e-01
6.103516e-05 3.960114e-01
6.103516e-05 3.945007e-01
6.103516e-05 3.929901e-01
6.103516e-05 3.914795e-01
6.103516e-05 3.899689e-01
6.103516e-05 3.884583e-01
6.103516e-05 3.869476e-01
6.103516e-05 3.854370e-01
6.103516e-05 3.839264e-01
6.103516e-05 3.824158e-01
6.103516e-05 3.809052e-01
6.103516e-05 3.793945e-01
6.103516e-05 3.778839e-01
6.103516e-05 3.763733e-01
6.103516e-05 3.748627e-01
6.103516e-05 3.733521e-01
6.103516e-05 3.718414e-01
6.103516e-05 3.703308e-01
6.103516e-05 3.688202e-01
6.103516e-05 3.673096e-01
6.103516e-05 3.657990e-01
6.103516e-05 3.642883e-01
6.103516e-05 3.627777e-01
6.103516e-05 3.612671e-01
6.103516e-05 3.597565e-01
6.103516e-05 3.582458e-01
6.103516e-05 3.567352e-01
6.103516e-05 3.552246e-01
6.103516e-05 3.537140e-01
6.103516e-05 3.522034e-01
6.103516e-05 3.506927e-01
6.103516e-05 3.491821e-01
6.103516e-05 3.476715e-01
6.103516e-05 3.461609e-01
6.103516e-05 3.446503e-01
6.103516e-05 3.431396e-01
6.103516e-05 3.416290e-01
6.103516e-05 3.401184e-01
6.103516e-05 3.386078e-01
6.103516e-05 3.370972e-01
6.103516e-05 3.355865e-01
6.103516e-05 3.340759e-01
6.103516e-05 3.325653e-01
6.103516e-05 3.310547e-01
6.103516e-05 3.295441e-01
6.103516e-05 3.280334e-01
6.103516e-05 3.265228e-01
6.103516e-05 3.250122e-01
6.103516e-05 3.235016e-01
6.103516e-05 3.219910e-01
6.103516e-05 3.204803e-01
6.103516e-05 3.189697e-01
6.103516e-05 3.174591e-01
6.103516e-05 3.159485e-01
6.103516e-05 3.144379e-01
6.103516e-05 3.129272e-01
6.103516e-05 3.114166e-01
6.103516e-05 3.099060e-01
6.103516e-05 3.083954e-01
6.103516e-05 3.068848e-01
6.103516e-05 3.053741e-01
6.103516e-05 3.038635e-01
6.103516e-05 3.023529e-01
6.103516e-05 3.008423e-01
6.103516e-05 2.993317e-01
6.103516e-05 2.978210e-01
6.103516e-05 2.963104e-01
6.103516e-05 2.947998e-01
6.103516e-05 2.932892e-01
6.103516e-05 2.917786e-01
6.103516e-05 2.902679e-01
6.103516e-05 2.887573e-01
6.103516e-05 2.872467e-01
6.103516e-05 2.857361e-01
6.103516e-05 2.842255e-01
6.103516e-05 2.827148e-01
6.103516e-05 2.812042e-01
6.103516e-05 2.796936e-01
6.103516e-05 2.781830e-01
6.103516e-05 2.766724e-01
6.103516e-05 2.751617e-01
6.103516e-05 2.736511e-01
6.103516e-05 2.721405e-01
6.103516e-05 2.706299e-01
6.103516e-05 2.691193e-01
6.103516e-05 2.676086e-01
6.103516e-05 2.660980e-01
6.103516e-05 2.645874e-01
6.103516e-05 2.630768e-01
6.103516e-05 2.615662e-01
6.103516e-05 2.600555e-01
6.103516e-05 2.585449e-01
6.103516e-05 2.570343e-01
6.103516e-05 2.555237e-01
6.103516e-05 2.540131e-01
6.103516e-05 2.525024e-01
6.103516e-05 2.509918e-01
6.103516e-05 2.497559e-01
6.103516e-05 2.490234e-01
6.103516e-05 2.482910e-01
6.103516e-05 2.475586e-01
6.103516e-05 2.468262e-01
6.103516e-05 2.460938e-01
6.103516e-05 2.453613e-01
6.103516e-05 2.446289e-01
6.103516e-05 2.438965e-01
6.103516e-05 2.431641e-01
6.103516e-05 2.424316e-01
6.103516e-05 2.416992e-01
6.103516e-05 2.409668e-01
6.103516e-05 2.402344e-01
6.103516e-05 2.395020e-01
6.103516e-05 2.387695e-01
6.103516e-05 2.380371e-01
6.103516e-05 2.373047e-01
6.103516e-05 2.365723e-01
6.103516e-05 2.358398e-01
6.103516e-05 2.351074e-01
6.103516e-05 2.343750e-01
6.103516e-05 2.336426e-01
6.103516e-05 2.329102e-01
6.103516e-05 2.321777e-01
6.103516e-05 2.314453e-01
6.103516e-05 2.307129e-01
6.103516e-05 2.299805e-01
6.103516e-05 2.292480e-01
6.103516e-05 2.285156e-01
6.103516e-05 2.277832e-01
6.103516e-05 2.270508e-01
6.103516e-05 2.263184e-01
6.103516e-05 2.255859e-01
6.103516e-05 2.248535e-01
6.103516e-05 2.241211e-01
6.103516e-05 2.233887e-01
6.103516e-05 2.226562e-01
6.103516e-05 2.219238e-01
6.103516e-05 2.211914e-01
6.103516e-05 2.204590e-01
6.103516e-05 2.197266e-01
6.103516e-05 2.189941e-01
6.103516e-05 2.182617e-01
6.103516e-05 2.175293e-01
6.103516e-05 2.167969e-01
6.103516e-05 2.160645e-01
6.103516e-05 2.153320e-01
6.103516e-05 2.145996e-01
6.103516e-05 2.138672e-01
6.103516e-05 2.131348e-01
6.103516e-05 2.124023e-01
6.103516e-05 2.116699e-01
6.103516e-05 2.109375e-01
6.103516e-05 2.102051e-01
6.103516e-05 2.094727e-01
6.103516e-05 2.087402e-01
6.103516e-05 2.080078e-01
6.103516e-05 2.072754e-01
6.103516e-05 2.065430e-01
6.103516e-05 2.058105e-01
6.103516e-05 2.050781e-01
6.103516e-05 2.043457e-01
6.103516e-05 2.036133e-01
6.103516e-05 2.028809e-01
6.103516e-05 2.021484e-01
6.103516e-05 2.014160e-01
6.103516e-05 2.006836e-01
6.103516e-05 1.999512e-01
6.103516e-05 1.992188e-01
6.103516e-05 1.984863e-01
6.103516e-05 1.977539e-01
6.103516e-05 1.970215e-01
6.103516e-05 1.962891e-01
6.103516e-05 1.955566e-01
6.103516e-05 1.948242e-01
6.103516e-05 1.940918e-01
6.103516e-05 1.933594e-01
6.103516e-05 1.926270e-01
6.103516e-05 1.918945e-01
6.103516e-05 1.911621e-01
6.103516e-05 1.904297e-01
6.103516e-05 1.896973e-01
6.103516e-05 1.889648e-01
6.103516e-05 1.882324e-01
6.103516e-05 1.875000e-01
6.103516e-05 1.867676e-01
6.103516e-05 1.860352e-01
6.103516e-05 1.853027e-01
6.103516e-05 1.845703e-01
6.103516e-05 1.838379e-01
6.103516e-05 1.831055e-01
6.103516e-05 1.823730e-01
6.103516e-05 1.816406e-01
6.103516e-05 1.809082e-01
6.103516e-05 1.801758e-01
6.103516e-05 1.794434e-01
6.103516e-05 1.787109e-01
6.103516e-05 1.779785e-01
6.103516e-05 1.772461e-01
6.103516e-05 1.765137e-01
6.103516e-05 1.757812e-01
6.103516e-05 1.750488e-01
6.103516e-05 1.743164e-01
6.103516e-05 1.735840e-01
6.103516e-05 1.728516e-01
6.103516e-05 1.721191e-01
6.103516e-05 1.713867e-01
6.103516e-05 1.706543e-01
6.103516e-05 1.699219e-01
6.103516e-05 1.691895e-01
6.103516e-05 1.684570e-01
6.103516e-05 1.677246e-01
6.103516e-05 1.669922e-01
6.103516e-05 1.662598e-01
6.103516e-05 1.655273e-01
6.103516e-05 1.647949e-01
6.103516e-05 1.640625e-01
6.103516e-05 1.633301e-01
6.103516e-05 1.625977e-01
6.103516e-05 1.618652e-01
6.103516e-05 1.611328e-01
6.103516e-05 1.604004e-01
6.103516e-05 1.596680e-01
6.103516e-05 1.589355e-01
6.103516e-05 1.582031e-01
6.103516e-05 1.574707e-01
6.103516e-05 1.567383e-01
6.103516e-05 1.560059e-01
6.103516e-05 1.552734e-01
6.103516e-05 1.545410e-01
6.103516e-05 1.538086e-01
6.103516e-05 1.530762e-01
6.103516e-05 1.523438e-01
6.103516e-05 1.516113e-01
6.103516e-05 1.508789e-01
6.103516e-05 1.501465e-01
6.103516e-05 1.494141e-01
6.103516e-05 1.486816e-01
6.103516e-05 1.479492e-01
6.103516e-05 1.472168e-01
6.103516e-05 1.464844e-01
6.103516e-05 1.457520e-01
6.103516e-05 1.450195e-01
6.103516e-05 1.442871e-01
6.103516e-05 1.435547e-01
6.103516e-05 1.428223e-01
6.103516e-05 1.420898e-01
6.103516e-05 1.413574e-01
6.103516e-05 1.406250e-01
6.103516e-05 1.398926e-01
6.103516e-05 1.391602e-01
6.103516e-05 1.384277e-01
6.103516e-05 1.376953e-01
6.103516e-05 1.369629e-01
6.103516e-05 1.362305e-01
6.103516e-05 1.354980e-01
6.103516e-05 1.347656e-01
6.103516e-05 1.340332e-01
6.103516e-05 1.333008e-01
6.103516e-05 1.325684e-01
6.103516e-05 1.318359e-01
6.103516e-05 1.311035e-01
6.103516e-05 1.303711e-01
6.103516e-05 1.296387e-01
6.103516e-05 1.289062e-01
6.103516e-05 1.281738e-01
6.103516e-05 1.274414e-01
6.103516e-05 1.267090e-01
6.103516e-05 1.259766e-01
6.103516e-05 1.252441e-01
6.103516e-05 1.247559e-01
