-4.395357e+00 9.870977e+00 -4.871638e+01 4.537494e+01 1.090551e-04 2.721838e-03 -2.249908e-01 2.250061e-01
-5.122652e+00 1.068502e+01 -5.089833e+01 4.485077e+01 -1.273797e-07 1.738152e-03 -2.188263e-01 2.141876e-01
-5.450169e+00 1.113734e+01 -5.674020e+01 4.650725e+01 7.222109e-07 1.598771e-03 -2.188263e-01 2.120056e-01
-5.732191e+00 1.145887e+01 -5.904518e+01 5.102443e+01 -1.735726e-07 1.513242e-03 -2.188263e-01 2.093964e-01
-5.939472e+00 1.173806e+01 -6.228337e+01 5.803531e+01 -3.774311e-06 1.472976e-03 -2.160187e-01 2.160187e-01
-6.247666e+00 1.199133e+01 -6.644611e+01 5.944855e+01 2.132428e-06 1.421676e-03 -2.160187e-01 2.175598e-01
-6.535371e+00 1.224611e+01 -6.984633e+01 6.165746e+01 -2.405480e-06 1.360690e-03 -2.160187e-01 2.160187e-01
-6.679016e+00 1.242321e+01 -7.148309e+01 6.274385e+01 1.582386e-07 1.311400e-03 -2.175446e-01 2.175598e-01
-6.825779e+00 1.259130e+01 -7.303825e+01 6.527638e+01 1.938619e-06 1.297174e-03 -2.141876e-01 2.120056e-01
-6.972860e+00 1.275610e+01 -7.466783e+01 6.857562e+01 -2.741000e-06 1.252586e-03 -2.119904e-01 2.120056e-01
-7.008881e+00 1.283027e+01 -7.484666e+01 6.960455e+01 -2.430025e-06 1.216948e-03 -2.188263e-01 2.093964e-01
-7.103685e+00 1.289913e+01 -7.558183e+01 6.828854e+01 5.677892e-08 1.196463e-03 -2.141876e-01 2.093964e-01
-7.324573e+00 1.308049e+01 -7.992186e+01 6.978200e+01 -6.136648e-06 1.199406e-03 -2.175446e-01 2.120056e-01
-7.383352e+00 1.316278e+01 -7.830856e+01 7.102258e+01 -1.031142e-06 1.172919e-03 -2.160187e-01 2.120056e-01
-7.464607e+00 1.324895e+01 -7.889923e+01 7.178357e+01 1.804493e-06 1.139533e-03 -2.119904e-01 2.160187e-01
-7.529284e+00 1.330539e+01 -7.913301e+01 7.163553e+01 -3.373447e-07 1.137316e-03 -2.141876e-01 2.063141e-01
-7.545472e+00 1.340618e+01 -7.930907e+01 7.281934e+01 2.084420e-07 1.134563e-03 -2.119904e-01 2.175598e-01
-7.571898e+00 1.347707e+01 -7.967378e+01 7.325269e+01 3.366139e-07 1.118107e-03 -2.119904e-01 2.120056e-01
-7.640679e+00 1.353732e+01 -8.072601e+01 7.225963e+01 -1.319871e-06 1.096155e-03 -2.119904e-01 2.093964e-01
-7.732684e+00 1.362708e+01 -8.247090e+01 7.517696e+01 -1.902588e-06 1.107417e-03 -2.093964e-01 2.120056e-01
-7.757523e+00 1.371219e+01 -8.129530e+01 7.664624e+01 2.042089e-06 1.084349e-03 -2.141876e-01 2.160187e-01
-7.787446e+00 1.380564e+01 -8.264957e+01 7.783522e+01 1.181708e-06 1.106114e-03 -2.141876e-01 2.120056e-01
-7.820485e+00 1.384669e+01 -8.568730e+01 7.970894e+01 -2.166414e-06 1.067278e-03 -2.141876e-01 2.120056e-01
-7.941341e+00 1.398804e+01 -8.671573e+01 7.672789e+01 -2.325311e-06 1.086724e-03 -2.119904e-01 2.093964e-01
-7.907033e+00 1.400446e+01 -8.587308e+01 7.725914e+01 1.272358e-06 1.049995e-03 -2.119904e-01 2.063141e-01
