-3.005642e-03 3.652039e+00 -1.989282e+01 2.023535e+01 1.203689e-03 1.609814e-02 -1.757812e-01 3.474121e-01
-7.043382e-02 3.693839e+00 -2.224048e+01 2.003101e+01 7.751457e-04 1.622089e-02 -4.414062e-01 3.474121e-01
-3.664549e-01 3.783958e+00 -2.347168e+01 2.122632e+01 -3.994732e-05 1.579163e-02 -4.414062e-01 2.707520e-01
-2.824874e-01 3.617243e+00 -2.348926e+01 1.912427e+01 1.599496e-04 1.255909e-02 -2.475586e-01 2.241211e-01
-3.096255e-01 3.712410e+00 -2.223584e+01 2.139502e+01 1.539668e-04 1.267026e-02 -2.475586e-01 2.241211e-01
-3.345418e-01 3.686573e+00 -2.241895e+01 1.936768e+01 1.625642e-04 1.256908e-02 -2.475586e-01 2.241211e-01
-2.835688e-01 3.669549e+00 -2.348926e+01 2.197681e+01 1.591188e-04 1.248631e-02 -2.475586e-01 2.241211e-01
-3.201941e-01 3.687982e+00 -2.223584e+01 2.122021e+01 1.609716e-04 1.247184e-02 -2.475586e-01 2.241211e-01
-3.037501e-01 3.696619e+00 -2.241895e+01 2.213281e+01 1.530914e-04 1.249693e-02 -2.475586e-01 2.241211e-01
-3.170252e-01 3.700026e+00 -2.348926e+01 2.213281e+01 1.472462e-04 1.252331e-02 -2.475586e-01 2.241211e-01
-3.256239e-01 3.659202e+00 -2.348926e+01 2.197681e+01 1.562406e-04 1.252725e-02 -2.475586e-01 2.241211e-01
-2.888290e-01 3.722259e+00 -2.281982e+01 2.213281e+01 1.458066e-04 1.257413e-02 -2.475586e-01 2.241211e-01
-3.009316e-01 3.673559e+00 -2.281982e+01 2.122021e+01 1.521641e-04 1.252241e-02 -2.475586e-01 2.241211e-01
-3.036492e-01 3.678609e+00 -2.193652e+01 2.030225e+01 1.545952e-04 1.247600e-02 -2.475586e-01 2.241211e-01
-2.474886e-01 3.723589e+00 -2.348926e+01 2.213281e+01 1.700359e-04 1.255000e-02 -2.475586e-01 2.241211e-01
-2.394181e-01 3.734966e+00 -2.281982e+01 2.122021e+01 1.550128e-04 1.244968e-02 -2.475586e-01 2.241211e-01
-2.554561e-01 3.743801e+00 -2.348926e+01 2.213281e+01 1.474764e-04 1.254152e-02 -2.475586e-01 2.241211e-01
-2.741574e-01 3.674112e+00 -2.348926e+01 1.980518e+01 1.489129e-04 1.261891e-02 -2.475586e-01 2.241211e-01
-3.342240e-01 3.620392e+00 -2.112817e+01 2.030225e+01 1.457449e-04 1.257278e-02 -2.475586e-01 2.241211e-01
-3.288207e-01 3.667175e+00 -2.281982e+01 2.030225e+01 1.430497e-04 1.254249e-02 -2.475586e-01 2.241211e-01
-2.945627e-01 3.690648e+00 -2.241895e+01 2.197681e+01 1.498470e-04 1.260151e-02 -2.475586e-01 2.241211e-01
-3.232792e-01 3.708079e+00 -2.281982e+01 2.197681e+01 1.658904e-04 1.254676e-02 -2.475586e-01 2.241211e-01
-3.251802e-01 3.609577e+00 -2.281982e+01 2.197681e+01 1.573020e-04 1.250507e-02 -2.475586e-01 2.241211e-01
-3.176690e-01 3.673025e+00 -2.281982e+01 2.213281e+01 1.611572e-04 1.257470e-02 -2.475586e-01 2.241211e-01
-3.233263e-01 3.693042e+00 -2.241895e+01 2.197681e+01 1.566178e-04 1.247055e-02 -2.475586e-01 2.241211e-01
-2.808149e-01 3.685595e+00 -2.348926e+01 2.213281e+01 1.585521e-04 1.245896e-02 -2.475586e-01 2.241211e-01
-3.009653e-01 3.741318e+00 -2.348926e+01 2.030225e+01 1.726574e-04 1.255857e-02 -2.475586e-01 2.241211e-01
-2.882638e-01 3.631121e+00 -2.281982e+01 2.213281e+01 1.399215e-04 1.256832e-02 -2.475586e-01 2.241211e-01
-3.557012e-01 3.673742e+00 -2.170459e+01 2.122021e+01 1.538596e-04 1.260128e-02 -2.475586e-01 2.241211e-01
-2.990837e-01 3.675333e+00 -2.170459e+01 2.213281e+01 1.531064e-04 1.253203e-02 -2.475586e-01 2.241211e-01
-2.852079e-01 3.684787e+00 -2.348926e+01 2.213281e+01 1.517564e-04 1.242720e-02 -2.475586e-01 2.241211e-01
-2.991442e-01 3.694750e+00 -2.223584e+01 2.139502e+01 1.637941e-04 1.251656e-02 -2.475586e-01 2.241211e-01
-2.907351e-01 3.681376e+00 -2.281982e+01 2.213281e+01 1.479719e-04 1.242659e-02 -2.475586e-01 2.241211e-01
-2.839504e-01 3.687966e+00 -2.348926e+01 2.197681e+01 1.638134e-04 1.252863e-02 -2.475586e-01 2.241211e-01
-3.317177e-01 3.691020e+00 -2.112817e+01 2.139502e+01 1.487843e-04 1.243541e-02 -2.475586e-01 2.241211e-01
-2.857062e-01 3.678380e+00 -2.223584e+01 2.197681e+01 1.627434e-04 1.247304e-02 -2.475586e-01 2.241211e-01
-3.634667e-01 3.653178e+00 -2.348926e+01 2.122021e+01 1.602171e-04 1.247983e-02 -2.475586e-01 2.241211e-01
-2.854967e-01 3.702629e+00 -2.281982e+01 1.980518e+01 1.523292e-04 1.251519e-02 -2.475586e-01 2.241211e-01
-2.475843e-01 3.705729e+00 -2.241895e+01 2.017236e+01 1.575845e-04 1.269990e-02 -2.475586e-01 2.241211e-01
-3.235867e-01 3.714013e+00 -2.348926e+01 2.197681e+01 1.626191e-04 1.265205e-02 -2.475586e-01 2.241211e-01
-3.453426e-01 3.696366e+00 -2.348926e+01 2.122021e+01 1.585084e-04 1.248018e-02 -2.475586e-01 2.241211e-01
-2.699621e-01 3.727559e+00 -2.348926e+01 2.213281e+01 1.563795e-04 1.251848e-02 -2.475586e-01 2.241211e-01
-3.296399e-01 3.675872e+00 -2.223584e+01 2.213281e+01 1.696835e-04 1.258718e-02 -2.475586e-01 2.241211e-01
-3.128372e-01 3.668846e+00 -2.348926e+01 2.197681e+01 1.496426e-04 1.248847e-02 -2.475586e-01 2.241211e-01
-3.036323e-01 3.687311e+00 -2.241895e+01 2.122021e+01 1.630898e-04 1.256306e-02 -2.475586e-01 2.241211e-01
-3.019194e-01 3.633647e+00 -2.348926e+01 2.017236e+01 1.766974e-04 1.264720e-02 -2.475586e-01 2.241211e-01
-3.374518e-01 3.721478e+00 -2.281982e+01 2.213281e+01 1.484834e-04 1.255952e-02 -2.475586e-01 2.241211e-01
-3.333971e-01 3.673665e+00 -2.281982e+01 1.980518e+01 1.549425e-04 1.251962e-02 -2.475586e-01 2.241211e-01
-2.749362e-01 3.693651e+00 -2.170459e+01 2.197681e+01 1.437828e-04 1.253478e-02 -2.475586e-01 2.241211e-01
-3.116939e-01 3.720139e+00 -2.348926e+01 2.139502e+01 1.506041e-04 1.267724e-02 -2.475586e-01 2.241211e-01
-2.526376e-01 3.690067e+00 -2.241895e+01 2.197681e+01 1.559902e-04 1.253656e-02 -2.475586e-01 2.241211e-01
-2.834395e-01 3.658435e+00 -2.281982e+01 2.197681e+01 1.552816e-04 1.242765e-02 -2.475586e-01 2.241211e-01
-3.024812e-01 3.656200e+00 -2.193652e+01 2.030225e+01 1.613532e-04 1.250043e-02 -2.475586e-01 2.241211e-01
-3.152049e-01 3.656295e+00 -2.223584e+01 2.017236e+01 1.666432e-04 1.251764e-02 -2.475586e-01 2.241211e-01
-3.032109e-01 3.670564e+00 -1.987134e+01 2.213281e+01 1.537143e-04 1.244229e-02 -2.475586e-01 2.241211e-01
-2.830355e-01 3.653344e+00 -2.241895e+01 2.002881e+01 1.565445e-04 1.246889e-02 -2.475586e-01 2.241211e-01
-2.749374e-01 3.713883e+00 -2.241895e+01 2.122021e+01 1.732198e-04 1.235275e-02 -2.475586e-01 2.241211e-01
-3.037016e-01 3.699867e+00 -2.223584e+01 2.213281e+01 1.690649e-04 1.256862e-02 -2.475586e-01 2.241211e-01
-3.161670e-01 3.699491e+00 -2.223584e+01 2.017236e+01 1.719710e-04 1.270825e-02 -2.475586e-01 2.241211e-01
-2.954805e-01 3.680882e+00 -2.348926e+01 2.197681e+01 1.543239e-04 1.250558e-02 -2.475586e-01 2.241211e-01
-2.770257e-01 3.645333e+00 -2.241895e+01 2.122021e+01 1.446796e-04 1.253507e-02 -2.475586e-01 2.241211e-01
-3.095662e-01 3.643041e+00 -2.281982e+01 2.122021e+01 1.705598e-04 1.254074e-02 -2.475586e-01 2.241211e-01
-2.640954e-01 3.653285e+00 -2.348926e+01 2.030225e+01 1.626971e-04 1.261314e-02 -2.475586e-01 2.241211e-01
-2.661091e-01 3.675288e+00 -2.241895e+01 2.197681e+01 1.420007e-04 1.262333e-02 -2.475586e-01 2.241211e-01
-2.614562e-01 3.690527e+00 -2.281982e+01 2.213281e+01 1.461444e-04 1.257793e-02 -2.475586e-01 2.241211e-01
-2.703719e-01 3.662883e+00 -2.281982e+01 2.213281e+01 1.593906e-04 1.270335e-02 -2.475586e-01 2.241211e-01
-3.327690e-01 3.691958e+00 -2.348926e+01 2.213281e+01 1.556533e-04 1.253461e-02 -2.475586e-01 2.241211e-01
-2.467415e-01 3.705331e+00 -2.241895e+01 2.197681e+01 1.562483e-04 1.261536e-02 -2.475586e-01 2.241211e-01
-2.744401e-01 3.652695e+00 -2.223584e+01 2.122021e+01 1.557116e-04 1.254493e-02 -2.475586e-01 2.241211e-01
-3.414080e-01 3.612574e+00 -2.241895e+01 2.030225e+01 1.551585e-04 1.257447e-02 -2.475586e-01 2.241211e-01
-3.228179e-01 3.651666e+00 -2.241895e+01 2.017236e+01 1.522854e-04 1.253101e-02 -2.475586e-01 2.241211e-01
-3.083280e-01 3.691790e+00 -2.348926e+01 2.122021e+01 1.442084e-04 1.242935e-02 -2.475586e-01 2.241211e-01
-2.856062e-01 3.653258e+00 -2.348926e+01 2.030225e+01 1.475317e-04 1.247602e-02 -2.475586e-01 2.241211e-01
-2.844094e-01 3.698559e+00 -2.281982e+01 2.139502e+01 1.589966e-04 1.268230e-02 -2.475586e-01 2.241211e-01
-2.857897e-01 3.661347e+00 -2.281982e+01 2.213281e+01 1.580055e-04 1.264264e-02 -2.475586e-01 2.241211e-01
-3.382224e-01 3.601406e+00 -2.281982e+01 2.197681e+01 1.625771e-04 1.257326e-02 -2.475586e-01 2.241211e-01
-3.241168e-01 3.639523e+00 -2.348926e+01 2.030225e+01 1.540427e-04 1.251498e-02 -2.475586e-01 2.241211e-01
-3.075809e-01 3.695517e+00 -2.281982e+01 2.197681e+01 1.518911e-04 1.260610e-02 -2.475586e-01 2.241211e-01
-2.932870e-01 3.687712e+00 -2.241895e+01 2.213281e+01 1.674230e-04 1.239922e-02 -2.475586e-01 2.241211e-01
-2.567191e-01 3.610785e+00 -2.223584e+01 2.122021e+01 1.568356e-04 1.266180e-02 -2.475586e-01 2.241211e-01
-2.594323e-01 3.676447e+00 -2.193652e+01 2.139502e+01 1.465354e-04 1.257972e-02 -2.475586e-01 2.241211e-01
-3.102985e-01 3.679041e+00 -2.170459e+01 2.197681e+01 1.463060e-04 1.249511e-02 -2.475586e-01 2.241211e-01
-3.182848e-01 3.748150e+00 -2.241895e+01 2.197681e+01 1.576128e-04 1.256246e-02 -2.475586e-01 2.241211e-01
-3.178258e-01 3.650305e+00 -2.348926e+01 2.197681e+01 1.526914e-04 1.252581e-02 -2.475586e-01 2.241211e-01
-2.912482e-01 3.659320e+00 -2.348926e+01 2.213281e+01 1.618243e-04 1.254526e-02 -2.475586e-01 2.241211e-01
-3.380245e-01 3.657319e+00 -2.193652e+01 2.213281e+01 1.509033e-04 1.257149e-02 -2.475586e-01 2.241211e-01
-2.982898e-01 3.690752e+00 -2.281982e+01 2.213281e+01 1.558333e-04 1.236075e-02 -2.475586e-01 2.241211e-01
-2.952599e-01 3.697031e+00 -2.193652e+01 2.139502e+01 1.580968e-04 1.250021e-02 -2.475586e-01 2.241211e-01
-2.962512e-01 3.682438e+00 -2.223584e+01 2.197681e+01 1.484379e-04 1.249578e-02 -2.475586e-01 2.241211e-01
-3.084309e-01 3.690806e+00 -2.281982e+01 2.122021e+01 1.634199e-04 1.263699e-02 -2.475586e-01 2.241211e-01
-2.762807e-01 3.664077e+00 -2.223584e+01 2.213281e+01 1.669596e-04 1.244717e-02 -2.475586e-01 2.241211e-01
-3.102518e-01 3.669352e+00 -2.348926e+01 2.213281e+01 1.629312e-04 1.248369e-02 -2.475586e-01 2.241211e-01
-3.234239e-01 3.700719e+00 -2.223584e+01 2.197681e+01 1.505162e-04 1.244024e-02 -2.475586e-01 2.241211e-01
-3.015453e-01 3.737074e+00 -2.281982e+01 2.213281e+01 1.468942e-04 1.252927e-02 -2.475586e-01 2.241211e-01
-3.820034e-01 3.649110e+00 -2.223584e+01 2.213281e+01 1.519725e-04 1.258398e-02 -2.475586e-01 2.241211e-01
-3.379608e-01 3.629266e+00 -2.223584e+01 2.197681e+01 1.616395e-04 1.244498e-02 -2.475586e-01 2.241211e-01
-2.986753e-01 3.696642e+00 -2.348926e+01 2.030225e+01 1.608657e-04 1.259693e-02 -2.475586e-01 2.241211e-01
-3.129852e-01 3.638134e+00 -2.223584e+01 2.213281e+01 1.656692e-04 1.261626e-02 -2.475586e-01 2.241211e-01
-2.836315e-01 3.708909e+00 -2.223584e+01 2.197681e+01 1.539291e-04 1.247991e-02 -2.475586e-01 2.241211e-01
-3.483124e-01 3.665544e+00 -2.223584e+01 1.980518e+01 1.576102e-04 1.238162e-02 -2.475586e-01 2.241211e-01
-2.722753e-01 3.710792e+00 -2.241895e+01 2.030225e+01 1.382406e-04 1.245909e-02 -2.475586e-01 2.241211e-01
-3.020350e-01 3.683821e+00 -2.241895e+01 2.213281e+01 1.577153e-04 1.252496e-02 -2.475586e-01 2.241211e-01
-3.256485e-01 3.635522e+00 -2.348926e+01 2.197681e+01 1.716212e-04 1.257134e-02 -2.475586e-01 2.241211e-01
