9.357886e+01 5.782609e-01 -2.614539e-03 5.941351e-01 -9.985352e-01 9.965820e-01
6.167188e+01 2.478261e-01 -8.046269e-03 5.944190e-01 -1.104492e+00 1.187012e+00
5.157593e+01 2.130435e-01 -1.066783e-02 6.147076e-01 -1.319336e+00 1.258301e+00
4.664160e+01 2.217391e-01 -1.526709e-02 6.214551e-01 -1.461914e+00 1.376709e+00
4.056592e+01 2.000000e-01 -1.874170e-02 6.487005e-01 -1.855957e+00 1.596436e+00
4.006226e+01 1.956522e-01 -2.249094e-02 6.620814e-01 -1.827148e+00 1.596436e+00
3.917749e+01 1.826087e-01 -1.444227e-02 6.695070e-01 -1.910889e+00 1.588867e+00
3.804712e+01 1.869565e-01 -1.962667e-02 6.720228e-01 -1.907715e+00 1.571289e+00
3.818604e+01 1.782609e-01 -2.274497e-02 6.749411e-01 -1.958984e+00 1.573730e+00
3.768091e+01 1.913043e-01 -2.486054e-02 6.765257e-01 -1.952881e+00 1.509277e+00
3.816772e+01 1.826087e-01 -2.842036e-02 6.706351e-01 -1.908203e+00 1.446777e+00
3.829639e+01 1.869565e-01 -2.927166e-02 6.718199e-01 -1.891846e+00 1.464111e+00
3.907642e+01 1.956522e-01 -4.916801e-02 6.824326e-01 -1.995361e+00 1.648438e+00
4.057202e+01 1.869565e-01 -4.129950e-02 6.837262e-01 -1.830811e+00 1.713135e+00
3.917407e+01 1.913043e-01 -4.262009e-02 6.823860e-01 -1.894287e+00 1.759766e+00
3.954517e+01 2.000000e-01 -4.164640e-02 6.828157e-01 -1.924072e+00 1.763916e+00
3.901514e+01 1.956522e-01 -4.217920e-02 6.828043e-01 -1.925537e+00 1.739990e+00
3.836157e+01 1.913043e-01 -4.146369e-02 6.830230e-01 -1.961670e+00 1.747559e+00
3.835742e+01 2.000000e-01 -4.481640e-02 6.828203e-01 -2.007080e+00 1.749512e+00
3.841113e+01 2.000000e-01 -4.890153e-02 6.820500e-01 -1.994873e+00 1.713623e+00
3.815454e+01 1.956522e-01 -4.885302e-02 6.821628e-01 -1.993164e+00 1.716309e+00
3.782324e+01 2.043478e-01 -4.794938e-02 6.822071e-01 -1.993164e+00 1.724609e+00
3.834399e+01 1.956522e-01 -4.656017e-02 6.824911e-01 -2.010742e+00 1.755859e+00
3.843140e+01 1.956522e-01 -4.657022e-02 6.824169e-01 -2.011230e+00 1.753662e+00
3.841211e+01 2.043478e-01 -4.537266e-02 6.837721e-01 -2.028320e+00 1.764160e+00
3.839062e+01 2.000000e-01 -4.464295e-02 6.847468e-01 -2.030762e+00 1.765381e+00
3.784814e+01 2.043478e-01 -4.444492e-02 6.841840e-01 -2.030762e+00 1.765381e+00
3.764673e+01 2.043478e-01 -4.407377e-02 6.830585e-01 -2.003418e+00 1.717529e+00
3.776318e+01 2.000000e-01 -4.390526e-02 6.828884e-01 -2.001465e+00 1.710205e+00
3.840039e+01 1.956522e-01 -4.226633e-02 6.832908e-01 -2.020508e+00 1.725830e+00
3.774048e+01 2.086957e-01 -3.972695e-02 6.838310e-01 -2.006592e+00 1.727783e+00
3.795435e+01 2.086957e-01 -3.936903e-02 6.836229e-01 -2.006348e+00 1.714600e+00
3.801245e+01 2.000000e-01 -3.862847e-02 6.839710e-01 -2.011475e+00 1.709717e+00
3.820752e+01 1.956522e-01 -3.782919e-02 6.843854e-01 -2.016846e+00 1.702148e+00
3.793848e+01 1.913043e-01 -3.878645e-02 6.843973e-01 -2.025146e+00 1.699463e+00
3.811475e+01 1.956522e-01 -3.882059e-02 6.844947e-01 -2.025146e+00 1.699463e+00
3.826489e+01 1.869565e-01 -3.851614e-02 6.845639e-01 -2.038574e+00 1.715088e+00
3.814893e+01 2.043478e-01 -3.842470e-02 6.846160e-01 -2.038574e+00 1.715088e+00
3.845459e+01 2.000000e-01 -5.506807e-02 6.851334e-01 -1.912842e+00 1.611084e+00
3.788843e+01 2.043478e-01 -5.906288e-02 6.852694e-01 -1.849365e+00 1.570312e+00
3.940576e+01 1.913043e-01 -4.800012e-02 6.845780e-01 -1.855469e+00 1.525879e+00
3.785303e+01 1.869565e-01 -4.900636e-02 6.838237e-01 -1.816650e+00 1.567627e+00
3.789404e+01 1.913043e-01 -4.914168e-02 6.835608e-01 -1.808838e+00 1.584717e+00
3.874390e+01 1.869565e-01 -4.926391e-02 6.849357e-01 -1.863281e+00 1.575439e+00
3.923877e+01 2.043478e-01 -5.438831e-02 6.866907e-01 -1.862793e+00 1.678223e+00
3.877075e+01 1.913043e-01 -5.287511e-02 6.866182e-01 -1.819824e+00 1.662842e+00
3.891699e+01 1.956522e-01 -4.755189e-02 6.893434e-01 -1.827393e+00 1.659912e+00
4.116895e+01 1.913043e-01 -4.494757e-02 6.908344e-01 -1.810303e+00 1.648682e+00
3.887085e+01 1.913043e-01 -4.360368e-02 6.952175e-01 -1.817139e+00 1.677979e+00
3.865454e+01 1.869565e-01 -3.892336e-02 6.964794e-01 -1.826172e+00 1.674072e+00
3.939185e+01 1.826087e-01 -4.001896e-02 6.992740e-01 -1.967041e+00 1.685547e+00
3.917310e+01 1.782609e-01 -4.038134e-02 7.013993e-01 -1.972168e+00 1.687500e+00
4.005298e+01 1.782609e-01 -4.029038e-02 7.015328e-01 -1.984131e+00 1.688965e+00
3.875757e+01 1.869565e-01 -4.058144e-02 7.011577e-01 -1.951904e+00 1.678955e+00
3.908521e+01 1.739130e-01 -3.930329e-02 7.013148e-01 -1.950684e+00 1.682861e+00
3.834814e+01 1.913043e-01 -3.804062e-02 7.005408e-01 -1.874512e+00 1.679932e+00
3.813477e+01 1.913043e-01 -3.784339e-02 7.008805e-01 -1.874268e+00 1.687500e+00
3.942871e+01 1.913043e-01 -3.897745e-02 7.016885e-01 -1.954590e+00 1.734619e+00
3.877417e+01 2.000000e-01 -4.352724e-02 7.013305e-01 -1.974854e+00 1.754395e+00
3.781641e+01 1.956522e-01 -4.231787e-02 7.009934e-01 -1.949707e+00 1.761230e+00
3.810962e+01 1.826087e-01 -4.427355e-02 7.007035e-01 -2.029053e+00 1.720459e+00
3.700024e+01 1.782609e-01 -4.244409e-02 7.001786e-01 -1.871094e+00 1.836670e+00
3.753198e+01 1.869565e-01 -4.709265e-02 7.017296e-01 -1.882080e+00 1.919678e+00
3.770093e+01 1.869565e-01 -4.615566e-02 7.022795e-01 -1.880859e+00 1.919678e+00
3.743896e+01 1.869565e-01 -4.575866e-02 7.025986e-01 -1.880371e+00 1.915771e+00
3.753687e+01 1.869565e-01 -4.549425e-02 7.028990e-01 -1.877686e+00 1.911621e+00
3.947412e+01 2.043478e-01 -3.927776e-02 7.031955e-01 -1.878906e+00 1.907471e+00
3.686499e+01 1.739130e-01 -4.345655e-02 7.026482e-01 -1.876709e+00 1.909424e+00
3.689111e+01 1.739130e-01 -4.829580e-02 7.031151e-01 -1.876709e+00 1.862549e+00
3.720483e+01 1.826087e-01 -4.847564e-02 7.034590e-01 -1.876465e+00 1.866211e+00
3.745239e+01 1.913043e-01 -4.882717e-02 7.045016e-01 -1.905273e+00 1.866211e+00
3.702710e+01 1.826087e-01 -4.800044e-02 7.043322e-01 -1.880859e+00 1.867676e+00
3.725879e+01 1.913043e-01 -4.797922e-02 7.039806e-01 -1.866699e+00 1.871582e+00
3.746777e+01 1.869565e-01 -4.763646e-02 7.035471e-01 -1.864258e+00 1.872314e+00
3.687915e+01 1.869565e-01 -4.749780e-02 7.033591e-01 -1.841064e+00 1.872803e+00
3.706836e+01 1.869565e-01 -4.744929e-02 7.033229e-01 -1.838867e+00 1.880127e+00
3.696387e+01 1.826087e-01 -4.726100e-02 7.037908e-01 -1.836426e+00 1.878418e+00
3.692480e+01 1.782609e-01 -4.645693e-02 7.047804e-01 -1.833252e+00 1.873779e+00
3.703247e+01 1.956522e-01 -4.672389e-02 7.044741e-01 -1.830078e+00 1.878418e+00
3.699438e+01 1.869565e-01 -4.682936e-02 7.041950e-01 -1.833984e+00 1.877686e+00
3.683789e+01 1.956522e-01 -4.678963e-02 7.044665e-01 -1.833984e+00 1.865234e+00
3.790601e+01 1.826087e-01 -4.773236e-02 7.048233e-01 -1.844971e+00 1.853760e+00
3.753223e+01 1.956522e-01 -4.843383e-02 7.049702e-01 -1.843750e+00 1.850586e+00
3.689966e+01 1.826087e-01 -4.885062e-02 7.050291e-01 -1.841553e+00 1.850586e+00
3.686304e+01 1.782609e-01 -4.892004e-02 7.053108e-01 -1.828369e+00 1.849854e+00
3.808813e+01 1.782609e-01 -4.871435e-02 7.060076e-01 -1.847412e+00 1.834717e+00
3.656274e+01 1.869565e-01 -4.902280e-02 7.064058e-01 -1.828613e+00 1.850098e+00
3.687036e+01 1.956522e-01 -4.923183e-02 7.068902e-01 -1.838867e+00 1.850098e+00
3.696216e+01 1.782609e-01 -5.070753e-02 7.077430e-01 -1.895020e+00 1.789062e+00
3.701587e+01 1.913043e-01 -5.052849e-02 7.077949e-01 -1.895020e+00 1.797363e+00
3.677710e+01 1.826087e-01 -5.002904e-02 7.079836e-01 -1.880859e+00 1.801514e+00
3.669580e+01 1.869565e-01 -5.009446e-02 7.077860e-01 -1.880127e+00 1.801270e+00
3.684253e+01 1.826087e-01 -5.014840e-02 7.078081e-01 -1.883545e+00 1.801270e+00
3.629712e+01 1.782609e-01 -4.992133e-02 7.076684e-01 -1.883545e+00 1.811035e+00
3.795337e+01 1.782609e-01 -4.912827e-02 7.082432e-01 -1.892334e+00 1.825684e+00
3.837866e+01 1.782609e-01 -5.005026e-02 7.088417e-01 -1.890869e+00 1.826172e+00
3.732617e+01 1.913043e-01 -5.024574e-02 7.094861e-01 -1.890869e+00 1.837646e+00
3.757617e+01 1.956522e-01 -4.199171e-02 7.145836e-01 -1.895020e+00 1.856689e+00
3.713696e+01 1.913043e-01 -3.662429e-02 7.169387e-01 -1.899414e+00 1.848145e+00
3.729199e+01 1.956522e-01 -3.705081e-02 7.173891e-01 -1.905518e+00 1.830811e+00
3.764111e+01 1.826087e-01 -4.375463e-02 7.185047e-01 -1.931396e+00 1.819336e+00
3.792285e+01 1.739130e-01 -4.456300e-02 7.186775e-01 -1.921631e+00 1.819336e+00
3.802832e+01 1.826087e-01 -4.576807e-02 7.184237e-01 -1.919189e+00 1.807617e+00
3.793408e+01 1.826087e-01 -4.625061e-02 7.184141e-01 -1.899902e+00 1.807617e+00
3.848657e+01 1.782609e-01 -4.609231e-02 7.186527e-01 -1.914795e+00 1.806152e+00
4.063818e+01 1.913043e-01 -4.524803e-02 7.205920e-01 -2.037842e+00 1.802490e+00
3.890527e+01 1.869565e-01 -3.979524e-02 7.414830e-01 -2.155029e+00 1.860840e+00
3.908325e+01 1.739130e-01 -3.962801e-02 7.425065e-01 -2.155029e+00 1.860840e+00
3.773145e+01 1.826087e-01 -3.944786e-02 7.405594e-01 -2.098145e+00 1.858398e+00
3.767700e+01 1.826087e-01 -3.944658e-02 7.402330e-01 -2.067383e+00 1.858154e+00
3.794214e+01 1.782609e-01 -3.933616e-02 7.402969e-01 -2.078857e+00 1.858154e+00
3.922656e+01 1.739130e-01 -3.845725e-02 7.403273e-01 -2.082275e+00 1.840576e+00
3.794434e+01 1.695652e-01 -2.515175e-02 7.382455e-01 -2.006836e+00 1.955566e+00
3.797974e+01 1.739130e-01 -2.663941e-02 7.392716e-01 -2.015381e+00 1.938232e+00
3.782959e+01 1.695652e-01 -2.757305e-02 7.394505e-01 -2.024414e+00 1.919434e+00
3.789429e+01 1.739130e-01 -2.808208e-02 7.392879e-01 -2.026855e+00 1.919434e+00
3.797632e+01 1.695652e-01 -2.849983e-02 7.393150e-01 -2.022949e+00 1.907471e+00
3.763354e+01 1.739130e-01 -2.847190e-02 7.393772e-01 -2.024902e+00 1.946533e+00
3.752783e+01 1.826087e-01 -2.818292e-02 7.394101e-01 -2.032471e+00 1.954346e+00
3.707544e+01 1.826087e-01 -2.962830e-02 7.399857e-01 -2.060303e+00 1.950928e+00
3.760718e+01 1.826087e-01 -3.241422e-02 7.418987e-01 -2.071533e+00 1.927490e+00
3.840552e+01 1.695652e-01 -2.880141e-02 7.419869e-01 -2.018555e+00 1.934570e+00
3.816650e+01 1.739130e-01 -2.968782e-02 7.414135e-01 -2.022461e+00 1.927734e+00
3.867627e+01 1.739130e-01 -3.250310e-02 7.413416e-01 -2.076660e+00 1.866211e+00
3.860034e+01 1.739130e-01 -3.231273e-02 7.410176e-01 -2.042480e+00 1.866211e+00
3.799780e+01 1.826087e-01 -3.211008e-02 7.402222e-01 -2.045898e+00 1.918701e+00
3.759595e+01 1.826087e-01 -3.256804e-02 7.403485e-01 -2.035889e+00 1.920410e+00
3.750952e+01 1.782609e-01 -3.306893e-02 7.414485e-01 -2.048096e+00 1.920410e+00
3.749463e+01 1.869565e-01 -3.362247e-02 7.417354e-01 -2.048096e+00 1.937988e+00
3.815186e+01 1.695652e-01 -3.419915e-02 7.439978e-01 -2.139160e+00 2.018311e+00
3.848657e+01 1.739130e-01 -3.275904e-02 7.442351e-01 -2.050049e+00 2.019043e+00
3.758374e+01 1.782609e-01 -3.302058e-02 7.443203e-01 -2.050049e+00 2.035400e+00
3.719629e+01 1.739130e-01 -3.333637e-02 7.436920e-01 -2.018066e+00 2.044922e+00
3.777246e+01 1.826087e-01 -3.097809e-02 7.434088e-01 -2.022705e+00 2.043213e+00
3.757568e+01 1.782609e-01 -2.951213e-02 7.429958e-01 -2.022705e+00 2.030273e+00
3.760645e+01 1.826087e-01 -3.139952e-02 7.440508e-01 -2.037109e+00 2.022461e+00
3.735400e+01 1.869565e-01 -3.379481e-02 7.451739e-01 -2.037109e+00 2.005859e+00
3.731274e+01 1.869565e-01 -3.202694e-02 7.456704e-01 -2.040283e+00 2.096680e+00
3.667285e+01 1.913043e-01 -3.407054e-02 7.447001e-01 -2.016602e+00 2.068359e+00
3.704541e+01 2.000000e-01 -3.386294e-02 7.445834e-01 -1.983398e+00 2.114746e+00
3.694678e+01 1.782609e-01 -3.609372e-02 7.480778e-01 -2.058594e+00 2.050293e+00
3.736206e+01 1.869565e-01 -3.725841e-02 7.487868e-01 -2.062744e+00 1.885498e+00
3.764160e+01 1.782609e-01 -4.087999e-02 7.521045e-01 -2.069092e+00 1.873047e+00
3.876538e+01 1.695652e-01 -4.013528e-02 7.523034e-01 -2.069824e+00 1.877197e+00
3.771265e+01 2.043478e-01 -4.016033e-02 7.530853e-01 -2.068359e+00 1.882812e+00
3.704004e+01 1.956522e-01 -3.465536e-02 7.551435e-01 -2.055908e+00 2.178223e+00
3.695581e+01 1.956522e-01 -3.477536e-02 7.550266e-01 -2.047119e+00 2.171143e+00
3.731128e+01 1.826087e-01 -3.462026e-02 7.548699e-01 -2.042236e+00 2.152344e+00
3.820337e+01 1.826087e-01 -3.404118e-02 7.551890e-01 -2.038086e+00 2.142090e+00
3.692676e+01 1.869565e-01 -3.430543e-02 7.554646e-01 -2.112305e+00 2.145020e+00
3.733374e+01 1.826087e-01 -3.824487e-02 7.535394e-01 -2.118896e+00 2.119141e+00
3.742651e+01 1.826087e-01 -3.730517e-02 7.560911e-01 -2.165039e+00 2.108887e+00
3.763306e+01 1.826087e-01 -4.019113e-02 7.567406e-01 -2.156006e+00 2.126465e+00
3.761377e+01 1.826087e-01 -3.980162e-02 7.559959e-01 -2.146729e+00 2.126465e+00
3.727271e+01 1.913043e-01 -4.209208e-02 7.576747e-01 -2.151123e+00 2.154785e+00
3.838306e+01 1.739130e-01 -4.138902e-02 7.595125e-01 -2.126709e+00 2.173828e+00
3.834106e+01 1.739130e-01 -4.160300e-02 7.593533e-01 -2.093018e+00 2.175781e+00
3.738306e+01 1.913043e-01 -4.125402e-02 7.591761e-01 -2.106689e+00 2.197998e+00
3.718506e+01 1.869565e-01 -4.531043e-02 7.591808e-01 -2.096191e+00 2.197510e+00
3.717334e+01 1.826087e-01 -4.576041e-02 7.589042e-01 -2.104004e+00 2.196289e+00
3.785449e+01 1.739130e-01 -4.419472e-02 7.587004e-01 -2.055908e+00 2.181396e+00
3.724023e+01 1.913043e-01 -4.377585e-02 7.583767e-01 -2.047852e+00 2.189453e+00
3.697876e+01 1.913043e-01 -4.405414e-02 7.576885e-01 -2.058838e+00 2.195068e+00
3.694775e+01 1.869565e-01 -4.356299e-02 7.576543e-01 -2.048340e+00 2.190430e+00
3.687256e+01 1.913043e-01 -4.343916e-02 7.579673e-01 -2.037598e+00 2.186523e+00
3.714575e+01 1.869565e-01 -4.341187e-02 7.580564e-01 -2.037598e+00 2.186279e+00
3.836841e+01 1.652174e-01 -4.002869e-02 7.593177e-01 -1.951172e+00 2.249512e+00
3.733081e+01 1.739130e-01 -3.632605e-02 7.598084e-01 -1.947754e+00 2.258057e+00
3.762012e+01 1.608696e-01 -3.422245e-02 7.615630e-01 -1.934570e+00 2.258789e+00
3.692700e+01 1.782609e-01 -3.484940e-02 7.625175e-01 -1.947266e+00 2.260254e+00
3.684937e+01 1.826087e-01 -3.842997e-02 7.628978e-01 -1.981445e+00 2.245117e+00
3.722510e+01 1.956522e-01 -3.868544e-02 7.635584e-01 -1.985352e+00 2.235840e+00
3.727954e+01 1.956522e-01 -3.877544e-02 7.636630e-01 -1.987549e+00 2.233643e+00
3.684839e+01 1.869565e-01 -3.883990e-02 7.636483e-01 -1.972412e+00 2.227295e+00
3.731885e+01 1.782609e-01 -4.111328e-02 7.671034e-01 -2.060547e+00 2.273438e+00
3.765527e+01 1.826087e-01 -3.776169e-02 7.676951e-01 -2.060547e+00 2.298096e+00
3.946753e+01 1.956522e-01 -5.286522e-03 7.833811e-01 -1.904541e+00 2.246338e+00
3.871021e+01 1.826087e-01 -1.790365e-02 7.865978e-01 -2.113525e+00 2.194092e+00
3.825830e+01 1.869565e-01 -1.852134e-02 7.867410e-01 -2.113525e+00 2.193115e+00
3.847583e+01 1.782609e-01 -1.938684e-02 7.869827e-01 -2.137939e+00 2.186768e+00
3.845508e+01 1.913043e-01 -1.908063e-02 7.874575e-01 -2.136230e+00 2.225342e+00
3.782788e+01 1.782609e-01 -1.890159e-02 7.879041e-01 -2.173340e+00 2.297607e+00
3.814575e+01 1.739130e-01 -2.210366e-02 7.891282e-01 -2.215576e+00 2.297607e+00
3.871680e+01 1.826087e-01 -2.890098e-02 7.898719e-01 -2.211182e+00 2.227783e+00
3.882422e+01 1.913043e-01 -3.112059e-02 7.901695e-01 -2.207275e+00 2.228271e+00
3.847974e+01 1.826087e-01 -3.413086e-02 7.907150e-01 -2.204346e+00 2.223877e+00
3.813794e+01 2.000000e-01 -3.513646e-02 7.911366e-01 -2.153076e+00 2.192627e+00
3.830493e+01 1.869565e-01 -3.420426e-02 7.919921e-01 -2.166260e+00 2.199707e+00
3.866064e+01 1.826087e-01 -3.383566e-02 7.924144e-01 -2.166260e+00 2.199951e+00
3.871924e+01 1.826087e-01 -3.374757e-02 7.924413e-01 -2.145508e+00 2.201172e+00
3.844458e+01 1.869565e-01 -3.375811e-02 7.924368e-01 -2.144287e+00 2.201172e+00
3.818115e+01 1.956522e-01 -3.466430e-02 7.923551e-01 -2.144287e+00 2.201172e+00
3.957666e+01 1.826087e-01 -3.945073e-02 7.922083e-01 -2.208740e+00 2.135254e+00
3.937476e+01 1.826087e-01 -3.683332e-02 7.946671e-01 -2.279297e+00 2.132812e+00
4.124512e+01 2.000000e-01 -3.786749e-02 7.985405e-01 -2.949707e+00 2.126709e+00
4.085083e+01 1.913043e-01 -4.620960e-02 8.079131e-01 -2.949707e+00 2.133057e+00
4.054272e+01 1.913043e-01 -4.594870e-02 8.074742e-01 -2.925049e+00 2.135986e+00
3.999634e+01 1.956522e-01 -4.481177e-02 8.068210e-01 -2.896240e+00 2.169678e+00
4.015918e+01 1.869565e-01 -4.468348e-02 8.078186e-01 -2.880127e+00 2.204590e+00
4.098950e+01 1.695652e-01 -3.625121e-02 8.154223e-01 -2.426025e+00 2.482178e+00
3.856104e+01 1.869565e-01 -2.845690e-02 8.161806e-01 -2.424805e+00 2.878174e+00
3.977563e+01 1.739130e-01 -2.657191e-02 8.160467e-01 -2.393555e+00 2.868164e+00
3.871680e+01 1.826087e-01 -2.604422e-02 8.159529e-01 -2.422119e+00 2.872559e+00
3.903955e+01 1.826087e-01 -2.735460e-02 8.157241e-01 -2.451172e+00 2.872559e+00
3.870020e+01 1.869565e-01 -3.155589e-02 8.152049e-01 -2.451172e+00 2.812744e+00
3.895679e+01 1.826087e-01 -2.733130e-02 8.129307e-01 -2.385010e+00 2.889893e+00
3.913306e+01 1.869565e-01 -2.763640e-02 8.140236e-01 -2.394287e+00 2.871338e+00
3.890674e+01 1.826087e-01 -2.777538e-02 8.147237e-01 -2.373779e+00 2.825439e+00
3.916626e+01 1.739130e-01 -3.029322e-02 8.157356e-01 -2.357422e+00 2.787109e+00
3.887329e+01 1.913043e-01 -3.087677e-02 8.158388e-01 -2.378418e+00 2.777832e+00
3.852246e+01 1.869565e-01 -2.785517e-02 8.179324e-01 -2.414307e+00 2.777832e+00
3.879883e+01 1.739130e-01 -2.161682e-02 8.245992e-01 -2.414307e+00 2.759521e+00
3.837402e+01 1.739130e-01 -2.247817e-02 8.247456e-01 -2.423340e+00 2.751221e+00
3.829639e+01 1.695652e-01 -2.315586e-02 8.249863e-01 -2.424072e+00 2.751953e+00
3.978198e+01 1.739130e-01 -2.294906e-02 8.252581e-01 -2.393555e+00 2.735352e+00
3.844800e+01 1.782609e-01 -2.304448e-02 8.249388e-01 -2.479492e+00 2.736572e+00
3.927539e+01 1.739130e-01 -2.005639e-02 8.239780e-01 -2.429443e+00 2.698242e+00
3.910693e+01 1.652174e-01 -1.964614e-02 8.239807e-01 -2.427002e+00 2.632568e+00
3.938452e+01 1.782609e-01 -1.930881e-02 8.251438e-01 -2.447510e+00 2.631836e+00
3.950879e+01 1.739130e-01 -2.090801e-02 8.299226e-01 -2.464600e+00 2.613037e+00
3.842017e+01 1.739130e-01 -2.085950e-02 8.331732e-01 -2.464600e+00 2.714111e+00
3.907739e+01 1.782609e-01 -2.093594e-02 8.344914e-01 -2.455811e+00 2.698486e+00
3.895947e+01 1.739130e-01 -2.132624e-02 8.345803e-01 -2.452637e+00 2.682617e+00
3.872437e+01 1.782609e-01 -2.149937e-02 8.334832e-01 -2.459717e+00 2.686035e+00
3.862280e+01 1.739130e-01 -2.159448e-02 8.334282e-01 -2.459473e+00 2.686035e+00
3.945239e+01 1.652174e-01 -2.131348e-02 8.335848e-01 -2.400879e+00 2.687256e+00
3.857568e+01 1.782609e-01 -2.340399e-02 8.331639e-01 -2.438965e+00 2.692871e+00
3.887695e+01 1.826087e-01 -2.561211e-02 8.338282e-01 -2.445068e+00 2.674561e+00
3.979517e+01 1.782609e-01 -3.116447e-02 8.343612e-01 -2.497070e+00 2.645996e+00
3.912207e+01 1.826087e-01 -3.113750e-02 8.343606e-01 -2.485596e+00 2.654541e+00
4.024048e+01 2.000000e-01 -1.140121e-02 8.439510e-01 -2.423340e+00 2.602051e+00
4.037061e+01 1.826087e-01 -1.564447e-02 8.447060e-01 -2.350098e+00 2.569092e+00
4.138135e+01 1.782609e-01 -1.431574e-02 8.449751e-01 -2.330322e+00 2.570801e+00
3.954761e+01 1.913043e-01 -1.418968e-02 8.448145e-01 -2.351074e+00 2.605713e+00
3.957227e+01 1.739130e-01 -1.418138e-02 8.445784e-01 -2.351074e+00 2.605713e+00
3.959302e+01 1.739130e-01 -1.410989e-02 8.444876e-01 -2.342529e+00 2.604736e+00
4.006055e+01 1.782609e-01 -1.259207e-02 8.450301e-01 -2.334717e+00 2.608643e+00
3.962256e+01 1.695652e-01 -1.447227e-02 8.452390e-01 -2.333008e+00 2.610352e+00
3.876489e+01 1.956522e-01 -1.525608e-02 8.456258e-01 -2.355225e+00 2.635498e+00
4.031982e+01 1.782609e-01 -1.909738e-02 8.471631e-01 -2.345947e+00 2.596924e+00
3.913037e+01 1.869565e-01 -1.927913e-02 8.487453e-01 -2.391357e+00 2.631348e+00
4.036499e+01 1.826087e-01 -2.163230e-02 8.490784e-01 -2.386719e+00 2.647461e+00
3.877148e+01 1.869565e-01 -2.276715e-02 8.484008e-01 -2.388184e+00 2.700684e+00
3.879395e+01 1.869565e-01 -2.150336e-02 8.482093e-01 -2.380859e+00 2.700928e+00
3.822656e+01 1.826087e-01 -1.435052e-02 8.508097e-01 -2.380859e+00 2.734619e+00
3.904761e+01 1.869565e-01 -5.241683e-03 8.551771e-01 -2.255371e+00 2.721436e+00
3.859937e+01 1.869565e-01 -5.297373e-03 8.551790e-01 -2.295410e+00 2.764893e+00
3.891699e+01 1.826087e-01 -4.142093e-03 8.562735e-01 -2.297119e+00 2.764893e+00
3.805005e+01 1.869565e-01 -5.569119e-03 8.562072e-01 -2.302002e+00 2.767578e+00
3.905493e+01 1.826087e-01 -7.214435e-03 8.603407e-01 -2.309326e+00 2.758789e+00
3.883423e+01 1.782609e-01 -7.662186e-03 8.615254e-01 -2.307861e+00 2.605225e+00
3.925977e+01 1.913043e-01 -9.241122e-03 8.586696e-01 -2.312744e+00 2.542725e+00
3.923462e+01 1.869565e-01 -8.785712e-03 8.599156e-01 -2.325684e+00 2.593018e+00
4.077490e+01 2.173913e-01 -1.068650e-02 8.633518e-01 -2.469238e+00 2.658447e+00
4.109961e+01 1.739130e-01 -2.327123e-02 8.728778e-01 -2.481934e+00 2.658447e+00
4.119336e+01 1.739130e-01 -2.340910e-02 8.730162e-01 -2.479736e+00 2.656006e+00
4.089453e+01 1.739130e-01 -2.366106e-02 8.728712e-01 -2.477539e+00 2.667969e+00
4.041919e+01 1.826087e-01 -2.666446e-02 8.730202e-01 -2.448242e+00 2.628906e+00
3.986108e+01 1.782609e-01 -2.756156e-02 8.766502e-01 -2.492920e+00 2.765137e+00
3.878882e+01 1.782609e-01 -2.931554e-02 8.775676e-01 -2.548584e+00 2.813965e+00
3.894580e+01 1.826087e-01 -3.220454e-02 8.767707e-01 -2.550049e+00 2.813965e+00
3.854785e+01 1.826087e-01 -2.578715e-02 8.724610e-01 -2.488525e+00 2.912354e+00
3.958569e+01 1.913043e-01 -2.475857e-02 8.723071e-01 -2.490967e+00 2.904541e+00
3.920605e+01 1.956522e-01 -2.244977e-02 8.722001e-01 -2.482178e+00 2.905762e+00
3.841797e+01 1.739130e-01 -1.858245e-02 8.728197e-01 -2.466553e+00 2.954834e+00
3.872510e+01 1.826087e-01 -1.855038e-02 8.762557e-01 -2.465088e+00 2.954834e+00
3.889355e+01 1.826087e-01 -1.864437e-02 8.782190e-01 -2.422852e+00 2.953613e+00
3.880273e+01 1.913043e-01 -2.107301e-02 8.786448e-01 -2.436523e+00 2.942627e+00
3.874829e+01 1.869565e-01 -2.189606e-02 8.794681e-01 -2.457275e+00 2.945557e+00
4.048804e+01 1.913043e-01 -9.707542e-03 8.855192e-01 -2.475342e+00 2.941406e+00
3.922046e+01 1.869565e-01 -1.538708e-02 8.859332e-01 -2.475342e+00 2.962402e+00
3.987964e+01 1.869565e-01 -1.944476e-02 8.864786e-01 -2.461182e+00 2.973389e+00
3.965405e+01 1.956522e-01 -2.279300e-02 8.902507e-01 -2.484863e+00 3.091309e+00
3.844238e+01 1.782609e-01 -2.346670e-02 8.910519e-01 -2.480469e+00 3.095703e+00
3.845337e+01 1.782609e-01 -2.456757e-02 8.915275e-01 -2.468994e+00 3.098877e+00
3.855078e+01 1.782609e-01 -2.529345e-02 8.920137e-01 -2.469482e+00 3.098877e+00
3.875781e+01 1.739130e-01 -2.537690e-02 8.922463e-01 -2.485840e+00 3.076904e+00
3.832397e+01 1.956522e-01 -2.525898e-02 8.925868e-01 -2.464600e+00 3.114502e+00
3.860742e+01 1.826087e-01 -2.542110e-02 8.929204e-01 -2.477051e+00 3.114502e+00
3.846924e+01 1.826087e-01 -2.616581e-02 8.937034e-01 -2.474609e+00 3.097900e+00
3.855176e+01 1.782609e-01 -2.623490e-02 8.938802e-01 -2.468750e+00 3.096680e+00
3.868286e+01 1.869565e-01 -2.691243e-02 8.955770e-01 -2.462646e+00 3.118896e+00
3.883789e+01 1.869565e-01 -2.652229e-02 8.960029e-01 -2.410156e+00 3.119141e+00
3.928027e+01 1.782609e-01 -2.599427e-02 8.968759e-01 -2.448730e+00 3.114258e+00
3.907495e+01 1.739130e-01 -2.541999e-02 8.974328e-01 -2.447754e+00 3.120361e+00
3.850317e+01 1.869565e-01 -2.031617e-02 8.982040e-01 -2.408447e+00 3.182373e+00
3.804248e+01 1.782609e-01 -2.019570e-02 8.980364e-01 -2.411621e+00 3.182373e+00
3.910156e+01 1.826087e-01 -2.043122e-02 8.984936e-01 -2.435303e+00 3.166504e+00
3.838916e+01 1.826087e-01 -2.106120e-02 8.986250e-01 -2.451904e+00 3.158936e+00
3.882495e+01 1.782609e-01 -3.164908e-02 9.018322e-01 -2.503418e+00 3.152832e+00
3.863452e+01 1.782609e-01 -3.224970e-02 9.019235e-01 -2.503906e+00 3.152832e+00
4.023389e+01 1.826087e-01 -3.628967e-02 9.028838e-01 -2.597656e+00 3.142334e+00
3.991846e+01 1.826087e-01 -3.791328e-02 9.031981e-01 -2.597656e+00 3.156982e+00
3.918237e+01 1.782609e-01 -3.795972e-02 9.034475e-01 -2.583984e+00 3.156494e+00
