2.663844e+04 8.366000e-01 9.012301e-04 5.775298e-01 -9.999858e-01 9.999454e-01
1.108331e+03 7.460000e-02 -8.883324e-03 5.822626e-01 -2.092742e+00 1.993040e+00
9.657816e+02 6.140000e-02 -1.257295e-02 5.853671e-01 -2.048886e+00 2.427354e+00
8.190473e+02 5.210000e-02 -1.520156e-02 5.884291e-01 -2.420500e+00 2.340365e+00
7.242418e+02 4.970000e-02 -1.700978e-02 5.913925e-01 -2.618069e+00 2.554246e+00
8.022394e+02 5.160000e-02 -1.832382e-02 5.935060e-01 -2.759962e+00 2.446121e+00
6.764906e+02 4.560000e-02 -1.902117e-02 5.953692e-01 -2.866094e+00 2.549302e+00
7.016293e+02 4.740000e-02 -1.963379e-02 5.968344e-01 -3.014666e+00 2.642775e+00
7.580942e+02 4.710000e-02 -2.039656e-02 5.978838e-01 -3.053294e+00 2.660314e+00
6.505321e+02 4.390000e-02 -2.072205e-02 5.992134e-01 -3.125142e+00 2.688213e+00
6.381525e+02 4.470000e-02 -2.133558e-02 6.007585e-01 -3.187288e+00 2.792602e+00
6.184107e+02 4.270000e-02 -2.190295e-02 6.019250e-01 -3.355220e+00 2.828173e+00
6.252921e+02 4.280000e-02 -2.222886e-02 6.029520e-01 -3.563924e+00 2.900876e+00
6.566514e+02 4.300000e-02 -2.248832e-02 6.038999e-01 -3.752888e+00 2.916153e+00
7.102276e+02 4.740000e-02 -2.276430e-02 6.047847e-01 -3.871151e+00 2.930602e+00
6.327702e+02 4.110000e-02 -2.326030e-02 6.062280e-01 -4.013208e+00 3.007799e+00
5.796119e+02 3.970000e-02 -2.364663e-02 6.076015e-01 -4.227233e+00 3.124447e+00
5.945591e+02 3.890000e-02 -2.407527e-02 6.086494e-01 -4.383843e+00 3.232361e+00
5.597736e+02 3.830000e-02 -2.422747e-02 6.096722e-01 -4.505038e+00 3.230157e+00
5.788998e+02 3.780000e-02 -2.484666e-02 6.106516e-01 -4.537196e+00 3.239558e+00
5.727934e+02 3.880000e-02 -2.472739e-02 6.116314e-01 -4.632902e+00 3.291178e+00
5.701309e+02 3.750000e-02 -2.571060e-02 6.137487e-01 -4.878488e+00 3.322462e+00
6.129575e+02 3.940000e-02 -2.587843e-02 6.148029e-01 -4.966546e+00 3.346126e+00
5.864939e+02 3.920000e-02 -2.598293e-02 6.158247e-01 -5.064101e+00 3.370401e+00
