8.999939e-01 9.989929e-01
6.103516e-05 8.819580e-03
6.103516e-05 5.859375e-03
6.103516e-05 5.859375e-03
6.103516e-05 5.859375e-03
6.103516e-05 5.859375e-03
6.103516e-05 5.859375e-03
6.103516e-05 5.859375e-03
6.103516e-05 5.859375e-03
6.103516e-05 5.859375e-03
6.103516e-05 5.859375e-03
6.103516e-05 5.859375e-03
6.103516e-05 5.859375e-03
6.103516e-05 5.859375e-03
6.103516e-05 5.859375e-03
6.103516e-05 5.859375e-03
6.103516e-05 5.859375e-03
6.103516e-05 5.859375e-03
6.103516e-05 5.859375e-03
6.103516e-05 5.859375e-03
6.103516e-05 5.859375e-03
6.103516e-05 5.859375e-03
6.103516e-05 5.859375e-03
6.103516e-05 5.859375e-03
6.103516e-05 5.859375e-03
6.103516e-05 5.859375e-03
6.103516e-05 5.859375e-03
6.103516e-05 5.859375e-03
6.103516e-05 5.859375e-03
6.103516e-05 5.859375e-03
6.103516e-05 5.859375e-03
6.103516e-05 5.859375e-03
6.103516e-05 5.859375e-03
