1.279961e+02 6.020151e-01 1.462390e-02 5.674774e-01 -9.960938e-01 9.960938e-01
1.279961e+02 6.020151e-01 1.462390e-02 5.674774e-01 -9.960938e-01 9.960938e-01
1.279961e+02 6.020151e-01 1.462390e-02 5.674774e-01 -9.960938e-01 9.960938e-01
1.279961e+02 6.020151e-01 1.462390e-02 5.674774e-01 -9.960938e-01 9.960938e-01
1.279961e+02 6.020151e-01 1.462390e-02 5.674774e-01 -9.960938e-01 9.960938e-01
1.279961e+02 6.020151e-01 1.462390e-02 5.674774e-01 -9.960938e-01 9.960938e-01
1.279961e+02 6.020151e-01 1.462390e-02 5.674774e-01 -9.960938e-01 9.960938e-01
1.279961e+02 6.020151e-01 1.462390e-02 5.674774e-01 -9.960938e-01 9.960938e-01
1.279961e+02 6.020151e-01 1.462390e-02 5.674774e-01 -9.960938e-01 9.960938e-01
1.279961e+02 6.020151e-01 1.462390e-02 5.674774e-01 -9.960938e-01 9.960938e-01
1.279961e+02 6.020151e-01 1.462390e-02 5.674774e-01 -9.960938e-01 9.960938e-01
1.279961e+02 6.020151e-01 1.462390e-02 5.674774e-01 -9.960938e-01 9.960938e-01
1.279961e+02 6.020151e-01 1.462390e-02 5.674774e-01 -9.960938e-01 9.960938e-01
1.279961e+02 6.020151e-01 1.462390e-02 5.674774e-01 -9.960938e-01 9.960938e-01
1.279961e+02 6.020151e-01 1.462390e-02 5.674774e-01 -9.960938e-01 9.960938e-01
1.279961e+02 6.020151e-01 1.462390e-02 5.674774e-01 -9.960938e-01 9.960938e-01
1.279961e+02 6.020151e-01 1.462390e-02 5.674774e-01 -9.960938e-01 9.960938e-01
1.279961e+02 6.020151e-01 1.462390e-02 5.674774e-01 -9.960938e-01 9.960938e-01
1.279961e+02 6.020151e-01 1.462390e-02 5.674774e-01 -9.960938e-01 9.960938e-01
1.279961e+02 6.020151e-01 1.462390e-02 5.674774e-01 -9.960938e-01 9.960938e-01
1.279961e+02 6.020151e-01 1.462390e-02 5.674774e-01 -9.960938e-01 9.960938e-01
1.279961e+02 6.020151e-01 1.462390e-02 5.674774e-01 -9.960938e-01 9.960938e-01
1.279961e+02 6.020151e-01 1.462390e-02 5.674774e-01 -9.960938e-01 9.960938e-01
1.279961e+02 6.020151e-01 1.462390e-02 5.674774e-01 -9.960938e-01 9.960938e-01
1.279961e+02 6.020151e-01 1.462390e-02 5.674774e-01 -9.960938e-01 9.960938e-01
1.279961e+02 6.020151e-01 1.462390e-02 5.674774e-01 -9.960938e-01 9.960938e-01
1.279961e+02 6.020151e-01 1.462390e-02 5.674774e-01 -9.960938e-01 9.960938e-01
1.279961e+02 6.020151e-01 1.462390e-02 5.674774e-01 -9.960938e-01 9.960938e-01
1.279961e+02 6.020151e-01 1.462390e-02 5.674774e-01 -9.960938e-01 9.960938e-01
1.279961e+02 6.020151e-01 1.462390e-02 5.674774e-01 -9.960938e-01 9.960938e-01
1.279961e+02 6.020151e-01 1.462390e-02 5.674774e-01 -9.960938e-01 9.960938e-01
1.279961e+02 6.020151e-01 1.462390e-02 5.674774e-01 -9.960938e-01 9.960938e-01
1.279961e+02 6.020151e-01 1.462390e-02 5.674774e-01 -9.960938e-01 9.960938e-01
1.279961e+02 6.020151e-01 1.462390e-02 5.674774e-01 -9.960938e-01 9.960938e-01
1.279961e+02 6.020151e-01 1.462390e-02 5.674774e-01 -9.960938e-01 9.960938e-01
1.279961e+02 6.020151e-01 1.462390e-02 5.674774e-01 -9.960938e-01 9.960938e-01
1.279961e+02 6.020151e-01 1.462390e-02 5.674774e-01 -9.960938e-01 9.960938e-01
1.279961e+02 6.020151e-01 1.462390e-02 5.674774e-01 -9.960938e-01 9.960938e-01
1.279961e+02 6.020151e-01 1.462390e-02 5.674774e-01 -9.960938e-01 9.960938e-01
1.279961e+02 6.020151e-01 1.462390e-02 5.674774e-01 -9.960938e-01 9.960938e-01
1.279961e+02 6.020151e-01 1.462390e-02 5.674774e-01 -9.960938e-01 9.960938e-01
1.279961e+02 6.020151e-01 1.462390e-02 5.674774e-01 -9.960938e-01 9.960938e-01
1.279961e+02 6.020151e-01 1.462390e-02 5.674774e-01 -9.960938e-01 9.960938e-01
1.279961e+02 6.020151e-01 1.462390e-02 5.674774e-01 -9.960938e-01 9.960938e-01
1.279961e+02 6.020151e-01 1.462390e-02 5.674774e-01 -9.960938e-01 9.960938e-01
1.279961e+02 6.020151e-01 1.462390e-02 5.674774e-01 -9.960938e-01 9.960938e-01
1.279961e+02 6.020151e-01 1.462390e-02 5.674774e-01 -9.960938e-01 9.960938e-01
1.279961e+02 6.020151e-01 1.462390e-02 5.674774e-01 -9.960938e-01 9.960938e-01
1.279961e+02 6.020151e-01 1.462390e-02 5.674774e-01 -9.960938e-01 9.960938e-01
1.279961e+02 6.020151e-01 1.462390e-02 5.674774e-01 -9.960938e-01 9.960938e-01
1.279961e+02 6.020151e-01 1.462390e-02 5.674774e-01 -9.960938e-01 9.960938e-01
1.279961e+02 6.020151e-01 1.462390e-02 5.674774e-01 -9.960938e-01 9.960938e-01
1.279961e+02 6.020151e-01 1.462390e-02 5.674774e-01 -9.960938e-01 9.960938e-01
1.279961e+02 6.020151e-01 1.462390e-02 5.674774e-01 -9.960938e-01 9.960938e-01
1.279961e+02 6.020151e-01 1.462390e-02 5.674774e-01 -9.960938e-01 9.960938e-01
1.279961e+02 6.020151e-01 1.462390e-02 5.674774e-01 -9.960938e-01 9.960938e-01
1.279961e+02 6.020151e-01 1.462390e-02 5.674774e-01 -9.960938e-01 9.960938e-01
1.279961e+02 6.020151e-01 1.462390e-02 5.674774e-01 -9.960938e-01 9.960938e-01
1.279961e+02 6.020151e-01 1.462390e-02 5.674774e-01 -9.960938e-01 9.960938e-01
1.279961e+02 6.020151e-01 1.462390e-02 5.674774e-01 -9.960938e-01 9.960938e-01
1.279961e+02 6.020151e-01 1.462390e-02 5.674774e-01 -9.960938e-01 9.960938e-01
1.279961e+02 6.020151e-01 1.462390e-02 5.674774e-01 -9.960938e-01 9.960938e-01
1.279961e+02 6.020151e-01 1.462390e-02 5.674774e-01 -9.960938e-01 9.960938e-01
1.279961e+02 6.020151e-01 1.462390e-02 5.674774e-01 -9.960938e-01 9.960938e-01
1.279961e+02 6.020151e-01 1.462390e-02 5.674774e-01 -9.960938e-01 9.960938e-01
1.279961e+02 6.020151e-01 1.462390e-02 5.674774e-01 -9.960938e-01 9.960938e-01
1.279961e+02 6.020151e-01 1.462390e-02 5.674774e-01 -9.960938e-01 9.960938e-01
1.279961e+02 6.020151e-01 1.462390e-02 5.674774e-01 -9.960938e-01 9.960938e-01
1.279961e+02 6.020151e-01 1.462390e-02 5.674774e-01 -9.960938e-01 9.960938e-01
1.279961e+02 6.020151e-01 1.462390e-02 5.674774e-01 -9.960938e-01 9.960938e-01
1.279961e+02 6.020151e-01 1.462390e-02 5.674774e-01 -9.960938e-01 9.960938e-01
1.279961e+02 6.020151e-01 1.462390e-02 5.674774e-01 -9.960938e-01 9.960938e-01
1.279961e+02 6.020151e-01 1.462390e-02 5.674774e-01 -9.960938e-01 9.960938e-01
1.279961e+02 6.020151e-01 1.462390e-02 5.674774e-01 -9.960938e-01 9.960938e-01
1.279961e+02 6.020151e-01 1.462390e-02 5.674774e-01 -9.960938e-01 9.960938e-01
1.279961e+02 6.020151e-01 1.462390e-02 5.674774e-01 -9.960938e-01 9.960938e-01
1.279961e+02 6.020151e-01 1.462390e-02 5.674774e-01 -9.960938e-01 9.960938e-01
1.279961e+02 6.020151e-01 1.462390e-02 5.674774e-01 -9.960938e-01 9.960938e-01
1.279961e+02 6.020151e-01 1.462390e-02 5.674774e-01 -9.960938e-01 9.960938e-01
1.279961e+02 6.020151e-01 1.462390e-02 5.674774e-01 -9.960938e-01 9.960938e-01
1.279961e+02 6.020151e-01 1.462390e-02 5.674774e-01 -9.960938e-01 9.960938e-01
1.279961e+02 6.020151e-01 1.462390e-02 5.674774e-01 -9.960938e-01 9.960938e-01
1.279961e+02 6.020151e-01 1.462390e-02 5.674774e-01 -9.960938e-01 9.960938e-01
1.279961e+02 6.020151e-01 1.462390e-02 5.674774e-01 -9.960938e-01 9.960938e-01
1.279961e+02 6.020151e-01 1.462390e-02 5.674774e-01 -9.960938e-01 9.960938e-01
1.279961e+02 6.020151e-01 1.462390e-02 5.674774e-01 -9.960938e-01 9.960938e-01
1.279961e+02 6.020151e-01 1.462390e-02 5.674774e-01 -9.960938e-01 9.960938e-01
1.279961e+02 6.020151e-01 1.462390e-02 5.674774e-01 -9.960938e-01 9.960938e-01
1.279961e+02 6.020151e-01 1.462390e-02 5.674774e-01 -9.960938e-01 9.960938e-01
1.279961e+02 6.020151e-01 1.462390e-02 5.674774e-01 -9.960938e-01 9.960938e-01
1.279961e+02 6.020151e-01 1.462390e-02 5.674774e-01 -9.960938e-01 9.960938e-01
1.279961e+02 6.020151e-01 1.462390e-02 5.674774e-01 -9.960938e-01 9.960938e-01
1.279961e+02 6.020151e-01 1.462390e-02 5.674774e-01 -9.960938e-01 9.960938e-01
1.279961e+02 6.020151e-01 1.462390e-02 5.674774e-01 -9.960938e-01 9.960938e-01
1.279961e+02 6.020151e-01 1.462390e-02 5.674774e-01 -9.960938e-01 9.960938e-01
1.279961e+02 6.020151e-01 1.462390e-02 5.674774e-01 -9.960938e-01 9.960938e-01
1.279961e+02 6.020151e-01 1.462390e-02 5.674774e-01 -9.960938e-01 9.960938e-01
1.279961e+02 6.020151e-01 1.462390e-02 5.674774e-01 -9.960938e-01 9.960938e-01
1.279961e+02 6.020151e-01 1.462390e-02 5.674774e-01 -9.960938e-01 9.960938e-01
1.279961e+02 6.020151e-01 1.462390e-02 5.674774e-01 -9.960938e-01 9.960938e-01
1.279961e+02 6.020151e-01 1.462390e-02 5.674774e-01 -9.960938e-01 9.960938e-01
