-1.271362e-01 1.354618e+00 -5.815186e+00 5.625488e+00 -1.356842e-04 1.369290e-02 -1.926270e-01 1.193848e-01
-1.054253e-01 1.327124e+00 -5.831543e+00 5.645508e+00 -3.170121e-05 1.239366e-02 -1.140137e-01 1.193848e-01
-9.484220e-02 1.419746e+00 -5.942871e+00 5.690918e+00 1.157576e-04 1.237990e-02 -1.340332e-01 1.503906e-01
-1.200691e-01 1.473782e+00 -6.007568e+00 5.593750e+00 1.797947e-04 1.289182e-02 -1.340332e-01 1.503906e-01
-1.600313e-01 1.453336e+00 -6.004150e+00 5.581543e+00 1.249950e-04 1.313289e-02 -1.352539e-01 1.345215e-01
-2.051791e-01 1.470045e+00 -6.007812e+00 5.904297e+00 -8.153466e-06 1.370222e-02 -1.652832e-01 1.520996e-01
-2.387991e-01 1.588932e+00 -5.989746e+00 5.978760e+00 -2.730084e-05 1.635803e-02 -1.992188e-01 2.309570e-01
-2.746372e-01 1.721525e+00 -6.002441e+00 6.727783e+00 -4.455974e-05 1.919597e-02 -2.368164e-01 2.243652e-01
-2.664991e-01 1.705508e+00 -6.015137e+00 6.804932e+00 1.053660e-04 1.720638e-02 -1.982422e-01 1.975098e-01
-2.590416e-01 1.669549e+00 -6.036377e+00 6.279785e+00 -1.004798e-04 1.701277e-02 -2.006836e-01 1.918945e-01
-2.503326e-01 1.699863e+00 -6.037598e+00 6.392334e+00 1.527999e-04 1.635535e-02 -1.982422e-01 1.938477e-01
-2.468492e-01 1.663161e+00 -6.032715e+00 6.290283e+00 -1.297225e-04 1.678495e-02 -1.884766e-01 2.009277e-01
-2.372240e-01 1.682177e+00 -6.037109e+00 6.435547e+00 1.138846e-05 1.671529e-02 -1.982422e-01 2.014160e-01
-2.322651e-01 1.682657e+00 -6.026855e+00 6.251953e+00 -6.180178e-05 1.706332e-02 -2.097168e-01 2.197266e-01
-2.212632e-01 1.704746e+00 -5.984619e+00 6.371338e+00 -7.159099e-05 1.752096e-02 -2.062988e-01 2.263184e-01
-2.116773e-01 1.716151e+00 -5.996582e+00 6.554932e+00 6.583569e-05 1.755397e-02 -2.026367e-01 2.160645e-01
-2.100428e-01 1.717012e+00 -6.018555e+00 6.528320e+00 1.257883e-04 1.762660e-02 -2.026367e-01 2.192383e-01
-2.014954e-01 1.719196e+00 -6.024170e+00 7.293213e+00 -3.625182e-05 1.652884e-02 -2.121582e-01 2.172852e-01
-1.980215e-01 1.718988e+00 -6.002686e+00 7.088135e+00 2.500658e-05 1.694530e-02 -2.138672e-01 2.097168e-01
-2.050745e-01 1.701414e+00 -6.007324e+00 6.818115e+00 -8.641663e-05 1.692080e-02 -2.021484e-01 1.987305e-01
-1.853956e-01 1.721256e+00 -6.021484e+00 6.809814e+00 9.209892e-05 1.718906e-02 -1.982422e-01 2.065430e-01
-1.973526e-01 1.718771e+00 -6.015869e+00 6.653076e+00 -3.812065e-05 1.755103e-02 -1.992188e-01 2.097168e-01
-1.999861e-01 1.718759e+00 -6.030518e+00 6.350830e+00 1.716903e-05 1.738630e-02 -1.982422e-01 2.106934e-01
-2.058820e-01 1.713498e+00 -6.053223e+00 6.068115e+00 -5.222037e-05 1.760023e-02 -2.097168e-01 2.209473e-01
-2.003738e-01 1.745819e+00 -6.044922e+00 6.639160e+00 1.134044e-04 1.761252e-02 -2.026367e-01 2.243652e-01
-1.988046e-01 1.724481e+00 -6.010742e+00 6.374512e+00 -1.493726e-04 1.764900e-02 -2.006836e-01 2.067871e-01
-1.876611e-01 1.753665e+00 -6.010010e+00 6.490234e+00 1.096962e-04 1.722776e-02 -2.026367e-01 2.089844e-01
-1.931439e-01 1.729303e+00 -6.079102e+00 6.552002e+00 -6.793478e-05 1.746109e-02 -1.965332e-01 2.070312e-01
-1.902468e-01 1.740192e+00 -6.102783e+00 6.357178e+00 3.220949e-06 1.705331e-02 -1.982422e-01 2.062988e-01
-1.778312e-01 1.744258e+00 -6.097656e+00 6.071289e+00 -2.944486e-05 1.694063e-02 -2.026367e-01 2.167969e-01
-1.708983e-01 1.750017e+00 -6.092773e+00 5.995850e+00 -2.827527e-05 1.685742e-02 -2.026367e-01 2.148438e-01
-1.738325e-01 1.765549e+00 -6.134033e+00 6.133057e+00 3.461607e-05 1.687538e-02 -1.982422e-01 2.136230e-01
-1.795017e-01 1.774572e+00 -6.153076e+00 6.484863e+00 5.688892e-05 1.717187e-02 -2.026367e-01 2.163086e-01
-1.851641e-01 1.781162e+00 -7.071045e+00 5.819092e+00 1.408147e-05 1.716552e-02 -2.299805e-01 3.046875e-01
-2.327786e-01 1.803598e+00 -7.407227e+00 5.830078e+00 -1.139084e-04 1.721254e-02 -2.402344e-01 3.046875e-01
-2.739201e-01 1.843510e+00 -7.543701e+00 5.998779e+00 9.844815e-05 1.786557e-02 -2.119141e-01 2.912598e-01
-2.684395e-01 1.835981e+00 -7.364502e+00 5.889893e+00 4.930972e-05 1.858767e-02 -2.272949e-01 2.753906e-01
-2.699683e-01 1.826603e+00 -7.246094e+00 5.969727e+00 -5.446549e-05 1.763603e-02 -2.062988e-01 2.395020e-01
-2.742807e-01 1.836085e+00 -6.765869e+00 6.128174e+00 -7.085526e-05 1.658596e-02 -2.053223e-01 2.294922e-01
-2.669671e-01 1.866343e+00 -6.653320e+00 6.201416e+00 6.285343e-05 1.629217e-02 -1.933594e-01 2.155762e-01
-2.713939e-01 1.843558e+00 -6.747559e+00 6.175781e+00 -8.000843e-05 1.635045e-02 -2.031250e-01 2.189941e-01
-2.616587e-01 1.865417e+00 -6.668213e+00 6.176514e+00 4.406410e-05 1.617705e-02 -1.933594e-01 2.136230e-01
-2.305574e-01 1.847018e+00 -6.897705e+00 6.084229e+00 -9.355214e-05 1.713989e-02 -1.933594e-01 2.187500e-01
-2.300583e-01 1.865577e+00 -6.802979e+00 6.170898e+00 2.390719e-05 1.673454e-02 -1.982422e-01 2.065430e-01
-2.266866e-01 1.855904e+00 -6.759033e+00 5.992676e+00 -4.394896e-05 1.705081e-02 -2.019043e-01 2.150879e-01
-2.347147e-01 1.886943e+00 -6.752930e+00 5.983887e+00 3.853906e-05 1.688537e-02 -2.033691e-01 2.170410e-01
-2.582477e-01 1.913071e+00 -6.852539e+00 6.034424e+00 -3.079278e-05 1.667412e-02 -1.933594e-01 2.170410e-01
-2.518794e-01 1.929333e+00 -6.909424e+00 6.141113e+00 1.429489e-05 1.642509e-02 -1.933594e-01 2.114258e-01
-2.485623e-01 1.931075e+00 -6.935059e+00 6.287598e+00 1.644313e-05 1.636215e-02 -1.933594e-01 2.133789e-01
-2.400490e-01 1.927330e+00 -6.889648e+00 6.185303e+00 -4.029696e-07 1.672635e-02 -1.933594e-01 2.070312e-01
-2.363309e-01 1.922657e+00 -6.834229e+00 6.195801e+00 -8.635064e-06 1.710963e-02 -2.028809e-01 2.214355e-01
-2.226883e-01 1.942236e+00 -6.589600e+00 6.610840e+00 5.022378e-05 1.680473e-02 -2.231445e-01 2.233887e-01
-2.172422e-01 1.932623e+00 -6.711426e+00 6.559082e+00 1.241483e-05 1.694062e-02 -2.231445e-01 2.216797e-01
-2.163864e-01 1.929103e+00 -6.717773e+00 6.337402e+00 -1.082037e-04 1.738054e-02 -2.360840e-01 2.326660e-01
-2.029394e-01 1.962048e+00 -6.691895e+00 6.699463e+00 8.346526e-05 1.711335e-02 -2.023926e-01 2.253418e-01
-2.083147e-01 1.941539e+00 -6.903320e+00 6.496338e+00 -8.727311e-05 1.694608e-02 -2.158203e-01 2.199707e-01
-2.090893e-01 1.980470e+00 -6.800781e+00 6.645752e+00 1.632785e-04 1.674912e-02 -2.028809e-01 2.187500e-01
-2.161663e-01 1.963100e+00 -6.949219e+00 6.633789e+00 3.520719e-05 1.662891e-02 -1.972656e-01 2.160645e-01
-2.019884e-01 1.988183e+00 -7.422607e+00 6.602051e+00 9.878653e-05 1.696363e-02 -1.982422e-01 2.233887e-01
-2.211251e-01 1.983088e+00 -7.618164e+00 6.691406e+00 -5.156326e-05 1.642531e-02 -1.933594e-01 2.202148e-01
-2.502643e-01 1.994903e+00 -7.688721e+00 6.077637e+00 -1.946610e-05 1.606741e-02 -1.982422e-01 2.148438e-01
-2.378797e-01 1.996136e+00 -7.650146e+00 6.069336e+00 -3.703530e-05 1.657352e-02 -1.982422e-01 2.128906e-01
-2.039970e-01 2.044703e+00 -7.486328e+00 6.079346e+00 -9.169876e-05 1.852016e-02 -2.221680e-01 2.495117e-01
-1.950198e-01 2.048582e+00 -7.478027e+00 6.063965e+00 -5.939520e-05 1.816346e-02 -2.145996e-01 2.363281e-01
-1.929284e-01 2.053166e+00 -7.328369e+00 6.216797e+00 3.150605e-05 1.764400e-02 -2.075195e-01 2.321777e-01
-2.029688e-01 2.035837e+00 -7.452148e+00 6.121338e+00 -4.770065e-05 1.754124e-02 -2.290039e-01 2.368164e-01
-2.045654e-01 2.054384e+00 -7.412842e+00 6.165283e+00 1.075101e-05 1.745075e-02 -1.982422e-01 2.243652e-01
-2.024062e-01 2.065679e+00 -7.608887e+00 6.193604e+00 -3.072117e-06 1.771664e-02 -2.026367e-01 2.336426e-01
-2.005827e-01 2.065026e+00 -7.471436e+00 6.212158e+00 2.535760e-06 1.770462e-02 -2.026367e-01 2.346191e-01
-1.873071e-01 2.057095e+00 -7.617920e+00 6.303467e+00 -1.351703e-05 1.781098e-02 -2.187500e-01 2.390137e-01
-1.812879e-01 2.061245e+00 -7.486572e+00 6.269531e+00 -2.355758e-05 1.741805e-02 -2.272949e-01 2.382812e-01
-2.362711e-01 2.098251e+00 -7.291260e+00 6.252197e+00 -7.066852e-05 1.729379e-02 -1.982422e-01 2.243652e-01
-2.256561e-01 2.111968e+00 -7.226318e+00 6.298340e+00 -5.140320e-05 1.679192e-02 -2.072754e-01 2.419434e-01
-2.080694e-01 2.102596e+00 -7.388428e+00 6.250977e+00 -4.715025e-05 1.755871e-02 -2.375488e-01 2.456055e-01
-2.114355e-01 2.098007e+00 -7.537354e+00 6.470947e+00 -4.471980e-05 1.702217e-02 -2.253418e-01 2.343750e-01
-2.110921e-01 2.100789e+00 -7.489502e+00 6.409424e+00 -2.218439e-07 1.679159e-02 -2.023926e-01 2.404785e-01
-2.072452e-01 2.104338e+00 -7.449707e+00 6.409424e+00 2.402513e-05 1.676438e-02 -2.089844e-01 2.343750e-01
-1.931603e-01 2.096304e+00 -7.961914e+00 6.652344e+00 -4.905278e-05 1.753444e-02 -2.126465e-01 2.346191e-01
-1.858062e-01 2.097287e+00 -7.883057e+00 6.704590e+00 -4.213911e-05 1.722732e-02 -2.026367e-01 2.338867e-01
-1.775151e-01 2.113968e+00 -7.817871e+00 6.634766e+00 -1.905049e-05 1.763894e-02 -2.136230e-01 2.412109e-01
-1.743345e-01 2.124933e+00 -7.638672e+00 6.782227e+00 -3.271917e-05 1.783952e-02 -2.409668e-01 2.697754e-01
-1.869995e-01 2.135194e+00 -7.638428e+00 6.631104e+00 3.854187e-06 1.715831e-02 -2.280273e-01 2.548828e-01
-1.946790e-01 2.139255e+00 -7.603760e+00 6.685791e+00 1.379223e-05 1.748244e-02 -2.219238e-01 2.543945e-01
-2.039406e-01 2.124968e+00 -7.685303e+00 6.490479e+00 -4.488548e-05 1.735763e-02 -2.124023e-01 2.563477e-01
-1.812953e-01 2.121548e+00 -7.906250e+00 6.753906e+00 -4.037559e-05 1.809884e-02 -2.207031e-01 2.587891e-01
-1.949859e-01 2.136234e+00 -7.829834e+00 6.552002e+00 -1.429910e-05 1.848138e-02 -2.207031e-01 2.504883e-01
-2.114488e-01 2.165769e+00 -7.847656e+00 6.433350e+00 2.756200e-05 1.735422e-02 -1.982422e-01 2.592773e-01
-2.100001e-01 2.147804e+00 -7.996094e+00 6.493652e+00 -5.325798e-05 1.734140e-02 -2.026367e-01 2.592773e-01
-1.990979e-01 2.148603e+00 -7.934814e+00 6.473633e+00 -1.255945e-05 1.782905e-02 -2.070312e-01 2.453613e-01
-1.863818e-01 2.154270e+00 -7.996826e+00 6.492676e+00 4.602559e-06 1.754121e-02 -2.026367e-01 2.521973e-01
-1.831952e-01 2.145810e+00 -8.043945e+00 6.595459e+00 -1.593906e-05 1.769947e-02 -2.272949e-01 2.429199e-01
-1.876395e-01 2.140075e+00 -8.030518e+00 6.671387e+00 -1.998842e-05 1.752976e-02 -2.221680e-01 2.617188e-01
-1.949200e-01 2.159662e+00 -8.095947e+00 6.571777e+00 -3.037577e-05 1.759424e-02 -2.062988e-01 2.431641e-01
-1.962884e-01 2.170730e+00 -8.093994e+00 6.510498e+00 -2.027485e-05 1.752051e-02 -2.026367e-01 2.431641e-01
-2.181003e-01 2.134793e+00 -8.189209e+00 6.425049e+00 -1.082654e-04 1.842943e-02 -2.614746e-01 2.653809e-01
-2.213364e-01 2.169499e+00 -8.039307e+00 6.436523e+00 -6.267231e-05 1.784000e-02 -2.119141e-01 2.463379e-01
-2.027901e-01 2.189474e+00 -8.121338e+00 6.466553e+00 -5.377187e-05 1.812297e-02 -2.126465e-01 2.539062e-01
-1.542324e-01 2.196210e+00 -8.006592e+00 6.636719e+00 1.549538e-05 1.848372e-02 -2.170410e-01 2.546387e-01
-1.452922e-01 2.204008e+00 -7.981934e+00 6.714111e+00 4.835636e-06 1.869083e-02 -2.292480e-01 2.446289e-01
-1.641218e-01 2.210365e+00 -7.861328e+00 6.671631e+00 8.088878e-06 1.793147e-02 -2.092285e-01 2.453613e-01
-1.573408e-01 2.232767e+00 -7.987061e+00 6.657959e+00 2.773891e-05 1.767020e-02 -2.094727e-01 2.641602e-01
-1.688893e-01 2.243993e+00 -7.899902e+00 6.623291e+00 1.278411e-05 1.752566e-02 -2.099609e-01 2.524414e-01
-1.704339e-01 2.232935e+00 -8.010254e+00 6.638184e+00 -1.046598e-05 1.762856e-02 -2.177734e-01 2.529297e-01
-1.636797e-01 2.225639e+00 -8.089111e+00 6.791260e+00 3.430156e-06 1.781776e-02 -2.133789e-01 2.502441e-01
-1.575009e-01 2.238656e+00 -8.099365e+00 6.793213e+00 3.000369e-05 1.771608e-02 -2.216797e-01 2.419434e-01
-1.770622e-01 2.228589e+00 -8.093018e+00 6.737061e+00 9.252857e-07 1.801499e-02 -1.982422e-01 2.509766e-01
-1.787826e-01 2.236415e+00 -8.238770e+00 6.729004e+00 -1.638696e-05 1.777913e-02 -2.119141e-01 2.458496e-01
-1.670352e-01 2.241241e+00 -8.141357e+00 6.782227e+00 -2.057111e-05 1.803494e-02 -2.292480e-01 2.539062e-01
-1.582814e-01 2.260002e+00 -8.193359e+00 6.739746e+00 -1.355214e-05 1.791044e-02 -2.329102e-01 2.539062e-01
-1.345554e-01 2.261727e+00 -8.133789e+00 6.782471e+00 3.143725e-05 1.819204e-02 -2.292480e-01 2.446289e-01
-1.428202e-01 2.259308e+00 -8.203857e+00 6.855957e+00 -8.185759e-06 1.768649e-02 -2.143555e-01 2.419434e-01
-1.457276e-01 2.287131e+00 -8.248779e+00 6.918457e+00 -4.117591e-05 1.775920e-02 -2.197266e-01 2.370605e-01
-1.377003e-01 2.300817e+00 -8.185059e+00 6.929443e+00 -1.843832e-05 1.795701e-02 -2.258301e-01 2.424316e-01
-1.284798e-01 2.286282e+00 -8.317383e+00 6.902588e+00 1.915440e-05 1.795817e-02 -2.268066e-01 2.539062e-01
-1.341227e-01 2.281832e+00 -8.330566e+00 6.928711e+00 2.170701e-06 1.788509e-02 -2.268066e-01 2.580566e-01
-1.373621e-01 2.301227e+00 -8.480957e+00 6.971680e+00 7.653615e-06 1.811134e-02 -2.033691e-01 2.424316e-01
-1.499114e-01 2.318642e+00 -8.433838e+00 7.008057e+00 -2.532250e-05 1.782007e-02 -2.211914e-01 2.509766e-01
-1.617174e-01 2.299105e+00 -8.599854e+00 7.054443e+00 -3.515805e-05 1.834241e-02 -2.089844e-01 2.463379e-01
-1.627888e-01 2.315245e+00 -8.550537e+00 7.011475e+00 -2.409393e-05 1.798431e-02 -2.204590e-01 2.404785e-01
-1.466394e-01 2.296138e+00 -8.458008e+00 7.018799e+00 -1.976236e-05 1.876310e-02 -2.272949e-01 2.543945e-01
-1.504081e-01 2.307801e+00 -8.529053e+00 7.034180e+00 -1.784299e-05 1.824868e-02 -2.214355e-01 2.434082e-01
-1.463467e-01 2.297580e+00 -8.346436e+00 7.026855e+00 -4.470155e-05 1.872752e-02 -2.416992e-01 2.624512e-01
-7.250416e-02 2.339808e+00 -8.315918e+00 7.096680e+00 6.975587e-05 2.028426e-02 -2.622070e-01 2.995605e-01
-6.148685e-02 2.338102e+00 -8.017578e+00 7.072998e+00 1.176882e-04 1.965396e-02 -2.717285e-01 2.648926e-01
-1.198559e-01 2.335076e+00 -8.328125e+00 7.063232e+00 -5.660249e-05 1.859443e-02 -2.565918e-01 2.416992e-01
-9.791823e-02 2.323101e+00 -8.066162e+00 7.099609e+00 4.237780e-05 1.919095e-02 -2.592773e-01 2.543945e-01
-9.282156e-02 2.353217e+00 -8.118164e+00 7.097900e+00 1.471050e-05 1.888040e-02 -2.316895e-01 2.543945e-01
-1.089128e-01 2.364283e+00 -8.191895e+00 7.148193e+00 -1.390315e-05 1.851715e-02 -2.773438e-01 2.644043e-01
-9.291161e-02 2.356320e+00 -8.194092e+00 7.366211e+00 2.525510e-05 1.855907e-02 -2.648926e-01 2.565918e-01
-1.345327e-01 2.364354e+00 -8.385498e+00 7.181885e+00 -7.935834e-05 1.900989e-02 -2.785645e-01 2.482910e-01
-1.119816e-01 2.356151e+00 -8.398193e+00 7.239014e+00 2.322762e-05 1.841036e-02 -2.883301e-01 2.666016e-01
-1.046221e-01 2.359242e+00 -8.485352e+00 7.267578e+00 3.379188e-05 1.796501e-02 -2.900391e-01 2.678223e-01
-1.272911e-01 2.372365e+00 -8.674561e+00 7.347168e+00 -1.759166e-05 1.888718e-02 -2.414551e-01 2.573242e-01
-7.289016e-02 2.408083e+00 -8.619873e+00 7.956543e+00 1.179606e-04 1.953123e-02 -2.978516e-01 2.700195e-01
-1.067601e-01 2.412098e+00 -8.627930e+00 7.711426e+00 5.976026e-05 1.854560e-02 -2.824707e-01 2.565918e-01
-1.260405e-01 2.440955e+00 -8.685547e+00 7.599365e+00 -8.368289e-07 1.823666e-02 -2.507324e-01 2.685547e-01
-1.021789e-01 2.446891e+00 -8.616943e+00 7.595459e+00 -3.147235e-05 1.914440e-02 -2.277832e-01 2.409668e-01
-4.785767e-02 2.449726e+00 -9.311768e+00 7.834229e+00 6.222581e-05 1.929400e-02 -2.607422e-01 2.531738e-01
-7.422795e-02 2.491549e+00 -9.030762e+00 8.262939e+00 3.498113e-05 1.871523e-02 -3.076172e-01 2.685547e-01
-7.989614e-02 2.497517e+00 -9.015137e+00 8.076904e+00 5.839549e-06 1.893454e-02 -3.078613e-01 2.675781e-01
-9.143577e-02 2.529768e+00 -9.197510e+00 7.986816e+00 -8.389350e-05 1.907383e-02 -2.475586e-01 2.519531e-01
-6.612484e-02 2.499533e+00 -9.352539e+00 7.978760e+00 3.700862e-05 1.894608e-02 -2.846680e-01 2.561035e-01
-5.469290e-02 2.532528e+00 -9.240479e+00 8.213135e+00 7.400460e-05 1.974811e-02 -2.814941e-01 2.670898e-01
-7.318867e-02 2.538964e+00 -9.395752e+00 8.243652e+00 2.055847e-05 1.954167e-02 -2.785645e-01 2.612305e-01
-9.720860e-02 2.556449e+00 -9.279541e+00 8.153809e+00 -1.174004e-04 1.925577e-02 -2.514648e-01 2.819824e-01
-6.457980e-02 2.533884e+00 -9.280518e+00 8.172363e+00 6.895695e-05 1.887485e-02 -2.834473e-01 2.673340e-01
-7.743934e-02 2.544684e+00 -9.330322e+00 8.210938e+00 5.411306e-06 1.932527e-02 -2.819824e-01 2.475586e-01
-8.730728e-02 2.547832e+00 -9.330322e+00 8.164062e+00 -3.186830e-05 1.898880e-02 -2.641602e-01 2.585449e-01
-8.019318e-02 2.526596e+00 -9.571289e+00 8.042969e+00 -1.172263e-05 1.895820e-02 -2.734375e-01 2.565918e-01
-4.693993e-02 2.538409e+00 -9.571533e+00 8.112793e+00 6.681433e-05 1.967189e-02 -2.714844e-01 2.731934e-01
-5.219753e-02 2.549660e+00 -9.600586e+00 8.102539e+00 1.122783e-04 2.072109e-02 -2.890625e-01 2.692871e-01
-1.049289e-01 2.599142e+00 -9.694092e+00 8.236328e+00 -7.979360e-05 1.941806e-02 -2.397461e-01 2.561035e-01
-8.275282e-02 2.599962e+00 -9.611572e+00 8.694092e+00 -7.228180e-06 1.922712e-02 -2.966309e-01 2.597656e-01
-5.971149e-02 2.622797e+00 -9.624023e+00 8.777832e+00 1.959528e-05 1.912636e-02 -2.888184e-01 2.668457e-01
-4.939894e-02 2.627412e+00 -9.624023e+00 8.649658e+00 7.295014e-05 1.964161e-02 -2.932129e-01 2.897949e-01
-5.743302e-02 2.647423e+00 -9.595947e+00 8.597412e+00 7.200801e-05 1.881820e-02 -2.983398e-01 2.897949e-01
-5.247310e-02 2.628546e+00 -9.863281e+00 8.409180e+00 8.849606e-05 1.943672e-02 -2.966309e-01 2.524414e-01
-6.504817e-02 2.649660e+00 -1.009644e+01 8.368408e+00 2.780631e-05 1.907499e-02 -2.905273e-01 2.802734e-01
-6.189976e-02 2.636357e+00 -1.004224e+01 8.367676e+00 3.084754e-05 1.905061e-02 -2.792969e-01 2.766113e-01
-5.754869e-02 2.628461e+00 -1.009766e+01 8.360107e+00 1.055401e-04 1.949581e-02 -2.902832e-01 2.651367e-01
-6.004919e-02 2.640012e+00 -1.001465e+01 8.466309e+00 4.487425e-06 1.870256e-02 -2.744141e-01 2.749023e-01
-6.616892e-02 2.612716e+00 -1.040503e+01 8.387939e+00 8.225354e-05 1.915013e-02 -2.790527e-01 2.927246e-01
-9.614741e-02 2.649976e+00 -1.049878e+01 8.425293e+00 -5.026169e-05 1.949916e-02 -2.587891e-01 3.056641e-01
-1.243974e-01 2.646219e+00 -1.020288e+01 8.462402e+00 -2.671955e-06 2.022705e-02 -3.198242e-01 2.875977e-01
-1.208523e-01 2.667568e+00 -1.033374e+01 8.554932e+00 -1.164821e-04 1.968087e-02 -3.188477e-01 2.695312e-01
-1.032341e-01 2.698689e+00 -1.040894e+01 8.626709e+00 -1.001260e-04 1.955056e-02 -2.575684e-01 2.697754e-01
-8.343034e-02 2.673397e+00 -1.024219e+01 8.607178e+00 3.903049e-05 1.934556e-02 -3.164062e-01 2.766113e-01
-8.514009e-02 2.672810e+00 -1.035254e+01 8.593506e+00 -3.940257e-05 1.910417e-02 -2.885742e-01 2.854004e-01
-7.743067e-02 2.669818e+00 -1.029370e+01 8.574707e+00 -3.815294e-05 1.876033e-02 -2.846680e-01 2.849121e-01
-7.116375e-02 2.671244e+00 -1.027319e+01 8.563965e+00 -9.456448e-06 1.920358e-02 -2.724609e-01 2.849121e-01
-9.358568e-02 2.691020e+00 -1.048389e+01 8.711426e+00 -6.343753e-05 1.877921e-02 -2.685547e-01 2.687988e-01
-8.128898e-02 2.679810e+00 -1.031177e+01 8.683838e+00 -2.626744e-05 1.917071e-02 -3.068848e-01 2.915039e-01
-9.534588e-02 2.692217e+00 -1.044385e+01 8.646240e+00 -9.816172e-05 1.918890e-02 -2.902832e-01 2.773438e-01
-8.580187e-02 2.688702e+00 -1.048218e+01 8.634766e+00 -5.146077e-05 1.916466e-02 -2.819824e-01 2.871094e-01
-7.534044e-02 2.688318e+00 -1.035938e+01 8.772461e+00 -3.992067e-05 1.962234e-02 -2.861328e-01 2.951660e-01
-5.093906e-02 2.677527e+00 -1.019116e+01 8.709473e+00 6.567984e-05 1.929807e-02 -2.907715e-01 2.932129e-01
-4.785495e-02 2.683596e+00 -1.027441e+01 8.728516e+00 7.731681e-05 2.084458e-02 -3.100586e-01 2.856445e-01
-6.005208e-02 2.701741e+00 -1.029321e+01 8.752441e+00 -3.144146e-05 1.916118e-02 -2.917480e-01 2.854004e-01
-6.954189e-02 2.683142e+00 -1.064966e+01 8.702637e+00 -2.519613e-05 1.949242e-02 -2.844238e-01 2.722168e-01
-7.778185e-02 2.676962e+00 -1.037500e+01 8.743896e+00 2.747495e-05 2.062505e-02 -2.900391e-01 2.717285e-01
-7.131227e-02 2.695343e+00 -1.048560e+01 8.779785e+00 -6.220756e-05 1.907889e-02 -2.875977e-01 2.929688e-01
-4.822665e-02 2.713196e+00 -1.048853e+01 8.827637e+00 -6.833635e-06 1.958706e-02 -2.739258e-01 2.900391e-01
-3.171455e-02 2.728817e+00 -1.043823e+01 8.772949e+00 1.272373e-05 1.986680e-02 -2.741699e-01 2.927246e-01
-2.269134e-02 2.746285e+00 -1.050171e+01 8.959473e+00 1.195219e-04 2.001336e-02 -2.792969e-01 3.054199e-01
-5.177379e-02 2.731802e+00 -1.049414e+01 8.784912e+00 9.079173e-05 1.935759e-02 -2.937012e-01 2.961426e-01
-7.910339e-02 2.733585e+00 -1.072974e+01 8.767090e+00 -3.589238e-05 1.867262e-02 -3.012695e-01 2.795410e-01
-7.032332e-02 2.732301e+00 -1.079785e+01 8.827637e+00 -3.589940e-05 1.904150e-02 -3.012695e-01 2.922363e-01
-6.468096e-02 2.716883e+00 -1.069946e+01 8.961914e+00 -2.155958e-05 1.946803e-02 -2.790527e-01 2.802734e-01
-6.037639e-02 2.701090e+00 -1.072388e+01 8.932129e+00 -6.845991e-05 2.048975e-02 -2.783203e-01 3.188477e-01
-6.446958e-02 2.698078e+00 -1.073853e+01 8.847900e+00 2.020464e-06 1.952491e-02 -2.956543e-01 3.049316e-01
-5.167909e-02 2.746013e+00 -1.061719e+01 8.983643e+00 4.781719e-05 1.992172e-02 -2.961426e-01 3.095703e-01
-8.348713e-02 2.762771e+00 -1.096191e+01 9.220459e+00 -9.501799e-05 1.970356e-02 -2.802734e-01 3.117676e-01
-4.044248e-02 2.806133e+00 -1.118335e+01 9.176514e+00 -4.373835e-05 2.027666e-02 -3.132324e-01 3.303223e-01
2.569315e-03 2.812850e+00 -1.102759e+01 9.515137e+00 1.757074e-04 1.982440e-02 -3.317871e-01 3.205566e-01
-1.959414e-02 2.820936e+00 -1.096924e+01 9.451172e+00 8.660758e-05 1.997091e-02 -2.993164e-01 3.225098e-01
-5.160455e-02 2.804212e+00 -1.095459e+01 9.113525e+00 8.900995e-05 1.974583e-02 -3.337402e-01 3.125000e-01
-7.096045e-02 2.819037e+00 -1.112695e+01 9.189941e+00 -9.952648e-05 1.965077e-02 -2.971191e-01 3.176270e-01
-4.565359e-02 2.801467e+00 -1.107153e+01 9.069824e+00 3.957527e-05 1.921877e-02 -3.083496e-01 3.200684e-01
-3.838628e-02 2.808586e+00 -1.108472e+01 9.594482e+00 -2.169156e-05 2.005006e-02 -3.183594e-01 3.374023e-01
-6.347642e-02 2.797846e+00 -1.105811e+01 9.397217e+00 -5.298138e-05 1.971845e-02 -3.217773e-01 3.447266e-01
-8.144764e-02 2.803326e+00 -1.122803e+01 9.247803e+00 -1.951946e-05 2.009459e-02 -3.110352e-01 3.349609e-01
-5.404713e-02 2.814165e+00 -1.128271e+01 9.325928e+00 1.056848e-05 2.018954e-02 -3.134766e-01 3.342285e-01
-7.899306e-02 2.828532e+00 -1.116797e+01 9.410400e+00 -2.844235e-05 2.079511e-02 -3.037109e-01 3.293457e-01
-7.417237e-02 2.843921e+00 -1.115576e+01 9.414062e+00 -3.077874e-05 2.006764e-02 -3.144531e-01 3.337402e-01
-5.910476e-02 2.822026e+00 -1.122925e+01 9.431152e+00 9.263668e-05 2.103268e-02 -3.574219e-01 3.388672e-01
-7.453711e-02 2.825071e+00 -1.138086e+01 9.406006e+00 -2.543623e-05 2.055246e-02 -3.464355e-01 3.342285e-01
-6.050913e-02 2.825018e+00 -1.139600e+01 9.546631e+00 -1.022588e-05 1.999873e-02 -3.356934e-01 3.261719e-01
-5.229737e-02 2.830993e+00 -1.137305e+01 9.579590e+00 -1.182512e-05 1.996282e-02 -3.264160e-01 3.261719e-01
-5.030547e-02 2.836420e+00 -1.129712e+01 9.500488e+00 -2.246521e-07 1.985484e-02 -3.288574e-01 3.549805e-01
-5.309383e-02 2.823101e+00 -1.140869e+01 9.519043e+00 3.772189e-05 2.075218e-02 -3.198242e-01 3.244629e-01
-3.636248e-02 2.837543e+00 -1.135645e+01 9.533203e+00 5.981501e-05 2.151590e-02 -3.110352e-01 3.581543e-01
-6.092919e-02 2.838348e+00 -1.130469e+01 9.516602e+00 -2.959089e-05 2.023903e-02 -3.164062e-01 3.237305e-01
-1.108992e-01 2.873016e+00 -1.135864e+01 9.555908e+00 -2.646977e-04 2.035381e-02 -3.132324e-01 2.746582e-01
-7.946297e-02 2.870549e+00 -1.138257e+01 9.555908e+00 -1.140994e-04 2.082451e-02 -3.398438e-01 3.483887e-01
-5.036191e-02 2.880333e+00 -1.145044e+01 9.797119e+00 -5.540622e-05 2.067173e-02 -3.178711e-01 3.496094e-01
-3.688812e-02 2.879214e+00 -1.142651e+01 9.738770e+00 4.532636e-05 2.049671e-02 -3.286133e-01 3.481445e-01
-3.522489e-02 2.876979e+00 -1.140161e+01 9.679443e+00 4.930832e-05 2.030053e-02 -3.203125e-01 3.532715e-01
-4.083933e-02 2.878373e+00 -1.146484e+01 9.868652e+00 -1.720975e-05 2.225981e-02 -3.293457e-01 3.703613e-01
-4.401717e-02 2.881682e+00 -1.137500e+01 9.747070e+00 -3.696650e-05 2.092991e-02 -3.117676e-01 3.706055e-01
-5.577614e-02 2.875484e+00 -1.155225e+01 9.638916e+00 -1.412219e-05 2.036298e-02 -3.222656e-01 3.269043e-01
-6.479519e-02 2.895944e+00 -1.165674e+01 9.871826e+00 -1.210397e-04 2.097304e-02 -3.176270e-01 3.732910e-01
-5.289351e-02 2.882203e+00 -1.150537e+01 1.000854e+01 3.400951e-05 2.092743e-02 -3.322754e-01 3.374023e-01
-6.112574e-02 2.891325e+00 -1.155127e+01 9.754639e+00 -4.364990e-05 2.020007e-02 -3.596191e-01 3.767090e-01
-6.617517e-02 2.876694e+00 -1.155737e+01 9.544922e+00 9.998421e-06 2.069263e-02 -3.596191e-01 3.630371e-01
-8.794665e-02 2.886843e+00 -1.150732e+01 9.695557e+00 -8.935676e-05 2.108885e-02 -3.088379e-01 3.564453e-01
-7.965563e-02 2.883177e+00 -1.160059e+01 9.554932e+00 -2.851677e-05 2.151233e-02 -3.242188e-01 3.762207e-01
-7.054718e-02 2.891727e+00 -1.166284e+01 9.627197e+00 -9.947874e-05 2.186391e-02 -3.193359e-01 3.730469e-01
-3.957499e-02 2.892141e+00 -1.163184e+01 1.033423e+01 -1.174369e-05 2.172137e-02 -3.613281e-01 3.491211e-01
-1.653089e-02 2.921485e+00 -1.155347e+01 1.032031e+01 5.508328e-05 2.027343e-02 -3.417969e-01 3.505859e-01
-8.081998e-04 2.931391e+00 -1.158301e+01 1.029321e+01 7.637328e-05 2.044037e-02 -3.437500e-01 3.339844e-01
-1.206745e-02 2.953980e+00 -1.152734e+01 1.022412e+01 2.835249e-05 2.067299e-02 -3.437500e-01 3.505859e-01
-1.639328e-02 2.951771e+00 -1.163794e+01 1.010620e+01 1.926111e-05 2.013867e-02 -3.308105e-01 3.525391e-01
-3.670625e-02 2.959136e+00 -1.173267e+01 1.020557e+01 -2.926514e-05 1.989029e-02 -3.366699e-01 3.320312e-01
-1.274883e-02 2.977776e+00 -1.160840e+01 1.058081e+01 -9.099812e-05 2.139181e-02 -3.344727e-01 3.901367e-01
-1.134125e-02 2.970775e+00 -1.163696e+01 1.045508e+01 -7.156572e-06 2.039900e-02 -3.149414e-01 3.593750e-01
-1.322029e-01 2.984808e+00 -1.188574e+01 1.032764e+01 -1.244207e-04 2.140738e-02 -3.366699e-01 3.417969e-01
-1.690360e-01 3.008353e+00 -1.267578e+01 1.020459e+01 -2.322846e-04 2.167351e-02 -3.193359e-01 3.676758e-01
