-5.568919e-01 9.173917e-01 -2.173479e+00 1.837302e+00 1.360949e-03 1.557430e-02 -1.217497e-01 1.128903e-01
-5.982343e-01 8.928741e-01 -2.248376e+00 1.725142e+00 1.270727e-03 1.605959e-02 -1.240064e-01 1.182848e-01
-6.392456e-01 8.747456e-01 -2.419950e+00 1.591386e+00 1.165742e-03 1.648804e-02 -1.254889e-01 1.213475e-01
-6.796022e-01 8.631088e-01 -2.476936e+00 1.444244e+00 1.046688e-03 1.685832e-02 -1.262018e-01 1.240457e-01
-7.189497e-01 8.572636e-01 -2.647115e+00 1.336766e+00 9.261395e-04 1.718837e-02 -1.262284e-01 1.255510e-01
-7.569060e-01 8.568040e-01 -2.703277e+00 1.269884e+00 8.057205e-04 1.748157e-02 -1.262283e-01 1.261930e-01
-7.932164e-01 8.616237e-01 -2.870191e+00 1.166797e+00 6.904534e-04 1.775371e-02 -1.262285e-01 1.262285e-01
-8.273165e-01 8.700055e-01 -2.925127e+00 1.095698e+00 5.805904e-04 1.800023e-02 -1.262224e-01 1.262285e-01
-8.590263e-01 8.814795e-01 -3.086938e+00 1.004501e+00 4.793293e-04 1.823193e-02 -1.260975e-01 1.262285e-01
-8.880747e-01 8.949498e-01 -3.191618e+00 9.513996e-01 3.850212e-04 1.844829e-02 -1.255353e-01 1.262268e-01
-9.142081e-01 9.091135e-01 -3.242955e+00 8.667170e-01 2.948640e-04 1.862877e-02 -1.249426e-01 1.261173e-01
-9.373111e-01 9.231230e-01 -3.390235e+00 9.470191e-01 2.121325e-04 1.879010e-02 -1.247046e-01 1.262263e-01
-9.576040e-01 9.365792e-01 -3.436723e+00 9.917997e-01 1.336050e-04 1.891216e-02 -1.243009e-01 1.261823e-01
-9.750390e-01 9.485521e-01 -3.565417e+00 1.066283e+00 6.447132e-05 1.902055e-02 -1.240683e-01 1.259780e-01
-9.899250e-01 9.590939e-01 -3.604210e+00 1.088062e+00 6.884096e-07 1.908387e-02 -1.239319e-01 1.255424e-01
-1.002048e+00 9.675364e-01 -3.674237e+00 1.125259e+00 -5.354521e-05 1.911577e-02 -1.241405e-01 1.253030e-01
-1.011582e+00 9.739094e-01 -3.760146e+00 1.164198e+00 -9.717120e-05 1.911099e-02 -1.244726e-01 1.251849e-01
-1.018788e+00 9.783873e-01 -3.783108e+00 1.173899e+00 -1.319419e-04 1.908088e-02 -1.246325e-01 1.251540e-01
-1.023834e+00 9.811717e-01 -3.834728e+00 1.193483e+00 -1.529282e-04 1.903309e-02 -1.249430e-01 1.252152e-01
-1.026922e+00 9.824484e-01 -3.855069e+00 1.202500e+00 -1.658783e-04 1.896373e-02 -1.252817e-01 1.252709e-01
-1.028433e+00 9.827559e-01 -3.865344e+00 1.205605e+00 -1.668349e-04 1.889443e-02 -1.256608e-01 1.255074e-01
-1.028505e+00 9.821066e-01 -3.866634e+00 1.210000e+00 -1.589383e-04 1.881786e-02 -1.257620e-01 1.256932e-01
-1.027574e+00 9.810363e-01 -3.864377e+00 1.213461e+00 -1.451809e-04 1.874245e-02 -1.259320e-01 1.257778e-01
-1.026018e+00 9.798902e-01 -3.848303e+00 1.219270e+00 -1.253133e-04 1.868022e-02 -1.260748e-01 1.259252e-01
-1.023818e+00 9.785543e-01 -3.832215e+00 1.230638e+00 -1.012264e-04 1.862477e-02 -1.261415e-01 1.260942e-01
-1.021303e+00 9.773669e-01 -3.813797e+00 1.235350e+00 -7.594615e-05 1.857511e-02 -1.261636e-01 1.261659e-01
-1.018778e+00 9.765342e-01 -3.794760e+00 1.253847e+00 -5.048359e-05 1.853960e-02 -1.262022e-01 1.262071e-01
-1.016619e+00 9.763099e-01 -3.777058e+00 1.261512e+00 -2.687101e-05 1.851982e-02 -1.262094e-01 1.262185e-01
-1.014708e+00 9.765399e-01 -3.768776e+00 1.280630e+00 -5.317497e-06 1.851082e-02 -1.262159e-01 1.262277e-01
-1.012927e+00 9.769690e-01 -3.748354e+00 1.300520e+00 1.329261e-05 1.850865e-02 -1.262243e-01 1.262274e-01
-1.011702e+00 9.780778e-01 -3.740222e+00 1.322264e+00 2.734453e-05 1.851737e-02 -1.262260e-01 1.262188e-01
-1.011125e+00 9.799268e-01 -3.736176e+00 1.361682e+00 3.712751e-05 1.853575e-02 -1.262267e-01 1.262166e-01
-1.010808e+00 9.818716e-01 -3.735993e+00 1.375384e+00 4.311036e-05 1.855936e-02 -1.262277e-01 1.262238e-01
-1.010799e+00 9.840546e-01 -3.738602e+00 1.416347e+00 4.526926e-05 1.858721e-02 -1.262285e-01 1.262281e-01
-1.011493e+00 9.869504e-01 -3.745777e+00 1.448487e+00 4.274504e-05 1.862593e-02 -1.262285e-01 1.262280e-01
-1.012369e+00 9.899820e-01 -3.763816e+00 1.477663e+00 3.776247e-05 1.866575e-02 -1.262275e-01 1.262284e-01
-1.012388e+00 9.919286e-01 -3.776528e+00 1.502076e+00 3.261855e-05 1.869283e-02 -1.262261e-01 1.262285e-01
-1.012645e+00 9.940040e-01 -3.784740e+00 1.530937e+00 2.344166e-05 1.871951e-02 -1.262164e-01 1.262277e-01
-1.013298e+00 9.965649e-01 -3.802326e+00 1.558310e+00 1.391306e-05 1.875476e-02 -1.262078e-01 1.262275e-01
-1.013410e+00 9.985408e-01 -3.819825e+00 1.571072e+00 4.936016e-06 1.878594e-02 -1.261829e-01 1.262284e-01
-1.013472e+00 1.000569e+00 -3.836710e+00 1.596176e+00 -4.373683e-06 1.881772e-02 -1.261642e-01 1.262284e-01
-1.013175e+00 1.002184e+00 -3.861041e+00 1.621626e+00 -1.185814e-05 1.884502e-02 -1.261473e-01 1.262270e-01
-1.012582e+00 1.003501e+00 -3.876532e+00 1.642965e+00 -1.862856e-05 1.887299e-02 -1.261729e-01 1.262271e-01
-1.011623e+00 1.004474e+00 -3.881725e+00 1.676440e+00 -2.313618e-05 1.889553e-02 -1.261964e-01 1.262259e-01
-1.008993e+00 1.003786e+00 -3.893930e+00 1.684283e+00 -2.170223e-05 1.890416e-02 -1.262219e-01 1.262282e-01
-1.005977e+00 1.002669e+00 -3.900471e+00 1.704447e+00 -2.027358e-05 1.890832e-02 -1.262285e-01 1.262285e-01
-1.003063e+00 1.001838e+00 -3.904878e+00 1.712362e+00 -1.637171e-05 1.891665e-02 -1.262227e-01 1.262265e-01
-1.000413e+00 1.001434e+00 -3.911423e+00 1.735377e+00 -1.310137e-05 1.892970e-02 -1.262122e-01 1.262257e-01
-9.981517e-01 1.001430e+00 -3.917029e+00 1.743831e+00 -9.673558e-06 1.895081e-02 -1.262110e-01 1.262245e-01
-9.959383e-01 1.001613e+00 -3.920075e+00 1.760997e+00 -5.533852e-06 1.897275e-02 -1.262203e-01 1.262218e-01
-9.934603e-01 1.001638e+00 -3.926704e+00 1.784497e+00 -1.606591e-07 1.899519e-02 -1.262283e-01 1.262183e-01
-9.910146e-01 1.001670e+00 -3.930758e+00 1.793957e+00 4.460222e-06 1.901687e-02 -1.262277e-01 1.262188e-01
-9.896939e-01 1.002781e+00 -3.943768e+00 1.829176e+00 4.975091e-06 1.904840e-02 -1.262272e-01 1.262206e-01
-9.884015e-01 1.003891e+00 -3.948830e+00 1.841699e+00 6.301621e-06 1.908188e-02 -1.262266e-01 1.262217e-01
-9.871946e-01 1.005132e+00 -3.964909e+00 1.878077e+00 5.064269e-06 1.911816e-02 -1.262267e-01 1.262221e-01
-9.860117e-01 1.006349e+00 -3.975188e+00 1.889988e+00 3.817154e-06 1.915365e-02 -1.262278e-01 1.262256e-01
-9.845189e-01 1.007200e+00 -3.981140e+00 1.911832e+00 2.261912e-06 1.918623e-02 -1.262284e-01 1.262272e-01
-9.829117e-01 1.008010e+00 -3.999864e+00 1.934507e+00 7.971822e-07 1.922037e-02 -1.262279e-01 1.262278e-01
-9.809767e-01 1.008546e+00 -4.011769e+00 1.955315e+00 -5.617315e-07 1.925154e-02 -1.262262e-01 1.262283e-01
-9.783510e-01 1.008452e+00 -4.021440e+00 1.975327e+00 6.382573e-07 1.927972e-02 -1.262229e-01 1.262284e-01
-9.752993e-01 1.007920e+00 -4.026719e+00 1.991961e+00 2.804225e-06 1.930593e-02 -1.262268e-01 1.262280e-01
-9.718400e-01 1.007172e+00 -4.036936e+00 2.013710e+00 7.657080e-06 1.933130e-02 -1.262174e-01 1.262267e-01
-9.693179e-01 1.007212e+00 -4.050711e+00 2.035001e+00 7.156826e-06 1.935804e-02 -1.262078e-01 1.262280e-01
-9.683137e-01 1.008502e+00 -4.056506e+00 2.044431e+00 2.141102e-06 1.940127e-02 -1.261993e-01 1.262282e-01
-9.665537e-01 1.009303e+00 -4.071390e+00 2.075187e+00 6.096358e-07 1.943323e-02 -1.261963e-01 1.262282e-01
-9.634932e-01 1.008896e+00 -4.080907e+00 2.102231e+00 4.841617e-06 1.946140e-02 -1.262055e-01 1.262281e-01
-9.605601e-01 1.008682e+00 -4.086388e+00 2.125254e+00 7.529475e-06 1.949225e-02 -1.262232e-01 1.262284e-01
-9.587234e-01 1.009405e+00 -4.096199e+00 2.152345e+00 5.822896e-06 1.953059e-02 -1.262284e-01 1.262277e-01
-9.568239e-01 1.010167e+00 -4.108856e+00 2.181153e+00 5.017094e-06 1.956315e-02 -1.262264e-01 1.262273e-01
-9.548768e-01 1.010897e+00 -4.117951e+00 2.207877e+00 3.585406e-06 1.959676e-02 -1.262237e-01 1.262253e-01
-9.524067e-01 1.011140e+00 -4.128971e+00 2.235909e+00 5.904033e-06 1.963226e-02 -1.262174e-01 1.262266e-01
-9.496913e-01 1.011259e+00 -4.133794e+00 2.258716e+00 7.628827e-06 1.966852e-02 -1.262218e-01 1.262260e-01
-9.479091e-01 1.012155e+00 -4.143075e+00 2.284763e+00 4.702953e-06 1.970342e-02 -1.262214e-01 1.262220e-01
-9.460480e-01 1.013110e+00 -4.160045e+00 2.327932e+00 2.203971e-06 1.974531e-02 -1.262245e-01 1.262188e-01
-9.434147e-01 1.013448e+00 -4.164511e+00 2.351215e+00 3.561422e-06 1.977563e-02 -1.262269e-01 1.262194e-01
-9.409194e-01 1.013804e+00 -4.167918e+00 2.362793e+00 3.036351e-06 1.981006e-02 -1.262284e-01 1.262196e-01
-9.383126e-01 1.014122e+00 -4.181789e+00 2.399599e+00 4.378475e-06 1.984667e-02 -1.262284e-01 1.262257e-01
-9.336698e-01 1.012946e+00 -4.176537e+00 2.412420e+00 1.823403e-05 1.988490e-02 -1.262188e-01 1.262263e-01
-9.292879e-01 1.012222e+00 -4.180929e+00 2.424409e+00 2.765635e-05 1.990853e-02 -1.262169e-01 1.262279e-01
-9.268825e-01 1.012841e+00 -4.194600e+00 2.459641e+00 2.765988e-05 1.994749e-02 -1.262088e-01 1.262282e-01
-9.240521e-01 1.013176e+00 -4.201633e+00 2.473362e+00 3.203782e-05 1.998865e-02 -1.262263e-01 1.262279e-01
-9.217144e-01 1.013838e+00 -4.207792e+00 2.502892e+00 3.082102e-05 2.002031e-02 -1.262275e-01 1.262270e-01
-9.214593e-01 1.015905e+00 -4.228608e+00 2.536014e+00 1.752857e-05 2.006118e-02 -1.262263e-01 1.262207e-01
-9.221836e-01 1.018824e+00 -4.249991e+00 2.568529e+00 -2.406163e-06 2.010784e-02 -1.262252e-01 1.262141e-01
-9.208466e-01 1.020235e+00 -4.256411e+00 2.581397e+00 -8.514855e-06 2.014497e-02 -1.262217e-01 1.262147e-01
-9.177799e-01 1.020491e+00 -4.257764e+00 2.598117e+00 -4.660186e-06 2.018220e-02 -1.262283e-01 1.262093e-01
-9.150709e-01 1.021233e+00 -4.259885e+00 2.616470e+00 -3.539864e-06 2.021826e-02 -1.262283e-01 1.262126e-01
-9.119941e-01 1.021465e+00 -4.265261e+00 2.636429e+00 1.351200e-06 2.025368e-02 -1.262273e-01 1.262128e-01
-9.079825e-01 1.021387e+00 -4.263455e+00 2.650928e+00 1.270807e-05 2.028804e-02 -1.262042e-01 1.262210e-01
-9.052003e-01 1.022080e+00 -4.272151e+00 2.680071e+00 1.502773e-05 2.032589e-02 -1.261971e-01 1.262261e-01
-9.017297e-01 1.022336e+00 -4.274395e+00 2.688793e+00 2.504153e-05 2.036638e-02 -1.261718e-01 1.262270e-01
-8.977503e-01 1.022270e+00 -4.269462e+00 2.700073e+00 3.664277e-05 2.039943e-02 -1.262026e-01 1.262281e-01
-8.963569e-01 1.023688e+00 -4.274599e+00 2.716248e+00 3.011608e-05 2.043674e-02 -1.262084e-01 1.262272e-01
-8.968545e-01 1.026383e+00 -4.308072e+00 2.755976e+00 1.023667e-05 2.048085e-02 -1.262062e-01 1.262276e-01
-8.978880e-01 1.029062e+00 -4.332293e+00 2.782415e+00 -1.408759e-05 2.052119e-02 -1.262238e-01 1.262257e-01
-8.978505e-01 1.031301e+00 -4.345953e+00 2.802687e+00 -3.035158e-05 2.055720e-02 -1.262278e-01 1.262252e-01
-8.941978e-01 1.031326e+00 -4.343135e+00 2.806706e+00 -1.735533e-05 2.059720e-02 -1.262257e-01 1.262272e-01
-8.877180e-01 1.030007e+00 -4.329587e+00 2.808216e+00 2.005189e-05 2.063721e-02 -1.262278e-01 1.262058e-01
-8.830757e-01 1.029682e+00 -4.315043e+00 2.809901e+00 4.127321e-05 2.066296e-02 -1.262285e-01 1.262187e-01
-8.806211e-01 1.030623e+00 -4.319535e+00 2.825769e+00 4.727050e-05 2.070332e-02 -1.262255e-01 1.262273e-01
-8.805868e-01 1.032578e+00 -4.345688e+00 2.849053e+00 3.291058e-05 2.074343e-02 -1.262254e-01 1.262138e-01
-8.813254e-01 1.035109e+00 -4.352802e+00 2.857181e+00 1.178467e-05 2.077812e-02 -1.262284e-01 1.261936e-01
-8.805023e-01 1.036723e+00 -4.366750e+00 2.873413e+00 4.493581e-06 2.081671e-02 -1.262284e-01 1.261925e-01
-8.786742e-01 1.038020e+00 -4.375606e+00 2.889406e+00 6.280471e-06 2.085572e-02 -1.262271e-01 1.262088e-01
-8.761112e-01 1.039011e+00 -4.377664e+00 2.897028e+00 1.431453e-05 2.089755e-02 -1.262273e-01 1.262084e-01
-8.737581e-01 1.039980e+00 -4.377076e+00 2.905481e+00 2.159096e-05 2.093436e-02 -1.262244e-01 1.262169e-01
-8.723252e-01 1.041576e+00 -4.385872e+00 2.912979e+00 1.924467e-05 2.096979e-02 -1.262244e-01 1.262213e-01
-8.716131e-01 1.043228e+00 -4.403756e+00 2.930416e+00 1.217017e-05 2.100925e-02 -1.262277e-01 1.262211e-01
-8.705919e-01 1.044851e+00 -4.412077e+00 2.940705e+00 8.623104e-06 2.104814e-02 -1.262285e-01 1.262254e-01
-8.702948e-01 1.046651e+00 -4.421189e+00 2.947235e+00 -1.894050e-06 2.108511e-02 -1.262241e-01 1.262234e-01
-8.697869e-01 1.048351e+00 -4.438600e+00 2.960216e+00 -9.367713e-06 2.112348e-02 -1.262235e-01 1.262202e-01
-8.684505e-01 1.049778e+00 -4.448889e+00 2.967404e+00 -8.727346e-06 2.115830e-02 -1.262172e-01 1.262255e-01
-8.678154e-01 1.051384e+00 -4.453262e+00 2.970877e+00 -1.506147e-05 2.120360e-02 -1.262200e-01 1.262238e-01
-8.669457e-01 1.052988e+00 -4.467578e+00 2.980502e+00 -1.897485e-05 2.123473e-02 -1.262178e-01 1.262253e-01
-8.657318e-01 1.054396e+00 -4.472318e+00 2.982871e+00 -1.862944e-05 2.127690e-02 -1.262132e-01 1.262274e-01
-8.632948e-01 1.055323e+00 -4.475783e+00 2.985141e+00 -4.752412e-06 2.131410e-02 -1.262088e-01 1.262278e-01
-8.597654e-01 1.055899e+00 -4.473679e+00 2.984774e+00 2.191586e-05 2.135525e-02 -1.262264e-01 1.262178e-01
-8.579350e-01 1.057186e+00 -4.483028e+00 3.016317e+00 3.034189e-05 2.139473e-02 -1.262282e-01 1.262141e-01
-8.561780e-01 1.058401e+00 -4.485729e+00 3.030072e+00 3.943923e-05 2.143667e-02 -1.262283e-01 1.262015e-01
-8.566415e-01 1.060371e+00 -4.505768e+00 3.061675e+00 2.266271e-05 2.148080e-02 -1.262228e-01 1.262241e-01
-8.587591e-01 1.062893e+00 -4.512266e+00 3.072720e+00 -1.148815e-05 2.150499e-02 -1.262273e-01 1.262281e-01
-8.581496e-01 1.064341e+00 -4.528381e+00 3.093612e+00 -1.440931e-05 2.153896e-02 -1.262257e-01 1.262281e-01
-8.564054e-01 1.065638e+00 -4.527095e+00 3.137568e+00 -6.461647e-06 2.157750e-02 -1.262145e-01 1.262256e-01
-8.550340e-01 1.067033e+00 -4.526677e+00 3.164756e+00 -1.048834e-06 2.161188e-02 -1.262279e-01 1.262221e-01
-8.529548e-01 1.067969e+00 -4.531383e+00 3.199217e+00 1.530827e-05 2.165835e-02 -1.262285e-01 1.262213e-01
-8.499853e-01 1.068565e+00 -4.531244e+00 3.210723e+00 4.246436e-05 2.170168e-02 -1.262260e-01 1.262069e-01
-8.491959e-01 1.069963e+00 -4.536494e+00 3.242684e+00 4.337271e-05 2.173032e-02 -1.262199e-01 1.261955e-01
-8.503967e-01 1.071830e+00 -4.550647e+00 3.272093e+00 2.207497e-05 2.176246e-02 -1.262051e-01 1.262052e-01
-8.525365e-01 1.074088e+00 -4.567631e+00 3.276855e+00 -1.122593e-05 2.179273e-02 -1.261860e-01 1.262245e-01
-8.544703e-01 1.076154e+00 -4.597729e+00 3.289513e+00 -4.125837e-05 2.182239e-02 -1.262157e-01 1.262281e-01
-8.550263e-01 1.077850e+00 -4.606087e+00 3.310027e+00 -5.425195e-05 2.185661e-02 -1.262270e-01 1.262284e-01
-8.545520e-01 1.079326e+00 -4.618780e+00 3.345985e+00 -5.564281e-05 2.189091e-02 -1.262283e-01 1.262285e-01
-8.518041e-01 1.080391e+00 -4.618646e+00 3.361147e+00 -2.810029e-05 2.193413e-02 -1.262279e-01 1.262272e-01
-8.478005e-01 1.080937e+00 -4.607827e+00 3.399463e+00 1.386260e-05 2.198079e-02 -1.262285e-01 1.262280e-01
-8.454946e-01 1.081922e+00 -4.601917e+00 3.434576e+00 3.455523e-05 2.201842e-02 -1.262283e-01 1.262265e-01
-8.453208e-01 1.083541e+00 -4.612379e+00 3.469632e+00 3.050491e-05 2.205027e-02 -1.262283e-01 1.262216e-01
-8.471768e-01 1.085368e+00 -4.620740e+00 3.477663e+00 1.351712e-06 2.208417e-02 -1.262277e-01 1.262278e-01
-8.494786e-01 1.087432e+00 -4.658702e+00 3.493863e+00 -3.345142e-05 2.210977e-02 -1.262196e-01 1.262285e-01
-8.491517e-01 1.088923e+00 -4.661874e+00 3.521498e+00 -3.567688e-05 2.214103e-02 -1.262218e-01 1.262284e-01
-8.470212e-01 1.089846e+00 -4.661329e+00 3.534150e+00 -1.592672e-05 2.218106e-02 -1.262279e-01 1.262285e-01
-8.457019e-01 1.091216e+00 -4.658709e+00 3.572741e+00 -6.471911e-06 2.221465e-02 -1.262285e-01 1.262285e-01
-8.452748e-01 1.092668e+00 -4.670991e+00 3.593897e+00 -8.107260e-06 2.225040e-02 -1.262284e-01 1.262276e-01
-8.447856e-01 1.094017e+00 -4.676572e+00 3.617368e+00 -8.296270e-06 2.228552e-02 -1.262283e-01 1.262252e-01
-8.448779e-01 1.095365e+00 -4.689151e+00 3.633732e+00 -1.535511e-05 2.232308e-02 -1.262272e-01 1.262274e-01
-8.448411e-01 1.096841e+00 -4.694582e+00 3.647833e+00 -2.202148e-05 2.235183e-02 -1.262282e-01 1.262254e-01
-8.437043e-01 1.098057e+00 -4.692986e+00 3.671403e+00 -1.341920e-05 2.238611e-02 -1.262261e-01 1.262284e-01
-8.423631e-01 1.099364e+00 -4.695234e+00 3.705934e+00 -2.276710e-06 2.242326e-02 -1.262217e-01 1.262281e-01
-8.430748e-01 1.101044e+00 -4.702072e+00 3.716124e+00 -1.758342e-05 2.246729e-02 -1.262152e-01 1.262283e-01
-8.431284e-01 1.102540e+00 -4.724588e+00 3.731943e+00 -2.603841e-05 2.248335e-02 -1.262228e-01 1.262279e-01
-8.412529e-01 1.103605e+00 -4.720760e+00 3.757518e+00 -7.569534e-06 2.251972e-02 -1.262124e-01 1.262283e-01
-8.397218e-01 1.104646e+00 -4.730927e+00 3.791293e+00 8.218378e-06 2.255494e-02 -1.262036e-01 1.262244e-01
-8.392509e-01 1.105791e+00 -4.738964e+00 3.805828e+00 9.496417e-06 2.259150e-02 -1.262044e-01 1.262182e-01
-8.372649e-01 1.106706e+00 -4.729396e+00 3.823182e+00 3.207241e-05 2.263284e-02 -1.261975e-01 1.262202e-01
-8.350204e-01 1.107670e+00 -4.734067e+00 3.854476e+00 5.916517e-05 2.266319e-02 -1.261959e-01 1.262005e-01
-8.376444e-01 1.109718e+00 -4.768672e+00 3.872996e+00 1.665110e-05 2.270068e-02 -1.262055e-01 1.262011e-01
-8.416177e-01 1.111859e+00 -4.790552e+00 3.867838e+00 -4.650201e-05 2.270771e-02 -1.266327e-01 1.262273e-01
-8.418734e-01 1.113029e+00 -4.793810e+00 3.891657e+00 -5.456458e-05 2.273549e-02 -1.270294e-01 1.262278e-01
-8.397715e-01 1.113931e+00 -4.794247e+00 3.919137e+00 -2.806833e-05 2.277288e-02 -1.274930e-01 1.262268e-01
-8.369953e-01 1.114858e+00 -4.794635e+00 3.931170e+00 8.577115e-06 2.280997e-02 -1.276370e-01 1.262222e-01
-8.350015e-01 1.115931e+00 -4.789806e+00 3.970181e+00 3.226006e-05 2.284105e-02 -1.280073e-01 1.262218e-01
-8.358788e-01 1.117368e+00 -4.794974e+00 3.976735e+00 1.272083e-05 2.287036e-02 -1.281805e-01 1.262285e-01
-8.384976e-01 1.119167e+00 -4.817907e+00 3.980768e+00 -3.410481e-05 2.289378e-02 -1.285508e-01 1.262284e-01
-8.399574e-01 1.120934e+00 -4.848712e+00 3.995001e+00 -6.093575e-05 2.291577e-02 -1.288497e-01 1.262237e-01
-8.400645e-01 1.122266e+00 -4.859494e+00 4.008285e+00 -6.817851e-05 2.294894e-02 -1.291500e-01 1.262278e-01
-8.364698e-01 1.122795e+00 -4.840289e+00 4.026567e+00 -1.871641e-05 2.299488e-02 -1.294209e-01 1.262282e-01
-8.318344e-01 1.123555e+00 -4.836152e+00 4.068244e+00 4.765102e-05 2.302710e-02 -1.296565e-01 1.262175e-01
-8.297253e-01 1.124604e+00 -4.838700e+00 4.107956e+00 7.582271e-05 2.306241e-02 -1.300311e-01 1.262060e-01
-8.300995e-01 1.126121e+00 -4.855363e+00 4.116104e+00 6.388868e-05 2.309171e-02 -1.303040e-01 1.262203e-01
-8.329154e-01 1.127649e+00 -4.882970e+00 4.116635e+00 1.388424e-05 2.311289e-02 -1.304402e-01 1.262272e-01
-8.357062e-01 1.129540e+00 -4.905343e+00 4.121804e+00 -3.628739e-05 2.312355e-02 -1.306696e-01 1.262284e-01
-8.388397e-01 1.131236e+00 -4.914377e+00 4.116627e+00 -9.048771e-05 2.316674e-02 -1.308580e-01 1.262285e-01
-8.395900e-01 1.132790e+00 -4.940308e+00 4.137770e+00 -1.074024e-04 2.316686e-02 -1.310632e-01 1.262281e-01
-8.344027e-01 1.133104e+00 -4.939037e+00 4.184436e+00 -2.813950e-05 2.323386e-02 -1.314494e-01 1.262282e-01
-8.294450e-01 1.133500e+00 -4.920808e+00 4.198372e+00 4.478839e-05 2.325228e-02 -1.315800e-01 1.262282e-01
-8.277371e-01 1.134494e+00 -4.924362e+00 4.221436e+00 6.796953e-05 2.328665e-02 -1.318043e-01 1.262285e-01
-8.287527e-01 1.136111e+00 -4.950030e+00 4.236478e+00 4.740296e-05 2.330765e-02 -1.321001e-01 1.262235e-01
-8.303214e-01 1.137549e+00 -4.960820e+00 4.248834e+00 1.845351e-05 2.332993e-02 -1.322566e-01 1.262283e-01
-8.327536e-01 1.139215e+00 -4.996559e+00 4.250798e+00 -2.501570e-05 2.335865e-02 -1.323081e-01 1.262187e-01
-8.345505e-01 1.140971e+00 -5.007735e+00 4.250486e+00 -5.851670e-05 2.337163e-02 -1.324453e-01 1.262137e-01
-8.332158e-01 1.142003e+00 -5.014407e+00 4.284498e+00 -3.869165e-05 2.340997e-02 -1.327191e-01 1.262223e-01
-8.313467e-01 1.142955e+00 -5.023931e+00 4.306530e+00 -8.719297e-06 2.343727e-02 -1.327950e-01 1.262262e-01
-8.307775e-01 1.144154e+00 -5.038316e+00 4.313683e+00 -2.919701e-06 2.346239e-02 -1.330730e-01 1.262254e-01
-8.301196e-01 1.145367e+00 -5.044289e+00 4.325169e+00 4.389232e-06 2.348993e-02 -1.332340e-01 1.262204e-01
-8.289111e-01 1.146508e+00 -5.050259e+00 4.343673e+00 1.880934e-05 2.351892e-02 -1.332743e-01 1.262262e-01
-8.279202e-01 1.147948e+00 -5.061090e+00 4.359931e+00 2.922163e-05 2.354848e-02 -1.333840e-01 1.262268e-01
-8.295644e-01 1.149580e+00 -5.070833e+00 4.375041e+00 -6.061901e-06 2.357210e-02 -1.334641e-01 1.262222e-01
-8.331622e-01 1.151581e+00 -5.118014e+00 4.366000e+00 -7.240494e-05 2.358428e-02 -1.333126e-01 1.262046e-01
-8.336364e-01 1.153153e+00 -5.123292e+00 4.385645e+00 -8.503771e-05 2.360087e-02 -1.333329e-01 1.261857e-01
-8.309363e-01 1.153909e+00 -5.128195e+00 4.397248e+00 -4.152130e-05 2.363207e-02 -1.336307e-01 1.261937e-01
-8.272856e-01 1.154750e+00 -5.129225e+00 4.424415e+00 1.459814e-05 2.367223e-02 -1.339830e-01 1.262226e-01
-8.254304e-01 1.155825e+00 -5.128438e+00 4.456353e+00 4.297925e-05 2.369692e-02 -1.340566e-01 1.262261e-01
-8.247220e-01 1.157046e+00 -5.143777e+00 4.462578e+00 5.180891e-05 2.372733e-02 -1.342121e-01 1.262268e-01
-8.248327e-01 1.158512e+00 -5.152825e+00 4.483406e+00 4.364376e-05 2.374700e-02 -1.341693e-01 1.262285e-01
-8.275180e-01 1.160294e+00 -5.192526e+00 4.483399e+00 -8.115890e-06 2.376958e-02 -1.344811e-01 1.262279e-01
-8.282451e-01 1.161569e+00 -5.199698e+00 4.479698e+00 -2.231272e-05 2.379663e-02 -1.346008e-01 1.262282e-01
-8.283500e-01 1.163085e+00 -5.222382e+00 4.501379e+00 -2.807791e-05 2.380822e-02 -1.347734e-01 1.262274e-01
-8.288598e-01 1.164638e+00 -5.233633e+00 4.506322e+00 -4.308540e-05 2.382837e-02 -1.350926e-01 1.262253e-01
-8.282580e-01 1.165974e+00 -5.245876e+00 4.529472e+00 -3.810703e-05 2.385258e-02 -1.352433e-01 1.262285e-01
-8.274638e-01 1.167275e+00 -5.253106e+00 4.545565e+00 -2.827930e-05 2.387769e-02 -1.354183e-01 1.262282e-01
-8.268076e-01 1.168541e+00 -5.264761e+00 4.558270e+00 -2.020365e-05 2.390221e-02 -1.355325e-01 1.262250e-01
-8.254589e-01 1.169710e+00 -5.279789e+00 4.581106e+00 1.669667e-06 2.392612e-02 -1.357100e-01 1.262284e-01
-8.233557e-01 1.171093e+00 -5.286315e+00 4.602373e+00 3.632670e-05 2.395304e-02 -1.357326e-01 1.262186e-01
-8.228939e-01 1.172544e+00 -5.295895e+00 4.605217e+00 3.951419e-05 2.397825e-02 -1.359823e-01 1.262701e-01
-8.231156e-01 1.174099e+00 -5.314714e+00 4.625914e+00 3.262357e-05 2.400191e-02 -1.361493e-01 1.263773e-01
-8.232507e-01 1.175340e+00 -5.332368e+00 4.623882e+00 2.739131e-05 2.402505e-02 -1.363326e-01 1.270878e-01
-8.260520e-01 1.177321e+00 -5.369354e+00 4.631327e+00 -2.711288e-05 2.403784e-02 -1.365560e-01 1.271076e-01
-8.315225e-01 1.179772e+00 -5.412060e+00 4.623728e+00 -1.273335e-04 2.406871e-02 -1.373077e-01 1.271784e-01
-8.325230e-01 1.181220e+00 -5.417846e+00 4.627069e+00 -1.515118e-04 2.406155e-02 -1.373445e-01 1.270869e-01
-8.263118e-01 1.181904e+00 -5.394842e+00 4.642228e+00 -3.758627e-05 2.411058e-02 -1.370512e-01 1.284358e-01
-8.200270e-01 1.182374e+00 -5.395526e+00 4.706925e+00 6.973141e-05 2.413282e-02 -1.369028e-01 1.287476e-01
-8.190747e-01 1.183796e+00 -5.397681e+00 4.711519e+00 8.415481e-05 2.415379e-02 -1.369676e-01 1.293094e-01
-8.192034e-01 1.185381e+00 -5.423320e+00 4.730508e+00 8.069341e-05 2.418164e-02 -1.371815e-01 1.299149e-01
-8.204352e-01 1.186848e+00 -5.449303e+00 4.727717e+00 5.356162e-05 2.418552e-02 -1.375530e-01 1.300137e-01
-8.246998e-01 1.188922e+00 -5.483639e+00 4.713965e+00 -2.691734e-05 2.420358e-02 -1.377438e-01 1.301547e-01
-8.277125e-01 1.190801e+00 -5.507389e+00 4.714708e+00 -8.671505e-05 2.420900e-02 -1.381586e-01 1.302443e-01
-8.276419e-01 1.192344e+00 -5.518302e+00 4.718298e+00 -8.796570e-05 2.423229e-02 -1.382875e-01 1.308464e-01
-8.268501e-01 1.193531e+00 -5.523989e+00 4.738539e+00 -7.536499e-05 2.425213e-02 -1.383383e-01 1.310837e-01
-8.240427e-01 1.194784e+00 -5.536898e+00 4.749330e+00 -2.461373e-05 2.428970e-02 -1.384370e-01 1.314939e-01
-8.212253e-01 1.195840e+00 -5.537408e+00 4.784771e+00 2.171308e-05 2.430277e-02 -1.383872e-01 1.320776e-01
-8.207510e-01 1.197275e+00 -5.551330e+00 4.792302e+00 2.974019e-05 2.432220e-02 -1.385157e-01 1.326572e-01
-8.202678e-01 1.198706e+00 -5.558966e+00 4.803054e+00 3.683127e-05 2.434104e-02 -1.385854e-01 1.331101e-01
-8.222452e-01 1.200455e+00 -5.597751e+00 4.814858e+00 -2.622372e-06 2.437989e-02 -1.389168e-01 1.333272e-01
-8.264157e-01 1.202491e+00 -5.630258e+00 4.806552e+00 -8.078685e-05 2.438151e-02 -1.392136e-01 1.335180e-01
-8.282712e-01 1.204299e+00 -5.647391e+00 4.799228e+00 -1.193849e-04 2.438982e-02 -1.392425e-01 1.337224e-01
-8.237050e-01 1.204810e+00 -5.645248e+00 4.849405e+00 -2.942803e-05 2.445044e-02 -1.391775e-01 1.341836e-01
-8.175875e-01 1.205507e+00 -5.624601e+00 4.861753e+00 8.645014e-05 2.445627e-02 -1.391601e-01 1.352473e-01
-8.153726e-01 1.206777e+00 -5.632230e+00 4.895823e+00 1.293971e-04 2.447556e-02 -1.391191e-01 1.354165e-01
-8.177080e-01 1.208393e+00 -5.662411e+00 4.893766e+00 8.463646e-05 2.448565e-02 -1.394877e-01 1.357891e-01
-8.214582e-01 1.210368e+00 -5.685136e+00 4.879135e+00 5.870840e-06 2.449084e-02 -1.396142e-01 1.360888e-01
-8.223825e-01 1.211799e+00 -5.698276e+00 4.891683e+00 -1.469075e-05 2.452132e-02 -1.397967e-01 1.364815e-01
-8.236557e-01 1.213574e+00 -5.710179e+00 4.885163e+00 -4.244206e-05 2.451825e-02 -1.399978e-01 1.366685e-01
-8.255769e-01 1.215302e+00 -5.733399e+00 4.885733e+00 -8.399865e-05 2.453443e-02 -1.400624e-01 1.367531e-01
-8.246835e-01 1.216732e+00 -5.745039e+00 4.904105e+00 -7.130038e-05 2.455511e-02 -1.400880e-01 1.370262e-01
-8.223053e-01 1.218027e+00 -5.747193e+00 4.909840e+00 -3.117811e-05 2.457358e-02 -1.401225e-01 1.374041e-01
-8.210043e-01 1.219366e+00 -5.751928e+00 4.928153e+00 -9.756556e-06 2.459156e-02 -1.401547e-01 1.379364e-01
-8.212536e-01 1.220751e+00 -5.772986e+00 4.938113e+00 -1.842001e-05 2.461305e-02 -1.402120e-01 1.381091e-01
-8.221653e-01 1.222522e+00 -5.790348e+00 4.942796e+00 -3.852071e-05 2.462597e-02 -1.403258e-01 1.383741e-01
-8.208479e-01 1.223724e+00 -5.792974e+00 4.948428e+00 -1.255619e-05 2.464263e-02 -1.404526e-01 1.390022e-01
-8.180457e-01 1.224928e+00 -5.793272e+00 4.982964e+00 4.076786e-05 2.466518e-02 -1.404230e-01 1.391867e-01
-8.166743e-01 1.226032e+00 -5.802590e+00 4.994986e+00 6.543326e-05 2.468429e-02 -1.404579e-01 1.395145e-01
-8.174725e-01 1.227753e+00 -5.822180e+00 4.995337e+00 4.698313e-05 2.469829e-02 -1.406093e-01 1.399671e-01
-8.205827e-01 1.229627e+00 -5.833805e+00 4.994278e+00 -1.433686e-05 2.470946e-02 -1.406912e-01 1.403047e-01
-8.225390e-01 1.231126e+00 -5.867540e+00 4.986442e+00 -5.331994e-05 2.472401e-02 -1.409066e-01 1.405898e-01
-8.225077e-01 1.232638e+00 -5.875153e+00 4.997600e+00 -5.781379e-05 2.474020e-02 -1.409720e-01 1.407592e-01
-8.210013e-01 1.233628e+00 -5.880487e+00 5.003324e+00 -3.122648e-05 2.476487e-02 -1.410180e-01 1.410176e-01
-8.207996e-01 1.235373e+00 -5.907285e+00 5.018867e+00 -2.441919e-05 2.477389e-02 -1.411820e-01 1.414071e-01
-8.199886e-01 1.236336e+00 -5.911323e+00 5.044059e+00 -1.418311e-06 2.479644e-02 -1.412222e-01 1.421456e-01
-8.205160e-01 1.237747e+00 -5.932616e+00 5.031600e+00 -1.391543e-05 2.483466e-02 -1.412673e-01 1.423115e-01
-8.209492e-01 1.239386e+00 -5.936289e+00 5.052136e+00 -2.557789e-05 2.482538e-02 -1.413865e-01 1.427186e-01
-8.196015e-01 1.240656e+00 -5.937710e+00 5.059088e+00 1.477291e-07 2.484449e-02 -1.414826e-01 1.430718e-01
-8.182854e-01 1.241857e+00 -5.949254e+00 5.067184e+00 2.670309e-05 2.486662e-02 -1.415279e-01 1.432331e-01
-8.169174e-01 1.243139e+00 -5.955347e+00 5.084564e+00 5.754719e-05 2.488447e-02 -1.417136e-01 1.438036e-01
-8.184805e-01 1.244622e+00 -5.969444e+00 5.085860e+00 2.687973e-05 2.490329e-02 -1.417900e-01 1.441142e-01
-8.210314e-01 1.246569e+00 -5.994147e+00 5.085351e+00 -2.896452e-05 2.490976e-02 -1.418186e-01 1.442420e-01
-8.227490e-01 1.248430e+00 -6.021686e+00 5.080783e+00 -6.741085e-05 2.491948e-02 -1.425136e-01 1.446153e-01
-8.233910e-01 1.250002e+00 -6.028928e+00 5.085069e+00 -8.709816e-05 2.493388e-02 -1.425218e-01 1.447568e-01
-8.215889e-01 1.251109e+00 -6.029633e+00 5.094526e+00 -5.555934e-05 2.494390e-02 -1.423733e-01 1.449406e-01
-8.175630e-01 1.251835e+00 -6.028243e+00 5.116271e+00 2.897897e-05 2.498829e-02 -1.421478e-01 1.455182e-01
-8.156836e-01 1.253152e+00 -6.031390e+00 5.144979e+00 6.867981e-05 2.498943e-02 -1.421963e-01 1.457617e-01
-8.157607e-01 1.254570e+00 -6.038057e+00 5.146326e+00 6.585414e-05 2.500057e-02 -1.423179e-01 1.460695e-01
-8.178376e-01 1.256544e+00 -6.065088e+00 5.143485e+00 2.453320e-05 2.501597e-02 -1.424564e-01 1.464117e-01
-8.197986e-01 1.257671e+00 -6.074213e+00 5.149600e+00 -1.657863e-05 2.502324e-02 -1.427508e-01 1.465478e-01
-8.201679e-01 1.259080e+00 -6.082347e+00 5.149081e+00 -2.758153e-05 2.503730e-02 -1.430422e-01 1.467840e-01
-8.209200e-01 1.260638e+00 -6.093216e+00 5.152852e+00 -4.666704e-05 2.504962e-02 -1.434464e-01 1.470392e-01
-8.203828e-01 1.262037e+00 -6.104267e+00 5.156327e+00 -3.752978e-05 2.506939e-02 -1.434467e-01 1.473666e-01
-8.195585e-01 1.263197e+00 -6.119182e+00 5.176559e+00 -1.717288e-05 2.508860e-02 -1.434296e-01 1.476325e-01
-8.198810e-01 1.264482e+00 -6.123095e+00 5.181022e+00 -2.088546e-05 2.510238e-02 -1.437208e-01 1.482146e-01
-8.200707e-01 1.265891e+00 -6.145698e+00 5.185545e+00 -2.190557e-05 2.511579e-02 -1.437243e-01 1.483454e-01
-8.202338e-01 1.267261e+00 -6.147633e+00 5.190959e+00 -2.573245e-05 2.513313e-02 -1.441313e-01 1.487976e-01
-8.189812e-01 1.268479e+00 -6.156818e+00 5.198082e+00 -1.656558e-06 2.514844e-02 -1.434981e-01 1.490547e-01
-8.166376e-01 1.269514e+00 -6.159494e+00 5.217700e+00 5.087310e-05 2.516256e-02 -1.431905e-01 1.492958e-01
-8.167069e-01 1.270854e+00 -6.164213e+00 5.231686e+00 4.869559e-05 2.517326e-02 -1.432192e-01 1.494262e-01
-8.179918e-01 1.272305e+00 -6.180854e+00 5.226947e+00 1.749072e-05 2.518393e-02 -1.440731e-01 1.498301e-01
-8.187979e-01 1.273808e+00 -6.188005e+00 5.231017e+00 -3.923040e-06 2.519579e-02 -1.443980e-01 1.499751e-01
-8.198823e-01 1.275232e+00 -6.200123e+00 5.229901e+00 -2.874890e-05 2.520718e-02 -1.447921e-01 1.504313e-01
-8.208104e-01 1.276593e+00 -6.212798e+00 5.230667e+00 -4.750010e-05 2.522171e-02 -1.452993e-01 1.507324e-01
-8.203680e-01 1.277944e+00 -6.223688e+00 5.235200e+00 -4.185496e-05 2.523326e-02 -1.453894e-01 1.509374e-01
-8.188888e-01 1.279125e+00 -6.221658e+00 5.254064e+00 -1.619824e-05 2.525249e-02 -1.453153e-01 1.511129e-01
-8.193237e-01 1.280512e+00 -6.237855e+00 5.247735e+00 -2.930752e-05 2.527396e-02 -1.451996e-01 1.514283e-01
-8.197829e-01 1.281795e+00 -6.240953e+00 5.258625e+00 -4.100244e-05 2.527445e-02 -1.459402e-01 1.516703e-01
-8.175730e-01 1.282802e+00 -6.241926e+00 5.266647e+00 8.623229e-06 2.529767e-02 -1.450731e-01 1.519323e-01
-8.164832e-01 1.283846e+00 -6.243318e+00 5.285446e+00 3.541611e-05 2.530678e-02 -1.453261e-01 1.521853e-01
-8.180449e-01 1.285078e+00 -6.271151e+00 5.289270e+00 7.966111e-06 2.532689e-02 -1.453448e-01 1.524180e-01
-8.196720e-01 1.286715e+00 -6.274118e+00 5.279995e+00 -2.990366e-05 2.533816e-02 -1.459323e-01 1.528025e-01
-8.177959e-01 1.287648e+00 -6.281554e+00 5.285998e+00 6.836245e-06 2.536271e-02 -1.455860e-01 1.530912e-01
-8.164647e-01 1.288848e+00 -6.284220e+00 5.308139e+00 3.617464e-05 2.536011e-02 -1.458676e-01 1.532994e-01
-8.174876e-01 1.290058e+00 -6.289398e+00 5.309918e+00 1.694142e-05 2.537446e-02 -1.461932e-01 1.535816e-01
-8.178882e-01 1.291301e+00 -6.301950e+00 5.316072e+00 8.283771e-06 2.538809e-02 -1.463461e-01 1.539878e-01
-8.199829e-01 1.292931e+00 -6.308236e+00 5.302330e+00 -3.470160e-05 2.540712e-02 -1.474142e-01 1.540925e-01
-8.218369e-01 1.294118e+00 -6.333718e+00 5.306650e+00 -7.104301e-05 2.540964e-02 -1.476628e-01 1.543081e-01
-8.219757e-01 1.295232e+00 -6.343416e+00 5.311662e+00 -6.898843e-05 2.542624e-02 -1.477744e-01 1.547543e-01
-8.199146e-01 1.296206e+00 -6.341889e+00 5.321680e+00 -2.036406e-05 2.544991e-02 -1.474570e-01 1.553287e-01
-8.173194e-01 1.296926e+00 -6.336367e+00 5.345413e+00 3.703538e-05 2.545264e-02 -1.465600e-01 1.556625e-01
-8.163522e-01 1.297903e+00 -6.339914e+00 5.354983e+00 5.854757e-05 2.547063e-02 -1.464521e-01 1.561300e-01
-8.152305e-01 1.298943e+00 -6.340882e+00 5.374803e+00 8.203177e-05 2.549089e-02 -1.465201e-01 1.564466e-01
-8.169718e-01 1.300161e+00 -6.348372e+00 5.359160e+00 4.822343e-05 2.549842e-02 -1.466063e-01 1.568295e-01
-8.215498e-01 1.301976e+00 -6.389459e+00 5.340402e+00 -5.147769e-05 2.551147e-02 -1.486407e-01 1.565562e-01
-8.241149e-01 1.303359e+00 -6.393401e+00 5.341151e+00 -1.067767e-04 2.551451e-02 -1.490492e-01 1.565771e-01
-8.223870e-01 1.304270e+00 -6.401247e+00 5.345892e+00 -6.841170e-05 2.553291e-02 -1.489365e-01 1.571510e-01
-8.181161e-01 1.305121e+00 -6.393072e+00 5.388326e+00 2.223172e-05 2.554690e-02 -1.480716e-01 1.574030e-01
-8.159066e-01 1.305915e+00 -6.381502e+00 5.392271e+00 6.504741e-05 2.555431e-02 -1.485937e-01 1.581652e-01
-8.173702e-01 1.307212e+00 -6.400101e+00 5.386138e+00 3.198202e-05 2.557190e-02 -1.490513e-01 1.582315e-01
-8.190131e-01 1.308484e+00 -6.407479e+00 5.389218e+00 -1.834971e-06 2.557483e-02 -1.492160e-01 1.580908e-01
-8.176594e-01 1.309388e+00 -6.411791e+00 5.389093e+00 2.969238e-05 2.560465e-02 -1.495589e-01 1.588967e-01
-8.175058e-01 1.310373e+00 -6.407021e+00 5.403365e+00 3.153324e-05 2.560187e-02 -1.500429e-01 1.588737e-01
-8.183030e-01 1.311505e+00 -6.423153e+00 5.399359e+00 1.373013e-05 2.561920e-02 -1.502035e-01 1.589456e-01
-8.195486e-01 1.312856e+00 -6.429842e+00 5.398341e+00 -2.119576e-05 2.562607e-02 -1.506376e-01 1.589377e-01
-8.205923e-01 1.313796e+00 -6.436438e+00 5.395639e+00 -4.407088e-05 2.564464e-02 -1.511324e-01 1.594034e-01
-8.211985e-01 1.314997e+00 -6.441070e+00 5.401130e+00 -5.453856e-05 2.564841e-02 -1.514368e-01 1.594288e-01
-8.218774e-01 1.316007e+00 -6.451863e+00 5.407914e+00 -6.612710e-05 2.566009e-02 -1.516020e-01 1.597814e-01
-8.227348e-01 1.317200e+00 -6.458468e+00 5.412861e+00 -8.117241e-05 2.568448e-02 -1.518376e-01 1.598223e-01
-8.229026e-01 1.318140e+00 -6.474276e+00 5.413202e+00 -7.970354e-05 2.568109e-02 -1.521385e-01 1.603444e-01
-8.202263e-01 1.318801e+00 -6.468540e+00 5.436663e+00 -1.640003e-05 2.569049e-02 -1.526474e-01 1.610895e-01
-8.167969e-01 1.319275e+00 -6.453477e+00 5.447545e+00 5.855634e-05 2.570875e-02 -1.528912e-01 1.613947e-01
-8.159643e-01 1.320401e+00 -6.458165e+00 5.463033e+00 7.204839e-05 2.571746e-02 -1.535190e-01 1.616280e-01
-8.168958e-01 1.321325e+00 -6.459467e+00 5.458670e+00 5.057411e-05 2.572787e-02 -1.536898e-01 1.617728e-01
-8.180550e-01 1.322408e+00 -6.472535e+00 5.454428e+00 2.480470e-05 2.573554e-02 -1.541135e-01 1.618460e-01
-8.210517e-01 1.323623e+00 -6.476129e+00 5.454413e+00 -3.971359e-05 2.577938e-02 -1.542690e-01 1.614702e-01
-8.220944e-01 1.324716e+00 -6.491958e+00 5.439854e+00 -6.095163e-05 2.575347e-02 -1.544871e-01 1.619552e-01
-8.207642e-01 1.325449e+00 -6.492967e+00 5.455242e+00 -2.965987e-05 2.576806e-02 -1.549853e-01 1.621702e-01
-8.203718e-01 1.326309e+00 -6.491885e+00 5.463907e+00 -1.662370e-05 2.578583e-02 -1.551569e-01 1.627369e-01
-8.204680e-01 1.327183e+00 -6.503268e+00 5.469485e+00 -1.603759e-05 2.579438e-02 -1.553445e-01 1.629614e-01
-8.192716e-01 1.328040e+00 -6.499793e+00 5.483146e+00 1.216133e-05 2.580205e-02 -1.556616e-01 1.634757e-01
-8.182521e-01 1.328711e+00 -6.498762e+00 5.488585e+00 3.873138e-05 2.581632e-02 -1.561017e-01 1.636523e-01
-8.190850e-01 1.329639e+00 -6.503760e+00 5.483864e+00 1.854145e-05 2.583015e-02 -1.563429e-01 1.638228e-01
-8.189890e-01 1.330346e+00 -6.511123e+00 5.486732e+00 2.215922e-05 2.584870e-02 -1.565938e-01 1.638883e-01
-8.180097e-01 1.331219e+00 -6.512833e+00 5.496569e+00 4.324293e-05 2.585042e-02 -1.567602e-01 1.643151e-01
-8.188679e-01 1.332222e+00 -6.518185e+00 5.494055e+00 1.905082e-05 2.585186e-02 -1.572655e-01 1.643045e-01
-8.205373e-01 1.333263e+00 -6.522099e+00 5.492263e+00 -2.005044e-05 2.586647e-02 -1.575559e-01 1.643078e-01
-8.218463e-01 1.334417e+00 -6.534753e+00 5.490640e+00 -4.851082e-05 2.587511e-02 -1.577029e-01 1.643593e-01
-8.219095e-01 1.335215e+00 -6.533466e+00 5.489437e+00 -4.972644e-05 2.588482e-02 -1.579984e-01 1.644771e-01
-8.217739e-01 1.336067e+00 -6.533349e+00 5.498387e+00 -4.932639e-05 2.590133e-02 -1.582825e-01 1.647968e-01
-8.185186e-01 1.336365e+00 -6.519252e+00 5.531520e+00 3.218895e-05 2.594972e-02 -1.585615e-01 1.657975e-01
-8.157495e-01 1.337013e+00 -6.523224e+00 5.533439e+00 9.105340e-05 2.591808e-02 -1.588243e-01 1.660028e-01
-8.176508e-01 1.338005e+00 -6.527831e+00 5.532207e+00 4.282473e-05 2.593275e-02 -1.589688e-01 1.657570e-01
-8.198657e-01 1.339069e+00 -6.538789e+00 5.519048e+00 -7.655529e-06 2.593608e-02 -1.594271e-01 1.657607e-01
-8.214279e-01 1.340018e+00 -6.553043e+00 5.514803e+00 -3.911878e-05 2.594718e-02 -1.596670e-01 1.659214e-01
-8.217296e-01 1.340865e+00 -6.555815e+00 5.518560e+00 -4.559324e-05 2.595705e-02 -1.597912e-01 1.660506e-01
-8.199399e-01 1.341400e+00 -6.545570e+00 5.520773e+00 -8.094335e-06 2.597753e-02 -1.600671e-01 1.665931e-01
-8.191163e-01 1.342048e+00 -6.548116e+00 5.537474e+00 1.659383e-05 2.598035e-02 -1.602672e-01 1.669739e-01
-8.218170e-01 1.342829e+00 -6.572003e+00 5.517833e+00 -3.400402e-05 2.601130e-02 -1.604197e-01 1.670426e-01
-8.225471e-01 1.344072e+00 -6.571909e+00 5.521769e+00 -5.667205e-05 2.599850e-02 -1.608535e-01 1.669935e-01
-8.200847e-01 1.344581e+00 -6.559230e+00 5.538001e+00 -2.169777e-06 2.600820e-02 -1.610539e-01 1.674427e-01
-8.174985e-01 1.344883e+00 -6.559160e+00 5.565955e+00 5.650694e-05 2.601747e-02 -1.612100e-01 1.676024e-01
-8.191697e-01 1.346242e+00 -6.554643e+00 5.565654e+00 2.090530e-05 2.606316e-02 -1.613277e-01 1.679678e-01
-8.223347e-01 1.347015e+00 -6.579353e+00 5.539756e+00 -4.660321e-05 2.603454e-02 -1.618448e-01 1.676280e-01
-8.227642e-01 1.347689e+00 -6.581386e+00 5.542628e+00 -5.119244e-05 2.604393e-02 -1.620407e-01 1.677978e-01
-8.213393e-01 1.348417e+00 -6.579773e+00 5.559932e+00 -1.763055e-05 2.605027e-02 -1.621220e-01 1.683938e-01
-8.182851e-01 1.348722e+00 -6.574815e+00 5.580705e+00 5.412851e-05 2.607514e-02 -1.622533e-01 1.685736e-01
-8.165582e-01 1.349090e+00 -6.563238e+00 5.586658e+00 9.431851e-05 2.607513e-02 -1.623478e-01 1.691458e-01
-8.172292e-01 1.349777e+00 -6.568094e+00 5.582509e+00 7.982293e-05 2.608241e-02 -1.625445e-01 1.691459e-01
-8.199121e-01 1.350524e+00 -6.581250e+00 5.568747e+00 1.922595e-05 2.608646e-02 -1.630058e-01 1.691788e-01
-8.224863e-01 1.351546e+00 -6.589696e+00 5.561912e+00 -4.119220e-05 2.610060e-02 -1.632808e-01 1.690059e-01
-8.220574e-01 1.352079e+00 -6.584386e+00 5.576160e+00 -2.818347e-05 2.612395e-02 -1.633924e-01 1.689840e-01
-8.204416e-01 1.352793e+00 -6.588932e+00 5.582149e+00 5.015394e-06 2.612402e-02 -1.635330e-01 1.694230e-01
-8.228051e-01 1.353637e+00 -6.585868e+00 5.577313e+00 -5.399972e-05 2.614672e-02 -1.639831e-01 1.691458e-01
-8.258219e-01 1.354622e+00 -6.603759e+00 5.555123e+00 -1.229362e-04 2.613598e-02 -1.641904e-01 1.692322e-01
-8.267858e-01 1.355313e+00 -6.621215e+00 5.557905e+00 -1.348418e-04 2.615960e-02 -1.642607e-01 1.693917e-01
-8.244912e-01 1.355458e+00 -6.613329e+00 5.576638e+00 -7.878024e-05 2.616831e-02 -1.644439e-01 1.701957e-01
-8.190131e-01 1.355150e+00 -6.586043e+00 5.590566e+00 4.981792e-05 2.618052e-02 -1.643241e-01 1.708800e-01
-8.149241e-01 1.355900e+00 -6.580875e+00 5.617798e+00 1.431948e-04 2.617349e-02 -1.642855e-01 1.712524e-01
-8.137867e-01 1.356352e+00 -6.569145e+00 5.631811e+00 1.668130e-04 2.618808e-02 -1.644286e-01 1.712921e-01
-8.172396e-01 1.357314e+00 -6.587879e+00 5.623834e+00 8.543979e-05 2.619925e-02 -1.646489e-01 1.710004e-01
-8.221723e-01 1.358455e+00 -6.600149e+00 5.596431e+00 -2.886974e-05 2.619917e-02 -1.654102e-01 1.706817e-01
-8.243929e-01 1.359242e+00 -6.604985e+00 5.580613e+00 -8.529065e-05 2.620503e-02 -1.655681e-01 1.706045e-01
-8.248652e-01 1.359884e+00 -6.609254e+00 5.581639e+00 -9.562970e-05 2.621380e-02 -1.658392e-01 1.706371e-01
-8.254016e-01 1.360431e+00 -6.608026e+00 5.584791e+00 -1.035701e-04 2.622701e-02 -1.659074e-01 1.709465e-01
-8.223330e-01 1.360635e+00 -6.610013e+00 5.610466e+00 -3.394855e-05 2.624267e-02 -1.660768e-01 1.716349e-01
-8.183205e-01 1.360784e+00 -6.589143e+00 5.617209e+00 5.458342e-05 2.623634e-02 -1.658572e-01 1.719492e-01
-8.162757e-01 1.361309e+00 -6.585745e+00 5.625858e+00 1.043257e-04 2.625543e-02 -1.657770e-01 1.723594e-01
-8.171386e-01 1.361741e+00 -6.583047e+00 5.636919e+00 8.382248e-05 2.626290e-02 -1.659293e-01 1.723606e-01
-8.202266e-01 1.362754e+00 -6.594298e+00 5.618747e+00 1.156501e-05 2.626175e-02 -1.664064e-01 1.721368e-01
-8.228615e-01 1.363433e+00 -6.602857e+00 5.609515e+00 -4.832307e-05 2.627564e-02 -1.669563e-01 1.720897e-01
-8.243754e-01 1.364155e+00 -6.613391e+00 5.599609e+00 -7.752512e-05 2.628051e-02 -1.671416e-01 1.721488e-01
-8.244673e-01 1.364562e+00 -6.611255e+00 5.603867e+00 -7.705662e-05 2.628820e-02 -1.672048e-01 1.721454e-01
-8.228604e-01 1.364964e+00 -6.607810e+00 5.616077e+00 -4.423301e-05 2.629558e-02 -1.673259e-01 1.723060e-01
-8.206812e-01 1.365222e+00 -6.597789e+00 5.625906e+00 4.824597e-06 2.630179e-02 -1.673070e-01 1.727127e-01
-8.198795e-01 1.365666e+00 -6.596617e+00 5.631599e+00 2.792008e-05 2.631270e-02 -1.674289e-01 1.729968e-01
-8.193730e-01 1.365986e+00 -6.594317e+00 5.635118e+00 4.504408e-05 2.632050e-02 -1.674696e-01 1.732253e-01
-8.194353e-01 1.366554e+00 -6.593032e+00 5.639726e+00 4.103784e-05 2.632816e-02 -1.675381e-01 1.733403e-01
-8.200705e-01 1.367107e+00 -6.591851e+00 5.635938e+00 2.184004e-05 2.633583e-02 -1.678177e-01 1.733679e-01
-8.209036e-01 1.367611e+00 -6.595983e+00 5.631561e+00 9.102016e-07 2.634256e-02 -1.679329e-01 1.733919e-01
-8.204911e-01 1.368145e+00 -6.597393e+00 5.630391e+00 6.171828e-06 2.634980e-02 -1.681484e-01 1.734228e-01
-8.210582e-01 1.368695e+00 -6.590159e+00 5.639819e+00 -6.089588e-06 2.635584e-02 -1.681512e-01 1.736549e-01
-8.207257e-01 1.369048e+00 -6.599267e+00 5.645691e+00 -2.998256e-06 2.637841e-02 -1.685094e-01 1.738703e-01
-8.188654e-01 1.369258e+00 -6.590288e+00 5.651835e+00 3.996341e-05 2.638091e-02 -1.682718e-01 1.739048e-01
-8.191577e-01 1.369762e+00 -6.585933e+00 5.648614e+00 3.355773e-05 2.638334e-02 -1.684565e-01 1.740604e-01
-8.222564e-01 1.370071e+00 -6.602760e+00 5.625144e+00 -3.869739e-05 2.641060e-02 -1.690996e-01 1.741135e-01
-8.249669e-01 1.371246e+00 -6.608998e+00 5.624407e+00 -9.334289e-05 2.639960e-02 -1.693426e-01 1.740152e-01
-8.251744e-01 1.371586e+00 -6.607790e+00 5.627825e+00 -9.173452e-05 2.641329e-02 -1.693700e-01 1.741438e-01
-8.251055e-01 1.372118e+00 -6.613560e+00 5.633219e+00 -8.616581e-05 2.642408e-02 -1.694275e-01 1.744520e-01
-8.229691e-01 1.372371e+00 -6.606464e+00 5.637433e+00 -3.646177e-05 2.641933e-02 -1.695231e-01 1.746551e-01
-8.198783e-01 1.372482e+00 -6.591125e+00 5.658111e+00 3.152795e-05 2.642998e-02 -1.692458e-01 1.750033e-01
-8.179901e-01 1.372754e+00 -6.583016e+00 5.667610e+00 7.374762e-05 2.643418e-02 -1.691391e-01 1.751598e-01
-8.190809e-01 1.373420e+00 -6.580725e+00 5.656816e+00 5.158513e-05 2.644495e-02 -1.696449e-01 1.752451e-01
-8.195767e-01 1.373701e+00 -6.593678e+00 5.659370e+00 4.272760e-05 2.645775e-02 -1.696565e-01 1.755125e-01
-8.194456e-01 1.374062e+00 -6.589508e+00 5.664160e+00 4.402453e-05 2.645714e-02 -1.697482e-01 1.754953e-01
-8.220779e-01 1.374675e+00 -6.590321e+00 5.661937e+00 -1.278928e-05 2.647416e-02 -1.702447e-01 1.754957e-01
-8.245773e-01 1.375476e+00 -6.599577e+00 5.649695e+00 -7.422957e-05 2.647462e-02 -1.703063e-01 1.754562e-01
-8.250643e-01 1.375804e+00 -6.599443e+00 5.638179e+00 -9.257916e-05 2.648960e-02 -1.705373e-01 1.753930e-01
-8.234829e-01 1.376077e+00 -6.590085e+00 5.646578e+00 -5.810078e-05 2.648478e-02 -1.705056e-01 1.755614e-01
-8.209618e-01 1.376291e+00 -6.583623e+00 5.666289e+00 1.860508e-06 2.649038e-02 -1.703050e-01 1.757507e-01
-8.172568e-01 1.376225e+00 -6.558908e+00 5.692552e+00 8.543520e-05 2.652317e-02 -1.695882e-01 1.760004e-01
-8.157763e-01 1.376759e+00 -6.560601e+00 5.694512e+00 1.227413e-04 2.650614e-02 -1.697984e-01 1.762816e-01
-8.182392e-01 1.377231e+00 -6.563240e+00 5.674533e+00 6.258128e-05 2.651146e-02 -1.699648e-01 1.762957e-01
-8.206406e-01 1.377672e+00 -6.574154e+00 5.671175e+00 7.524154e-06 2.652268e-02 -1.706801e-01 1.762742e-01
-8.218569e-01 1.378166e+00 -6.582104e+00 5.666913e+00 -1.993446e-05 2.652935e-02 -1.708551e-01 1.762403e-01
-8.239948e-01 1.378621e+00 -6.582785e+00 5.662482e+00 -7.001406e-05 2.654399e-02 -1.714452e-01 1.762541e-01
-8.253786e-01 1.379098e+00 -6.591115e+00 5.646954e+00 -1.038615e-04 2.654750e-02 -1.714650e-01 1.761582e-01
-8.245383e-01 1.379385e+00 -6.586442e+00 5.654080e+00 -8.232478e-05 2.655235e-02 -1.714639e-01 1.763356e-01
-8.205207e-01 1.378851e+00 -6.581498e+00 5.665684e+00 2.143628e-05 2.658566e-02 -1.707849e-01 1.766565e-01
-8.160783e-01 1.379512e+00 -6.554238e+00 5.708700e+00 1.237942e-04 2.656962e-02 -1.706833e-01 1.772707e-01
-8.139363e-01 1.379521e+00 -6.544100e+00 5.720356e+00 1.730596e-04 2.658095e-02 -1.704102e-01 1.774302e-01
-8.170416e-01 1.380107e+00 -6.562731e+00 5.709575e+00 1.023127e-04 2.659037e-02 -1.703492e-01 1.771975e-01
-8.206048e-01 1.380939e+00 -6.570506e+00 5.689447e+00 2.002851e-05 2.659325e-02 -1.711993e-01 1.770865e-01
-8.236400e-01 1.381284e+00 -6.579126e+00 5.660959e+00 -4.881411e-05 2.659226e-02 -1.720738e-01 1.771764e-01
-8.260243e-01 1.382035e+00 -6.584189e+00 5.662343e+00 -1.040579e-04 2.660205e-02 -1.721826e-01 1.771095e-01
-8.269568e-01 1.382422e+00 -6.582216e+00 5.658953e+00 -1.231094e-04 2.661456e-02 -1.726349e-01 1.770089e-01
-8.269705e-01 1.382774e+00 -6.582108e+00 5.656325e+00 -1.247001e-04 2.660729e-02 -1.726022e-01 1.771047e-01
-8.256962e-01 1.382991e+00 -6.576573e+00 5.664505e+00 -9.959780e-05 2.662532e-02 -1.725682e-01 1.772184e-01
-8.228207e-01 1.382959e+00 -6.572097e+00 5.684309e+00 -3.170161e-05 2.661125e-02 -1.719607e-01 1.777298e-01
-8.186459e-01 1.382817e+00 -6.550503e+00 5.695468e+00 7.025073e-05 2.662682e-02 -1.714363e-01 1.779016e-01
-8.172593e-01 1.383096e+00 -6.548290e+00 5.708553e+00 1.061709e-04 2.662723e-02 -1.715160e-01 1.781636e-01
-8.194091e-01 1.383347e+00 -6.555207e+00 5.690665e+00 5.852586e-05 2.665271e-02 -1.715104e-01 1.782055e-01
-8.208628e-01 1.383762e+00 -6.554656e+00 5.692561e+00 1.717396e-05 2.664587e-02 -1.721255e-01 1.781236e-01
-8.205544e-01 1.384144e+00 -6.545910e+00 5.693991e+00 2.080916e-05 2.665051e-02 -1.720932e-01 1.781509e-01
-8.218978e-01 1.384403e+00 -6.551776e+00 5.680258e+00 -1.181444e-05 2.666347e-02 -1.724421e-01 1.779964e-01
-8.237239e-01 1.385062e+00 -6.552019e+00 5.680137e+00 -5.282981e-05 2.666741e-02 -1.724973e-01 1.780984e-01
-8.240738e-01 1.385408e+00 -6.555572e+00 5.677030e+00 -5.848059e-05 2.667036e-02 -1.727388e-01 1.781725e-01
-8.223611e-01 1.385672e+00 -6.551837e+00 5.682229e+00 -2.096037e-05 2.667349e-02 -1.727024e-01 1.782886e-01
-8.209183e-01 1.385782e+00 -6.542943e+00 5.695640e+00 1.007194e-05 2.668059e-02 -1.724260e-01 1.785024e-01
-8.190823e-01 1.385773e+00 -6.530567e+00 5.696198e+00 5.438381e-05 2.668860e-02 -1.723325e-01 1.785982e-01
-8.183355e-01 1.385991e+00 -6.530506e+00 5.706226e+00 7.151050e-05 2.669619e-02 -1.722385e-01 1.788508e-01
-8.212227e-01 1.386498e+00 -6.538060e+00 5.688520e+00 1.006844e-05 2.671447e-02 -1.730369e-01 1.788398e-01
-8.232271e-01 1.386958e+00 -6.551047e+00 5.687001e+00 -3.906293e-05 2.670767e-02 -1.730989e-01 1.788450e-01
-8.229191e-01 1.387232e+00 -6.546894e+00 5.686084e+00 -3.491227e-05 2.671137e-02 -1.730454e-01 1.788725e-01
-8.230267e-01 1.387534e+00 -6.545881e+00 5.691017e+00 -4.281470e-05 2.672040e-02 -1.730058e-01 1.789808e-01
-8.220665e-01 1.387679e+00 -6.535948e+00 5.697530e+00 -2.335169e-05 2.672681e-02 -1.731245e-01 1.791562e-01
-8.209749e-01 1.387723e+00 -6.534186e+00 5.696856e+00 4.831870e-06 2.672775e-02 -1.727228e-01 1.792111e-01
-8.226238e-01 1.388132e+00 -6.530647e+00 5.680655e+00 -3.484666e-05 2.676648e-02 -1.734538e-01 1.792720e-01
-8.221005e-01 1.388385e+00 -6.535597e+00 5.696191e+00 -3.116157e-05 2.674146e-02 -1.728849e-01 1.792478e-01
-8.217020e-01 1.388615e+00 -6.535076e+00 5.686115e+00 -1.965033e-05 2.677404e-02 -1.733829e-01 1.791892e-01
-8.202875e-01 1.388581e+00 -6.517448e+00 5.694049e+00 1.605794e-05 2.676303e-02 -1.725459e-01 1.794741e-01
-8.170454e-01 1.388765e+00 -6.513027e+00 5.717900e+00 9.407145e-05 2.675354e-02 -1.720882e-01 1.797232e-01
-8.175483e-01 1.389071e+00 -6.509599e+00 5.710847e+00 7.655726e-05 2.677451e-02 -1.721031e-01 1.797397e-01
-8.201827e-01 1.389390e+00 -6.510350e+00 5.697523e+00 1.111153e-05 2.677573e-02 -1.730085e-01 1.795968e-01
-8.224459e-01 1.390004e+00 -6.516470e+00 5.687141e+00 -4.440476e-05 2.677982e-02 -1.733977e-01 1.794009e-01
-8.239147e-01 1.390345e+00 -6.524180e+00 5.688530e+00 -7.389681e-05 2.678233e-02 -1.737420e-01 1.794605e-01
-8.221851e-01 1.390441e+00 -6.509282e+00 5.704505e+00 -2.809421e-05 2.680082e-02 -1.735845e-01 1.797954e-01
-8.193066e-01 1.390399e+00 -6.505981e+00 5.708776e+00 4.260461e-05 2.678553e-02 -1.726735e-01 1.799874e-01
-8.198113e-01 1.390465e+00 -6.500583e+00 5.702813e+00 3.098784e-05 2.681310e-02 -1.726396e-01 1.799764e-01
-8.218223e-01 1.391094e+00 -6.510748e+00 5.694731e+00 -1.468633e-05 2.680206e-02 -1.735106e-01 1.799836e-01
-8.221328e-01 1.391310e+00 -6.505312e+00 5.700142e+00 -1.993317e-05 2.680607e-02 -1.733619e-01 1.799585e-01
-8.190533e-01 1.391230e+00 -6.485496e+00 5.727626e+00 6.058734e-05 2.684151e-02 -1.732693e-01 1.803824e-01
-8.178573e-01 1.391256e+00 -6.486458e+00 5.717519e+00 8.555903e-05 2.681474e-02 -1.724046e-01 1.803552e-01
-8.195598e-01 1.391653e+00 -6.489689e+00 5.711962e+00 4.266970e-05 2.682055e-02 -1.728333e-01 1.803018e-01
-8.220264e-01 1.392148e+00 -6.498279e+00 5.693875e+00 -1.476515e-05 2.682745e-02 -1.731380e-01 1.801979e-01
-8.250401e-01 1.392372e+00 -6.506343e+00 5.679662e+00 -8.652138e-05 2.684328e-02 -1.737852e-01 1.801374e-01
-8.258996e-01 1.392755e+00 -6.505329e+00 5.682456e+00 -1.028890e-04 2.684232e-02 -1.742522e-01 1.801796e-01
-8.249351e-01 1.392872e+00 -6.503072e+00 5.689063e+00 -7.264432e-05 2.684671e-02 -1.741497e-01 1.803717e-01
-8.229056e-01 1.392960e+00 -6.497230e+00 5.703897e+00 -2.068939e-05 2.684118e-02 -1.738516e-01 1.804954e-01
-8.203550e-01 1.392905e+00 -6.488314e+00 5.711263e+00 4.022332e-05 2.684772e-02 -1.733283e-01 1.807772e-01
-8.188742e-01 1.393106e+00 -6.476167e+00 5.720718e+00 6.928765e-05 2.685862e-02 -1.729619e-01 1.809058e-01
-8.175685e-01 1.393318e+00 -6.467643e+00 5.721376e+00 9.503346e-05 2.686445e-02 -1.727742e-01 1.811237e-01
-8.187681e-01 1.393800e+00 -6.475846e+00 5.715003e+00 7.080479e-05 2.687483e-02 -1.724851e-01 1.809690e-01
-8.211958e-01 1.393864e+00 -6.478500e+00 5.708969e+00 1.074146e-05 2.687525e-02 -1.733476e-01 1.809220e-01
-8.239879e-01 1.394321e+00 -6.479141e+00 5.702892e+00 -5.604568e-05 2.689855e-02 -1.736018e-01 1.806998e-01
-8.253857e-01 1.394474e+00 -6.484656e+00 5.684252e+00 -9.459015e-05 2.689246e-02 -1.741647e-01 1.807246e-01
-8.240515e-01 1.394494e+00 -6.477954e+00 5.693069e+00 -6.708711e-05 2.689517e-02 -1.740654e-01 1.807946e-01
-8.232221e-01 1.394654e+00 -6.473854e+00 5.697991e+00 -4.277921e-05 2.689780e-02 -1.739651e-01 1.809448e-01
-8.215737e-01 1.394815e+00 -6.465579e+00 5.711599e+00 1.227284e-06 2.690861e-02 -1.736767e-01 1.813049e-01
-8.181882e-01 1.394393e+00 -6.448347e+00 5.716356e+00 8.235346e-05 2.690866e-02 -1.730940e-01 1.813847e-01
-8.173277e-01 1.394757e+00 -6.449659e+00 5.723856e+00 9.863487e-05 2.691178e-02 -1.724617e-01 1.815374e-01
-8.194599e-01 1.395188e+00 -6.454119e+00 5.719428e+00 4.548339e-05 2.691108e-02 -1.726827e-01 1.813677e-01
-8.225270e-01 1.395394e+00 -6.465122e+00 5.694583e+00 -2.600253e-05 2.692823e-02 -1.739402e-01 1.812323e-01
-8.240318e-01 1.395864e+00 -6.465443e+00 5.694917e+00 -5.856582e-05 2.692923e-02 -1.740489e-01 1.811915e-01
-8.224555e-01 1.396036e+00 -6.461766e+00 5.695085e+00 -2.415766e-05 2.693597e-02 -1.733385e-01 1.813749e-01
-8.227846e-01 1.396042e+00 -6.460578e+00 5.707504e+00 -3.076146e-05 2.694923e-02 -1.733478e-01 1.815267e-01
-8.227470e-01 1.396333e+00 -6.449498e+00 5.695268e+00 -2.514451e-05 2.694343e-02 -1.739589e-01 1.814901e-01
-8.208105e-01 1.396391e+00 -6.446180e+00 5.716293e+00 2.902857e-05 2.695031e-02 -1.732400e-01 1.818934e-01
-8.212705e-01 1.396580e+00 -6.449404e+00 5.716492e+00 2.566320e-05 2.695363e-02 -1.736980e-01 1.819082e-01
-8.226298e-01 1.396953e+00 -6.447681e+00 5.703405e+00 -7.136789e-06 2.695897e-02 -1.739127e-01 1.819133e-01
-8.231433e-01 1.397149e+00 -6.449509e+00 5.703789e+00 -1.767668e-05 2.696330e-02 -1.738386e-01 1.819326e-01
-8.232334e-01 1.397358e+00 -6.447266e+00 5.704736e+00 -1.690209e-05 2.696716e-02 -1.739596e-01 1.819761e-01
-8.243386e-01 1.397511e+00 -6.443727e+00 5.704906e+00 -4.305624e-05 2.698884e-02 -1.737995e-01 1.818695e-01
-8.250919e-01 1.397705e+00 -6.448035e+00 5.690387e+00 -6.398721e-05 2.698343e-02 -1.744519e-01 1.819325e-01
-8.232624e-01 1.397719e+00 -6.443709e+00 5.697648e+00 -2.711636e-05 2.698354e-02 -1.736443e-01 1.819761e-01
-8.224638e-01 1.397843e+00 -6.429582e+00 5.710121e+00 -1.143827e-05 2.700329e-02 -1.739330e-01 1.819871e-01
-8.228579e-01 1.398056e+00 -6.429147e+00 5.704468e+00 -2.041569e-05 2.699573e-02 -1.738004e-01 1.820023e-01
-8.186476e-01 1.398442e+00 -6.425156e+00 5.737021e+00 8.257217e-05 2.703876e-02 -1.732853e-01 1.821365e-01
-8.162445e-01 1.397925e+00 -6.402605e+00 5.738402e+00 1.342990e-04 2.699885e-02 -1.722701e-01 1.824991e-01
-8.181199e-01 1.398386e+00 -6.406486e+00 5.719143e+00 8.320766e-05 2.699504e-02 -1.721305e-01 1.824272e-01
-8.203874e-01 1.398710e+00 -6.412917e+00 5.704170e+00 2.693973e-05 2.699991e-02 -1.728065e-01 1.821198e-01
-8.214117e-01 1.398977e+00 -6.408202e+00 5.698522e+00 6.435668e-06 2.700735e-02 -1.731105e-01 1.822660e-01
-8.206909e-01 1.399176e+00 -6.411121e+00 5.713314e+00 2.503171e-05 2.701652e-02 -1.729144e-01 1.823907e-01
-8.219374e-01 1.399388e+00 -6.413052e+00 5.705707e+00 -9.052795e-07 2.701696e-02 -1.729074e-01 1.822831e-01
-8.233798e-01 1.399702e+00 -6.415827e+00 5.700572e+00 -2.790947e-05 2.702808e-02 -1.733172e-01 1.824172e-01
-8.230687e-01 1.399784e+00 -6.413495e+00 5.703694e+00 -1.365351e-05 2.703730e-02 -1.733349e-01 1.824934e-01
-8.244734e-01 1.400195e+00 -6.408202e+00 5.686727e+00 -4.289172e-05 2.704397e-02 -1.733806e-01 1.823151e-01
-8.260124e-01 1.400322e+00 -6.414314e+00 5.685645e+00 -7.526569e-05 2.704359e-02 -1.741657e-01 1.823369e-01
-8.260550e-01 1.400283e+00 -6.411963e+00 5.688469e+00 -7.228949e-05 2.704602e-02 -1.742296e-01 1.825022e-01
-8.251925e-01 1.400386e+00 -6.407781e+00 5.691604e+00 -5.107803e-05 2.704899e-02 -1.738902e-01 1.825602e-01
-8.219515e-01 1.400605e+00 -6.401408e+00 5.717061e+00 2.886181e-05 2.706256e-02 -1.735950e-01 1.830094e-01
-8.194876e-01 1.400350e+00 -6.387413e+00 5.719592e+00 8.562907e-05 2.705354e-02 -1.736909e-01 1.830494e-01
-8.196696e-01 1.400465e+00 -6.381059e+00 5.716887e+00 7.831222e-05 2.705744e-02 -1.737345e-01 1.830482e-01
-8.196767e-01 1.400785e+00 -6.375516e+00 5.712420e+00 7.931671e-05 2.706386e-02 -1.739913e-01 1.831204e-01
-8.207623e-01 1.400795e+00 -6.380138e+00 5.709631e+00 5.632880e-05 2.706739e-02 -1.738675e-01 1.830420e-01
-8.231444e-01 1.401058e+00 -6.384707e+00 5.699888e+00 -5.429287e-06 2.707320e-02 -1.742503e-01 1.829495e-01
-8.248199e-01 1.401231e+00 -6.388292e+00 5.689131e+00 -4.791168e-05 2.708179e-02 -1.745009e-01 1.828677e-01
-8.269735e-01 1.401545e+00 -6.394491e+00 5.683651e+00 -9.601148e-05 2.709549e-02 -1.748871e-01 1.828049e-01
-8.277485e-01 1.401708e+00 -6.391252e+00 5.677965e+00 -1.109448e-04 2.709700e-02 -1.749279e-01 1.826595e-01
-8.256855e-01 1.401608e+00 -6.379878e+00 5.693130e+00 -5.738668e-05 2.709997e-02 -1.747288e-01 1.830407e-01
-8.237603e-01 1.401602e+00 -6.374984e+00 5.696555e+00 -7.854199e-06 2.709889e-02 -1.746507e-01 1.831046e-01
-8.220209e-01 1.401663e+00 -6.362592e+00 5.709621e+00 3.477278e-05 2.710585e-02 -1.746504e-01 1.831786e-01
-8.209752e-01 1.401863e+00 -6.360259e+00 5.711212e+00 6.380251e-05 2.710277e-02 -1.748690e-01 1.833018e-01
-8.223582e-01 1.402115e+00 -6.364512e+00 5.698361e+00 3.254252e-05 2.711542e-02 -1.749021e-01 1.833403e-01
-8.226873e-01 1.402160e+00 -6.363494e+00 5.705221e+00 2.412235e-05 2.711287e-02 -1.749585e-01 1.833245e-01
-8.234813e-01 1.402395e+00 -6.358084e+00 5.702732e+00 6.656462e-06 2.712843e-02 -1.749250e-01 1.833155e-01
-8.252377e-01 1.402703e+00 -6.365882e+00 5.690332e+00 -3.214217e-05 2.712125e-02 -1.753694e-01 1.832254e-01
-8.247505e-01 1.402736e+00 -6.357589e+00 5.693190e+00 -2.071546e-05 2.713127e-02 -1.754054e-01 1.832405e-01
-8.237941e-01 1.402767e+00 -6.355743e+00 5.693703e+00 8.629938e-07 2.712937e-02 -1.753237e-01 1.833380e-01
-8.238222e-01 1.402989e+00 -6.352426e+00 5.694678e+00 3.041675e-06 2.713350e-02 -1.754413e-01 1.833862e-01
-8.246239e-01 1.403128e+00 -6.350742e+00 5.693427e+00 -1.348823e-05 2.713959e-02 -1.756665e-01 1.833845e-01
-8.230421e-01 1.403372e+00 -6.351270e+00 5.706203e+00 2.611915e-05 2.714537e-02 -1.757976e-01 1.834101e-01
-8.223373e-01 1.403262e+00 -6.339321e+00 5.704516e+00 4.375263e-05 2.715030e-02 -1.758761e-01 1.835889e-01
-8.249640e-01 1.403524e+00 -6.352607e+00 5.695430e+00 -1.010911e-05 2.715718e-02 -1.759503e-01 1.835743e-01
-8.257468e-01 1.403722e+00 -6.343468e+00 5.688647e+00 -2.653983e-05 2.715983e-02 -1.760164e-01 1.835653e-01
-8.272249e-01 1.403907e+00 -6.351689e+00 5.667785e+00 -5.929856e-05 2.718202e-02 -1.759977e-01 1.832996e-01
-8.288992e-01 1.404338e+00 -6.347456e+00 5.671758e+00 -1.041199e-04 2.717583e-02 -1.765745e-01 1.833587e-01
-8.265733e-01 1.404556e+00 -6.332672e+00 5.683597e+00 -5.197678e-05 2.716629e-02 -1.762801e-01 1.833583e-01
-8.228887e-01 1.404151e+00 -6.319811e+00 5.692776e+00 3.495070e-05 2.717313e-02 -1.761994e-01 1.837351e-01
-8.207913e-01 1.404222e+00 -6.309616e+00 5.707918e+00 8.717165e-05 2.717341e-02 -1.766505e-01 1.837929e-01
-8.198945e-01 1.404406e+00 -6.307983e+00 5.715917e+00 1.123181e-04 2.717744e-02 -1.769900e-01 1.840169e-01
-8.213081e-01 1.404597e+00 -6.308155e+00 5.705023e+00 9.143754e-05 2.718644e-02 -1.771019e-01 1.839126e-01
-8.233373e-01 1.404800e+00 -6.320008e+00 5.698003e+00 4.695840e-05 2.718943e-02 -1.770411e-01 1.838886e-01
-8.263235e-01 1.405276e+00 -6.329514e+00 5.673683e+00 -2.539950e-05 2.720000e-02 -1.769354e-01 1.837015e-01
-8.287347e-01 1.405353e+00 -6.325679e+00 5.668693e+00 -8.186256e-05 2.720511e-02 -1.770700e-01 1.836192e-01
-8.289609e-01 1.405494e+00 -6.325006e+00 5.667858e+00 -8.460522e-05 2.720744e-02 -1.771991e-01 1.836134e-01
-8.288241e-01 1.405600e+00 -6.323131e+00 5.666856e+00 -7.818649e-05 2.721282e-02 -1.772657e-01 1.836293e-01
-8.283838e-01 1.405850e+00 -6.319210e+00 5.669694e+00 -6.303510e-05 2.721227e-02 -1.771809e-01 1.837145e-01
-8.282862e-01 1.406042e+00 -6.312500e+00 5.666826e+00 -5.471619e-05 2.722574e-02 -1.771530e-01 1.838116e-01
-8.278621e-01 1.406016e+00 -6.311317e+00 5.668139e+00 -5.357665e-05 2.723049e-02 -1.774840e-01 1.838271e-01
-8.241671e-01 1.406016e+00 -6.303849e+00 5.699467e+00 3.328994e-05 2.722763e-02 -1.777878e-01 1.842166e-01
-8.202714e-01 1.405968e+00 -6.281519e+00 5.713582e+00 1.312298e-04 2.721856e-02 -1.781841e-01 1.847231e-01
-8.211005e-01 1.406120e+00 -6.286008e+00 5.715160e+00 1.183747e-04 2.723798e-02 -1.782545e-01 1.843595e-01
-8.239556e-01 1.406327e+00 -6.289193e+00 5.685475e+00 4.898617e-05 2.724120e-02 -1.777513e-01 1.841586e-01
-8.269966e-01 1.406878e+00 -6.290155e+00 5.669108e+00 -2.298973e-05 2.724214e-02 -1.776124e-01 1.838009e-01
-8.280318e-01 1.407126e+00 -6.293458e+00 5.669086e+00 -3.694424e-05 2.723968e-02 -1.780053e-01 1.838268e-01
-8.270436e-01 1.407211e+00 -6.292099e+00 5.677624e+00 -3.768603e-06 2.724692e-02 -1.780942e-01 1.839999e-01
-8.269860e-01 1.407352e+00 -6.290958e+00 5.682215e+00 3.324498e-06 2.724802e-02 -1.783232e-01 1.840819e-01
-8.286609e-01 1.407391e+00 -6.292323e+00 5.666342e+00 -3.176218e-05 2.725892e-02 -1.784641e-01 1.841265e-01
-8.298730e-01 1.407835e+00 -6.299201e+00 5.669248e+00 -6.084945e-05 2.725916e-02 -1.784129e-01 1.840831e-01
-8.285372e-01 1.407774e+00 -6.286230e+00 5.670426e+00 -3.213702e-05 2.726342e-02 -1.785635e-01 1.841267e-01
-8.263743e-01 1.407868e+00 -6.280852e+00 5.680976e+00 2.511238e-05 2.726793e-02 -1.787215e-01 1.843322e-01
-8.249649e-01 1.407935e+00 -6.273051e+00 5.695409e+00 6.833738e-05 2.726671e-02 -1.790637e-01 1.846374e-01
-8.251720e-01 1.407993e+00 -6.270837e+00 5.694759e+00 6.886132e-05 2.727086e-02 -1.793158e-01 1.845113e-01
-8.261203e-01 1.408244e+00 -6.269962e+00 5.686322e+00 4.342300e-05 2.727308e-02 -1.792306e-01 1.844799e-01
-8.281680e-01 1.408711e+00 -6.276502e+00 5.679819e+00 -9.628386e-06 2.728978e-02 -1.789048e-01 1.844927e-01
-8.320943e-01 1.408918e+00 -6.287401e+00 5.641823e+00 -9.985079e-05 2.731485e-02 -1.790953e-01 1.840792e-01
-8.319518e-01 1.409270e+00 -6.271077e+00 5.646106e+00 -9.321638e-05 2.729027e-02 -1.790448e-01 1.841645e-01
-8.292259e-01 1.409051e+00 -6.263106e+00 5.669221e+00 -1.800099e-05 2.728853e-02 -1.793834e-01 1.844322e-01
-8.253956e-01 1.408449e+00 -6.241931e+00 5.675540e+00 8.793389e-05 2.731496e-02 -1.800279e-01 1.856803e-01
-8.247421e-01 1.409239e+00 -6.240689e+00 5.700965e+00 1.001921e-04 2.729445e-02 -1.799280e-01 1.850998e-01
-8.262540e-01 1.409303e+00 -6.244931e+00 5.689685e+00 6.929865e-05 2.730142e-02 -1.799250e-01 1.853367e-01
-8.268598e-01 1.409404e+00 -6.245701e+00 5.677902e+00 5.332082e-05 2.730145e-02 -1.799652e-01 1.851473e-01
-8.299490e-01 1.409928e+00 -6.254603e+00 5.670155e+00 -2.433595e-05 2.731449e-02 -1.798943e-01 1.848815e-01
-8.317471e-01 1.409982e+00 -6.250856e+00 5.655602e+00 -6.322275e-05 2.731097e-02 -1.796470e-01 1.845010e-01
-8.310975e-01 1.410001e+00 -6.251337e+00 5.653963e+00 -4.328390e-05 2.731750e-02 -1.797945e-01 1.844405e-01
-8.306372e-01 1.409994e+00 -6.247115e+00 5.660380e+00 -2.598030e-05 2.732054e-02 -1.801062e-01 1.846093e-01
-8.300215e-01 1.410050e+00 -6.246122e+00 5.667382e+00 -1.906758e-06 2.732789e-02 -1.803085e-01 1.849053e-01
-8.279908e-01 1.409888e+00 -6.231476e+00 5.684368e+00 5.463467e-05 2.734693e-02 -1.808895e-01 1.855312e-01
-8.272128e-01 1.410369e+00 -6.232562e+00 5.682465e+00 8.100111e-05 2.732567e-02 -1.809972e-01 1.854390e-01
-8.300554e-01 1.410650e+00 -6.243047e+00 5.658516e+00 1.141653e-05 2.732357e-02 -1.807741e-01 1.845632e-01
-8.332127e-01 1.410713e+00 -6.247109e+00 5.646779e+00 -6.388368e-05 2.734170e-02 -1.806817e-01 1.844016e-01
-8.348309e-01 1.411048e+00 -6.248847e+00 5.637936e+00 -9.997293e-05 2.735009e-02 -1.806857e-01 1.843216e-01
-8.333151e-01 1.410990e+00 -6.233249e+00 5.640872e+00 -5.937914e-05 2.735392e-02 -1.807570e-01 1.844375e-01
-8.300435e-01 1.410931e+00 -6.221661e+00 5.668955e+00 2.207065e-05 2.734809e-02 -1.811867e-01 1.853748e-01
-8.297846e-01 1.411195e+00 -6.224069e+00 5.660770e+00 2.740389e-05 2.735439e-02 -1.812870e-01 1.855043e-01
-8.302236e-01 1.411245e+00 -6.219742e+00 5.661490e+00 2.000688e-05 2.735088e-02 -1.813983e-01 1.853319e-01
-8.303725e-01 1.411462e+00 -6.218086e+00 5.660356e+00 2.131617e-05 2.735504e-02 -1.815237e-01 1.854876e-01
-8.322823e-01 1.411779e+00 -6.219077e+00 5.659217e+00 -2.778073e-05 2.737676e-02 -1.811978e-01 1.853957e-01
-8.333620e-01 1.411938e+00 -6.222161e+00 5.642715e+00 -5.651148e-05 2.736607e-02 -1.813516e-01 1.849563e-01
-8.319325e-01 1.412085e+00 -6.210664e+00 5.654039e+00 -1.794944e-05 2.736499e-02 -1.816194e-01 1.851500e-01
-8.288801e-01 1.412001e+00 -6.206902e+00 5.657892e+00 6.322233e-05 2.739252e-02 -1.817130e-01 1.857130e-01
-8.288886e-01 1.411996e+00 -6.203745e+00 5.661447e+00 7.199582e-05 2.738692e-02 -1.820426e-01 1.858667e-01
-8.310929e-01 1.412483e+00 -6.203763e+00 5.658234e+00 2.659865e-05 2.737697e-02 -1.819972e-01 1.857604e-01
-8.327610e-01 1.412865e+00 -6.204525e+00 5.654859e+00 -8.369179e-06 2.739045e-02 -1.819562e-01 1.853940e-01
-8.334816e-01 1.413092e+00 -6.206215e+00 5.644331e+00 -2.286182e-05 2.738659e-02 -1.819720e-01 1.857070e-01
-8.326066e-01 1.413306e+00 -6.199706e+00 5.647282e+00 8.875405e-06 2.738803e-02 -1.824121e-01 1.857041e-01
-8.331189e-01 1.413385e+00 -6.202002e+00 5.655375e+00 1.220020e-05 2.739143e-02 -1.824846e-01 1.859932e-01
-8.358746e-01 1.413677e+00 -6.208718e+00 5.647031e+00 -4.991642e-05 2.740990e-02 -1.824885e-01 1.857040e-01
-8.377226e-01 1.413796e+00 -6.207380e+00 5.625368e+00 -9.223733e-05 2.741161e-02 -1.823275e-01 1.852395e-01
-8.360011e-01 1.413757e+00 -6.202133e+00 5.643940e+00 -4.522727e-05 2.741778e-02 -1.827380e-01 1.852592e-01
-8.335519e-01 1.413723e+00 -6.188506e+00 5.653537e+00 2.381985e-05 2.741308e-02 -1.828511e-01 1.859937e-01
-8.331759e-01 1.413894e+00 -6.188347e+00 5.657710e+00 3.606353e-05 2.741649e-02 -1.830310e-01 1.862268e-01
-8.325707e-01 1.413840e+00 -6.176455e+00 5.656837e+00 4.817935e-05 2.741103e-02 -1.831481e-01 1.861787e-01
-8.324230e-01 1.414167e+00 -6.174907e+00 5.651664e+00 5.105034e-05 2.741572e-02 -1.831821e-01 1.865296e-01
-8.315475e-01 1.414206e+00 -6.164442e+00 5.650105e+00 7.511470e-05 2.744407e-02 -1.833397e-01 1.870893e-01
