2.662112e+04 9.589000e-01 1.496981e-03 5.771939e-01 -9.999527e-01 9.999606e-01
2.811700e+03 2.157000e-01 -1.192619e-02 6.076153e-01 -7.372658e+00 5.740488e+00
2.537206e+03 2.000000e-01 -1.379291e-02 6.104286e-01 -7.424669e+00 4.958444e+00
2.052392e+03 1.671000e-01 -1.716462e-02 6.158635e-01 -7.471514e+00 4.735878e+00
1.911766e+03 1.605000e-01 -1.776738e-02 6.164903e-01 -7.408568e+00 4.953515e+00
1.945901e+03 1.616000e-01 -1.847506e-02 6.172854e-01 -7.384884e+00 5.173211e+00
1.800550e+03 1.542000e-01 -1.863577e-02 6.183067e-01 -7.478785e+00 5.106779e+00
1.755760e+03 1.521000e-01 -1.895386e-02 6.189034e-01 -7.453042e+00 5.116565e+00
1.890248e+03 1.582000e-01 -1.916452e-02 6.197349e-01 -7.388482e+00 5.035425e+00
1.764218e+03 1.503000e-01 -1.995009e-02 6.205913e-01 -7.339865e+00 4.973088e+00
1.769602e+03 1.518000e-01 -2.036260e-02 6.215991e-01 -7.360076e+00 4.887713e+00
1.729347e+03 1.499000e-01 -2.105709e-02 6.222087e-01 -7.368089e+00 4.901731e+00
1.668560e+03 1.480000e-01 -2.135409e-02 6.233724e-01 -7.372687e+00 4.745321e+00
1.664262e+03 1.469000e-01 -2.188389e-02 6.238126e-01 -7.302591e+00 4.798295e+00
1.760953e+03 1.493000e-01 -2.204168e-02 6.243175e-01 -7.288940e+00 4.822511e+00
1.658541e+03 1.455000e-01 -2.217761e-02 6.252566e-01 -7.193898e+00 4.898256e+00
1.686051e+03 1.478000e-01 -2.220028e-02 6.256034e-01 -7.193729e+00 4.882587e+00
1.642110e+03 1.451000e-01 -2.221497e-02 6.258723e-01 -7.184504e+00 4.885286e+00
1.657446e+03 1.469000e-01 -2.226996e-02 6.265572e-01 -7.182021e+00 4.993897e+00
1.628780e+03 1.423000e-01 -2.276150e-02 6.272098e-01 -7.158789e+00 4.874357e+00
1.655980e+03 1.463000e-01 -2.263450e-02 6.276411e-01 -7.109168e+00 4.886325e+00
1.657868e+03 1.461000e-01 -2.284174e-02 6.281255e-01 -7.093663e+00 4.893237e+00
1.872294e+03 1.515000e-01 -2.322426e-02 6.289215e-01 -7.083289e+00 4.866997e+00
1.612080e+03 1.427000e-01 -2.319952e-02 6.299989e-01 -7.069741e+00 4.796485e+00
1.618521e+03 1.441000e-01 -2.328352e-02 6.306065e-01 -7.042859e+00 4.771480e+00
1.606010e+03 1.426000e-01 -2.327836e-02 6.312055e-01 -6.999956e+00 4.694104e+00
1.664694e+03 1.459000e-01 -2.328771e-02 6.316951e-01 -6.976321e+00 4.582023e+00
1.620680e+03 1.431000e-01 -2.360829e-02 6.325369e-01 -6.948246e+00 4.492759e+00
1.723756e+03 1.496000e-01 -2.370667e-02 6.337215e-01 -6.920146e+00 4.576079e+00
1.603010e+03 1.448000e-01 -2.401152e-02 6.348907e-01 -6.910648e+00 4.596981e+00
1.670246e+03 1.457000e-01 -2.424176e-02 6.356996e-01 -6.908479e+00 4.654032e+00
1.587369e+03 1.435000e-01 -2.410327e-02 6.364079e-01 -6.905344e+00 4.701519e+00
1.592216e+03 1.403000e-01 -2.454851e-02 6.371521e-01 -6.899983e+00 4.761005e+00
1.777539e+03 1.498000e-01 -2.451307e-02 6.377928e-01 -6.894759e+00 4.806305e+00
1.611747e+03 1.412000e-01 -2.451445e-02 6.388151e-01 -6.888284e+00 4.810300e+00
1.591623e+03 1.417000e-01 -2.434842e-02 6.392860e-01 -6.885373e+00 4.824768e+00
1.590070e+03 1.427000e-01 -2.456468e-02 6.397004e-01 -6.883215e+00 4.866164e+00
