4.096353e+04 8.602000e-01 3.557989e-03 5.777233e-01 -9.999933e-01 9.999977e-01
1.289364e+03 7.400000e-02 -4.133535e-03 5.823706e-01 -1.730026e+00 1.889611e+00
9.739805e+02 5.610000e-02 -5.016555e-03 5.872721e-01 -2.101637e+00 2.009032e+00
7.957161e+02 4.620000e-02 -5.827719e-03 5.924834e-01 -2.380558e+00 2.372981e+00
7.107505e+02 4.050000e-02 -6.086832e-03 5.988880e-01 -2.584606e+00 2.669332e+00
6.531219e+02 3.720000e-02 -6.394040e-03 6.061510e-01 -2.765021e+00 2.945644e+00
6.014971e+02 3.600000e-02 -6.739272e-03 6.145472e-01 -2.903698e+00 3.211505e+00
5.784238e+02 3.410000e-02 -7.287628e-03 6.241507e-01 -3.113065e+00 3.512527e+00
5.525615e+02 3.320000e-02 -8.083213e-03 6.348557e-01 -3.276987e+00 3.740218e+00
5.407574e+02 3.270000e-02 -9.187978e-03 6.466896e-01 -3.392178e+00 4.000500e+00
5.341748e+02 3.170000e-02 -1.021850e-02 6.586753e-01 -3.508404e+00 4.223641e+00
5.152556e+02 3.100000e-02 -1.062326e-02 6.716639e-01 -3.630325e+00 4.469869e+00
5.122881e+02 3.170000e-02 -1.163534e-02 6.849765e-01 -3.725531e+00 4.628646e+00
4.915264e+02 3.040000e-02 -1.219774e-02 6.989458e-01 -3.873757e+00 4.772153e+00
4.986457e+02 3.130000e-02 -1.299129e-02 7.136412e-01 -4.063505e+00 5.013232e+00
4.968163e+02 3.100000e-02 -1.369636e-02 7.286521e-01 -4.183352e+00 5.110074e+00
4.995921e+02 3.080000e-02 -1.482613e-02 7.439406e-01 -4.314424e+00 5.287415e+00
4.795875e+02 3.040000e-02 -1.568748e-02 7.590708e-01 -4.433316e+00 5.396116e+00
4.756177e+02 3.230000e-02 -1.711243e-02 7.751766e-01 -4.547543e+00 5.526957e+00
4.740679e+02 2.990000e-02 -1.731583e-02 7.913895e-01 -4.700437e+00 5.658677e+00
4.629197e+02 3.000000e-02 -1.796713e-02 8.074114e-01 -4.865413e+00 5.764753e+00
4.695766e+02 3.060000e-02 -1.854082e-02 8.237650e-01 -5.028173e+00 5.881581e+00
4.767589e+02 3.020000e-02 -1.998463e-02 8.406176e-01 -5.234008e+00 5.902810e+00
4.766730e+02 3.000000e-02 -2.040115e-02 8.570286e-01 -5.362366e+00 6.059195e+00
4.582747e+02 2.870000e-02 -2.121120e-02 8.738294e-01 -5.530578e+00 6.249568e+00
4.662110e+02 3.060000e-02 -2.248991e-02 8.907275e-01 -5.778978e+00 6.374006e+00
4.750804e+02 3.210000e-02 -2.220037e-02 9.077047e-01 -5.810879e+00 6.441154e+00
4.616322e+02 3.170000e-02 -2.306393e-02 9.244745e-01 -5.893422e+00 6.544478e+00
4.666844e+02 2.970000e-02 -2.374284e-02 9.409934e-01 -6.007132e+00 6.628761e+00
4.706333e+02 3.150000e-02 -2.456052e-02 9.578644e-01 -6.124981e+00 6.695000e+00
