-3.860366e+00 1.222995e+01 -7.663871e+01 4.350796e+01 1.320757e-06 1.659416e-03 -1.262285e-01 1.262285e-01
-3.958978e+00 1.268987e+01 -7.304984e+01 4.373417e+01 3.019140e-09 1.312893e-03 -1.262285e-01 1.262285e-01
-3.969448e+00 1.293813e+01 -7.234484e+01 4.797661e+01 7.997403e-07 1.221995e-03 -1.262285e-01 1.262285e-01
-4.081224e+00 1.309481e+01 -7.233079e+01 5.052222e+01 3.323088e-07 1.152241e-03 -1.262285e-01 1.262285e-01
-4.089915e+00 1.323024e+01 -7.420672e+01 5.484504e+01 3.965473e-07 1.090013e-03 -1.262285e-01 1.262285e-01
-4.179540e+00 1.346472e+01 -7.410016e+01 6.068097e+01 3.731791e-07 1.077812e-03 -1.262285e-01 1.262285e-01
-4.194625e+00 1.357485e+01 -7.356581e+01 6.244296e+01 3.400115e-07 1.025536e-03 -1.262285e-01 1.262285e-01
-4.213448e+00 1.366907e+01 -7.297960e+01 6.204520e+01 1.343705e-07 1.005526e-03 -1.262285e-01 1.262285e-01
-4.316728e+00 1.373251e+01 -7.128411e+01 6.355770e+01 -2.257065e-07 1.006834e-03 -1.316142e-01 1.262285e-01
-4.262789e+00 1.386121e+01 -7.224196e+01 6.564492e+01 7.361845e-07 9.888039e-04 -1.262285e-01 1.262283e-01
-4.259296e+00 1.397608e+01 -7.243710e+01 6.974518e+01 6.694330e-07 9.683057e-04 -1.292868e-01 1.262285e-01
-4.301942e+00 1.406433e+01 -7.284554e+01 6.777598e+01 1.617079e-07 9.458475e-04 -1.319552e-01 1.262284e-01
-4.317912e+00 1.409578e+01 -7.157864e+01 6.870774e+01 2.903751e-07 9.370568e-04 -1.312810e-01 1.262285e-01
-4.358812e+00 1.416900e+01 -7.176704e+01 7.051400e+01 1.187125e-07 9.338272e-04 -1.380780e-01 1.301708e-01
-4.360371e+00 1.423243e+01 -7.148874e+01 7.078440e+01 3.594004e-07 9.173985e-04 -1.373219e-01 1.262281e-01
-4.386064e+00 1.424418e+01 -7.180541e+01 7.058512e+01 5.473197e-08 9.120079e-04 -1.398175e-01 1.262285e-01
-4.358473e+00 1.431487e+01 -7.257791e+01 7.087946e+01 4.170547e-07 9.227669e-04 -1.422700e-01 1.262285e-01
-4.422565e+00 1.442551e+01 -7.205757e+01 7.364087e+01 4.336552e-07 9.033716e-04 -1.328948e-01 1.262285e-01
-4.408083e+00 1.448999e+01 -7.258436e+01 7.541886e+01 2.728671e-07 9.030314e-04 -1.364598e-01 1.372428e-01
-4.415203e+00 1.455943e+01 -7.253065e+01 7.557530e+01 1.168298e-07 8.736633e-04 -1.454012e-01 1.266701e-01
-4.413027e+00 1.456858e+01 -7.305615e+01 7.557348e+01 1.167027e-07 8.718491e-04 -1.281520e-01 1.262285e-01
-4.494355e+00 1.457281e+01 -7.335396e+01 7.631665e+01 2.270145e-07 8.710112e-04 -1.364625e-01 1.297272e-01
-4.529870e+00 1.469157e+01 -7.282352e+01 7.728106e+01 -7.108571e-08 8.770596e-04 -1.360885e-01 1.302136e-01
-4.507900e+00 1.475687e+01 -7.273900e+01 7.804543e+01 1.645461e-07 8.656735e-04 -1.370045e-01 1.295938e-01
-4.529270e+00 1.475057e+01 -7.276426e+01 7.823033e+01 -2.188525e-07 8.467654e-04 -1.291715e-01 1.319853e-01
