7.118686e+01 3.697917e-01 -4.013989e-02 6.067768e-01 -9.987030e-01 9.952698e-01
6.374504e+01 3.697917e-01 -1.389414e-01 1.088685e+00 -1.133961e+01 9.852448e-01
5.703239e+01 3.697917e-01 -3.930422e-01 2.586675e+00 -2.562856e+01 1.089005e+00
5.418245e+01 3.697917e-01 -5.738107e-01 3.745325e+00 -3.532268e+01 1.182846e+00
5.541594e+01 3.541667e-01 -6.939356e-01 4.514764e+00 -4.165849e+01 1.247284e+00
5.544785e+01 3.697917e-01 -7.810701e-01 5.074177e+00 -4.634019e+01 1.289734e+00
5.500485e+01 3.697917e-01 -8.460640e-01 5.498010e+00 -4.992169e+01 1.318878e+00
5.354445e+01 3.697917e-01 -8.933009e-01 5.810101e+00 -5.251099e+01 1.340942e+00
5.461774e+01 3.697917e-01 -9.277849e-01 6.043734e+00 -5.448299e+01 1.361862e+00
5.469318e+01 3.697917e-01 -9.545331e-01 6.231289e+00 -5.609827e+01 1.386124e+00
5.609448e+01 3.697917e-01 -9.764687e-01 6.385657e+00 -5.741196e+01 1.419006e+00
5.619547e+01 3.697917e-01 -9.943641e-01 6.510236e+00 -5.846826e+01 1.458481e+00
5.627766e+01 3.697917e-01 -1.009979e+00 6.611892e+00 -5.933647e+01 1.506134e+00
5.600060e+01 3.697917e-01 -1.023396e+00 6.691567e+00 -6.000359e+01 1.558884e+00
5.518234e+01 3.697917e-01 -1.036093e+00 6.753950e+00 -6.052959e+01 1.618378e+00
5.379880e+01 3.697917e-01 -1.047033e+00 6.804289e+00 -6.095360e+01 1.680450e+00
5.288074e+01 3.697917e-01 -1.055967e+00 6.843711e+00 -6.128459e+01 1.745789e+00
5.282103e+01 3.697917e-01 -1.062288e+00 6.875211e+00 -6.154466e+01 1.808380e+00
5.202779e+01 3.697917e-01 -1.067155e+00 6.900276e+00 -6.174940e+01 1.871979e+00
5.179774e+01 3.697917e-01 -1.069252e+00 6.919830e+00 -6.191066e+01 1.927261e+00
5.168466e+01 3.697917e-01 -1.070351e+00 6.936505e+00 -6.204671e+01 1.976791e+00
5.190904e+01 3.697917e-01 -1.069944e+00 6.950552e+00 -6.215735e+01 2.022430e+00
5.161995e+01 3.697917e-01 -1.068473e+00 6.961580e+00 -6.224072e+01 2.067047e+00
5.153758e+01 3.697917e-01 -1.067332e+00 6.969998e+00 -6.229996e+01 2.110367e+00
5.096623e+01 3.593750e-01 -1.066703e+00 6.976964e+00 -6.235237e+01 2.154327e+00
5.098933e+01 3.541667e-01 -1.066404e+00 6.983993e+00 -6.240488e+01 2.196686e+00
5.025652e+01 3.489583e-01 -1.067353e+00 6.991057e+00 -6.245752e+01 2.240295e+00
5.004424e+01 3.489583e-01 -1.068913e+00 6.998177e+00 -6.251025e+01 2.282898e+00
4.952553e+01 3.385417e-01 -1.071379e+00 7.005378e+00 -6.256331e+01 2.326981e+00
4.914748e+01 3.333333e-01 -1.072813e+00 7.012684e+00 -6.261655e+01 2.366409e+00
4.893233e+01 3.229167e-01 -1.073839e+00 7.020096e+00 -6.266983e+01 2.405884e+00
4.857487e+01 3.177083e-01 -1.075733e+00 7.027544e+00 -6.272325e+01 2.444046e+00
4.843239e+01 3.333333e-01 -1.077912e+00 7.034984e+00 -6.277676e+01 2.477798e+00
4.780180e+01 3.125000e-01 -1.079506e+00 7.042522e+00 -6.283041e+01 2.509033e+00
4.731767e+01 3.020833e-01 -1.081242e+00 7.050108e+00 -6.288411e+01 2.536591e+00
4.729509e+01 3.125000e-01 -1.084962e+00 7.057607e+00 -6.293790e+01 2.564743e+00
4.675172e+01 3.125000e-01 -1.087393e+00 7.065180e+00 -6.299173e+01 2.587631e+00
4.689467e+01 3.177083e-01 -1.087843e+00 7.072753e+00 -6.304565e+01 2.602371e+00
4.609401e+01 3.125000e-01 -1.090910e+00 7.080208e+00 -6.309958e+01 2.622162e+00
4.591481e+01 3.072917e-01 -1.094227e+00 7.087781e+00 -6.315433e+01 2.642410e+00
4.560600e+01 2.968750e-01 -1.096231e+00 7.095669e+00 -6.321104e+01 2.655029e+00
4.512885e+01 3.020833e-01 -1.098400e+00 7.103766e+00 -6.326891e+01 2.667694e+00
4.556430e+01 3.020833e-01 -1.099380e+00 7.112032e+00 -6.332941e+01 2.669800e+00
4.502428e+01 2.968750e-01 -1.101033e+00 7.120589e+00 -6.339206e+01 2.673798e+00
4.457727e+01 3.020833e-01 -1.101786e+00 7.129135e+00 -6.345486e+01 2.674927e+00
4.499608e+01 3.072917e-01 -1.100582e+00 7.137656e+00 -6.351782e+01 2.664124e+00
4.435445e+01 3.125000e-01 -1.102486e+00 7.146111e+00 -6.358083e+01 2.659454e+00
4.409138e+01 2.968750e-01 -1.105003e+00 7.154558e+00 -6.364439e+01 2.653793e+00
4.388490e+01 2.812500e-01 -1.107502e+00 7.163171e+00 -6.370909e+01 2.652283e+00
4.382935e+01 2.864583e-01 -1.107942e+00 7.171849e+00 -6.377425e+01 2.640305e+00
4.379178e+01 2.760417e-01 -1.106739e+00 7.180586e+00 -6.383963e+01 2.622665e+00
4.362444e+01 2.812500e-01 -1.103576e+00 7.189390e+00 -6.390520e+01 2.593658e+00
4.335190e+01 2.656250e-01 -1.101878e+00 7.198104e+00 -6.397086e+01 2.567154e+00
4.303629e+01 2.708333e-01 -1.103419e+00 7.206655e+00 -6.403656e+01 2.549393e+00
4.292502e+01 2.656250e-01 -1.103377e+00 7.215246e+00 -6.410265e+01 2.529099e+00
4.262906e+01 2.604167e-01 -1.104087e+00 7.223941e+00 -6.416939e+01 2.512741e+00
4.280609e+01 2.656250e-01 -1.101463e+00 7.232692e+00 -6.423636e+01 2.480392e+00
4.258627e+01 2.604167e-01 -1.099228e+00 7.241382e+00 -6.430347e+01 2.446472e+00
4.250842e+01 2.604167e-01 -1.097393e+00 7.250056e+00 -6.437071e+01 2.412415e+00
4.233315e+01 2.656250e-01 -1.097077e+00 7.258701e+00 -6.443800e+01 2.390793e+00
4.208095e+01 2.552083e-01 -1.096226e+00 7.267359e+00 -6.450539e+01 2.362091e+00
4.145828e+01 2.552083e-01 -1.095862e+00 7.276002e+00 -6.457300e+01 2.386307e+00
4.172072e+01 2.500000e-01 -1.094000e+00 7.284752e+00 -6.464070e+01 2.415405e+00
4.151035e+01 2.500000e-01 -1.093690e+00 7.293454e+00 -6.470845e+01 2.449142e+00
4.138660e+01 2.500000e-01 -1.092798e+00 7.302189e+00 -6.477629e+01 2.476990e+00
4.122821e+01 2.395833e-01 -1.088658e+00 7.311003e+00 -6.484418e+01 2.494797e+00
4.144492e+01 2.447917e-01 -1.084845e+00 7.319818e+00 -6.491216e+01 2.516495e+00
4.120169e+01 2.395833e-01 -1.083451e+00 7.328599e+00 -6.498018e+01 2.544922e+00
4.092531e+01 2.552083e-01 -1.085344e+00 7.337251e+00 -6.504829e+01 2.579224e+00
4.038383e+01 2.447917e-01 -1.084785e+00 7.345939e+00 -6.511641e+01 2.606216e+00
4.062872e+01 2.395833e-01 -1.082395e+00 7.354779e+00 -6.518462e+01 2.626328e+00
4.091071e+01 2.395833e-01 -1.077889e+00 7.363658e+00 -6.525282e+01 2.641296e+00
4.064191e+01 2.395833e-01 -1.076448e+00 7.372451e+00 -6.532108e+01 2.666977e+00
4.021428e+01 2.447917e-01 -1.076967e+00 7.381142e+00 -6.538937e+01 2.697433e+00
4.032585e+01 2.447917e-01 -1.075593e+00 7.390004e+00 -6.545767e+01 2.715393e+00
4.019841e+01 2.343750e-01 -1.070808e+00 7.398962e+00 -6.552597e+01 2.725388e+00
4.039232e+01 2.395833e-01 -1.069188e+00 7.407718e+00 -6.559436e+01 2.745377e+00
4.048415e+01 2.500000e-01 -1.068234e+00 7.416455e+00 -6.566307e+01 2.763931e+00
4.027582e+01 2.447917e-01 -1.066749e+00 7.425411e+00 -6.573344e+01 2.778214e+00
4.001357e+01 2.500000e-01 -1.067376e+00 7.434337e+00 -6.580450e+01 2.797226e+00
3.988606e+01 2.395833e-01 -1.067527e+00 7.443332e+00 -6.587575e+01 2.810303e+00
3.967244e+01 2.239583e-01 -1.063685e+00 7.452507e+00 -6.594708e+01 2.811768e+00
3.970757e+01 2.343750e-01 -1.063627e+00 7.461454e+00 -6.601851e+01 2.825241e+00
3.941809e+01 2.343750e-01 -1.063807e+00 7.470453e+00 -6.608998e+01 2.838074e+00
3.911896e+01 2.291667e-01 -1.064661e+00 7.479470e+00 -6.616145e+01 2.850967e+00
3.922336e+01 2.239583e-01 -1.061708e+00 7.488566e+00 -6.623306e+01 2.850891e+00
3.901288e+01 2.187500e-01 -1.060284e+00 7.497631e+00 -6.630504e+01 2.859390e+00
3.905998e+01 2.291667e-01 -1.061268e+00 7.506604e+00 -6.637720e+01 2.871872e+00
3.895856e+01 2.239583e-01 -1.062159e+00 7.515541e+00 -6.644949e+01 2.882339e+00
3.876141e+01 2.187500e-01 -1.061942e+00 7.524581e+00 -6.652188e+01 2.885971e+00
3.881253e+01 2.083333e-01 -1.062201e+00 7.533632e+00 -6.659427e+01 2.891388e+00
3.954137e+01 2.135417e-01 -1.058794e+00 7.542862e+00 -6.666670e+01 2.886932e+00
3.916389e+01 2.135417e-01 -1.058281e+00 7.551958e+00 -6.673923e+01 2.894058e+00
3.863490e+01 2.031250e-01 -1.062274e+00 7.560832e+00 -6.681194e+01 2.909302e+00
3.847209e+01 2.031250e-01 -1.063255e+00 7.569903e+00 -6.688474e+01 2.916260e+00
3.900270e+01 2.135417e-01 -1.060880e+00 7.579120e+00 -6.695758e+01 2.915451e+00
3.890393e+01 2.187500e-01 -1.057086e+00 7.588464e+00 -6.703047e+01 2.907364e+00
3.881306e+01 2.135417e-01 -1.055447e+00 7.597731e+00 -6.710341e+01 2.905121e+00
3.892253e+01 2.083333e-01 -1.058837e+00 7.606639e+00 -6.717635e+01 2.920090e+00
3.852109e+01 2.135417e-01 -1.063382e+00 7.615541e+00 -6.724937e+01 2.934982e+00
3.868854e+01 2.083333e-01 -1.061942e+00 7.624789e+00 -6.732249e+01 2.932007e+00
3.930846e+01 2.187500e-01 -1.059639e+00 7.634155e+00 -6.739561e+01 2.926376e+00
3.902399e+01 2.135417e-01 -1.055509e+00 7.643673e+00 -6.746873e+01 2.915771e+00
3.908192e+01 2.083333e-01 -1.055789e+00 7.652914e+00 -6.754190e+01 2.921234e+00
3.821837e+01 2.083333e-01 -1.057171e+00 7.662116e+00 -6.761511e+01 2.929382e+00
3.808942e+01 2.135417e-01 -1.058137e+00 7.671433e+00 -6.768832e+01 2.933228e+00
3.815306e+01 2.135417e-01 -1.056491e+00 7.680882e+00 -6.776158e+01 2.931595e+00
3.835431e+01 2.135417e-01 -1.054773e+00 7.690407e+00 -6.783488e+01 2.929321e+00
3.837508e+01 2.135417e-01 -1.054153e+00 7.699822e+00 -6.790819e+01 2.930466e+00
3.854550e+01 2.135417e-01 -1.053700e+00 7.709275e+00 -6.798149e+01 2.932953e+00
3.823825e+01 2.135417e-01 -1.054620e+00 7.718650e+00 -6.805479e+01 2.940628e+00
3.839046e+01 2.135417e-01 -1.054761e+00 7.728136e+00 -6.812814e+01 2.939835e+00
3.847139e+01 2.083333e-01 -1.054711e+00 7.737622e+00 -6.820154e+01 2.937714e+00
3.849303e+01 2.083333e-01 -1.055390e+00 7.747181e+00 -6.827493e+01 2.941818e+00
3.836781e+01 2.135417e-01 -1.055264e+00 7.756745e+00 -6.834833e+01 2.943649e+00
3.833446e+01 2.135417e-01 -1.054797e+00 7.766366e+00 -6.842186e+01 2.948914e+00
3.876439e+01 2.135417e-01 -1.053403e+00 7.776048e+00 -6.849567e+01 2.944550e+00
3.850003e+01 2.083333e-01 -1.053177e+00 7.785678e+00 -6.856975e+01 2.948074e+00
3.811108e+01 2.083333e-01 -1.055392e+00 7.794831e+00 -6.863490e+01 2.959366e+00
3.847878e+01 2.135417e-01 -1.054015e+00 7.802695e+00 -6.869099e+01 2.962494e+00
3.849130e+01 2.135417e-01 -1.055341e+00 7.810341e+00 -6.874712e+01 2.971451e+00
3.855544e+01 2.083333e-01 -1.052616e+00 7.818260e+00 -6.880327e+01 2.987244e+00
3.838467e+01 2.083333e-01 -1.049909e+00 7.826167e+00 -6.885942e+01 3.053864e+00
3.819992e+01 2.083333e-01 -1.051470e+00 7.833845e+00 -6.891562e+01 3.108658e+00
3.808749e+01 2.083333e-01 -1.053531e+00 7.841456e+00 -6.897197e+01 3.163269e+00
3.832214e+01 2.083333e-01 -1.052852e+00 7.849260e+00 -6.902843e+01 3.221924e+00
3.835101e+01 2.083333e-01 -1.051430e+00 7.857170e+00 -6.908488e+01 3.284393e+00
3.821909e+01 2.031250e-01 -1.052943e+00 7.864929e+00 -6.914143e+01 3.341400e+00
3.810181e+01 2.083333e-01 -1.054361e+00 7.871481e+00 -6.918843e+01 3.385849e+00
3.794618e+01 1.979167e-01 -1.055797e+00 7.879040e+00 -6.924498e+01 3.428482e+00
3.803026e+01 2.031250e-01 -1.053827e+00 7.886818e+00 -6.930156e+01 3.478439e+00
3.788229e+01 2.031250e-01 -1.053921e+00 7.894494e+00 -6.935822e+01 3.521057e+00
3.796977e+01 1.927083e-01 -1.056877e+00 7.900420e+00 -6.939575e+01 3.567307e+00
3.808032e+01 1.979167e-01 -1.055483e+00 7.906020e+00 -6.943329e+01 3.610107e+00
3.794806e+01 1.979167e-01 -1.056197e+00 7.911507e+00 -6.947083e+01 3.657120e+00
3.796881e+01 1.927083e-01 -1.058485e+00 7.915350e+00 -6.949002e+01 3.701401e+00
3.784206e+01 1.927083e-01 -1.058623e+00 7.918821e+00 -6.950922e+01 3.748154e+00
3.837558e+01 1.979167e-01 -1.058915e+00 7.923312e+00 -6.953760e+01 3.789352e+00
3.850580e+01 2.031250e-01 -1.057944e+00 7.927851e+00 -6.956602e+01 3.837311e+00
3.853717e+01 2.031250e-01 -1.056527e+00 7.930393e+00 -6.957564e+01 3.887039e+00
3.878261e+01 2.031250e-01 -1.058082e+00 7.933776e+00 -6.959486e+01 3.927979e+00
3.828125e+01 1.927083e-01 -1.061270e+00 7.937027e+00 -6.961409e+01 3.967224e+00
3.847305e+01 1.979167e-01 -1.061077e+00 7.939399e+00 -6.962370e+01 4.011307e+00
3.838304e+01 1.927083e-01 -1.059765e+00 7.942962e+00 -6.964293e+01 4.056244e+00
3.835083e+01 1.927083e-01 -1.059332e+00 7.946400e+00 -6.966216e+01 4.100327e+00
3.834804e+01 1.927083e-01 -1.060341e+00 7.949659e+00 -6.968140e+01 4.139175e+00
3.853123e+01 1.927083e-01 -1.060082e+00 7.953142e+00 -6.970065e+01 4.187714e+00
3.829129e+01 1.979167e-01 -1.059944e+00 7.955473e+00 -6.971028e+01 4.227676e+00
3.843391e+01 1.927083e-01 -1.062656e+00 7.958711e+00 -6.972954e+01 4.269989e+00
3.838417e+01 2.031250e-01 -1.060898e+00 7.962196e+00 -6.974879e+01 4.320557e+00
3.856554e+01 2.031250e-01 -1.060658e+00 7.966046e+00 -6.977725e+01 4.363281e+00
3.838805e+01 2.031250e-01 -1.062430e+00 7.971316e+00 -6.981491e+01 4.406204e+00
3.837364e+01 1.927083e-01 -1.065813e+00 7.976290e+00 -6.985257e+01 4.435638e+00
3.896344e+01 2.135417e-01 -1.063427e+00 7.980680e+00 -6.988103e+01 4.478149e+00
3.879128e+01 2.031250e-01 -1.064342e+00 7.985876e+00 -6.991884e+01 4.510818e+00
3.821057e+01 1.875000e-01 -1.068997e+00 7.992006e+00 -6.996637e+01 4.544022e+00
3.848604e+01 1.979167e-01 -1.068037e+00 7.997316e+00 -7.000421e+01 4.581085e+00
3.840787e+01 2.135417e-01 -1.064097e+00 8.001804e+00 -7.003287e+01 4.617508e+00
3.804306e+01 2.083333e-01 -1.065172e+00 8.008046e+00 -7.008047e+01 4.647156e+00
3.847635e+01 1.927083e-01 -1.068428e+00 8.014267e+00 -7.012808e+01 4.680634e+00
3.848190e+01 1.979167e-01 -1.071623e+00 8.019309e+00 -7.016599e+01 4.710632e+00
3.839990e+01 1.875000e-01 -1.071667e+00 8.024598e+00 -7.020390e+01 4.749405e+00
3.879803e+01 2.083333e-01 -1.068185e+00 8.029035e+00 -7.023262e+01 4.791626e+00
3.887234e+01 2.135417e-01 -1.067232e+00 8.034800e+00 -7.028035e+01 4.824478e+00
3.859334e+01 1.979167e-01 -1.070218e+00 8.042450e+00 -7.034706e+01 4.855164e+00
3.840215e+01 1.979167e-01 -1.072152e+00 8.052317e+00 -7.042398e+01 4.887253e+00
3.834009e+01 1.979167e-01 -1.075082e+00 8.059918e+00 -7.049074e+01 4.914001e+00
3.847591e+01 2.031250e-01 -1.076038e+00 8.069337e+00 -7.056679e+01 4.950272e+00
3.857379e+01 2.083333e-01 -1.076642e+00 8.078634e+00 -7.064284e+01 4.979462e+00
3.873015e+01 2.135417e-01 -1.077752e+00 8.088474e+00 -7.072913e+01 5.007187e+00
3.871086e+01 2.135417e-01 -1.079153e+00 8.098304e+00 -7.080620e+01 5.032776e+00
3.828043e+01 2.031250e-01 -1.082117e+00 8.107764e+00 -7.088429e+01 5.056061e+00
3.863963e+01 2.187500e-01 -1.082022e+00 8.117899e+00 -7.097215e+01 5.085495e+00
3.896848e+01 2.239583e-01 -1.079828e+00 8.128704e+00 -7.106001e+01 5.118500e+00
3.837662e+01 2.135417e-01 -1.084927e+00 8.138916e+00 -7.114787e+01 5.137527e+00
3.806293e+01 1.979167e-01 -1.089429e+00 8.148685e+00 -7.122606e+01 5.154556e+00
3.836040e+01 2.083333e-01 -1.091054e+00 8.158155e+00 -7.130424e+01 5.179214e+00
3.886848e+01 2.239583e-01 -1.087559e+00 8.167955e+00 -7.138243e+01 5.210785e+00
3.852492e+01 2.239583e-01 -1.089948e+00 8.177273e+00 -7.146062e+01 5.233215e+00
3.832941e+01 2.239583e-01 -1.091966e+00 8.186568e+00 -7.153880e+01 5.255615e+00
3.808943e+01 2.135417e-01 -1.093917e+00 8.195854e+00 -7.161699e+01 5.271378e+00
3.790598e+01 2.083333e-01 -1.096933e+00 8.205039e+00 -7.169518e+01 5.291885e+00
3.777380e+01 2.083333e-01 -1.098546e+00 8.214472e+00 -7.177336e+01 5.318512e+00
3.769557e+01 2.083333e-01 -1.096161e+00 8.225159e+00 -7.186134e+01 5.351044e+00
3.798322e+01 2.187500e-01 -1.095192e+00 8.234785e+00 -7.193953e+01 5.380859e+00
3.805125e+01 2.135417e-01 -1.095656e+00 8.245496e+00 -7.202751e+01 5.414246e+00
3.770918e+01 2.083333e-01 -1.100335e+00 8.255219e+00 -7.210573e+01 5.429749e+00
3.778514e+01 2.083333e-01 -1.102096e+00 8.262321e+00 -7.216438e+01 5.447220e+00
3.780516e+01 2.187500e-01 -1.099202e+00 8.269798e+00 -7.222304e+01 5.469635e+00
3.828955e+01 2.291667e-01 -1.098125e+00 8.277518e+00 -7.229146e+01 5.483643e+00
3.810266e+01 2.187500e-01 -1.100070e+00 8.288049e+00 -7.237955e+01 5.504562e+00
3.786485e+01 2.031250e-01 -1.104871e+00 8.297161e+00 -7.245782e+01 5.518936e+00
3.802412e+01 2.135417e-01 -1.105091e+00 8.306660e+00 -7.253610e+01 5.544754e+00
3.822939e+01 2.239583e-01 -1.103107e+00 8.316194e+00 -7.261447e+01 5.567627e+00
3.829915e+01 2.239583e-01 -1.103243e+00 8.326720e+00 -7.270268e+01 5.588623e+00
3.813916e+01 2.135417e-01 -1.102493e+00 8.337071e+00 -7.279089e+01 5.601715e+00
3.821120e+01 2.135417e-01 -1.107027e+00 8.347272e+00 -7.287910e+01 5.616364e+00
3.793970e+01 2.083333e-01 -1.109523e+00 8.356496e+00 -7.295747e+01 5.636749e+00
3.826663e+01 2.187500e-01 -1.109333e+00 8.365871e+00 -7.303584e+01 5.659515e+00
3.844017e+01 2.135417e-01 -1.106715e+00 8.375980e+00 -7.312411e+01 5.684052e+00
3.847888e+01 2.187500e-01 -1.106530e+00 8.385932e+00 -7.320262e+01 5.701721e+00
3.849016e+01 2.135417e-01 -1.108420e+00 8.395694e+00 -7.329106e+01 5.714294e+00
3.812993e+01 1.979167e-01 -1.110363e+00 8.406096e+00 -7.337950e+01 5.733536e+00
3.804083e+01 2.031250e-01 -1.111640e+00 8.415952e+00 -7.345805e+01 5.755386e+00
3.848361e+01 2.135417e-01 -1.109849e+00 8.426412e+00 -7.354649e+01 5.775208e+00
3.849669e+01 2.135417e-01 -1.109793e+00 8.435704e+00 -7.362505e+01 5.793915e+00
3.821071e+01 2.031250e-01 -1.114045e+00 8.445946e+00 -7.371349e+01 5.807983e+00
3.777103e+01 1.979167e-01 -1.116665e+00 8.456180e+00 -7.380197e+01 5.823639e+00
3.844783e+01 2.239583e-01 -1.112407e+00 8.466990e+00 -7.389052e+01 5.852036e+00
3.906400e+01 2.343750e-01 -1.108776e+00 8.477205e+00 -7.397906e+01 5.875046e+00
3.861496e+01 2.239583e-01 -1.112793e+00 8.487370e+00 -7.406761e+01 5.882919e+00
3.750706e+01 1.979167e-01 -1.121064e+00 8.497212e+00 -7.415616e+01 5.882904e+00
3.788074e+01 2.031250e-01 -1.119848e+00 8.507289e+00 -7.423480e+01 5.904266e+00
3.843031e+01 2.291667e-01 -1.118357e+00 8.517811e+00 -7.432335e+01 5.921417e+00
3.858157e+01 2.343750e-01 -1.117432e+00 8.527768e+00 -7.441190e+01 5.936279e+00
3.788348e+01 2.187500e-01 -1.119074e+00 8.538784e+00 -7.450044e+01 5.956390e+00
3.789554e+01 2.083333e-01 -1.120610e+00 8.549203e+00 -7.458899e+01 5.971329e+00
3.791679e+01 1.979167e-01 -1.123870e+00 8.558358e+00 -7.466763e+01 5.981171e+00
3.788187e+01 2.187500e-01 -1.121023e+00 8.568440e+00 -7.475618e+01 6.001633e+00
3.846614e+01 2.239583e-01 -1.120375e+00 8.579504e+00 -7.484473e+01 6.017960e+00
3.795985e+01 2.239583e-01 -1.121242e+00 8.589320e+00 -7.493327e+01 6.028381e+00
3.783681e+01 2.187500e-01 -1.122589e+00 8.599740e+00 -7.502182e+01 6.040939e+00
3.771225e+01 1.979167e-01 -1.125993e+00 8.609386e+00 -7.510046e+01 6.051102e+00
3.792250e+01 2.031250e-01 -1.128033e+00 8.618510e+00 -7.517911e+01 6.061432e+00
3.837927e+01 2.343750e-01 -1.125813e+00 8.627893e+00 -7.525775e+01 6.078461e+00
3.849304e+01 2.343750e-01 -1.121347e+00 8.637962e+00 -7.534630e+01 6.095398e+00
3.818265e+01 2.187500e-01 -1.125868e+00 8.647432e+00 -7.542494e+01 6.101990e+00
3.767027e+01 1.927083e-01 -1.132133e+00 8.656146e+00 -7.550359e+01 6.106216e+00
3.760269e+01 1.979167e-01 -1.135308e+00 8.665801e+00 -7.559213e+01 6.120056e+00
3.840155e+01 2.187500e-01 -1.131573e+00 8.675982e+00 -7.567078e+01 6.143646e+00
3.884108e+01 2.343750e-01 -1.127503e+00 8.686137e+00 -7.575932e+01 6.161346e+00
3.805753e+01 2.135417e-01 -1.132450e+00 8.696117e+00 -7.584799e+01 6.164902e+00
3.722581e+01 1.979167e-01 -1.136871e+00 8.705699e+00 -7.592673e+01 6.178436e+00
3.795639e+01 2.135417e-01 -1.137157e+00 8.715011e+00 -7.600546e+01 6.197250e+00
3.794693e+01 2.083333e-01 -1.136172e+00 8.724323e+00 -7.608420e+01 6.212433e+00
3.824229e+01 2.187500e-01 -1.135715e+00 8.733665e+00 -7.616293e+01 6.225128e+00
3.773483e+01 2.135417e-01 -1.137747e+00 8.743356e+00 -7.625160e+01 6.235214e+00
3.762491e+01 2.135417e-01 -1.141149e+00 8.752936e+00 -7.633034e+01 6.241928e+00
3.804926e+01 2.187500e-01 -1.140607e+00 8.762891e+00 -7.641901e+01 6.257004e+00
3.801404e+01 2.239583e-01 -1.140560e+00 8.773850e+00 -7.650778e+01 6.268860e+00
3.785907e+01 2.239583e-01 -1.142710e+00 8.783496e+00 -7.659656e+01 6.278214e+00
3.792744e+01 2.083333e-01 -1.145303e+00 8.793179e+00 -7.667538e+01 6.290085e+00
3.763350e+01 2.135417e-01 -1.147576e+00 8.802287e+00 -7.675421e+01 6.296829e+00
3.780907e+01 2.291667e-01 -1.145819e+00 8.811784e+00 -7.683304e+01 6.317001e+00
3.771519e+01 2.291667e-01 -1.145057e+00 8.821090e+00 -7.691187e+01 6.331497e+00
3.761681e+01 2.291667e-01 -1.144783e+00 8.830533e+00 -7.699069e+01 6.351212e+00
3.798921e+01 2.031250e-01 -1.149606e+00 8.839408e+00 -7.706952e+01 6.354126e+00
3.778471e+01 2.135417e-01 -1.148334e+00 8.848702e+00 -7.714835e+01 6.367538e+00
3.784099e+01 1.979167e-01 -1.150203e+00 8.857938e+00 -7.722717e+01 6.384048e+00
3.781052e+01 2.239583e-01 -1.147394e+00 8.867579e+00 -7.730609e+01 6.406052e+00
3.770108e+01 2.187500e-01 -1.148052e+00 8.878023e+00 -7.739499e+01 6.423508e+00
3.779692e+01 2.135417e-01 -1.148999e+00 8.888393e+00 -7.748389e+01 6.437042e+00
3.792964e+01 2.031250e-01 -1.150467e+00 8.897619e+00 -7.756281e+01 6.446243e+00
3.809094e+01 2.031250e-01 -1.153411e+00 8.906711e+00 -7.764172e+01 6.456909e+00
3.785722e+01 2.083333e-01 -1.152260e+00 8.916247e+00 -7.772064e+01 6.475113e+00
3.787273e+01 2.187500e-01 -1.150340e+00 8.925699e+00 -7.779956e+01 6.490967e+00
3.764656e+01 2.239583e-01 -1.150531e+00 8.935017e+00 -7.787848e+01 6.506027e+00
3.781630e+01 2.239583e-01 -1.151274e+00 8.944728e+00 -7.796738e+01 6.511307e+00
3.809430e+01 2.187500e-01 -1.153078e+00 8.954283e+00 -7.804630e+01 6.508240e+00
3.784406e+01 2.031250e-01 -1.156404e+00 8.963338e+00 -7.812521e+01 6.515915e+00
3.763887e+01 2.031250e-01 -1.156397e+00 8.972557e+00 -7.820413e+01 6.523804e+00
3.811479e+01 2.083333e-01 -1.157211e+00 8.981813e+00 -7.828305e+01 6.535965e+00
3.835342e+01 2.239583e-01 -1.154846e+00 8.991907e+00 -7.837195e+01 6.554459e+00
3.821347e+01 2.083333e-01 -1.154934e+00 9.001841e+00 -7.845087e+01 6.570114e+00
3.827448e+01 2.083333e-01 -1.157555e+00 9.010880e+00 -7.852979e+01 6.575424e+00
3.845018e+01 2.083333e-01 -1.158352e+00 9.020088e+00 -7.860870e+01 6.584213e+00
3.818977e+01 2.083333e-01 -1.159245e+00 9.029313e+00 -7.868762e+01 6.591156e+00
3.796886e+01 2.083333e-01 -1.159681e+00 9.038625e+00 -7.876654e+01 6.602844e+00
3.805457e+01 2.031250e-01 -1.160151e+00 9.047932e+00 -7.884546e+01 6.615204e+00
3.828250e+01 2.031250e-01 -1.160666e+00 9.057260e+00 -7.892438e+01 6.629822e+00
3.835028e+01 2.083333e-01 -1.160119e+00 9.066575e+00 -7.900330e+01 6.639969e+00
3.851035e+01 2.083333e-01 -1.160385e+00 9.075873e+00 -7.908221e+01 6.651215e+00
3.809450e+01 1.979167e-01 -1.163522e+00 9.086014e+00 -7.917111e+01 6.661652e+00
3.808107e+01 2.031250e-01 -1.164134e+00 9.095196e+00 -7.925003e+01 6.671021e+00
3.841307e+01 2.083333e-01 -1.163359e+00 9.104634e+00 -7.932895e+01 6.686493e+00
3.851787e+01 2.083333e-01 -1.164013e+00 9.114969e+00 -7.941785e+01 6.694748e+00
3.850037e+01 2.031250e-01 -1.165234e+00 9.124162e+00 -7.949677e+01 6.701126e+00
3.849356e+01 2.031250e-01 -1.165308e+00 9.133451e+00 -7.957568e+01 6.711945e+00
3.851309e+01 2.031250e-01 -1.165024e+00 9.142741e+00 -7.965460e+01 6.725723e+00
3.805606e+01 2.031250e-01 -1.167090e+00 9.151858e+00 -7.973352e+01 6.728928e+00
3.875688e+01 2.031250e-01 -1.166534e+00 9.161169e+00 -7.981244e+01 6.739136e+00
3.891458e+01 2.187500e-01 -1.165693e+00 9.171554e+00 -7.990134e+01 6.749725e+00
3.853668e+01 2.031250e-01 -1.168593e+00 9.180586e+00 -7.998026e+01 6.755234e+00
3.831699e+01 2.187500e-01 -1.172036e+00 9.189539e+00 -8.005917e+01 6.758759e+00
3.830763e+01 2.083333e-01 -1.171088e+00 9.199044e+00 -8.013809e+01 6.779495e+00
3.873273e+01 2.187500e-01 -1.166545e+00 9.208753e+00 -8.021701e+01 6.801834e+00
3.844981e+01 2.187500e-01 -1.168625e+00 9.217847e+00 -8.029593e+01 6.803558e+00
3.775581e+01 2.031250e-01 -1.171334e+00 9.226956e+00 -8.037485e+01 6.811157e+00
3.778836e+01 2.083333e-01 -1.172140e+00 9.236227e+00 -8.045377e+01 6.822052e+00
3.799495e+01 2.031250e-01 -1.172868e+00 9.245431e+00 -8.053268e+01 6.829941e+00
3.858705e+01 2.135417e-01 -1.170757e+00 9.254816e+00 -8.061160e+01 6.840302e+00
3.862099e+01 2.135417e-01 -1.171750e+00 9.263977e+00 -8.069052e+01 6.842285e+00
3.854788e+01 2.135417e-01 -1.172256e+00 9.273226e+00 -8.076944e+01 6.851913e+00
3.829756e+01 2.031250e-01 -1.174679e+00 9.282326e+00 -8.084836e+01 6.855820e+00
3.792342e+01 2.031250e-01 -1.175092e+00 9.291592e+00 -8.092728e+01 6.867462e+00
3.804465e+01 2.031250e-01 -1.172687e+00 9.301165e+00 -8.100620e+01 6.886902e+00
3.807231e+01 1.979167e-01 -1.173562e+00 9.310425e+00 -8.108511e+01 6.895157e+00
3.777368e+01 1.979167e-01 -1.174155e+00 9.319762e+00 -8.116403e+01 6.909805e+00
3.798378e+01 1.979167e-01 -1.172843e+00 9.330281e+00 -8.125293e+01 6.922562e+00
3.814082e+01 2.031250e-01 -1.171211e+00 9.339780e+00 -8.133185e+01 6.935608e+00
3.800821e+01 2.031250e-01 -1.171788e+00 9.349093e+00 -8.141077e+01 6.945297e+00
3.795340e+01 2.083333e-01 -1.175593e+00 9.358104e+00 -8.148969e+01 6.950119e+00
3.800610e+01 2.083333e-01 -1.177683e+00 9.367251e+00 -8.156860e+01 6.957199e+00
3.809108e+01 1.979167e-01 -1.174156e+00 9.376840e+00 -8.164752e+01 6.976181e+00
3.895055e+01 2.187500e-01 -1.171087e+00 9.387339e+00 -8.173642e+01 6.985733e+00
3.789209e+01 1.979167e-01 -1.175986e+00 9.396190e+00 -8.181534e+01 6.985062e+00
3.762071e+01 2.083333e-01 -1.178617e+00 9.405373e+00 -8.189426e+01 6.996719e+00
3.789581e+01 2.083333e-01 -1.180300e+00 9.414517e+00 -8.197318e+01 7.011139e+00
3.810262e+01 1.979167e-01 -1.177326e+00 9.424032e+00 -8.205209e+01 7.029709e+00
3.849821e+01 2.083333e-01 -1.175710e+00 9.433464e+00 -8.213101e+01 7.048950e+00
3.813991e+01 2.031250e-01 -1.177678e+00 9.442579e+00 -8.220993e+01 7.053757e+00
3.750496e+01 1.979167e-01 -1.182566e+00 9.451463e+00 -8.228885e+01 7.058670e+00
3.791560e+01 1.979167e-01 -1.182992e+00 9.460613e+00 -8.236777e+01 7.068008e+00
3.853436e+01 2.083333e-01 -1.180379e+00 9.470200e+00 -8.244669e+01 7.089798e+00
3.827821e+01 2.083333e-01 -1.180760e+00 9.479446e+00 -8.252560e+01 7.103119e+00
3.794125e+01 1.979167e-01 -1.183204e+00 9.488561e+00 -8.260452e+01 7.115829e+00
3.799278e+01 1.979167e-01 -1.183194e+00 9.497914e+00 -8.268344e+01 7.129929e+00
3.815300e+01 1.979167e-01 -1.182809e+00 9.507212e+00 -8.276236e+01 7.141006e+00
3.804567e+01 1.979167e-01 -1.184506e+00 9.516433e+00 -8.284128e+01 7.151733e+00
3.869954e+01 2.031250e-01 -1.183701e+00 9.525745e+00 -8.292020e+01 7.162643e+00
3.857530e+01 1.979167e-01 -1.185879e+00 9.534765e+00 -8.299911e+01 7.168564e+00
3.833017e+01 1.979167e-01 -1.188197e+00 9.543871e+00 -8.307803e+01 7.173050e+00
3.841919e+01 1.979167e-01 -1.189488e+00 9.552993e+00 -8.315695e+01 7.182587e+00
3.870650e+01 2.031250e-01 -1.188117e+00 9.562412e+00 -8.323587e+01 7.199783e+00
3.858037e+01 2.031250e-01 -1.189083e+00 9.571625e+00 -8.331479e+01 7.207977e+00
3.799748e+01 2.031250e-01 -1.191244e+00 9.580795e+00 -8.339371e+01 7.216568e+00
3.796568e+01 1.979167e-01 -1.190502e+00 9.590204e+00 -8.347263e+01 7.234161e+00
3.790038e+01 1.979167e-01 -1.189308e+00 9.599612e+00 -8.355154e+01 7.250336e+00
3.793187e+01 1.979167e-01 -1.191380e+00 9.608837e+00 -8.363046e+01 7.264145e+00
3.791234e+01 1.979167e-01 -1.192300e+00 9.618080e+00 -8.370938e+01 7.277771e+00
3.811511e+01 2.031250e-01 -1.192757e+00 9.627361e+00 -8.378830e+01 7.284241e+00
3.782193e+01 2.031250e-01 -1.192733e+00 9.636568e+00 -8.386722e+01 7.293213e+00
3.761250e+01 1.979167e-01 -1.195499e+00 9.645657e+00 -8.394614e+01 7.295532e+00
3.757188e+01 1.979167e-01 -1.193276e+00 9.655027e+00 -8.402505e+01 7.307419e+00
3.769745e+01 1.979167e-01 -1.196784e+00 9.663970e+00 -8.410397e+01 7.311905e+00
3.758575e+01 1.979167e-01 -1.199021e+00 9.673130e+00 -8.418289e+01 7.326660e+00
3.772533e+01 2.031250e-01 -1.197624e+00 9.682538e+00 -8.426181e+01 7.341919e+00
3.753448e+01 1.979167e-01 -1.196638e+00 9.691922e+00 -8.434073e+01 7.350983e+00
3.741881e+01 1.979167e-01 -1.196930e+00 9.701287e+00 -8.441965e+01 7.362411e+00
3.762451e+01 2.031250e-01 -1.198256e+00 9.710518e+00 -8.449857e+01 7.370575e+00
3.768834e+01 1.927083e-01 -1.202116e+00 9.719408e+00 -8.457748e+01 7.364304e+00
3.776311e+01 1.927083e-01 -1.205170e+00 9.728576e+00 -8.465640e+01 7.373749e+00
3.808911e+01 1.979167e-01 -1.201694e+00 9.738093e+00 -8.473532e+01 7.385452e+00
3.783788e+01 1.979167e-01 -1.200172e+00 9.747565e+00 -8.481424e+01 7.399979e+00
3.784938e+01 2.031250e-01 -1.201741e+00 9.756763e+00 -8.489316e+01 7.408417e+00
3.821686e+01 2.031250e-01 -1.209230e+00 9.765323e+00 -8.497208e+01 7.402237e+00
3.765152e+01 1.927083e-01 -1.208740e+00 9.774659e+00 -8.505099e+01 7.414154e+00
3.744067e+01 2.031250e-01 -1.205930e+00 9.784165e+00 -8.512991e+01 7.430786e+00
3.805370e+01 2.031250e-01 -1.203206e+00 9.793766e+00 -8.520883e+01 7.448883e+00
3.771194e+01 2.031250e-01 -1.205376e+00 9.802874e+00 -8.528775e+01 7.453537e+00
3.799048e+01 1.927083e-01 -1.210231e+00 9.811658e+00 -8.536667e+01 7.453491e+00
3.793803e+01 1.979167e-01 -1.211906e+00 9.820709e+00 -8.544559e+01 7.462601e+00
3.773897e+01 1.979167e-01 -1.209418e+00 9.830321e+00 -8.552451e+01 7.487991e+00
3.766620e+01 2.083333e-01 -1.207161e+00 9.839771e+00 -8.560342e+01 7.502823e+00
3.800853e+01 2.083333e-01 -1.206677e+00 9.849056e+00 -8.568234e+01 7.511566e+00
3.822363e+01 1.927083e-01 -1.210758e+00 9.857998e+00 -8.576126e+01 7.516464e+00
3.842310e+01 1.979167e-01 -1.216063e+00 9.866820e+00 -8.584018e+01 7.519852e+00
3.762935e+01 1.979167e-01 -1.213834e+00 9.876351e+00 -8.591910e+01 7.536484e+00
3.802164e+01 2.083333e-01 -1.210082e+00 9.886000e+00 -8.599802e+01 7.553299e+00
3.893095e+01 2.083333e-01 -1.206625e+00 9.895686e+00 -8.607693e+01 7.568588e+00
3.775558e+01 2.083333e-01 -1.209145e+00 9.904626e+00 -8.615585e+01 7.569504e+00
3.772707e+01 1.979167e-01 -1.215229e+00 9.913393e+00 -8.623477e+01 7.571136e+00
3.781575e+01 1.979167e-01 -1.217886e+00 9.922463e+00 -8.631369e+01 7.588455e+00
3.802565e+01 2.031250e-01 -1.217288e+00 9.931877e+00 -8.639261e+01 7.605591e+00
3.834476e+01 2.135417e-01 -1.213119e+00 9.941557e+00 -8.647153e+01 7.625000e+00
3.882690e+01 2.187500e-01 -1.211151e+00 9.951077e+00 -8.655045e+01 7.637466e+00
3.788048e+01 2.135417e-01 -1.215935e+00 9.959885e+00 -8.662936e+01 7.631439e+00
3.794946e+01 1.979167e-01 -1.221588e+00 9.968666e+00 -8.670828e+01 7.624222e+00
3.763300e+01 2.083333e-01 -1.219224e+00 9.978083e+00 -8.678720e+01 7.637726e+00
3.798331e+01 2.083333e-01 -1.216754e+00 9.987755e+00 -8.686612e+01 7.654785e+00
3.801796e+01 2.031250e-01 -1.215848e+00 9.997169e+00 -8.694504e+01 7.665756e+00
3.802965e+01 2.031250e-01 -1.220886e+00 1.000604e+01 -8.702396e+01 7.666031e+00
3.810066e+01 2.031250e-01 -1.222527e+00 1.001527e+01 -8.710287e+01 7.679138e+00
3.762685e+01 2.031250e-01 -1.221081e+00 1.002466e+01 -8.718179e+01 7.695618e+00
3.778729e+01 2.239583e-01 -1.218970e+00 1.003401e+01 -8.726071e+01 7.699707e+00
3.771031e+01 2.135417e-01 -1.219448e+00 1.004330e+01 -8.733963e+01 7.711380e+00
3.754585e+01 1.979167e-01 -1.221638e+00 1.005242e+01 -8.741855e+01 7.711121e+00
3.752219e+01 2.031250e-01 -1.223617e+00 1.006162e+01 -8.749747e+01 7.714722e+00
3.729674e+01 1.979167e-01 -1.223811e+00 1.007084e+01 -8.757639e+01 7.718887e+00
3.731740e+01 2.083333e-01 -1.221548e+00 1.008028e+01 -8.765530e+01 7.730957e+00
3.760257e+01 2.083333e-01 -1.221267e+00 1.008960e+01 -8.773422e+01 7.742172e+00
3.750266e+01 1.979167e-01 -1.223242e+00 1.009872e+01 -8.781314e+01 7.747971e+00
3.772188e+01 1.979167e-01 -1.224454e+00 1.010804e+01 -8.789206e+01 7.755966e+00
3.732767e+01 2.031250e-01 -1.223000e+00 1.011752e+01 -8.797098e+01 7.767807e+00
3.779822e+01 2.031250e-01 -1.224802e+00 1.012665e+01 -8.804990e+01 7.770538e+00
3.775453e+01 2.135417e-01 -1.222539e+00 1.013629e+01 -8.812881e+01 7.787186e+00
3.755240e+01 2.031250e-01 -1.223386e+00 1.014550e+01 -8.820773e+01 7.791595e+00
3.803925e+01 1.979167e-01 -1.225873e+00 1.015453e+01 -8.828665e+01 7.788925e+00
3.775662e+01 1.979167e-01 -1.228862e+00 1.016350e+01 -8.836557e+01 7.789368e+00
3.778310e+01 1.979167e-01 -1.227167e+00 1.017293e+01 -8.844449e+01 7.801727e+00
3.817668e+01 2.083333e-01 -1.225105e+00 1.018250e+01 -8.852341e+01 7.816605e+00
3.803674e+01 2.083333e-01 -1.226108e+00 1.019167e+01 -8.860233e+01 7.824158e+00
3.775906e+01 2.083333e-01 -1.226051e+00 1.020102e+01 -8.868124e+01 7.838638e+00
3.796519e+01 2.031250e-01 -1.227268e+00 1.021021e+01 -8.876016e+01 7.848236e+00
3.803613e+01 1.979167e-01 -1.228707e+00 1.021927e+01 -8.883908e+01 7.851120e+00
3.818329e+01 2.031250e-01 -1.231720e+00 1.022825e+01 -8.891800e+01 7.849731e+00
3.816940e+01 2.135417e-01 -1.229309e+00 1.023765e+01 -8.899692e+01 7.858368e+00
3.853746e+01 2.135417e-01 -1.229348e+00 1.024688e+01 -8.907584e+01 7.868530e+00
3.793733e+01 2.031250e-01 -1.233243e+00 1.025567e+01 -8.915475e+01 7.859756e+00
3.804799e+01 2.031250e-01 -1.235698e+00 1.026468e+01 -8.923367e+01 7.868225e+00
3.799007e+01 2.083333e-01 -1.234855e+00 1.027400e+01 -8.931259e+01 7.883438e+00
3.862779e+01 2.135417e-01 -1.233349e+00 1.028335e+01 -8.939151e+01 7.892014e+00
3.866469e+01 2.187500e-01 -1.233831e+00 1.029260e+01 -8.947043e+01 7.899078e+00
3.838918e+01 2.031250e-01 -1.234672e+00 1.030172e+01 -8.954935e+01 7.907593e+00
3.776094e+01 2.031250e-01 -1.238124e+00 1.031060e+01 -8.962827e+01 7.904175e+00
3.759523e+01 2.031250e-01 -1.238754e+00 1.031985e+01 -8.970718e+01 7.912384e+00
3.872517e+01 2.135417e-01 -1.235165e+00 1.032949e+01 -8.978610e+01 7.923111e+00
3.864095e+01 2.083333e-01 -1.233719e+00 1.033892e+01 -8.986502e+01 7.935806e+00
3.785530e+01 1.927083e-01 -1.236900e+00 1.034792e+01 -8.994394e+01 7.939957e+00
3.743011e+01 2.031250e-01 -1.239685e+00 1.035689e+01 -9.002286e+01 7.945068e+00
3.800682e+01 2.031250e-01 -1.239588e+00 1.036614e+01 -9.010178e+01 7.955963e+00
3.855002e+01 2.187500e-01 -1.236162e+00 1.037559e+01 -9.018069e+01 7.966736e+00
3.844249e+01 2.083333e-01 -1.237062e+00 1.038478e+01 -9.025961e+01 7.974350e+00
3.742014e+01 1.979167e-01 -1.240510e+00 1.039370e+01 -9.033853e+01 7.977600e+00
3.731259e+01 1.979167e-01 -1.246538e+00 1.040233e+01 -9.041745e+01 7.974274e+00
3.817264e+01 2.135417e-01 -1.243084e+00 1.041179e+01 -9.049637e+01 7.985687e+00
3.816522e+01 2.135417e-01 -1.243020e+00 1.042097e+01 -9.057529e+01 7.989166e+00
3.832320e+01 2.187500e-01 -1.241644e+00 1.043037e+01 -9.065421e+01 7.998657e+00
3.806985e+01 2.083333e-01 -1.244887e+00 1.043930e+01 -9.073312e+01 7.998993e+00
3.809813e+01 2.031250e-01 -1.245645e+00 1.044840e+01 -9.081204e+01 8.005524e+00
3.818565e+01 2.083333e-01 -1.245421e+00 1.045766e+01 -9.089096e+01 8.017639e+00
3.850674e+01 2.135417e-01 -1.243387e+00 1.046702e+01 -9.096988e+01 8.023178e+00
3.835814e+01 2.135417e-01 -1.244201e+00 1.047611e+01 -9.104880e+01 8.020966e+00
3.827382e+01 2.135417e-01 -1.248903e+00 1.048477e+01 -9.112772e+01 8.011230e+00
3.782277e+01 2.031250e-01 -1.251886e+00 1.049368e+01 -9.120663e+01 8.008041e+00
3.854150e+01 2.083333e-01 -1.249409e+00 1.050322e+01 -9.128555e+01 8.023529e+00
3.857904e+01 2.135417e-01 -1.247695e+00 1.051261e+01 -9.136447e+01 8.027771e+00
3.864900e+01 2.135417e-01 -1.249659e+00 1.052170e+01 -9.144339e+01 8.032425e+00
3.865543e+01 2.083333e-01 -1.252570e+00 1.053073e+01 -9.152231e+01 8.028198e+00
3.858533e+01 2.083333e-01 -1.253908e+00 1.053993e+01 -9.160123e+01 8.032867e+00
3.862146e+01 2.083333e-01 -1.252933e+00 1.054919e+01 -9.168015e+01 8.037888e+00
3.865625e+01 2.083333e-01 -1.253885e+00 1.055844e+01 -9.175906e+01 8.043915e+00
3.848459e+01 2.031250e-01 -1.253652e+00 1.056766e+01 -9.183798e+01 8.046249e+00
3.843173e+01 2.083333e-01 -1.257477e+00 1.057652e+01 -9.191690e+01 8.040680e+00
3.826483e+01 2.135417e-01 -1.260805e+00 1.058554e+01 -9.199582e+01 8.041168e+00
3.862834e+01 2.031250e-01 -1.259475e+00 1.059496e+01 -9.207474e+01 8.053284e+00
3.864331e+01 2.031250e-01 -1.256754e+00 1.060459e+01 -9.215366e+01 8.068512e+00
3.856763e+01 2.083333e-01 -1.257851e+00 1.061380e+01 -9.223257e+01 8.073486e+00
3.854642e+01 2.031250e-01 -1.258347e+00 1.062303e+01 -9.231149e+01 8.077911e+00
3.865111e+01 2.083333e-01 -1.260475e+00 1.063206e+01 -9.239041e+01 8.077377e+00
3.860138e+01 2.083333e-01 -1.262639e+00 1.064112e+01 -9.246933e+01 8.081848e+00
3.886833e+01 2.031250e-01 -1.259875e+00 1.065069e+01 -9.254825e+01 8.093689e+00
3.865965e+01 2.031250e-01 -1.262553e+00 1.065965e+01 -9.262717e+01 8.090317e+00
3.870630e+01 1.979167e-01 -1.262025e+00 1.066889e+01 -9.270609e+01 8.090652e+00
3.874767e+01 2.031250e-01 -1.264640e+00 1.067794e+01 -9.278500e+01 8.092743e+00
3.836443e+01 2.083333e-01 -1.268187e+00 1.068692e+01 -9.286392e+01 8.098969e+00
3.850371e+01 2.031250e-01 -1.268172e+00 1.069621e+01 -9.294284e+01 8.104324e+00
3.845094e+01 1.979167e-01 -1.265673e+00 1.070580e+01 -9.302176e+01 8.118073e+00
3.812517e+01 1.979167e-01 -1.265512e+00 1.071503e+01 -9.310068e+01 8.117813e+00
3.815552e+01 1.979167e-01 -1.265588e+00 1.072434e+01 -9.317960e+01 8.122467e+00
3.857463e+01 2.031250e-01 -1.269079e+00 1.073336e+01 -9.325851e+01 8.124374e+00
3.865698e+01 2.083333e-01 -1.272826e+00 1.074235e+01 -9.333743e+01 8.126190e+00
3.842375e+01 2.031250e-01 -1.272028e+00 1.075172e+01 -9.341635e+01 8.135696e+00
3.818518e+01 2.031250e-01 -1.268297e+00 1.076135e+01 -9.349527e+01 8.146957e+00
3.853229e+01 2.187500e-01 -1.265503e+00 1.077078e+01 -9.357419e+01 8.148727e+00
3.840926e+01 2.083333e-01 -1.271060e+00 1.077962e+01 -9.365311e+01 8.151413e+00
3.829517e+01 2.083333e-01 -1.275419e+00 1.078855e+01 -9.373203e+01 8.153915e+00
3.836758e+01 2.083333e-01 -1.277508e+00 1.079760e+01 -9.381094e+01 8.154846e+00
3.817189e+01 2.031250e-01 -1.274861e+00 1.080715e+01 -9.388986e+01 8.167557e+00
3.844038e+01 2.135417e-01 -1.271860e+00 1.081667e+01 -9.396878e+01 8.176453e+00
3.791521e+01 2.031250e-01 -1.273621e+00 1.082566e+01 -9.404770e+01 8.175903e+00
3.796439e+01 2.031250e-01 -1.277526e+00 1.083455e+01 -9.412662e+01 8.175552e+00
3.856831e+01 2.135417e-01 -1.280749e+00 1.084343e+01 -9.420554e+01 8.171432e+00
3.839029e+01 2.083333e-01 -1.281397e+00 1.085262e+01 -9.428445e+01 8.175430e+00
3.813078e+01 2.031250e-01 -1.278621e+00 1.086216e+01 -9.436337e+01 8.187820e+00
3.806033e+01 2.083333e-01 -1.279184e+00 1.087135e+01 -9.444229e+01 8.190826e+00
3.831926e+01 2.031250e-01 -1.280059e+00 1.088046e+01 -9.452121e+01 8.192383e+00
3.801184e+01 2.031250e-01 -1.283490e+00 1.088945e+01 -9.460013e+01 8.192123e+00
3.824475e+01 2.083333e-01 -1.282583e+00 1.089883e+01 -9.467905e+01 8.204132e+00
3.804057e+01 2.083333e-01 -1.281755e+00 1.090817e+01 -9.475797e+01 8.214203e+00
3.827873e+01 2.083333e-01 -1.283334e+00 1.091718e+01 -9.483688e+01 8.214706e+00
3.826183e+01 2.083333e-01 -1.283962e+00 1.092629e+01 -9.491580e+01 8.219269e+00
3.800717e+01 2.031250e-01 -1.284983e+00 1.093537e+01 -9.499472e+01 8.223755e+00
3.812276e+01 2.083333e-01 -1.288443e+00 1.094432e+01 -9.507364e+01 8.225082e+00
3.794440e+01 2.083333e-01 -1.289573e+00 1.095352e+01 -9.515256e+01 8.231888e+00
3.816182e+01 2.083333e-01 -1.288824e+00 1.096285e+01 -9.523148e+01 8.239746e+00
3.792841e+01 2.031250e-01 -1.286804e+00 1.097237e+01 -9.531039e+01 8.247131e+00
3.839398e+01 2.031250e-01 -1.286555e+00 1.098173e+01 -9.538931e+01 8.256393e+00
3.788567e+01 2.135417e-01 -1.292097e+00 1.099040e+01 -9.546823e+01 8.251694e+00
3.805312e+01 2.135417e-01 -1.292741e+00 1.099953e+01 -9.554715e+01 8.257797e+00
3.805676e+01 2.031250e-01 -1.290765e+00 1.100897e+01 -9.562607e+01 8.262421e+00
3.809885e+01 2.031250e-01 -1.291418e+00 1.101815e+01 -9.570499e+01 8.266418e+00
3.811856e+01 2.083333e-01 -1.292996e+00 1.102732e+01 -9.578391e+01 8.275375e+00
3.809488e+01 2.083333e-01 -1.294124e+00 1.103648e+01 -9.586282e+01 8.278748e+00
3.819693e+01 2.083333e-01 -1.294745e+00 1.104568e+01 -9.594174e+01 8.289215e+00
3.819455e+01 2.083333e-01 -1.296577e+00 1.105475e+01 -9.602066e+01 8.295746e+00
3.812334e+01 2.083333e-01 -1.296476e+00 1.106402e+01 -9.609958e+01 8.301727e+00
3.786819e+01 2.083333e-01 -1.296025e+00 1.107321e+01 -9.617850e+01 8.301605e+00
3.808839e+01 2.083333e-01 -1.298703e+00 1.108207e+01 -9.625742e+01 8.294830e+00
3.807356e+01 2.083333e-01 -1.299068e+00 1.109121e+01 -9.633633e+01 8.294022e+00
3.830450e+01 2.031250e-01 -1.296372e+00 1.110056e+01 -9.641525e+01 8.298416e+00
3.833014e+01 2.187500e-01 -1.301859e+00 1.110921e+01 -9.649417e+01 8.291931e+00
3.797581e+01 2.187500e-01 -1.304073e+00 1.111825e+01 -9.657309e+01 8.302124e+00
3.833632e+01 2.187500e-01 -1.303980e+00 1.112750e+01 -9.665201e+01 8.309158e+00
3.858006e+01 2.083333e-01 -1.300821e+00 1.113697e+01 -9.673093e+01 8.315628e+00
3.858444e+01 2.083333e-01 -1.302218e+00 1.114600e+01 -9.680984e+01 8.313019e+00
3.843294e+01 2.031250e-01 -1.308019e+00 1.115461e+01 -9.688876e+01 8.307373e+00
3.852962e+01 2.031250e-01 -1.310075e+00 1.116360e+01 -9.696768e+01 8.304367e+00
3.816299e+01 2.083333e-01 -1.308466e+00 1.117297e+01 -9.704660e+01 8.311829e+00
3.834871e+01 2.083333e-01 -1.308031e+00 1.118231e+01 -9.712552e+01 8.319794e+00
3.871220e+01 2.135417e-01 -1.308538e+00 1.119145e+01 -9.720444e+01 8.322449e+00
3.876901e+01 2.083333e-01 -1.311157e+00 1.120045e+01 -9.728336e+01 8.326401e+00
3.847049e+01 2.083333e-01 -1.312279e+00 1.120962e+01 -9.736227e+01 8.332031e+00
3.864302e+01 2.083333e-01 -1.310662e+00 1.121899e+01 -9.744119e+01 8.339813e+00
3.869478e+01 2.135417e-01 -1.311470e+00 1.122824e+01 -9.752011e+01 8.346924e+00
3.853569e+01 2.083333e-01 -1.313079e+00 1.123730e+01 -9.759903e+01 8.349228e+00
3.864810e+01 2.083333e-01 -1.312687e+00 1.124652e+01 -9.767795e+01 8.352432e+00
3.866728e+01 2.135417e-01 -1.315038e+00 1.125551e+01 -9.775687e+01 8.350235e+00
3.869077e+01 2.135417e-01 -1.316179e+00 1.126468e+01 -9.783578e+01 8.349411e+00
3.870441e+01 2.135417e-01 -1.316463e+00 1.127385e+01 -9.791470e+01 8.347061e+00
3.865540e+01 2.135417e-01 -1.317643e+00 1.128292e+01 -9.799362e+01 8.347839e+00
3.866850e+01 2.031250e-01 -1.317231e+00 1.129219e+01 -9.807254e+01 8.348221e+00
3.859193e+01 2.031250e-01 -1.317226e+00 1.130139e+01 -9.815146e+01 8.353333e+00
3.869542e+01 2.083333e-01 -1.319493e+00 1.131041e+01 -9.823038e+01 8.352112e+00
3.877496e+01 2.083333e-01 -1.320378e+00 1.131955e+01 -9.830930e+01 8.359558e+00
3.874837e+01 2.083333e-01 -1.321912e+00 1.132863e+01 -9.838821e+01 8.362289e+00
3.899097e+01 2.083333e-01 -1.323130e+00 1.133779e+01 -9.846713e+01 8.366470e+00
3.868407e+01 2.031250e-01 -1.321939e+00 1.134715e+01 -9.854605e+01 8.371826e+00
3.892468e+01 2.083333e-01 -1.323883e+00 1.135620e+01 -9.862497e+01 8.370789e+00
3.862129e+01 2.031250e-01 -1.325422e+00 1.136526e+01 -9.870389e+01 8.371323e+00
3.861922e+01 2.083333e-01 -1.326226e+00 1.137442e+01 -9.878281e+01 8.373062e+00
3.869167e+01 2.031250e-01 -1.326688e+00 1.138359e+01 -9.886172e+01 8.375931e+00
3.883783e+01 2.083333e-01 -1.328958e+00 1.139255e+01 -9.894064e+01 8.371445e+00
3.852138e+01 2.083333e-01 -1.330413e+00 1.140168e+01 -9.901956e+01 8.367981e+00
3.900072e+01 2.083333e-01 -1.328522e+00 1.141119e+01 -9.909848e+01 8.376129e+00
3.857916e+01 2.083333e-01 -1.331611e+00 1.142007e+01 -9.917740e+01 8.372787e+00
3.829182e+01 2.031250e-01 -1.334958e+00 1.142901e+01 -9.925632e+01 8.372452e+00
3.868150e+01 2.083333e-01 -1.333889e+00 1.143833e+01 -9.933524e+01 8.378860e+00
3.863629e+01 2.083333e-01 -1.334967e+00 1.144748e+01 -9.941415e+01 8.385468e+00
3.841222e+01 2.031250e-01 -1.334933e+00 1.145670e+01 -9.949307e+01 8.390900e+00
3.879765e+01 2.031250e-01 -1.333315e+00 1.146616e+01 -9.957199e+01 8.395813e+00
3.872485e+01 2.031250e-01 -1.334659e+00 1.147529e+01 -9.965091e+01 8.397186e+00
3.823692e+01 2.135417e-01 -1.339618e+00 1.148397e+01 -9.972983e+01 8.389084e+00
