2.621950e+04 8.144000e-01 1.237366e-03 5.773270e-01 -9.999643e-01 9.999619e-01
2.035621e+03 1.401000e-01 -2.748643e-04 5.765472e-01 -1.441231e+00 1.337172e+00
1.582439e+03 1.016000e-01 -6.507514e-04 5.756047e-01 -1.415561e+00 1.395146e+00
1.385224e+03 8.990000e-02 -1.083261e-03 5.750739e-01 -1.498769e+00 1.367505e+00
1.250740e+03 7.930000e-02 -1.390329e-03 5.747768e-01 -1.596484e+00 1.455707e+00
1.181547e+03 7.480000e-02 -1.589204e-03 5.746102e-01 -1.687078e+00 1.487146e+00
1.107121e+03 6.920000e-02 -1.850842e-03 5.745131e-01 -1.746257e+00 1.501318e+00
1.024950e+03 6.440000e-02 -2.015003e-03 5.744511e-01 -1.780977e+00 1.536875e+00
9.966310e+02 6.280000e-02 -2.140750e-03 5.744090e-01 -1.815881e+00 1.544725e+00
1.005252e+03 6.050000e-02 -2.287733e-03 5.743806e-01 -1.834912e+00 1.557414e+00
9.813082e+02 6.210000e-02 -2.430645e-03 5.743682e-01 -1.842559e+00 1.555384e+00
9.216121e+02 5.720000e-02 -2.513078e-03 5.743543e-01 -1.848713e+00 1.565679e+00
8.949437e+02 5.580000e-02 -2.666565e-03 5.743504e-01 -1.852422e+00 1.558020e+00
8.758269e+02 5.400000e-02 -2.759723e-03 5.743382e-01 -1.846389e+00 1.557400e+00
8.500753e+02 5.380000e-02 -2.854034e-03 5.743367e-01 -1.852693e+00 1.555782e+00
8.339292e+02 5.230000e-02 -2.970561e-03 5.743361e-01 -1.829573e+00 1.540293e+00
8.120738e+02 5.120000e-02 -3.084150e-03 5.743347e-01 -1.827257e+00 1.555838e+00
8.114114e+02 5.200000e-02 -3.181217e-03 5.743355e-01 -1.823286e+00 1.572087e+00
8.229091e+02 5.200000e-02 -3.326047e-03 5.743321e-01 -1.801438e+00 1.589813e+00
7.754914e+02 4.960000e-02 -3.393621e-03 5.743389e-01 -1.794276e+00 1.609556e+00
7.869731e+02 4.980000e-02 -3.484191e-03 5.743438e-01 -1.809297e+00 1.628643e+00
7.576573e+02 4.790000e-02 -3.541212e-03 5.743463e-01 -1.818616e+00 1.648907e+00
7.587383e+02 4.840000e-02 -3.649117e-03 5.743466e-01 -1.828811e+00 1.665097e+00
7.511746e+02 4.800000e-02 -3.704438e-03 5.743592e-01 -1.843213e+00 1.682497e+00
7.259611e+02 4.740000e-02 -3.779712e-03 5.743673e-01 -1.868308e+00 1.697107e+00
7.453000e+02 4.800000e-02 -3.870906e-03 5.743833e-01 -1.873566e+00 1.711649e+00
7.153771e+02 4.500000e-02 -3.933359e-03 5.743885e-01 -1.875774e+00 1.724784e+00
7.080502e+02 4.590000e-02 -4.010211e-03 5.744001e-01 -1.904286e+00 1.741500e+00
7.013596e+02 4.620000e-02 -4.082642e-03 5.744205e-01 -1.900356e+00 1.751218e+00
7.156243e+02 4.590000e-02 -4.134470e-03 5.744333e-01 -1.922065e+00 1.761400e+00
6.985823e+02 4.490000e-02 -4.184283e-03 5.744422e-01 -1.930991e+00 1.776120e+00
6.932987e+02 4.450000e-02 -4.250701e-03 5.744616e-01 -1.949223e+00 1.783605e+00
6.749428e+02 4.290000e-02 -4.295304e-03 5.744791e-01 -1.959588e+00 1.791740e+00
6.765314e+02 4.300000e-02 -4.337023e-03 5.744908e-01 -1.960814e+00 1.800028e+00
6.650433e+02 4.250000e-02 -4.393719e-03 5.745088e-01 -1.984218e+00 1.814128e+00
6.602184e+02 4.260000e-02 -4.456928e-03 5.745293e-01 -1.979441e+00 1.819800e+00
6.673476e+02 4.330000e-02 -4.478189e-03 5.745456e-01 -2.001647e+00 1.829053e+00
6.622057e+02 4.220000e-02 -4.532260e-03 5.745652e-01 -2.000768e+00 1.845656e+00
6.702925e+02 4.240000e-02 -4.564551e-03 5.745829e-01 -2.004228e+00 1.843300e+00
6.527638e+02 4.180000e-02 -4.636004e-03 5.746011e-01 -2.005846e+00 1.851851e+00
6.479395e+02 4.180000e-02 -4.656174e-03 5.746234e-01 -2.022260e+00 1.855955e+00
6.540661e+02 4.110000e-02 -4.704036e-03 5.746426e-01 -2.042541e+00 1.864776e+00
6.413937e+02 4.210000e-02 -4.727583e-03 5.746648e-01 -2.057439e+00 1.870212e+00
6.611713e+02 4.160000e-02 -4.783055e-03 5.746864e-01 -2.076400e+00 1.871171e+00
6.356505e+02 4.070000e-02 -4.792971e-03 5.747071e-01 -2.100350e+00 1.876743e+00
6.342321e+02 4.080000e-02 -4.873628e-03 5.747308e-01 -2.116393e+00 1.882798e+00
6.344608e+02 4.060000e-02 -4.871116e-03 5.747587e-01 -2.137077e+00 1.893723e+00
6.328530e+02 4.000000e-02 -4.933462e-03 5.747821e-01 -2.154924e+00 1.906340e+00
6.566974e+02 4.030000e-02 -4.968352e-03 5.748023e-01 -2.178364e+00 1.928555e+00
6.213720e+02 3.960000e-02 -4.998630e-03 5.748266e-01 -2.197698e+00 1.939099e+00
6.158512e+02 3.890000e-02 -5.014278e-03 5.748501e-01 -2.209651e+00 1.968458e+00
6.257332e+02 3.970000e-02 -5.051589e-03 5.748744e-01 -2.227900e+00 1.997101e+00
6.195047e+02 4.100000e-02 -5.084041e-03 5.749027e-01 -2.248224e+00 2.008912e+00
6.214450e+02 3.910000e-02 -5.132205e-03 5.749246e-01 -2.262449e+00 2.029610e+00
6.134350e+02 3.920000e-02 -5.149371e-03 5.749484e-01 -2.277496e+00 2.050487e+00
6.082564e+02 3.900000e-02 -5.158595e-03 5.749779e-01 -2.295965e+00 2.070792e+00
6.052956e+02 3.830000e-02 -5.238590e-03 5.750045e-01 -2.311105e+00 2.096668e+00
6.051436e+02 3.860000e-02 -5.230944e-03 5.750277e-01 -2.325078e+00 2.109399e+00
6.031236e+02 3.870000e-02 -5.272553e-03 5.750537e-01 -2.336736e+00 2.134849e+00
6.042214e+02 3.820000e-02 -5.286975e-03 5.750829e-01 -2.352558e+00 2.146554e+00
6.081341e+02 3.880000e-02 -5.320617e-03 5.751092e-01 -2.367782e+00 2.171561e+00
6.008645e+02 3.900000e-02 -5.330925e-03 5.751379e-01 -2.386292e+00 2.189412e+00
5.998514e+02 3.780000e-02 -5.376461e-03 5.751648e-01 -2.396240e+00 2.201103e+00
5.916870e+02 3.730000e-02 -5.385393e-03 5.751905e-01 -2.411102e+00 2.228366e+00
5.897437e+02 3.760000e-02 -5.397340e-03 5.752200e-01 -2.422586e+00 2.240662e+00
5.939207e+02 3.740000e-02 -5.449205e-03 5.752485e-01 -2.436235e+00 2.261639e+00
5.867136e+02 3.710000e-02 -5.489469e-03 5.752793e-01 -2.449777e+00 2.272850e+00
5.869394e+02 3.670000e-02 -5.474134e-03 5.753068e-01 -2.457726e+00 2.287134e+00
5.893371e+02 3.690000e-02 -5.526793e-03 5.753340e-01 -2.472786e+00 2.310552e+00
5.892252e+02 3.610000e-02 -5.551582e-03 5.753650e-01 -2.484912e+00 2.324335e+00
5.823827e+02 3.740000e-02 -5.560908e-03 5.753948e-01 -2.493810e+00 2.341431e+00
5.953339e+02 3.750000e-02 -5.596891e-03 5.754234e-01 -2.506568e+00 2.356223e+00
5.933142e+02 3.750000e-02 -5.625960e-03 5.754515e-01 -2.519329e+00 2.376132e+00
5.823642e+02 3.740000e-02 -5.625412e-03 5.754870e-01 -2.533941e+00 2.384249e+00
5.825392e+02 3.640000e-02 -5.670098e-03 5.755152e-01 -2.542288e+00 2.402885e+00
5.755523e+02 3.680000e-02 -5.697708e-03 5.755483e-01 -2.552946e+00 2.411888e+00
5.836136e+02 3.720000e-02 -5.712804e-03 5.755769e-01 -2.564793e+00 2.432324e+00
5.675789e+02 3.620000e-02 -5.759910e-03 5.756054e-01 -2.574817e+00 2.446205e+00
5.837126e+02 3.680000e-02 -5.765608e-03 5.756398e-01 -2.584153e+00 2.455246e+00
5.753143e+02 3.690000e-02 -5.796754e-03 5.756723e-01 -2.594705e+00 2.472177e+00
5.769741e+02 3.620000e-02 -5.808735e-03 5.757049e-01 -2.602267e+00 2.489082e+00
5.785012e+02 3.680000e-02 -5.831767e-03 5.757379e-01 -2.612592e+00 2.501677e+00
5.709662e+02 3.610000e-02 -5.879419e-03 5.757705e-01 -2.618808e+00 2.516377e+00
