4.199104e+04 8.058000e-01 5.856029e-04 5.771967e-01 -9.999164e-01 9.999591e-01
2.027292e+03 1.317000e-01 -7.681234e-04 5.764751e-01 -1.277850e+00 1.270177e+00
1.638276e+03 1.072000e-01 -1.019511e-03 5.755951e-01 -1.288210e+00 1.265849e+00
1.402350e+03 9.040000e-02 -1.169021e-03 5.750907e-01 -1.357385e+00 1.297606e+00
1.268033e+03 8.110000e-02 -1.232958e-03 5.748206e-01 -1.418042e+00 1.437865e+00
1.207904e+03 7.940000e-02 -1.252874e-03 5.746696e-01 -1.469705e+00 1.512245e+00
1.130418e+03 7.530000e-02 -1.373776e-03 5.745845e-01 -1.520831e+00 1.600057e+00
1.075696e+03 7.080000e-02 -1.484611e-03 5.745419e-01 -1.565193e+00 1.656043e+00
1.007202e+03 6.700000e-02 -1.550750e-03 5.745225e-01 -1.601177e+00 1.722950e+00
9.727894e+02 6.630000e-02 -1.633231e-03 5.745051e-01 -1.654712e+00 1.756668e+00
9.765385e+02 6.480000e-02 -1.654846e-03 5.745026e-01 -1.703914e+00 1.810673e+00
9.473023e+02 6.350000e-02 -1.740667e-03 5.744971e-01 -1.747227e+00 1.857853e+00
9.113829e+02 5.840000e-02 -1.831475e-03 5.744995e-01 -1.785082e+00 1.871476e+00
8.678793e+02 5.760000e-02 -1.850760e-03 5.745053e-01 -1.819486e+00 1.899223e+00
8.595915e+02 5.760000e-02 -1.919634e-03 5.745119e-01 -1.845142e+00 1.922998e+00
8.532502e+02 5.430000e-02 -1.969712e-03 5.745193e-01 -1.871023e+00 1.951568e+00
8.224065e+02 5.370000e-02 -2.027135e-03 5.745304e-01 -1.891023e+00 1.966209e+00
8.251304e+02 5.390000e-02 -2.056420e-03 5.745341e-01 -1.912896e+00 1.971687e+00
7.880223e+02 5.120000e-02 -2.097865e-03 5.745493e-01 -1.928645e+00 1.990729e+00
7.921016e+02 5.000000e-02 -2.140776e-03 5.745560e-01 -1.942787e+00 1.996326e+00
7.850493e+02 5.210000e-02 -2.204282e-03 5.745717e-01 -1.955927e+00 2.004519e+00
7.581310e+02 4.880000e-02 -2.219668e-03 5.745816e-01 -1.963342e+00 2.019030e+00
7.535764e+02 4.820000e-02 -2.290907e-03 5.745912e-01 -1.972646e+00 2.019684e+00
7.545079e+02 4.800000e-02 -2.308871e-03 5.746058e-01 -1.985155e+00 2.033217e+00
7.361274e+02 4.740000e-02 -2.393141e-03 5.746149e-01 -1.998138e+00 2.040773e+00
7.428425e+02 4.800000e-02 -2.405539e-03 5.746278e-01 -2.005587e+00 2.056428e+00
7.308275e+02 4.760000e-02 -2.430732e-03 5.746454e-01 -2.015855e+00 2.061771e+00
7.443484e+02 4.880000e-02 -2.486710e-03 5.746556e-01 -2.029995e+00 2.057903e+00
7.030308e+02 4.550000e-02 -2.536193e-03 5.746701e-01 -2.040762e+00 2.070143e+00
6.930416e+02 4.480000e-02 -2.552118e-03 5.746874e-01 -2.051227e+00 2.087469e+00
6.857582e+02 4.430000e-02 -2.606317e-03 5.746999e-01 -2.066661e+00 2.082329e+00
6.831223e+02 4.410000e-02 -2.622104e-03 5.747133e-01 -2.074392e+00 2.095996e+00
6.790110e+02 4.420000e-02 -2.709542e-03 5.747347e-01 -2.084162e+00 2.092709e+00
6.861101e+02 4.400000e-02 -2.703279e-03 5.747482e-01 -2.091836e+00 2.095753e+00
6.778032e+02 4.400000e-02 -2.730426e-03 5.747686e-01 -2.096107e+00 2.092183e+00
6.690109e+02 4.400000e-02 -2.758084e-03 5.747855e-01 -2.105577e+00 2.104869e+00
6.572345e+02 4.250000e-02 -2.822314e-03 5.748020e-01 -2.114742e+00 2.124057e+00
6.684208e+02 4.370000e-02 -2.857112e-03 5.748210e-01 -2.122677e+00 2.117104e+00
6.519117e+02 4.250000e-02 -2.854993e-03 5.748421e-01 -2.135533e+00 2.134618e+00
6.479095e+02 4.160000e-02 -2.933190e-03 5.748571e-01 -2.149759e+00 2.122673e+00
6.439617e+02 4.180000e-02 -2.910448e-03 5.748801e-01 -2.155385e+00 2.126334e+00
6.373345e+02 4.230000e-02 -2.997068e-03 5.749009e-01 -2.163734e+00 2.135363e+00
6.495724e+02 4.270000e-02 -3.047443e-03 5.749245e-01 -2.176987e+00 2.142774e+00
6.396888e+02 4.210000e-02 -3.049136e-03 5.749459e-01 -2.186274e+00 2.150401e+00
6.455974e+02 4.230000e-02 -3.094008e-03 5.749681e-01 -2.196311e+00 2.157216e+00
6.285820e+02 4.170000e-02 -3.119322e-03 5.749906e-01 -2.207917e+00 2.152773e+00
6.210236e+02 4.210000e-02 -3.173821e-03 5.750166e-01 -2.217801e+00 2.159144e+00
6.170155e+02 4.090000e-02 -3.148629e-03 5.750416e-01 -2.227130e+00 2.174182e+00
6.182855e+02 4.100000e-02 -3.158887e-03 5.750649e-01 -2.232802e+00 2.177685e+00
6.168151e+02 4.090000e-02 -3.202706e-03 5.750888e-01 -2.245079e+00 2.180800e+00
6.122991e+02 4.030000e-02 -3.209929e-03 5.751130e-01 -2.253367e+00 2.179768e+00
6.123558e+02 4.120000e-02 -3.237937e-03 5.751390e-01 -2.261867e+00 2.187809e+00
6.284621e+02 4.130000e-02 -3.303098e-03 5.751669e-01 -2.269958e+00 2.188531e+00
6.056863e+02 3.910000e-02 -3.321939e-03 5.751946e-01 -2.278292e+00 2.194841e+00
6.186772e+02 4.040000e-02 -3.321742e-03 5.752192e-01 -2.285329e+00 2.192223e+00
6.063033e+02 3.990000e-02 -3.362407e-03 5.752432e-01 -2.297209e+00 2.209438e+00
5.998283e+02 3.980000e-02 -3.343411e-03 5.752704e-01 -2.306964e+00 2.205639e+00
6.028933e+02 4.020000e-02 -3.376928e-03 5.752982e-01 -2.313494e+00 2.210843e+00
5.996097e+02 3.990000e-02 -3.395862e-03 5.753286e-01 -2.331114e+00 2.214173e+00
6.110381e+02 4.060000e-02 -3.391412e-03 5.753545e-01 -2.338593e+00 2.214347e+00
6.082958e+02 3.980000e-02 -3.470405e-03 5.753776e-01 -2.345127e+00 2.215376e+00
5.930105e+02 3.890000e-02 -3.442300e-03 5.754101e-01 -2.365492e+00 2.225440e+00
5.809043e+02 3.880000e-02 -3.473929e-03 5.754382e-01 -2.378992e+00 2.224590e+00
5.797840e+02 3.890000e-02 -3.483440e-03 5.754676e-01 -2.381505e+00 2.226982e+00
5.954402e+02 3.930000e-02 -3.496706e-03 5.754973e-01 -2.396384e+00 2.236508e+00
5.929821e+02 3.770000e-02 -3.493335e-03 5.755236e-01 -2.394260e+00 2.228098e+00
5.870363e+02 3.980000e-02 -3.520827e-03 5.755568e-01 -2.398854e+00 2.240917e+00
5.923257e+02 3.930000e-02 -3.529699e-03 5.755816e-01 -2.410276e+00 2.252880e+00
6.243660e+02 3.960000e-02 -3.554875e-03 5.756146e-01 -2.419792e+00 2.240380e+00
