-3.157432e-01 1.184802e+00 -4.949219e+00 3.910156e+00 -7.961579e-05 1.100501e-02 -1.328125e-01 1.015625e-01
-2.950362e-01 1.171172e+00 -4.960938e+00 4.855469e+00 7.787968e-05 1.060996e-02 -1.093750e-01 1.093750e-01
-2.951972e-01 1.180914e+00 -5.277344e+00 4.101562e+00 3.802461e-05 1.064982e-02 -1.093750e-01 1.093750e-01
-2.884468e-01 1.190129e+00 -5.277344e+00 4.101562e+00 1.163383e-04 1.069733e-02 -1.093750e-01 1.015625e-01
-2.991074e-01 1.177077e+00 -5.277344e+00 3.839844e+00 1.242829e-04 1.071636e-02 -1.093750e-01 1.015625e-01
-3.008936e-01 1.175940e+00 -5.265625e+00 3.839844e+00 5.876359e-05 1.058629e-02 -1.093750e-01 1.015625e-01
-3.014639e-01 1.164244e+00 -5.277344e+00 4.855469e+00 4.606356e-05 1.066083e-02 -1.093750e-01 9.765625e-02
-3.149656e-01 1.185131e+00 -5.265625e+00 4.175781e+00 -3.819444e-05 1.062998e-02 -1.093750e-01 9.765625e-02
-2.938983e-01 1.196970e+00 -5.503906e+00 4.855469e+00 1.183575e-04 1.062037e-02 -1.093750e-01 1.093750e-01
-3.186096e-01 1.191370e+00 -5.503906e+00 4.148438e+00 1.126396e-04 1.027679e-02 -1.210938e-01 1.093750e-01
-3.088423e-01 1.200531e+00 -5.503906e+00 3.890625e+00 -1.596467e-05 1.019182e-02 -1.328125e-01 1.093750e-01
-3.245424e-01 1.195262e+00 -4.578125e+00 3.968750e+00 3.621301e-05 1.055801e-02 -1.328125e-01 1.093750e-01
-3.175722e-01 1.207955e+00 -5.773438e+00 4.851562e+00 5.972600e-05 1.051452e-02 -1.210938e-01 9.765625e-02
-3.270420e-01 1.201785e+00 -5.503906e+00 4.101562e+00 2.402249e-05 1.051516e-02 -1.210938e-01 9.765625e-02
-3.104753e-01 1.247416e+00 -4.949219e+00 4.171875e+00 3.019324e-05 1.047396e-02 -1.210938e-01 1.015625e-01
-3.376016e-01 1.188773e+00 -4.500000e+00 4.019531e+00 -4.542195e-05 1.041704e-02 -1.093750e-01 1.015625e-01
-3.360740e-01 1.217477e+00 -5.269531e+00 3.847656e+00 -2.851374e-05 1.045002e-02 -1.093750e-01 1.015625e-01
-3.332511e-01 1.250941e+00 -5.773438e+00 4.886719e+00 -1.673838e-05 1.040831e-02 -1.093750e-01 9.765625e-02
-3.234146e-01 1.248059e+00 -5.773438e+00 4.019531e+00 -4.459164e-05 1.024436e-02 -1.210938e-01 1.093750e-01
-3.407364e-01 1.206753e+00 -5.191406e+00 3.847656e+00 2.566425e-06 1.061059e-02 -1.210938e-01 1.093750e-01
-3.414539e-01 1.211067e+00 -5.503906e+00 4.121094e+00 2.415459e-06 1.042229e-02 -1.093750e-01 1.093750e-01
-3.243703e-01 1.202963e+00 -4.921875e+00 4.867188e+00 -7.627566e-05 1.031473e-02 -1.210938e-01 1.093750e-01
-3.403533e-01 1.207602e+00 -5.269531e+00 3.792969e+00 9.737319e-06 1.027924e-02 -1.210938e-01 1.093750e-01
-3.183313e-01 1.223012e+00 -4.804688e+00 4.101562e+00 -6.512304e-05 1.004018e-02 -1.210938e-01 1.093750e-01
-3.292391e-01 1.238806e+00 -5.503906e+00 4.824219e+00 6.897268e-05 1.053266e-02 -1.210938e-01 1.093750e-01
-3.205039e-01 1.225992e+00 -5.089844e+00 4.835938e+00 1.175649e-05 1.034253e-02 -1.210938e-01 1.093750e-01
-3.271638e-01 1.245861e+00 -5.265625e+00 4.855469e+00 3.132548e-05 1.034431e-02 -1.210938e-01 1.093750e-01
-3.186844e-01 1.216812e+00 -5.503906e+00 4.195312e+00 1.188859e-05 1.055923e-02 -1.210938e-01 1.093750e-01
-3.180746e-01 1.232194e+00 -5.277344e+00 4.847656e+00 -3.504303e-05 9.931614e-03 -1.328125e-01 1.210938e-01
-3.286564e-01 1.233550e+00 -4.921875e+00 4.222656e+00 1.643644e-05 1.041170e-02 -1.328125e-01 1.210938e-01
-3.185341e-01 1.238599e+00 -5.277344e+00 4.242188e+00 8.208786e-06 9.900466e-03 -1.210938e-01 1.093750e-01
-3.197991e-01 1.217595e+00 -5.195312e+00 3.847656e+00 7.302989e-05 1.053776e-02 -1.328125e-01 1.210938e-01
-2.964703e-01 1.274089e+00 -5.507812e+00 4.210938e+00 5.865036e-05 1.020526e-02 -1.210938e-01 1.093750e-01
-3.069901e-01 1.257448e+00 -5.281250e+00 4.125000e+00 8.382397e-05 1.035378e-02 -1.210938e-01 1.093750e-01
-3.345256e-01 1.234898e+00 -5.777344e+00 4.246094e+00 6.914251e-05 1.008677e-02 -1.093750e-01 1.015625e-01
-3.250108e-01 1.249931e+00 -5.281250e+00 4.914062e+00 4.425196e-05 1.025336e-02 -1.093750e-01 1.015625e-01
-3.116769e-01 1.228540e+00 -4.695312e+00 4.906250e+00 5.646135e-05 1.025188e-02 -1.093750e-01 1.015625e-01
-3.298861e-01 1.235524e+00 -5.269531e+00 3.769531e+00 6.510417e-05 1.021048e-02 -1.093750e-01 1.015625e-01
-3.294226e-01 1.255242e+00 -5.226562e+00 4.054688e+00 4.887530e-05 1.025611e-02 -1.093750e-01 1.015625e-01
-3.159163e-01 1.236946e+00 -5.281250e+00 3.937500e+00 5.989583e-05 1.014865e-02 -1.210938e-01 1.015625e-01
-3.392441e-01 1.223056e+00 -5.507812e+00 4.917969e+00 1.941803e-05 1.024482e-02 -1.210938e-01 9.765625e-02
-3.643787e-01 1.238519e+00 -5.226562e+00 3.976562e+00 1.773853e-05 1.024429e-02 -1.210938e-01 9.765625e-02
-3.495163e-01 1.244848e+00 -5.507812e+00 3.937500e+00 1.905948e-05 1.033081e-02 -1.210938e-01 9.765625e-02
-3.635438e-01 1.258040e+00 -5.507812e+00 4.925781e+00 1.741772e-05 1.012126e-02 -1.210938e-01 1.093750e-01
-3.523036e-01 1.215995e+00 -5.507812e+00 3.738281e+00 6.340580e-05 1.032808e-02 -1.210938e-01 1.093750e-01
-3.552349e-01 1.229612e+00 -5.777344e+00 4.230469e+00 4.532760e-05 1.018795e-02 -1.328125e-01 1.093750e-01
-3.433561e-01 1.209081e+00 -5.281250e+00 4.289062e+00 4.181763e-05 1.037188e-02 -1.210938e-01 1.093750e-01
-3.426967e-01 1.243450e+00 -5.507812e+00 4.230469e+00 4.211957e-05 1.011716e-02 -1.210938e-01 1.093750e-01
-3.587028e-01 1.217076e+00 -5.281250e+00 4.289062e+00 5.259284e-05 1.036763e-02 -1.210938e-01 1.093750e-01
-3.456293e-01 1.262109e+00 -5.281250e+00 4.949219e+00 4.551630e-05 1.026302e-02 -1.210938e-01 1.093750e-01
-3.529457e-01 1.257970e+00 -5.226562e+00 3.980469e+00 3.913798e-05 9.977425e-03 -1.210938e-01 1.093750e-01
-3.462917e-01 1.218060e+00 -4.808594e+00 4.230469e+00 6.565142e-05 1.036891e-02 -1.210938e-01 1.093750e-01
-3.456492e-01 1.216847e+00 -5.195312e+00 4.289062e+00 3.896815e-05 1.034867e-02 -1.210938e-01 1.093750e-01
-3.541754e-01 1.225441e+00 -5.089844e+00 3.753906e+00 5.387606e-05 1.027985e-02 -1.210938e-01 1.093750e-01
-3.424256e-01 1.252772e+00 -5.281250e+00 3.968750e+00 5.519701e-05 1.015006e-02 -1.210938e-01 1.093750e-01
-3.495378e-01 1.234623e+00 -5.089844e+00 4.246094e+00 4.330842e-05 1.019807e-02 -1.210938e-01 1.093750e-01
-3.457204e-01 1.240092e+00 -5.226562e+00 4.062500e+00 6.165082e-05 1.037767e-02 -1.210938e-01 1.093750e-01
-3.606308e-01 1.226014e+00 -5.273438e+00 4.062500e+00 6.123566e-05 1.039135e-02 -1.210938e-01 1.093750e-01
-3.597353e-01 1.256447e+00 -5.792969e+00 4.308594e+00 9.067406e-05 1.015427e-02 -1.210938e-01 1.093750e-01
-3.657553e-01 1.246695e+00 -4.824219e+00 4.949219e+00 9.388210e-05 1.019184e-02 -1.210938e-01 1.093750e-01
-3.582952e-01 1.239817e+00 -4.949219e+00 4.308594e+00 3.900589e-05 1.004312e-02 -1.210938e-01 1.093750e-01
-3.725743e-01 1.245948e+00 -5.792969e+00 4.054688e+00 6.542497e-05 1.027207e-02 -1.328125e-01 1.093750e-01
-3.527510e-01 1.260315e+00 -5.289062e+00 4.968750e+00 5.366848e-05 1.026653e-02 -1.210938e-01 1.093750e-01
-3.605916e-01 1.222544e+00 -5.285156e+00 4.304688e+00 4.944143e-05 1.057915e-02 -1.210938e-01 1.093750e-01
-3.667407e-01 1.225903e+00 -5.285156e+00 4.953125e+00 4.644097e-05 1.030094e-02 -1.328125e-01 1.210938e-01
-3.860525e-01 1.222391e+00 -5.792969e+00 4.128906e+00 8.303140e-06 1.008238e-02 -1.328125e-01 1.093750e-01
-3.747727e-01 1.210050e+00 -4.824219e+00 4.324219e+00 1.988979e-05 1.042290e-02 -1.328125e-01 1.093750e-01
-3.685818e-01 1.225530e+00 -5.285156e+00 4.156250e+00 1.465693e-04 1.071038e-02 -1.328125e-01 1.250000e-01
-3.619160e-01 1.207843e+00 -5.281250e+00 4.171875e+00 1.069029e-04 1.099165e-02 -1.328125e-01 1.210938e-01
-3.523823e-01 1.185825e+00 -5.277344e+00 4.335938e+00 7.652098e-05 1.108639e-02 -1.328125e-01 1.093750e-01
-3.701923e-01 1.176071e+00 -4.875000e+00 4.359375e+00 3.979846e-05 1.087047e-02 -1.328125e-01 1.289062e-01
-3.446923e-01 1.206427e+00 -5.777344e+00 4.281250e+00 6.659496e-05 1.090114e-02 -1.210938e-01 1.132812e-01
-3.574536e-01 1.200919e+00 -5.777344e+00 4.351562e+00 1.156212e-04 1.072581e-02 -1.210938e-01 1.093750e-01
-3.570234e-01 1.163409e+00 -4.828125e+00 4.363281e+00 4.308197e-05 1.099658e-02 -1.328125e-01 1.289062e-01
-3.523839e-01 1.196242e+00 -4.972656e+00 4.125000e+00 7.491697e-05 1.127782e-02 -1.210938e-01 1.289062e-01
-3.581659e-01 1.266664e+00 -5.878906e+00 4.964844e+00 1.380586e-04 1.196054e-02 -1.875000e-01 1.484375e-01
-4.123230e-01 1.439091e+00 -5.699219e+00 4.484375e+00 1.145267e-04 1.740499e-02 -2.148438e-01 2.031250e-01
-4.794236e-01 1.435985e+00 -6.195312e+00 4.464844e+00 3.272192e-05 1.930281e-02 -2.031250e-01 1.992188e-01
-4.734986e-01 1.459154e+00 -5.722656e+00 4.589844e+00 -4.138361e-05 1.519736e-02 -1.718750e-01 1.875000e-01
-4.847855e-01 1.491304e+00 -5.722656e+00 4.382812e+00 1.199992e-04 1.568245e-02 -2.109375e-01 1.875000e-01
-4.780479e-01 1.479740e+00 -6.195312e+00 4.480469e+00 -9.076842e-06 1.579068e-02 -2.031250e-01 1.992188e-01
-4.936667e-01 1.449202e+00 -5.621094e+00 4.160156e+00 -4.189312e-06 1.661482e-02 -1.796875e-01 1.875000e-01
-5.641291e-01 1.539563e+00 -6.199219e+00 4.609375e+00 4.983771e-05 1.589571e-02 -2.031250e-01 1.992188e-01
-5.594514e-01 1.487542e+00 -5.984375e+00 4.226562e+00 -3.396739e-05 1.907776e-02 -1.718750e-01 2.031250e-01
-5.325757e-01 1.563802e+00 -5.718750e+00 5.179688e+00 1.500981e-04 1.699948e-02 -1.914062e-01 2.070312e-01
-5.348969e-01 1.589490e+00 -5.609375e+00 5.203125e+00 9.424064e-05 1.941032e-02 -2.031250e-01 2.070312e-01
-5.610753e-01 1.594602e+00 -6.179688e+00 5.128906e+00 -1.123377e-04 1.825980e-02 -2.031250e-01 1.953125e-01
-5.602885e-01 1.551463e+00 -5.703125e+00 4.640625e+00 1.004303e-04 1.824210e-02 -1.914062e-01 1.953125e-01
-5.538618e-01 1.577345e+00 -5.554688e+00 4.191406e+00 5.670667e-05 1.782886e-02 -1.953125e-01 1.992188e-01
-5.590899e-01 1.636774e+00 -6.179688e+00 4.500000e+00 1.882737e-04 1.569593e-02 -1.953125e-01 1.875000e-01
-5.608402e-01 1.594592e+00 -5.703125e+00 5.121094e+00 3.811896e-06 1.599464e-02 -2.031250e-01 1.953125e-01
-5.728953e-01 1.582163e+00 -5.699219e+00 5.082031e+00 -1.615338e-05 1.815225e-02 -1.914062e-01 1.953125e-01
-5.573448e-01 1.630207e+00 -5.703125e+00 4.542969e+00 9.148551e-05 1.864852e-02 -2.304688e-01 1.953125e-01
-5.539278e-01 1.559426e+00 -6.179688e+00 4.773438e+00 7.938934e-05 1.800641e-02 -1.914062e-01 1.953125e-01
-5.472388e-01 1.583277e+00 -5.703125e+00 5.070312e+00 1.091108e-04 1.961775e-02 -2.031250e-01 1.914062e-01
-5.867024e-01 1.547713e+00 -5.542969e+00 4.195312e+00 4.551630e-05 2.016082e-02 -2.031250e-01 1.914062e-01
-5.560629e-01 1.536867e+00 -6.179688e+00 4.628906e+00 1.409647e-04 2.074585e-02 -1.992188e-01 1.953125e-01
-5.646524e-01 1.547500e+00 -5.703125e+00 5.140625e+00 1.027514e-04 1.750869e-02 -2.031250e-01 1.914062e-01
-5.673704e-01 1.550678e+00 -5.957031e+00 4.476562e+00 7.635115e-05 2.090289e-02 -2.148438e-01 1.953125e-01
-5.774394e-01 1.526964e+00 -5.703125e+00 4.867188e+00 1.513059e-04 1.864072e-02 -1.953125e-01 1.875000e-01
-5.822602e-01 1.580682e+00 -5.703125e+00 5.355469e+00 8.171045e-05 1.834231e-02 -2.226562e-01 1.953125e-01
-5.863082e-01 1.663059e+00 -6.183594e+00 5.363281e+00 2.879491e-04 1.811016e-02 -2.226562e-01 1.992188e-01
-5.780509e-01 1.587854e+00 -5.546875e+00 5.363281e+00 1.271890e-05 1.734563e-02 -1.953125e-01 1.875000e-01
-5.926330e-01 1.604259e+00 -6.148438e+00 5.371094e+00 4.238376e-05 1.835503e-02 -2.031250e-01 1.835938e-01
-5.867272e-01 1.556773e+00 -6.164062e+00 4.917969e+00 1.256793e-05 1.948299e-02 -1.875000e-01 1.835938e-01
-5.883097e-01 1.590590e+00 -5.683594e+00 5.539062e+00 -1.617225e-05 1.599052e-02 -2.187500e-01 1.875000e-01
-5.803077e-01 1.594037e+00 -5.925781e+00 5.542969e+00 1.287364e-04 1.683107e-02 -1.953125e-01 1.992188e-01
-6.046999e-01 1.600720e+00 -6.250000e+00 5.066406e+00 -4.749774e-05 1.860317e-02 -2.031250e-01 1.992188e-01
-5.943895e-01 1.572690e+00 -5.539062e+00 5.546875e+00 6.472675e-05 1.823621e-02 -2.070312e-01 1.953125e-01
-5.873752e-01 1.594958e+00 -6.046875e+00 4.953125e+00 1.932745e-04 1.745375e-02 -1.953125e-01 1.875000e-01
-5.993739e-01 1.559221e+00 -5.683594e+00 5.441406e+00 2.455088e-05 1.847947e-02 -1.914062e-01 1.953125e-01
-5.967329e-01 1.542215e+00 -6.148438e+00 5.125000e+00 7.774758e-06 1.750641e-02 -1.953125e-01 1.953125e-01
-5.741815e-01 1.550029e+00 -5.691406e+00 5.484375e+00 -6.302838e-05 1.825469e-02 -1.914062e-01 1.835938e-01
-6.026063e-01 1.621865e+00 -6.015625e+00 4.472656e+00 6.695350e-05 1.656353e-02 -1.914062e-01 1.992188e-01
-5.952792e-01 1.576930e+00 -6.015625e+00 4.390625e+00 2.088428e-04 1.988750e-02 -2.031250e-01 1.875000e-01
-6.035019e-01 1.583719e+00 -6.394531e+00 4.945312e+00 -3.485432e-05 1.921371e-02 -2.031250e-01 2.031250e-01
-5.947102e-01 1.591904e+00 -6.640625e+00 4.945312e+00 3.017437e-05 1.901159e-02 -1.953125e-01 1.953125e-01
-6.017552e-01 1.595734e+00 -5.679688e+00 4.929688e+00 -5.242301e-05 1.771773e-02 -1.640625e-01 1.992188e-01
-6.220239e-01 1.576939e+00 -5.679688e+00 4.726562e+00 1.080540e-04 1.913677e-02 -1.953125e-01 1.953125e-01
-6.208870e-01 1.610195e+00 -6.375000e+00 5.171875e+00 -2.426781e-05 1.700741e-02 -1.640625e-01 1.640625e-01
-6.397454e-01 1.644991e+00 -6.281250e+00 4.953125e+00 -3.075936e-06 1.678305e-02 -2.031250e-01 2.031250e-01
-6.396994e-01 1.580715e+00 -5.675781e+00 5.039062e+00 1.199615e-04 1.935430e-02 -1.875000e-01 1.953125e-01
-6.434005e-01 1.563773e+00 -5.195312e+00 5.031250e+00 -9.869414e-06 1.660605e-02 -1.796875e-01 1.953125e-01
-6.457880e-01 1.577979e+00 -5.675781e+00 4.472656e+00 1.249245e-05 1.670981e-02 -1.796875e-01 1.757812e-01
-6.662142e-01 1.597917e+00 -7.316406e+00 4.636719e+00 1.463806e-04 1.928342e-02 -2.031250e-01 1.992188e-01
-6.618115e-01 1.592557e+00 -6.121094e+00 5.085938e+00 4.800725e-05 1.749314e-02 -1.914062e-01 1.992188e-01
-6.386101e-01 1.573641e+00 -6.117188e+00 5.179688e+00 -3.904363e-05 1.717429e-02 -1.796875e-01 1.953125e-01
-6.730410e-01 1.601474e+00 -6.812500e+00 5.062500e+00 -2.681537e-05 1.844834e-02 -1.914062e-01 1.992188e-01
-6.422322e-01 1.524101e+00 -5.867188e+00 4.660156e+00 -2.373943e-05 1.924421e-02 -1.875000e-01 1.992188e-01
-6.643026e-01 1.592997e+00 -5.675781e+00 4.675781e+00 8.522041e-05 1.728731e-02 -2.031250e-01 1.992188e-01
-6.399078e-01 1.593913e+00 -5.949219e+00 5.164062e+00 -2.583409e-05 1.840179e-02 -1.875000e-01 1.953125e-01
-6.668913e-01 1.636309e+00 -7.234375e+00 4.773438e+00 1.462862e-04 1.706175e-02 -1.953125e-01 1.992188e-01
-6.554433e-01 1.552042e+00 -5.386719e+00 4.679688e+00 1.602129e-04 2.020314e-02 -1.875000e-01 1.875000e-01
-6.451113e-01 1.595786e+00 -7.214844e+00 5.199219e+00 1.343976e-04 1.876867e-02 -1.875000e-01 1.835938e-01
-6.152540e-01 1.606456e+00 -6.753906e+00 4.750000e+00 5.623490e-06 1.550741e-02 -1.992188e-01 1.835938e-01
-6.417361e-01 1.588399e+00 -6.460938e+00 4.992188e+00 3.421271e-05 1.929417e-02 -1.718750e-01 1.992188e-01
-6.334288e-01 1.620269e+00 -6.109375e+00 4.789062e+00 5.106431e-05 1.870595e-02 -1.875000e-01 1.992188e-01
-6.164497e-01 1.599830e+00 -6.109375e+00 4.902344e+00 4.342165e-05 1.823797e-02 -1.953125e-01 1.953125e-01
-6.303740e-01 1.594880e+00 -6.109375e+00 4.683594e+00 1.539289e-04 1.800335e-02 -1.953125e-01 1.992188e-01
-6.519175e-01 1.675514e+00 -7.105469e+00 5.117188e+00 2.219580e-04 1.805583e-02 -2.031250e-01 1.992188e-01
-6.545608e-01 1.627038e+00 -7.261719e+00 5.382812e+00 9.867527e-05 1.935646e-02 -1.992188e-01 1.992188e-01
-6.819574e-01 1.663117e+00 -5.953125e+00 5.277344e+00 -2.226751e-05 1.532508e-02 -1.992188e-01 1.875000e-01
-6.872407e-01 1.605670e+00 -6.984375e+00 4.828125e+00 4.049668e-05 1.788675e-02 -1.953125e-01 1.875000e-01
-6.871368e-01 1.596357e+00 -6.468750e+00 4.808594e+00 1.334164e-05 1.933026e-02 -1.914062e-01 1.953125e-01
-7.170425e-01 1.614437e+00 -7.738281e+00 5.128906e+00 -9.812802e-07 1.865048e-02 -1.914062e-01 1.992188e-01
-7.470295e-01 1.668273e+00 -6.968750e+00 5.367188e+00 9.522192e-05 1.769748e-02 -1.718750e-01 1.953125e-01
-7.713358e-01 1.610682e+00 -8.308594e+00 5.078125e+00 -5.487621e-05 1.901281e-02 -1.914062e-01 1.875000e-01
-7.433920e-01 1.657106e+00 -8.183594e+00 4.792969e+00 -5.953729e-05 1.608423e-02 -1.953125e-01 1.875000e-01
-7.536032e-01 1.550261e+00 -6.605469e+00 4.855469e+00 -2.323181e-04 1.873645e-02 -1.757812e-01 1.875000e-01
-8.213198e-01 1.694489e+00 -7.437500e+00 4.863281e+00 5.742376e-05 1.602614e-02 -1.914062e-01 2.031250e-01
-8.006989e-01 1.745809e+00 -7.988281e+00 4.531250e+00 -1.604016e-06 1.535062e-02 -1.953125e-01 1.992188e-01
-7.958661e-01 1.624450e+00 -7.988281e+00 4.113281e+00 -7.244490e-05 1.956386e-02 -1.953125e-01 1.953125e-01
-8.322458e-01 1.700384e+00 -6.976562e+00 5.718750e+00 2.319218e-05 1.950679e-02 -2.187500e-01 1.992188e-01
-8.105083e-01 1.684781e+00 -6.875000e+00 4.953125e+00 -7.529438e-06 1.699914e-02 -2.070312e-01 1.992188e-01
-7.851030e-01 1.680486e+00 -7.964844e+00 5.515625e+00 1.626661e-05 1.613502e-02 -1.953125e-01 1.992188e-01
-7.141530e-01 1.654562e+00 -5.773438e+00 5.531250e+00 -4.328955e-05 1.674655e-02 -2.070312e-01 2.031250e-01
-7.076541e-01 1.787748e+00 -6.234375e+00 6.410156e+00 8.431461e-05 1.866946e-02 -2.031250e-01 1.992188e-01
-7.354068e-01 1.737612e+00 -7.027344e+00 5.730469e+00 1.048083e-04 1.742920e-02 -2.031250e-01 2.031250e-01
-7.272441e-01 1.687255e+00 -7.019531e+00 5.109375e+00 2.883454e-05 1.768469e-02 -1.875000e-01 1.875000e-01
-7.303430e-01 1.672533e+00 -6.988281e+00 6.492188e+00 1.165270e-04 1.822692e-02 -1.757812e-01 1.757812e-01
-7.197746e-01 1.684817e+00 -5.500000e+00 6.089844e+00 9.631643e-05 2.030101e-02 -1.953125e-01 1.992188e-01
-7.372119e-01 1.741323e+00 -6.441406e+00 6.496094e+00 1.717240e-05 1.623740e-02 -1.796875e-01 1.953125e-01
-7.686141e-01 1.692822e+00 -6.945312e+00 5.718750e+00 1.152627e-04 1.742958e-02 -1.914062e-01 1.992188e-01
-7.528222e-01 1.631043e+00 -5.937500e+00 6.003906e+00 -8.333333e-05 1.670618e-02 -1.835938e-01 1.835938e-01
-7.251953e-01 1.706780e+00 -6.792969e+00 5.417969e+00 1.295101e-04 2.035430e-02 -2.031250e-01 1.992188e-01
-7.750630e-01 1.670330e+00 -6.527344e+00 6.289062e+00 -7.529438e-05 1.632352e-02 -1.718750e-01 1.835938e-01
-7.568882e-01 1.647566e+00 -6.546875e+00 6.175781e+00 1.303593e-04 1.760983e-02 -1.679688e-01 1.679688e-01
-7.979482e-01 1.658364e+00 -6.523438e+00 4.835938e+00 -6.102808e-05 1.621867e-02 -2.031250e-01 1.992188e-01
-7.680710e-01 1.684823e+00 -6.437500e+00 4.859375e+00 9.988300e-05 1.720497e-02 -2.031250e-01 1.992188e-01
-8.064639e-01 1.741606e+00 -6.742188e+00 6.574219e+00 -9.020229e-05 1.558320e-02 -2.031250e-01 2.031250e-01
-7.996544e-01 1.712131e+00 -6.562500e+00 5.160156e+00 -3.462787e-05 1.719423e-02 -1.953125e-01 1.953125e-01
-7.735779e-01 1.723514e+00 -6.664062e+00 5.667969e+00 -7.559632e-05 1.794932e-02 -1.875000e-01 1.875000e-01
-7.735322e-01 1.709107e+00 -6.839844e+00 5.562500e+00 -9.582579e-05 1.489221e-02 -2.031250e-01 1.992188e-01
-8.553378e-01 1.651542e+00 -7.300781e+00 5.695312e+00 -2.065029e-04 1.603780e-02 -1.875000e-01 1.992188e-01
-8.576280e-01 1.660724e+00 -7.300781e+00 5.093750e+00 -1.648173e-04 1.810374e-02 -2.031250e-01 1.953125e-01
-8.424537e-01 1.662546e+00 -6.445312e+00 5.691406e+00 -1.883303e-04 1.694984e-02 -1.875000e-01 1.875000e-01
-8.655499e-01 1.653824e+00 -6.945312e+00 5.828125e+00 1.304159e-04 1.999084e-02 -1.875000e-01 1.953125e-01
-8.578203e-01 1.641961e+00 -6.765625e+00 5.828125e+00 -9.818463e-05 1.824940e-02 -1.718750e-01 1.835938e-01
-8.550628e-01 1.628336e+00 -6.722656e+00 5.703125e+00 -1.564576e-04 1.751629e-02 -1.718750e-01 1.757812e-01
-9.060550e-01 1.634631e+00 -6.867188e+00 5.914062e+00 -6.212258e-05 1.544553e-02 -1.875000e-01 1.992188e-01
-8.473332e-01 1.667228e+00 -7.070312e+00 5.574219e+00 1.922932e-05 1.920371e-02 -2.265625e-01 2.070312e-01
-8.461767e-01 1.689803e+00 -5.960938e+00 4.781250e+00 -1.011662e-04 1.934143e-02 -2.187500e-01 1.992188e-01
-7.756562e-01 1.707440e+00 -6.082031e+00 6.238281e+00 -6.648173e-05 1.676848e-02 -1.875000e-01 1.875000e-01
-7.566096e-01 1.744410e+00 -5.808594e+00 6.992188e+00 -5.598958e-05 1.661161e-02 -1.953125e-01 2.031250e-01
-7.537772e-01 1.713394e+00 -6.746094e+00 7.203125e+00 2.368282e-05 1.902316e-02 -2.031250e-01 1.953125e-01
-7.899094e-01 1.720280e+00 -5.929688e+00 7.203125e+00 -9.793931e-05 1.810518e-02 -2.031250e-01 1.953125e-01
-7.548809e-01 1.710191e+00 -6.558594e+00 6.570312e+00 1.190557e-04 1.947607e-02 -1.914062e-01 2.109375e-01
-7.728411e-01 1.693428e+00 -6.710938e+00 6.527344e+00 1.215466e-04 1.936311e-02 -2.031250e-01 1.953125e-01
-8.016161e-01 1.676967e+00 -6.394531e+00 7.218750e+00 1.282646e-04 1.952681e-02 -1.953125e-01 2.070312e-01
-7.915820e-01 1.689578e+00 -6.394531e+00 5.367188e+00 -1.490602e-04 1.704170e-02 -1.796875e-01 2.070312e-01
-7.793593e-01 1.760285e+00 -6.355469e+00 5.894531e+00 -1.666289e-05 2.028834e-02 -2.070312e-01 2.070312e-01
-7.791208e-01 1.747887e+00 -6.148438e+00 7.320312e+00 1.119603e-04 1.738152e-02 -2.070312e-01 2.031250e-01
-8.820835e-01 1.709332e+00 -6.054688e+00 7.492188e+00 2.088995e-05 1.701059e-02 -2.031250e-01 1.992188e-01
-8.965428e-01 1.748382e+00 -6.167969e+00 6.390625e+00 7.176555e-05 1.634909e-02 -1.875000e-01 1.992188e-01
-8.853718e-01 1.753510e+00 -5.945312e+00 7.558594e+00 -1.115263e-05 1.246879e-02 -1.875000e-01 1.953125e-01
-8.756372e-01 1.734604e+00 -6.488281e+00 6.699219e+00 6.906703e-05 1.759738e-02 -2.187500e-01 1.875000e-01
-8.917848e-01 1.715731e+00 -6.636719e+00 6.312500e+00 -4.776193e-05 1.582963e-02 -2.070312e-01 2.070312e-01
-8.986965e-01 1.714122e+00 -6.675781e+00 5.871094e+00 1.934632e-04 1.559310e-02 -2.031250e-01 1.953125e-01
-8.964171e-01 1.681167e+00 -6.640625e+00 6.136719e+00 -1.492489e-04 1.622819e-02 -1.796875e-01 1.835938e-01
-8.895247e-01 1.682530e+00 -5.675781e+00 6.003906e+00 1.717240e-06 1.519027e-02 -1.875000e-01 1.875000e-01
-8.626679e-01 1.734492e+00 -6.140625e+00 5.988281e+00 2.751359e-05 1.707208e-02 -1.914062e-01 1.992188e-01
-8.870336e-01 1.752180e+00 -6.492188e+00 6.648438e+00 -4.738451e-05 1.712445e-02 -2.343750e-01 1.992188e-01
-8.706649e-01 1.695811e+00 -6.503906e+00 5.562500e+00 3.402400e-05 1.442415e-02 -1.953125e-01 1.953125e-01
-8.702668e-01 1.751537e+00 -6.121094e+00 5.519531e+00 -9.207050e-05 1.489663e-02 -1.718750e-01 1.953125e-01
-8.581162e-01 1.748448e+00 -6.355469e+00 7.328125e+00 1.609488e-04 1.765679e-02 -1.914062e-01 1.953125e-01
-8.525208e-01 1.783301e+00 -6.488281e+00 7.359375e+00 1.858771e-04 1.673183e-02 -2.265625e-01 2.109375e-01
-8.775805e-01 1.759355e+00 -6.488281e+00 5.019531e+00 3.203125e-04 2.006505e-02 -2.187500e-01 2.109375e-01
-8.724051e-01 1.747940e+00 -6.242188e+00 5.683594e+00 -3.804348e-05 1.695276e-02 -1.992188e-01 1.992188e-01
-8.638940e-01 1.729820e+00 -6.351562e+00 5.636719e+00 -4.027023e-05 1.861270e-02 -1.914062e-01 2.070312e-01
-8.611021e-01 1.761281e+00 -6.632812e+00 6.902344e+00 2.459805e-04 1.731053e-02 -1.875000e-01 2.070312e-01
-8.815531e-01 1.777783e+00 -6.710938e+00 5.914062e+00 5.334768e-05 1.840411e-02 -2.031250e-01 2.031250e-01
-8.627864e-01 1.782600e+00 -6.078125e+00 6.992188e+00 9.190066e-05 1.810259e-02 -2.031250e-01 1.992188e-01
-8.836594e-01 1.773079e+00 -6.078125e+00 5.953125e+00 -1.209617e-05 1.647641e-02 -1.875000e-01 1.992188e-01
-8.842450e-01 1.814700e+00 -6.183594e+00 7.035156e+00 1.955012e-04 1.716447e-02 -1.875000e-01 1.992188e-01
-9.692095e-01 1.861632e+00 -7.300781e+00 6.484375e+00 -1.280005e-04 1.385124e-02 -1.953125e-01 1.953125e-01
-1.029473e+00 1.886854e+00 -6.394531e+00 7.945312e+00 -5.855601e-05 1.448294e-02 -2.031250e-01 1.875000e-01
-1.081971e+00 1.950922e+00 -6.242188e+00 8.441406e+00 1.131303e-04 1.461667e-02 -1.953125e-01 1.835938e-01
-1.049453e+00 1.929102e+00 -6.539062e+00 8.089844e+00 1.209617e-05 1.448607e-02 -1.796875e-01 1.953125e-01
-1.052077e+00 1.906709e+00 -6.484375e+00 7.511719e+00 -7.399230e-05 1.556289e-02 -1.796875e-01 1.953125e-01
-1.051078e+00 1.867582e+00 -6.363281e+00 7.855469e+00 9.095713e-06 1.605606e-02 -1.875000e-01 1.875000e-01
-1.041983e+00 1.858142e+00 -6.218750e+00 8.097656e+00 4.357261e-05 1.492459e-02 -1.914062e-01 1.953125e-01
-1.057345e+00 1.909514e+00 -6.589844e+00 7.460938e+00 2.339976e-05 1.424943e-02 -1.914062e-01 1.953125e-01
-1.054985e+00 1.811957e+00 -6.589844e+00 6.906250e+00 -3.589221e-05 1.628298e-02 -2.070312e-01 1.757812e-01
-1.082649e+00 1.853550e+00 -6.089844e+00 7.511719e+00 -2.566236e-04 1.501224e-02 -1.953125e-01 1.875000e-01
-1.079036e+00 1.842692e+00 -6.605469e+00 7.375000e+00 2.295063e-04 1.654080e-02 -1.757812e-01 1.835938e-01
-1.041774e+00 1.859645e+00 -6.578125e+00 8.007812e+00 2.626812e-05 1.593817e-02 -2.148438e-01 2.031250e-01
-1.049338e+00 1.945589e+00 -6.800781e+00 7.089844e+00 -2.162213e-04 1.600902e-02 -2.304688e-01 1.953125e-01
-9.901805e-01 1.939161e+00 -6.546875e+00 8.382812e+00 -7.333182e-05 1.455633e-02 -1.757812e-01 1.992188e-01
-1.011331e+00 1.946428e+00 -6.906250e+00 6.855469e+00 1.249434e-04 1.718044e-02 -2.109375e-01 2.031250e-01
-9.931321e-01 1.884015e+00 -6.324219e+00 8.277344e+00 -5.987696e-05 1.704203e-02 -1.914062e-01 1.953125e-01
-9.833648e-01 1.919685e+00 -6.394531e+00 6.421875e+00 9.725996e-05 1.598344e-02 -2.109375e-01 1.953125e-01
-9.637852e-01 1.941314e+00 -6.082031e+00 8.078125e+00 8.020079e-05 1.734504e-02 -2.148438e-01 1.835938e-01
-1.002111e+00 1.931686e+00 -6.226562e+00 8.011719e+00 8.050272e-05 1.548775e-02 -2.070312e-01 1.953125e-01
-9.959125e-01 1.939699e+00 -5.757812e+00 7.281250e+00 -1.357375e-04 1.449141e-02 -2.539062e-01 1.953125e-01
-9.806432e-01 1.869738e+00 -5.843750e+00 8.140625e+00 1.320765e-04 1.657910e-02 -1.953125e-01 1.953125e-01
-9.865888e-01 1.926681e+00 -6.757812e+00 7.437500e+00 1.586655e-04 1.628514e-02 -2.226562e-01 1.992188e-01
-1.007483e+00 1.906665e+00 -6.316406e+00 7.269531e+00 5.908439e-05 1.740803e-02 -2.070312e-01 1.953125e-01
-1.011990e+00 1.923904e+00 -7.175781e+00 6.597656e+00 1.737055e-04 1.583233e-02 -2.031250e-01 1.953125e-01
-1.035080e+00 1.854896e+00 -6.167969e+00 6.593750e+00 -8.129529e-05 1.585291e-02 -2.070312e-01 1.914062e-01
-1.031232e+00 1.923633e+00 -6.300781e+00 6.882812e+00 -1.713466e-05 1.546251e-02 -1.875000e-01 1.953125e-01
-1.036712e+00 1.895658e+00 -6.097656e+00 6.941406e+00 -8.642814e-05 1.656780e-02 -2.226562e-01 1.953125e-01
-1.001026e+00 1.877569e+00 -6.691406e+00 7.765625e+00 1.537024e-04 1.497642e-02 -1.953125e-01 2.031250e-01
-1.033789e+00 1.902476e+00 -6.640625e+00 7.765625e+00 1.294535e-05 1.456711e-02 -2.031250e-01 2.031250e-01
-1.036740e+00 1.840809e+00 -7.578125e+00 6.902344e+00 6.784043e-05 1.725537e-02 -2.031250e-01 1.992188e-01
-1.010684e+00 1.869627e+00 -6.472656e+00 6.363281e+00 2.928744e-05 1.450995e-02 -1.953125e-01 1.953125e-01
-1.016526e+00 1.881832e+00 -7.542969e+00 7.785156e+00 -1.819520e-04 1.618400e-02 -2.187500e-01 1.875000e-01
-1.020446e+00 1.956964e+00 -7.410156e+00 7.507812e+00 -9.939236e-05 1.270586e-02 -1.953125e-01 1.953125e-01
-1.025498e+00 1.883176e+00 -7.410156e+00 7.574219e+00 -1.305291e-04 1.494488e-02 -2.070312e-01 1.914062e-01
-9.994533e-01 1.847745e+00 -6.542969e+00 6.492188e+00 -1.032420e-04 1.619869e-02 -2.070312e-01 1.953125e-01
-9.924240e-01 1.890577e+00 -6.742188e+00 6.824219e+00 7.508681e-05 1.702870e-02 -2.109375e-01 2.109375e-01
-9.752064e-01 1.848908e+00 -6.484375e+00 6.117188e+00 7.259586e-05 1.680569e-02 -2.382812e-01 1.953125e-01
-1.011731e+00 1.897272e+00 -7.531250e+00 5.925781e+00 -3.430707e-05 1.529848e-02 -2.148438e-01 1.992188e-01
-9.748550e-01 1.859271e+00 -6.292969e+00 6.914062e+00 6.446256e-05 1.623346e-02 -2.343750e-01 2.109375e-01
-9.440541e-01 1.866728e+00 -7.199219e+00 6.656250e+00 8.129529e-05 1.844052e-02 -2.031250e-01 2.148438e-01
-9.659996e-01 1.896597e+00 -6.917969e+00 7.718750e+00 -5.704635e-05 1.451424e-02 -1.953125e-01 2.031250e-01
-9.624722e-01 1.917834e+00 -7.414062e+00 6.984375e+00 -1.978978e-04 1.750316e-02 -2.851562e-01 1.875000e-01
-9.407442e-01 1.860801e+00 -6.308594e+00 6.609375e+00 7.972902e-05 1.641466e-02 -2.226562e-01 2.109375e-01
-9.510073e-01 1.899305e+00 -7.316406e+00 6.910156e+00 1.630435e-05 1.817765e-02 -2.929688e-01 2.187500e-01
-9.705999e-01 1.935374e+00 -7.089844e+00 6.582031e+00 2.020494e-04 1.683161e-02 -2.304688e-01 1.953125e-01
-9.630735e-01 1.874957e+00 -6.777344e+00 6.621094e+00 3.053291e-04 1.919077e-02 -2.031250e-01 2.187500e-01
-9.813049e-01 1.936613e+00 -7.582031e+00 7.406250e+00 9.331597e-05 1.769450e-02 -1.914062e-01 2.187500e-01
-9.770119e-01 1.897275e+00 -6.683594e+00 7.039062e+00 1.025815e-04 1.908443e-02 -2.460938e-01 2.265625e-01
-9.795817e-01 1.879737e+00 -6.996094e+00 6.957031e+00 4.395003e-05 1.780968e-02 -2.148438e-01 2.109375e-01
-9.837819e-01 1.887371e+00 -7.011719e+00 6.785156e+00 1.854242e-04 1.782513e-02 -2.890625e-01 1.953125e-01
-1.007337e+00 1.869424e+00 -6.785156e+00 7.167969e+00 7.850242e-06 1.674932e-02 -1.796875e-01 2.382812e-01
-1.001855e+00 1.895015e+00 -8.023438e+00 6.652344e+00 1.641946e-04 1.732715e-02 -2.109375e-01 2.031250e-01
-1.030117e+00 1.951300e+00 -7.425781e+00 6.449219e+00 -2.145984e-04 1.747261e-02 -2.695312e-01 2.187500e-01
-9.841366e-01 1.911400e+00 -7.941406e+00 6.796875e+00 2.241848e-05 2.092514e-02 -2.812500e-01 2.578125e-01
-9.578553e-01 1.941167e+00 -7.207031e+00 7.687500e+00 1.034684e-04 1.451980e-02 -1.953125e-01 2.187500e-01
-1.020952e+00 1.878345e+00 -6.875000e+00 6.425781e+00 1.555895e-04 2.246115e-02 -2.578125e-01 2.578125e-01
-9.930867e-01 1.935133e+00 -7.210938e+00 6.714844e+00 6.693463e-05 1.715412e-02 -1.992188e-01 2.500000e-01
-1.004101e+00 1.897144e+00 -7.902344e+00 7.660156e+00 1.388889e-04 2.005648e-02 -2.148438e-01 2.382812e-01
-9.822086e-01 1.977891e+00 -7.898438e+00 7.660156e+00 -2.243735e-05 1.457861e-02 -2.148438e-01 2.109375e-01
-1.015957e+00 1.918660e+00 -7.101562e+00 6.792969e+00 1.756114e-04 2.060898e-02 -2.734375e-01 2.265625e-01
-1.003348e+00 1.896835e+00 -7.210938e+00 6.289062e+00 1.607035e-04 1.902933e-02 -2.109375e-01 2.265625e-01
-1.097090e+00 1.883247e+00 -7.535156e+00 6.902344e+00 -2.937613e-04 1.476799e-02 -2.148438e-01 1.875000e-01
-1.073988e+00 1.914607e+00 -7.519531e+00 6.273438e+00 -1.153193e-04 1.559302e-02 -2.031250e-01 2.187500e-01
-1.012383e+00 1.913256e+00 -7.417969e+00 7.675781e+00 3.438255e-05 1.679732e-02 -2.500000e-01 2.265625e-01
-9.950891e-01 1.906756e+00 -7.363281e+00 6.937500e+00 8.923989e-05 1.593455e-02 -2.031250e-01 2.265625e-01
-9.834125e-01 1.903972e+00 -7.691406e+00 7.847656e+00 2.597373e-04 2.035864e-02 -3.007812e-01 2.656250e-01
-9.901782e-01 1.932609e+00 -7.855469e+00 7.914062e+00 1.896890e-04 1.661538e-02 -2.148438e-01 2.226562e-01
-1.029376e+00 1.982273e+00 -8.593750e+00 7.316406e+00 3.542044e-05 1.858547e-02 -2.265625e-01 2.500000e-01
-1.031237e+00 1.942472e+00 -8.109375e+00 7.015625e+00 -1.478525e-04 2.023488e-02 -2.539062e-01 3.085938e-01
-1.061808e+00 1.982750e+00 -8.289062e+00 5.800781e+00 -5.019626e-05 1.441416e-02 -2.421875e-01 2.226562e-01
-1.035389e+00 1.849211e+00 -7.839844e+00 6.191406e+00 5.272494e-05 2.058000e-02 -2.343750e-01 2.187500e-01
-1.035435e+00 1.966125e+00 -8.152344e+00 6.941406e+00 1.021475e-04 1.698202e-02 -2.148438e-01 2.656250e-01
-1.019762e+00 1.951030e+00 -8.203125e+00 6.250000e+00 -4.164780e-05 1.612699e-02 -2.500000e-01 2.656250e-01
-1.017844e+00 1.978263e+00 -8.214844e+00 6.421875e+00 -1.847449e-05 1.589790e-02 -1.914062e-01 2.304688e-01
-1.025252e+00 1.895421e+00 -8.179688e+00 6.960938e+00 1.632322e-05 1.831524e-02 -2.031250e-01 2.304688e-01
-1.051565e+00 1.926290e+00 -7.851562e+00 6.644531e+00 1.681197e-04 1.801308e-02 -2.500000e-01 2.304688e-01
-1.052656e+00 1.913094e+00 -8.152344e+00 6.917969e+00 2.526796e-05 2.062863e-02 -2.500000e-01 2.578125e-01
-1.047793e+00 1.919355e+00 -8.500000e+00 6.675781e+00 1.142248e-04 2.187865e-02 -2.265625e-01 2.539062e-01
-9.903353e-01 1.895536e+00 -7.816406e+00 7.183594e+00 -1.315293e-04 1.809232e-02 -2.304688e-01 2.343750e-01
-1.040519e+00 1.924756e+00 -7.957031e+00 6.687500e+00 -2.768342e-05 1.757014e-02 -2.070312e-01 2.187500e-01
-1.010965e+00 1.943108e+00 -7.949219e+00 6.917969e+00 5.340429e-06 1.648622e-02 -2.343750e-01 1.992188e-01
-1.014739e+00 1.863528e+00 -7.941406e+00 7.285156e+00 6.200936e-05 1.874149e-02 -2.656250e-01 2.851562e-01
-9.788540e-01 1.954449e+00 -8.699219e+00 6.488281e+00 -3.436368e-05 1.973551e-02 -2.304688e-01 2.304688e-01
-1.009000e+00 1.966000e+00 -8.625000e+00 6.367188e+00 1.353978e-04 1.948918e-02 -2.031250e-01 2.226562e-01
-9.949284e-01 1.898409e+00 -7.621094e+00 7.289062e+00 -6.151872e-05 1.815248e-02 -2.148438e-01 2.382812e-01
-1.002995e+00 1.925194e+00 -8.074219e+00 7.496094e+00 -8.661685e-05 1.724505e-02 -1.953125e-01 2.382812e-01
-9.812232e-01 1.908926e+00 -8.187500e+00 7.199219e+00 1.902551e-04 1.984154e-02 -2.031250e-01 2.304688e-01
-9.388224e-01 1.969008e+00 -8.648438e+00 6.941406e+00 1.815746e-04 1.914423e-02 -2.226562e-01 2.265625e-01
-9.595161e-01 1.952798e+00 -8.359375e+00 6.820312e+00 -7.623792e-06 2.051620e-02 -2.539062e-01 2.148438e-01
-9.127603e-01 2.010158e+00 -8.007812e+00 6.558594e+00 -9.941123e-05 1.684762e-02 -2.539062e-01 2.031250e-01
