-3.148305e-01 3.539896e+00 -2.655469e+01 2.762500e+01 9.210611e-05 7.973024e-03 -1.562500e-01 1.250000e-01
-4.240151e-01 3.547106e+00 -2.646484e+01 2.713672e+01 -2.127460e-05 7.997743e-03 -1.562500e-01 1.015625e-01
-5.793556e-01 3.568495e+00 -2.669531e+01 2.673438e+01 1.180677e-05 7.390168e-03 -1.562500e-01 1.015625e-01
-7.510249e-01 3.603833e+00 -2.681641e+01 2.662891e+01 3.530143e-05 6.993956e-03 -1.484375e-01 1.015625e-01
-9.152489e-01 3.652747e+00 -2.828125e+01 2.635156e+01 -1.451840e-06 6.876439e-03 -1.601562e-01 1.015625e-01
-1.029409e+00 3.787150e+00 -2.942578e+01 2.643750e+01 4.911106e-06 6.862443e-03 -1.640625e-01 1.015625e-01
-1.157053e+00 3.996844e+00 -3.083594e+01 2.721484e+01 2.702480e-06 6.926844e-03 -1.718750e-01 1.132812e-01
-1.247723e+00 4.263598e+00 -3.146484e+01 2.834766e+01 -2.859553e-05 7.224034e-03 -1.796875e-01 1.250000e-01
-1.292677e+00 4.606576e+00 -3.199609e+01 2.780859e+01 -2.969756e-05 7.550745e-03 -1.796875e-01 1.250000e-01
-1.329355e+00 4.946791e+00 -3.190234e+01 3.150000e+01 1.051727e-06 7.652500e-03 -1.796875e-01 1.367188e-01
-1.360555e+00 5.227695e+00 -3.236328e+01 3.339062e+01 3.072871e-06 7.892588e-03 -1.796875e-01 1.484375e-01
-1.407298e+00 5.490924e+00 -3.357422e+01 3.559766e+01 -1.745866e-05 7.936211e-03 -2.148438e-01 2.148438e-01
-1.448952e+00 5.677675e+00 -3.524609e+01 3.970312e+01 -1.136093e-05 8.189006e-03 -1.796875e-01 1.601562e-01
-1.484133e+00 5.846620e+00 -3.639844e+01 4.055859e+01 -1.654640e-05 9.004119e-03 -2.734375e-01 2.734375e-01
-1.564735e+00 5.991218e+00 -3.701172e+01 4.087109e+01 -7.627305e-06 8.551784e-03 -2.539062e-01 2.539062e-01
-1.655141e+00 6.167149e+00 -3.738281e+01 4.105469e+01 -4.271153e-05 8.365083e-03 -2.968750e-01 2.968750e-01
-1.751593e+00 6.394084e+00 -3.765234e+01 3.931250e+01 -5.588327e-05 8.313499e-03 -1.835938e-01 1.835938e-01
-1.837406e+00 6.645493e+00 -3.960547e+01 4.190625e+01 -3.930714e-05 8.030016e-03 -2.734375e-01 2.734375e-01
-1.895785e+00 6.834313e+00 -4.032422e+01 4.254297e+01 -3.293048e-05 8.217865e-03 -2.148438e-01 2.148438e-01
-1.898984e+00 7.016514e+00 -3.974219e+01 4.330469e+01 -2.009941e-05 7.519622e-03 -2.265625e-01 2.265625e-01
-1.851786e+00 7.160391e+00 -3.887109e+01 4.366016e+01 -2.292307e-05 7.453309e-03 -2.578125e-01 2.578125e-01
-1.847044e+00 7.301109e+00 -3.916406e+01 4.401172e+01 -3.920197e-05 8.003807e-03 -2.031250e-01 2.031250e-01
-1.839784e+00 7.416888e+00 -3.937109e+01 4.679297e+01 -1.776961e-05 7.366537e-03 -2.031250e-01 1.757812e-01
-1.867860e+00 7.530268e+00 -3.923828e+01 4.829297e+01 -1.676589e-05 7.330427e-03 -1.875000e-01 1.875000e-01
-1.891226e+00 7.699474e+00 -3.985547e+01 4.863672e+01 -3.737059e-05 7.553517e-03 -2.851562e-01 2.851562e-01
-1.908425e+00 7.805366e+00 -4.040625e+01 4.855469e+01 -3.460409e-05 8.011870e-03 -2.500000e-01 2.500000e-01
-1.938813e+00 7.948370e+00 -4.097266e+01 4.864453e+01 -3.878585e-05 7.230219e-03 -3.750000e-01 3.750000e-01
-1.970619e+00 8.093702e+00 -4.216797e+01 4.850391e+01 -1.253155e-05 8.577919e-03 -2.851562e-01 2.851562e-01
-1.956847e+00 8.229256e+00 -4.425781e+01 4.862891e+01 -2.414399e-05 8.249600e-03 -2.851562e-01 2.851562e-01
-1.934356e+00 8.362246e+00 -4.519922e+01 4.902344e+01 -2.119001e-05 7.323414e-03 -2.539062e-01 2.695312e-01
-1.914649e+00 8.461066e+00 -4.533203e+01 4.883203e+01 -1.914828e-05 8.138849e-03 -2.773438e-01 2.773438e-01
-1.918804e+00 8.579771e+00 -4.532031e+01 4.894141e+01 4.602447e-06 9.211026e-03 -2.812500e-01 2.929688e-01
-1.932462e+00 8.671409e+00 -4.563672e+01 4.856641e+01 -2.309226e-07 8.236902e-03 -3.437500e-01 3.437500e-01
-1.971305e+00 8.759647e+00 -4.659766e+01 5.013672e+01 6.488696e-06 9.772198e-03 -4.335938e-01 4.335938e-01
-1.971329e+00 8.885447e+00 -4.767969e+01 5.313281e+01 2.743635e-05 9.073517e-03 -3.203125e-01 3.359375e-01
-1.981573e+00 9.004633e+00 -4.937891e+01 5.386328e+01 2.034862e-07 1.089161e-02 -4.453125e-01 4.453125e-01
-1.990283e+00 9.131180e+00 -4.957422e+01 5.225000e+01 -1.978389e-05 1.069122e-02 -3.632812e-01 4.101562e-01
-2.037605e+00 9.245700e+00 -4.914453e+01 5.253125e+01 -1.948667e-05 1.128940e-02 -5.898438e-01 5.898438e-01
-2.097133e+00 9.357055e+00 -4.971094e+01 5.448047e+01 -6.820219e-06 1.048167e-02 -3.593750e-01 4.570312e-01
-2.135256e+00 9.495177e+00 -4.982031e+01 5.464844e+01 -1.632463e-06 1.200635e-02 -3.906250e-01 4.414062e-01
-2.177534e+00 9.604076e+00 -5.130859e+01 5.430078e+01 -7.160887e-06 1.072042e-02 -3.710938e-01 4.921875e-01
-2.258486e+00 9.737868e+00 -5.274609e+01 5.483984e+01 -1.449325e-05 1.608781e-02 -7.343750e-01 7.343750e-01
-2.272430e+00 9.839295e+00 -5.557422e+01 5.535547e+01 -1.131063e-05 1.535021e-02 -7.187500e-01 7.187500e-01
-2.273955e+00 9.906314e+00 -5.970312e+01 5.543359e+01 5.004847e-06 1.182443e-02 -6.718750e-01 6.718750e-01
-2.321545e+00 9.964181e+00 -5.999219e+01 5.546484e+01 1.417545e-07 1.117401e-02 -5.195312e-01 5.351562e-01
-2.336956e+00 1.002250e+01 -6.033594e+01 5.594922e+01 -9.415240e-06 9.963635e-03 -4.218750e-01 5.429688e-01
-2.320762e+00 1.011244e+01 -5.499219e+01 5.580859e+01 1.454126e-05 9.577164e-03 -4.570312e-01 4.570312e-01
-2.341404e+00 1.015625e+01 -5.610938e+01 5.612500e+01 -9.824499e-06 8.324562e-03 -4.335938e-01 4.960938e-01
-2.370302e+00 1.024113e+01 -5.736328e+01 5.643750e+01 8.850508e-06 1.062198e-02 -7.656250e-01 7.656250e-01
-2.384257e+00 1.028538e+01 -5.683594e+01 5.612500e+01 2.691048e-06 6.936331e-03 -4.882812e-01 4.414062e-01
-2.408758e+00 1.037635e+01 -5.743750e+01 5.625000e+01 2.156040e-06 6.957240e-03 -4.960938e-01 4.218750e-01
-2.444444e+00 1.037899e+01 -5.746484e+01 5.638281e+01 -1.482706e-05 6.657030e-03 -3.789062e-01 4.140625e-01
-2.473123e+00 1.043019e+01 -5.749609e+01 5.658594e+01 -2.601880e-06 4.958384e-03 -3.867188e-01 4.140625e-01
-2.511419e+00 1.045716e+01 -5.767969e+01 5.672656e+01 -6.596155e-06 4.866206e-03 -4.687500e-01 4.257812e-01
-2.523240e+00 1.047761e+01 -5.751172e+01 5.683203e+01 7.542709e-06 4.203727e-03 -3.945312e-01 4.570312e-01
-2.531545e+00 1.051161e+01 -5.745312e+01 5.696484e+01 1.017660e-05 6.428341e-03 -5.000000e-01 5.937500e-01
-2.560164e+00 1.056512e+01 -5.758594e+01 5.701562e+01 7.766773e-06 5.699522e-03 -5.546875e-01 5.195312e-01
-2.576181e+00 1.061027e+01 -5.633594e+01 5.723438e+01 6.621305e-06 4.107690e-03 -4.296875e-01 3.984375e-01
-2.602400e+00 1.064597e+01 -5.782031e+01 5.733594e+01 2.425830e-06 4.874719e-03 -5.546875e-01 4.023438e-01
-2.633993e+00 1.067336e+01 -5.805078e+01 5.544141e+01 -1.897681e-06 5.730847e-03 -4.726562e-01 4.296875e-01
-2.645127e+00 1.073444e+01 -5.812500e+01 5.835156e+01 7.647882e-06 5.716775e-03 -4.140625e-01 5.781250e-01
-2.662948e+00 1.078912e+01 -5.826953e+01 5.873828e+01 -2.514999e-07 5.102269e-03 -3.945312e-01 6.328125e-01
-2.719351e+00 1.082330e+01 -5.850781e+01 5.896484e+01 -4.414966e-06 4.228199e-03 -4.609375e-01 5.507812e-01
-2.772540e+00 1.086114e+01 -5.870703e+01 5.907422e+01 4.513279e-06 4.694892e-03 -4.648438e-01 5.546875e-01
-2.813683e+00 1.089294e+01 -5.891406e+01 5.909766e+01 1.593595e-06 3.690941e-03 -5.625000e-01 4.453125e-01
-2.854055e+00 1.093999e+01 -5.903516e+01 5.909766e+01 -6.584723e-07 3.695482e-03 -5.625000e-01 4.453125e-01
-2.853681e+00 1.095463e+01 -5.689453e+01 5.915625e+01 -4.142888e-06 3.877588e-03 -5.625000e-01 4.492188e-01
-2.877518e+00 1.100990e+01 -5.942969e+01 5.925391e+01 -2.528717e-06 3.949476e-03 -5.625000e-01 3.906250e-01
-2.908321e+00 1.103002e+01 -5.968359e+01 5.929688e+01 -6.081724e-07 4.813689e-03 -5.039062e-01 6.289062e-01
-2.953309e+00 1.107478e+01 -5.983203e+01 5.926953e+01 -1.495281e-06 4.469761e-03 -4.921875e-01 5.468750e-01
-2.986676e+00 1.108669e+01 -5.992578e+01 5.918359e+01 -3.278644e-06 4.052900e-03 -4.921875e-01 5.468750e-01
-3.010484e+00 1.116130e+01 -6.005469e+01 5.910938e+01 -1.696481e-06 4.483999e-03 -4.921875e-01 5.781250e-01
-3.014679e+00 1.119231e+01 -6.023438e+01 5.905859e+01 -4.028570e-06 6.671027e-03 -6.210938e-01 6.210938e-01
-3.020407e+00 1.123546e+01 -6.059766e+01 5.874609e+01 1.108886e-06 4.457944e-03 -5.820312e-01 5.625000e-01
-3.044133e+00 1.125167e+01 -5.660938e+01 5.849219e+01 1.074590e-06 4.205572e-03 -5.820312e-01 4.062500e-01
-3.057659e+00 1.131021e+01 -6.106250e+01 5.812891e+01 5.699901e-06 5.685228e-03 -5.820312e-01 5.664062e-01
-3.066716e+00 1.136985e+01 -6.111328e+01 5.807031e+01 1.719344e-06 7.626605e-03 -5.039062e-01 5.859375e-01
-3.078913e+00 1.139014e+01 -6.228906e+01 5.967578e+01 -4.344088e-08 8.026536e-03 -5.273438e-01 5.976562e-01
-3.107382e+00 1.143192e+01 -6.240234e+01 6.160547e+01 -8.475545e-06 1.107353e-02 -5.859375e-01 5.859375e-01
-3.115042e+00 1.154214e+01 -6.292969e+01 6.216797e+01 -1.288365e-05 7.433785e-03 -6.015625e-01 5.312500e-01
-3.140563e+00 1.154172e+01 -6.313672e+01 5.846094e+01 1.181592e-05 6.862363e-03 -5.937500e-01 5.625000e-01
-3.170161e+00 1.161692e+01 -6.351172e+01 6.288672e+01 2.046294e-06 5.181351e-03 -4.609375e-01 6.406250e-01
-3.202670e+00 1.164436e+01 -6.485156e+01 6.370312e+01 -3.991989e-06 3.624270e-03 -4.882812e-01 4.140625e-01
-3.219459e+00 1.169360e+01 -6.486328e+01 6.377734e+01 -9.042563e-06 4.567048e-03 -6.445312e-01 3.710938e-01
-3.271792e+00 1.169771e+01 -6.411719e+01 6.336328e+01 -2.567585e-06 3.694878e-03 -6.289062e-01 4.296875e-01
-3.274368e+00 1.172686e+01 -6.378516e+01 6.290234e+01 -1.650754e-06 3.351564e-03 -6.210938e-01 4.296875e-01
-3.321262e+00 1.172741e+01 -6.347656e+01 6.262500e+01 -4.138316e-07 3.678320e-03 -6.250000e-01 5.976562e-01
-3.345091e+00 1.175931e+01 -6.312109e+01 6.224609e+01 3.178044e-07 3.774017e-03 -6.250000e-01 4.296875e-01
-3.358208e+00 1.178079e+01 -6.274609e+01 6.208984e+01 2.617885e-06 3.673370e-03 -6.250000e-01 4.296875e-01
-3.366578e+00 1.183767e+01 -6.262109e+01 6.200391e+01 5.933110e-06 3.559044e-03 -6.289062e-01 4.296875e-01
-3.387374e+00 1.190216e+01 -6.259375e+01 6.192188e+01 5.423251e-06 3.519157e-03 -6.250000e-01 4.921875e-01
-3.406226e+00 1.192966e+01 -6.264453e+01 6.176562e+01 3.623884e-06 3.287673e-03 -6.289062e-01 4.257812e-01
-3.428458e+00 1.197930e+01 -6.289062e+01 6.173438e+01 -7.613586e-07 3.257280e-03 -6.289062e-01 4.257812e-01
-3.444019e+00 1.203462e+01 -6.295312e+01 6.164062e+01 -1.476990e-06 3.362637e-03 -6.210938e-01 4.179688e-01
-3.461125e+00 1.207597e+01 -6.296875e+01 6.152734e+01 -1.895394e-06 3.558650e-03 -4.765625e-01 5.742188e-01
-3.466996e+00 1.209489e+01 -6.303516e+01 6.127734e+01 2.078303e-06 4.097189e-03 -4.882812e-01 5.742188e-01
-3.516886e+00 1.211317e+01 -6.332812e+01 6.080469e+01 2.675044e-07 4.709386e-03 -4.882812e-01 5.859375e-01
-3.512291e+00 1.217020e+01 -6.364062e+01 6.051562e+01 -5.500988e-06 3.716737e-03 -6.484375e-01 4.296875e-01
-3.544642e+00 1.223132e+01 -6.380078e+01 6.009375e+01 -4.104020e-06 3.259868e-03 -6.406250e-01 4.414062e-01
-3.543001e+00 1.225253e+01 -6.406641e+01 6.001953e+01 -3.248921e-06 3.436314e-03 -6.250000e-01 4.414062e-01
