4.942906e-01 1.375329e+00 -3.983734e+00 5.132614e+00 1.492784e-03 2.001011e-02 -1.999969e-01 3.307953e-01
2.669215e-01 1.380405e+00 -3.913483e+00 5.136765e+00 2.601882e-04 1.988503e-02 -2.705994e-01 2.922211e-01
-2.004701e-01 1.830986e+00 -7.191635e+00 5.392258e+00 -5.880773e-04 1.632556e-02 -2.922058e-01 2.241211e-01
-1.625261e-01 1.796990e+00 -7.191666e+00 4.494629e+00 -3.446206e-04 1.563928e-02 -1.999969e-01 2.241211e-01
-1.057850e-01 1.893118e+00 -6.692902e+00 4.701843e+00 -2.598782e-04 1.503553e-02 -3.307800e-01 2.000122e-01
8.907548e-02 1.915881e+00 -6.424103e+00 4.747482e+00 8.499334e-04 2.047559e-02 -3.123169e-01 3.737793e-01
2.879653e-01 1.820069e+00 -5.699600e+00 4.693817e+00 1.047705e-03 1.775821e-02 -2.241058e-01 6.484528e-01
2.064131e-01 1.953973e+00 -6.783844e+00 5.366776e+00 2.407659e-04 1.568866e-02 -1.999969e-01 3.602142e-01
1.483953e-01 1.864891e+00 -6.071838e+00 4.637970e+00 -1.221952e-04 1.789135e-02 -4.053497e-01 2.706146e-01
1.868441e-01 1.919171e+00 -6.159424e+00 4.805878e+00 1.324803e-04 1.709498e-02 -1.677856e-01 3.123322e-01
1.374577e-01 1.864225e+00 -5.544571e+00 4.620041e+00 4.621648e-04 1.920899e-02 -2.705994e-01 3.754272e-01
1.799538e-01 1.913435e+00 -5.888351e+00 4.815109e+00 2.570876e-04 1.955981e-02 -3.307800e-01 4.496460e-01
1.376273e-01 1.980688e+00 -6.036301e+00 5.023438e+00 4.226238e-05 1.662453e-02 -3.123169e-01 3.643036e-01
1.579076e-01 1.981799e+00 -6.709183e+00 5.341431e+00 2.222584e-05 1.741451e-02 -3.123169e-01 2.996216e-01
2.382338e-01 1.886607e+00 -5.997849e+00 5.362946e+00 -1.033581e-04 1.630406e-02 -3.623352e-01 1.843262e-01
1.562339e-01 1.928573e+00 -6.196182e+00 4.728577e+00 6.586667e-05 1.546466e-02 -3.123169e-01 2.706146e-01
1.345735e-01 1.941961e+00 -6.003632e+00 5.326813e+00 3.784091e-04 2.061232e-02 -3.623352e-01 5.418396e-01
1.691998e-01 1.968663e+00 -5.929062e+00 4.670380e+00 3.230829e-05 1.838478e-02 -3.123169e-01 4.269562e-01
1.961557e-01 1.904015e+00 -5.674759e+00 5.350601e+00 4.086085e-04 2.171970e-02 -4.053497e-01 5.726929e-01
1.690452e-01 2.000395e+00 -7.129532e+00 5.350601e+00 -8.792091e-05 1.906020e-02 -3.623352e-01 3.436127e-01
8.495987e-02 1.916823e+00 -6.434158e+00 4.632721e+00 2.059431e-04 2.164023e-02 -4.053497e-01 3.433990e-01
1.057709e-01 1.994165e+00 -7.241638e+00 5.379242e+00 -2.509208e-04 1.575576e-02 -3.754578e-01 2.706146e-01
1.107705e-01 2.004623e+00 -6.194763e+00 5.371109e+00 -1.478870e-04 1.454743e-02 -1.999969e-01 1.645966e-01
1.512258e-01 2.015394e+00 -6.747223e+00 5.189972e+00 3.097671e-04 2.088437e-02 -3.754578e-01 5.808105e-01
1.122406e-01 2.004404e+00 -7.364975e+00 4.640106e+00 -1.169959e-04 1.555911e-02 -1.999969e-01 3.023834e-01
1.095750e-01 1.840099e+00 -5.813904e+00 5.313812e+00 -1.967751e-05 1.738794e-02 -1.999969e-01 3.036957e-01
1.044489e-01 1.976356e+00 -7.203720e+00 4.350800e+00 2.804285e-04 2.238817e-02 -3.968353e-01 4.472504e-01
1.558577e-01 1.956634e+00 -5.763229e+00 5.331650e+00 -1.166036e-04 1.855995e-02 -3.754578e-01 2.880707e-01
8.985418e-02 2.041494e+00 -7.402069e+00 5.396225e+00 2.383678e-04 1.620195e-02 -3.869171e-01 4.472504e-01
1.212429e-01 1.970236e+00 -7.091675e+00 4.825241e+00 -7.304934e-05 2.000712e-02 -4.126282e-01 4.410553e-01
1.082848e-01 1.979356e+00 -6.889877e+00 4.608032e+00 1.973279e-05 1.559828e-02 -1.999969e-01 2.922211e-01
1.064637e-01 1.948425e+00 -6.360962e+00 5.314362e+00 1.040083e-04 1.881270e-02 -1.999969e-01 2.922211e-01
1.077208e-01 1.911731e+00 -6.228485e+00 4.733810e+00 -1.801144e-04 1.586078e-02 -3.869171e-01 2.241211e-01
5.849001e-02 1.978679e+00 -7.202286e+00 4.711502e+00 -1.628377e-04 1.569712e-02 -3.123169e-01 3.109283e-01
1.288245e-01 1.960140e+00 -6.292145e+00 5.312775e+00 6.871442e-05 1.805719e-02 -3.123169e-01 3.670959e-01
9.378812e-02 1.976290e+00 -6.119995e+00 5.361572e+00 -8.249914e-05 1.700762e-02 -2.003479e-01 3.255005e-01
6.547690e-02 1.973146e+00 -6.450073e+00 5.295212e+00 8.063017e-05 1.842564e-02 -4.053497e-01 4.724274e-01
1.057422e-02 2.034954e+00 -6.850113e+00 5.312393e+00 -9.451755e-06 1.634431e-02 -3.307800e-01 3.170319e-01
9.432391e-02 1.856398e+00 -5.435013e+00 4.632675e+00 -7.043336e-05 1.917255e-02 -3.307800e-01 4.487457e-01
1.664640e-01 2.011497e+00 -6.569962e+00 4.726425e+00 1.462030e-05 1.611462e-02 -2.194977e-01 2.945862e-01
4.858584e-02 2.029012e+00 -7.280746e+00 5.344849e+00 2.562523e-04 2.097159e-02 -4.187927e-01 6.159058e-01
6.909306e-02 2.073310e+00 -7.492859e+00 5.159653e+00 1.062009e-04 1.656443e-02 -2.241058e-01 3.563385e-01
1.803803e-02 1.978290e+00 -6.775635e+00 5.170090e+00 3.416533e-05 1.761962e-02 -2.922058e-01 2.237701e-01
7.125181e-02 2.013635e+00 -7.562302e+00 5.090881e+00 1.830812e-04 1.796276e-02 -3.123169e-01 3.909454e-01
5.362861e-02 1.996912e+00 -7.463882e+00 5.249802e+00 1.990721e-04 1.871607e-02 -3.754578e-01 3.909454e-01
5.502910e-02 2.030526e+00 -7.403061e+00 5.177338e+00 -5.025633e-05 1.672118e-02 -1.999969e-01 2.183380e-01
2.272720e-03 2.022295e+00 -7.333511e+00 4.496033e+00 2.495705e-05 1.657985e-02 -3.754578e-01 2.209625e-01
2.243223e-02 1.989899e+00 -6.173874e+00 5.161667e+00 1.454187e-04 1.780557e-02 -2.705994e-01 4.059143e-01
5.855269e-02 1.952291e+00 -6.670319e+00 5.171585e+00 -1.891837e-04 1.500916e-02 -1.788330e-01 2.337799e-01
2.674493e-02 2.038553e+00 -7.269455e+00 5.067596e+00 4.001692e-05 1.589794e-02 -3.123169e-01 2.312775e-01
9.432094e-02 2.110140e+00 -7.442429e+00 5.721802e+00 -5.734968e-05 1.649026e-02 -3.123169e-01 4.087830e-01
1.849167e-01 2.097128e+00 -6.944168e+00 5.604996e+00 -1.872047e-04 1.857542e-02 -2.922058e-01 2.300568e-01
1.039141e-01 2.071158e+00 -6.167877e+00 5.591461e+00 -9.969975e-05 1.742316e-02 -3.869171e-01 3.182220e-01
1.845500e-01 2.152858e+00 -6.757797e+00 5.707550e+00 9.463929e-05 1.926808e-02 -3.754578e-01 5.989532e-01
1.164053e-01 2.157310e+00 -7.025299e+00 5.601379e+00 1.226069e-05 1.778708e-02 -2.380676e-01 4.194489e-01
9.143054e-02 2.149061e+00 -6.995697e+00 4.792999e+00 7.855241e-05 1.653291e-02 -3.307800e-01 5.508728e-01
4.609236e-02 2.052949e+00 -5.737610e+00 4.792999e+00 -1.289019e-06 1.691146e-02 -2.922058e-01 5.225067e-01
1.027891e-01 2.146656e+00 -6.511139e+00 5.394394e+00 4.999492e-04 2.350017e-02 -3.869171e-01 6.181488e-01
8.942559e-02 2.090353e+00 -7.102249e+00 5.553604e+00 -1.431731e-04 1.676439e-02 -3.968353e-01 2.882690e-01
1.665319e-01 2.239050e+00 -6.320328e+00 5.674850e+00 3.629284e-04 1.838891e-02 -1.960907e-01 4.118347e-01
1.755302e-01 2.281952e+00 -6.601562e+00 5.904922e+00 2.627398e-04 1.959344e-02 -3.123169e-01 2.241211e-01
1.473579e-01 2.291365e+00 -6.508133e+00 5.754639e+00 2.480610e-04 2.062126e-02 -2.705994e-01 4.117279e-01
1.121803e-01 2.283694e+00 -6.946655e+00 6.702866e+00 2.296507e-04 2.112085e-02 -3.623352e-01 4.117279e-01
1.403544e-01 2.286133e+00 -6.975464e+00 6.705429e+00 1.973667e-04 2.162047e-02 -3.623352e-01 3.407135e-01
5.673312e-02 2.290115e+00 -6.582321e+00 5.644974e+00 -1.217497e-04 1.495061e-02 -1.999969e-01 3.474579e-01
9.116281e-02 2.323325e+00 -6.697479e+00 5.761276e+00 7.770026e-05 1.943168e-02 -3.307800e-01 5.221252e-01
9.904772e-02 2.258449e+00 -6.697479e+00 5.561234e+00 -2.682776e-04 1.723764e-02 -3.869171e-01 2.922211e-01
1.208178e-01 2.225722e+00 -6.645599e+00 5.635696e+00 2.281197e-04 1.966512e-02 -3.869171e-01 6.004333e-01
2.055830e-02 2.319226e+00 -7.511200e+00 5.788956e+00 9.373196e-05 1.994066e-02 -3.968353e-01 3.474579e-01
1.014803e-01 2.225057e+00 -7.511200e+00 5.941269e+00 1.710686e-04 2.386204e-02 -3.869171e-01 5.378113e-01
6.023520e-02 2.252844e+00 -7.396225e+00 5.648712e+00 1.056156e-04 1.872596e-02 -3.474426e-01 3.532104e-01
1.106631e-01 2.222329e+00 -6.369690e+00 5.924683e+00 -9.375147e-05 1.500503e-02 -1.788330e-01 1.788330e-01
5.770697e-02 2.283105e+00 -7.504303e+00 5.933273e+00 2.205697e-04 2.016856e-02 -3.968353e-01 4.205627e-01
8.879574e-02 2.248751e+00 -6.801254e+00 5.762466e+00 1.204839e-04 2.007203e-02 -3.869171e-01 4.400787e-01
1.634286e-02 2.161414e+00 -6.610596e+00 5.931854e+00 2.313314e-04 2.055934e-02 -3.754578e-01 5.746918e-01
3.828235e-02 2.210356e+00 -6.770035e+00 5.672989e+00 -1.512008e-04 1.627080e-02 -1.999969e-01 3.123322e-01
-2.960809e-03 2.283027e+00 -7.649384e+00 6.711288e+00 2.902139e-04 2.270086e-02 -3.869171e-01 5.942078e-01
4.427562e-02 2.234679e+00 -6.579147e+00 5.773682e+00 -1.472032e-04 1.748016e-02 -2.241058e-01 4.032593e-01
8.206134e-02 2.268051e+00 -6.719910e+00 5.753296e+00 -8.025499e-05 1.681980e-02 -2.705994e-01 2.478027e-01
2.988854e-02 2.171775e+00 -6.253571e+00 5.753296e+00 -5.580331e-05 1.661869e-02 -3.869171e-01 3.307953e-01
9.188462e-02 2.192190e+00 -6.337723e+00 5.735077e+00 -5.831782e-05 1.508880e-02 -3.474426e-01 3.307953e-01
2.180463e-02 2.186224e+00 -6.643860e+00 5.418777e+00 1.014618e-05 1.531904e-02 -2.705994e-01 3.728180e-01
7.398554e-02 2.150297e+00 -7.703888e+00 5.882187e+00 1.032646e-04 2.140467e-02 -3.869171e-01 5.960693e-01
8.730180e-02 2.262622e+00 -6.870590e+00 5.747498e+00 8.894890e-05 1.424537e-02 -2.477875e-01 1.892853e-01
1.926900e-01 2.292608e+00 -7.335983e+00 6.129944e+00 -2.005471e-04 1.793264e-02 -3.412170e-01 3.671570e-01
3.703944e-01 2.209793e+00 -7.123718e+00 6.057587e+00 1.691872e-04 2.347185e-02 -3.412170e-01 4.174347e-01
2.988742e-01 2.213608e+00 -6.607437e+00 6.110687e+00 -1.711480e-04 1.798233e-02 -3.478699e-01 2.706146e-01
3.142049e-01 2.287847e+00 -6.560501e+00 6.089783e+00 4.932335e-04 2.008455e-02 -3.307800e-01 3.197327e-01
3.003414e-01 2.148851e+00 -6.294922e+00 6.080292e+00 1.473618e-04 2.255126e-02 -3.123169e-01 3.474579e-01
4.052701e-01 2.192027e+00 -6.579102e+00 6.056656e+00 1.918732e-04 2.333492e-02 -4.053497e-01 4.429626e-01
3.443318e-01 2.286455e+00 -7.821426e+00 6.084549e+00 2.185949e-04 1.824445e-02 -1.999969e-01 3.474579e-01
3.259980e-01 2.324333e+00 -7.033325e+00 7.058670e+00 1.008362e-04 2.204127e-02 -3.869171e-01 4.418335e-01
3.217827e-01 2.207661e+00 -6.744064e+00 6.083344e+00 7.611324e-05 1.808014e-02 -3.754578e-01 5.689697e-01
2.533081e-01 2.324141e+00 -7.530609e+00 6.065323e+00 4.231874e-04 2.279004e-02 -3.968353e-01 5.984344e-01
2.390142e-01 2.259793e+00 -7.407303e+00 6.268860e+00 5.175430e-04 2.386633e-02 -3.474426e-01 4.485931e-01
1.707883e-01 2.362061e+00 -7.277542e+00 6.268860e+00 5.434125e-04 2.441490e-02 -4.053497e-01 6.348267e-01
2.007273e-01 2.227057e+00 -7.136490e+00 6.054596e+00 6.416095e-05 2.170696e-02 -3.869171e-01 2.922211e-01
1.586926e-01 2.321580e+00 -8.351257e+00 7.031311e+00 -1.043320e-04 1.755833e-02 -3.307800e-01 3.871307e-01
4.458900e-02 2.341797e+00 -8.838043e+00 6.249695e+00 -6.608489e-05 1.966957e-02 -3.968353e-01 3.964386e-01
-2.899205e-01 2.558488e+00 -8.540344e+00 6.051682e+00 -2.601849e-04 1.800801e-02 -2.074280e-01 3.623505e-01
-2.357101e-01 2.516223e+00 -8.620972e+00 6.815109e+00 -3.887820e-04 1.777603e-02 -2.074280e-01 3.474579e-01
-2.878037e-01 2.457205e+00 -7.259476e+00 5.652390e+00 -4.062310e-04 1.676712e-02 -2.003479e-01 2.706146e-01
-3.221877e-01 2.598473e+00 -8.602676e+00 6.051163e+00 -3.198170e-04 1.765110e-02 -1.785889e-01 3.869324e-01
-2.865301e-01 2.503457e+00 -8.421387e+00 5.726715e+00 -1.739762e-04 1.814369e-02 -2.922058e-01 3.791809e-01
-2.512224e-01 2.480599e+00 -8.568909e+00 6.809387e+00 5.046100e-05 2.054993e-02 -3.623352e-01 5.694275e-01
-1.749761e-01 2.562746e+00 -8.558273e+00 5.835388e+00 -5.877474e-05 1.830552e-02 -3.623352e-01 5.694275e-01
-2.290984e-01 2.468486e+00 -8.361481e+00 5.874374e+00 -1.030734e-04 1.639738e-02 -2.705994e-01 2.371216e-01
-2.354151e-01 2.507254e+00 -8.331940e+00 5.780472e+00 -4.726311e-05 1.734642e-02 -1.911163e-01 3.862152e-01
-1.704239e-01 2.468037e+00 -8.312363e+00 5.876816e+00 -2.396517e-05 1.695044e-02 -2.705994e-01 3.307953e-01
-1.006370e-01 2.490849e+00 -7.630539e+00 5.860168e+00 3.811196e-05 2.206330e-02 -4.187927e-01 5.726471e-01
-1.542468e-01 2.523153e+00 -8.538620e+00 5.804291e+00 -1.457936e-04 1.577016e-02 -3.474426e-01 3.533020e-01
-1.612453e-01 2.445264e+00 -8.358627e+00 5.759003e+00 -4.012121e-05 1.604927e-02 -3.474426e-01 2.350311e-01
-2.473491e-01 2.582661e+00 -8.492737e+00 5.808456e+00 1.039389e-03 2.005058e-02 -3.623352e-01 5.977783e-01
-2.317699e-01 2.491886e+00 -8.506775e+00 6.527344e+00 3.744033e-04 1.540826e-02 -1.999969e-01 3.307953e-01
-3.472975e-01 2.522006e+00 -8.066422e+00 5.734695e+00 8.992593e-05 1.982655e-02 -4.053497e-01 6.664581e-01
-3.680501e-01 2.473275e+00 -7.809097e+00 5.464996e+00 -1.302818e-04 1.622190e-02 -1.999969e-01 3.307953e-01
-3.701163e-01 2.442109e+00 -7.927643e+00 5.326553e+00 1.032973e-04 1.930462e-02 -3.754578e-01 6.327362e-01
-4.211819e-01 2.494633e+00 -8.647018e+00 5.384293e+00 -2.220080e-04 1.620462e-02 -3.754578e-01 2.000122e-01
-3.490758e-01 2.494414e+00 -8.576370e+00 6.443130e+00 2.290873e-04 2.283353e-02 -4.187927e-01 4.908600e-01
-3.748923e-01 2.559938e+00 -8.736404e+00 5.704788e+00 8.159051e-05 2.374758e-02 -4.053497e-01 6.700134e-01
-3.378416e-01 2.422165e+00 -7.854568e+00 4.993896e+00 6.044295e-05 2.024419e-02 -4.126282e-01 6.551056e-01
-3.653359e-01 2.538942e+00 -7.983185e+00 5.447662e+00 -5.683162e-05 1.751982e-02 -3.754578e-01 4.172974e-01
-4.235842e-01 2.430299e+00 -7.944565e+00 5.352142e+00 1.664689e-05 1.902897e-02 -3.754578e-01 4.275665e-01
-3.853793e-01 2.445750e+00 -7.765106e+00 5.352142e+00 -1.103602e-04 1.786499e-02 -2.118530e-01 4.871521e-01
-3.522400e-01 2.414526e+00 -7.782089e+00 5.541473e+00 -2.335060e-04 1.742194e-02 -2.003479e-01 4.245911e-01
-3.404778e-01 2.421369e+00 -8.332962e+00 6.339981e+00 -1.331252e-04 2.086029e-02 -4.239960e-01 4.985046e-01
-3.563036e-01 2.432735e+00 -7.645416e+00 5.299927e+00 -3.916304e-04 1.562716e-02 -2.241058e-01 2.922211e-01
-2.690413e-01 2.394394e+00 -6.888077e+00 6.311172e+00 1.548839e-04 2.170372e-02 -4.239960e-01 5.113983e-01
-3.186040e-01 2.473990e+00 -7.587631e+00 5.427032e+00 2.076582e-04 2.137933e-02 -4.126282e-01 6.857300e-01
-3.200645e-01 2.512166e+00 -8.443222e+00 5.427032e+00 -1.026557e-04 1.484726e-02 -3.754578e-01 2.706146e-01
-3.117204e-01 2.370857e+00 -7.836975e+00 5.217560e+00 -4.782702e-05 1.632760e-02 -2.705994e-01 2.398834e-01
-3.013781e-01 2.480016e+00 -8.153488e+00 6.279495e+00 9.397240e-05 1.880415e-02 -3.123169e-01 4.954224e-01
-3.260547e-01 2.491416e+00 -8.366409e+00 6.287552e+00 -1.469019e-04 2.031576e-02 -4.187927e-01 4.995575e-01
-2.567297e-01 2.345235e+00 -7.941315e+00 5.517136e+00 -1.334185e-04 1.794090e-02 -3.869171e-01 2.768860e-01
-2.892466e-01 2.364402e+00 -7.496689e+00 5.180145e+00 2.226250e-04 2.192841e-02 -4.239960e-01 5.100098e-01
-2.638398e-01 2.395117e+00 -7.610794e+00 5.536270e+00 -2.132395e-04 1.403741e-02 -2.241058e-01 2.000122e-01
-3.267194e-01 2.385099e+00 -8.302505e+00 5.153564e+00 2.829594e-04 2.397943e-02 -4.283752e-01 7.098083e-01
-2.979025e-01 2.509664e+00 -7.774048e+00 5.395462e+00 7.401499e-05 1.802572e-02 -3.754578e-01 3.474579e-01
-5.988073e-01 2.654081e+00 -8.516891e+00 6.265091e+00 -3.232682e-04 1.957824e-02 -3.474426e-01 2.290192e-01
-4.943358e-01 2.621887e+00 -8.598236e+00 5.059784e+00 7.257161e-05 2.342121e-02 -3.474426e-01 5.790863e-01
-4.412818e-01 2.601069e+00 -9.503525e+00 5.185501e+00 -2.905723e-04 1.573129e-02 -3.623352e-01 2.241211e-01
-4.300069e-01 2.660521e+00 -8.491608e+00 5.163223e+00 -2.300930e-04 1.587723e-02 -2.922058e-01 2.478027e-01
-4.128811e-01 2.558932e+00 -8.381042e+00 5.483185e+00 -2.399475e-04 1.787883e-02 -3.968353e-01 6.488190e-01
-3.670519e-01 2.566982e+00 -9.010239e+00 6.153900e+00 -2.593972e-04 1.411889e-02 -2.705994e-01 2.478027e-01
-1.212792e-01 2.429804e+00 -8.144760e+00 4.974548e+00 4.274771e-04 1.991127e-02 -3.968353e-01 6.522522e-01
-1.447701e-01 2.462120e+00 -8.141373e+00 6.133453e+00 5.967878e-04 2.472364e-02 -3.307800e-01 5.386963e-01
-3.154249e-01 2.465091e+00 -9.294617e+00 5.048294e+00 2.960970e-05 2.116408e-02 -4.239960e-01 6.068573e-01
-5.286589e-01 2.404949e+00 -9.294617e+00 5.229843e+00 2.079492e-05 2.230788e-02 -3.968353e-01 6.155243e-01
-4.904833e-01 2.505736e+00 -8.612793e+00 4.931595e+00 -1.735727e-04 1.775431e-02 -2.477875e-01 3.201752e-01
-4.856051e-01 2.428320e+00 -8.402618e+00 5.119370e+00 -1.446966e-04 2.238908e-02 -4.053497e-01 4.914703e-01
-5.342006e-01 2.497045e+00 -9.239807e+00 5.349136e+00 -1.097825e-04 2.069651e-02 -4.053497e-01 4.872589e-01
-4.521852e-01 2.466849e+00 -8.811523e+00 5.349136e+00 -2.617875e-04 1.722243e-02 -3.474426e-01 2.792053e-01
-5.364829e-01 2.501973e+00 -8.895477e+00 5.294113e+00 -2.009618e-04 1.899754e-02 -4.187927e-01 4.296265e-01
-4.124105e-01 2.532538e+00 -8.797958e+00 5.113007e+00 6.433060e-05 1.800859e-02 -2.497253e-01 3.843384e-01
-4.596801e-01 2.475038e+00 -9.071259e+00 5.149857e+00 -1.273408e-04 1.733075e-02 -3.623352e-01 3.843384e-01
-5.189948e-01 2.573023e+00 -8.209381e+00 4.967468e+00 -1.541411e-04 1.687019e-02 -4.187927e-01 4.301453e-01
-4.019335e-01 2.319622e+00 -8.419586e+00 5.349152e+00 -9.463690e-05 1.847962e-02 -3.623352e-01 3.743286e-01
-4.422248e-01 2.497711e+00 -8.698044e+00 5.046143e+00 -9.122319e-05 1.458755e-02 -2.477875e-01 2.000122e-01
-4.280008e-01 2.495535e+00 -7.761292e+00 6.055176e+00 -7.022349e-05 1.623000e-02 -3.623352e-01 2.922211e-01
-3.639139e-01 2.428202e+00 -8.262848e+00 4.963791e+00 -2.697362e-04 1.606480e-02 -3.754578e-01 2.427673e-01
-3.240508e-01 2.426269e+00 -8.075806e+00 5.211472e+00 1.919534e-04 2.059357e-02 -3.754578e-01 4.738312e-01
-4.387794e-01 2.463190e+00 -8.002762e+00 6.039658e+00 8.175073e-05 1.866192e-02 -3.869171e-01 3.302917e-01
-4.198324e-01 2.433765e+00 -7.633331e+00 5.363983e+00 5.903046e-05 1.729980e-02 -3.968353e-01 6.465607e-01
-3.887315e-01 2.414905e+00 -7.993958e+00 5.361298e+00 -6.739624e-06 1.709799e-02 -3.754578e-01 4.514008e-01
-4.833160e-01 2.476280e+00 -8.852585e+00 4.850006e+00 -4.376549e-05 1.560262e-02 -3.307800e-01 5.733185e-01
-3.822889e-01 2.539993e+00 -8.176544e+00 6.003662e+00 5.211967e-05 1.919086e-02 -3.307800e-01 5.733185e-01
-4.586239e-01 2.471711e+00 -8.192703e+00 5.234482e+00 2.082555e-04 2.327379e-02 -4.187927e-01 5.405426e-01
-3.715109e-01 2.440292e+00 -8.281311e+00 4.900192e+00 1.113392e-04 1.684164e-02 -3.968353e-01 5.777130e-01
-4.603508e-01 2.487605e+00 -9.006134e+00 5.006729e+00 -9.058144e-06 1.950001e-02 -3.474426e-01 4.367371e-01
-4.471883e-01 2.451968e+00 -7.867096e+00 4.935333e+00 -3.462214e-05 1.839278e-02 -2.720490e-01 3.123322e-01
-4.400077e-01 2.480448e+00 -8.590820e+00 5.317017e+00 -2.219657e-06 1.865525e-02 -3.623352e-01 4.565582e-01
-4.442502e-01 2.466973e+00 -8.187485e+00 5.317017e+00 1.196703e-04 1.660430e-02 -1.999969e-01 2.915955e-01
-4.297991e-01 2.508884e+00 -8.106873e+00 5.317322e+00 1.669905e-04 1.778292e-02 -3.123169e-01 2.920837e-01
-4.042612e-01 2.473690e+00 -8.131927e+00 5.123352e+00 -2.416119e-04 1.391135e-02 -1.999969e-01 1.892853e-01
-4.089454e-01 2.477484e+00 -8.956406e+00 5.003204e+00 -5.776898e-05 1.618783e-02 -3.869171e-01 2.283020e-01
-4.353003e-01 2.469198e+00 -8.508667e+00 5.126541e+00 7.399472e-05 1.592684e-02 -3.623352e-01 2.311554e-01
-3.525704e-01 2.490471e+00 -8.510468e+00 5.991257e+00 3.380147e-04 2.191494e-02 -3.754578e-01 4.542999e-01
-4.342705e-01 2.438575e+00 -7.349945e+00 4.872208e+00 -1.146854e-04 1.707254e-02 -3.754578e-01 2.478027e-01
-4.329151e-01 2.473200e+00 -8.105255e+00 5.338470e+00 1.156722e-04 1.990356e-02 -3.623352e-01 4.541779e-01
-4.066655e-01 2.448771e+00 -8.243240e+00 4.936249e+00 1.545662e-04 2.048612e-02 -3.869171e-01 2.877502e-01
-3.954730e-01 2.481942e+00 -8.245132e+00 5.997940e+00 -7.181875e-05 1.560038e-02 -2.241058e-01 3.123322e-01
-4.263541e-01 2.404062e+00 -8.341644e+00 4.861374e+00 -5.858742e-05 1.817361e-02 -3.869171e-01 2.482300e-01
-3.928877e-01 2.474833e+00 -8.183395e+00 5.128922e+00 -6.610397e-05 1.447606e-02 -2.241058e-01 2.241211e-01
-4.012207e-01 2.490525e+00 -9.046982e+00 5.040131e+00 3.096983e-05 1.680806e-02 -3.754578e-01 3.474579e-01
-4.581829e-01 2.472301e+00 -8.973267e+00 5.349335e+00 -1.635266e-04 1.737336e-02 -3.869171e-01 5.939636e-01
-4.553391e-01 2.570306e+00 -8.374710e+00 6.056381e+00 1.720054e-04 1.806353e-02 -3.754578e-01 2.922211e-01
-4.516832e-01 2.557420e+00 -8.640228e+00 5.403046e+00 -1.464198e-04 1.633181e-02 -3.968353e-01 3.245392e-01
-4.294127e-01 2.436850e+00 -7.661896e+00 4.971039e+00 -2.193606e-04 1.741383e-02 -2.477875e-01 2.905121e-01
-3.889842e-01 2.433471e+00 -8.947250e+00 5.985382e+00 3.462014e-04 2.573804e-02 -4.239960e-01 5.655518e-01
-3.864506e-01 2.395991e+00 -8.228577e+00 5.325546e+00 7.792747e-05 1.799291e-02 -3.754578e-01 4.839935e-01
-3.339569e-01 2.408017e+00 -8.193344e+00 5.962662e+00 1.001259e-04 2.359825e-02 -3.869171e-01 4.649506e-01
-4.245282e-01 2.470908e+00 -8.981140e+00 4.916748e+00 -1.841093e-04 1.489070e-02 -3.869171e-01 2.478027e-01
-4.612379e-01 2.477754e+00 -9.020935e+00 5.930618e+00 5.855999e-05 1.675904e-02 -3.123169e-01 2.335815e-01
-3.985436e-01 2.434565e+00 -7.762985e+00 5.926178e+00 -1.233625e-06 1.782819e-02 -2.241058e-01 3.303680e-01
-4.411615e-01 2.463670e+00 -8.495407e+00 4.876648e+00 -1.098752e-04 1.640237e-02 -3.307800e-01 4.149170e-01
-3.665914e-01 2.477326e+00 -8.495407e+00 5.943054e+00 -9.454053e-05 1.597989e-02 -2.477875e-01 2.478027e-01
-3.985209e-01 2.514315e+00 -8.480072e+00 4.785843e+00 -2.341079e-05 1.675031e-02 -2.241058e-01 2.636414e-01
-3.321888e-01 2.334625e+00 -7.403320e+00 5.100632e+00 3.311773e-05 1.695339e-02 -2.477875e-01 3.432922e-01
-3.821160e-01 2.476512e+00 -8.968628e+00 5.821304e+00 4.232954e-04 2.689034e-02 -3.623352e-01 6.498566e-01
-4.092445e-01 2.409129e+00 -8.347153e+00 5.102005e+00 -1.196410e-05 2.000217e-02 -4.320374e-01 5.830536e-01
-3.712562e-01 2.458256e+00 -8.474060e+00 5.918137e+00 -1.452874e-04 1.644761e-02 -3.968353e-01 6.779022e-01
-3.732991e-01 2.441610e+00 -8.252319e+00 5.376068e+00 1.478192e-04 1.924360e-02 -3.968353e-01 6.779022e-01
-3.531087e-01 2.529247e+00 -8.156693e+00 5.985016e+00 -4.623491e-06 1.556323e-02 -2.705994e-01 3.123322e-01
-4.304593e-01 2.523307e+00 -8.026474e+00 5.197418e+00 1.595745e-05 1.682980e-02 -2.477875e-01 3.123322e-01
-4.254387e-01 2.377739e+00 -8.284134e+00 5.117432e+00 -1.162968e-05 1.754251e-02 -4.053497e-01 6.952057e-01
-3.648710e-01 2.481362e+00 -8.670761e+00 5.152237e+00 -7.390485e-05 1.852274e-02 -4.126282e-01 7.068939e-01
-4.272346e-01 2.526631e+00 -8.537674e+00 5.383408e+00 2.204446e-04 2.003015e-02 -3.869171e-01 6.295319e-01
-4.685872e-01 2.573990e+00 -9.509995e+00 5.214401e+00 1.789222e-05 1.705548e-02 -3.869171e-01 2.922211e-01
-4.258825e-01 2.524213e+00 -8.451935e+00 4.962067e+00 -8.326208e-05 1.484846e-02 -3.754578e-01 2.241211e-01
-4.473042e-01 2.481065e+00 -8.833542e+00 5.205811e+00 3.413921e-05 1.616903e-02 -2.922058e-01 2.222748e-01
-2.280968e-01 2.714490e+00 -9.189362e+00 5.622284e+00 -4.302510e-05 1.599385e-02 -2.477875e-01 4.963531e-01
-3.576567e-01 2.663805e+00 -9.131058e+00 5.247696e+00 -3.935133e-06 2.234250e-02 -3.968353e-01 5.668945e-01
-3.469987e-01 2.572462e+00 -8.151657e+00 5.682648e+00 -1.376394e-04 1.950553e-02 -3.869171e-01 3.307953e-01
-3.311484e-01 2.634745e+00 -8.234222e+00 5.665649e+00 -1.563430e-05 1.564607e-02 -2.705994e-01 3.123322e-01
-5.293479e-01 2.599299e+00 -9.195541e+00 5.311050e+00 -3.447721e-05 1.527869e-02 -4.053497e-01 2.922211e-01
-4.801287e-01 2.643972e+00 -9.278625e+00 5.158875e+00 2.732992e-04 1.788350e-02 -3.123169e-01 3.123322e-01
-4.872942e-01 2.721151e+00 -9.147324e+00 5.784897e+00 1.430126e-04 1.833784e-02 -3.869171e-01 2.760620e-01
-5.220417e-01 2.716792e+00 -8.710770e+00 5.161682e+00 -5.021015e-05 1.417261e-02 -2.241058e-01 3.123322e-01
-4.734504e-01 2.647159e+00 -9.216156e+00 5.569443e+00 1.669380e-04 2.090293e-02 -3.869171e-01 4.640808e-01
-5.396758e-01 2.657083e+00 -8.596664e+00 5.475967e+00 1.491123e-04 2.353837e-02 -3.869171e-01 6.883698e-01
-5.444472e-01 2.712640e+00 -8.879715e+00 5.867249e+00 5.153408e-05 1.791872e-02 -3.968353e-01 3.831177e-01
-5.031666e-01 2.764802e+00 -8.920273e+00 5.569122e+00 3.647064e-04 2.471997e-02 -3.754578e-01 6.911621e-01
-5.810141e-01 2.661068e+00 -9.244553e+00 5.181290e+00 -1.683284e-04 1.806658e-02 -2.477875e-01 3.474579e-01
-4.903518e-01 2.672808e+00 -9.213486e+00 5.910660e+00 -1.535630e-04 1.433146e-02 -1.999969e-01 3.307953e-01
-5.412004e-01 2.654761e+00 -8.928360e+00 5.145172e+00 1.628493e-05 1.664626e-02 -4.053497e-01 3.895264e-01
-4.353877e-01 2.655613e+00 -9.132690e+00 5.937134e+00 2.104100e-05 1.699078e-02 -2.241058e-01 3.123322e-01
-5.515694e-01 2.629443e+00 -8.413330e+00 5.136261e+00 1.380164e-04 1.762380e-02 -3.968353e-01 3.307953e-01
-4.982164e-01 2.629984e+00 -9.102890e+00 5.071381e+00 1.095527e-04 1.768074e-02 -3.123169e-01 2.922211e-01
-6.186535e-01 2.738638e+00 -9.106628e+00 5.097778e+00 -8.089727e-05 1.734128e-02 -3.869171e-01 3.307953e-01
-5.244663e-01 2.644543e+00 -8.894455e+00 5.555817e+00 9.846082e-05 1.937504e-02 -3.869171e-01 3.307953e-01
-5.739394e-01 2.615500e+00 -8.595734e+00 5.553864e+00 9.032952e-05 1.822032e-02 -3.869171e-01 3.474579e-01
-5.006423e-01 2.764803e+00 -9.152328e+00 5.194885e+00 -7.490823e-05 1.730462e-02 -2.922058e-01 3.123322e-01
-5.233021e-01 2.783600e+00 -9.249130e+00 5.925079e+00 7.191317e-05 1.748392e-02 -2.922058e-01 3.844147e-01
-5.592221e-01 2.770775e+00 -9.316010e+00 5.159180e+00 1.385234e-04 1.854757e-02 -2.922058e-01 3.508301e-01
-5.672212e-01 2.846758e+00 -9.339645e+00 5.533020e+00 -8.011515e-06 2.172030e-02 -3.623352e-01 6.878357e-01
-5.591194e-01 2.655735e+00 -9.055054e+00 5.533020e+00 -1.102399e-04 1.897210e-02 -3.968353e-01 7.227173e-01
-5.656839e-01 2.670743e+00 -8.783981e+00 5.964874e+00 6.298229e-05 1.856584e-02 -3.869171e-01 3.123322e-01
-6.034874e-01 2.654255e+00 -8.680115e+00 4.997360e+00 -5.675194e-05 1.639612e-02 -2.241058e-01 2.706146e-01
-6.037926e-01 2.642143e+00 -8.969696e+00 4.765152e+00 7.549101e-05 1.992879e-02 -3.623352e-01 6.931152e-01
-6.040104e-01 2.704295e+00 -9.212967e+00 5.511612e+00 -2.047920e-04 1.548565e-02 -2.241058e-01 2.478027e-01
-5.623776e-01 2.676225e+00 -9.212967e+00 5.819916e+00 -1.082435e-04 1.855361e-02 -3.968353e-01 5.788879e-01
-5.122600e-01 2.631124e+00 -9.146088e+00 5.792313e+00 -1.444121e-04 1.700638e-02 -3.968353e-01 2.706146e-01
-4.929711e-01 2.678969e+00 -8.871857e+00 5.847763e+00 3.226671e-04 2.212976e-02 -3.869171e-01 7.238617e-01
-4.755499e-01 2.608683e+00 -9.291519e+00 4.890427e+00 -4.253729e-05 1.867308e-02 -3.869171e-01 7.238617e-01
-5.664709e-01 2.724785e+00 -9.259857e+00 4.936020e+00 6.553355e-05 1.463302e-02 -1.999969e-01 3.474579e-01
-5.418875e-01 2.639376e+00 -8.848221e+00 5.406052e+00 -1.705394e-04 1.684331e-02 -3.968353e-01 2.922211e-01
-5.381544e-01 2.589340e+00 -8.074066e+00 5.797958e+00 -1.827127e-04 1.681581e-02 -3.123169e-01 2.706146e-01
-5.217186e-01 2.650281e+00 -8.787628e+00 5.797958e+00 -4.482784e-05 1.660231e-02 -3.869171e-01 2.922211e-01
-5.825099e-01 2.622869e+00 -8.982849e+00 5.228943e+00 -2.189403e-04 1.522124e-02 -2.241058e-01 2.478027e-01
-5.586100e-01 2.693404e+00 -9.112717e+00 4.839279e+00 3.768084e-06 1.864773e-02 -3.968353e-01 3.532257e-01
-5.451906e-01 2.659421e+00 -8.888351e+00 5.536438e+00 -8.351575e-06 1.663080e-02 -3.869171e-01 3.532257e-01
-5.777013e-01 2.665403e+00 -9.190033e+00 5.174988e+00 2.076647e-04 1.919805e-02 -3.869171e-01 3.307953e-01
-5.674478e-01 2.640711e+00 -8.558044e+00 5.177658e+00 5.720279e-05 1.601809e-02 -1.908569e-01 2.706146e-01
-5.817909e-01 2.643749e+00 -8.835312e+00 4.937027e+00 3.003071e-04 1.842259e-02 -4.126282e-01 3.474579e-01
-4.861624e-01 2.699057e+00 -9.186752e+00 5.137497e+00 1.303596e-04 2.123878e-02 -3.869171e-01 7.106781e-01
-5.484099e-01 2.687715e+00 -9.186752e+00 5.124924e+00 -9.733657e-05 1.724169e-02 -2.147980e-01 4.736786e-01
-5.396451e-01 2.741136e+00 -8.897247e+00 5.285172e+00 -1.252329e-04 1.916456e-02 -3.869171e-01 3.359985e-01
-5.320183e-01 2.656207e+00 -9.169601e+00 5.403275e+00 5.407352e-05 1.901700e-02 -3.754578e-01 3.302765e-01
-5.604820e-01 2.643433e+00 -8.670715e+00 4.744034e+00 -2.680478e-05 1.877304e-02 -3.968353e-01 3.558807e-01
-4.934552e-01 2.616620e+00 -9.253586e+00 5.153107e+00 -3.531321e-05 1.809956e-02 -2.922058e-01 2.706146e-01
-5.505735e-01 2.660810e+00 -8.573135e+00 5.131317e+00 -1.576804e-04 1.723357e-02 -2.128448e-01 3.307953e-01
-5.554740e-01 2.576229e+00 -8.867889e+00 5.103333e+00 -4.884547e-05 1.845744e-02 -3.869171e-01 5.491791e-01
-5.200172e-01 2.585094e+00 -9.040344e+00 4.878098e+00 2.166198e-04 1.966481e-02 -2.705994e-01 3.542328e-01
-5.331878e-01 2.633209e+00 -9.044266e+00 5.198776e+00 -2.442833e-04 1.416404e-02 -2.241058e-01 2.922211e-01
-5.165654e-01 2.688558e+00 -9.012146e+00 4.954559e+00 6.422166e-05 1.963940e-02 -4.053497e-01 7.501526e-01
-5.896687e-01 2.621580e+00 -8.917664e+00 5.207352e+00 -1.544448e-04 1.591674e-02 -1.999969e-01 3.307953e-01
-5.858813e-01 2.645246e+00 -8.784927e+00 5.377426e+00 -1.483692e-04 1.610611e-02 -2.705994e-01 2.662201e-01
-5.101936e-01 2.606663e+00 -9.028000e+00 5.904343e+00 1.280401e-05 1.794634e-02 -3.869171e-01 3.385773e-01
-5.159546e-01 2.627474e+00 -9.215363e+00 4.929642e+00 -1.459982e-04 1.576399e-02 -2.241058e-01 3.123322e-01
-5.423655e-01 2.703482e+00 -8.714752e+00 5.393570e+00 -1.193792e-04 1.392434e-02 -2.477875e-01 2.922211e-01
-4.743334e-01 2.754043e+00 -9.130188e+00 5.955200e+00 3.143325e-04 1.863720e-02 -4.187927e-01 6.063385e-01
-5.218761e-01 2.723262e+00 -9.291092e+00 5.999359e+00 -1.062110e-05 1.708544e-02 -2.477875e-01 2.241211e-01
-4.694941e-01 2.671773e+00 -8.556854e+00 5.337387e+00 3.072800e-04 2.349359e-02 -4.397888e-01 8.081055e-01
-5.548972e-01 2.806954e+00 -9.377182e+00 5.079788e+00 2.054677e-04 2.363665e-02 -4.415436e-01 8.154602e-01
-5.642647e-01 2.666923e+00 -9.375610e+00 5.236145e+00 -1.733904e-05 2.312416e-02 -4.283752e-01 7.837982e-01
-5.903104e-01 2.777594e+00 -9.345169e+00 5.945358e+00 -5.054057e-05 1.736174e-02 -4.053497e-01 7.549591e-01
-5.846853e-01 2.790125e+00 -8.977463e+00 5.374573e+00 6.216298e-05 1.543601e-02 -2.241058e-01 3.474579e-01
-5.324574e-01 2.582516e+00 -8.677429e+00 5.269257e+00 -2.090143e-04 1.631574e-02 -1.999969e-01 2.706146e-01
-5.437910e-01 2.706549e+00 -9.413055e+00 5.194824e+00 -2.750076e-04 1.307276e-02 -1.999969e-01 2.000122e-01
-5.147589e-01 2.694263e+00 -9.338242e+00 5.180496e+00 2.650364e-05 1.576341e-02 -2.241058e-01 3.123322e-01
-6.005814e-01 2.738914e+00 -9.050446e+00 5.895554e+00 1.801900e-04 2.455466e-02 -4.430084e-01 8.247986e-01
-5.243427e-01 2.740636e+00 -9.195633e+00 5.895554e+00 1.165334e-04 1.685590e-02 -2.922058e-01 3.307953e-01
-5.216906e-01 2.697131e+00 -9.177811e+00 5.269333e+00 3.252087e-04 2.134647e-02 -4.283752e-01 7.881012e-01
-5.853456e-01 2.721666e+00 -9.452545e+00 4.963028e+00 -1.594926e-04 1.797472e-02 -2.705994e-01 3.540802e-01
-6.002837e-01 2.697043e+00 -9.152176e+00 5.567612e+00 1.032709e-04 1.923803e-02 -3.869171e-01 3.540802e-01
-5.769191e-01 2.776273e+00 -9.162186e+00 5.980255e+00 6.567773e-05 1.910705e-02 -3.307800e-01 3.123322e-01
-5.746967e-01 2.641865e+00 -8.925568e+00 5.401382e+00 -3.369649e-05 1.785559e-02 -2.477875e-01 2.478027e-01
-5.705608e-01 2.795665e+00 -9.367249e+00 5.562698e+00 -9.297487e-05 1.714711e-02 -3.869171e-01 3.542633e-01
-5.700720e-01 2.824733e+00 -9.573624e+00 4.973541e+00 6.929654e-06 1.721789e-02 -3.869171e-01 3.307953e-01
-5.476967e-01 2.701630e+00 -9.090363e+00 5.263290e+00 -1.798760e-04 1.506829e-02 -2.477875e-01 2.478027e-01
-5.036488e-01 2.768377e+00 -9.234375e+00 5.006210e+00 -1.396989e-04 1.464807e-02 -3.599548e-01 5.924377e-01
-4.753991e-01 2.768259e+00 -9.420914e+00 6.035568e+00 -7.263795e-05 1.503534e-02 -3.968353e-01 7.323608e-01
-5.547881e-01 2.849161e+00 -9.116974e+00 5.559982e+00 -4.567805e-05 1.546984e-02 -3.869171e-01 2.481384e-01
-5.617918e-01 2.753810e+00 -9.449646e+00 5.563309e+00 -8.011450e-05 1.789181e-02 -2.477875e-01 3.474579e-01
-5.364191e-01 2.646645e+00 -8.867035e+00 4.868546e+00 7.877399e-05 1.929300e-02 -4.415436e-01 8.262939e-01
-5.839513e-01 2.734169e+00 -9.408005e+00 5.324478e+00 -7.836065e-05 1.447916e-02 -2.241058e-01 2.922211e-01
-5.462074e-01 2.815818e+00 -9.355301e+00 5.374481e+00 -2.899246e-05 1.897518e-02 -3.968353e-01 3.558044e-01
-5.665722e-01 2.680877e+00 -9.390640e+00 5.189728e+00 -1.187941e-04 1.840227e-02 -3.307800e-01 2.706146e-01
-5.359193e-01 2.821356e+00 -9.418243e+00 5.237457e+00 2.488063e-05 1.635086e-02 -2.705994e-01 2.715454e-01
-5.538750e-01 2.629540e+00 -9.271530e+00 5.112900e+00 1.182605e-04 1.841142e-02 -3.474426e-01 2.922211e-01
-5.643224e-01 2.717525e+00 -9.539337e+00 5.844574e+00 1.061892e-04 1.693087e-02 -2.477875e-01 3.307953e-01
-5.656396e-01 2.709573e+00 -9.422302e+00 5.816193e+00 -1.403682e-04 1.565303e-02 -2.477875e-01 3.123322e-01
-5.190956e-01 2.672615e+00 -9.354736e+00 5.816360e+00 -2.939606e-04 1.800378e-02 -2.241058e-01 3.474579e-01
-5.455836e-01 2.724286e+00 -9.251205e+00 5.417358e+00 1.002065e-04 1.630694e-02 -2.922058e-01 3.307953e-01
-5.535957e-01 2.646807e+00 -9.497147e+00 5.050293e+00 -3.943279e-04 1.804972e-02 -2.705994e-01 2.478027e-01
-5.255159e-01 2.694200e+00 -9.421692e+00 5.413269e+00 1.765016e-05 1.506544e-02 -2.922058e-01 2.844086e-01
-6.393466e-01 2.776620e+00 -9.319458e+00 5.844330e+00 -3.560671e-04 1.784427e-02 -3.869171e-01 2.529755e-01
-5.099401e-01 2.762418e+00 -8.826324e+00 5.503265e+00 1.074599e-04 2.194376e-02 -4.239960e-01 6.237488e-01
-5.603149e-01 2.729645e+00 -8.871124e+00 5.556168e+00 1.866741e-04 2.013086e-02 -4.239960e-01 6.237488e-01
-6.011718e-01 2.678712e+00 -9.449448e+00 5.382370e+00 -8.241058e-05 1.708128e-02 -2.705994e-01 2.922211e-01
-5.198981e-01 2.677099e+00 -8.786774e+00 5.366852e+00 -1.361710e-04 1.610894e-02 -2.705994e-01 2.241211e-01
-9.677070e-02 2.669382e+00 -9.171280e+00 8.302139e+00 8.193450e-04 1.843294e-02 -3.474426e-01 3.656921e-01
-3.324579e-02 2.771574e+00 -9.766296e+00 8.673050e+00 5.789587e-04 2.358485e-02 -3.629303e-01 4.069672e-01
-1.160237e-01 2.807726e+00 -9.433701e+00 7.176498e+00 7.405987e-04 2.356493e-02 -2.983856e-01 3.863983e-01
-2.356369e-02 2.662647e+00 -9.766296e+00 8.370056e+00 3.686736e-04 2.209569e-02 -3.896942e-01 4.197845e-01
-1.330119e-01 2.628405e+00 -9.362244e+00 7.337906e+00 6.308765e-04 2.295189e-02 -3.501434e-01 4.201355e-01
-1.294631e-01 2.664935e+00 -8.921310e+00 7.024094e+00 5.106930e-04 1.921048e-02 -2.241058e-01 4.304047e-01
-2.164738e-01 2.674174e+00 -9.044174e+00 7.536545e+00 3.706697e-04 2.712444e-02 -3.968353e-01 6.309357e-01
-3.117632e-01 2.766531e+00 -9.767548e+00 5.634842e+00 9.011759e-04 2.611745e-02 -3.123169e-01 4.557648e-01
-3.796224e-01 2.715358e+00 -9.767548e+00 7.333908e+00 7.794493e-04 2.635199e-02 -3.869171e-01 8.194122e-01
-3.793327e-01 2.728619e+00 -9.586761e+00 6.279129e+00 7.523484e-04 2.463781e-02 -3.968353e-01 5.242157e-01
-4.657533e-01 2.763659e+00 -9.747009e+00 6.648651e+00 3.217470e-04 2.572301e-02 -4.053497e-01 6.489868e-01
-5.009379e-01 2.685395e+00 -8.819153e+00 6.426590e+00 2.439115e-04 2.091873e-02 -2.922058e-01 4.680481e-01
-5.504429e-01 2.789482e+00 -9.877533e+00 6.182266e+00 1.790674e-04 2.210141e-02 -3.754578e-01 6.683807e-01
-6.177881e-01 2.750039e+00 -9.851746e+00 4.664810e+00 3.428342e-04 2.619913e-02 -3.869171e-01 6.766357e-01
-6.352814e-01 2.817168e+00 -9.784744e+00 5.268570e+00 -9.849269e-05 1.790164e-02 -1.853943e-01 2.478027e-01
-6.035761e-01 2.866415e+00 -9.045364e+00 5.320740e+00 -1.268359e-04 1.554237e-02 -3.474426e-01 3.754730e-01
-5.345535e-01 2.861300e+00 -1.012222e+01 5.422607e+00 -2.130236e-04 1.503784e-02 -2.241058e-01 2.000122e-01
-5.810831e-01 2.864860e+00 -9.788681e+00 5.213272e+00 1.204545e-04 1.741732e-02 -3.474426e-01 2.706146e-01
-6.443171e-01 2.807294e+00 -9.793808e+00 4.952347e+00 -8.589064e-05 2.079452e-02 -3.869171e-01 6.729279e-01
-5.254076e-01 2.841709e+00 -9.796890e+00 5.145233e+00 -5.267025e-05 1.835400e-02 -3.474426e-01 2.913818e-01
-6.123464e-01 2.892186e+00 -9.539795e+00 5.455521e+00 3.561659e-04 2.369671e-02 -4.053497e-01 7.031403e-01
-5.681550e-01 2.790469e+00 -9.426285e+00 4.839539e+00 -2.148412e-04 2.007380e-02 -4.053497e-01 7.058716e-01
-5.739864e-01 2.866921e+00 -9.299759e+00 5.697433e+00 2.625095e-05 1.684371e-02 -3.474426e-01 3.307953e-01
-5.962628e-01 2.803703e+00 -9.535049e+00 5.719803e+00 1.167977e-04 2.058529e-02 -4.126282e-01 7.141876e-01
-6.032324e-01 2.864088e+00 -9.581711e+00 5.255783e+00 6.388290e-06 1.829185e-02 -3.968353e-01 6.520691e-01
-5.918163e-01 2.791332e+00 -9.605896e+00 5.615463e+00 -6.793402e-05 1.802556e-02 -3.869171e-01 6.003876e-01
-5.697366e-01 2.996846e+00 -9.851181e+00 5.442108e+00 2.970239e-07 1.460208e-02 -4.053497e-01 7.038727e-01
-6.031379e-01 2.832728e+00 -1.058301e+01 5.111038e+00 -2.332465e-04 1.746986e-02 -2.521515e-01 3.298492e-01
-5.678531e-01 2.815793e+00 -1.053282e+01 5.869476e+00 1.799352e-04 2.485181e-02 -3.968353e-01 6.298218e-01
-5.608003e-01 2.782836e+00 -9.509354e+00 5.191513e+00 -2.015709e-04 1.341630e-02 -2.477875e-01 2.706146e-01
-5.727688e-01 2.786188e+00 -9.666016e+00 4.654449e+00 1.095243e-04 2.336952e-02 -4.239960e-01 7.268982e-01
-5.368152e-01 2.878633e+00 -9.666016e+00 5.231781e+00 1.444777e-04 1.868133e-02 -2.705994e-01 3.970490e-01
-5.507470e-01 2.712979e+00 -9.208267e+00 5.870056e+00 2.315133e-04 2.707562e-02 -4.187927e-01 7.322845e-01
-4.885617e-01 2.845766e+00 -9.812531e+00 5.187241e+00 3.656382e-04 2.668183e-02 -4.397888e-01 7.606812e-01
-5.102987e-01 2.784665e+00 -9.990738e+00 5.961670e+00 2.521668e-05 2.711800e-02 -4.415436e-01 7.702942e-01
-5.994669e-01 2.896390e+00 -9.874817e+00 5.170578e+00 -1.144679e-04 1.711772e-02 -4.415436e-01 7.702942e-01
-5.779490e-01 2.865416e+00 -9.488129e+00 5.860229e+00 -1.032312e-04 1.801060e-02 -3.307800e-01 4.521179e-01
-4.846273e-01 2.943196e+00 -9.569153e+00 6.045273e+00 -1.438883e-04 1.382371e-02 -2.477875e-01 2.922211e-01
-4.827955e-01 2.844103e+00 -1.061949e+01 6.000183e+00 6.749922e-05 1.940161e-02 -3.307800e-01 3.307953e-01
-5.524724e-01 2.847053e+00 -9.539047e+00 5.986191e+00 -7.314506e-05 1.542029e-02 -3.968353e-01 3.123322e-01
-5.485384e-01 2.829666e+00 -9.621429e+00 5.540207e+00 -2.898151e-06 1.893690e-02 -3.474426e-01 6.568451e-01
-5.054929e-01 2.849083e+00 -1.065207e+01 6.027878e+00 -1.399246e-04 1.564410e-02 -3.123169e-01 3.479919e-01
-4.987225e-01 2.848674e+00 -9.719009e+00 5.869370e+00 2.111234e-04 2.462669e-02 -4.397888e-01 7.710571e-01
-4.620421e-01 2.815696e+00 -9.948181e+00 5.808121e+00 1.002523e-04 1.863066e-02 -3.254547e-01 4.744720e-01
-4.678352e-01 2.872559e+00 -1.064108e+01 5.960052e+00 1.599896e-04 2.118396e-02 -3.968353e-01 5.489960e-01
-5.876392e-01 2.818178e+00 -9.734436e+00 5.036072e+00 -1.842148e-04 1.714380e-02 -2.922058e-01 2.478027e-01
-5.006565e-01 2.767451e+00 -8.964844e+00 5.602386e+00 1.169235e-04 2.063465e-02 -4.239960e-01 7.368774e-01
-5.148831e-01 2.914543e+00 -1.003925e+01 5.503021e+00 -1.778027e-04 1.583075e-02 -2.914124e-01 4.104767e-01
-4.937702e-01 2.920614e+00 -1.075821e+01 5.505905e+00 4.358826e-05 3.014242e-02 -4.415436e-01 8.470764e-01
-5.765233e-01 3.087181e+00 -1.028255e+01 6.836288e+00 1.303061e-04 2.497584e-02 -4.187927e-01 7.957001e-01
-6.096338e-01 3.008189e+00 -1.054521e+01 6.836288e+00 2.657345e-04 2.151602e-02 -3.968353e-01 3.623505e-01
-5.841650e-01 3.078491e+00 -1.004512e+01 5.711929e+00 1.909522e-04 2.053507e-02 -3.474426e-01 3.968506e-01
-5.909637e-01 2.947250e+00 -9.383957e+00 5.720688e+00 -3.859793e-05 2.258849e-02 -2.776184e-01 3.772278e-01
-5.451975e-01 2.995115e+00 -1.024382e+01 5.693848e+00 4.745097e-04 2.147112e-02 -3.754578e-01 3.623505e-01
-6.255292e-01 3.131630e+00 -9.994370e+00 6.791855e+00 2.193364e-04 2.071615e-02 -3.754578e-01 5.451965e-01
-5.878695e-01 3.077364e+00 -1.074922e+01 6.025543e+00 -6.032837e-06 1.581921e-02 -4.053497e-01 4.478912e-01
-6.085227e-01 2.914841e+00 -1.018918e+01 5.707336e+00 1.419774e-05 1.857737e-02 -2.668610e-01 3.968506e-01
-1.081967e+00 3.301305e+00 -1.226935e+01 5.542053e+00 -5.870754e-04 2.057162e-02 -4.126282e-01 8.103638e-01
-9.731908e-01 3.246114e+00 -1.230528e+01 5.317093e+00 -7.702146e-04 1.687763e-02 -2.705994e-01 2.478027e-01
-9.616148e-01 3.148134e+00 -1.193158e+01 5.659760e+00 -5.557437e-04 1.949703e-02 -2.705994e-01 3.474579e-01
-8.831997e-01 3.180430e+00 -1.135593e+01 5.801163e+00 -5.746426e-04 1.682067e-02 -1.788330e-01 3.123322e-01
-9.319778e-01 3.191100e+00 -1.151430e+01 6.618927e+00 -5.325045e-04 1.795903e-02 -2.477875e-01 3.123322e-01
-8.445918e-01 3.100615e+00 -1.150906e+01 5.750214e+00 -5.114865e-04 1.726738e-02 -2.477875e-01 2.922211e-01
-7.921998e-01 3.136039e+00 -1.182060e+01 6.642990e+00 -1.236031e-04 2.070842e-02 -3.968353e-01 6.239929e-01
-7.881165e-01 3.092186e+00 -1.109320e+01 6.642990e+00 -2.679009e-04 1.862565e-02 -3.754578e-01 2.922211e-01
-7.738660e-01 3.122778e+00 -1.224245e+01 6.642990e+00 -4.663161e-04 1.709516e-02 -2.922058e-01 2.922211e-01
-7.902851e-01 3.058442e+00 -1.161134e+01 5.971466e+00 -2.810206e-04 1.627779e-02 -2.922058e-01 3.123322e-01
-7.194569e-01 3.026016e+00 -1.158818e+01 5.971466e+00 -5.440524e-04 1.814090e-02 -2.486267e-01 3.123322e-01
-7.745795e-01 3.124879e+00 -1.088684e+01 5.860352e+00 -1.611833e-04 1.342384e-02 -2.241058e-01 2.478027e-01
-6.413730e-01 3.076426e+00 -1.065057e+01 5.988617e+00 -2.433521e-04 1.551629e-02 -3.869171e-01 3.123322e-01
-6.689516e-01 3.050816e+00 -1.096574e+01 5.957611e+00 -3.608081e-04 1.799846e-02 -3.869171e-01 3.023376e-01
-7.274684e-01 3.009339e+00 -1.124622e+01 5.582962e+00 1.421433e-05 1.665824e-02 -2.477875e-01 3.623505e-01
-6.159061e-01 3.009580e+00 -1.051828e+01 6.002213e+00 8.084155e-05 1.598623e-02 -4.053497e-01 6.888885e-01
-6.832580e-01 3.031732e+00 -1.143446e+01 6.700684e+00 -1.023009e-05 1.814312e-02 -2.705994e-01 3.474579e-01
-6.914227e-01 3.116516e+00 -1.213268e+01 5.446930e+00 -3.634131e-05 1.380224e-02 -2.705994e-01 3.173065e-01
-6.399025e-01 3.038667e+00 -1.053355e+01 6.703537e+00 -2.535719e-04 1.728692e-02 -4.053497e-01 6.952362e-01
-6.243636e-01 3.031450e+00 -1.218434e+01 6.674866e+00 -1.285046e-04 1.362013e-02 -1.999969e-01 2.478027e-01
-6.243169e-01 3.075234e+00 -1.129796e+01 5.753113e+00 1.645370e-04 1.856435e-02 -3.869171e-01 6.270752e-01
-6.485954e-01 2.996316e+00 -1.210043e+01 5.589874e+00 -3.025640e-04 1.382669e-02 -2.241058e-01 2.478027e-01
-5.728614e-01 2.962469e+00 -1.116916e+01 6.611084e+00 -1.635154e-04 1.569187e-02 -3.623352e-01 3.123322e-01
-5.471643e-01 2.972144e+00 -1.135715e+01 5.969711e+00 -1.539750e-04 1.848265e-02 -4.053497e-01 7.022400e-01
-7.243844e-01 3.124875e+00 -1.206210e+01 6.060852e+00 1.914403e-04 2.085818e-02 -4.187927e-01 6.693115e-01
-6.501532e-01 3.043696e+00 -1.206444e+01 5.636124e+00 4.357687e-05 2.043754e-02 -4.187927e-01 6.693115e-01
-5.798141e-01 2.997230e+00 -1.138022e+01 6.042953e+00 -5.177863e-06 1.955945e-02 -3.869171e-01 3.903503e-01
-6.477959e-01 2.961926e+00 -1.119560e+01 5.647949e+00 -1.434365e-04 1.499717e-02 -2.705994e-01 2.706146e-01
-6.622419e-01 3.031209e+00 -1.075136e+01 6.639587e+00 1.154995e-04 2.290336e-02 -4.239960e-01 7.135925e-01
-6.951339e-01 3.083847e+00 -1.122630e+01 5.903854e+00 -1.285842e-04 1.797970e-02 -2.164917e-01 3.474579e-01
-6.585353e-01 3.111799e+00 -1.122630e+01 5.972610e+00 2.780696e-05 1.800695e-02 -2.705994e-01 3.623505e-01
-6.587747e-01 2.911693e+00 -1.141412e+01 5.976959e+00 -3.511576e-04 1.543592e-02 -1.911163e-01 3.205719e-01
-6.530555e-01 3.053566e+00 -1.087390e+01 6.092606e+00 -1.229294e-04 1.612630e-02 -1.758728e-01 3.307953e-01
-6.161354e-01 2.939364e+00 -1.087390e+01 5.897675e+00 -1.383718e-04 1.848696e-02 -4.187927e-01 6.707764e-01
-5.778990e-01 3.048760e+00 -1.110872e+01 5.895859e+00 -2.675556e-05 1.663730e-02 -2.922058e-01 5.894775e-01
-5.934945e-01 2.917975e+00 -1.113957e+01 6.086609e+00 -7.774307e-05 1.989421e-02 -3.968353e-01 7.224426e-01
-6.066516e-01 2.975970e+00 -1.060002e+01 5.648590e+00 1.300992e-04 2.101090e-02 -4.053497e-01 7.113190e-01
-6.263191e-01 2.975754e+00 -1.064026e+01 6.119308e+00 -6.594255e-06 1.871435e-02 -4.126282e-01 7.193604e-01
-6.076982e-01 3.065853e+00 -1.202721e+01 6.593552e+00 -2.033137e-04 1.395988e-02 -3.123169e-01 2.922211e-01
-5.063373e-01 2.970095e+00 -1.069379e+01 5.879883e+00 -2.530756e-04 1.867356e-02 -3.456268e-01 3.474579e-01
-5.728318e-01 2.945992e+00 -1.087961e+01 5.506775e+00 -8.288918e-06 1.802324e-02 -2.922058e-01 5.988312e-01
-5.142330e-01 3.022142e+00 -1.073842e+01 6.125671e+00 -6.435803e-05 1.783418e-02 -4.053497e-01 7.089844e-01
-6.617092e-01 3.090710e+00 -1.204655e+01 5.634705e+00 3.856400e-05 1.731094e-02 -2.477875e-01 3.474579e-01
-5.674923e-01 3.048796e+00 -1.197124e+01 6.600677e+00 -1.079122e-04 1.456575e-02 -2.477875e-01 2.478027e-01
-5.779670e-01 2.948339e+00 -1.205666e+01 5.658722e+00 -9.667867e-05 1.979720e-02 -4.126282e-01 7.336578e-01
-4.916197e-01 2.925178e+00 -1.052705e+01 6.586700e+00 -1.470443e-04 1.484924e-02 -2.241058e-01 3.123322e-01
-5.645004e-01 3.063648e+00 -1.037747e+01 6.136490e+00 5.536720e-05 1.345403e-02 -1.999969e-01 3.474579e-01
-5.404716e-01 3.037333e+00 -1.069218e+01 6.586853e+00 1.627658e-05 1.587422e-02 -3.071899e-01 4.661865e-01
-5.788921e-01 2.946703e+00 -1.120012e+01 6.128464e+00 3.503865e-04 1.916352e-02 -2.705994e-01 3.754730e-01
-6.346096e-01 3.000299e+00 -1.202379e+01 5.633957e+00 -2.094165e-04 1.799266e-02 -3.968353e-01 3.410950e-01
-5.575584e-01 2.873345e+00 -9.442291e+00 5.633957e+00 -2.473943e-04 1.594623e-02 -2.477875e-01 3.623505e-01
-4.365085e-01 2.904635e+00 -1.195410e+01 6.560455e+00 6.943360e-04 1.711359e-02 -4.053497e-01 3.869324e-01
-4.354780e-01 2.849658e+00 -1.080293e+01 6.785233e+00 6.212856e-04 1.925846e-02 -3.754578e-01 6.447906e-01
-8.102447e-01 3.080128e+00 -1.108168e+01 6.669464e+00 -5.242504e-04 2.226495e-02 -4.187927e-01 6.753387e-01
-5.202957e-01 3.005928e+00 -1.119458e+01 9.397003e+00 3.675589e-04 2.889731e-02 -3.645172e-01 9.085846e-01
-3.309396e-01 2.857842e+00 -9.416443e+00 9.397003e+00 9.038941e-04 2.635573e-02 -4.053497e-01 9.085846e-01
-2.968713e-01 2.835429e+00 -8.950104e+00 8.991745e+00 6.194085e-04 2.303839e-02 -3.968353e-01 7.167511e-01
-4.390606e-01 2.807098e+00 -9.823471e+00 8.283661e+00 8.626918e-04 2.391158e-02 -3.307800e-01 4.707947e-01
-4.932322e-01 2.803885e+00 -9.085037e+00 7.896729e+00 8.093775e-04 2.277926e-02 -3.754578e-01 4.188080e-01
-4.614136e-01 2.834228e+00 -9.946198e+00 7.760681e+00 5.776631e-04 2.784523e-02 -4.320374e-01 8.430481e-01
-5.371618e-01 2.888358e+00 -1.128601e+01 8.007919e+00 7.133107e-04 2.282460e-02 -3.123169e-01 3.956451e-01
-6.612235e-01 2.856054e+00 -1.139943e+01 7.358002e+00 1.092076e-03 2.859969e-02 -4.126282e-01 6.185150e-01
-6.878076e-01 2.820876e+00 -9.910721e+00 7.358002e+00 1.040004e-03 3.207945e-02 -4.351044e-01 8.452911e-01
-8.337357e-01 2.921569e+00 -1.187517e+01 5.630707e+00 3.996722e-04 2.193422e-02 -4.053497e-01 6.856995e-01
-7.819751e-01 2.948170e+00 -1.179692e+01 7.083145e+00 5.642489e-05 2.034227e-02 -3.754578e-01 3.968506e-01
-8.832304e-01 2.831382e+00 -9.677017e+00 6.498169e+00 4.597294e-04 2.575949e-02 -3.754578e-01 8.744659e-01
-9.355494e-01 2.931973e+00 -1.137103e+01 6.688568e+00 3.133962e-04 2.212087e-02 -4.376526e-01 7.117767e-01
-9.557146e-01 2.968886e+00 -1.243704e+01 6.219879e+00 2.855746e-04 2.272071e-02 -3.754578e-01 8.719025e-01
-9.132064e-01 2.910842e+00 -1.116817e+01 6.113541e+00 2.661193e-05 1.989123e-02 -3.754578e-01 3.623505e-01
-8.221700e-01 2.905177e+00 -1.081953e+01 6.355042e+00 -3.332582e-04 1.790392e-02 -2.922058e-01 2.526550e-01
-9.580146e-01 2.941803e+00 -1.033200e+01 6.262527e+00 3.144518e-04 2.520199e-02 -4.351044e-01 6.987305e-01
-8.832888e-01 2.972780e+00 -1.183963e+01 5.769333e+00 3.006207e-04 2.383000e-02 -3.623352e-01 6.028900e-01
-9.604600e-01 2.955257e+00 -1.028941e+01 6.139481e+00 3.326310e-05 1.984619e-02 -3.869171e-01 3.474579e-01
-9.732618e-01 3.054691e+00 -1.190459e+01 6.310150e+00 -2.620319e-04 1.666786e-02 -2.841187e-01 2.922211e-01
-8.205871e-01 2.950685e+00 -1.190459e+01 6.284698e+00 -2.653500e-04 1.557482e-02 -3.754578e-01 2.922211e-01
-9.575988e-01 2.945999e+00 -1.293024e+01 6.010651e+00 3.781936e-04 2.768725e-02 -3.754578e-01 8.857574e-01
-9.370705e-01 2.973796e+00 -1.182021e+01 5.487701e+00 -1.283209e-04 1.584104e-02 -2.241058e-01 3.474579e-01
-9.739889e-01 2.977151e+00 -1.012733e+01 6.466644e+00 -4.614041e-04 1.704954e-02 -3.754578e-01 6.486053e-01
-1.021847e+00 3.052917e+00 -1.190051e+01 6.466644e+00 3.678464e-04 2.621574e-02 -4.283752e-01 7.066498e-01
-9.949070e-01 3.009590e+00 -1.297250e+01 6.143311e+00 -6.698360e-04 1.892803e-02 -3.869171e-01 2.471313e-01
-1.060993e+00 3.093460e+00 -1.185783e+01 5.780334e+00 7.802622e-05 2.459256e-02 -3.307800e-01 7.017670e-01
-8.903158e-01 3.094531e+00 -1.171021e+01 5.521027e+00 -5.811869e-05 1.830484e-02 -3.754578e-01 3.623505e-01
-9.914309e-01 3.026585e+00 -1.210989e+01 6.170883e+00 -1.671328e-04 1.536155e-02 -2.922058e-01 3.474579e-01
-9.553034e-01 2.996439e+00 -1.214282e+01 5.951630e+00 -1.559107e-04 2.209332e-02 -3.123169e-01 7.547150e-01
-8.891265e-01 2.943729e+00 -1.311908e+01 4.769073e+00 9.011423e-05 1.966476e-02 -3.869171e-01 3.623505e-01
-8.977665e-01 2.984877e+00 -1.311908e+01 5.692673e+00 1.732058e-04 1.923572e-02 -3.869171e-01 3.623505e-01
-9.931957e-01 3.074365e+00 -1.307028e+01 5.648651e+00 -2.976309e-05 2.025431e-02 -3.623352e-01 3.307953e-01
-1.055038e+00 3.070677e+00 -1.133348e+01 5.969009e+00 -6.447283e-05 2.280029e-02 -3.968353e-01 7.185364e-01
-1.060303e+00 3.042474e+00 -1.301628e+01 5.949005e+00 -2.343020e-04 1.837402e-02 -2.241058e-01 3.307953e-01
-9.059872e-01 2.963417e+00 -1.196704e+01 5.884079e+00 9.806775e-05 2.236085e-02 -4.187927e-01 7.105255e-01
-9.492226e-01 3.031080e+00 -1.221762e+01 6.384003e+00 1.727194e-05 1.706988e-02 -3.754578e-01 3.623505e-01
-9.324772e-01 3.013489e+00 -1.301152e+01 6.366257e+00 -2.960690e-04 1.946626e-02 -3.869171e-01 3.273315e-01
-8.628539e-01 3.036684e+00 -1.297914e+01 6.310440e+00 8.964235e-05 1.892951e-02 -3.623352e-01 3.474579e-01
-1.007505e+00 3.010277e+00 -1.302271e+01 6.092484e+00 4.926358e-05 2.002406e-02 -3.623352e-01 4.327850e-01
-1.081362e+00 3.361365e+00 -1.324458e+01 6.204453e+00 2.460135e-04 1.988099e-02 -3.968353e-01 6.332550e-01
-1.020536e+00 3.161000e+00 -1.263641e+01 5.767838e+00 -4.321144e-04 1.828933e-02 -3.869171e-01 3.623505e-01
-1.079975e+00 3.238844e+00 -1.312076e+01 6.418777e+00 -4.181238e-04 1.970546e-02 -3.968353e-01 6.331482e-01
-9.739674e-01 3.117809e+00 -1.382739e+01 5.760910e+00 -1.076332e-04 2.022430e-02 -4.239960e-01 6.760712e-01
-9.612312e-01 3.131015e+00 -1.277101e+01 6.534744e+00 -8.262251e-05 1.653326e-02 -3.754578e-01 4.267120e-01
-1.016341e+00 3.219789e+00 -1.376857e+01 6.358505e+00 9.135273e-05 2.299780e-02 -3.754578e-01 7.179718e-01
-9.570481e-01 3.184129e+00 -1.299408e+01 5.683487e+00 1.293685e-04 1.845503e-02 -2.241058e-01 4.267120e-01
-1.032059e+00 3.217862e+00 -1.299408e+01 6.118988e+00 -1.408040e-04 1.719875e-02 -4.053497e-01 4.267120e-01
-9.689225e-01 3.221081e+00 -1.231770e+01 5.686707e+00 2.011898e-04 2.495491e-02 -4.239960e-01 7.179718e-01
-9.658510e-01 3.192145e+00 -1.379460e+01 5.546265e+00 -1.131532e-04 1.671354e-02 -4.053497e-01 2.827759e-01
-9.536967e-01 3.096821e+00 -1.176337e+01 6.146744e+00 -4.381834e-04 1.676864e-02 -1.999969e-01 2.706146e-01
-9.973531e-01 3.195081e+00 -1.288834e+01 6.146744e+00 -3.093847e-04 1.637244e-02 -3.968353e-01 2.706146e-01
-9.159092e-01 3.127989e+00 -1.304631e+01 6.583618e+00 -1.443822e-04 1.557735e-02 -2.477875e-01 2.922211e-01
-9.324192e-01 3.194972e+00 -1.231332e+01 6.466156e+00 -3.323168e-04 1.435984e-02 -3.968353e-01 2.531128e-01
-1.020541e+00 3.123661e+00 -1.301021e+01 6.231247e+00 -1.804339e-04 1.659006e-02 -2.218170e-01 3.474579e-01
-9.786374e-01 3.210931e+00 -1.369913e+01 6.466156e+00 1.126939e-04 2.226888e-02 -4.239960e-01 7.550964e-01
-9.870132e-01 3.136430e+00 -1.288986e+01 5.982864e+00 -2.123060e-04 1.889156e-02 -3.754578e-01 3.123322e-01
-9.678160e-01 3.245693e+00 -1.369113e+01 6.002045e+00 -2.530749e-04 1.702731e-02 -3.968353e-01 6.381378e-01
-9.751691e-01 3.189471e+00 -1.314955e+01 6.370590e+00 1.574392e-04 1.792454e-02 -2.922058e-01 4.211426e-01
-1.090842e+00 3.216347e+00 -1.363701e+01 5.579590e+00 -2.621453e-04 1.742573e-02 -3.623352e-01 3.474579e-01
-9.206560e-01 3.094089e+00 -1.293546e+01 5.981964e+00 -3.658229e-05 2.173446e-02 -3.869171e-01 7.398987e-01
-9.169708e-01 3.180371e+00 -1.369133e+01 6.014404e+00 -1.408110e-04 1.859808e-02 -3.754578e-01 4.256439e-01
-9.082892e-01 3.209515e+00 -1.367680e+01 6.349869e+00 1.692442e-04 2.079268e-02 -3.307800e-01 5.856171e-01
-9.286084e-01 3.164262e+00 -1.287482e+01 6.134079e+00 -2.133125e-04 1.740375e-02 -3.307800e-01 3.123322e-01
-8.601131e-01 3.128833e+00 -1.302504e+01 6.264923e+00 -5.566553e-05 1.892885e-02 -3.623352e-01 6.190796e-01
-9.794386e-01 3.198394e+00 -1.301343e+01 6.060608e+00 1.871885e-04 2.281311e-02 -4.126282e-01 7.643585e-01
-9.360717e-01 3.151538e+00 -1.278738e+01 5.778183e+00 -3.032097e-04 1.837912e-02 -3.307800e-01 2.849731e-01
-9.494138e-01 3.148173e+00 -1.218398e+01 5.977432e+00 1.224885e-04 1.883200e-02 -2.735291e-01 3.623505e-01
-9.744294e-01 3.233306e+00 -1.276520e+01 6.278351e+00 -2.684119e-04 1.604147e-02 -2.477875e-01 2.922211e-01
-9.651152e-01 3.275418e+00 -1.352217e+01 5.693130e+00 -1.944200e-04 1.558650e-02 -1.999969e-01 2.000122e-01
-9.793630e-01 3.238967e+00 -1.274828e+01 6.293289e+00 2.005316e-04 1.638714e-02 -2.241058e-01 3.474579e-01
-7.653500e-01 3.082498e+00 -1.268390e+01 6.082672e+00 5.802015e-05 1.662617e-02 -3.123169e-01 3.474579e-01
-9.319369e-01 3.202630e+00 -1.278680e+01 6.081711e+00 -7.162774e-05 1.620052e-02 -2.424164e-01 3.307953e-01
-9.119336e-01 3.105518e+00 -1.268727e+01 5.439346e+00 2.933318e-04 2.246893e-02 -3.123169e-01 6.153259e-01
-1.063334e+00 3.292243e+00 -1.350323e+01 4.970215e+00 -1.491531e-04 1.583320e-02 -3.123169e-01 3.623505e-01
-9.182050e-01 3.066004e+00 -1.229155e+01 6.157242e+00 -1.661409e-04 2.039535e-02 -2.991638e-01 3.820038e-01
-9.164318e-01 3.146830e+00 -1.354466e+01 6.345505e+00 -1.930347e-04 1.295184e-02 -1.999969e-01 3.123322e-01
-9.240010e-01 3.187899e+00 -1.343120e+01 5.951813e+00 -1.896703e-04 2.000269e-02 -3.307800e-01 6.758118e-01
-7.538278e-01 3.139167e+00 -1.344232e+01 6.401962e+00 -1.380259e-04 1.727214e-02 -3.968353e-01 3.623505e-01
-8.483457e-01 3.199584e+00 -1.255609e+01 5.470459e+00 3.083852e-04 1.582893e-02 -3.307800e-01 3.754730e-01
-8.427991e-01 3.154039e+00 -1.208475e+01 6.418030e+00 -2.337930e-04 1.788612e-02 -3.968353e-01 3.474579e-01
