8.999023e-01 9.987793e-01
5.310059e-01 9.926758e-01
3.132324e-01 9.865723e-01
1.848145e-01 9.804688e-01
1.091309e-01 9.743652e-01
6.445312e-02 9.682617e-01
3.833008e-02 9.621582e-01
2.270508e-02 9.560547e-01
1.342773e-02 9.499512e-01
7.812500e-03 9.438477e-01
4.638672e-03 9.377441e-01
2.685547e-03 9.316406e-01
1.464844e-03 9.255371e-01
9.765625e-04 9.194336e-01
9.765625e-04 9.133301e-01
9.765625e-04 9.072266e-01
9.765625e-04 9.011230e-01
9.765625e-04 8.959961e-01
9.765625e-04 8.911133e-01
9.765625e-04 8.862305e-01
9.765625e-04 8.813477e-01
9.765625e-04 8.764648e-01
9.765625e-04 8.715820e-01
9.765625e-04 8.666992e-01
9.765625e-04 8.618164e-01
9.765625e-04 8.569336e-01
9.765625e-04 8.520508e-01
9.765625e-04 8.471680e-01
9.765625e-04 8.422852e-01
9.765625e-04 8.374023e-01
9.765625e-04 8.325195e-01
9.765625e-04 8.276367e-01
9.765625e-04 8.227539e-01
9.765625e-04 8.178711e-01
9.765625e-04 8.129883e-01
9.765625e-04 8.081055e-01
9.765625e-04 8.032227e-01
9.765625e-04 7.983398e-01
9.765625e-04 7.934570e-01
9.765625e-04 7.885742e-01
9.765625e-04 7.836914e-01
9.765625e-04 7.788086e-01
9.765625e-04 7.739258e-01
9.765625e-04 7.690430e-01
9.765625e-04 7.641602e-01
9.765625e-04 7.592773e-01
9.765625e-04 7.543945e-01
9.765625e-04 7.495117e-01
9.765625e-04 7.446289e-01
9.765625e-04 7.397461e-01
9.765625e-04 7.348633e-01
9.765625e-04 7.299805e-01
9.765625e-04 7.250977e-01
9.765625e-04 7.202148e-01
9.765625e-04 7.153320e-01
9.765625e-04 7.104492e-01
9.765625e-04 7.055664e-01
9.765625e-04 7.006836e-01
9.765625e-04 6.967773e-01
9.765625e-04 6.931152e-01
9.765625e-04 6.894531e-01
9.765625e-04 6.857910e-01
9.765625e-04 6.821289e-01
9.765625e-04 6.784668e-01
9.765625e-04 6.748047e-01
9.765625e-04 6.711426e-01
9.765625e-04 6.674805e-01
9.765625e-04 6.638184e-01
9.765625e-04 6.601562e-01
9.765625e-04 6.564941e-01
9.765625e-04 6.528320e-01
9.765625e-04 6.491699e-01
9.765625e-04 6.455078e-01
9.765625e-04 6.418457e-01
9.765625e-04 6.381836e-01
9.765625e-04 6.345215e-01
9.765625e-04 6.308594e-01
9.765625e-04 6.271973e-01
9.765625e-04 6.235352e-01
9.765625e-04 6.198730e-01
9.765625e-04 6.162109e-01
9.765625e-04 6.125488e-01
9.765625e-04 6.088867e-01
9.765625e-04 6.052246e-01
9.765625e-04 6.015625e-01
9.765625e-04 5.979004e-01
9.765625e-04 5.942383e-01
9.765625e-04 5.905762e-01
9.765625e-04 5.869141e-01
9.765625e-04 5.832520e-01
9.765625e-04 5.795898e-01
9.765625e-04 5.759277e-01
9.765625e-04 5.722656e-01
9.765625e-04 5.686035e-01
9.765625e-04 5.649414e-01
9.765625e-04 5.612793e-01
9.765625e-04 5.576172e-01
9.765625e-04 5.539551e-01
9.765625e-04 5.502930e-01
9.765625e-04 5.466309e-01
9.765625e-04 5.429688e-01
9.765625e-04 5.393066e-01
9.765625e-04 5.356445e-01
9.765625e-04 5.319824e-01
9.765625e-04 5.283203e-01
9.765625e-04 5.246582e-01
9.765625e-04 5.209961e-01
9.765625e-04 5.173340e-01
9.765625e-04 5.136719e-01
9.765625e-04 5.100098e-01
9.765625e-04 5.063477e-01
9.765625e-04 5.026855e-01
9.765625e-04 4.992676e-01
9.765625e-04 4.968262e-01
9.765625e-04 4.943848e-01
9.765625e-04 4.919434e-01
9.765625e-04 4.895020e-01
9.765625e-04 4.870605e-01
9.765625e-04 4.846191e-01
9.765625e-04 4.821777e-01
9.765625e-04 4.797363e-01
9.765625e-04 4.772949e-01
9.765625e-04 4.748535e-01
9.765625e-04 4.724121e-01
9.765625e-04 4.699707e-01
9.765625e-04 4.675293e-01
9.765625e-04 4.650879e-01
9.765625e-04 4.626465e-01
9.765625e-04 4.602051e-01
9.765625e-04 4.577637e-01
9.765625e-04 4.553223e-01
9.765625e-04 4.528809e-01
9.765625e-04 4.504395e-01
9.765625e-04 4.479980e-01
9.765625e-04 4.455566e-01
9.765625e-04 4.431152e-01
9.765625e-04 4.406738e-01
9.765625e-04 4.382324e-01
9.765625e-04 4.357910e-01
9.765625e-04 4.333496e-01
9.765625e-04 4.309082e-01
9.765625e-04 4.284668e-01
9.765625e-04 4.260254e-01
9.765625e-04 4.235840e-01
9.765625e-04 4.211426e-01
9.765625e-04 4.187012e-01
9.765625e-04 4.162598e-01
9.765625e-04 4.138184e-01
9.765625e-04 4.113770e-01
9.765625e-04 4.089355e-01
9.765625e-04 4.064941e-01
9.765625e-04 4.040527e-01
9.765625e-04 4.016113e-01
9.765625e-04 3.991699e-01
9.765625e-04 3.967285e-01
9.765625e-04 3.942871e-01
9.765625e-04 3.918457e-01
9.765625e-04 3.894043e-01
9.765625e-04 3.869629e-01
9.765625e-04 3.845215e-01
9.765625e-04 3.820801e-01
9.765625e-04 3.796387e-01
9.765625e-04 3.771973e-01
9.765625e-04 3.747559e-01
9.765625e-04 3.723145e-01
9.765625e-04 3.698730e-01
9.765625e-04 3.674316e-01
9.765625e-04 3.649902e-01
9.765625e-04 3.625488e-01
9.765625e-04 3.601074e-01
9.765625e-04 3.576660e-01
9.765625e-04 3.552246e-01
9.765625e-04 3.527832e-01
9.765625e-04 3.503418e-01
9.765625e-04 3.479004e-01
9.765625e-04 3.454590e-01
9.765625e-04 3.430176e-01
9.765625e-04 3.405762e-01
9.765625e-04 3.381348e-01
9.765625e-04 3.356934e-01
9.765625e-04 3.332520e-01
9.765625e-04 3.308105e-01
9.765625e-04 3.283691e-01
9.765625e-04 3.259277e-01
9.765625e-04 3.234863e-01
9.765625e-04 3.210449e-01
9.765625e-04 3.186035e-01
9.765625e-04 3.161621e-01
9.765625e-04 3.137207e-01
9.765625e-04 3.112793e-01
9.765625e-04 3.088379e-01
9.765625e-04 3.063965e-01
9.765625e-04 3.039551e-01
9.765625e-04 3.015137e-01
9.765625e-04 2.993164e-01
9.765625e-04 2.980957e-01
9.765625e-04 2.968750e-01
9.765625e-04 2.956543e-01
9.765625e-04 2.944336e-01
9.765625e-04 2.932129e-01
9.765625e-04 2.919922e-01
9.765625e-04 2.907715e-01
9.765625e-04 2.895508e-01
9.765625e-04 2.883301e-01
9.765625e-04 2.871094e-01
9.765625e-04 2.858887e-01
9.765625e-04 2.846680e-01
9.765625e-04 2.834473e-01
9.765625e-04 2.822266e-01
9.765625e-04 2.810059e-01
9.765625e-04 2.797852e-01
9.765625e-04 2.785645e-01
9.765625e-04 2.773438e-01
9.765625e-04 2.761230e-01
9.765625e-04 2.749023e-01
9.765625e-04 2.736816e-01
9.765625e-04 2.724609e-01
9.765625e-04 2.712402e-01
9.765625e-04 2.700195e-01
9.765625e-04 2.687988e-01
9.765625e-04 2.675781e-01
9.765625e-04 2.663574e-01
9.765625e-04 2.651367e-01
