1.279961e+02 7.707809e-01 -8.141987e-03 5.760561e-01 -9.960938e-01 9.960938e-01
1.279961e+02 7.707809e-01 -8.145648e-03 5.764665e-01 -1.011719e+00 1.011719e+00
1.279961e+02 7.707809e-01 -8.145648e-03 5.764665e-01 -1.011719e+00 1.011719e+00
1.279961e+02 7.707809e-01 -8.145648e-03 5.764665e-01 -1.011719e+00 1.011719e+00
1.279961e+02 7.707809e-01 -8.145648e-03 5.764665e-01 -1.011719e+00 1.011719e+00
1.279961e+02 7.707809e-01 -8.145648e-03 5.764665e-01 -1.011719e+00 1.011719e+00
1.279961e+02 7.707809e-01 -8.145648e-03 5.764665e-01 -1.011719e+00 1.011719e+00
1.279961e+02 7.707809e-01 -8.145648e-03 5.764665e-01 -1.011719e+00 1.011719e+00
1.279961e+02 7.707809e-01 -8.145648e-03 5.764665e-01 -1.011719e+00 1.011719e+00
1.279961e+02 7.707809e-01 -8.145648e-03 5.764665e-01 -1.011719e+00 1.011719e+00
1.279961e+02 7.707809e-01 -8.145648e-03 5.764665e-01 -1.011719e+00 1.011719e+00
1.279961e+02 7.707809e-01 -8.145648e-03 5.764665e-01 -1.011719e+00 1.011719e+00
1.279961e+02 7.707809e-01 -8.145648e-03 5.764665e-01 -1.011719e+00 1.011719e+00
1.279961e+02 7.707809e-01 -8.145648e-03 5.764665e-01 -1.011719e+00 1.011719e+00
1.279961e+02 7.707809e-01 -8.145648e-03 5.764665e-01 -1.011719e+00 1.011719e+00
1.279961e+02 7.707809e-01 -8.145648e-03 5.764665e-01 -1.011719e+00 1.011719e+00
1.279961e+02 7.707809e-01 -8.145648e-03 5.764665e-01 -1.011719e+00 1.011719e+00
1.279961e+02 7.707809e-01 -8.145648e-03 5.764665e-01 -1.011719e+00 1.011719e+00
1.279961e+02 7.707809e-01 -8.145648e-03 5.764665e-01 -1.011719e+00 1.011719e+00
1.279961e+02 7.707809e-01 -8.145648e-03 5.764665e-01 -1.011719e+00 1.011719e+00
1.279961e+02 7.707809e-01 -8.145648e-03 5.764665e-01 -1.011719e+00 1.011719e+00
1.279961e+02 7.707809e-01 -6.727634e-03 5.934253e-01 -1.675781e+00 1.343750e+00
1.279961e+02 7.707809e-01 -1.873194e-03 6.883785e-01 -2.531250e+00 1.996094e+00
1.279961e+02 7.707809e-01 4.245499e-03 8.226865e-01 -3.300781e+00 2.734375e+00
1.279961e+02 7.455919e-01 8.176156e-03 9.575909e-01 -4.132812e+00 3.628906e+00
1.279961e+02 6.020151e-01 1.020067e-02 1.083525e+00 -4.921875e+00 4.472656e+00
1.279961e+02 4.672544e-01 9.767455e-03 1.194738e+00 -5.464844e+00 5.023438e+00
1.279961e+02 4.647355e-01 9.284208e-03 1.293638e+00 -5.839844e+00 5.464844e+00
1.279961e+02 4.735516e-01 9.013297e-03 1.386110e+00 -6.414062e+00 5.894531e+00
1.279961e+02 4.798489e-01 8.566659e-03 1.470567e+00 -6.800781e+00 6.175781e+00
1.279961e+02 4.823678e-01 5.515854e-03 1.551352e+00 -7.320312e+00 6.367188e+00
1.279961e+02 4.811083e-01 9.445291e-04 1.629845e+00 -7.757812e+00 6.636719e+00
1.279961e+02 4.748111e-01 -5.211994e-03 1.704317e+00 -8.078125e+00 6.816406e+00
1.279961e+02 4.811083e-01 -1.035321e-02 1.775564e+00 -8.316406e+00 6.933594e+00
1.279961e+02 4.836272e-01 -1.400075e-02 1.842467e+00 -8.484375e+00 7.054688e+00
1.279961e+02 4.823678e-01 -1.696247e-02 1.908319e+00 -8.617188e+00 7.167969e+00
1.279961e+02 4.836272e-01 -2.010114e-02 1.973304e+00 -8.718750e+00 7.273438e+00
1.279961e+02 4.861461e-01 -2.246856e-02 2.037295e+00 -8.812500e+00 7.402344e+00
1.279961e+02 4.836272e-01 -2.234043e-02 2.102253e+00 -9.070312e+00 7.523438e+00
1.279961e+02 4.836272e-01 -2.256253e-02 2.166151e+00 -9.281250e+00 7.636719e+00
1.279961e+02 4.861461e-01 -2.339235e-02 2.229276e+00 -9.425781e+00 7.742188e+00
1.279961e+02 4.508816e-01 -2.563286e-02 2.291368e+00 -9.535156e+00 7.871094e+00
1.279961e+02 4.471033e-01 -2.858238e-02 2.351029e+00 -9.691406e+00 7.992188e+00
1.279961e+02 4.471033e-01 -3.020540e-02 2.409131e+00 -9.808594e+00 8.105469e+00
1.279961e+02 4.382872e-01 -3.357105e-02 2.467053e+00 -9.925781e+00 8.210938e+00
1.279961e+02 4.294710e-01 -3.620085e-02 2.527496e+00 -1.019531e+01 8.339844e+00
1.279961e+02 4.319899e-01 -3.731866e-02 2.587659e+00 -1.035938e+01 8.460938e+00
1.279961e+02 4.307305e-01 -3.881844e-02 2.646779e+00 -1.046484e+01 8.574219e+00
1.279961e+02 4.357683e-01 -4.031943e-02 2.704496e+00 -1.057031e+01 8.679688e+00
1.279961e+02 4.395466e-01 -4.109922e-02 2.761633e+00 -1.071484e+01 8.808594e+00
1.279961e+02 4.017632e-01 -4.226706e-02 2.818220e+00 -1.118750e+01 8.929688e+00
1.279961e+02 3.866499e-01 -4.145311e-02 2.874483e+00 -1.169922e+01 9.042969e+00
1.279961e+02 3.967254e-01 -4.062451e-02 2.931307e+00 -1.207422e+01 9.148438e+00
1.279961e+02 3.891688e-01 -4.030113e-02 2.988223e+00 -1.266406e+01 9.277344e+00
1.279961e+02 3.879093e-01 -3.923701e-02 3.043327e+00 -1.306641e+01 9.398438e+00
1.279961e+02 3.841310e-01 -3.799350e-02 3.097653e+00 -1.339453e+01 9.511719e+00
1.279961e+02 3.715365e-01 -3.663040e-02 3.152034e+00 -1.369141e+01 9.617188e+00
1.279961e+02 3.690176e-01 -3.644735e-02 3.207721e+00 -1.394531e+01 9.746094e+00
1.279961e+02 3.778338e-01 -3.701724e-02 3.263942e+00 -1.417188e+01 9.867188e+00
1.279961e+02 3.690176e-01 -3.973246e-02 3.319991e+00 -1.437500e+01 9.980469e+00
1.279961e+02 3.740554e-01 -4.046709e-02 3.375271e+00 -1.458203e+01 1.008594e+01
1.279961e+02 3.652393e-01 -3.914426e-02 3.428480e+00 -1.478125e+01 1.021484e+01
1.279961e+02 3.576826e-01 -3.707704e-02 3.479157e+00 -1.496875e+01 1.033594e+01
1.279961e+02 3.526448e-01 -3.714171e-02 3.529384e+00 -1.515234e+01 1.044922e+01
1.279961e+02 3.551637e-01 -3.806794e-02 3.579749e+00 -1.553906e+01 1.055469e+01
1.279961e+02 3.387909e-01 -4.125786e-02 3.630825e+00 -1.609766e+01 1.068359e+01
1.279961e+02 3.413098e-01 -4.334949e-02 3.678326e+00 -1.651172e+01 1.080469e+01
1.279961e+02 3.337531e-01 -4.652233e-02 3.724493e+00 -1.685547e+01 1.091797e+01
1.279961e+02 3.324937e-01 -4.959510e-02 3.771454e+00 -1.715234e+01 1.102344e+01
1.279961e+02 3.299748e-01 -5.399192e-02 3.818058e+00 -1.743359e+01 1.115234e+01
1.279961e+02 3.236776e-01 -5.660829e-02 3.864880e+00 -1.765625e+01 1.127344e+01
1.279961e+02 3.337531e-01 -6.003983e-02 3.911124e+00 -1.786719e+01 1.138672e+01
1.279961e+02 3.337531e-01 -6.425116e-02 3.955520e+00 -1.808203e+01 1.149219e+01
1.279961e+02 3.350126e-01 -6.705058e-02 3.999154e+00 -1.831641e+01 1.162109e+01
1.279961e+02 3.362720e-01 -6.740081e-02 4.042969e+00 -1.851172e+01 1.188281e+01
1.279961e+02 3.450882e-01 -6.853327e-02 4.084473e+00 -1.868359e+01 1.210938e+01
1.279961e+02 3.425693e-01 -7.065907e-02 4.125202e+00 -1.891797e+01 1.233594e+01
1.279961e+02 3.413098e-01 -7.255789e-02 4.164608e+00 -1.950781e+01 1.259766e+01
1.279961e+02 3.299748e-01 -7.442254e-02 4.202898e+00 -1.995312e+01 1.278906e+01
1.279961e+02 3.324937e-01 -7.504369e-02 4.238940e+00 -2.023047e+01 1.296484e+01
1.279961e+02 3.350126e-01 -7.489481e-02 4.275066e+00 -2.046094e+01 1.311719e+01
1.279961e+02 3.387909e-01 -7.741843e-02 4.311331e+00 -2.069531e+01 1.322266e+01
1.279961e+02 3.312343e-01 -8.070354e-02 4.350427e+00 -2.125781e+01 1.330078e+01
1.279961e+02 3.236776e-01 -8.339191e-02 4.389986e+00 -2.164844e+01 1.338672e+01
1.279961e+02 3.211587e-01 -8.423637e-02 4.428237e+00 -2.195703e+01 1.350781e+01
1.279961e+02 3.211587e-01 -8.278541e-02 4.463769e+00 -2.227344e+01 1.360156e+01
1.279961e+02 3.173804e-01 -8.117825e-02 4.498305e+00 -2.257812e+01 1.375000e+01
1.279961e+02 3.085642e-01 -7.993108e-02 4.532065e+00 -2.282031e+01 1.399609e+01
1.279961e+02 3.186398e-01 -7.798222e-02 4.564710e+00 -2.300781e+01 1.437109e+01
1.279961e+02 3.123426e-01 -7.753314e-02 4.596805e+00 -2.315625e+01 1.465234e+01
1.279961e+02 3.110831e-01 -7.568558e-02 4.629191e+00 -2.329297e+01 1.488281e+01
1.279961e+02 3.060453e-01 -7.474715e-02 4.661644e+00 -2.338672e+01 1.509375e+01
1.279961e+02 3.060453e-01 -7.370988e-02 4.694086e+00 -2.353906e+01 1.531641e+01
1.279961e+02 3.136020e-01 -7.338893e-02 4.726116e+00 -2.367969e+01 1.550000e+01
1.279961e+02 3.110831e-01 -7.316561e-02 4.759054e+00 -2.396484e+01 1.563672e+01
1.279961e+02 3.123426e-01 -7.504857e-02 4.794629e+00 -2.429297e+01 1.568750e+01
1.279961e+02 3.085642e-01 -7.731471e-02 4.833002e+00 -2.456641e+01 1.581641e+01
1.279961e+02 3.123426e-01 -7.993962e-02 4.871445e+00 -2.478906e+01 1.598438e+01
1.279961e+02 3.236776e-01 -8.103425e-02 4.908252e+00 -2.499219e+01 1.616016e+01
1.279961e+02 3.136020e-01 -7.948566e-02 4.943749e+00 -2.528516e+01 1.631641e+01
1.279961e+02 3.098237e-01 -7.771253e-02 4.979403e+00 -2.586328e+01 1.650000e+01
