3.994093e-01 1.305279e+00 -4.039062e+00 4.988281e+00 1.064514e-03 1.401471e-02 -8.593750e-02 1.640625e-01
3.980893e-01 1.302816e+00 -4.039062e+00 5.011719e+00 1.023515e-03 1.384273e-02 -8.593750e-02 1.523438e-01
3.980893e-01 1.302816e+00 -4.039062e+00 5.011719e+00 1.023515e-03 1.384273e-02 -8.593750e-02 1.523438e-01
3.980893e-01 1.302816e+00 -4.039062e+00 5.011719e+00 1.023515e-03 1.384273e-02 -8.593750e-02 1.523438e-01
3.980893e-01 1.302816e+00 -4.039062e+00 5.011719e+00 1.023515e-03 1.384273e-02 -8.593750e-02 1.523438e-01
3.980893e-01 1.302816e+00 -4.039062e+00 5.011719e+00 1.023515e-03 1.384273e-02 -8.593750e-02 1.523438e-01
3.980893e-01 1.302816e+00 -4.039062e+00 5.011719e+00 1.023515e-03 1.384273e-02 -8.593750e-02 1.523438e-01
3.980893e-01 1.302816e+00 -4.039062e+00 5.011719e+00 1.023515e-03 1.384273e-02 -8.593750e-02 1.523438e-01
3.980893e-01 1.302816e+00 -4.039062e+00 5.011719e+00 1.023515e-03 1.384273e-02 -8.593750e-02 1.523438e-01
3.980893e-01 1.302816e+00 -4.039062e+00 5.011719e+00 1.023515e-03 1.384273e-02 -8.593750e-02 1.523438e-01
3.980893e-01 1.302816e+00 -4.039062e+00 5.011719e+00 1.023515e-03 1.384273e-02 -8.593750e-02 1.523438e-01
3.980893e-01 1.302816e+00 -4.039062e+00 5.011719e+00 1.023515e-03 1.384273e-02 -8.593750e-02 1.523438e-01
4.219882e-01 1.660065e+00 -6.226562e+00 6.140625e+00 2.138014e-04 1.426341e-02 -2.890625e-01 1.523438e-01
2.660208e-01 3.139109e+00 -8.894531e+00 8.523438e+00 -9.587925e-04 2.487261e-02 -2.890625e-01 1.562500e-01
-2.564132e-01 4.203387e+00 -1.293359e+01 1.039844e+01 -6.813922e-04 2.419354e-02 -2.890625e-01 1.796875e-01
-6.795389e-01 5.085946e+00 -1.648047e+01 1.126562e+01 -1.081026e-04 2.264913e-02 -2.695312e-01 2.265625e-01
-1.016175e+00 5.908332e+00 -1.736719e+01 1.356641e+01 1.493038e-04 2.208754e-02 -2.226562e-01 2.500000e-01
-1.193307e+00 6.839958e+00 -1.994531e+01 1.583203e+01 -4.147077e-05 1.617339e-02 -2.226562e-01 2.500000e-01
-1.293064e+00 7.772225e+00 -2.391016e+01 1.796094e+01 2.709753e-04 1.179702e-02 -1.523438e-01 1.328125e-01
-1.530460e+00 8.655190e+00 -2.502734e+01 1.988672e+01 2.774678e-04 1.173512e-02 -1.523438e-01 1.445312e-01
-1.837769e+00 9.533162e+00 -2.924609e+01 2.346484e+01 1.733415e-04 1.271302e-02 -1.523438e-01 3.320312e-01
-1.987782e+00 1.048468e+01 -3.195312e+01 2.571094e+01 7.566281e-05 1.362504e-02 -1.210938e-01 3.398438e-01
-2.114823e+00 1.145306e+01 -3.304688e+01 2.823438e+01 3.464135e-05 1.326594e-02 -2.070312e-01 3.789062e-01
-2.368627e+00 1.234966e+01 -3.683594e+01 3.042578e+01 8.404234e-05 1.420629e-02 -1.718750e-01 3.867188e-01
-2.622922e+00 1.326967e+01 -3.960938e+01 3.375781e+01 1.337578e-04 1.495192e-02 -1.757812e-01 4.609375e-01
-2.703230e+00 1.428035e+01 -4.179688e+01 3.522656e+01 1.771606e-04 1.411744e-02 -1.757812e-01 4.960938e-01
-2.835769e+00 1.524779e+01 -4.507812e+01 3.834375e+01 8.058269e-05 1.410142e-02 -2.304688e-01 3.476562e-01
-3.104220e+00 1.614301e+01 -4.886328e+01 4.194141e+01 1.428787e-05 1.495168e-02 -2.031250e-01 3.320312e-01
-3.300735e+00 1.707199e+01 -5.042188e+01 4.356250e+01 -2.352107e-05 1.579666e-02 -3.203125e-01 4.218750e-01
-3.441144e+00 1.801733e+01 -5.196484e+01 4.511328e+01 -6.402584e-06 1.552597e-02 -3.359375e-01 3.789062e-01
-3.649632e+00 1.894746e+01 -5.618359e+01 4.900391e+01 -3.059761e-05 1.550742e-02 -2.343750e-01 4.218750e-01
-3.840182e+00 1.986545e+01 -5.829297e+01 5.103125e+01 -8.303140e-05 1.554953e-02 -2.421875e-01 4.062500e-01
-3.986094e+00 2.079318e+01 -6.203125e+01 5.460938e+01 -7.525844e-06 1.550231e-02 -3.046875e-01 4.023438e-01
-4.099323e+00 2.174343e+01 -6.307812e+01 5.572656e+01 1.533026e-04 1.540762e-02 -3.242188e-01 4.179688e-01
-4.283193e+00 2.266292e+01 -6.625000e+01 5.876562e+01 9.547713e-05 1.540232e-02 -2.734375e-01 3.867188e-01
-4.477605e+00 2.358054e+01 -7.007031e+01 6.235938e+01 5.225407e-05 1.686008e-02 -3.007812e-01 4.101562e-01
-4.619957e+00 2.451576e+01 -7.225781e+01 6.446484e+01 2.224055e-05 1.562271e-02 -3.281250e-01 3.671875e-01
-4.817409e+00 2.542454e+01 -7.496875e+01 6.708594e+01 1.734314e-05 1.640187e-02 -4.453125e-01 3.671875e-01
-5.091880e+00 2.630420e+01 -7.606250e+01 6.817969e+01 -1.260073e-04 1.572909e-02 -4.492188e-01 3.593750e-01
-5.373438e+00 2.720334e+01 -7.934375e+01 7.129688e+01 -1.021268e-04 1.548584e-02 -2.773438e-01 3.671875e-01
-5.615359e+00 2.810270e+01 -8.371875e+01 7.550781e+01 -1.071366e-04 1.607403e-02 -2.773438e-01 3.906250e-01
-5.803599e+00 2.902079e+01 -8.422656e+01 7.669141e+01 -1.296916e-04 1.606831e-02 -3.984375e-01 4.179688e-01
-5.897975e+00 2.996686e+01 -8.700000e+01 7.870703e+01 8.220019e-05 1.545885e-02 -2.539062e-01 4.570312e-01
-6.011280e+00 3.090903e+01 -9.137500e+01 8.291797e+01 1.187511e-04 1.594813e-02 -2.773438e-01 4.570312e-01
-6.167032e+00 3.185191e+01 -9.356250e+01 8.502344e+01 7.898766e-05 1.643957e-02 -4.609375e-01 5.117188e-01
-6.335089e+00 3.280328e+01 -9.516406e+01 8.653906e+01 4.508767e-05 1.612075e-02 -3.593750e-01 4.960938e-01
-6.483302e+00 3.377424e+01 -9.850781e+01 8.982812e+01 1.365435e-04 1.499132e-02 -2.421875e-01 5.273438e-01
-6.696680e+00 3.473744e+01 -1.017266e+02 9.284375e+01 3.302385e-05 1.597278e-02 -4.335938e-01 5.195312e-01
-6.888721e+00 3.569664e+01 -1.044219e+02 9.550000e+01 5.416361e-05 1.543609e-02 -4.257812e-01 5.234375e-01
-7.053546e+00 3.666266e+01 -1.075938e+02 9.844922e+01 2.397037e-05 1.534963e-02 -3.359375e-01 5.234375e-01
-7.210817e+00 3.762269e+01 -1.107500e+02 1.015234e+02 -5.140039e-05 1.542414e-02 -3.359375e-01 5.312500e-01
-7.334453e+00 3.857273e+01 -1.122930e+02 1.029805e+02 -1.939197e-04 1.603179e-02 -2.812500e-01 5.312500e-01
-7.421097e+00 3.953206e+01 -1.139219e+02 1.045312e+02 3.475367e-05 1.655014e-02 -4.023438e-01 5.507812e-01
-7.574739e+00 4.045479e+01 -1.181406e+02 1.085859e+02 -3.372027e-05 1.724283e-02 -4.492188e-01 5.820312e-01
-7.712713e+00 4.138575e+01 -1.197383e+02 1.101094e+02 -5.301789e-05 1.769857e-02 -4.570312e-01 5.937500e-01
-7.805443e+00 4.231949e+01 -1.239570e+02 1.141641e+02 2.516103e-05 1.757879e-02 -4.843750e-01 6.093750e-01
-7.939492e+00 4.322613e+01 -1.265781e+02 1.166953e+02 2.029956e-04 1.948567e-02 -3.476562e-01 6.875000e-01
-8.091974e+00 4.411619e+01 -1.280000e+02 1.187227e+02 8.175088e-05 1.803978e-02 -4.531250e-01 6.914062e-01
-8.190347e+00 4.500856e+01 -1.280000e+02 1.212266e+02 5.897117e-05 1.683585e-02 -2.968750e-01 6.640625e-01
-8.261187e+00 4.590563e+01 -1.280000e+02 1.243008e+02 -5.027713e-05 1.676791e-02 -4.023438e-01 6.093750e-01
-8.328017e+00 4.679084e+01 -1.280000e+02 1.263281e+02 -5.796023e-05 1.667932e-02 -3.593750e-01 5.859375e-01
-8.449067e+00 4.766399e+01 -1.280000e+02 1.279961e+02 -6.647454e-05 1.643801e-02 -2.734375e-01 6.523438e-01
-8.590082e+00 4.853980e+01 -1.280000e+02 1.279961e+02 -4.937852e-05 1.583263e-02 -2.421875e-01 4.921875e-01
-8.733240e+00 4.941829e+01 -1.280000e+02 1.279961e+02 8.523299e-05 1.628025e-02 -2.421875e-01 4.960938e-01
-8.930986e+00 5.029969e+01 -1.280000e+02 1.279961e+02 9.588150e-05 1.750404e-02 -3.007812e-01 7.656250e-01
-9.200884e+00 5.117057e+01 -1.280000e+02 1.279961e+02 1.182119e-04 1.755415e-02 -2.968750e-01 8.398438e-01
-9.451329e+00 5.205405e+01 -1.280000e+02 1.279961e+02 1.629177e-04 1.788189e-02 -3.125000e-01 8.476562e-01
-9.718414e+00 5.291518e+01 -1.280000e+02 1.279961e+02 1.124384e-04 1.711079e-02 -3.242188e-01 8.476562e-01
-1.002757e+01 5.374599e+01 -1.280000e+02 1.279961e+02 1.754533e-05 1.720264e-02 -3.203125e-01 8.007812e-01
-1.027974e+01 5.457623e+01 -1.280000e+02 1.279961e+02 2.574513e-05 2.104241e-02 -3.945312e-01 1.429688e+00
-1.046296e+01 5.542231e+01 -1.280000e+02 1.279961e+02 -4.484055e-05 1.814807e-02 -2.382812e-01 8.671875e-01
-1.060811e+01 5.626547e+01 -1.280000e+02 1.279961e+02 -2.394342e-04 1.906802e-02 -3.593750e-01 8.164062e-01
-1.072967e+01 5.708921e+01 -1.280000e+02 1.279961e+02 -1.401380e-04 1.791803e-02 -3.085938e-01 8.164062e-01
-1.085336e+01 5.786539e+01 -1.280000e+02 1.279961e+02 1.475964e-05 1.979206e-02 -3.046875e-01 9.023438e-01
-1.096260e+01 5.863144e+01 -1.280000e+02 1.279961e+02 -4.441371e-05 1.968470e-02 -3.125000e-01 8.789062e-01
-1.101828e+01 5.939998e+01 -1.280000e+02 1.279961e+02 -4.340278e-05 1.881381e-02 -3.164062e-01 9.570312e-01
-1.104962e+01 6.014585e+01 -1.280000e+02 1.279961e+02 -2.248767e-05 1.788281e-02 -2.421875e-01 7.539062e-01
-1.108165e+01 6.086653e+01 -1.280000e+02 1.279961e+02 -2.576759e-05 1.791660e-02 -3.515625e-01 7.617188e-01
-1.110756e+01 6.156095e+01 -1.280000e+02 1.279961e+02 8.851291e-06 1.803616e-02 -3.593750e-01 7.695312e-01
-1.114255e+01 6.224608e+01 -1.280000e+02 1.279961e+02 7.074293e-05 1.872386e-02 -3.671875e-01 7.929688e-01
-1.116057e+01 6.290332e+01 -1.280000e+02 1.279961e+02 1.416431e-04 2.100860e-02 -6.679688e-01 8.359375e-01
-1.116106e+01 6.351686e+01 -1.280000e+02 1.279961e+02 1.048676e-04 2.049969e-02 -4.023438e-01 8.320312e-01
-1.120430e+01 6.410667e+01 -1.280000e+02 1.279961e+02 2.954175e-05 2.053799e-02 -5.117188e-01 8.398438e-01
-1.130301e+01 6.468518e+01 -1.280000e+02 1.279961e+02 4.715447e-05 2.138115e-02 -4.882812e-01 8.476562e-01
-1.145149e+01 6.525781e+01 -1.280000e+02 1.279961e+02 5.184970e-05 2.221728e-02 -7.734375e-01 1.125000e+00
-1.158584e+01 6.580739e+01 -1.280000e+02 1.279961e+02 8.240238e-05 2.288988e-02 -7.421875e-01 1.128906e+00
-1.168858e+01 6.632916e+01 -1.280000e+02 1.279961e+02 3.214771e-05 2.115530e-02 -8.437500e-01 1.132812e+00
-1.176179e+01 6.684607e+01 -1.280000e+02 1.279961e+02 3.421451e-05 2.152200e-02 -8.789062e-01 1.179688e+00
-1.177981e+01 6.732707e+01 -1.280000e+02 1.279961e+02 6.995665e-05 2.194451e-02 -7.304688e-01 1.144531e+00
-1.175331e+01 6.777811e+01 -1.280000e+02 1.279961e+02 1.331962e-04 2.324129e-02 -7.656250e-01 1.269531e+00
-1.175911e+01 6.817822e+01 -1.280000e+02 1.279961e+02 1.026211e-04 2.484219e-02 -8.007812e-01 1.246094e+00
-1.176947e+01 6.856193e+01 -1.280000e+02 1.279961e+02 5.575864e-05 2.184841e-02 -5.351562e-01 1.242188e+00
-1.178122e+01 6.893174e+01 -1.280000e+02 1.279961e+02 1.143704e-04 2.288615e-02 -5.312500e-01 1.234375e+00
-1.180036e+01 6.927118e+01 -1.280000e+02 1.279961e+02 7.400039e-05 2.181269e-02 -5.234375e-01 8.359375e-01
-1.183484e+01 6.957152e+01 -1.280000e+02 1.279961e+02 5.360198e-05 2.161766e-02 -5.078125e-01 8.437500e-01
-1.187121e+01 6.986715e+01 -1.280000e+02 1.279961e+02 7.105745e-05 2.215191e-02 -4.414062e-01 1.281250e+00
-1.188803e+01 7.014354e+01 -1.280000e+02 1.279961e+02 6.456500e-05 2.177553e-02 -4.375000e-01 8.710938e-01
-1.190922e+01 7.040575e+01 -1.280000e+02 1.279961e+02 4.151570e-05 2.243738e-02 -4.218750e-01 1.296875e+00
-1.192781e+01 7.066418e+01 -1.280000e+02 1.279961e+02 6.346421e-05 2.351664e-02 -4.375000e-01 1.312500e+00
-1.192269e+01 7.089803e+01 -1.280000e+02 1.279961e+02 5.011987e-05 2.461202e-02 -4.570312e-01 1.347656e+00
-1.191208e+01 7.112238e+01 -1.280000e+02 1.279961e+02 -2.743002e-05 3.010499e-02 -5.156250e-01 1.386719e+00
-1.188381e+01 7.134303e+01 -1.280000e+02 1.279961e+02 4.479562e-05 3.144802e-02 -5.195312e-01 1.445312e+00
-1.185819e+01 7.155876e+01 -1.280000e+02 1.279961e+02 5.665725e-05 3.192583e-02 -6.835938e-01 1.472656e+00
-1.181855e+01 7.176437e+01 -1.280000e+02 1.279961e+02 7.218071e-05 3.152383e-02 -3.945312e-01 1.535156e+00
-1.179978e+01 7.195771e+01 -1.280000e+02 1.279961e+02 2.036471e-04 3.365682e-02 -4.101562e-01 1.843750e+00
-1.179224e+01 7.214188e+01 -1.280000e+02 1.279961e+02 2.334584e-04 3.429090e-02 -4.296875e-01 1.898438e+00
-1.179979e+01 7.231702e+01 -1.280000e+02 1.279961e+02 3.663850e-04 3.477047e-02 -4.882812e-01 1.917969e+00
-1.182091e+01 7.248152e+01 -1.280000e+02 1.279961e+02 2.104091e-04 2.901836e-02 -3.789062e-01 1.722656e+00
-1.183257e+01 7.264113e+01 -1.280000e+02 1.279961e+02 -3.906699e-05 1.899329e-02 -3.945312e-01 7.929688e-01
-1.185408e+01 7.279281e+01 -1.280000e+02 1.279961e+02 -6.184671e-05 1.911135e-02 -3.984375e-01 8.007812e-01
-1.187126e+01 7.293981e+01 -1.280000e+02 1.279961e+02 3.446163e-05 1.952657e-02 -3.554688e-01 8.476562e-01
-1.186376e+01 7.309680e+01 -1.280000e+02 1.279961e+02 6.371132e-05 1.997434e-02 -3.437500e-01 8.593750e-01
-1.186648e+01 7.324502e+01 -1.280000e+02 1.279961e+02 1.835407e-05 2.108584e-02 -7.187500e-01 8.750000e-01
-1.186832e+01 7.338279e+01 -1.280000e+02 1.279961e+02 1.025761e-04 2.104269e-02 -5.117188e-01 8.789062e-01
-1.188787e+01 7.351669e+01 -1.280000e+02 1.279961e+02 1.427664e-04 2.235344e-02 -4.726562e-01 8.945312e-01
-1.190588e+01 7.365017e+01 -1.280000e+02 1.279961e+02 1.683543e-04 2.238349e-02 -4.414062e-01 9.140625e-01
-1.191216e+01 7.378543e+01 -1.280000e+02 1.279961e+02 1.439346e-04 2.245840e-02 -4.335938e-01 9.218750e-01
-1.194772e+01 7.391769e+01 -1.280000e+02 1.279961e+02 2.547554e-05 2.214750e-02 -4.257812e-01 9.218750e-01
-1.198829e+01 7.405119e+01 -1.280000e+02 1.279961e+02 -9.952086e-06 2.164219e-02 -3.828125e-01 9.257812e-01
-1.205014e+01 7.417381e+01 -1.280000e+02 1.279961e+02 -2.963161e-05 2.231759e-02 -3.828125e-01 9.218750e-01
-1.210755e+01 7.429756e+01 -1.280000e+02 1.279961e+02 1.069344e-05 2.191159e-02 -3.593750e-01 9.179688e-01
-1.212923e+01 7.443125e+01 -1.280000e+02 1.279961e+02 7.561788e-05 2.208199e-02 -3.593750e-01 9.257812e-01
-1.215238e+01 7.455479e+01 -1.280000e+02 1.279961e+02 1.068445e-04 2.260637e-02 -3.593750e-01 9.257812e-01
-1.216710e+01 7.467863e+01 -1.280000e+02 1.279961e+02 1.029131e-04 2.205206e-02 -3.125000e-01 9.140625e-01
-1.219367e+01 7.479273e+01 -1.280000e+02 1.279961e+02 1.016551e-04 2.262948e-02 -3.398438e-01 9.101562e-01
-1.222086e+01 7.489785e+01 -1.280000e+02 1.279961e+02 -2.653141e-05 2.201339e-02 -4.765625e-01 9.140625e-01
-1.222751e+01 7.501508e+01 -1.280000e+02 1.279961e+02 -2.650894e-05 2.206876e-02 -4.765625e-01 9.140625e-01
-1.223862e+01 7.513240e+01 -1.280000e+02 1.279961e+02 -4.430139e-05 2.161058e-02 -4.179688e-01 9.140625e-01
-1.229124e+01 7.524173e+01 -1.280000e+02 1.279961e+02 -1.127753e-05 2.156502e-02 -4.179688e-01 9.140625e-01
-1.233472e+01 7.535864e+01 -1.280000e+02 1.279961e+02 -5.524194e-05 2.205529e-02 -4.882812e-01 9.179688e-01
-1.235512e+01 7.547198e+01 -1.280000e+02 1.279961e+02 2.003896e-05 2.142011e-02 -4.843750e-01 9.179688e-01
-1.236093e+01 7.558593e+01 -1.280000e+02 1.279961e+02 -2.030855e-05 2.121238e-02 -3.281250e-01 9.179688e-01
-1.233868e+01 7.570643e+01 -1.280000e+02 1.279961e+02 2.707057e-05 2.095615e-02 -2.890625e-01 9.179688e-01
-1.232155e+01 7.581832e+01 -1.280000e+02 1.279961e+02 8.810854e-05 2.163954e-02 -3.867188e-01 9.140625e-01
-1.229733e+01 7.591870e+01 -1.280000e+02 1.279961e+02 1.282988e-04 2.177991e-02 -3.046875e-01 9.101562e-01
-1.227279e+01 7.601317e+01 -1.280000e+02 1.279961e+02 9.752146e-05 2.147340e-02 -3.203125e-01 9.062500e-01
-1.228643e+01 7.611057e+01 -1.280000e+02 1.279961e+02 5.414115e-06 2.076670e-02 -3.046875e-01 9.023438e-01
-1.231615e+01 7.620582e+01 -1.280000e+02 1.279961e+02 -1.741053e-05 2.058129e-02 -3.203125e-01 8.828125e-01
-1.236502e+01 7.630961e+01 -1.280000e+02 1.279961e+02 -1.370378e-05 2.120975e-02 -3.007812e-01 8.750000e-01
-1.242165e+01 7.641777e+01 -1.280000e+02 1.279961e+02 -1.063054e-04 2.055955e-02 -3.007812e-01 8.632812e-01
-1.246210e+01 7.653761e+01 -1.280000e+02 1.279961e+02 -7.528090e-05 2.045866e-02 -4.648438e-01 8.554688e-01
-1.251164e+01 7.664298e+01 -1.280000e+02 1.279961e+02 -6.860874e-05 2.058335e-02 -4.648438e-01 8.515625e-01
-1.255883e+01 7.675136e+01 -1.280000e+02 1.279961e+02 -7.384313e-05 1.986849e-02 -3.398438e-01 8.515625e-01
-1.260039e+01 7.685664e+01 -1.280000e+02 1.279961e+02 -4.526739e-05 1.966337e-02 -3.398438e-01 8.671875e-01
-1.261515e+01 7.696738e+01 -1.280000e+02 1.279961e+02 -2.862067e-05 1.975686e-02 -3.085938e-01 8.867188e-01
-1.260933e+01 7.707050e+01 -1.280000e+02 1.279961e+02 1.525387e-05 2.004185e-02 -2.773438e-01 8.906250e-01
-1.261354e+01 7.717308e+01 -1.280000e+02 1.279961e+02 2.262246e-05 2.023825e-02 -3.046875e-01 8.984375e-01
-1.261214e+01 7.728049e+01 -1.280000e+02 1.279961e+02 3.547256e-05 2.072210e-02 -3.242188e-01 9.140625e-01
-1.262666e+01 7.737323e+01 -1.280000e+02 1.279961e+02 1.923022e-05 2.035249e-02 -3.789062e-01 9.218750e-01
-1.263178e+01 7.748189e+01 -1.280000e+02 1.279961e+02 9.776858e-05 2.047354e-02 -3.164062e-01 9.257812e-01
-1.262679e+01 7.758687e+01 -1.280000e+02 1.279961e+02 1.610531e-04 2.113038e-02 -3.906250e-01 9.218750e-01
-1.264019e+01 7.768772e+01 -1.280000e+02 1.279961e+02 1.064177e-04 2.035053e-02 -3.789062e-01 9.179688e-01
-1.263000e+01 7.778663e+01 -1.280000e+02 1.279961e+02 9.255665e-05 2.034615e-02 -4.531250e-01 9.101562e-01
-1.261613e+01 7.788118e+01 -1.280000e+02 1.279961e+02 1.389473e-04 2.046595e-02 -5.039062e-01 9.062500e-01
-1.263024e+01 7.798868e+01 -1.280000e+02 1.279961e+02 1.491465e-04 2.004284e-02 -3.398438e-01 9.062500e-01
-1.267897e+01 7.807184e+01 -1.280000e+02 1.279961e+02 1.184366e-04 2.072916e-02 -6.250000e-01 9.101562e-01
-1.273054e+01 7.815607e+01 -1.280000e+02 1.279961e+02 7.802166e-05 2.050754e-02 -3.789062e-01 9.062500e-01
-1.275935e+01 7.824895e+01 -1.280000e+02 1.279961e+02 1.180322e-04 2.115545e-02 -3.281250e-01 9.101562e-01
-1.279350e+01 7.834777e+01 -1.280000e+02 1.279961e+02 -8.552504e-05 2.014522e-02 -2.929688e-01 8.515625e-01
-1.280419e+01 7.843458e+01 -1.280000e+02 1.279961e+02 -2.305604e-04 2.025209e-02 -3.632812e-01 7.539062e-01
-1.277829e+01 7.853864e+01 -1.280000e+02 1.279961e+02 -1.388574e-04 2.015193e-02 -3.671875e-01 7.656250e-01
-1.277914e+01 7.864350e+01 -1.280000e+02 1.279961e+02 -1.176503e-04 1.950367e-02 -3.476562e-01 7.695312e-01
-1.278859e+01 7.875624e+01 -1.280000e+02 1.279961e+02 -4.028011e-05 2.040704e-02 -3.945312e-01 7.773438e-01
-1.278396e+01 7.887126e+01 -1.280000e+02 1.279961e+02 5.308528e-05 2.072415e-02 -4.023438e-01 9.140625e-01
-1.282242e+01 7.895400e+01 -1.280000e+02 1.279961e+02 2.103867e-04 2.175478e-02 -3.945312e-01 9.570312e-01
-1.288809e+01 7.903399e+01 -1.280000e+02 1.279961e+02 1.368131e-04 2.248259e-02 -3.945312e-01 9.570312e-01
-1.294132e+01 7.912821e+01 -1.280000e+02 1.279961e+02 5.211928e-06 2.229598e-02 -3.789062e-01 9.257812e-01
-1.297485e+01 7.921230e+01 -1.280000e+02 1.279961e+02 -4.344771e-05 2.133797e-02 -4.843750e-01 7.968750e-01
-1.300744e+01 7.929790e+01 -1.280000e+02 1.279961e+02 2.942942e-06 2.072890e-02 -4.843750e-01 7.929688e-01
-1.306886e+01 7.935652e+01 -1.280000e+02 1.279961e+02 -1.331737e-04 2.022051e-02 -4.804688e-01 7.890625e-01
-1.311540e+01 7.941359e+01 -1.280000e+02 1.279961e+02 -1.086867e-04 1.970261e-02 -2.773438e-01 7.890625e-01
-1.315183e+01 7.946444e+01 -1.280000e+02 1.279961e+02 -1.036769e-04 1.970029e-02 -2.656250e-01 7.890625e-01
-1.317795e+01 7.951909e+01 -1.280000e+02 1.279961e+02 -8.332345e-05 1.986817e-02 -2.890625e-01 7.929688e-01
-1.319193e+01 7.957380e+01 -1.280000e+02 1.279961e+02 -3.396739e-05 2.008512e-02 -3.828125e-01 7.890625e-01
-1.319053e+01 7.963368e+01 -1.280000e+02 1.279961e+02 4.755884e-05 2.008103e-02 -2.968750e-01 7.890625e-01
-1.321989e+01 7.968321e+01 -1.280000e+02 1.279961e+02 5.641013e-05 2.002545e-02 -2.343750e-01 7.890625e-01
-1.327204e+01 7.971995e+01 -1.280000e+02 1.279961e+02 4.785089e-05 2.026368e-02 -3.789062e-01 7.929688e-01
-1.332571e+01 7.976227e+01 -1.280000e+02 1.279961e+02 2.338628e-05 2.001506e-02 -3.789062e-01 7.929688e-01
-1.337094e+01 7.982026e+01 -1.280000e+02 1.279961e+02 6.961967e-05 2.010520e-02 -2.226562e-01 7.890625e-01
-1.342367e+01 7.987265e+01 -1.280000e+02 1.279961e+02 3.821332e-05 2.013641e-02 -3.437500e-01 7.890625e-01
-1.348934e+01 7.991862e+01 -1.280000e+02 1.279961e+02 -5.670218e-05 1.975042e-02 -2.656250e-01 7.851562e-01
-1.358104e+01 7.995972e+01 -1.280000e+02 1.279961e+02 -7.781947e-05 2.030301e-02 -3.710938e-01 7.773438e-01
-1.369213e+01 8.001020e+01 -1.280000e+02 1.279961e+02 -1.113825e-04 1.979046e-02 -3.710938e-01 7.734375e-01
-1.380878e+01 8.006151e+01 -1.280000e+02 1.279961e+02 -1.252435e-04 1.963836e-02 -2.929688e-01 7.734375e-01
-1.388820e+01 8.011756e+01 -1.280000e+02 1.279961e+02 -1.239630e-04 2.003614e-02 -3.710938e-01 7.734375e-01
-1.394768e+01 8.015114e+01 -1.280000e+02 1.279961e+02 -1.293547e-04 1.953724e-02 -3.242188e-01 7.734375e-01
-1.400995e+01 8.020120e+01 -1.280000e+02 1.279961e+02 -1.568521e-04 1.965589e-02 -3.281250e-01 7.773438e-01
-1.406893e+01 8.024400e+01 -1.280000e+02 1.279961e+02 -8.460397e-05 2.031668e-02 -4.531250e-01 7.851562e-01
-1.411245e+01 8.029007e+01 -1.280000e+02 1.279961e+02 -7.523597e-05 2.088081e-02 -4.960938e-01 7.929688e-01
-1.415460e+01 8.034106e+01 -1.280000e+02 1.279961e+02 -2.682346e-05 2.027845e-02 -4.531250e-01 7.929688e-01
-1.420556e+01 8.039486e+01 -1.280000e+02 1.279961e+02 -1.482704e-06 2.001436e-02 -3.554688e-01 7.929688e-01
-1.426642e+01 8.044083e+01 -1.280000e+02 1.279961e+02 -3.688787e-05 2.019070e-02 -3.281250e-01 7.929688e-01
-1.432548e+01 8.048734e+01 -1.280000e+02 1.279961e+02 -5.654492e-05 2.009016e-02 -3.046875e-01 7.929688e-01
-1.435986e+01 8.054354e+01 -1.280000e+02 1.279961e+02 -3.673061e-05 2.059773e-02 -3.750000e-01 7.890625e-01
-1.437310e+01 8.060138e+01 -1.280000e+02 1.279961e+02 -1.025537e-04 1.994357e-02 -3.476562e-01 7.890625e-01
-1.438381e+01 8.064515e+01 -1.280000e+02 1.279961e+02 -4.443618e-05 1.982895e-02 -2.773438e-01 7.851562e-01
-1.440178e+01 8.067747e+01 -1.280000e+02 1.279961e+02 -1.383857e-05 1.934526e-02 -2.500000e-01 7.812500e-01
-1.442710e+01 8.071033e+01 -1.280000e+02 1.279961e+02 -2.985626e-05 1.966517e-02 -3.320312e-01 7.773438e-01
-1.444859e+01 8.074845e+01 -1.280000e+02 1.279961e+02 -4.901908e-05 1.968190e-02 -2.460938e-01 7.773438e-01
-1.446849e+01 8.078939e+01 -1.280000e+02 1.279961e+02 -9.098408e-05 1.965649e-02 -3.398438e-01 7.734375e-01
-1.449448e+01 8.082928e+01 -1.280000e+02 1.279961e+02 -8.556997e-05 1.936830e-02 -2.539062e-01 7.734375e-01
-1.451057e+01 8.086504e+01 -1.280000e+02 1.279961e+02 -9.010794e-05 1.964229e-02 -2.539062e-01 7.695312e-01
-1.451108e+01 8.091045e+01 -1.280000e+02 1.279961e+02 -7.051828e-05 1.922921e-02 -2.460938e-01 7.656250e-01
-1.447436e+01 8.095577e+01 -1.280000e+02 1.279961e+02 -5.324254e-05 1.934838e-02 -3.437500e-01 7.695312e-01
-1.442183e+01 8.100102e+01 -1.280000e+02 1.279961e+02 1.442266e-05 1.884385e-02 -2.421875e-01 7.695312e-01
-1.439373e+01 8.104578e+01 -1.280000e+02 1.279961e+02 3.187813e-05 1.903655e-02 -2.500000e-01 7.734375e-01
-1.439369e+01 8.107299e+01 -1.280000e+02 1.279961e+02 3.560735e-05 1.967255e-02 -2.500000e-01 7.812500e-01
-1.440056e+01 8.110317e+01 -1.280000e+02 1.279961e+02 5.548906e-05 1.958505e-02 -2.539062e-01 7.851562e-01
-1.442533e+01 8.113989e+01 -1.280000e+02 1.279961e+02 2.037594e-05 2.010936e-02 -3.359375e-01 7.851562e-01
-1.443352e+01 8.117955e+01 -1.280000e+02 1.279961e+02 3.556242e-05 2.012699e-02 -3.398438e-01 7.851562e-01
-1.443993e+01 8.121737e+01 -1.280000e+02 1.279961e+02 2.949682e-05 1.994117e-02 -2.539062e-01 7.890625e-01
-1.446194e+01 8.126237e+01 -1.280000e+02 1.279961e+02 4.946838e-05 1.953428e-02 -2.539062e-01 7.851562e-01
-1.448963e+01 8.130950e+01 -1.280000e+02 1.279961e+02 1.008463e-04 1.959432e-02 -2.929688e-01 7.851562e-01
-1.452022e+01 8.135868e+01 -1.280000e+02 1.279961e+02 3.401232e-05 1.907763e-02 -2.460938e-01 7.812500e-01
-1.456878e+01 8.140144e+01 -1.280000e+02 1.279961e+02 5.652246e-05 1.919042e-02 -2.421875e-01 7.656250e-01
-1.462504e+01 8.143953e+01 -1.280000e+02 1.279961e+02 4.093161e-05 1.900209e-02 -2.382812e-01 7.617188e-01
-1.468807e+01 8.147707e+01 -1.280000e+02 1.279961e+02 -7.166401e-06 1.856381e-02 -2.382812e-01 7.617188e-01
-1.474838e+01 8.150790e+01 -1.280000e+02 1.279961e+02 6.874353e-06 1.911685e-02 -3.632812e-01 7.578125e-01
-1.480492e+01 8.155126e+01 -1.280000e+02 1.279961e+02 -2.801411e-05 1.931292e-02 -3.281250e-01 7.617188e-01
-1.485900e+01 8.158900e+01 -1.280000e+02 1.279961e+02 -1.666918e-05 2.044803e-02 -3.828125e-01 7.617188e-01
-1.489180e+01 8.163202e+01 -1.280000e+02 1.279961e+02 -4.998508e-05 2.069448e-02 -3.945312e-01 7.617188e-01
-1.492432e+01 8.166835e+01 -1.280000e+02 1.279961e+02 -7.557295e-05 2.084423e-02 -3.945312e-01 7.656250e-01
-1.495665e+01 8.170567e+01 -1.280000e+02 1.279961e+02 -7.076540e-05 2.064832e-02 -3.945312e-01 7.656250e-01
-1.499292e+01 8.173146e+01 -1.280000e+02 1.279961e+02 -3.201292e-05 2.049239e-02 -3.125000e-01 7.656250e-01
-1.502431e+01 8.176024e+01 -1.280000e+02 1.279961e+02 -6.746301e-05 2.023475e-02 -3.593750e-01 7.656250e-01
-1.504460e+01 8.178384e+01 -1.280000e+02 1.279961e+02 -6.054373e-05 2.022673e-02 -3.398438e-01 7.656250e-01
-1.505003e+01 8.180944e+01 -1.280000e+02 1.279961e+02 3.156361e-05 2.001090e-02 -2.460938e-01 7.617188e-01
-1.507560e+01 8.183996e+01 -1.280000e+02 1.279961e+02 4.672763e-06 1.984209e-02 -3.789062e-01 7.578125e-01
-1.510795e+01 8.186294e+01 -1.280000e+02 1.279961e+02 -5.634274e-05 1.945846e-02 -3.789062e-01 7.382812e-01
-1.512649e+01 8.188381e+01 -1.280000e+02 1.279961e+02 -5.742107e-05 1.904580e-02 -2.773438e-01 7.304688e-01
-1.513458e+01 8.190285e+01 -1.280000e+02 1.279961e+02 -6.346421e-05 1.902956e-02 -4.140625e-01 7.304688e-01
-1.515838e+01 8.192952e+01 -1.280000e+02 1.279961e+02 4.448111e-06 1.890259e-02 -6.250000e-01 7.539062e-01
-1.518483e+01 8.195264e+01 -1.280000e+02 1.279961e+02 2.228548e-05 1.923622e-02 -4.492188e-01 7.578125e-01
-1.520495e+01 8.197474e+01 -1.280000e+02 1.279961e+02 4.526739e-05 1.913624e-02 -4.492188e-01 7.617188e-01
-1.524566e+01 8.199003e+01 -1.280000e+02 1.279961e+02 1.790477e-05 1.914982e-02 -4.101562e-01 7.617188e-01
-1.527964e+01 8.200679e+01 -1.280000e+02 1.279961e+02 1.215368e-05 1.951797e-02 -4.101562e-01 7.695312e-01
-1.531261e+01 8.202335e+01 -1.280000e+02 1.279961e+02 4.688488e-05 2.030307e-02 -3.632812e-01 7.773438e-01
-1.534881e+01 8.203931e+01 -1.280000e+02 1.279961e+02 4.612107e-05 2.066300e-02 -3.789062e-01 7.890625e-01
-1.536746e+01 8.205962e+01 -1.280000e+02 1.279961e+02 6.483458e-05 2.105533e-02 -3.789062e-01 7.890625e-01
-1.536062e+01 8.208432e+01 -1.280000e+02 1.279961e+02 2.448707e-06 2.010280e-02 -4.296875e-01 7.812500e-01
-1.534055e+01 8.211045e+01 -1.280000e+02 1.279961e+02 6.177932e-06 1.991742e-02 -4.296875e-01 7.812500e-01
-1.534214e+01 8.213521e+01 -1.280000e+02 1.279961e+02 -5.166997e-06 1.939448e-02 -3.320312e-01 7.812500e-01
-1.534465e+01 8.215747e+01 -1.280000e+02 1.279961e+02 -3.165348e-05 1.888292e-02 -3.476562e-01 7.812500e-01
-1.536144e+01 8.217964e+01 -1.280000e+02 1.279961e+02 -7.143935e-06 1.878776e-02 -3.828125e-01 7.851562e-01
-1.538724e+01 8.220080e+01 -1.280000e+02 1.279961e+02 -1.556839e-05 1.909387e-02 -3.554688e-01 7.929688e-01
