1.279961e+02 8.897000e-01 7.619423e-04 5.768667e-01 -9.960938e-01 9.960938e-01
1.279961e+02 9.890000e-02 -2.239143e-02 5.793495e-01 -2.050781e+00 3.062500e+00
1.279961e+02 1.067000e-01 -2.552669e-02 5.809814e-01 -2.398438e+00 3.230469e+00
1.279961e+02 8.870000e-02 -2.584311e-02 5.818711e-01 -2.703125e+00 3.445312e+00
1.279961e+02 7.590000e-02 -2.612203e-02 5.828718e-01 -3.222656e+00 3.500000e+00
1.279961e+02 8.180000e-02 -2.660641e-02 5.838436e-01 -3.433594e+00 3.339844e+00
