-4.021750e-01 5.471467e+00 -2.373560e+01 2.365649e+01 4.515811e-04 2.578865e-02 -3.867188e-01 3.969727e-01
-1.807222e-01 5.479761e+00 -2.261133e+01 2.770020e+01 4.186062e-04 2.621530e-02 -3.752441e-01 3.474121e-01
-2.911972e-01 5.436071e+00 -2.373560e+01 2.318579e+01 5.093868e-04 2.578404e-02 -3.867188e-01 3.969727e-01
-3.230601e-01 5.479553e+00 -2.301807e+01 2.496680e+01 4.684242e-04 2.587834e-02 -3.867188e-01 3.623047e-01
-4.270760e-01 5.466384e+00 -2.261133e+01 2.770020e+01 3.473211e-04 2.627270e-02 -3.967285e-01 3.969727e-01
-2.665513e-01 5.467270e+00 -2.667847e+01 2.770020e+01 4.191504e-04 2.642158e-02 -3.752441e-01 3.969727e-01
-3.453734e-01 5.379099e+00 -2.301807e+01 2.770020e+01 3.995804e-04 2.697944e-02 -3.867188e-01 3.754883e-01
-3.315991e-01 5.462435e+00 -2.373560e+01 2.770020e+01 4.919780e-04 2.523910e-02 -3.867188e-01 3.969727e-01
-2.386865e-01 5.536753e+00 -2.667847e+01 2.172339e+01 5.324523e-04 2.528888e-02 -3.867188e-01 3.969727e-01
-3.806527e-01 5.492426e+00 -2.204883e+01 2.770020e+01 4.661938e-04 2.421563e-02 -3.867188e-01 3.754883e-01
-4.024688e-01 5.438090e+00 -2.361060e+01 2.770020e+01 4.107255e-04 2.494841e-02 -3.967285e-01 3.754883e-01
-4.682611e-01 5.517226e+00 -2.667847e+01 2.368530e+01 -1.515527e-04 2.403369e-02 -4.282227e-01 3.623047e-01
-6.962587e-01 5.443938e+00 -2.661743e+01 2.790771e+01 -3.171733e-04 2.609905e-02 -4.318848e-01 3.474121e-01
-6.641233e-01 5.571729e+00 -2.363208e+01 2.254736e+01 -3.424976e-04 2.640969e-02 -4.282227e-01 3.623047e-01
-5.332126e-01 5.556213e+00 -2.661743e+01 2.164380e+01 -3.638824e-04 2.516389e-02 -4.282227e-01 3.623047e-01
-4.775580e-01 5.449358e+00 -2.661743e+01 2.368530e+01 -3.737874e-04 2.610721e-02 -4.282227e-01 3.623047e-01
-7.429976e-01 5.556758e+00 -2.363208e+01 2.521289e+01 -3.733659e-04 2.352370e-02 -4.238281e-01 3.474121e-01
-6.937463e-01 5.492803e+00 -2.363208e+01 2.790771e+01 -3.671360e-04 2.516755e-02 -4.282227e-01 3.623047e-01
-5.472682e-01 5.450557e+00 -2.275269e+01 2.368530e+01 -3.210157e-04 2.339882e-02 -4.282227e-01 3.474121e-01
-6.512705e-01 5.539391e+00 -2.359351e+01 2.368530e+01 -2.948581e-04 2.507003e-02 -4.318848e-01 3.623047e-01
-5.082316e-01 5.512422e+00 -2.661743e+01 2.324731e+01 -2.927003e-04 2.545823e-02 -4.350586e-01 3.623047e-01
-6.001600e-01 5.450449e+00 -2.661743e+01 2.324731e+01 -3.313491e-04 2.627882e-02 -4.350586e-01 3.623047e-01
-5.996946e-01 5.509726e+00 -2.363208e+01 2.521289e+01 -3.038719e-04 2.591181e-02 -4.282227e-01 3.623047e-01
-5.972963e-01 5.529001e+00 -2.315552e+01 2.790771e+01 -3.868939e-04 2.649367e-02 -4.350586e-01 3.623047e-01
-5.208723e-01 5.523369e+00 -2.127124e+01 2.790771e+01 -4.534818e-04 2.635560e-02 -4.318848e-01 3.623047e-01
-7.052597e-01 5.514903e+00 -2.363208e+01 2.324731e+01 -3.201250e-04 2.501091e-02 -4.318848e-01 3.623047e-01
-5.148550e-01 5.482904e+00 -2.127124e+01 2.368530e+01 -3.541501e-04 2.441094e-02 -4.350586e-01 3.623047e-01
-5.753143e-01 5.475323e+00 -2.363208e+01 2.521289e+01 -3.878362e-04 2.526937e-02 -4.318848e-01 3.474121e-01
-6.005968e-01 5.595138e+00 -2.127124e+01 2.790771e+01 -3.635865e-04 2.517671e-02 -4.350586e-01 3.623047e-01
-6.395827e-01 5.553766e+00 -2.315552e+01 2.324731e+01 -4.306233e-04 2.635352e-02 -4.282227e-01 3.623047e-01
-5.459586e-01 5.522920e+00 -2.363208e+01 2.521289e+01 -4.623047e-04 2.748628e-02 -4.282227e-01 3.623047e-01
-5.287583e-01 5.533543e+00 -2.661743e+01 2.790771e+01 -3.419387e-04 2.746269e-02 -4.282227e-01 3.623047e-01
-5.324042e-01 5.508173e+00 -2.315552e+01 2.368530e+01 -2.686067e-04 2.473069e-02 -4.318848e-01 3.623047e-01
-5.777051e-01 5.566315e+00 -2.363208e+01 2.368530e+01 -3.283841e-04 2.739501e-02 -4.318848e-01 3.623047e-01
-5.718685e-01 5.605256e+00 -2.661743e+01 2.790771e+01 -3.949921e-04 2.617506e-02 -4.282227e-01 3.623047e-01
-6.758548e-01 5.604173e+00 -2.363208e+01 2.368530e+01 -3.793563e-04 2.584768e-02 -4.318848e-01 3.623047e-01
-7.439177e-01 5.508708e+00 -2.661743e+01 2.324731e+01 -4.331742e-04 2.521946e-02 -4.318848e-01 3.623047e-01
-5.664293e-01 5.490820e+00 -2.363208e+01 2.368530e+01 -2.850650e-04 2.544839e-02 -4.282227e-01 3.623047e-01
-7.142278e-01 5.535480e+00 -2.315552e+01 2.368530e+01 -3.997694e-04 2.667200e-02 -4.282227e-01 3.623047e-01
-6.287551e-01 5.553156e+00 -2.315552e+01 2.368530e+01 -2.773173e-04 2.563322e-02 -4.350586e-01 3.474121e-01
-6.040728e-01 5.459059e+00 -2.363208e+01 2.521289e+01 -3.431474e-04 2.597268e-02 -4.318848e-01 3.623047e-01
-5.883845e-01 5.493092e+00 -2.359351e+01 2.324731e+01 -3.029945e-04 2.482733e-02 -4.282227e-01 3.623047e-01
-6.096605e-01 5.547702e+00 -2.359351e+01 2.790771e+01 -3.939694e-04 2.633565e-02 -4.318848e-01 3.623047e-01
-6.566532e-01 5.541586e+00 -2.359351e+01 2.790771e+01 -4.731308e-04 2.582839e-02 -4.350586e-01 3.474121e-01
-6.227403e-01 5.498050e+00 -2.363208e+01 2.521289e+01 -3.342214e-04 2.664334e-02 -4.282227e-01 3.623047e-01
-5.980938e-01 5.493646e+00 -2.185718e+01 2.521289e+01 -3.968730e-04 2.644101e-02 -4.350586e-01 3.623047e-01
-6.068583e-01 5.493037e+00 -2.185718e+01 2.790771e+01 -3.308250e-04 2.630291e-02 -4.282227e-01 3.623047e-01
-6.497164e-01 5.479760e+00 -2.363208e+01 2.172192e+01 -3.087110e-04 2.636798e-02 -4.282227e-01 3.623047e-01
-5.824189e-01 5.590306e+00 -2.363208e+01 2.790771e+01 -3.038081e-04 2.649627e-02 -4.282227e-01 3.623047e-01
-5.690154e-01 5.451890e+00 -2.363208e+01 2.368530e+01 -3.110317e-04 2.806652e-02 -4.282227e-01 3.623047e-01
-5.920679e-01 5.510673e+00 -2.363208e+01 2.521289e+01 -3.045099e-04 2.547647e-02 -4.350586e-01 3.623047e-01
-5.757760e-01 5.482302e+00 -2.661743e+01 2.521289e+01 -3.110788e-04 2.651677e-02 -4.350586e-01 3.474121e-01
-5.095453e-01 5.493820e+00 -2.315552e+01 2.521289e+01 -3.791310e-04 2.716218e-02 -4.350586e-01 3.623047e-01
-4.464298e-01 5.488886e+00 -2.661743e+01 2.324731e+01 -3.466154e-04 2.696635e-02 -4.318848e-01 3.623047e-01
-7.227448e-01 5.428481e+00 -2.359351e+01 2.521289e+01 -3.865799e-04 2.568298e-02 -4.318848e-01 3.474121e-01
-6.376179e-01 5.522109e+00 -2.363208e+01 2.242090e+01 -3.684099e-04 2.595692e-02 -4.282227e-01 3.623047e-01
-6.510486e-01 5.457999e+00 -2.103467e+01 2.120557e+01 -4.519929e-04 2.659206e-02 -4.282227e-01 3.623047e-01
-5.926396e-01 5.470114e+00 -2.275269e+01 2.521289e+01 -3.697972e-04 2.494956e-02 -4.350586e-01 3.623047e-01
-5.731812e-01 5.459054e+00 -2.315552e+01 2.324731e+01 -4.161570e-04 2.696952e-02 -4.238281e-01 3.623047e-01
-6.097762e-01 5.526621e+00 -2.359351e+01 2.254736e+01 -3.915201e-04 2.589520e-02 -4.318848e-01 3.623047e-01
-6.173560e-01 5.503796e+00 -2.275269e+01 2.790771e+01 -3.559894e-04 2.783275e-02 -4.318848e-01 3.623047e-01
-7.287200e-01 5.524668e+00 -2.275269e+01 2.324731e+01 -2.845296e-04 2.549734e-02 -4.350586e-01 3.623047e-01
-6.019472e-01 5.501325e+00 -2.359351e+01 2.172192e+01 -3.940960e-04 2.615931e-02 -4.282227e-01 3.308105e-01
-5.518663e-01 5.498748e+00 -2.661743e+01 2.324731e+01 -3.405396e-04 2.649364e-02 -4.318848e-01 3.623047e-01
-6.254618e-01 5.462779e+00 -2.363208e+01 2.164380e+01 -2.653296e-04 2.722034e-02 -4.282227e-01 3.474121e-01
-5.887836e-01 5.541648e+00 -2.185718e+01 2.790771e+01 -2.973142e-04 2.697481e-02 -4.350586e-01 3.623047e-01
-6.842743e-01 5.495447e+00 -2.315552e+01 2.174170e+01 -2.767647e-04 2.638475e-02 -4.318848e-01 3.623047e-01
-5.269865e-01 5.555590e+00 -2.359351e+01 2.790771e+01 -3.178353e-04 2.543280e-02 -4.350586e-01 3.623047e-01
-6.820866e-01 5.494190e+00 -2.661743e+01 2.324731e+01 -2.919750e-04 2.507349e-02 -4.350586e-01 3.623047e-01
-5.560850e-01 5.576524e+00 -2.056177e+01 2.790771e+01 -3.655622e-04 2.578895e-02 -4.318848e-01 3.623047e-01
-5.154376e-01 5.488490e+00 -2.359351e+01 2.324731e+01 -3.722602e-04 2.386879e-02 -4.350586e-01 3.474121e-01
-6.157793e-01 5.575433e+00 -2.363208e+01 2.790771e+01 -3.105106e-04 2.587135e-02 -4.282227e-01 3.474121e-01
-5.787460e-01 5.453346e+00 -2.363208e+01 2.368530e+01 -3.643849e-04 2.662467e-02 -4.350586e-01 3.623047e-01
-5.183084e-01 5.403443e+00 -2.090552e+01 2.324731e+01 -2.754338e-04 2.431809e-02 -4.318848e-01 3.623047e-01
-6.518271e-01 5.504283e+00 -2.363208e+01 2.790771e+01 -3.088215e-04 2.660705e-02 -4.282227e-01 3.623047e-01
-5.166487e-01 5.570826e+00 -2.661743e+01 2.790771e+01 -2.742722e-04 2.497629e-02 -4.350586e-01 3.474121e-01
-5.686249e-01 5.514628e+00 -2.217114e+01 2.790771e+01 -3.599369e-04 2.489768e-02 -4.318848e-01 3.474121e-01
-7.102460e-01 5.418175e+00 -2.275269e+01 2.790771e+01 -2.469251e-04 2.540970e-02 -4.318848e-01 3.474121e-01
-5.117120e-01 5.565679e+00 -2.217114e+01 2.790771e+01 -3.296055e-04 2.616718e-02 -4.350586e-01 3.623047e-01
-6.624571e-01 5.491654e+00 -2.217114e+01 2.521289e+01 -4.353736e-04 2.748458e-02 -4.318848e-01 3.474121e-01
-6.781732e-01 5.427840e+00 -2.359351e+01 1.978125e+01 -3.447153e-04 2.580924e-02 -4.350586e-01 3.623047e-01
-5.314877e-01 5.446647e+00 -2.359351e+01 2.242090e+01 -2.954700e-04 2.734783e-02 -4.350586e-01 3.623047e-01
-7.586091e-01 5.516348e+00 -2.661743e+01 2.324731e+01 -4.956786e-04 2.650333e-02 -4.282227e-01 3.474121e-01
-5.304153e-01 5.507078e+00 -2.661743e+01 2.368530e+01 -2.652457e-04 2.453252e-02 -4.350586e-01 3.623047e-01
-7.075026e-01 5.619073e+00 -2.315552e+01 2.242090e+01 -3.229679e-04 2.674199e-02 -4.318848e-01 3.623047e-01
-6.521656e-01 5.530899e+00 -2.661743e+01 2.368530e+01 -3.743954e-04 2.527549e-02 -4.318848e-01 3.623047e-01
-5.669209e-01 5.530895e+00 -2.359351e+01 2.790771e+01 -3.702546e-04 2.537024e-02 -4.350586e-01 3.474121e-01
-6.000318e-01 5.583646e+00 -2.315552e+01 2.254736e+01 -3.867134e-04 2.567853e-02 -4.282227e-01 3.623047e-01
-5.839448e-01 5.469991e+00 -2.661743e+01 2.521289e+01 -4.531461e-04 2.706005e-02 -4.318848e-01 3.623047e-01
-6.551755e-01 5.512310e+00 -2.661743e+01 2.254736e+01 -3.899920e-04 2.719647e-02 -4.350586e-01 3.474121e-01
-5.915526e-01 5.504231e+00 -2.661743e+01 2.172192e+01 -3.712032e-04 2.491699e-02 -4.318848e-01 3.474121e-01
-6.747097e-01 5.541979e+00 -2.661743e+01 2.790771e+01 -2.875339e-04 2.608538e-02 -4.282227e-01 3.623047e-01
-6.809867e-01 5.429750e+00 -2.363208e+01 2.790771e+01 -3.694292e-04 2.511583e-02 -4.282227e-01 3.474121e-01
-5.225801e-01 5.483394e+00 -1.933887e+01 2.790771e+01 -3.213087e-04 2.641468e-02 -4.350586e-01 3.474121e-01
-5.467737e-01 5.508955e+00 -2.315552e+01 2.368530e+01 -3.691715e-04 2.575015e-02 -4.350586e-01 3.623047e-01
-6.583245e-01 5.530062e+00 -2.359351e+01 2.521289e+01 -3.109090e-04 2.599737e-02 -4.350586e-01 3.623047e-01
-6.350519e-01 5.485315e+00 -2.661743e+01 2.026855e+01 -3.462817e-04 2.493032e-02 -4.282227e-01 3.623047e-01
-5.994649e-01 5.445045e+00 -2.315552e+01 2.790771e+01 -3.394340e-04 2.603313e-02 -4.282227e-01 3.623047e-01
-5.055586e-01 5.494010e+00 -2.661743e+01 2.790771e+01 -4.116564e-04 2.677308e-02 -4.350586e-01 3.623047e-01
-6.172619e-01 5.521311e+00 -2.275269e+01 2.324731e+01 -2.939723e-04 2.558469e-02 -4.318848e-01 3.623047e-01
-5.828164e-01 5.534866e+00 -2.185718e+01 2.368530e+01 -3.928166e-04 2.627336e-02 -4.282227e-01 3.623047e-01
-5.424748e-01 5.524755e+00 -2.127124e+01 2.521289e+01 -2.585579e-04 2.399975e-02 -4.318848e-01 3.623047e-01
-6.052238e-01 5.454069e+00 -2.359351e+01 2.172192e+01 -3.427410e-04 2.434065e-02 -4.282227e-01 3.474121e-01
-5.748252e-01 5.487500e+00 -2.661743e+01 2.521289e+01 -3.918705e-04 2.639856e-02 -4.350586e-01 3.474121e-01
-6.577624e-01 5.508537e+00 -2.661743e+01 2.521289e+01 -3.105120e-04 2.646954e-02 -4.350586e-01 3.623047e-01
-4.795601e-01 5.522935e+00 -2.359351e+01 2.172192e+01 -4.006743e-04 2.738194e-02 -4.318848e-01 3.623047e-01
-6.516141e-01 5.574480e+00 -2.103467e+01 2.368530e+01 -2.784243e-04 2.649499e-02 -4.318848e-01 3.623047e-01
-7.002321e-01 5.523797e+00 -2.363208e+01 2.790771e+01 -3.518618e-04 2.360829e-02 -4.238281e-01 3.623047e-01
-6.102253e-01 5.587281e+00 -2.363208e+01 2.521289e+01 -2.903934e-04 2.634915e-02 -4.318848e-01 3.623047e-01
-6.024394e-01 5.508096e+00 -2.275269e+01 2.521289e+01 -3.348024e-04 2.391399e-02 -4.318848e-01 3.623047e-01
-5.369520e-01 5.505904e+00 -2.363208e+01 2.324731e+01 -4.398595e-04 2.481252e-02 -4.350586e-01 3.474121e-01
-6.560718e-01 5.529291e+00 -2.359351e+01 2.790771e+01 -3.172130e-04 2.680520e-02 -4.350586e-01 3.623047e-01
