-1.727314e+00 8.868226e+00 -4.573546e+01 4.182004e+01 5.780447e-06 2.823910e-03 -1.262285e-01 1.262285e-01
-1.523537e+00 1.010573e+01 -5.755346e+01 4.373603e+01 1.588924e-07 2.094840e-03 -1.262285e-01 1.262284e-01
-1.600269e+00 1.095806e+01 -6.699017e+01 5.243790e+01 3.089718e-08 1.926673e-03 -1.262285e-01 1.262285e-01
-1.575755e+00 1.149686e+01 -7.330178e+01 5.901757e+01 1.382232e-07 1.817801e-03 -1.262285e-01 1.262285e-01
-1.583341e+00 1.214570e+01 -8.026442e+01 6.191224e+01 -3.688674e-08 1.732469e-03 -1.262285e-01 1.262285e-01
-1.557111e+00 1.274574e+01 -8.064710e+01 6.560449e+01 -7.504054e-08 1.680971e-03 -1.302150e-01 1.326923e-01
-1.558762e+00 1.322048e+01 -8.327820e+01 6.833525e+01 8.749413e-08 1.642762e-03 -1.279150e-01 1.456855e-01
-1.617704e+00 1.361514e+01 -8.414833e+01 7.195857e+01 5.252229e-08 1.601912e-03 -1.494585e-01 1.429378e-01
-1.693532e+00 1.397395e+01 -8.474322e+01 7.364406e+01 7.249799e-09 1.579419e-03 -1.586302e-01 1.533215e-01
-1.775790e+00 1.433590e+01 -8.664895e+01 7.755453e+01 -3.372325e-09 1.548764e-03 -1.624945e-01 1.569793e-01
-1.765662e+00 1.456955e+01 -8.859166e+01 8.123163e+01 4.977217e-08 1.544835e-03 -1.731488e-01 1.592259e-01
-1.766801e+00 1.479517e+01 -9.048137e+01 8.368040e+01 3.960270e-08 1.523780e-03 -1.713851e-01 1.654747e-01
-1.800197e+00 1.506762e+01 -9.254403e+01 8.232817e+01 -5.450699e-09 1.506398e-03 -1.823474e-01 1.755576e-01
-1.814800e+00 1.528004e+01 -9.343950e+01 8.525418e+01 -7.470648e-08 1.500048e-03 -1.715185e-01 1.692975e-01
-1.809716e+00 1.542175e+01 -9.578638e+01 8.900087e+01 3.050894e-08 1.480962e-03 -1.612602e-01 1.790099e-01
-1.810230e+00 1.568870e+01 -9.547004e+01 8.968977e+01 1.850779e-08 1.469200e-03 -1.749010e-01 1.840820e-01
-1.768072e+00 1.602417e+01 -9.894486e+01 8.955801e+01 1.604911e-08 1.456355e-03 -1.802240e-01 1.791271e-01
-1.736960e+00 1.621041e+01 -1.000701e+02 9.230596e+01 -1.570027e-08 1.452806e-03 -1.965676e-01 1.947917e-01
-1.796795e+00 1.634401e+01 -1.021490e+02 9.522821e+01 -7.366511e-08 1.442608e-03 -1.950636e-01 1.902456e-01
-1.742104e+00 1.658485e+01 -1.026898e+02 9.703272e+01 1.439112e-07 1.427453e-03 -1.941247e-01 1.748482e-01
-1.753453e+00 1.673478e+01 -1.035041e+02 9.557829e+01 -1.503886e-07 1.440832e-03 -1.746392e-01 2.079106e-01
-1.780306e+00 1.694082e+01 -1.054470e+02 9.655206e+01 5.416440e-08 1.404104e-03 -1.663860e-01 2.022449e-01
-1.785688e+00 1.711595e+01 -1.100552e+02 9.816248e+01 -2.367218e-08 1.401707e-03 -1.688173e-01 2.134778e-01
-1.773730e+00 1.735209e+01 -1.096062e+02 1.022301e+02 1.522672e-07 1.399942e-03 -1.854237e-01 2.115556e-01
-1.848299e+00 1.743814e+01 -1.120858e+02 1.012192e+02 -1.207836e-07 1.383672e-03 -1.803661e-01 2.062346e-01
-1.845303e+00 1.769173e+01 -1.132814e+02 1.046078e+02 4.927541e-08 1.377516e-03 -1.915846e-01 2.182109e-01
-1.854455e+00 1.784868e+01 -1.140603e+02 1.050471e+02 5.277452e-08 1.371150e-03 -1.902477e-01 2.026814e-01
-1.877423e+00 1.803731e+01 -1.130230e+02 1.071806e+02 -7.993257e-08 1.356702e-03 -1.825147e-01 2.225268e-01
-1.861973e+00 1.824468e+01 -1.135992e+02 1.085422e+02 -1.184885e-08 1.347338e-03 -1.681078e-01 2.131166e-01
-1.900231e+00 1.838807e+01 -1.185344e+02 1.071717e+02 2.764780e-08 1.349244e-03 -1.844702e-01 2.028686e-01
-1.906930e+00 1.859937e+01 -1.194371e+02 1.106740e+02 -3.860711e-08 1.334489e-03 -1.785445e-01 1.926268e-01
-1.874702e+00 1.882254e+01 -1.197276e+02 1.133724e+02 9.955659e-08 1.331787e-03 -1.873826e-01 2.178188e-01
-1.947947e+00 1.896080e+01 -1.233440e+02 1.128608e+02 -8.609066e-08 1.322259e-03 -1.773935e-01 1.939294e-01
-1.927813e+00 1.919633e+01 -1.219990e+02 1.156221e+02 8.786339e-08 1.309248e-03 -1.956577e-01 2.078828e-01
