2.707159e+04 9.198000e-01 2.626355e-04 5.774584e-01 -9.999274e-01 9.999971e-01
1.986767e+03 1.337000e-01 -2.056393e-03 5.766980e-01 -1.363910e+00 1.311699e+00
1.543490e+03 1.004000e-01 -2.785639e-03 5.759079e-01 -1.384244e+00 1.286465e+00
1.369289e+03 9.160000e-02 -3.014381e-03 5.755023e-01 -1.466769e+00 1.346432e+00
1.246535e+03 8.190000e-02 -3.255050e-03 5.752881e-01 -1.598415e+00 1.582659e+00
1.166307e+03 7.380000e-02 -3.323292e-03 5.751647e-01 -1.736569e+00 1.764176e+00
1.086107e+03 6.930000e-02 -3.394062e-03 5.750805e-01 -1.838280e+00 1.871471e+00
1.024713e+03 6.570000e-02 -3.469553e-03 5.750256e-01 -1.936911e+00 1.967382e+00
1.027164e+03 6.620000e-02 -3.536355e-03 5.749803e-01 -2.016233e+00 2.017497e+00
9.781450e+02 6.060000e-02 -3.503775e-03 5.749459e-01 -2.059280e+00 2.064785e+00
9.325629e+02 6.000000e-02 -3.575137e-03 5.749213e-01 -2.104304e+00 2.112099e+00
8.918465e+02 5.680000e-02 -3.609690e-03 5.748908e-01 -2.112637e+00 2.130561e+00
8.849404e+02 5.630000e-02 -3.643657e-03 5.748744e-01 -2.142497e+00 2.168642e+00
8.740595e+02 5.530000e-02 -3.670518e-03 5.748510e-01 -2.153284e+00 2.181217e+00
8.626973e+02 5.340000e-02 -3.691682e-03 5.748393e-01 -2.168399e+00 2.194182e+00
8.238264e+02 5.350000e-02 -3.717903e-03 5.748222e-01 -2.170518e+00 2.216587e+00
8.110338e+02 5.340000e-02 -3.732540e-03 5.748112e-01 -2.172214e+00 2.223162e+00
8.071384e+02 5.210000e-02 -3.746207e-03 5.748026e-01 -2.181413e+00 2.243147e+00
8.000967e+02 5.200000e-02 -3.756300e-03 5.747962e-01 -2.183205e+00 2.247495e+00
7.749163e+02 5.230000e-02 -3.778849e-03 5.747854e-01 -2.174393e+00 2.261200e+00
7.876960e+02 5.170000e-02 -3.798267e-03 5.747784e-01 -2.152930e+00 2.258623e+00
7.618270e+02 5.020000e-02 -3.792863e-03 5.747850e-01 -2.165452e+00 2.267355e+00
7.354360e+02 4.760000e-02 -3.810456e-03 5.747806e-01 -2.181643e+00 2.276335e+00
7.692640e+02 4.940000e-02 -3.824790e-03 5.747785e-01 -2.180518e+00 2.265256e+00
7.668736e+02 4.840000e-02 -3.811085e-03 5.747798e-01 -2.151152e+00 2.271529e+00
7.347658e+02 4.730000e-02 -3.839797e-03 5.747818e-01 -2.163916e+00 2.270556e+00
7.197247e+02 4.630000e-02 -3.858222e-03 5.747854e-01 -2.150617e+00 2.277821e+00
7.122198e+02 4.560000e-02 -3.922350e-03 5.747883e-01 -2.149334e+00 2.263019e+00
7.472502e+02 4.890000e-02 -3.899740e-03 5.747954e-01 -2.147050e+00 2.262858e+00
7.031790e+02 4.490000e-02 -3.923818e-03 5.748003e-01 -2.142053e+00 2.277032e+00
6.877095e+02 4.560000e-02 -3.933156e-03 5.748071e-01 -2.142110e+00 2.259031e+00
6.985077e+02 4.440000e-02 -3.957073e-03 5.748101e-01 -2.131406e+00 2.268510e+00
6.728070e+02 4.400000e-02 -3.963289e-03 5.748213e-01 -2.104190e+00 2.248528e+00
6.694008e+02 4.330000e-02 -3.956260e-03 5.748274e-01 -2.126399e+00 2.235236e+00
6.617447e+02 4.190000e-02 -4.027324e-03 5.748350e-01 -2.105493e+00 2.235878e+00
6.588918e+02 4.170000e-02 -4.008058e-03 5.748479e-01 -2.102720e+00 2.232003e+00
6.535914e+02 4.270000e-02 -4.020349e-03 5.748617e-01 -2.105707e+00 2.230553e+00
6.478086e+02 4.170000e-02 -4.073382e-03 5.748736e-01 -2.080150e+00 2.223853e+00
6.607291e+02 4.270000e-02 -4.087491e-03 5.748824e-01 -2.097137e+00 2.227630e+00
6.469640e+02 4.130000e-02 -4.087229e-03 5.748927e-01 -2.074466e+00 2.214603e+00
6.423899e+02 4.100000e-02 -4.123323e-03 5.749069e-01 -2.077684e+00 2.209713e+00
6.378238e+02 4.120000e-02 -4.155157e-03 5.749201e-01 -2.055870e+00 2.186287e+00
6.597440e+02 4.140000e-02 -4.168573e-03 5.749358e-01 -2.031422e+00 2.177579e+00
6.491725e+02 4.170000e-02 -4.195673e-03 5.749490e-01 -2.053332e+00 2.178901e+00
6.232932e+02 4.080000e-02 -4.201097e-03 5.749677e-01 -2.033284e+00 2.171534e+00
6.265036e+02 4.000000e-02 -4.238117e-03 5.749852e-01 -2.030850e+00 2.171861e+00
6.229631e+02 4.060000e-02 -4.230603e-03 5.749972e-01 -2.010770e+00 2.154287e+00
6.162752e+02 4.030000e-02 -4.270022e-03 5.750138e-01 -2.004254e+00 2.159021e+00
6.156054e+02 4.020000e-02 -4.263876e-03 5.750326e-01 -2.001229e+00 2.159024e+00
6.067047e+02 4.040000e-02 -4.293987e-03 5.750517e-01 -1.992978e+00 2.161699e+00
6.176293e+02 4.080000e-02 -4.293722e-03 5.750672e-01 -1.990295e+00 2.167224e+00
6.076849e+02 4.010000e-02 -4.356762e-03 5.750858e-01 -1.984834e+00 2.171626e+00
6.094586e+02 3.970000e-02 -4.342342e-03 5.751024e-01 -1.986358e+00 2.174571e+00
6.432553e+02 4.030000e-02 -4.412860e-03 5.751231e-01 -1.979730e+00 2.180456e+00
6.258696e+02 3.920000e-02 -4.399718e-03 5.751429e-01 -1.971763e+00 2.184065e+00
