3.280237e-01 1.303064e+00 -4.015381e+00 5.020996e+00 2.489412e-04 1.295580e-02 -1.035156e-01 1.572266e-01
3.039341e-01 1.316111e+00 -4.019287e+00 5.032959e+00 -7.154466e-05 1.269663e-02 -1.035156e-01 1.127930e-01
3.324608e-01 1.346735e+00 -4.025146e+00 5.037109e+00 6.843463e-06 1.277027e-02 -1.035156e-01 1.088867e-01
3.443801e-01 1.364421e+00 -4.022461e+00 5.058350e+00 3.589659e-05 1.281316e-02 -1.035156e-01 1.088867e-01
3.621990e-01 1.425996e+00 -4.086670e+00 4.944824e+00 2.992730e-04 1.336279e-02 -1.164551e-01 1.254883e-01
2.829398e-01 1.599948e+00 -5.449463e+00 4.821045e+00 -3.519947e-04 1.563122e-02 -1.806641e-01 1.760254e-01
3.027804e-01 1.730271e+00 -5.510498e+00 5.729004e+00 -1.106187e-04 1.700245e-02 -1.918945e-01 1.865234e-01
2.801102e-01 1.711668e+00 -6.018799e+00 5.808105e+00 -1.269003e-05 1.552424e-02 -1.806641e-01 1.806641e-01
2.642736e-01 1.727155e+00 -6.247314e+00 6.178711e+00 3.568036e-05 1.461858e-02 -1.770020e-01 1.701660e-01
2.508313e-01 1.735033e+00 -6.496338e+00 6.456543e+00 7.885708e-05 1.465208e-02 -1.806641e-01 1.838379e-01
2.344013e-01 1.764280e+00 -6.555176e+00 6.520752e+00 -6.425611e-05 1.446950e-02 -1.770020e-01 1.701660e-01
2.259148e-01 1.767354e+00 -6.507080e+00 6.423584e+00 9.252857e-07 1.502654e-02 -1.806641e-01 1.733398e-01
2.207177e-01 1.763820e+00 -6.487793e+00 6.363525e+00 -9.160047e-05 1.492058e-02 -1.806641e-01 1.701660e-01
2.331568e-01 1.760412e+00 -6.458496e+00 6.403564e+00 -1.936220e-05 1.498261e-02 -1.806641e-01 1.733398e-01
2.333457e-01 1.759428e+00 -6.414062e+00 6.321045e+00 -4.887165e-05 1.488423e-02 -1.770020e-01 1.701660e-01
2.365627e-01 1.758968e+00 -6.367676e+00 6.391113e+00 2.099514e-05 1.508621e-02 -1.806641e-01 1.733398e-01
2.395866e-01 1.757797e+00 -6.333984e+00 6.413330e+00 -1.773488e-05 1.489103e-02 -1.806641e-01 1.701660e-01
2.319667e-01 1.760034e+00 -6.220215e+00 6.176758e+00 1.804237e-05 1.505013e-02 -1.806641e-01 1.733398e-01
2.206690e-01 1.772133e+00 -6.235840e+00 6.221924e+00 -7.432333e-05 1.508622e-02 -1.770020e-01 1.733398e-01
2.298384e-01 1.756971e+00 -6.265381e+00 6.266357e+00 1.452516e-05 1.493627e-02 -1.770020e-01 1.701660e-01
2.262772e-01 1.760424e+00 -6.290771e+00 6.316162e+00 4.455693e-05 1.469495e-02 -1.770020e-01 1.701660e-01
2.187590e-01 1.772319e+00 -6.305176e+00 6.305664e+00 -2.442389e-05 1.475245e-02 -1.806641e-01 1.701660e-01
2.317578e-01 1.765029e+00 -6.265625e+00 6.351807e+00 4.345052e-05 1.476237e-02 -1.770020e-01 1.701660e-01
2.345488e-01 1.783776e+00 -6.338135e+00 6.356689e+00 1.002510e-05 1.445935e-02 -1.726074e-01 1.701660e-01
2.091627e-01 1.792283e+00 -6.350830e+00 6.497559e+00 -3.810661e-05 1.487542e-02 -1.770020e-01 1.701660e-01
2.151662e-01 1.793531e+00 -6.356445e+00 6.750244e+00 9.770960e-06 1.527168e-02 -1.770020e-01 1.701660e-01
2.325168e-01 1.807362e+00 -6.412354e+00 6.753906e+00 -7.389929e-05 1.496376e-02 -1.726074e-01 1.701660e-01
2.483675e-01 1.788544e+00 -6.341797e+00 6.630615e+00 4.572512e-05 1.502881e-02 -1.770020e-01 1.662598e-01
2.252228e-01 1.815194e+00 -6.447754e+00 6.674072e+00 -8.880777e-05 1.507546e-02 -1.726074e-01 1.733398e-01
2.199503e-01 1.809710e+00 -6.286133e+00 6.606201e+00 -3.705776e-05 1.515763e-02 -1.770020e-01 1.701660e-01
2.082347e-01 1.834576e+00 -6.286133e+00 6.660156e+00 -9.473156e-05 1.497634e-02 -1.770020e-01 1.733398e-01
2.452883e-01 1.798907e+00 -6.278076e+00 6.574707e+00 1.591842e-04 1.497023e-02 -1.806641e-01 1.701660e-01
2.250884e-01 1.824845e+00 -6.330322e+00 6.555420e+00 -5.183846e-06 1.502350e-02 -1.770020e-01 1.701660e-01
2.150739e-01 1.834803e+00 -6.380371e+00 6.564209e+00 -6.668375e-05 1.497872e-02 -1.770020e-01 1.701660e-01
2.318104e-01 1.816422e+00 -6.364014e+00 6.504639e+00 6.645067e-05 1.493823e-02 -1.806641e-01 1.701660e-01
2.126108e-01 1.836108e+00 -6.412109e+00 6.622314e+00 -7.692508e-05 1.501677e-02 -1.806641e-01 1.733398e-01
2.495218e-01 1.804598e+00 -6.203369e+00 6.401611e+00 1.538951e-04 1.477924e-02 -1.806641e-01 1.701660e-01
2.166044e-01 1.821484e+00 -6.204590e+00 6.347412e+00 -2.822191e-05 1.486131e-02 -1.770020e-01 1.701660e-01
2.592834e-01 1.806537e+00 -6.250977e+00 6.284668e+00 8.221002e-05 1.481329e-02 -1.770020e-01 1.701660e-01
2.407470e-01 1.815843e+00 -6.218018e+00 6.340576e+00 3.595556e-05 1.493304e-02 -1.770020e-01 1.701660e-01
2.381388e-01 1.830683e+00 -6.396484e+00 6.484131e+00 2.515822e-05 1.513879e-02 -1.887207e-01 1.733398e-01
2.384655e-01 1.836730e+00 -6.319092e+00 6.539551e+00 -2.939291e-05 1.512323e-02 -1.770020e-01 1.733398e-01
2.344635e-01 1.850845e+00 -6.357422e+00 6.628906e+00 -8.980185e-05 1.520806e-02 -1.726074e-01 1.733398e-01
1.820102e-01 1.851562e+00 -6.367920e+00 6.807129e+00 -9.439739e-05 1.522771e-02 -1.770020e-01 1.701660e-01
2.099943e-01 1.848982e+00 -6.575195e+00 6.735596e+00 4.642154e-05 1.530941e-02 -1.770020e-01 1.701660e-01
2.184835e-01 1.853582e+00 -6.534912e+00 6.676025e+00 2.484792e-05 1.525255e-02 -1.887207e-01 1.733398e-01
2.298144e-01 1.869566e+00 -6.598877e+00 6.599609e+00 5.002721e-06 1.523429e-02 -1.770020e-01 1.733398e-01
2.289516e-01 1.877547e+00 -6.662109e+00 6.635742e+00 -5.984590e-05 1.521264e-02 -1.770020e-01 1.733398e-01
2.192260e-01 1.875601e+00 -6.580078e+00 6.782715e+00 3.454025e-05 1.533105e-02 -1.770020e-01 1.701660e-01
2.105297e-01 1.885640e+00 -6.710693e+00 6.888428e+00 -3.319936e-05 1.525200e-02 -1.662598e-01 1.701660e-01
2.141322e-01 1.875777e+00 -6.597168e+00 6.855469e+00 -9.059094e-06 1.520094e-02 -1.806641e-01 1.806641e-01
2.096206e-01 1.878491e+00 -6.619385e+00 6.744629e+00 -3.478737e-05 1.552921e-02 -1.806641e-01 1.806641e-01
2.528778e-01 1.863260e+00 -5.998779e+00 6.753662e+00 3.391825e-05 1.587825e-02 -1.806641e-01 1.733398e-01
2.634542e-01 1.883806e+00 -6.048096e+00 7.303955e+00 7.133405e-05 1.580514e-02 -1.838379e-01 1.733398e-01
2.213103e-01 1.974998e+00 -6.707275e+00 7.558105e+00 -8.572161e-05 1.524058e-02 -1.770020e-01 1.701660e-01
2.622164e-01 1.991719e+00 -6.969482e+00 7.618164e+00 1.120087e-04 1.548429e-02 -1.806641e-01 1.733398e-01
2.461012e-01 1.986627e+00 -6.813232e+00 7.477783e+00 8.022887e-05 1.512144e-02 -1.806641e-01 1.733398e-01
2.384012e-01 2.010393e+00 -6.485840e+00 7.057617e+00 -8.532706e-05 1.560708e-02 -1.806641e-01 1.760254e-01
2.646145e-01 1.998469e+00 -6.440430e+00 7.110107e+00 9.172824e-06 1.537361e-02 -1.887207e-01 1.701660e-01
2.534830e-01 2.006635e+00 -6.429443e+00 7.188721e+00 -5.892343e-05 1.526890e-02 -1.887207e-01 1.733398e-01
2.587070e-01 1.994129e+00 -6.487305e+00 7.219482e+00 1.057830e-05 1.519697e-02 -1.806641e-01 1.701660e-01
2.473740e-01 2.006284e+00 -6.463379e+00 7.201660e+00 -9.889605e-05 1.525710e-02 -1.770020e-01 1.701660e-01
2.627728e-01 1.995464e+00 -6.520752e+00 7.340820e+00 3.127157e-05 1.518605e-02 -1.838379e-01 1.733398e-01
2.629075e-01 1.999992e+00 -6.555664e+00 7.327393e+00 4.154940e-05 1.575657e-02 -1.887207e-01 1.733398e-01
2.529952e-01 2.006875e+00 -6.667725e+00 7.323242e+00 -6.155045e-05 1.567373e-02 -1.770020e-01 1.760254e-01
2.596993e-01 2.014136e+00 -6.813477e+00 7.311523e+00 1.998701e-05 1.551184e-02 -1.887207e-01 1.733398e-01
2.449640e-01 2.052246e+00 -6.854248e+00 7.277344e+00 4.168700e-06 1.584742e-02 -1.806641e-01 1.760254e-01
2.215644e-01 2.071832e+00 -6.920898e+00 7.367188e+00 -1.369072e-04 1.553582e-02 -1.850586e-01 1.733398e-01
2.603075e-01 2.059793e+00 -6.876709e+00 7.301758e+00 1.533686e-04 1.594935e-02 -1.838379e-01 1.782227e-01
2.294958e-01 2.080307e+00 -6.946533e+00 7.493896e+00 -7.815645e-05 1.537714e-02 -1.918945e-01 1.733398e-01
2.467416e-01 2.084259e+00 -6.998535e+00 7.524658e+00 -5.270899e-06 1.518338e-02 -1.770020e-01 1.733398e-01
2.308961e-01 2.101995e+00 -7.041748e+00 7.482910e+00 -1.816902e-04 1.536492e-02 -1.806641e-01 1.701660e-01
2.681087e-01 2.084195e+00 -7.000000e+00 7.348145e+00 6.773821e-05 1.546526e-02 -1.770020e-01 1.733398e-01
2.575991e-01 2.092719e+00 -6.966064e+00 7.390381e+00 8.392158e-06 1.544275e-02 -1.726074e-01 1.733398e-01
2.448217e-01 2.107037e+00 -7.096680e+00 7.482666e+00 -3.735823e-05 1.555222e-02 -1.770020e-01 1.733398e-01
2.588949e-01 2.100998e+00 -6.987061e+00 7.542236e+00 1.153336e-04 1.557362e-02 -1.838379e-01 1.828613e-01
2.541233e-01 2.106107e+00 -7.040527e+00 7.615479e+00 4.024642e-05 1.552114e-02 -1.770020e-01 1.738281e-01
2.612623e-01 2.108978e+00 -7.052979e+00 7.578125e+00 6.638188e-05 1.564816e-02 -1.806641e-01 1.735840e-01
2.484833e-01 2.125032e+00 -7.117188e+00 7.574707e+00 -5.248293e-05 1.533428e-02 -1.806641e-01 1.740723e-01
2.426990e-01 2.146298e+00 -7.245117e+00 7.745117e+00 -7.713990e-05 1.555217e-02 -1.806641e-01 1.733398e-01
2.632021e-01 2.126812e+00 -7.164795e+00 7.557861e+00 1.383421e-04 1.593989e-02 -1.838379e-01 1.821289e-01
2.616546e-01 2.146506e+00 -7.252930e+00 7.777588e+00 1.335837e-05 1.559947e-02 -1.806641e-01 1.701660e-01
2.190193e-01 2.170384e+00 -7.261963e+00 8.187256e+00 -6.624428e-06 1.586637e-02 -1.770020e-01 1.860352e-01
1.685355e-01 2.194194e+00 -7.289062e+00 8.154785e+00 -1.627745e-05 1.587456e-02 -1.865234e-01 1.840820e-01
1.963162e-01 2.189155e+00 -7.233887e+00 8.184814e+00 -1.849055e-04 1.591443e-02 -1.838379e-01 1.701660e-01
2.270933e-01 2.173573e+00 -7.236572e+00 7.783691e+00 1.853941e-05 1.603748e-02 -1.770020e-01 1.733398e-01
2.255891e-01 2.188119e+00 -7.231934e+00 7.879639e+00 -1.291806e-04 1.529371e-02 -1.770020e-01 1.733398e-01
2.359274e-01 2.186691e+00 -7.060791e+00 7.911865e+00 -6.828580e-05 1.539669e-02 -1.770020e-01 1.733398e-01
2.597468e-01 2.193524e+00 -7.004395e+00 7.674316e+00 -2.784281e-05 1.578214e-02 -1.806641e-01 1.733398e-01
2.699021e-01 2.212017e+00 -7.004395e+00 7.752441e+00 -5.581200e-06 1.586896e-02 -1.806641e-01 1.806641e-01
2.665498e-01 2.219453e+00 -6.967773e+00 7.752441e+00 2.369377e-05 1.565621e-02 -1.806641e-01 1.801758e-01
2.378046e-01 2.237521e+00 -7.221436e+00 7.794434e+00 -9.448164e-05 1.591907e-02 -1.806641e-01 1.806641e-01
2.263611e-01 2.241030e+00 -7.290283e+00 7.960693e+00 -8.629588e-05 1.558727e-02 -1.770020e-01 1.733398e-01
2.439126e-01 2.232734e+00 -7.291992e+00 7.893066e+00 6.520947e-05 1.561845e-02 -1.770020e-01 1.813965e-01
2.306239e-01 2.256586e+00 -7.463867e+00 8.091309e+00 -8.816330e-05 1.559820e-02 -1.770020e-01 1.733398e-01
2.261688e-01 2.259426e+00 -7.468506e+00 7.990723e+00 -8.833740e-05 1.538890e-02 -1.730957e-01 1.733398e-01
2.332289e-01 2.259840e+00 -7.486328e+00 7.969727e+00 -7.544097e-06 1.548179e-02 -1.770020e-01 1.762695e-01
2.621125e-01 2.277618e+00 -7.476562e+00 8.200439e+00 6.189024e-05 1.561741e-02 -1.760254e-01 1.831055e-01
2.514697e-01 2.278318e+00 -7.416260e+00 8.039062e+00 7.456763e-05 1.523909e-02 -1.770020e-01 1.733398e-01
2.441226e-01 2.297157e+00 -7.387207e+00 8.156494e+00 -7.003247e-05 1.542600e-02 -1.794434e-01 1.760254e-01
2.678781e-01 2.265779e+00 -7.365234e+00 8.047119e+00 1.972585e-04 1.534780e-02 -1.806641e-01 1.823730e-01
2.476390e-01 2.282128e+00 -7.384766e+00 7.855713e+00 4.327360e-05 1.543789e-02 -1.806641e-01 1.813965e-01
2.548770e-01 2.285110e+00 -7.596680e+00 8.117676e+00 1.754111e-05 1.506414e-02 -1.730957e-01 1.733398e-01
2.436474e-01 2.287080e+00 -7.492188e+00 8.056641e+00 -9.922601e-06 1.513020e-02 -1.730957e-01 1.733398e-01
2.194249e-01 2.290751e+00 -7.911865e+00 8.047852e+00 5.461713e-05 1.586885e-02 -1.770020e-01 1.877441e-01
1.613230e-01 2.393333e+00 -7.665039e+00 8.518311e+00 -1.596420e-04 1.568213e-02 -1.782227e-01 1.938477e-01
1.727773e-01 2.419385e+00 -7.580811e+00 8.891357e+00 2.172835e-04 1.669999e-02 -1.882324e-01 2.297363e-01
1.569554e-01 2.440652e+00 -7.649658e+00 8.885742e+00 -9.185882e-05 1.584156e-02 -2.001953e-01 1.838379e-01
1.643733e-01 2.439924e+00 -7.862305e+00 8.810547e+00 -2.483388e-05 1.579185e-02 -1.916504e-01 1.745605e-01
1.783473e-01 2.440099e+00 -7.997070e+00 8.596924e+00 1.504200e-04 1.551407e-02 -1.948242e-01 1.933594e-01
1.341371e-01 2.463669e+00 -8.080811e+00 8.594238e+00 -8.680134e-05 1.576977e-02 -1.887207e-01 2.011719e-01
1.334174e-01 2.471608e+00 -8.198730e+00 8.767822e+00 -7.784755e-05 1.512630e-02 -1.779785e-01 2.082520e-01
1.491072e-01 2.457420e+00 -8.245361e+00 8.914062e+00 3.566351e-05 1.544863e-02 -1.838379e-01 2.084961e-01
1.723112e-01 2.455483e+00 -8.181641e+00 8.781982e+00 1.065791e-04 1.578634e-02 -1.806641e-01 2.080078e-01
1.963248e-01 2.465556e+00 -8.182373e+00 8.666016e+00 1.104600e-04 1.551200e-02 -1.770020e-01 2.058105e-01
1.466082e-01 2.459500e+00 -8.227783e+00 8.588379e+00 -5.465504e-05 1.578638e-02 -1.921387e-01 1.933594e-01
1.633931e-01 2.465262e+00 -8.279541e+00 8.816162e+00 -7.555189e-05 1.558296e-02 -1.760254e-01 1.862793e-01
1.679632e-01 2.466588e+00 -8.204102e+00 8.889893e+00 2.530425e-05 1.615506e-02 -1.899414e-01 2.058105e-01
1.617562e-01 2.468209e+00 -8.223877e+00 8.888672e+00 6.738158e-06 1.567630e-02 -2.087402e-01 2.062988e-01
1.554432e-01 2.491521e+00 -8.214844e+00 9.099609e+00 -1.489457e-04 1.548834e-02 -2.019043e-01 1.760254e-01
1.734846e-01 2.464067e+00 -8.178711e+00 8.891113e+00 9.910245e-05 1.582109e-02 -1.791992e-01 2.070312e-01
1.568272e-01 2.486103e+00 -8.161865e+00 9.039062e+00 -1.153181e-04 1.559003e-02 -1.855469e-01 1.838379e-01
1.686165e-01 2.486025e+00 -8.255371e+00 8.887695e+00 -8.522457e-05 1.589214e-02 -1.833496e-01 1.997070e-01
1.901771e-01 2.462425e+00 -8.082275e+00 8.793701e+00 9.916423e-05 1.585263e-02 -2.028809e-01 2.070312e-01
1.610736e-01 2.487497e+00 -8.183594e+00 8.984131e+00 -9.323903e-05 1.556058e-02 -1.784668e-01 1.894531e-01
1.578100e-01 2.490666e+00 -8.147217e+00 8.999756e+00 -4.454570e-05 1.513629e-02 -1.813965e-01 2.072754e-01
1.466600e-01 2.501287e+00 -8.299561e+00 9.216797e+00 3.598224e-05 1.606641e-02 -1.972656e-01 2.141113e-01
1.480356e-01 2.521254e+00 -8.222656e+00 9.146240e+00 -3.715464e-05 1.570132e-02 -1.857910e-01 2.055664e-01
1.707729e-01 2.519716e+00 -8.301758e+00 9.272949e+00 1.623111e-05 1.534227e-02 -1.826172e-01 1.906738e-01
1.700429e-01 2.522935e+00 -8.386230e+00 9.324951e+00 4.814715e-05 1.542439e-02 -1.826172e-01 2.006836e-01
1.485131e-01 2.543673e+00 -8.541504e+00 9.522217e+00 3.996981e-05 1.591103e-02 -1.997070e-01 2.145996e-01
6.576223e-02 2.679287e+00 -8.854492e+00 9.929688e+00 -3.066599e-04 1.658423e-02 -2.343750e-01 2.006836e-01
2.715747e-01 2.669036e+00 -8.760254e+00 9.892090e+00 3.684406e-04 1.641225e-02 -1.999512e-01 2.119141e-01
2.492611e-01 2.682644e+00 -8.812744e+00 1.009937e+01 1.691883e-04 1.557206e-02 -1.848145e-01 2.087402e-01
1.918887e-01 2.684071e+00 -8.513672e+00 1.007202e+01 -8.531162e-06 1.524114e-02 -1.979980e-01 2.009277e-01
1.808322e-01 2.676962e+00 -8.538818e+00 1.001147e+01 -1.294979e-05 1.513155e-02 -1.982422e-01 1.936035e-01
1.758044e-01 2.662648e+00 -8.629150e+00 9.974121e+00 8.342735e-05 1.569990e-02 -2.229004e-01 2.243652e-01
1.683241e-01 2.664057e+00 -8.626953e+00 9.938232e+00 5.539077e-05 1.534694e-02 -2.080078e-01 2.128906e-01
1.757768e-01 2.669612e+00 -8.675293e+00 9.976807e+00 6.170911e-06 1.543960e-02 -2.099609e-01 1.967773e-01
1.769063e-01 2.677874e+00 -8.650146e+00 1.007300e+01 -4.608035e-05 1.550956e-02 -2.114258e-01 1.945801e-01
1.763475e-01 2.668178e+00 -8.624512e+00 9.896240e+00 7.534409e-05 1.553227e-02 -2.204590e-01 2.092285e-01
1.558647e-01 2.680430e+00 -8.708984e+00 1.015112e+01 -1.851975e-06 1.557784e-02 -2.145996e-01 2.065430e-01
1.427412e-01 2.687192e+00 -8.708984e+00 1.015112e+01 3.655651e-05 1.550472e-02 -2.177734e-01 2.299805e-01
1.374498e-01 2.685838e+00 -8.708496e+00 1.016284e+01 -7.240536e-05 1.587418e-02 -2.077637e-01 2.116699e-01
1.509027e-01 2.679000e+00 -8.720703e+00 1.011279e+01 -4.769504e-05 1.594370e-02 -2.089844e-01 2.080078e-01
1.572621e-01 2.696452e+00 -8.633789e+00 1.024487e+01 4.994577e-05 1.582575e-02 -2.248535e-01 2.324219e-01
1.350516e-01 2.698073e+00 -8.624756e+00 1.023657e+01 -5.176545e-05 1.562384e-02 -2.268066e-01 2.177734e-01
1.430656e-01 2.653424e+00 -8.701904e+00 1.014673e+01 -1.446900e-05 1.712842e-02 -2.412109e-01 2.443848e-01
1.408578e-01 2.700056e+00 -8.568115e+00 1.029395e+01 -8.016709e-05 1.646395e-02 -2.568359e-01 2.343750e-01
1.382224e-01 2.693027e+00 -8.615479e+00 1.035376e+01 -7.643786e-06 1.588062e-02 -2.092285e-01 2.009277e-01
1.300541e-01 2.680211e+00 -8.608643e+00 1.025903e+01 2.855608e-05 1.594555e-02 -2.136230e-01 2.089844e-01
1.148747e-01 2.676620e+00 -8.660645e+00 1.018262e+01 -7.428401e-05 1.635341e-02 -2.524414e-01 2.192383e-01
9.679445e-02 2.701117e+00 -8.811035e+00 1.021777e+01 -1.215508e-04 1.640178e-02 -2.397461e-01 2.111816e-01
9.878929e-02 2.707268e+00 -8.730225e+00 1.041187e+01 1.654001e-05 1.602132e-02 -2.297363e-01 2.299805e-01
1.118033e-01 2.707367e+00 -8.705322e+00 1.027588e+01 9.561332e-05 1.760123e-02 -2.753906e-01 3.107910e-01
1.265327e-01 2.719931e+00 -8.621582e+00 1.052295e+01 5.789424e-05 1.627739e-02 -2.116699e-01 2.321777e-01
1.309753e-01 2.724254e+00 -8.591553e+00 1.057275e+01 1.935097e-05 1.584547e-02 -1.979980e-01 2.282715e-01
1.190766e-01 2.727588e+00 -8.487061e+00 1.054199e+01 -5.207716e-06 1.620764e-02 -2.250977e-01 2.397461e-01
1.009302e-01 2.742726e+00 -8.533691e+00 1.049512e+01 -1.979550e-04 1.634463e-02 -2.348633e-01 2.131348e-01
1.296546e-01 2.714222e+00 -8.430664e+00 1.042822e+01 9.073135e-05 1.631028e-02 -2.207031e-01 2.241211e-01
8.109479e-02 2.735935e+00 -8.491211e+00 1.038354e+01 -1.874539e-04 1.668670e-02 -2.502441e-01 2.194824e-01
1.103554e-01 2.729693e+00 -8.435791e+00 1.038623e+01 1.206129e-04 1.624614e-02 -2.158203e-01 2.404785e-01
1.099862e-01 2.758154e+00 -8.391113e+00 1.068408e+01 -9.441564e-05 1.603722e-02 -2.375488e-01 2.021484e-01
1.379809e-01 2.736801e+00 -8.202148e+00 1.059888e+01 1.253446e-04 1.640772e-02 -2.263184e-01 2.399902e-01
1.405050e-01 2.738748e+00 -8.271484e+00 1.052637e+01 9.262966e-05 1.571146e-02 -2.082520e-01 2.265625e-01
1.078106e-01 2.753668e+00 -8.435547e+00 1.056421e+01 -4.092178e-05 1.622224e-02 -2.421875e-01 2.404785e-01
1.129337e-01 2.745887e+00 -8.589355e+00 1.055029e+01 3.732032e-05 1.609792e-02 -2.316895e-01 2.287598e-01
1.567753e-01 2.738773e+00 -8.794678e+00 1.048608e+01 1.299724e-04 1.693674e-02 -2.160645e-01 2.341309e-01
1.313886e-01 2.758913e+00 -8.880859e+00 1.059668e+01 4.338593e-06 1.668268e-02 -2.167969e-01 2.375488e-01
1.187368e-01 2.770699e+00 -8.488281e+00 1.068433e+01 -1.374730e-05 1.612474e-02 -2.148438e-01 2.375488e-01
1.249110e-01 2.759616e+00 -8.377441e+00 1.065234e+01 1.452109e-04 1.612708e-02 -2.133789e-01 2.187500e-01
1.179948e-01 2.748597e+00 -8.397217e+00 1.062451e+01 1.131221e-04 1.623903e-02 -2.238770e-01 2.253418e-01
1.068888e-01 2.756667e+00 -8.380859e+00 1.062427e+01 2.527195e-05 1.692334e-02 -2.829590e-01 2.580566e-01
1.069076e-01 2.755449e+00 -8.349121e+00 1.091968e+01 8.898187e-05 1.648918e-02 -2.397461e-01 2.744141e-01
9.587284e-02 2.790445e+00 -8.363037e+00 1.097412e+01 -3.368236e-05 1.587169e-02 -2.258301e-01 2.197266e-01
1.000223e-01 2.764349e+00 -8.344482e+00 1.079907e+01 7.183671e-05 1.619088e-02 -2.136230e-01 2.485352e-01
2.070734e-02 2.750264e+00 -9.115234e+00 1.086401e+01 -1.798761e-04 1.615573e-02 -2.216797e-01 2.365723e-01
5.350298e-02 2.748408e+00 -8.624023e+00 1.116626e+01 6.168243e-05 1.662974e-02 -2.150879e-01 2.360840e-01
3.725615e-02 2.769973e+00 -8.877197e+00 1.119092e+01 -1.213374e-04 1.652425e-02 -2.419434e-01 2.324219e-01
9.142825e-02 2.766443e+00 -8.683594e+00 1.106738e+01 3.662109e-05 1.730867e-02 -2.695312e-01 2.622070e-01
1.288853e-01 2.795463e+00 -8.613037e+00 1.114575e+01 3.187953e-05 1.733602e-02 -2.565918e-01 2.834473e-01
1.179581e-01 2.781257e+00 -8.677734e+00 1.123120e+01 8.534672e-05 1.716038e-02 -2.145996e-01 2.709961e-01
1.109768e-01 2.792534e+00 -8.643555e+00 1.125928e+01 -4.450498e-05 1.676323e-02 -2.307129e-01 2.456055e-01
1.147228e-01 2.780742e+00 -8.611084e+00 1.139478e+01 5.832389e-05 1.654442e-02 -2.216797e-01 2.539062e-01
1.048786e-01 2.786352e+00 -8.672119e+00 1.139941e+01 1.079832e-04 1.790259e-02 -2.351074e-01 2.802734e-01
9.761252e-02 2.806008e+00 -8.776611e+00 1.130762e+01 -2.635590e-05 1.739647e-02 -2.285156e-01 2.656250e-01
1.184130e-01 2.803990e+00 -8.610596e+00 1.139429e+01 1.014458e-04 1.711427e-02 -2.387695e-01 2.854004e-01
1.140941e-01 2.805882e+00 -8.703125e+00 1.145972e+01 8.137038e-05 1.704066e-02 -2.387695e-01 2.854004e-01
6.130250e-02 2.802069e+00 -8.937988e+00 1.150586e+01 -1.666427e-04 1.709902e-02 -2.431641e-01 2.565918e-01
8.136207e-02 2.796048e+00 -8.691895e+00 1.145898e+01 -4.124050e-05 1.705006e-02 -2.204590e-01 2.487793e-01
9.246932e-02 2.793844e+00 -8.715332e+00 1.129346e+01 1.170858e-05 1.644358e-02 -2.297363e-01 2.929688e-01
9.219257e-02 2.793327e+00 -8.860596e+00 1.133228e+01 9.512330e-05 1.702374e-02 -2.194824e-01 3.261719e-01
4.314437e-02 2.824654e+00 -9.086670e+00 1.125586e+01 -1.567496e-04 1.743629e-02 -2.419434e-01 2.563477e-01
4.902235e-02 2.819661e+00 -8.993408e+00 1.147046e+01 -8.100532e-05 1.732236e-02 -2.541504e-01 3.017578e-01
7.684406e-02 2.805561e+00 -8.822998e+00 1.139966e+01 4.921705e-05 1.658222e-02 -2.163086e-01 2.519531e-01
8.333584e-02 2.821537e+00 -8.586182e+00 1.154688e+01 4.508065e-05 1.732308e-02 -2.211914e-01 2.785645e-01
7.493224e-02 2.822556e+00 -8.770508e+00 1.151929e+01 4.106499e-05 1.671366e-02 -2.263184e-01 2.709961e-01
6.079963e-02 2.827137e+00 -8.917236e+00 1.150830e+01 -1.227162e-05 1.681118e-02 -2.268066e-01 2.753906e-01
5.247116e-02 2.838456e+00 -8.488281e+00 1.162744e+01 -7.855240e-05 1.670762e-02 -2.385254e-01 2.758789e-01
5.941366e-02 2.827207e+00 -8.605713e+00 1.151392e+01 1.389768e-04 1.705797e-02 -3.264160e-01 3.488770e-01
3.538780e-02 2.830923e+00 -8.593018e+00 1.144800e+01 4.854169e-05 1.748215e-02 -3.168945e-01 3.796387e-01
2.428029e-02 2.837671e+00 -8.807373e+00 1.142920e+01 -6.705443e-05 1.644955e-02 -2.358398e-01 2.722168e-01
3.693385e-02 2.833509e+00 -8.737305e+00 1.148779e+01 -5.487407e-05 1.658357e-02 -2.585449e-01 3.093262e-01
5.801114e-02 2.830103e+00 -8.859375e+00 1.157764e+01 2.241326e-05 1.690570e-02 -2.431641e-01 2.888184e-01
5.636493e-02 2.832674e+00 -8.842773e+00 1.158716e+01 4.543588e-06 1.702680e-02 -3.071289e-01 3.703613e-01
5.713678e-02 2.835013e+00 -8.893799e+00 1.154321e+01 2.492234e-06 1.703131e-02 -2.634277e-01 2.893066e-01
4.412388e-02 2.836978e+00 -9.016113e+00 1.165674e+01 -4.951612e-05 1.746033e-02 -2.409668e-01 3.493652e-01
3.964522e-02 2.852960e+00 -9.113525e+00 1.168823e+01 -1.055528e-04 1.713513e-02 -3.183594e-01 3.925781e-01
6.709182e-02 2.848814e+00 -8.722900e+00 1.160327e+01 6.092845e-05 1.739473e-02 -3.146973e-01 3.547363e-01
4.008609e-02 2.865778e+00 -8.771973e+00 1.185645e+01 -2.888323e-05 1.762520e-02 -3.247070e-01 3.718262e-01
4.790139e-02 2.860440e+00 -8.817139e+00 1.163965e+01 1.008589e-04 1.837446e-02 -3.664551e-01 4.448242e-01
3.676130e-02 2.872530e+00 -8.801270e+00 1.183545e+01 -4.308546e-05 1.775482e-02 -3.332520e-01 3.981934e-01
4.298087e-02 2.876233e+00 -8.848145e+00 1.180615e+01 -1.783737e-05 1.719781e-02 -2.619629e-01 3.303223e-01
4.263359e-02 2.868185e+00 -8.856934e+00 1.194531e+01 9.124665e-05 1.798789e-02 -3.325195e-01 4.020996e-01
4.814707e-02 2.870719e+00 -9.148926e+00 1.185400e+01 6.116293e-05 1.806903e-02 -3.352051e-01 3.989258e-01
4.546444e-02 2.872534e+00 -9.001709e+00 1.193750e+01 6.060691e-05 1.845008e-02 -3.188477e-01 3.857422e-01
3.061983e-02 2.877468e+00 -9.148682e+00 1.190088e+01 -2.487881e-05 1.692447e-02 -2.363281e-01 2.709961e-01
1.289234e-02 2.886043e+00 -9.266846e+00 1.194604e+01 -3.618723e-05 1.689638e-02 -2.270508e-01 2.556152e-01
1.045128e-02 2.880969e+00 -9.246582e+00 1.190186e+01 1.459396e-05 1.737505e-02 -2.509766e-01 3.093262e-01
2.288559e-02 2.893067e+00 -8.955811e+00 1.189429e+01 -1.000699e-04 1.712268e-02 -2.487793e-01 2.995605e-01
5.742385e-02 2.877133e+00 -8.868408e+00 1.191455e+01 1.822055e-04 1.936215e-02 -3.237305e-01 4.072266e-01
4.227056e-02 2.891843e+00 -8.859131e+00 1.200293e+01 -2.838900e-05 1.786600e-02 -3.237305e-01 4.008789e-01
6.330457e-02 2.914200e+00 -9.237061e+00 1.196704e+01 9.344122e-06 1.873501e-02 -3.552246e-01 4.108887e-01
7.526702e-02 2.926440e+00 -9.672852e+00 1.261133e+01 -1.157099e-05 1.837722e-02 -2.524414e-01 2.758789e-01
5.003512e-02 2.947202e+00 -9.252197e+00 1.233350e+01 1.440020e-05 1.743821e-02 -2.717285e-01 3.825684e-01
3.907073e-02 2.913795e+00 -9.183350e+00 1.232300e+01 3.629254e-05 1.660977e-02 -2.741699e-01 3.684082e-01
2.877014e-02 2.936277e+00 -9.309326e+00 1.236230e+01 -7.357495e-05 1.810376e-02 -3.095703e-01 3.879395e-01
2.641053e-02 2.931712e+00 -9.138672e+00 1.245654e+01 -8.255963e-05 1.759844e-02 -2.670898e-01 3.649902e-01
2.922944e-02 2.920641e+00 -9.484863e+00 1.220459e+01 -6.030785e-05 1.696503e-02 -2.573242e-01 3.085938e-01
3.283506e-02 2.884682e+00 -9.591553e+00 1.212354e+01 -1.735437e-05 1.847370e-02 -3.444824e-01 3.125000e-01
4.942586e-02 2.905439e+00 -9.517090e+00 1.227856e+01 3.699458e-05 1.706773e-02 -2.863770e-01 3.845215e-01
6.054637e-02 2.913654e+00 -9.204346e+00 1.242896e+01 1.145599e-04 1.791374e-02 -2.790527e-01 3.845215e-01
4.788037e-02 2.955391e+00 -9.306641e+00 1.225757e+01 -4.150587e-05 1.829993e-02 -2.656250e-01 4.152832e-01
3.145891e-02 2.945053e+00 -9.253662e+00 1.226538e+01 6.101690e-05 1.703037e-02 -2.587891e-01 3.935547e-01
3.128804e-02 2.954292e+00 -9.655273e+00 1.262158e+01 -7.171315e-05 1.711188e-02 -2.561035e-01 2.714844e-01
5.231727e-02 2.954769e+00 -9.142090e+00 1.275391e+01 1.141878e-04 1.761383e-02 -2.841797e-01 2.729492e-01
3.069526e-02 2.958421e+00 -9.168701e+00 1.264868e+01 1.410815e-05 1.930443e-02 -3.129883e-01 3.461914e-01
2.012087e-02 2.981192e+00 -9.568848e+00 1.265771e+01 -6.047633e-05 1.853285e-02 -3.469238e-01 4.335938e-01
3.026893e-02 2.980432e+00 -9.738037e+00 1.282129e+01 1.095221e-04 1.751667e-02 -2.661133e-01 3.395996e-01
1.587719e-02 2.986741e+00 -9.585938e+00 1.293457e+01 -9.033821e-05 1.646407e-02 -2.646484e-01 2.854004e-01
5.266597e-03 2.959654e+00 -9.568359e+00 1.282251e+01 -4.073925e-05 1.723002e-02 -2.844238e-01 2.651367e-01
