1.227272e-02 3.622454e+00 -2.376709e+01 2.121704e+01 1.159512e-03 1.581418e-02 -1.757812e-01 3.623047e-01
-1.482100e-01 3.737599e+00 -2.662915e+01 2.084204e+01 9.148932e-04 1.424937e-02 -1.999512e-01 3.474121e-01
-2.596401e-01 4.106137e+00 -2.749023e+01 2.566870e+01 7.540879e-04 1.336794e-02 -1.999512e-01 3.308105e-01
-3.779201e-01 4.647680e+00 -3.184424e+01 3.206006e+01 6.239504e-04 1.262232e-02 -1.999512e-01 3.125000e-01
-5.059136e-01 5.179064e+00 -3.566064e+01 3.356567e+01 5.286846e-04 1.206498e-02 -1.999512e-01 3.125000e-01
-6.175326e-01 5.735439e+00 -4.022729e+01 3.612256e+01 4.971762e-04 1.209512e-02 -2.238770e-01 2.707520e-01
-6.704288e-01 6.120373e+00 -4.329419e+01 3.683789e+01 4.601070e-04 1.195570e-02 -2.238770e-01 2.707520e-01
-7.115548e-01 6.470575e+00 -4.492798e+01 3.941724e+01 4.146314e-04 1.173962e-02 -2.238770e-01 2.707520e-01
-7.128625e-01 6.783200e+00 -4.762085e+01 4.206812e+01 3.713484e-04 1.141369e-02 -2.475586e-01 2.478027e-01
-7.197142e-01 7.069278e+00 -4.796045e+01 4.504517e+01 3.140000e-04 1.121411e-02 -2.475586e-01 2.478027e-01
-7.271943e-01 7.349966e+00 -5.290991e+01 4.696729e+01 2.513490e-04 1.099027e-02 -2.705078e-01 2.707520e-01
-7.638415e-01 7.568552e+00 -5.631348e+01 4.757422e+01 2.178646e-04 1.074954e-02 -2.705078e-01 2.707520e-01
-7.772655e-01 7.773654e+00 -5.748877e+01 4.907080e+01 1.772255e-04 1.077828e-02 -2.919922e-01 2.707520e-01
-7.765418e-01 7.882097e+00 -5.763086e+01 5.048267e+01 1.526830e-04 1.084600e-02 -3.122559e-01 2.478027e-01
-8.006279e-01 8.058118e+00 -5.146338e+01 5.069775e+01 1.285690e-04 1.080690e-02 -2.919922e-01 2.478027e-01
-7.869019e-01 8.236950e+00 -5.913696e+01 5.127783e+01 9.569441e-05 1.077787e-02 -2.919922e-01 2.478027e-01
-7.584884e-01 8.397427e+00 -5.384692e+01 5.214038e+01 6.872819e-05 1.081754e-02 -2.919922e-01 2.478027e-01
-7.471600e-01 8.584890e+00 -6.121997e+01 5.298389e+01 5.270079e-05 1.037490e-02 -3.305664e-01 2.478027e-01
-7.843482e-01 8.804945e+00 -6.342969e+01 5.270923e+01 4.949831e-06 1.047812e-02 -3.122559e-01 2.478027e-01
-7.734274e-01 8.958766e+00 -6.613501e+01 5.201538e+01 1.131749e-07 1.025094e-02 -3.471680e-01 2.478027e-01
-7.431305e-01 9.135318e+00 -6.843677e+01 5.308667e+01 -7.379520e-06 1.035454e-02 -3.471680e-01 2.707520e-01
-7.031433e-01 9.353567e+00 -6.899219e+01 5.511206e+01 -7.914386e-06 1.037501e-02 -3.471680e-01 2.707520e-01
-6.847160e-01 9.513526e+00 -7.066675e+01 5.646875e+01 1.075591e-05 1.058715e-02 -3.122559e-01 2.707520e-01
-6.854841e-01 9.736968e+00 -5.997339e+01 5.978003e+01 -2.332976e-05 1.084706e-02 -3.471680e-01 2.707520e-01
-6.819195e-01 9.949703e+00 -7.033667e+01 6.153174e+01 -2.670271e-05 1.086675e-02 -3.471680e-01 2.707520e-01
-6.680808e-01 1.020751e+01 -7.091309e+01 6.171997e+01 -4.419524e-05 1.095487e-02 -3.471680e-01 2.922363e-01
-6.374356e-01 1.038018e+01 -7.265967e+01 6.185083e+01 -4.577869e-05 1.091179e-02 -3.122559e-01 2.922363e-01
-6.696287e-01 1.069294e+01 -7.420557e+01 6.453882e+01 -8.109055e-05 1.129909e-02 -3.471680e-01 2.922363e-01
-6.527793e-01 1.088863e+01 -7.593457e+01 6.580688e+01 -1.031792e-04 1.220723e-02 -3.471680e-01 2.922363e-01
-6.499520e-01 1.105750e+01 -7.617017e+01 6.667822e+01 -8.197609e-05 1.141040e-02 -3.471680e-01 2.922363e-01
-6.929415e-01 1.124265e+01 -7.706616e+01 6.570044e+01 -4.847817e-05 1.079387e-02 -3.620605e-01 2.922363e-01
-7.018124e-01 1.148649e+01 -7.710645e+01 6.831030e+01 -2.740091e-05 1.055834e-02 -3.471680e-01 3.125000e-01
-6.817639e-01 1.171364e+01 -7.895752e+01 6.962305e+01 2.279475e-05 9.917517e-03 -3.305664e-01 3.125000e-01
-6.661962e-01 1.205206e+01 -8.200952e+01 7.129053e+01 4.468366e-05 1.021531e-02 -3.305664e-01 3.125000e-01
-6.454397e-01 1.233501e+01 -8.440137e+01 7.345605e+01 6.528450e-05 1.015798e-02 -3.305664e-01 3.125000e-01
-6.468966e-01 1.264342e+01 -8.460059e+01 7.678271e+01 4.883170e-05 1.001478e-02 -3.305664e-01 3.125000e-01
-7.020041e-01 1.289225e+01 -8.484985e+01 8.123315e+01 4.337258e-05 9.874338e-03 -3.305664e-01 3.125000e-01
-7.645852e-01 1.318173e+01 -8.714380e+01 8.156982e+01 4.679583e-05 9.739646e-03 -3.305664e-01 3.308105e-01
-7.595641e-01 1.336681e+01 -9.358130e+01 8.167358e+01 5.092601e-05 9.908430e-03 -3.305664e-01 3.308105e-01
-7.427554e-01 1.369920e+01 -9.596118e+01 8.691284e+01 4.876082e-05 9.949731e-03 -3.305664e-01 3.308105e-01
-7.270324e-01 1.397831e+01 -9.772168e+01 8.117432e+01 5.559404e-05 1.003667e-02 -3.471680e-01 3.308105e-01
-8.103604e-01 1.434896e+01 -9.841577e+01 8.899976e+01 4.374440e-05 9.996774e-03 -3.305664e-01 3.308105e-01
-8.245244e-01 1.460311e+01 -9.778613e+01 9.158130e+01 2.010541e-05 9.683707e-03 -3.305664e-01 3.474121e-01
-9.067685e-01 1.502073e+01 -9.842017e+01 9.239941e+01 8.494408e-06 9.926183e-03 -3.471680e-01 3.474121e-01
-9.236848e-01 1.538073e+01 -9.755615e+01 9.249365e+01 5.470836e-06 1.017761e-02 -3.305664e-01 3.474121e-01
-1.001083e+00 1.580147e+01 -1.061421e+02 9.237476e+01 2.040864e-05 9.577938e-03 -3.471680e-01 3.474121e-01
-9.656532e-01 1.617951e+01 -1.085339e+02 9.531470e+01 4.682184e-06 9.768231e-03 -3.752441e-01 3.474121e-01
-9.983710e-01 1.676656e+01 -1.117212e+02 1.019116e+02 -1.131564e-05 9.796990e-03 -3.752441e-01 3.474121e-01
-1.067524e+00 1.737873e+01 -1.174446e+02 1.072932e+02 4.604162e-06 1.012026e-02 -3.967285e-01 3.579102e-01
-1.113190e+00 1.785406e+01 -1.205515e+02 1.165483e+02 2.481103e-05 9.576882e-03 -3.967285e-01 3.642578e-01
-1.131571e+00 1.814878e+01 -1.272039e+02 1.170205e+02 2.837304e-05 9.561228e-03 -3.867188e-01 3.623047e-01
-1.257683e+00 1.850811e+01 -1.309846e+02 1.155183e+02 3.042734e-05 9.509725e-03 -3.471680e-01 3.623047e-01
-1.349182e+00 1.901474e+01 -1.413638e+02 1.135281e+02 1.617987e-05 9.179848e-03 -3.620605e-01 3.623047e-01
-1.408073e+00 1.931156e+01 -1.430298e+02 1.151372e+02 2.503624e-05 9.662323e-03 -3.471680e-01 3.623047e-01
-1.403890e+00 1.967485e+01 -1.478879e+02 1.164978e+02 2.670228e-05 1.008805e-02 -4.052734e-01 4.267578e-01
-1.468908e+00 1.995037e+01 -1.492129e+02 1.169158e+02 -3.518569e-06 9.808233e-03 -3.620605e-01 3.754883e-01
-1.523676e+00 2.034714e+01 -1.522947e+02 1.172607e+02 -1.973988e-06 9.652966e-03 -3.471680e-01 3.754883e-01
-1.642136e+00 2.085399e+01 -1.344353e+02 1.194426e+02 4.220596e-05 9.687080e-03 -3.471680e-01 3.754883e-01
-1.744579e+00 2.118039e+01 -1.535940e+02 1.302112e+02 2.658482e-05 9.803531e-03 -3.752441e-01 3.754883e-01
-1.787909e+00 2.178526e+01 -1.507358e+02 1.322483e+02 4.344231e-05 9.696688e-03 -3.752441e-01 3.754883e-01
-1.871185e+00 2.225460e+01 -1.529148e+02 1.345010e+02 3.066726e-05 1.073475e-02 -3.752441e-01 3.754883e-01
-1.839267e+00 2.246460e+01 -1.533406e+02 1.272190e+02 2.659725e-05 9.481487e-03 -3.752441e-01 3.754883e-01
-1.913453e+00 2.278096e+01 -1.534036e+02 1.319475e+02 2.408240e-05 9.591775e-03 -3.620605e-01 3.869629e-01
-1.963591e+00 2.322004e+01 -1.560679e+02 1.407039e+02 2.352695e-05 9.153476e-03 -3.752441e-01 3.754883e-01
-2.137126e+00 2.372506e+01 -1.613831e+02 1.385745e+02 1.345467e-05 9.290756e-03 -3.752441e-01 3.869629e-01
-2.260778e+00 2.407438e+01 -1.702825e+02 1.398970e+02 1.394181e-05 9.903446e-03 -4.187012e-01 4.677734e-01
-2.318345e+00 2.459170e+01 -1.773572e+02 1.462031e+02 1.421974e-05 9.117958e-03 -3.471680e-01 3.869629e-01
-2.414854e+00 2.494880e+01 -1.800632e+02 1.493052e+02 9.876228e-06 9.335905e-03 -3.471680e-01 3.969727e-01
-2.427853e+00 2.516118e+01 -1.817520e+02 1.535012e+02 1.928289e-05 9.852382e-03 -3.471680e-01 3.969727e-01
-2.399165e+00 2.521817e+01 -1.815720e+02 1.548499e+02 3.678900e-05 9.246724e-03 -3.471680e-01 3.969727e-01
-2.289424e+00 2.547862e+01 -1.748359e+02 1.583135e+02 3.715982e-05 9.632892e-03 -3.752441e-01 3.969727e-01
-2.325824e+00 2.567698e+01 -1.691843e+02 1.593284e+02 5.144258e-05 1.000848e-02 -3.471680e-01 3.869629e-01
-2.288315e+00 2.590197e+01 -1.684626e+02 1.615535e+02 4.000891e-05 9.512512e-03 -3.471680e-01 3.869629e-01
-2.395975e+00 2.638123e+01 -1.693398e+02 1.662502e+02 2.947664e-05 9.677549e-03 -3.620605e-01 3.869629e-01
-2.568775e+00 2.671300e+01 -1.740537e+02 1.685195e+02 3.414482e-05 1.002221e-02 -3.752441e-01 4.689941e-01
-2.708448e+00 2.708765e+01 -1.772944e+02 1.697358e+02 3.216040e-05 1.029776e-02 -3.967285e-01 5.039062e-01
-2.775630e+00 2.724308e+01 -1.802605e+02 1.711536e+02 3.243591e-05 9.313346e-03 -3.620605e-01 3.969727e-01
-2.824446e+00 2.746521e+01 -1.806714e+02 1.722429e+02 3.193477e-05 9.820968e-03 -3.620605e-01 3.969727e-01
-2.837186e+00 2.767472e+01 -1.878137e+02 1.772314e+02 1.913900e-05 1.010998e-02 -3.620605e-01 3.969727e-01
-2.841631e+00 2.780422e+01 -1.876091e+02 1.769836e+02 -1.988421e-06 9.822617e-03 -3.620605e-01 3.969727e-01
-2.939444e+00 2.795857e+01 -1.875710e+02 1.783584e+02 6.640168e-06 9.865141e-03 -3.908691e-01 4.714355e-01
-2.965308e+00 2.810749e+01 -1.910603e+02 1.781572e+02 2.341478e-05 1.000325e-02 -3.620605e-01 4.055176e-01
-2.951382e+00 2.837169e+01 -1.891406e+02 1.762969e+02 2.633604e-07 9.182841e-03 -3.620605e-01 4.055176e-01
-3.021568e+00 2.852607e+01 -1.851597e+02 1.743301e+02 -6.949684e-06 9.106122e-03 -3.620605e-01 4.055176e-01
-3.100238e+00 2.867854e+01 -1.921174e+02 1.763142e+02 1.972973e-05 1.087744e-02 -3.806152e-01 4.055176e-01
-3.137342e+00 2.890366e+01 -2.025791e+02 1.750771e+02 1.544824e-05 9.941736e-03 -3.835449e-01 4.055176e-01
-3.226005e+00 2.916903e+01 -2.045862e+02 1.708179e+02 2.638691e-05 9.764400e-03 -3.620605e-01 4.055176e-01
-3.198118e+00 2.923889e+01 -2.045330e+02 1.745713e+02 8.040708e-06 9.371245e-03 -3.620605e-01 4.055176e-01
-3.212817e+00 2.947570e+01 -2.025386e+02 1.744951e+02 1.251212e-06 9.315259e-03 -3.620605e-01 4.055176e-01
-3.186836e+00 2.960191e+01 -2.133853e+02 1.737429e+02 2.291307e-05 9.386559e-03 -3.774414e-01 4.055176e-01
-3.279549e+00 2.998583e+01 -2.159429e+02 1.737700e+02 1.395195e-05 8.731192e-03 -3.669434e-01 4.055176e-01
-3.182047e+00 3.000597e+01 -2.216807e+02 1.738354e+02 1.991021e-05 1.030952e-02 -5.788574e-01 5.788574e-01
-3.270827e+00 3.021636e+01 -2.241687e+02 1.738430e+02 7.934963e-06 9.046531e-03 -3.723145e-01 4.055176e-01
-3.208922e+00 3.041782e+01 -2.263589e+02 1.738093e+02 5.009563e-06 8.566546e-03 -3.752441e-01 4.055176e-01
-3.269411e+00 3.051686e+01 -2.265537e+02 1.768623e+02 5.726623e-06 8.953298e-03 -3.759766e-01 4.055176e-01
-3.338313e+00 3.060279e+01 -2.260989e+02 1.729253e+02 1.281149e-05 8.954211e-03 -3.786621e-01 4.055176e-01
-3.345981e+00 3.089902e+01 -2.347664e+02 1.855408e+02 9.553994e-06 8.607401e-03 -3.947754e-01 4.221191e-01
-3.428943e+00 3.101195e+01 -2.412766e+02 1.849719e+02 7.722046e-06 8.826428e-03 -3.969727e-01 4.240723e-01
-3.522680e+00 3.120060e+01 -2.361082e+02 1.797712e+02 1.270003e-05 9.222934e-03 -3.991699e-01 4.255371e-01
-3.389616e+00 3.124752e+01 -2.420535e+02 1.851526e+02 1.709442e-05 9.108219e-03 -4.013672e-01 4.267578e-01
-3.462498e+00 3.138899e+01 -2.408828e+02 1.861931e+02 2.106540e-05 9.239185e-03 -4.038086e-01 4.279785e-01
-3.546083e+00 3.150669e+01 -2.402930e+02 1.804919e+02 2.460769e-05 9.241071e-03 -4.052734e-01 4.284668e-01
-3.578942e+00 3.171217e+01 -2.419258e+02 1.886116e+02 2.319286e-05 9.569486e-03 -3.859863e-01 4.055176e-01
-3.581632e+00 3.181478e+01 -2.445701e+02 1.945378e+02 1.589265e-05 9.618678e-03 -4.064941e-01 4.265137e-01
-3.571945e+00 3.200659e+01 -2.502031e+02 2.127588e+02 1.066402e-05 9.566495e-03 -3.874512e-01 4.055176e-01
-3.550856e+00 3.213249e+01 -2.519639e+02 2.226089e+02 7.953683e-06 9.905615e-03 -3.886719e-01 4.055176e-01
-3.642584e+00 3.212020e+01 -2.521565e+02 2.286111e+02 4.135315e-06 9.066930e-03 -3.898926e-01 4.125977e-01
-3.616231e+00 3.242770e+01 -2.494280e+02 2.411072e+02 7.422961e-06 9.052102e-03 -3.908691e-01 4.125977e-01
-3.709354e+00 3.247813e+01 -2.489470e+02 2.434158e+02 -2.243493e-06 9.025925e-03 -3.913574e-01 4.055176e-01
-3.683722e+00 3.247600e+01 -2.498462e+02 2.475894e+02 -5.065721e-07 9.154603e-03 -3.928223e-01 4.055176e-01
-3.691954e+00 3.255428e+01 -2.517051e+02 2.421123e+02 -2.307797e-06 8.472651e-03 -3.942871e-01 4.125977e-01
-3.524488e+00 3.236738e+01 -2.549277e+02 2.375449e+02 -1.746638e-06 8.685315e-03 -3.994141e-01 4.125977e-01
-3.615321e+00 3.250324e+01 -2.574639e+02 2.347625e+02 1.605955e-05 8.235105e-03 -3.752441e-01 4.055176e-01
-3.640156e+00 3.239233e+01 -2.546016e+02 2.282429e+02 1.465058e-05 8.483137e-03 -3.867188e-01 4.055176e-01
-3.703227e+00 3.253554e+01 -2.556257e+02 2.249563e+02 1.455713e-05 8.404759e-03 -3.867188e-01 4.055176e-01
-3.663508e+00 3.260123e+01 -2.553296e+02 2.235432e+02 1.772645e-05 9.150761e-03 -4.160156e-01 4.094238e-01
-3.705644e+00 3.278042e+01 -2.558794e+02 2.225742e+02 8.810926e-06 8.582592e-03 -3.867188e-01 4.055176e-01
-3.637744e+00 3.250104e+01 -2.584929e+02 2.190369e+02 8.438820e-06 8.530300e-03 -3.867188e-01 4.055176e-01
-3.645900e+00 3.276302e+01 -2.628633e+02 2.234321e+02 7.386093e-06 8.840035e-03 -3.867188e-01 4.055176e-01
-3.687740e+00 3.288471e+01 -2.615237e+02 2.223818e+02 -4.785642e-07 8.630636e-03 -3.867188e-01 4.055176e-01
-3.588614e+00 3.282102e+01 -2.574717e+02 2.253594e+02 -4.551576e-06 8.767232e-03 -3.867188e-01 4.055176e-01
-3.598263e+00 3.295273e+01 -2.537380e+02 2.305393e+02 -1.371917e-05 8.476536e-03 -3.752441e-01 4.055176e-01
-3.789978e+00 3.310831e+01 -2.518594e+02 2.416077e+02 3.018427e-06 8.886620e-03 -3.752441e-01 4.055176e-01
-3.727783e+00 3.329656e+01 -2.527961e+02 2.437288e+02 3.670326e-06 8.932276e-03 -3.752441e-01 4.179688e-01
-3.651529e+00 3.346600e+01 -2.545886e+02 2.427866e+02 -4.629169e-06 9.104661e-03 -3.752441e-01 4.055176e-01
-3.778797e+00 3.376520e+01 -2.593384e+02 2.418833e+02 -1.159471e-06 9.113850e-03 -3.752441e-01 4.055176e-01
-3.746253e+00 3.386572e+01 -2.596265e+02 2.399258e+02 -5.109448e-06 8.748640e-03 -3.752441e-01 4.055176e-01
-3.729741e+00 3.400658e+01 -2.612075e+02 2.392017e+02 -4.503991e-06 9.126450e-03 -3.752441e-01 4.055176e-01
-3.759867e+00 3.389642e+01 -2.611165e+02 2.385593e+02 6.867375e-06 8.862968e-03 -3.752441e-01 4.055176e-01
-3.751147e+00 3.406479e+01 -2.616777e+02 2.382852e+02 3.393390e-06 9.083856e-03 -3.752441e-01 4.055176e-01
-3.788590e+00 3.410310e+01 -2.669556e+02 2.351267e+02 4.966122e-06 9.561227e-03 -3.752441e-01 4.055176e-01
-3.913052e+00 3.432814e+01 -2.769055e+02 2.278687e+02 4.830655e-06 8.319930e-03 -3.752441e-01 4.055176e-01
-3.862278e+00 3.440260e+01 -2.765005e+02 2.083169e+02 5.300788e-06 9.062692e-03 -3.752441e-01 4.055176e-01
-3.761173e+00 3.434276e+01 -2.725552e+02 2.260813e+02 -1.078048e-05 9.350478e-03 -3.867188e-01 4.055176e-01
-3.863641e+00 3.460386e+01 -2.669175e+02 2.298823e+02 -6.126022e-06 8.696716e-03 -3.752441e-01 4.055176e-01
-3.831682e+00 3.464715e+01 -2.641553e+02 2.328696e+02 -8.252482e-06 8.376961e-03 -3.752441e-01 4.055176e-01
-3.780359e+00 3.478611e+01 -2.633196e+02 2.366697e+02 -6.669319e-06 8.450812e-03 -3.752441e-01 4.055176e-01
-3.931928e+00 3.495612e+01 -2.627515e+02 2.368479e+02 -1.478419e-06 9.135550e-03 -3.752441e-01 4.055176e-01
-3.814965e+00 3.504882e+01 -2.621506e+02 2.354104e+02 -1.449411e-06 8.682828e-03 -3.752441e-01 4.055176e-01
-3.730660e+00 3.507238e+01 -2.609072e+02 2.323083e+02 2.038578e-06 8.828547e-03 -3.867188e-01 4.055176e-01
-3.791942e+00 3.535580e+01 -2.674924e+02 2.312678e+02 -8.904381e-06 8.864056e-03 -3.752441e-01 4.055176e-01
-3.812120e+00 3.529312e+01 -2.709504e+02 2.311162e+02 -5.954545e-06 9.021279e-03 -3.967285e-01 4.055176e-01
-3.794059e+00 3.544495e+01 -2.692422e+02 2.330508e+02 -3.431401e-06 8.300712e-03 -3.967285e-01 4.055176e-01
-3.926156e+00 3.558357e+01 -2.682239e+02 2.355691e+02 2.321144e-05 1.052140e-02 -5.258789e-01 5.258789e-01
-3.876426e+00 3.556875e+01 -2.676790e+02 2.367456e+02 4.174040e-06 8.553562e-03 -3.967285e-01 4.055176e-01
-3.805357e+00 3.571182e+01 -2.669949e+02 2.362664e+02 5.122881e-07 8.452421e-03 -3.967285e-01 4.055176e-01
-3.826060e+00 3.563229e+01 -2.671382e+02 2.330120e+02 8.821072e-07 8.406094e-03 -3.967285e-01 4.055176e-01
-3.897656e+00 3.576807e+01 -2.651060e+02 2.320791e+02 -1.537579e-06 8.443856e-03 -3.967285e-01 4.055176e-01
-3.809306e+00 3.579882e+01 -2.521353e+02 2.301045e+02 2.139035e-06 8.394628e-03 -3.967285e-01 4.055176e-01
-3.885158e+00 3.594660e+01 -2.601138e+02 2.269199e+02 1.630462e-07 8.613708e-03 -3.967285e-01 4.055176e-01
-3.983352e+00 3.595920e+01 -2.568142e+02 2.257671e+02 8.589577e-07 9.219997e-03 -3.967285e-01 4.055176e-01
-3.739656e+00 3.586872e+01 -2.574299e+02 2.261406e+02 -5.328939e-06 8.741201e-03 -3.967285e-01 4.055176e-01
-3.846512e+00 3.607071e+01 -2.689868e+02 2.282883e+02 -1.003613e-05 8.575278e-03 -3.967285e-01 4.055176e-01
-3.926487e+00 3.616800e+01 -2.793406e+02 2.294255e+02 -9.789203e-06 8.407611e-03 -3.967285e-01 4.055176e-01
-4.003782e+00 3.634963e+01 -2.845017e+02 2.296741e+02 -1.621745e-06 9.364505e-03 -3.967285e-01 4.055176e-01
-4.008183e+00 3.652926e+01 -2.851941e+02 2.419888e+02 -1.710428e-05 9.621955e-03 -4.052734e-01 5.207520e-01
-4.046455e+00 3.670099e+01 -2.847930e+02 2.454705e+02 -1.418073e-05 8.601740e-03 -3.867188e-01 4.055176e-01
-3.887733e+00 3.665967e+01 -2.850225e+02 2.540732e+02 -9.666311e-06 8.596594e-03 -3.867188e-01 4.055176e-01
-3.910999e+00 3.663108e+01 -2.828215e+02 2.558989e+02 -1.519531e-05 9.010170e-03 -3.867188e-01 4.055176e-01
-4.026027e+00 3.685965e+01 -2.844988e+02 2.584700e+02 -1.164573e-05 8.502558e-03 -3.867188e-01 4.055176e-01
-3.964377e+00 3.681272e+01 -2.843000e+02 2.594392e+02 -2.339806e-06 8.666636e-03 -3.867188e-01 4.055176e-01
-4.003888e+00 3.697276e+01 -2.839333e+02 2.566814e+02 4.894816e-06 9.386086e-03 -4.516602e-01 5.332031e-01
-3.965643e+00 3.699825e+01 -2.825095e+02 2.555864e+02 2.677759e-06 8.803472e-03 -3.867188e-01 4.055176e-01
-3.825196e+00 3.701475e+01 -2.815410e+02 2.552534e+02 4.635742e-06 8.824338e-03 -3.867188e-01 4.055176e-01
-3.880352e+00 3.713440e+01 -2.807209e+02 2.592249e+02 -3.194048e-06 8.590494e-03 -3.867188e-01 4.055176e-01
-3.970395e+00 3.714781e+01 -2.804417e+02 2.632043e+02 -3.961408e-06 9.342328e-03 -3.867188e-01 4.055176e-01
-3.969709e+00 3.716016e+01 -2.800083e+02 2.641594e+02 4.224054e-07 8.719017e-03 -3.867188e-01 4.055176e-01
-3.970392e+00 3.720715e+01 -2.797598e+02 2.636160e+02 1.206256e-05 9.478618e-03 -3.867188e-01 4.055176e-01
-4.045880e+00 3.724907e+01 -2.799707e+02 2.619185e+02 1.269931e-05 8.788397e-03 -3.867188e-01 4.055176e-01
-3.872520e+00 3.727765e+01 -2.804116e+02 2.614607e+02 1.416973e-05 8.410981e-03 -3.620605e-01 4.055176e-01
-3.905453e+00 3.728262e+01 -2.807842e+02 2.613088e+02 1.005056e-05 8.300583e-03 -3.967285e-01 4.055176e-01
-3.928856e+00 3.734808e+01 -2.813865e+02 2.607925e+02 1.704340e-06 8.462274e-03 -3.867188e-01 4.055176e-01
-3.965992e+00 3.739674e+01 -2.818389e+02 2.604104e+02 -3.775642e-06 8.428979e-03 -3.752441e-01 4.313965e-01
-4.080042e+00 3.773091e+01 -2.825134e+02 2.587107e+02 9.392948e-06 8.904479e-03 -3.967285e-01 4.326172e-01
-4.101621e+00 3.765238e+01 -2.826401e+02 2.583972e+02 8.574859e-06 8.358083e-03 -3.752441e-01 4.340820e-01
-4.009018e+00 3.776990e+01 -2.875405e+02 2.669453e+02 1.106685e-05 8.517175e-03 -4.123535e-01 4.609375e-01
-4.150180e+00 3.810128e+01 -2.940432e+02 2.749539e+02 1.643780e-05 8.436519e-03 -4.123535e-01 4.614258e-01
-4.129431e+00 3.820953e+01 -3.031860e+02 2.917852e+02 1.153384e-05 8.620907e-03 -4.123535e-01 4.619141e-01
-4.021101e+00 3.840943e+01 -3.053486e+02 2.962253e+02 1.718673e-05 9.152950e-03 -4.123535e-01 4.565430e-01
-3.842782e+00 3.832632e+01 -3.093354e+02 3.148040e+02 8.797351e-06 9.107311e-03 -3.967285e-01 4.270020e-01
-3.892254e+00 3.866340e+01 -3.139648e+02 3.202219e+02 1.184679e-05 8.746718e-03 -3.967285e-01 4.267578e-01
-3.927831e+00 3.876423e+01 -3.190144e+02 3.250620e+02 -1.293567e-05 8.394266e-03 -3.967285e-01 4.272461e-01
-3.985009e+00 3.903833e+01 -3.185435e+02 3.308228e+02 -2.924686e-06 8.309762e-03 -3.967285e-01 4.072266e-01
-3.914685e+00 3.905906e+01 -3.199409e+02 3.318899e+02 -2.074817e-05 8.507631e-03 -3.967285e-01 4.064941e-01
-4.109262e+00 3.942091e+01 -3.219941e+02 3.312383e+02 -2.574272e-05 8.211113e-03 -4.187012e-01 4.523926e-01
-4.028338e+00 3.938101e+01 -3.273318e+02 3.282571e+02 -2.489834e-05 8.285665e-03 -4.123535e-01 4.450684e-01
-3.924813e+00 3.945309e+01 -3.286135e+02 2.892666e+02 -3.014440e-05 8.373985e-03 -4.052734e-01 4.370117e-01
-4.039755e+00 3.942327e+01 -3.307493e+02 3.270505e+02 -1.602354e-05 8.358032e-03 -4.052734e-01 4.367676e-01
-4.108063e+00 3.974825e+01 -3.318821e+02 3.249138e+02 -9.512982e-06 8.339339e-03 -4.052734e-01 4.460449e-01
-4.044776e+00 3.977639e+01 -3.280229e+02 3.252134e+02 4.375526e-07 8.499718e-03 -4.282227e-01 4.841309e-01
-3.947674e+00 3.970401e+01 -3.255918e+02 3.260894e+02 8.650880e-06 8.463424e-03 -4.282227e-01 4.843750e-01
-3.990189e+00 3.993438e+01 -3.272163e+02 3.230200e+02 1.848252e-05 9.018039e-03 -4.326172e-01 4.951172e-01
-3.954999e+00 3.989429e+01 -3.287771e+02 3.165859e+02 1.463358e-05 8.966461e-03 -4.345703e-01 4.941406e-01
-4.024908e+00 4.002864e+01 -3.367532e+02 3.214619e+02 1.730276e-05 8.903712e-03 -4.348145e-01 4.941406e-01
-4.117968e+00 4.026633e+01 -3.540012e+02 3.191345e+02 1.410357e-05 9.116752e-03 -4.357910e-01 4.948730e-01
-4.152392e+00 4.038343e+01 -3.648450e+02 3.184060e+02 1.986077e-05 8.392533e-03 -3.967285e-01 4.055176e-01
-4.134591e+00 4.059300e+01 -3.819543e+02 3.172273e+02 1.036222e-05 8.885244e-03 -3.991699e-01 4.226074e-01
-4.071981e+00 4.044701e+01 -3.817307e+02 3.166370e+02 1.821130e-05 7.943643e-03 -3.967285e-01 3.969727e-01
-4.154577e+00 4.043730e+01 -3.814431e+02 3.165591e+02 6.400100e-06 7.830767e-03 -3.967285e-01 4.055176e-01
-4.110187e+00 4.057258e+01 -3.812139e+02 3.165139e+02 4.860663e-06 7.912100e-03 -3.867188e-01 4.055176e-01
-4.102157e+00 4.028991e+01 -3.808591e+02 3.164553e+02 4.146604e-06 8.524444e-03 -3.967285e-01 4.055176e-01
-4.059509e+00 4.042798e+01 -3.807219e+02 3.163691e+02 6.266062e-07 7.972707e-03 -3.967285e-01 4.055176e-01
-4.171922e+00 4.046829e+01 -3.805676e+02 3.163464e+02 -3.042577e-06 8.179626e-03 -3.967285e-01 4.055176e-01
-4.043804e+00 4.040548e+01 -3.803433e+02 3.162646e+02 -5.955402e-06 7.978435e-03 -3.967285e-01 4.055176e-01
-4.131007e+00 4.050833e+01 -3.803049e+02 3.161680e+02 -9.402093e-06 7.834220e-03 -3.967285e-01 4.055176e-01
-4.250587e+00 4.046013e+01 -3.800867e+02 3.161184e+02 -9.674028e-06 7.760100e-03 -3.967285e-01 4.055176e-01
-4.149234e+00 4.037402e+01 -3.799485e+02 3.161089e+02 5.317650e-06 7.746053e-03 -3.967285e-01 4.055176e-01
-4.120642e+00 4.044091e+01 -3.798694e+02 3.160681e+02 4.267924e-06 7.758419e-03 -5.039062e-01 6.145020e-01
-4.176836e+00 4.045635e+01 -3.797498e+02 3.160415e+02 3.282930e-06 7.671082e-03 -5.036621e-01 6.213379e-01
-4.150027e+00 4.045797e+01 -3.796873e+02 3.160120e+02 -4.379813e-07 7.472077e-03 -4.052734e-01 4.191895e-01
-4.140922e+00 4.034718e+01 -3.796504e+02 3.159646e+02 -2.442121e-06 7.429023e-03 -4.052734e-01 4.196777e-01
-4.111580e+00 4.035755e+01 -3.796118e+02 3.159492e+02 -5.039714e-06 7.462881e-03 -4.052734e-01 4.079590e-01
-4.274813e+00 4.041842e+01 -3.795574e+02 3.158816e+02 -7.182036e-07 7.594109e-03 -4.282227e-01 5.588379e-01
-4.163609e+00 4.037302e+01 -3.795364e+02 3.158296e+02 3.020142e-06 7.696284e-03 -4.282227e-01 5.595703e-01
-4.137002e+00 4.054617e+01 -3.794990e+02 3.157864e+02 -1.667330e-06 7.532291e-03 -4.282227e-01 5.615234e-01
-4.274389e+00 4.054646e+01 -3.794692e+02 3.157556e+02 -3.126886e-06 7.611273e-03 -3.967285e-01 4.187012e-01
-4.076400e+00 4.047373e+01 -3.794373e+02 3.157351e+02 -1.018131e-05 7.506058e-03 -3.967285e-01 4.179688e-01
-4.225085e+00 4.055057e+01 -3.793933e+02 3.157053e+02 9.781058e-06 7.683893e-03 -4.052734e-01 4.184570e-01
-4.162664e+00 4.042938e+01 -3.793450e+02 3.156985e+02 1.141924e-05 7.828197e-03 -3.967285e-01 4.055176e-01
-4.201144e+00 4.043979e+01 -3.793044e+02 3.105281e+02 -4.447403e-06 7.384926e-03 -3.967285e-01 4.055176e-01
-4.277882e+00 4.044646e+01 -3.792668e+02 3.156726e+02 -7.694895e-06 7.674465e-03 -3.967285e-01 4.055176e-01
-4.104769e+00 4.041695e+01 -3.792656e+02 3.156362e+02 -2.218529e-05 7.705728e-03 -3.967285e-01 4.055176e-01
-4.141239e+00 4.042456e+01 -3.792649e+02 3.156282e+02 -2.388063e-05 8.471507e-03 -4.299316e-01 4.299316e-01
-4.213235e+00 4.036292e+01 -3.792554e+02 3.157539e+02 -1.633234e-05 7.743260e-03 -3.967285e-01 4.492188e-01
-4.125853e+00 4.040162e+01 -3.792451e+02 3.157803e+02 -1.380248e-05 7.955406e-03 -3.967285e-01 4.055176e-01
-4.213253e+00 4.042200e+01 -3.792402e+02 3.157844e+02 -7.791065e-06 7.713400e-03 -4.052734e-01 4.055176e-01
-4.090997e+00 4.043970e+01 -3.792385e+02 3.157852e+02 -1.285707e-05 7.472977e-03 -3.967285e-01 4.055176e-01
-4.125455e+00 4.047617e+01 -3.792368e+02 3.157847e+02 -7.030135e-06 7.638709e-03 -4.052734e-01 4.055176e-01
-4.140836e+00 4.025564e+01 -3.792373e+02 3.157852e+02 -3.664181e-06 7.713807e-03 -4.052734e-01 4.055176e-01
-4.101537e+00 4.028628e+01 -3.792373e+02 3.157849e+02 -8.529560e-07 7.886859e-03 -4.052734e-01 4.055176e-01
-4.151347e+00 4.038088e+01 -3.792378e+02 3.157839e+02 -4.615594e-08 7.923237e-03 -3.967285e-01 4.055176e-01
-4.053004e+00 4.042977e+01 -3.792383e+02 3.157837e+02 1.541794e-05 8.011363e-03 -4.208984e-01 5.119629e-01
-4.062258e+00 4.031991e+01 -3.513704e+02 3.157842e+02 1.763228e-05 8.090229e-03 -4.101562e-01 4.960938e-01
-4.054739e+00 4.035773e+01 -3.792400e+02 3.157854e+02 1.407542e-05 8.046135e-03 -4.169922e-01 4.960938e-01
-4.100987e+00 4.032906e+01 -3.792419e+02 3.157852e+02 6.012133e-06 7.767991e-03 -4.052734e-01 4.055176e-01
-4.161911e+00 4.040449e+01 -3.792424e+02 3.157842e+02 2.776644e-05 8.082321e-03 -4.052734e-01 4.055176e-01
-4.128578e+00 4.050580e+01 -3.792439e+02 3.157839e+02 2.974529e-05 8.198974e-03 -4.199219e-01 4.885254e-01
-4.239853e+00 4.035030e+01 -3.792417e+02 3.157847e+02 2.560840e-05 8.136405e-03 -4.213867e-01 4.892578e-01
-4.125638e+00 4.041835e+01 -3.792373e+02 3.157878e+02 2.839491e-05 8.096713e-03 -4.052734e-01 4.494629e-01
-4.176951e+00 4.060838e+01 -3.792378e+02 3.157847e+02 2.432161e-05 7.945899e-03 -3.967285e-01 4.118652e-01
-4.107721e+00 4.038523e+01 -3.513748e+02 3.157786e+02 7.409957e-06 8.049538e-03 -3.977051e-01 4.509277e-01
-4.197358e+00 4.040143e+01 -3.792349e+02 3.157769e+02 -1.811914e-05 8.189605e-03 -4.052734e-01 4.956055e-01
-4.047826e+00 4.045452e+01 -3.792317e+02 3.157756e+02 -2.399637e-05 8.216585e-03 -4.238281e-01 5.019531e-01
-4.017819e+00 4.029091e+01 -3.792314e+02 3.157754e+02 -2.073230e-05 7.823795e-03 -4.238281e-01 5.031738e-01
-4.187514e+00 4.035223e+01 -3.792339e+02 3.157747e+02 -5.752202e-06 8.225293e-03 -4.238281e-01 5.063477e-01
-4.152792e+00 4.047644e+01 -3.513684e+02 3.157759e+02 2.487276e-06 8.122564e-03 -4.506836e-01 5.070801e-01
-4.184970e+00 4.049344e+01 -3.792397e+02 3.157739e+02 -1.712628e-06 8.108400e-03 -4.238281e-01 5.112305e-01
-4.106937e+00 4.041148e+01 -3.792424e+02 3.157749e+02 -3.168898e-06 8.247724e-03 -4.238281e-01 5.114746e-01
-4.152253e+00 4.041471e+01 -3.792446e+02 3.157759e+02 -7.513701e-06 7.673562e-03 -4.238281e-01 5.197754e-01
-4.109978e+00 4.046779e+01 -3.792490e+02 3.157791e+02 -1.690479e-06 8.053599e-03 -4.587402e-01 5.214844e-01
-4.162095e+00 4.050860e+01 -3.792515e+02 3.157834e+02 -8.258055e-07 8.102527e-03 -4.592285e-01 5.224609e-01
-4.103151e+00 4.039021e+01 -3.792527e+02 3.157856e+02 -7.742051e-06 7.716359e-03 -4.602051e-01 4.841309e-01
-4.085741e+00 4.022039e+01 -3.792529e+02 3.157866e+02 -4.170468e-06 7.940951e-03 -4.611816e-01 5.249023e-01
-4.169087e+00 4.045898e+01 -3.792534e+02 3.157832e+02 -1.655755e-06 7.847849e-03 -4.614258e-01 5.253906e-01
-4.185428e+00 4.040943e+01 -3.792522e+02 3.157834e+02 1.583592e-06 7.710720e-03 -4.619141e-01 4.055176e-01
-4.298162e+00 4.049077e+01 -3.792583e+02 3.157822e+02 1.790507e-06 8.180777e-03 -4.624023e-01 6.367188e-01
-4.131912e+00 4.037575e+01 -3.792622e+02 3.157815e+02 7.280921e-06 8.469086e-03 -4.143066e-01 6.254883e-01
-4.268368e+00 4.044732e+01 -3.792642e+02 3.157866e+02 4.172897e-06 8.484817e-03 -4.150391e-01 6.259766e-01
-4.164013e+00 4.057105e+01 -3.792629e+02 3.157883e+02 1.533292e-06 7.586633e-03 -4.284668e-01 6.428223e-01
-4.135955e+00 4.031236e+01 -3.792612e+02 3.157888e+02 4.190188e-06 7.388668e-03 -4.228516e-01 6.391602e-01
-4.203874e+00 4.052403e+01 -3.792612e+02 3.157925e+02 1.746495e-06 7.490268e-03 -4.311523e-01 6.457520e-01
-4.174698e+00 4.050944e+01 -3.792646e+02 3.157949e+02 1.020003e-06 7.430294e-03 -4.318848e-01 6.462402e-01
-4.177186e+00 4.030995e+01 -3.792671e+02 3.157969e+02 -1.227777e-06 7.650019e-03 -4.333496e-01 6.477051e-01
-4.157895e+00 4.049335e+01 -3.792722e+02 3.157979e+02 -6.223192e-07 7.375497e-03 -4.343262e-01 6.486816e-01
-4.096326e+00 4.029701e+01 -3.792766e+02 3.158025e+02 4.636028e-06 7.215190e-03 -4.355469e-01 6.499023e-01
-4.168927e+00 4.044148e+01 -3.792793e+02 3.158027e+02 1.822802e-06 7.472858e-03 -4.365234e-01 6.511230e-01
-4.137246e+00 4.023076e+01 -3.792869e+02 3.158064e+02 9.686031e-06 8.355556e-03 -4.375000e-01 6.530762e-01
-4.116710e+00 4.043761e+01 -3.792886e+02 3.158115e+02 5.129168e-06 7.287474e-03 -4.379883e-01 6.538086e-01
-4.105590e+00 4.042785e+01 -3.792874e+02 3.158137e+02 2.486419e-06 7.105495e-03 -4.184570e-01 5.227051e-01
-4.112443e+00 4.043112e+01 -3.792871e+02 3.158159e+02 -1.319517e-06 7.634579e-03 -4.392090e-01 6.560059e-01
-4.164695e+00 4.034633e+01 -3.792854e+02 3.158201e+02 1.099597e-06 7.461935e-03 -4.399414e-01 6.574707e-01
-4.191999e+00 4.045013e+01 -3.792852e+02 3.158203e+02 -2.726773e-06 7.431604e-03 -4.401855e-01 6.577148e-01
-4.228630e+00 4.042808e+01 -3.792871e+02 3.158184e+02 2.381961e-06 7.348824e-03 -4.406738e-01 6.584473e-01
-4.090827e+00 4.038617e+01 -3.792878e+02 3.158184e+02 1.172718e-05 7.627795e-03 -4.414062e-01 6.589355e-01
-4.097020e+00 4.041780e+01 -3.792878e+02 3.158191e+02 7.904812e-06 7.415649e-03 -4.423828e-01 6.599121e-01
-4.243858e+00 4.030112e+01 -3.792861e+02 3.158196e+02 6.427679e-06 7.417031e-03 -4.431152e-01 6.601562e-01
-4.236134e+00 4.053652e+01 -3.792837e+02 3.158188e+02 4.367381e-06 7.337667e-03 -4.443359e-01 6.611328e-01
-4.240956e+00 4.040976e+01 -3.792793e+02 3.158174e+02 1.682620e-06 7.625266e-03 -4.448242e-01 6.613770e-01
-4.190595e+00 4.045102e+01 -3.792771e+02 3.158159e+02 5.644600e-06 7.390096e-03 -5.070801e-01 6.623535e-01
-4.304185e+00 4.054794e+01 -3.792727e+02 3.105659e+02 2.080161e-06 7.194860e-03 -4.460449e-01 6.633301e-01
-4.112079e+00 4.036769e+01 -3.792727e+02 3.158083e+02 7.356799e-06 7.855110e-03 -5.095215e-01 5.283203e-01
-4.269547e+00 4.044545e+01 -3.792698e+02 3.158076e+02 8.159455e-08 7.143271e-03 -4.467773e-01 6.650391e-01
-4.269100e+00 4.046690e+01 -3.792688e+02 3.158103e+02 -3.089590e-06 7.126112e-03 -4.475098e-01 6.657715e-01
-4.185525e+00 4.037814e+01 -3.792637e+02 3.015940e+02 3.256780e-06 7.429145e-03 -4.479980e-01 6.665039e-01
-4.115428e+00 4.039022e+01 -3.792593e+02 3.158157e+02 -4.395103e-06 7.336503e-03 -4.562988e-01 6.669922e-01
-4.208183e+00 4.041184e+01 -3.792581e+02 3.158174e+02 -1.896823e-06 7.308250e-03 -4.497070e-01 6.677246e-01
-4.138112e+00 4.049739e+01 -3.792605e+02 3.158186e+02 1.109314e-06 7.469419e-03 -4.570312e-01 6.684570e-01
-4.119915e+00 4.051423e+01 -3.792605e+02 3.158186e+02 2.273644e-06 7.194373e-03 -4.570312e-01 6.582031e-01
-4.175452e+00 4.046075e+01 -3.792661e+02 3.158181e+02 4.442831e-06 7.197418e-03 -4.516602e-01 6.726074e-01
-4.225097e+00 4.050490e+01 -3.792654e+02 3.158159e+02 4.266781e-06 7.105923e-03 -5.070801e-01 6.721191e-01
-4.250340e+00 4.041187e+01 -3.792671e+02 3.158157e+02 5.239199e-06 7.298382e-03 -5.085449e-01 6.730957e-01
-4.185849e+00 4.051519e+01 -3.792671e+02 3.158159e+02 2.928544e-06 7.189745e-03 -5.090332e-01 6.608887e-01
-4.191602e+00 4.033018e+01 -3.792673e+02 3.158162e+02 1.568730e-06 7.167321e-03 -5.104980e-01 6.611328e-01
-4.185098e+00 4.047230e+01 -3.792681e+02 3.158164e+02 1.883391e-07 6.941151e-03 -4.365234e-01 6.616211e-01
-4.182162e+00 4.024222e+01 -3.792651e+02 3.158142e+02 2.401967e-06 6.544829e-03 -4.218750e-01 6.464844e-01
-4.199763e+00 4.035704e+01 -3.792617e+02 3.158127e+02 6.080723e-06 7.099414e-03 -4.223633e-01 6.467285e-01
-4.233083e+00 4.047639e+01 -3.513989e+02 3.158130e+02 2.718913e-06 6.947093e-03 -4.240723e-01 6.484375e-01
-4.195996e+00 4.044222e+01 -3.792588e+02 3.158135e+02 -2.393536e-06 7.014662e-03 -4.243164e-01 6.494141e-01
-4.228164e+00 4.035692e+01 -3.792583e+02 3.158130e+02 -3.602593e-06 6.973955e-03 -4.245605e-01 6.494141e-01
-4.211446e+00 4.045064e+01 -3.792539e+02 3.016011e+02 -2.939547e-06 7.122669e-03 -5.415039e-01 6.501465e-01
-4.278242e+00 4.049682e+01 -3.792524e+02 3.158125e+02 -1.558013e-06 7.260323e-03 -5.268555e-01 6.513672e-01
-4.091091e+00 4.038188e+01 -3.792517e+02 3.158110e+02 6.541854e-06 7.455169e-03 -5.273438e-01 6.533203e-01
-4.179831e+00 4.039751e+01 -3.792524e+02 3.158062e+02 5.943685e-06 7.372484e-03 -5.285645e-01 6.540527e-01
-4.275693e+00 4.050482e+01 -3.792524e+02 3.158003e+02 7.313073e-06 7.168005e-03 -4.304199e-01 6.545410e-01
-4.104416e+00 4.033534e+01 -3.792532e+02 3.105867e+02 5.513991e-06 7.245880e-03 -4.304199e-01 6.547852e-01
-4.282505e+00 4.051500e+01 -3.792544e+02 3.157959e+02 5.017279e-06 6.941610e-03 -4.250488e-01 5.505371e-01
-4.279402e+00 4.054411e+01 -3.792542e+02 3.157971e+02 7.778062e-06 7.250627e-03 -5.478516e-01 6.564941e-01
-4.207714e+00 4.044761e+01 -3.792546e+02 3.157991e+02 2.655467e-06 7.146054e-03 -5.483398e-01 6.577148e-01
-4.060976e+00 4.023441e+01 -3.792549e+02 3.157998e+02 2.376531e-06 7.137611e-03 -4.335938e-01 6.582031e-01
-4.162789e+00 4.033531e+01 -3.792542e+02 3.157996e+02 8.146595e-07 7.134547e-03 -4.338379e-01 6.586914e-01
-4.201982e+00 4.041456e+01 -3.792544e+02 3.158000e+02 1.489279e-06 7.313257e-03 -4.355469e-01 6.601562e-01
-4.220469e+00 4.045169e+01 -3.792537e+02 3.158010e+02 8.642450e-07 7.365975e-03 -4.360352e-01 6.604004e-01
-4.103956e+00 4.051886e+01 -3.792500e+02 3.158003e+02 3.924112e-06 7.441423e-03 -4.279785e-01 6.528320e-01
-4.203217e+00 4.043251e+01 -3.792480e+02 3.158008e+02 9.566426e-06 7.127541e-03 -4.282227e-01 6.533203e-01
-4.115164e+00 4.029583e+01 -3.792500e+02 3.158018e+02 8.951251e-06 7.285539e-03 -4.328613e-01 6.630859e-01
-4.235519e+00 4.045005e+01 -3.792534e+02 3.158013e+02 -4.403105e-06 7.128742e-03 -4.331055e-01 6.630859e-01
-4.375492e+00 4.048587e+01 -3.792539e+02 3.158013e+02 -4.790929e-06 7.000036e-03 -4.052734e-01 4.838867e-01
-4.214775e+00 4.047289e+01 -3.792554e+02 3.157998e+02 1.250783e-06 6.883120e-03 -4.301758e-01 4.841309e-01
-4.127500e+00 4.044182e+01 -3.792563e+02 3.157993e+02 9.047279e-06 7.049258e-03 -4.306641e-01 4.855957e-01
-4.219487e+00 4.060295e+01 -3.792563e+02 3.157996e+02 1.268745e-05 6.841121e-03 -4.311523e-01 4.855957e-01
-4.307348e+00 4.039060e+01 -3.792576e+02 3.157996e+02 1.268074e-06 7.274391e-03 -5.771484e-01 4.980469e-01
-4.163761e+00 4.029054e+01 -3.792615e+02 3.158010e+02 7.283493e-06 7.397729e-03 -4.326172e-01 5.646973e-01
-4.295361e+00 4.052897e+01 -3.792629e+02 3.157983e+02 2.936689e-06 7.349021e-03 -4.453125e-01 6.684570e-01
-4.207544e+00 4.043671e+01 -3.792646e+02 3.157974e+02 1.962842e-06 7.194533e-03 -4.465332e-01 6.699219e-01
-4.207973e+00 4.052030e+01 -3.792676e+02 3.157966e+02 3.778071e-06 7.292131e-03 -4.470215e-01 6.701660e-01
-4.265517e+00 4.059025e+01 -3.792678e+02 3.157961e+02 -2.174759e-06 6.614281e-03 -4.179688e-01 4.287109e-01
-4.139852e+00 4.035470e+01 -3.792693e+02 3.157966e+02 8.109441e-07 6.973361e-03 -4.365234e-01 4.902344e-01
-4.216660e+00 4.046868e+01 -3.792695e+02 3.157971e+02 6.806215e-07 6.575147e-03 -4.370117e-01 4.909668e-01
-4.165257e+00 4.042302e+01 -3.792720e+02 3.157979e+02 4.210765e-06 6.872876e-03 -5.708008e-01 5.070801e-01
-4.296030e+00 4.056499e+01 -3.792737e+02 3.158003e+02 3.197335e-06 7.078365e-03 -5.710449e-01 5.073242e-01
-4.156121e+00 4.041918e+01 -3.792742e+02 3.158000e+02 5.947400e-07 6.912398e-03 -4.521484e-01 4.916992e-01
-4.234692e+00 4.035496e+01 -3.792737e+02 3.158005e+02 -1.370960e-06 6.950390e-03 -4.521484e-01 4.919434e-01
-4.185231e+00 4.033970e+01 -3.792737e+02 3.158035e+02 -6.547570e-07 6.815819e-03 -4.526367e-01 4.914551e-01
-4.201475e+00 4.034962e+01 -3.792739e+02 3.158042e+02 4.741915e-06 6.918599e-03 -4.526367e-01 4.902344e-01
-4.237473e+00 4.053482e+01 -3.792732e+02 3.158049e+02 6.444970e-06 7.144431e-03 -4.531250e-01 4.904785e-01
-4.228842e+00 4.043837e+01 -3.792729e+02 3.016094e+02 2.189478e-06 6.958403e-03 -4.536133e-01 5.664062e-01
-4.108820e+00 4.038847e+01 -3.792717e+02 3.158064e+02 2.922114e-06 7.188972e-03 -4.541016e-01 5.661621e-01
-4.222301e+00 4.049533e+01 -3.792732e+02 3.158081e+02 -2.230775e-06 6.966512e-03 -4.094238e-01 4.899902e-01
-4.235924e+00 4.041676e+01 -3.792729e+02 3.158115e+02 -3.200907e-06 6.907552e-03 -4.104004e-01 4.899902e-01
-4.156961e+00 4.038074e+01 -3.792725e+02 3.106001e+02 -5.675466e-06 6.434636e-03 -4.106445e-01 4.140625e-01
-4.198135e+00 4.029100e+01 -3.792734e+02 3.158176e+02 5.449830e-06 7.262996e-03 -4.113770e-01 5.747070e-01
-4.239810e+00 4.058460e+01 -3.792727e+02 3.158210e+02 4.771924e-06 7.164769e-03 -4.121094e-01 5.625000e-01
-4.207855e+00 4.050388e+01 -3.792742e+02 3.158240e+02 4.101162e-07 6.992227e-03 -4.125977e-01 5.141602e-01
-4.200285e+00 4.043840e+01 -3.513616e+02 3.158220e+02 6.046714e-06 7.091671e-03 -4.135742e-01 5.151367e-01
-4.315245e+00 4.038468e+01 -3.792729e+02 3.158237e+02 7.066003e-06 7.184194e-03 -4.140625e-01 5.151367e-01
-4.244522e+00 4.041434e+01 -3.792734e+02 3.158242e+02 1.446267e-06 6.794370e-03 -4.147949e-01 5.156250e-01
-4.180290e+00 4.050776e+01 -3.792739e+02 3.158242e+02 -3.031288e-06 6.931973e-03 -4.155273e-01 5.004883e-01
-4.274740e+00 4.042075e+01 -3.792732e+02 3.158289e+02 6.260060e-06 7.230318e-03 -4.582520e-01 6.916504e-01
-4.282001e+00 4.046532e+01 -3.513582e+02 3.158291e+02 8.931531e-06 7.303225e-03 -4.584961e-01 6.918945e-01
-4.297234e+00 4.044550e+01 -3.792725e+02 3.158303e+02 4.243346e-06 7.170948e-03 -4.357910e-01 7.233887e-01
-4.171892e+00 4.050476e+01 -3.792729e+02 3.158293e+02 4.799932e-06 7.234567e-03 -4.365234e-01 7.236328e-01
-4.148684e+00 4.047723e+01 -3.792725e+02 3.158276e+02 2.503138e-06 6.672892e-03 -4.052734e-01 5.014648e-01
-4.183584e+00 4.043091e+01 -3.513572e+02 3.158267e+02 -2.000853e-06 6.738366e-03 -4.372559e-01 5.019531e-01
-4.111785e+00 4.041725e+01 -3.792722e+02 3.158225e+02 -1.486278e-06 6.611874e-03 -4.052734e-01 5.026855e-01
-4.197419e+00 4.038356e+01 -3.792715e+02 3.158215e+02 -1.338094e-06 6.765859e-03 -4.379883e-01 5.031738e-01
-4.273113e+00 4.053236e+01 -3.792751e+02 3.158218e+02 -1.559013e-07 6.837471e-03 -4.382324e-01 5.668945e-01
-4.197910e+00 4.045296e+01 -3.792771e+02 3.158198e+02 -1.466844e-06 6.498578e-03 -4.052734e-01 4.938965e-01
-4.118635e+00 4.050653e+01 -3.792771e+02 3.158206e+02 2.194336e-06 7.092750e-03 -4.526367e-01 6.857910e-01
-4.317401e+00 4.052419e+01 -3.792771e+02 3.158223e+02 4.604162e-07 6.843409e-03 -4.533691e-01 6.865234e-01
-4.324221e+00 4.058222e+01 -3.792781e+02 3.158225e+02 -4.619881e-07 6.553225e-03 -4.052734e-01 4.956055e-01
-4.361401e+00 4.065270e+01 -3.792810e+02 3.158225e+02 -1.445410e-06 6.884150e-03 -4.399414e-01 5.698242e-01
-4.244029e+00 4.054237e+01 -3.792834e+02 3.158186e+02 5.202046e-06 7.214444e-03 -4.418945e-01 5.710449e-01
-4.272626e+00 4.042777e+01 -3.792839e+02 3.158186e+02 -7.144882e-09 7.023935e-03 -4.414062e-01 5.715332e-01
-4.144527e+00 4.042996e+01 -3.792842e+02 3.158184e+02 2.184619e-06 6.920178e-03 -4.421387e-01 4.970703e-01
-4.363056e+00 4.065106e+01 -3.792859e+02 3.158142e+02 8.941820e-06 6.902895e-03 -4.565430e-01 6.909180e-01
-4.118138e+00 4.046092e+01 -3.792844e+02 3.158132e+02 8.149453e-06 6.918099e-03 -4.572754e-01 6.911621e-01
-4.251096e+00 4.035581e+01 -3.792825e+02 3.158118e+02 1.375533e-06 6.468436e-03 -4.052734e-01 5.117188e-01
-4.253604e+00 4.045678e+01 -3.792791e+02 3.158142e+02 -4.644173e-08 6.579198e-03 -4.445801e-01 5.117188e-01
-4.188320e+00 4.033473e+01 -3.792781e+02 3.158137e+02 1.240352e-07 6.511165e-03 -4.458008e-01 4.460449e-01
-4.311546e+00 4.049351e+01 -3.792744e+02 3.158101e+02 1.271789e-06 6.825385e-03 -4.602051e-01 6.577148e-01
-4.218429e+00 4.045330e+01 -3.513745e+02 3.158091e+02 3.739917e-06 6.924274e-03 -4.604492e-01 6.577148e-01
-4.187156e+00 4.046922e+01 -3.792710e+02 3.105649e+02 4.982698e-06 7.057533e-03 -4.606934e-01 6.577148e-01
-4.327367e+00 4.054169e+01 -3.792703e+02 3.158096e+02 7.074005e-06 7.125346e-03 -4.497070e-01 5.876465e-01
-4.262220e+00 4.048593e+01 -3.792683e+02 3.158088e+02 6.367519e-07 6.889820e-03 -4.531250e-01 6.872559e-01
-4.173857e+00 4.044446e+01 -3.792710e+02 3.158057e+02 -4.800789e-06 6.663729e-03 -4.506836e-01 5.869141e-01
-4.107630e+00 4.047856e+01 -3.792703e+02 3.158064e+02 -4.785071e-06 6.735806e-03 -4.506836e-01 6.801758e-01
-4.259492e+00 4.038637e+01 -3.792686e+02 3.158027e+02 -8.135163e-07 7.094225e-03 -4.516602e-01 5.878906e-01
-4.236887e+00 4.047132e+01 -3.792688e+02 3.105505e+02 -5.236627e-06 6.765460e-03 -4.521484e-01 5.881348e-01
-4.313265e+00 4.051346e+01 -3.792703e+02 3.105525e+02 3.689474e-06 7.167976e-03 -4.533691e-01 5.886230e-01
-4.222168e+00 4.055042e+01 -3.792708e+02 3.158069e+02 1.045439e-06 6.918418e-03 -4.538574e-01 5.881348e-01
-4.226151e+00 4.051003e+01 -3.792747e+02 3.158088e+02 -1.085593e-06 6.816909e-03 -4.543457e-01 5.883789e-01
-4.179095e+00 4.031773e+01 -3.792810e+02 3.158118e+02 1.858955e-06 6.855458e-03 -4.550781e-01 5.886230e-01
-4.241306e+00 4.049122e+01 -3.792815e+02 3.158142e+02 2.049152e-07 7.101124e-03 -4.558105e-01 5.886230e-01
-4.144017e+00 4.043073e+01 -3.792832e+02 3.158154e+02 -2.317371e-06 7.076922e-03 -6.206055e-01 5.886230e-01
-4.140592e+00 4.044209e+01 -3.792852e+02 3.158198e+02 -2.201195e-06 6.875220e-03 -4.567871e-01 5.883789e-01
