1.279961e+02 7.279597e-01 1.148320e-02 5.783564e-01 -9.960938e-01 9.960938e-01
1.279961e+02 7.279597e-01 1.148320e-02 5.783564e-01 -9.960938e-01 9.960938e-01
1.279961e+02 7.279597e-01 1.148320e-02 5.783564e-01 -9.960938e-01 9.960938e-01
1.279961e+02 7.279597e-01 1.148320e-02 5.783564e-01 -9.960938e-01 9.960938e-01
1.279961e+02 7.279597e-01 1.148320e-02 5.783564e-01 -9.960938e-01 9.960938e-01
1.279961e+02 7.279597e-01 1.148320e-02 5.783564e-01 -9.960938e-01 9.960938e-01
1.279961e+02 7.279597e-01 1.148320e-02 5.783564e-01 -9.960938e-01 9.960938e-01
1.279961e+02 7.279597e-01 1.148320e-02 5.783564e-01 -9.960938e-01 9.960938e-01
1.279961e+02 7.279597e-01 1.148320e-02 5.783564e-01 -9.960938e-01 9.960938e-01
1.279961e+02 7.279597e-01 1.148320e-02 5.783564e-01 -9.960938e-01 9.960938e-01
1.279961e+02 7.279597e-01 1.148320e-02 5.783564e-01 -9.960938e-01 9.960938e-01
1.279961e+02 7.279597e-01 1.148320e-02 5.783564e-01 -9.960938e-01 9.960938e-01
1.279961e+02 7.279597e-01 1.148320e-02 5.783564e-01 -9.960938e-01 9.960938e-01
1.279961e+02 7.279597e-01 1.148320e-02 5.783564e-01 -9.960938e-01 9.960938e-01
1.279961e+02 7.279597e-01 1.148320e-02 5.783564e-01 -9.960938e-01 9.960938e-01
1.279961e+02 7.279597e-01 1.148320e-02 5.783564e-01 -9.960938e-01 9.960938e-01
1.279961e+02 7.279597e-01 1.148320e-02 5.783564e-01 -9.960938e-01 9.960938e-01
1.279961e+02 7.279597e-01 1.148320e-02 5.783564e-01 -9.960938e-01 9.960938e-01
1.279961e+02 7.279597e-01 1.148320e-02 5.783564e-01 -9.960938e-01 9.960938e-01
1.279961e+02 7.279597e-01 1.148320e-02 5.783564e-01 -9.960938e-01 9.960938e-01
1.279961e+02 7.279597e-01 1.148320e-02 5.783564e-01 -9.960938e-01 9.960938e-01
1.279961e+02 7.279597e-01 1.148320e-02 5.783564e-01 -9.960938e-01 9.960938e-01
1.279961e+02 7.279597e-01 1.148320e-02 5.783564e-01 -9.960938e-01 9.960938e-01
1.279961e+02 7.279597e-01 1.148320e-02 5.783564e-01 -9.960938e-01 9.960938e-01
1.279961e+02 7.279597e-01 1.148320e-02 5.783564e-01 -9.960938e-01 9.960938e-01
1.279961e+02 7.279597e-01 1.148320e-02 5.783564e-01 -9.960938e-01 9.960938e-01
1.279961e+02 7.279597e-01 1.148320e-02 5.783564e-01 -9.960938e-01 9.960938e-01
1.279961e+02 7.279597e-01 1.148320e-02 5.783564e-01 -9.960938e-01 9.960938e-01
1.279961e+02 7.279597e-01 1.148320e-02 5.783564e-01 -9.960938e-01 9.960938e-01
1.279961e+02 7.279597e-01 1.148320e-02 5.783564e-01 -9.960938e-01 9.960938e-01
1.279961e+02 7.279597e-01 1.148320e-02 5.783564e-01 -9.960938e-01 9.960938e-01
1.279961e+02 7.279597e-01 1.148320e-02 5.783564e-01 -9.960938e-01 9.960938e-01
1.279961e+02 7.279597e-01 1.148320e-02 5.783564e-01 -9.960938e-01 9.960938e-01
1.279961e+02 7.279597e-01 1.148320e-02 5.783564e-01 -9.960938e-01 9.960938e-01
1.279961e+02 7.279597e-01 1.148320e-02 5.783564e-01 -9.960938e-01 9.960938e-01
1.279961e+02 7.279597e-01 1.148320e-02 5.783564e-01 -9.960938e-01 9.960938e-01
1.279961e+02 7.279597e-01 1.148320e-02 5.783564e-01 -9.960938e-01 9.960938e-01
1.279961e+02 7.279597e-01 1.148320e-02 5.783564e-01 -9.960938e-01 9.960938e-01
1.279961e+02 7.279597e-01 1.148320e-02 5.783564e-01 -9.960938e-01 9.960938e-01
1.279961e+02 7.279597e-01 1.148320e-02 5.783564e-01 -9.960938e-01 9.960938e-01
1.279961e+02 7.279597e-01 1.148320e-02 5.783564e-01 -9.960938e-01 9.960938e-01
1.279961e+02 7.279597e-01 1.148320e-02 5.783564e-01 -9.960938e-01 9.960938e-01
1.279961e+02 7.279597e-01 1.148320e-02 5.783564e-01 -9.960938e-01 9.960938e-01
1.279961e+02 7.279597e-01 1.148320e-02 5.783564e-01 -9.960938e-01 9.960938e-01
1.279961e+02 7.279597e-01 1.148320e-02 5.783564e-01 -9.960938e-01 9.960938e-01
1.279961e+02 7.279597e-01 1.148320e-02 5.783564e-01 -9.960938e-01 9.960938e-01
1.279961e+02 7.279597e-01 1.148320e-02 5.783564e-01 -9.960938e-01 9.960938e-01
1.279961e+02 7.279597e-01 1.148320e-02 5.783564e-01 -9.960938e-01 9.960938e-01
1.279961e+02 7.279597e-01 1.148320e-02 5.783564e-01 -9.960938e-01 9.960938e-01
1.279961e+02 7.279597e-01 1.148320e-02 5.783564e-01 -9.960938e-01 9.960938e-01
1.279961e+02 7.279597e-01 1.148320e-02 5.783564e-01 -9.960938e-01 9.960938e-01
1.279961e+02 7.279597e-01 1.148320e-02 5.783564e-01 -9.960938e-01 9.960938e-01
1.279961e+02 7.279597e-01 1.148320e-02 5.783564e-01 -9.960938e-01 9.960938e-01
1.279961e+02 7.279597e-01 1.148320e-02 5.783564e-01 -9.960938e-01 9.960938e-01
1.279961e+02 7.279597e-01 1.148320e-02 5.783564e-01 -9.960938e-01 9.960938e-01
1.279961e+02 7.279597e-01 1.148320e-02 5.783564e-01 -9.960938e-01 9.960938e-01
1.279961e+02 7.279597e-01 1.148320e-02 5.783564e-01 -9.960938e-01 9.960938e-01
1.279961e+02 7.279597e-01 1.148320e-02 5.783564e-01 -9.960938e-01 9.960938e-01
1.279961e+02 7.279597e-01 1.148320e-02 5.783564e-01 -9.960938e-01 9.960938e-01
1.279961e+02 7.279597e-01 1.148320e-02 5.783564e-01 -9.960938e-01 9.960938e-01
1.279961e+02 7.279597e-01 1.148320e-02 5.783564e-01 -9.960938e-01 9.960938e-01
1.279961e+02 7.279597e-01 1.148320e-02 5.783564e-01 -9.960938e-01 9.960938e-01
1.279961e+02 7.279597e-01 1.148320e-02 5.783564e-01 -9.960938e-01 9.960938e-01
1.279961e+02 7.279597e-01 1.148320e-02 5.783564e-01 -9.960938e-01 9.960938e-01
1.279961e+02 7.279597e-01 1.148320e-02 5.783564e-01 -9.960938e-01 9.960938e-01
1.279961e+02 7.279597e-01 1.148320e-02 5.783564e-01 -9.960938e-01 9.960938e-01
1.279961e+02 7.279597e-01 1.148320e-02 5.783564e-01 -9.960938e-01 9.960938e-01
1.279961e+02 7.279597e-01 1.148320e-02 5.783564e-01 -9.960938e-01 9.960938e-01
1.279961e+02 7.279597e-01 1.148320e-02 5.783564e-01 -9.960938e-01 9.960938e-01
1.279961e+02 7.279597e-01 1.148320e-02 5.783564e-01 -9.960938e-01 9.960938e-01
1.279961e+02 7.279597e-01 1.148320e-02 5.783564e-01 -9.960938e-01 9.960938e-01
1.279961e+02 7.279597e-01 1.148320e-02 5.783564e-01 -9.960938e-01 9.960938e-01
1.279961e+02 7.279597e-01 1.148320e-02 5.783564e-01 -9.960938e-01 9.960938e-01
1.279961e+02 7.279597e-01 1.148320e-02 5.783564e-01 -9.960938e-01 9.960938e-01
1.279961e+02 7.279597e-01 1.148320e-02 5.783564e-01 -9.960938e-01 9.960938e-01
1.279961e+02 7.279597e-01 1.148320e-02 5.783564e-01 -9.960938e-01 9.960938e-01
1.279961e+02 7.279597e-01 1.148320e-02 5.783564e-01 -9.960938e-01 9.960938e-01
1.279961e+02 7.279597e-01 1.148320e-02 5.783564e-01 -9.960938e-01 9.960938e-01
1.279961e+02 7.279597e-01 1.148320e-02 5.783564e-01 -9.960938e-01 9.960938e-01
1.279961e+02 7.279597e-01 1.148320e-02 5.783564e-01 -9.960938e-01 9.960938e-01
1.279961e+02 7.279597e-01 1.148320e-02 5.783564e-01 -9.960938e-01 9.960938e-01
1.279961e+02 7.279597e-01 1.148320e-02 5.783564e-01 -9.960938e-01 9.960938e-01
1.279961e+02 7.279597e-01 1.148320e-02 5.783564e-01 -9.960938e-01 9.960938e-01
1.279961e+02 7.279597e-01 1.148320e-02 5.783564e-01 -9.960938e-01 9.960938e-01
1.279961e+02 7.279597e-01 1.148320e-02 5.783564e-01 -9.960938e-01 9.960938e-01
1.279961e+02 7.279597e-01 1.148320e-02 5.783564e-01 -9.960938e-01 9.960938e-01
1.279961e+02 7.279597e-01 1.148320e-02 5.783564e-01 -9.960938e-01 9.960938e-01
1.279961e+02 7.279597e-01 1.148320e-02 5.783564e-01 -9.960938e-01 9.960938e-01
1.279961e+02 7.279597e-01 1.148320e-02 5.783564e-01 -9.960938e-01 9.960938e-01
1.279961e+02 7.279597e-01 1.148320e-02 5.783564e-01 -9.960938e-01 9.960938e-01
1.279961e+02 7.279597e-01 1.148320e-02 5.783564e-01 -9.960938e-01 9.960938e-01
1.279961e+02 7.279597e-01 1.148320e-02 5.783564e-01 -9.960938e-01 9.960938e-01
1.279961e+02 7.279597e-01 1.148320e-02 5.783564e-01 -9.960938e-01 9.960938e-01
1.279961e+02 7.279597e-01 1.148320e-02 5.783564e-01 -9.960938e-01 9.960938e-01
1.279961e+02 7.279597e-01 1.148320e-02 5.783564e-01 -9.960938e-01 9.960938e-01
1.279961e+02 7.279597e-01 1.148320e-02 5.783564e-01 -9.960938e-01 9.960938e-01
1.279961e+02 7.279597e-01 1.148320e-02 5.783564e-01 -9.960938e-01 9.960938e-01
1.279961e+02 7.279597e-01 1.148320e-02 5.783564e-01 -9.960938e-01 9.960938e-01
1.279961e+02 7.279597e-01 1.148320e-02 5.783564e-01 -9.960938e-01 9.960938e-01
1.279961e+02 7.279597e-01 1.148320e-02 5.783564e-01 -9.960938e-01 9.960938e-01
1.279961e+02 7.279597e-01 1.148320e-02 5.783564e-01 -9.960938e-01 9.960938e-01
