-1.628200e+00 5.832873e+00 -3.390625e+01 2.757031e+01 1.200209e-05 3.231778e-03 -2.226562e-01 2.265625e-01
-1.988962e+00 6.021599e+00 -3.399219e+01 2.748828e+01 4.003426e-06 2.589257e-03 -2.187500e-01 1.992188e-01
-2.139909e+00 6.149165e+00 -3.394141e+01 2.758984e+01 2.910420e-06 2.467550e-03 -2.187500e-01 2.031250e-01
-2.248436e+00 6.275635e+00 -3.488672e+01 2.758984e+01 2.437716e-06 2.395012e-03 -2.187500e-01 2.070312e-01
-2.311384e+00 6.374016e+00 -3.796484e+01 2.758984e+01 2.476091e-06 2.349313e-03 -2.187500e-01 2.109375e-01
