-6.756336e-01 5.975580e+00 -3.608343e+01 3.135113e+01 1.844960e-06 2.713836e-03 -1.262285e-01 1.262285e-01
-7.911364e-01 6.625386e+00 -3.800571e+01 3.132938e+01 1.522141e-07 2.157863e-03 -1.262285e-01 1.262285e-01
-7.756989e-01 6.991457e+00 -3.834872e+01 3.426455e+01 -1.527553e-07 1.983776e-03 -1.262285e-01 1.262285e-01
-7.555891e-01 7.299360e+00 -3.871668e+01 3.930354e+01 -4.814194e-08 1.878770e-03 -1.262285e-01 1.262285e-01
-7.425059e-01 7.549620e+00 -3.900091e+01 4.000104e+01 2.252025e-09 1.805339e-03 -1.262285e-01 1.262285e-01
-7.512862e-01 7.759943e+00 -3.925260e+01 4.204961e+01 1.345679e-07 1.748107e-03 -1.262285e-01 1.262285e-01
-7.429033e-01 7.934821e+00 -3.903368e+01 4.336184e+01 1.182600e-07 1.702391e-03 -1.262285e-01 1.262283e-01
-7.479202e-01 8.100920e+00 -3.924162e+01 4.234263e+01 -6.297890e-08 1.662420e-03 -1.262285e-01 1.262285e-01
-7.559072e-01 8.250852e+00 -3.946704e+01 4.388878e+01 7.232833e-08 1.628427e-03 -1.262285e-01 1.262285e-01
-7.501766e-01 8.377652e+00 -3.993817e+01 4.387441e+01 -3.296533e-08 1.601906e-03 -1.262285e-01 1.262285e-01
-7.680432e-01 8.495814e+00 -4.077596e+01 4.369113e+01 8.752991e-08 1.577620e-03 -1.262285e-01 1.262285e-01
-7.714449e-01 8.599277e+00 -4.143181e+01 4.483160e+01 -5.182584e-08 1.554409e-03 -1.282265e-01 1.262285e-01
-7.692865e-01 8.712962e+00 -4.273229e+01 4.513982e+01 2.676150e-07 1.537435e-03 -1.283972e-01 1.262285e-01
-7.803660e-01 8.802111e+00 -4.319677e+01 4.606207e+01 7.568120e-08 1.517135e-03 -1.315860e-01 1.262285e-01
-7.893201e-01 8.886531e+00 -4.354141e+01 4.570866e+01 4.345205e-08 1.499959e-03 -1.306552e-01 1.262285e-01
-7.985477e-01 8.970205e+00 -4.423574e+01 4.580009e+01 1.235402e-07 1.485596e-03 -1.328187e-01 1.262285e-01
-8.000478e-01 9.034200e+00 -4.507541e+01 4.605619e+01 4.925705e-08 1.471404e-03 -1.353410e-01 1.262285e-01
-8.048410e-01 9.110606e+00 -4.529625e+01 4.716523e+01 -6.392714e-09 1.457646e-03 -1.333749e-01 1.262285e-01
-8.155196e-01 9.169810e+00 -4.593805e+01 4.752895e+01 2.535478e-08 1.443325e-03 -1.338171e-01 1.296558e-01
-8.179612e-01 9.240599e+00 -4.614914e+01 4.806922e+01 3.145739e-08 1.432634e-03 -1.358372e-01 1.262285e-01
-8.278879e-01 9.292130e+00 -4.619230e+01 4.916501e+01 6.379476e-08 1.419808e-03 -1.366690e-01 1.319452e-01
-8.316185e-01 9.348276e+00 -4.673481e+01 4.960925e+01 -1.192897e-07 1.413688e-03 -1.366235e-01 1.262285e-01
-8.371678e-01 9.388559e+00 -4.715052e+01 5.013261e+01 5.853541e-08 1.400870e-03 -1.382233e-01 1.270593e-01
-8.471304e-01 9.444531e+00 -4.739655e+01 5.056789e+01 1.237119e-07 1.394197e-03 -1.366719e-01 1.262285e-01
-8.472388e-01 9.490560e+00 -4.776299e+01 5.119899e+01 4.395779e-08 1.382386e-03 -1.398641e-01 1.308507e-01
-8.540004e-01 9.533919e+00 -4.789103e+01 5.137928e+01 -4.328724e-08 1.375871e-03 -1.383848e-01 1.404782e-01
-8.520361e-01 9.575380e+00 -4.792182e+01 5.241221e+01 2.514067e-08 1.367623e-03 -1.381395e-01 1.419391e-01
-8.641866e-01 9.613105e+00 -4.838671e+01 5.300624e+01 -3.975244e-08 1.359423e-03 -1.376562e-01 1.311934e-01
-8.613116e-01 9.653921e+00 -4.858893e+01 5.306386e+01 1.728280e-07 1.352086e-03 -1.378162e-01 1.423562e-01
-8.733692e-01 9.691088e+00 -4.874405e+01 5.384280e+01 2.530240e-08 1.342899e-03 -1.390189e-01 1.364542e-01
-8.693777e-01 9.722129e+00 -4.878021e+01 5.398826e+01 6.409817e-08 1.339214e-03 -1.373695e-01 1.324515e-01
-8.792932e-01 9.756761e+00 -4.902668e+01 5.455389e+01 -1.287146e-07 1.332138e-03 -1.424427e-01 1.322095e-01
-8.781669e-01 9.782138e+00 -4.883550e+01 5.520514e+01 4.606473e-08 1.325771e-03 -1.341217e-01 1.336498e-01
-8.860036e-01 9.819227e+00 -4.937669e+01 5.508499e+01 -4.962899e-08 1.323009e-03 -1.314367e-01 1.360922e-01
-8.896381e-01 9.841482e+00 -4.902939e+01 5.576982e+01 -1.336154e-07 1.315153e-03 -1.426239e-01 1.418365e-01
-8.914272e-01 9.875998e+00 -4.946773e+01 5.513823e+01 1.156652e-07 1.311698e-03 -1.464394e-01 1.385837e-01
-9.003580e-01 9.901636e+00 -4.964452e+01 5.583236e+01 8.339990e-08 1.305885e-03 -1.389395e-01 1.376189e-01
-8.926353e-01 9.924170e+00 -4.968736e+01 5.609013e+01 -3.977766e-08 1.302771e-03 -1.373174e-01 1.391644e-01
-8.966092e-01 9.944948e+00 -5.003354e+01 5.659497e+01 6.758188e-08 1.295756e-03 -1.370798e-01 1.431490e-01
-9.015611e-01 9.972774e+00 -4.976217e+01 5.704981e+01 -2.671972e-08 1.289736e-03 -1.331017e-01 1.367954e-01
-9.089598e-01 9.996894e+00 -5.011092e+01 5.725029e+01 5.260142e-08 1.283835e-03 -1.366243e-01 1.443713e-01
-9.054364e-01 1.002150e+01 -5.015676e+01 5.727738e+01 2.377067e-08 1.281503e-03 -1.439258e-01 1.446851e-01
-9.043159e-01 1.004569e+01 -5.050770e+01 5.740879e+01 9.817885e-08 1.276619e-03 -1.309996e-01 1.481241e-01
-9.116398e-01 1.005914e+01 -5.106146e+01 5.862569e+01 -9.480089e-08 1.274327e-03 -1.391862e-01 1.494603e-01
-9.068359e-01 1.008701e+01 -5.064680e+01 5.868892e+01 1.809144e-07 1.267058e-03 -1.388526e-01 1.428773e-01
-9.177043e-01 1.010162e+01 -5.070570e+01 5.866054e+01 -7.988704e-08 1.264443e-03 -1.463185e-01 1.512885e-01
-9.152303e-01 1.012436e+01 -5.095442e+01 5.861179e+01 7.711219e-08 1.262622e-03 -1.400146e-01 1.423110e-01
-9.149623e-01 1.013870e+01 -5.102276e+01 5.922036e+01 6.846261e-08 1.257910e-03 -1.404530e-01 1.473991e-01
-9.065151e-01 1.016632e+01 -5.101650e+01 5.932785e+01 -8.208813e-08 1.255604e-03 -1.385662e-01 1.447107e-01
-9.133027e-01 1.018427e+01 -5.156399e+01 5.928920e+01 -5.589866e-08 1.250323e-03 -1.386377e-01 1.549958e-01
-9.112060e-01 1.020235e+01 -5.177533e+01 5.978594e+01 8.517602e-08 1.246979e-03 -1.379691e-01 1.542044e-01
-9.093162e-01 1.021958e+01 -5.190127e+01 6.041474e+01 9.947518e-08 1.242521e-03 -1.301985e-01 1.435696e-01
-9.091228e-01 1.024648e+01 -5.186365e+01 6.050980e+01 1.948061e-07 1.240580e-03 -1.425353e-01 1.455333e-01
-9.115144e-01 1.025810e+01 -5.189693e+01 6.038260e+01 7.506381e-08 1.236270e-03 -1.437662e-01 1.524342e-01
-9.100646e-01 1.027544e+01 -5.173587e+01 6.105885e+01 3.566869e-08 1.232661e-03 -1.358314e-01 1.552069e-01
-9.074750e-01 1.029304e+01 -5.223718e+01 6.116625e+01 -1.407415e-08 1.231104e-03 -1.483335e-01 1.474500e-01
-9.070260e-01 1.030747e+01 -5.207993e+01 6.119661e+01 -3.083769e-08 1.225485e-03 -1.376047e-01 1.627453e-01
-9.055354e-01 1.032879e+01 -5.242946e+01 6.103116e+01 8.909711e-08 1.223593e-03 -1.383221e-01 1.557242e-01
-8.998919e-01 1.034713e+01 -5.222762e+01 6.111290e+01 -1.402558e-07 1.220331e-03 -1.452195e-01 1.592625e-01
-9.007005e-01 1.035916e+01 -5.261820e+01 6.225615e+01 -2.037753e-08 1.216415e-03 -1.446800e-01 1.471454e-01
-9.032223e-01 1.037814e+01 -5.284191e+01 6.188329e+01 -4.669787e-08 1.213168e-03 -1.366725e-01 1.465431e-01
-9.009358e-01 1.039552e+01 -5.276641e+01 6.248888e+01 3.643380e-08 1.211309e-03 -1.414699e-01 1.621653e-01
-9.020220e-01 1.041225e+01 -5.294305e+01 6.261961e+01 7.503264e-08 1.207968e-03 -1.464942e-01 1.570936e-01
-8.949279e-01 1.042546e+01 -5.275658e+01 6.296816e+01 8.447865e-08 1.208326e-03 -1.461381e-01 1.595757e-01
-8.920964e-01 1.044179e+01 -5.336413e+01 6.352112e+01 -1.230479e-08 1.204474e-03 -1.406113e-01 1.551525e-01
-9.013218e-01 1.045225e+01 -5.310244e+01 6.350315e+01 -1.165275e-07 1.201698e-03 -1.469509e-01 1.595945e-01
-8.962344e-01 1.047120e+01 -5.353683e+01 6.344210e+01 4.635041e-09 1.200639e-03 -1.420265e-01 1.659749e-01
-8.968477e-01 1.048851e+01 -5.333763e+01 6.356612e+01 -1.131922e-07 1.194175e-03 -1.446390e-01 1.569364e-01
-8.976203e-01 1.049982e+01 -5.379289e+01 6.371345e+01 -6.559664e-08 1.193330e-03 -1.452132e-01 1.561534e-01
-8.927663e-01 1.052121e+01 -5.391068e+01 6.423037e+01 5.759179e-08 1.190502e-03 -1.466206e-01 1.555755e-01
-8.920943e-01 1.052862e+01 -5.360100e+01 6.421468e+01 1.339995e-07 1.185909e-03 -1.509248e-01 1.625440e-01
-8.903523e-01 1.054256e+01 -5.406688e+01 6.396976e+01 1.115384e-07 1.185167e-03 -1.469638e-01 1.556192e-01
-8.895891e-01 1.055635e+01 -5.388572e+01 6.428340e+01 4.166240e-08 1.183771e-03 -1.474383e-01 1.602770e-01
-8.851917e-01 1.057065e+01 -5.388930e+01 6.441215e+01 6.885224e-08 1.180962e-03 -1.434219e-01 1.602675e-01
-8.884439e-01 1.058014e+01 -5.393560e+01 6.474424e+01 -6.825442e-10 1.177347e-03 -1.497409e-01 1.704026e-01
-8.855382e-01 1.060354e+01 -5.436243e+01 6.485370e+01 -5.888619e-08 1.176550e-03 -1.448692e-01 1.646310e-01
-8.896342e-01 1.061247e+01 -5.424051e+01 6.487365e+01 -5.176242e-08 1.173361e-03 -1.454579e-01 1.659939e-01
-8.869010e-01 1.062679e+01 -5.418561e+01 6.531760e+01 -5.958448e-08 1.171401e-03 -1.438368e-01 1.531792e-01
-8.796582e-01 1.063487e+01 -5.440277e+01 6.527454e+01 6.657503e-09 1.170626e-03 -1.473287e-01 1.712325e-01
-8.834793e-01 1.065082e+01 -5.447087e+01 6.521473e+01 -7.539585e-08 1.165663e-03 -1.488352e-01 1.707869e-01
-8.796167e-01 1.066634e+01 -5.457624e+01 6.548202e+01 3.567910e-08 1.165716e-03 -1.528056e-01 1.588019e-01
-8.832998e-01 1.068163e+01 -5.465278e+01 6.563156e+01 1.273544e-08 1.162412e-03 -1.496684e-01 1.577891e-01
-8.831863e-01 1.069330e+01 -5.470623e+01 6.587828e+01 -1.993999e-07 1.162099e-03 -1.542115e-01 1.630413e-01
-8.762335e-01 1.069834e+01 -5.459835e+01 6.604403e+01 -3.080796e-08 1.158198e-03 -1.495053e-01 1.572653e-01
-8.810910e-01 1.071560e+01 -5.497932e+01 6.596915e+01 7.801463e-08 1.156565e-03 -1.479813e-01 1.527668e-01
-8.718612e-01 1.072787e+01 -5.479091e+01 6.590274e+01 3.348809e-08 1.154020e-03 -1.493834e-01 1.741015e-01
-8.829500e-01 1.073568e+01 -5.502270e+01 6.601880e+01 -3.985061e-08 1.153939e-03 -1.590713e-01 1.570552e-01
-8.715391e-01 1.075197e+01 -5.530079e+01 6.646840e+01 -6.255460e-08 1.150114e-03 -1.494457e-01 1.605837e-01
-8.786754e-01 1.075871e+01 -5.529126e+01 6.594932e+01 -3.615303e-08 1.147522e-03 -1.586780e-01 1.705360e-01
-8.697350e-01 1.077666e+01 -5.556387e+01 6.658441e+01 3.668187e-08 1.148368e-03 -1.586541e-01 1.554996e-01
-8.833132e-01 1.078755e+01 -5.573610e+01 6.647672e+01 -1.282986e-07 1.144359e-03 -1.543110e-01 1.676577e-01
-8.700780e-01 1.079957e+01 -5.568558e+01 6.691086e+01 -2.345707e-08 1.144776e-03 -1.588069e-01 1.541096e-01
-8.671371e-01 1.080906e+01 -5.551010e+01 6.719221e+01 6.244341e-08 1.140615e-03 -1.607898e-01 1.640824e-01
-8.714761e-01 1.081847e+01 -5.567610e+01 6.740079e+01 7.943195e-08 1.139307e-03 -1.526137e-01 1.599647e-01
-8.704605e-01 1.082763e+01 -5.597575e+01 6.681327e+01 7.884774e-09 1.138262e-03 -1.578349e-01 1.569166e-01
-8.762907e-01 1.084517e+01 -5.567704e+01 6.789024e+01 1.220726e-09 1.132558e-03 -1.455904e-01 1.563739e-01
-8.611892e-01 1.085376e+01 -5.561653e+01 6.747866e+01 -8.436085e-08 1.134573e-03 -1.634007e-01 1.488729e-01
-8.763778e-01 1.086582e+01 -5.576424e+01 6.805524e+01 -7.215883e-08 1.131306e-03 -1.603049e-01 1.508756e-01
-8.692494e-01 1.087035e+01 -5.624973e+01 6.768035e+01 -1.745306e-08 1.133120e-03 -1.568181e-01 1.701164e-01
-8.693023e-01 1.088244e+01 -5.624783e+01 6.802846e+01 -1.394580e-07 1.129665e-03 -1.602378e-01 1.650088e-01
