-1.392100e+00 8.667438e+00 -4.353476e+01 4.931039e+01 2.698177e-05 1.970441e-03 -1.262285e-01 1.262285e-01
-1.556971e+00 1.039878e+01 -4.751479e+01 5.449250e+01 -4.066253e-08 1.511050e-03 -1.262285e-01 1.262285e-01
-1.638983e+00 1.116036e+01 -5.381835e+01 6.042438e+01 2.486499e-07 1.319337e-03 -1.262285e-01 1.262285e-01
-1.714629e+00 1.163300e+01 -6.012540e+01 6.032290e+01 3.280535e-07 1.204252e-03 -1.262285e-01 1.262285e-01
-1.738616e+00 1.208414e+01 -6.579836e+01 6.527798e+01 2.715418e-07 1.132906e-03 -1.262285e-01 1.262285e-01
-1.781870e+00 1.243176e+01 -6.545188e+01 6.682815e+01 3.624538e-07 1.072430e-03 -1.262285e-01 1.262285e-01
-1.810594e+00 1.280325e+01 -6.931773e+01 6.983236e+01 5.633316e-08 1.026842e-03 -1.262285e-01 1.262259e-01
-1.850986e+00 1.317329e+01 -7.128983e+01 7.559614e+01 1.935131e-07 9.900883e-04 -1.262285e-01 1.262281e-01
-1.905739e+00 1.352140e+01 -7.582979e+01 7.711562e+01 3.652841e-07 9.555312e-04 -1.262285e-01 1.262283e-01
-1.938109e+00 1.382119e+01 -7.841350e+01 7.855286e+01 -3.114293e-07 9.250178e-04 -1.262276e-01 1.262285e-01
-1.997502e+00 1.417687e+01 -7.944277e+01 8.103687e+01 -2.149448e-07 9.093493e-04 -1.262285e-01 1.262285e-01
-2.089799e+00 1.450653e+01 -8.131911e+01 8.919095e+01 4.352943e-07 8.751916e-04 -1.262284e-01 1.262282e-01
-2.108138e+00 1.482604e+01 -8.455944e+01 8.881212e+01 -1.227109e-07 8.475841e-04 -1.262285e-01 1.262284e-01
-2.191063e+00 1.515616e+01 -8.572353e+01 9.323955e+01 -3.252874e-07 8.315840e-04 -1.262284e-01 1.262284e-01
-2.227124e+00 1.551708e+01 -9.176592e+01 9.569034e+01 2.055485e-07 8.126761e-04 -1.262285e-01 1.262285e-01
-2.276859e+00 1.583297e+01 -9.155284e+01 9.692365e+01 -3.238611e-07 7.928831e-04 -1.262280e-01 1.262271e-01
-2.304389e+00 1.612107e+01 -9.411547e+01 1.003334e+02 7.379580e-08 7.821775e-04 -1.262284e-01 1.262285e-01
-2.383466e+00 1.646542e+01 -9.400624e+01 1.013836e+02 -2.814260e-07 7.659371e-04 -1.262285e-01 1.262272e-01
-2.413862e+00 1.671678e+01 -9.521124e+01 1.045488e+02 -7.169094e-09 7.498566e-04 -1.262284e-01 1.262279e-01
-2.410909e+00 1.702809e+01 -9.925579e+01 1.062671e+02 3.692939e-07 7.360549e-04 -1.262285e-01 1.262279e-01
-2.443889e+00 1.727162e+01 -1.007514e+02 1.100186e+02 3.172090e-07 7.232962e-04 -1.262285e-01 1.262274e-01
-2.451919e+00 1.755160e+01 -1.021882e+02 1.107052e+02 2.645305e-07 7.148920e-04 -1.262283e-01 1.262285e-01
-2.471332e+00 1.780810e+01 -1.029607e+02 1.117925e+02 5.600756e-07 7.016213e-04 -1.262275e-01 1.262251e-01
-2.513940e+00 1.799283e+01 -1.063830e+02 1.140665e+02 -2.593208e-07 6.886304e-04 -1.262284e-01 1.262271e-01
-2.566386e+00 1.824728e+01 -1.099111e+02 1.166066e+02 -1.116697e-07 6.793934e-04 -1.262282e-01 1.262279e-01
-2.544514e+00 1.848072e+01 -1.083067e+02 1.176991e+02 -8.332541e-08 6.672492e-04 -1.262285e-01 1.262284e-01
-2.593365e+00 1.869027e+01 -1.098987e+02 1.189012e+02 9.890168e-08 6.632922e-04 -1.262285e-01 1.262278e-01
-2.614422e+00 1.888620e+01 -1.109375e+02 1.218665e+02 5.697052e-07 6.496313e-04 -1.262284e-01 1.310342e-01
-2.689839e+00 1.912382e+01 -1.114281e+02 1.222141e+02 -5.994701e-08 6.388601e-04 -1.262789e-01 1.289573e-01
-2.709728e+00 1.927054e+01 -1.148841e+02 1.230833e+02 -3.939740e-07 6.346462e-04 -1.262255e-01 1.262285e-01
-2.724899e+00 1.945232e+01 -1.169917e+02 1.251743e+02 -2.804262e-07 6.231269e-04 -1.332508e-01 1.262251e-01
-2.757745e+00 1.968711e+01 -1.178151e+02 1.279391e+02 2.967549e-07 6.194206e-04 -1.262284e-01 1.262270e-01
-2.761955e+00 1.990740e+01 -1.186244e+02 1.261146e+02 2.595072e-07 6.144823e-04 -1.262267e-01 1.262282e-01
