1.286425e+01 3.053830e+02 -2.048000e+03 2.048000e+03 1.373273e-05 4.687758e-03 -4.472656e-01 4.990234e-01
4.947186e+01 8.526002e+02 -2.048000e+03 2.048000e+03 9.459832e-07 3.676657e-03 -4.375000e-01 4.284668e-01
3.843832e+01 1.094013e+03 -2.048000e+03 2.048000e+03 4.704116e-07 3.451989e-03 -4.440918e-01 4.284668e-01
5.561604e+00 1.189532e+03 -2.048000e+03 2.048000e+03 4.455794e-07 3.381101e-03 -4.458008e-01 4.562988e-01
-2.700794e+01 1.242942e+03 -2.048000e+03 2.048000e+03 7.104096e-08 3.357921e-03 -4.440918e-01 4.621582e-01
-5.734459e+01 1.283549e+03 -2.048000e+03 2.048000e+03 2.374255e-07 3.269712e-03 -4.350586e-01 5.400391e-01
-8.576761e+01 1.318786e+03 -2.048000e+03 2.048000e+03 1.969004e-07 3.239648e-03 -4.375000e-01 4.980469e-01
-1.164115e+02 1.347956e+03 -2.048000e+03 2.048000e+03 3.177852e-07 3.240185e-03 -4.350586e-01 4.396973e-01
-1.347376e+02 1.368324e+03 -2.048000e+03 2.048000e+03 4.032335e-07 3.189993e-03 -4.318848e-01 4.929199e-01
-1.554768e+02 1.390406e+03 -2.048000e+03 2.048000e+03 1.844310e-07 3.186894e-03 -4.428711e-01 5.368652e-01
-1.742257e+02 1.408569e+03 -2.048000e+03 2.048000e+03 2.386046e-06 8.537073e-03 -4.375000e-01 3.966797e+01
-1.865370e+02 1.424916e+03 -2.048000e+03 2.048000e+03 2.008608e-05 7.006763e-02 -4.396973e-01 3.505579e+02
-2.062575e+02 1.441764e+03 -2.048000e+03 2.048000e+03 -5.024844e-08 3.185215e-03 -4.350586e-01 5.402832e-01
-2.246461e+02 1.455486e+03 -2.048000e+03 2.048000e+03 -5.186942e-08 3.161515e-03 -4.440918e-01 4.787598e-01
-2.376917e+02 1.468390e+03 -2.048000e+03 2.048000e+03 -3.468864e-08 3.174926e-03 -4.396973e-01 5.991211e-01
-2.480146e+02 1.478973e+03 -2.048000e+03 2.048000e+03 -8.967831e-09 3.142002e-03 -4.414062e-01 5.756836e-01
-2.586587e+02 1.485905e+03 -2.048000e+03 2.048000e+03 3.347809e-07 3.138526e-03 -4.414062e-01 5.769043e-01
-2.706040e+02 1.495878e+03 -2.048000e+03 2.048000e+03 -4.323517e-09 3.128230e-03 -4.428711e-01 5.947266e-01
-2.790503e+02 1.504503e+03 -2.048000e+03 2.048000e+03 -5.705138e-08 3.122125e-03 -4.428711e-01 6.684570e-01
