6.427449e+02 7.707809e-01 -8.165326e-03 5.776621e-01 -9.992676e-01 9.965820e-01
3.201802e+02 4.811083e-01 -1.168916e-02 5.760241e-01 -1.015869e+00 9.970703e-01
3.118420e+02 4.811083e-01 -1.262408e-02 5.759628e-01 -1.015625e+00 1.000000e+00
3.117339e+02 4.811083e-01 -1.259616e-02 5.759607e-01 -1.013184e+00 1.002197e+00
3.111226e+02 4.811083e-01 -1.256077e-02 5.759545e-01 -1.010986e+00 1.003174e+00
3.100845e+02 4.811083e-01 -1.251219e-02 5.759365e-01 -1.008301e+00 1.005859e+00
3.098491e+02 4.811083e-01 -1.245247e-02 5.759580e-01 -1.006836e+00 1.014404e+00
3.099165e+02 4.811083e-01 -1.241921e-02 5.759670e-01 -1.010010e+00 1.022949e+00
3.094319e+02 4.811083e-01 -1.237025e-02 5.760071e-01 -1.014893e+00 1.031250e+00
3.082903e+02 4.811083e-01 -1.234416e-02 5.760439e-01 -1.020020e+00 1.038574e+00
3.082158e+02 4.811083e-01 -1.229634e-02 5.760846e-01 -1.024902e+00 1.046875e+00
3.071899e+02 4.811083e-01 -1.226782e-02 5.761413e-01 -1.029785e+00 1.055664e+00
3.060405e+02 4.811083e-01 -1.225119e-02 5.761975e-01 -1.034424e+00 1.064453e+00
3.054851e+02 4.811083e-01 -1.219353e-02 5.762766e-01 -1.039307e+00 1.072021e+00
3.051191e+02 4.811083e-01 -1.215463e-02 5.763820e-01 -1.044434e+00 1.080078e+00
3.045544e+02 4.785894e-01 -1.212916e-02 5.764637e-01 -1.049316e+00 1.088867e+00
3.040002e+02 4.811083e-01 -1.209522e-02 5.765694e-01 -1.054443e+00 1.098633e+00
3.029148e+02 4.811083e-01 -1.207699e-02 5.767161e-01 -1.059570e+00 1.107422e+00
3.022537e+02 4.785894e-01 -1.202040e-02 5.768525e-01 -1.064697e+00 1.115967e+00
3.009824e+02 4.798489e-01 -1.199302e-02 5.769900e-01 -1.069824e+00 1.126221e+00
3.015576e+02 4.785894e-01 -1.195885e-02 5.771528e-01 -1.075195e+00 1.134766e+00
3.007795e+02 4.773300e-01 -1.193887e-02 5.773319e-01 -1.080322e+00 1.143555e+00
2.999302e+02 4.773300e-01 -1.189425e-02 5.775089e-01 -1.085205e+00 1.153809e+00
2.980166e+02 4.836272e-01 -1.185527e-02 5.777268e-01 -1.090332e+00 1.164307e+00
2.967078e+02 4.836272e-01 -1.181546e-02 5.779547e-01 -1.095703e+00 1.175049e+00
2.971709e+02 4.811083e-01 -1.177405e-02 5.781849e-01 -1.101074e+00 1.185547e+00
2.943616e+02 4.773300e-01 -1.175315e-02 5.784359e-01 -1.106445e+00 1.196533e+00
2.941399e+02 4.748111e-01 -1.170372e-02 5.786959e-01 -1.111816e+00 1.205566e+00
2.927000e+02 4.798489e-01 -1.168016e-02 5.789594e-01 -1.117676e+00 1.214844e+00
2.925874e+02 4.785894e-01 -1.166673e-02 5.792385e-01 -1.123047e+00 1.233643e+00
2.906609e+02 4.823678e-01 -1.165278e-02 5.795447e-01 -1.128662e+00 1.269531e+00
2.892769e+02 4.748111e-01 -1.163180e-02 5.798610e-01 -1.133789e+00 1.299805e+00
2.881597e+02 4.685139e-01 -1.158955e-02 5.801720e-01 -1.139160e+00 1.328613e+00
2.864800e+02 4.584383e-01 -1.157277e-02 5.805319e-01 -1.145020e+00 1.359131e+00
2.850496e+02 4.559194e-01 -1.154295e-02 5.808896e-01 -1.150635e+00 1.392334e+00
2.840508e+02 4.559194e-01 -1.153318e-02 5.812886e-01 -1.156738e+00 1.421143e+00
2.822488e+02 4.559194e-01 -1.152617e-02 5.816682e-01 -1.162598e+00 1.453369e+00
2.804646e+02 4.445844e-01 -1.151435e-02 5.820778e-01 -1.168945e+00 1.494385e+00
2.784763e+02 4.458438e-01 -1.150817e-02 5.824872e-01 -1.175049e+00 1.528809e+00
2.767021e+02 4.319899e-01 -1.144456e-02 5.829444e-01 -1.180908e+00 1.554199e+00
2.747231e+02 4.307305e-01 -1.146706e-02 5.833730e-01 -1.187500e+00 1.586670e+00
2.740498e+02 4.244332e-01 -1.143007e-02 5.838505e-01 -1.193848e+00 1.621338e+00
2.720935e+02 4.256927e-01 -1.138812e-02 5.843064e-01 -1.199707e+00 1.653320e+00
2.700203e+02 4.231738e-01 -1.138903e-02 5.847922e-01 -1.205566e+00 1.688477e+00
2.680017e+02 4.130982e-01 -1.134205e-02 5.853027e-01 -1.211670e+00 1.717773e+00
2.651826e+02 4.168766e-01 -1.133229e-02 5.857897e-01 -1.217529e+00 1.756592e+00
2.639883e+02 4.042821e-01 -1.132741e-02 5.863183e-01 -1.223633e+00 1.782227e+00
2.625183e+02 4.030227e-01 -1.131574e-02 5.868431e-01 -1.229248e+00 1.816406e+00
2.600557e+02 4.005038e-01 -1.129614e-02 5.873722e-01 -1.234863e+00 1.848389e+00
2.583660e+02 3.853904e-01 -1.127486e-02 5.879095e-01 -1.240479e+00 1.881104e+00
2.569719e+02 3.790932e-01 -1.126365e-02 5.885018e-01 -1.246338e+00 1.911621e+00
2.551558e+02 3.803526e-01 -1.123276e-02 5.890261e-01 -1.251709e+00 1.944580e+00
2.528313e+02 3.715365e-01 -1.119500e-02 5.895694e-01 -1.256836e+00 1.970947e+00
2.507874e+02 3.664987e-01 -1.120904e-02 5.901463e-01 -1.261963e+00 1.998779e+00
2.493811e+02 3.664987e-01 -1.115633e-02 5.907102e-01 -1.267822e+00 2.028564e+00
2.476431e+02 3.602015e-01 -1.116114e-02 5.912570e-01 -1.272461e+00 2.058838e+00
2.455730e+02 3.551637e-01 -1.111431e-02 5.917504e-01 -1.277344e+00 2.083984e+00
2.441816e+02 3.551637e-01 -1.111057e-02 5.922999e-01 -1.281982e+00 2.117432e+00
2.433364e+02 3.513854e-01 -1.106260e-02 5.929131e-01 -1.286865e+00 2.136963e+00
2.411194e+02 3.463476e-01 -1.107068e-02 5.933980e-01 -1.291260e+00 2.166260e+00
2.407605e+02 3.463476e-01 -1.101630e-02 5.939896e-01 -1.296143e+00 2.184326e+00
2.390176e+02 3.425693e-01 -1.103156e-02 5.945201e-01 -1.303223e+00 2.212402e+00
2.377419e+02 3.539043e-01 -1.095940e-02 5.950768e-01 -1.311768e+00 2.239502e+00
2.355808e+02 3.438287e-01 -1.084241e-02 5.956113e-01 -1.327148e+00 2.258545e+00
2.349731e+02 3.299748e-01 -1.081297e-02 5.961314e-01 -1.342285e+00 2.278564e+00
2.340068e+02 3.274559e-01 -1.075881e-02 5.966161e-01 -1.353760e+00 2.297363e+00
2.317815e+02 3.312343e-01 -1.075981e-02 5.971193e-01 -1.363281e+00 2.323486e+00
2.320188e+02 3.236776e-01 -1.072030e-02 5.976298e-01 -1.381104e+00 2.338379e+00
2.301467e+02 3.198992e-01 -1.061947e-02 5.981286e-01 -1.387695e+00 2.358887e+00
2.292266e+02 3.161209e-01 -1.054869e-02 5.986211e-01 -1.403320e+00 2.376465e+00
2.281367e+02 3.186398e-01 -1.051757e-02 5.991132e-01 -1.414307e+00 2.397217e+00
2.271812e+02 3.236776e-01 -1.040843e-02 5.996205e-01 -1.426025e+00 2.413330e+00
2.255171e+02 3.110831e-01 -1.036701e-02 6.001251e-01 -1.439453e+00 2.430908e+00
2.245110e+02 3.110831e-01 -1.030158e-02 6.005800e-01 -1.451172e+00 2.445557e+00
2.234360e+02 3.073048e-01 -1.019785e-02 6.010438e-01 -1.463867e+00 2.459717e+00
2.226125e+02 3.047859e-01 -1.013370e-02 6.015405e-01 -1.474854e+00 2.475098e+00
2.218596e+02 2.984887e-01 -1.003196e-02 6.019788e-01 -1.485352e+00 2.489990e+00
2.196694e+02 2.921914e-01 -9.928767e-03 6.024060e-01 -1.491699e+00 2.504883e+00
2.186882e+02 2.884131e-01 -9.917174e-03 6.028881e-01 -1.501221e+00 2.519531e+00
2.176621e+02 2.997481e-01 -9.842887e-03 6.033088e-01 -1.512939e+00 2.537109e+00
2.171699e+02 2.884131e-01 -9.737481e-03 6.037432e-01 -1.520996e+00 2.545898e+00
2.150427e+02 2.871537e-01 -9.698812e-03 6.041725e-01 -1.530762e+00 2.558594e+00
2.146328e+02 2.795970e-01 -9.607593e-03 6.046077e-01 -1.544678e+00 2.566650e+00
2.139783e+02 2.808564e-01 -9.518434e-03 6.050328e-01 -1.554932e+00 2.578369e+00
2.129104e+02 2.846348e-01 -9.441019e-03 6.054751e-01 -1.561035e+00 2.591064e+00
2.116438e+02 2.808564e-01 -9.325318e-03 6.059022e-01 -1.572266e+00 2.599854e+00
2.114062e+02 2.745592e-01 -9.309911e-03 6.063055e-01 -1.580322e+00 2.611572e+00
2.101531e+02 2.745592e-01 -9.210379e-03 6.067320e-01 -1.589600e+00 2.620850e+00
2.090452e+02 2.745592e-01 -9.155693e-03 6.071357e-01 -1.598877e+00 2.629395e+00
2.083135e+02 2.695214e-01 -9.022068e-03 6.075559e-01 -1.608154e+00 2.637939e+00
2.070396e+02 2.607053e-01 -8.946637e-03 6.079676e-01 -1.619141e+00 2.649170e+00
2.058108e+02 2.644836e-01 -8.932221e-03 6.083537e-01 -1.626709e+00 2.655762e+00
2.055168e+02 2.581864e-01 -8.778613e-03 6.087951e-01 -1.633789e+00 2.666260e+00
2.046743e+02 2.607053e-01 -8.666802e-03 6.091423e-01 -1.642090e+00 2.673096e+00
2.032239e+02 2.619647e-01 -8.640260e-03 6.095655e-01 -1.650391e+00 2.682129e+00
2.026179e+02 2.632242e-01 -8.491533e-03 6.099958e-01 -1.663818e+00 2.688965e+00
2.026821e+02 2.581864e-01 -8.415034e-03 6.103985e-01 -1.673096e+00 2.693359e+00
2.012981e+02 2.581864e-01 -8.322671e-03 6.107711e-01 -1.682617e+00 2.702148e+00
2.016433e+02 2.607053e-01 -8.220316e-03 6.111944e-01 -1.692627e+00 2.707520e+00
2.000762e+02 2.556675e-01 -8.136953e-03 6.116707e-01 -1.701172e+00 2.716553e+00
1.995427e+02 2.544081e-01 -8.092182e-03 6.121042e-01 -1.712646e+00 2.723145e+00
1.974309e+02 2.493703e-01 -8.004929e-03 6.125236e-01 -1.722656e+00 2.732178e+00
1.968042e+02 2.556675e-01 -7.970989e-03 6.128504e-01 -1.732666e+00 2.735596e+00
1.957043e+02 2.531486e-01 -7.950778e-03 6.133469e-01 -1.738770e+00 2.744873e+00
1.952061e+02 2.544081e-01 -7.832712e-03 6.137554e-01 -1.749268e+00 2.752930e+00
1.941580e+02 2.531486e-01 -7.806170e-03 6.142003e-01 -1.760986e+00 2.759277e+00
1.932676e+02 2.556675e-01 -7.734704e-03 6.146209e-01 -1.768311e+00 2.767822e+00
1.925090e+02 2.632242e-01 -7.665146e-03 6.150577e-01 -1.780762e+00 2.770264e+00
1.924878e+02 2.607053e-01 -7.604435e-03 6.154897e-01 -1.786865e+00 2.777832e+00
1.914275e+02 2.632242e-01 -7.536784e-03 6.158898e-01 -1.798584e+00 2.784668e+00
1.909795e+02 2.632242e-01 -7.389125e-03 6.163159e-01 -1.807373e+00 2.791016e+00
1.905957e+02 2.619647e-01 -7.346490e-03 6.167773e-01 -1.816895e+00 2.797363e+00
1.898357e+02 2.594458e-01 -7.271135e-03 6.172331e-01 -1.829834e+00 2.801758e+00
1.882266e+02 2.569270e-01 -7.265948e-03 6.176426e-01 -1.839600e+00 2.806885e+00
1.872659e+02 2.581864e-01 -7.191127e-03 6.180853e-01 -1.848145e+00 2.815674e+00
1.872917e+02 2.556675e-01 -7.057960e-03 6.184919e-01 -1.855713e+00 2.820557e+00
1.863921e+02 2.569270e-01 -7.032180e-03 6.189468e-01 -1.868652e+00 2.825684e+00
1.851338e+02 2.506297e-01 -6.939131e-03 6.194103e-01 -1.881104e+00 2.831055e+00
1.838779e+02 2.518892e-01 -6.797116e-03 6.198955e-01 -1.892334e+00 2.836182e+00
1.836282e+02 2.506297e-01 -6.758295e-03 6.203327e-01 -1.902100e+00 2.842773e+00
1.828257e+02 2.518892e-01 -6.677906e-03 6.207644e-01 -1.912598e+00 2.847656e+00
1.821216e+02 2.518892e-01 -6.632525e-03 6.212232e-01 -1.920898e+00 2.853516e+00
1.814561e+02 2.405542e-01 -6.433384e-03 6.217117e-01 -1.935791e+00 2.859375e+00
1.808062e+02 2.468514e-01 -6.349182e-03 6.221659e-01 -1.946289e+00 2.860840e+00
1.810437e+02 2.481108e-01 -6.261624e-03 6.226246e-01 -1.955811e+00 2.867676e+00
1.796814e+02 2.481108e-01 -6.149735e-03 6.231212e-01 -1.968018e+00 2.873291e+00
1.787810e+02 2.455919e-01 -6.091999e-03 6.235292e-01 -1.976074e+00 2.879395e+00
1.781843e+02 2.418136e-01 -5.926493e-03 6.239919e-01 -1.985107e+00 2.883301e+00
1.779304e+02 2.405542e-01 -5.919171e-03 6.244280e-01 -1.995850e+00 2.888428e+00
1.780266e+02 2.317380e-01 -5.851595e-03 6.248726e-01 -2.009766e+00 2.893799e+00
1.770564e+02 2.405542e-01 -5.683954e-03 6.253134e-01 -2.020752e+00 2.897461e+00
1.762490e+02 2.380353e-01 -5.592048e-03 6.257489e-01 -2.029541e+00 2.900879e+00
1.751672e+02 2.443325e-01 -5.557422e-03 6.262108e-01 -2.040771e+00 2.906494e+00
1.749946e+02 2.392947e-01 -5.491524e-03 6.266286e-01 -2.051025e+00 2.909180e+00
1.741230e+02 2.342569e-01 -5.477948e-03 6.270348e-01 -2.062012e+00 2.910889e+00
1.739456e+02 2.304786e-01 -5.410144e-03 6.274780e-01 -2.075439e+00 2.913330e+00
1.733325e+02 2.304786e-01 -5.286586e-03 6.279307e-01 -2.084473e+00 2.918213e+00
1.729121e+02 2.292191e-01 -5.181257e-03 6.284127e-01 -2.097900e+00 2.927734e+00
1.722466e+02 2.292191e-01 -5.180876e-03 6.288428e-01 -2.107666e+00 2.928467e+00
1.714873e+02 2.304786e-01 -5.105140e-03 6.292702e-01 -2.120361e+00 2.930908e+00
1.715613e+02 2.254408e-01 -5.095835e-03 6.297056e-01 -2.130615e+00 2.934570e+00
1.699419e+02 2.304786e-01 -4.992260e-03 6.301316e-01 -2.140625e+00 2.938965e+00
1.693298e+02 2.267003e-01 -4.926210e-03 6.305668e-01 -2.150391e+00 2.941650e+00
1.691199e+02 2.279597e-01 -4.799602e-03 6.309916e-01 -2.156982e+00 2.947021e+00
1.689001e+02 2.204030e-01 -4.665748e-03 6.314079e-01 -2.167725e+00 2.949707e+00
1.684741e+02 2.229219e-01 -4.543029e-03 6.318487e-01 -2.178955e+00 2.953857e+00
1.682205e+02 2.229219e-01 -4.465081e-03 6.322997e-01 -2.191895e+00 2.956787e+00
1.671987e+02 2.229219e-01 -4.361125e-03 6.327309e-01 -2.201172e+00 2.959229e+00
1.668035e+02 2.216625e-01 -4.264796e-03 6.331183e-01 -2.212158e+00 2.961182e+00
1.665881e+02 2.229219e-01 -4.153060e-03 6.335521e-01 -2.220947e+00 2.964844e+00
1.655959e+02 2.204030e-01 -4.060316e-03 6.339545e-01 -2.229004e+00 2.968506e+00
1.651782e+02 2.204030e-01 -3.949724e-03 6.343927e-01 -2.238770e+00 2.969727e+00
1.647209e+02 2.204030e-01 -3.808472e-03 6.348030e-01 -2.246338e+00 2.972656e+00
1.632549e+02 2.153652e-01 -3.775752e-03 6.352233e-01 -2.256592e+00 2.979004e+00
1.632021e+02 2.178841e-01 -3.716032e-03 6.356126e-01 -2.262207e+00 2.979980e+00
1.626392e+02 2.141058e-01 -3.696889e-03 6.360534e-01 -2.270752e+00 2.984619e+00
1.626943e+02 2.204030e-01 -3.596670e-03 6.364697e-01 -2.282959e+00 2.984375e+00
1.622607e+02 2.204030e-01 -3.471205e-03 6.369047e-01 -2.292725e+00 2.990723e+00
1.619104e+02 2.229219e-01 -3.445197e-03 6.373153e-01 -2.298828e+00 2.992188e+00
1.611807e+02 2.204030e-01 -3.350851e-03 6.377323e-01 -2.308594e+00 2.994385e+00
1.605574e+02 2.204030e-01 -3.342233e-03 6.381522e-01 -2.317871e+00 2.996582e+00
1.598660e+02 2.204030e-01 -3.246437e-03 6.385617e-01 -2.322998e+00 2.999756e+00
1.597791e+02 2.166247e-01 -3.234615e-03 6.389362e-01 -2.336182e+00 3.002686e+00
1.592021e+02 2.178841e-01 -3.161549e-03 6.393853e-01 -2.343506e+00 3.003662e+00
1.578806e+02 2.166247e-01 -3.080626e-03 6.397554e-01 -2.348633e+00 3.006592e+00
1.591514e+02 2.178841e-01 -3.003975e-03 6.401698e-01 -2.360352e+00 3.012451e+00
1.578777e+02 2.128463e-01 -2.941281e-03 6.406132e-01 -2.369141e+00 3.010986e+00
1.577847e+02 2.166247e-01 -2.924959e-03 6.410412e-01 -2.374023e+00 3.016846e+00
1.577280e+02 2.178841e-01 -2.802927e-03 6.414209e-01 -2.385010e+00 3.014893e+00
1.573435e+02 2.153652e-01 -2.797130e-03 6.418276e-01 -2.391602e+00 3.018799e+00
1.576218e+02 2.128463e-01 -2.633759e-03 6.422379e-01 -2.402344e+00 3.021973e+00
1.562126e+02 2.128463e-01 -2.633836e-03 6.426639e-01 -2.408936e+00 3.023193e+00
1.557234e+02 2.128463e-01 -2.563820e-03 6.430791e-01 -2.416748e+00 3.026855e+00
1.552258e+02 2.153652e-01 -2.462457e-03 6.434874e-01 -2.427490e+00 3.030518e+00
1.544080e+02 2.166247e-01 -2.348204e-03 6.438748e-01 -2.436279e+00 3.032959e+00
1.538425e+02 2.141058e-01 -2.309535e-03 6.443178e-01 -2.438965e+00 3.034912e+00
1.539287e+02 2.166247e-01 -2.263468e-03 6.447266e-01 -2.447754e+00 3.035889e+00
1.537966e+02 2.141058e-01 -2.228308e-03 6.451590e-01 -2.459717e+00 3.038330e+00
1.532947e+02 2.141058e-01 -2.124123e-03 6.456079e-01 -2.466064e+00 3.041260e+00
1.527778e+02 2.141058e-01 -2.061276e-03 6.460304e-01 -2.472168e+00 3.042480e+00
1.532927e+02 2.153652e-01 -2.014217e-03 6.464030e-01 -2.480957e+00 3.043457e+00
1.525066e+02 2.128463e-01 -2.010404e-03 6.468513e-01 -2.488281e+00 3.046631e+00
1.521101e+02 2.141058e-01 -1.950074e-03 6.472937e-01 -2.496094e+00 3.051758e+00
1.524331e+02 2.141058e-01 -1.931159e-03 6.477086e-01 -2.501953e+00 3.051758e+00
1.517800e+02 2.090680e-01 -1.862669e-03 6.481161e-01 -2.509766e+00 3.054443e+00
1.511116e+02 2.090680e-01 -1.862211e-03 6.485444e-01 -2.517334e+00 3.053223e+00
1.507317e+02 2.065491e-01 -1.820186e-03 6.489693e-01 -2.524902e+00 3.056396e+00
1.500483e+02 2.052897e-01 -1.690069e-03 6.493953e-01 -2.534668e+00 3.058350e+00
1.510461e+02 2.065491e-01 -1.652011e-03 6.498459e-01 -2.542236e+00 3.061035e+00
1.499961e+02 2.103275e-01 -1.574825e-03 6.502839e-01 -2.546631e+00 3.065186e+00
1.489556e+02 2.040302e-01 -1.482005e-03 6.506663e-01 -2.554688e+00 3.063721e+00
1.491111e+02 2.052897e-01 -1.458132e-03 6.510705e-01 -2.563965e+00 3.066162e+00
1.486589e+02 2.040302e-01 -1.472242e-03 6.515132e-01 -2.572021e+00 3.069092e+00
1.484177e+02 2.027708e-01 -1.400701e-03 6.519351e-01 -2.578613e+00 3.070557e+00
1.477385e+02 2.027708e-01 -1.293465e-03 6.523297e-01 -2.587158e+00 3.070801e+00
1.481145e+02 2.015113e-01 -1.258609e-03 6.527560e-01 -2.593018e+00 3.072754e+00
1.472708e+02 1.989924e-01 -1.215517e-03 6.531813e-01 -2.598389e+00 3.075928e+00
1.470413e+02 1.964736e-01 -1.126204e-03 6.536397e-01 -2.606934e+00 3.077148e+00
1.462698e+02 1.952141e-01 -1.070680e-03 6.540688e-01 -2.615723e+00 3.078857e+00
1.459438e+02 1.952141e-01 -1.053214e-03 6.544823e-01 -2.622070e+00 3.080078e+00
1.460034e+02 1.964736e-01 -9.520035e-04 6.549121e-01 -2.628174e+00 3.082031e+00
1.456548e+02 1.952141e-01 -8.880129e-04 6.553381e-01 -2.633545e+00 3.084473e+00
1.456343e+02 1.939547e-01 -8.861061e-04 6.557516e-01 -2.641846e+00 3.088135e+00
1.456704e+02 1.939547e-01 -8.397339e-04 6.561413e-01 -2.648193e+00 3.086182e+00
1.453054e+02 1.914358e-01 -8.829028e-04 6.565730e-01 -2.654785e+00 3.088623e+00
1.449136e+02 1.939547e-01 -7.835991e-04 6.569811e-01 -2.661377e+00 3.089355e+00
1.445388e+02 1.901763e-01 -7.943532e-04 6.573738e-01 -2.667969e+00 3.091797e+00
1.443660e+02 1.939547e-01 -6.816260e-04 6.577822e-01 -2.671875e+00 3.092041e+00
1.441360e+02 1.939547e-01 -6.057372e-04 6.581723e-01 -2.679199e+00 3.096924e+00
1.446033e+02 1.977330e-01 -6.281606e-04 6.585770e-01 -2.685059e+00 3.094482e+00
1.438687e+02 1.964736e-01 -6.223641e-04 6.590105e-01 -2.695068e+00 3.098145e+00
1.439290e+02 1.952141e-01 -6.007797e-04 6.594360e-01 -2.703369e+00 3.100098e+00
1.435264e+02 1.952141e-01 -6.151184e-04 6.598381e-01 -2.706787e+00 3.098633e+00
1.431970e+02 1.964736e-01 -5.989492e-04 6.602371e-01 -2.713379e+00 3.100342e+00
1.430476e+02 1.964736e-01 -5.394585e-04 6.606247e-01 -2.721680e+00 3.100098e+00
1.429783e+02 1.977330e-01 -5.262638e-04 6.610536e-01 -2.730469e+00 3.102295e+00
1.429441e+02 1.939547e-01 -5.077301e-04 6.615012e-01 -2.734863e+00 3.103516e+00
1.428552e+02 1.939547e-01 -4.230703e-04 6.618708e-01 -2.739502e+00 3.105225e+00
1.422576e+02 1.939547e-01 -3.482493e-04 6.622763e-01 -2.746826e+00 3.107422e+00
1.421963e+02 1.939547e-01 -2.740385e-04 6.626825e-01 -2.753174e+00 3.106934e+00
1.417859e+02 1.939547e-01 -3.493171e-04 6.631237e-01 -2.762451e+00 3.109131e+00
1.414368e+02 1.914358e-01 -2.550473e-04 6.634887e-01 -2.769043e+00 3.110352e+00
1.411404e+02 1.889169e-01 -1.670315e-04 6.639121e-01 -2.775391e+00 3.112305e+00
1.409771e+02 1.901763e-01 -1.950227e-04 6.643068e-01 -2.779541e+00 3.111084e+00
1.407896e+02 1.926952e-01 -2.057768e-04 6.646895e-01 -2.785889e+00 3.111572e+00
1.404592e+02 1.889169e-01 -2.384966e-04 6.651007e-01 -2.791260e+00 3.115479e+00
1.405063e+02 1.914358e-01 -1.144052e-04 6.654971e-01 -2.796631e+00 3.115967e+00
1.402529e+02 1.889169e-01 -9.465121e-05 6.658851e-01 -2.802490e+00 3.115479e+00
1.401101e+02 1.876574e-01 -9.060889e-05 6.663002e-01 -2.807373e+00 3.114746e+00
1.404792e+02 1.901763e-01 -4.576207e-05 6.667073e-01 -2.812256e+00 3.116211e+00
1.397148e+02 1.863980e-01 1.201254e-04 6.670948e-01 -2.821045e+00 3.117920e+00
1.397681e+02 1.876574e-01 1.423963e-04 6.674976e-01 -2.826660e+00 3.119141e+00
1.397859e+02 1.889169e-01 1.060155e-04 6.678912e-01 -2.831787e+00 3.119385e+00
1.397913e+02 1.914358e-01 2.597760e-04 6.682844e-01 -2.837158e+00 3.121338e+00
1.392212e+02 1.901763e-01 2.300307e-04 6.686652e-01 -2.843506e+00 3.122314e+00
1.391985e+02 1.901763e-01 2.376577e-04 6.690748e-01 -2.854492e+00 3.124512e+00
1.388293e+02 1.876574e-01 2.966907e-04 6.694428e-01 -2.858887e+00 3.122314e+00
1.389104e+02 1.851385e-01 3.313936e-04 6.698625e-01 -2.864258e+00 3.123779e+00
1.392468e+02 1.876574e-01 3.731897e-04 6.702546e-01 -2.868652e+00 3.125732e+00
1.391445e+02 1.901763e-01 4.481632e-04 6.706517e-01 -2.874756e+00 3.126221e+00
1.392009e+02 1.901763e-01 4.613579e-04 6.710545e-01 -2.883301e+00 3.128418e+00
1.388291e+02 1.901763e-01 5.050607e-04 6.714371e-01 -2.890869e+00 3.126465e+00
1.380535e+02 1.901763e-01 4.705866e-04 6.718235e-01 -2.895996e+00 3.129150e+00
1.381030e+02 1.914358e-01 5.585260e-04 6.722486e-01 -2.902832e+00 3.131104e+00
1.377812e+02 1.901763e-01 5.555515e-04 6.726177e-01 -2.907715e+00 3.130371e+00
1.380381e+02 1.926952e-01 5.964323e-04 6.730219e-01 -2.913574e+00 3.131836e+00
1.367625e+02 1.889169e-01 6.315928e-04 6.734073e-01 -2.919678e+00 3.133301e+00
1.368169e+02 1.889169e-01 6.871174e-04 6.738131e-01 -2.925049e+00 3.134277e+00
1.375486e+02 1.889169e-01 7.464556e-04 6.741792e-01 -2.933594e+00 3.132812e+00
1.376677e+02 1.889169e-01 8.171580e-04 6.745748e-01 -2.939697e+00 3.134033e+00
1.374780e+02 1.889169e-01 9.163854e-04 6.749660e-01 -2.945068e+00 3.135010e+00
1.370081e+02 1.901763e-01 9.057838e-04 6.753500e-01 -2.950439e+00 3.137695e+00
1.369373e+02 1.863980e-01 8.841231e-04 6.756969e-01 -2.957520e+00 3.137451e+00
1.369402e+02 1.863980e-01 1.019426e-03 6.761345e-01 -2.962891e+00 3.138428e+00
1.370625e+02 1.901763e-01 1.067324e-03 6.765265e-01 -2.973633e+00 3.140869e+00
1.366118e+02 1.889169e-01 1.107061e-03 6.769458e-01 -2.975342e+00 3.143311e+00
1.366860e+02 1.889169e-01 1.181424e-03 6.772728e-01 -2.979248e+00 3.142578e+00
1.360493e+02 1.889169e-01 1.194237e-03 6.776545e-01 -2.983643e+00 3.142090e+00
1.365261e+02 1.901763e-01 1.290719e-03 6.780381e-01 -2.989990e+00 3.141357e+00
1.361182e+02 1.889169e-01 1.326032e-03 6.784095e-01 -2.996094e+00 3.142578e+00
1.360110e+02 1.889169e-01 1.400548e-03 6.787924e-01 -3.001221e+00 3.142822e+00
1.355022e+02 1.889169e-01 1.395819e-03 6.791718e-01 -3.007080e+00 3.143555e+00
1.362000e+02 1.901763e-01 1.411836e-03 6.795243e-01 -3.012695e+00 3.145264e+00
1.357539e+02 1.838791e-01 1.457369e-03 6.799143e-01 -3.017822e+00 3.142822e+00
1.354602e+02 1.863980e-01 1.552707e-03 6.802936e-01 -3.024414e+00 3.146973e+00
1.358865e+02 1.889169e-01 1.613876e-03 6.806772e-01 -3.031494e+00 3.147705e+00
1.357876e+02 1.901763e-01 1.619977e-03 6.810312e-01 -3.034180e+00 3.146484e+00
1.357007e+02 1.914358e-01 1.675273e-03 6.814357e-01 -3.039307e+00 3.147949e+00
1.359587e+02 1.901763e-01 1.704408e-03 6.817957e-01 -3.045654e+00 3.149170e+00
1.359478e+02 1.889169e-01 1.771907e-03 6.821489e-01 -3.050781e+00 3.149414e+00
1.360996e+02 1.889169e-01 1.797458e-03 6.825043e-01 -3.055908e+00 3.151123e+00
1.360012e+02 1.889169e-01 1.868618e-03 6.828768e-01 -3.060791e+00 3.148682e+00
1.357795e+02 1.889169e-01 1.929100e-03 6.832585e-01 -3.065918e+00 3.148926e+00
1.356497e+02 1.863980e-01 2.010633e-03 6.836472e-01 -3.071533e+00 3.149658e+00
1.351641e+02 1.863980e-01 2.074166e-03 6.840115e-01 -3.080078e+00 3.151367e+00
1.349507e+02 1.876574e-01 2.068827e-03 6.843784e-01 -3.083008e+00 3.153809e+00
1.346968e+02 1.863980e-01 2.147156e-03 6.847477e-01 -3.087158e+00 3.153809e+00
1.351843e+02 1.863980e-01 2.176673e-03 6.851056e-01 -3.094971e+00 3.153564e+00
1.353674e+02 1.826196e-01 2.227011e-03 6.854511e-01 -3.100830e+00 3.151611e+00
1.352305e+02 1.826196e-01 2.321586e-03 6.858281e-01 -3.107666e+00 3.152588e+00
1.345437e+02 1.838791e-01 2.325476e-03 6.861856e-01 -3.113281e+00 3.153809e+00
1.343140e+02 1.826196e-01 2.427525e-03 6.865568e-01 -3.120117e+00 3.153564e+00
1.344978e+02 1.813602e-01 2.451093e-03 6.869251e-01 -3.124023e+00 3.155029e+00
1.343374e+02 1.826196e-01 2.611946e-03 6.872732e-01 -3.130127e+00 3.156006e+00
1.343699e+02 1.838791e-01 2.690581e-03 6.876341e-01 -3.135986e+00 3.156738e+00
1.343379e+02 1.851385e-01 2.651378e-03 6.880083e-01 -3.141846e+00 3.155762e+00
1.343108e+02 1.826196e-01 2.675479e-03 6.883902e-01 -3.145508e+00 3.157471e+00
1.341763e+02 1.826196e-01 2.737487e-03 6.887493e-01 -3.151611e+00 3.159668e+00
1.338625e+02 1.826196e-01 2.837019e-03 6.891008e-01 -3.155762e+00 3.157959e+00
1.337529e+02 1.826196e-01 2.853951e-03 6.894759e-01 -3.161621e+00 3.159424e+00
1.340374e+02 1.826196e-01 2.929154e-03 6.898222e-01 -3.169189e+00 3.161865e+00
1.339165e+02 1.801008e-01 3.065448e-03 6.901979e-01 -3.173584e+00 3.161133e+00
1.338982e+02 1.763224e-01 3.114948e-03 6.905344e-01 -3.177979e+00 3.160156e+00
1.341064e+02 1.788413e-01 3.209370e-03 6.909150e-01 -3.184570e+00 3.162842e+00
1.334609e+02 1.813602e-01 3.268479e-03 6.912845e-01 -3.192383e+00 3.163574e+00
1.338284e+02 1.763224e-01 3.283199e-03 6.916656e-01 -3.197021e+00 3.165527e+00
1.337493e+02 1.813602e-01 3.389901e-03 6.920176e-01 -3.202881e+00 3.163818e+00
1.336882e+02 1.788413e-01 3.480815e-03 6.923571e-01 -3.208496e+00 3.164551e+00
1.340706e+02 1.788413e-01 3.487756e-03 6.927444e-01 -3.215332e+00 3.166504e+00
1.342664e+02 1.788413e-01 3.523145e-03 6.930915e-01 -3.218262e+00 3.166260e+00
1.340762e+02 1.826196e-01 3.521010e-03 6.934476e-01 -3.226807e+00 3.168457e+00
1.341113e+02 1.826196e-01 3.616347e-03 6.937929e-01 -3.229492e+00 3.166748e+00
1.335449e+02 1.826196e-01 3.619856e-03 6.941529e-01 -3.236816e+00 3.169922e+00
1.338362e+02 1.826196e-01 3.680338e-03 6.945057e-01 -3.240234e+00 3.166992e+00
1.334146e+02 1.826196e-01 3.736702e-03 6.948333e-01 -3.243408e+00 3.168457e+00
1.333718e+02 1.813602e-01 3.816633e-03 6.951984e-01 -3.248535e+00 3.169922e+00
1.326692e+02 1.813602e-01 3.848208e-03 6.955423e-01 -3.255859e+00 3.170410e+00
1.325688e+02 1.813602e-01 3.867123e-03 6.958572e-01 -3.258057e+00 3.172119e+00
1.331091e+02 1.813602e-01 3.939275e-03 6.962399e-01 -3.264404e+00 3.169922e+00
1.326677e+02 1.801008e-01 3.974969e-03 6.965761e-01 -3.267090e+00 3.170410e+00
1.326272e+02 1.813602e-01 4.027367e-03 6.969298e-01 -3.272461e+00 3.170166e+00
1.330698e+02 1.813602e-01 4.116832e-03 6.972936e-01 -3.278809e+00 3.171631e+00
1.328804e+02 1.813602e-01 4.172051e-03 6.976258e-01 -3.284424e+00 3.172363e+00
1.328396e+02 1.813602e-01 4.219034e-03 6.979524e-01 -3.288818e+00 3.170410e+00
1.326396e+02 1.788413e-01 4.258770e-03 6.983139e-01 -3.293213e+00 3.173096e+00
1.326140e+02 1.775819e-01 4.294084e-03 6.986627e-01 -3.297119e+00 3.173828e+00
1.323938e+02 1.775819e-01 4.364252e-03 6.990086e-01 -3.303223e+00 3.175049e+00
1.327686e+02 1.775819e-01 4.395141e-03 6.993593e-01 -3.310303e+00 3.176514e+00
1.334009e+02 1.775819e-01 4.528309e-03 6.996790e-01 -3.313477e+00 3.173584e+00
1.330317e+02 1.775819e-01 4.483691e-03 7.000260e-01 -3.317871e+00 3.173584e+00
1.330767e+02 1.775819e-01 4.597257e-03 7.004021e-01 -3.324219e+00 3.175293e+00
1.331116e+02 1.763224e-01 4.598859e-03 7.007299e-01 -3.328369e+00 3.174316e+00
1.332429e+02 1.763224e-01 4.652095e-03 7.010789e-01 -3.333496e+00 3.176025e+00
1.328293e+02 1.738035e-01 4.683366e-03 7.014103e-01 -3.342285e+00 3.178467e+00
1.326965e+02 1.763224e-01 4.735459e-03 7.017498e-01 -3.346436e+00 3.174316e+00
1.327922e+02 1.788413e-01 4.772678e-03 7.020872e-01 -3.350830e+00 3.176025e+00
1.327273e+02 1.750630e-01 4.824390e-03 7.024103e-01 -3.356689e+00 3.176758e+00
1.325852e+02 1.750630e-01 4.877245e-03 7.027198e-01 -3.361084e+00 3.175537e+00
1.325461e+02 1.763224e-01 4.839033e-03 7.030509e-01 -3.366699e+00 3.175781e+00
1.318396e+02 1.750630e-01 4.928651e-03 7.033989e-01 -3.372803e+00 3.180664e+00
1.318867e+02 1.712846e-01 4.952600e-03 7.037159e-01 -3.377930e+00 3.175049e+00
1.323054e+02 1.700252e-01 4.976701e-03 7.040559e-01 -3.383545e+00 3.177246e+00
1.323887e+02 1.738035e-01 5.023912e-03 7.043920e-01 -3.388916e+00 3.177734e+00
1.321643e+02 1.738035e-01 5.055793e-03 7.047042e-01 -3.395264e+00 3.177734e+00
1.326055e+02 1.738035e-01 5.137402e-03 7.050569e-01 -3.400391e+00 3.177002e+00
1.327017e+02 1.725441e-01 5.180571e-03 7.053621e-01 -3.406494e+00 3.178467e+00
1.327283e+02 1.725441e-01 5.205359e-03 7.056900e-01 -3.410645e+00 3.178467e+00
1.325835e+02 1.725441e-01 5.206274e-03 7.060309e-01 -3.413574e+00 3.178223e+00
1.321270e+02 1.725441e-01 5.278959e-03 7.063474e-01 -3.419434e+00 3.178955e+00
1.320776e+02 1.725441e-01 5.294824e-03 7.066696e-01 -3.425049e+00 3.179199e+00
1.321145e+02 1.738035e-01 5.391000e-03 7.070003e-01 -3.431396e+00 3.179688e+00
1.321343e+02 1.712846e-01 5.442635e-03 7.073281e-01 -3.436523e+00 3.177979e+00
1.319807e+02 1.712846e-01 5.523558e-03 7.076576e-01 -3.439209e+00 3.178223e+00
1.319937e+02 1.725441e-01 5.597311e-03 7.079636e-01 -3.445557e+00 3.178955e+00
1.324700e+02 1.725441e-01 5.635598e-03 7.082867e-01 -3.448242e+00 3.178711e+00
1.321125e+02 1.738035e-01 5.719496e-03 7.085978e-01 -3.452393e+00 3.177734e+00
1.321917e+02 1.738035e-01 5.810715e-03 7.089470e-01 -3.458252e+00 3.179688e+00
1.323628e+02 1.725441e-01 5.808198e-03 7.092541e-01 -3.461426e+00 3.176514e+00
1.314604e+02 1.725441e-01 5.914823e-03 7.095691e-01 -3.465576e+00 3.176514e+00
1.319436e+02 1.725441e-01 6.001237e-03 7.098656e-01 -3.473145e+00 3.176270e+00
1.319463e+02 1.725441e-01 6.059355e-03 7.102015e-01 -3.476807e+00 3.178223e+00
1.321931e+02 1.725441e-01 6.143786e-03 7.105187e-01 -3.483643e+00 3.179688e+00
1.321934e+02 1.725441e-01 6.168421e-03 7.108435e-01 -3.488281e+00 3.174805e+00
1.319749e+02 1.738035e-01 6.161023e-03 7.111696e-01 -3.491455e+00 3.176514e+00
1.318081e+02 1.725441e-01 6.267954e-03 7.114774e-01 -3.495605e+00 3.177246e+00
1.316472e+02 1.725441e-01 6.264369e-03 7.118003e-01 -3.500244e+00 3.175537e+00
1.314583e+02 1.712846e-01 6.281759e-03 7.121197e-01 -3.506836e+00 3.176025e+00
1.319666e+02 1.725441e-01 6.344453e-03 7.124234e-01 -3.509766e+00 3.176514e+00
1.316816e+02 1.725441e-01 6.373207e-03 7.127276e-01 -3.515137e+00 3.177002e+00
1.316101e+02 1.712846e-01 6.491197e-03 7.130297e-01 -3.517334e+00 3.176025e+00
1.317358e+02 1.712846e-01 6.525899e-03 7.133267e-01 -3.523438e+00 3.176025e+00
1.310664e+02 1.700252e-01 6.607661e-03 7.136409e-01 -3.530518e+00 3.177490e+00
1.308506e+02 1.700252e-01 6.666160e-03 7.139481e-01 -3.529785e+00 3.175781e+00
1.313230e+02 1.687657e-01 6.750744e-03 7.142492e-01 -3.535645e+00 3.177002e+00
1.308452e+02 1.700252e-01 6.807870e-03 7.145871e-01 -3.540283e+00 3.177979e+00
1.310437e+02 1.687657e-01 6.818090e-03 7.148901e-01 -3.547852e+00 3.182861e+00
1.307756e+02 1.675063e-01 6.785142e-03 7.151812e-01 -3.551025e+00 3.188232e+00
1.306479e+02 1.675063e-01 6.909157e-03 7.154914e-01 -3.553711e+00 3.193848e+00
1.301917e+02 1.675063e-01 6.923572e-03 7.158087e-01 -3.561279e+00 3.199219e+00
1.309807e+02 1.687657e-01 6.962698e-03 7.161011e-01 -3.564209e+00 3.202881e+00
1.311411e+02 1.712846e-01 7.046519e-03 7.164228e-01 -3.569336e+00 3.207275e+00
1.310095e+02 1.649874e-01 7.017918e-03 7.167212e-01 -3.576660e+00 3.211182e+00
1.312339e+02 1.662469e-01 7.053460e-03 7.170325e-01 -3.579834e+00 3.216064e+00
1.309573e+02 1.649874e-01 7.028748e-03 7.173483e-01 -3.585205e+00 3.220703e+00
1.307964e+02 1.649874e-01 7.140789e-03 7.176397e-01 -3.591309e+00 3.225342e+00
1.311377e+02 1.649874e-01 7.193949e-03 7.179527e-01 -3.592529e+00 3.228760e+00
1.301531e+02 1.637280e-01 7.269533e-03 7.182632e-01 -3.598389e+00 3.233154e+00
1.313345e+02 1.649874e-01 7.311482e-03 7.185467e-01 -3.604004e+00 3.237061e+00
1.312007e+02 1.649874e-01 7.366015e-03 7.188660e-01 -3.606201e+00 3.241455e+00
1.310720e+02 1.662469e-01 7.382108e-03 7.191305e-01 -3.612793e+00 3.246338e+00
1.312480e+02 1.637280e-01 7.470047e-03 7.194483e-01 -3.614990e+00 3.250488e+00
1.312700e+02 1.624685e-01 7.514970e-03 7.197066e-01 -3.620117e+00 3.254883e+00
1.307710e+02 1.637280e-01 7.527555e-03 7.200144e-01 -3.625000e+00 3.259277e+00
1.308623e+02 1.649874e-01 7.596732e-03 7.203073e-01 -3.625977e+00 3.264404e+00
1.310112e+02 1.637280e-01 7.579113e-03 7.205914e-01 -3.631104e+00 3.268799e+00
1.302822e+02 1.649874e-01 7.653477e-03 7.208747e-01 -3.635254e+00 3.273438e+00
1.305212e+02 1.649874e-01 7.707857e-03 7.211906e-01 -3.636230e+00 3.278809e+00
1.302578e+02 1.649874e-01 7.822186e-03 7.214754e-01 -3.643555e+00 3.283203e+00
1.299497e+02 1.624685e-01 7.846516e-03 7.217823e-01 -3.645020e+00 3.287354e+00
1.299165e+02 1.624685e-01 7.865279e-03 7.220707e-01 -3.649170e+00 3.291504e+00
1.299692e+02 1.624685e-01 7.887168e-03 7.223803e-01 -3.652100e+00 3.296387e+00
1.300632e+02 1.624685e-01 7.941244e-03 7.226493e-01 -3.659912e+00 3.300781e+00
1.301482e+02 1.612091e-01 8.001574e-03 7.229636e-01 -3.662354e+00 3.305908e+00
1.300735e+02 1.637280e-01 8.048175e-03 7.232523e-01 -3.664795e+00 3.310303e+00
1.300610e+02 1.624685e-01 8.047717e-03 7.235602e-01 -3.672363e+00 3.314453e+00
1.300554e+02 1.637280e-01 8.120860e-03 7.238518e-01 -3.675293e+00 3.317871e+00
1.301624e+02 1.637280e-01 8.138021e-03 7.241445e-01 -3.679199e+00 3.322510e+00
1.298198e+02 1.649874e-01 8.221308e-03 7.244272e-01 -3.682129e+00 3.327148e+00
1.299148e+02 1.649874e-01 8.220164e-03 7.247390e-01 -3.686523e+00 3.331299e+00
1.305056e+02 1.637280e-01 8.201554e-03 7.250243e-01 -3.691162e+00 3.334961e+00
1.302048e+02 1.637280e-01 8.235647e-03 7.253201e-01 -3.695068e+00 3.338867e+00
1.304688e+02 1.637280e-01 8.279502e-03 7.256081e-01 -3.701172e+00 3.343018e+00
1.302075e+02 1.649874e-01 8.346620e-03 7.259117e-01 -3.705078e+00 3.347168e+00
1.302639e+02 1.649874e-01 8.380484e-03 7.261671e-01 -3.708740e+00 3.350830e+00
1.304434e+02 1.637280e-01 8.454999e-03 7.264650e-01 -3.714844e+00 3.355225e+00
1.303149e+02 1.649874e-01 8.486423e-03 7.267589e-01 -3.717041e+00 3.359619e+00
1.306033e+02 1.637280e-01 8.469186e-03 7.270397e-01 -3.718750e+00 3.363037e+00
1.303447e+02 1.637280e-01 8.530659e-03 7.273084e-01 -3.723145e+00 3.367432e+00
1.304541e+02 1.649874e-01 8.566278e-03 7.275838e-01 -3.732422e+00 3.371582e+00
1.307168e+02 1.662469e-01 8.645904e-03 7.278736e-01 -3.730713e+00 3.375977e+00
1.307913e+02 1.649874e-01 8.668403e-03 7.281591e-01 -3.737061e+00 3.379395e+00
1.304309e+02 1.637280e-01 8.683810e-03 7.284502e-01 -3.739258e+00 3.383057e+00
1.307412e+02 1.649874e-01 8.723318e-03 7.287328e-01 -3.740967e+00 3.386719e+00
1.310701e+02 1.637280e-01 8.759088e-03 7.290184e-01 -3.744141e+00 3.390137e+00
1.307175e+02 1.637280e-01 8.781130e-03 7.292929e-01 -3.749756e+00 3.394043e+00
1.304353e+02 1.637280e-01 8.823994e-03 7.295746e-01 -3.754639e+00 3.398438e+00
1.306956e+02 1.662469e-01 8.847562e-03 7.298461e-01 -3.759033e+00 3.400879e+00
1.303945e+02 1.649874e-01 8.808740e-03 7.301177e-01 -3.761719e+00 3.404541e+00
1.300625e+02 1.649874e-01 8.865256e-03 7.303819e-01 -3.766602e+00 3.407959e+00
1.302148e+02 1.649874e-01 8.843901e-03 7.306618e-01 -3.770996e+00 3.411621e+00
1.299194e+02 1.649874e-01 8.852824e-03 7.309493e-01 -3.774414e+00 3.414062e+00
1.301128e+02 1.675063e-01 8.912544e-03 7.312287e-01 -3.779053e+00 3.417969e+00
1.302686e+02 1.649874e-01 8.926196e-03 7.315069e-01 -3.782715e+00 3.421387e+00
1.305078e+02 1.649874e-01 8.971348e-03 7.317659e-01 -3.785645e+00 3.425293e+00
1.304661e+02 1.687657e-01 8.954035e-03 7.320406e-01 -3.789062e+00 3.428955e+00
1.304624e+02 1.675063e-01 8.991102e-03 7.323159e-01 -3.792725e+00 3.433105e+00
1.305381e+02 1.687657e-01 8.979204e-03 7.325883e-01 -3.797119e+00 3.436035e+00
1.301968e+02 1.675063e-01 8.985382e-03 7.328443e-01 -3.799561e+00 3.439697e+00
1.301008e+02 1.649874e-01 9.001170e-03 7.330932e-01 -3.802490e+00 3.443848e+00
1.301428e+02 1.675063e-01 9.018864e-03 7.333639e-01 -3.805908e+00 3.447754e+00
1.299434e+02 1.662469e-01 9.091016e-03 7.336440e-01 -3.810547e+00 3.450928e+00
1.301382e+02 1.700252e-01 9.081863e-03 7.339244e-01 -3.813477e+00 3.454102e+00
1.303430e+02 1.687657e-01 9.118931e-03 7.341923e-01 -3.817871e+00 3.457031e+00
1.304666e+02 1.675063e-01 9.203209e-03 7.344427e-01 -3.820557e+00 3.460938e+00
1.303586e+02 1.637280e-01 9.224260e-03 7.347141e-01 -3.823730e+00 3.463379e+00
1.302329e+02 1.637280e-01 9.194209e-03 7.349797e-01 -3.828369e+00 3.467529e+00
1.304915e+02 1.675063e-01 9.207557e-03 7.352628e-01 -3.831787e+00 3.471680e+00
1.310176e+02 1.675063e-01 9.162710e-03 7.355258e-01 -3.835449e+00 3.473877e+00
1.308894e+02 1.662469e-01 9.196192e-03 7.357979e-01 -3.837646e+00 3.476807e+00
1.306528e+02 1.649874e-01 9.183989e-03 7.360762e-01 -3.841797e+00 3.480225e+00
1.307410e+02 1.662469e-01 9.183837e-03 7.363305e-01 -3.844971e+00 3.483398e+00
1.305505e+02 1.687657e-01 9.242793e-03 7.365941e-01 -3.849121e+00 3.486816e+00
1.306555e+02 1.687657e-01 9.284589e-03 7.368358e-01 -3.852539e+00 3.489990e+00
1.304041e+02 1.649874e-01 9.283445e-03 7.371217e-01 -3.854248e+00 3.493652e+00
1.306555e+02 1.649874e-01 9.383054e-03 7.373759e-01 -3.858887e+00 3.496582e+00
1.306675e+02 1.675063e-01 9.346902e-03 7.376613e-01 -3.862549e+00 3.499756e+00
1.304504e+02 1.649874e-01 9.381452e-03 7.378959e-01 -3.864746e+00 3.503174e+00
1.307471e+02 1.675063e-01 9.386257e-03 7.381675e-01 -3.868164e+00 3.506104e+00
1.306956e+02 1.662469e-01 9.336148e-03 7.384144e-01 -3.872559e+00 3.510010e+00
1.307200e+02 1.662469e-01 9.429655e-03 7.386677e-01 -3.874268e+00 3.512451e+00
1.305344e+02 1.662469e-01 9.435147e-03 7.389161e-01 -3.876953e+00 3.515625e+00
1.305515e+02 1.687657e-01 9.448951e-03 7.391776e-01 -3.880371e+00 3.519531e+00
1.301665e+02 1.675063e-01 9.350258e-03 7.394260e-01 -3.884766e+00 3.522461e+00
1.301511e+02 1.675063e-01 9.341182e-03 7.397009e-01 -3.889160e+00 3.525879e+00
1.304690e+02 1.675063e-01 9.399223e-03 7.399620e-01 -3.890381e+00 3.529297e+00
1.309226e+02 1.649874e-01 9.425079e-03 7.402093e-01 -3.894775e+00 3.532471e+00
1.308796e+02 1.649874e-01 9.452231e-03 7.404678e-01 -3.897949e+00 3.535645e+00
1.308486e+02 1.649874e-01 9.443460e-03 7.407286e-01 -3.901611e+00 3.538818e+00
1.303875e+02 1.637280e-01 9.492731e-03 7.409680e-01 -3.905029e+00 3.541748e+00
1.301929e+02 1.649874e-01 9.456731e-03 7.412260e-01 -3.907959e+00 3.545166e+00
1.304907e+02 1.637280e-01 9.501120e-03 7.414885e-01 -3.913574e+00 3.548828e+00
1.304385e+02 1.649874e-01 9.517061e-03 7.417530e-01 -3.914062e+00 3.552734e+00
1.304497e+02 1.649874e-01 9.555730e-03 7.420152e-01 -3.915527e+00 3.556152e+00
1.307637e+02 1.662469e-01 9.561221e-03 7.422528e-01 -3.920166e+00 3.558594e+00
1.305071e+02 1.662469e-01 9.624678e-03 7.425037e-01 -3.923340e+00 3.561523e+00
1.304502e+02 1.662469e-01 9.606144e-03 7.427456e-01 -3.926270e+00 3.564209e+00
1.305549e+02 1.662469e-01 9.611559e-03 7.429992e-01 -3.932129e+00 3.567139e+00
1.307034e+02 1.662469e-01 9.597754e-03 7.432527e-01 -3.931641e+00 3.570557e+00
1.308684e+02 1.675063e-01 9.629864e-03 7.435091e-01 -3.935547e+00 3.573486e+00
1.305801e+02 1.649874e-01 9.641076e-03 7.437496e-01 -3.938721e+00 3.576904e+00
1.304734e+02 1.662469e-01 9.660830e-03 7.440005e-01 -3.941162e+00 3.579834e+00
1.308591e+02 1.662469e-01 9.721312e-03 7.442506e-01 -3.943604e+00 3.582275e+00
1.305125e+02 1.649874e-01 9.718109e-03 7.445092e-01 -3.949707e+00 3.585938e+00
1.307439e+02 1.649874e-01 9.737253e-03 7.447450e-01 -3.950928e+00 3.589111e+00
1.306658e+02 1.662469e-01 9.742973e-03 7.449859e-01 -3.953369e+00 3.591553e+00
1.306089e+02 1.649874e-01 9.714829e-03 7.452218e-01 -3.956543e+00 3.594482e+00
1.306382e+02 1.649874e-01 9.731837e-03 7.454731e-01 -3.960693e+00 3.597412e+00
1.304016e+02 1.637280e-01 9.747778e-03 7.457195e-01 -3.965088e+00 3.600098e+00
1.302173e+02 1.624685e-01 9.776455e-03 7.459726e-01 -3.966553e+00 3.603027e+00
1.304187e+02 1.624685e-01 9.766464e-03 7.461936e-01 -3.969727e+00 3.605469e+00
1.301716e+02 1.624685e-01 9.821302e-03 7.464472e-01 -3.973389e+00 3.608887e+00
1.304568e+02 1.624685e-01 9.830683e-03 7.466838e-01 -3.976074e+00 3.611572e+00
1.303005e+02 1.624685e-01 9.873166e-03 7.469435e-01 -3.979004e+00 3.614746e+00
1.303638e+02 1.624685e-01 9.844717e-03 7.471664e-01 -3.982178e+00 3.617920e+00
1.305708e+02 1.624685e-01 9.820311e-03 7.474080e-01 -3.984375e+00 3.620605e+00
1.304202e+02 1.637280e-01 9.863022e-03 7.476413e-01 -3.988770e+00 3.622314e+00
1.307336e+02 1.637280e-01 9.860886e-03 7.478797e-01 -3.992432e+00 3.625244e+00
1.307939e+02 1.637280e-01 9.843344e-03 7.481200e-01 -3.994385e+00 3.627686e+00
1.310620e+02 1.662469e-01 9.879039e-03 7.483499e-01 -3.997559e+00 3.630127e+00
1.308132e+02 1.662469e-01 9.902148e-03 7.485933e-01 -3.999756e+00 3.633545e+00
1.308599e+02 1.637280e-01 9.885598e-03 7.488306e-01 -4.004395e+00 3.636475e+00
1.311973e+02 1.649874e-01 9.909318e-03 7.490589e-01 -4.005859e+00 3.640381e+00
1.307178e+02 1.649874e-01 9.916869e-03 7.492874e-01 -4.009277e+00 3.642578e+00
1.310024e+02 1.637280e-01 9.895208e-03 7.495165e-01 -4.015869e+00 3.645020e+00
1.312170e+02 1.637280e-01 9.918013e-03 7.497688e-01 -4.018555e+00 3.647461e+00
1.309275e+02 1.649874e-01 9.943258e-03 7.500030e-01 -4.021484e+00 3.650391e+00
1.315254e+02 1.637280e-01 9.986351e-03 7.502511e-01 -4.023193e+00 3.652344e+00
1.312493e+02 1.649874e-01 9.994893e-03 7.504836e-01 -4.026123e+00 3.655518e+00
