-5.835749e-01 9.310245e+00 -4.555425e+01 4.253180e+01 8.011204e-06 3.000686e-03 -1.262285e-01 1.262285e-01
-4.216635e-01 1.021538e+01 -5.339597e+01 4.975688e+01 1.943763e-07 2.188421e-03 -1.262285e-01 1.262285e-01
-4.738405e-01 1.087912e+01 -5.708469e+01 6.129608e+01 5.459872e-08 2.007030e-03 -1.262285e-01 1.262285e-01
-4.325647e-01 1.149328e+01 -6.220840e+01 6.762333e+01 4.516024e-08 1.905472e-03 -1.262285e-01 1.262285e-01
-4.288750e-01 1.188796e+01 -6.742552e+01 7.232006e+01 -5.657461e-08 1.854795e-03 -1.262285e-01 1.262285e-01
-4.694574e-01 1.211327e+01 -6.494058e+01 7.443139e+01 1.229862e-07 1.806847e-03 -1.262285e-01 1.262284e-01
-4.617061e-01 1.242472e+01 -6.788654e+01 8.028945e+01 -6.958206e-08 1.772088e-03 -1.262285e-01 1.262285e-01
-4.406669e-01 1.275758e+01 -7.116669e+01 8.021980e+01 4.353303e-08 1.737357e-03 -1.262285e-01 1.265296e-01
-4.225854e-01 1.315166e+01 -7.691869e+01 8.370190e+01 1.250822e-08 1.688179e-03 -1.262285e-01 1.356364e-01
-5.131045e-01 1.354350e+01 -7.839961e+01 8.492853e+01 -3.955867e-08 1.664370e-03 -1.389446e-01 1.262285e-01
-5.672667e-01 1.397693e+01 -8.294859e+01 8.484924e+01 8.435630e-08 1.624725e-03 -1.274033e-01 1.495065e-01
-5.885674e-01 1.424081e+01 -8.405791e+01 8.665920e+01 3.752404e-09 1.597366e-03 -1.494526e-01 1.262285e-01
-6.031209e-01 1.453762e+01 -8.578569e+01 8.633990e+01 -4.914412e-08 1.575456e-03 -1.596763e-01 1.459452e-01
-6.379059e-01 1.479643e+01 -9.100294e+01 8.760151e+01 -7.375092e-08 1.556138e-03 -1.573174e-01 1.619692e-01
-6.516061e-01 1.503498e+01 -9.254924e+01 8.954720e+01 6.130974e-08 1.531176e-03 -1.467728e-01 1.481063e-01
-6.394553e-01 1.519572e+01 -9.257035e+01 9.030808e+01 -2.938016e-08 1.522839e-03 -1.568594e-01 1.453890e-01
-6.861415e-01 1.539600e+01 -9.521485e+01 9.010390e+01 -2.036600e-08 1.505028e-03 -1.629083e-01 1.569325e-01
-6.385486e-01 1.558308e+01 -9.742124e+01 9.178465e+01 8.262500e-09 1.498780e-03 -1.729263e-01 1.652893e-01
-6.421583e-01 1.575226e+01 -9.654831e+01 9.234730e+01 5.474725e-08 1.483167e-03 -1.642895e-01 1.641308e-01
-6.203382e-01 1.593832e+01 -1.001823e+02 9.455206e+01 -3.347302e-08 1.474316e-03 -1.701020e-01 1.472187e-01
-6.081164e-01 1.617740e+01 -1.027271e+02 9.710455e+01 4.335557e-08 1.465352e-03 -1.723465e-01 1.553493e-01
-6.624468e-01 1.635440e+01 -1.032378e+02 1.014854e+02 -3.828811e-08 1.452073e-03 -1.446888e-01 1.681671e-01
-6.778883e-01 1.647469e+01 -1.036392e+02 1.044005e+02 1.530417e-09 1.449924e-03 -1.495828e-01 1.678244e-01
-7.436338e-01 1.647635e+01 -1.067752e+02 1.014774e+02 2.156616e-08 1.438597e-03 -1.615140e-01 1.658364e-01
-7.620651e-01 1.659208e+01 -1.054459e+02 1.046161e+02 4.424361e-09 1.432124e-03 -1.585583e-01 1.518082e-01
-6.697697e-01 1.688489e+01 -1.042168e+02 1.074312e+02 3.106284e-09 1.426339e-03 -1.560029e-01 1.505848e-01
-6.640972e-01 1.710042e+01 -1.082867e+02 1.077454e+02 -1.135270e-08 1.425656e-03 -1.622439e-01 1.704558e-01
-7.449732e-01 1.710253e+01 -1.086420e+02 1.113124e+02 4.912504e-08 1.403868e-03 -1.415463e-01 1.680226e-01
-7.031951e-01 1.740951e+01 -1.096968e+02 1.125155e+02 -4.637242e-08 1.407958e-03 -1.669498e-01 1.735090e-01
-7.804854e-01 1.736077e+01 -1.116773e+02 1.125086e+02 -2.279222e-08 1.392566e-03 -1.899450e-01 1.657256e-01
-8.620873e-01 1.742048e+01 -1.092408e+02 1.127113e+02 4.191428e-08 1.388217e-03 -1.544946e-01 1.549833e-01
-8.527409e-01 1.752064e+01 -1.088980e+02 1.164140e+02 -7.664959e-09 1.389011e-03 -1.605553e-01 1.652618e-01
