-5.419419e-01 2.016265e+00 -8.777298e+00 7.585495e+00 1.743084e-04 1.514911e-02 -1.916504e-01 1.737366e-01
-9.353285e-01 4.143961e+00 -1.699316e+01 1.141325e+01 2.484546e-05 1.495827e-02 -1.863861e-01 1.721039e-01
-1.214416e+00 5.981741e+00 -2.113721e+01 1.684058e+01 8.304070e-05 1.460212e-02 -1.808624e-01 1.721039e-01
-1.267809e+00 7.217823e+00 -2.517894e+01 2.117274e+01 4.720940e-06 1.441434e-02 -1.745453e-01 1.721039e-01
-1.292346e+00 7.980050e+00 -2.671159e+01 2.329895e+01 -3.536682e-05 1.419656e-02 -1.745453e-01 1.638489e-01
-1.473306e+00 8.442984e+00 -2.879860e+01 2.506847e+01 -8.748837e-05 1.382616e-02 -1.745453e-01 1.638489e-01
-1.452972e+00 8.764537e+00 -2.991991e+01 2.652806e+01 -1.507681e-04 1.369105e-02 -1.673737e-01 1.638489e-01
-1.510078e+00 8.973768e+00 -3.014471e+01 2.721220e+01 -1.810782e-04 1.346667e-02 -1.673737e-01 1.547089e-01
-1.550674e+00 9.127155e+00 -3.067198e+01 2.769611e+01 -2.093168e-04 1.327959e-02 -1.673737e-01 1.547089e-01
-1.490950e+00 9.250669e+00 -3.081424e+01 2.802509e+01 -2.319447e-04 1.307126e-02 -1.593475e-01 1.547089e-01
-1.472795e+00 9.344422e+00 -3.100111e+01 2.882027e+01 -2.523898e-04 1.282224e-02 -1.593475e-01 1.547089e-01
-1.425212e+00 9.428919e+00 -3.112874e+01 2.888989e+01 -2.556411e-04 1.270961e-02 -1.593475e-01 1.547089e-01
-1.448117e+00 9.495056e+00 -3.123569e+01 2.918974e+01 -2.784819e-04 1.267200e-02 -1.504517e-01 1.447449e-01
-1.454402e+00 9.557482e+00 -3.132404e+01 2.952960e+01 -2.735384e-04 1.244878e-02 -1.547089e-01 1.447449e-01
-1.438904e+00 9.616499e+00 -3.146088e+01 2.976939e+01 -2.687198e-04 1.235551e-02 -1.504517e-01 1.447449e-01
-1.507958e+00 9.676072e+00 -3.153130e+01 2.998796e+01 -2.549060e-04 1.238827e-02 -1.504517e-01 1.447449e-01
-1.468000e+00 9.728618e+00 -3.162694e+01 3.012917e+01 -2.461539e-04 1.232566e-02 -1.447449e-01 1.447449e-01
-1.561071e+00 9.788067e+00 -3.260266e+01 3.026653e+01 -2.477250e-04 1.217226e-02 -1.447449e-01 1.447449e-01
-1.471686e+00 9.852137e+00 -3.198099e+01 3.049236e+01 -2.484436e-04 1.218937e-02 -1.447449e-01 1.447449e-01
-1.576030e+00 9.924764e+00 -3.468321e+01 3.064493e+01 -2.587493e-04 1.215197e-02 -1.407623e-01 1.447449e-01
-1.548675e+00 1.000956e+01 -3.432179e+01 3.073517e+01 -2.393100e-04 1.206959e-02 -1.407623e-01 1.447449e-01
-1.551045e+00 1.009371e+01 -3.486932e+01 3.131874e+01 -1.965094e-04 1.198959e-02 -1.340332e-01 1.447449e-01
-1.533153e+00 1.018283e+01 -3.610733e+01 3.362109e+01 -1.884378e-04 1.194329e-02 -1.340332e-01 1.447449e-01
-1.598737e+00 1.026781e+01 -3.723050e+01 3.296341e+01 -1.975600e-04 1.190201e-02 -1.340332e-01 1.447449e-01
-1.615325e+00 1.033196e+01 -3.714597e+01 3.306004e+01 -2.037619e-04 1.191068e-02 -1.340332e-01 1.447449e-01
-1.575488e+00 1.040216e+01 -3.674835e+01 3.449385e+01 -1.948053e-04 1.185700e-02 -1.303558e-01 1.447449e-01
-1.652060e+00 1.048035e+01 -3.813168e+01 3.512654e+01 -1.921851e-04 1.175885e-02 -1.303558e-01 1.447449e-01
-1.618141e+00 1.056478e+01 -3.772116e+01 3.588266e+01 -1.719627e-04 1.169360e-02 -1.303558e-01 1.447449e-01
-1.686735e+00 1.065384e+01 -3.827138e+01 3.509186e+01 -1.697455e-04 1.165269e-02 -1.303558e-01 1.447449e-01
-1.630759e+00 1.072922e+01 -3.846848e+01 3.677365e+01 -1.501784e-04 1.163012e-02 -1.303558e-01 1.447449e-01
-1.674771e+00 1.081406e+01 -4.041060e+01 3.677211e+01 -9.946093e-05 1.157523e-02 -1.303558e-01 1.547089e-01
-1.637581e+00 1.089052e+01 -3.951190e+01 3.954962e+01 -8.432008e-05 1.163937e-02 -1.303558e-01 1.547089e-01
-1.767238e+00 1.098342e+01 -4.201184e+01 3.663356e+01 -9.231875e-05 1.161614e-02 -1.303558e-01 1.547089e-01
-1.659806e+00 1.106621e+01 -4.078857e+01 3.901180e+01 -6.239114e-05 1.153876e-02 -1.303558e-01 1.547089e-01
-1.653924e+00 1.116571e+01 -4.158427e+01 3.924887e+01 -5.977245e-05 1.145549e-02 -1.303558e-01 1.547089e-01
-1.782429e+00 1.124621e+01 -4.508047e+01 3.649615e+01 -7.952174e-05 1.144689e-02 -1.303558e-01 1.547089e-01
-1.699861e+00 1.133698e+01 -4.383183e+01 4.188011e+01 -7.401118e-05 1.140472e-02 -1.303558e-01 1.547089e-01
-1.712512e+00 1.142622e+01 -4.354794e+01 4.231725e+01 -6.514752e-05 1.136881e-02 -1.303558e-01 1.547089e-01
-1.833564e+00 1.150727e+01 -4.525664e+01 4.041318e+01 -9.922934e-05 1.129312e-02 -1.303558e-01 1.547089e-01
-1.755189e+00 1.156139e+01 -4.401878e+01 4.241139e+01 -1.064637e-04 1.122029e-02 -1.303558e-01 1.547089e-01
-1.791423e+00 1.163570e+01 -4.533554e+01 4.058508e+01 -1.069786e-04 1.124416e-02 -1.303558e-01 1.547089e-01
-1.839423e+00 1.172091e+01 -4.647180e+01 4.160727e+01 -1.081270e-04 1.125087e-02 -1.303558e-01 1.547089e-01
-1.819623e+00 1.180631e+01 -4.707730e+01 4.262692e+01 -9.206347e-05 1.124825e-02 -1.303558e-01 1.638489e-01
-1.829160e+00 1.186019e+01 -4.679228e+01 4.156250e+01 -8.482116e-05 1.121625e-02 -1.303558e-01 1.638489e-01
-1.904466e+00 1.196222e+01 -4.779744e+01 4.080104e+01 -8.651500e-05 1.126240e-02 -1.303558e-01 1.638489e-01
-1.858953e+00 1.205315e+01 -4.751083e+01 4.426715e+01 -7.346061e-05 1.120001e-02 -1.303558e-01 1.638489e-01
-1.831256e+00 1.210712e+01 -4.739519e+01 4.388348e+01 -7.125472e-05 1.121803e-02 -1.303558e-01 1.638489e-01
-1.877605e+00 1.216863e+01 -4.736792e+01 4.227515e+01 -8.623647e-05 1.117704e-02 -1.303558e-01 1.638489e-01
-1.869303e+00 1.222608e+01 -4.723602e+01 4.211801e+01 -9.014067e-05 1.115872e-02 -1.303558e-01 1.638489e-01
-1.906341e+00 1.229515e+01 -4.717879e+01 4.117719e+01 -9.711981e-05 1.117039e-02 -1.303558e-01 1.638489e-01
-1.905658e+00 1.237220e+01 -4.656337e+01 4.212326e+01 -8.712533e-05 1.120562e-02 -1.303558e-01 1.638489e-01
-1.951533e+00 1.243872e+01 -4.686707e+01 4.178760e+01 -9.838777e-05 1.122486e-02 -1.303558e-01 1.638489e-01
-1.979110e+00 1.253288e+01 -4.731227e+01 4.280478e+01 -9.664602e-05 1.122664e-02 -1.303558e-01 1.653900e-01
-1.993036e+00 1.263449e+01 -4.728394e+01 4.169559e+01 -7.361242e-05 1.111407e-02 -1.303558e-01 1.653900e-01
-1.989503e+00 1.271585e+01 -4.721721e+01 4.353075e+01 -4.210445e-05 1.110904e-02 -1.303558e-01 1.737366e-01
-1.975203e+00 1.278812e+01 -4.677324e+01 4.393118e+01 -4.224836e-05 1.103698e-02 -1.407623e-01 1.737366e-01
-1.999422e+00 1.286883e+01 -4.616110e+01 4.205412e+01 -6.505169e-05 1.096257e-02 -1.407623e-01 1.737366e-01
-2.030336e+00 1.295219e+01 -4.623480e+01 4.239713e+01 -7.391465e-05 1.096871e-02 -1.407623e-01 1.737366e-01
-2.002243e+00 1.301020e+01 -4.539069e+01 4.218887e+01 -6.576259e-05 1.097778e-02 -1.407623e-01 1.737366e-01
-2.110298e+00 1.309277e+01 -4.671664e+01 4.075169e+01 -8.359847e-05 1.097873e-02 -1.407623e-01 1.737366e-01
-2.006552e+00 1.316060e+01 -4.586165e+01 4.528676e+01 -6.471989e-05 1.101060e-02 -1.407623e-01 1.737366e-01
-2.064735e+00 1.325149e+01 -4.671355e+01 4.534483e+01 -6.703960e-05 1.094888e-02 -1.407623e-01 1.737366e-01
-2.182351e+00 1.334632e+01 -4.851077e+01 4.161403e+01 -6.392676e-05 1.093604e-02 -1.407623e-01 1.737366e-01
-2.042204e+00 1.340580e+01 -4.516489e+01 4.417950e+01 -2.278121e-05 1.087665e-02 -1.407623e-01 1.737366e-01
-2.160742e+00 1.348941e+01 -4.647313e+01 4.311601e+01 -3.913904e-05 1.088478e-02 -1.407623e-01 1.737366e-01
-2.191725e+00 1.357990e+01 -4.656131e+01 4.038019e+01 -4.488785e-05 1.088953e-02 -1.407623e-01 1.737366e-01
-2.145237e+00 1.364598e+01 -4.656163e+01 4.167906e+01 -4.500676e-05 1.093227e-02 -1.407623e-01 1.811676e-01
-2.160427e+00 1.373435e+01 -4.711325e+01 4.116934e+01 -3.850106e-05 1.090452e-02 -1.504517e-01 1.811676e-01
-2.156571e+00 1.385654e+01 -4.716866e+01 4.225078e+01 -3.664953e-05 1.086385e-02 -1.504517e-01 1.811676e-01
-2.227118e+00 1.392323e+01 -4.760107e+01 4.154616e+01 -5.126104e-05 1.084488e-02 -1.504517e-01 1.811676e-01
-2.236302e+00 1.398626e+01 -4.707297e+01 4.157870e+01 -6.251593e-05 1.082981e-02 -1.504517e-01 1.811676e-01
-2.164545e+00 1.410621e+01 -4.593108e+01 4.278664e+01 -4.427164e-05 1.081092e-02 -1.504517e-01 1.811676e-01
-2.196909e+00 1.418716e+01 -4.712321e+01 4.194856e+01 -3.378433e-05 1.072488e-02 -1.504517e-01 1.811676e-01
-2.268364e+00 1.424979e+01 -4.770148e+01 4.237637e+01 -4.079673e-05 1.070495e-02 -1.504517e-01 1.811676e-01
-2.281092e+00 1.430661e+01 -4.669109e+01 4.259064e+01 -4.186321e-05 1.067711e-02 -1.504517e-01 1.811676e-01
-2.263829e+00 1.438908e+01 -4.576245e+01 4.275208e+01 -3.506213e-05 1.066847e-02 -1.504517e-01 1.811676e-01
-2.275894e+00 1.448849e+01 -4.568327e+01 4.307788e+01 -2.903786e-05 1.069641e-02 -1.504517e-01 1.811676e-01
-2.301576e+00 1.458324e+01 -4.681821e+01 4.340442e+01 -2.042386e-05 1.069401e-02 -1.504517e-01 1.877289e-01
-2.324010e+00 1.466918e+01 -4.706322e+01 4.373463e+01 -2.543851e-05 1.072775e-02 -1.504517e-01 1.877289e-01
-2.345175e+00 1.476855e+01 -4.807133e+01 4.384471e+01 -2.597961e-05 1.072972e-02 -1.504517e-01 1.877289e-01
-2.333404e+00 1.484180e+01 -4.745016e+01 4.423216e+01 -2.820226e-05 1.070286e-02 -1.504517e-01 1.877289e-01
-2.318677e+00 1.492120e+01 -4.539598e+01 4.456677e+01 -2.602559e-05 1.070351e-02 -1.521912e-01 1.877289e-01
-2.379375e+00 1.503191e+01 -4.639972e+01 4.484636e+01 -3.281868e-05 1.068064e-02 -1.521912e-01 1.877289e-01
-2.406899e+00 1.513212e+01 -4.671161e+01 4.490286e+01 -4.847526e-05 1.068844e-02 -1.521912e-01 1.877289e-01
-2.401436e+00 1.521281e+01 -4.691086e+01 4.535489e+01 -3.964205e-05 1.067103e-02 -1.521912e-01 1.877289e-01
-2.401763e+00 1.529847e+01 -4.632758e+01 4.563814e+01 -3.145190e-05 1.063725e-02 -1.521912e-01 1.877289e-01
-2.408648e+00 1.539420e+01 -4.600391e+01 4.598155e+01 -2.054496e-05 1.059638e-02 -1.521912e-01 1.877289e-01
-2.428843e+00 1.548124e+01 -4.618040e+01 4.603880e+01 -2.034944e-05 1.060396e-02 -1.593475e-01 1.877289e-01
-2.444409e+00 1.556820e+01 -4.649336e+01 4.655614e+01 -1.718220e-05 1.060798e-02 -1.521912e-01 1.877289e-01
-2.470531e+00 1.567372e+01 -4.687143e+01 4.678801e+01 -1.477710e-05 1.062197e-02 -1.521912e-01 1.877289e-01
-2.482172e+00 1.577357e+01 -4.718648e+01 4.707787e+01 -1.019850e-05 1.063014e-02 -1.521912e-01 1.877289e-01
-2.503692e+00 1.586043e+01 -4.728339e+01 4.725250e+01 -8.986521e-06 1.067130e-02 -1.521912e-01 1.877289e-01
-2.557039e+00 1.595005e+01 -4.754918e+01 4.754602e+01 -2.678037e-05 1.069654e-02 -1.521912e-01 1.877289e-01
-2.521082e+00 1.605844e+01 -4.776180e+01 4.789827e+01 -1.549239e-05 1.069174e-02 -1.521912e-01 1.877289e-01
-2.492770e+00 1.618491e+01 -4.802959e+01 4.825269e+01 -6.257350e-06 1.072547e-02 -1.521912e-01 1.877289e-01
-2.548115e+00 1.629139e+01 -4.829868e+01 4.843100e+01 -2.763194e-05 1.070866e-02 -1.598663e-01 1.877289e-01
-2.606228e+00 1.639271e+01 -4.855969e+01 4.866876e+01 -3.185996e-05 1.067226e-02 -1.598663e-01 1.877289e-01
-2.627345e+00 1.649981e+01 -4.883887e+01 4.896594e+01 -2.294821e-05 1.061495e-02 -1.598663e-01 1.877289e-01
-2.658636e+00 1.659553e+01 -4.911131e+01 4.932700e+01 -2.125384e-05 1.060041e-02 -1.598663e-01 1.877289e-01
-2.678995e+00 1.669580e+01 -4.943822e+01 4.980835e+01 -1.846350e-05 1.060917e-02 -1.598663e-01 1.877289e-01
-2.685424e+00 1.678871e+01 -4.954785e+01 4.986853e+01 -2.161460e-05 1.060195e-02 -1.598663e-01 1.877289e-01
-2.697496e+00 1.688385e+01 -4.993390e+01 5.041669e+01 -2.255322e-05 1.057726e-02 -1.598663e-01 1.877289e-01
-2.709274e+00 1.698685e+01 -5.009712e+01 5.066031e+01 -1.536357e-05 1.059596e-02 -1.598663e-01 1.877289e-01
-2.728402e+00 1.709312e+01 -5.043089e+01 5.084303e+01 -5.673079e-06 1.059036e-02 -1.598663e-01 1.934662e-01
-2.743413e+00 1.718263e+01 -5.082159e+01 5.133615e+01 -2.439160e-05 1.062597e-02 -1.598663e-01 1.877289e-01
-2.734102e+00 1.727591e+01 -5.104611e+01 5.158270e+01 -2.423785e-05 1.063133e-02 -1.598663e-01 1.877289e-01
-2.735505e+00 1.736322e+01 -5.115807e+01 5.189090e+01 -1.681135e-05 1.065468e-02 -1.598663e-01 1.934662e-01
-2.759826e+00 1.745761e+01 -5.160989e+01 5.226515e+01 -5.230620e-06 1.065980e-02 -1.598663e-01 1.934662e-01
-2.785354e+00 1.755811e+01 -5.183221e+01 5.245226e+01 -1.479746e-05 1.075504e-02 -1.598663e-01 1.934662e-01
-2.806394e+00 1.765785e+01 -5.217633e+01 5.282651e+01 -1.609009e-05 1.070820e-02 -1.598663e-01 1.934662e-01
-2.821025e+00 1.775449e+01 -5.234184e+01 5.301511e+01 -3.617030e-05 1.079309e-02 -1.598663e-01 1.877289e-01
-2.808830e+00 1.785459e+01 -5.262755e+01 5.339372e+01 -2.249653e-05 1.067409e-02 -1.598663e-01 1.934662e-01
-2.823121e+00 1.797659e+01 -5.285612e+01 5.364618e+01 -1.385278e-05 1.069620e-02 -1.667175e-01 1.934662e-01
-2.850312e+00 1.810673e+01 -5.337172e+01 5.396172e+01 -1.430937e-05 1.068609e-02 -1.667175e-01 1.934662e-01
-2.842594e+00 1.820639e+01 -5.361378e+01 5.434402e+01 -1.805615e-05 1.070002e-02 -1.667175e-01 1.934662e-01
-2.834383e+00 1.829873e+01 -5.390367e+01 5.466322e+01 -1.653816e-05 1.067535e-02 -1.667175e-01 1.934662e-01
-2.870712e+00 1.841559e+01 -5.406540e+01 5.498244e+01 -1.607105e-05 1.068929e-02 -1.667175e-01 1.934662e-01
-2.925259e+00 1.854650e+01 -5.447270e+01 5.523927e+01 -1.561033e-05 1.068093e-02 -1.667175e-01 1.934662e-01
-2.961837e+00 1.867095e+01 -5.476506e+01 5.569130e+01 -1.129938e-05 1.070811e-02 -1.667175e-01 1.934662e-01
-2.987484e+00 1.878076e+01 -5.499893e+01 5.582043e+01 -1.369403e-05 1.067308e-02 -1.667175e-01 1.934662e-01
-3.001993e+00 1.888755e+01 -5.534976e+01 5.627248e+01 -7.860365e-06 1.064908e-02 -1.667175e-01 1.934662e-01
-3.022050e+00 1.900108e+01 -5.560434e+01 5.653296e+01 -5.311003e-06 1.065058e-02 -1.667175e-01 1.934662e-01
-3.048778e+00 1.911939e+01 -5.590089e+01 5.692480e+01 -6.036032e-06 1.068468e-02 -1.667175e-01 1.934662e-01
-3.064389e+00 1.922639e+01 -5.620613e+01 5.718605e+01 -6.363445e-06 1.067186e-02 -1.667175e-01 1.934662e-01
-3.067902e+00 1.932425e+01 -5.653311e+01 5.770999e+01 -5.765660e-06 1.067516e-02 -1.667175e-01 1.934662e-01
-3.071881e+00 1.942498e+01 -5.690736e+01 5.804021e+01 1.167576e-06 1.067758e-02 -1.667175e-01 1.934662e-01
-3.097449e+00 1.954138e+01 -5.733000e+01 5.810625e+01 -6.405480e-06 1.069868e-02 -1.667175e-01 1.934662e-01
-3.129456e+00 1.966129e+01 -5.761174e+01 5.870064e+01 -1.249469e-05 1.070851e-02 -1.727600e-01 1.934662e-01
-3.149398e+00 1.977276e+01 -5.789427e+01 5.896628e+01 -2.121286e-05 1.069779e-02 -1.727600e-01 1.934662e-01
-3.153723e+00 1.987464e+01 -5.825038e+01 5.930014e+01 -1.561218e-05 1.066343e-02 -1.727600e-01 1.934662e-01
-3.172796e+00 1.998926e+01 -5.867770e+01 5.956726e+01 -1.577277e-05 1.070820e-02 -1.727600e-01 1.934662e-01
-3.199025e+00 2.010910e+01 -5.882014e+01 6.003468e+01 -2.366025e-05 1.073033e-02 -1.727600e-01 1.934662e-01
-3.215007e+00 2.022117e+01 -5.939146e+01 6.010147e+01 -2.159398e-05 1.072601e-02 -1.727600e-01 1.934662e-01
-3.227336e+00 2.032984e+01 -5.953548e+01 6.050578e+01 -1.975288e-05 1.073354e-02 -1.727600e-01 1.934662e-01
-3.240928e+00 2.044191e+01 -6.018349e+01 6.091084e+01 -1.357083e-05 1.073952e-02 -1.727600e-01 1.934662e-01
-3.258704e+00 2.055697e+01 -6.025549e+01 6.138342e+01 -1.776778e-05 1.074545e-02 -1.727600e-01 1.934662e-01
-3.274001e+00 2.067178e+01 -6.068752e+01 6.165494e+01 -1.885884e-05 1.073141e-02 -1.727600e-01 1.934662e-01
-3.297954e+00 2.077770e+01 -6.105144e+01 6.199615e+01 -5.152869e-06 1.071479e-02 -1.727600e-01 1.934662e-01
-3.325825e+00 2.088784e+01 -6.148814e+01 6.233737e+01 -3.274040e-06 1.073228e-02 -1.727600e-01 1.934662e-01
-3.348055e+00 2.099735e+01 -6.199763e+01 6.247386e+01 -1.031381e-06 1.076224e-02 -1.727600e-01 1.934662e-01
-3.366477e+00 2.111037e+01 -6.221599e+01 6.288332e+01 2.856065e-06 1.073851e-02 -1.727600e-01 1.934662e-01
-3.383602e+00 2.122397e+01 -6.250948e+01 6.322675e+01 1.350545e-07 1.072746e-02 -1.727600e-01 1.934662e-01
-3.397665e+00 2.133686e+01 -6.295088e+01 6.370959e+01 1.240676e-06 1.073397e-02 -1.727600e-01 1.934662e-01
-3.414830e+00 2.144903e+01 -6.339229e+01 6.384755e+01 3.536954e-06 1.072400e-02 -1.727600e-01 1.934662e-01
-3.431218e+00 2.156493e+01 -6.361299e+01 6.426140e+01 1.374063e-06 1.073499e-02 -1.727600e-01 1.934662e-01
-3.448058e+00 2.167846e+01 -6.398083e+01 6.474571e+01 -2.558927e-06 1.074302e-02 -1.727600e-01 1.934662e-01
-3.463598e+00 2.179418e+01 -6.457564e+01 6.502457e+01 -6.707795e-06 1.072726e-02 -1.727600e-01 1.934662e-01
-3.478782e+00 2.190798e+01 -6.479868e+01 6.544284e+01 -5.294242e-06 1.072182e-02 -1.727600e-01 1.934662e-01
-3.494311e+00 2.202231e+01 -6.531914e+01 6.572169e+01 -5.713358e-06 1.071555e-02 -1.727600e-01 1.934662e-01
-3.509123e+00 2.213616e+01 -6.569089e+01 6.607024e+01 -6.575987e-06 1.072276e-02 -1.727600e-01 1.934662e-01
-3.519877e+00 2.224889e+01 -6.591628e+01 6.649147e+01 -1.974481e-06 1.070321e-02 -1.727600e-01 1.934662e-01
-3.536872e+00 2.236541e+01 -6.621681e+01 6.670280e+01 -6.016902e-06 1.073899e-02 -1.727600e-01 1.934662e-01
-3.549653e+00 2.247976e+01 -6.659247e+01 6.726636e+01 -1.144804e-05 1.070633e-02 -1.727600e-01 1.934662e-01
-3.552070e+00 2.258879e+01 -6.696812e+01 6.761858e+01 -6.321849e-06 1.068709e-02 -1.727600e-01 1.934662e-01
-3.549420e+00 2.269396e+01 -6.726866e+01 6.782991e+01 -2.751637e-06 1.066962e-02 -1.727600e-01 1.934662e-01
-3.551688e+00 2.280410e+01 -6.772180e+01 6.818509e+01 -3.537392e-07 1.067543e-02 -1.727600e-01 1.934662e-01
-3.592130e+00 2.293453e+01 -6.810138e+01 6.854097e+01 -3.431999e-06 1.070941e-02 -1.727600e-01 1.934662e-01
-3.623223e+00 2.306155e+01 -6.863278e+01 6.896805e+01 -3.461221e-06 1.072152e-02 -1.727600e-01 1.934662e-01
-3.633520e+00 2.317660e+01 -6.908827e+01 6.939514e+01 -3.541166e-06 1.074820e-02 -1.727600e-01 1.934662e-01
-3.636029e+00 2.328690e+01 -6.931601e+01 6.960867e+01 -1.049810e-06 1.072540e-02 -1.727600e-01 1.934662e-01
-3.637534e+00 2.339939e+01 -6.977542e+01 7.003941e+01 4.787458e-06 1.070702e-02 -1.727600e-01 1.934662e-01
-3.682366e+00 2.353167e+01 -7.000551e+01 7.025516e+01 -1.383278e-06 1.074446e-02 -1.727600e-01 1.934662e-01
-3.712482e+00 2.365928e+01 -7.038899e+01 7.054279e+01 -2.636152e-06 1.075981e-02 -1.727600e-01 1.934662e-01
-3.726843e+00 2.377761e+01 -7.077248e+01 7.119002e+01 -1.401179e-06 1.075085e-02 -1.727600e-01 1.934662e-01
-3.722093e+00 2.388574e+01 -7.138606e+01 7.154959e+01 4.096741e-06 1.075585e-02 -1.727600e-01 1.934662e-01
-3.735464e+00 2.400504e+01 -7.154102e+01 7.184018e+01 2.074434e-06 1.078901e-02 -1.727600e-01 1.934662e-01
-3.789292e+00 2.414478e+01 -7.216086e+01 7.213075e+01 1.807133e-06 1.079803e-02 -1.727600e-01 1.934662e-01
-3.861889e+00 2.429817e+01 -7.247078e+01 7.234869e+01 1.025853e-07 1.077380e-02 -1.727600e-01 1.934662e-01
-3.918435e+00 2.444034e+01 -7.285817e+01 7.285722e+01 -4.919354e-06 1.078401e-02 -1.727600e-01 1.934662e-01
-3.959960e+00 2.457869e+01 -7.301314e+01 7.322047e+01 -1.110843e-05 1.082481e-02 -1.727600e-01 1.934662e-01
-3.968177e+00 2.471069e+01 -7.371280e+01 7.358443e+01 -2.443705e-06 1.079891e-02 -1.727600e-01 1.934662e-01
-3.972949e+00 2.483956e+01 -7.394759e+01 7.395134e+01 1.694543e-06 1.080611e-02 -1.727600e-01 1.934662e-01
-3.991742e+00 2.496843e+01 -7.449542e+01 7.424486e+01 -1.159415e-06 1.076122e-02 -1.780243e-01 1.934662e-01
-4.016846e+00 2.509723e+01 -7.488673e+01 7.475851e+01 -5.936694e-06 1.077065e-02 -1.780243e-01 1.934662e-01
-4.031304e+00 2.522127e+01 -7.519978e+01 7.512543e+01 -3.138898e-06 1.078597e-02 -1.780243e-01 1.934662e-01
-4.042287e+00 2.534273e+01 -7.566936e+01 7.549232e+01 -2.567352e-06 1.076343e-02 -1.780243e-01 1.934662e-01
-4.063183e+00 2.546928e+01 -7.582745e+01 7.578804e+01 -8.137494e-07 1.075736e-02 -1.780243e-01 1.934662e-01
-4.084412e+00 2.559780e+01 -7.622267e+01 7.630685e+01 -6.214262e-06 1.076412e-02 -1.780243e-01 1.934662e-01
-4.104976e+00 2.572333e+01 -7.653885e+01 7.667743e+01 -6.754831e-06 1.079580e-02 -1.780243e-01 1.934662e-01
-4.122206e+00 2.584664e+01 -7.725026e+01 7.704799e+01 -7.153588e-06 1.079390e-02 -1.780243e-01 1.934662e-01
-4.135897e+00 2.596982e+01 -7.748738e+01 7.719623e+01 -5.407796e-06 1.077525e-02 -1.780243e-01 1.934662e-01
-4.147941e+00 2.609314e+01 -7.780357e+01 7.764091e+01 -1.723678e-06 1.079651e-02 -1.780243e-01 1.934662e-01
-4.173170e+00 2.622337e+01 -7.820114e+01 7.816412e+01 1.787651e-06 1.082138e-02 -1.780243e-01 1.934662e-01
-4.201933e+00 2.635332e+01 -7.852045e+01 7.831381e+01 -6.726223e-06 1.078853e-02 -1.780243e-01 1.934662e-01
-4.218079e+00 2.647818e+01 -7.891959e+01 7.883777e+01 -9.145620e-06 1.077085e-02 -1.780243e-01 1.934662e-01
-4.227517e+00 2.660290e+01 -7.963803e+01 7.921201e+01 -5.096530e-06 1.081319e-02 -1.780243e-01 1.934662e-01
-4.243997e+00 2.672682e+01 -7.979768e+01 7.951138e+01 -4.924180e-06 1.077749e-02 -1.780243e-01 1.934662e-01
-4.263101e+00 2.685263e+01 -8.035648e+01 7.981078e+01 -9.604490e-06 1.081812e-02 -1.780243e-01 1.934662e-01
-4.282823e+00 2.698154e+01 -8.075952e+01 8.033839e+01 -9.906278e-06 1.077752e-02 -1.780243e-01 1.934662e-01
-4.301547e+00 2.711009e+01 -8.124318e+01 8.064072e+01 -4.862489e-06 1.078909e-02 -1.780243e-01 1.934662e-01
-4.321980e+00 2.723695e+01 -8.156561e+01 8.116982e+01 -6.763256e-07 1.076572e-02 -1.780243e-01 1.934662e-01
-4.343190e+00 2.736698e+01 -8.172684e+01 8.147212e+01 -2.401232e-06 1.078372e-02 -1.780243e-01 1.934662e-01
-4.365368e+00 2.749572e+01 -8.229111e+01 8.185002e+01 1.372571e-06 1.077276e-02 -1.780243e-01 1.934662e-01
-4.384664e+00 2.762370e+01 -8.269415e+01 8.200119e+01 2.841849e-06 1.075102e-02 -1.780243e-01 1.934662e-01
-4.397315e+00 2.775137e+01 -8.326155e+01 8.260806e+01 2.774541e-06 1.072826e-02 -1.780243e-01 1.934662e-01
-4.413121e+00 2.787877e+01 -8.358713e+01 8.298964e+01 5.164277e-06 1.073705e-02 -1.780243e-01 1.934662e-01
-4.428627e+00 2.800688e+01 -8.407547e+01 8.329491e+01 2.485301e-06 1.074216e-02 -1.780243e-01 1.934662e-01
-4.448824e+00 2.813892e+01 -8.431966e+01 8.352385e+01 -2.157450e-06 1.074110e-02 -1.780243e-01 1.934662e-01
-4.475452e+00 2.826896e+01 -8.464522e+01 8.421068e+01 -4.766748e-06 1.073741e-02 -1.780243e-01 1.934662e-01
-4.497186e+00 2.839814e+01 -8.513358e+01 8.443962e+01 -3.823912e-06 1.074419e-02 -1.780243e-01 1.934662e-01
-4.515556e+00 2.852805e+01 -8.537775e+01 8.474489e+01 -4.689612e-06 1.076297e-02 -1.780243e-01 1.934662e-01
-4.531494e+00 2.865935e+01 -8.611575e+01 8.505235e+01 -3.610931e-06 1.078902e-02 -1.780243e-01 1.934662e-01
-4.546323e+00 2.878736e+01 -8.644446e+01 8.551468e+01 -2.958124e-06 1.077586e-02 -1.780243e-01 1.934662e-01
-4.560487e+00 2.891506e+01 -8.669098e+01 8.582286e+01 2.522772e-06 1.078028e-02 -1.780243e-01 1.934662e-01
-4.581856e+00 2.904736e+01 -8.734837e+01 8.636221e+01 -1.342647e-07 1.076152e-02 -1.780243e-01 1.934662e-01
-4.608681e+00 2.918177e+01 -8.743054e+01 8.659335e+01 -1.066307e-05 1.076879e-02 -1.780243e-01 1.934662e-01
-4.627376e+00 2.931170e+01 -8.792360e+01 8.720978e+01 -1.071424e-05 1.076335e-02 -1.780243e-01 1.934662e-01
-4.637245e+00 2.943816e+01 -8.833447e+01 8.751869e+01 -4.580620e-06 1.074991e-02 -1.780243e-01 1.934662e-01
-4.657269e+00 2.957046e+01 -8.874925e+01 8.782982e+01 -3.567317e-06 1.074229e-02 -1.780243e-01 1.934662e-01
-4.685933e+00 2.970785e+01 -8.932996e+01 8.814095e+01 -6.708321e-06 1.076068e-02 -1.780243e-01 1.934662e-01
-4.705483e+00 2.984083e+01 -8.949586e+01 8.884100e+01 -5.296962e-06 1.075666e-02 -1.780243e-01 1.934662e-01
-4.723048e+00 2.997110e+01 -9.015953e+01 8.922993e+01 -4.761834e-06 1.075372e-02 -1.780243e-01 1.934662e-01
-4.743569e+00 3.010350e+01 -9.065727e+01 8.930771e+01 -4.955772e-06 1.076071e-02 -1.780243e-01 1.934662e-01
-4.761366e+00 3.023575e+01 -9.082318e+01 9.000775e+01 -4.365183e-06 1.073884e-02 -1.780243e-01 1.934662e-01
-4.775845e+00 3.036619e+01 -9.148840e+01 9.024112e+01 -6.427155e-07 1.072901e-02 -1.780243e-01 1.934662e-01
-4.794853e+00 3.049961e+01 -9.165588e+01 9.079073e+01 -1.862681e-06 1.073282e-02 -1.780243e-01 1.934662e-01
-4.815105e+00 3.063257e+01 -9.199084e+01 9.086926e+01 -1.823455e-06 1.074042e-02 -1.780243e-01 1.934662e-01
-4.837275e+00 3.076606e+01 -9.266077e+01 9.134035e+01 -3.243677e-06 1.073306e-02 -1.780243e-01 1.934662e-01
-4.856902e+00 3.089991e+01 -9.299571e+01 9.165442e+01 -5.762413e-06 1.074590e-02 -1.780243e-01 1.934662e-01
-4.866809e+00 3.103042e+01 -9.333067e+01 9.204701e+01 2.227829e-06 1.073345e-02 -1.780243e-01 1.934662e-01
-4.885092e+00 3.116401e+01 -9.366563e+01 9.275366e+01 1.682346e-06 1.074272e-02 -1.780243e-01 1.934662e-01
-4.915306e+00 3.130097e+01 -9.433556e+01 9.283217e+01 -3.875775e-06 1.072795e-02 -1.780243e-01 1.934662e-01
-4.941120e+00 3.143642e+01 -9.467285e+01 9.338399e+01 -4.523141e-06 1.074406e-02 -1.780243e-01 1.934662e-01
-4.956596e+00 3.157304e+01 -9.517999e+01 9.385950e+01 -2.817628e-06 1.074469e-02 -1.780243e-01 1.934662e-01
-4.973338e+00 3.170745e+01 -9.560260e+01 9.425575e+01 -3.643839e-06 1.073089e-02 -1.780243e-01 1.934662e-01
-4.992023e+00 3.184074e+01 -9.585617e+01 9.473126e+01 -3.158292e-06 1.074883e-02 -1.780243e-01 1.934662e-01
-5.010814e+00 3.197469e+01 -9.636330e+01 9.481052e+01 -6.569932e-06 1.074535e-02 -1.780243e-01 1.934662e-01
-5.031413e+00 3.210852e+01 -9.661687e+01 9.520679e+01 -4.502782e-06 1.076041e-02 -1.780243e-01 1.934662e-01
-5.043571e+00 3.224116e+01 -9.703947e+01 9.584079e+01 2.794988e-06 1.079762e-02 -1.780243e-01 1.934662e-01
-5.066850e+00 3.237850e+01 -9.780095e+01 9.623705e+01 -4.186777e-07 1.077558e-02 -1.780243e-01 1.934662e-01
-5.089143e+00 3.251782e+01 -9.814217e+01 9.655698e+01 -7.221335e-07 1.077915e-02 -1.780243e-01 1.934662e-01
-5.106366e+00 3.265130e+01 -9.848338e+01 9.695691e+01 -3.028064e-06 1.077188e-02 -1.780243e-01 1.934662e-01
-5.125091e+00 3.278606e+01 -9.908052e+01 9.743681e+01 2.046703e-06 1.076575e-02 -1.780243e-01 1.934662e-01
-5.142585e+00 3.292231e+01 -9.925113e+01 9.759680e+01 4.691455e-06 1.077208e-02 -1.780243e-01 1.934662e-01
-5.165769e+00 3.306001e+01 -9.984827e+01 9.807671e+01 7.333661e-07 1.079134e-02 -1.780243e-01 1.934662e-01
-5.186500e+00 3.319815e+01 -1.000189e+02 9.871658e+01 8.178739e-08 1.078522e-02 -1.780243e-01 1.934662e-01
-5.201447e+00 3.333244e+01 -1.005307e+02 9.879659e+01 5.863155e-06 1.079083e-02 -1.780243e-01 1.934662e-01
-5.220681e+00 3.346996e+01 -1.011278e+02 9.919649e+01 3.760465e-06 1.079988e-02 -1.780243e-01 1.934662e-01
-5.239237e+00 3.360573e+01 -1.013853e+02 9.992003e+01 1.336768e-06 1.079883e-02 -1.780243e-01 1.934662e-01
-5.264044e+00 3.374522e+01 -1.019018e+02 1.002429e+02 -1.843902e-06 1.080263e-02 -1.780243e-01 1.934662e-01
-5.289647e+00 3.388386e+01 -1.025044e+02 1.004850e+02 -6.551679e-06 1.079301e-02 -1.780243e-01 1.934662e-01
-5.305874e+00 3.401985e+01 -1.027627e+02 1.010501e+02 -3.010250e-06 1.079818e-02 -1.780243e-01 1.934662e-01
-5.320791e+00 3.415676e+01 -1.030210e+02 1.014537e+02 1.293504e-07 1.078165e-02 -1.780243e-01 1.934662e-01
-5.342998e+00 3.429647e+01 -1.035375e+02 1.016151e+02 -5.616301e-08 1.077967e-02 -1.780243e-01 1.934662e-01
-5.367694e+00 3.443535e+01 -1.040540e+02 1.020187e+02 -3.378556e-06 1.078954e-02 -1.780243e-01 1.934662e-01
-5.384677e+00 3.457304e+01 -1.046566e+02 1.024223e+02 -2.111115e-06 1.080551e-02 -1.780243e-01 1.934662e-01
-5.398318e+00 3.470916e+01 -1.049149e+02 1.029874e+02 1.072363e-07 1.080874e-02 -1.780243e-01 1.934662e-01
-5.414256e+00 3.484478e+01 -1.053484e+02 1.033124e+02 9.845991e-06 1.078769e-02 -1.780243e-01 1.934662e-01
-5.445774e+00 3.498662e+01 -1.056959e+02 1.039640e+02 8.479738e-07 1.077906e-02 -1.780243e-01 1.934662e-01
-5.469434e+00 3.512782e+01 -1.062171e+02 1.040455e+02 -4.689787e-06 1.074724e-02 -1.780243e-01 1.934662e-01
-5.486906e+00 3.526601e+01 -1.068252e+02 1.044527e+02 -1.688839e-06 1.076371e-02 -1.780243e-01 1.934662e-01
-5.498859e+00 3.540199e+01 -1.069121e+02 1.051858e+02 6.024887e-06 1.078521e-02 -1.780243e-01 1.934662e-01
-5.519748e+00 3.554263e+01 -1.075202e+02 1.055931e+02 2.046879e-06 1.078210e-02 -1.780243e-01 1.934662e-01
-5.552910e+00 3.568464e+01 -1.080414e+02 1.056745e+02 -4.227057e-06 1.077938e-02 -1.780243e-01 1.934662e-01
-5.577919e+00 3.582525e+01 -1.083020e+02 1.060818e+02 -7.394563e-06 1.075339e-02 -1.780243e-01 1.934662e-01
-5.589284e+00 3.596328e+01 -1.089977e+02 1.065705e+02 -4.625024e-06 1.075925e-02 -1.780243e-01 1.934662e-01
-5.601158e+00 3.610042e+01 -1.092607e+02 1.071443e+02 5.939239e-07 1.074050e-02 -1.780243e-01 1.934662e-01
-5.624187e+00 3.623912e+01 -1.096990e+02 1.073087e+02 1.634607e-06 1.075433e-02 -1.780243e-01 1.934662e-01
-5.648415e+00 3.638093e+01 -1.102249e+02 1.077197e+02 -3.303965e-07 1.076027e-02 -1.780243e-01 1.934662e-01
-5.669871e+00 3.652237e+01 -1.105755e+02 1.083771e+02 -3.638047e-06 1.078199e-02 -1.780243e-01 1.934662e-01
-5.691492e+00 3.666482e+01 -1.111890e+02 1.087059e+02 -3.158468e-06 1.077100e-02 -1.780243e-01 1.934662e-01
-5.706559e+00 3.680308e+01 -1.116273e+02 1.089525e+02 -8.914123e-07 1.079045e-02 -1.780243e-01 1.934662e-01
-5.724562e+00 3.694265e+01 -1.118903e+02 1.096100e+02 5.576987e-06 1.079447e-02 -1.780243e-01 1.934662e-01
-5.749509e+00 3.708314e+01 -1.125038e+02 1.100209e+02 -1.340541e-06 1.081170e-02 -1.780243e-01 1.934662e-01
-5.772281e+00 3.722495e+01 -1.125915e+02 1.102674e+02 -5.021588e-06 1.080753e-02 -1.780243e-01 1.934662e-01
-5.792753e+00 3.736687e+01 -1.133827e+02 1.105962e+02 -4.143426e-06 1.081966e-02 -1.780243e-01 1.934662e-01
-5.810778e+00 3.750894e+01 -1.134711e+02 1.113417e+02 -3.945276e-06 1.084118e-02 -1.780243e-01 1.934662e-01
-5.825360e+00 3.764843e+01 -1.141786e+02 1.117563e+02 1.501044e-06 1.083326e-02 -1.780243e-01 1.934662e-01
-5.850807e+00 3.779119e+01 -1.146208e+02 1.118392e+02 8.903593e-07 1.082996e-02 -1.780243e-01 1.934662e-01
-5.873575e+00 3.793480e+01 -1.148861e+02 1.125026e+02 8.786002e-07 1.080292e-02 -1.780243e-01 1.934662e-01
-5.896714e+00 3.807852e+01 -1.154167e+02 1.126684e+02 -9.037945e-06 1.080367e-02 -1.780243e-01 1.934662e-01
-5.918646e+00 3.821898e+01 -1.157704e+02 1.132489e+02 -5.502835e-06 1.083019e-02 -1.780243e-01 1.934662e-01
-5.936967e+00 3.836078e+01 -1.163010e+02 1.136635e+02 -4.074714e-06 1.082193e-02 -1.780243e-01 1.934662e-01
-5.953402e+00 3.850023e+01 -1.166548e+02 1.140781e+02 -2.303122e-06 1.084601e-02 -1.780243e-01 1.934662e-01
-5.974030e+00 3.864317e+01 -1.170085e+02 1.146585e+02 -4.655300e-06 1.084872e-02 -1.780243e-01 1.934662e-01
-5.996868e+00 3.878461e+01 -1.177168e+02 1.148244e+02 -5.392000e-06 1.084273e-02 -1.780243e-01 1.934662e-01
-6.016193e+00 3.892786e+01 -1.178952e+02 1.154929e+02 -3.553188e-06 1.086229e-02 -1.780243e-01 1.934662e-01
-6.039571e+00 3.907171e+01 -1.186981e+02 1.158275e+02 -7.349545e-06 1.086599e-02 -1.780243e-01 1.934662e-01
-6.055778e+00 3.921447e+01 -1.187874e+02 1.161621e+02 -7.618864e-07 1.086052e-02 -1.780243e-01 1.934662e-01
-6.075283e+00 3.935749e+01 -1.195011e+02 1.164131e+02 6.078769e-07 1.084084e-02 -1.780243e-01 1.934662e-01
-6.098325e+00 3.950172e+01 -1.197687e+02 1.169150e+02 -1.704986e-06 1.084893e-02 -1.780243e-01 1.934662e-01
-6.120582e+00 3.964493e+01 -1.203040e+02 1.172496e+02 -7.967250e-07 1.084758e-02 -1.780243e-01 1.934662e-01
-6.138791e+00 3.978704e+01 -1.206609e+02 1.180025e+02 9.513488e-07 1.083412e-02 -1.780243e-01 1.934662e-01
-6.162107e+00 3.993038e+01 -1.211962e+02 1.183371e+02 -2.583323e-06 1.084100e-02 -1.780243e-01 1.934662e-01
-6.184576e+00 4.007591e+01 -1.216423e+02 1.187554e+02 -5.419994e-06 1.086040e-02 -1.780243e-01 1.934662e-01
-6.199735e+00 4.021842e+01 -1.219099e+02 1.190063e+02 -4.023202e-06 1.084593e-02 -1.780243e-01 1.934662e-01
-6.214839e+00 4.035907e+01 -1.226245e+02 1.193409e+02 2.211506e-06 1.086265e-02 -1.780243e-01 1.934662e-01
-6.238299e+00 4.050500e+01 -1.231645e+02 1.200146e+02 4.383348e-07 1.082772e-02 -1.780243e-01 1.934662e-01
-6.265040e+00 4.065025e+01 -1.232545e+02 1.204365e+02 -3.234639e-06 1.082732e-02 -1.780243e-01 1.934662e-01
-6.290143e+00 4.079517e+01 -1.237045e+02 1.208585e+02 -5.315654e-06 1.087712e-02 -1.780243e-01 1.934662e-01
-6.312734e+00 4.094142e+01 -1.241544e+02 1.212804e+02 -6.638995e-06 1.086032e-02 -1.780243e-01 1.934662e-01
-6.325583e+00 4.108457e+01 -1.246044e+02 1.216180e+02 -8.903593e-07 1.083821e-02 -1.780243e-01 1.934662e-01
-6.343788e+00 4.122875e+01 -1.252344e+02 1.221243e+02 -1.673570e-06 1.083693e-02 -1.780243e-01 1.934662e-01
-6.367908e+00 4.137391e+01 -1.256844e+02 1.224618e+02 -4.481633e-06 1.087191e-02 -1.780243e-01 1.934662e-01
-6.393293e+00 4.151851e+01 -1.261344e+02 1.227994e+02 -7.567352e-06 1.087623e-02 -1.780243e-01 1.934662e-01
-6.416336e+00 4.166305e+01 -1.264944e+02 1.231369e+02 -6.963424e-06 1.088180e-02 -1.780243e-01 1.934662e-01
-6.430975e+00 4.180659e+01 -1.272144e+02 1.235589e+02 -1.662688e-06 1.090201e-02 -1.780243e-01 1.934662e-01
-6.449528e+00 4.195105e+01 -1.275744e+02 1.243184e+02 1.530003e-06 1.088384e-02 -1.780243e-01 1.934662e-01
-6.478151e+00 4.209732e+01 -1.281176e+02 1.244027e+02 -3.685435e-06 1.086646e-02 -1.780243e-01 1.934662e-01
-6.499041e+00 4.224443e+01 -1.283899e+02 1.249986e+02 -9.469611e-07 1.090800e-02 -1.780243e-01 1.934662e-01
-6.520337e+00 4.239065e+01 -1.287530e+02 1.252540e+02 -1.661197e-06 1.087077e-02 -1.780243e-01 1.934662e-01
-6.545973e+00 4.253854e+01 -1.294793e+02 1.260201e+02 -5.020710e-06 1.091044e-02 -1.780243e-01 1.934662e-01
-6.566590e+00 4.268416e+01 -1.295701e+02 1.263605e+02 -3.092827e-06 1.090725e-02 -1.780243e-01 1.934662e-01
-6.581091e+00 4.282815e+01 -1.302055e+02 1.267010e+02 1.840567e-06 1.091240e-02 -1.780243e-01 1.934662e-01
-6.601889e+00 4.297440e+01 -1.306594e+02 1.272969e+02 -2.079436e-06 1.090854e-02 -1.780243e-01 1.934662e-01
-6.625561e+00 4.312099e+01 -1.312041e+02 1.273820e+02 1.184776e-06 1.090447e-02 -1.780243e-01 1.934662e-01
-6.646039e+00 4.326593e+01 -1.314825e+02 1.279779e+02 -1.379855e-06 1.092056e-02 -1.780243e-01 1.934662e-01
-6.664497e+00 4.341177e+01 -1.322653e+02 1.285737e+02 2.204662e-06 1.091417e-02 -1.780243e-01 1.934662e-01
-6.685220e+00 4.355745e+01 -1.324610e+02 1.289993e+02 2.270565e-06 1.089394e-02 -1.780243e-01 1.934662e-01
-6.714392e+00 4.370576e+01 -1.328524e+02 1.290845e+02 -2.767169e-06 1.088990e-02 -1.780243e-01 1.934662e-01
-6.738801e+00 4.385238e+01 -1.335373e+02 1.295952e+02 -5.554434e-06 1.090703e-02 -1.780243e-01 1.934662e-01
-6.752644e+00 4.399948e+01 -1.341294e+02 1.302813e+02 -3.711322e-06 1.089189e-02 -1.780243e-01 1.934662e-01
-6.768242e+00 4.414524e+01 -1.345242e+02 1.304530e+02 3.884638e-06 1.092242e-02 -1.780243e-01 1.934662e-01
-6.791063e+00 4.429083e+01 -1.351163e+02 1.309681e+02 3.023501e-06 1.093205e-02 -1.780243e-01 1.934662e-01
-6.819749e+00 4.444123e+01 -1.355111e+02 1.315691e+02 -3.618039e-06 1.091569e-02 -1.780243e-01 1.934662e-01
-6.842456e+00 4.458883e+01 -1.362019e+02 1.318267e+02 -4.515770e-06 1.091376e-02 -1.780243e-01 1.934662e-01
-6.861448e+00 4.473694e+01 -1.363993e+02 1.322560e+02 -3.548976e-06 1.091161e-02 -1.780243e-01 1.934662e-01
-6.882207e+00 4.488605e+01 -1.371888e+02 1.325994e+02 -3.375485e-06 1.090744e-02 -1.780243e-01 1.934662e-01
-6.901947e+00 4.503043e+01 -1.372875e+02 1.331145e+02 -4.935764e-06 1.090512e-02 -1.780243e-01 1.934662e-01
-6.917158e+00 4.517571e+01 -1.380770e+02 1.333721e+02 1.680064e-06 1.093816e-02 -1.780243e-01 1.934662e-01
-6.946628e+00 4.532525e+01 -1.385705e+02 1.339731e+02 -2.235112e-06 1.094366e-02 -1.780243e-01 1.934662e-01
-6.972115e+00 4.547574e+01 -1.391626e+02 1.342306e+02 -2.173245e-06 1.094037e-02 -1.780243e-01 1.934662e-01
-6.994654e+00 4.562391e+01 -1.392613e+02 1.348316e+02 -1.679801e-06 1.095153e-02 -1.780243e-01 1.934662e-01
-7.018403e+00 4.577121e+01 -1.397547e+02 1.352609e+02 -6.088773e-06 1.092691e-02 -1.780243e-01 1.934662e-01
-7.034602e+00 4.591668e+01 -1.403486e+02 1.355192e+02 -6.391614e-06 1.094520e-02 -1.780243e-01 1.934662e-01
-7.045469e+00 4.606278e+01 -1.407467e+02 1.362985e+02 -2.469856e-06 1.095570e-02 -1.780243e-01 1.934662e-01
-7.065937e+00 4.621300e+01 -1.416425e+02 1.367314e+02 -9.301999e-07 1.093761e-02 -1.780243e-01 1.934662e-01
-7.099797e+00 4.636482e+01 -1.421402e+02 1.369912e+02 -5.209734e-06 1.095566e-02 -1.780243e-01 1.934662e-01
-7.131667e+00 4.651609e+01 -1.422397e+02 1.375973e+02 -9.611247e-06 1.096252e-02 -1.780243e-01 1.934662e-01
-7.149632e+00 4.666486e+01 -1.431355e+02 1.378571e+02 -4.859680e-06 1.095503e-02 -1.780243e-01 1.934662e-01
-7.163914e+00 4.681187e+01 -1.433346e+02 1.382035e+02 2.998578e-07 1.094715e-02 -1.780243e-01 1.934662e-01
-7.179975e+00 4.696032e+01 -1.439318e+02 1.386364e+02 -3.777402e-06 1.093659e-02 -1.780243e-01 1.934662e-01
-7.197997e+00 4.710694e+01 -1.444295e+02 1.393291e+02 -3.469646e-06 1.094283e-02 -1.780243e-01 1.934662e-01
-7.219749e+00 4.725593e+01 -1.450267e+02 1.395889e+02 -2.666251e-06 1.095919e-02 -1.780243e-01 1.934662e-01
-7.241547e+00 4.740552e+01 -1.456239e+02 1.401084e+02 -2.815522e-06 1.095277e-02 -1.780243e-01 1.934662e-01
-7.259873e+00 4.755250e+01 -1.458229e+02 1.404548e+02 -5.486425e-07 1.095258e-02 -1.780243e-01 1.934662e-01
-7.283596e+00 4.770228e+01 -1.465197e+02 1.410609e+02 -2.714516e-06 1.093475e-02 -1.780243e-01 1.934662e-01
-7.312127e+00 4.785326e+01 -1.467187e+02 1.414939e+02 -7.658617e-06 1.097346e-02 -1.780243e-01 1.934662e-01
-7.334622e+00 4.800277e+01 -1.476162e+02 1.418409e+02 -7.463714e-06 1.094775e-02 -1.780243e-01 1.934662e-01
-7.345201e+00 4.814924e+01 -1.477166e+02 1.423649e+02 -5.563649e-08 1.097189e-02 -1.780243e-01 1.934662e-01
-7.367830e+00 4.829921e+01 -1.483189e+02 1.427142e+02 3.147235e-06 1.098129e-02 -1.780243e-01 1.934662e-01
-7.396186e+00 4.845122e+01 -1.487204e+02 1.430635e+02 -8.987837e-07 1.097531e-02 -1.780243e-01 1.934662e-01
-7.414646e+00 4.860199e+01 -1.494230e+02 1.433254e+02 1.265247e-06 1.098144e-02 -1.780243e-01 1.934662e-01
-7.433649e+00 4.875138e+01 -1.501257e+02 1.438494e+02 -2.141039e-06 1.096406e-02 -1.780243e-01 1.934662e-01
-7.452487e+00 4.890147e+01 -1.505272e+02 1.441987e+02 1.177054e-06 1.097090e-02 -1.780243e-01 1.934662e-01
-7.478084e+00 4.905157e+01 -1.508283e+02 1.448972e+02 -2.943907e-06 1.100098e-02 -1.780243e-01 1.934662e-01
-7.502174e+00 4.920283e+01 -1.516313e+02 1.452465e+02 -5.120224e-06 1.100617e-02 -1.780243e-01 1.934662e-01
-7.526728e+00 4.935342e+01 -1.520328e+02 1.455958e+02 -4.466013e-06 1.100699e-02 -1.780243e-01 1.934662e-01
-7.551888e+00 4.950425e+01 -1.526351e+02 1.459451e+02 -6.400478e-06 1.102198e-02 -1.780243e-01 1.934662e-01
-7.567471e+00 4.965345e+01 -1.531370e+02 1.463817e+02 -1.952016e-06 1.098992e-02 -1.780243e-01 1.934662e-01
-7.582287e+00 4.980048e+01 -1.534381e+02 1.469930e+02 5.079418e-06 1.101726e-02 -1.780243e-01 1.934662e-01
-7.608053e+00 4.995234e+01 -1.540404e+02 1.472550e+02 2.285045e-06 1.103102e-02 -1.780243e-01 1.934662e-01
-7.633343e+00 5.010560e+01 -1.542411e+02 1.480409e+02 -1.210313e-06 1.099920e-02 -1.780243e-01 1.934662e-01
-7.656742e+00 5.025507e+01 -1.547430e+02 1.482155e+02 -2.382189e-06 1.097998e-02 -1.780243e-01 1.934662e-01
-7.675288e+00 5.040407e+01 -1.554465e+02 1.489163e+02 1.846184e-06 1.100023e-02 -1.780243e-01 1.934662e-01
-7.691166e+00 5.055504e+01 -1.560538e+02 1.490044e+02 3.645418e-06 1.104330e-02 -1.780243e-01 1.934662e-01
-7.715695e+00 5.070730e+01 -1.566611e+02 1.494446e+02 -1.394510e-06 1.104671e-02 -1.780243e-01 1.934662e-01
-7.746815e+00 5.086098e+01 -1.568636e+02 1.499730e+02 -5.322060e-06 1.105741e-02 -1.780243e-01 1.934662e-01
-7.767041e+00 5.101231e+01 -1.572684e+02 1.503252e+02 -3.592766e-06 1.106704e-02 -1.780243e-01 1.934662e-01
-7.782923e+00 5.116138e+01 -1.579770e+02 1.511177e+02 -5.466241e-07 1.104158e-02 -1.780243e-01 1.934662e-01
-7.808451e+00 5.131381e+01 -1.583819e+02 1.513819e+02 -2.290135e-06 1.103181e-02 -1.780243e-01 1.934662e-01
-7.834529e+00 5.146781e+01 -1.589892e+02 1.519983e+02 -2.585605e-06 1.102081e-02 -1.780243e-01 1.934662e-01
-7.857212e+00 5.162072e+01 -1.595965e+02 1.524386e+02 -3.632870e-06 1.102871e-02 -1.780243e-01 1.934662e-01
-7.878665e+00 5.177073e+01 -1.597990e+02 1.527028e+02 -4.550257e-06 1.102839e-02 -1.780243e-01 1.934662e-01
-7.899571e+00 5.192269e+01 -1.607100e+02 1.531430e+02 -7.740580e-06 1.104236e-02 -1.780243e-01 1.934662e-01
-7.914007e+00 5.207059e+01 -1.612161e+02 1.534072e+02 -3.535637e-07 1.106025e-02 -1.780243e-01 1.934662e-01
-7.941224e+00 5.222412e+01 -1.616209e+02 1.540236e+02 -7.002650e-06 1.105184e-02 -1.780243e-01 1.934662e-01
-7.968853e+00 5.237748e+01 -1.622283e+02 1.544639e+02 -9.650386e-06 1.105121e-02 -1.780243e-01 1.934662e-01
-7.982333e+00 5.252783e+01 -1.623295e+02 1.547281e+02 2.410622e-07 1.105500e-02 -1.780243e-01 1.934662e-01
-8.000381e+00 5.267871e+01 -1.630380e+02 1.554325e+02 3.562315e-06 1.104183e-02 -1.780243e-01 1.934662e-01
-8.023235e+00 5.283146e+01 -1.634429e+02 1.559608e+02 4.676536e-06 1.107958e-02 -1.780243e-01 1.934662e-01
-8.049968e+00 5.298301e+01 -1.642544e+02 1.563138e+02 -1.336153e-06 1.109287e-02 -1.780243e-01 1.934662e-01
-8.080528e+00 5.313916e+01 -1.646626e+02 1.567578e+02 -7.762518e-06 1.110211e-02 -1.780243e-01 1.934662e-01
-8.106105e+00 5.329234e+01 -1.652750e+02 1.571129e+02 -1.006704e-05 1.105564e-02 -1.780243e-01 1.934662e-01
-8.118799e+00 5.344322e+01 -1.656833e+02 1.574681e+02 -8.417344e-06 1.106109e-02 -1.780243e-01 1.934662e-01
-8.132735e+00 5.359432e+01 -1.661936e+02 1.580008e+02 2.034066e-06 1.106511e-02 -1.780243e-01 1.934662e-01
-8.154891e+00 5.374691e+01 -1.668060e+02 1.584448e+02 1.229443e-06 1.107200e-02 -1.780243e-01 1.934662e-01
-8.175802e+00 5.389869e+01 -1.669080e+02 1.588000e+02 3.023852e-06 1.108863e-02 -1.780243e-01 1.934662e-01
-8.201885e+00 5.405253e+01 -1.674184e+02 1.593327e+02 -2.322867e-07 1.108643e-02 -1.780243e-01 1.934662e-01
-8.225059e+00 5.420674e+01 -1.680307e+02 1.597766e+02 2.670025e-06 1.108873e-02 -1.780243e-01 1.934662e-01
-8.245480e+00 5.435908e+01 -1.687452e+02 1.603982e+02 1.446549e-06 1.106220e-02 -1.780243e-01 1.934662e-01
-8.268480e+00 5.451299e+01 -1.692555e+02 1.606645e+02 9.227408e-07 1.103665e-02 -1.780243e-01 1.934662e-01
-8.290675e+00 5.466602e+01 -1.695617e+02 1.610197e+02 1.734560e-06 1.105209e-02 -1.780243e-01 1.934662e-01
-8.315486e+00 5.481870e+01 -1.703782e+02 1.613749e+02 9.332713e-07 1.108134e-02 -1.780243e-01 1.934662e-01
-8.337161e+00 5.497083e+01 -1.705823e+02 1.621740e+02 -2.197378e-07 1.106362e-02 -1.780243e-01 1.934662e-01
-8.357065e+00 5.512404e+01 -1.713988e+02 1.624404e+02 -9.747793e-07 1.103614e-02 -1.780243e-01 1.934662e-01
-8.377188e+00 5.527720e+01 -1.718071e+02 1.629731e+02 1.127824e-06 1.103187e-02 -1.780243e-01 1.934662e-01
-8.401976e+00 5.543050e+01 -1.723174e+02 1.633283e+02 5.168752e-08 1.105375e-02 -1.780243e-01 1.934662e-01
-8.423012e+00 5.558265e+01 -1.728278e+02 1.639498e+02 2.269951e-06 1.106237e-02 -1.780243e-01 1.934662e-01
-8.442334e+00 5.573555e+01 -1.733381e+02 1.643050e+02 2.841498e-06 1.103789e-02 -1.780243e-01 1.934662e-01
-8.466211e+00 5.589027e+01 -1.736443e+02 1.644826e+02 5.540832e-07 1.103557e-02 -1.780243e-01 1.934662e-01
-8.495787e+00 5.604404e+01 -1.740551e+02 1.651077e+02 -2.976903e-06 1.104674e-02 -1.780243e-01 1.934662e-01
-8.522073e+00 5.620074e+01 -1.749812e+02 1.654659e+02 -3.967917e-06 1.104507e-02 -1.780243e-01 1.934662e-01
-8.536648e+00 5.635252e+01 -1.752899e+02 1.660925e+02 -1.188287e-06 1.103692e-02 -1.780243e-01 1.934662e-01
-8.547743e+00 5.650468e+01 -1.758045e+02 1.663611e+02 5.675185e-06 1.104988e-02 -1.780243e-01 1.934662e-01
-8.577592e+00 5.666011e+01 -1.765248e+02 1.669878e+02 1.660144e-06 1.108014e-02 -1.780243e-01 1.934662e-01
-8.610412e+00 5.681603e+01 -1.769365e+02 1.672563e+02 -4.982449e-06 1.105156e-02 -1.780243e-01 1.934662e-01
-8.632053e+00 5.697030e+01 -1.773481e+02 1.677039e+02 -7.018358e-06 1.106350e-02 -1.780243e-01 1.934662e-01
-8.644151e+00 5.712369e+01 -1.779655e+02 1.682411e+02 -1.546677e-06 1.108287e-02 -1.780243e-01 1.934662e-01
-8.659730e+00 5.727755e+01 -1.782743e+02 1.686887e+02 1.447338e-06 1.108254e-02 -1.780243e-01 1.934662e-01
-8.689371e+00 5.743121e+01 -1.790975e+02 1.691364e+02 4.804570e-07 1.108640e-02 -1.780243e-01 1.934662e-01
-8.715506e+00 5.758695e+01 -1.796121e+02 1.695840e+02 -3.493252e-06 1.111767e-02 -1.780243e-01 1.934662e-01
-8.732473e+00 5.774022e+01 -1.799208e+02 1.698525e+02 1.695860e-06 1.112625e-02 -1.780243e-01 1.934662e-01
-8.756433e+00 5.789569e+01 -1.806411e+02 1.703897e+02 -1.610825e-06 1.112262e-02 -1.780243e-01 1.934662e-01
-8.779294e+00 5.804914e+01 -1.810528e+02 1.709268e+02 -2.732418e-06 1.112237e-02 -1.780243e-01 1.934662e-01
-8.796441e+00 5.820384e+01 -1.814644e+02 1.712849e+02 -8.285800e-07 1.110094e-02 -1.780243e-01 1.934662e-01
-8.825805e+00 5.835866e+01 -1.820818e+02 1.716431e+02 -4.573073e-06 1.108836e-02 -1.780243e-01 1.934662e-01
-8.845656e+00 5.851243e+01 -1.826993e+02 1.720907e+02 -4.560086e-06 1.109899e-02 -1.780243e-01 1.934662e-01
-8.862337e+00 5.866539e+01 -1.829051e+02 1.727173e+02 -8.513084e-07 1.111040e-02 -1.780243e-01 1.934662e-01
-8.888693e+00 5.882163e+01 -1.836255e+02 1.729859e+02 -1.896906e-06 1.111055e-02 -1.780243e-01 1.934662e-01
-8.915539e+00 5.897790e+01 -1.839342e+02 1.736125e+02 -7.219317e-06 1.110467e-02 -1.780243e-01 1.934662e-01
-8.936339e+00 5.913100e+01 -1.845516e+02 1.739707e+02 -8.450866e-06 1.111584e-02 -1.825867e-01 1.934662e-01
-8.957763e+00 5.928667e+01 -1.851725e+02 1.746003e+02 -7.786914e-06 1.109544e-02 -1.780243e-01 1.934662e-01
-8.976698e+00 5.944053e+01 -1.856912e+02 1.748710e+02 -2.029328e-06 1.111300e-02 -1.825867e-01 1.934662e-01
-9.000356e+00 5.959739e+01 -1.860025e+02 1.752321e+02 -5.646401e-06 1.112064e-02 -1.825867e-01 1.934662e-01
-9.024228e+00 5.975424e+01 -1.864175e+02 1.756834e+02 -6.857504e-06 1.111078e-02 -1.825867e-01 1.934662e-01
-9.048238e+00 5.991067e+01 -1.870400e+02 1.764957e+02 -5.975394e-06 1.110881e-02 -1.825867e-01 1.934662e-01
-9.072979e+00 6.006629e+01 -1.878700e+02 1.767665e+02 -9.922952e-06 1.111719e-02 -1.825867e-01 1.934662e-01
-9.091640e+00 6.021891e+01 -1.880775e+02 1.773983e+02 -7.328308e-06 1.114188e-02 -1.825867e-01 1.934662e-01
-9.111209e+00 6.037400e+01 -1.885962e+02 1.774885e+02 -3.580304e-06 1.112923e-02 -1.825867e-01 1.934662e-01
-9.133603e+00 6.053061e+01 -1.894263e+02 1.779398e+02 -2.461520e-06 1.113182e-02 -1.780243e-01 1.934662e-01
-9.157277e+00 6.068759e+01 -1.895300e+02 1.785716e+02 -2.794812e-06 1.111315e-02 -1.780243e-01 1.934662e-01
-9.181844e+00 6.084205e+01 -1.900488e+02 1.789327e+02 -9.352371e-06 1.113025e-02 -1.825867e-01 1.934662e-01
-9.203020e+00 6.099895e+01 -1.909825e+02 1.796547e+02 -5.148042e-06 1.109389e-02 -1.825867e-01 1.934662e-01
-9.221727e+00 6.115381e+01 -1.911900e+02 1.801060e+02 -1.531583e-06 1.110492e-02 -1.825867e-01 1.934662e-01
-9.246232e+00 6.131062e+01 -1.920200e+02 1.804671e+02 -3.975025e-06 1.110355e-02 -1.825867e-01 1.934662e-01
-9.269753e+00 6.146580e+01 -1.921238e+02 1.807378e+02 -3.614529e-06 1.110509e-02 -1.825867e-01 1.934662e-01
-9.293120e+00 6.162138e+01 -1.930575e+02 1.811891e+02 -3.086245e-06 1.112665e-02 -1.825867e-01 1.934662e-01
-9.313788e+00 6.177641e+01 -1.932650e+02 1.816404e+02 -1.458045e-06 1.113709e-02 -1.780243e-01 1.934662e-01
-9.335990e+00 6.193289e+01 -1.939913e+02 1.820014e+02 -4.770785e-06 1.109475e-02 -1.780243e-01 1.934662e-01
-9.358824e+00 6.208813e+01 -1.946138e+02 1.826333e+02 -4.034347e-06 1.110185e-02 -1.825867e-01 1.934662e-01
-9.385990e+00 6.224551e+01 -1.949251e+02 1.829943e+02 -6.217509e-06 1.113169e-02 -1.825867e-01 1.934662e-01
-9.404785e+00 6.240067e+01 -1.954438e+02 1.833553e+02 -3.256314e-06 1.111968e-02 -1.825867e-01 1.934662e-01
-9.421266e+00 6.255638e+01 -1.958588e+02 1.838066e+02 1.210664e-06 1.113018e-02 -1.825867e-01 1.934662e-01
-9.445508e+00 6.271234e+01 -1.962738e+02 1.845287e+02 -9.853976e-07 1.114209e-02 -1.825867e-01 1.934662e-01
-9.468894e+00 6.286786e+01 -1.971038e+02 1.849800e+02 -2.112782e-06 1.112811e-02 -1.825867e-01 1.934662e-01
-9.490139e+00 6.302426e+01 -1.976260e+02 1.855252e+02 -9.520509e-07 1.112367e-02 -1.825867e-01 1.934662e-01
-9.518054e+00 6.318214e+01 -1.978352e+02 1.858892e+02 -3.395405e-06 1.112968e-02 -1.825867e-01 1.934662e-01
-9.544161e+00 6.333882e+01 -1.986719e+02 1.864351e+02 -8.571178e-06 1.114989e-02 -1.825867e-01 1.934662e-01
-9.559672e+00 6.349319e+01 -1.988811e+02 1.867081e+02 -6.122032e-06 1.114382e-02 -1.825867e-01 1.934662e-01
-9.572561e+00 6.364570e+01 -1.996133e+02 1.870720e+02 -1.873300e-06 1.115599e-02 -1.825867e-01 1.934662e-01
-9.594170e+00 6.379915e+01 -2.002408e+02 1.874360e+02 -7.674149e-07 1.114844e-02 -1.825867e-01 1.934662e-01
-9.621092e+00 6.395391e+01 -2.005546e+02 1.880730e+02 -5.204732e-06 1.113931e-02 -1.825867e-01 1.934662e-01
-9.642275e+00 6.410617e+01 -2.010776e+02 1.886189e+02 -7.436861e-06 1.115249e-02 -1.825867e-01 1.934662e-01
-9.654547e+00 6.425734e+01 -2.014960e+02 1.890739e+02 -3.949927e-06 1.114622e-02 -1.825867e-01 1.934662e-01
-9.668765e+00 6.440907e+01 -2.022281e+02 1.895288e+02 1.238219e-06 1.115645e-02 -1.825867e-01 1.934662e-01
-9.693590e+00 6.456088e+01 -2.026465e+02 1.899838e+02 -3.857960e-06 1.112662e-02 -1.825867e-01 1.934662e-01
-9.714859e+00 6.471357e+01 -2.034833e+02 1.904388e+02 -6.957106e-06 1.114471e-02 -1.825867e-01 1.934662e-01
-9.730438e+00 6.486383e+01 -2.039017e+02 1.906207e+02 -5.335925e-06 1.114589e-02 -1.825867e-01 1.934662e-01
-9.743511e+00 6.501452e+01 -2.042154e+02 1.910757e+02 -1.509995e-06 1.114190e-02 -1.825867e-01 1.934662e-01
-9.764445e+00 6.516628e+01 -2.048430e+02 1.918036e+02 -3.589168e-06 1.116972e-02 -1.825867e-01 1.934662e-01
-9.782785e+00 6.531832e+01 -2.054706e+02 1.922586e+02 -5.415870e-06 1.115713e-02 -1.825867e-01 1.934662e-01
-9.799561e+00 6.546915e+01 -2.058889e+02 1.927136e+02 -4.117363e-06 1.114404e-02 -1.825867e-01 1.934662e-01
-9.819178e+00 6.562230e+01 -2.062027e+02 1.931685e+02 -1.850835e-06 1.116945e-02 -1.825867e-01 1.934662e-01
-9.839916e+00 6.577505e+01 -2.067257e+02 1.934415e+02 -1.645927e-06 1.115900e-02 -1.825867e-01 1.934662e-01
-9.863620e+00 6.593119e+01 -2.076671e+02 1.938055e+02 -5.033698e-06 1.116755e-02 -1.825867e-01 1.934662e-01
-9.887019e+00 6.608908e+01 -2.081900e+02 1.943514e+02 -5.192709e-06 1.115800e-02 -1.825867e-01 1.934662e-01
-9.905901e+00 6.624585e+01 -2.082946e+02 1.947154e+02 -3.107307e-06 1.116046e-02 -1.825867e-01 1.934662e-01
-9.924536e+00 6.640419e+01 -2.092360e+02 1.952613e+02 2.955403e-06 1.117234e-02 -1.825867e-01 1.934662e-01
-9.957978e+00 6.656392e+01 -2.095498e+02 1.958983e+02 -2.858873e-06 1.115391e-02 -1.825867e-01 1.934662e-01
-9.987223e+00 6.672340e+01 -2.100727e+02 1.961712e+02 1.165821e-06 1.114458e-02 -1.825867e-01 1.934662e-01
-1.000905e+01 6.688054e+01 -2.105957e+02 1.968082e+02 2.975938e-06 1.116914e-02 -1.825867e-01 1.934662e-01
-1.002894e+01 6.703989e+01 -2.110141e+02 1.971722e+02 9.874950e-06 1.114023e-02 -1.780243e-01 1.934662e-01
-1.005787e+01 6.719996e+01 -2.114325e+02 1.974503e+02 4.292346e-06 1.114365e-02 -1.780243e-01 1.934662e-01
-1.008381e+01 6.736181e+01 -2.119588e+02 1.980865e+02 -2.537515e-06 1.114736e-02 -1.825867e-01 1.934662e-01
