-2.351439e-02 4.416653e+00 -2.455078e+01 2.263281e+01 8.381853e-04 1.107632e-02 -1.835938e-01 1.914062e-01
-7.136760e-02 4.329571e+00 -2.261719e+01 2.143750e+01 7.979220e-04 1.079201e-02 -1.835938e-01 1.875000e-01
-1.482319e-02 4.398621e+00 -2.261719e+01 2.296875e+01 8.630872e-04 1.127859e-02 -1.835938e-01 1.914062e-01
-6.074630e-02 4.347285e+00 -2.342578e+01 2.143750e+01 8.323424e-04 1.100957e-02 -1.835938e-01 1.914062e-01
-2.034457e-02 4.377121e+00 -2.342578e+01 2.143750e+01 8.124195e-04 1.096904e-02 -1.835938e-01 1.914062e-01
-6.784375e-02 4.308942e+00 -2.528516e+01 2.384766e+01 8.214474e-04 1.097741e-02 -1.835938e-01 1.914062e-01
-5.709539e-02 4.344390e+00 -2.380078e+01 2.888672e+01 8.365013e-04 1.103848e-02 -1.835938e-01 1.914062e-01
-2.143503e-02 4.336638e+00 -2.455078e+01 2.888672e+01 8.170323e-04 1.093364e-02 -1.835938e-01 1.914062e-01
-4.586760e-03 4.384489e+00 -2.486328e+01 2.296875e+01 8.327232e-04 1.097406e-02 -1.835938e-01 1.914062e-01
-6.053331e-02 4.380718e+00 -2.380078e+01 2.384766e+01 8.194046e-04 1.093082e-02 -1.835938e-01 1.914062e-01
-4.906456e-02 4.442917e+00 -2.528516e+01 2.296875e+01 8.223334e-04 1.095117e-02 -1.835938e-01 1.875000e-01
-1.461349e-02 4.353640e+00 -2.261719e+01 2.143750e+01 8.158534e-04 1.092960e-02 -1.835938e-01 1.875000e-01
-3.760280e-02 4.324227e+00 -2.040234e+01 2.384766e+01 8.247642e-04 1.098788e-02 -1.835938e-01 1.914062e-01
-2.753289e-02 4.368351e+00 -2.486328e+01 2.888672e+01 8.238563e-04 1.096309e-02 -1.835938e-01 1.875000e-01
-5.095354e-02 4.435960e+00 -2.528516e+01 2.296875e+01 8.145282e-04 1.097150e-02 -1.835938e-01 1.914062e-01
-7.221464e-02 4.352592e+00 -2.486328e+01 2.296875e+01 8.134445e-04 1.088643e-02 -1.835938e-01 1.914062e-01
-5.800781e-02 4.390245e+00 -2.486328e+01 2.263281e+01 8.309366e-04 1.105229e-02 -1.835938e-01 1.875000e-01
1.954276e-02 4.344736e+00 -2.528516e+01 2.119141e+01 8.330893e-04 1.101347e-02 -1.835938e-01 1.875000e-01
-6.672533e-02 4.394057e+00 -2.380078e+01 2.076953e+01 8.272244e-04 1.096535e-02 -1.835938e-01 1.914062e-01
-4.955674e-02 4.384153e+00 -2.486328e+01 2.888672e+01 8.133274e-04 1.103187e-02 -1.835938e-01 1.914062e-01
-3.535321e-02 4.372274e+00 -2.486328e+01 2.296875e+01 8.321594e-04 1.100847e-02 -1.835938e-01 1.875000e-01
-5.704934e-02 4.416878e+00 -2.528516e+01 2.384766e+01 8.079824e-04 1.084699e-02 -1.835938e-01 1.875000e-01
-3.246875e-02 4.384861e+00 -2.486328e+01 2.102344e+01 8.214401e-04 1.103499e-02 -1.835938e-01 1.914062e-01
-4.897327e-02 4.424074e+00 -2.528516e+01 2.888672e+01 8.201880e-04 1.092395e-02 -1.835938e-01 1.875000e-01
-1.686842e-02 4.401126e+00 -2.528516e+01 2.888672e+01 8.300067e-04 1.098231e-02 -1.835938e-01 1.914062e-01
7.319079e-03 4.432036e+00 -2.528516e+01 2.384766e+01 8.272098e-04 1.083705e-02 -1.835938e-01 1.914062e-01
-2.060814e-02 4.408663e+00 -2.528516e+01 2.087891e+01 8.573102e-04 1.123658e-02 -1.835938e-01 1.875000e-01
-7.008717e-02 4.323938e+00 -2.380078e+01 2.384766e+01 8.429739e-04 1.109014e-02 -1.835938e-01 1.914062e-01
2.775288e-02 4.396537e+00 -2.455078e+01 2.888672e+01 8.269974e-04 1.085441e-02 -1.835938e-01 1.914062e-01
-1.886390e-02 4.332606e+00 -2.380078e+01 2.384766e+01 8.217183e-04 1.089965e-02 -1.835938e-01 1.914062e-01
-6.629852e-02 4.367706e+00 -2.261719e+01 2.384766e+01 8.257527e-04 1.101162e-02 -1.835938e-01 1.875000e-01
-1.496957e-02 4.358408e+00 -2.528516e+01 2.384766e+01 8.329721e-04 1.104751e-02 -1.835938e-01 1.875000e-01
-8.619860e-02 4.301310e+00 -2.528516e+01 2.102344e+01 8.313540e-04 1.106237e-02 -1.835938e-01 1.914062e-01
-3.982812e-02 4.400562e+00 -2.528516e+01 2.384766e+01 8.423295e-04 1.120023e-02 -1.835938e-01 1.914062e-01
-5.248561e-02 4.387017e+00 -2.528516e+01 2.296875e+01 8.392031e-04 1.100214e-02 -1.835938e-01 1.914062e-01
-8.780263e-02 4.350636e+00 -2.455078e+01 2.296875e+01 8.141181e-04 1.100968e-02 -1.835938e-01 1.914062e-01
-3.764021e-02 4.381996e+00 -2.486328e+01 2.087891e+01 8.169298e-04 1.090751e-02 -1.835938e-01 1.914062e-01
-7.675781e-02 4.350512e+00 -2.380078e+01 2.263281e+01 8.172446e-04 1.097620e-02 -1.835938e-01 1.914062e-01
-4.123849e-02 4.361748e+00 -2.455078e+01 2.384766e+01 8.261408e-04 1.106651e-02 -1.835938e-01 1.875000e-01
-3.633676e-02 4.330515e+00 -2.380078e+01 2.143750e+01 8.452730e-04 1.115469e-02 -1.835938e-01 1.914062e-01
-6.282607e-02 4.368828e+00 -2.528516e+01 2.384766e+01 8.172593e-04 1.097693e-02 -1.835938e-01 1.914062e-01
-1.770148e-02 4.334346e+00 -2.105078e+01 2.384766e+01 8.478283e-04 1.107298e-02 -1.835938e-01 1.914062e-01
-2.491694e-02 4.370363e+00 -2.528516e+01 2.888672e+01 8.116433e-04 1.088867e-02 -1.835938e-01 1.875000e-01
-4.400740e-02 4.412288e+00 -2.237891e+01 2.384766e+01 8.059542e-04 1.082254e-02 -1.835938e-01 1.875000e-01
-1.138684e-01 4.324896e+00 -2.486328e+01 2.888672e+01 8.165710e-04 1.091047e-02 -1.835938e-01 1.914062e-01
-8.524260e-02 4.236417e+00 -2.486328e+01 2.263281e+01 8.153702e-04 1.097057e-02 -1.835938e-01 1.914062e-01
-3.841612e-02 4.327305e+00 -2.486328e+01 2.888672e+01 8.306877e-04 1.102189e-02 -1.835938e-01 1.914062e-01
-1.950576e-02 4.319675e+00 -2.261719e+01 2.263281e+01 8.089415e-04 1.089265e-02 -1.835938e-01 1.875000e-01
-5.567928e-02 4.432530e+00 -2.486328e+01 2.888672e+01 8.295308e-04 1.103634e-02 -1.835938e-01 1.875000e-01
-9.619490e-02 4.368211e+00 -2.486328e+01 2.384766e+01 7.973143e-04 1.090207e-02 -1.835938e-01 1.914062e-01
-5.804688e-02 4.411332e+00 -2.455078e+01 2.143750e+01 8.174936e-04 1.090540e-02 -1.835938e-01 1.875000e-01
9.321546e-03 4.397201e+00 -2.455078e+01 2.296875e+01 8.601731e-04 1.122914e-02 -1.835938e-01 1.914062e-01
-5.333594e-02 4.276335e+00 -2.068750e+01 2.888672e+01 8.208836e-04 1.099033e-02 -1.835938e-01 1.914062e-01
-7.246546e-02 4.321385e+00 -2.237891e+01 2.076953e+01 8.490657e-04 1.119294e-02 -1.835938e-01 1.875000e-01
-1.254926e-01 4.360015e+00 -2.237891e+01 2.076953e+01 7.795733e-04 1.065749e-02 -1.835938e-01 1.914062e-01
-5.757771e-02 4.382605e+00 -2.455078e+01 2.263281e+01 8.397888e-04 1.102729e-02 -1.835938e-01 1.875000e-01
-4.996053e-02 4.393858e+00 -2.528516e+01 2.888672e+01 8.285277e-04 1.107246e-02 -1.835938e-01 1.914062e-01
-6.548643e-02 4.340441e+00 -2.486328e+01 2.888672e+01 8.093589e-04 1.091237e-02 -1.835938e-01 1.914062e-01
-1.791776e-02 4.288211e+00 -2.380078e+01 2.888672e+01 8.070525e-04 1.069797e-02 -1.835938e-01 1.914062e-01
1.949671e-02 4.356096e+00 -2.528516e+01 2.384766e+01 7.999649e-04 1.091139e-02 -1.835938e-01 1.914062e-01
-5.444120e-02 4.351255e+00 -2.455078e+01 2.888672e+01 8.314638e-04 1.114774e-02 -1.835938e-01 1.875000e-01
3.928043e-03 4.354733e+00 -2.528516e+01 2.076953e+01 8.356300e-04 1.100222e-02 -1.835938e-01 1.914062e-01
-6.010691e-03 4.400761e+00 -2.528516e+01 2.087891e+01 8.073307e-04 1.074996e-02 -1.835938e-01 1.914062e-01
-1.926275e-02 4.364672e+00 -2.237891e+01 2.384766e+01 8.094907e-04 1.089022e-02 -1.835938e-01 1.914062e-01
-7.322451e-02 4.374579e+00 -2.486328e+01 2.296875e+01 8.143671e-04 1.097306e-02 -1.835938e-01 1.914062e-01
-7.650493e-03 4.440862e+00 -2.380078e+01 2.296875e+01 8.135617e-04 1.091113e-02 -1.835938e-01 1.875000e-01
-7.300000e-02 4.387406e+00 -2.455078e+01 2.888672e+01 8.263751e-04 1.104900e-02 -1.835938e-01 1.875000e-01
-7.029729e-02 4.409175e+00 -2.486328e+01 2.384766e+01 8.037942e-04 1.093568e-02 -1.835938e-01 1.914062e-01
-5.170066e-02 4.391683e+00 -2.528516e+01 2.888672e+01 8.420220e-04 1.112155e-02 -1.835938e-01 1.914062e-01
-9.681867e-02 4.417797e+00 -2.528516e+01 2.296875e+01 8.155825e-04 1.096622e-02 -1.835938e-01 1.914062e-01
-5.787829e-02 4.367687e+00 -2.261719e+01 2.888672e+01 8.409530e-04 1.108672e-02 -1.835938e-01 1.914062e-01
-6.252426e-02 4.294019e+00 -2.486328e+01 2.888672e+01 8.295601e-04 1.102951e-02 -1.835938e-01 1.914062e-01
-5.816118e-02 4.335393e+00 -2.528516e+01 2.384766e+01 8.410116e-04 1.110205e-02 -1.835938e-01 1.914062e-01
-7.926480e-02 4.306978e+00 -2.486328e+01 2.888672e+01 8.268656e-04 1.100363e-02 -1.835938e-01 1.914062e-01
-4.567064e-02 4.302164e+00 -2.105078e+01 2.888672e+01 8.424394e-04 1.111398e-02 -1.835938e-01 1.875000e-01
-6.418832e-02 4.423883e+00 -2.342578e+01 2.384766e+01 8.104791e-04 1.083180e-02 -1.835938e-01 1.914062e-01
1.498396e-02 4.340665e+00 -2.528516e+01 2.888672e+01 8.394886e-04 1.106443e-02 -1.835938e-01 1.914062e-01
-9.058799e-02 4.333692e+00 -2.261719e+01 2.384766e+01 8.521629e-04 1.120734e-02 -1.835938e-01 1.914062e-01
-1.872780e-02 4.446192e+00 -2.455078e+01 2.263281e+01 8.305925e-04 1.104887e-02 -1.835938e-01 1.914062e-01
1.521382e-04 4.367244e+00 -2.528516e+01 2.119141e+01 8.258479e-04 1.094270e-02 -1.835938e-01 1.875000e-01
-8.019613e-02 4.365594e+00 -2.237891e+01 2.888672e+01 8.286961e-04 1.103619e-02 -1.835938e-01 1.914062e-01
-3.559005e-02 4.373767e+00 -1.991016e+01 2.263281e+01 8.284691e-04 1.095347e-02 -1.835938e-01 1.914062e-01
-1.720609e-01 4.351624e+00 -2.528516e+01 2.384766e+01 8.017221e-04 1.098436e-02 -1.835938e-01 1.914062e-01
4.161637e-02 4.364699e+00 -2.528516e+01 2.384766e+01 8.393642e-04 1.102117e-02 -1.835938e-01 1.914062e-01
-5.304400e-02 4.357375e+00 -2.105078e+01 2.384766e+01 8.188335e-04 1.081947e-02 -1.835938e-01 1.914062e-01
-1.677015e-02 4.449727e+00 -2.486328e+01 2.296875e+01 8.497320e-04 1.112113e-02 -1.835938e-01 1.914062e-01
-9.500493e-02 4.340960e+00 -2.486328e+01 2.888672e+01 8.264483e-04 1.095358e-02 -1.835938e-01 1.914062e-01
-1.824918e-02 4.392053e+00 -2.528516e+01 2.384766e+01 8.347367e-04 1.104096e-02 -1.835938e-01 1.875000e-01
-5.149918e-02 4.418233e+00 -2.342578e+01 2.263281e+01 8.289304e-04 1.108148e-02 -1.835938e-01 1.875000e-01
-7.343339e-02 4.377222e+00 -2.261719e+01 2.888672e+01 8.248960e-04 1.098540e-02 -1.835938e-01 1.914062e-01
-5.902549e-03 4.382799e+00 -2.237891e+01 2.296875e+01 8.223553e-04 1.095563e-02 -1.835938e-01 1.875000e-01
-8.059745e-02 4.379007e+00 -2.486328e+01 2.384766e+01 8.157216e-04 1.096451e-02 -1.835938e-01 1.914062e-01
-4.209046e-02 4.244285e+00 -1.991016e+01 2.888672e+01 8.322180e-04 1.109754e-02 -1.835938e-01 1.875000e-01
-3.861020e-02 4.429915e+00 -2.528516e+01 2.119141e+01 8.316761e-04 1.097117e-02 -1.835938e-01 1.875000e-01
-8.820436e-02 4.350193e+00 -2.486328e+01 2.384766e+01 8.150920e-04 1.096861e-02 -1.835938e-01 1.875000e-01
-1.992516e-02 4.352083e+00 -2.261719e+01 2.888672e+01 8.112406e-04 1.092394e-02 -1.835938e-01 1.875000e-01
-2.585444e-02 4.387951e+00 -2.486328e+01 2.143750e+01 8.159926e-04 1.095507e-02 -1.835938e-01 1.914062e-01
-9.679605e-02 4.374011e+00 -2.486328e+01 2.296875e+01 8.119509e-04 1.093704e-02 -1.835938e-01 1.875000e-01
-7.956497e-02 4.363472e+00 -2.528516e+01 2.296875e+01 8.050170e-04 1.086674e-02 -1.835938e-01 1.914062e-01
1.863898e-03 4.329343e+00 -2.342578e+01 2.102344e+01 8.535980e-04 1.118539e-02 -1.835938e-01 1.914062e-01
