4.200573e+00 8.435246e+01 -8.747017e+02 9.906813e+02 1.577224e-05 3.113708e-03 -2.249908e-01 2.250061e-01
6.948297e+00 1.610614e+02 -1.768515e+03 2.161871e+03 1.415368e-06 2.276271e-03 -2.188263e-01 2.120056e-01
8.320408e+00 2.498197e+02 -2.821008e+03 3.699497e+03 1.021270e-07 2.090314e-03 -2.141876e-01 2.120056e-01
1.169769e+01 3.450266e+02 -4.133795e+03 5.433791e+03 -1.160262e-07 1.989053e-03 -2.160187e-01 2.120056e-01
1.686246e+01 4.485510e+02 -5.308212e+03 6.144661e+03 -2.948914e-07 1.918205e-03 -2.175446e-01 2.063141e-01
2.240236e+01 5.591207e+02 -6.732226e+03 8.177203e+03 4.348176e-07 1.873881e-03 -2.160187e-01 2.160187e-01
2.839451e+01 6.685992e+02 -8.346105e+03 9.815994e+03 1.908293e-07 1.837078e-03 -2.141876e-01 2.120056e-01
2.840132e+01 7.820516e+02 -9.863735e+03 1.161353e+04 5.387424e-07 1.793543e-03 -2.160187e-01 2.093964e-01
3.276967e+01 8.939451e+02 -1.024360e+04 1.300854e+04 -2.908685e-08 1.742858e-03 -2.160187e-01 2.160187e-01
3.597837e+01 1.010755e+03 -1.286941e+04 1.524349e+04 5.747627e-07 1.719422e-03 -2.141876e-01 2.141876e-01
4.430937e+01 1.122817e+03 -1.367162e+04 1.635416e+04 1.904103e-07 1.704742e-03 -2.175446e-01 2.141876e-01
4.947740e+01 1.237624e+03 -1.535597e+04 1.865209e+04 -2.879612e-07 1.678019e-03 -2.141876e-01 2.120056e-01
5.259924e+01 1.352389e+03 -1.711168e+04 2.019838e+04 3.497394e-07 1.677901e-03 -2.141876e-01 2.141876e-01
5.741775e+01 1.468400e+03 -1.765410e+04 2.203980e+04 -1.354833e-07 1.644865e-03 -2.160187e-01 2.175598e-01
6.272290e+01 1.583941e+03 -1.891023e+04 2.393386e+04 7.442031e-08 1.643149e-03 -2.198944e-01 2.160187e-01
6.809266e+01 1.701879e+03 -2.022345e+04 2.461628e+04 2.487399e-07 1.629981e-03 -2.160187e-01 2.175598e-01
7.218230e+01 1.818596e+03 -2.256726e+04 2.666026e+04 5.409373e-07 1.618147e-03 -2.141876e-01 2.160187e-01
8.056139e+01 1.934652e+03 -2.378056e+04 2.921562e+04 -4.154574e-07 1.617946e-03 -2.175446e-01 2.160187e-01
8.197416e+01 2.049978e+03 -2.546205e+04 3.017310e+04 8.892271e-09 1.607823e-03 -2.141876e-01 2.160187e-01
8.455956e+01 2.169374e+03 -2.618718e+04 3.172594e+04 -4.262663e-07 1.599671e-03 -2.175446e-01 2.093964e-01
8.812498e+01 2.285241e+03 -2.791435e+04 3.276384e+04 -6.462522e-08 1.592256e-03 -2.141876e-01 2.120056e-01
9.766128e+01 2.398793e+03 -2.902202e+04 3.276800e+04 -3.113089e-07 1.577531e-03 -2.160187e-01 2.063141e-01
1.026595e+02 2.515826e+03 -3.121167e+04 3.276800e+04 -6.768764e-07 1.562133e-03 -2.160187e-01 2.093964e-01
1.066018e+02 2.631922e+03 -3.259771e+04 3.276800e+04 -3.734454e-07 1.561040e-03 -2.141876e-01 2.093964e-01
1.121705e+02 2.750367e+03 -3.259299e+04 3.276800e+04 -1.217308e-07 1.547387e-03 -2.093964e-01 2.120056e-01
1.187546e+02 2.868453e+03 -3.258187e+04 3.276800e+04 1.639029e-07 1.548271e-03 -2.095947e-01 2.093964e-01
1.201240e+02 2.985221e+03 -3.276800e+04 3.276800e+04 -9.046928e-08 1.538047e-03 -2.141876e-01 2.160187e-01
1.273942e+02 3.101676e+03 -3.276800e+04 3.276800e+04 4.684593e-08 1.539457e-03 -2.119904e-01 2.141876e-01
1.371376e+02 3.219135e+03 -3.276800e+04 3.276800e+04 1.849316e-08 1.538388e-03 -2.141876e-01 2.093964e-01
1.404905e+02 3.333350e+03 -3.276800e+04 3.276800e+04 -1.384023e-07 1.527676e-03 -2.119904e-01 2.120056e-01
1.439273e+02 3.449244e+03 -3.276800e+04 3.276800e+04 6.480663e-08 1.510924e-03 -2.093964e-01 2.093964e-01
1.484467e+02 3.566133e+03 -3.276800e+04 3.276800e+04 4.064259e-07 1.520733e-03 -2.119904e-01 2.093964e-01
1.571868e+02 3.681333e+03 -3.276800e+04 3.276800e+04 2.507113e-07 1.510892e-03 -2.160187e-01 2.063141e-01
1.594780e+02 3.795440e+03 -3.276800e+04 3.276800e+04 -1.721531e-07 1.505174e-03 -2.141876e-01 2.093964e-01
1.638361e+02 3.909102e+03 -3.276800e+04 3.276800e+04 -2.619193e-07 1.500477e-03 -2.093964e-01 2.093964e-01
1.720557e+02 4.020364e+03 -3.276800e+04 3.276800e+04 5.500719e-08 1.501136e-03 -2.119904e-01 2.063141e-01
1.778550e+02 4.132610e+03 -3.276800e+04 3.276800e+04 1.353719e-07 1.482336e-03 -2.141876e-01 2.063141e-01
1.856645e+02 4.242517e+03 -3.276800e+04 3.276800e+04 -5.125021e-07 1.496707e-03 -2.119904e-01 2.063141e-01
1.943764e+02 4.353623e+03 -3.276800e+04 3.276800e+04 6.948370e-08 1.493704e-03 -2.119904e-01 2.063141e-01
2.009815e+02 4.462844e+03 -3.276800e+04 3.276800e+04 1.686426e-07 1.507020e-03 -2.119904e-01 2.063141e-01
2.055256e+02 4.571904e+03 -3.276800e+04 3.276800e+04 -1.447991e-07 1.485662e-03 -2.119904e-01 2.093964e-01
2.044832e+02 4.680376e+03 -3.276800e+04 3.276800e+04 2.154989e-07 1.481110e-03 -2.119904e-01 2.063141e-01
