8.999939e-01 9.989929e-01
6.103516e-05 6.036377e-01
6.103516e-05 3.647614e-01
6.103516e-05 2.203522e-01
6.103516e-05 1.332550e-01
6.103516e-05 8.056641e-02
6.103516e-05 4.891968e-02
6.103516e-05 2.996826e-02
6.103516e-05 1.870728e-02
6.103516e-05 1.107788e-02
6.103516e-05 7.568359e-03
6.103516e-05 7.568359e-03
6.103516e-05 7.568359e-03
6.103516e-05 7.568359e-03
6.103516e-05 7.568359e-03
6.103516e-05 7.568359e-03
6.103516e-05 7.568359e-03
6.103516e-05 7.568359e-03
6.103516e-05 7.568359e-03
6.103516e-05 7.568359e-03
6.103516e-05 7.568359e-03
6.103516e-05 7.568359e-03
6.103516e-05 7.568359e-03
6.103516e-05 7.568359e-03
6.103516e-05 7.568359e-03
6.103516e-05 7.568359e-03
6.103516e-05 7.568359e-03
6.103516e-05 7.568359e-03
6.103516e-05 7.568359e-03
6.103516e-05 7.568359e-03
6.103516e-05 7.568359e-03
6.103516e-05 7.568359e-03
6.103516e-05 7.568359e-03
6.103516e-05 7.568359e-03
6.103516e-05 7.568359e-03
6.103516e-05 7.568359e-03
6.103516e-05 7.568359e-03
6.103516e-05 7.568359e-03
6.103516e-05 7.568359e-03
6.103516e-05 7.568359e-03
6.103516e-05 7.568359e-03
6.103516e-05 7.568359e-03
6.103516e-05 7.568359e-03
