1.279961e+02 7.707809e-01 -8.141987e-03 5.760561e-01 -9.960938e-01 9.960938e-01
1.279961e+02 7.707809e-01 -8.141987e-03 5.760561e-01 -9.960938e-01 9.960938e-01
1.279961e+02 7.707809e-01 -8.141987e-03 5.760561e-01 -9.960938e-01 9.960938e-01
1.279961e+02 7.707809e-01 -8.141987e-03 5.760561e-01 -9.960938e-01 9.960938e-01
1.279961e+02 7.707809e-01 -8.141987e-03 5.760561e-01 -9.960938e-01 9.960938e-01
1.279961e+02 7.707809e-01 -8.141987e-03 5.760561e-01 -9.960938e-01 9.960938e-01
1.279961e+02 7.707809e-01 -8.141987e-03 5.760561e-01 -9.960938e-01 9.960938e-01
1.279961e+02 7.707809e-01 -8.141987e-03 5.760561e-01 -9.960938e-01 9.960938e-01
1.279961e+02 7.707809e-01 -8.141987e-03 5.760561e-01 -9.960938e-01 9.960938e-01
1.279961e+02 7.707809e-01 -8.141987e-03 5.760561e-01 -9.960938e-01 9.960938e-01
1.279961e+02 7.707809e-01 -8.141987e-03 5.760561e-01 -9.960938e-01 9.960938e-01
1.279961e+02 7.707809e-01 -8.141987e-03 5.760561e-01 -9.960938e-01 9.960938e-01
1.279961e+02 7.707809e-01 -8.141987e-03 5.760561e-01 -9.960938e-01 9.960938e-01
1.279961e+02 7.707809e-01 -8.141987e-03 5.760561e-01 -9.960938e-01 9.960938e-01
1.279961e+02 7.707809e-01 -8.141987e-03 5.760561e-01 -9.960938e-01 9.960938e-01
1.279961e+02 7.707809e-01 -8.141987e-03 5.760561e-01 -9.960938e-01 9.960938e-01
1.279961e+02 7.707809e-01 -8.141987e-03 5.760561e-01 -9.960938e-01 9.960938e-01
1.279961e+02 7.707809e-01 -8.141987e-03 5.760561e-01 -9.960938e-01 9.960938e-01
1.279961e+02 7.707809e-01 -8.141987e-03 5.760561e-01 -9.960938e-01 9.960938e-01
1.279961e+02 7.707809e-01 -8.141987e-03 5.760561e-01 -9.960938e-01 9.960938e-01
1.279961e+02 7.707809e-01 -8.141987e-03 5.760561e-01 -9.960938e-01 9.960938e-01
1.279961e+02 7.707809e-01 -8.141987e-03 5.760561e-01 -9.960938e-01 9.960938e-01
1.279961e+02 7.707809e-01 -8.141987e-03 5.760561e-01 -9.960938e-01 9.960938e-01
1.279961e+02 7.707809e-01 -8.141987e-03 5.760561e-01 -9.960938e-01 9.960938e-01
1.279961e+02 7.707809e-01 -8.141987e-03 5.760561e-01 -9.960938e-01 9.960938e-01
1.279961e+02 7.707809e-01 -8.141987e-03 5.760561e-01 -9.960938e-01 9.960938e-01
1.279961e+02 7.707809e-01 -8.141987e-03 5.760561e-01 -9.960938e-01 9.960938e-01
1.279961e+02 7.707809e-01 -8.141987e-03 5.760561e-01 -9.960938e-01 9.960938e-01
1.279961e+02 7.707809e-01 -8.141987e-03 5.760561e-01 -9.960938e-01 9.960938e-01
1.279961e+02 7.707809e-01 -8.141987e-03 5.760561e-01 -9.960938e-01 9.960938e-01
1.279961e+02 7.707809e-01 -8.141987e-03 5.760561e-01 -9.960938e-01 9.960938e-01
1.279961e+02 7.707809e-01 -8.141987e-03 5.760561e-01 -9.960938e-01 9.960938e-01
1.279961e+02 7.707809e-01 -8.141987e-03 5.760561e-01 -9.960938e-01 9.960938e-01
1.279961e+02 7.707809e-01 -8.141987e-03 5.760561e-01 -9.960938e-01 9.960938e-01
1.279961e+02 7.707809e-01 -8.141987e-03 5.760561e-01 -9.960938e-01 9.960938e-01
1.279961e+02 7.707809e-01 -8.141987e-03 5.760561e-01 -9.960938e-01 9.960938e-01
1.279961e+02 7.707809e-01 -8.141987e-03 5.760561e-01 -9.960938e-01 9.960938e-01
1.279961e+02 7.707809e-01 -8.141987e-03 5.760561e-01 -9.960938e-01 9.960938e-01
1.279961e+02 7.707809e-01 -8.141987e-03 5.760561e-01 -9.960938e-01 9.960938e-01
1.279961e+02 7.707809e-01 -8.141987e-03 5.760561e-01 -9.960938e-01 9.960938e-01
1.279961e+02 7.707809e-01 -8.141987e-03 5.760561e-01 -9.960938e-01 9.960938e-01
1.279961e+02 7.707809e-01 -8.141987e-03 5.760561e-01 -9.960938e-01 9.960938e-01
1.279961e+02 7.707809e-01 -8.141987e-03 5.760561e-01 -9.960938e-01 9.960938e-01
1.279961e+02 7.707809e-01 -8.141987e-03 5.760561e-01 -9.960938e-01 9.960938e-01
1.279961e+02 7.707809e-01 -8.141987e-03 5.760561e-01 -9.960938e-01 9.960938e-01
1.279961e+02 7.707809e-01 -8.141987e-03 5.760561e-01 -9.960938e-01 9.960938e-01
1.279961e+02 7.707809e-01 -8.141987e-03 5.760561e-01 -9.960938e-01 9.960938e-01
1.279961e+02 7.707809e-01 -8.141987e-03 5.760561e-01 -9.960938e-01 9.960938e-01
1.279961e+02 7.707809e-01 -8.141987e-03 5.760561e-01 -9.960938e-01 9.960938e-01
1.279961e+02 7.707809e-01 -8.141987e-03 5.760561e-01 -9.960938e-01 9.960938e-01
1.279961e+02 7.707809e-01 -8.141987e-03 5.760561e-01 -9.960938e-01 9.960938e-01
1.279961e+02 7.707809e-01 -8.141987e-03 5.760561e-01 -9.960938e-01 9.960938e-01
1.279961e+02 7.707809e-01 -8.141987e-03 5.760561e-01 -9.960938e-01 9.960938e-01
1.279961e+02 7.707809e-01 -8.141987e-03 5.760561e-01 -9.960938e-01 9.960938e-01
1.279961e+02 7.707809e-01 -8.141987e-03 5.760561e-01 -9.960938e-01 9.960938e-01
1.279961e+02 7.707809e-01 -8.141987e-03 5.760561e-01 -9.960938e-01 9.960938e-01
1.279961e+02 7.707809e-01 -8.141987e-03 5.760561e-01 -9.960938e-01 9.960938e-01
1.279961e+02 7.707809e-01 -8.141987e-03 5.760561e-01 -9.960938e-01 9.960938e-01
1.279961e+02 7.707809e-01 -8.141987e-03 5.760561e-01 -9.960938e-01 9.960938e-01
1.279961e+02 7.707809e-01 -8.141987e-03 5.760561e-01 -9.960938e-01 9.960938e-01
1.279961e+02 7.707809e-01 -8.141987e-03 5.760561e-01 -9.960938e-01 9.960938e-01
1.279961e+02 7.707809e-01 -8.141987e-03 5.760561e-01 -9.960938e-01 9.960938e-01
1.279961e+02 7.707809e-01 -8.141987e-03 5.760561e-01 -9.960938e-01 9.960938e-01
1.279961e+02 7.707809e-01 -8.141987e-03 5.760561e-01 -9.960938e-01 9.960938e-01
1.279961e+02 7.707809e-01 -8.141987e-03 5.760561e-01 -9.960938e-01 9.960938e-01
1.279961e+02 7.707809e-01 -8.141987e-03 5.760561e-01 -9.960938e-01 9.960938e-01
1.279961e+02 7.707809e-01 -8.141987e-03 5.760561e-01 -9.960938e-01 9.960938e-01
1.279961e+02 7.707809e-01 -8.141987e-03 5.760561e-01 -9.960938e-01 9.960938e-01
1.279961e+02 7.707809e-01 -8.141987e-03 5.760561e-01 -9.960938e-01 9.960938e-01
1.279961e+02 7.707809e-01 -8.141987e-03 5.760561e-01 -9.960938e-01 9.960938e-01
1.279961e+02 7.707809e-01 -8.141987e-03 5.760561e-01 -9.960938e-01 9.960938e-01
1.279961e+02 7.707809e-01 -8.141987e-03 5.760561e-01 -9.960938e-01 9.960938e-01
1.279961e+02 7.707809e-01 -8.141987e-03 5.760561e-01 -9.960938e-01 9.960938e-01
1.279961e+02 7.707809e-01 -8.141987e-03 5.760561e-01 -9.960938e-01 9.960938e-01
1.279961e+02 7.707809e-01 -8.141987e-03 5.760561e-01 -9.960938e-01 9.960938e-01
1.279961e+02 7.707809e-01 -8.141987e-03 5.760561e-01 -9.960938e-01 9.960938e-01
1.279961e+02 7.707809e-01 -8.141987e-03 5.760561e-01 -9.960938e-01 9.960938e-01
1.279961e+02 7.707809e-01 -8.141987e-03 5.760561e-01 -9.960938e-01 9.960938e-01
1.279961e+02 7.707809e-01 -8.141987e-03 5.760561e-01 -9.960938e-01 9.960938e-01
1.279961e+02 7.707809e-01 -8.141987e-03 5.760561e-01 -9.960938e-01 9.960938e-01
1.279961e+02 7.707809e-01 -8.141987e-03 5.760561e-01 -9.960938e-01 9.960938e-01
1.279961e+02 7.707809e-01 -8.141987e-03 5.760561e-01 -9.960938e-01 9.960938e-01
1.279961e+02 7.707809e-01 -8.141987e-03 5.760561e-01 -9.960938e-01 9.960938e-01
1.279961e+02 7.707809e-01 -8.141987e-03 5.760561e-01 -9.960938e-01 9.960938e-01
1.279961e+02 7.707809e-01 -8.141987e-03 5.760561e-01 -9.960938e-01 9.960938e-01
1.279961e+02 7.707809e-01 -8.141987e-03 5.760561e-01 -9.960938e-01 9.960938e-01
1.279961e+02 7.707809e-01 -8.141987e-03 5.760561e-01 -9.960938e-01 9.960938e-01
1.279961e+02 7.707809e-01 -8.141987e-03 5.760561e-01 -9.960938e-01 9.960938e-01
1.279961e+02 7.707809e-01 -8.141987e-03 5.760561e-01 -9.960938e-01 9.960938e-01
1.279961e+02 7.707809e-01 -8.141987e-03 5.760561e-01 -9.960938e-01 9.960938e-01
1.279961e+02 7.707809e-01 -8.141987e-03 5.760561e-01 -9.960938e-01 9.960938e-01
1.279961e+02 7.707809e-01 -8.141987e-03 5.760561e-01 -9.960938e-01 9.960938e-01
1.279961e+02 7.707809e-01 -8.141987e-03 5.760561e-01 -9.960938e-01 9.960938e-01
1.279961e+02 7.707809e-01 -8.141987e-03 5.760561e-01 -9.960938e-01 9.960938e-01
1.279961e+02 7.707809e-01 -8.141987e-03 5.760561e-01 -9.960938e-01 9.960938e-01
1.279961e+02 7.707809e-01 -8.141987e-03 5.760561e-01 -9.960938e-01 9.960938e-01
1.279961e+02 7.707809e-01 -8.141987e-03 5.760561e-01 -9.960938e-01 9.960938e-01
1.279961e+02 7.707809e-01 -8.141987e-03 5.760561e-01 -9.960938e-01 9.960938e-01
1.279961e+02 7.707809e-01 -8.141987e-03 5.760561e-01 -9.960938e-01 9.960938e-01
1.279961e+02 7.707809e-01 -8.141987e-03 5.760561e-01 -9.960938e-01 9.960938e-01
1.279961e+02 7.707809e-01 -8.141987e-03 5.760561e-01 -9.960938e-01 9.960938e-01
