0.000000e+00 0.000000e+00 0.000000e+00
1.417969e+00 1.190785e+00 1.191406e+00
2.859375e+00 1.690969e+00 1.691406e+00
4.058594e+00 2.014595e+00 2.015625e+00
4.578125e+00 2.139655e+00 2.144531e+00
6.011719e+00 2.451881e+00 2.453125e+00
7.476562e+00 2.734330e+00 2.742188e+00
7.976562e+00 2.824281e+00 2.832031e+00
9.386719e+00 3.063775e+00 3.066406e+00
1.051562e+01 3.242780e+00 3.246094e+00
1.124219e+01 3.352937e+00 3.359375e+00
1.263672e+01 3.554816e+00 3.554688e+00
1.392578e+01 3.731726e+00 3.738281e+00
1.446875e+01 3.803781e+00 3.808594e+00
1.576172e+01 3.970103e+00 3.968750e+00
1.707422e+01 4.132096e+00 4.136719e+00
1.785547e+01 4.225573e+00 4.238281e+00
1.863281e+01 4.316574e+00 4.320312e+00
1.952344e+01 4.418533e+00 4.425781e+00
2.076172e+01 4.556503e+00 4.562500e+00
2.138281e+01 4.624155e+00 4.632812e+00
2.201953e+01 4.692497e+00 4.691406e+00
2.263672e+01 4.757806e+00 4.769531e+00
2.379297e+01 4.877804e+00 4.886719e+00
2.440234e+01 4.939873e+00 4.953125e+00
2.538281e+01 5.038136e+00 5.054688e+00
2.627344e+01 5.125762e+00 5.136719e+00
2.754297e+01 5.248140e+00 5.250000e+00
2.812109e+01 5.302933e+00 5.312500e+00
2.907031e+01 5.391689e+00 5.402344e+00
2.992188e+01 5.470089e+00 5.484375e+00
3.119141e+01 5.584927e+00 5.601562e+00
3.205859e+01 5.662031e+00 5.671875e+00
3.285156e+01 5.731628e+00 5.734375e+00
3.382422e+01 5.815859e+00 5.820312e+00
3.471094e+01 5.891599e+00 5.906250e+00
3.544141e+01 5.953269e+00 5.960938e+00
3.637891e+01 6.031493e+00 6.039062e+00
3.726953e+01 6.104878e+00 6.113281e+00
3.791016e+01 6.157122e+00 6.160156e+00
3.847656e+01 6.202948e+00 6.218750e+00
3.959375e+01 6.292356e+00 6.300781e+00
4.012891e+01 6.334738e+00 6.343750e+00
4.148828e+01 6.441140e+00 6.449219e+00
4.265234e+01 6.530876e+00 6.546875e+00
4.398047e+01 6.631777e+00 6.636719e+00
4.515234e+01 6.719549e+00 6.734375e+00
4.659766e+01 6.826248e+00 6.828125e+00
4.720312e+01 6.870453e+00 6.878906e+00
4.776562e+01 6.911268e+00 6.921875e+00
4.894922e+01 6.996372e+00 7.003906e+00
4.967969e+01 7.048382e+00 7.042969e+00
5.037891e+01 7.097810e+00 7.097656e+00
5.167969e+01 7.188859e+00 7.203125e+00
5.306641e+01 7.284669e+00 7.289062e+00
5.387891e+01 7.340225e+00 7.347656e+00
5.466016e+01 7.393251e+00 7.414062e+00
5.543750e+01 7.445636e+00 7.445312e+00
5.601953e+01 7.484620e+00 7.488281e+00
5.687891e+01 7.541811e+00 7.550781e+00
5.810938e+01 7.622951e+00 7.636719e+00
5.904297e+01 7.683942e+00 7.683594e+00
5.967578e+01 7.725010e+00 7.726562e+00
6.027344e+01 7.763597e+00 7.769531e+00
6.150000e+01 7.842194e+00 7.855469e+00
6.260547e+01 7.912362e+00 7.917969e+00
6.359375e+01 7.974569e+00 7.980469e+00
6.505078e+01 8.065406e+00 8.066406e+00
6.559375e+01 8.098997e+00 8.117188e+00
6.697266e+01 8.183682e+00 8.191406e+00
6.757422e+01 8.220354e+00 8.238281e+00
6.818359e+01 8.257336e+00 8.257812e+00
6.917969e+01 8.317433e+00 8.316406e+00
6.981641e+01 8.355621e+00 8.371094e+00
7.128516e+01 8.443054e+00 8.464844e+00
7.194531e+01 8.482058e+00 8.484375e+00
7.341406e+01 8.568201e+00 8.582031e+00
7.455469e+01 8.634506e+00 8.640625e+00
7.516016e+01 8.669496e+00 8.683594e+00
7.573438e+01 8.702550e+00 8.730469e+00
7.694141e+01 8.771625e+00 8.773438e+00
7.823047e+01 8.844799e+00 8.855469e+00
7.903516e+01 8.890172e+00 8.886719e+00
8.044141e+01 8.968913e+00 8.988281e+00
8.153516e+01 9.029682e+00 9.050781e+00
8.223047e+01 9.068102e+00 9.066406e+00
8.294922e+01 9.107646e+00 9.125000e+00
8.432422e+01 9.182822e+00 9.191406e+00
8.529688e+01 9.235631e+00 9.253906e+00
8.609766e+01 9.278882e+00 9.285156e+00
8.683594e+01 9.318580e+00 9.308594e+00
8.753906e+01 9.356231e+00 9.359375e+00
8.877344e+01 9.421966e+00 9.449219e+00
8.964453e+01 9.468080e+00 9.484375e+00
9.044922e+01 9.510479e+00 9.539062e+00
9.141406e+01 9.561070e+00 9.585938e+00
9.289062e+01 9.637978e+00 9.640625e+00
9.418359e+01 9.704823e+00 9.710938e+00
9.510547e+01 9.752203e+00 9.769531e+00
9.562500e+01 9.778804e+00 9.812500e+00
9.679688e+01 9.838540e+00 9.859375e+00
9.782031e+01 9.890415e+00 9.898438e+00
9.844922e+01 9.922158e+00 9.953125e+00
9.911719e+01 9.955762e+00 9.980469e+00
1.002812e+02 1.001405e+01 1.002344e+01
1.008828e+02 1.004404e+01 1.006250e+01
1.017148e+02 1.008538e+01 1.012500e+01
1.028477e+02 1.014138e+01 1.014453e+01
1.040898e+02 1.020244e+01 1.021094e+01
1.050273e+02 1.024828e+01 1.026953e+01
1.062344e+02 1.030701e+01 1.032812e+01
1.071836e+02 1.035295e+01 1.035938e+01
1.079141e+02 1.038817e+01 1.039844e+01
1.084297e+02 1.041296e+01 1.043359e+01
1.092891e+02 1.045414e+01 1.047656e+01
1.106133e+02 1.051728e+01 1.052734e+01
1.113242e+02 1.055103e+01 1.056641e+01
1.124023e+02 1.060200e+01 1.062500e+01
1.136016e+02 1.065840e+01 1.068359e+01
1.147852e+02 1.071378e+01 1.074609e+01
1.161680e+02 1.077812e+01 1.079688e+01
1.176055e+02 1.084461e+01 1.087500e+01
1.189961e+02 1.090853e+01 1.092578e+01
1.201133e+02 1.095962e+01 1.097266e+01
1.209219e+02 1.099645e+01 1.100781e+01
1.216172e+02 1.102802e+01 1.105859e+01
1.221992e+02 1.105438e+01 1.107422e+01
1.229844e+02 1.108983e+01 1.110156e+01
1.244727e+02 1.115673e+01 1.118359e+01
1.254805e+02 1.120181e+01 1.122656e+01
1.262852e+02 1.123767e+01 1.126953e+01
1.274453e+02 1.128917e+01 1.132812e+01
1.279766e+02 1.131267e+01 1.133203e+01
