6.892188e+01 6.250000e-01 -4.962384e-02 5.350848e-01 -9.492188e-01 9.609375e-01
6.322266e+01 3.697917e-01 -5.784144e-02 5.303514e-01 -1.015625e+00 9.804688e-01
6.055078e+01 3.697917e-01 -8.396991e-02 5.459355e-01 -1.449219e+00 1.187500e+00
5.747656e+01 3.697917e-01 -1.234809e-01 6.158918e-01 -1.730469e+00 1.765625e+00
5.787500e+01 3.697917e-01 -1.648872e-01 7.014269e-01 -2.238281e+00 2.167969e+00
5.912109e+01 3.697917e-01 -1.963397e-01 7.436173e-01 -2.503906e+00 2.410156e+00
5.796094e+01 3.697917e-01 -2.282841e-01 7.781901e-01 -2.714844e+00 2.628906e+00
5.771094e+01 3.697917e-01 -2.578125e-01 8.062578e-01 -2.875000e+00 2.820312e+00
5.642578e+01 3.697917e-01 -2.892940e-01 8.319720e-01 -3.000000e+00 2.972656e+00
5.610547e+01 3.697917e-01 -3.166088e-01 8.627015e-01 -3.097656e+00 3.140625e+00
5.728516e+01 3.697917e-01 -3.405093e-01 8.979216e-01 -3.179688e+00 3.312500e+00
5.739062e+01 3.697917e-01 -3.637587e-01 9.353915e-01 -3.269531e+00 3.472656e+00
5.701953e+01 3.697917e-01 -3.848380e-01 9.749511e-01 -3.597656e+00 3.613281e+00
5.547656e+01 3.697917e-01 -4.018084e-01 1.018308e+00 -3.925781e+00 3.734375e+00
5.487891e+01 3.697917e-01 -4.160012e-01 1.063989e+00 -4.234375e+00 3.847656e+00
5.473047e+01 3.697917e-01 -4.286748e-01 1.111059e+00 -4.527344e+00 3.949219e+00
5.460156e+01 3.697917e-01 -4.392940e-01 1.160006e+00 -4.804688e+00 4.042969e+00
5.317969e+01 3.697917e-01 -4.494068e-01 1.211763e+00 -5.078125e+00 4.113281e+00
5.308203e+01 3.697917e-01 -4.599682e-01 1.264233e+00 -5.355469e+00 4.167969e+00
5.206250e+01 3.697917e-01 -4.697627e-01 1.316966e+00 -5.644531e+00 4.199219e+00
5.136719e+01 3.697917e-01 -4.781395e-01 1.371709e+00 -5.941406e+00 4.234375e+00
5.059766e+01 3.697917e-01 -4.850984e-01 1.427136e+00 -6.238281e+00 4.277344e+00
4.985938e+01 3.697917e-01 -4.891204e-01 1.483754e+00 -6.535156e+00 4.347656e+00
4.973438e+01 3.697917e-01 -4.928819e-01 1.537889e+00 -6.816406e+00 4.425781e+00
4.947656e+01 3.645833e-01 -4.918258e-01 1.583913e+00 -7.011719e+00 4.597656e+00
4.891406e+01 3.697917e-01 -4.887008e-01 1.627552e+00 -7.125000e+00 4.816406e+00
4.861719e+01 3.697917e-01 -4.857350e-01 1.668623e+00 -7.214844e+00 5.082031e+00
4.818750e+01 3.541667e-01 -4.865162e-01 1.710173e+00 -7.355469e+00 5.300781e+00
4.778906e+01 3.437500e-01 -4.873119e-01 1.750180e+00 -7.511719e+00 5.527344e+00
4.717969e+01 3.437500e-01 -4.876881e-01 1.788261e+00 -7.683594e+00 5.753906e+00
4.684766e+01 3.281250e-01 -4.870081e-01 1.824879e+00 -7.855469e+00 5.992188e+00
4.671094e+01 3.125000e-01 -4.866319e-01 1.860392e+00 -8.042969e+00 6.230469e+00
4.657422e+01 3.020833e-01 -4.876736e-01 1.895238e+00 -8.230469e+00 6.460938e+00
4.654297e+01 3.177083e-01 -4.893374e-01 1.927987e+00 -8.398438e+00 6.667969e+00
4.594531e+01 3.020833e-01 -4.960938e-01 1.958132e+00 -8.585938e+00 6.812500e+00
4.582031e+01 3.020833e-01 -5.025752e-01 1.984961e+00 -8.742188e+00 6.968750e+00
4.591406e+01 2.968750e-01 -5.112413e-01 2.012454e+00 -8.898438e+00 7.097656e+00
4.551562e+01 2.864583e-01 -5.193142e-01 2.036839e+00 -9.019531e+00 7.234375e+00
4.560547e+01 2.968750e-01 -5.306424e-01 2.062260e+00 -9.152344e+00 7.339844e+00
4.565625e+01 2.916667e-01 -5.428530e-01 2.086670e+00 -9.289062e+00 7.453125e+00
4.539062e+01 2.708333e-01 -5.556713e-01 2.110216e+00 -9.437500e+00 7.558594e+00
4.516406e+01 2.916667e-01 -5.687934e-01 2.134610e+00 -9.605469e+00 7.656250e+00
4.485547e+01 2.447917e-01 -5.819444e-01 2.159250e+00 -9.769531e+00 7.742188e+00
4.493359e+01 2.447917e-01 -5.937500e-01 2.183782e+00 -9.929688e+00 7.835938e+00
4.507422e+01 2.500000e-01 -6.044126e-01 2.208142e+00 -1.008594e+01 7.933594e+00
4.524219e+01 2.500000e-01 -6.159433e-01 2.234993e+00 -1.025391e+01 8.015625e+00
4.481641e+01 2.395833e-01 -6.252459e-01 2.257909e+00 -1.037109e+01 8.113281e+00
4.489062e+01 2.395833e-01 -6.341146e-01 2.282514e+00 -1.050000e+01 8.183594e+00
4.518359e+01 2.343750e-01 -6.428241e-01 2.305464e+00 -1.062109e+01 8.242188e+00
4.483594e+01 2.395833e-01 -6.516204e-01 2.329075e+00 -1.075000e+01 8.285156e+00
4.456641e+01 2.395833e-01 -6.595052e-01 2.351516e+00 -1.086328e+01 8.332031e+00
4.397656e+01 2.447917e-01 -6.677228e-01 2.372787e+00 -1.096484e+01 8.382812e+00
4.404297e+01 2.395833e-01 -6.751447e-01 2.394006e+00 -1.107031e+01 8.437500e+00
4.378906e+01 2.343750e-01 -6.816262e-01 2.416229e+00 -1.118750e+01 8.488281e+00
4.379297e+01 2.343750e-01 -6.912905e-01 2.435492e+00 -1.129688e+01 8.523438e+00
4.334375e+01 2.343750e-01 -7.039352e-01 2.455745e+00 -1.142969e+01 8.523438e+00
4.276172e+01 2.291667e-01 -7.178819e-01 2.476365e+00 -1.155469e+01 8.515625e+00
4.295703e+01 2.343750e-01 -7.323061e-01 2.495594e+00 -1.165625e+01 8.519531e+00
4.298828e+01 2.395833e-01 -7.463831e-01 2.514772e+00 -1.175781e+01 8.511719e+00
4.309766e+01 2.291667e-01 -7.596209e-01 2.532433e+00 -1.182422e+01 8.511719e+00
4.273828e+01 2.395833e-01 -7.725116e-01 2.552002e+00 -1.191406e+01 8.484375e+00
4.272266e+01 2.291667e-01 -7.838686e-01 2.571182e+00 -1.199219e+01 8.468750e+00
4.228516e+01 2.291667e-01 -7.943287e-01 2.590959e+00 -1.208594e+01 8.433594e+00
4.241016e+01 2.447917e-01 -8.060041e-01 2.607553e+00 -1.214062e+01 8.421875e+00
4.262109e+01 2.447917e-01 -8.187211e-01 2.624558e+00 -1.221484e+01 8.402344e+00
4.224219e+01 2.187500e-01 -8.310909e-01 2.644167e+00 -1.232031e+01 8.355469e+00
4.195312e+01 2.291667e-01 -8.427228e-01 2.663222e+00 -1.241406e+01 8.308594e+00
4.168750e+01 2.343750e-01 -8.530093e-01 2.682978e+00 -1.250391e+01 8.277344e+00
4.158594e+01 2.239583e-01 -8.630642e-01 2.700874e+00 -1.258203e+01 8.242188e+00
4.172656e+01 2.187500e-01 -8.718750e-01 2.718267e+00 -1.266016e+01 8.238281e+00
4.142188e+01 2.187500e-01 -8.819878e-01 2.739093e+00 -1.278516e+01 8.199219e+00
4.126172e+01 2.239583e-01 -8.913050e-01 2.762175e+00 -1.290625e+01 8.148438e+00
4.121875e+01 2.187500e-01 -9.005064e-01 2.780992e+00 -1.297266e+01 8.125000e+00
4.204688e+01 2.343750e-01 -9.086372e-01 2.798432e+00 -1.303125e+01 8.132812e+00
4.096484e+01 2.239583e-01 -9.182292e-01 2.819065e+00 -1.314062e+01 8.101562e+00
4.121484e+01 2.239583e-01 -9.269821e-01 2.841028e+00 -1.324609e+01 8.066406e+00
4.130078e+01 2.187500e-01 -9.341291e-01 2.861235e+00 -1.333203e+01 8.058594e+00
4.089844e+01 2.083333e-01 -9.424479e-01 2.879288e+00 -1.339844e+01 8.062500e+00
4.109375e+01 2.187500e-01 -9.513021e-01 2.898963e+00 -1.349219e+01 8.050781e+00
4.132031e+01 2.135417e-01 -9.597367e-01 2.919134e+00 -1.358203e+01 8.039062e+00
4.121484e+01 2.187500e-01 -9.686632e-01 2.939168e+00 -1.366797e+01 8.019531e+00
4.080859e+01 2.187500e-01 -9.772569e-01 2.959669e+00 -1.374219e+01 7.992188e+00
4.067188e+01 2.187500e-01 -9.864439e-01 2.978441e+00 -1.379297e+01 7.968750e+00
4.080859e+01 2.239583e-01 -9.970052e-01 2.997581e+00 -1.385547e+01 7.929688e+00
4.089844e+01 2.239583e-01 -1.007075e+00 3.015839e+00 -1.390625e+01 7.906250e+00
4.052734e+01 2.083333e-01 -1.017101e+00 3.032546e+00 -1.394922e+01 7.894531e+00
4.056641e+01 2.187500e-01 -1.025666e+00 3.053152e+00 -1.401953e+01 7.863281e+00
4.008203e+01 2.239583e-01 -1.033738e+00 3.070933e+00 -1.405469e+01 7.863281e+00
4.033203e+01 2.291667e-01 -1.042115e+00 3.090299e+00 -1.411328e+01 7.839844e+00
4.034375e+01 2.187500e-01 -1.050174e+00 3.107087e+00 -1.414844e+01 7.828125e+00
4.097656e+01 2.187500e-01 -1.057899e+00 3.120002e+00 -1.416406e+01 7.828125e+00
4.025781e+01 2.187500e-01 -1.068084e+00 3.134273e+00 -1.420703e+01 7.800781e+00
4.048438e+01 2.343750e-01 -1.077807e+00 3.151627e+00 -1.427344e+01 7.765625e+00
4.034766e+01 2.343750e-01 -1.086661e+00 3.167488e+00 -1.431641e+01 7.738281e+00
4.056641e+01 2.343750e-01 -1.095862e+00 3.182480e+00 -1.435547e+01 7.707031e+00
4.057031e+01 2.343750e-01 -1.104774e+00 3.196479e+00 -1.439453e+01 7.687500e+00
4.089844e+01 2.343750e-01 -1.113831e+00 3.209794e+00 -1.442969e+01 7.667969e+00
4.059766e+01 2.343750e-01 -1.123597e+00 3.224852e+00 -1.447656e+01 7.636719e+00
4.079297e+01 2.343750e-01 -1.133536e+00 3.241464e+00 -1.452734e+01 7.589844e+00
4.049609e+01 2.291667e-01 -1.142390e+00 3.255128e+00 -1.455469e+01 7.585938e+00
4.021484e+01 2.291667e-01 -1.152214e+00 3.269089e+00 -1.460938e+01 7.570312e+00
4.030859e+01 2.343750e-01 -1.163498e+00 3.283339e+00 -1.467188e+01 7.527344e+00
4.059375e+01 2.291667e-01 -1.172642e+00 3.296501e+00 -1.471484e+01 7.511719e+00
4.067188e+01 2.291667e-01 -1.182350e+00 3.310119e+00 -1.476953e+01 7.488281e+00
4.053906e+01 2.343750e-01 -1.192867e+00 3.324474e+00 -1.483594e+01 7.453125e+00
4.049219e+01 2.395833e-01 -1.203964e+00 3.338441e+00 -1.491016e+01 7.421875e+00
4.043359e+01 2.343750e-01 -1.213281e+00 3.348658e+00 -1.493750e+01 7.410156e+00
4.051953e+01 2.343750e-01 -1.224233e+00 3.361238e+00 -1.499609e+01 7.386719e+00
4.034766e+01 2.343750e-01 -1.234592e+00 3.371606e+00 -1.503125e+01 7.363281e+00
4.009766e+01 2.291667e-01 -1.245732e+00 3.382419e+00 -1.507422e+01 7.316406e+00
4.033203e+01 2.291667e-01 -1.256597e+00 3.393458e+00 -1.511719e+01 7.281250e+00
4.035156e+01 2.291667e-01 -1.267028e+00 3.404276e+00 -1.516016e+01 7.250000e+00
4.026172e+01 2.291667e-01 -1.277344e+00 3.414199e+00 -1.519922e+01 7.226562e+00
4.006641e+01 2.291667e-01 -1.287572e+00 3.422490e+00 -1.523047e+01 7.199219e+00
4.004297e+01 2.187500e-01 -1.297613e+00 3.431541e+00 -1.526953e+01 7.171875e+00
3.995312e+01 2.135417e-01 -1.309158e+00 3.441676e+00 -1.532812e+01 7.132812e+00
3.991406e+01 2.135417e-01 -1.319213e+00 3.452094e+00 -1.537500e+01 7.093750e+00
4.048438e+01 2.187500e-01 -1.328487e+00 3.460836e+00 -1.541016e+01 7.058594e+00
4.029297e+01 2.187500e-01 -1.338455e+00 3.470640e+00 -1.545312e+01 7.023438e+00
4.029688e+01 2.187500e-01 -1.346687e+00 3.480391e+00 -1.548438e+01 7.007812e+00
4.036328e+01 2.135417e-01 -1.354919e+00 3.489517e+00 -1.550781e+01 7.000000e+00
4.032031e+01 2.135417e-01 -1.364294e+00 3.501418e+00 -1.555859e+01 6.980469e+00
4.055469e+01 2.187500e-01 -1.373336e+00 3.511806e+00 -1.558984e+01 6.960938e+00
4.074219e+01 2.187500e-01 -1.381858e+00 3.522664e+00 -1.562109e+01 6.941406e+00
4.066016e+01 2.135417e-01 -1.391334e+00 3.533459e+00 -1.566406e+01 6.945312e+00
4.045703e+01 2.187500e-01 -1.400752e+00 3.543197e+00 -1.569531e+01 6.953125e+00
3.995703e+01 2.135417e-01 -1.408681e+00 3.553887e+00 -1.573047e+01 6.960938e+00
4.016016e+01 2.135417e-01 -1.417477e+00 3.564823e+00 -1.576562e+01 6.968750e+00
4.040234e+01 2.135417e-01 -1.425203e+00 3.575968e+00 -1.580469e+01 6.976562e+00
3.982031e+01 2.187500e-01 -1.434809e+00 3.588506e+00 -1.585156e+01 6.984375e+00
4.025000e+01 2.239583e-01 -1.445009e+00 3.599395e+00 -1.587500e+01 6.988281e+00
4.030859e+01 2.291667e-01 -1.454861e+00 3.610777e+00 -1.591406e+01 6.992188e+00
4.005469e+01 2.343750e-01 -1.465726e+00 3.623323e+00 -1.596094e+01 6.992188e+00
4.047656e+01 2.447917e-01 -1.474855e+00 3.634942e+00 -1.598828e+01 6.996094e+00
3.982812e+01 2.291667e-01 -1.481539e+00 3.644850e+00 -1.599219e+01 7.003906e+00
4.026172e+01 2.343750e-01 -1.488889e+00 3.656035e+00 -1.601172e+01 7.011719e+00
4.055859e+01 2.395833e-01 -1.497034e+00 3.667133e+00 -1.603125e+01 7.015625e+00
4.071875e+01 2.343750e-01 -1.506814e+00 3.678672e+00 -1.606641e+01 7.019531e+00
4.010547e+01 2.395833e-01 -1.518316e+00 3.689972e+00 -1.610156e+01 7.019531e+00
4.015625e+01 2.447917e-01 -1.530078e+00 3.700068e+00 -1.612500e+01 7.019531e+00
4.042969e+01 2.395833e-01 -1.539945e+00 3.709359e+00 -1.613281e+01 7.023438e+00
4.008594e+01 2.291667e-01 -1.548915e+00 3.719676e+00 -1.615234e+01 7.023438e+00
3.967969e+01 2.239583e-01 -1.559433e+00 3.729895e+00 -1.617969e+01 7.023438e+00
3.991406e+01 2.135417e-01 -1.567159e+00 3.739132e+00 -1.619531e+01 7.027344e+00
3.987109e+01 2.135417e-01 -1.578487e+00 3.749276e+00 -1.623438e+01 7.027344e+00
3.945312e+01 2.083333e-01 -1.590668e+00 3.760462e+00 -1.628516e+01 7.027344e+00
3.973828e+01 2.187500e-01 -1.600883e+00 3.772167e+00 -1.632422e+01 7.027344e+00
3.995703e+01 2.239583e-01 -1.609346e+00 3.782765e+00 -1.634375e+01 7.031250e+00
4.005859e+01 2.239583e-01 -1.617954e+00 3.794820e+00 -1.639062e+01 7.035156e+00
4.007812e+01 2.239583e-01 -1.625666e+00 3.806619e+00 -1.642578e+01 7.042969e+00
4.030469e+01 2.239583e-01 -1.633507e+00 3.818365e+00 -1.647266e+01 7.046875e+00
4.024609e+01 2.291667e-01 -1.645399e+00 3.831433e+00 -1.653906e+01 7.046875e+00
3.955469e+01 2.395833e-01 -1.658536e+00 3.844748e+00 -1.660547e+01 7.046875e+00
3.985156e+01 2.343750e-01 -1.666782e+00 3.856202e+00 -1.662109e+01 7.054688e+00
4.019141e+01 2.343750e-01 -1.673886e+00 3.868429e+00 -1.664844e+01 7.062500e+00
4.024609e+01 2.343750e-01 -1.682798e+00 3.881396e+00 -1.669531e+01 7.066406e+00
4.006250e+01 2.343750e-01 -1.692390e+00 3.893496e+00 -1.673047e+01 7.074219e+00
3.999219e+01 2.447917e-01 -1.703516e+00 3.906443e+00 -1.677344e+01 7.074219e+00
3.996484e+01 2.447917e-01 -1.714135e+00 3.918771e+00 -1.680469e+01 7.078125e+00
4.003125e+01 2.447917e-01 -1.722454e+00 3.931153e+00 -1.683594e+01 7.085938e+00
4.000391e+01 2.395833e-01 -1.731771e+00 3.943550e+00 -1.687500e+01 7.093750e+00
4.050000e+01 2.395833e-01 -1.742014e+00 3.956479e+00 -1.692969e+01 7.097656e+00
4.055859e+01 2.447917e-01 -1.752503e+00 3.968668e+00 -1.698047e+01 7.105469e+00
4.034375e+01 2.447917e-01 -1.762717e+00 3.980388e+00 -1.701953e+01 7.113281e+00
4.047266e+01 2.395833e-01 -1.773510e+00 3.992399e+00 -1.705859e+01 7.117188e+00
4.063281e+01 2.447917e-01 -1.783521e+00 4.002953e+00 -1.707812e+01 7.121094e+00
4.026562e+01 2.447917e-01 -1.794936e+00 4.015013e+00 -1.711719e+01 7.121094e+00
4.023047e+01 2.447917e-01 -1.805469e+00 4.027616e+00 -1.716016e+01 7.121094e+00
4.015625e+01 2.395833e-01 -1.816291e+00 4.038202e+00 -1.718359e+01 7.125000e+00
4.013281e+01 2.343750e-01 -1.825391e+00 4.049806e+00 -1.720703e+01 7.128906e+00
3.979688e+01 2.395833e-01 -1.837413e+00 4.062937e+00 -1.725781e+01 7.132812e+00
3.946875e+01 2.343750e-01 -1.845472e+00 4.074626e+00 -1.727734e+01 7.140625e+00
3.963672e+01 2.343750e-01 -1.854803e+00 4.086697e+00 -1.730859e+01 7.148438e+00
3.973438e+01 2.395833e-01 -1.862109e+00 4.100233e+00 -1.734766e+01 7.152344e+00
3.965625e+01 2.395833e-01 -1.872743e+00 4.114310e+00 -1.738672e+01 7.152344e+00
3.958984e+01 2.239583e-01 -1.884230e+00 4.125871e+00 -1.741797e+01 7.156250e+00
3.954297e+01 2.291667e-01 -1.895226e+00 4.138594e+00 -1.745703e+01 7.156250e+00
3.946875e+01 2.291667e-01 -1.904311e+00 4.150748e+00 -1.748047e+01 7.164062e+00
3.997656e+01 2.291667e-01 -1.911126e+00 4.163432e+00 -1.750391e+01 7.171875e+00
3.999219e+01 2.343750e-01 -1.920775e+00 4.176617e+00 -1.753906e+01 7.179688e+00
3.988281e+01 2.343750e-01 -1.932147e+00 4.189316e+00 -1.757422e+01 7.183594e+00
3.950781e+01 2.343750e-01 -1.942679e+00 4.202521e+00 -1.760938e+01 7.191406e+00
3.949219e+01 2.291667e-01 -1.950564e+00 4.214834e+00 -1.762891e+01 7.199219e+00
3.965625e+01 2.291667e-01 -1.959939e+00 4.226661e+00 -1.766016e+01 7.207031e+00
3.938672e+01 2.291667e-01 -1.971340e+00 4.238033e+00 -1.769141e+01 7.214844e+00
3.963672e+01 2.291667e-01 -1.980512e+00 4.250396e+00 -1.771875e+01 7.222656e+00
3.986719e+01 2.239583e-01 -1.989829e+00 4.262642e+00 -1.774609e+01 7.226562e+00
3.958203e+01 2.239583e-01 -2.001895e+00 4.275750e+00 -1.778906e+01 7.226562e+00
3.994922e+01 2.291667e-01 -2.012876e+00 4.287067e+00 -1.780859e+01 7.234375e+00
3.953906e+01 2.239583e-01 -2.021181e+00 4.300328e+00 -1.783984e+01 7.242188e+00
3.957031e+01 2.291667e-01 -2.030990e+00 4.314167e+00 -1.787500e+01 7.246094e+00
3.956250e+01 2.291667e-01 -2.039149e+00 4.327623e+00 -1.791016e+01 7.250000e+00
3.991406e+01 2.291667e-01 -2.045862e+00 4.340169e+00 -1.793359e+01 7.253906e+00
3.992188e+01 2.291667e-01 -2.055570e+00 4.353960e+00 -1.797266e+01 7.253906e+00
4.028516e+01 2.343750e-01 -2.065828e+00 4.367911e+00 -1.801172e+01 7.253906e+00
3.988281e+01 2.447917e-01 -2.077040e+00 4.381575e+00 -1.804688e+01 7.257812e+00
3.995703e+01 2.291667e-01 -2.084028e+00 4.391936e+00 -1.803906e+01 7.265625e+00
4.051172e+01 2.291667e-01 -2.091059e+00 4.402953e+00 -1.803125e+01 7.269531e+00
4.047656e+01 2.395833e-01 -2.102069e+00 4.414957e+00 -1.805078e+01 7.269531e+00
4.064062e+01 2.395833e-01 -2.112153e+00 4.427852e+00 -1.807031e+01 7.273438e+00
4.051172e+01 2.395833e-01 -2.121050e+00 4.441531e+00 -1.808984e+01 7.277344e+00
4.073047e+01 2.395833e-01 -2.128935e+00 4.454194e+00 -1.808594e+01 7.285156e+00
4.069531e+01 2.500000e-01 -2.138108e+00 4.468043e+00 -1.809375e+01 7.285156e+00
4.075391e+01 2.395833e-01 -2.145153e+00 4.481058e+00 -1.809375e+01 7.289062e+00
4.066406e+01 2.447917e-01 -2.155802e+00 4.494437e+00 -1.811328e+01 7.289062e+00
4.062500e+01 2.447917e-01 -2.165755e+00 4.507048e+00 -1.812500e+01 7.289062e+00
4.026953e+01 2.500000e-01 -2.176837e+00 4.520125e+00 -1.814062e+01 7.289062e+00
4.067578e+01 2.500000e-01 -2.184910e+00 4.532335e+00 -1.814844e+01 7.289062e+00
4.060547e+01 2.500000e-01 -2.192679e+00 4.543825e+00 -1.815234e+01 7.292969e+00
4.048047e+01 2.500000e-01 -2.202185e+00 4.555840e+00 -1.816406e+01 7.296875e+00
4.073047e+01 2.500000e-01 -2.210301e+00 4.567705e+00 -1.817188e+01 7.300781e+00
4.072656e+01 2.552083e-01 -2.220443e+00 4.580362e+00 -1.820312e+01 7.304688e+00
4.079297e+01 2.552083e-01 -2.229210e+00 4.591785e+00 -1.821875e+01 7.308594e+00
4.092188e+01 2.552083e-01 -2.238209e+00 4.603145e+00 -1.824219e+01 7.312500e+00
4.074219e+01 2.552083e-01 -2.248177e+00 4.614706e+00 -1.827344e+01 7.316406e+00
4.086328e+01 2.552083e-01 -2.256612e+00 4.627784e+00 -1.830469e+01 7.316406e+00
4.051562e+01 2.552083e-01 -2.265538e+00 4.640589e+00 -1.833594e+01 7.316406e+00
4.069922e+01 2.552083e-01 -2.273944e+00 4.653109e+00 -1.836719e+01 7.320312e+00
4.072656e+01 2.500000e-01 -2.283377e+00 4.665468e+00 -1.839453e+01 7.320312e+00
4.089062e+01 2.500000e-01 -2.292839e+00 4.676797e+00 -1.841797e+01 7.324219e+00
4.066016e+01 2.395833e-01 -2.300752e+00 4.688097e+00 -1.844141e+01 7.328125e+00
4.085156e+01 2.447917e-01 -2.310431e+00 4.699493e+00 -1.846875e+01 7.328125e+00
4.059766e+01 2.447917e-01 -2.320877e+00 4.710692e+00 -1.849609e+01 7.328125e+00
4.042969e+01 2.447917e-01 -2.329847e+00 4.723219e+00 -1.853516e+01 7.328125e+00
4.043359e+01 2.500000e-01 -2.339453e+00 4.735087e+00 -1.857031e+01 7.328125e+00
4.071484e+01 2.447917e-01 -2.347208e+00 4.747460e+00 -1.859766e+01 7.332031e+00
4.092188e+01 2.447917e-01 -2.356698e+00 4.759596e+00 -1.862500e+01 7.335938e+00
4.068750e+01 2.500000e-01 -2.366638e+00 4.771809e+00 -1.865625e+01 7.339844e+00
4.062500e+01 2.447917e-01 -2.376808e+00 4.783788e+00 -1.868359e+01 7.339844e+00
4.083594e+01 2.500000e-01 -2.387008e+00 4.796342e+00 -1.872656e+01 7.343750e+00
4.054688e+01 2.447917e-01 -2.395356e+00 4.807448e+00 -1.874219e+01 7.351562e+00
4.085938e+01 2.395833e-01 -2.401808e+00 4.818430e+00 -1.875781e+01 7.359375e+00
4.089844e+01 2.395833e-01 -2.410214e+00 4.829902e+00 -1.878516e+01 7.367188e+00
4.069922e+01 2.447917e-01 -2.420298e+00 4.841836e+00 -1.882422e+01 7.371094e+00
4.066797e+01 2.447917e-01 -2.430686e+00 4.852967e+00 -1.886328e+01 7.375000e+00
4.066406e+01 2.552083e-01 -2.441160e+00 4.864090e+00 -1.890234e+01 7.378906e+00
4.089844e+01 2.500000e-01 -2.450998e+00 4.873737e+00 -1.892578e+01 7.386719e+00
4.101172e+01 2.500000e-01 -2.457986e+00 4.883369e+00 -1.894141e+01 7.394531e+00
4.095703e+01 2.447917e-01 -2.466319e+00 4.894039e+00 -1.897656e+01 7.402344e+00
4.109766e+01 2.447917e-01 -2.474219e+00 4.905020e+00 -1.900781e+01 7.406250e+00
4.130859e+01 2.447917e-01 -2.486097e+00 4.916894e+00 -1.906250e+01 7.406250e+00
4.118750e+01 2.500000e-01 -2.494531e+00 4.929787e+00 -1.910156e+01 7.406250e+00
4.125000e+01 2.395833e-01 -2.501042e+00 4.942013e+00 -1.912109e+01 7.410156e+00
4.099219e+01 2.447917e-01 -2.509042e+00 4.955233e+00 -1.916016e+01 7.410156e+00
4.089062e+01 2.395833e-01 -2.517231e+00 4.968395e+00 -1.919922e+01 7.410156e+00
4.082031e+01 2.395833e-01 -2.525593e+00 4.981100e+00 -1.923828e+01 7.414062e+00
4.083203e+01 2.343750e-01 -2.533304e+00 4.993360e+00 -1.926562e+01 7.421875e+00
4.092188e+01 2.343750e-01 -2.541580e+00 5.004827e+00 -1.928516e+01 7.429688e+00
4.100391e+01 2.343750e-01 -2.549494e+00 5.016384e+00 -1.931250e+01 7.437500e+00
4.134375e+01 2.343750e-01 -2.556409e+00 5.026856e+00 -1.932422e+01 7.445312e+00
4.134766e+01 2.343750e-01 -2.566218e+00 5.038289e+00 -1.935547e+01 7.449219e+00
4.112109e+01 2.395833e-01 -2.576143e+00 5.049711e+00 -1.938281e+01 7.453125e+00
4.103125e+01 2.343750e-01 -2.583290e+00 5.061143e+00 -1.939453e+01 7.457031e+00
4.123047e+01 2.343750e-01 -2.592332e+00 5.071645e+00 -1.941016e+01 7.464844e+00
4.100000e+01 2.343750e-01 -2.600463e+00 5.082407e+00 -1.941406e+01 7.468750e+00
4.111328e+01 2.343750e-01 -2.608709e+00 5.093283e+00 -1.942188e+01 7.472656e+00
4.112500e+01 2.343750e-01 -2.617130e+00 5.104637e+00 -1.942969e+01 7.472656e+00
4.087500e+01 2.395833e-01 -2.625130e+00 5.116230e+00 -1.942578e+01 7.472656e+00
4.103516e+01 2.395833e-01 -2.633116e+00 5.127578e+00 -1.943359e+01 7.476562e+00
4.085156e+01 2.395833e-01 -2.642564e+00 5.138674e+00 -1.944141e+01 7.476562e+00
4.115625e+01 2.395833e-01 -2.650825e+00 5.148936e+00 -1.943750e+01 7.480469e+00
4.091406e+01 2.395833e-01 -2.659881e+00 5.159311e+00 -1.943750e+01 7.484375e+00
4.086719e+01 2.291667e-01 -2.667810e+00 5.169438e+00 -1.942969e+01 7.488281e+00
4.098047e+01 2.343750e-01 -2.673611e+00 5.179458e+00 -1.940234e+01 7.496094e+00
4.061328e+01 2.343750e-01 -2.680584e+00 5.189795e+00 -1.937500e+01 7.503906e+00
4.071094e+01 2.343750e-01 -2.688397e+00 5.200020e+00 -1.935938e+01 7.511719e+00
4.050000e+01 2.343750e-01 -2.696398e+00 5.210341e+00 -1.934766e+01 7.519531e+00
4.047266e+01 2.343750e-01 -2.704572e+00 5.220442e+00 -1.933984e+01 7.527344e+00
4.095312e+01 2.447917e-01 -2.713831e+00 5.231125e+00 -1.935547e+01 7.535156e+00
4.098438e+01 2.447917e-01 -2.722714e+00 5.241190e+00 -1.936328e+01 7.542969e+00
4.079688e+01 2.395833e-01 -2.730425e+00 5.251741e+00 -1.937109e+01 7.550781e+00
4.067969e+01 2.447917e-01 -2.739251e+00 5.262776e+00 -1.939062e+01 7.558594e+00
4.064062e+01 2.395833e-01 -2.747975e+00 5.274001e+00 -1.942188e+01 7.566406e+00
4.106250e+01 2.500000e-01 -2.754977e+00 5.284768e+00 -1.944141e+01 7.574219e+00
4.142188e+01 2.552083e-01 -2.764077e+00 5.295586e+00 -1.947656e+01 7.578125e+00
4.096094e+01 2.447917e-01 -2.773293e+00 5.306444e+00 -1.951172e+01 7.582031e+00
4.114453e+01 2.552083e-01 -2.781496e+00 5.316268e+00 -1.952734e+01 7.585938e+00
4.100391e+01 2.552083e-01 -2.791421e+00 5.327704e+00 -1.955859e+01 7.585938e+00
4.056641e+01 2.552083e-01 -2.800883e+00 5.338687e+00 -1.958203e+01 7.589844e+00
4.042578e+01 2.500000e-01 -2.809216e+00 5.349911e+00 -1.959766e+01 7.593750e+00
4.112500e+01 2.552083e-01 -2.813845e+00 5.360997e+00 -1.959766e+01 7.601562e+00
4.107422e+01 2.447917e-01 -2.821412e+00 5.373341e+00 -1.962109e+01 7.601562e+00
4.117969e+01 2.500000e-01 -2.829022e+00 5.385882e+00 -1.963672e+01 7.601562e+00
4.087500e+01 2.500000e-01 -2.839294e+00 5.398655e+00 -1.967578e+01 7.601562e+00
4.087500e+01 2.552083e-01 -2.848394e+00 5.409881e+00 -1.969922e+01 7.601562e+00
4.124609e+01 2.500000e-01 -2.856120e+00 5.421478e+00 -1.972656e+01 7.601562e+00
4.091016e+01 2.447917e-01 -2.863383e+00 5.433755e+00 -1.975781e+01 7.601562e+00
4.130859e+01 2.447917e-01 -2.871050e+00 5.445192e+00 -1.977734e+01 7.601562e+00
4.126172e+01 2.447917e-01 -2.879919e+00 5.456312e+00 -1.979688e+01 7.601562e+00
4.087891e+01 2.500000e-01 -2.890292e+00 5.468513e+00 -1.982031e+01 7.601562e+00
4.098047e+01 2.552083e-01 -2.898655e+00 5.479328e+00 -1.982031e+01 7.601562e+00
4.115625e+01 2.447917e-01 -2.905932e+00 5.490816e+00 -1.981641e+01 7.601562e+00
4.116016e+01 2.447917e-01 -2.914222e+00 5.500703e+00 -1.979297e+01 7.605469e+00
4.118750e+01 2.500000e-01 -2.922396e+00 5.511673e+00 -1.977734e+01 7.605469e+00
4.086328e+01 2.447917e-01 -2.930744e+00 5.523051e+00 -1.978125e+01 7.605469e+00
4.081250e+01 2.500000e-01 -2.940914e+00 5.534141e+00 -1.980078e+01 7.605469e+00
4.112500e+01 2.500000e-01 -2.949161e+00 5.543756e+00 -1.980469e+01 7.605469e+00
4.139844e+01 2.447917e-01 -2.955527e+00 5.554487e+00 -1.981250e+01 7.605469e+00
4.119141e+01 2.500000e-01 -2.965061e+00 5.567044e+00 -1.985547e+01 7.605469e+00
4.126172e+01 2.500000e-01 -2.973669e+00 5.578536e+00 -1.988672e+01 7.605469e+00
4.104688e+01 2.500000e-01 -2.983087e+00 5.590933e+00 -1.991797e+01 7.605469e+00
4.094922e+01 2.500000e-01 -2.991291e+00 5.601942e+00 -1.992969e+01 7.605469e+00
4.138281e+01 2.500000e-01 -2.999783e+00 5.612627e+00 -1.994141e+01 7.605469e+00
4.130078e+01 2.500000e-01 -3.007509e+00 5.624932e+00 -1.996484e+01 7.605469e+00
4.135547e+01 2.500000e-01 -3.016392e+00 5.635366e+00 -1.996875e+01 7.605469e+00
4.131641e+01 2.500000e-01 -3.025940e+00 5.646585e+00 -1.998047e+01 7.605469e+00
4.124609e+01 2.500000e-01 -3.033478e+00 5.657459e+00 -1.998438e+01 7.617188e+00
4.131250e+01 2.552083e-01 -3.041508e+00 5.666911e+00 -1.998438e+01 7.640625e+00
4.108594e+01 2.500000e-01 -3.051664e+00 5.677650e+00 -1.999219e+01 7.636719e+00
4.110547e+01 2.500000e-01 -3.059491e+00 5.687714e+00 -1.999219e+01 7.667969e+00
4.106641e+01 2.500000e-01 -3.066334e+00 5.698263e+00 -1.998828e+01 7.722656e+00
4.127734e+01 2.500000e-01 -3.074465e+00 5.709039e+00 -1.999609e+01 7.730469e+00
4.123438e+01 2.500000e-01 -3.083767e+00 5.720115e+00 -2.001562e+01 7.710938e+00
4.116797e+01 2.552083e-01 -3.091869e+00 5.733052e+00 -2.004297e+01 7.757812e+00
4.100781e+01 2.500000e-01 -3.097468e+00 5.744638e+00 -2.004688e+01 7.843750e+00
4.085547e+01 2.552083e-01 -3.104615e+00 5.755989e+00 -2.005078e+01 7.878906e+00
4.113281e+01 2.552083e-01 -3.112616e+00 5.766917e+00 -2.005859e+01 7.886719e+00
4.114844e+01 2.552083e-01 -3.120226e+00 5.778392e+00 -2.006250e+01 7.910156e+00
4.111719e+01 2.552083e-01 -3.128125e+00 5.790379e+00 -2.007812e+01 7.957031e+00
4.101562e+01 2.500000e-01 -3.138035e+00 5.802072e+00 -2.010547e+01 7.964844e+00
4.115234e+01 2.500000e-01 -3.147425e+00 5.814735e+00 -2.013672e+01 7.996094e+00
4.087500e+01 2.447917e-01 -3.155136e+00 5.826759e+00 -2.014844e+01 8.054688e+00
4.083203e+01 2.500000e-01 -3.163961e+00 5.839209e+00 -2.017969e+01 8.089844e+00
4.097656e+01 2.500000e-01 -3.172729e+00 5.852085e+00 -2.021094e+01 8.132812e+00
4.116797e+01 2.500000e-01 -3.182885e+00 5.864478e+00 -2.023828e+01 8.136719e+00
4.090234e+01 2.500000e-01 -3.190885e+00 5.876281e+00 -2.025000e+01 8.179688e+00
4.099219e+01 2.447917e-01 -3.197251e+00 5.887530e+00 -2.025000e+01 8.246094e+00
4.105859e+01 2.500000e-01 -3.205584e+00 5.899121e+00 -2.025781e+01 8.261719e+00
4.134375e+01 2.395833e-01 -3.216175e+00 5.910280e+00 -2.027734e+01 8.238281e+00
4.137500e+01 2.395833e-01 -3.224219e+00 5.922416e+00 -2.029688e+01 8.273438e+00
4.114453e+01 2.395833e-01 -3.232465e+00 5.934192e+00 -2.031641e+01 8.296875e+00
4.118750e+01 2.395833e-01 -3.239728e+00 5.946727e+00 -2.033594e+01 8.363281e+00
4.156641e+01 2.395833e-01 -3.250680e+00 5.958681e+00 -2.036719e+01 8.351562e+00
4.111719e+01 2.447917e-01 -3.259563e+00 5.971097e+00 -2.039062e+01 8.402344e+00
4.083594e+01 2.395833e-01 -3.267303e+00 5.982626e+00 -2.040234e+01 8.449219e+00
4.058594e+01 2.500000e-01 -3.272483e+00 5.993170e+00 -2.039453e+01 8.539062e+00
4.058984e+01 2.500000e-01 -3.279311e+00 6.004487e+00 -2.040625e+01 8.582031e+00
4.075000e+01 2.447917e-01 -3.288339e+00 6.015625e+00 -2.041797e+01 8.593750e+00
4.054297e+01 2.500000e-01 -3.301447e+00 6.027261e+00 -2.045703e+01 8.507812e+00
4.053906e+01 2.500000e-01 -3.311863e+00 6.039063e+00 -2.048047e+01 8.472656e+00
4.002344e+01 2.500000e-01 -3.320009e+00 6.051252e+00 -2.049609e+01 8.507812e+00
4.037891e+01 2.447917e-01 -3.323597e+00 6.063197e+00 -2.048828e+01 8.652344e+00
4.030078e+01 2.395833e-01 -3.328979e+00 6.074586e+00 -2.047656e+01 8.718750e+00
4.053906e+01 2.395833e-01 -3.336719e+00 6.084921e+00 -2.048047e+01 8.710938e+00
4.040625e+01 2.447917e-01 -3.348394e+00 6.096297e+00 -2.051562e+01 8.699219e+00
4.030078e+01 2.447917e-01 -3.361675e+00 6.107968e+00 -2.056250e+01 8.628906e+00
4.003125e+01 2.447917e-01 -3.371947e+00 6.119815e+00 -2.059375e+01 8.625000e+00
4.022656e+01 2.395833e-01 -3.380382e+00 6.132262e+00 -2.061328e+01 8.687500e+00
4.016406e+01 2.343750e-01 -3.385561e+00 6.145159e+00 -2.062109e+01 8.812500e+00
4.032031e+01 2.291667e-01 -3.390639e+00 6.158022e+00 -2.064062e+01 8.925781e+00
4.025391e+01 2.447917e-01 -3.397960e+00 6.169964e+00 -2.066016e+01 8.957031e+00
4.050781e+01 2.447917e-01 -3.406901e+00 6.182479e+00 -2.069141e+01 8.988281e+00
4.035938e+01 2.395833e-01 -3.418576e+00 6.193608e+00 -2.072656e+01 8.925781e+00
4.022266e+01 2.447917e-01 -3.430613e+00 6.205057e+00 -2.076562e+01 8.851562e+00
4.054688e+01 2.447917e-01 -3.439497e+00 6.217437e+00 -2.079688e+01 8.875000e+00
4.046875e+01 2.447917e-01 -3.447960e+00 6.229485e+00 -2.082812e+01 8.902344e+00
4.046094e+01 2.447917e-01 -3.456944e+00 6.242101e+00 -2.085547e+01 8.949219e+00
4.048438e+01 2.447917e-01 -3.465770e+00 6.253917e+00 -2.086719e+01 8.988281e+00
4.011719e+01 2.447917e-01 -3.474320e+00 6.266357e+00 -2.088672e+01 9.027344e+00
4.015234e+01 2.552083e-01 -3.483955e+00 6.278051e+00 -2.090625e+01 9.031250e+00
4.000781e+01 2.447917e-01 -3.493273e+00 6.290534e+00 -2.093750e+01 9.054688e+00
3.954688e+01 2.447917e-01 -3.503356e+00 6.302515e+00 -2.096484e+01 9.078125e+00
3.959375e+01 2.447917e-01 -3.512847e+00 6.314638e+00 -2.099609e+01 9.101562e+00
3.988281e+01 2.552083e-01 -3.522266e+00 6.326478e+00 -2.102344e+01 9.113281e+00
3.985938e+01 2.552083e-01 -3.529716e+00 6.339437e+00 -2.105078e+01 9.175781e+00
3.968750e+01 2.552083e-01 -3.538947e+00 6.351918e+00 -2.108594e+01 9.191406e+00
3.968750e+01 2.552083e-01 -3.548003e+00 6.364169e+00 -2.111328e+01 9.214844e+00
3.978906e+01 2.552083e-01 -3.556322e+00 6.377685e+00 -2.114844e+01 9.277344e+00
3.978516e+01 2.500000e-01 -3.568403e+00 6.389687e+00 -2.117969e+01 9.246094e+00
3.974219e+01 2.500000e-01 -3.578429e+00 6.401735e+00 -2.120703e+01 9.261719e+00
3.982422e+01 2.552083e-01 -3.585576e+00 6.415464e+00 -2.123438e+01 9.343750e+00
3.975781e+01 2.552083e-01 -3.594430e+00 6.428245e+00 -2.126172e+01 9.382812e+00
3.982031e+01 2.604167e-01 -3.602749e+00 6.442070e+00 -2.130078e+01 9.410156e+00
4.021484e+01 2.552083e-01 -3.609129e+00 6.455007e+00 -2.131641e+01 9.453125e+00
4.024609e+01 2.552083e-01 -3.618649e+00 6.468599e+00 -2.135547e+01 9.468750e+00
4.044531e+01 2.656250e-01 -3.628964e+00 6.482120e+00 -2.139453e+01 9.457031e+00
4.019141e+01 2.552083e-01 -3.639887e+00 6.495092e+00 -2.142969e+01 9.433594e+00
4.012109e+01 2.552083e-01 -3.648090e+00 6.508871e+00 -2.146094e+01 9.500000e+00
4.000781e+01 2.552083e-01 -3.654832e+00 6.522653e+00 -2.148438e+01 9.593750e+00
3.982812e+01 2.552083e-01 -3.662008e+00 6.536242e+00 -2.150781e+01 9.652344e+00
3.960547e+01 2.552083e-01 -3.672671e+00 6.549419e+00 -2.154688e+01 9.636719e+00
4.023047e+01 2.552083e-01 -3.683738e+00 6.560648e+00 -2.157031e+01 9.601562e+00
4.025391e+01 2.552083e-01 -3.691565e+00 6.572050e+00 -2.157812e+01 9.675781e+00
4.003125e+01 2.552083e-01 -3.699711e+00 6.584459e+00 -2.159375e+01 9.746094e+00
3.995312e+01 2.604167e-01 -3.708131e+00 6.596064e+00 -2.160547e+01 9.785156e+00
4.004688e+01 2.604167e-01 -3.719502e+00 6.608840e+00 -2.164453e+01 9.789062e+00
3.999609e+01 2.500000e-01 -3.729630e+00 6.621226e+00 -2.167969e+01 9.808594e+00
4.057812e+01 2.500000e-01 -3.741218e+00 6.632612e+00 -2.171094e+01 9.769531e+00
4.026172e+01 2.604167e-01 -3.749132e+00 6.644637e+00 -2.172656e+01 9.824219e+00
4.021875e+01 2.604167e-01 -3.757350e+00 6.657150e+00 -2.174609e+01 9.875000e+00
4.004297e+01 2.500000e-01 -3.766059e+00 6.669696e+00 -2.177344e+01 9.921875e+00
4.020312e+01 2.500000e-01 -3.775825e+00 6.683454e+00 -2.182031e+01 9.968750e+00
4.013672e+01 2.500000e-01 -3.785851e+00 6.695780e+00 -2.185156e+01 1.000000e+01
4.018750e+01 2.500000e-01 -3.795269e+00 6.708303e+00 -2.188281e+01 1.003906e+01
4.018750e+01 2.500000e-01 -3.802749e+00 6.721332e+00 -2.189844e+01 1.012891e+01
4.019141e+01 2.500000e-01 -3.808594e+00 6.734582e+00 -2.191406e+01 1.023047e+01
4.032812e+01 2.500000e-01 -3.816956e+00 6.746936e+00 -2.193359e+01 1.026172e+01
4.021094e+01 2.500000e-01 -3.828689e+00 6.758626e+00 -2.196484e+01 1.021875e+01
4.051953e+01 2.500000e-01 -3.837717e+00 6.771173e+00 -2.199219e+01 1.022656e+01
4.038281e+01 2.500000e-01 -3.846441e+00 6.783401e+00 -2.200781e+01 1.025781e+01
4.046875e+01 2.552083e-01 -3.855382e+00 6.796091e+00 -2.203516e+01 1.028516e+01
4.038281e+01 2.500000e-01 -3.862254e+00 6.810050e+00 -2.206250e+01 1.038281e+01
4.020312e+01 2.500000e-01 -3.870660e+00 6.822923e+00 -2.208984e+01 1.041406e+01
4.024609e+01 2.552083e-01 -3.879933e+00 6.834638e+00 -2.210547e+01 1.041797e+01
4.023047e+01 2.604167e-01 -3.889323e+00 6.846810e+00 -2.213672e+01 1.041797e+01
4.024609e+01 2.604167e-01 -3.898799e+00 6.859214e+00 -2.216797e+01 1.043750e+01
4.019922e+01 2.552083e-01 -3.906236e+00 6.872115e+00 -2.219141e+01 1.050391e+01
4.030078e+01 2.552083e-01 -3.915336e+00 6.884688e+00 -2.222266e+01 1.053125e+01
4.047266e+01 2.552083e-01 -3.922020e+00 6.897231e+00 -2.223438e+01 1.060938e+01
4.034766e+01 2.500000e-01 -3.930006e+00 6.909297e+00 -2.224609e+01 1.063281e+01
4.044141e+01 2.500000e-01 -3.938961e+00 6.921866e+00 -2.226953e+01 1.064453e+01
4.054688e+01 2.552083e-01 -3.948307e+00 6.933845e+00 -2.228906e+01 1.063672e+01
4.067188e+01 2.552083e-01 -3.955903e+00 6.946906e+00 -2.232031e+01 1.067969e+01
4.049609e+01 2.500000e-01 -3.964627e+00 6.959183e+00 -2.235156e+01 1.069531e+01
4.066797e+01 2.500000e-01 -3.972960e+00 6.972467e+00 -2.238672e+01 1.073047e+01
4.050391e+01 2.500000e-01 -3.980830e+00 6.985832e+00 -2.241016e+01 1.078125e+01
4.016016e+01 2.291667e-01 -3.987876e+00 6.999340e+00 -2.243359e+01 1.083984e+01
4.020703e+01 2.291667e-01 -3.996484e+00 7.012690e+00 -2.246875e+01 1.085156e+01
4.024219e+01 2.395833e-01 -4.005715e+00 7.025247e+00 -2.249609e+01 1.086328e+01
4.016016e+01 2.395833e-01 -4.017332e+00 7.037473e+00 -2.252734e+01 1.079297e+01
4.042969e+01 2.395833e-01 -4.026331e+00 7.050733e+00 -2.255469e+01 1.080078e+01
4.023047e+01 2.500000e-01 -4.033435e+00 7.064263e+00 -2.257812e+01 1.088672e+01
4.018750e+01 2.500000e-01 -4.043750e+00 7.077795e+00 -2.262109e+01 1.088281e+01
4.039844e+01 2.552083e-01 -4.052271e+00 7.091843e+00 -2.265625e+01 1.092188e+01
4.027734e+01 2.500000e-01 -4.057726e+00 7.107611e+00 -2.269141e+01 1.104297e+01
3.996484e+01 2.500000e-01 -4.066059e+00 7.121911e+00 -2.273047e+01 1.108203e+01
4.003516e+01 2.500000e-01 -4.075217e+00 7.136457e+00 -2.277344e+01 1.110547e+01
4.006250e+01 2.447917e-01 -4.084071e+00 7.150575e+00 -2.280469e+01 1.110547e+01
3.998047e+01 2.500000e-01 -4.093287e+00 7.165078e+00 -2.283984e+01 1.111719e+01
3.998047e+01 2.447917e-01 -4.102271e+00 7.178530e+00 -2.285938e+01 1.110547e+01
4.013281e+01 2.447917e-01 -4.106727e+00 7.193763e+00 -2.288281e+01 1.119922e+01
4.063281e+01 2.500000e-01 -4.114468e+00 7.206285e+00 -2.289844e+01 1.118359e+01
4.046094e+01 2.500000e-01 -4.125391e+00 7.219839e+00 -2.294922e+01 1.113281e+01
4.026172e+01 2.447917e-01 -4.133912e+00 7.234194e+00 -2.298828e+01 1.114844e+01
3.998047e+01 2.500000e-01 -4.143475e+00 7.248626e+00 -2.302734e+01 1.116016e+01
4.050000e+01 2.447917e-01 -4.150825e+00 7.262717e+00 -2.305859e+01 1.123828e+01
4.038672e+01 2.500000e-01 -4.158970e+00 7.277106e+00 -2.308984e+01 1.129297e+01
4.045312e+01 2.500000e-01 -4.168417e+00 7.291156e+00 -2.312109e+01 1.132031e+01
4.036328e+01 2.500000e-01 -4.177054e+00 7.304507e+00 -2.313672e+01 1.133594e+01
4.067188e+01 2.552083e-01 -4.184968e+00 7.318753e+00 -2.316016e+01 1.138672e+01
4.064453e+01 2.552083e-01 -4.193027e+00 7.332609e+00 -2.318359e+01 1.141797e+01
4.062891e+01 2.552083e-01 -4.202112e+00 7.346196e+00 -2.321094e+01 1.141797e+01
4.074609e+01 2.500000e-01 -4.212326e+00 7.359134e+00 -2.323828e+01 1.139453e+01
4.105078e+01 2.552083e-01 -4.218996e+00 7.372136e+00 -2.324219e+01 1.145312e+01
4.127344e+01 2.604167e-01 -4.227778e+00 7.384393e+00 -2.325391e+01 1.141016e+01
4.098047e+01 2.552083e-01 -4.235648e+00 7.397774e+00 -2.327344e+01 1.144922e+01
4.103125e+01 2.604167e-01 -4.244618e+00 7.410752e+00 -2.330078e+01 1.143750e+01
4.114453e+01 2.604167e-01 -4.252387e+00 7.424612e+00 -2.333594e+01 1.147656e+01
4.140234e+01 2.656250e-01 -4.259230e+00 7.439350e+00 -2.337109e+01 1.155859e+01
4.130859e+01 2.604167e-01 -4.269647e+00 7.452665e+00 -2.340625e+01 1.157031e+01
4.118359e+01 2.604167e-01 -4.279355e+00 7.465504e+00 -2.343750e+01 1.157812e+01
4.120703e+01 2.604167e-01 -4.288513e+00 7.478362e+00 -2.346875e+01 1.159766e+01
4.125000e+01 2.604167e-01 -4.294719e+00 7.492356e+00 -2.349219e+01 1.168359e+01
4.113281e+01 2.604167e-01 -4.304832e+00 7.505226e+00 -2.353125e+01 1.167188e+01
4.112891e+01 2.604167e-01 -4.314670e+00 7.518556e+00 -2.357031e+01 1.169141e+01
4.096484e+01 2.552083e-01 -4.323047e+00 7.530869e+00 -2.358594e+01 1.170703e+01
4.110938e+01 2.604167e-01 -4.329355e+00 7.543842e+00 -2.360547e+01 1.176953e+01
4.100781e+01 2.604167e-01 -4.338137e+00 7.556158e+00 -2.363672e+01 1.176953e+01
4.104297e+01 2.552083e-01 -4.346933e+00 7.568218e+00 -2.366406e+01 1.175391e+01
4.091016e+01 2.552083e-01 -4.356264e+00 7.580870e+00 -2.369922e+01 1.173047e+01
4.116797e+01 2.500000e-01 -4.362500e+00 7.593591e+00 -2.371094e+01 1.178516e+01
4.102734e+01 2.447917e-01 -4.369690e+00 7.606417e+00 -2.373047e+01 1.182031e+01
4.114453e+01 2.500000e-01 -4.377011e+00 7.620102e+00 -2.375781e+01 1.186328e+01
4.108203e+01 2.500000e-01 -4.383955e+00 7.633177e+00 -2.378125e+01 1.188672e+01
4.088281e+01 2.447917e-01 -4.392954e+00 7.646284e+00 -2.381641e+01 1.186328e+01
4.105859e+01 2.552083e-01 -4.400694e+00 7.659652e+00 -2.384375e+01 1.187500e+01
4.117188e+01 2.552083e-01 -4.407161e+00 7.673421e+00 -2.386328e+01 1.192969e+01
4.122656e+01 2.552083e-01 -4.415958e+00 7.686941e+00 -2.389062e+01 1.192969e+01
4.118359e+01 2.500000e-01 -4.425448e+00 7.698619e+00 -2.389844e+01 1.185547e+01
4.118750e+01 2.500000e-01 -4.433304e+00 7.711249e+00 -2.389844e+01 1.185938e+01
4.071484e+01 2.500000e-01 -4.442506e+00 7.723965e+00 -2.390625e+01 1.186328e+01
4.076562e+01 2.500000e-01 -4.449074e+00 7.737029e+00 -2.389844e+01 1.191406e+01
4.075781e+01 2.500000e-01 -4.456800e+00 7.749761e+00 -2.389844e+01 1.192969e+01
4.074609e+01 2.447917e-01 -4.464858e+00 7.763381e+00 -2.391406e+01 1.196875e+01
4.055469e+01 2.500000e-01 -4.471803e+00 7.777156e+00 -2.392188e+01 1.202344e+01
4.075391e+01 2.447917e-01 -4.481019e+00 7.790276e+00 -2.392578e+01 1.201953e+01
4.085547e+01 2.447917e-01 -4.490003e+00 7.802866e+00 -2.392578e+01 1.198828e+01
4.069531e+01 2.447917e-01 -4.497512e+00 7.816067e+00 -2.391406e+01 1.201172e+01
4.078125e+01 2.500000e-01 -4.505367e+00 7.829614e+00 -2.391016e+01 1.202734e+01
4.089453e+01 2.552083e-01 -4.513166e+00 7.842722e+00 -2.390234e+01 1.206641e+01
4.066016e+01 2.552083e-01 -4.520211e+00 7.855571e+00 -2.388672e+01 1.208203e+01
4.064844e+01 2.552083e-01 -4.528009e+00 7.868237e+00 -2.387109e+01 1.209375e+01
4.060938e+01 2.500000e-01 -4.538339e+00 7.879803e+00 -2.385156e+01 1.206641e+01
4.080078e+01 2.500000e-01 -4.547121e+00 7.892061e+00 -2.383203e+01 1.208984e+01
4.084766e+01 2.552083e-01 -4.552199e+00 7.905285e+00 -2.379688e+01 1.220312e+01
