9.000000e-01 9.990000e-01
1.189864e-23 6.057726e-01
1.573084e-46 3.673277e-01
2.079729e-69 2.227398e-01
2.749549e-92 1.350647e-01
3.635098e-115 8.190041e-02
4.805857e-138 4.966268e-02
6.353683e-161 3.011440e-02
8.400019e-184 1.826074e-02
1.110542e-206 1.107293e-02
1.468215e-229 6.714391e-03
1.941084e-252 4.071465e-03
2.566251e-275 2.468851e-03
3.392766e-298 1.497059e-03
4.486116e-321 9.077851e-04
2.470328e-323 5.504618e-04
2.470328e-323 3.337884e-04
2.470328e-323 2.024023e-04
2.470328e-323 1.227325e-04
2.470328e-323 7.442239e-05
2.470328e-323 4.512817e-05
2.470328e-323 2.736477e-05
2.470328e-323 1.659342e-05
2.470328e-323 1.006190e-05
2.470328e-323 6.101326e-06
2.470328e-323 3.699715e-06
2.470328e-323 2.243429e-06
2.470328e-323 1.360368e-06
2.470328e-323 8.248988e-07
2.470328e-323 5.002012e-07
2.470328e-323 3.033115e-07
2.470328e-323 1.839217e-07
