8.999023e-01 9.987793e-01
9.765625e-04 4.553223e-01
9.765625e-04 2.304688e-01
9.765625e-04 1.083984e-01
9.765625e-04 6.250000e-02
9.765625e-04 6.250000e-02
9.765625e-04 6.250000e-02
9.765625e-04 6.250000e-02
9.765625e-04 6.250000e-02
9.765625e-04 6.250000e-02
9.765625e-04 6.250000e-02
9.765625e-04 6.250000e-02
9.765625e-04 6.250000e-02
9.765625e-04 6.250000e-02
9.765625e-04 6.250000e-02
9.765625e-04 6.250000e-02
9.765625e-04 6.250000e-02
9.765625e-04 6.250000e-02
9.765625e-04 6.250000e-02
9.765625e-04 6.250000e-02
9.765625e-04 6.250000e-02
9.765625e-04 6.250000e-02
