1.021680e+02 4.217391e-01 -2.126736e-02 5.688603e-01 -9.960938e-01 9.960938e-01
7.092969e+01 4.130435e-01 -2.177166e-02 5.647511e-01 -1.089844e+00 1.058594e+00
7.073438e+01 4.217391e-01 -2.159392e-02 5.646520e-01 -1.089844e+00 1.058594e+00
7.041797e+01 3.086957e-01 -2.313368e-02 5.666326e-01 -1.089844e+00 1.210938e+00
6.876172e+01 3.043478e-01 -2.503514e-02 5.692577e-01 -1.085938e+00 1.210938e+00
6.657812e+01 3.434783e-01 -2.498140e-02 5.724867e-01 -1.097656e+00 1.253906e+00
5.945312e+01 2.869565e-01 -2.514674e-02 5.850568e-01 -1.378906e+00 1.410156e+00
4.783203e+01 2.217391e-01 -3.372603e-02 6.142334e-01 -1.449219e+00 1.496094e+00
4.602734e+01 2.173913e-01 -3.892816e-02 6.271703e-01 -1.515625e+00 1.511719e+00
4.396094e+01 2.130435e-01 -4.015584e-02 6.327683e-01 -1.558594e+00 1.613281e+00
4.182031e+01 2.043478e-01 -5.292865e-02 6.472581e-01 -1.703125e+00 1.796875e+00
4.262500e+01 2.043478e-01 -5.397859e-02 6.487379e-01 -1.691406e+00 1.781250e+00
4.248047e+01 2.260870e-01 -5.264344e-02 6.505028e-01 -1.714844e+00 1.828125e+00
4.524219e+01 2.173913e-01 -4.681506e-02 6.927684e-01 -1.871094e+00 2.246094e+00
4.104688e+01 2.130435e-01 -7.318122e-02 6.793859e-01 -1.902344e+00 1.839844e+00
4.095703e+01 2.130435e-01 -7.396660e-02 6.800260e-01 -1.902344e+00 1.824219e+00
4.039844e+01 2.086957e-01 -7.407614e-02 6.798484e-01 -1.902344e+00 1.828125e+00
4.025781e+01 2.043478e-01 -7.408234e-02 6.793093e-01 -1.886719e+00 1.832031e+00
4.267969e+01 2.217391e-01 -7.546503e-02 6.796491e-01 -1.921875e+00 1.800781e+00
4.087500e+01 2.086957e-01 -7.711847e-02 6.785084e-01 -1.953125e+00 1.820312e+00
3.962109e+01 2.043478e-01 -8.333747e-02 6.788675e-01 -1.925781e+00 1.828125e+00
4.003516e+01 2.000000e-01 -7.760003e-02 7.078201e-01 -2.074219e+00 1.882812e+00
4.098438e+01 2.130435e-01 -6.625124e-02 6.967271e-01 -1.875000e+00 1.824219e+00
4.093750e+01 2.130435e-01 -6.982060e-02 6.959421e-01 -1.906250e+00 1.804688e+00
4.230078e+01 2.217391e-01 -7.002108e-02 6.968958e-01 -1.929688e+00 1.792969e+00
4.047656e+01 2.086957e-01 -7.088294e-02 6.984496e-01 -1.929688e+00 1.804688e+00
4.013672e+01 1.913043e-01 -7.208995e-02 6.995627e-01 -1.937500e+00 1.808594e+00
4.025000e+01 2.130435e-01 -7.254051e-02 7.007314e-01 -1.937500e+00 1.808594e+00
3.922266e+01 1.913043e-01 -7.186467e-02 7.024005e-01 -1.960938e+00 1.824219e+00
3.951172e+01 1.956522e-01 -7.226149e-02 7.028092e-01 -1.968750e+00 1.824219e+00
3.948828e+01 2.043478e-01 -7.294147e-02 7.029117e-01 -1.968750e+00 1.816406e+00
4.005469e+01 2.000000e-01 -7.389426e-02 7.027021e-01 -1.964844e+00 1.800781e+00
3.921875e+01 2.000000e-01 -7.394593e-02 7.025970e-01 -1.968750e+00 1.804688e+00
3.986328e+01 2.130435e-01 -7.404101e-02 7.025905e-01 -1.968750e+00 1.804688e+00
3.985156e+01 2.130435e-01 -7.427042e-02 7.025306e-01 -1.964844e+00 1.800781e+00
4.118359e+01 1.956522e-01 -7.551257e-02 7.021873e-01 -1.953125e+00 1.781250e+00
3.958984e+01 2.130435e-01 -7.593419e-02 7.016353e-01 -1.953125e+00 1.789062e+00
3.991797e+01 2.043478e-01 -7.722181e-02 7.018516e-01 -1.945312e+00 1.781250e+00
3.977344e+01 1.956522e-01 -7.608094e-02 7.022826e-01 -1.968750e+00 1.789062e+00
3.948438e+01 2.130435e-01 -7.652530e-02 7.021490e-01 -1.968750e+00 1.796875e+00
3.946875e+01 2.086957e-01 -7.674231e-02 7.019698e-01 -1.957031e+00 1.796875e+00
3.967578e+01 2.260870e-01 -7.731481e-02 6.996975e-01 -1.953125e+00 1.789062e+00
4.122656e+01 1.956522e-01 -7.819114e-02 6.995786e-01 -1.937500e+00 1.816406e+00
4.061328e+01 1.869565e-01 -7.845569e-02 6.985195e-01 -1.933594e+00 1.808594e+00
3.917578e+01 1.913043e-01 -7.986524e-02 6.978250e-01 -1.929688e+00 1.812500e+00
3.924219e+01 1.913043e-01 -7.994792e-02 6.979149e-01 -1.929688e+00 1.816406e+00
4.018750e+01 1.913043e-01 -7.993758e-02 6.989407e-01 -1.933594e+00 1.832031e+00
3.979688e+01 1.956522e-01 -7.996858e-02 6.990736e-01 -1.933594e+00 1.832031e+00
3.825000e+01 1.956522e-01 -7.959243e-02 6.978487e-01 -1.937500e+00 1.808594e+00
3.880859e+01 1.782609e-01 -7.887318e-02 6.992955e-01 -1.957031e+00 1.820312e+00
3.928906e+01 2.043478e-01 -7.998925e-02 7.012159e-01 -1.976562e+00 1.863281e+00
4.037109e+01 1.826087e-01 -8.172950e-02 7.007899e-01 -1.964844e+00 1.867188e+00
4.004688e+01 1.869565e-01 -8.242187e-02 6.993313e-01 -1.949219e+00 1.847656e+00
3.929297e+01 1.956522e-01 -8.256242e-02 6.989165e-01 -1.949219e+00 1.839844e+00
3.881641e+01 2.043478e-01 -8.231233e-02 6.989421e-01 -1.957031e+00 1.832031e+00
3.921094e+01 2.043478e-01 -8.208912e-02 6.995499e-01 -1.957031e+00 1.839844e+00
4.131641e+01 1.782609e-01 -8.389137e-02 7.005358e-01 -1.964844e+00 1.886719e+00
3.951172e+01 1.956522e-01 -8.330233e-02 7.014263e-01 -1.976562e+00 1.886719e+00
3.942969e+01 2.000000e-01 -8.311012e-02 7.016810e-01 -1.976562e+00 1.875000e+00
4.020312e+01 1.826087e-01 -8.164889e-02 7.016424e-01 -1.996094e+00 1.847656e+00
3.886719e+01 2.000000e-01 -8.180804e-02 7.023000e-01 -2.007812e+00 1.886719e+00
4.076953e+01 2.043478e-01 -7.342097e-02 7.059931e-01 -1.976562e+00 1.890625e+00
4.070312e+01 1.956522e-01 -7.377232e-02 7.058892e-01 -2.015625e+00 1.875000e+00
3.853516e+01 1.956522e-01 -7.651083e-02 7.070410e-01 -2.007812e+00 1.917969e+00
3.920312e+01 1.956522e-01 -7.832961e-02 7.075876e-01 -1.992188e+00 1.898438e+00
3.819922e+01 1.956522e-01 -7.833788e-02 7.074210e-01 -1.996094e+00 1.882812e+00
3.940234e+01 2.000000e-01 -8.022693e-02 7.068197e-01 -1.984375e+00 1.890625e+00
3.893359e+01 1.956522e-01 -8.015666e-02 7.066800e-01 -1.984375e+00 1.890625e+00
3.878125e+01 1.956522e-01 -8.058449e-02 7.057684e-01 -1.984375e+00 1.878906e+00
4.016016e+01 1.913043e-01 -8.667741e-02 7.076708e-01 -1.980469e+00 1.835938e+00
4.037891e+01 1.869565e-01 -8.755167e-02 7.095123e-01 -1.980469e+00 1.835938e+00
4.031250e+01 1.869565e-01 -8.755994e-02 7.094536e-01 -1.980469e+00 1.835938e+00
3.887500e+01 1.913043e-01 -8.643146e-02 7.096587e-01 -1.992188e+00 1.843750e+00
3.952734e+01 1.869565e-01 -8.682209e-02 7.100883e-01 -1.984375e+00 1.835938e+00
3.936719e+01 1.782609e-01 -8.662574e-02 7.106297e-01 -1.984375e+00 1.835938e+00
3.928125e+01 1.826087e-01 -8.710111e-02 7.119493e-01 -1.988281e+00 1.847656e+00
3.916016e+01 1.956522e-01 -8.570188e-02 7.120662e-01 -2.007812e+00 1.835938e+00
3.887109e+01 1.782609e-01 -8.632192e-02 7.114526e-01 -2.023438e+00 1.839844e+00
3.901562e+01 1.913043e-01 -8.788856e-02 7.120908e-01 -2.054688e+00 1.824219e+00
3.769531e+01 1.913043e-01 -8.074157e-02 7.142886e-01 -2.011719e+00 1.832031e+00
3.773828e+01 1.869565e-01 -8.057622e-02 7.144771e-01 -2.015625e+00 1.828125e+00
3.806250e+01 1.956522e-01 -8.103712e-02 7.151098e-01 -2.015625e+00 1.832031e+00
3.822656e+01 1.956522e-01 -8.211392e-02 7.155127e-01 -2.011719e+00 1.832031e+00
3.829688e+01 2.000000e-01 -8.236814e-02 7.161929e-01 -2.019531e+00 1.835938e+00
3.798828e+01 1.956522e-01 -8.274636e-02 7.164087e-01 -2.015625e+00 1.828125e+00
3.796484e+01 2.000000e-01 -8.280837e-02 7.163894e-01 -2.015625e+00 1.828125e+00
3.844922e+01 1.956522e-01 -8.291377e-02 7.164068e-01 -2.015625e+00 1.832031e+00
3.878906e+01 1.782609e-01 -8.472636e-02 7.252896e-01 -2.054688e+00 1.964844e+00
3.816406e+01 1.913043e-01 -8.461475e-02 7.256141e-01 -2.054688e+00 1.964844e+00
3.825000e+01 1.869565e-01 -9.003803e-02 7.195732e-01 -2.066406e+00 1.875000e+00
3.829688e+01 1.913043e-01 -9.005250e-02 7.198909e-01 -2.062500e+00 1.871094e+00
3.796484e+01 1.913043e-01 -8.967014e-02 7.206723e-01 -2.070312e+00 1.863281e+00
3.870703e+01 1.913043e-01 -9.432870e-02 7.203142e-01 -2.062500e+00 1.878906e+00
3.858984e+01 1.739130e-01 -9.521123e-02 7.210078e-01 -2.066406e+00 1.847656e+00
3.807031e+01 1.869565e-01 -9.383474e-02 7.211402e-01 -2.085938e+00 1.851562e+00
3.791406e+01 1.913043e-01 -9.448371e-02 7.215993e-01 -2.082031e+00 1.855469e+00
3.802734e+01 1.956522e-01 -9.434524e-02 7.220827e-01 -2.078125e+00 1.855469e+00
3.792578e+01 1.869565e-01 -9.528150e-02 7.245913e-01 -2.113281e+00 1.882812e+00
3.911719e+01 1.695652e-01 -9.636657e-02 7.256532e-01 -2.105469e+00 1.898438e+00
3.835938e+01 1.826087e-01 -9.599661e-02 7.289304e-01 -2.132812e+00 1.921875e+00
3.999219e+01 1.652174e-01 -9.245412e-02 7.302408e-01 -2.132812e+00 1.921875e+00
3.837891e+01 1.869565e-01 -9.313409e-02 7.307362e-01 -2.128906e+00 1.921875e+00
3.857812e+01 1.826087e-01 -9.355985e-02 7.306989e-01 -2.128906e+00 1.898438e+00
3.860547e+01 1.826087e-01 -9.427290e-02 7.305906e-01 -2.128906e+00 1.894531e+00
3.896875e+01 1.695652e-01 -9.505622e-02 7.307362e-01 -2.132812e+00 1.890625e+00
3.932031e+01 1.695652e-01 -9.519676e-02 7.308092e-01 -2.132812e+00 1.890625e+00
3.900000e+01 1.695652e-01 -9.539931e-02 7.308525e-01 -2.132812e+00 1.890625e+00
3.912500e+01 1.739130e-01 -9.564319e-02 7.303095e-01 -2.136719e+00 1.882812e+00
3.868750e+01 1.869565e-01 -1.030465e-01 7.299511e-01 -2.171875e+00 1.917969e+00
3.866797e+01 1.782609e-01 -1.056176e-01 7.315589e-01 -2.171875e+00 1.917969e+00
3.882422e+01 1.913043e-01 -1.054191e-01 7.336337e-01 -2.187500e+00 1.925781e+00
3.860156e+01 1.782609e-01 -1.051360e-01 7.351360e-01 -2.199219e+00 1.925781e+00
3.864453e+01 1.913043e-01 -1.048446e-01 7.357941e-01 -2.203125e+00 1.925781e+00
3.858984e+01 1.826087e-01 -1.044808e-01 7.361064e-01 -2.203125e+00 1.933594e+00
3.877344e+01 1.782609e-01 -1.046358e-01 7.363790e-01 -2.210938e+00 1.933594e+00
3.937891e+01 1.869565e-01 -1.061653e-01 7.448799e-01 -2.242188e+00 1.933594e+00
3.891016e+01 1.869565e-01 -1.064835e-01 7.449181e-01 -2.242188e+00 1.929688e+00
3.820312e+01 1.782609e-01 -1.057354e-01 7.461369e-01 -2.253906e+00 1.921875e+00
3.805078e+01 1.956522e-01 -1.051009e-01 7.469338e-01 -2.257812e+00 1.914062e+00
3.784375e+01 1.869565e-01 -1.051381e-01 7.470888e-01 -2.261719e+00 1.914062e+00
3.846094e+01 1.739130e-01 -1.056506e-01 7.478880e-01 -2.257812e+00 1.917969e+00
4.126953e+01 1.913043e-01 -1.033110e-01 7.519755e-01 -2.289062e+00 1.968750e+00
3.925000e+01 1.869565e-01 -1.000847e-01 7.565968e-01 -2.300781e+00 1.949219e+00
4.079688e+01 1.913043e-01 -1.010913e-01 7.566561e-01 -2.289062e+00 1.960938e+00
3.946875e+01 1.869565e-01 -1.010582e-01 7.562676e-01 -2.289062e+00 1.960938e+00
4.080078e+01 1.826087e-01 -1.020833e-01 7.564532e-01 -2.281250e+00 1.957031e+00
3.879688e+01 1.739130e-01 -1.017092e-01 7.563970e-01 -2.289062e+00 1.957031e+00
3.916016e+01 1.826087e-01 -1.013848e-01 7.562267e-01 -2.289062e+00 1.941406e+00
3.914453e+01 1.782609e-01 -1.011161e-01 7.561540e-01 -2.292969e+00 1.945312e+00
3.784375e+01 1.913043e-01 -1.007688e-01 7.559427e-01 -2.316406e+00 1.933594e+00
3.866406e+01 1.869565e-01 -1.015315e-01 7.566376e-01 -2.308594e+00 1.945312e+00
3.853906e+01 1.782609e-01 -1.019490e-01 7.565499e-01 -2.308594e+00 1.945312e+00
3.851172e+01 1.869565e-01 -1.028315e-01 7.553136e-01 -2.308594e+00 1.933594e+00
3.909766e+01 1.869565e-01 -1.029369e-01 7.553008e-01 -2.304688e+00 1.925781e+00
3.852734e+01 1.956522e-01 -1.025628e-01 7.556460e-01 -2.320312e+00 1.929688e+00
3.781641e+01 1.695652e-01 -1.049148e-01 7.581296e-01 -2.378906e+00 1.964844e+00
3.792578e+01 1.782609e-01 -1.070685e-01 7.593219e-01 -2.371094e+00 1.964844e+00
3.776172e+01 1.782609e-01 -1.076182e-01 7.594901e-01 -2.371094e+00 1.957031e+00
3.766406e+01 1.869565e-01 -1.075976e-01 7.597264e-01 -2.375000e+00 1.941406e+00
3.939844e+01 1.782609e-01 -1.096333e-01 7.600553e-01 -2.363281e+00 1.964844e+00
3.866797e+01 1.826087e-01 -1.089699e-01 7.603234e-01 -2.367188e+00 1.957031e+00
3.892578e+01 1.695652e-01 -1.107722e-01 7.591964e-01 -2.355469e+00 1.957031e+00
3.909375e+01 1.782609e-01 -1.111793e-01 7.590681e-01 -2.335938e+00 1.957031e+00
4.000781e+01 1.782609e-01 -1.097656e-01 7.680578e-01 -2.332031e+00 2.000000e+00
3.996484e+01 1.826087e-01 -1.107081e-01 7.684533e-01 -2.324219e+00 1.992188e+00
3.960547e+01 1.782609e-01 -1.104497e-01 7.682483e-01 -2.328125e+00 1.992188e+00
3.912109e+01 1.782609e-01 -1.108280e-01 7.678921e-01 -2.328125e+00 1.988281e+00
4.126953e+01 1.869565e-01 -1.182767e-01 7.699826e-01 -2.328125e+00 1.980469e+00
3.971875e+01 1.826087e-01 -1.168857e-01 7.705588e-01 -2.339844e+00 1.984375e+00
3.941797e+01 1.695652e-01 -1.140894e-01 7.715785e-01 -2.359375e+00 1.984375e+00
3.963281e+01 1.869565e-01 -1.152323e-01 7.724441e-01 -2.359375e+00 1.976562e+00
3.956250e+01 1.739130e-01 -1.155031e-01 7.734883e-01 -2.371094e+00 1.984375e+00
3.849219e+01 1.695652e-01 -1.157655e-01 7.736210e-01 -2.375000e+00 1.984375e+00
3.846094e+01 1.652174e-01 -1.153108e-01 7.741337e-01 -2.386719e+00 1.988281e+00
3.873047e+01 1.695652e-01 -1.149202e-01 7.746050e-01 -2.386719e+00 1.996094e+00
3.836719e+01 1.652174e-01 -1.146660e-01 7.747724e-01 -2.390625e+00 2.000000e+00
3.845312e+01 1.652174e-01 -1.151517e-01 7.745508e-01 -2.390625e+00 2.000000e+00
3.874609e+01 1.695652e-01 -1.159722e-01 7.741653e-01 -2.386719e+00 1.984375e+00
3.910156e+01 1.695652e-01 -1.160425e-01 7.741270e-01 -2.386719e+00 1.984375e+00
3.839453e+01 1.695652e-01 -1.156002e-01 7.739549e-01 -2.394531e+00 1.992188e+00
3.830078e+01 1.608696e-01 -1.166894e-01 7.738363e-01 -2.390625e+00 1.992188e+00
3.892188e+01 1.695652e-01 -1.176877e-01 7.747058e-01 -2.386719e+00 1.992188e+00
3.972656e+01 1.695652e-01 -1.176691e-01 7.761692e-01 -2.398438e+00 2.015625e+00
3.859766e+01 1.739130e-01 -1.150091e-01 7.815148e-01 -2.433594e+00 2.093750e+00
3.855469e+01 1.782609e-01 -1.157573e-01 7.815682e-01 -2.429688e+00 2.078125e+00
3.825781e+01 1.608696e-01 -1.151765e-01 7.820547e-01 -2.433594e+00 2.066406e+00
3.832422e+01 1.608696e-01 -1.151476e-01 7.824066e-01 -2.433594e+00 2.066406e+00
3.835547e+01 1.608696e-01 -1.154907e-01 7.827763e-01 -2.433594e+00 2.050781e+00
3.942188e+01 1.869565e-01 -1.446553e-01 7.710196e-01 -2.449219e+00 1.988281e+00
3.848047e+01 1.826087e-01 -1.339720e-01 7.760438e-01 -2.457031e+00 1.992188e+00
3.829688e+01 1.782609e-01 -1.326079e-01 7.786940e-01 -2.460938e+00 1.996094e+00
3.958984e+01 1.695652e-01 -1.320188e-01 7.799231e-01 -2.460938e+00 2.000000e+00
3.944922e+01 1.739130e-01 -1.314133e-01 7.810415e-01 -2.453125e+00 2.000000e+00
3.908594e+01 1.695652e-01 -1.311115e-01 7.814339e-01 -2.460938e+00 2.000000e+00
3.994141e+01 1.695652e-01 -1.281911e-01 7.851597e-01 -2.464844e+00 2.000000e+00
3.836328e+01 1.782609e-01 -1.271949e-01 7.859209e-01 -2.476562e+00 2.000000e+00
3.816797e+01 1.826087e-01 -1.270399e-01 7.861625e-01 -2.480469e+00 2.000000e+00
4.112891e+01 1.956522e-01 -1.182312e-01 7.902376e-01 -2.523438e+00 2.339844e+00
3.783984e+01 1.565217e-01 -1.177621e-01 7.923983e-01 -2.527344e+00 2.335938e+00
3.823828e+01 1.608696e-01 -1.196119e-01 7.923855e-01 -2.519531e+00 2.335938e+00
3.788672e+01 1.739130e-01 -1.251385e-01 7.914810e-01 -2.523438e+00 2.332031e+00
3.742578e+01 1.608696e-01 -1.248863e-01 7.923165e-01 -2.539062e+00 2.332031e+00
3.790234e+01 1.652174e-01 -1.251075e-01 7.925899e-01 -2.539062e+00 2.332031e+00
4.357031e+01 2.000000e-01 -1.357990e-01 8.013878e-01 -2.542969e+00 2.347656e+00
3.853125e+01 1.826087e-01 -1.506717e-01 8.108351e-01 -2.515625e+00 2.148438e+00
3.799609e+01 1.739130e-01 -1.494358e-01 8.113657e-01 -2.519531e+00 2.121094e+00
3.873438e+01 1.739130e-01 -1.474103e-01 8.120803e-01 -2.519531e+00 2.136719e+00
3.875781e+01 1.695652e-01 -1.477472e-01 8.121472e-01 -2.519531e+00 2.136719e+00
3.816406e+01 1.695652e-01 -1.484582e-01 8.129875e-01 -2.550781e+00 2.117188e+00
3.875000e+01 1.826087e-01 -1.481151e-01 8.138901e-01 -2.546875e+00 2.152344e+00
3.819531e+01 1.782609e-01 -1.453704e-01 8.178360e-01 -2.554688e+00 2.125000e+00
3.796094e+01 1.739130e-01 -1.450976e-01 8.188357e-01 -2.554688e+00 2.070312e+00
3.747656e+01 1.782609e-01 -1.450025e-01 8.195951e-01 -2.562500e+00 2.070312e+00
3.749219e+01 1.695652e-01 -1.448454e-01 8.201306e-01 -2.562500e+00 2.074219e+00
3.948438e+01 1.826087e-01 -1.457817e-01 8.208114e-01 -2.562500e+00 2.117188e+00
3.735938e+01 1.608696e-01 -1.442667e-01 8.220189e-01 -2.585938e+00 2.125000e+00
3.948828e+01 1.913043e-01 -1.451327e-01 8.226154e-01 -2.578125e+00 2.160156e+00
3.721875e+01 1.565217e-01 -1.433614e-01 8.225408e-01 -2.585938e+00 2.125000e+00
3.788672e+01 1.739130e-01 -1.414311e-01 8.224268e-01 -2.578125e+00 2.136719e+00
3.791016e+01 1.739130e-01 -1.403977e-01 8.235090e-01 -2.570312e+00 2.125000e+00
3.721094e+01 1.608696e-01 -1.398644e-01 8.236559e-01 -2.578125e+00 2.121094e+00
3.889453e+01 1.739130e-01 -1.340360e-01 8.397981e-01 -2.671875e+00 2.441406e+00
3.853906e+01 1.826087e-01 -1.370081e-01 8.440067e-01 -2.652344e+00 2.421875e+00
3.910938e+01 1.826087e-01 -1.374380e-01 8.485162e-01 -2.644531e+00 2.421875e+00
3.827734e+01 1.956522e-01 -1.380291e-01 8.499408e-01 -2.656250e+00 2.406250e+00
3.823828e+01 1.956522e-01 -1.392671e-01 8.490652e-01 -2.652344e+00 2.437500e+00
3.899609e+01 1.739130e-01 -1.441014e-01 8.487247e-01 -2.640625e+00 2.460938e+00
3.895703e+01 1.652174e-01 -1.338728e-01 8.528991e-01 -2.652344e+00 2.472656e+00
4.142578e+01 1.956522e-01 -1.516452e-01 8.531774e-01 -2.703125e+00 2.417969e+00
3.892188e+01 1.869565e-01 -1.507812e-01 8.542786e-01 -2.714844e+00 2.398438e+00
4.017969e+01 1.826087e-01 -1.485119e-01 8.573517e-01 -2.707031e+00 2.421875e+00
3.998047e+01 1.869565e-01 -1.482122e-01 8.577226e-01 -2.699219e+00 2.421875e+00
4.181250e+01 1.826087e-01 -1.491361e-01 8.581617e-01 -2.699219e+00 2.453125e+00
4.144141e+01 1.826087e-01 -1.491443e-01 8.581924e-01 -2.699219e+00 2.453125e+00
4.069531e+01 1.695652e-01 -1.490989e-01 8.577117e-01 -2.699219e+00 2.441406e+00
4.144531e+01 1.826087e-01 -1.497706e-01 8.572027e-01 -2.703125e+00 2.457031e+00
3.860938e+01 2.000000e-01 -1.483590e-01 8.567186e-01 -2.699219e+00 2.437500e+00
3.947266e+01 1.826087e-01 -1.483631e-01 8.566372e-01 -2.703125e+00 2.441406e+00
3.904688e+01 1.869565e-01 -1.479208e-01 8.580668e-01 -2.699219e+00 2.433594e+00
4.138672e+01 1.869565e-01 -1.462984e-01 8.605936e-01 -2.765625e+00 2.378906e+00
4.246875e+01 1.913043e-01 -1.452195e-01 8.661790e-01 -2.761719e+00 2.500000e+00
3.955859e+01 1.869565e-01 -1.440125e-01 8.676222e-01 -2.761719e+00 2.457031e+00
3.946484e+01 1.869565e-01 -1.440021e-01 8.675085e-01 -2.761719e+00 2.453125e+00
3.895703e+01 1.869565e-01 -1.483590e-01 8.662842e-01 -2.757812e+00 2.437500e+00
4.052734e+01 2.000000e-01 -1.493345e-01 8.672698e-01 -2.757812e+00 2.476562e+00
4.097266e+01 1.956522e-01 -1.494378e-01 8.682811e-01 -2.773438e+00 2.464844e+00
4.044141e+01 2.000000e-01 -1.493469e-01 8.684422e-01 -2.773438e+00 2.425781e+00
4.033594e+01 1.782609e-01 -1.510169e-01 8.703433e-01 -2.785156e+00 2.406250e+00
3.961328e+01 1.782609e-01 -1.494358e-01 8.713693e-01 -2.761719e+00 2.445312e+00
3.919922e+01 1.782609e-01 -1.503204e-01 8.713331e-01 -2.753906e+00 2.445312e+00
3.927344e+01 1.826087e-01 -1.512173e-01 8.707579e-01 -2.753906e+00 2.433594e+00
3.962500e+01 1.739130e-01 -1.511305e-01 8.710448e-01 -2.753906e+00 2.441406e+00
3.937500e+01 1.913043e-01 -1.502976e-01 8.713412e-01 -2.769531e+00 2.421875e+00
4.002344e+01 1.695652e-01 -1.505291e-01 8.715026e-01 -2.765625e+00 2.429688e+00
4.516797e+01 1.956522e-01 -1.522425e-01 8.903764e-01 -2.753906e+00 2.886719e+00
4.148828e+01 1.869565e-01 -1.317729e-01 8.919999e-01 -2.773438e+00 3.035156e+00
4.174609e+01 1.782609e-01 -1.317729e-01 8.925521e-01 -2.757812e+00 3.027344e+00
3.899609e+01 1.826087e-01 -1.267898e-01 8.944647e-01 -2.738281e+00 3.011719e+00
3.891797e+01 1.652174e-01 -1.224661e-01 8.963533e-01 -2.675781e+00 2.980469e+00
3.933203e+01 1.652174e-01 -1.216993e-01 8.962452e-01 -2.675781e+00 2.976562e+00
3.905859e+01 1.652174e-01 -1.232040e-01 8.961563e-01 -2.667969e+00 2.964844e+00
3.835938e+01 1.695652e-01 -1.256138e-01 8.952551e-01 -2.679688e+00 3.011719e+00
3.793750e+01 1.521739e-01 -1.258474e-01 8.945875e-01 -2.679688e+00 3.007812e+00
3.906641e+01 1.913043e-01 -1.360202e-01 8.944964e-01 -2.660156e+00 3.000000e+00
3.923828e+01 1.826087e-01 -1.359644e-01 8.954312e-01 -2.648438e+00 3.007812e+00
3.841406e+01 1.782609e-01 -1.345321e-01 8.967331e-01 -2.636719e+00 3.042969e+00
3.841016e+01 1.782609e-01 -1.336475e-01 8.971828e-01 -2.625000e+00 3.042969e+00
3.814844e+01 1.826087e-01 -1.357660e-01 8.998926e-01 -2.656250e+00 3.054688e+00
3.862109e+01 1.913043e-01 -1.354849e-01 9.019707e-01 -2.648438e+00 3.035156e+00
3.760938e+01 1.826087e-01 -1.359892e-01 9.024603e-01 -2.664062e+00 3.054688e+00
3.830469e+01 1.695652e-01 -1.370040e-01 9.034964e-01 -2.679688e+00 3.050781e+00
3.831250e+01 1.739130e-01 -1.371631e-01 9.040290e-01 -2.683594e+00 3.035156e+00
3.816016e+01 1.695652e-01 -1.373553e-01 9.034340e-01 -2.703125e+00 3.050781e+00
3.773047e+01 1.782609e-01 -1.368820e-01 9.035964e-01 -2.703125e+00 3.050781e+00
3.807422e+01 1.869565e-01 -1.364542e-01 9.038285e-01 -2.703125e+00 3.050781e+00
3.892188e+01 1.782609e-01 -1.384053e-01 9.039471e-01 -2.722656e+00 3.054688e+00
3.865625e+01 1.826087e-01 -1.373450e-01 9.046890e-01 -2.718750e+00 3.050781e+00
3.846094e+01 1.739130e-01 -1.368841e-01 9.051521e-01 -2.718750e+00 3.054688e+00
3.956641e+01 1.739130e-01 -1.398313e-01 9.054046e-01 -2.722656e+00 3.074219e+00
3.927344e+01 1.869565e-01 -1.413835e-01 9.055806e-01 -2.714844e+00 3.074219e+00
3.983594e+01 2.086957e-01 -1.421379e-01 9.058281e-01 -2.703125e+00 3.042969e+00
4.039844e+01 1.782609e-01 -1.551794e-01 9.055195e-01 -2.722656e+00 2.937500e+00
4.038672e+01 1.782609e-01 -1.532077e-01 9.058010e-01 -2.722656e+00 2.937500e+00
4.010156e+01 1.913043e-01 -1.518374e-01 9.066716e-01 -2.718750e+00 2.941406e+00
3.899609e+01 1.913043e-01 -1.500124e-01 9.072745e-01 -2.710938e+00 2.921875e+00
3.938672e+01 1.826087e-01 -1.418175e-01 9.082878e-01 -2.703125e+00 2.968750e+00
3.920312e+01 1.956522e-01 -1.418981e-01 9.082156e-01 -2.687500e+00 2.953125e+00
3.973438e+01 1.956522e-01 -1.324942e-01 9.184385e-01 -2.660156e+00 3.382812e+00
4.112109e+01 2.086957e-01 -1.332837e-01 9.190121e-01 -2.660156e+00 3.195312e+00
3.955469e+01 1.869565e-01 -1.323991e-01 9.185950e-01 -2.660156e+00 3.179688e+00
4.108594e+01 2.043478e-01 -1.344680e-01 9.202961e-01 -2.660156e+00 3.191406e+00
4.124609e+01 1.956522e-01 -1.389385e-01 9.230164e-01 -2.617188e+00 3.187500e+00
4.068359e+01 1.913043e-01 -1.408792e-01 9.242221e-01 -2.632812e+00 3.187500e+00
4.077734e+01 1.956522e-01 -1.426773e-01 9.265030e-01 -2.636719e+00 3.171875e+00
4.135547e+01 1.913043e-01 -1.543010e-01 9.290621e-01 -2.988281e+00 2.953125e+00
4.157422e+01 1.956522e-01 -1.574384e-01 9.300978e-01 -2.972656e+00 2.980469e+00
4.180859e+01 2.000000e-01 -1.565104e-01 9.308623e-01 -2.976562e+00 2.976562e+00
4.260156e+01 2.043478e-01 -1.475384e-01 9.332119e-01 -2.863281e+00 3.128906e+00
4.051953e+01 1.869565e-01 -1.534474e-01 9.316625e-01 -2.847656e+00 3.144531e+00
4.097266e+01 1.913043e-01 -1.544705e-01 9.324148e-01 -2.820312e+00 3.156250e+00
4.077344e+01 2.000000e-01 -1.546834e-01 9.336234e-01 -2.843750e+00 3.148438e+00
4.101953e+01 2.000000e-01 -1.548115e-01 9.338836e-01 -2.843750e+00 3.140625e+00
4.091797e+01 1.956522e-01 -1.546524e-01 9.339453e-01 -2.851562e+00 3.132812e+00
4.102734e+01 1.956522e-01 -1.544870e-01 9.339961e-01 -2.851562e+00 3.125000e+00
4.128125e+01 2.086957e-01 -1.542369e-01 9.341054e-01 -2.847656e+00 3.148438e+00
4.062891e+01 2.000000e-01 -1.525050e-01 9.351373e-01 -2.828125e+00 3.160156e+00
4.022656e+01 1.913043e-01 -1.516865e-01 9.356638e-01 -2.828125e+00 3.160156e+00
4.097266e+01 2.043478e-01 -1.519097e-01 9.358294e-01 -2.828125e+00 3.179688e+00
4.052734e+01 2.086957e-01 -1.509342e-01 9.376022e-01 -2.820312e+00 3.179688e+00
4.057422e+01 2.086957e-01 -1.509321e-01 9.381309e-01 -2.835938e+00 3.167969e+00
4.065234e+01 2.130435e-01 -1.516307e-01 9.380501e-01 -2.835938e+00 3.175781e+00
4.111328e+01 2.173913e-01 -1.515398e-01 9.381770e-01 -2.828125e+00 3.183594e+00
4.052734e+01 2.086957e-01 -1.516142e-01 9.385034e-01 -2.816406e+00 3.187500e+00
4.114453e+01 2.086957e-01 -1.533668e-01 9.398373e-01 -2.804688e+00 3.226562e+00
4.009766e+01 2.086957e-01 -1.529225e-01 9.405737e-01 -2.796875e+00 3.230469e+00
4.057422e+01 1.956522e-01 -1.520193e-01 9.431059e-01 -2.816406e+00 3.230469e+00
4.106250e+01 2.130435e-01 -1.527075e-01 9.437176e-01 -2.800781e+00 3.250000e+00
4.057422e+01 2.000000e-01 -1.521929e-01 9.438722e-01 -2.785156e+00 3.250000e+00
4.090625e+01 1.956522e-01 -1.512669e-01 9.448995e-01 -2.781250e+00 3.253906e+00
4.090625e+01 1.956522e-01 -1.511967e-01 9.450833e-01 -2.781250e+00 3.253906e+00
4.232031e+01 1.869565e-01 -1.496114e-01 9.453726e-01 -2.792969e+00 3.238281e+00
4.071875e+01 2.000000e-01 -1.511223e-01 9.456735e-01 -2.796875e+00 3.246094e+00
4.088672e+01 2.000000e-01 -1.526166e-01 9.459649e-01 -2.785156e+00 3.265625e+00
4.163672e+01 2.086957e-01 -1.526186e-01 9.466862e-01 -2.773438e+00 3.273438e+00
4.130859e+01 2.043478e-01 -1.523210e-01 9.471371e-01 -2.769531e+00 3.277344e+00
4.087109e+01 2.000000e-01 -1.511946e-01 9.466706e-01 -2.753906e+00 3.269531e+00
4.125391e+01 2.043478e-01 -1.519511e-01 9.464572e-01 -2.738281e+00 3.300781e+00
4.075391e+01 2.086957e-01 -1.517237e-01 9.467440e-01 -2.738281e+00 3.300781e+00
4.022266e+01 2.043478e-01 -1.520151e-01 9.474288e-01 -2.750000e+00 3.292969e+00
4.401953e+01 2.130435e-01 -1.594969e-01 9.543486e-01 -2.820312e+00 3.234375e+00
4.136328e+01 2.000000e-01 -1.582486e-01 9.567601e-01 -2.832031e+00 3.113281e+00
4.148438e+01 2.086957e-01 -1.568370e-01 9.566163e-01 -2.816406e+00 3.128906e+00
4.160156e+01 1.956522e-01 -1.549727e-01 9.572130e-01 -2.835938e+00 3.117188e+00
4.118750e+01 2.000000e-01 -1.629030e-01 9.584559e-01 -2.824219e+00 3.070312e+00
4.177344e+01 2.043478e-01 -1.616836e-01 9.593568e-01 -2.832031e+00 3.085938e+00
4.130859e+01 2.000000e-01 -1.605985e-01 9.609443e-01 -2.835938e+00 3.085938e+00
4.143750e+01 2.043478e-01 -1.601025e-01 9.610283e-01 -2.835938e+00 3.082031e+00
4.122656e+01 2.043478e-01 -1.591518e-01 9.616842e-01 -2.847656e+00 3.093750e+00
4.136719e+01 2.130435e-01 -1.584470e-01 9.621648e-01 -2.835938e+00 3.089844e+00
4.168359e+01 2.043478e-01 -1.574942e-01 9.625220e-01 -2.828125e+00 3.082031e+00
4.116016e+01 1.956522e-01 -1.571635e-01 9.626119e-01 -2.828125e+00 3.082031e+00
4.114453e+01 1.956522e-01 -1.567543e-01 9.623759e-01 -2.824219e+00 3.105469e+00
4.087500e+01 2.086957e-01 -1.574673e-01 9.624811e-01 -2.816406e+00 3.113281e+00
4.151953e+01 1.869565e-01 -1.568990e-01 9.626910e-01 -2.820312e+00 3.097656e+00
4.202734e+01 2.260870e-01 -1.588500e-01 9.626741e-01 -2.812500e+00 3.125000e+00
4.235938e+01 2.086957e-01 -1.665344e-01 9.641063e-01 -2.839844e+00 3.042969e+00
4.231250e+01 2.043478e-01 -1.667493e-01 9.645411e-01 -2.839844e+00 3.042969e+00
4.239062e+01 2.043478e-01 -1.660508e-01 9.652326e-01 -2.847656e+00 3.054688e+00
4.167969e+01 1.869565e-01 -1.537802e-01 9.695878e-01 -2.847656e+00 3.039062e+00
4.232031e+01 2.130435e-01 -1.595383e-01 9.724543e-01 -2.863281e+00 3.101562e+00
4.188281e+01 2.086957e-01 -1.598628e-01 9.725497e-01 -2.863281e+00 3.097656e+00
4.404297e+01 2.260870e-01 -1.417865e-01 9.763133e-01 -2.835938e+00 3.925781e+00
4.353125e+01 2.217391e-01 -1.410632e-01 9.786309e-01 -2.894531e+00 3.910156e+00
4.628906e+01 2.130435e-01 -1.343543e-01 9.829046e-01 -2.898438e+00 4.066406e+00
4.350000e+01 2.043478e-01 -1.302269e-01 9.866619e-01 -2.902344e+00 4.070312e+00
4.337891e+01 2.043478e-01 -1.319506e-01 9.868405e-01 -2.921875e+00 4.062500e+00
4.286719e+01 2.043478e-01 -1.359974e-01 9.855707e-01 -2.925781e+00 4.054688e+00
4.238672e+01 2.086957e-01 -1.377583e-01 9.882647e-01 -2.902344e+00 4.050781e+00
4.398828e+01 2.304348e-01 -1.423322e-01 9.933937e-01 -2.882812e+00 3.984375e+00
4.223438e+01 2.130435e-01 -1.435516e-01 9.929093e-01 -2.906250e+00 3.886719e+00
4.240625e+01 1.956522e-01 -1.393084e-01 9.932872e-01 -2.910156e+00 3.863281e+00
4.197656e+01 1.956522e-01 -1.411748e-01 9.948121e-01 -2.910156e+00 3.855469e+00
4.426953e+01 2.130435e-01 -1.426649e-01 9.956163e-01 -2.921875e+00 3.890625e+00
4.375781e+01 2.086957e-01 -1.434792e-01 9.957857e-01 -2.921875e+00 3.890625e+00
4.359375e+01 2.086957e-01 -1.434875e-01 9.956709e-01 -2.921875e+00 3.890625e+00
4.255469e+01 2.086957e-01 -1.433552e-01 9.953795e-01 -2.914062e+00 3.875000e+00
4.605078e+01 2.043478e-01 -1.423694e-01 9.977265e-01 -2.914062e+00 3.925781e+00
4.302734e+01 2.173913e-01 -1.477451e-01 9.975328e-01 -2.910156e+00 3.863281e+00
4.295312e+01 2.130435e-01 -1.482618e-01 9.980372e-01 -2.917969e+00 3.832031e+00
4.266797e+01 2.130435e-01 -1.495742e-01 9.985722e-01 -2.921875e+00 3.824219e+00
4.357812e+01 2.043478e-01 -1.500765e-01 9.985514e-01 -2.921875e+00 3.835938e+00
4.311719e+01 2.130435e-01 -1.494130e-01 9.989613e-01 -2.921875e+00 3.828125e+00
4.254297e+01 2.086957e-01 -1.491733e-01 9.996812e-01 -2.929688e+00 3.851562e+00
4.308203e+01 2.086957e-01 -1.490286e-01 9.998863e-01 -2.929688e+00 3.855469e+00
4.303125e+01 2.086957e-01 -1.492208e-01 1.000042e+00 -2.933594e+00 3.855469e+00
4.311719e+01 2.086957e-01 -1.454406e-01 1.003650e+00 -2.964844e+00 3.867188e+00
4.307812e+01 2.086957e-01 -1.456928e-01 1.004475e+00 -2.964844e+00 3.875000e+00
4.344531e+01 2.217391e-01 -1.540840e-01 1.005247e+00 -2.945312e+00 3.863281e+00
4.400000e+01 2.217391e-01 -1.561570e-01 1.005604e+00 -2.957031e+00 3.796875e+00
4.285938e+01 2.130435e-01 -1.560454e-01 1.005340e+00 -2.960938e+00 3.789062e+00
4.274609e+01 2.130435e-01 -1.566076e-01 1.005665e+00 -2.964844e+00 3.781250e+00
4.298828e+01 2.130435e-01 -1.557436e-01 1.005968e+00 -2.968750e+00 3.816406e+00
4.410547e+01 2.086957e-01 -1.492787e-01 1.010989e+00 -3.054688e+00 3.886719e+00
4.313281e+01 2.130435e-01 -1.489604e-01 1.010956e+00 -3.054688e+00 3.863281e+00
4.274219e+01 2.130435e-01 -1.504588e-01 1.009888e+00 -3.054688e+00 3.859375e+00
4.276172e+01 2.173913e-01 -1.541295e-01 1.009517e+00 -3.039062e+00 3.859375e+00
4.276562e+01 2.130435e-01 -1.543919e-01 1.009683e+00 -3.042969e+00 3.859375e+00
4.212500e+01 2.130435e-01 -1.547474e-01 1.009719e+00 -3.042969e+00 3.859375e+00
4.246094e+01 2.130435e-01 -1.550409e-01 1.009715e+00 -3.042969e+00 3.859375e+00
4.227344e+01 2.086957e-01 -1.553592e-01 1.009787e+00 -3.039062e+00 3.851562e+00
4.257812e+01 2.130435e-01 -1.555122e-01 1.009938e+00 -3.031250e+00 3.847656e+00
4.272656e+01 2.086957e-01 -1.549314e-01 1.010835e+00 -3.031250e+00 3.839844e+00
4.285547e+01 2.130435e-01 -1.545015e-01 1.010817e+00 -3.031250e+00 3.828125e+00
4.267969e+01 2.086957e-01 -1.545139e-01 1.010751e+00 -3.031250e+00 3.824219e+00
4.267578e+01 2.130435e-01 -1.542886e-01 1.011407e+00 -3.031250e+00 3.832031e+00
4.318750e+01 2.130435e-01 -1.540881e-01 1.011858e+00 -3.031250e+00 3.839844e+00
4.303125e+01 2.043478e-01 -1.541894e-01 1.012319e+00 -3.031250e+00 3.839844e+00
4.292969e+01 2.086957e-01 -1.545201e-01 1.012620e+00 -3.042969e+00 3.843750e+00
4.268359e+01 1.956522e-01 -1.527902e-01 1.012662e+00 -3.046875e+00 3.839844e+00
4.346875e+01 2.130435e-01 -1.543795e-01 1.013533e+00 -3.042969e+00 3.851562e+00
4.301172e+01 2.086957e-01 -1.539910e-01 1.014747e+00 -3.046875e+00 3.843750e+00
4.339844e+01 2.086957e-01 -1.539207e-01 1.015328e+00 -3.046875e+00 3.839844e+00
4.380469e+01 2.173913e-01 -1.552972e-01 1.015182e+00 -3.039062e+00 3.851562e+00
4.278125e+01 2.086957e-01 -1.551153e-01 1.015821e+00 -3.039062e+00 3.828125e+00
4.307812e+01 2.086957e-01 -1.540055e-01 1.016082e+00 -3.046875e+00 3.808594e+00
4.358203e+01 2.130435e-01 -1.554005e-01 1.016525e+00 -3.050781e+00 3.839844e+00
4.341406e+01 2.173913e-01 -1.553985e-01 1.016801e+00 -3.050781e+00 3.839844e+00
4.325000e+01 2.130435e-01 -1.548487e-01 1.017190e+00 -3.050781e+00 3.847656e+00
4.362500e+01 2.130435e-01 -1.547061e-01 1.018549e+00 -3.058594e+00 3.851562e+00
4.342188e+01 2.130435e-01 -1.548797e-01 1.018793e+00 -3.062500e+00 3.855469e+00
4.310156e+01 2.086957e-01 -1.550719e-01 1.019018e+00 -3.070312e+00 3.878906e+00
4.339844e+01 2.130435e-01 -1.554625e-01 1.019690e+00 -3.078125e+00 3.878906e+00
4.323047e+01 2.173913e-01 -1.524450e-01 1.022300e+00 -3.109375e+00 3.910156e+00
4.443750e+01 2.347826e-01 -1.571263e-01 1.022357e+00 -3.093750e+00 3.910156e+00
4.365625e+01 2.217391e-01 -1.575314e-01 1.022481e+00 -3.097656e+00 3.898438e+00
4.187891e+01 2.130435e-01 -1.572111e-01 1.022580e+00 -3.097656e+00 3.898438e+00
4.233203e+01 2.260870e-01 -1.571553e-01 1.023006e+00 -3.089844e+00 3.898438e+00
4.689844e+01 2.304348e-01 -1.445953e-01 1.028501e+00 -3.101562e+00 3.898438e+00
4.504297e+01 2.086957e-01 -1.390088e-01 1.031930e+00 -3.093750e+00 3.875000e+00
4.503125e+01 2.043478e-01 -1.388269e-01 1.031007e+00 -3.085938e+00 3.875000e+00
4.590234e+01 1.956522e-01 -1.388186e-01 1.031392e+00 -3.089844e+00 3.878906e+00
