-2.727805e+00 1.061358e+01 -5.472485e+01 4.689331e+01 5.057532e-06 2.723214e-03 -2.248535e-01 2.250977e-01
-2.995719e+00 1.185407e+01 -5.518604e+01 5.633008e+01 1.154909e-06 2.066911e-03 -2.214355e-01 2.187500e-01
-3.122953e+00 1.234373e+01 -5.563428e+01 6.061816e+01 8.429143e-07 1.879883e-03 -2.219238e-01 2.187500e-01
-3.222895e+00 1.266104e+01 -5.851709e+01 6.322241e+01 4.328331e-07 1.812441e-03 -2.229004e-01 2.199707e-01
-3.314889e+00 1.295363e+01 -6.000732e+01 6.793774e+01 2.630370e-07 1.785745e-03 -2.229004e-01 2.214355e-01
-3.436687e+00 1.319347e+01 -6.241724e+01 6.840283e+01 5.061331e-07 1.730907e-03 -2.187500e-01 2.207031e-01
-3.459782e+00 1.339292e+01 -6.715649e+01 7.160449e+01 1.027099e-06 1.677610e-03 -2.187500e-01 2.214355e-01
-3.578063e+00 1.351503e+01 -6.702124e+01 7.161328e+01 5.463458e-07 1.660600e-03 -2.158203e-01 2.187500e-01
-3.675995e+00 1.367039e+01 -6.992261e+01 7.520361e+01 3.345157e-07 1.606204e-03 -2.158203e-01 2.160645e-01
-3.672136e+00 1.378184e+01 -7.051099e+01 7.939844e+01 7.128679e-07 1.587399e-03 -2.175293e-01 2.141113e-01
-3.714165e+00 1.390935e+01 -7.100366e+01 7.971582e+01 2.980176e-07 1.595653e-03 -2.175293e-01 2.187500e-01
-3.740184e+00 1.401155e+01 -7.179541e+01 8.242114e+01 1.980694e-07 1.537561e-03 -2.141113e-01 2.207031e-01
-3.783427e+00 1.415350e+01 -7.396777e+01 8.688110e+01 6.538996e-07 1.542289e-03 -2.175293e-01 2.175293e-01
-3.832641e+00 1.423580e+01 -7.646948e+01 8.544629e+01 1.075123e-07 1.519704e-03 -2.141113e-01 2.199707e-01
-3.870181e+00 1.431001e+01 -7.395312e+01 8.623975e+01 4.929840e-07 1.500852e-03 -2.158203e-01 2.121582e-01
-3.892944e+00 1.436179e+01 -7.530273e+01 8.787183e+01 6.252828e-07 1.494776e-03 -2.158203e-01 2.207031e-01
-3.903974e+00 1.440758e+01 -7.673169e+01 8.653833e+01 8.704098e-08 1.484175e-03 -2.158203e-01 2.175293e-01
-3.941573e+00 1.451980e+01 -7.718726e+01 8.850928e+01 7.366490e-07 1.477142e-03 -2.141113e-01 2.187500e-01
-3.954012e+00 1.456788e+01 -7.725342e+01 9.135034e+01 4.397780e-07 1.461984e-03 -2.119141e-01 2.160645e-01
-3.963954e+00 1.461210e+01 -7.715942e+01 8.855591e+01 1.115130e-06 1.439872e-03 -2.141113e-01 2.160645e-01
-4.020355e+00 1.472432e+01 -7.862305e+01 8.924878e+01 1.035143e-07 1.443795e-03 -2.141113e-01 2.026367e-01
-4.013981e+00 1.476759e+01 -7.791382e+01 9.068628e+01 3.837393e-07 1.416652e-03 -2.158203e-01 2.094727e-01
-4.067989e+00 1.484640e+01 -7.838257e+01 9.103906e+01 3.266831e-07 1.406605e-03 -2.141113e-01 2.187500e-01
-4.090809e+00 1.496424e+01 -7.974023e+01 9.555615e+01 8.215916e-07 1.418694e-03 -2.158203e-01 2.094727e-01
-4.121042e+00 1.501869e+01 -8.010645e+01 9.391968e+01 4.103433e-07 1.414374e-03 -2.158203e-01 2.062988e-01
-4.172226e+00 1.502832e+01 -8.041992e+01 9.481372e+01 2.041746e-07 1.376651e-03 -2.141113e-01 2.141113e-01
-4.130160e+00 1.509882e+01 -7.978784e+01 9.715894e+01 8.632216e-08 1.361343e-03 -2.119141e-01 2.094727e-01
-4.149585e+00 1.511573e+01 -8.056641e+01 9.744971e+01 1.089048e-07 1.380517e-03 -2.158203e-01 2.026367e-01
