-2.553132e+00 9.857925e+00 -5.121512e+01 3.934165e+01 9.753948e-06 1.578026e-03 -1.262285e-01 1.262285e-01
-2.901165e+00 1.021308e+01 -4.835499e+01 3.879302e+01 -9.333524e-07 1.229915e-03 -1.262285e-01 1.262285e-01
-2.989667e+00 1.051265e+01 -4.768212e+01 3.971370e+01 2.274778e-06 1.110522e-03 -1.262285e-01 1.262285e-01
-2.993978e+00 1.063381e+01 -4.813920e+01 4.111583e+01 -4.410330e-07 1.051911e-03 -1.262285e-01 1.262285e-01
-3.001391e+00 1.073097e+01 -4.981018e+01 4.259571e+01 9.141631e-07 1.003700e-03 -1.262285e-01 1.262285e-01
-2.962670e+00 1.080445e+01 -5.022749e+01 4.439062e+01 -3.721081e-07 9.776444e-04 -1.262285e-01 1.262285e-01
-3.019440e+00 1.090786e+01 -5.036099e+01 4.489349e+01 -1.139611e-06 9.477460e-04 -1.262285e-01 1.262285e-01
-2.987946e+00 1.103618e+01 -5.415324e+01 4.643424e+01 -1.113774e-06 9.388076e-04 -1.262285e-01 1.262285e-01
-3.059546e+00 1.112971e+01 -5.363995e+01 4.897902e+01 -8.398556e-08 9.319217e-04 -1.262285e-01 1.262284e-01
-3.093521e+00 1.123103e+01 -5.512167e+01 4.800105e+01 3.919183e-07 9.164828e-04 -1.262285e-01 1.262285e-01
-3.048275e+00 1.143379e+01 -5.573376e+01 4.837949e+01 9.808034e-07 9.040307e-04 -1.262285e-01 1.262278e-01
-3.049768e+00 1.153216e+01 -5.409077e+01 4.980108e+01 -4.719358e-07 8.877309e-04 -1.262285e-01 1.262277e-01
-3.088940e+00 1.160064e+01 -5.473207e+01 4.977676e+01 1.373462e-06 8.451414e-04 -1.262285e-01 1.262283e-01
-3.095059e+00 1.160958e+01 -5.639777e+01 4.961974e+01 6.820631e-07 8.396865e-04 -1.262285e-01 1.262278e-01
-3.097707e+00 1.169149e+01 -5.608894e+01 5.018642e+01 4.020557e-07 8.430959e-04 -1.262284e-01 1.262277e-01
-3.130303e+00 1.175267e+01 -5.647127e+01 5.127756e+01 1.465222e-06 8.220715e-04 -1.262285e-01 1.262285e-01
-3.144130e+00 1.182561e+01 -5.630110e+01 5.165223e+01 1.276120e-06 8.209212e-04 -1.262285e-01 1.262285e-01
-3.154838e+00 1.186733e+01 -5.630960e+01 5.207625e+01 -1.480271e-06 7.926068e-04 -1.262285e-01 1.262283e-01
-3.139205e+00 1.190152e+01 -5.727162e+01 5.206012e+01 -1.024862e-06 7.887482e-04 -1.262285e-01 1.262283e-01
-3.160660e+00 1.195654e+01 -5.687272e+01 5.180128e+01 3.114711e-07 7.788129e-04 -1.262285e-01 1.262266e-01
-3.161811e+00 1.202445e+01 -5.803140e+01 5.243121e+01 -2.745451e-06 7.711199e-04 -1.262285e-01 1.262270e-01
-3.195433e+00 1.207479e+01 -6.159014e+01 5.233187e+01 -1.469366e-06 7.626966e-04 -1.262285e-01 1.262279e-01
-3.177234e+00 1.206793e+01 -5.822715e+01 5.246227e+01 9.593784e-07 7.543163e-04 -1.262285e-01 1.262284e-01
-3.184171e+00 1.209741e+01 -5.742977e+01 5.242053e+01 1.653462e-07 7.405180e-04 -1.262284e-01 1.262258e-01
-3.168184e+00 1.214626e+01 -5.704066e+01 5.269108e+01 1.870203e-06 7.469791e-04 -1.262285e-01 1.262281e-01
-3.193942e+00 1.217514e+01 -5.788267e+01 5.295438e+01 -9.404952e-09 7.283891e-04 -1.262285e-01 1.262285e-01
-3.205165e+00 1.222621e+01 -5.734527e+01 5.429639e+01 2.539729e-06 7.393257e-04 -1.262269e-01 1.262284e-01
-3.216135e+00 1.227130e+01 -5.915215e+01 5.339001e+01 7.847412e-07 7.294865e-04 -1.262285e-01 1.262275e-01
-3.217326e+00 1.226824e+01 -5.923578e+01 5.318874e+01 8.891381e-07 7.233057e-04 -1.262283e-01 1.262279e-01
-3.212389e+00 1.230802e+01 -5.927745e+01 5.371230e+01 7.876838e-07 7.050027e-04 -1.262283e-01 1.262284e-01
-3.236126e+00 1.237367e+01 -5.979006e+01 5.375489e+01 1.893829e-07 6.996819e-04 -1.262285e-01 1.262282e-01
-3.248893e+00 1.240488e+01 -6.092939e+01 5.391854e+01 4.069321e-07 7.081533e-04 -1.262285e-01 1.262278e-01
-3.264233e+00 1.241608e+01 -6.035949e+01 5.372970e+01 1.778602e-07 6.890261e-04 -1.262285e-01 1.262285e-01
-3.267332e+00 1.245675e+01 -6.110296e+01 5.418614e+01 -1.821651e-06 6.875528e-04 -1.262285e-01 1.262284e-01
-3.289438e+00 1.248830e+01 -6.123583e+01 5.485773e+01 -2.719819e-07 6.978071e-04 -1.262285e-01 1.262247e-01
-3.262411e+00 1.251519e+01 -6.128247e+01 5.416490e+01 -4.901323e-07 6.761337e-04 -1.262283e-01 1.262253e-01
