9.000000e-01 9.990000e-01
6.561000e-01 9.960060e-01
4.782969e-01 9.930210e-01
3.486784e-01 9.900449e-01
2.541866e-01 9.870777e-01
1.853020e-01 9.841194e-01
1.350852e-01 9.811700e-01
9.847709e-02 9.782295e-01
7.178980e-02 9.752977e-01
5.233476e-02 9.723747e-01
3.815204e-02 9.694605e-01
2.781284e-02 9.665551e-01
2.027556e-02 9.636583e-01
1.478088e-02 9.607702e-01
1.077526e-02 9.578908e-01
7.855167e-03 9.550200e-01
5.726417e-03 9.521578e-01
4.174558e-03 9.493042e-01
3.043253e-03 9.464591e-01
2.218531e-03 9.436226e-01
1.617309e-03 9.407945e-01
1.179018e-03 9.379750e-01
8.595045e-04 9.351639e-01
6.265787e-04 9.323612e-01
4.567759e-04 9.295669e-01
3.329896e-04 9.267810e-01
2.427494e-04 9.240034e-01
1.769643e-04 9.212342e-01
1.290070e-04 9.184732e-01
9.404611e-05 9.157206e-01
6.855961e-05 9.129761e-01
4.997996e-05 9.102400e-01
3.643539e-05 9.075120e-01
2.656140e-05 9.047921e-01
1.936326e-05 9.020805e-01
1.411582e-05 8.993769e-01
1.029043e-05 8.966815e-01
7.501724e-06 8.939942e-01
5.468756e-06 8.913149e-01
3.986723e-06 8.886436e-01
2.906321e-06 8.859803e-01
2.118708e-06 8.833250e-01
1.544538e-06 8.806777e-01
1.125968e-06 8.780383e-01
8.208310e-07 8.754068e-01
5.983858e-07 8.727832e-01
4.362233e-07 8.701675e-01
3.180068e-07 8.675596e-01
2.318269e-07 8.649595e-01
1.690018e-07 8.623673e-01
1.232023e-07 8.597827e-01
8.981450e-08 8.572060e-01
6.547477e-08 8.546369e-01
4.773111e-08 8.520756e-01
3.479598e-08 8.495219e-01
2.536627e-08 8.469759e-01
1.849201e-08 8.444375e-01
1.348067e-08 8.419067e-01
9.827412e-09 8.393835e-01
7.164183e-09 8.368679e-01
5.222690e-09 8.343598e-01
3.807341e-09 8.318592e-01
2.775551e-09 8.293661e-01
2.023377e-09 8.268805e-01
1.475042e-09 8.244024e-01
1.075305e-09 8.219316e-01
7.838977e-10 8.194683e-01
5.714614e-10 8.170124e-01
4.165954e-10 8.145638e-01
3.036980e-10 8.121225e-01
2.213959e-10 8.096886e-01
1.613976e-10 8.072619e-01
1.176588e-10 8.048426e-01
8.577329e-11 8.024305e-01
6.252873e-11 8.000256e-01
4.558344e-11 7.976279e-01
3.323033e-11 7.952374e-01
2.422491e-11 7.928541e-01
1.765996e-11 7.904779e-01
1.287411e-11 7.881088e-01
9.385227e-12 7.857469e-01
6.841830e-12 7.833920e-01
4.987694e-12 7.810442e-01
3.636029e-12 7.787034e-01
2.650665e-12 7.763696e-01
1.932335e-12 7.740428e-01
1.408672e-12 7.717230e-01
1.026922e-12 7.694102e-01
7.486262e-13 7.671042e-01
5.457485e-13 7.648052e-01
3.978506e-13 7.625131e-01
2.900331e-13 7.602278e-01
2.114341e-13 7.579494e-01
1.541355e-13 7.556779e-01
1.123648e-13 7.534131e-01
8.191392e-14 7.511551e-01
5.971525e-14 7.489039e-01
4.353241e-14 7.466594e-01
3.173513e-14 7.444217e-01
2.313491e-14 7.421907e-01
1.686535e-14 7.399663e-01
1.229484e-14 7.377486e-01
8.962938e-15 7.355376e-01
6.533982e-15 7.333332e-01
4.763273e-15 7.311354e-01
3.472426e-15 7.289442e-01
2.531398e-15 7.267595e-01
1.845389e-15 7.245814e-01
1.345289e-15 7.224099e-01
9.807156e-16 7.202448e-01
7.149417e-16 7.180862e-01
5.211925e-16 7.159341e-01
3.799493e-16 7.137885e-01
2.769831e-16 7.116493e-01
2.019207e-16 7.095164e-01
1.472002e-16 7.073900e-01
1.073089e-16 7.052700e-01
7.822820e-17 7.031563e-01
5.702836e-17 7.010489e-01
4.157367e-17 6.989479e-01
3.030721e-17 6.968531e-01
2.209395e-17 6.947647e-01
1.610649e-17 6.926824e-01
1.174163e-17 6.906065e-01
8.559650e-18 6.885367e-01
6.239985e-18 6.864732e-01
4.548949e-18 6.844158e-01
3.316184e-18 6.823646e-01
2.417498e-18 6.803196e-01
1.762356e-18 6.782807e-01
1.284758e-18 6.762478e-01
9.365883e-19 6.742211e-01
6.827729e-19 6.722005e-01
4.977414e-19 6.701859e-01
3.628535e-19 6.681774e-01
2.645202e-19 6.661748e-01
1.928352e-19 6.641783e-01
1.405769e-19 6.621878e-01
1.024805e-19 6.602032e-01
7.470832e-20 6.582246e-01
5.446236e-20 6.562519e-01
3.970306e-20 6.542851e-01
2.894353e-20 6.523242e-01
2.109983e-20 6.503692e-01
1.538178e-20 6.484200e-01
1.121332e-20 6.464767e-01
8.174508e-21 6.445392e-01
5.959217e-21 6.426075e-01
4.344269e-21 6.406816e-01
3.166972e-21 6.387615e-01
2.308723e-21 6.368471e-01
1.683059e-21 6.349385e-01
1.226950e-21 6.330356e-01
8.944464e-22 6.311384e-01
6.520515e-22 6.292468e-01
4.753455e-22 6.273610e-01
3.465269e-22 6.254808e-01
2.526181e-22 6.236062e-01
1.841586e-22 6.217373e-01
1.342516e-22 6.198739e-01
9.786943e-23 6.180162e-01
7.134681e-23 6.161640e-01
5.201183e-23 6.143173e-01
3.791662e-23 6.124762e-01
2.764122e-23 6.106406e-01
2.015045e-23 6.088105e-01
1.468968e-23 6.069859e-01
1.070877e-23 6.051668e-01
7.806696e-24 6.033531e-01
5.691081e-24 6.015449e-01
4.148798e-24 5.997420e-01
3.024474e-24 5.979446e-01
2.204842e-24 5.961526e-01
1.607329e-24 5.943659e-01
1.171743e-24 5.925846e-01
8.542008e-25 5.908086e-01
6.227124e-25 5.890379e-01
4.539573e-25 5.872726e-01
3.309349e-25 5.855125e-01
2.412515e-25 5.837578e-01
1.758724e-25 5.820082e-01
1.282110e-25 5.802640e-01
9.346579e-26 5.785249e-01
6.813656e-26 5.767911e-01
4.967155e-26 5.750624e-01
3.621056e-26 5.733390e-01
2.639750e-26 5.716207e-01
1.924378e-26 5.699075e-01
1.402871e-26 5.681995e-01
1.022693e-26 5.664966e-01
7.455433e-27 5.647988e-01
5.435011e-27 5.631061e-01
3.962123e-27 5.614185e-01
2.888388e-27 5.597359e-01
2.105635e-27 5.580584e-01
1.535008e-27 5.563859e-01
1.119021e-27 5.547184e-01
8.157660e-28 5.530559e-01
5.946934e-28 5.513984e-01
4.335315e-28 5.497458e-01
3.160445e-28 5.480983e-01
2.303964e-28 5.464556e-01
1.679590e-28 5.448179e-01
1.224421e-28 5.431851e-01
8.926029e-29 5.415571e-01
6.507075e-29 5.399341e-01
4.743658e-29 5.383159e-01
3.458126e-29 5.367026e-01
2.520974e-29 5.350941e-01
1.837790e-29 5.334904e-01
1.339749e-29 5.318915e-01
9.766771e-30 5.302974e-01
7.119976e-30 5.287081e-01
5.190462e-30 5.271236e-01
3.783847e-30 5.255438e-01
2.758424e-30 5.239688e-01
2.010891e-30 5.223984e-01
1.465940e-30 5.208328e-01
1.068670e-30 5.192719e-01
7.790605e-31 5.177156e-01
5.679351e-31 5.161640e-01
4.140247e-31 5.146171e-01
3.018240e-31 5.130748e-01
2.200297e-31 5.115371e-01
1.604017e-31 5.100040e-01
1.169328e-31 5.084755e-01
8.524402e-32 5.069516e-01
6.214289e-32 5.054323e-01
4.530217e-32 5.039175e-01
3.302528e-32 5.024073e-01
2.407543e-32 5.009015e-01
1.755099e-32 4.994003e-01
1.279467e-32 4.979036e-01
9.327314e-33 4.964114e-01
6.799612e-33 4.949237e-01
4.956917e-33 4.934404e-01
3.613593e-33 4.919615e-01
2.634309e-33 4.904871e-01
1.920411e-33 4.890171e-01
1.399980e-33 4.875516e-01
1.020585e-33 4.860904e-01
7.440067e-34 4.846335e-01
5.423809e-34 4.831811e-01
3.953957e-34 4.817330e-01
2.882434e-34 4.802893e-01
2.101295e-34 4.788498e-01
1.531844e-34 4.774147e-01
1.116714e-34 4.759839e-01
8.140846e-35 4.745574e-01
5.934677e-35 4.731351e-01
4.326379e-35 4.717171e-01
3.153930e-35 4.703034e-01
2.299215e-35 4.688939e-01
1.676128e-35 4.674886e-01
1.221897e-35 4.660876e-01
8.907631e-36 4.646907e-01
6.493663e-36 4.632980e-01
4.733880e-36 4.619095e-01
3.450999e-36 4.605252e-01
2.515778e-36 4.591450e-01
1.834002e-36 4.577689e-01
1.336988e-36 4.563970e-01
9.746640e-37 4.550292e-01
7.105301e-37 4.536654e-01
5.179764e-37 4.523058e-01
3.776048e-37 4.509502e-01
2.752739e-37 4.495987e-01
2.006747e-37 4.482513e-01
1.462918e-37 4.469079e-01
1.066468e-37 4.455685e-01
7.774548e-38 4.442331e-01
5.667646e-38 4.429018e-01
4.131714e-38 4.415744e-01
3.012019e-38 4.402510e-01
2.195762e-38 4.389316e-01
1.600711e-38 4.376161e-01
1.166918e-38 4.363045e-01
8.506832e-39 4.349969e-01
6.201480e-39 4.336933e-01
4.520879e-39 4.323935e-01
3.295721e-39 4.310976e-01
2.402581e-39 4.298056e-01
1.751481e-39 4.285175e-01
1.276830e-39 4.272332e-01
9.308090e-40 4.259528e-01
6.785597e-40 4.246762e-01
4.946700e-40 4.234034e-01
3.606145e-40 4.221345e-01
2.628879e-40 4.208694e-01
1.916453e-40 4.196080e-01
1.397094e-40 4.183505e-01
1.018482e-40 4.170967e-01
7.424732e-41 4.158466e-01
5.412630e-41 4.146003e-01
3.945807e-41 4.133578e-01
2.876493e-41 4.121189e-01
2.096964e-41 4.108838e-01
1.528686e-41 4.096524e-01
1.114412e-41 4.084247e-01
8.124067e-42 4.072006e-01
5.922445e-42 4.059802e-01
4.317462e-42 4.047635e-01
3.147430e-42 4.035504e-01
2.294476e-42 4.023410e-01
1.672673e-42 4.011352e-01
1.219379e-42 3.999330e-01
8.889272e-43 3.987344e-01
6.480279e-43 3.975394e-01
4.724123e-43 3.963479e-01
3.443886e-43 3.951601e-01
2.510593e-43 3.939758e-01
1.830222e-43 3.927950e-01
1.334232e-43 3.916178e-01
9.726551e-44 3.904442e-01
7.090656e-44 3.892740e-01
5.169088e-44 3.881073e-01
3.768265e-44 3.869442e-01
2.747065e-44 3.857845e-01
2.002611e-44 3.846283e-01
1.459903e-44 3.834756e-01
1.064269e-44 3.823263e-01
7.758524e-45 3.811805e-01
5.655964e-45 3.800381e-01
4.123198e-45 3.788991e-01
3.005811e-45 3.777635e-01
2.191236e-45 3.766314e-01
1.597411e-45 3.755026e-01
1.164513e-45 3.743772e-01
8.489298e-46 3.732552e-01
6.188699e-46 3.721366e-01
4.511561e-46 3.710213e-01
3.288928e-46 3.699093e-01
2.397629e-46 3.688007e-01
1.747871e-46 3.676954e-01
1.274198e-46 3.665934e-01
9.288904e-47 3.654948e-01
6.771611e-47 3.643994e-01
4.936505e-47 3.633073e-01
3.598712e-47 3.622184e-01
2.623461e-47 3.611329e-01
1.912503e-47 3.600506e-01
1.394215e-47 3.589715e-01
1.016383e-47 3.578956e-01
7.409429e-48 3.568230e-01
5.401474e-48 3.557536e-01
3.937674e-48 3.546874e-01
2.870564e-48 3.536244e-01
2.092642e-48 3.525646e-01
1.525536e-48 3.515080e-01
1.112115e-48 3.504545e-01
