8.999023e-01 9.987793e-01
7.287598e-01 9.963379e-01
5.900879e-01 9.938965e-01
4.777832e-01 9.914551e-01
3.869629e-01 9.890137e-01
3.132324e-01 9.865723e-01
2.536621e-01 9.841309e-01
2.053223e-01 9.816895e-01
1.662598e-01 9.792480e-01
1.347656e-01 9.768066e-01
1.091309e-01 9.743652e-01
8.837891e-02 9.719238e-01
7.153320e-02 9.694824e-01
5.810547e-02 9.670410e-01
4.711914e-02 9.645996e-01
3.833008e-02 9.621582e-01
3.100586e-02 9.597168e-01
2.514648e-02 9.572754e-01
2.050781e-02 9.548340e-01
1.660156e-02 9.523926e-01
1.342773e-02 9.499512e-01
1.074219e-02 9.475098e-01
8.789062e-03 9.450684e-01
7.080078e-03 9.426270e-01
5.615234e-03 9.401855e-01
4.638672e-03 9.377441e-01
3.662109e-03 9.353027e-01
2.929688e-03 9.328613e-01
2.441406e-03 9.304199e-01
1.953125e-03 9.279785e-01
1.464844e-03 9.255371e-01
9.765625e-04 9.230957e-01
9.765625e-04 9.206543e-01
9.765625e-04 9.182129e-01
9.765625e-04 9.157715e-01
9.765625e-04 9.133301e-01
9.765625e-04 9.108887e-01
9.765625e-04 9.084473e-01
9.765625e-04 9.060059e-01
9.765625e-04 9.035645e-01
9.765625e-04 9.011230e-01
9.765625e-04 8.989258e-01
9.765625e-04 8.969727e-01
9.765625e-04 8.950195e-01
9.765625e-04 8.930664e-01
9.765625e-04 8.911133e-01
9.765625e-04 8.891602e-01
9.765625e-04 8.872070e-01
9.765625e-04 8.852539e-01
9.765625e-04 8.833008e-01
9.765625e-04 8.813477e-01
9.765625e-04 8.793945e-01
9.765625e-04 8.774414e-01
9.765625e-04 8.754883e-01
9.765625e-04 8.735352e-01
9.765625e-04 8.715820e-01
9.765625e-04 8.696289e-01
9.765625e-04 8.676758e-01
9.765625e-04 8.657227e-01
9.765625e-04 8.637695e-01
9.765625e-04 8.618164e-01
9.765625e-04 8.598633e-01
9.765625e-04 8.579102e-01
9.765625e-04 8.559570e-01
9.765625e-04 8.540039e-01
9.765625e-04 8.520508e-01
9.765625e-04 8.500977e-01
9.765625e-04 8.481445e-01
9.765625e-04 8.461914e-01
9.765625e-04 8.442383e-01
9.765625e-04 8.422852e-01
9.765625e-04 8.403320e-01
9.765625e-04 8.383789e-01
9.765625e-04 8.364258e-01
9.765625e-04 8.344727e-01
9.765625e-04 8.325195e-01
9.765625e-04 8.305664e-01
9.765625e-04 8.286133e-01
9.765625e-04 8.266602e-01
9.765625e-04 8.247070e-01
9.765625e-04 8.227539e-01
9.765625e-04 8.208008e-01
9.765625e-04 8.188477e-01
9.765625e-04 8.168945e-01
9.765625e-04 8.149414e-01
9.765625e-04 8.129883e-01
9.765625e-04 8.110352e-01
9.765625e-04 8.090820e-01
9.765625e-04 8.071289e-01
9.765625e-04 8.051758e-01
9.765625e-04 8.032227e-01
9.765625e-04 8.012695e-01
9.765625e-04 7.993164e-01
9.765625e-04 7.973633e-01
9.765625e-04 7.954102e-01
9.765625e-04 7.934570e-01
9.765625e-04 7.915039e-01
9.765625e-04 7.895508e-01
9.765625e-04 7.875977e-01
9.765625e-04 7.856445e-01
9.765625e-04 7.836914e-01
9.765625e-04 7.817383e-01
9.765625e-04 7.797852e-01
9.765625e-04 7.778320e-01
9.765625e-04 7.758789e-01
9.765625e-04 7.739258e-01
9.765625e-04 7.719727e-01
9.765625e-04 7.700195e-01
9.765625e-04 7.680664e-01
9.765625e-04 7.661133e-01
9.765625e-04 7.641602e-01
9.765625e-04 7.622070e-01
9.765625e-04 7.602539e-01
9.765625e-04 7.583008e-01
9.765625e-04 7.563477e-01
9.765625e-04 7.543945e-01
9.765625e-04 7.524414e-01
9.765625e-04 7.504883e-01
9.765625e-04 7.485352e-01
9.765625e-04 7.465820e-01
9.765625e-04 7.446289e-01
9.765625e-04 7.426758e-01
9.765625e-04 7.407227e-01
9.765625e-04 7.387695e-01
9.765625e-04 7.368164e-01
9.765625e-04 7.348633e-01
9.765625e-04 7.329102e-01
9.765625e-04 7.309570e-01
9.765625e-04 7.290039e-01
9.765625e-04 7.270508e-01
9.765625e-04 7.250977e-01
9.765625e-04 7.231445e-01
9.765625e-04 7.211914e-01
9.765625e-04 7.192383e-01
9.765625e-04 7.172852e-01
9.765625e-04 7.153320e-01
9.765625e-04 7.133789e-01
9.765625e-04 7.114258e-01
9.765625e-04 7.094727e-01
9.765625e-04 7.075195e-01
9.765625e-04 7.055664e-01
9.765625e-04 7.036133e-01
9.765625e-04 7.016602e-01
9.765625e-04 6.997070e-01
9.765625e-04 6.982422e-01
9.765625e-04 6.967773e-01
9.765625e-04 6.953125e-01
9.765625e-04 6.938477e-01
9.765625e-04 6.923828e-01
9.765625e-04 6.909180e-01
9.765625e-04 6.894531e-01
9.765625e-04 6.879883e-01
9.765625e-04 6.865234e-01
9.765625e-04 6.850586e-01
9.765625e-04 6.835938e-01
9.765625e-04 6.821289e-01
9.765625e-04 6.806641e-01
9.765625e-04 6.791992e-01
9.765625e-04 6.777344e-01
9.765625e-04 6.762695e-01
9.765625e-04 6.748047e-01
9.765625e-04 6.733398e-01
9.765625e-04 6.718750e-01
9.765625e-04 6.704102e-01
9.765625e-04 6.689453e-01
9.765625e-04 6.674805e-01
9.765625e-04 6.660156e-01
9.765625e-04 6.645508e-01
9.765625e-04 6.630859e-01
9.765625e-04 6.616211e-01
9.765625e-04 6.601562e-01
9.765625e-04 6.586914e-01
9.765625e-04 6.572266e-01
9.765625e-04 6.557617e-01
9.765625e-04 6.542969e-01
9.765625e-04 6.528320e-01
9.765625e-04 6.513672e-01
9.765625e-04 6.499023e-01
9.765625e-04 6.484375e-01
9.765625e-04 6.469727e-01
9.765625e-04 6.455078e-01
9.765625e-04 6.440430e-01
9.765625e-04 6.425781e-01
9.765625e-04 6.411133e-01
9.765625e-04 6.396484e-01
9.765625e-04 6.381836e-01
9.765625e-04 6.367188e-01
9.765625e-04 6.352539e-01
9.765625e-04 6.337891e-01
9.765625e-04 6.323242e-01
9.765625e-04 6.308594e-01
9.765625e-04 6.293945e-01
9.765625e-04 6.279297e-01
9.765625e-04 6.264648e-01
9.765625e-04 6.250000e-01
9.765625e-04 6.235352e-01
9.765625e-04 6.220703e-01
9.765625e-04 6.206055e-01
9.765625e-04 6.191406e-01
9.765625e-04 6.176758e-01
9.765625e-04 6.162109e-01
9.765625e-04 6.147461e-01
9.765625e-04 6.132812e-01
9.765625e-04 6.118164e-01
9.765625e-04 6.103516e-01
9.765625e-04 6.088867e-01
9.765625e-04 6.074219e-01
9.765625e-04 6.059570e-01
9.765625e-04 6.044922e-01
9.765625e-04 6.030273e-01
9.765625e-04 6.015625e-01
9.765625e-04 6.000977e-01
9.765625e-04 5.986328e-01
9.765625e-04 5.971680e-01
9.765625e-04 5.957031e-01
9.765625e-04 5.942383e-01
9.765625e-04 5.927734e-01
9.765625e-04 5.913086e-01
9.765625e-04 5.898438e-01
9.765625e-04 5.883789e-01
9.765625e-04 5.869141e-01
9.765625e-04 5.854492e-01
9.765625e-04 5.839844e-01
9.765625e-04 5.825195e-01
9.765625e-04 5.810547e-01
9.765625e-04 5.795898e-01
9.765625e-04 5.781250e-01
9.765625e-04 5.766602e-01
9.765625e-04 5.751953e-01
9.765625e-04 5.737305e-01
9.765625e-04 5.722656e-01
9.765625e-04 5.708008e-01
9.765625e-04 5.693359e-01
9.765625e-04 5.678711e-01
9.765625e-04 5.664062e-01
9.765625e-04 5.649414e-01
9.765625e-04 5.634766e-01
9.765625e-04 5.620117e-01
9.765625e-04 5.605469e-01
9.765625e-04 5.590820e-01
9.765625e-04 5.576172e-01
9.765625e-04 5.561523e-01
9.765625e-04 5.546875e-01
9.765625e-04 5.532227e-01
9.765625e-04 5.517578e-01
9.765625e-04 5.502930e-01
9.765625e-04 5.488281e-01
9.765625e-04 5.473633e-01
9.765625e-04 5.458984e-01
9.765625e-04 5.444336e-01
9.765625e-04 5.429688e-01
9.765625e-04 5.415039e-01
9.765625e-04 5.400391e-01
9.765625e-04 5.385742e-01
9.765625e-04 5.371094e-01
9.765625e-04 5.356445e-01
9.765625e-04 5.341797e-01
9.765625e-04 5.327148e-01
9.765625e-04 5.312500e-01
9.765625e-04 5.297852e-01
9.765625e-04 5.283203e-01
9.765625e-04 5.268555e-01
9.765625e-04 5.253906e-01
9.765625e-04 5.239258e-01
9.765625e-04 5.224609e-01
9.765625e-04 5.209961e-01
9.765625e-04 5.195312e-01
9.765625e-04 5.180664e-01
9.765625e-04 5.166016e-01
9.765625e-04 5.151367e-01
9.765625e-04 5.136719e-01
9.765625e-04 5.122070e-01
9.765625e-04 5.107422e-01
9.765625e-04 5.092773e-01
9.765625e-04 5.078125e-01
9.765625e-04 5.063477e-01
9.765625e-04 5.048828e-01
9.765625e-04 5.034180e-01
9.765625e-04 5.019531e-01
9.765625e-04 5.004883e-01
9.765625e-04 4.992676e-01
9.765625e-04 4.982910e-01
9.765625e-04 4.973145e-01
9.765625e-04 4.963379e-01
9.765625e-04 4.953613e-01
9.765625e-04 4.943848e-01
9.765625e-04 4.934082e-01
9.765625e-04 4.924316e-01
9.765625e-04 4.914551e-01
9.765625e-04 4.904785e-01
9.765625e-04 4.895020e-01
9.765625e-04 4.885254e-01
9.765625e-04 4.875488e-01
9.765625e-04 4.865723e-01
9.765625e-04 4.855957e-01
9.765625e-04 4.846191e-01
9.765625e-04 4.836426e-01
9.765625e-04 4.826660e-01
9.765625e-04 4.816895e-01
9.765625e-04 4.807129e-01
9.765625e-04 4.797363e-01
9.765625e-04 4.787598e-01
9.765625e-04 4.777832e-01
9.765625e-04 4.768066e-01
9.765625e-04 4.758301e-01
9.765625e-04 4.748535e-01
9.765625e-04 4.738770e-01
9.765625e-04 4.729004e-01
9.765625e-04 4.719238e-01
9.765625e-04 4.709473e-01
9.765625e-04 4.699707e-01
9.765625e-04 4.689941e-01
9.765625e-04 4.680176e-01
9.765625e-04 4.670410e-01
9.765625e-04 4.660645e-01
9.765625e-04 4.650879e-01
9.765625e-04 4.641113e-01
9.765625e-04 4.631348e-01
9.765625e-04 4.621582e-01
9.765625e-04 4.611816e-01
9.765625e-04 4.602051e-01
9.765625e-04 4.592285e-01
9.765625e-04 4.582520e-01
9.765625e-04 4.572754e-01
9.765625e-04 4.562988e-01
9.765625e-04 4.553223e-01
9.765625e-04 4.543457e-01
9.765625e-04 4.533691e-01
9.765625e-04 4.523926e-01
9.765625e-04 4.514160e-01
9.765625e-04 4.504395e-01
9.765625e-04 4.494629e-01
9.765625e-04 4.484863e-01
9.765625e-04 4.475098e-01
9.765625e-04 4.465332e-01
9.765625e-04 4.455566e-01
9.765625e-04 4.445801e-01
9.765625e-04 4.436035e-01
9.765625e-04 4.426270e-01
9.765625e-04 4.416504e-01
9.765625e-04 4.406738e-01
9.765625e-04 4.396973e-01
9.765625e-04 4.387207e-01
9.765625e-04 4.377441e-01
9.765625e-04 4.367676e-01
9.765625e-04 4.357910e-01
9.765625e-04 4.348145e-01
9.765625e-04 4.338379e-01
9.765625e-04 4.328613e-01
9.765625e-04 4.318848e-01
9.765625e-04 4.309082e-01
9.765625e-04 4.299316e-01
9.765625e-04 4.289551e-01
9.765625e-04 4.279785e-01
9.765625e-04 4.270020e-01
9.765625e-04 4.260254e-01
9.765625e-04 4.250488e-01
9.765625e-04 4.240723e-01
9.765625e-04 4.230957e-01
9.765625e-04 4.221191e-01
9.765625e-04 4.211426e-01
9.765625e-04 4.201660e-01
9.765625e-04 4.191895e-01
9.765625e-04 4.182129e-01
9.765625e-04 4.172363e-01
9.765625e-04 4.162598e-01
9.765625e-04 4.152832e-01
9.765625e-04 4.143066e-01
9.765625e-04 4.133301e-01
9.765625e-04 4.123535e-01
9.765625e-04 4.113770e-01
9.765625e-04 4.104004e-01
9.765625e-04 4.094238e-01
9.765625e-04 4.084473e-01
9.765625e-04 4.074707e-01
9.765625e-04 4.064941e-01
9.765625e-04 4.055176e-01
9.765625e-04 4.045410e-01
9.765625e-04 4.035645e-01
9.765625e-04 4.025879e-01
9.765625e-04 4.016113e-01
9.765625e-04 4.006348e-01
9.765625e-04 3.996582e-01
9.765625e-04 3.986816e-01
9.765625e-04 3.977051e-01
9.765625e-04 3.967285e-01
9.765625e-04 3.957520e-01
9.765625e-04 3.947754e-01
9.765625e-04 3.937988e-01
9.765625e-04 3.928223e-01
9.765625e-04 3.918457e-01
9.765625e-04 3.908691e-01
9.765625e-04 3.898926e-01
9.765625e-04 3.889160e-01
9.765625e-04 3.879395e-01
9.765625e-04 3.869629e-01
9.765625e-04 3.859863e-01
9.765625e-04 3.850098e-01
9.765625e-04 3.840332e-01
9.765625e-04 3.830566e-01
9.765625e-04 3.820801e-01
9.765625e-04 3.811035e-01
9.765625e-04 3.801270e-01
9.765625e-04 3.791504e-01
9.765625e-04 3.781738e-01
9.765625e-04 3.771973e-01
9.765625e-04 3.762207e-01
9.765625e-04 3.752441e-01
9.765625e-04 3.742676e-01
9.765625e-04 3.732910e-01
9.765625e-04 3.723145e-01
9.765625e-04 3.713379e-01
9.765625e-04 3.703613e-01
9.765625e-04 3.693848e-01
9.765625e-04 3.684082e-01
9.765625e-04 3.674316e-01
9.765625e-04 3.664551e-01
9.765625e-04 3.654785e-01
9.765625e-04 3.645020e-01
9.765625e-04 3.635254e-01
9.765625e-04 3.625488e-01
9.765625e-04 3.615723e-01
9.765625e-04 3.605957e-01
9.765625e-04 3.596191e-01
9.765625e-04 3.586426e-01
9.765625e-04 3.576660e-01
9.765625e-04 3.566895e-01
9.765625e-04 3.557129e-01
9.765625e-04 3.547363e-01
9.765625e-04 3.537598e-01
9.765625e-04 3.527832e-01
9.765625e-04 3.518066e-01
9.765625e-04 3.508301e-01
9.765625e-04 3.498535e-01
9.765625e-04 3.488770e-01
9.765625e-04 3.479004e-01
9.765625e-04 3.469238e-01
9.765625e-04 3.459473e-01
9.765625e-04 3.449707e-01
9.765625e-04 3.439941e-01
9.765625e-04 3.430176e-01
9.765625e-04 3.420410e-01
9.765625e-04 3.410645e-01
9.765625e-04 3.400879e-01
9.765625e-04 3.391113e-01
9.765625e-04 3.381348e-01
9.765625e-04 3.371582e-01
9.765625e-04 3.361816e-01
9.765625e-04 3.352051e-01
9.765625e-04 3.342285e-01
9.765625e-04 3.332520e-01
9.765625e-04 3.322754e-01
9.765625e-04 3.312988e-01
9.765625e-04 3.303223e-01
9.765625e-04 3.293457e-01
9.765625e-04 3.283691e-01
9.765625e-04 3.273926e-01
9.765625e-04 3.264160e-01
9.765625e-04 3.254395e-01
9.765625e-04 3.244629e-01
9.765625e-04 3.234863e-01
9.765625e-04 3.225098e-01
9.765625e-04 3.215332e-01
9.765625e-04 3.205566e-01
9.765625e-04 3.195801e-01
9.765625e-04 3.186035e-01
9.765625e-04 3.176270e-01
9.765625e-04 3.166504e-01
9.765625e-04 3.156738e-01
9.765625e-04 3.146973e-01
9.765625e-04 3.137207e-01
9.765625e-04 3.127441e-01
9.765625e-04 3.117676e-01
9.765625e-04 3.107910e-01
9.765625e-04 3.098145e-01
9.765625e-04 3.088379e-01
9.765625e-04 3.078613e-01
9.765625e-04 3.068848e-01
9.765625e-04 3.059082e-01
9.765625e-04 3.049316e-01
9.765625e-04 3.039551e-01
9.765625e-04 3.029785e-01
9.765625e-04 3.020020e-01
9.765625e-04 3.010254e-01
9.765625e-04 3.000488e-01
9.765625e-04 2.993164e-01
9.765625e-04 2.988281e-01
9.765625e-04 2.983398e-01
9.765625e-04 2.978516e-01
9.765625e-04 2.973633e-01
9.765625e-04 2.968750e-01
9.765625e-04 2.963867e-01
9.765625e-04 2.958984e-01
