7.206253e+01 3.697917e-01 -4.013989e-02 6.067768e-01 -9.987030e-01 9.952698e-01
5.749152e+01 3.697917e-01 -6.530279e-02 5.940382e-01 -1.090424e+00 9.418640e-01
5.634454e+01 3.697917e-01 -8.032091e-02 5.963966e-01 -1.081772e+00 1.010849e+00
5.647974e+01 3.697917e-01 -9.273442e-02 5.978074e-01 -1.081772e+00 1.015503e+00
5.765157e+01 3.697917e-01 -8.486205e-02 6.017696e-01 -1.083420e+00 1.035767e+00
5.656149e+01 3.697917e-01 -8.997471e-02 6.018583e-01 -1.088272e+00 1.048248e+00
5.414761e+01 3.697917e-01 -1.059827e-01 6.206771e-01 -1.173920e+00 1.218109e+00
5.174017e+01 3.697917e-01 -1.036913e-01 6.449727e-01 -1.345749e+00 1.382645e+00
5.147624e+01 3.697917e-01 -9.921390e-02 6.692303e-01 -1.346497e+00 1.388840e+00
5.088518e+01 3.437500e-01 -9.943631e-02 6.896249e-01 -1.385422e+00 1.532593e+00
4.998447e+01 3.489583e-01 -1.029954e-01 7.004755e-01 -1.560852e+00 1.577560e+00
5.034651e+01 3.645833e-01 -1.065780e-01 7.162425e-01 -1.557465e+00 1.557999e+00
5.049379e+01 3.593750e-01 -1.063161e-01 7.177021e-01 -1.557510e+00 1.565933e+00
5.043703e+01 3.593750e-01 -1.062009e-01 7.178300e-01 -1.557739e+00 1.566040e+00
5.006476e+01 3.333333e-01 -1.001753e-01 7.218118e-01 -1.537079e+00 1.600479e+00
4.907219e+01 3.229167e-01 -1.044732e-01 7.257609e-01 -1.592926e+00 1.619400e+00
4.907219e+01 3.229167e-01 -1.046739e-01 7.262946e-01 -1.592926e+00 1.619400e+00
4.916086e+01 3.177083e-01 -1.045459e-01 7.264136e-01 -1.591675e+00 1.618744e+00
4.899834e+01 3.229167e-01 -1.046611e-01 7.270383e-01 -1.600403e+00 1.624115e+00
4.917532e+01 3.229167e-01 -1.045209e-01 7.279283e-01 -1.600403e+00 1.624115e+00
4.878728e+01 3.333333e-01 -1.049865e-01 7.444922e-01 -1.753128e+00 1.681442e+00
4.865144e+01 3.333333e-01 -1.057901e-01 7.548060e-01 -1.760651e+00 1.697617e+00
4.876759e+01 3.229167e-01 -1.047174e-01 7.600063e-01 -1.770035e+00 1.699600e+00
4.859631e+01 3.177083e-01 -1.055568e-01 7.610469e-01 -1.772507e+00 1.700500e+00
4.477689e+01 2.604167e-01 -1.097871e-01 8.291974e-01 -2.291199e+00 2.250610e+00
4.697118e+01 3.020833e-01 -1.295601e-01 9.345093e-01 -2.735306e+00 2.404984e+00
4.432770e+01 2.604167e-01 -1.294186e-01 9.385224e-01 -2.711884e+00 2.461197e+00
4.524254e+01 2.864583e-01 -1.189226e-01 9.593699e-01 -2.775970e+00 2.509186e+00
4.275108e+01 2.708333e-01 -1.223398e-01 9.782282e-01 -2.850967e+00 2.692291e+00
4.356334e+01 2.604167e-01 -1.201017e-01 9.951770e-01 -2.850967e+00 2.686691e+00
4.222346e+01 2.447917e-01 -1.123252e-01 1.008884e+00 -2.842590e+00 2.709763e+00
4.312923e+01 2.447917e-01 -1.113194e-01 1.011785e+00 -2.861862e+00 2.702026e+00
4.308028e+01 2.447917e-01 -1.096875e-01 1.022752e+00 -2.912827e+00 2.825577e+00
4.229074e+01 2.447917e-01 -1.065158e-01 1.036014e+00 -2.899002e+00 2.883240e+00
4.247592e+01 2.395833e-01 -1.054797e-01 1.036296e+00 -2.908142e+00 2.870026e+00
4.247592e+01 2.395833e-01 -1.054798e-01 1.036301e+00 -2.908142e+00 2.869873e+00
4.097377e+01 2.395833e-01 -1.015687e-01 1.084151e+00 -3.026443e+00 3.040619e+00
4.097255e+01 2.343750e-01 -9.990113e-02 1.087034e+00 -3.024750e+00 3.040619e+00
4.127962e+01 2.239583e-01 -1.007575e-01 1.087910e+00 -3.032272e+00 3.031937e+00
4.128575e+01 2.395833e-01 -1.015866e-01 1.089863e+00 -3.021133e+00 3.048996e+00
4.122841e+01 2.395833e-01 -1.015667e-01 1.089863e+00 -3.021240e+00 3.048798e+00
4.122841e+01 2.395833e-01 -1.015667e-01 1.089863e+00 -3.021240e+00 3.048798e+00
4.103766e+01 2.291667e-01 -1.006349e-01 1.094919e+00 -3.048584e+00 3.056015e+00
4.146980e+01 2.552083e-01 -1.010371e-01 1.099245e+00 -3.048584e+00 3.067947e+00
4.077295e+01 2.343750e-01 -1.019903e-01 1.107243e+00 -3.068283e+00 3.108856e+00
4.246260e+01 2.447917e-01 -9.951164e-02 1.104163e+00 -3.070160e+00 2.968124e+00
4.107909e+01 2.656250e-01 -1.000743e-01 1.110463e+00 -3.035965e+00 3.024155e+00
4.081702e+01 2.343750e-01 -9.907155e-02 1.110712e+00 -3.048599e+00 3.013962e+00
4.139120e+01 2.239583e-01 -9.895653e-02 1.112122e+00 -3.062637e+00 3.000549e+00
4.172313e+01 2.187500e-01 -9.860819e-02 1.113731e+00 -3.065125e+00 2.988571e+00
4.043062e+01 2.343750e-01 -8.766445e-02 1.134135e+00 -3.059708e+00 3.092468e+00
4.103123e+01 2.343750e-01 -8.520382e-02 1.133719e+00 -3.077225e+00 3.061752e+00
4.114507e+01 2.291667e-01 -8.507953e-02 1.133653e+00 -3.077667e+00 3.059738e+00
4.079807e+01 2.187500e-01 -8.304808e-02 1.133004e+00 -3.075958e+00 3.066376e+00
4.079807e+01 2.187500e-01 -8.300337e-02 1.133042e+00 -3.075378e+00 3.066376e+00
4.074147e+01 2.187500e-01 -8.307001e-02 1.133076e+00 -3.075378e+00 3.066818e+00
4.094193e+01 2.187500e-01 -8.808204e-02 1.136704e+00 -3.092575e+00 3.083221e+00
3.963210e+01 2.083333e-01 -8.941650e-02 1.149397e+00 -3.115631e+00 3.204666e+00
4.086922e+01 2.187500e-01 -9.002859e-02 1.150262e+00 -3.145798e+00 3.198532e+00
4.064415e+01 2.187500e-01 -9.162053e-02 1.151593e+00 -3.145798e+00 3.185379e+00
4.058005e+01 2.187500e-01 -9.219418e-02 1.152223e+00 -3.141602e+00 3.185379e+00
4.081087e+01 2.135417e-01 -9.186795e-02 1.152585e+00 -3.147934e+00 3.171951e+00
4.081087e+01 2.135417e-01 -9.176037e-02 1.152706e+00 -3.147934e+00 3.171692e+00
3.945311e+01 2.135417e-01 -9.045468e-02 1.162962e+00 -3.177521e+00 3.290146e+00
4.104652e+01 2.135417e-01 -8.838538e-02 1.172541e+00 -3.196411e+00 3.290146e+00
3.992274e+01 2.083333e-01 -8.802023e-02 1.173359e+00 -3.196411e+00 3.286102e+00
4.034682e+01 2.031250e-01 -8.785499e-02 1.173737e+00 -3.194504e+00 3.286102e+00
4.039655e+01 2.083333e-01 -8.755648e-02 1.173640e+00 -3.194702e+00 3.282364e+00
4.049023e+01 2.083333e-01 -8.763412e-02 1.173754e+00 -3.195541e+00 3.281143e+00
4.049023e+01 2.083333e-01 -8.766319e-02 1.173770e+00 -3.195602e+00 3.280167e+00
4.049023e+01 2.083333e-01 -8.765865e-02 1.173772e+00 -3.195602e+00 3.280075e+00
4.087257e+01 2.187500e-01 -8.758699e-02 1.173692e+00 -3.201569e+00 3.276611e+00
4.129367e+01 2.187500e-01 -8.795572e-02 1.175097e+00 -3.208282e+00 3.253433e+00
3.963976e+01 2.187500e-01 -9.027370e-02 1.176636e+00 -3.195969e+00 3.286819e+00
3.970213e+01 2.187500e-01 -9.022483e-02 1.176730e+00 -3.196533e+00 3.286179e+00
3.977017e+01 2.135417e-01 -9.014352e-02 1.176749e+00 -3.198456e+00 3.284546e+00
4.117921e+01 2.187500e-01 -8.830039e-02 1.176183e+00 -3.211884e+00 3.282822e+00
3.954779e+01 2.187500e-01 -8.859572e-02 1.177031e+00 -3.211884e+00 3.304260e+00
3.957977e+01 2.239583e-01 -9.073967e-02 1.178442e+00 -3.195251e+00 3.304260e+00
3.986269e+01 2.239583e-01 -9.101926e-02 1.178166e+00 -3.198532e+00 3.293289e+00
3.986992e+01 2.187500e-01 -9.109825e-02 1.178100e+00 -3.199234e+00 3.291565e+00
4.085844e+01 2.135417e-01 -8.857486e-02 1.177551e+00 -3.210648e+00 3.264282e+00
4.085844e+01 2.135417e-01 -8.857051e-02 1.177552e+00 -3.210648e+00 3.263718e+00
3.978928e+01 2.083333e-01 -9.033705e-02 1.180803e+00 -3.206696e+00 3.287949e+00
4.105827e+01 2.083333e-01 -8.580123e-02 1.219260e+00 -3.283951e+00 3.285172e+00
3.984056e+01 2.343750e-01 -7.956280e-02 1.223545e+00 -3.283951e+00 3.238449e+00
4.059702e+01 2.083333e-01 -7.883164e-02 1.222685e+00 -3.268753e+00 3.238449e+00
3.947929e+01 2.447917e-01 -7.931267e-02 1.223989e+00 -3.268753e+00 3.259918e+00
3.986630e+01 2.343750e-01 -8.014679e-02 1.225028e+00 -3.262085e+00 3.259918e+00
3.953613e+01 2.187500e-01 -7.981428e-02 1.224871e+00 -3.265625e+00 3.243744e+00
3.968018e+01 2.291667e-01 -7.982211e-02 1.224912e+00 -3.265625e+00 3.243973e+00
3.956755e+01 2.239583e-01 -7.981882e-02 1.224949e+00 -3.265625e+00 3.243973e+00
4.063895e+01 2.135417e-01 -8.066530e-02 1.225081e+00 -3.274551e+00 3.220367e+00
3.894339e+01 2.239583e-01 -8.267405e-02 1.226484e+00 -3.260696e+00 3.250687e+00
4.035573e+01 2.135417e-01 -8.100408e-02 1.230165e+00 -3.283142e+00 3.251740e+00
4.035573e+01 2.135417e-01 -7.993548e-02 1.233328e+00 -3.283142e+00 3.251877e+00
4.035573e+01 2.135417e-01 -7.994118e-02 1.233330e+00 -3.283096e+00 3.251877e+00
4.032469e+01 2.135417e-01 -7.957063e-02 1.233679e+00 -3.286438e+00 3.245789e+00
4.032469e+01 2.135417e-01 -7.958559e-02 1.233711e+00 -3.286438e+00 3.245193e+00
4.017111e+01 2.135417e-01 -7.959892e-02 1.233702e+00 -3.286438e+00 3.245468e+00
3.941002e+01 2.291667e-01 -8.292341e-02 1.242287e+00 -3.275558e+00 3.281967e+00
3.889545e+01 2.343750e-01 -8.306788e-02 1.242581e+00 -3.272568e+00 3.284592e+00
3.987468e+01 2.187500e-01 -8.177919e-02 1.242111e+00 -3.277390e+00 3.284393e+00
3.896509e+01 2.239583e-01 -8.093271e-02 1.241450e+00 -3.277390e+00 3.274109e+00
3.896509e+01 2.239583e-01 -8.134963e-02 1.241274e+00 -3.259476e+00 3.274109e+00
3.923097e+01 2.187500e-01 -8.117135e-02 1.241245e+00 -3.261551e+00 3.274033e+00
3.992455e+01 2.135417e-01 -8.006287e-02 1.240500e+00 -3.271423e+00 3.253983e+00
3.877223e+01 2.187500e-01 -7.626304e-02 1.238554e+00 -3.253708e+00 3.333130e+00
3.985594e+01 2.187500e-01 -7.446955e-02 1.238073e+00 -3.262421e+00 3.317184e+00
3.985594e+01 2.187500e-01 -7.443102e-02 1.238038e+00 -3.262421e+00 3.312836e+00
3.960580e+01 2.187500e-01 -7.401285e-02 1.237231e+00 -3.241623e+00 3.348724e+00
3.990196e+01 2.187500e-01 -7.487787e-02 1.237320e+00 -3.246353e+00 3.348724e+00
4.045238e+01 2.187500e-01 -7.560102e-02 1.238148e+00 -3.258118e+00 3.334213e+00
4.038260e+01 2.135417e-01 -7.634329e-02 1.238906e+00 -3.258118e+00 3.324921e+00
4.005162e+01 2.187500e-01 -7.749620e-02 1.241249e+00 -3.257278e+00 3.366074e+00
4.005162e+01 2.187500e-01 -7.857117e-02 1.243489e+00 -3.237137e+00 3.366074e+00
3.991701e+01 2.187500e-01 -7.918384e-02 1.243630e+00 -3.238800e+00 3.364059e+00
4.014742e+01 2.239583e-01 -8.049185e-02 1.242420e+00 -3.242996e+00 3.349472e+00
3.954694e+01 2.187500e-01 -8.235053e-02 1.243642e+00 -3.236343e+00 3.366455e+00
4.008611e+01 2.187500e-01 -8.067225e-02 1.243161e+00 -3.242325e+00 3.353851e+00
3.948055e+01 2.135417e-01 -8.216916e-02 1.244161e+00 -3.236694e+00 3.370087e+00
3.984489e+01 2.187500e-01 -8.152443e-02 1.244381e+00 -3.245316e+00 3.368057e+00
3.905128e+01 2.135417e-01 -6.469137e-02 1.236812e+00 -3.228149e+00 3.602905e+00
3.951869e+01 2.031250e-01 -6.002991e-02 1.237295e+00 -3.221619e+00 3.602905e+00
3.995203e+01 2.031250e-01 -5.752399e-02 1.237410e+00 -3.227280e+00 3.575211e+00
3.987517e+01 2.031250e-01 -5.718067e-02 1.237677e+00 -3.228012e+00 3.564804e+00
3.987517e+01 2.031250e-01 -5.710283e-02 1.237685e+00 -3.228012e+00 3.562653e+00
3.990091e+01 2.031250e-01 -5.709211e-02 1.237697e+00 -3.228134e+00 3.562653e+00
3.992863e+01 2.031250e-01 -5.687723e-02 1.237728e+00 -3.228348e+00 3.562195e+00
3.895149e+01 1.979167e-01 -6.031297e-02 1.241030e+00 -3.214905e+00 3.582443e+00
3.934369e+01 2.083333e-01 -5.821450e-02 1.240591e+00 -3.225632e+00 3.563324e+00
3.957480e+01 2.083333e-01 -5.854633e-02 1.240747e+00 -3.228409e+00 3.557129e+00
3.930717e+01 2.083333e-01 -5.883712e-02 1.241072e+00 -3.228989e+00 3.558441e+00
3.930717e+01 2.083333e-01 -5.910096e-02 1.241365e+00 -3.228989e+00 3.558441e+00
3.929738e+01 2.083333e-01 -5.908589e-02 1.241365e+00 -3.229065e+00 3.558304e+00
3.995486e+01 2.083333e-01 -5.971913e-02 1.242036e+00 -3.236069e+00 3.557388e+00
3.995486e+01 2.083333e-01 -6.035643e-02 1.242630e+00 -3.236069e+00 3.540482e+00
3.995486e+01 2.083333e-01 -6.035643e-02 1.242630e+00 -3.236069e+00 3.540482e+00
3.885106e+01 2.135417e-01 -5.984236e-02 1.243460e+00 -3.235580e+00 3.550949e+00
3.899886e+01 2.083333e-01 -5.902196e-02 1.244901e+00 -3.231705e+00 3.548782e+00
3.970287e+01 2.083333e-01 -5.848423e-02 1.244735e+00 -3.237106e+00 3.543030e+00
3.909756e+01 2.031250e-01 -6.102811e-02 1.245881e+00 -3.247299e+00 3.542923e+00
3.937413e+01 2.135417e-01 -6.147650e-02 1.247775e+00 -3.247452e+00 3.529236e+00
3.939917e+01 2.135417e-01 -6.086586e-02 1.248382e+00 -3.246689e+00 3.529236e+00
3.937575e+01 2.135417e-01 -6.092825e-02 1.248434e+00 -3.246689e+00 3.529343e+00
3.937575e+01 2.135417e-01 -6.098301e-02 1.248467e+00 -3.246567e+00 3.529343e+00
3.937575e+01 2.135417e-01 -6.098706e-02 1.248470e+00 -3.246582e+00 3.529343e+00
3.901337e+01 2.135417e-01 -6.630716e-02 1.253183e+00 -3.254730e+00 3.508118e+00
3.901337e+01 2.135417e-01 -6.827613e-02 1.254337e+00 -3.254395e+00 3.503113e+00
3.887556e+01 2.083333e-01 -6.783835e-02 1.254964e+00 -3.254181e+00 3.517212e+00
3.897237e+01 2.031250e-01 -6.727851e-02 1.255621e+00 -3.253082e+00 3.517212e+00
3.922476e+01 2.083333e-01 -6.650958e-02 1.255963e+00 -3.254272e+00 3.512909e+00
3.910928e+01 2.083333e-01 -6.588108e-02 1.256161e+00 -3.254272e+00 3.513535e+00
3.932207e+01 2.083333e-01 -6.589160e-02 1.256192e+00 -3.254471e+00 3.513535e+00
3.932207e+01 2.083333e-01 -6.585848e-02 1.256189e+00 -3.254471e+00 3.512726e+00
3.893221e+01 2.500000e-01 -7.055838e-02 1.258992e+00 -3.242813e+00 3.537506e+00
3.949245e+01 2.083333e-01 -6.828434e-02 1.258633e+00 -3.265198e+00 3.537506e+00
3.949245e+01 2.083333e-01 -6.601029e-02 1.258269e+00 -3.265198e+00 3.491302e+00
3.974033e+01 2.135417e-01 -6.713413e-02 1.259861e+00 -3.271255e+00 3.491302e+00
4.023062e+01 2.135417e-01 -7.073955e-02 1.261759e+00 -3.281647e+00 3.429932e+00
3.894977e+01 2.187500e-01 -7.219493e-02 1.261405e+00 -3.264420e+00 3.451309e+00
3.954390e+01 2.187500e-01 -7.124696e-02 1.262514e+00 -3.273727e+00 3.441437e+00
3.904048e+01 2.135417e-01 -7.152519e-02 1.262879e+00 -3.269424e+00 3.460892e+00
3.904048e+01 2.135417e-01 -7.130181e-02 1.262958e+00 -3.267227e+00 3.460892e+00
3.927788e+01 2.135417e-01 -7.256771e-02 1.264526e+00 -3.263718e+00 3.478058e+00
3.918188e+01 2.135417e-01 -6.986922e-02 1.263953e+00 -3.275833e+00 3.451157e+00
3.976340e+01 2.187500e-01 -6.987096e-02 1.264879e+00 -3.284683e+00 3.451019e+00
3.961275e+01 2.187500e-01 -6.972552e-02 1.267330e+00 -3.291290e+00 3.444077e+00
3.903679e+01 2.135417e-01 -7.069725e-02 1.271142e+00 -3.296112e+00 3.462402e+00
3.938121e+01 2.135417e-01 -6.981765e-02 1.271918e+00 -3.303162e+00 3.455139e+00
3.944891e+01 2.135417e-01 -6.862496e-02 1.271221e+00 -3.302002e+00 3.460510e+00
3.936821e+01 2.135417e-01 -6.757818e-02 1.270721e+00 -3.301834e+00 3.462387e+00
3.888144e+01 2.187500e-01 -6.687753e-02 1.270240e+00 -3.299667e+00 3.482178e+00
3.888144e+01 2.187500e-01 -6.727446e-02 1.269738e+00 -3.299667e+00 3.482178e+00
3.887817e+01 2.187500e-01 -6.725900e-02 1.269738e+00 -3.299713e+00 3.482101e+00
3.917392e+01 2.187500e-01 -6.687782e-02 1.269776e+00 -3.302719e+00 3.482101e+00
3.906221e+01 2.083333e-01 -6.730043e-02 1.270182e+00 -3.302719e+00 3.486786e+00
3.894153e+01 2.135417e-01 -6.796931e-02 1.270508e+00 -3.295837e+00 3.486786e+00
3.932050e+01 2.187500e-01 -6.912521e-02 1.271169e+00 -3.334167e+00 3.484451e+00
3.923955e+01 2.135417e-01 -7.042115e-02 1.271876e+00 -3.340561e+00 3.322723e+00
3.923955e+01 2.135417e-01 -7.045099e-02 1.271924e+00 -3.340561e+00 3.319031e+00
3.923955e+01 2.135417e-01 -7.045331e-02 1.271927e+00 -3.340607e+00 3.318985e+00
3.925093e+01 2.135417e-01 -7.049522e-02 1.271945e+00 -3.340698e+00 3.319077e+00
3.925093e+01 2.135417e-01 -7.049377e-02 1.271943e+00 -3.340714e+00 3.319077e+00
3.925093e+01 2.135417e-01 -7.049232e-02 1.271941e+00 -3.340714e+00 3.319046e+00
3.925093e+01 2.135417e-01 -7.049232e-02 1.271941e+00 -3.340714e+00 3.319046e+00
3.905460e+01 2.239583e-01 -7.310737e-02 1.272888e+00 -3.338379e+00 3.334259e+00
3.897691e+01 2.239583e-01 -7.330090e-02 1.273007e+00 -3.338928e+00 3.334885e+00
3.900261e+01 2.239583e-01 -7.328603e-02 1.273006e+00 -3.339035e+00 3.334702e+00
3.970000e+01 2.187500e-01 -7.247104e-02 1.272689e+00 -3.344589e+00 3.325027e+00
3.970000e+01 2.187500e-01 -7.249412e-02 1.272681e+00 -3.344589e+00 3.324036e+00
3.902652e+01 2.135417e-01 -7.491177e-02 1.272025e+00 -3.336777e+00 3.316238e+00
3.959204e+01 2.135417e-01 -7.270552e-02 1.271347e+00 -3.344116e+00 3.298126e+00
3.885788e+01 2.083333e-01 -7.252512e-02 1.273485e+00 -3.344116e+00 3.331512e+00
3.890836e+01 2.031250e-01 -7.219290e-02 1.275671e+00 -3.345367e+00 3.331512e+00
3.890836e+01 2.031250e-01 -7.198807e-02 1.275687e+00 -3.345367e+00 3.328934e+00
3.937033e+01 2.031250e-01 -7.127264e-02 1.277503e+00 -3.355347e+00 3.331894e+00
3.954509e+01 2.187500e-01 -7.312437e-02 1.278684e+00 -3.368271e+00 3.353134e+00
3.898044e+01 2.135417e-01 -7.534191e-02 1.281688e+00 -3.368546e+00 3.393188e+00
3.822397e+01 2.031250e-01 -7.717799e-02 1.272588e+00 -3.368286e+00 3.322586e+00
4.005214e+01 2.187500e-01 -7.530058e-02 1.272201e+00 -3.381927e+00 3.296310e+00
4.014964e+01 2.187500e-01 -7.522844e-02 1.272304e+00 -3.383713e+00 3.293976e+00
4.015910e+01 2.187500e-01 -7.523095e-02 1.272314e+00 -3.384094e+00 3.293472e+00
3.896048e+01 2.187500e-01 -7.668015e-02 1.274695e+00 -3.394302e+00 3.323029e+00
3.896048e+01 2.187500e-01 -7.815108e-02 1.277071e+00 -3.394302e+00 3.323029e+00
3.889429e+01 2.187500e-01 -7.804417e-02 1.277030e+00 -3.394699e+00 3.323029e+00
3.898418e+01 2.187500e-01 -7.789110e-02 1.277131e+00 -3.394699e+00 3.322235e+00
3.902766e+01 2.187500e-01 -7.786734e-02 1.277292e+00 -3.394363e+00 3.322754e+00
3.902766e+01 2.187500e-01 -7.788974e-02 1.277310e+00 -3.394211e+00 3.322754e+00
3.980943e+01 2.187500e-01 -7.679401e-02 1.276872e+00 -3.396988e+00 3.313324e+00
3.981573e+01 2.187500e-01 -7.666470e-02 1.276834e+00 -3.398056e+00 3.310562e+00
3.966510e+01 2.187500e-01 -7.666605e-02 1.276863e+00 -3.398056e+00 3.310562e+00
3.960384e+01 2.187500e-01 -7.670168e-02 1.276893e+00 -3.397568e+00 3.310562e+00
3.832494e+01 2.135417e-01 -7.733618e-02 1.277859e+00 -3.397568e+00 3.322266e+00
3.975540e+01 2.135417e-01 -7.705109e-02 1.279214e+00 -3.401825e+00 3.322266e+00
3.842041e+01 2.083333e-01 -7.737375e-02 1.280385e+00 -3.401825e+00 3.339539e+00
3.925952e+01 2.187500e-01 -7.780215e-02 1.281051e+00 -3.400253e+00 3.339539e+00
3.929308e+01 2.187500e-01 -7.697277e-02 1.280929e+00 -3.400253e+00 3.321198e+00
3.925304e+01 2.187500e-01 -7.693848e-02 1.280910e+00 -3.400360e+00 3.321198e+00
3.928149e+01 2.187500e-01 -7.691067e-02 1.280908e+00 -3.400436e+00 3.320969e+00
3.886212e+01 2.187500e-01 -7.727360e-02 1.282557e+00 -3.400436e+00 3.334930e+00
3.949133e+01 2.135417e-01 -7.584874e-02 1.282506e+00 -3.406158e+00 3.323364e+00
3.842332e+01 2.083333e-01 -7.867644e-02 1.283775e+00 -3.394272e+00 3.353790e+00
3.901901e+01 2.239583e-01 -8.478112e-02 1.300474e+00 -3.406509e+00 3.351242e+00
4.385513e+01 2.395833e-01 -8.757782e-02 1.302594e+00 -3.437363e+00 3.350540e+00
3.983110e+01 2.395833e-01 -9.282028e-02 1.306229e+00 -3.437363e+00 3.304779e+00
3.865833e+01 2.239583e-01 -9.431767e-02 1.307218e+00 -3.389542e+00 3.304779e+00
3.922450e+01 2.135417e-01 -9.368993e-02 1.306239e+00 -3.396912e+00 3.244751e+00
3.944632e+01 2.135417e-01 -9.306084e-02 1.308515e+00 -3.417908e+00 3.233307e+00
3.926955e+01 2.187500e-01 -9.206999e-02 1.310060e+00 -3.416519e+00 3.259064e+00
4.208487e+01 2.187500e-01 -8.867211e-02 1.309401e+00 -3.427734e+00 3.219589e+00
3.936815e+01 2.239583e-01 -9.077965e-02 1.309824e+00 -3.418610e+00 3.265488e+00
3.924890e+01 2.187500e-01 -6.727243e-02 1.290629e+00 -3.439041e+00 3.265900e+00
3.924078e+01 2.187500e-01 -6.723785e-02 1.290623e+00 -3.439041e+00 3.265869e+00
3.951363e+01 2.187500e-01 -7.232454e-02 1.297118e+00 -3.446243e+00 3.204895e+00
3.951363e+01 2.187500e-01 -7.232454e-02 1.297118e+00 -3.446243e+00 3.204895e+00
3.907184e+01 2.083333e-01 -7.413357e-02 1.298566e+00 -3.437561e+00 3.236710e+00
3.943390e+01 2.135417e-01 -7.271103e-02 1.299675e+00 -3.440094e+00 3.224228e+00
3.983365e+01 2.239583e-01 -7.202322e-02 1.299410e+00 -3.441772e+00 3.218445e+00
3.942406e+01 2.187500e-01 -7.096863e-02 1.299321e+00 -3.444839e+00 3.216660e+00
3.939795e+01 2.135417e-01 -7.061459e-02 1.299059e+00 -3.450775e+00 3.212585e+00
3.916916e+01 2.083333e-01 -7.177116e-02 1.299972e+00 -3.450775e+00 3.236420e+00
3.955881e+01 2.187500e-01 -7.295082e-02 1.303375e+00 -3.452042e+00 3.236420e+00
3.931247e+01 2.187500e-01 -7.299196e-02 1.305819e+00 -3.453415e+00 3.213608e+00
3.902460e+01 2.187500e-01 -7.190888e-02 1.307200e+00 -3.452271e+00 3.243088e+00
3.941264e+01 2.187500e-01 -7.035577e-02 1.306747e+00 -3.458023e+00 3.231552e+00
3.893864e+01 2.135417e-01 -7.493186e-02 1.308357e+00 -3.445694e+00 3.262146e+00
3.918283e+01 2.187500e-01 -7.228359e-02 1.307500e+00 -3.454163e+00 3.232422e+00
3.920845e+01 2.187500e-01 -7.234288e-02 1.307526e+00 -3.454163e+00 3.233368e+00
3.912830e+01 2.187500e-01 -7.236944e-02 1.307557e+00 -3.454041e+00 3.233368e+00
3.911023e+01 2.239583e-01 -7.242323e-02 1.307614e+00 -3.454041e+00 3.235413e+00
3.908791e+01 2.239583e-01 -7.248311e-02 1.307661e+00 -3.453613e+00 3.235413e+00
3.916258e+01 2.187500e-01 -7.236529e-02 1.307651e+00 -3.454178e+00 3.234802e+00
3.896620e+01 2.187500e-01 -7.244834e-02 1.307870e+00 -3.454178e+00 3.238861e+00
3.915331e+01 2.291667e-01 -7.235380e-02 1.308413e+00 -3.456818e+00 3.240326e+00
3.880003e+01 2.135417e-01 -7.235225e-02 1.309025e+00 -3.456818e+00 3.246689e+00
3.832066e+01 2.083333e-01 -7.447660e-02 1.310629e+00 -3.457413e+00 3.273331e+00
4.010901e+01 2.135417e-01 -7.056746e-02 1.309747e+00 -3.472580e+00 3.234222e+00
3.961395e+01 2.135417e-01 -7.325976e-02 1.312147e+00 -3.468109e+00 3.222549e+00
3.907750e+01 2.135417e-01 -7.350757e-02 1.312520e+00 -3.466309e+00 3.236359e+00
3.898744e+01 2.135417e-01 -7.333461e-02 1.312633e+00 -3.465195e+00 3.236359e+00
3.908990e+01 2.135417e-01 -7.331877e-02 1.312665e+00 -3.465195e+00 3.235794e+00
3.948090e+01 2.187500e-01 -7.315971e-02 1.312678e+00 -3.466431e+00 3.235794e+00
3.892778e+01 2.239583e-01 -7.253323e-02 1.312836e+00 -3.466431e+00 3.244034e+00
3.892778e+01 2.239583e-01 -7.209295e-02 1.313009e+00 -3.464737e+00 3.244034e+00
3.948709e+01 2.135417e-01 -7.214539e-02 1.313220e+00 -3.468536e+00 3.243073e+00
3.920575e+01 2.135417e-01 -7.245153e-02 1.313520e+00 -3.468536e+00 3.240997e+00
3.920575e+01 2.135417e-01 -7.255245e-02 1.313681e+00 -3.468292e+00 3.240997e+00
3.912199e+01 2.135417e-01 -7.260286e-02 1.313734e+00 -3.468292e+00 3.241150e+00
3.909451e+01 2.135417e-01 -7.266380e-02 1.313790e+00 -3.468262e+00 3.241455e+00
3.909451e+01 2.135417e-01 -7.267433e-02 1.313791e+00 -3.468140e+00 3.241455e+00
3.920627e+01 2.135417e-01 -7.263338e-02 1.313808e+00 -3.468628e+00 3.241455e+00
3.833458e+01 2.135417e-01 -7.290814e-02 1.313546e+00 -3.468628e+00 3.244568e+00
3.947978e+01 2.135417e-01 -7.243077e-02 1.313300e+00 -3.470047e+00 3.244568e+00
3.965916e+01 2.135417e-01 -6.175869e-02 1.341966e+00 -3.526199e+00 3.311264e+00
3.965916e+01 2.135417e-01 -6.182456e-02 1.342186e+00 -3.526199e+00 3.310410e+00
3.969704e+01 2.135417e-01 -6.200612e-02 1.342185e+00 -3.526199e+00 3.312042e+00
3.908548e+01 2.187500e-01 -6.100000e-02 1.339481e+00 -3.530884e+00 3.382401e+00
3.934042e+01 2.083333e-01 -6.013238e-02 1.339399e+00 -3.535400e+00 3.382401e+00
3.919730e+01 2.083333e-01 -5.952676e-02 1.339472e+00 -3.535400e+00 3.381393e+00
3.919730e+01 2.083333e-01 -5.978876e-02 1.339628e+00 -3.533279e+00 3.381393e+00
4.014017e+01 2.135417e-01 -5.896382e-02 1.339344e+00 -3.536880e+00 3.381393e+00
3.968311e+01 2.135417e-01 -5.826057e-02 1.339096e+00 -3.536880e+00 3.369492e+00
3.955167e+01 2.135417e-01 -5.845227e-02 1.339168e+00 -3.535858e+00 3.370270e+00
3.945370e+01 2.135417e-01 -5.852393e-02 1.339205e+00 -3.535446e+00 3.370331e+00
3.960031e+01 2.135417e-01 -5.851243e-02 1.339199e+00 -3.535477e+00 3.370331e+00
3.960031e+01 2.135417e-01 -5.849930e-02 1.339192e+00 -3.535477e+00 3.370255e+00
3.845822e+01 2.239583e-01 -5.942139e-02 1.341149e+00 -3.526215e+00 3.392487e+00
4.084944e+01 2.135417e-01 -5.416947e-02 1.339959e+00 -3.541855e+00 3.360489e+00
3.869235e+01 2.239583e-01 -6.049955e-02 1.341820e+00 -3.524063e+00 3.401276e+00
3.987912e+01 2.135417e-01 -6.349675e-02 1.342520e+00 -3.552490e+00 3.399277e+00
3.951974e+01 2.135417e-01 -6.672862e-02 1.356611e+00 -3.524307e+00 3.393265e+00
3.840390e+01 2.031250e-01 -6.749310e-02 1.356539e+00 -3.523071e+00 3.430908e+00
3.992531e+01 2.187500e-01 -6.629393e-02 1.355521e+00 -3.524490e+00 3.430908e+00
3.862506e+01 2.135417e-01 -6.603965e-02 1.354733e+00 -3.524490e+00 3.433090e+00
3.879718e+01 2.135417e-01 -6.708662e-02 1.354800e+00 -3.515198e+00 3.433090e+00
3.856921e+01 2.135417e-01 -6.702616e-02 1.354785e+00 -3.515198e+00 3.431763e+00
3.856563e+01 2.135417e-01 -6.707677e-02 1.354805e+00 -3.514954e+00 3.432129e+00
3.870549e+01 1.979167e-01 -6.798727e-02 1.354935e+00 -3.514816e+00 3.432129e+00
3.870549e+01 1.979167e-01 -6.887759e-02 1.355057e+00 -3.506348e+00 3.431061e+00
4.094731e+01 2.187500e-01 -6.383505e-02 1.353291e+00 -3.521378e+00 3.393814e+00
3.872581e+01 2.135417e-01 -6.587103e-02 1.353302e+00 -3.512512e+00 3.423233e+00
3.853853e+01 2.135417e-01 -6.616317e-02 1.353328e+00 -3.509155e+00 3.429428e+00
3.896690e+01 2.187500e-01 -6.630253e-02 1.353480e+00 -3.509598e+00 3.429428e+00
3.896690e+01 2.187500e-01 -6.599948e-02 1.353371e+00 -3.509598e+00 3.422699e+00
3.848148e+01 2.083333e-01 -6.645241e-02 1.353067e+00 -3.504044e+00 3.424500e+00
3.848148e+01 2.083333e-01 -6.644585e-02 1.353063e+00 -3.504028e+00 3.424301e+00
3.900740e+01 2.135417e-01 -5.235764e-02 1.345742e+00 -3.495697e+00 3.508286e+00
3.899928e+01 2.135417e-01 -5.184917e-02 1.345870e+00 -3.495804e+00 3.506989e+00
3.904428e+01 2.135417e-01 -5.185960e-02 1.345875e+00 -3.496170e+00 3.506760e+00
3.904428e+01 2.135417e-01 -5.187921e-02 1.345883e+00 -3.496185e+00 3.506668e+00
3.865848e+01 1.979167e-01 -5.206183e-02 1.345920e+00 -3.496185e+00 3.508179e+00
3.865848e+01 1.979167e-01 -5.224532e-02 1.345958e+00 -3.495529e+00 3.508179e+00
3.887041e+01 2.083333e-01 -5.272452e-02 1.346534e+00 -3.506516e+00 3.508179e+00
3.887367e+01 2.083333e-01 -5.323328e-02 1.347139e+00 -3.506485e+00 3.494339e+00
3.810016e+01 1.979167e-01 -5.595552e-02 1.348104e+00 -3.496658e+00 3.513687e+00
3.856146e+01 2.031250e-01 -5.424982e-02 1.347647e+00 -3.501938e+00 3.503525e+00
3.845860e+01 2.031250e-01 -5.439836e-02 1.347695e+00 -3.501266e+00 3.497543e+00
3.874617e+01 2.031250e-01 -5.560303e-02 1.348277e+00 -3.498123e+00 3.504242e+00
3.855705e+01 2.031250e-01 -5.544764e-02 1.348330e+00 -3.499725e+00 3.503815e+00
3.874980e+01 2.031250e-01 -5.536623e-02 1.348534e+00 -3.500320e+00 3.497147e+00
3.968021e+01 2.239583e-01 -4.558824e-02 1.351449e+00 -3.499985e+00 3.522797e+00
3.968021e+01 2.239583e-01 -3.583440e-02 1.354230e+00 -3.499329e+00 3.522797e+00
3.953574e+01 2.239583e-01 -3.721995e-02 1.355354e+00 -3.501633e+00 3.516739e+00
3.951183e+01 2.239583e-01 -3.747172e-02 1.355630e+00 -3.501633e+00 3.517059e+00
3.951183e+01 2.239583e-01 -3.755497e-02 1.355716e+00 -3.501450e+00 3.517059e+00
3.932921e+01 2.187500e-01 -3.822578e-02 1.355725e+00 -3.501099e+00 3.508453e+00
3.907498e+01 2.135417e-01 -3.886597e-02 1.355830e+00 -3.499939e+00 3.511459e+00
3.884076e+01 2.031250e-01 -3.944696e-02 1.356138e+00 -3.498291e+00 3.517120e+00
3.915701e+01 2.135417e-01 -3.951582e-02 1.356211e+00 -3.497711e+00 3.517120e+00
3.915701e+01 2.135417e-01 -3.916178e-02 1.356084e+00 -3.497711e+00 3.508438e+00
3.874826e+01 2.031250e-01 -4.028707e-02 1.356007e+00 -3.492050e+00 3.511169e+00
3.952264e+01 2.187500e-01 -3.896882e-02 1.356730e+00 -3.489853e+00 3.504120e+00
3.952342e+01 2.187500e-01 -3.712966e-02 1.356873e+00 -3.489883e+00 3.479279e+00
3.952342e+01 2.187500e-01 -3.712212e-02 1.356871e+00 -3.489883e+00 3.479187e+00
3.925359e+01 2.083333e-01 -3.711208e-02 1.356875e+00 -3.489639e+00 3.481094e+00
3.883434e+01 2.031250e-01 -3.682477e-02 1.358210e+00 -3.489517e+00 3.497467e+00
3.861214e+01 2.031250e-01 -3.873869e-02 1.361137e+00 -3.489334e+00 3.498779e+00
3.878773e+01 2.083333e-01 -3.885148e-02 1.361402e+00 -3.489563e+00 3.492966e+00
3.878773e+01 2.083333e-01 -3.874786e-02 1.361373e+00 -3.489563e+00 3.492966e+00
4.055569e+01 2.083333e-01 -3.635011e-02 1.359497e+00 -3.481934e+00 3.443985e+00
3.852257e+01 2.239583e-01 -4.460859e-02 1.362764e+00 -3.462128e+00 3.498367e+00
4.061378e+01 2.135417e-01 -3.707113e-02 1.360179e+00 -3.483643e+00 3.448822e+00
3.898903e+01 2.083333e-01 -3.996470e-02 1.361134e+00 -3.477112e+00 3.470749e+00
4.072968e+01 2.083333e-01 -3.619423e-02 1.360590e+00 -3.488052e+00 3.455338e+00
3.873750e+01 2.239583e-01 -4.422712e-02 1.363343e+00 -3.465683e+00 3.507324e+00
3.810341e+01 2.031250e-01 -4.212169e-02 1.362975e+00 -3.479721e+00 3.487045e+00
3.914641e+01 2.135417e-01 -4.143012e-02 1.363303e+00 -3.480743e+00 3.461670e+00
3.961395e+01 2.187500e-01 -4.000082e-02 1.363613e+00 -3.480545e+00 3.442566e+00
3.994325e+01 2.239583e-01 -4.071818e-02 1.363840e+00 -3.486359e+00 3.441406e+00
4.114040e+01 2.135417e-01 -4.137430e-02 1.366732e+00 -3.484909e+00 3.435394e+00
3.886029e+01 2.083333e-01 -4.273311e-02 1.366788e+00 -3.480286e+00 3.459732e+00
3.888309e+01 2.083333e-01 -4.270037e-02 1.366667e+00 -3.470001e+00 3.459732e+00
3.888309e+01 2.083333e-01 -4.263818e-02 1.366720e+00 -3.470123e+00 3.459610e+00
3.888309e+01 2.083333e-01 -4.262919e-02 1.366719e+00 -3.470123e+00 3.459412e+00
4.031366e+01 2.083333e-01 -3.936883e-02 1.365656e+00 -3.480042e+00 3.442642e+00
3.836958e+01 2.083333e-01 -4.288850e-02 1.366743e+00 -3.470428e+00 3.471161e+00
4.012328e+01 2.187500e-01 -4.077902e-02 1.367069e+00 -3.482925e+00 3.488434e+00
3.994632e+01 2.135417e-01 -3.877104e-02 1.367416e+00 -3.482925e+00 3.489685e+00
3.830133e+01 2.031250e-01 -3.409866e-02 1.368004e+00 -3.466415e+00 3.544128e+00
3.857108e+01 2.083333e-01 -3.401155e-02 1.367801e+00 -3.468384e+00 3.544128e+00
3.857108e+01 2.083333e-01 -3.388147e-02 1.367784e+00 -3.468430e+00 3.540710e+00
3.838138e+01 2.135417e-01 -3.356190e-02 1.367611e+00 -3.472549e+00 3.535995e+00
3.815894e+01 2.031250e-01 -3.423251e-02 1.367795e+00 -3.472549e+00 3.536972e+00
3.830055e+01 2.031250e-01 -3.486749e-02 1.367990e+00 -3.472458e+00 3.536972e+00
3.837698e+01 2.031250e-01 -3.479825e-02 1.367948e+00 -3.473007e+00 3.536835e+00
3.831619e+01 2.031250e-01 -3.484006e-02 1.367893e+00 -3.473343e+00 3.535446e+00
3.810040e+01 2.083333e-01 -3.615783e-02 1.368551e+00 -3.471054e+00 3.548950e+00
3.839503e+01 2.031250e-01 -3.569320e-02 1.368494e+00 -3.473862e+00 3.548950e+00
3.848149e+01 2.083333e-01 -3.507706e-02 1.368219e+00 -3.474930e+00 3.538589e+00
3.848149e+01 2.083333e-01 -3.505900e-02 1.368188e+00 -3.474945e+00 3.536377e+00
3.849013e+01 2.083333e-01 -3.509589e-02 1.368216e+00 -3.474945e+00 3.536926e+00
3.847496e+01 2.083333e-01 -3.511260e-02 1.368231e+00 -3.475052e+00 3.536926e+00
3.847496e+01 2.083333e-01 -3.509039e-02 1.368219e+00 -3.475052e+00 3.536407e+00
4.066779e+01 2.239583e-01 -3.509908e-02 1.367598e+00 -3.490250e+00 3.489578e+00
3.872134e+01 2.083333e-01 -3.760760e-02 1.368233e+00 -3.481644e+00 3.514648e+00
3.855312e+01 2.031250e-01 -3.239624e-02 1.365443e+00 -3.461929e+00 3.518417e+00
3.787526e+01 1.927083e-01 -2.457235e-02 1.359551e+00 -3.459503e+00 3.510193e+00
3.977292e+01 2.135417e-01 -2.373389e-02 1.359909e+00 -3.470093e+00 3.510193e+00
3.953241e+01 2.135417e-01 -2.289330e-02 1.360572e+00 -3.470093e+00 3.466949e+00
3.953241e+01 2.135417e-01 -2.301759e-02 1.360619e+00 -3.469452e+00 3.466949e+00
3.855460e+01 2.135417e-01 -2.228691e-02 1.361297e+00 -3.469193e+00 3.490768e+00
3.857149e+01 2.135417e-01 -2.131286e-02 1.361927e+00 -3.468399e+00 3.490753e+00
3.883672e+01 2.135417e-01 -2.098325e-02 1.362014e+00 -3.472733e+00 3.487213e+00
3.862482e+01 2.135417e-01 -2.116732e-02 1.362056e+00 -3.472733e+00 3.487686e+00
3.862482e+01 2.135417e-01 -2.129605e-02 1.362079e+00 -3.472168e+00 3.487686e+00
4.064961e+01 2.135417e-01 -1.997858e-02 1.363076e+00 -3.489212e+00 3.464600e+00
3.848094e+01 2.135417e-01 -2.116722e-02 1.363764e+00 -3.485718e+00 3.498993e+00
3.848094e+01 2.135417e-01 -2.120045e-02 1.364172e+00 -3.472076e+00 3.498993e+00
3.841565e+01 2.083333e-01 -2.535943e-02 1.367219e+00 -3.483551e+00 3.492203e+00
3.794998e+01 1.927083e-01 -3.133634e-02 1.368894e+00 -3.477478e+00 3.495316e+00
3.841867e+01 2.135417e-01 -3.484402e-02 1.373315e+00 -3.478012e+00 3.488007e+00
3.791014e+01 2.031250e-01 -4.104421e-02 1.379704e+00 -3.472412e+00 3.416550e+00
3.958746e+01 2.083333e-01 -3.402159e-02 1.392046e+00 -3.549164e+00 3.570099e+00
3.807661e+01 1.927083e-01 -3.548113e-02 1.392071e+00 -3.548965e+00 3.588089e+00
3.741176e+01 1.822917e-01 -3.895801e-02 1.393313e+00 -3.534821e+00 3.593643e+00
4.099669e+01 2.187500e-01 -3.940631e-02 1.392154e+00 -3.545578e+00 3.505280e+00
3.799498e+01 2.031250e-01 -4.447493e-02 1.393623e+00 -3.526169e+00 3.551941e+00
3.839066e+01 1.979167e-01 -4.329904e-02 1.394205e+00 -3.528000e+00 3.534790e+00
3.836594e+01 2.031250e-01 -4.292935e-02 1.394637e+00 -3.522690e+00 3.544830e+00
3.839699e+01 1.979167e-01 -4.291979e-02 1.394554e+00 -3.541855e+00 3.547577e+00
3.880435e+01 2.031250e-01 -4.367510e-02 1.395400e+00 -3.541855e+00 3.547577e+00
3.848485e+01 2.083333e-01 -4.396443e-02 1.396293e+00 -3.532104e+00 3.518707e+00
3.870718e+01 2.031250e-01 -4.407356e-02 1.396307e+00 -3.532425e+00 3.518707e+00
3.871356e+01 2.031250e-01 -4.402045e-02 1.396288e+00 -3.532532e+00 3.517441e+00
3.833322e+01 2.083333e-01 -4.479121e-02 1.396406e+00 -3.530518e+00 3.530045e+00
3.820679e+01 2.083333e-01 -4.471646e-02 1.396392e+00 -3.530991e+00 3.530045e+00
3.808496e+01 2.031250e-01 -4.460994e-02 1.396403e+00 -3.531601e+00 3.528030e+00
3.808496e+01 2.031250e-01 -4.460704e-02 1.396403e+00 -3.531601e+00 3.528015e+00
3.825545e+01 1.979167e-01 -4.465282e-02 1.396368e+00 -3.531677e+00 3.532486e+00
3.825545e+01 1.979167e-01 -4.470091e-02 1.396334e+00 -3.531677e+00 3.532486e+00
3.908986e+01 2.083333e-01 -4.267420e-02 1.395669e+00 -3.538147e+00 3.513779e+00
3.924567e+01 2.135417e-01 -4.514825e-02 1.398093e+00 -3.567429e+00 3.452393e+00
3.953961e+01 2.083333e-01 -4.489860e-02 1.398035e+00 -3.567825e+00 3.452271e+00
3.953961e+01 2.083333e-01 -4.465291e-02 1.397976e+00 -3.567825e+00 3.449539e+00
3.953961e+01 2.083333e-01 -4.465378e-02 1.397977e+00 -3.567810e+00 3.449539e+00
3.900508e+01 2.083333e-01 -4.535714e-02 1.398403e+00 -3.563126e+00 3.455551e+00
3.892166e+01 2.083333e-01 -4.516544e-02 1.398352e+00 -3.563492e+00 3.455551e+00
3.892166e+01 2.083333e-01 -4.497441e-02 1.398297e+00 -3.563492e+00 3.452591e+00
3.892166e+01 2.083333e-01 -4.496765e-02 1.398290e+00 -3.563400e+00 3.452682e+00
3.892166e+01 2.083333e-01 -4.496765e-02 1.398290e+00 -3.563400e+00 3.452682e+00
3.885495e+01 2.083333e-01 -4.492979e-02 1.398305e+00 -3.563248e+00 3.452179e+00
3.896625e+01 2.083333e-01 -4.492332e-02 1.398324e+00 -3.563248e+00 3.452179e+00
3.890187e+01 2.083333e-01 -4.495355e-02 1.398317e+00 -3.562881e+00 3.452698e+00
3.838989e+01 2.031250e-01 -4.668320e-02 1.399377e+00 -3.556656e+00 3.469894e+00
3.875142e+01 1.979167e-01 -4.556825e-02 1.399029e+00 -3.559509e+00 3.469894e+00
3.872186e+01 2.031250e-01 -4.451201e-02 1.398893e+00 -3.561523e+00 3.451370e+00
3.874123e+01 1.979167e-01 -4.478822e-02 1.399074e+00 -3.561523e+00 3.455536e+00
4.311595e+01 2.395833e-01 -6.427823e-02 1.421791e+00 -3.973282e+00 3.339310e+00
4.040173e+01 2.239583e-01 -6.842553e-02 1.426413e+00 -3.973282e+00 3.352051e+00
3.995255e+01 2.135417e-01 -7.069474e-02 1.426140e+00 -3.892303e+00 3.343979e+00
3.995255e+01 2.135417e-01 -7.066944e-02 1.426048e+00 -3.888504e+00 3.341492e+00
4.045116e+01 2.083333e-01 -7.009386e-02 1.425179e+00 -3.911987e+00 3.322723e+00
3.970444e+01 2.135417e-01 -7.174045e-02 1.425586e+00 -3.881668e+00 3.329178e+00
3.966028e+01 2.135417e-01 -7.173224e-02 1.425591e+00 -3.879364e+00 3.329163e+00
3.950388e+01 2.083333e-01 -7.148279e-02 1.425603e+00 -3.879807e+00 3.329163e+00
3.894411e+01 2.083333e-01 -7.072130e-02 1.425525e+00 -3.876389e+00 3.325058e+00
3.896460e+01 2.083333e-01 -7.034118e-02 1.425454e+00 -3.857147e+00 3.322266e+00
3.904599e+01 2.135417e-01 -7.022597e-02 1.425411e+00 -3.859528e+00 3.322266e+00
3.874506e+01 2.135417e-01 -7.029705e-02 1.425493e+00 -3.859528e+00 3.322891e+00
3.874506e+01 2.135417e-01 -7.048711e-02 1.425619e+00 -3.849808e+00 3.322891e+00
4.004259e+01 2.135417e-01 -6.530588e-02 1.425938e+00 -3.852936e+00 3.335007e+00
3.946935e+01 2.135417e-01 -6.112207e-02 1.426446e+00 -3.798752e+00 3.337723e+00
3.946268e+01 2.135417e-01 -6.120735e-02 1.426478e+00 -3.793961e+00 3.337723e+00
3.942204e+01 2.135417e-01 -6.112536e-02 1.426439e+00 -3.793961e+00 3.336975e+00
3.942204e+01 2.135417e-01 -6.111589e-02 1.426438e+00 -3.792755e+00 3.336975e+00
3.942204e+01 2.135417e-01 -6.111589e-02 1.426438e+00 -3.792755e+00 3.336975e+00
3.819511e+01 1.927083e-01 -6.219482e-02 1.426726e+00 -3.762772e+00 3.349930e+00
3.873087e+01 2.031250e-01 -6.283260e-02 1.426905e+00 -3.750656e+00 3.353119e+00
3.911594e+01 2.135417e-01 -6.083216e-02 1.426408e+00 -3.782043e+00 3.338348e+00
3.911594e+01 2.135417e-01 -6.083216e-02 1.426408e+00 -3.782043e+00 3.338348e+00
3.847617e+01 2.031250e-01 -6.124530e-02 1.426554e+00 -3.756653e+00 3.356049e+00
3.907057e+01 2.187500e-01 -5.882572e-02 1.427341e+00 -3.743805e+00 3.356049e+00
3.882231e+01 2.135417e-01 -5.710351e-02 1.428248e+00 -3.743805e+00 3.356369e+00
3.895172e+01 2.135417e-01 -5.738367e-02 1.428251e+00 -3.726959e+00 3.356369e+00
3.913782e+01 2.135417e-01 -5.606340e-02 1.427247e+00 -3.726959e+00 3.355316e+00
3.893799e+01 2.187500e-01 -5.392302e-02 1.426825e+00 -3.715729e+00 3.354736e+00
3.893799e+01 2.187500e-01 -5.389887e-02 1.427017e+00 -3.715729e+00 3.354538e+00
3.839517e+01 2.135417e-01 -5.499461e-02 1.427342e+00 -3.697586e+00 3.361908e+00
3.893896e+01 2.135417e-01 -5.409279e-02 1.428105e+00 -3.711304e+00 3.360458e+00
3.825943e+01 2.187500e-01 -5.862079e-02 1.429547e+00 -3.667343e+00 3.381516e+00
3.822395e+01 2.031250e-01 -5.608271e-02 1.428756e+00 -3.708008e+00 3.359543e+00
3.853729e+01 2.083333e-01 -5.599309e-02 1.428508e+00 -3.708939e+00 3.355820e+00
3.853729e+01 2.083333e-01 -5.594432e-02 1.428430e+00 -3.708817e+00 3.353180e+00
4.093626e+01 2.187500e-01 -5.383726e-02 1.428655e+00 -3.763123e+00 3.328384e+00
3.840280e+01 2.135417e-01 -5.602177e-02 1.429835e+00 -3.722702e+00 3.357147e+00
3.840369e+01 2.135417e-01 -5.591216e-02 1.429989e+00 -3.711349e+00 3.357147e+00
3.828191e+01 2.083333e-01 -5.595997e-02 1.430018e+00 -3.711349e+00 3.358963e+00
3.837766e+01 2.135417e-01 -5.594162e-02 1.430000e+00 -3.708191e+00 3.358963e+00
3.981485e+01 2.135417e-01 -5.806800e-02 1.430677e+00 -3.758484e+00 3.325241e+00
3.797162e+01 2.135417e-01 -6.111203e-02 1.431946e+00 -3.701645e+00 3.348938e+00
3.941389e+01 2.239583e-01 -5.757527e-02 1.431495e+00 -3.752411e+00 3.323044e+00
3.967137e+01 2.239583e-01 -5.654811e-02 1.430910e+00 -3.757385e+00 3.319153e+00
3.922885e+01 2.239583e-01 -5.761835e-02 1.431327e+00 -3.740051e+00 3.328400e+00
3.847522e+01 2.031250e-01 -5.725001e-02 1.431626e+00 -3.737320e+00 3.341721e+00
3.855042e+01 2.291667e-01 -6.603347e-02 1.448462e+00 -3.716431e+00 3.315353e+00
4.018634e+01 2.187500e-01 -5.978316e-02 1.447035e+00 -3.803543e+00 3.271881e+00
3.840016e+01 2.239583e-01 -4.071808e-02 1.449496e+00 -3.756088e+00 3.687302e+00
4.010252e+01 2.135417e-01 -2.885920e-02 1.452973e+00 -3.565475e+00 3.687302e+00
3.821985e+01 2.083333e-01 -3.093874e-02 1.454008e+00 -3.565475e+00 3.652634e+00
3.878557e+01 2.083333e-01 -3.204462e-02 1.454491e+00 -3.535919e+00 3.652634e+00
3.937106e+01 2.239583e-01 -3.654963e-02 1.455310e+00 -3.544754e+00 3.609161e+00
3.887083e+01 2.083333e-01 -3.751248e-02 1.456207e+00 -3.543030e+00 3.613129e+00
3.928905e+01 2.135417e-01 -3.907544e-02 1.457654e+00 -3.575851e+00 3.585815e+00
3.845786e+01 2.083333e-01 -4.035979e-02 1.459122e+00 -3.567291e+00 3.606476e+00
3.839256e+01 2.083333e-01 -4.069084e-02 1.460072e+00 -3.548767e+00 3.607849e+00
3.855884e+01 2.135417e-01 -4.028398e-02 1.460712e+00 -3.533112e+00 3.624207e+00
3.946964e+01 2.187500e-01 -4.148662e-02 1.461885e+00 -3.651154e+00 3.623718e+00
3.907054e+01 2.135417e-01 -4.304717e-02 1.463116e+00 -3.651154e+00 3.603729e+00
3.891719e+01 2.083333e-01 -4.325789e-02 1.463207e+00 -3.631882e+00 3.607910e+00
4.125786e+01 2.135417e-01 -3.934199e-02 1.461632e+00 -3.672668e+00 3.581741e+00
3.850204e+01 2.083333e-01 -4.253870e-02 1.462341e+00 -3.623474e+00 3.613129e+00
3.845702e+01 2.083333e-01 -4.045646e-02 1.463497e+00 -3.546280e+00 3.657272e+00
3.862036e+01 2.187500e-01 -3.827252e-02 1.462830e+00 -3.577225e+00 3.640152e+00
4.106918e+01 2.031250e-01 -3.587766e-02 1.461723e+00 -3.616776e+00 3.613312e+00
3.983878e+01 2.135417e-01 -3.724883e-02 1.461787e+00 -3.595917e+00 3.625122e+00
3.865120e+01 2.031250e-01 -3.959849e-02 1.463156e+00 -3.542587e+00 3.658142e+00
4.025980e+01 2.083333e-01 -3.617743e-02 1.461896e+00 -3.585571e+00 3.627075e+00
3.966048e+01 2.604167e-01 -3.980274e-02 1.469866e+00 -3.628113e+00 3.753723e+00
3.981941e+01 2.083333e-01 -3.962843e-02 1.471695e+00 -3.561005e+00 3.753723e+00
3.861584e+01 2.083333e-01 -3.787154e-02 1.470460e+00 -3.561005e+00 3.702530e+00
4.095816e+01 2.083333e-01 -3.973814e-02 1.469208e+00 -3.547668e+00 3.715500e+00
4.080338e+01 2.083333e-01 -3.917559e-02 1.468663e+00 -3.522400e+00 3.634888e+00
3.916534e+01 2.291667e-01 -3.428061e-02 1.469987e+00 -3.521896e+00 3.750931e+00
3.865193e+01 2.083333e-01 -2.789220e-02 1.470814e+00 -3.454895e+00 3.750931e+00
3.934154e+01 2.031250e-01 -2.840482e-02 1.470300e+00 -3.476089e+00 3.714615e+00
3.939633e+01 2.031250e-01 -2.900165e-02 1.470425e+00 -3.476151e+00 3.707901e+00
3.863028e+01 2.031250e-01 -3.161071e-02 1.471658e+00 -3.484879e+00 3.728271e+00
3.859651e+01 2.031250e-01 -3.419427e-02 1.472886e+00 -3.485001e+00 3.728271e+00
3.859651e+01 2.031250e-01 -3.417235e-02 1.472882e+00 -3.485046e+00 3.728088e+00
3.838930e+01 2.187500e-01 -3.759766e-02 1.474988e+00 -3.501740e+00 3.720978e+00
3.934749e+01 2.187500e-01 -4.296276e-02 1.478590e+00 -3.506989e+00 3.692734e+00
3.842654e+01 1.979167e-01 -4.903344e-02 1.481323e+00 -3.495987e+00 3.705948e+00
3.845947e+01 2.135417e-01 -4.631313e-02 1.481422e+00 -3.504013e+00 3.698059e+00
4.014595e+01 2.135417e-01 -4.596179e-02 1.481037e+00 -3.515350e+00 3.665405e+00
3.853899e+01 2.083333e-01 -4.808450e-02 1.481880e+00 -3.509171e+00 3.685760e+00
3.854343e+01 2.083333e-01 -4.815442e-02 1.482101e+00 -3.506805e+00 3.686768e+00
3.860695e+01 2.083333e-01 -4.816311e-02 1.482106e+00 -3.506653e+00 3.686768e+00
3.866341e+01 2.083333e-01 -4.828769e-02 1.482151e+00 -3.506653e+00 3.687408e+00
3.890831e+01 2.187500e-01 -4.780453e-02 1.481704e+00 -3.507431e+00 3.689636e+00
3.876585e+01 2.135417e-01 -4.745696e-02 1.481320e+00 -3.507431e+00 3.696442e+00
3.876585e+01 2.135417e-01 -4.774572e-02 1.481440e+00 -3.506027e+00 3.696442e+00
3.860948e+01 2.135417e-01 -4.810749e-02 1.481634e+00 -3.506027e+00 3.696442e+00
3.860948e+01 2.135417e-01 -4.846925e-02 1.481829e+00 -3.504776e+00 3.695648e+00
3.892241e+01 2.135417e-01 -4.825486e-02 1.481698e+00 -3.505829e+00 3.693954e+00
4.030634e+01 2.135417e-01 -5.528452e-02 1.494212e+00 -3.514664e+00 3.585526e+00
4.039929e+01 2.187500e-01 -5.571119e-02 1.494289e+00 -3.508286e+00 3.589523e+00
3.826599e+01 2.135417e-01 -5.721380e-02 1.494426e+00 -3.515915e+00 3.668182e+00
3.829309e+01 2.135417e-01 -5.725474e-02 1.494369e+00 -3.516083e+00 3.668396e+00
3.829309e+01 2.135417e-01 -5.726334e-02 1.494375e+00 -3.516083e+00 3.668396e+00
3.859322e+01 2.187500e-01 -5.533030e-02 1.493656e+00 -3.499985e+00 3.654129e+00
3.881613e+01 2.031250e-01 -5.618325e-02 1.494340e+00 -3.509460e+00 3.670731e+00
3.858356e+01 2.135417e-01 -5.500697e-02 1.493914e+00 -3.500381e+00 3.679901e+00
3.847827e+01 2.135417e-01 -5.466171e-02 1.493900e+00 -3.499817e+00 3.679901e+00
3.886450e+01 2.135417e-01 -5.428585e-02 1.494470e+00 -3.497955e+00 3.664200e+00
3.886450e+01 2.135417e-01 -5.356743e-02 1.494451e+00 -3.496597e+00 3.664200e+00
3.783704e+01 1.979167e-01 -5.456659e-02 1.494994e+00 -3.507217e+00 3.686142e+00
3.868924e+01 2.135417e-01 -5.088555e-02 1.494067e+00 -3.480911e+00 3.665787e+00
3.787895e+01 1.979167e-01 -5.388458e-02 1.495002e+00 -3.504166e+00 3.693741e+00
3.805966e+01 2.187500e-01 -5.252935e-02 1.494474e+00 -3.503937e+00 3.693710e+00
3.805966e+01 2.187500e-01 -5.121390e-02 1.493938e+00 -3.468460e+00 3.689896e+00
3.850084e+01 2.083333e-01 -5.454051e-02 1.495812e+00 -3.495865e+00 3.730240e+00
4.419925e+01 2.083333e-01 -4.960574e-02 1.494599e+00 -3.495865e+00 3.730240e+00
3.786507e+01 1.979167e-01 -4.874816e-02 1.494072e+00 -3.476486e+00 3.744583e+00
4.014752e+01 2.083333e-01 -5.102713e-02 1.495205e+00 -3.463181e+00 3.744583e+00
3.985620e+01 2.083333e-01 -4.926455e-02 1.495654e+00 -3.455856e+00 3.714172e+00
3.908054e+01 2.187500e-01 -4.556390e-02 1.495803e+00 -3.450562e+00 3.747513e+00
3.777216e+01 1.979167e-01 -5.024487e-02 1.497376e+00 -3.470749e+00 3.780014e+00
3.948596e+01 2.135417e-01 -4.664013e-02 1.496618e+00 -3.458725e+00 3.729065e+00
3.883597e+01 2.187500e-01 -4.700489e-02 1.496652e+00 -3.457535e+00 3.742157e+00
3.886755e+01 2.239583e-01 -4.727492e-02 1.496720e+00 -3.454468e+00 3.746719e+00
3.886978e+01 2.291667e-01 -4.778657e-02 1.496864e+00 -3.452835e+00 3.749985e+00
3.780403e+01 2.083333e-01 -5.111347e-02 1.498862e+00 -3.477692e+00 3.774139e+00
3.893880e+01 2.135417e-01 -5.346168e-02 1.498913e+00 -3.476700e+00 3.773148e+00
3.899284e+01 2.135417e-01 -5.594712e-02 1.498989e+00 -3.469284e+00 3.706238e+00
3.885329e+01 2.135417e-01 -5.595958e-02 1.499014e+00 -3.469376e+00 3.706406e+00
3.885329e+01 2.135417e-01 -5.597214e-02 1.499031e+00 -3.469376e+00 3.706421e+00
3.813316e+01 2.135417e-01 -5.284795e-02 1.498375e+00 -3.466354e+00 3.721252e+00
3.745979e+01 2.031250e-01 -5.296548e-02 1.498570e+00 -3.465347e+00 3.730774e+00
3.745979e+01 2.031250e-01 -5.288484e-02 1.498601e+00 -3.464951e+00 3.730774e+00
3.909904e+01 2.083333e-01 -5.157181e-02 1.498393e+00 -3.471085e+00 3.715546e+00
3.765967e+01 2.031250e-01 -5.449396e-02 1.500140e+00 -3.469208e+00 3.749725e+00
4.218086e+01 2.083333e-01 -4.704034e-02 1.498043e+00 -3.487732e+00 3.680161e+00
3.808415e+01 2.135417e-01 -5.283655e-02 1.499210e+00 -3.468811e+00 3.730103e+00
3.934087e+01 2.135417e-01 -5.153801e-02 1.499299e+00 -3.474319e+00 3.715302e+00
3.820476e+01 2.135417e-01 -5.194246e-02 1.499681e+00 -3.472366e+00 3.731094e+00
3.799698e+01 2.083333e-01 -5.191156e-02 1.499722e+00 -3.472198e+00 3.737091e+00
3.796181e+01 2.083333e-01 -5.180716e-02 1.499738e+00 -3.471573e+00 3.737091e+00
3.797993e+01 2.083333e-01 -5.168287e-02 1.499752e+00 -3.472672e+00 3.736771e+00
3.755464e+01 2.083333e-01 -5.195425e-02 1.500319e+00 -3.472672e+00 3.746292e+00
3.766493e+01 2.135417e-01 -5.231244e-02 1.500856e+00 -3.470566e+00 3.746292e+00
3.766493e+01 2.135417e-01 -5.229168e-02 1.500845e+00 -3.470566e+00 3.745621e+00
3.852852e+01 2.187500e-01 -5.175250e-02 1.500830e+00 -3.475204e+00 3.741104e+00
3.811229e+01 2.187500e-01 -5.201731e-02 1.500955e+00 -3.475204e+00 3.735535e+00
3.759242e+01 2.083333e-01 -5.231640e-02 1.501105e+00 -3.473663e+00 3.745193e+00
3.782872e+01 1.979167e-01 -5.282091e-02 1.501192e+00 -3.471069e+00 3.762894e+00
3.781326e+01 1.979167e-01 -5.320209e-02 1.501204e+00 -3.464233e+00 3.762894e+00
3.781845e+01 1.979167e-01 -5.320257e-02 1.501203e+00 -3.464279e+00 3.762604e+00
3.859787e+01 2.187500e-01 -5.420501e-02 1.501663e+00 -3.479019e+00 3.760880e+00
3.802963e+01 2.187500e-01 -5.468885e-02 1.502179e+00 -3.479019e+00 3.722916e+00
3.790567e+01 1.979167e-01 -4.416879e-02 1.504331e+00 -3.449097e+00 3.711304e+00
3.923248e+01 2.187500e-01 -4.568211e-02 1.503541e+00 -3.451202e+00 3.711899e+00
3.891238e+01 2.135417e-01 -4.716888e-02 1.502794e+00 -3.451202e+00 3.707626e+00
3.891238e+01 2.135417e-01 -4.707298e-02 1.502868e+00 -3.446915e+00 3.707611e+00
3.951891e+01 2.187500e-01 -4.613833e-02 1.502921e+00 -3.446747e+00 3.702301e+00
3.732359e+01 2.083333e-01 -4.831879e-02 1.504419e+00 -3.449692e+00 3.725616e+00
3.909248e+01 2.135417e-01 -4.466711e-02 1.504139e+00 -3.436768e+00 3.699783e+00
3.811076e+01 2.083333e-01 -4.629999e-02 1.504831e+00 -3.428879e+00 3.717361e+00
3.911841e+01 2.187500e-01 -4.476890e-02 1.504791e+00 -3.434998e+00 3.704239e+00
3.915988e+01 2.187500e-01 -4.476069e-02 1.504800e+00 -3.435074e+00 3.703812e+00
3.914032e+01 2.187500e-01 -4.480888e-02 1.504824e+00 -3.435074e+00 3.703934e+00
3.914032e+01 2.187500e-01 -4.486605e-02 1.504850e+00 -3.434769e+00 3.703934e+00
3.823172e+01 2.083333e-01 -4.671903e-02 1.506098e+00 -3.437546e+00 3.714691e+00
3.822118e+01 2.083333e-01 -4.703985e-02 1.506698e+00 -3.437546e+00 3.714691e+00
3.815250e+01 2.083333e-01 -4.748458e-02 1.506838e+00 -3.437073e+00 3.708206e+00
3.728928e+01 1.927083e-01 -4.861470e-02 1.509684e+00 -3.455887e+00 3.748657e+00
3.775935e+01 1.927083e-01 -4.805476e-02 1.509536e+00 -3.451920e+00 3.745209e+00
3.830386e+01 2.083333e-01 -4.774697e-02 1.509265e+00 -3.447861e+00 3.737503e+00
3.839670e+01 2.083333e-01 -4.721456e-02 1.509080e+00 -3.439651e+00 3.730362e+00
3.830521e+01 2.187500e-01 -4.813781e-02 1.510349e+00 -3.439301e+00 3.711334e+00
3.873587e+01 2.187500e-01 -4.786808e-02 1.510272e+00 -3.438461e+00 3.706451e+00
3.873587e+01 2.187500e-01 -4.798908e-02 1.510296e+00 -3.437180e+00 3.706451e+00
3.843042e+01 2.135417e-01 -4.792873e-02 1.510780e+00 -3.438431e+00 3.721436e+00
3.846550e+01 2.187500e-01 -4.765117e-02 1.510929e+00 -3.438431e+00 3.721436e+00
3.846550e+01 2.187500e-01 -4.759622e-02 1.510911e+00 -3.438004e+00 3.720871e+00
3.846550e+01 2.187500e-01 -4.759622e-02 1.510911e+00 -3.438004e+00 3.720871e+00
3.846550e+01 2.187500e-01 -4.759622e-02 1.510911e+00 -3.438004e+00 3.720871e+00
3.846550e+01 2.187500e-01 -4.759622e-02 1.510911e+00 -3.438004e+00 3.720871e+00
3.805426e+01 2.083333e-01 -4.770100e-02 1.511068e+00 -3.439972e+00 3.723358e+00
3.805426e+01 2.083333e-01 -4.773007e-02 1.511152e+00 -3.439972e+00 3.723358e+00
3.856227e+01 2.187500e-01 -4.698606e-02 1.511109e+00 -3.440887e+00 3.718948e+00
3.843231e+01 2.187500e-01 -4.703145e-02 1.511126e+00 -3.440887e+00 3.719971e+00
3.851836e+01 2.187500e-01 -4.705772e-02 1.511134e+00 -3.440704e+00 3.719971e+00
3.819690e+01 2.031250e-01 -4.743764e-02 1.511230e+00 -3.440704e+00 3.740875e+00
3.950836e+01 2.187500e-01 -4.642844e-02 1.511206e+00 -3.444885e+00 3.740875e+00
3.950836e+01 2.187500e-01 -4.502618e-02 1.511081e+00 -3.444885e+00 3.725723e+00
3.954137e+01 2.187500e-01 -4.489001e-02 1.510908e+00 -3.444733e+00 3.725006e+00
3.896257e+01 2.187500e-01 -4.362304e-02 1.510916e+00 -3.444519e+00 3.755569e+00
3.913635e+01 2.135417e-01 -4.237105e-02 1.510928e+00 -3.445496e+00 3.755569e+00
3.906558e+01 2.187500e-01 -4.229476e-02 1.511073e+00 -3.445786e+00 3.760605e+00
3.912100e+01 2.135417e-01 -4.204318e-02 1.511120e+00 -3.448303e+00 3.760605e+00
3.906090e+01 2.187500e-01 -4.152660e-02 1.511081e+00 -3.449020e+00 3.757690e+00
3.929381e+01 2.083333e-01 -4.314085e-02 1.512460e+00 -3.427399e+00 3.766922e+00
3.964771e+01 2.135417e-01 -4.290182e-02 1.512521e+00 -3.427399e+00 3.766922e+00
3.866684e+01 1.979167e-01 -4.169918e-02 1.512954e+00 -3.426682e+00 3.764954e+00
3.851366e+01 1.979167e-01 -4.106642e-02 1.511184e+00 -3.406082e+00 3.762527e+00
3.898932e+01 2.187500e-01 -4.361165e-02 1.512705e+00 -3.407837e+00 3.765213e+00
3.889560e+01 2.187500e-01 -4.632221e-02 1.514402e+00 -3.407837e+00 3.767853e+00
3.851547e+01 2.083333e-01 -4.419766e-02 1.516224e+00 -3.407364e+00 3.772049e+00
4.112393e+01 2.031250e-01 -4.171830e-02 1.516644e+00 -3.407166e+00 3.775711e+00
3.878470e+01 2.135417e-01 -3.948743e-02 1.519813e+00 -3.401825e+00 3.787720e+00
3.895299e+01 2.135417e-01 -4.755025e-02 1.530464e+00 -3.516632e+00 3.847321e+00
3.869765e+01 2.135417e-01 -5.857955e-02 1.538338e+00 -3.519897e+00 3.849304e+00
3.863715e+01 2.135417e-01 -6.121633e-02 1.538557e+00 -3.533081e+00 3.848389e+00
3.857425e+01 2.135417e-01 -6.122550e-02 1.538580e+00 -3.533447e+00 3.848358e+00
3.847028e+01 2.135417e-01 -6.184445e-02 1.538609e+00 -3.534515e+00 3.849060e+00
3.900708e+01 2.187500e-01 -6.218990e-02 1.539068e+00 -3.538727e+00 3.848724e+00
3.889040e+01 2.083333e-01 -6.562805e-02 1.542616e+00 -3.532669e+00 3.850037e+00
3.916577e+01 2.083333e-01 -6.543461e-02 1.542550e+00 -3.513733e+00 3.875763e+00
3.945995e+01 2.135417e-01 -6.545248e-02 1.541050e+00 -3.517120e+00 3.873260e+00
3.876950e+01 2.187500e-01 -6.250048e-02 1.542486e+00 -3.517090e+00 3.871964e+00
3.876950e+01 2.187500e-01 -6.203374e-02 1.542574e+00 -3.517075e+00 3.872009e+00
3.875337e+01 2.187500e-01 -6.343166e-02 1.542949e+00 -3.517075e+00 3.876755e+00
3.876135e+01 2.187500e-01 -6.485883e-02 1.543334e+00 -3.510300e+00 3.876877e+00
3.876135e+01 2.187500e-01 -6.488819e-02 1.543345e+00 -3.510117e+00 3.876877e+00
3.876135e+01 2.187500e-01 -6.488829e-02 1.543345e+00 -3.510117e+00 3.876877e+00
3.785066e+01 2.031250e-01 -6.869410e-02 1.545109e+00 -3.501953e+00 3.886612e+00
3.947523e+01 2.239583e-01 -6.395789e-02 1.544154e+00 -3.520645e+00 3.875275e+00
3.871806e+01 2.187500e-01 -6.607220e-02 1.545119e+00 -3.515060e+00 3.880417e+00
3.871806e+01 2.187500e-01 -6.607423e-02 1.545130e+00 -3.515015e+00 3.880417e+00
3.942821e+01 2.239583e-01 -6.795125e-02 1.545986e+00 -3.518295e+00 3.898483e+00
3.804526e+01 2.031250e-01 -7.148801e-02 1.547836e+00 -3.507584e+00 3.910431e+00
3.864343e+01 2.135417e-01 -7.083767e-02 1.547693e+00 -3.514038e+00 3.909576e+00
3.845775e+01 2.031250e-01 -7.110943e-02 1.548312e+00 -3.514038e+00 3.913040e+00
3.821291e+01 2.083333e-01 -7.133812e-02 1.549003e+00 -3.510437e+00 3.913239e+00
3.821291e+01 2.083333e-01 -7.137173e-02 1.549040e+00 -3.510315e+00 3.913239e+00
3.821291e+01 2.083333e-01 -7.137173e-02 1.549040e+00 -3.510315e+00 3.913239e+00
3.840788e+01 2.083333e-01 -7.308496e-02 1.549881e+00 -3.502701e+00 3.923157e+00
3.855396e+01 2.083333e-01 -7.177908e-02 1.550265e+00 -3.508469e+00 3.920761e+00
3.980727e+01 2.187500e-01 -5.202629e-02 1.555906e+00 -3.555191e+00 3.955414e+00
3.956784e+01 2.135417e-01 -7.698735e-02 1.560617e+00 -3.528702e+00 3.910522e+00
3.810367e+01 2.083333e-01 -7.714313e-02 1.561460e+00 -3.525864e+00 3.919083e+00
3.860378e+01 2.135417e-01 -7.604314e-02 1.561801e+00 -3.519760e+00 3.921143e+00
3.803310e+01 1.927083e-01 -7.533525e-02 1.562014e+00 -3.516602e+00 3.926788e+00
4.106656e+01 2.135417e-01 -7.565762e-02 1.568637e+00 -3.568588e+00 3.990540e+00
3.823499e+01 1.927083e-01 -7.755714e-02 1.575817e+00 -3.568588e+00 4.004349e+00
3.821049e+01 1.927083e-01 -7.913594e-02 1.576702e+00 -3.543564e+00 4.004349e+00
3.818394e+01 1.979167e-01 -7.916163e-02 1.576694e+00 -3.543808e+00 4.003845e+00
4.007109e+01 2.239583e-01 -7.424425e-02 1.575915e+00 -3.560135e+00 3.995667e+00
3.848967e+01 2.187500e-01 -7.629549e-02 1.576679e+00 -3.552216e+00 4.003601e+00
3.873691e+01 2.135417e-01 -7.606371e-02 1.576808e+00 -3.553513e+00 4.003128e+00
3.776729e+01 1.979167e-01 -7.628564e-02 1.577543e+00 -3.553513e+00 4.015854e+00
3.784459e+01 1.979167e-01 -7.644875e-02 1.578239e+00 -3.547989e+00 4.015854e+00
3.823212e+01 2.031250e-01 -7.575139e-02 1.578150e+00 -3.551498e+00 4.014297e+00
3.771954e+01 1.979167e-01 -7.624894e-02 1.578760e+00 -3.551498e+00 4.021057e+00
3.773373e+01 2.031250e-01 -7.665600e-02 1.579365e+00 -3.550476e+00 4.021057e+00
3.773773e+01 2.031250e-01 -7.650448e-02 1.579332e+00 -3.550858e+00 4.020691e+00
3.781679e+01 2.031250e-01 -7.643639e-02 1.579383e+00 -3.551682e+00 4.020660e+00
3.779402e+01 2.031250e-01 -7.635208e-02 1.579447e+00 -3.551682e+00 4.020279e+00
3.779402e+01 2.031250e-01 -7.636290e-02 1.579460e+00 -3.551544e+00 4.020279e+00
3.899371e+01 2.135417e-01 -7.442986e-02 1.579023e+00 -3.555634e+00 4.016861e+00
3.905437e+01 2.187500e-01 -7.448192e-02 1.578875e+00 -3.555542e+00 4.018188e+00
3.776859e+01 1.979167e-01 -7.522892e-02 1.579379e+00 -3.555099e+00 4.021759e+00
3.776859e+01 1.979167e-01 -7.593044e-02 1.580030e+00 -3.554550e+00 4.021759e+00
3.847540e+01 2.083333e-01 -7.609365e-02 1.580145e+00 -3.555023e+00 4.027573e+00
3.916504e+01 2.187500e-01 -7.429060e-02 1.581414e+00 -3.564316e+00 4.023682e+00
3.832422e+01 2.031250e-01 -7.742271e-02 1.585142e+00 -3.574326e+00 4.022324e+00
3.946806e+01 2.135417e-01 -7.433676e-02 1.585185e+00 -3.590912e+00 4.012085e+00
3.945860e+01 2.135417e-01 -7.440205e-02 1.585281e+00 -3.589920e+00 4.013153e+00
3.887938e+01 2.187500e-01 -7.648796e-02 1.584075e+00 -3.581024e+00 4.034317e+00
3.849492e+01 2.135417e-01 -7.815194e-02 1.583364e+00 -3.568604e+00 4.037064e+00
3.805798e+01 1.979167e-01 -7.614541e-02 1.583844e+00 -3.557495e+00 4.045471e+00
3.800252e+01 1.979167e-01 -7.551420e-02 1.585271e+00 -3.565338e+00 4.043259e+00
3.800685e+01 1.979167e-01 -7.538614e-02 1.585318e+00 -3.565964e+00 4.043457e+00
3.800685e+01 1.979167e-01 -7.540720e-02 1.585330e+00 -3.565964e+00 4.043457e+00
3.875726e+01 2.135417e-01 -9.203850e-02 1.597148e+00 -3.661453e+00 4.079498e+00
3.848831e+01 2.135417e-01 -9.155080e-02 1.597317e+00 -3.661194e+00 4.083054e+00
3.777344e+01 1.927083e-01 -8.901514e-02 1.597959e+00 -3.658310e+00 4.085373e+00
3.770276e+01 1.979167e-01 -8.687408e-02 1.598543e+00 -3.644958e+00 4.085281e+00
4.089905e+01 2.187500e-01 -8.298811e-02 1.597083e+00 -3.608444e+00 4.073685e+00
3.851086e+01 2.083333e-01 -8.388597e-02 1.597755e+00 -3.625198e+00 4.081818e+00
3.800316e+01 1.979167e-01 -7.785343e-02 1.596468e+00 -3.620163e+00 4.083847e+00
3.825212e+01 2.135417e-01 -7.875129e-02 1.596922e+00 -3.627441e+00 4.083694e+00
3.855095e+01 2.187500e-01 -7.952678e-02 1.597712e+00 -3.628937e+00 4.087769e+00
3.854750e+01 2.187500e-01 -7.935864e-02 1.598068e+00 -3.629150e+00 4.087891e+00
3.860912e+01 2.083333e-01 -7.910021e-02 1.599811e+00 -3.638168e+00 4.095566e+00
3.836031e+01 2.239583e-01 -7.834084e-02 1.599646e+00 -3.629578e+00 4.093781e+00
3.836031e+01 2.239583e-01 -7.838440e-02 1.599659e+00 -3.629471e+00 4.093781e+00
3.857115e+01 2.031250e-01 -8.097299e-02 1.601212e+00 -3.653946e+00 4.109787e+00
3.835468e+01 2.135417e-01 -8.164292e-02 1.601766e+00 -3.657928e+00 4.111404e+00
3.876375e+01 2.187500e-01 -8.198325e-02 1.602158e+00 -3.657928e+00 4.111404e+00
3.872339e+01 2.239583e-01 -8.122746e-02 1.601956e+00 -3.652267e+00 4.116669e+00
3.828024e+01 2.031250e-01 -7.666904e-02 1.603022e+00 -3.631439e+00 4.118530e+00
3.914653e+01 2.135417e-01 -7.291190e-02 1.602493e+00 -3.603134e+00 4.114395e+00
3.839958e+01 2.135417e-01 -7.469216e-02 1.603478e+00 -3.616302e+00 4.123779e+00
3.878854e+01 2.083333e-01 -7.739142e-02 1.605311e+00 -3.643280e+00 4.133484e+00
4.013109e+01 2.187500e-01 -7.087765e-02 1.603849e+00 -3.593201e+00 4.121170e+00
3.783104e+01 2.031250e-01 -7.399566e-02 1.604780e+00 -3.609924e+00 4.132721e+00
3.813890e+01 2.031250e-01 -7.395288e-02 1.604907e+00 -3.611206e+00 4.136200e+00
3.813170e+01 2.031250e-01 -7.388818e-02 1.605034e+00 -3.611206e+00 4.136200e+00
3.813170e+01 2.031250e-01 -7.386625e-02 1.605035e+00 -3.610916e+00 4.136124e+00
3.822295e+01 1.979167e-01 -7.087852e-02 1.605953e+00 -3.600632e+00 4.141586e+00
3.823206e+01 1.979167e-01 -6.984653e-02 1.606249e+00 -3.600632e+00 4.141586e+00
3.823206e+01 1.979167e-01 -6.983368e-02 1.606252e+00 -3.600494e+00 4.141541e+00
3.806332e+01 2.031250e-01 -7.156990e-02 1.606921e+00 -3.615128e+00 4.150955e+00
3.989915e+01 2.239583e-01 -6.667994e-02 1.605425e+00 -3.599487e+00 4.142212e+00
3.885078e+01 2.187500e-01 -6.695576e-02 1.605901e+00 -3.603012e+00 4.147415e+00
3.885942e+01 2.187500e-01 -6.697739e-02 1.605906e+00 -3.602951e+00 4.147476e+00
3.832207e+01 2.187500e-01 -6.750199e-02 1.606046e+00 -3.602951e+00 4.151855e+00
3.826926e+01 2.135417e-01 -6.803150e-02 1.606186e+00 -3.599564e+00 4.151886e+00
3.826926e+01 2.135417e-01 -6.803643e-02 1.606187e+00 -3.599533e+00 4.151886e+00
3.826926e+01 2.135417e-01 -6.803643e-02 1.606187e+00 -3.599533e+00 4.151886e+00
3.823175e+01 2.135417e-01 -6.804203e-02 1.606202e+00 -3.599548e+00 4.151947e+00
3.780135e+01 1.979167e-01 -6.864041e-02 1.610026e+00 -3.611298e+00 4.165405e+00
3.789952e+01 2.135417e-01 -6.779750e-02 1.609689e+00 -3.613007e+00 4.165207e+00
3.790717e+01 2.135417e-01 -6.777664e-02 1.609691e+00 -3.613052e+00 4.165176e+00
3.810368e+01 2.135417e-01 -6.767543e-02 1.609658e+00 -3.613510e+00 4.165146e+00
3.793945e+01 2.135417e-01 -6.770209e-02 1.609690e+00 -3.613510e+00 4.165680e+00
3.793945e+01 2.135417e-01 -6.777606e-02 1.609742e+00 -3.612991e+00 4.165680e+00
4.063510e+01 2.187500e-01 -6.436331e-02 1.608706e+00 -3.621719e+00 4.159225e+00
3.844550e+01 2.187500e-01 -6.776254e-02 1.609820e+00 -3.611954e+00 4.167099e+00
3.844550e+01 2.187500e-01 -6.776254e-02 1.609820e+00 -3.611954e+00 4.167099e+00
3.844550e+01 2.187500e-01 -6.776254e-02 1.609820e+00 -3.611954e+00 4.167099e+00
3.844276e+01 2.187500e-01 -6.784357e-02 1.609873e+00 -3.611954e+00 4.167633e+00
3.859755e+01 2.187500e-01 -6.884882e-02 1.610074e+00 -3.611404e+00 4.168579e+00
3.844043e+01 2.187500e-01 -6.868705e-02 1.610003e+00 -3.612122e+00 4.168167e+00
3.849257e+01 2.187500e-01 -6.879367e-02 1.610063e+00 -3.612167e+00 4.168427e+00
3.808235e+01 2.031250e-01 -7.218238e-02 1.610987e+00 -3.608963e+00 4.167267e+00
3.822937e+01 2.031250e-01 -7.157473e-02 1.611223e+00 -3.606125e+00 4.167191e+00
4.022902e+01 2.239583e-01 -7.247249e-02 1.615825e+00 -3.643951e+00 4.166916e+00
4.024953e+01 2.239583e-01 -7.334881e-02 1.620260e+00 -3.643951e+00 4.158310e+00
3.998811e+01 2.239583e-01 -7.313190e-02 1.620251e+00 -3.643433e+00 4.158707e+00
3.992671e+01 2.239583e-01 -7.315083e-02 1.620255e+00 -3.643326e+00 4.158813e+00
3.791095e+01 2.031250e-01 -7.128636e-02 1.620844e+00 -3.642731e+00 4.177933e+00
3.769034e+01 2.083333e-01 -6.919822e-02 1.621320e+00 -3.632126e+00 4.177933e+00
3.825331e+01 2.135417e-01 -6.779799e-02 1.621086e+00 -3.635818e+00 4.176575e+00
3.818919e+01 2.135417e-01 -6.815753e-02 1.621193e+00 -3.635818e+00 4.177368e+00
3.827820e+01 2.031250e-01 -7.577631e-02 1.623830e+00 -3.648636e+00 4.203934e+00
3.931516e+01 2.187500e-01 -7.480013e-02 1.624828e+00 -3.648132e+00 4.203873e+00
3.826454e+01 1.979167e-01 -7.602914e-02 1.626816e+00 -3.647018e+00 4.217255e+00
3.831152e+01 1.979167e-01 -7.814982e-02 1.627803e+00 -3.647018e+00 4.217255e+00
3.829211e+01 1.979167e-01 -7.810665e-02 1.627794e+00 -3.646515e+00 4.217072e+00
3.829211e+01 1.979167e-01 -7.810665e-02 1.627794e+00 -3.646515e+00 4.217072e+00
3.881999e+01 2.135417e-01 -7.701217e-02 1.627339e+00 -3.636566e+00 4.216415e+00
3.881999e+01 2.135417e-01 -7.704877e-02 1.627301e+00 -3.634705e+00 4.216415e+00
3.820187e+01 2.083333e-01 -8.042096e-02 1.628411e+00 -3.652618e+00 4.236191e+00
3.828578e+01 2.135417e-01 -8.031029e-02 1.628387e+00 -3.652267e+00 4.236176e+00
3.881410e+01 2.135417e-01 -7.899881e-02 1.624084e+00 -3.633545e+00 4.231766e+00
3.881410e+01 2.135417e-01 -7.879426e-02 1.624074e+00 -3.632019e+00 4.231705e+00
3.882771e+01 2.135417e-01 -7.878325e-02 1.624078e+00 -3.632034e+00 4.231689e+00
3.922377e+01 2.187500e-01 -7.629163e-02 1.623779e+00 -3.636246e+00 4.225174e+00
3.828172e+01 2.135417e-01 -7.747409e-02 1.624919e+00 -3.628647e+00 4.232513e+00
3.816179e+01 2.083333e-01 -7.732440e-02 1.625113e+00 -3.629349e+00 4.233917e+00
4.303537e+01 2.135417e-01 -5.894432e-02 1.623681e+00 -3.621536e+00 4.205048e+00
4.178673e+01 2.135417e-01 -5.961590e-02 1.623888e+00 -3.621536e+00 4.209000e+00
3.855916e+01 2.187500e-01 -6.051414e-02 1.625411e+00 -3.644043e+00 4.220474e+00
3.835204e+01 2.083333e-01 -7.193225e-02 1.633171e+00 -3.726166e+00 4.227936e+00
3.839304e+01 2.083333e-01 -7.291673e-02 1.633418e+00 -3.713898e+00 4.226089e+00
3.834894e+01 2.083333e-01 -7.289915e-02 1.633402e+00 -3.713547e+00 4.226135e+00
4.096094e+01 2.239583e-01 -6.258209e-02 1.628704e+00 -3.600128e+00 4.344376e+00
3.840495e+01 2.135417e-01 -6.684586e-02 1.629680e+00 -3.612961e+00 4.351913e+00
3.840495e+01 2.135417e-01 -6.683523e-02 1.629678e+00 -3.612869e+00 4.351898e+00
3.837408e+01 2.135417e-01 -6.681766e-02 1.629670e+00 -3.612686e+00 4.351852e+00
3.856467e+01 2.135417e-01 -6.700888e-02 1.629735e+00 -3.615524e+00 4.352631e+00
3.855009e+01 2.187500e-01 -6.735394e-02 1.633493e+00 -3.615875e+00 4.382538e+00
3.857317e+01 2.187500e-01 -6.496710e-02 1.635784e+00 -3.603668e+00 4.382767e+00
3.836638e+01 2.135417e-01 -6.601619e-02 1.635879e+00 -3.618851e+00 4.386261e+00
3.844072e+01 2.135417e-01 -6.696754e-02 1.635951e+00 -3.618851e+00 4.386261e+00
3.787865e+01 2.083333e-01 -6.415104e-02 1.636649e+00 -3.628326e+00 4.383835e+00
3.770648e+01 1.979167e-01 -6.085727e-02 1.638001e+00 -3.647720e+00 4.384155e+00
3.779359e+01 2.031250e-01 -6.165603e-02 1.638065e+00 -3.647720e+00 4.384155e+00
4.341119e+01 2.135417e-01 -7.636261e-02 1.651172e+00 -3.737091e+00 4.453156e+00
3.973715e+01 2.135417e-01 -8.382194e-02 1.653592e+00 -3.748383e+00 4.465576e+00
3.868340e+01 2.239583e-01 -8.330613e-02 1.653873e+00 -3.747437e+00 4.466232e+00
3.864221e+01 2.239583e-01 -8.205114e-02 1.653924e+00 -3.735062e+00 4.466232e+00
3.864221e+01 2.239583e-01 -8.204535e-02 1.653923e+00 -3.734970e+00 4.466217e+00
3.862651e+01 2.083333e-01 -7.932967e-02 1.652944e+00 -3.728699e+00 4.467224e+00
3.952541e+01 2.187500e-01 -7.050179e-02 1.651340e+00 -3.579926e+00 4.466461e+00
3.864670e+01 2.291667e-01 -7.122919e-02 1.651579e+00 -3.595627e+00 4.469513e+00
3.817778e+01 2.031250e-01 -7.463441e-02 1.654281e+00 -3.627625e+00 4.469849e+00
3.871185e+01 2.135417e-01 -7.556500e-02 1.653941e+00 -3.627289e+00 4.469681e+00
3.871185e+01 2.135417e-01 -7.651549e-02 1.653619e+00 -3.615463e+00 4.462662e+00
3.819992e+01 2.135417e-01 -7.669531e-02 1.654070e+00 -3.618515e+00 4.465805e+00
3.819992e+01 2.135417e-01 -7.669531e-02 1.654070e+00 -3.618515e+00 4.465805e+00
4.072136e+01 2.187500e-01 -7.130934e-02 1.653115e+00 -3.572662e+00 4.454437e+00
3.932228e+01 2.187500e-01 -7.288863e-02 1.653845e+00 -3.587250e+00 4.462662e+00
3.929129e+01 2.187500e-01 -7.287569e-02 1.653895e+00 -3.587814e+00 4.462845e+00
3.940408e+01 2.187500e-01 -7.293238e-02 1.653901e+00 -3.588013e+00 4.462997e+00
3.923666e+01 2.135417e-01 -7.288544e-02 1.653893e+00 -3.588013e+00 4.462997e+00
3.843832e+01 2.135417e-01 -7.261117e-02 1.654110e+00 -3.588730e+00 4.461594e+00
3.857501e+01 2.083333e-01 -7.219252e-02 1.654354e+00 -3.588730e+00 4.460846e+00
3.857501e+01 2.083333e-01 -7.198730e-02 1.654371e+00 -3.586090e+00 4.459152e+00
3.857501e+01 2.083333e-01 -7.198730e-02 1.654371e+00 -3.586090e+00 4.459152e+00
3.921930e+01 2.291667e-01 -7.068431e-02 1.654117e+00 -3.579086e+00 4.457825e+00
3.806805e+01 2.135417e-01 -7.307782e-02 1.654935e+00 -3.601212e+00 4.466415e+00
3.822842e+01 2.135417e-01 -6.783729e-02 1.653423e+00 -3.606430e+00 4.474991e+00
3.863512e+01 2.135417e-01 -6.643609e-02 1.652444e+00 -3.606430e+00 4.474014e+00
3.908798e+01 2.239583e-01 -6.489466e-02 1.651665e+00 -3.572418e+00 4.464813e+00
3.830986e+01 2.031250e-01 -6.573902e-02 1.651863e+00 -3.584473e+00 4.469131e+00
3.851630e+01 2.031250e-01 -6.650543e-02 1.652206e+00 -3.585678e+00 4.470062e+00
3.845961e+01 2.083333e-01 -6.667444e-02 1.652346e+00 -3.588165e+00 4.470062e+00
3.845961e+01 2.083333e-01 -6.685436e-02 1.652481e+00 -3.588318e+00 4.468857e+00
3.809509e+01 2.031250e-01 -6.803865e-02 1.652656e+00 -3.596207e+00 4.473495e+00
3.899545e+01 2.135417e-01 -6.671471e-02 1.652740e+00 -3.596207e+00 4.490479e+00
3.899545e+01 2.135417e-01 -6.538410e-02 1.652822e+00 -3.571243e+00 4.490479e+00
3.851335e+01 2.135417e-01 -7.000964e-02 1.654382e+00 -3.610535e+00 4.504990e+00
3.838235e+01 2.083333e-01 -6.630987e-02 1.653105e+00 -3.576233e+00 4.497726e+00
4.147284e+01 2.135417e-01 -6.225393e-02 1.652389e+00 -3.544983e+00 4.491394e+00
3.827948e+01 2.083333e-01 -6.810693e-02 1.654495e+00 -3.587753e+00 4.501068e+00
3.913661e+01 2.239583e-01 -6.634946e-02 1.654369e+00 -3.575272e+00 4.496307e+00
3.858214e+01 2.083333e-01 -6.742579e-02 1.654912e+00 -3.585648e+00 4.499222e+00
3.871786e+01 2.135417e-01 -6.726866e-02 1.654990e+00 -3.585648e+00 4.506439e+00
3.824307e+01 2.031250e-01 -6.346555e-02 1.654543e+00 -3.573395e+00 4.544861e+00
3.940570e+01 2.239583e-01 -5.988843e-02 1.653964e+00 -3.552322e+00 4.536835e+00
3.846646e+01 2.187500e-01 -6.513745e-02 1.656018e+00 -3.584473e+00 4.547913e+00
3.860701e+01 2.135417e-01 -6.324816e-02 1.655539e+00 -3.568924e+00 4.544128e+00
3.818767e+01 1.979167e-01 -6.733124e-02 1.662166e+00 -3.616058e+00 4.548523e+00
3.843066e+01 2.135417e-01 -7.012003e-02 1.662992e+00 -3.638565e+00 4.547211e+00
4.018304e+01 2.187500e-01 -7.241203e-02 1.663780e+00 -3.703369e+00 4.544144e+00
3.788524e+01 2.031250e-01 -7.396437e-02 1.665473e+00 -3.713791e+00 4.554108e+00
3.804982e+01 2.083333e-01 -7.199811e-02 1.666285e+00 -3.698547e+00 4.551132e+00
3.811571e+01 2.135417e-01 -7.193177e-02 1.666280e+00 -3.698547e+00 4.551132e+00
3.806854e+01 2.135417e-01 -7.184466e-02 1.666297e+00 -3.697266e+00 4.551315e+00
3.786180e+01 2.187500e-01 -6.043205e-02 1.666830e+00 -3.655579e+00 4.554825e+00
3.786180e+01 2.187500e-01 -6.060057e-02 1.666666e+00 -3.655579e+00 4.554550e+00
3.832349e+01 2.135417e-01 -5.876488e-02 1.665670e+00 -3.641068e+00 4.552643e+00
3.753848e+01 1.979167e-01 -6.401062e-02 1.666949e+00 -3.675781e+00 4.557587e+00
3.843977e+01 2.239583e-01 -6.488675e-02 1.667270e+00 -3.675247e+00 4.557449e+00
3.897511e+01 2.187500e-01 -6.608562e-02 1.676772e+00 -3.638428e+00 4.582062e+00
3.888556e+01 2.135417e-01 -6.618983e-02 1.678072e+00 -3.628052e+00 4.582062e+00
3.892731e+01 2.187500e-01 -6.634666e-02 1.678091e+00 -3.630890e+00 4.582489e+00
3.868256e+01 2.187500e-01 -7.395752e-02 1.679239e+00 -3.670944e+00 4.596802e+00
3.868256e+01 2.187500e-01 -7.395819e-02 1.679240e+00 -3.670944e+00 4.596802e+00
3.872369e+01 2.187500e-01 -7.381922e-02 1.679242e+00 -3.669617e+00 4.596466e+00
3.876724e+01 2.187500e-01 -7.392922e-02 1.679285e+00 -3.669617e+00 4.596725e+00
3.876724e+01 2.187500e-01 -7.390546e-02 1.679333e+00 -3.669052e+00 4.596664e+00
3.864758e+01 2.187500e-01 -7.391454e-02 1.679354e+00 -3.669052e+00 4.597092e+00
3.774402e+01 1.979167e-01 -6.922517e-02 1.679150e+00 -3.671005e+00 4.606903e+00
3.895401e+01 2.187500e-01 -7.047861e-02 1.679250e+00 -3.671005e+00 4.606903e+00
3.844646e+01 2.083333e-01 -6.992224e-02 1.680147e+00 -3.655151e+00 4.611023e+00
3.832356e+01 2.135417e-01 -7.082087e-02 1.680294e+00 -3.655151e+00 4.611023e+00
3.837492e+01 2.187500e-01 -7.194500e-02 1.680512e+00 -3.653778e+00 4.609909e+00
3.839638e+01 2.187500e-01 -7.186368e-02 1.680558e+00 -3.653397e+00 4.610016e+00
3.806142e+01 1.979167e-01 -7.614696e-02 1.680467e+00 -3.674927e+00 4.622406e+00
3.830624e+01 2.135417e-01 -7.477830e-02 1.680542e+00 -3.664749e+00 4.621185e+00
3.814713e+01 1.979167e-01 -7.556288e-02 1.680716e+00 -3.672455e+00 4.622940e+00
3.887199e+01 2.135417e-01 -7.330921e-02 1.680436e+00 -3.654587e+00 4.617935e+00
3.806703e+01 2.031250e-01 -7.572126e-02 1.681461e+00 -3.676010e+00 4.625732e+00
3.836354e+01 2.135417e-01 -7.535611e-02 1.681314e+00 -3.670990e+00 4.623749e+00
3.831143e+01 2.083333e-01 -7.551787e-02 1.681356e+00 -3.673248e+00 4.624847e+00
3.831670e+01 2.083333e-01 -7.561956e-02 1.681392e+00 -3.673248e+00 4.624847e+00
3.829968e+01 2.083333e-01 -7.561174e-02 1.681407e+00 -3.673035e+00 4.624817e+00
3.830685e+01 2.083333e-01 -7.571199e-02 1.681443e+00 -3.674194e+00 4.625183e+00
3.828366e+01 2.083333e-01 -7.574627e-02 1.681434e+00 -3.674194e+00 4.625183e+00
3.825998e+01 2.083333e-01 -7.572744e-02 1.681416e+00 -3.673492e+00 4.625122e+00
3.810629e+01 2.083333e-01 -7.578065e-02 1.681823e+00 -3.676971e+00 4.625214e+00
3.771196e+01 2.031250e-01 -7.572531e-02 1.684282e+00 -3.689987e+00 4.625259e+00
3.771196e+01 2.031250e-01 -7.576935e-02 1.684297e+00 -3.690338e+00 4.625351e+00
3.817892e+01 2.083333e-01 -7.482476e-02 1.684268e+00 -3.682755e+00 4.623718e+00
3.776826e+01 2.031250e-01 -7.512008e-02 1.684459e+00 -3.683777e+00 4.622528e+00
3.776826e+01 2.031250e-01 -7.548040e-02 1.684631e+00 -3.683792e+00 4.622528e+00
3.794576e+01 2.031250e-01 -7.551555e-02 1.684743e+00 -3.683578e+00 4.622101e+00
3.794576e+01 2.031250e-01 -7.556288e-02 1.684762e+00 -3.683533e+00 4.621918e+00
3.802013e+01 2.083333e-01 -7.550609e-02 1.684768e+00 -3.683533e+00 4.621918e+00
3.793089e+01 2.031250e-01 -7.548977e-02 1.684807e+00 -3.684036e+00 4.622223e+00
3.792616e+01 2.031250e-01 -7.554993e-02 1.684853e+00 -3.684326e+00 4.622375e+00
3.851482e+01 2.083333e-01 -7.500062e-02 1.684833e+00 -3.684326e+00 4.622375e+00
3.843248e+01 2.187500e-01 -7.050884e-02 1.688232e+00 -3.675323e+00 4.638306e+00
3.802698e+01 2.187500e-01 -6.821220e-02 1.691706e+00 -3.683868e+00 4.649719e+00
3.795020e+01 2.187500e-01 -6.913014e-02 1.692558e+00 -3.684036e+00 4.649872e+00
3.810895e+01 2.083333e-01 -6.917997e-02 1.692667e+00 -3.684860e+00 4.650955e+00
3.788013e+01 2.135417e-01 -6.912058e-02 1.692816e+00 -3.684860e+00 4.651154e+00
3.764240e+01 2.135417e-01 -6.924361e-02 1.691823e+00 -3.667465e+00 4.679535e+00
3.790565e+01 1.979167e-01 -7.059991e-02 1.692272e+00 -3.685028e+00 4.684830e+00
3.836331e+01 2.135417e-01 -6.838980e-02 1.691871e+00 -3.667252e+00 4.679932e+00
3.917802e+01 2.135417e-01 -7.018618e-02 1.692773e+00 -3.668121e+00 4.681656e+00
