9.000836e+01 3.645833e-01 -3.672964e-02 5.430026e-01 -9.529877e-01 9.396210e-01
5.709563e+01 3.697917e-01 -8.162100e-03 5.292300e-01 -9.584961e-01 9.284210e-01
5.594617e+01 3.593750e-01 4.437990e-03 5.291474e-01 -9.560394e-01 9.324799e-01
5.698679e+01 3.697917e-01 4.513801e-03 5.296124e-01 -9.540863e-01 9.316864e-01
5.680003e+01 3.697917e-01 3.375766e-03 5.301055e-01 -9.532013e-01 9.313049e-01
5.638481e+01 3.697917e-01 2.008752e-03 5.306762e-01 -9.526367e-01 9.297028e-01
5.586992e+01 3.697917e-01 4.097661e-04 5.312106e-01 -9.524078e-01 9.283142e-01
5.517569e+01 3.697917e-01 -7.269171e-04 5.317811e-01 -9.517822e-01 9.277191e-01
5.508099e+01 3.697917e-01 -2.414365e-03 5.322488e-01 -9.508972e-01 9.266357e-01
5.494029e+01 3.697917e-01 -3.692434e-03 5.327612e-01 -9.493561e-01 9.253540e-01
5.533305e+01 3.697917e-01 -5.112757e-03 5.335438e-01 -9.521027e-01 9.245911e-01
5.468225e+01 3.697917e-01 -6.155762e-03 5.343795e-01 -9.557495e-01 9.300537e-01
5.471503e+01 3.697917e-01 -7.019526e-03 5.350024e-01 -9.603271e-01 9.338989e-01
5.454639e+01 3.697917e-01 -8.216375e-03 5.359353e-01 -9.641724e-01 9.419403e-01
5.505515e+01 3.697917e-01 -9.508061e-03 5.366617e-01 -9.661713e-01 9.601288e-01
5.454526e+01 3.697917e-01 -1.047526e-02 5.381314e-01 -9.715881e-01 9.672852e-01
5.368533e+01 3.697917e-01 -1.139320e-02 5.391408e-01 -9.745178e-01 9.745331e-01
5.353433e+01 3.697917e-01 -1.174425e-02 5.404706e-01 -9.789124e-01 9.806061e-01
5.353439e+01 3.697917e-01 -1.271038e-02 5.416815e-01 -9.826202e-01 9.904633e-01
5.258061e+01 3.697917e-01 -1.362407e-02 5.428309e-01 -9.868317e-01 9.978943e-01
5.302405e+01 3.697917e-01 -1.444853e-02 5.440992e-01 -9.901886e-01 1.010880e+00
5.279642e+01 3.697917e-01 -1.519012e-02 5.453971e-01 -9.939575e-01 1.019409e+00
5.315742e+01 3.697917e-01 -1.606007e-02 5.470854e-01 -9.983826e-01 1.029465e+00
5.268248e+01 3.697917e-01 -1.707458e-02 5.482616e-01 -1.002762e+00 1.035217e+00
5.304092e+01 3.697917e-01 -1.772811e-02 5.499963e-01 -1.006302e+00 1.048553e+00
5.283980e+01 3.697917e-01 -1.815902e-02 5.517005e-01 -1.011917e+00 1.058517e+00
5.243889e+01 3.697917e-01 -1.876715e-02 5.533681e-01 -1.022827e+00 1.067139e+00
5.214955e+01 3.697917e-01 -1.975627e-02 5.551410e-01 -1.032730e+00 1.075119e+00
5.156715e+01 3.645833e-01 -2.052906e-02 5.569759e-01 -1.040909e+00 1.081665e+00
5.152983e+01 3.645833e-01 -2.143889e-02 5.585886e-01 -1.049500e+00 1.088715e+00
5.110092e+01 3.593750e-01 -2.225910e-02 5.606347e-01 -1.063232e+00 1.101898e+00
5.176416e+01 3.697917e-01 -2.294748e-02 5.626253e-01 -1.076370e+00 1.112457e+00
5.158595e+01 3.697917e-01 -2.352635e-02 5.646515e-01 -1.087387e+00 1.122772e+00
5.103064e+01 3.593750e-01 -2.415785e-02 5.667096e-01 -1.094543e+00 1.128983e+00
5.062444e+01 3.593750e-01 -2.474840e-02 5.686368e-01 -1.106293e+00 1.138260e+00
5.048206e+01 3.593750e-01 -2.577596e-02 5.706402e-01 -1.120224e+00 1.149780e+00
5.032365e+01 3.593750e-01 -2.640128e-02 5.725231e-01 -1.133148e+00 1.160782e+00
5.123488e+01 3.645833e-01 -2.734790e-02 5.748533e-01 -1.151474e+00 1.177399e+00
5.013606e+01 3.541667e-01 -2.802257e-02 5.764953e-01 -1.154327e+00 1.179169e+00
5.034669e+01 3.593750e-01 -2.878223e-02 5.793828e-01 -1.173462e+00 1.192612e+00
4.987831e+01 3.593750e-01 -2.993311e-02 5.811318e-01 -1.179581e+00 1.196136e+00
5.040042e+01 3.645833e-01 -3.087935e-02 5.833117e-01 -1.198517e+00 1.210495e+00
5.009610e+01 3.645833e-01 -3.176841e-02 5.855726e-01 -1.210190e+00 1.220078e+00
4.974638e+01 3.593750e-01 -3.235317e-02 5.882413e-01 -1.226852e+00 1.232605e+00
5.006378e+01 3.593750e-01 -3.302118e-02 5.902761e-01 -1.243530e+00 1.243881e+00
4.884892e+01 3.385417e-01 -3.365654e-02 5.930261e-01 -1.248459e+00 1.247574e+00
4.854613e+01 3.333333e-01 -3.443320e-02 5.949812e-01 -1.263474e+00 1.256256e+00
4.926578e+01 3.541667e-01 -3.537132e-02 5.975704e-01 -1.277679e+00 1.267700e+00
4.855107e+01 3.385417e-01 -3.592914e-02 6.000633e-01 -1.290314e+00 1.276901e+00
4.855508e+01 3.437500e-01 -3.642427e-02 6.024604e-01 -1.299225e+00 1.283813e+00
4.870090e+01 3.437500e-01 -3.687412e-02 6.050569e-01 -1.316269e+00 1.297043e+00
4.933493e+01 3.489583e-01 -3.736395e-02 6.076465e-01 -1.331711e+00 1.310577e+00
4.779506e+01 3.281250e-01 -3.795914e-02 6.102309e-01 -1.336823e+00 1.314728e+00
4.824501e+01 3.333333e-01 -3.855597e-02 6.124372e-01 -1.351730e+00 1.325546e+00
4.946938e+01 3.489583e-01 -3.945527e-02 6.149183e-01 -1.372009e+00 1.343704e+00
4.873708e+01 3.489583e-01 -3.980052e-02 6.175081e-01 -1.379715e+00 1.349869e+00
4.832733e+01 3.437500e-01 -4.010560e-02 6.204460e-01 -1.389435e+00 1.358795e+00
4.703145e+01 3.333333e-01 -4.069152e-02 6.228110e-01 -1.399490e+00 1.366272e+00
4.848618e+01 3.437500e-01 -4.108593e-02 6.257987e-01 -1.415054e+00 1.380692e+00
4.720688e+01 3.020833e-01 -4.121853e-02 6.284726e-01 -1.423477e+00 1.388153e+00
4.872714e+01 3.489583e-01 -4.209861e-02 6.304444e-01 -1.442917e+00 1.404968e+00
4.835637e+01 3.437500e-01 -4.199827e-02 6.339714e-01 -1.453964e+00 1.412674e+00
4.726721e+01 3.177083e-01 -4.262552e-02 6.359892e-01 -1.461090e+00 1.420822e+00
4.860091e+01 3.489583e-01 -4.328416e-02 6.387117e-01 -1.483047e+00 1.437088e+00
4.764893e+01 3.385417e-01 -4.359204e-02 6.409925e-01 -1.488602e+00 1.444504e+00
4.796136e+01 3.489583e-01 -4.441283e-02 6.436178e-01 -1.510788e+00 1.461304e+00
4.795496e+01 3.437500e-01 -4.476620e-02 6.466221e-01 -1.524490e+00 1.472107e+00
4.714592e+01 3.333333e-01 -4.546781e-02 6.489955e-01 -1.534531e+00 1.480652e+00
4.713600e+01 3.229167e-01 -4.574479e-02 6.517217e-01 -1.544739e+00 1.491455e+00
4.638809e+01 3.281250e-01 -4.615562e-02 6.546138e-01 -1.560837e+00 1.504517e+00
4.634846e+01 3.229167e-01 -4.630830e-02 6.572094e-01 -1.569901e+00 1.512711e+00
4.617821e+01 3.229167e-01 -4.664197e-02 6.600252e-01 -1.587067e+00 1.525742e+00
4.632973e+01 3.177083e-01 -4.684332e-02 6.629617e-01 -1.597198e+00 1.535049e+00
4.551883e+01 2.812500e-01 -4.757623e-02 6.655677e-01 -1.611877e+00 1.548309e+00
4.576372e+01 3.072917e-01 -4.723513e-02 6.685248e-01 -1.622360e+00 1.560852e+00
4.556087e+01 3.020833e-01 -4.774417e-02 6.710998e-01 -1.636734e+00 1.574753e+00
4.734738e+01 3.072917e-01 -4.834506e-02 6.738640e-01 -1.653336e+00 1.588760e+00
4.621539e+01 3.072917e-01 -4.895753e-02 6.763146e-01 -1.661911e+00 1.597534e+00
4.512482e+01 3.020833e-01 -4.925643e-02 6.783435e-01 -1.656540e+00 1.594131e+00
4.501784e+01 2.864583e-01 -4.961965e-02 6.812660e-01 -1.669693e+00 1.605743e+00
4.498996e+01 3.020833e-01 -4.955089e-02 6.842275e-01 -1.679718e+00 1.614471e+00
4.499731e+01 2.760417e-01 -4.997958e-02 6.867145e-01 -1.692764e+00 1.626251e+00
4.478792e+01 2.968750e-01 -5.007626e-02 6.895306e-01 -1.694321e+00 1.628769e+00
4.408044e+01 2.656250e-01 -5.020644e-02 6.925161e-01 -1.706451e+00 1.640488e+00
4.419551e+01 2.812500e-01 -5.018664e-02 6.950161e-01 -1.715332e+00 1.649857e+00
4.509686e+01 2.812500e-01 -5.046555e-02 6.975992e-01 -1.727997e+00 1.660568e+00
4.393201e+01 2.968750e-01 -5.078579e-02 7.001143e-01 -1.731689e+00 1.662689e+00
4.397353e+01 2.708333e-01 -5.076367e-02 7.030884e-01 -1.742920e+00 1.674316e+00
4.383894e+01 3.020833e-01 -5.091095e-02 7.055146e-01 -1.755569e+00 1.685471e+00
4.432408e+01 2.916667e-01 -5.111685e-02 7.081854e-01 -1.762772e+00 1.692535e+00
4.444521e+01 3.020833e-01 -5.092862e-02 7.110298e-01 -1.776108e+00 1.706390e+00
4.413847e+01 2.968750e-01 -5.120434e-02 7.130851e-01 -1.783981e+00 1.714386e+00
4.359122e+01 2.656250e-01 -5.109183e-02 7.153089e-01 -1.789032e+00 1.719116e+00
4.384558e+01 2.760417e-01 -5.089395e-02 7.181842e-01 -1.798035e+00 1.727692e+00
4.403519e+01 2.968750e-01 -5.071655e-02 7.204764e-01 -1.810013e+00 1.740784e+00
4.342743e+01 2.968750e-01 -5.075691e-02 7.229825e-01 -1.818146e+00 1.747879e+00
4.519806e+01 3.177083e-01 -5.058868e-02 7.257548e-01 -1.831177e+00 1.760361e+00
4.454204e+01 2.916667e-01 -5.116900e-02 7.276555e-01 -1.833008e+00 1.761673e+00
4.469363e+01 3.072917e-01 -5.086025e-02 7.301191e-01 -1.840729e+00 1.770126e+00
4.446533e+01 2.916667e-01 -5.091182e-02 7.318214e-01 -1.845139e+00 1.774139e+00
4.399965e+01 2.968750e-01 -5.080085e-02 7.343951e-01 -1.852783e+00 1.779892e+00
4.411154e+01 3.125000e-01 -5.018963e-02 7.368001e-01 -1.860641e+00 1.787384e+00
4.341393e+01 2.760417e-01 -5.044469e-02 7.381538e-01 -1.866425e+00 1.792725e+00
4.300093e+01 2.552083e-01 -5.012860e-02 7.403504e-01 -1.870499e+00 1.796844e+00
4.292094e+01 2.708333e-01 -4.948039e-02 7.426290e-01 -1.879395e+00 1.805008e+00
4.314775e+01 2.916667e-01 -4.940332e-02 7.440764e-01 -1.885147e+00 1.810013e+00
4.316133e+01 2.812500e-01 -4.923268e-02 7.451892e-01 -1.891693e+00 1.815933e+00
4.315456e+01 2.656250e-01 -4.858804e-02 7.473860e-01 -1.898270e+00 1.820038e+00
4.382887e+01 2.656250e-01 -4.880601e-02 7.487021e-01 -1.900650e+00 1.821671e+00
4.264676e+01 2.760417e-01 -4.826683e-02 7.508061e-01 -1.904236e+00 1.824722e+00
4.352495e+01 2.864583e-01 -4.813878e-02 7.521461e-01 -1.911072e+00 1.830673e+00
4.429048e+01 2.708333e-01 -4.776822e-02 7.542802e-01 -1.924118e+00 1.842300e+00
4.317700e+01 2.708333e-01 -4.857017e-02 7.555992e-01 -1.916626e+00 1.834946e+00
4.377414e+01 2.812500e-01 -4.786692e-02 7.570622e-01 -1.923874e+00 1.840775e+00
4.282664e+01 2.552083e-01 -4.769154e-02 7.584409e-01 -1.922104e+00 1.839905e+00
4.360725e+01 2.760417e-01 -4.736038e-02 7.600113e-01 -1.933304e+00 1.849762e+00
4.269168e+01 2.395833e-01 -4.700769e-02 7.622180e-01 -1.932343e+00 1.849121e+00
4.366502e+01 2.656250e-01 -4.646543e-02 7.640187e-01 -1.939789e+00 1.854630e+00
4.292613e+01 2.395833e-01 -4.663743e-02 7.654980e-01 -1.940964e+00 1.855881e+00
4.320706e+01 2.604167e-01 -4.621868e-02 7.671390e-01 -1.949448e+00 1.864746e+00
4.256352e+01 2.604167e-01 -4.579539e-02 7.688755e-01 -1.952911e+00 1.867691e+00
4.254880e+01 2.447917e-01 -4.577482e-02 7.703610e-01 -1.956802e+00 1.872772e+00
4.243889e+01 2.395833e-01 -4.617754e-02 7.715005e-01 -1.960312e+00 1.875656e+00
4.255391e+01 2.656250e-01 -4.580080e-02 7.731111e-01 -1.961838e+00 1.877426e+00
4.287131e+01 2.656250e-01 -4.605508e-02 7.747132e-01 -1.963638e+00 1.879120e+00
4.292448e+01 2.916667e-01 -4.621849e-02 7.764179e-01 -1.974472e+00 1.888992e+00
4.159740e+01 2.500000e-01 -4.645886e-02 7.772706e-01 -1.973022e+00 1.885773e+00
4.176711e+01 2.500000e-01 -4.682430e-02 7.791568e-01 -1.972885e+00 1.885483e+00
4.207040e+01 2.552083e-01 -4.661550e-02 7.807829e-01 -1.977737e+00 1.890854e+00
4.329451e+01 2.708333e-01 -4.779410e-02 7.815591e-01 -1.982040e+00 1.894058e+00
4.210280e+01 2.604167e-01 -4.749472e-02 7.833290e-01 -1.980270e+00 1.894974e+00
4.320308e+01 2.708333e-01 -4.774147e-02 7.847592e-01 -1.986542e+00 1.899551e+00
4.394197e+01 2.708333e-01 -4.811782e-02 7.859412e-01 -1.993973e+00 1.907059e+00
4.240324e+01 2.708333e-01 -4.838765e-02 7.871109e-01 -1.990128e+00 1.902664e+00
4.298036e+01 2.708333e-01 -4.800000e-02 7.890971e-01 -1.995010e+00 1.906342e+00
4.281447e+01 2.708333e-01 -4.841141e-02 7.908812e-01 -2.000092e+00 1.911728e+00
4.473990e+01 2.708333e-01 -4.803119e-02 7.929202e-01 -2.009918e+00 1.923218e+00
4.213818e+01 2.656250e-01 -4.924417e-02 7.941936e-01 -2.001205e+00 1.914673e+00
4.336757e+01 2.656250e-01 -4.901413e-02 7.956239e-01 -2.008255e+00 1.922409e+00
4.645795e+01 2.864583e-01 -4.921674e-02 7.975198e-01 -2.023712e+00 1.936768e+00
4.399649e+01 2.760417e-01 -5.091307e-02 7.986385e-01 -2.013733e+00 1.927628e+00
4.282320e+01 2.500000e-01 -5.119884e-02 7.995939e-01 -2.009552e+00 1.921478e+00
4.296896e+01 2.708333e-01 -5.022662e-02 8.015295e-01 -2.016846e+00 1.930710e+00
4.276938e+01 2.656250e-01 -5.041427e-02 8.033303e-01 -2.018829e+00 1.931000e+00
4.259772e+01 2.656250e-01 -5.042460e-02 8.047965e-01 -2.023453e+00 1.936508e+00
4.290645e+01 2.395833e-01 -5.063320e-02 8.060973e-01 -2.026443e+00 1.939453e+00
4.268524e+01 2.604167e-01 -5.006785e-02 8.079033e-01 -2.031067e+00 1.944809e+00
4.298277e+01 2.604167e-01 -5.072862e-02 8.092343e-01 -2.034515e+00 1.947662e+00
4.256284e+01 2.656250e-01 -5.007452e-02 8.111039e-01 -2.035080e+00 1.949753e+00
4.213100e+01 2.500000e-01 -5.001445e-02 8.128386e-01 -2.037079e+00 1.952652e+00
4.239160e+01 2.656250e-01 -5.023560e-02 8.140062e-01 -2.041290e+00 1.958755e+00
4.245439e+01 2.656250e-01 -4.974162e-02 8.160014e-01 -2.044632e+00 1.962753e+00
4.243222e+01 2.604167e-01 -4.996606e-02 8.174229e-01 -2.050186e+00 1.967957e+00
4.218730e+01 2.447917e-01 -4.960507e-02 8.195140e-01 -2.050949e+00 1.969528e+00
4.277316e+01 2.552083e-01 -5.050109e-02 8.208188e-01 -2.054932e+00 1.971970e+00
4.260168e+01 2.447917e-01 -5.023531e-02 8.226458e-01 -2.063492e+00 1.982285e+00
4.294090e+01 2.552083e-01 -5.062238e-02 8.243754e-01 -2.061722e+00 1.981659e+00
4.266008e+01 2.552083e-01 -5.027095e-02 8.259710e-01 -2.061890e+00 1.983856e+00
4.245453e+01 2.500000e-01 -5.068670e-02 8.273914e-01 -2.061188e+00 1.983429e+00
4.254289e+01 2.656250e-01 -5.031364e-02 8.289854e-01 -2.067795e+00 1.990662e+00
4.240660e+01 2.552083e-01 -5.057371e-02 8.302307e-01 -2.069077e+00 1.992950e+00
4.253795e+01 2.552083e-01 -5.080897e-02 8.313704e-01 -2.069992e+00 1.994415e+00
4.314470e+01 2.552083e-01 -5.100221e-02 8.328497e-01 -2.077713e+00 2.001678e+00
4.317889e+01 2.656250e-01 -5.150479e-02 8.339227e-01 -2.085037e+00 2.009445e+00
4.289471e+01 2.604167e-01 -5.180813e-02 8.353339e-01 -2.080200e+00 2.004333e+00
4.328481e+01 2.708333e-01 -5.205227e-02 8.364921e-01 -2.088959e+00 2.014114e+00
4.269888e+01 2.604167e-01 -5.120280e-02 8.383347e-01 -2.089798e+00 2.017792e+00
4.296693e+01 2.656250e-01 -5.185381e-02 8.398250e-01 -2.088745e+00 2.017609e+00
4.312059e+01 2.604167e-01 -5.150527e-02 8.413312e-01 -2.090195e+00 2.019104e+00
4.301747e+01 2.447917e-01 -5.158311e-02 8.425630e-01 -2.095078e+00 2.024643e+00
4.336481e+01 2.552083e-01 -5.184656e-02 8.437978e-01 -2.099167e+00 2.026871e+00
4.494907e+01 2.812500e-01 -5.148663e-02 8.454827e-01 -2.108765e+00 2.038071e+00
4.323058e+01 2.604167e-01 -5.268358e-02 8.466451e-01 -2.100967e+00 2.031616e+00
4.303697e+01 2.552083e-01 -5.184840e-02 8.481418e-01 -2.101761e+00 2.032211e+00
4.320673e+01 2.604167e-01 -5.195985e-02 8.498714e-01 -2.112274e+00 2.042435e+00
4.297534e+01 2.708333e-01 -5.214875e-02 8.510726e-01 -2.107880e+00 2.039352e+00
4.349353e+01 2.552083e-01 -5.195531e-02 8.521862e-01 -2.114761e+00 2.046173e+00
4.309337e+01 2.604167e-01 -5.195019e-02 8.542712e-01 -2.119019e+00 2.051849e+00
4.343590e+01 2.604167e-01 -5.260158e-02 8.551424e-01 -2.120544e+00 2.053864e+00
4.318056e+01 2.552083e-01 -5.224252e-02 8.565308e-01 -2.124039e+00 2.057800e+00
4.365678e+01 2.656250e-01 -5.275591e-02 8.579462e-01 -2.131134e+00 2.064789e+00
4.303223e+01 2.500000e-01 -5.349007e-02 8.593638e-01 -2.125565e+00 2.058533e+00
4.312688e+01 2.552083e-01 -5.305887e-02 8.609899e-01 -2.129791e+00 2.065170e+00
4.325438e+01 2.500000e-01 -5.356105e-02 8.618053e-01 -2.132416e+00 2.064835e+00
4.354971e+01 2.708333e-01 -5.323743e-02 8.634785e-01 -2.131256e+00 2.067963e+00
4.323109e+01 2.656250e-01 -5.321000e-02 8.651841e-01 -2.135452e+00 2.071411e+00
4.372368e+01 2.500000e-01 -5.354010e-02 8.657802e-01 -2.141220e+00 2.077225e+00
4.349547e+01 2.708333e-01 -5.293786e-02 8.672564e-01 -2.139328e+00 2.076614e+00
4.418556e+01 2.760417e-01 -5.257194e-02 8.691612e-01 -2.146851e+00 2.086884e+00
4.331023e+01 2.760417e-01 -5.309740e-02 8.698483e-01 -2.147903e+00 2.087173e+00
4.347250e+01 2.552083e-01 -5.284891e-02 8.709718e-01 -2.146255e+00 2.084747e+00
4.343034e+01 2.552083e-01 -5.354444e-02 8.714445e-01 -2.148438e+00 2.088196e+00
4.334236e+01 2.656250e-01 -5.339620e-02 8.730171e-01 -2.151382e+00 2.091934e+00
4.340207e+01 2.604167e-01 -5.344642e-02 8.742096e-01 -2.153137e+00 2.092804e+00
4.329262e+01 2.500000e-01 -5.367492e-02 8.748724e-01 -2.153580e+00 2.095245e+00
4.336469e+01 2.708333e-01 -5.330668e-02 8.761692e-01 -2.159164e+00 2.100388e+00
4.365073e+01 2.760417e-01 -5.333410e-02 8.776388e-01 -2.166473e+00 2.108246e+00
4.315327e+01 2.500000e-01 -5.385116e-02 8.782695e-01 -2.158112e+00 2.100647e+00
4.330547e+01 2.552083e-01 -5.348997e-02 8.795546e-01 -2.160263e+00 2.102158e+00
4.336615e+01 2.604167e-01 -5.360548e-02 8.806516e-01 -2.162613e+00 2.106308e+00
4.330470e+01 2.604167e-01 -5.344623e-02 8.820879e-01 -2.164337e+00 2.108292e+00
4.339635e+01 2.656250e-01 -5.393760e-02 8.829313e-01 -2.171509e+00 2.114944e+00
4.338213e+01 2.604167e-01 -5.418522e-02 8.837722e-01 -2.166473e+00 2.110733e+00
4.319594e+01 2.552083e-01 -5.354328e-02 8.847967e-01 -2.169693e+00 2.113159e+00
4.421567e+01 2.552083e-01 -5.393509e-02 8.857210e-01 -2.176056e+00 2.120148e+00
4.372104e+01 2.395833e-01 -5.418000e-02 8.864988e-01 -2.178513e+00 2.122589e+00
4.404543e+01 2.500000e-01 -5.448537e-02 8.875209e-01 -2.178711e+00 2.124832e+00
4.312749e+01 2.395833e-01 -5.459769e-02 8.889631e-01 -2.176941e+00 2.122833e+00
4.306808e+01 2.604167e-01 -5.416204e-02 8.898828e-01 -2.177536e+00 2.124054e+00
4.305209e+01 2.552083e-01 -5.472912e-02 8.904490e-01 -2.184006e+00 2.130142e+00
4.287683e+01 2.500000e-01 -5.450285e-02 8.916672e-01 -2.178238e+00 2.127197e+00
4.341034e+01 2.604167e-01 -5.452873e-02 8.925574e-01 -2.180359e+00 2.130081e+00
4.335643e+01 2.552083e-01 -5.503073e-02 8.934649e-01 -2.184174e+00 2.132523e+00
4.378824e+01 2.447917e-01 -5.510750e-02 8.942757e-01 -2.184601e+00 2.134338e+00
4.312439e+01 2.760417e-01 -5.524116e-02 8.944840e-01 -2.191391e+00 2.140427e+00
4.332024e+01 2.500000e-01 -5.519471e-02 8.958614e-01 -2.185562e+00 2.135574e+00
4.384427e+01 2.395833e-01 -5.539249e-02 8.966463e-01 -2.184906e+00 2.135117e+00
4.288565e+01 2.447917e-01 -5.520582e-02 8.978044e-01 -2.183319e+00 2.133102e+00
4.335986e+01 2.395833e-01 -5.512605e-02 8.985012e-01 -2.183914e+00 2.133743e+00
4.341348e+01 2.656250e-01 -5.501276e-02 8.998108e-01 -2.192078e+00 2.141586e+00
4.296349e+01 2.447917e-01 -5.539616e-02 9.007375e-01 -2.189163e+00 2.138504e+00
4.347330e+01 2.552083e-01 -5.579009e-02 9.012858e-01 -2.192429e+00 2.143036e+00
4.311737e+01 2.500000e-01 -5.536304e-02 9.024007e-01 -2.190994e+00 2.141541e+00
4.265579e+01 2.447917e-01 -5.525584e-02 9.031907e-01 -2.193039e+00 2.144028e+00
4.332095e+01 2.447917e-01 -5.565460e-02 9.039573e-01 -2.196793e+00 2.147614e+00
4.366451e+01 2.500000e-01 -5.489253e-02 9.048797e-01 -2.198471e+00 2.149384e+00
4.323753e+01 2.552083e-01 -5.534054e-02 9.061573e-01 -2.197922e+00 2.147873e+00
4.250452e+01 2.447917e-01 -5.534566e-02 9.069293e-01 -2.198990e+00 2.147461e+00
4.279684e+01 2.395833e-01 -5.557386e-02 9.078957e-01 -2.197495e+00 2.146851e+00
4.386160e+01 2.708333e-01 -5.563654e-02 9.082813e-01 -2.206253e+00 2.156418e+00
4.354869e+01 2.500000e-01 -5.572780e-02 9.093017e-01 -2.204620e+00 2.154343e+00
4.312401e+01 2.447917e-01 -5.570482e-02 9.107043e-01 -2.199265e+00 2.150513e+00
4.292709e+01 2.500000e-01 -5.590135e-02 9.113891e-01 -2.198624e+00 2.148422e+00
4.352986e+01 2.760417e-01 -5.639986e-02 9.123494e-01 -2.209702e+00 2.159637e+00
4.312904e+01 2.760417e-01 -5.714445e-02 9.120462e-01 -2.211090e+00 2.161407e+00
4.292305e+01 2.604167e-01 -5.694406e-02 9.123627e-01 -2.205658e+00 2.158035e+00
4.283229e+01 2.552083e-01 -5.650957e-02 9.136651e-01 -2.207733e+00 2.159973e+00
4.355205e+01 2.552083e-01 -5.679640e-02 9.143235e-01 -2.206558e+00 2.159286e+00
4.177977e+01 2.656250e-01 -5.608242e-02 9.159628e-01 -2.212646e+00 2.163071e+00
4.268382e+01 2.447917e-01 -5.640344e-02 9.166687e-01 -2.209412e+00 2.161713e+00
4.332251e+01 2.500000e-01 -5.664352e-02 9.171325e-01 -2.212418e+00 2.163513e+00
4.190120e+01 2.656250e-01 -5.568579e-02 9.184606e-01 -2.216599e+00 2.166565e+00
4.724126e+01 2.708333e-01 -5.668553e-02 9.190633e-01 -2.226990e+00 2.176407e+00
4.285730e+01 2.708333e-01 -5.939802e-02 9.188428e-01 -2.214828e+00 2.164764e+00
4.289189e+01 2.708333e-01 -5.848559e-02 9.197571e-01 -2.216034e+00 2.166977e+00
4.254012e+01 2.656250e-01 -5.821122e-02 9.206317e-01 -2.216415e+00 2.167099e+00
4.289684e+01 2.552083e-01 -5.860215e-02 9.211148e-01 -2.216583e+00 2.165833e+00
4.320439e+01 2.708333e-01 -5.739642e-02 9.225086e-01 -2.222931e+00 2.174149e+00
4.331415e+01 2.760417e-01 -5.864194e-02 9.228624e-01 -2.225372e+00 2.174515e+00
4.267039e+01 2.656250e-01 -5.917542e-02 9.231361e-01 -2.218063e+00 2.169083e+00
4.266887e+01 2.708333e-01 -5.920603e-02 9.243039e-01 -2.221481e+00 2.173004e+00
4.256383e+01 2.760417e-01 -5.953033e-02 9.247121e-01 -2.219696e+00 2.170929e+00
4.293544e+01 2.604167e-01 -5.980113e-02 9.252262e-01 -2.211777e+00 2.163742e+00
4.242133e+01 2.604167e-01 -5.870394e-02 9.266468e-01 -2.214523e+00 2.166702e+00
4.192937e+01 2.604167e-01 -5.883326e-02 9.278022e-01 -2.218765e+00 2.171890e+00
4.540404e+01 2.760417e-01 -5.912945e-02 9.290607e-01 -2.227173e+00 2.178482e+00
4.329390e+01 2.604167e-01 -6.060994e-02 9.289498e-01 -2.217926e+00 2.169693e+00
4.247630e+01 2.604167e-01 -5.977022e-02 9.301587e-01 -2.221039e+00 2.171875e+00
4.193213e+01 2.552083e-01 -5.959069e-02 9.311664e-01 -2.223511e+00 2.173203e+00
4.254753e+01 2.552083e-01 -6.010447e-02 9.316797e-01 -2.221756e+00 2.171417e+00
4.273917e+01 2.552083e-01 -5.966409e-02 9.329095e-01 -2.225616e+00 2.175156e+00
4.509302e+01 2.760417e-01 -5.931960e-02 9.339349e-01 -2.236221e+00 2.182648e+00
4.196219e+01 2.500000e-01 -6.065678e-02 9.341123e-01 -2.234406e+00 2.181641e+00
4.302637e+01 2.552083e-01 -6.063331e-02 9.352327e-01 -2.231705e+00 2.180176e+00
4.163095e+01 2.500000e-01 -6.038424e-02 9.358028e-01 -2.233109e+00 2.180847e+00
4.176704e+01 2.500000e-01 -6.052302e-02 9.367999e-01 -2.238724e+00 2.183273e+00
4.222638e+01 2.656250e-01 -6.073481e-02 9.370952e-01 -2.241989e+00 2.186752e+00
4.380901e+01 2.604167e-01 -6.133502e-02 9.375102e-01 -2.242783e+00 2.188934e+00
4.189462e+01 2.500000e-01 -6.094689e-02 9.385918e-01 -2.240234e+00 2.182266e+00
4.210565e+01 2.604167e-01 -6.097142e-02 9.399981e-01 -2.246017e+00 2.187424e+00
4.252704e+01 2.500000e-01 -6.167467e-02 9.404165e-01 -2.242676e+00 2.184204e+00
4.209814e+01 2.500000e-01 -6.073693e-02 9.410868e-01 -2.239670e+00 2.183746e+00
4.335974e+01 2.395833e-01 -6.205991e-02 9.416675e-01 -2.246399e+00 2.188965e+00
4.154941e+01 2.447917e-01 -6.132015e-02 9.425208e-01 -2.244522e+00 2.187363e+00
4.263907e+01 2.552083e-01 -6.233969e-02 9.433312e-01 -2.245865e+00 2.187302e+00
4.301495e+01 2.500000e-01 -6.230154e-02 9.441168e-01 -2.248993e+00 2.191177e+00
4.234097e+01 2.500000e-01 -6.215764e-02 9.450903e-01 -2.250305e+00 2.191650e+00
4.411758e+01 2.760417e-01 -6.160784e-02 9.462876e-01 -2.254990e+00 2.198166e+00
4.279924e+01 2.708333e-01 -6.313768e-02 9.467222e-01 -2.255798e+00 2.198044e+00
4.118541e+01 2.395833e-01 -6.315400e-02 9.476444e-01 -2.253891e+00 2.195312e+00
4.235458e+01 2.552083e-01 -6.366942e-02 9.482727e-01 -2.254272e+00 2.196182e+00
4.285326e+01 2.604167e-01 -6.396552e-02 9.485553e-01 -2.255203e+00 2.196426e+00
4.147977e+01 2.500000e-01 -6.351268e-02 9.496488e-01 -2.256790e+00 2.197281e+00
4.179420e+01 2.552083e-01 -6.415587e-02 9.499547e-01 -2.251602e+00 2.193268e+00
4.214142e+01 2.552083e-01 -6.394872e-02 9.504451e-01 -2.252060e+00 2.193771e+00
4.420711e+01 2.656250e-01 -6.463353e-02 9.517656e-01 -2.260864e+00 2.201294e+00
4.247029e+01 2.500000e-01 -6.446568e-02 9.518419e-01 -2.260651e+00 2.201859e+00
4.159482e+01 2.447917e-01 -6.398068e-02 9.531092e-01 -2.260529e+00 2.198898e+00
4.184174e+01 2.552083e-01 -6.498438e-02 9.535677e-01 -2.257492e+00 2.195709e+00
4.226428e+01 2.552083e-01 -6.551680e-02 9.545477e-01 -2.262192e+00 2.199585e+00
4.300673e+01 2.708333e-01 -6.498177e-02 9.551912e-01 -2.266342e+00 2.204697e+00
4.325577e+01 2.760417e-01 -6.562033e-02 9.560172e-01 -2.269073e+00 2.206314e+00
4.234831e+01 2.500000e-01 -6.630137e-02 9.564373e-01 -2.265427e+00 2.202576e+00
4.232043e+01 2.447917e-01 -6.646400e-02 9.568733e-01 -2.267075e+00 2.202454e+00
4.162065e+01 2.447917e-01 -6.548445e-02 9.581895e-01 -2.267822e+00 2.206161e+00
4.214471e+01 2.708333e-01 -6.589943e-02 9.586656e-01 -2.269669e+00 2.205658e+00
4.295853e+01 2.708333e-01 -6.661369e-02 9.595121e-01 -2.273422e+00 2.208099e+00
4.335812e+01 2.604167e-01 -6.790596e-02 9.598133e-01 -2.270950e+00 2.206146e+00
4.196049e+01 2.500000e-01 -6.738214e-02 9.605909e-01 -2.270996e+00 2.206070e+00
4.164265e+01 2.500000e-01 -6.776187e-02 9.616957e-01 -2.272751e+00 2.207108e+00
4.291115e+01 2.708333e-01 -6.748093e-02 9.623542e-01 -2.278595e+00 2.212784e+00
4.171635e+01 2.656250e-01 -6.843634e-02 9.631978e-01 -2.277786e+00 2.211731e+00
4.275484e+01 2.656250e-01 -6.844938e-02 9.634827e-01 -2.282166e+00 2.215256e+00
4.158122e+01 2.656250e-01 -6.892743e-02 9.642578e-01 -2.282135e+00 2.212067e+00
4.357275e+01 2.604167e-01 -7.017392e-02 9.642466e-01 -2.282608e+00 2.212799e+00
4.202603e+01 2.552083e-01 -6.980896e-02 9.654137e-01 -2.284164e+00 2.213776e+00
4.242685e+01 2.500000e-01 -7.000230e-02 9.659642e-01 -2.285049e+00 2.214371e+00
4.245102e+01 2.656250e-01 -6.957428e-02 9.674575e-01 -2.291672e+00 2.218430e+00
4.164017e+01 2.500000e-01 -7.073724e-02 9.677336e-01 -2.286240e+00 2.213104e+00
4.162843e+01 2.500000e-01 -7.046316e-02 9.683161e-01 -2.289398e+00 2.214523e+00
4.320879e+01 2.604167e-01 -7.101846e-02 9.689667e-01 -2.298172e+00 2.221344e+00
4.255481e+01 2.447917e-01 -7.129602e-02 9.697353e-01 -2.295502e+00 2.220428e+00
4.323639e+01 2.552083e-01 -7.220700e-02 9.697542e-01 -2.299652e+00 2.220963e+00
4.365082e+01 2.708333e-01 -7.113280e-02 9.708728e-01 -2.305496e+00 2.227554e+00
4.235530e+01 2.500000e-01 -7.285608e-02 9.714253e-01 -2.297760e+00 2.219208e+00
4.200177e+01 2.604167e-01 -7.234820e-02 9.722880e-01 -2.303345e+00 2.223053e+00
4.189854e+01 2.552083e-01 -7.247963e-02 9.733714e-01 -2.304733e+00 2.223770e+00
4.300574e+01 2.708333e-01 -7.295343e-02 9.743502e-01 -2.307068e+00 2.225372e+00
4.321909e+01 2.604167e-01 -7.306063e-02 9.746668e-01 -2.311142e+00 2.230194e+00
4.161409e+01 2.447917e-01 -7.349174e-02 9.750342e-01 -2.309006e+00 2.224045e+00
4.163283e+01 2.552083e-01 -7.313586e-02 9.760524e-01 -2.309021e+00 2.224350e+00
4.316473e+01 2.708333e-01 -7.275207e-02 9.776161e-01 -2.320160e+00 2.233185e+00
4.169080e+01 2.447917e-01 -7.361854e-02 9.779815e-01 -2.316162e+00 2.228226e+00
4.275908e+01 2.656250e-01 -7.390749e-02 9.786655e-01 -2.322052e+00 2.235184e+00
4.339540e+01 2.656250e-01 -7.434362e-02 9.793852e-01 -2.323318e+00 2.233765e+00
4.177631e+01 2.500000e-01 -7.422744e-02 9.800236e-01 -2.319946e+00 2.230774e+00
4.159132e+01 2.604167e-01 -7.456526e-02 9.805784e-01 -2.319000e+00 2.230087e+00
4.157077e+01 2.447917e-01 -7.426626e-02 9.816186e-01 -2.324783e+00 2.234985e+00
4.174477e+01 2.447917e-01 -7.420948e-02 9.825674e-01 -2.326462e+00 2.235535e+00
4.268552e+01 2.604167e-01 -7.521241e-02 9.827458e-01 -2.329544e+00 2.238525e+00
4.282928e+01 2.552083e-01 -7.538315e-02 9.835675e-01 -2.333984e+00 2.242294e+00
4.190155e+01 2.500000e-01 -7.503258e-02 9.841490e-01 -2.330536e+00 2.238327e+00
4.258105e+01 2.604167e-01 -7.489352e-02 9.852121e-01 -2.334732e+00 2.244690e+00
4.234534e+01 2.604167e-01 -7.575699e-02 9.854602e-01 -2.335938e+00 2.245209e+00
4.283150e+01 2.656250e-01 -7.621205e-02 9.859678e-01 -2.337341e+00 2.245331e+00
4.235912e+01 2.447917e-01 -7.643224e-02 9.861605e-01 -2.333084e+00 2.239670e+00
4.370097e+01 2.604167e-01 -7.584584e-02 9.871141e-01 -2.343674e+00 2.250198e+00
4.118628e+01 2.604167e-01 -7.656590e-02 9.877995e-01 -2.338821e+00 2.244354e+00
4.110629e+01 2.604167e-01 -7.668903e-02 9.882560e-01 -2.340698e+00 2.246582e+00
4.296114e+01 2.604167e-01 -7.715462e-02 9.884672e-01 -2.340164e+00 2.244781e+00
4.185876e+01 2.604167e-01 -7.581716e-02 9.899388e-01 -2.345886e+00 2.250046e+00
4.136154e+01 2.604167e-01 -7.681641e-02 9.900178e-01 -2.343826e+00 2.249283e+00
4.237331e+01 2.500000e-01 -7.718861e-02 9.908905e-01 -2.344208e+00 2.247116e+00
4.157001e+01 2.552083e-01 -7.654147e-02 9.919396e-01 -2.347092e+00 2.250458e+00
4.123622e+01 2.552083e-01 -7.681902e-02 9.924573e-01 -2.348709e+00 2.249130e+00
4.172176e+01 2.500000e-01 -7.684790e-02 9.928088e-01 -2.347916e+00 2.251465e+00
4.441403e+01 2.604167e-01 -7.699382e-02 9.935601e-01 -2.359268e+00 2.258331e+00
4.313376e+01 2.604167e-01 -7.730228e-02 9.942978e-01 -2.358612e+00 2.257629e+00
4.416772e+01 2.604167e-01 -7.740253e-02 9.943323e-01 -2.362656e+00 2.261826e+00
4.240773e+01 2.447917e-01 -7.849276e-02 9.943983e-01 -2.355957e+00 2.256363e+00
4.189214e+01 2.500000e-01 -7.828589e-02 9.947507e-01 -2.357315e+00 2.255524e+00
4.177664e+01 2.447917e-01 -7.839647e-02 9.952277e-01 -2.357895e+00 2.254852e+00
4.216588e+01 2.447917e-01 -7.830057e-02 9.959844e-01 -2.360580e+00 2.258423e+00
4.206291e+01 2.604167e-01 -7.821423e-02 9.960130e-01 -2.362640e+00 2.260391e+00
4.182376e+01 2.447917e-01 -7.844476e-02 9.967993e-01 -2.360703e+00 2.257950e+00
4.280118e+01 2.656250e-01 -7.782446e-02 9.979397e-01 -2.369980e+00 2.266235e+00
4.215778e+01 2.604167e-01 -7.922228e-02 9.980136e-01 -2.365448e+00 2.262115e+00
4.131310e+01 2.552083e-01 -7.898886e-02 9.982244e-01 -2.362823e+00 2.260406e+00
4.192125e+01 2.447917e-01 -7.936579e-02 9.989053e-01 -2.367264e+00 2.261749e+00
4.162405e+01 2.604167e-01 -7.891991e-02 9.996840e-01 -2.367294e+00 2.263809e+00
4.307443e+01 2.604167e-01 -7.925589e-02 9.999482e-01 -2.375031e+00 2.271591e+00
4.296469e+01 2.447917e-01 -8.010343e-02 1.000262e+00 -2.370941e+00 2.266418e+00
4.216823e+01 2.500000e-01 -7.971298e-02 1.000501e+00 -2.373474e+00 2.269913e+00
4.314297e+01 2.604167e-01 -7.999942e-02 1.001758e+00 -2.377792e+00 2.273224e+00
4.303310e+01 2.552083e-01 -8.100814e-02 1.001410e+00 -2.383240e+00 2.274414e+00
4.185385e+01 2.552083e-01 -8.231711e-02 1.001113e+00 -2.371689e+00 2.266754e+00
4.165958e+01 2.500000e-01 -8.095213e-02 1.002100e+00 -2.375488e+00 2.268768e+00
4.236102e+01 2.447917e-01 -8.084850e-02 1.002895e+00 -2.379456e+00 2.273026e+00
4.215453e+01 2.500000e-01 -8.057123e-02 1.003527e+00 -2.378891e+00 2.272766e+00
4.157986e+01 2.500000e-01 -8.094739e-02 1.004128e+00 -2.376129e+00 2.267502e+00
4.184959e+01 2.500000e-01 -8.144717e-02 1.004376e+00 -2.379379e+00 2.269135e+00
4.230405e+01 2.447917e-01 -8.144746e-02 1.004881e+00 -2.384186e+00 2.275131e+00
4.246338e+01 2.500000e-01 -8.140516e-02 1.005276e+00 -2.383408e+00 2.275253e+00
4.144128e+01 2.552083e-01 -8.174288e-02 1.006030e+00 -2.381470e+00 2.272507e+00
4.191968e+01 2.447917e-01 -8.195071e-02 1.006241e+00 -2.381042e+00 2.271744e+00
4.402066e+01 2.604167e-01 -8.174211e-02 1.006750e+00 -2.393250e+00 2.281525e+00
4.158913e+01 2.500000e-01 -8.271210e-02 1.006732e+00 -2.381882e+00 2.271851e+00
4.280956e+01 2.604167e-01 -8.195505e-02 1.007541e+00 -2.389999e+00 2.279526e+00
4.264543e+01 2.604167e-01 -8.257757e-02 1.007367e+00 -2.389252e+00 2.279678e+00
4.146068e+01 2.500000e-01 -8.286440e-02 1.008260e+00 -2.386261e+00 2.276413e+00
4.229291e+01 2.447917e-01 -8.290902e-02 1.008707e+00 -2.387573e+00 2.278885e+00
4.223732e+01 2.552083e-01 -8.299912e-02 1.008665e+00 -2.392838e+00 2.282913e+00
4.147972e+01 2.500000e-01 -8.283881e-02 1.009434e+00 -2.389328e+00 2.280121e+00
4.227113e+01 2.447917e-01 -8.247713e-02 1.010186e+00 -2.388962e+00 2.282364e+00
4.315230e+01 2.656250e-01 -8.302481e-02 1.010544e+00 -2.398087e+00 2.287811e+00
4.331186e+01 2.604167e-01 -8.418699e-02 1.010634e+00 -2.399185e+00 2.287979e+00
4.142812e+01 2.447917e-01 -8.457483e-02 1.010254e+00 -2.394485e+00 2.280746e+00
4.248586e+01 2.552083e-01 -8.317131e-02 1.011590e+00 -2.392410e+00 2.284500e+00
4.287244e+01 2.604167e-01 -8.392189e-02 1.011915e+00 -2.401627e+00 2.286011e+00
4.200000e+01 2.552083e-01 -8.474799e-02 1.011985e+00 -2.410324e+00 2.286789e+00
4.250935e+01 2.552083e-01 -8.433455e-02 1.012185e+00 -2.396210e+00 2.282944e+00
4.272971e+01 2.500000e-01 -8.449516e-02 1.012863e+00 -2.406372e+00 2.283615e+00
4.150648e+01 2.500000e-01 -8.433600e-02 1.013317e+00 -2.404083e+00 2.284561e+00
4.126358e+01 2.500000e-01 -8.399181e-02 1.013701e+00 -2.400238e+00 2.282043e+00
4.123299e+01 2.447917e-01 -8.395859e-02 1.014576e+00 -2.402588e+00 2.285248e+00
4.125172e+01 2.500000e-01 -8.405159e-02 1.014590e+00 -2.406570e+00 2.284271e+00
4.160414e+01 2.500000e-01 -8.348161e-02 1.015909e+00 -2.405411e+00 2.288040e+00
4.202933e+01 2.552083e-01 -8.383864e-02 1.015755e+00 -2.413696e+00 2.290909e+00
4.199300e+01 2.500000e-01 -8.462814e-02 1.016173e+00 -2.416229e+00 2.292511e+00
4.288503e+01 2.656250e-01 -8.406241e-02 1.016889e+00 -2.423660e+00 2.297318e+00
4.276134e+01 2.656250e-01 -8.439897e-02 1.017077e+00 -2.425156e+00 2.296631e+00
4.160779e+01 2.552083e-01 -8.462998e-02 1.016873e+00 -2.420090e+00 2.291794e+00
4.380070e+01 2.604167e-01 -8.454876e-02 1.017676e+00 -2.429688e+00 2.299469e+00
4.232414e+01 2.552083e-01 -8.581640e-02 1.017433e+00 -2.429581e+00 2.293472e+00
4.240112e+01 2.604167e-01 -8.449574e-02 1.018584e+00 -2.422089e+00 2.298523e+00
4.229596e+01 2.552083e-01 -8.486861e-02 1.019014e+00 -2.427612e+00 2.296768e+00
4.221773e+01 2.552083e-01 -8.482921e-02 1.019511e+00 -2.431366e+00 2.298920e+00
4.173817e+01 2.552083e-01 -8.473350e-02 1.019913e+00 -2.435760e+00 2.295868e+00
4.223257e+01 2.552083e-01 -8.486233e-02 1.019930e+00 -2.435562e+00 2.298676e+00
4.242325e+01 2.552083e-01 -8.481009e-02 1.020286e+00 -2.442123e+00 2.303589e+00
4.203546e+01 2.552083e-01 -8.553884e-02 1.020751e+00 -2.445786e+00 2.300247e+00
4.196042e+01 2.604167e-01 -8.527220e-02 1.020989e+00 -2.457092e+00 2.307281e+00
4.181184e+01 2.552083e-01 -8.593045e-02 1.020575e+00 -2.459427e+00 2.304153e+00
4.134103e+01 2.500000e-01 -8.570765e-02 1.021281e+00 -2.448441e+00 2.302704e+00
4.263399e+01 2.500000e-01 -8.588680e-02 1.022116e+00 -2.451035e+00 2.306595e+00
4.199069e+01 2.552083e-01 -8.649889e-02 1.022299e+00 -2.461700e+00 2.302246e+00
4.289340e+01 2.552083e-01 -8.531295e-02 1.023500e+00 -2.454514e+00 2.306046e+00
4.314503e+01 2.604167e-01 -8.596811e-02 1.023687e+00 -2.469147e+00 2.312012e+00
4.286485e+01 2.552083e-01 -8.607241e-02 1.024203e+00 -2.467575e+00 2.307129e+00
4.147725e+01 2.500000e-01 -8.716226e-02 1.024111e+00 -2.476669e+00 2.306778e+00
4.259381e+01 2.552083e-01 -8.584537e-02 1.025127e+00 -2.462494e+00 2.307556e+00
4.298047e+01 2.552083e-01 -8.673955e-02 1.025198e+00 -2.479126e+00 2.311691e+00
4.162363e+01 2.500000e-01 -8.692604e-02 1.025484e+00 -2.474030e+00 2.305054e+00
4.342917e+01 2.604167e-01 -8.658214e-02 1.026565e+00 -2.483459e+00 2.315353e+00
4.149136e+01 2.500000e-01 -8.781877e-02 1.026328e+00 -2.479065e+00 2.305878e+00
4.214833e+01 2.447917e-01 -8.722146e-02 1.026414e+00 -2.481766e+00 2.305832e+00
4.117581e+01 2.500000e-01 -8.714130e-02 1.026966e+00 -2.490479e+00 2.312805e+00
4.161546e+01 2.500000e-01 -8.717423e-02 1.027675e+00 -2.478516e+00 2.311066e+00
4.282018e+01 2.604167e-01 -8.668904e-02 1.028376e+00 -2.486252e+00 2.316025e+00
4.216541e+01 2.552083e-01 -8.679209e-02 1.029106e+00 -2.479950e+00 2.311356e+00
4.191771e+01 2.552083e-01 -8.700542e-02 1.029438e+00 -2.483810e+00 2.313583e+00
4.197084e+01 2.604167e-01 -8.690074e-02 1.029771e+00 -2.486282e+00 2.312332e+00
4.192642e+01 2.500000e-01 -8.688915e-02 1.030413e+00 -2.490860e+00 2.315674e+00
4.174492e+01 2.552083e-01 -8.659034e-02 1.031046e+00 -2.486954e+00 2.314285e+00
4.170348e+01 2.500000e-01 -8.665698e-02 1.031356e+00 -2.488892e+00 2.315216e+00
4.185869e+01 2.500000e-01 -8.689707e-02 1.031342e+00 -2.495224e+00 2.314453e+00
4.192284e+01 2.552083e-01 -8.643669e-02 1.032384e+00 -2.489182e+00 2.319794e+00
4.166910e+01 2.447917e-01 -8.723710e-02 1.032143e+00 -2.503159e+00 2.317856e+00
4.105673e+01 2.552083e-01 -8.688808e-02 1.033081e+00 -2.519836e+00 2.325043e+00
4.359927e+01 2.656250e-01 -8.637305e-02 1.033183e+00 -2.511475e+00 2.327667e+00
4.130370e+01 2.500000e-01 -8.798778e-02 1.033269e+00 -2.513748e+00 2.318085e+00
4.171191e+01 2.604167e-01 -8.742195e-02 1.033728e+00 -2.507996e+00 2.319916e+00
4.176825e+01 2.552083e-01 -8.715589e-02 1.034237e+00 -2.511703e+00 2.319183e+00
4.187686e+01 2.500000e-01 -8.747197e-02 1.034486e+00 -2.521835e+00 2.324844e+00
4.213744e+01 2.604167e-01 -8.687611e-02 1.035106e+00 -2.510300e+00 2.322556e+00
4.176048e+01 2.552083e-01 -8.720862e-02 1.035264e+00 -2.515289e+00 2.320892e+00
4.430283e+01 2.656250e-01 -8.676852e-02 1.036298e+00 -2.521591e+00 2.330078e+00
4.651505e+01 2.500000e-01 -8.821598e-02 1.036547e+00 -2.538620e+00 2.331985e+00
4.307657e+01 2.552083e-01 -9.108444e-02 1.035143e+00 -2.539856e+00 2.322754e+00
4.336630e+01 2.552083e-01 -9.096633e-02 1.035331e+00 -2.548767e+00 2.326233e+00
4.169760e+01 2.500000e-01 -9.123317e-02 1.035055e+00 -2.532837e+00 2.320679e+00
4.249533e+01 2.500000e-01 -8.975645e-02 1.036086e+00 -2.536407e+00 2.323364e+00
4.252718e+01 2.500000e-01 -8.943592e-02 1.036815e+00 -2.537781e+00 2.324188e+00
4.221936e+01 2.447917e-01 -8.860103e-02 1.037909e+00 -2.531479e+00 2.324371e+00
4.346019e+01 2.552083e-01 -8.745855e-02 1.038869e+00 -2.538589e+00 2.329605e+00
4.262242e+01 2.552083e-01 -8.811989e-02 1.039410e+00 -2.544479e+00 2.323746e+00
4.216380e+01 2.500000e-01 -8.838016e-02 1.039278e+00 -2.540283e+00 2.322479e+00
4.204597e+01 2.656250e-01 -8.848041e-02 1.039647e+00 -2.555435e+00 2.330338e+00
4.256473e+01 2.552083e-01 -8.867665e-02 1.039452e+00 -2.553223e+00 2.328217e+00
4.466158e+01 2.604167e-01 -8.754798e-02 1.040693e+00 -2.554489e+00 2.336044e+00
4.252530e+01 2.447917e-01 -8.896820e-02 1.039977e+00 -2.554733e+00 2.330627e+00
4.454300e+01 2.500000e-01 -8.910428e-02 1.040759e+00 -2.565018e+00 2.338318e+00
4.120290e+01 2.604167e-01 -9.019364e-02 1.040174e+00 -2.572220e+00 2.331467e+00
4.302112e+01 2.604167e-01 -8.868775e-02 1.041051e+00 -2.565063e+00 2.336624e+00
4.249377e+01 2.604167e-01 -8.995269e-02 1.041137e+00 -2.568008e+00 2.331650e+00
4.194666e+01 2.447917e-01 -8.932041e-02 1.041292e+00 -2.561569e+00 2.332672e+00
4.243518e+01 2.552083e-01 -8.877795e-02 1.041983e+00 -2.560822e+00 2.329391e+00
4.263766e+01 2.604167e-01 -8.918289e-02 1.042321e+00 -2.568817e+00 2.331970e+00
4.173279e+01 2.708333e-01 -8.924914e-02 1.042541e+00 -2.579727e+00 2.340103e+00
4.231235e+01 2.552083e-01 -8.974408e-02 1.042428e+00 -2.568787e+00 2.332657e+00
4.157574e+01 2.552083e-01 -8.944557e-02 1.043001e+00 -2.576599e+00 2.337067e+00
4.151782e+01 2.656250e-01 -8.963013e-02 1.043171e+00 -2.582047e+00 2.338211e+00
4.166911e+01 2.656250e-01 -9.078979e-02 1.043248e+00 -2.584641e+00 2.338257e+00
4.241327e+01 2.500000e-01 -9.043720e-02 1.043536e+00 -2.573105e+00 2.334030e+00
4.215375e+01 2.656250e-01 -8.996804e-02 1.044113e+00 -2.579391e+00 2.338379e+00
4.219664e+01 2.500000e-01 -8.999759e-02 1.044243e+00 -2.575455e+00 2.337387e+00
4.236612e+01 2.604167e-01 -8.979228e-02 1.044783e+00 -2.578644e+00 2.337738e+00
4.291692e+01 2.500000e-01 -8.867047e-02 1.045655e+00 -2.572556e+00 2.340073e+00
4.307156e+01 2.552083e-01 -8.967909e-02 1.045251e+00 -2.582657e+00 2.340134e+00
4.229762e+01 2.343750e-01 -8.975558e-02 1.045880e+00 -2.572083e+00 2.335587e+00
4.217979e+01 2.447917e-01 -8.942848e-02 1.046282e+00 -2.571960e+00 2.335693e+00
4.157373e+01 2.656250e-01 -9.005341e-02 1.046616e+00 -2.591293e+00 2.342499e+00
4.230124e+01 2.500000e-01 -8.982028e-02 1.046937e+00 -2.582611e+00 2.340302e+00
4.169229e+01 2.708333e-01 -8.998774e-02 1.047154e+00 -2.594849e+00 2.341660e+00
4.245586e+01 2.500000e-01 -8.995066e-02 1.047653e+00 -2.586197e+00 2.337524e+00
4.249704e+01 2.395833e-01 -8.870243e-02 1.048607e+00 -2.584305e+00 2.340988e+00
4.223369e+01 2.343750e-01 -8.967165e-02 1.049098e+00 -2.592712e+00 2.341003e+00
4.215038e+01 2.447917e-01 -8.961574e-02 1.049750e+00 -2.590225e+00 2.340820e+00
4.268681e+01 2.552083e-01 -8.890379e-02 1.050254e+00 -2.597778e+00 2.347168e+00
4.264049e+01 2.552083e-01 -8.975732e-02 1.050107e+00 -2.599075e+00 2.346878e+00
4.265080e+01 2.447917e-01 -8.923610e-02 1.050495e+00 -2.596970e+00 2.345535e+00
4.202727e+01 2.552083e-01 -9.016496e-02 1.050514e+00 -2.601105e+00 2.342239e+00
4.213524e+01 2.395833e-01 -8.938232e-02 1.051114e+00 -2.597931e+00 2.345200e+00
4.291872e+01 2.604167e-01 -8.855062e-02 1.052002e+00 -2.602448e+00 2.351913e+00
4.484279e+01 2.656250e-01 -9.016650e-02 1.051773e+00 -2.618530e+00 2.353775e+00
4.268884e+01 2.552083e-01 -9.150725e-02 1.050906e+00 -2.617950e+00 2.346344e+00
4.182724e+01 2.291667e-01 -9.116943e-02 1.050852e+00 -2.610001e+00 2.342880e+00
4.152788e+01 2.291667e-01 -8.998311e-02 1.052034e+00 -2.606750e+00 2.344193e+00
4.276810e+01 2.552083e-01 -9.010305e-02 1.052303e+00 -2.613708e+00 2.348938e+00
4.208224e+01 2.395833e-01 -9.076237e-02 1.052525e+00 -2.607407e+00 2.343399e+00
4.221225e+01 2.395833e-01 -9.049263e-02 1.053344e+00 -2.604385e+00 2.344833e+00
4.288107e+01 2.604167e-01 -9.077357e-02 1.053607e+00 -2.615997e+00 2.352020e+00
4.302750e+01 2.604167e-01 -9.073871e-02 1.054021e+00 -2.616180e+00 2.349915e+00
4.269490e+01 2.656250e-01 -9.178181e-02 1.053846e+00 -2.614227e+00 2.344574e+00
4.233304e+01 2.447917e-01 -9.021440e-02 1.054575e+00 -2.610245e+00 2.351608e+00
4.233157e+01 2.395833e-01 -9.082485e-02 1.055017e+00 -2.612396e+00 2.349274e+00
4.259142e+01 2.291667e-01 -9.071389e-02 1.055402e+00 -2.616974e+00 2.352081e+00
4.246411e+01 2.604167e-01 -9.130386e-02 1.055795e+00 -2.616470e+00 2.351166e+00
4.304916e+01 2.552083e-01 -9.069438e-02 1.056304e+00 -2.613022e+00 2.356842e+00
4.445311e+01 2.604167e-01 -9.133225e-02 1.056354e+00 -2.633286e+00 2.362030e+00
4.223499e+01 2.656250e-01 -9.235952e-02 1.056163e+00 -2.624954e+00 2.352142e+00
4.124460e+01 2.552083e-01 -9.213865e-02 1.056701e+00 -2.632599e+00 2.358551e+00
4.184822e+01 2.604167e-01 -9.246826e-02 1.056567e+00 -2.628677e+00 2.353287e+00
4.205984e+01 2.395833e-01 -9.197892e-02 1.057071e+00 -2.623154e+00 2.353134e+00
4.261859e+01 2.395833e-01 -9.169122e-02 1.057870e+00 -2.625153e+00 2.356308e+00
4.200771e+01 2.343750e-01 -9.194840e-02 1.058157e+00 -2.626297e+00 2.353531e+00
4.181526e+01 2.604167e-01 -9.229742e-02 1.058266e+00 -2.635498e+00 2.353973e+00
4.142841e+01 2.552083e-01 -9.232350e-02 1.058389e+00 -2.636276e+00 2.358841e+00
4.220134e+01 2.656250e-01 -9.208486e-02 1.058366e+00 -2.632385e+00 2.354782e+00
4.572208e+01 2.500000e-01 -9.188601e-02 1.059230e+00 -2.638458e+00 2.364212e+00
4.282846e+01 2.447917e-01 -9.383470e-02 1.059338e+00 -2.637314e+00 2.356323e+00
4.143982e+01 2.552083e-01 -9.412568e-02 1.058892e+00 -2.645905e+00 2.357407e+00
4.131354e+01 2.395833e-01 -9.432249e-02 1.058533e+00 -2.646423e+00 2.357376e+00
4.184911e+01 2.447917e-01 -9.403403e-02 1.059141e+00 -2.642609e+00 2.356613e+00
4.258446e+01 2.395833e-01 -9.327427e-02 1.059985e+00 -2.640915e+00 2.356522e+00
4.402390e+01 2.552083e-01 -9.357288e-02 1.060674e+00 -2.646652e+00 2.361984e+00
4.199751e+01 2.447917e-01 -9.432191e-02 1.060256e+00 -2.648117e+00 2.355545e+00
4.173145e+01 2.343750e-01 -9.299459e-02 1.060780e+00 -2.644897e+00 2.357925e+00
4.220049e+01 2.500000e-01 -9.279913e-02 1.061383e+00 -2.647110e+00 2.359421e+00
4.251712e+01 2.343750e-01 -9.295181e-02 1.061562e+00 -2.647781e+00 2.358414e+00
4.203667e+01 2.500000e-01 -9.295451e-02 1.062002e+00 -2.652985e+00 2.361191e+00
4.128670e+01 2.552083e-01 -9.365632e-02 1.062051e+00 -2.657516e+00 2.360718e+00
4.182372e+01 2.395833e-01 -9.380679e-02 1.062145e+00 -2.649841e+00 2.355118e+00
4.209674e+01 2.500000e-01 -9.350847e-02 1.063185e+00 -2.651093e+00 2.357727e+00
4.272658e+01 2.343750e-01 -9.264799e-02 1.063785e+00 -2.644974e+00 2.360245e+00
4.223885e+01 2.343750e-01 -9.368839e-02 1.063618e+00 -2.653976e+00 2.356873e+00
4.211505e+01 2.239583e-01 -9.295056e-02 1.064242e+00 -2.652847e+00 2.360641e+00
4.349054e+01 2.447917e-01 -9.364705e-02 1.064210e+00 -2.660461e+00 2.364182e+00
4.158736e+01 2.291667e-01 -9.370789e-02 1.064674e+00 -2.658112e+00 2.359421e+00
4.230960e+01 2.291667e-01 -9.302849e-02 1.065245e+00 -2.657761e+00 2.360764e+00
4.186357e+01 2.552083e-01 -9.347100e-02 1.065610e+00 -2.663742e+00 2.361206e+00
4.164117e+01 2.604167e-01 -9.360765e-02 1.065844e+00 -2.674835e+00 2.365402e+00
4.188763e+01 2.291667e-01 -9.352170e-02 1.066569e+00 -2.663025e+00 2.362106e+00
4.181192e+01 2.291667e-01 -9.338244e-02 1.066717e+00 -2.665878e+00 2.361267e+00
4.358592e+01 2.447917e-01 -9.388115e-02 1.067365e+00 -2.672104e+00 2.366547e+00
4.323134e+01 2.447917e-01 -9.413002e-02 1.067004e+00 -2.677322e+00 2.367081e+00
4.199377e+01 2.447917e-01 -9.453901e-02 1.066850e+00 -2.671890e+00 2.359818e+00
4.223405e+01 2.239583e-01 -9.367554e-02 1.067891e+00 -2.666550e+00 2.363098e+00
4.155264e+01 2.343750e-01 -9.378515e-02 1.068005e+00 -2.668823e+00 2.362198e+00
4.231007e+01 2.395833e-01 -9.380437e-02 1.068705e+00 -2.668747e+00 2.364227e+00
4.177150e+01 2.604167e-01 -9.402601e-02 1.069067e+00 -2.679016e+00 2.368042e+00
4.177388e+01 2.708333e-01 -9.492454e-02 1.068525e+00 -2.688858e+00 2.370514e+00
4.163297e+01 2.604167e-01 -9.567145e-02 1.068261e+00 -2.685455e+00 2.362213e+00
4.186052e+01 2.291667e-01 -9.489335e-02 1.069296e+00 -2.676514e+00 2.363358e+00
4.188901e+01 2.343750e-01 -9.486254e-02 1.069582e+00 -2.676514e+00 2.361267e+00
4.251706e+01 2.343750e-01 -9.433119e-02 1.070349e+00 -2.673737e+00 2.363510e+00
4.167320e+01 2.500000e-01 -9.346617e-02 1.071069e+00 -2.678009e+00 2.367889e+00
4.221001e+01 2.291667e-01 -9.390075e-02 1.071693e+00 -2.674347e+00 2.362808e+00
4.210081e+01 2.604167e-01 -9.431564e-02 1.071730e+00 -2.688461e+00 2.364548e+00
4.431293e+01 2.604167e-01 -9.373233e-02 1.071862e+00 -2.688431e+00 2.370987e+00
4.450903e+01 2.500000e-01 -9.566469e-02 1.071405e+00 -2.700104e+00 2.373032e+00
4.184369e+01 2.604167e-01 -9.674797e-02 1.071289e+00 -2.692276e+00 2.360687e+00
4.180405e+01 2.552083e-01 -9.573451e-02 1.071740e+00 -2.690292e+00 2.364883e+00
4.168510e+01 2.343750e-01 -9.520982e-02 1.072312e+00 -2.690750e+00 2.363800e+00
4.183037e+01 2.343750e-01 -9.519282e-02 1.072684e+00 -2.685043e+00 2.363602e+00
4.121106e+01 2.604167e-01 -9.551529e-02 1.072813e+00 -2.699646e+00 2.367676e+00
4.430162e+01 2.552083e-01 -9.487345e-02 1.073685e+00 -2.696548e+00 2.372421e+00
4.124074e+01 2.604167e-01 -9.563436e-02 1.073972e+00 -2.699005e+00 2.368790e+00
4.261900e+01 2.447917e-01 -9.469691e-02 1.074397e+00 -2.696564e+00 2.367493e+00
4.182498e+01 2.447917e-01 -9.504207e-02 1.074539e+00 -2.693954e+00 2.361847e+00
4.313853e+01 2.500000e-01 -9.408231e-02 1.075498e+00 -2.692856e+00 2.367859e+00
4.437389e+01 2.604167e-01 -9.430328e-02 1.075698e+00 -2.701660e+00 2.370468e+00
4.220796e+01 2.395833e-01 -9.488881e-02 1.075774e+00 -2.699905e+00 2.365982e+00
4.174017e+01 2.447917e-01 -9.417927e-02 1.076479e+00 -2.697830e+00 2.367599e+00
4.120554e+01 2.656250e-01 -9.521890e-02 1.076102e+00 -2.707047e+00 2.367874e+00
4.287010e+01 2.447917e-01 -9.457668e-02 1.076471e+00 -2.703140e+00 2.368149e+00
4.152562e+01 2.343750e-01 -9.524372e-02 1.076505e+00 -2.699081e+00 2.362930e+00
4.298581e+01 2.447917e-01 -9.454684e-02 1.077426e+00 -2.704636e+00 2.368698e+00
4.159857e+01 2.552083e-01 -9.483318e-02 1.077969e+00 -2.703445e+00 2.365311e+00
4.193199e+01 2.604167e-01 -9.395464e-02 1.078579e+00 -2.706619e+00 2.370056e+00
4.263924e+01 2.395833e-01 -9.436634e-02 1.078398e+00 -2.707077e+00 2.369522e+00
4.187195e+01 2.552083e-01 -9.424726e-02 1.079212e+00 -2.705383e+00 2.368683e+00
4.323158e+01 2.447917e-01 -9.360717e-02 1.079648e+00 -2.707840e+00 2.369858e+00
4.162801e+01 2.708333e-01 -9.459570e-02 1.080068e+00 -2.720596e+00 2.370895e+00
4.308972e+01 2.552083e-01 -9.391485e-02 1.080278e+00 -2.706085e+00 2.370407e+00
4.155775e+01 2.395833e-01 -9.497804e-02 1.080165e+00 -2.710114e+00 2.364883e+00
4.176350e+01 2.604167e-01 -9.425171e-02 1.080590e+00 -2.716125e+00 2.367783e+00
4.168936e+01 2.656250e-01 -9.565117e-02 1.080433e+00 -2.731033e+00 2.369278e+00
4.171896e+01 2.500000e-01 -9.566179e-02 1.080558e+00 -2.718475e+00 2.369354e+00
4.128593e+01 2.395833e-01 -9.567203e-02 1.081103e+00 -2.713730e+00 2.365250e+00
4.420314e+01 2.552083e-01 -9.481995e-02 1.081886e+00 -2.721268e+00 2.371841e+00
4.423001e+01 2.552083e-01 -9.538462e-02 1.081929e+00 -2.726440e+00 2.372467e+00
4.158542e+01 2.447917e-01 -9.563436e-02 1.081845e+00 -2.716888e+00 2.362732e+00
4.139066e+01 2.447917e-01 -9.529143e-02 1.082339e+00 -2.716217e+00 2.365082e+00
4.225351e+01 2.343750e-01 -9.470879e-02 1.083324e+00 -2.713760e+00 2.366211e+00
4.143028e+01 2.656250e-01 -9.583920e-02 1.082945e+00 -2.729828e+00 2.368469e+00
4.156578e+01 2.447917e-01 -9.512744e-02 1.083632e+00 -2.717285e+00 2.368134e+00
4.329828e+01 2.500000e-01 -9.588555e-02 1.083445e+00 -2.724350e+00 2.368729e+00
4.158467e+01 2.604167e-01 -9.533180e-02 1.084289e+00 -2.722626e+00 2.367416e+00
4.159312e+01 2.656250e-01 -9.596648e-02 1.084152e+00 -2.731628e+00 2.367249e+00
4.234918e+01 2.447917e-01 -9.523252e-02 1.085065e+00 -2.721146e+00 2.367294e+00
4.170378e+01 2.500000e-01 -9.538974e-02 1.085561e+00 -2.721664e+00 2.365448e+00
4.478465e+01 2.656250e-01 -9.472057e-02 1.086445e+00 -2.727005e+00 2.372787e+00
4.145302e+01 2.395833e-01 -9.592679e-02 1.086381e+00 -2.725647e+00 2.365189e+00
4.455272e+01 2.604167e-01 -9.527704e-02 1.086742e+00 -2.727325e+00 2.370117e+00
4.184853e+01 2.552083e-01 -9.571433e-02 1.086942e+00 -2.727081e+00 2.363724e+00
4.210410e+01 2.447917e-01 -9.463240e-02 1.087477e+00 -2.726532e+00 2.366928e+00
4.152924e+01 2.395833e-01 -9.507520e-02 1.087283e+00 -2.727310e+00 2.365631e+00
4.194208e+01 2.447917e-01 -9.492435e-02 1.087825e+00 -2.727997e+00 2.365753e+00
4.435889e+01 2.552083e-01 -9.527965e-02 1.088072e+00 -2.734238e+00 2.371613e+00
4.431177e+01 2.552083e-01 -9.593384e-02 1.088245e+00 -2.740295e+00 2.371231e+00
4.154370e+01 2.812500e-01 -9.780961e-02 1.087436e+00 -2.753967e+00 2.366913e+00
4.268976e+01 2.500000e-01 -9.655124e-02 1.088420e+00 -2.734894e+00 2.368164e+00
4.433383e+01 2.552083e-01 -9.693455e-02 1.089027e+00 -2.744217e+00 2.370087e+00
4.353790e+01 2.552083e-01 -9.744041e-02 1.089173e+00 -2.747253e+00 2.370590e+00
4.211610e+01 2.552083e-01 -9.745779e-02 1.089059e+00 -2.737991e+00 2.365967e+00
4.136546e+01 2.656250e-01 -9.663401e-02 1.089945e+00 -2.750122e+00 2.372055e+00
4.592676e+01 2.552083e-01 -9.607330e-02 1.090398e+00 -2.754974e+00 2.378922e+00
4.200214e+01 2.656250e-01 -9.812126e-02 1.090584e+00 -2.747726e+00 2.366455e+00
4.171681e+01 2.552083e-01 -9.737676e-02 1.090787e+00 -2.747238e+00 2.368805e+00
4.201604e+01 2.500000e-01 -9.696362e-02 1.091190e+00 -2.742355e+00 2.368271e+00
4.154143e+01 2.500000e-01 -9.654632e-02 1.091834e+00 -2.745270e+00 2.369186e+00
4.199236e+01 2.604167e-01 -9.669437e-02 1.091902e+00 -2.749512e+00 2.366959e+00
4.204750e+01 2.604167e-01 -9.679722e-02 1.091718e+00 -2.749405e+00 2.366135e+00
4.230685e+01 2.343750e-01 -9.567039e-02 1.093128e+00 -2.752289e+00 2.369812e+00
4.298656e+01 2.395833e-01 -9.674217e-02 1.093034e+00 -2.752228e+00 2.367401e+00
4.210759e+01 2.656250e-01 -9.727034e-02 1.093093e+00 -2.752533e+00 2.364853e+00
4.220268e+01 2.395833e-01 -9.655462e-02 1.093468e+00 -2.751068e+00 2.366455e+00
4.226970e+01 2.604167e-01 -9.645950e-02 1.093742e+00 -2.759323e+00 2.369324e+00
4.268530e+01 2.395833e-01 -9.707738e-02 1.093918e+00 -2.756393e+00 2.367752e+00
4.383784e+01 2.500000e-01 -9.666530e-02 1.094557e+00 -2.761230e+00 2.369644e+00
4.186226e+01 2.552083e-01 -9.753486e-02 1.094665e+00 -2.758102e+00 2.365341e+00
4.254494e+01 2.760417e-01 -9.737116e-02 1.094631e+00 -2.764496e+00 2.366623e+00
4.304091e+01 2.447917e-01 -9.677771e-02 1.095402e+00 -2.764313e+00 2.367126e+00
4.507512e+01 2.656250e-01 -9.721510e-02 1.095604e+00 -2.775192e+00 2.376251e+00
4.292874e+01 2.604167e-01 -9.862093e-02 1.094880e+00 -2.765625e+00 2.365494e+00
4.197775e+01 2.604167e-01 -9.807654e-02 1.095485e+00 -2.769699e+00 2.367416e+00
4.221558e+01 2.552083e-01 -9.816452e-02 1.096056e+00 -2.770309e+00 2.364914e+00
4.369626e+01 2.500000e-01 -9.740004e-02 1.096963e+00 -2.775604e+00 2.369919e+00
4.263141e+01 2.552083e-01 -9.848399e-02 1.096679e+00 -2.775543e+00 2.366135e+00
4.189960e+01 2.447917e-01 -9.831470e-02 1.097096e+00 -2.773682e+00 2.365311e+00
4.265749e+01 2.760417e-01 -9.714440e-02 1.098227e+00 -2.778473e+00 2.372757e+00
4.262321e+01 2.604167e-01 -9.754384e-02 1.097966e+00 -2.778397e+00 2.366714e+00
4.270363e+01 2.447917e-01 -9.717174e-02 1.098349e+00 -2.775238e+00 2.367203e+00
4.248367e+01 2.343750e-01 -9.679336e-02 1.099025e+00 -2.777390e+00 2.370209e+00
4.144939e+01 2.656250e-01 -9.771854e-02 1.098878e+00 -2.788788e+00 2.369659e+00
4.323752e+01 2.552083e-01 -9.812966e-02 1.098913e+00 -2.781967e+00 2.367996e+00
4.272421e+01 2.552083e-01 -9.818809e-02 1.099143e+00 -2.777603e+00 2.365814e+00
4.149695e+01 2.656250e-01 -9.839350e-02 1.098993e+00 -2.794449e+00 2.370956e+00
4.240179e+01 2.656250e-01 -9.849877e-02 1.099518e+00 -2.782669e+00 2.367737e+00
4.169412e+01 2.604167e-01 -9.884759e-02 1.099717e+00 -2.788254e+00 2.365387e+00
4.160716e+01 2.760417e-01 -9.874764e-02 1.100150e+00 -2.800323e+00 2.375000e+00
4.210858e+01 2.656250e-01 -9.880964e-02 1.100182e+00 -2.790497e+00 2.372101e+00
4.484380e+01 2.604167e-01 -9.889772e-02 1.100816e+00 -2.798477e+00 2.374481e+00
4.304781e+01 2.552083e-01 -9.979470e-02 1.100684e+00 -2.798798e+00 2.372879e+00
4.200945e+01 2.552083e-01 -9.978022e-02 1.100753e+00 -2.793121e+00 2.367645e+00
4.173047e+01 2.760417e-01 -9.920994e-02 1.101145e+00 -2.795868e+00 2.372101e+00
4.197224e+01 2.656250e-01 -9.986327e-02 1.101653e+00 -2.794571e+00 2.369522e+00
4.263683e+01 2.552083e-01 -9.940715e-02 1.102272e+00 -2.789764e+00 2.368820e+00
4.307867e+01 2.552083e-01 -9.918039e-02 1.102370e+00 -2.792282e+00 2.372711e+00
4.252480e+01 2.552083e-01 -9.873460e-02 1.103259e+00 -2.791077e+00 2.367874e+00
4.385945e+01 2.552083e-01 -9.864392e-02 1.103456e+00 -2.795731e+00 2.374207e+00
4.295074e+01 2.500000e-01 -9.915924e-02 1.103828e+00 -2.792267e+00 2.367981e+00
4.381779e+01 2.447917e-01 -9.939952e-02 1.103985e+00 -2.801361e+00 2.370956e+00
4.412016e+01 2.552083e-01 -1.001846e-01 1.103901e+00 -2.808868e+00 2.372620e+00
4.396056e+01 2.552083e-01 -1.008099e-01 1.104019e+00 -2.804535e+00 2.372314e+00
4.243752e+01 2.500000e-01 -9.993879e-02 1.104354e+00 -2.807968e+00 2.367889e+00
4.345168e+01 2.552083e-01 -9.973792e-02 1.104802e+00 -2.813522e+00 2.370316e+00
4.148752e+01 2.604167e-01 -1.008564e-01 1.104528e+00 -2.820206e+00 2.368195e+00
4.333388e+01 2.500000e-01 -9.987737e-02 1.105186e+00 -2.809830e+00 2.371536e+00
4.381258e+01 2.656250e-01 -1.006918e-01 1.105371e+00 -2.822113e+00 2.372894e+00
4.219203e+01 2.552083e-01 -1.012226e-01 1.105334e+00 -2.811386e+00 2.366608e+00
4.312978e+01 2.500000e-01 -1.004846e-01 1.106011e+00 -2.819839e+00 2.369675e+00
4.159248e+01 2.812500e-01 -1.013852e-01 1.106402e+00 -2.837082e+00 2.372269e+00
4.261600e+01 2.552083e-01 -1.010891e-01 1.106818e+00 -2.815750e+00 2.370834e+00
4.345563e+01 2.500000e-01 -1.008683e-01 1.107457e+00 -2.823181e+00 2.373032e+00
4.222595e+01 2.656250e-01 -1.017633e-01 1.107297e+00 -2.819519e+00 2.366898e+00
4.147662e+01 2.604167e-01 -1.003668e-01 1.108255e+00 -2.823654e+00 2.368591e+00
4.123746e+01 2.604167e-01 -1.012221e-01 1.108456e+00 -2.831711e+00 2.376144e+00
4.349081e+01 2.552083e-01 -1.008738e-01 1.108936e+00 -2.824799e+00 2.375961e+00
4.228355e+01 2.708333e-01 -1.018299e-01 1.108825e+00 -2.822296e+00 2.369431e+00
4.364397e+01 2.552083e-01 -1.006083e-01 1.110334e+00 -2.824020e+00 2.376526e+00
4.249504e+01 2.604167e-01 -1.015330e-01 1.110021e+00 -2.822845e+00 2.371017e+00
4.135776e+01 2.708333e-01 -1.015734e-01 1.110461e+00 -2.841400e+00 2.377579e+00
4.142319e+01 2.604167e-01 -1.022020e-01 1.110204e+00 -2.835281e+00 2.374786e+00
4.167226e+01 2.604167e-01 -1.019962e-01 1.110717e+00 -2.833344e+00 2.378174e+00
4.332353e+01 2.500000e-01 -1.014952e-01 1.111456e+00 -2.828293e+00 2.377869e+00
4.198947e+01 2.552083e-01 -1.022885e-01 1.111850e+00 -2.830109e+00 2.373016e+00
4.212498e+01 2.552083e-01 -1.014042e-01 1.112260e+00 -2.826904e+00 2.377106e+00
4.259233e+01 2.552083e-01 -1.012083e-01 1.112666e+00 -2.825150e+00 2.374420e+00
4.307962e+01 2.500000e-01 -1.006614e-01 1.113545e+00 -2.828705e+00 2.378052e+00
4.293282e+01 2.552083e-01 -1.016775e-01 1.113264e+00 -2.830826e+00 2.373993e+00
4.290816e+01 2.500000e-01 -1.013236e-01 1.113775e+00 -2.833832e+00 2.376114e+00
4.285620e+01 2.552083e-01 -1.016208e-01 1.114147e+00 -2.831894e+00 2.373077e+00
4.268176e+01 2.552083e-01 -1.010480e-01 1.114952e+00 -2.833374e+00 2.374237e+00
4.249644e+01 2.552083e-01 -1.010135e-01 1.115477e+00 -2.832809e+00 2.374741e+00
4.498819e+01 2.552083e-01 -1.009815e-01 1.115986e+00 -2.840210e+00 2.384506e+00
4.433714e+01 2.500000e-01 -1.018344e-01 1.115726e+00 -2.848465e+00 2.382675e+00
4.174553e+01 2.656250e-01 -1.024392e-01 1.115516e+00 -2.843887e+00 2.376328e+00
4.285423e+01 2.552083e-01 -1.018946e-01 1.116235e+00 -2.835968e+00 2.378036e+00
4.226361e+01 2.656250e-01 -1.023191e-01 1.116331e+00 -2.840134e+00 2.375824e+00
4.304854e+01 2.500000e-01 -1.013184e-01 1.117692e+00 -2.839966e+00 2.378906e+00
4.268880e+01 2.447917e-01 -1.017180e-01 1.118201e+00 -2.839035e+00 2.381897e+00
4.175963e+01 2.552083e-01 -1.029653e-01 1.117775e+00 -2.846039e+00 2.377136e+00
4.329836e+01 2.604167e-01 -1.023359e-01 1.118322e+00 -2.843018e+00 2.384003e+00
4.299698e+01 2.552083e-01 -1.029600e-01 1.118267e+00 -2.853333e+00 2.379761e+00
4.211110e+01 2.552083e-01 -1.024148e-01 1.118771e+00 -2.844681e+00 2.379044e+00
4.317456e+01 2.552083e-01 -1.021757e-01 1.119306e+00 -2.842819e+00 2.379822e+00
4.213495e+01 2.552083e-01 -1.021870e-01 1.120168e+00 -2.848907e+00 2.381714e+00
4.190439e+01 2.552083e-01 -1.028454e-01 1.120150e+00 -2.848175e+00 2.381668e+00
4.307086e+01 2.500000e-01 -1.022120e-01 1.120892e+00 -2.840134e+00 2.383667e+00
4.279495e+01 2.500000e-01 -1.023814e-01 1.120996e+00 -2.849152e+00 2.381958e+00
4.088832e+01 2.760417e-01 -1.028447e-01 1.121257e+00 -2.867050e+00 2.388092e+00
4.334123e+01 2.604167e-01 -1.033085e-01 1.121411e+00 -2.849457e+00 2.385300e+00
4.268222e+01 2.500000e-01 -1.035307e-01 1.122155e+00 -2.856689e+00 2.382751e+00
4.104793e+01 2.604167e-01 -1.036298e-01 1.122408e+00 -2.862427e+00 2.384247e+00
4.473756e+01 2.447917e-01 -1.034149e-01 1.122691e+00 -2.860168e+00 2.391251e+00
4.398056e+01 2.447917e-01 -1.049276e-01 1.122544e+00 -2.869003e+00 2.387604e+00
4.295401e+01 2.656250e-01 -1.059279e-01 1.122276e+00 -2.866776e+00 2.384735e+00
4.160213e+01 2.500000e-01 -1.056141e-01 1.122928e+00 -2.870132e+00 2.383972e+00
4.278528e+01 2.552083e-01 -1.051657e-01 1.123614e+00 -2.859772e+00 2.385696e+00
4.251033e+01 2.552083e-01 -1.048459e-01 1.124691e+00 -2.858780e+00 2.383636e+00
4.374632e+01 2.500000e-01 -1.042161e-01 1.125448e+00 -2.865692e+00 2.392532e+00
4.435464e+01 2.604167e-01 -1.056563e-01 1.125371e+00 -2.867706e+00 2.390854e+00
4.319553e+01 2.708333e-01 -1.056283e-01 1.125820e+00 -2.859512e+00 2.389328e+00
4.162546e+01 2.500000e-01 -1.057388e-01 1.126674e+00 -2.869614e+00 2.391312e+00
4.154874e+01 2.552083e-01 -1.060382e-01 1.126783e+00 -2.869797e+00 2.387512e+00
4.292622e+01 2.552083e-01 -1.058106e-01 1.127715e+00 -2.859787e+00 2.388596e+00
4.236885e+01 2.604167e-01 -1.057886e-01 1.128634e+00 -2.865341e+00 2.389221e+00
4.293593e+01 2.552083e-01 -1.054338e-01 1.129740e+00 -2.860535e+00 2.388870e+00
4.210838e+01 2.552083e-01 -1.051869e-01 1.130171e+00 -2.867523e+00 2.391846e+00
4.181197e+01 2.604167e-01 -1.058264e-01 1.130652e+00 -2.871414e+00 2.394867e+00
4.268320e+01 2.604167e-01 -1.058793e-01 1.131076e+00 -2.865051e+00 2.391602e+00
4.456300e+01 2.447917e-01 -1.053339e-01 1.132234e+00 -2.878006e+00 2.400787e+00
4.421109e+01 2.500000e-01 -1.070577e-01 1.131588e+00 -2.885956e+00 2.398453e+00
4.383121e+01 2.604167e-01 -1.079914e-01 1.131574e+00 -2.880630e+00 2.395004e+00
4.139085e+01 2.500000e-01 -1.079507e-01 1.131648e+00 -2.887665e+00 2.397537e+00
4.391597e+01 2.656250e-01 -1.071476e-01 1.132539e+00 -2.880615e+00 2.398071e+00
4.343092e+01 2.656250e-01 -1.076485e-01 1.132785e+00 -2.884277e+00 2.398270e+00
4.234598e+01 2.604167e-01 -1.078346e-01 1.133298e+00 -2.880371e+00 2.397781e+00
4.267653e+01 2.604167e-01 -1.073213e-01 1.134221e+00 -2.875916e+00 2.398560e+00
4.210503e+01 2.604167e-01 -1.078582e-01 1.134429e+00 -2.876038e+00 2.398315e+00
4.238956e+01 2.656250e-01 -1.071939e-01 1.135596e+00 -2.876938e+00 2.398972e+00
4.223196e+01 2.552083e-01 -1.068203e-01 1.136347e+00 -2.877899e+00 2.403397e+00
4.212370e+01 2.552083e-01 -1.070007e-01 1.136651e+00 -2.880692e+00 2.403610e+00
4.324574e+01 2.604167e-01 -1.070667e-01 1.137491e+00 -2.882202e+00 2.405441e+00
4.330417e+01 2.656250e-01 -1.074506e-01 1.137528e+00 -2.884460e+00 2.403809e+00
4.397197e+01 2.708333e-01 -1.077614e-01 1.137941e+00 -2.886337e+00 2.408035e+00
4.148390e+01 2.500000e-01 -1.080841e-01 1.138037e+00 -2.891495e+00 2.406036e+00
4.245468e+01 2.552083e-01 -1.076082e-01 1.138824e+00 -2.878540e+00 2.408783e+00
4.136990e+01 2.500000e-01 -1.090100e-01 1.138967e+00 -2.891327e+00 2.407837e+00
4.301495e+01 2.604167e-01 -1.082593e-01 1.139248e+00 -2.878296e+00 2.406189e+00
4.237296e+01 2.500000e-01 -1.088879e-01 1.139724e+00 -2.881546e+00 2.404922e+00
4.226625e+01 2.656250e-01 -1.088844e-01 1.140315e+00 -2.884125e+00 2.406845e+00
4.290536e+01 2.552083e-01 -1.082120e-01 1.141507e+00 -2.880234e+00 2.409073e+00
4.187669e+01 2.552083e-01 -1.088230e-01 1.141511e+00 -2.888870e+00 2.409576e+00
4.365569e+01 2.604167e-01 -1.082396e-01 1.142371e+00 -2.882874e+00 2.416916e+00
4.204070e+01 2.500000e-01 -1.087157e-01 1.142917e+00 -2.889816e+00 2.413147e+00
4.387013e+01 2.604167e-01 -1.081199e-01 1.143554e+00 -2.886963e+00 2.418808e+00
4.368864e+01 2.604167e-01 -1.082371e-01 1.144109e+00 -2.887711e+00 2.417038e+00
4.364523e+01 2.552083e-01 -1.089266e-01 1.144722e+00 -2.889954e+00 2.417770e+00
4.372589e+01 2.656250e-01 -1.089839e-01 1.144941e+00 -2.886551e+00 2.417694e+00
4.269810e+01 2.656250e-01 -1.093790e-01 1.145345e+00 -2.884476e+00 2.418045e+00
4.157425e+01 2.604167e-01 -1.096041e-01 1.145842e+00 -2.898209e+00 2.421356e+00
4.369344e+01 2.500000e-01 -1.094974e-01 1.145689e+00 -2.886246e+00 2.421509e+00
4.456570e+01 2.604167e-01 -1.099340e-01 1.146456e+00 -2.903275e+00 2.427322e+00
4.341946e+01 2.604167e-01 -1.096948e-01 1.147209e+00 -2.891113e+00 2.422180e+00
4.200658e+01 2.500000e-01 -1.094822e-01 1.147681e+00 -2.895355e+00 2.424896e+00
4.379813e+01 2.500000e-01 -1.093288e-01 1.148361e+00 -2.900391e+00 2.430481e+00
4.364806e+01 2.500000e-01 -1.109662e-01 1.148842e+00 -2.900543e+00 2.429001e+00
4.296939e+01 2.447917e-01 -1.114200e-01 1.148801e+00 -2.892212e+00 2.428207e+00
4.233153e+01 2.552083e-01 -1.103969e-01 1.149533e+00 -2.893005e+00 2.429840e+00
4.288541e+01 2.604167e-01 -1.105861e-01 1.149949e+00 -2.887878e+00 2.429108e+00
4.317790e+01 2.656250e-01 -1.099014e-01 1.150768e+00 -2.884674e+00 2.429520e+00
4.213033e+01 2.604167e-01 -1.110540e-01 1.150813e+00 -2.894012e+00 2.429169e+00
4.374632e+01 2.552083e-01 -1.109654e-01 1.151063e+00 -2.891144e+00 2.434113e+00
4.303596e+01 2.656250e-01 -1.102540e-01 1.152399e+00 -2.887848e+00 2.436401e+00
4.358414e+01 2.604167e-01 -1.108225e-01 1.152549e+00 -2.889832e+00 2.434113e+00
4.307899e+01 2.656250e-01 -1.107818e-01 1.153295e+00 -2.886642e+00 2.434647e+00
4.223412e+01 2.552083e-01 -1.114060e-01 1.153284e+00 -2.891983e+00 2.433823e+00
4.296707e+01 2.604167e-01 -1.107355e-01 1.154494e+00 -2.885010e+00 2.441818e+00
4.210304e+01 2.552083e-01 -1.110444e-01 1.154892e+00 -2.892593e+00 2.440903e+00
4.166484e+01 2.552083e-01 -1.114197e-01 1.155133e+00 -2.899841e+00 2.444092e+00
4.259122e+01 2.552083e-01 -1.118127e-01 1.156113e+00 -2.887238e+00 2.443832e+00
4.357280e+01 2.552083e-01 -1.106974e-01 1.156806e+00 -2.892334e+00 2.445328e+00
4.282219e+01 2.604167e-01 -1.113813e-01 1.157422e+00 -2.893356e+00 2.444870e+00
4.320271e+01 2.604167e-01 -1.110001e-01 1.157833e+00 -2.889847e+00 2.446671e+00
4.318239e+01 2.552083e-01 -1.110449e-01 1.158848e+00 -2.893509e+00 2.448914e+00
4.246420e+01 2.656250e-01 -1.119446e-01 1.158896e+00 -2.898560e+00 2.447083e+00
4.330324e+01 2.552083e-01 -1.113254e-01 1.159420e+00 -2.893234e+00 2.451767e+00
4.348596e+01 2.552083e-01 -1.106824e-01 1.160793e+00 -2.893158e+00 2.455231e+00
4.147849e+01 2.656250e-01 -1.114936e-01 1.161411e+00 -2.910202e+00 2.460388e+00
4.365465e+01 2.500000e-01 -1.118314e-01 1.161094e+00 -2.903702e+00 2.463959e+00
4.346014e+01 2.395833e-01 -1.129012e-01 1.160848e+00 -2.915085e+00 2.462830e+00
4.532491e+01 2.447917e-01 -1.135055e-01 1.161095e+00 -2.919403e+00 2.469528e+00
4.463174e+01 2.447917e-01 -1.161718e-01 1.160501e+00 -2.929123e+00 2.467255e+00
4.231593e+01 2.604167e-01 -1.179561e-01 1.159986e+00 -2.922058e+00 2.458633e+00
4.201253e+01 2.500000e-01 -1.168369e-01 1.161711e+00 -2.914566e+00 2.458862e+00
4.160274e+01 2.447917e-01 -1.171958e-01 1.162400e+00 -2.916916e+00 2.462448e+00
4.164307e+01 2.447917e-01 -1.170338e-01 1.163421e+00 -2.910583e+00 2.464249e+00
4.164355e+01 2.447917e-01 -1.166706e-01 1.164695e+00 -2.920090e+00 2.470367e+00
4.243575e+01 2.552083e-01 -1.165852e-01 1.165341e+00 -2.916138e+00 2.467026e+00
4.231325e+01 2.447917e-01 -1.161375e-01 1.166146e+00 -2.915710e+00 2.471375e+00
4.326952e+01 2.604167e-01 -1.157834e-01 1.166961e+00 -2.922409e+00 2.477936e+00
4.204848e+01 2.447917e-01 -1.161616e-01 1.167556e+00 -2.915161e+00 2.476166e+00
4.227187e+01 2.500000e-01 -1.156309e-01 1.168572e+00 -2.919952e+00 2.479233e+00
4.238925e+01 2.552083e-01 -1.163090e-01 1.168867e+00 -2.917206e+00 2.481461e+00
4.257806e+01 2.552083e-01 -1.162709e-01 1.169829e+00 -2.916809e+00 2.485031e+00
4.185158e+01 2.447917e-01 -1.159905e-01 1.170045e+00 -2.914001e+00 2.483383e+00
4.440956e+01 2.604167e-01 -1.158072e-01 1.171179e+00 -2.928314e+00 2.494019e+00
4.183470e+01 2.447917e-01 -1.172062e-01 1.171077e+00 -2.921066e+00 2.485031e+00
4.170316e+01 2.447917e-01 -1.169837e-01 1.171875e+00 -2.914612e+00 2.488297e+00
4.201085e+01 2.500000e-01 -1.161516e-01 1.172560e+00 -2.914688e+00 2.489792e+00
4.267552e+01 2.500000e-01 -1.159654e-01 1.173553e+00 -2.917450e+00 2.494629e+00
4.272227e+01 2.552083e-01 -1.161414e-01 1.173906e+00 -2.915695e+00 2.498184e+00
4.174049e+01 2.447917e-01 -1.163699e-01 1.174231e+00 -2.922211e+00 2.497375e+00
4.241113e+01 2.500000e-01 -1.158202e-01 1.175299e+00 -2.910339e+00 2.499176e+00
4.222722e+01 2.395833e-01 -1.159649e-01 1.175416e+00 -2.916901e+00 2.502319e+00
4.314366e+01 2.552083e-01 -1.161332e-01 1.176192e+00 -2.919464e+00 2.505264e+00
4.339841e+01 2.604167e-01 -1.167552e-01 1.176431e+00 -2.917923e+00 2.505997e+00
4.351208e+01 2.656250e-01 -1.166504e-01 1.177007e+00 -2.919128e+00 2.509583e+00
4.180682e+01 2.395833e-01 -1.168290e-01 1.177247e+00 -2.919495e+00 2.509674e+00
4.305594e+01 2.552083e-01 -1.170287e-01 1.177559e+00 -2.918091e+00 2.506424e+00
4.190091e+01 2.552083e-01 -1.165557e-01 1.178567e+00 -2.913773e+00 2.506454e+00
4.212320e+01 2.552083e-01 -1.157095e-01 1.179671e+00 -2.912796e+00 2.509415e+00
4.244662e+01 2.552083e-01 -1.159379e-01 1.179798e+00 -2.913651e+00 2.509979e+00
4.229640e+01 2.604167e-01 -1.160146e-01 1.179854e+00 -2.918900e+00 2.513733e+00
4.182928e+01 2.343750e-01 -1.156916e-01 1.180874e+00 -2.920517e+00 2.518143e+00
4.208968e+01 2.447917e-01 -1.163823e-01 1.181045e+00 -2.911621e+00 2.514725e+00
4.333752e+01 2.604167e-01 -1.158259e-01 1.181761e+00 -2.917343e+00 2.520782e+00
4.236905e+01 2.552083e-01 -1.161575e-01 1.182325e+00 -2.911377e+00 2.518707e+00
4.361143e+01 2.604167e-01 -1.160129e-01 1.182472e+00 -2.923706e+00 2.525253e+00
4.169504e+01 2.395833e-01 -1.168834e-01 1.182583e+00 -2.924133e+00 2.523865e+00
4.283492e+01 2.552083e-01 -1.168315e-01 1.183299e+00 -2.916489e+00 2.522217e+00
4.239380e+01 2.604167e-01 -1.173701e-01 1.183064e+00 -2.914978e+00 2.524017e+00
4.214313e+01 2.604167e-01 -1.165054e-01 1.184031e+00 -2.922729e+00 2.526779e+00
4.234424e+01 2.604167e-01 -1.162900e-01 1.184237e+00 -2.916702e+00 2.533051e+00
4.340962e+01 2.604167e-01 -1.167784e-01 1.184472e+00 -2.919800e+00 2.533478e+00
4.285011e+01 2.656250e-01 -1.167165e-01 1.185314e+00 -2.919617e+00 2.529846e+00
4.254376e+01 2.552083e-01 -1.168868e-01 1.185401e+00 -2.918549e+00 2.534210e+00
4.336565e+01 2.604167e-01 -1.165165e-01 1.186546e+00 -2.930618e+00 2.539627e+00
4.253986e+01 2.656250e-01 -1.172914e-01 1.186644e+00 -2.917862e+00 2.534149e+00
4.328783e+01 2.604167e-01 -1.170481e-01 1.187551e+00 -2.913437e+00 2.537460e+00
4.285994e+01 2.500000e-01 -1.170353e-01 1.187973e+00 -2.917175e+00 2.538345e+00
4.333377e+01 2.552083e-01 -1.168985e-01 1.188217e+00 -2.922897e+00 2.541489e+00
4.298856e+01 2.552083e-01 -1.168515e-01 1.188885e+00 -2.917542e+00 2.540726e+00
4.307179e+01 2.656250e-01 -1.176038e-01 1.189390e+00 -2.922455e+00 2.544312e+00
4.291051e+01 2.552083e-01 -1.178994e-01 1.189516e+00 -2.922897e+00 2.544464e+00
4.302933e+01 2.500000e-01 -1.173105e-01 1.190222e+00 -2.920212e+00 2.546570e+00
4.172054e+01 2.395833e-01 -1.184357e-01 1.190173e+00 -2.928452e+00 2.551773e+00
4.208228e+01 2.343750e-01 -1.187315e-01 1.190300e+00 -2.926239e+00 2.549667e+00
4.377521e+01 2.656250e-01 -1.177471e-01 1.191336e+00 -2.922424e+00 2.558197e+00
4.240504e+01 2.500000e-01 -1.186824e-01 1.191747e+00 -2.924118e+00 2.552948e+00
4.263655e+01 2.656250e-01 -1.187935e-01 1.191869e+00 -2.921005e+00 2.552811e+00
4.238368e+01 2.552083e-01 -1.184865e-01 1.192945e+00 -2.934235e+00 2.561478e+00
4.306007e+01 2.552083e-01 -1.182047e-01 1.193509e+00 -2.916168e+00 2.561798e+00
4.257176e+01 2.500000e-01 -1.190719e-01 1.193588e+00 -2.925537e+00 2.558319e+00
4.353131e+01 2.552083e-01 -1.187341e-01 1.194204e+00 -2.919312e+00 2.563278e+00
4.360747e+01 2.500000e-01 -1.189414e-01 1.194471e+00 -2.923981e+00 2.564835e+00
4.245909e+01 2.604167e-01 -1.188850e-01 1.195300e+00 -2.923691e+00 2.565674e+00
4.241293e+01 2.604167e-01 -1.186921e-01 1.195519e+00 -2.924210e+00 2.566406e+00
4.310826e+01 2.656250e-01 -1.183517e-01 1.196163e+00 -2.920135e+00 2.567322e+00
4.318381e+01 2.604167e-01 -1.176728e-01 1.197090e+00 -2.917557e+00 2.570068e+00
4.303169e+01 2.552083e-01 -1.184573e-01 1.196997e+00 -2.927399e+00 2.574509e+00
4.337471e+01 2.552083e-01 -1.187754e-01 1.197518e+00 -2.919785e+00 2.574768e+00
4.369785e+01 2.552083e-01 -1.178091e-01 1.198471e+00 -2.924164e+00 2.579727e+00
4.283916e+01 2.395833e-01 -1.189041e-01 1.198368e+00 -2.931122e+00 2.575333e+00
4.285648e+01 2.395833e-01 -1.190401e-01 1.199069e+00 -2.929993e+00 2.578018e+00
4.286311e+01 2.395833e-01 -1.189736e-01 1.199371e+00 -2.933502e+00 2.585678e+00
4.290523e+01 2.604167e-01 -1.194119e-01 1.200051e+00 -2.919785e+00 2.577820e+00
4.417563e+01 2.656250e-01 -1.189784e-01 1.200941e+00 -2.929230e+00 2.583923e+00
4.310608e+01 2.552083e-01 -1.200465e-01 1.201034e+00 -2.923691e+00 2.581940e+00
4.292029e+01 2.552083e-01 -1.193011e-01 1.201708e+00 -2.922287e+00 2.585129e+00
4.304970e+01 2.552083e-01 -1.195228e-01 1.202179e+00 -2.922455e+00 2.584091e+00
4.321492e+01 2.604167e-01 -1.194866e-01 1.202557e+00 -2.928024e+00 2.587692e+00
4.256557e+01 2.395833e-01 -1.196401e-01 1.202932e+00 -2.936188e+00 2.592957e+00
4.329204e+01 2.604167e-01 -1.208579e-01 1.203168e+00 -2.927963e+00 2.588776e+00
4.380849e+01 2.604167e-01 -1.209499e-01 1.203666e+00 -2.931061e+00 2.590408e+00
4.325708e+01 2.604167e-01 -1.204731e-01 1.204298e+00 -2.926270e+00 2.590591e+00
4.479300e+01 2.864583e-01 -1.203443e-01 1.205182e+00 -2.929245e+00 2.599503e+00
4.339297e+01 2.552083e-01 -1.211924e-01 1.205120e+00 -2.923630e+00 2.590408e+00
4.345692e+01 2.552083e-01 -1.203707e-01 1.206087e+00 -2.921951e+00 2.595291e+00
4.255557e+01 2.552083e-01 -1.202953e-01 1.206619e+00 -2.927765e+00 2.600632e+00
4.228079e+01 2.395833e-01 -1.216133e-01 1.206384e+00 -2.933655e+00 2.598862e+00
4.370825e+01 2.604167e-01 -1.220258e-01 1.206641e+00 -2.923706e+00 2.596695e+00
4.247710e+01 2.500000e-01 -1.205953e-01 1.208117e+00 -2.926682e+00 2.608734e+00
4.357797e+01 2.604167e-01 -1.206473e-01 1.208643e+00 -2.922729e+00 2.603500e+00
4.383235e+01 2.604167e-01 -1.205405e-01 1.208995e+00 -2.931107e+00 2.605148e+00
4.310800e+01 2.552083e-01 -1.215349e-01 1.209124e+00 -2.921524e+00 2.604401e+00
4.241563e+01 2.447917e-01 -1.212574e-01 1.209883e+00 -2.928085e+00 2.608383e+00
4.341051e+01 2.604167e-01 -1.206669e-01 1.210918e+00 -2.920090e+00 2.611481e+00
4.422354e+01 2.708333e-01 -1.204085e-01 1.211121e+00 -2.923141e+00 2.613556e+00
4.332344e+01 2.552083e-01 -1.208321e-01 1.211648e+00 -2.916275e+00 2.611938e+00
4.340038e+01 2.604167e-01 -1.211948e-01 1.212011e+00 -2.919327e+00 2.616150e+00
4.311685e+01 2.552083e-01 -1.205554e-01 1.212681e+00 -2.916565e+00 2.614532e+00
4.461122e+01 2.708333e-01 -1.202360e-01 1.213583e+00 -2.926910e+00 2.629044e+00
4.312027e+01 2.604167e-01 -1.211547e-01 1.213814e+00 -2.921188e+00 2.617584e+00
4.391296e+01 2.708333e-01 -1.211578e-01 1.214212e+00 -2.920898e+00 2.624039e+00
4.322418e+01 2.552083e-01 -1.207533e-01 1.215188e+00 -2.921066e+00 2.620804e+00
4.406876e+01 2.604167e-01 -1.201470e-01 1.216112e+00 -2.917130e+00 2.628296e+00
4.306987e+01 2.552083e-01 -1.213490e-01 1.215780e+00 -2.914978e+00 2.622314e+00
4.285382e+01 2.552083e-01 -1.208715e-01 1.216504e+00 -2.919556e+00 2.623886e+00
4.319933e+01 2.604167e-01 -1.201675e-01 1.217295e+00 -2.917511e+00 2.626862e+00
4.298941e+01 2.500000e-01 -1.195813e-01 1.218012e+00 -2.912491e+00 2.629364e+00
4.288815e+01 2.656250e-01 -1.202395e-01 1.218418e+00 -2.918533e+00 2.632645e+00
4.422510e+01 2.708333e-01 -1.198559e-01 1.219140e+00 -2.915054e+00 2.633942e+00
4.263115e+01 2.500000e-01 -1.201896e-01 1.219816e+00 -2.920639e+00 2.634598e+00
4.428999e+01 2.656250e-01 -1.202959e-01 1.219889e+00 -2.913849e+00 2.639496e+00
4.204243e+01 2.343750e-01 -1.206140e-01 1.220260e+00 -2.925812e+00 2.642014e+00
4.322932e+01 2.552083e-01 -1.211048e-01 1.220820e+00 -2.911728e+00 2.634644e+00
4.289311e+01 2.500000e-01 -1.205767e-01 1.221684e+00 -2.912689e+00 2.635361e+00
4.409233e+01 2.656250e-01 -1.201930e-01 1.222296e+00 -2.917343e+00 2.640808e+00
4.255475e+01 2.500000e-01 -1.210132e-01 1.222624e+00 -2.918411e+00 2.637787e+00
4.380603e+01 2.552083e-01 -1.203861e-01 1.223405e+00 -2.913208e+00 2.641129e+00
4.313863e+01 2.500000e-01 -1.206812e-01 1.224333e+00 -2.910522e+00 2.641342e+00
4.378871e+01 2.604167e-01 -1.211670e-01 1.224095e+00 -2.915680e+00 2.645187e+00
4.262161e+01 2.656250e-01 -1.214466e-01 1.224949e+00 -2.922897e+00 2.646927e+00
4.328233e+01 2.500000e-01 -1.218336e-01 1.225790e+00 -2.911484e+00 2.644974e+00
4.324222e+01 2.500000e-01 -1.216420e-01 1.226787e+00 -2.910538e+00 2.645660e+00
4.424361e+01 2.656250e-01 -1.213459e-01 1.227716e+00 -2.910187e+00 2.650864e+00
4.398128e+01 2.656250e-01 -1.221883e-01 1.228384e+00 -2.907257e+00 2.653854e+00
4.394270e+01 2.656250e-01 -1.227022e-01 1.228905e+00 -2.910706e+00 2.655624e+00
4.350522e+01 2.552083e-01 -1.222025e-01 1.229745e+00 -2.910034e+00 2.656189e+00
4.365816e+01 2.604167e-01 -1.228784e-01 1.230217e+00 -2.905975e+00 2.657181e+00
4.345268e+01 2.656250e-01 -1.226878e-01 1.231611e+00 -2.904480e+00 2.659119e+00
4.310913e+01 2.500000e-01 -1.236757e-01 1.232272e+00 -2.914642e+00 2.668823e+00
4.398450e+01 2.656250e-01 -1.244317e-01 1.232461e+00 -2.904572e+00 2.657715e+00
4.396303e+01 2.656250e-01 -1.245972e-01 1.233495e+00 -2.902481e+00 2.659836e+00
4.439331e+01 2.656250e-01 -1.243244e-01 1.235214e+00 -2.899048e+00 2.666702e+00
4.433058e+01 2.760417e-01 -1.252748e-01 1.235806e+00 -2.894699e+00 2.666412e+00
4.483217e+01 2.708333e-01 -1.244035e-01 1.237400e+00 -2.888977e+00 2.672058e+00
4.469096e+01 2.708333e-01 -1.252121e-01 1.238589e+00 -2.884979e+00 2.675705e+00
4.476984e+01 2.708333e-01 -1.249797e-01 1.239654e+00 -2.884567e+00 2.678085e+00
4.477269e+01 2.812500e-01 -1.256019e-01 1.240911e+00 -2.885254e+00 2.679810e+00
4.450449e+01 2.708333e-01 -1.261455e-01 1.242646e+00 -2.879959e+00 2.685043e+00
4.611891e+01 2.916667e-01 -1.274041e-01 1.243752e+00 -2.880157e+00 2.689590e+00
4.630090e+01 3.020833e-01 -1.281308e-01 1.245180e+00 -2.865448e+00 2.691605e+00
4.469995e+01 2.968750e-01 -1.300412e-01 1.245908e+00 -2.868225e+00 2.697296e+00
4.492242e+01 3.072917e-01 -1.315839e-01 1.246826e+00 -2.857986e+00 2.697617e+00
4.279759e+01 2.864583e-01 -1.329940e-01 1.247709e+00 -2.851501e+00 2.702805e+00
4.323721e+01 3.177083e-01 -1.345738e-01 1.247356e+00 -2.849564e+00 2.699417e+00
4.174202e+01 2.812500e-01 -1.369707e-01 1.246575e+00 -2.847382e+00 2.698395e+00
4.109012e+01 2.604167e-01 -1.389947e-01 1.245807e+00 -2.856323e+00 2.698868e+00
4.477631e+01 2.708333e-01 -1.439518e-01 1.243244e+00 -2.862976e+00 2.690628e+00
4.384976e+01 2.656250e-01 -1.512277e-01 1.239600e+00 -2.903610e+00 2.686310e+00
4.304507e+01 2.552083e-01 -1.567249e-01 1.236284e+00 -2.905701e+00 2.674164e+00
4.387093e+01 2.500000e-01 -1.608955e-01 1.234958e+00 -2.924988e+00 2.667404e+00
4.369267e+01 2.708333e-01 -1.636189e-01 1.233786e+00 -2.919037e+00 2.656982e+00
4.569348e+01 2.760417e-01 -1.656203e-01 1.233432e+00 -2.927582e+00 2.656342e+00
4.411288e+01 2.864583e-01 -1.665079e-01 1.233644e+00 -2.922272e+00 2.648590e+00
4.393518e+01 2.760417e-01 -1.673099e-01 1.233832e+00 -2.924820e+00 2.647476e+00
4.370082e+01 2.708333e-01 -1.690461e-01 1.233699e+00 -2.930649e+00 2.644516e+00
4.313857e+01 2.656250e-01 -1.693953e-01 1.234387e+00 -2.926300e+00 2.648361e+00
4.511438e+01 2.760417e-01 -1.693095e-01 1.235236e+00 -2.936951e+00 2.652710e+00
4.493361e+01 2.812500e-01 -1.710944e-01 1.236024e+00 -2.939423e+00 2.652695e+00
4.457404e+01 2.760417e-01 -1.710976e-01 1.236880e+00 -2.933014e+00 2.654770e+00
4.243321e+01 2.552083e-01 -1.720426e-01 1.237302e+00 -2.928177e+00 2.647781e+00
4.312227e+01 2.708333e-01 -1.724087e-01 1.238059e+00 -2.922577e+00 2.648651e+00
4.408228e+01 2.812500e-01 -1.717621e-01 1.239030e+00 -2.920731e+00 2.650299e+00
4.213744e+01 2.500000e-01 -1.725584e-01 1.239743e+00 -2.926712e+00 2.651688e+00
4.450780e+01 2.864583e-01 -1.726990e-01 1.240394e+00 -2.928101e+00 2.653229e+00
4.237891e+01 2.500000e-01 -1.728224e-01 1.241361e+00 -2.925873e+00 2.651947e+00
4.290456e+01 2.552083e-01 -1.724552e-01 1.242020e+00 -2.922714e+00 2.653870e+00
4.295959e+01 2.604167e-01 -1.731534e-01 1.242778e+00 -2.930176e+00 2.654709e+00
4.456618e+01 2.864583e-01 -1.726320e-01 1.243616e+00 -2.929291e+00 2.658066e+00
4.404910e+01 2.760417e-01 -1.733933e-01 1.244195e+00 -2.921783e+00 2.657562e+00
4.236377e+01 2.500000e-01 -1.739090e-01 1.244929e+00 -2.929443e+00 2.658340e+00
4.203767e+01 2.552083e-01 -1.736024e-01 1.245602e+00 -2.926605e+00 2.659805e+00
4.365202e+01 2.708333e-01 -1.736991e-01 1.246413e+00 -2.925903e+00 2.661514e+00
4.229720e+01 2.552083e-01 -1.734384e-01 1.247307e+00 -2.924973e+00 2.659973e+00
4.442065e+01 2.864583e-01 -1.731562e-01 1.248170e+00 -2.928757e+00 2.665436e+00
4.283618e+01 2.500000e-01 -1.741886e-01 1.248594e+00 -2.929611e+00 2.661636e+00
4.292058e+01 2.604167e-01 -1.737901e-01 1.249762e+00 -2.929825e+00 2.669281e+00
4.459828e+01 2.864583e-01 -1.727643e-01 1.250898e+00 -2.917267e+00 2.668121e+00
4.220851e+01 2.500000e-01 -1.741343e-01 1.251138e+00 -2.921509e+00 2.666565e+00
4.358954e+01 2.656250e-01 -1.730778e-01 1.252478e+00 -2.922897e+00 2.667358e+00
4.450259e+01 2.812500e-01 -1.735573e-01 1.252834e+00 -2.921585e+00 2.669571e+00
4.567421e+01 2.760417e-01 -1.741509e-01 1.253309e+00 -2.927338e+00 2.675156e+00
4.433511e+01 2.812500e-01 -1.756098e-01 1.253752e+00 -2.929672e+00 2.670990e+00
4.441469e+01 2.864583e-01 -1.750716e-01 1.254973e+00 -2.926498e+00 2.672516e+00
4.341908e+01 2.604167e-01 -1.753989e-01 1.255413e+00 -2.919937e+00 2.670166e+00
4.485562e+01 2.812500e-01 -1.750213e-01 1.256284e+00 -2.924835e+00 2.676819e+00
4.454852e+01 2.708333e-01 -1.760633e-01 1.256859e+00 -2.929291e+00 2.675064e+00
4.227606e+01 2.656250e-01 -1.766550e-01 1.257223e+00 -2.923660e+00 2.673447e+00
4.222737e+01 2.604167e-01 -1.752451e-01 1.258708e+00 -2.918869e+00 2.675354e+00
4.249078e+01 2.552083e-01 -1.749439e-01 1.259562e+00 -2.919327e+00 2.676468e+00
4.598523e+01 2.760417e-01 -1.749177e-01 1.260413e+00 -2.930435e+00 2.686951e+00
4.365382e+01 2.604167e-01 -1.752275e-01 1.261265e+00 -2.921829e+00 2.680252e+00
4.231050e+01 2.604167e-01 -1.747492e-01 1.262299e+00 -2.920685e+00 2.681015e+00
4.384579e+01 2.708333e-01 -1.745767e-01 1.263091e+00 -2.920258e+00 2.682953e+00
4.252095e+01 2.604167e-01 -1.751226e-01 1.263306e+00 -2.928238e+00 2.682083e+00
4.345956e+01 2.604167e-01 -1.748066e-01 1.264142e+00 -2.914032e+00 2.686722e+00
4.584203e+01 2.708333e-01 -1.744940e-01 1.265348e+00 -2.926331e+00 2.692932e+00
4.544574e+01 2.812500e-01 -1.758640e-01 1.265701e+00 -2.933884e+00 2.691345e+00
4.450970e+01 2.760417e-01 -1.759712e-01 1.266556e+00 -2.930954e+00 2.689301e+00
4.259201e+01 2.604167e-01 -1.757517e-01 1.267636e+00 -2.930634e+00 2.692337e+00
4.449101e+01 2.760417e-01 -1.758529e-01 1.267993e+00 -2.933762e+00 2.690262e+00
4.435640e+01 2.708333e-01 -1.767446e-01 1.268523e+00 -2.937332e+00 2.689499e+00
4.451103e+01 2.760417e-01 -1.765359e-01 1.269182e+00 -2.939941e+00 2.692535e+00
4.356419e+01 2.604167e-01 -1.764764e-01 1.270165e+00 -2.929443e+00 2.691193e+00
4.267744e+01 2.656250e-01 -1.757455e-01 1.271001e+00 -2.934067e+00 2.694275e+00
4.381241e+01 2.708333e-01 -1.754543e-01 1.272005e+00 -2.934204e+00 2.694458e+00
4.317012e+01 2.552083e-01 -1.754650e-01 1.272579e+00 -2.932541e+00 2.693771e+00
4.276489e+01 2.552083e-01 -1.751066e-01 1.273333e+00 -2.935471e+00 2.694809e+00
4.252223e+01 2.656250e-01 -1.750476e-01 1.273984e+00 -2.941452e+00 2.697067e+00
4.268912e+01 2.604167e-01 -1.749410e-01 1.274637e+00 -2.940765e+00 2.697128e+00
4.297964e+01 2.604167e-01 -1.747749e-01 1.275327e+00 -2.941742e+00 2.698776e+00
4.321252e+01 2.656250e-01 -1.739663e-01 1.276442e+00 -2.943222e+00 2.699631e+00
4.247610e+01 2.552083e-01 -1.746626e-01 1.276425e+00 -2.946838e+00 2.698273e+00
4.331070e+01 2.656250e-01 -1.741592e-01 1.277383e+00 -2.948441e+00 2.701035e+00
4.238776e+01 2.656250e-01 -1.751326e-01 1.277650e+00 -2.968155e+00 2.707199e+00
4.340953e+01 2.656250e-01 -1.755246e-01 1.278313e+00 -2.955765e+00 2.702423e+00
4.278821e+01 2.656250e-01 -1.755627e-01 1.278747e+00 -2.960541e+00 2.702454e+00
