-6.393898e-01 6.075320e+00 -3.910091e+01 3.325645e+01 1.038603e-06 3.494811e-03 -2.221069e-01 2.226257e-01
-6.063292e-01 7.282463e+00 -4.048639e+01 3.696577e+01 -1.668430e-07 2.821980e-03 -2.188263e-01 1.934662e-01
-5.871349e-01 7.983902e+00 -4.330884e+01 4.297763e+01 -6.791348e-08 2.663083e-03 -2.188263e-01 1.984253e-01
-5.953573e-01 8.473966e+00 -4.741537e+01 4.762117e+01 -1.255250e-07 2.576653e-03 -2.188263e-01 1.984253e-01
-6.041945e-01 8.846216e+00 -4.871844e+01 4.933456e+01 2.814646e-07 2.511082e-03 -2.175446e-01 2.026825e-01
-6.301470e-01 9.135786e+00 -5.072836e+01 5.014430e+01 1.258635e-07 2.468701e-03 -2.175446e-01 2.026825e-01
-6.490805e-01 9.390813e+00 -5.265822e+01 5.229466e+01 2.220934e-07 2.435306e-03 -2.141876e-01 1.984253e-01
-6.733413e-01 9.576681e+00 -5.393906e+01 5.288966e+01 5.283085e-08 2.408549e-03 -2.175446e-01 2.026825e-01
-6.844387e-01 9.760528e+00 -5.436258e+01 5.407507e+01 1.583490e-07 2.381116e-03 -2.160187e-01 2.054138e-01
-7.124458e-01 9.920917e+00 -5.658188e+01 5.446887e+01 1.040197e-07 2.366895e-03 -2.175446e-01 2.101746e-01
-7.372620e-01 1.005785e+01 -5.758832e+01 5.471983e+01 2.664103e-07 2.341723e-03 -2.160187e-01 2.170563e-01
-7.522670e-01 1.017136e+01 -5.807005e+01 5.580948e+01 6.648322e-08 2.327024e-03 -2.188263e-01 2.194061e-01
-7.743502e-01 1.027970e+01 -5.841415e+01 5.570218e+01 7.721098e-08 2.311074e-03 -2.175446e-01 2.195282e-01
-7.874736e-01 1.038222e+01 -5.957617e+01 5.697229e+01 2.880918e-07 2.303352e-03 -2.202148e-01 2.026825e-01
-8.056693e-01 1.046579e+01 -5.977422e+01 5.648412e+01 -1.557369e-08 2.289352e-03 -2.188263e-01 2.131805e-01
-8.126123e-01 1.054984e+01 -5.976471e+01 5.669008e+01 -9.798309e-08 2.270633e-03 -2.198944e-01 2.026825e-01
-8.230198e-01 1.062544e+01 -6.020374e+01 5.749396e+01 3.012078e-07 2.263458e-03 -2.290497e-01 2.059784e-01
-8.406971e-01 1.068228e+01 -6.147197e+01 5.779422e+01 -2.715539e-08 2.248934e-03 -2.175446e-01 2.112122e-01
-8.480978e-01 1.075668e+01 -6.117198e+01 5.768657e+01 1.132461e-07 2.238492e-03 -2.175446e-01 2.135925e-01
-8.597952e-01 1.081659e+01 -6.162109e+01 5.836807e+01 -2.674036e-08 2.230058e-03 -2.175446e-01 2.087860e-01
-8.586927e-01 1.087443e+01 -6.177768e+01 5.830592e+01 1.392044e-07 2.217130e-03 -2.203827e-01 2.144012e-01
-8.609257e-01 1.095503e+01 -6.209715e+01 5.913745e+01 1.309383e-07 2.202450e-03 -2.174988e-01 2.078400e-01
-8.714311e-01 1.099902e+01 -6.207344e+01 5.877560e+01 -3.263592e-08 2.197132e-03 -2.276764e-01 2.063141e-01
-8.740926e-01 1.105803e+01 -6.214264e+01 5.970506e+01 4.217022e-08 2.183969e-03 -2.175446e-01 2.134857e-01
-8.689737e-01 1.111267e+01 -6.253581e+01 5.994543e+01 6.911822e-08 2.177388e-03 -2.141876e-01 2.075958e-01
-8.744934e-01 1.116305e+01 -6.249423e+01 5.936919e+01 9.787279e-08 2.166878e-03 -2.141876e-01 2.063141e-01
-8.791612e-01 1.120657e+01 -6.276158e+01 6.007170e+01 3.522331e-08 2.161446e-03 -2.160187e-01 2.136078e-01
-8.752431e-01 1.125636e+01 -6.279622e+01 5.960051e+01 -2.522839e-08 2.157677e-03 -2.141876e-01 2.068176e-01
-8.707625e-01 1.129829e+01 -6.328079e+01 5.973431e+01 1.028050e-07 2.148911e-03 -2.171478e-01 2.045135e-01
-8.797462e-01 1.134346e+01 -6.323529e+01 6.001408e+01 9.843894e-08 2.145019e-03 -2.119904e-01 2.070465e-01
-8.729612e-01 1.138721e+01 -6.309312e+01 6.016615e+01 -1.202109e-07 2.135061e-03 -2.119904e-01 2.119751e-01
-8.661342e-01 1.142439e+01 -6.370837e+01 6.070117e+01 7.642094e-08 2.129600e-03 -2.203369e-01 2.093964e-01
-8.697287e-01 1.146164e+01 -6.332596e+01 6.018646e+01 3.813742e-08 2.123053e-03 -2.156830e-01 2.107544e-01
-8.602247e-01 1.150116e+01 -6.349352e+01 6.043773e+01 2.426150e-08 2.118933e-03 -2.119904e-01 2.112732e-01
-8.640531e-01 1.153376e+01 -6.382323e+01 6.068993e+01 7.899487e-09 2.109944e-03 -2.119904e-01 2.093964e-01
-8.545770e-01 1.157541e+01 -6.374574e+01 6.058154e+01 7.108111e-08 2.108328e-03 -2.141876e-01 2.185211e-01
-8.439069e-01 1.160757e+01 -6.399825e+01 6.106718e+01 -5.783196e-09 2.110552e-03 -2.141876e-01 2.093964e-01
-8.555390e-01 1.163316e+01 -6.403822e+01 6.144485e+01 8.099916e-08 2.102078e-03 -2.119904e-01 2.170715e-01
-8.458894e-01 1.167552e+01 -6.417853e+01 6.203166e+01 -8.683809e-08 2.095540e-03 -2.141876e-01 2.177277e-01
-8.405632e-01 1.170484e+01 -6.415190e+01 6.226762e+01 1.491380e-07 2.088753e-03 -2.119904e-01 2.172852e-01
-8.405798e-01 1.173619e+01 -6.433545e+01 6.217195e+01 -9.885064e-08 2.082294e-03 -2.119904e-01 2.093964e-01
-8.315302e-01 1.176167e+01 -6.435371e+01 6.268376e+01 1.099186e-07 2.086603e-03 -2.141876e-01 2.120056e-01
-8.399144e-01 1.179351e+01 -6.479108e+01 6.319348e+01 -2.801024e-08 2.080966e-03 -2.141876e-01 2.183228e-01
-8.279478e-01 1.182508e+01 -6.513179e+01 6.324561e+01 5.358013e-08 2.078530e-03 -2.119904e-01 2.129364e-01
-8.287611e-01 1.185646e+01 -6.482587e+01 6.345525e+01 -3.508665e-08 2.075745e-03 -2.141876e-01 2.120056e-01
-8.177358e-01 1.188598e+01 -6.541875e+01 6.367871e+01 3.537532e-09 2.069934e-03 -2.119904e-01 2.105408e-01
-8.188686e-01 1.191101e+01 -6.556552e+01 6.379829e+01 2.140485e-08 2.066073e-03 -2.119904e-01 2.093964e-01
-8.107157e-01 1.193583e+01 -6.516412e+01 6.428731e+01 -4.260058e-08 2.061592e-03 -2.119904e-01 2.063141e-01
-8.112729e-01 1.195975e+01 -6.566425e+01 6.440207e+01 1.209669e-07 2.057842e-03 -2.119904e-01 2.063141e-01
-8.116543e-01 1.199720e+01 -6.569232e+01 6.474202e+01 6.021745e-08 2.054463e-03 -2.119904e-01 2.063141e-01
-8.143223e-01 1.201786e+01 -6.658522e+01 6.452948e+01 8.118904e-08 2.050507e-03 -2.119904e-01 2.093964e-01
-8.215817e-01 1.203720e+01 -6.679214e+01 6.492656e+01 -1.186464e-07 2.045627e-03 -2.119904e-01 2.063141e-01
-8.130605e-01 1.205688e+01 -6.642505e+01 6.493646e+01 2.937776e-08 2.043978e-03 -2.119904e-01 2.165375e-01
-8.076279e-01 1.208071e+01 -6.679866e+01 6.532739e+01 -2.111660e-08 2.042920e-03 -2.119904e-01 2.063141e-01
-7.997655e-01 1.210142e+01 -6.682185e+01 6.574020e+01 2.277042e-07 2.037143e-03 -2.119904e-01 2.088318e-01
-8.065267e-01 1.212046e+01 -6.739044e+01 6.505975e+01 2.377019e-08 2.033159e-03 -2.126770e-01 2.093964e-01
-8.106292e-01 1.213818e+01 -6.771786e+01 6.569109e+01 -1.723551e-07 2.037502e-03 -2.093964e-01 2.093964e-01
-8.010795e-01 1.216301e+01 -6.753912e+01 6.590094e+01 2.965646e-08 2.036544e-03 -2.093964e-01 2.063141e-01
-7.982193e-01 1.217033e+01 -6.735162e+01 6.587675e+01 -4.303835e-08 2.030142e-03 -2.119904e-01 2.077789e-01
-7.940906e-01 1.218980e+01 -6.750531e+01 6.658470e+01 1.936083e-07 2.024603e-03 -2.093964e-01 2.063141e-01
-7.960358e-01 1.221526e+01 -6.808067e+01 6.630089e+01 -8.191247e-08 2.027623e-03 -2.093964e-01 2.093964e-01
