1.022698e+02 4.217391e-01 -2.128867e-02 5.704643e-01 -9.990234e-01 9.968262e-01
7.364233e+01 4.217391e-01 6.947028e-04 6.266853e-01 -2.381592e+00 2.237061e+00
5.846289e+01 4.217391e-01 1.471742e-02 8.543115e-01 -4.227051e+00 3.094238e+00
5.267896e+01 2.304348e-01 -3.797071e-02 1.057221e+00 -5.015625e+00 3.524170e+00
4.916675e+01 2.217391e-01 -7.753209e-02 1.238247e+00 -6.337646e+00 4.141357e+00
4.727686e+01 2.043478e-01 -8.560707e-02 1.382347e+00 -7.322266e+00 4.879395e+00
4.596289e+01 2.086957e-01 -1.065381e-01 1.478911e+00 -7.858643e+00 5.210205e+00
4.516724e+01 2.086957e-01 -1.145448e-01 1.544272e+00 -8.183105e+00 5.396484e+00
4.409009e+01 1.826087e-01 -1.101663e-01 1.589012e+00 -8.442139e+00 5.493652e+00
4.412305e+01 2.086957e-01 -1.173275e-01 1.622944e+00 -8.556641e+00 5.545654e+00
4.392847e+01 1.956522e-01 -1.256076e-01 1.649164e+00 -8.635254e+00 5.606201e+00
4.332300e+01 2.086957e-01 -1.207761e-01 1.674996e+00 -8.687988e+00 5.720459e+00
4.297656e+01 2.086957e-01 -1.317774e-01 1.700920e+00 -8.720215e+00 5.899658e+00
4.310083e+01 2.086957e-01 -1.305742e-01 1.729106e+00 -8.745117e+00 6.059814e+00
4.339355e+01 2.086957e-01 -1.377542e-01 1.756847e+00 -8.746582e+00 6.263428e+00
4.238501e+01 1.956522e-01 -1.420351e-01 1.787562e+00 -8.726074e+00 6.499756e+00
4.305908e+01 2.000000e-01 -1.337329e-01 1.818906e+00 -8.749023e+00 6.606201e+00
4.397021e+01 2.086957e-01 -1.435035e-01 1.850146e+00 -8.753418e+00 6.752197e+00
4.417871e+01 2.130435e-01 -1.679813e-01 1.883283e+00 -8.743164e+00 6.978271e+00
4.276221e+01 2.000000e-01 -1.590474e-01 1.926621e+00 -8.670898e+00 7.024170e+00
4.337842e+01 2.043478e-01 -1.785953e-01 1.966002e+00 -8.632812e+00 7.358887e+00
4.366235e+01 1.956522e-01 -1.685477e-01 2.010857e+00 -8.590088e+00 7.483154e+00
4.348120e+01 2.000000e-01 -1.791324e-01 2.052564e+00 -8.564209e+00 7.461914e+00
4.314868e+01 2.043478e-01 -1.924424e-01 2.086488e+00 -8.791748e+00 7.770752e+00
4.406299e+01 2.130435e-01 -1.968722e-01 2.118505e+00 -9.015625e+00 8.022217e+00
4.303076e+01 2.000000e-01 -1.877302e-01 2.152495e+00 -9.190674e+00 8.281250e+00
4.249146e+01 2.086957e-01 -2.062634e-01 2.183607e+00 -9.427246e+00 8.414307e+00
4.385913e+01 2.000000e-01 -2.094564e-01 2.211642e+00 -9.737793e+00 8.542969e+00
4.396631e+01 2.086957e-01 -2.086737e-01 2.244087e+00 -1.003711e+01 8.670898e+00
4.224951e+01 2.000000e-01 -2.201258e-01 2.274545e+00 -1.023462e+01 8.843506e+00
4.330396e+01 2.043478e-01 -2.286522e-01 2.308006e+00 -1.047998e+01 8.996094e+00
4.382715e+01 2.086957e-01 -2.306369e-01 2.347036e+00 -1.066211e+01 9.208740e+00
4.307495e+01 2.130435e-01 -2.349577e-01 2.380237e+00 -1.079004e+01 9.415283e+00
4.377222e+01 2.217391e-01 -2.464893e-01 2.409576e+00 -1.098706e+01 9.591553e+00
4.353662e+01 2.130435e-01 -2.437388e-01 2.439911e+00 -1.114673e+01 9.642822e+00
4.433179e+01 2.086957e-01 -2.382818e-01 2.467064e+00 -1.126074e+01 9.817139e+00
4.344360e+01 2.043478e-01 -2.466319e-01 2.492388e+00 -1.141943e+01 9.936768e+00
4.414062e+01 2.130435e-01 -2.523235e-01 2.518863e+00 -1.158032e+01 9.972900e+00
4.403638e+01 2.043478e-01 -2.522112e-01 2.544842e+00 -1.171655e+01 1.008252e+01
4.500659e+01 2.130435e-01 -2.522307e-01 2.570560e+00 -1.181982e+01 1.018237e+01
4.479663e+01 2.086957e-01 -2.505044e-01 2.598935e+00 -1.192212e+01 1.037939e+01
4.442480e+01 2.043478e-01 -2.523484e-01 2.627764e+00 -1.204468e+01 1.049927e+01
4.517285e+01 2.043478e-01 -2.652355e-01 2.653369e+00 -1.216040e+01 1.060229e+01
4.507642e+01 2.086957e-01 -2.610662e-01 2.681480e+00 -1.225928e+01 1.064062e+01
4.338379e+01 1.956522e-01 -2.723021e-01 2.708274e+00 -1.238086e+01 1.066406e+01
4.488135e+01 1.956522e-01 -2.856022e-01 2.735918e+00 -1.249463e+01 1.074854e+01
4.435181e+01 1.956522e-01 -2.729146e-01 2.766579e+00 -1.260840e+01 1.092578e+01
4.312500e+01 1.956522e-01 -2.775313e-01 2.795001e+00 -1.272363e+01 1.102881e+01
4.498779e+01 2.000000e-01 -2.869550e-01 2.819935e+00 -1.286963e+01 1.092529e+01
4.643872e+01 2.130435e-01 -2.887235e-01 2.847450e+00 -1.300342e+01 1.097217e+01
4.367065e+01 1.956522e-01 -3.088192e-01 2.872319e+00 -1.313330e+01 1.111426e+01
4.440503e+01 2.043478e-01 -3.183932e-01 2.898209e+00 -1.335059e+01 1.125781e+01
4.518262e+01 2.000000e-01 -2.894146e-01 2.929179e+00 -1.349805e+01 1.139453e+01
4.501221e+01 1.956522e-01 -2.923745e-01 2.954918e+00 -1.360791e+01 1.159473e+01
4.455444e+01 2.086957e-01 -3.122064e-01 2.978034e+00 -1.369580e+01 1.172510e+01
4.474219e+01 2.000000e-01 -3.182296e-01 3.001814e+00 -1.379395e+01 1.181494e+01
4.524951e+01 2.000000e-01 -3.060985e-01 3.025642e+00 -1.387305e+01 1.183252e+01
4.427417e+01 1.956522e-01 -3.070115e-01 3.056200e+00 -1.393848e+01 1.190332e+01
4.512231e+01 2.043478e-01 -3.334292e-01 3.078352e+00 -1.399121e+01 1.204932e+01
4.498438e+01 2.043478e-01 -3.178300e-01 3.109357e+00 -1.422119e+01 1.224512e+01
4.511816e+01 2.086957e-01 -3.290762e-01 3.143157e+00 -1.447363e+01 1.235889e+01
4.425757e+01 1.913043e-01 -3.267649e-01 3.167901e+00 -1.469092e+01 1.233545e+01
4.514868e+01 1.869565e-01 -3.371258e-01 3.190684e+00 -1.509277e+01 1.264404e+01
4.623682e+01 2.130435e-01 -3.569902e-01 3.218027e+00 -1.533643e+01 1.297363e+01
4.687988e+01 2.043478e-01 -3.402562e-01 3.248581e+00 -1.546680e+01 1.298145e+01
4.557324e+01 2.086957e-01 -3.309510e-01 3.278768e+00 -1.554834e+01 1.297900e+01
4.543994e+01 2.086957e-01 -3.488218e-01 3.299627e+00 -1.560645e+01 1.307227e+01
4.593823e+01 2.000000e-01 -3.586227e-01 3.317516e+00 -1.564551e+01 1.321094e+01
4.546558e+01 2.043478e-01 -3.487939e-01 3.336019e+00 -1.568457e+01 1.333984e+01
4.544556e+01 2.043478e-01 -3.398487e-01 3.356775e+00 -1.572559e+01 1.337305e+01
4.546558e+01 2.043478e-01 -3.454669e-01 3.372417e+00 -1.576660e+01 1.345654e+01
4.563208e+01 2.000000e-01 -3.512266e-01 3.391295e+00 -1.580566e+01 1.363770e+01
4.496167e+01 1.956522e-01 -3.483902e-01 3.413853e+00 -1.584668e+01 1.377637e+01
4.544482e+01 2.000000e-01 -3.518258e-01 3.431820e+00 -1.588574e+01 1.382129e+01
4.555176e+01 1.956522e-01 -3.521243e-01 3.451197e+00 -1.592480e+01 1.390283e+01
4.537988e+01 2.000000e-01 -3.559326e-01 3.470275e+00 -1.596582e+01 1.398682e+01
4.544946e+01 2.043478e-01 -3.569766e-01 3.489532e+00 -1.600684e+01 1.405811e+01
4.512158e+01 2.086957e-01 -3.683419e-01 3.506866e+00 -1.604590e+01 1.412646e+01
4.469849e+01 1.956522e-01 -3.640394e-01 3.524792e+00 -1.608691e+01 1.419434e+01
4.596680e+01 2.043478e-01 -3.630768e-01 3.543999e+00 -1.612793e+01 1.425879e+01
4.548682e+01 2.000000e-01 -3.755321e-01 3.561165e+00 -1.616699e+01 1.432227e+01
4.515942e+01 1.956522e-01 -3.751608e-01 3.582646e+00 -1.620605e+01 1.441406e+01
4.631641e+01 2.086957e-01 -3.699717e-01 3.603093e+00 -1.624707e+01 1.446826e+01
4.568677e+01 1.956522e-01 -3.733542e-01 3.622899e+00 -1.628809e+01 1.459131e+01
4.589209e+01 1.956522e-01 -3.817586e-01 3.642007e+00 -1.632715e+01 1.471729e+01
4.635620e+01 2.000000e-01 -3.761888e-01 3.663347e+00 -1.636816e+01 1.483545e+01
4.580493e+01 1.956522e-01 -3.797868e-01 3.681894e+00 -1.640918e+01 1.492920e+01
4.542358e+01 1.956522e-01 -3.759975e-01 3.700928e+00 -1.645020e+01 1.498535e+01
4.690234e+01 2.086957e-01 -3.737519e-01 3.721787e+00 -1.649121e+01 1.505908e+01
4.618408e+01 1.956522e-01 -3.887592e-01 3.740890e+00 -1.653027e+01 1.514795e+01
4.608130e+01 1.956522e-01 -3.923991e-01 3.759945e+00 -1.657129e+01 1.526367e+01
4.697510e+01 2.000000e-01 -3.945739e-01 3.778523e+00 -1.661035e+01 1.532959e+01
4.653809e+01 2.000000e-01 -3.914383e-01 3.797716e+00 -1.664941e+01 1.540869e+01
4.666772e+01 2.043478e-01 -3.890659e-01 3.817689e+00 -1.669043e+01 1.552393e+01
4.652905e+01 1.956522e-01 -3.953794e-01 3.837682e+00 -1.672949e+01 1.561670e+01
4.671216e+01 1.956522e-01 -3.993501e-01 3.856304e+00 -1.676855e+01 1.572559e+01
4.678882e+01 1.956522e-01 -4.027838e-01 3.873490e+00 -1.680762e+01 1.581641e+01
4.627393e+01 1.956522e-01 -4.102462e-01 3.890688e+00 -1.684668e+01 1.591699e+01
4.670337e+01 1.956522e-01 -4.085351e-01 3.908008e+00 -1.688574e+01 1.599268e+01
4.661304e+01 1.956522e-01 -4.027138e-01 3.927003e+00 -1.692480e+01 1.609131e+01
4.676880e+01 1.956522e-01 -4.101014e-01 3.943926e+00 -1.696387e+01 1.617383e+01
4.672461e+01 1.956522e-01 -4.196365e-01 3.962094e+00 -1.700293e+01 1.626807e+01
4.627612e+01 1.956522e-01 -4.121660e-01 3.981356e+00 -1.704199e+01 1.637012e+01
4.667285e+01 1.956522e-01 -4.127090e-01 3.997937e+00 -1.708105e+01 1.646582e+01
4.716064e+01 2.043478e-01 -4.188997e-01 4.012539e+00 -1.712012e+01 1.654541e+01
4.659912e+01 1.956522e-01 -4.123288e-01 4.027844e+00 -1.715918e+01 1.659570e+01
4.667285e+01 1.956522e-01 -4.173189e-01 4.043965e+00 -1.719824e+01 1.665576e+01
4.618140e+01 1.956522e-01 -4.241542e-01 4.058910e+00 -1.723730e+01 1.671436e+01
4.648535e+01 2.043478e-01 -4.277891e-01 4.073458e+00 -1.727637e+01 1.676123e+01
4.723975e+01 2.043478e-01 -4.256740e-01 4.090138e+00 -1.731543e+01 1.686963e+01
4.691968e+01 2.043478e-01 -4.205318e-01 4.105559e+00 -1.735449e+01 1.693457e+01
4.731982e+01 2.000000e-01 -4.249367e-01 4.122012e+00 -1.739355e+01 1.702002e+01
4.671484e+01 2.043478e-01 -4.249402e-01 4.138822e+00 -1.743262e+01 1.708838e+01
4.643359e+01 2.000000e-01 -4.277818e-01 4.155281e+00 -1.747168e+01 1.715479e+01
4.639136e+01 2.000000e-01 -4.320200e-01 4.171924e+00 -1.751074e+01 1.723828e+01
4.668774e+01 2.043478e-01 -4.298091e-01 4.188467e+00 -1.754980e+01 1.731006e+01
4.682397e+01 2.000000e-01 -4.296553e-01 4.204806e+00 -1.758887e+01 1.737158e+01
4.699341e+01 2.086957e-01 -4.321793e-01 4.221125e+00 -1.762793e+01 1.742383e+01
4.729980e+01 2.130435e-01 -4.337382e-01 4.237010e+00 -1.766699e+01 1.748047e+01
4.638208e+01 2.086957e-01 -4.333324e-01 4.253357e+00 -1.770605e+01 1.753467e+01
4.761279e+01 2.086957e-01 -4.374994e-01 4.269516e+00 -1.774512e+01 1.758691e+01
4.807837e+01 2.130435e-01 -4.408547e-01 4.287644e+00 -1.778418e+01 1.763330e+01
4.761206e+01 2.130435e-01 -4.432250e-01 4.303864e+00 -1.782324e+01 1.770801e+01
4.698096e+01 2.086957e-01 -4.457702e-01 4.319803e+00 -1.786230e+01 1.777734e+01
4.764331e+01 2.217391e-01 -4.392948e-01 4.338915e+00 -1.790137e+01 1.783154e+01
4.720337e+01 2.173913e-01 -4.410579e-01 4.355733e+00 -1.794043e+01 1.788379e+01
4.804175e+01 2.173913e-01 -4.437112e-01 4.370601e+00 -1.797949e+01 1.792871e+01
4.799194e+01 2.173913e-01 -4.478520e-01 4.387030e+00 -1.801855e+01 1.798291e+01
4.765747e+01 2.173913e-01 -4.469875e-01 4.404993e+00 -1.805762e+01 1.802734e+01
4.758252e+01 2.130435e-01 -4.492725e-01 4.420600e+00 -1.809668e+01 1.808203e+01
4.842188e+01 2.304348e-01 -4.543944e-01 4.436876e+00 -1.813574e+01 1.814014e+01
4.830884e+01 2.260870e-01 -4.523302e-01 4.454594e+00 -1.817480e+01 1.819092e+01
4.818604e+01 2.260870e-01 -4.538937e-01 4.471479e+00 -1.821387e+01 1.824463e+01
4.842383e+01 2.304348e-01 -4.567719e-01 4.487858e+00 -1.825293e+01 1.829736e+01
4.861548e+01 2.304348e-01 -4.545954e-01 4.505690e+00 -1.829199e+01 1.833643e+01
4.901099e+01 2.304348e-01 -4.563403e-01 4.522251e+00 -1.833105e+01 1.838330e+01
4.911646e+01 2.304348e-01 -4.605173e-01 4.539220e+00 -1.837012e+01 1.842822e+01
4.837231e+01 2.347826e-01 -4.589355e-01 4.554298e+00 -1.840918e+01 1.847461e+01
4.860815e+01 2.304348e-01 -4.574409e-01 4.569439e+00 -1.844824e+01 1.852539e+01
4.869897e+01 2.304348e-01 -4.679948e-01 4.584638e+00 -1.848730e+01 1.859912e+01
4.907495e+01 2.434783e-01 -4.707262e-01 4.600366e+00 -1.852637e+01 1.864941e+01
4.875562e+01 2.347826e-01 -4.627051e-01 4.617397e+00 -1.856543e+01 1.871143e+01
4.905029e+01 2.347826e-01 -4.623136e-01 4.633909e+00 -1.860449e+01 1.875977e+01
4.918945e+01 2.391304e-01 -4.720069e-01 4.649210e+00 -1.864355e+01 1.887378e+01
4.877100e+01 2.304348e-01 -4.641868e-01 4.666640e+00 -1.868262e+01 1.904761e+01
4.890747e+01 2.347826e-01 -4.655828e-01 4.684793e+00 -1.872168e+01 1.901538e+01
4.921265e+01 2.347826e-01 -4.696452e-01 4.701861e+00 -1.876074e+01 1.918384e+01
4.893213e+01 2.304348e-01 -4.746564e-01 4.718585e+00 -1.879980e+01 1.918091e+01
4.908374e+01 2.391304e-01 -4.761447e-01 4.735595e+00 -1.883887e+01 1.939575e+01
4.889087e+01 2.391304e-01 -4.771757e-01 4.751337e+00 -1.887793e+01 1.977271e+01
4.921851e+01 2.347826e-01 -4.769803e-01 4.767863e+00 -1.891699e+01 1.983716e+01
4.995801e+01 2.391304e-01 -4.815706e-01 4.785230e+00 -1.895605e+01 1.987720e+01
5.016870e+01 2.434783e-01 -4.857786e-01 4.803089e+00 -1.899512e+01 1.993970e+01
4.973413e+01 2.434783e-01 -4.808016e-01 4.821973e+00 -1.903418e+01 2.015601e+01
4.939307e+01 2.434783e-01 -4.865732e-01 4.839996e+00 -1.907324e+01 2.039575e+01
4.929785e+01 2.391304e-01 -4.875655e-01 4.857626e+00 -1.911230e+01 2.050513e+01
4.976343e+01 2.391304e-01 -4.938359e-01 4.873892e+00 -1.915137e+01 2.053931e+01
4.982568e+01 2.391304e-01 -4.960089e-01 4.891424e+00 -1.919043e+01 2.067261e+01
4.965942e+01 2.391304e-01 -5.000407e-01 4.908532e+00 -1.922949e+01 2.085327e+01
4.922827e+01 2.391304e-01 -5.010523e-01 4.926230e+00 -1.926855e+01 2.105933e+01
4.903491e+01 2.391304e-01 -5.065718e-01 4.943530e+00 -1.930762e+01 2.114087e+01
4.961206e+01 2.391304e-01 -5.084165e-01 4.961694e+00 -1.934668e+01 2.130786e+01
4.904102e+01 2.347826e-01 -5.098079e-01 4.979663e+00 -1.938574e+01 2.145435e+01
4.908691e+01 2.434783e-01 -5.178480e-01 4.998025e+00 -1.942480e+01 2.146851e+01
4.973755e+01 2.434783e-01 -5.109928e-01 5.019139e+00 -1.946387e+01 2.161499e+01
4.950659e+01 2.347826e-01 -5.223960e-01 5.038937e+00 -1.950293e+01 2.176733e+01
4.949390e+01 2.391304e-01 -5.231921e-01 5.062029e+00 -1.954199e+01 2.178735e+01
4.915210e+01 2.347826e-01 -5.199384e-01 5.083805e+00 -1.958105e+01 2.196948e+01
4.944458e+01 2.347826e-01 -5.348781e-01 5.100668e+00 -1.962012e+01 2.209497e+01
4.923340e+01 2.347826e-01 -5.354080e-01 5.120822e+00 -1.965918e+01 2.217603e+01
4.921240e+01 2.391304e-01 -5.288501e-01 5.138958e+00 -1.969824e+01 2.242310e+01
4.968091e+01 2.347826e-01 -5.379134e-01 5.156902e+00 -1.973730e+01 2.240210e+01
4.912720e+01 2.347826e-01 -5.424688e-01 5.176516e+00 -1.977637e+01 2.251978e+01
4.965210e+01 2.347826e-01 -5.400196e-01 5.195665e+00 -1.981543e+01 2.267554e+01
4.941919e+01 2.347826e-01 -5.372537e-01 5.214453e+00 -1.985449e+01 2.293237e+01
4.906860e+01 2.347826e-01 -5.437671e-01 5.233361e+00 -1.989355e+01 2.297974e+01
4.923022e+01 2.347826e-01 -5.505260e-01 5.252816e+00 -1.993262e+01 2.311499e+01
4.875659e+01 2.304348e-01 -5.453503e-01 5.271431e+00 -1.997168e+01 2.323755e+01
4.947021e+01 2.304348e-01 -5.464153e-01 5.289829e+00 -2.001074e+01 2.346460e+01
4.894580e+01 2.347826e-01 -5.541724e-01 5.306816e+00 -2.004980e+01 2.366187e+01
4.941650e+01 2.391304e-01 -5.533212e-01 5.325225e+00 -2.008887e+01 2.376489e+01
4.968140e+01 2.304348e-01 -5.617027e-01 5.342932e+00 -2.012793e+01 2.393384e+01
4.936890e+01 2.304348e-01 -5.664251e-01 5.360090e+00 -2.016699e+01 2.400610e+01
4.913525e+01 2.347826e-01 -5.641669e-01 5.376497e+00 -2.020605e+01 2.423267e+01
4.950879e+01 2.347826e-01 -5.679111e-01 5.392183e+00 -2.024512e+01 2.434448e+01
4.971729e+01 2.347826e-01 -5.684313e-01 5.407950e+00 -2.028418e+01 2.441040e+01
5.033081e+01 2.347826e-01 -5.770694e-01 5.423669e+00 -2.032324e+01 2.453491e+01
5.087793e+01 2.391304e-01 -5.738972e-01 5.440609e+00 -2.036230e+01 2.490259e+01
5.012207e+01 2.304348e-01 -5.730190e-01 5.457933e+00 -2.040137e+01 2.497876e+01
5.105078e+01 2.391304e-01 -5.804936e-01 5.476265e+00 -2.044043e+01 2.487427e+01
5.147095e+01 2.260870e-01 -5.844668e-01 5.495546e+00 -2.047949e+01 2.492310e+01
5.124072e+01 2.304348e-01 -5.902594e-01 5.516959e+00 -2.051855e+01 2.533569e+01
5.155664e+01 2.391304e-01 -5.877258e-01 5.538592e+00 -2.055762e+01 2.551099e+01
5.163794e+01 2.304348e-01 -5.899592e-01 5.558309e+00 -2.059668e+01 2.553638e+01
5.250439e+01 2.391304e-01 -5.970645e-01 5.575610e+00 -2.063574e+01 2.535620e+01
5.144727e+01 2.347826e-01 -5.983489e-01 5.590745e+00 -2.067480e+01 2.561304e+01
5.147632e+01 2.347826e-01 -5.993867e-01 5.606569e+00 -2.071387e+01 2.590601e+01
5.150928e+01 2.260870e-01 -6.021451e-01 5.622900e+00 -2.075293e+01 2.595923e+01
5.154810e+01 2.347826e-01 -6.114083e-01 5.641300e+00 -2.079199e+01 2.593433e+01
5.117212e+01 2.260870e-01 -6.120261e-01 5.659231e+00 -2.083105e+01 2.601733e+01
5.181421e+01 2.347826e-01 -6.129706e-01 5.675948e+00 -2.087012e+01 2.634399e+01
5.184180e+01 2.304348e-01 -6.044804e-01 5.695594e+00 -2.090918e+01 2.645825e+01
5.237744e+01 2.260870e-01 -6.177647e-01 5.711349e+00 -2.094824e+01 2.629956e+01
5.240161e+01 2.304348e-01 -6.280069e-01 5.725481e+00 -2.098730e+01 2.644165e+01
5.293701e+01 2.347826e-01 -6.176922e-01 5.745285e+00 -2.102637e+01 2.664526e+01
5.261475e+01 2.347826e-01 -6.144741e-01 5.764000e+00 -2.106543e+01 2.668091e+01
5.183276e+01 2.304348e-01 -6.221016e-01 5.782055e+00 -2.110449e+01 2.671216e+01
5.206274e+01 2.304348e-01 -6.279062e-01 5.800392e+00 -2.114355e+01 2.683130e+01
5.232129e+01 2.304348e-01 -6.254932e-01 5.817984e+00 -2.118262e+01 2.698901e+01
5.270410e+01 2.304348e-01 -6.302358e-01 5.834385e+00 -2.122168e+01 2.705737e+01
5.286450e+01 2.347826e-01 -6.359246e-01 5.850215e+00 -2.126074e+01 2.716138e+01
5.257642e+01 2.347826e-01 -6.351426e-01 5.867052e+00 -2.129980e+01 2.719556e+01
5.347803e+01 2.347826e-01 -6.371714e-01 5.883735e+00 -2.133887e+01 2.739282e+01
5.220093e+01 2.304348e-01 -6.388122e-01 5.900906e+00 -2.137793e+01 2.739673e+01
5.200195e+01 2.347826e-01 -6.413554e-01 5.919083e+00 -2.141699e+01 2.748608e+01
5.204224e+01 2.347826e-01 -6.516731e-01 5.935924e+00 -2.145605e+01 2.763013e+01
5.205078e+01 2.347826e-01 -6.529617e-01 5.953531e+00 -2.149512e+01 2.768628e+01
5.255664e+01 2.304348e-01 -6.598103e-01 5.975019e+00 -2.153418e+01 2.771899e+01
5.190088e+01 2.391304e-01 -6.584054e-01 5.994606e+00 -2.157324e+01 2.790405e+01
5.267480e+01 2.391304e-01 -6.576747e-01 6.012100e+00 -2.161230e+01 2.796509e+01
5.222974e+01 2.391304e-01 -6.623343e-01 6.027816e+00 -2.165137e+01 2.794946e+01
5.293433e+01 2.434783e-01 -6.673264e-01 6.042649e+00 -2.169043e+01 2.797095e+01
5.256885e+01 2.391304e-01 -6.652041e-01 6.057902e+00 -2.172949e+01 2.817261e+01
5.259644e+01 2.391304e-01 -6.671413e-01 6.072853e+00 -2.176855e+01 2.836841e+01
5.301367e+01 2.347826e-01 -6.748471e-01 6.088916e+00 -2.180762e+01 2.831421e+01
5.335596e+01 2.391304e-01 -6.742957e-01 6.104902e+00 -2.184668e+01 2.840649e+01
5.352148e+01 2.391304e-01 -6.753786e-01 6.121794e+00 -2.188574e+01 2.850073e+01
5.340161e+01 2.347826e-01 -6.766233e-01 6.138818e+00 -2.192480e+01 2.853979e+01
5.327637e+01 2.304348e-01 -6.779417e-01 6.154729e+00 -2.196387e+01 2.864087e+01
5.314551e+01 2.260870e-01 -6.806931e-01 6.170787e+00 -2.200293e+01 2.866479e+01
