-4.672040e+00 1.230798e+01 -7.732921e+01 5.325141e+01 3.463120e-06 2.460462e-03 -1.450395e-01 1.433520e-01
-5.305159e+00 1.365908e+01 -7.752814e+01 6.809924e+01 8.583839e-07 1.997877e-03 -1.554000e-01 1.662542e-01
-5.548948e+00 1.434202e+01 -7.804827e+01 8.220805e+01 1.049904e-06 1.840096e-03 -1.595867e-01 1.514427e-01
-5.685006e+00 1.488150e+01 -7.833898e+01 9.180436e+01 6.744890e-07 1.762831e-03 -1.764351e-01 1.502713e-01
-5.899095e+00 1.525664e+01 -7.870912e+01 9.488439e+01 -1.079662e-07 1.701293e-03 -1.558602e-01 1.494788e-01
-5.981240e+00 1.551566e+01 -7.878609e+01 9.482744e+01 1.565836e-07 1.715511e-03 -1.552840e-01 1.715133e-01
-6.142939e+00 1.586487e+01 -8.236328e+01 1.011721e+02 1.137895e-07 1.683460e-03 -1.693771e-01 1.707476e-01
-6.193784e+00 1.616658e+01 -8.107808e+01 1.051498e+02 1.090485e-06 1.636867e-03 -1.706071e-01 1.762045e-01
-6.423453e+00 1.653124e+01 -9.313564e+01 1.045800e+02 -6.219128e-07 1.631681e-03 -1.767134e-01 1.864037e-01
-6.456392e+00 1.673680e+01 -8.694448e+01 1.083826e+02 1.115842e-06 1.625223e-03 -1.887742e-01 2.027573e-01
-6.564641e+00 1.685631e+01 -9.074519e+01 1.056473e+02 6.160370e-07 1.613304e-03 -1.951058e-01 1.845455e-01
-6.641190e+00 1.697025e+01 -8.837925e+01 1.083889e+02 7.326306e-07 1.574492e-03 -1.996173e-01 2.020829e-01
