-3.340014e+00 1.014067e+01 -5.747217e+01 4.566553e+01 6.208776e-06 2.614948e-03 -2.248535e-01 2.250977e-01
-4.219238e+00 1.142778e+01 -6.086182e+01 4.928442e+01 7.164523e-07 1.918448e-03 -2.197266e-01 2.141113e-01
-4.553849e+00 1.216551e+01 -6.541846e+01 5.527539e+01 1.121994e-06 1.770520e-03 -2.187500e-01 2.160645e-01
-4.780399e+00 1.275694e+01 -6.932788e+01 5.552124e+01 4.689845e-07 1.678545e-03 -2.207031e-01 2.160645e-01
-5.001077e+00 1.321162e+01 -7.773999e+01 5.841675e+01 9.893301e-07 1.610527e-03 -2.197266e-01 2.121582e-01
-5.084325e+00 1.349783e+01 -7.960864e+01 6.097363e+01 1.222655e-06 1.570964e-03 -2.158203e-01 2.141113e-01
-5.164581e+00 1.362427e+01 -7.902148e+01 6.286841e+01 5.858202e-07 1.516210e-03 -2.197266e-01 2.094727e-01
-5.225262e+00 1.378522e+01 -8.086230e+01 6.279199e+01 7.290946e-07 1.508691e-03 -2.197266e-01 2.160645e-01
-5.340761e+00 1.401396e+01 -8.016528e+01 6.617554e+01 6.616416e-07 1.465258e-03 -2.175293e-01 2.121582e-01
-5.409389e+00 1.416185e+01 -8.296484e+01 6.636353e+01 8.830106e-07 1.467397e-03 -2.175293e-01 2.160645e-01
-5.496540e+00 1.426076e+01 -8.477100e+01 6.653613e+01 -5.725058e-08 1.409055e-03 -2.187500e-01 2.121582e-01
-5.631425e+00 1.442286e+01 -8.501318e+01 6.723486e+01 -6.326336e-08 1.445119e-03 -2.207031e-01 2.094727e-01
-5.617100e+00 1.444788e+01 -8.515088e+01 6.706274e+01 5.141226e-07 1.403334e-03 -2.175293e-01 2.094727e-01
-5.613492e+00 1.449334e+01 -8.451953e+01 6.674585e+01 5.440287e-07 1.385414e-03 -2.175293e-01 2.121582e-01
-5.631923e+00 1.455365e+01 -8.431689e+01 7.009448e+01 2.036074e-08 1.357456e-03 -2.175293e-01 2.094727e-01
-5.659459e+00 1.467426e+01 -8.381226e+01 6.916772e+01 4.132528e-07 1.401823e-03 -2.158203e-01 2.094727e-01
-5.652852e+00 1.477405e+01 -8.407666e+01 7.384058e+01 8.258829e-07 1.335518e-03 -2.158203e-01 2.141113e-01
-5.701807e+00 1.488494e+01 -8.638330e+01 7.492017e+01 1.443759e-07 1.339993e-03 -2.158203e-01 2.062988e-01
-5.738064e+00 1.499625e+01 -8.619263e+01 7.525757e+01 5.514356e-07 1.332451e-03 -2.175293e-01 2.121582e-01
-5.790787e+00 1.507723e+01 -8.723633e+01 7.468115e+01 3.534340e-08 1.325781e-03 -2.175293e-01 2.141113e-01
-5.823604e+00 1.517577e+01 -8.959570e+01 7.522705e+01 6.218423e-07 1.308477e-03 -2.175293e-01 2.141113e-01
-5.829155e+00 1.522243e+01 -9.061499e+01 7.848218e+01 4.851811e-07 1.294481e-03 -2.197266e-01 2.141113e-01
-5.876061e+00 1.527566e+01 -8.981152e+01 7.737012e+01 4.478226e-07 1.293019e-03 -2.141113e-01 2.094727e-01
-5.852970e+00 1.530370e+01 -9.033032e+01 7.547778e+01 8.770918e-07 1.267927e-03 -2.197266e-01 2.062988e-01
-5.870871e+00 1.534756e+01 -8.954199e+01 7.645581e+01 3.077527e-07 1.276144e-03 -2.158203e-01 2.160645e-01
-5.881819e+00 1.540581e+01 -9.012622e+01 7.838403e+01 4.862241e-07 1.280646e-03 -2.175293e-01 2.160645e-01
-5.918949e+00 1.545745e+01 -9.092407e+01 7.847241e+01 6.848092e-07 1.276059e-03 -2.187500e-01 2.094727e-01
-5.954359e+00 1.553285e+01 -9.107837e+01 8.113379e+01 8.788758e-07 1.265649e-03 -2.158203e-01 2.121582e-01
-5.960226e+00 1.561296e+01 -9.165454e+01 8.065967e+01 8.092248e-07 1.260117e-03 -2.187500e-01 2.175293e-01
-5.992219e+00 1.568825e+01 -9.013989e+01 8.254858e+01 1.923924e-07 1.256102e-03 -2.197266e-01 2.175293e-01
-5.985571e+00 1.570478e+01 -9.772095e+01 8.297754e+01 6.239472e-07 1.236601e-03 -2.175293e-01 2.175293e-01
-5.937573e+00 1.571929e+01 -9.585205e+01 8.301904e+01 7.313017e-07 1.221781e-03 -2.197266e-01 2.121582e-01
-5.945333e+00 1.574110e+01 -9.628027e+01 8.184424e+01 5.799887e-07 1.237273e-03 -2.175293e-01 2.062988e-01
-6.008593e+00 1.586344e+01 -9.765991e+01 8.365845e+01 3.036178e-07 1.258517e-03 -2.187500e-01 2.160645e-01
-6.061515e+00 1.599019e+01 -1.002842e+02 8.375781e+01 -2.241380e-07 1.241162e-03 -2.119141e-01 2.062988e-01
-6.035748e+00 1.600152e+01 -9.954346e+01 8.609668e+01 4.904353e-07 1.219234e-03 -2.092285e-01 2.141113e-01
