-2.568602e-01 3.556248e+00 -2.364453e+01 2.762500e+01 5.891750e-04 1.566049e-02 -1.992188e-01 3.320312e-01
-2.437966e-01 3.601187e+00 -2.364453e+01 2.358594e+01 5.546601e-04 1.544918e-02 -1.992188e-01 3.125000e-01
-3.133808e-01 3.550185e+00 -2.119922e+01 2.491406e+01 5.784131e-04 1.541057e-02 -1.992188e-01 3.320312e-01
-2.742833e-01 3.518658e+00 -2.659766e+01 2.762500e+01 5.550167e-04 1.553397e-02 -1.992188e-01 3.125000e-01
-2.349395e-01 3.471206e+00 -1.931250e+01 2.166016e+01 5.895042e-04 1.583020e-02 -1.992188e-01 3.320312e-01
-2.846693e-01 3.547019e+00 -2.294531e+01 2.762500e+01 6.200272e-04 1.578382e-02 -1.992188e-01 3.125000e-01
-2.551895e-01 3.598262e+00 -2.364453e+01 2.246875e+01 6.027354e-04 1.598953e-02 -1.992188e-01 3.320312e-01
-2.818082e-01 3.558853e+00 -2.354688e+01 2.358594e+01 5.951493e-04 1.563626e-02 -1.992188e-01 3.320312e-01
-2.443073e-01 3.526353e+00 -2.119922e+01 2.358594e+01 6.402546e-04 1.592951e-02 -1.992188e-01 3.320312e-01
-2.438336e-01 3.637275e+00 -2.659766e+01 2.358594e+01 5.733031e-04 1.547969e-02 -1.992188e-01 3.320312e-01
-3.113302e-01 3.553014e+00 -2.257031e+01 2.491406e+01 5.894562e-04 1.549042e-02 -1.992188e-01 3.320312e-01
-2.905602e-01 3.598841e+00 -2.364453e+01 2.312109e+01 4.875370e-04 1.529293e-02 -1.992188e-01 3.320312e-01
-2.910683e-01 3.520122e+00 -2.659766e+01 2.491406e+01 5.534049e-04 1.536069e-02 -1.992188e-01 3.320312e-01
-2.577818e-01 3.530951e+00 -2.659766e+01 2.762500e+01 5.885508e-04 1.567455e-02 -1.992188e-01 3.320312e-01
-2.514601e-01 3.522976e+00 -2.117969e+01 2.762500e+01 5.744828e-04 1.570251e-02 -1.992188e-01 3.320312e-01
-2.385116e-01 3.595018e+00 -2.659766e+01 2.358594e+01 5.353655e-04 1.534560e-02 -1.992188e-01 3.320312e-01
-2.734543e-01 3.530060e+00 -2.659766e+01 2.246875e+01 5.833928e-04 1.559138e-02 -1.992188e-01 3.320312e-01
-2.833452e-01 3.541688e+00 -2.354688e+01 2.762500e+01 5.652025e-04 1.534793e-02 -1.992188e-01 3.320312e-01
-2.783307e-01 3.560746e+00 -2.195312e+01 2.246875e+01 5.288905e-04 1.530575e-02 -1.992188e-01 3.320312e-01
-2.883791e-01 3.594605e+00 -2.659766e+01 2.246875e+01 5.169076e-04 1.525211e-02 -1.992188e-01 3.320312e-01
-2.923845e-01 3.586141e+00 -2.354688e+01 2.762500e+01 6.073310e-04 1.590972e-02 -1.992188e-01 3.320312e-01
-2.670854e-01 3.613981e+00 -2.659766e+01 2.762500e+01 5.637209e-04 1.559209e-02 -1.992188e-01 3.320312e-01
-2.696623e-01 3.577292e+00 -2.364453e+01 2.117969e+01 5.273678e-04 1.509478e-02 -1.992188e-01 3.125000e-01
-2.888330e-01 3.521941e+00 -2.364453e+01 2.087500e+01 5.878237e-04 1.568276e-02 -1.992188e-01 3.320312e-01
-2.570755e-01 3.519195e+00 -2.257031e+01 2.491406e+01 5.702645e-04 1.544555e-02 -1.992188e-01 3.125000e-01
-2.895486e-01 3.522004e+00 -2.257031e+01 2.762500e+01 5.707926e-04 1.549263e-02 -1.992188e-01 3.125000e-01
-2.153524e-01 3.563982e+00 -2.364453e+01 2.762500e+01 5.937637e-04 1.544310e-02 -1.992188e-01 3.320312e-01
-2.466615e-01 3.515088e+00 -2.294531e+01 2.312109e+01 5.614986e-04 1.542747e-02 -1.992188e-01 3.125000e-01
-2.923955e-01 3.591428e+00 -2.364453e+01 2.762500e+01 5.517381e-04 1.559450e-02 -1.992188e-01 3.125000e-01
-2.888148e-01 3.461942e+00 -2.364453e+01 2.312109e+01 6.065491e-04 1.582106e-02 -1.992188e-01 3.320312e-01
-2.193003e-01 3.584615e+00 -2.119922e+01 2.358594e+01 5.947994e-04 1.565228e-02 -1.992188e-01 3.125000e-01
-2.616160e-01 3.527784e+00 -2.659766e+01 2.762500e+01 5.431437e-04 1.525461e-02 -1.992188e-01 3.320312e-01
-3.355796e-01 3.537112e+00 -2.364453e+01 2.762500e+01 5.400845e-04 1.532904e-02 -1.992188e-01 3.320312e-01
-2.407005e-01 3.534740e+00 -2.195312e+01 2.312109e+01 5.404618e-04 1.553411e-02 -1.992188e-01 3.125000e-01
-2.509175e-01 3.515075e+00 -2.294531e+01 2.762500e+01 5.997174e-04 1.583423e-02 -1.992188e-01 3.320312e-01
-2.818354e-01 3.532915e+00 -2.076562e+01 2.312109e+01 5.819181e-04 1.566254e-02 -1.992188e-01 3.320312e-01
-2.652775e-01 3.546012e+00 -2.364453e+01 2.246875e+01 5.994636e-04 1.563163e-02 -1.992188e-01 3.320312e-01
-3.175547e-01 3.584428e+00 -2.659766e+01 2.762500e+01 5.273609e-04 1.531019e-02 -1.992188e-01 3.125000e-01
-2.818582e-01 3.608131e+00 -2.354688e+01 2.312109e+01 5.517038e-04 1.535339e-02 -1.992188e-01 3.125000e-01
-2.541756e-01 3.577765e+00 -2.364453e+01 2.358594e+01 5.835162e-04 1.557881e-02 -1.992188e-01 3.320312e-01
-2.473414e-01 3.577625e+00 -2.294531e+01 2.491406e+01 5.998957e-04 1.559533e-02 -1.992188e-01 3.320312e-01
-2.838866e-01 3.608381e+00 -2.119922e+01 2.358594e+01 5.460656e-04 1.522906e-02 -1.992188e-01 3.320312e-01
-2.109337e-01 3.588690e+00 -2.257031e+01 2.491406e+01 5.524995e-04 1.527531e-02 -1.992188e-01 3.125000e-01
-2.759083e-01 3.525550e+00 -2.364453e+01 2.156250e+01 5.758958e-04 1.561257e-02 -1.992188e-01 3.125000e-01
-2.969731e-01 3.570430e+00 -2.294531e+01 2.762500e+01 5.934413e-04 1.557640e-02 -1.992188e-01 3.125000e-01
-2.861369e-01 3.515553e+00 -2.195312e+01 2.166016e+01 5.890035e-04 1.578754e-02 -1.992188e-01 3.320312e-01
-2.365023e-01 3.534063e+00 -2.007031e+01 2.358594e+01 5.786600e-04 1.587527e-02 -1.992188e-01 3.125000e-01
-2.730090e-01 3.578276e+00 -2.659766e+01 2.762500e+01 4.549564e-04 1.484084e-02 -1.992188e-01 3.125000e-01
-2.984850e-01 3.583223e+00 -2.195312e+01 2.358594e+01 5.748669e-04 1.550394e-02 -1.992188e-01 3.320312e-01
-2.784146e-01 3.605130e+00 -2.659766e+01 2.762500e+01 5.241646e-04 1.501838e-02 -1.992188e-01 3.320312e-01
-2.557028e-01 3.609166e+00 -2.659766e+01 2.762500e+01 6.341294e-04 1.563010e-02 -1.992188e-01 3.320312e-01
-2.526160e-01 3.541127e+00 -2.294531e+01 2.762500e+01 5.685977e-04 1.548652e-02 -1.992188e-01 3.320312e-01
-2.518591e-01 3.500869e+00 -2.659766e+01 2.358594e+01 5.517724e-04 1.542064e-02 -1.992188e-01 3.320312e-01
-3.016140e-01 3.592552e+00 -2.007031e+01 2.312109e+01 6.014185e-04 1.567187e-02 -1.992188e-01 3.320312e-01
-2.830735e-01 3.573270e+00 -2.364453e+01 2.246875e+01 5.090951e-04 1.523854e-02 -1.992188e-01 3.125000e-01
-2.611513e-01 3.533972e+00 -2.354688e+01 2.491406e+01 5.688652e-04 1.534850e-02 -1.992188e-01 3.320312e-01
-2.763035e-01 3.532367e+00 -2.364453e+01 2.229688e+01 5.899912e-04 1.572355e-02 -1.992188e-01 3.125000e-01
-2.397668e-01 3.598262e+00 -2.659766e+01 2.246875e+01 5.673014e-04 1.544093e-02 -1.992188e-01 3.320312e-01
-3.437546e-01 3.573410e+00 -2.659766e+01 2.491406e+01 6.277642e-04 1.579193e-02 -1.992188e-01 3.125000e-01
-2.644158e-01 3.579038e+00 -2.659766e+01 2.166016e+01 5.532540e-04 1.556534e-02 -1.992188e-01 3.125000e-01
-2.725156e-01 3.564926e+00 -2.176172e+01 2.312109e+01 5.826177e-04 1.560663e-02 -1.992188e-01 3.320312e-01
-2.619528e-01 3.580076e+00 -2.364453e+01 2.491406e+01 6.088400e-04 1.568027e-02 -1.992188e-01 3.320312e-01
-2.867159e-01 3.560264e+00 -2.659766e+01 2.166016e+01 5.155084e-04 1.504697e-02 -1.992188e-01 3.125000e-01
-3.110466e-01 3.536242e+00 -2.364453e+01 2.358594e+01 5.331431e-04 1.521497e-02 -1.992188e-01 3.320312e-01
-2.468076e-01 3.599539e+00 -2.364453e+01 2.762500e+01 5.802650e-04 1.552004e-02 -1.992188e-01 3.320312e-01
-2.205663e-01 3.541386e+00 -2.257031e+01 2.229688e+01 5.550922e-04 1.540660e-02 -1.992188e-01 3.320312e-01
-2.742578e-01 3.609789e+00 -2.354688e+01 2.358594e+01 5.497147e-04 1.537049e-02 -1.992188e-01 3.125000e-01
-2.399722e-01 3.561964e+00 -2.659766e+01 2.762500e+01 5.927349e-04 1.561553e-02 -1.992188e-01 3.320312e-01
-2.530781e-01 3.534950e+00 -2.117969e+01 2.491406e+01 5.793459e-04 1.554964e-02 -1.992188e-01 3.320312e-01
-2.291710e-01 3.505119e+00 -2.364453e+01 2.762500e+01 5.811087e-04 1.560991e-02 -1.992188e-01 3.320312e-01
-2.785683e-01 3.574308e+00 -2.364453e+01 2.762500e+01 5.245898e-04 1.521156e-02 -1.992188e-01 3.320312e-01
-2.701372e-01 3.554306e+00 -2.195312e+01 2.762500e+01 5.799427e-04 1.560770e-02 -1.992188e-01 3.320312e-01
-3.288215e-01 3.624274e+00 -2.659766e+01 2.229688e+01 5.940518e-04 1.570213e-02 -1.992188e-01 3.320312e-01
-2.803909e-01 3.553327e+00 -2.659766e+01 2.358594e+01 5.173741e-04 1.536149e-02 -1.992188e-01 3.125000e-01
-2.483626e-01 3.587158e+00 -1.998828e+01 2.762500e+01 5.327659e-04 1.537305e-02 -1.992188e-01 3.320312e-01
-2.740130e-01 3.577040e+00 -2.257031e+01 2.762500e+01 5.418747e-04 1.515601e-02 -1.992188e-01 3.320312e-01
-2.422370e-01 3.512378e+00 -2.119922e+01 2.762500e+01 5.557850e-04 1.540264e-02 -1.992188e-01 3.125000e-01
-2.574178e-01 3.555984e+00 -2.364453e+01 2.762500e+01 4.896634e-04 1.499376e-02 -1.992188e-01 3.320312e-01
-2.931693e-01 3.571102e+00 -2.076562e+01 2.491406e+01 5.988600e-04 1.570134e-02 -1.992188e-01 3.320312e-01
-2.719850e-01 3.548168e+00 -2.364453e+01 2.491406e+01 5.466761e-04 1.528926e-02 -1.992188e-01 3.320312e-01
-2.727445e-01 3.593728e+00 -2.659766e+01 2.491406e+01 5.803062e-04 1.539529e-02 -1.992188e-01 3.320312e-01
-2.757705e-01 3.525775e+00 -2.294531e+01 2.491406e+01 5.871173e-04 1.554106e-02 -1.992188e-01 3.320312e-01
-2.474210e-01 3.550441e+00 -2.364453e+01 2.762500e+01 5.308179e-04 1.515863e-02 -1.992188e-01 3.125000e-01
-2.712433e-01 3.569828e+00 -2.659766e+01 2.762500e+01 5.555174e-04 1.543986e-02 -1.992188e-01 3.320312e-01
-2.770637e-01 3.575286e+00 -2.659766e+01 2.246875e+01 5.799701e-04 1.560545e-02 -1.992188e-01 3.320312e-01
-2.417665e-01 3.610811e+00 -2.043359e+01 2.762500e+01 6.413040e-04 1.602742e-02 -1.992188e-01 3.320312e-01
-2.595816e-01 3.497761e+00 -2.659766e+01 2.140625e+01 5.289591e-04 1.514238e-02 -1.992188e-01 3.320312e-01
-2.937572e-01 3.558586e+00 -2.659766e+01 2.762500e+01 5.478421e-04 1.540824e-02 -1.992188e-01 3.320312e-01
-2.710961e-01 3.543762e+00 -2.354688e+01 2.246875e+01 6.121118e-04 1.581792e-02 -1.992188e-01 3.320312e-01
-2.777567e-01 3.534767e+00 -2.354688e+01 2.491406e+01 5.478078e-04 1.542248e-02 -1.992188e-01 3.320312e-01
-2.894184e-01 3.514414e+00 -2.294531e+01 2.491406e+01 5.535352e-04 1.548578e-02 -1.992188e-01 3.320312e-01
-2.772185e-01 3.540629e+00 -2.354688e+01 2.491406e+01 5.698049e-04 1.570434e-02 -1.992188e-01 3.320312e-01
-2.685848e-01 3.566038e+00 -2.364453e+01 2.762500e+01 5.370459e-04 1.523380e-02 -1.992188e-01 3.320312e-01
-2.970732e-01 3.607823e+00 -2.659766e+01 2.762500e+01 5.816369e-04 1.570493e-02 -1.992188e-01 3.320312e-01
-2.578692e-01 3.591670e+00 -2.364453e+01 2.491406e+01 5.664303e-04 1.546534e-02 -1.992188e-01 3.320312e-01
-2.508090e-01 3.519594e+00 -2.195312e+01 2.762500e+01 5.983799e-04 1.575159e-02 -1.992188e-01 3.125000e-01
-3.257448e-01 3.552292e+00 -2.364453e+01 2.762500e+01 5.339525e-04 1.539058e-02 -1.992188e-01 3.320312e-01
-2.891979e-01 3.546739e+00 -2.659766e+01 2.156250e+01 5.834751e-04 1.570475e-02 -1.992188e-01 3.125000e-01
-2.910382e-01 3.630642e+00 -2.195312e+01 2.762500e+01 5.399610e-04 1.523448e-02 -1.992188e-01 3.320312e-01
-3.321635e-01 3.546612e+00 -2.659766e+01 2.762500e+01 5.937980e-04 1.574763e-02 -1.992188e-01 3.320312e-01
