2.048000e+03 9.372000e-01 -2.387471e-04 5.794098e-01 -9.997559e-01 9.997559e-01
1.738415e+03 1.361000e-01 -2.804204e-02 1.729973e+00 -1.082593e+01 1.220312e+01
1.412908e+03 1.136000e-01 -5.959002e-02 5.145605e+00 -1.796094e+01 2.167163e+01
1.306368e+03 1.105000e-01 -1.136608e-01 9.621132e+00 -2.462231e+01 2.839600e+01
1.264126e+03 1.079000e-01 -1.803786e-01 1.456448e+01 -3.380591e+01 3.944092e+01
1.236416e+03 1.088000e-01 -2.605137e-01 1.972411e+01 -4.308325e+01 5.342651e+01
1.174463e+03 1.017000e-01 -3.412761e-01 2.489935e+01 -5.236060e+01 6.291260e+01
1.199120e+03 1.036000e-01 -4.163940e-01 3.008146e+01 -6.163794e+01 6.813110e+01
1.131940e+03 1.008000e-01 -4.798062e-01 3.527030e+01 -7.091528e+01 7.451855e+01
1.190169e+03 1.063000e-01 -5.474592e-01 4.046587e+01 -8.019263e+01 8.241821e+01
1.133627e+03 1.049000e-01 -6.089114e-01 4.565453e+01 -8.946997e+01 9.052075e+01
1.126400e+03 9.980000e-02 -6.842746e-01 5.084020e+01 -9.874731e+01 9.996167e+01
1.113834e+03 9.830000e-02 -7.620024e-01 5.602558e+01 -1.080247e+02 1.107651e+02
1.103445e+03 1.015000e-01 -8.281598e-01 6.120965e+01 -1.173020e+02 1.183528e+02
1.116240e+03 9.810000e-02 -8.823416e-01 6.639699e+01 -1.265793e+02 1.276301e+02
1.140150e+03 1.025000e-01 -9.260085e-01 7.158615e+01 -1.358567e+02 1.369075e+02
1.094144e+03 9.670000e-02 -9.969944e-01 7.677535e+01 -1.451340e+02 1.461848e+02
1.097276e+03 9.620000e-02 -1.046925e+00 8.194783e+01 -1.552078e+02 1.554622e+02
1.092115e+03 1.006000e-01 -1.134361e+00 8.708698e+01 -1.677983e+02 1.647395e+02
1.073456e+03 9.430000e-02 -1.208747e+00 9.220018e+01 -1.789404e+02 1.740168e+02
1.090179e+03 9.700000e-02 -1.261886e+00 9.729893e+01 -1.925642e+02 1.832942e+02
1.068640e+03 9.470000e-02 -1.335042e+00 1.024015e+02 -2.040078e+02 1.925715e+02
1.110212e+03 9.670000e-02 -1.418819e+00 1.075020e+02 -2.132852e+02 2.018489e+02
1.093453e+03 9.440000e-02 -1.503494e+00 1.126043e+02 -2.225625e+02 2.111262e+02
1.094508e+03 9.850000e-02 -1.585056e+00 1.177049e+02 -2.318398e+02 2.204036e+02
1.087022e+03 9.770000e-02 -1.666510e+00 1.228019e+02 -2.411172e+02 2.296809e+02
1.080327e+03 9.580000e-02 -1.730836e+00 1.278995e+02 -2.503945e+02 2.389583e+02
