9.293529e+01 4.479167e-01 -3.672964e-02 5.430026e-01 -9.529877e-01 9.396210e-01
5.708856e+01 3.697917e-01 -9.726416e-03 5.306406e-01 -9.596252e-01 9.261475e-01
5.496408e+01 3.697917e-01 2.639191e-03 5.310937e-01 -9.567413e-01 9.302063e-01
5.590125e+01 3.697917e-01 3.382429e-03 5.317820e-01 -9.551544e-01 9.299927e-01
5.669202e+01 3.697917e-01 2.355069e-03 5.324847e-01 -9.547729e-01 9.297333e-01
5.632239e+01 3.697917e-01 1.336882e-03 5.333258e-01 -9.544983e-01 9.285889e-01
5.558882e+01 3.697917e-01 3.587747e-04 5.341176e-01 -9.542389e-01 9.281006e-01
5.501439e+01 3.697917e-01 -8.094884e-04 5.348757e-01 -9.540253e-01 9.397278e-01
5.500346e+01 3.697917e-01 -1.926567e-03 5.357180e-01 -9.536896e-01 9.517365e-01
5.541833e+01 3.697917e-01 -3.038720e-03 5.365121e-01 -9.530487e-01 9.658813e-01
5.632866e+01 3.697917e-01 -4.156765e-03 5.374468e-01 -9.532623e-01 9.827423e-01
5.664961e+01 3.697917e-01 -5.163845e-03 5.385254e-01 -9.573517e-01 9.967804e-01
5.493625e+01 3.697917e-01 -6.008390e-03 5.395035e-01 -9.635925e-01 1.003098e+00
5.481963e+01 3.697917e-01 -7.397326e-03 5.404580e-01 -9.684601e-01 1.014801e+00
5.618719e+01 3.697917e-01 -8.506485e-03 5.412704e-01 -9.711456e-01 1.035477e+00
5.614452e+01 3.697917e-01 -9.595557e-03 5.426691e-01 -9.771271e-01 1.048798e+00
5.589394e+01 3.697917e-01 -1.063837e-02 5.437331e-01 -9.806366e-01 1.060013e+00
5.477771e+01 3.697917e-01 -1.163396e-02 5.449330e-01 -9.862061e-01 1.071136e+00
5.568494e+01 3.697917e-01 -1.259671e-02 5.461128e-01 -1.002075e+00 1.086258e+00
5.486641e+01 3.697917e-01 -1.339490e-02 5.472683e-01 -1.014267e+00 1.097916e+00
5.521915e+01 3.697917e-01 -1.444467e-02 5.486692e-01 -1.032288e+00 1.115555e+00
5.500992e+01 3.697917e-01 -1.531162e-02 5.498879e-01 -1.046143e+00 1.129318e+00
5.491101e+01 3.697917e-01 -1.651542e-02 5.515434e-01 -1.061050e+00 1.142593e+00
5.431137e+01 3.697917e-01 -1.728773e-02 5.527969e-01 -1.072708e+00 1.154037e+00
5.473169e+01 3.697917e-01 -1.845502e-02 5.544075e-01 -1.090698e+00 1.170547e+00
5.468488e+01 3.697917e-01 -1.929213e-02 5.559269e-01 -1.105255e+00 1.185577e+00
5.439291e+01 3.697917e-01 -2.036247e-02 5.574741e-01 -1.119019e+00 1.197708e+00
5.408752e+01 3.697917e-01 -2.133333e-02 5.591741e-01 -1.134430e+00 1.212585e+00
5.299538e+01 3.697917e-01 -2.232293e-02 5.609527e-01 -1.142975e+00 1.222183e+00
5.327527e+01 3.697917e-01 -2.329013e-02 5.624422e-01 -1.158218e+00 1.236908e+00
5.241356e+01 3.697917e-01 -2.424969e-02 5.645261e-01 -1.176804e+00 1.253998e+00
5.416003e+01 3.697917e-01 -2.540212e-02 5.662451e-01 -1.194565e+00 1.271469e+00
5.410249e+01 3.697917e-01 -2.596969e-02 5.682280e-01 -1.210220e+00 1.286148e+00
5.250334e+01 3.645833e-01 -2.671911e-02 5.702958e-01 -1.221420e+00 1.296738e+00
5.323904e+01 3.697917e-01 -2.761474e-02 5.721140e-01 -1.236343e+00 1.311920e+00
5.343272e+01 3.697917e-01 -2.847715e-02 5.741405e-01 -1.253967e+00 1.328506e+00
5.326712e+01 3.697917e-01 -2.906162e-02 5.760197e-01 -1.269806e+00 1.343826e+00
5.402704e+01 3.697917e-01 -3.011119e-02 5.783461e-01 -1.293991e+00 1.365814e+00
5.254872e+01 3.593750e-01 -3.050000e-02 5.803777e-01 -1.298233e+00 1.370941e+00
5.311816e+01 3.697917e-01 -3.188363e-02 5.826381e-01 -1.321045e+00 1.391556e+00
5.240836e+01 3.593750e-01 -3.231502e-02 5.848596e-01 -1.332047e+00 1.402908e+00
5.302339e+01 3.593750e-01 -3.328405e-02 5.870981e-01 -1.351273e+00 1.421326e+00
5.296260e+01 3.593750e-01 -3.394289e-02 5.895178e-01 -1.368729e+00 1.438416e+00
5.278329e+01 3.645833e-01 -3.466121e-02 5.921528e-01 -1.388107e+00 1.457306e+00
5.318875e+01 3.645833e-01 -3.526036e-02 5.945340e-01 -1.405594e+00 1.474335e+00
5.175632e+01 3.593750e-01 -3.551812e-02 5.972317e-01 -1.415039e+00 1.484467e+00
5.176898e+01 3.593750e-01 -3.645421e-02 5.994557e-01 -1.435272e+00 1.503082e+00
5.197942e+01 3.593750e-01 -3.729741e-02 6.024294e-01 -1.454895e+00 1.521133e+00
5.166708e+01 3.593750e-01 -3.782268e-02 6.051411e-01 -1.471054e+00 1.537781e+00
5.116429e+01 3.593750e-01 -3.826344e-02 6.077971e-01 -1.485535e+00 1.552734e+00
5.153192e+01 3.593750e-01 -3.902348e-02 6.107682e-01 -1.507156e+00 1.572952e+00
5.174664e+01 3.593750e-01 -3.962273e-02 6.137498e-01 -1.529968e+00 1.595032e+00
5.087086e+01 3.541667e-01 -3.980159e-02 6.167100e-01 -1.541336e+00 1.606812e+00
5.076999e+01 3.593750e-01 -4.064053e-02 6.195465e-01 -1.558533e+00 1.623917e+00
5.174223e+01 3.593750e-01 -4.144538e-02 6.224453e-01 -1.584732e+00 1.647827e+00
5.089258e+01 3.593750e-01 -4.176813e-02 6.255833e-01 -1.596832e+00 1.660034e+00
5.087372e+01 3.593750e-01 -4.237752e-02 6.287621e-01 -1.615021e+00 1.676712e+00
5.041646e+01 3.489583e-01 -4.284996e-02 6.318244e-01 -1.628433e+00 1.691269e+00
5.060622e+01 3.593750e-01 -4.354945e-02 6.352119e-01 -1.652130e+00 1.712997e+00
5.023134e+01 3.385417e-01 -4.376250e-02 6.385208e-01 -1.665344e+00 1.726440e+00
5.049532e+01 3.593750e-01 -4.479758e-02 6.413852e-01 -1.689697e+00 1.748947e+00
5.058659e+01 3.489583e-01 -4.512497e-02 6.451772e-01 -1.703369e+00 1.761551e+00
4.980621e+01 3.281250e-01 -4.559104e-02 6.483351e-01 -1.715149e+00 1.774384e+00
5.041492e+01 3.541667e-01 -4.636093e-02 6.517853e-01 -1.743942e+00 1.801895e+00
5.057739e+01 3.489583e-01 -4.660478e-02 6.551560e-01 -1.758469e+00 1.816162e+00
5.045461e+01 3.541667e-01 -4.732581e-02 6.585420e-01 -1.782227e+00 1.838837e+00
5.051727e+01 3.541667e-01 -4.777894e-02 6.625866e-01 -1.801117e+00 1.857925e+00
5.012946e+01 3.385417e-01 -4.816350e-02 6.660375e-01 -1.814987e+00 1.871613e+00
4.924419e+01 3.125000e-01 -4.853888e-02 6.696889e-01 -1.829147e+00 1.885529e+00
4.953499e+01 3.385417e-01 -4.909351e-02 6.733531e-01 -1.854965e+00 1.911575e+00
4.889264e+01 3.072917e-01 -4.915348e-02 6.770754e-01 -1.866730e+00 1.923096e+00
4.971591e+01 3.229167e-01 -4.970889e-02 6.806834e-01 -1.889603e+00 1.946182e+00
4.921967e+01 3.020833e-01 -4.980478e-02 6.845390e-01 -1.905228e+00 1.962891e+00
4.864566e+01 2.968750e-01 -5.023802e-02 6.883393e-01 -1.924072e+00 1.980515e+00
4.902271e+01 3.125000e-01 -5.079506e-02 6.921370e-01 -1.946823e+00 2.002518e+00
4.781960e+01 2.812500e-01 -5.128170e-02 6.960856e-01 -1.968719e+00 2.023193e+00
4.919078e+01 3.281250e-01 -5.273911e-02 6.998131e-01 -1.990860e+00 2.044052e+00
4.902818e+01 3.333333e-01 -5.300575e-02 7.038058e-01 -2.009247e+00 2.061905e+00
4.803047e+01 2.968750e-01 -5.304950e-02 7.072917e-01 -2.011078e+00 2.065933e+00
4.802997e+01 2.968750e-01 -5.356723e-02 7.114751e-01 -2.029907e+00 2.085144e+00
4.789349e+01 3.020833e-01 -5.401254e-02 7.154779e-01 -2.053696e+00 2.108200e+00
4.798784e+01 2.864583e-01 -5.413847e-02 7.193263e-01 -2.070984e+00 2.124680e+00
4.771140e+01 3.020833e-01 -5.471840e-02 7.233807e-01 -2.085831e+00 2.140747e+00
4.751202e+01 3.020833e-01 -5.513049e-02 7.275633e-01 -2.104187e+00 2.158142e+00
4.747224e+01 3.020833e-01 -5.542205e-02 7.316875e-01 -2.122192e+00 2.175598e+00
4.724562e+01 2.864583e-01 -5.561375e-02 7.356780e-01 -2.144882e+00 2.197144e+00
4.732874e+01 3.020833e-01 -5.621608e-02 7.396408e-01 -2.160690e+00 2.213486e+00
4.693690e+01 2.812500e-01 -5.628542e-02 7.441914e-01 -2.178970e+00 2.231003e+00
4.738402e+01 2.968750e-01 -5.684990e-02 7.480702e-01 -2.202209e+00 2.253540e+00
4.724219e+01 2.968750e-01 -5.684295e-02 7.524139e-01 -2.218872e+00 2.270248e+00
4.750668e+01 2.968750e-01 -5.729733e-02 7.567572e-01 -2.240616e+00 2.291489e+00
4.753108e+01 2.968750e-01 -5.752718e-02 7.607383e-01 -2.260742e+00 2.311371e+00
4.692744e+01 2.916667e-01 -5.762878e-02 7.650179e-01 -2.273392e+00 2.325272e+00
4.685890e+01 2.916667e-01 -5.783989e-02 7.693196e-01 -2.292877e+00 2.344940e+00
4.690892e+01 2.916667e-01 -5.807437e-02 7.735630e-01 -2.312347e+00 2.364288e+00
4.726317e+01 2.968750e-01 -5.839481e-02 7.778362e-01 -2.333664e+00 2.385101e+00
4.738406e+01 2.968750e-01 -5.886426e-02 7.824464e-01 -2.355484e+00 2.405121e+00
4.558398e+01 2.760417e-01 -5.903587e-02 7.861974e-01 -2.363129e+00 2.413269e+00
4.687102e+01 2.968750e-01 -5.971682e-02 7.906288e-01 -2.387558e+00 2.437347e+00
4.622102e+01 2.812500e-01 -5.984014e-02 7.946857e-01 -2.400284e+00 2.450394e+00
4.610535e+01 2.864583e-01 -5.992938e-02 7.991827e-01 -2.422134e+00 2.471329e+00
4.621300e+01 2.812500e-01 -6.023938e-02 8.036916e-01 -2.444077e+00 2.492203e+00
4.547041e+01 2.812500e-01 -6.052003e-02 8.074012e-01 -2.450302e+00 2.499344e+00
4.579900e+01 2.812500e-01 -6.093105e-02 8.120408e-01 -2.473114e+00 2.521332e+00
4.550653e+01 2.760417e-01 -6.117799e-02 8.164896e-01 -2.492233e+00 2.539261e+00
4.589697e+01 2.864583e-01 -6.156796e-02 8.205465e-01 -2.514496e+00 2.560638e+00
4.575995e+01 2.812500e-01 -6.189042e-02 8.246939e-01 -2.532791e+00 2.578720e+00
4.487764e+01 2.708333e-01 -6.204301e-02 8.290399e-01 -2.540909e+00 2.587540e+00
4.479958e+01 2.760417e-01 -6.242573e-02 8.332525e-01 -2.558319e+00 2.604858e+00
4.549713e+01 2.812500e-01 -6.255543e-02 8.378601e-01 -2.583954e+00 2.629364e+00
4.576988e+01 2.864583e-01 -6.287114e-02 8.418791e-01 -2.604996e+00 2.650604e+00
4.594296e+01 2.916667e-01 -6.317535e-02 8.461504e-01 -2.623642e+00 2.669052e+00
4.477513e+01 2.708333e-01 -6.364325e-02 8.500820e-01 -2.629105e+00 2.675293e+00
4.487006e+01 2.760417e-01 -6.375653e-02 8.540429e-01 -2.646484e+00 2.691956e+00
4.441309e+01 2.708333e-01 -6.402858e-02 8.580300e-01 -2.657196e+00 2.703232e+00
4.483846e+01 2.864583e-01 -6.432874e-02 8.622474e-01 -2.681580e+00 2.727188e+00
4.413895e+01 2.708333e-01 -6.418136e-02 8.667207e-01 -2.691589e+00 2.737823e+00
4.441537e+01 2.760417e-01 -6.437287e-02 8.708498e-01 -2.711899e+00 2.757370e+00
4.387027e+01 2.552083e-01 -6.450875e-02 8.751730e-01 -2.723648e+00 2.769470e+00
4.430476e+01 2.864583e-01 -6.469108e-02 8.789549e-01 -2.748184e+00 2.793259e+00
4.386661e+01 2.656250e-01 -6.471455e-02 8.830787e-01 -2.755341e+00 2.801529e+00
4.314482e+01 2.500000e-01 -6.487400e-02 8.868237e-01 -2.768036e+00 2.813812e+00
4.331078e+01 2.447917e-01 -6.489254e-02 8.907680e-01 -2.782242e+00 2.828461e+00
4.380080e+01 2.604167e-01 -6.483112e-02 8.945887e-01 -2.803146e+00 2.849655e+00
4.354738e+01 2.656250e-01 -6.462426e-02 8.989352e-01 -2.820251e+00 2.866821e+00
4.322040e+01 2.395833e-01 -6.466897e-02 9.025938e-01 -2.835022e+00 2.881271e+00
4.318910e+01 2.500000e-01 -6.509931e-02 9.061605e-01 -2.845963e+00 2.892715e+00
4.284926e+01 2.500000e-01 -6.492885e-02 9.101489e-01 -2.858215e+00 2.906189e+00
4.268788e+01 2.447917e-01 -6.489940e-02 9.141555e-01 -2.873016e+00 2.921631e+00
4.302745e+01 2.343750e-01 -6.505527e-02 9.177452e-01 -2.890762e+00 2.938522e+00
4.276340e+01 2.447917e-01 -6.522167e-02 9.217086e-01 -2.902328e+00 2.950409e+00
4.307114e+01 2.604167e-01 -6.528087e-02 9.255409e-01 -2.923462e+00 2.971054e+00
4.433148e+01 2.812500e-01 -6.551757e-02 9.290515e-01 -2.942566e+00 2.988846e+00
4.282581e+01 2.447917e-01 -6.572917e-02 9.324533e-01 -2.944962e+00 2.991013e+00
4.301886e+01 2.500000e-01 -6.577571e-02 9.362177e-01 -2.962357e+00 3.009125e+00
4.249156e+01 2.343750e-01 -6.605105e-02 9.399083e-01 -2.973267e+00 3.019272e+00
4.495737e+01 2.968750e-01 -6.644758e-02 9.437921e-01 -3.001038e+00 3.044724e+00
4.266718e+01 2.447917e-01 -6.656734e-02 9.472045e-01 -2.997696e+00 3.042953e+00
4.281998e+01 2.500000e-01 -6.673837e-02 9.505792e-01 -3.017990e+00 3.063400e+00
4.457758e+01 2.812500e-01 -6.703514e-02 9.540476e-01 -3.037949e+00 3.083405e+00
4.278369e+01 2.604167e-01 -6.716146e-02 9.573689e-01 -3.042160e+00 3.088531e+00
4.239389e+01 2.291667e-01 -6.728720e-02 9.605876e-01 -3.045059e+00 3.091888e+00
4.280241e+01 2.447917e-01 -6.723930e-02 9.641361e-01 -3.062241e+00 3.110291e+00
4.294759e+01 2.447917e-01 -6.718310e-02 9.678152e-01 -3.075882e+00 3.123245e+00
4.291882e+01 2.447917e-01 -6.726277e-02 9.710078e-01 -3.087250e+00 3.136322e+00
4.185768e+01 2.291667e-01 -6.717682e-02 9.742510e-01 -3.094315e+00 3.144150e+00
4.291194e+01 2.500000e-01 -6.709376e-02 9.775678e-01 -3.110687e+00 3.161438e+00
4.175496e+01 2.291667e-01 -6.700636e-02 9.808196e-01 -3.117264e+00 3.168655e+00
4.189352e+01 2.291667e-01 -6.709628e-02 9.840444e-01 -3.128952e+00 3.180527e+00
4.173978e+01 2.291667e-01 -6.706547e-02 9.872516e-01 -3.139206e+00 3.191116e+00
4.251639e+01 2.447917e-01 -6.706209e-02 9.901002e-01 -3.155365e+00 3.207703e+00
4.172307e+01 2.343750e-01 -6.709502e-02 9.933724e-01 -3.162109e+00 3.215027e+00
4.141930e+01 2.291667e-01 -6.694205e-02 9.961987e-01 -3.171890e+00 3.225250e+00
4.166048e+01 2.291667e-01 -6.679757e-02 9.994143e-01 -3.184723e+00 3.238129e+00
4.150833e+01 2.343750e-01 -6.690824e-02 1.002283e+00 -3.192474e+00 3.246063e+00
4.135855e+01 2.395833e-01 -6.685909e-02 1.005311e+00 -3.208679e+00 3.262421e+00
4.105533e+01 2.291667e-01 -6.683446e-02 1.008628e+00 -3.213776e+00 3.269836e+00
4.126352e+01 2.239583e-01 -6.671133e-02 1.011442e+00 -3.225677e+00 3.281235e+00
4.125958e+01 2.291667e-01 -6.670331e-02 1.014214e+00 -3.234009e+00 3.289673e+00
4.151990e+01 2.343750e-01 -6.666410e-02 1.017159e+00 -3.246872e+00 3.303192e+00
4.155144e+01 2.343750e-01 -6.657313e-02 1.020305e+00 -3.257141e+00 3.313248e+00
4.106796e+01 2.291667e-01 -6.657400e-02 1.022783e+00 -3.265198e+00 3.321503e+00
4.107513e+01 2.395833e-01 -6.646526e-02 1.025610e+00 -3.279251e+00 3.335236e+00
4.117621e+01 2.395833e-01 -6.654957e-02 1.028109e+00 -3.289886e+00 3.346069e+00
4.092505e+01 2.291667e-01 -6.646951e-02 1.030821e+00 -3.289810e+00 3.347946e+00
4.103723e+01 2.291667e-01 -6.673412e-02 1.033076e+00 -3.306870e+00 3.363907e+00
4.153584e+01 2.395833e-01 -6.654010e-02 1.035761e+00 -3.310913e+00 3.370102e+00
4.148744e+01 2.395833e-01 -6.662770e-02 1.038620e+00 -3.319733e+00 3.378983e+00
4.076588e+01 2.291667e-01 -6.665966e-02 1.041011e+00 -3.325043e+00 3.384949e+00
4.048820e+01 2.239583e-01 -6.652987e-02 1.043571e+00 -3.334152e+00 3.394104e+00
4.089153e+01 2.083333e-01 -6.653566e-02 1.045979e+00 -3.342102e+00 3.401184e+00
4.271056e+01 2.604167e-01 -6.652861e-02 1.048806e+00 -3.361542e+00 3.420898e+00
4.101155e+01 2.291667e-01 -6.669008e-02 1.050997e+00 -3.357483e+00 3.417969e+00
4.038737e+01 2.239583e-01 -6.633421e-02 1.053687e+00 -3.363556e+00 3.424194e+00
4.209676e+01 2.395833e-01 -6.625434e-02 1.056433e+00 -3.380310e+00 3.440353e+00
4.045142e+01 2.083333e-01 -6.629413e-02 1.058515e+00 -3.379501e+00 3.440842e+00
4.005498e+01 2.083333e-01 -6.621175e-02 1.060406e+00 -3.388779e+00 3.450134e+00
4.160513e+01 2.343750e-01 -6.591459e-02 1.063605e+00 -3.400696e+00 3.461746e+00
4.002020e+01 2.083333e-01 -6.620084e-02 1.065417e+00 -3.404816e+00 3.466629e+00
4.048061e+01 2.239583e-01 -6.624082e-02 1.067565e+00 -3.415985e+00 3.477554e+00
4.052353e+01 2.395833e-01 -6.683639e-02 1.070049e+00 -3.424957e+00 3.487061e+00
4.006950e+01 2.083333e-01 -6.687261e-02 1.072101e+00 -3.423477e+00 3.486145e+00
4.014632e+01 2.135417e-01 -6.680771e-02 1.074358e+00 -3.431290e+00 3.494766e+00
4.009023e+01 2.083333e-01 -6.690622e-02 1.076179e+00 -3.434341e+00 3.499008e+00
4.072797e+01 2.239583e-01 -6.659901e-02 1.078737e+00 -3.445236e+00 3.510071e+00
4.051978e+01 2.187500e-01 -6.682818e-02 1.081049e+00 -3.450531e+00 3.516312e+00
4.038364e+01 2.239583e-01 -6.693673e-02 1.082948e+00 -3.462219e+00 3.526505e+00
4.046382e+01 2.239583e-01 -6.674648e-02 1.084826e+00 -3.463745e+00 3.529648e+00
4.139990e+01 2.343750e-01 -6.669298e-02 1.087589e+00 -3.479324e+00 3.543839e+00
4.100948e+01 2.343750e-01 -6.691220e-02 1.089354e+00 -3.481308e+00 3.546692e+00
4.000410e+01 2.031250e-01 -6.691520e-02 1.091095e+00 -3.480927e+00 3.547104e+00
4.013705e+01 2.135417e-01 -6.682229e-02 1.092987e+00 -3.488815e+00 3.555069e+00
3.992358e+01 2.031250e-01 -6.683108e-02 1.095480e+00 -3.497284e+00 3.563217e+00
4.023245e+01 2.187500e-01 -6.653875e-02 1.097651e+00 -3.505310e+00 3.572311e+00
4.027834e+01 2.187500e-01 -6.681418e-02 1.099323e+00 -3.509903e+00 3.578506e+00
4.090605e+01 2.291667e-01 -6.654609e-02 1.101489e+00 -3.521973e+00 3.589203e+00
4.184993e+01 2.395833e-01 -6.696059e-02 1.103260e+00 -3.531540e+00 3.599396e+00
3.972658e+01 2.083333e-01 -6.717102e-02 1.104748e+00 -3.523987e+00 3.592453e+00
4.054297e+01 2.135417e-01 -6.664614e-02 1.106696e+00 -3.533691e+00 3.602600e+00
3.990611e+01 2.031250e-01 -6.671683e-02 1.108408e+00 -3.534805e+00 3.604431e+00
4.073286e+01 2.239583e-01 -6.647105e-02 1.110640e+00 -3.544662e+00 3.615021e+00
4.100108e+01 2.395833e-01 -6.661089e-02 1.112174e+00 -3.554642e+00 3.625549e+00
3.962206e+01 1.979167e-01 -6.682905e-02 1.113818e+00 -3.548996e+00 3.620422e+00
3.979645e+01 1.927083e-01 -6.655700e-02 1.115432e+00 -3.554123e+00 3.625854e+00
3.963832e+01 2.135417e-01 -6.675035e-02 1.116913e+00 -3.563232e+00 3.635544e+00
3.963300e+01 2.031250e-01 -6.660944e-02 1.118712e+00 -3.566559e+00 3.639313e+00
3.970232e+01 2.135417e-01 -6.666816e-02 1.120220e+00 -3.576248e+00 3.650223e+00
3.951955e+01 2.031250e-01 -6.659698e-02 1.121983e+00 -3.574753e+00 3.649811e+00
3.987527e+01 2.031250e-01 -6.672446e-02 1.123604e+00 -3.576553e+00 3.652069e+00
3.952980e+01 2.135417e-01 -6.710941e-02 1.124971e+00 -3.585846e+00 3.660950e+00
4.046509e+01 2.083333e-01 -6.678463e-02 1.126809e+00 -3.587845e+00 3.664642e+00
4.043245e+01 2.291667e-01 -6.682548e-02 1.128279e+00 -3.595154e+00 3.673355e+00
4.061932e+01 2.291667e-01 -6.666130e-02 1.130181e+00 -3.602127e+00 3.680206e+00
3.932303e+01 2.135417e-01 -6.711704e-02 1.131648e+00 -3.603149e+00 3.680817e+00
3.944881e+01 2.135417e-01 -6.711501e-02 1.132674e+00 -3.612869e+00 3.690613e+00
4.000694e+01 2.135417e-01 -6.711453e-02 1.134542e+00 -3.610413e+00 3.689850e+00
3.927466e+01 2.083333e-01 -6.733539e-02 1.135830e+00 -3.613266e+00 3.692459e+00
4.005247e+01 2.135417e-01 -6.703843e-02 1.137600e+00 -3.618103e+00 3.698914e+00
3.939320e+01 2.135417e-01 -6.731415e-02 1.138825e+00 -3.620041e+00 3.700775e+00
4.035287e+01 2.239583e-01 -6.688062e-02 1.140510e+00 -3.629517e+00 3.711182e+00
3.940338e+01 1.979167e-01 -6.740560e-02 1.142192e+00 -3.629196e+00 3.711151e+00
3.918578e+01 2.083333e-01 -6.746239e-02 1.143424e+00 -3.634888e+00 3.716843e+00
3.988191e+01 2.135417e-01 -6.706904e-02 1.144945e+00 -3.635498e+00 3.718323e+00
4.043683e+01 2.239583e-01 -6.701255e-02 1.146099e+00 -3.642151e+00 3.725830e+00
3.916666e+01 2.135417e-01 -6.740541e-02 1.147465e+00 -3.645798e+00 3.729309e+00
3.916563e+01 2.083333e-01 -6.716069e-02 1.148788e+00 -3.648514e+00 3.732132e+00
3.937598e+01 2.083333e-01 -6.708256e-02 1.150430e+00 -3.651627e+00 3.736877e+00
4.038846e+01 2.239583e-01 -6.705861e-02 1.151595e+00 -3.658127e+00 3.743988e+00
3.974844e+01 2.187500e-01 -6.730932e-02 1.153299e+00 -3.660095e+00 3.745987e+00
3.947520e+01 2.291667e-01 -6.767862e-02 1.154345e+00 -3.669586e+00 3.754761e+00
3.911642e+01 2.187500e-01 -6.797057e-02 1.155626e+00 -3.669250e+00 3.755112e+00
3.969287e+01 2.187500e-01 -6.809901e-02 1.156983e+00 -3.668121e+00 3.753876e+00
3.969072e+01 2.135417e-01 -6.839434e-02 1.158196e+00 -3.672485e+00 3.758377e+00
3.944745e+01 2.135417e-01 -6.881028e-02 1.159848e+00 -3.685989e+00 3.771149e+00
3.916064e+01 2.239583e-01 -6.902043e-02 1.160631e+00 -3.686539e+00 3.772507e+00
4.043742e+01 2.239583e-01 -6.899271e-02 1.161989e+00 -3.688522e+00 3.774414e+00
4.013911e+01 2.187500e-01 -6.908475e-02 1.163359e+00 -3.690781e+00 3.776764e+00
3.913918e+01 2.135417e-01 -6.960316e-02 1.164129e+00 -3.687241e+00 3.772873e+00
3.986263e+01 2.187500e-01 -6.900797e-02 1.165957e+00 -3.697632e+00 3.783310e+00
3.959894e+01 2.083333e-01 -6.933275e-02 1.167060e+00 -3.698547e+00 3.785095e+00
3.891089e+01 2.135417e-01 -6.954550e-02 1.168132e+00 -3.704071e+00 3.790100e+00
3.969687e+01 2.083333e-01 -6.911024e-02 1.169379e+00 -3.707382e+00 3.793564e+00
4.267958e+01 2.395833e-01 -6.950929e-02 1.170904e+00 -3.723053e+00 3.809174e+00
3.996252e+01 2.187500e-01 -7.070846e-02 1.171745e+00 -3.712173e+00 3.799103e+00
3.955643e+01 2.083333e-01 -7.068441e-02 1.172771e+00 -3.714661e+00 3.801773e+00
4.038651e+01 2.187500e-01 -7.083526e-02 1.173680e+00 -3.719391e+00 3.806580e+00
3.916881e+01 2.135417e-01 -7.117337e-02 1.174416e+00 -3.718491e+00 3.806198e+00
4.055862e+01 2.187500e-01 -7.076447e-02 1.175959e+00 -3.727478e+00 3.815872e+00
4.178271e+01 2.343750e-01 -7.119654e-02 1.177082e+00 -3.734634e+00 3.822922e+00
3.932663e+01 2.031250e-01 -7.145652e-02 1.177967e+00 -3.726562e+00 3.815460e+00
4.111006e+01 2.187500e-01 -7.145662e-02 1.179225e+00 -3.735504e+00 3.824768e+00
4.080812e+01 2.187500e-01 -7.188696e-02 1.180340e+00 -3.737427e+00 3.826508e+00
3.931096e+01 2.135417e-01 -7.230715e-02 1.181069e+00 -3.729752e+00 3.819855e+00
3.910217e+01 2.031250e-01 -7.190318e-02 1.181987e+00 -3.736603e+00 3.826935e+00
3.918576e+01 2.031250e-01 -7.191004e-02 1.183426e+00 -3.741592e+00 3.831406e+00
4.229987e+01 2.395833e-01 -7.215196e-02 1.184498e+00 -3.755188e+00 3.843613e+00
3.924333e+01 2.083333e-01 -7.292610e-02 1.184753e+00 -3.740646e+00 3.830750e+00
3.946487e+01 2.083333e-01 -7.259098e-02 1.186126e+00 -3.748901e+00 3.838440e+00
3.933826e+01 2.083333e-01 -7.263106e-02 1.187173e+00 -3.751556e+00 3.840622e+00
3.929959e+01 2.135417e-01 -7.285463e-02 1.187945e+00 -3.747742e+00 3.838516e+00
3.937321e+01 2.135417e-01 -7.257138e-02 1.189142e+00 -3.753021e+00 3.842834e+00
4.125430e+01 2.083333e-01 -7.242526e-02 1.190220e+00 -3.766098e+00 3.856384e+00
3.936456e+01 2.083333e-01 -7.300529e-02 1.191047e+00 -3.761246e+00 3.851257e+00
3.938213e+01 2.135417e-01 -7.302113e-02 1.192144e+00 -3.758942e+00 3.850174e+00
3.931764e+01 2.083333e-01 -7.315450e-02 1.192541e+00 -3.761475e+00 3.851959e+00
3.986169e+01 2.083333e-01 -7.278829e-02 1.194042e+00 -3.770325e+00 3.860229e+00
3.992595e+01 2.083333e-01 -7.273913e-02 1.194461e+00 -3.772400e+00 3.863281e+00
3.904005e+01 2.239583e-01 -7.334040e-02 1.195542e+00 -3.776505e+00 3.867981e+00
3.922958e+01 2.083333e-01 -7.295343e-02 1.196156e+00 -3.770935e+00 3.862305e+00
3.972243e+01 2.083333e-01 -7.306748e-02 1.197447e+00 -3.778503e+00 3.869797e+00
3.894199e+01 2.135417e-01 -7.348411e-02 1.198349e+00 -3.775589e+00 3.867630e+00
3.973457e+01 2.135417e-01 -7.337787e-02 1.199104e+00 -3.782379e+00 3.873428e+00
3.827991e+01 2.083333e-01 -7.354389e-02 1.200219e+00 -3.784424e+00 3.876755e+00
3.921152e+01 2.135417e-01 -7.343350e-02 1.200941e+00 -3.781174e+00 3.873535e+00
3.910135e+01 2.083333e-01 -7.356610e-02 1.201822e+00 -3.783371e+00 3.875061e+00
3.817181e+01 2.083333e-01 -7.373694e-02 1.202602e+00 -3.788437e+00 3.880325e+00
3.927084e+01 2.135417e-01 -7.369705e-02 1.203857e+00 -3.790344e+00 3.881973e+00
4.092218e+01 2.083333e-01 -7.345687e-02 1.204761e+00 -3.800095e+00 3.892456e+00
4.109271e+01 2.083333e-01 -7.411117e-02 1.205570e+00 -3.801682e+00 3.894150e+00
3.927974e+01 2.187500e-01 -7.442996e-02 1.206561e+00 -3.796478e+00 3.889542e+00
3.789417e+01 2.031250e-01 -7.420716e-02 1.207242e+00 -3.800095e+00 3.892838e+00
3.831422e+01 2.031250e-01 -7.434546e-02 1.207866e+00 -3.799637e+00 3.892685e+00
3.933559e+01 2.135417e-01 -7.402589e-02 1.208849e+00 -3.804413e+00 3.898071e+00
3.911485e+01 2.135417e-01 -7.413995e-02 1.209758e+00 -3.801727e+00 3.895889e+00
3.927509e+01 2.135417e-01 -7.418987e-02 1.210343e+00 -3.805511e+00 3.900070e+00
3.807486e+01 2.031250e-01 -7.407485e-02 1.211873e+00 -3.813126e+00 3.907227e+00
3.848976e+01 2.083333e-01 -7.416573e-02 1.212162e+00 -3.810059e+00 3.903534e+00
3.947104e+01 2.187500e-01 -7.403168e-02 1.213383e+00 -3.814270e+00 3.908020e+00
3.925455e+01 2.135417e-01 -7.411889e-02 1.213969e+00 -3.813248e+00 3.907730e+00
3.918126e+01 2.135417e-01 -7.384790e-02 1.215408e+00 -3.816452e+00 3.910873e+00
4.003235e+01 2.187500e-01 -7.375973e-02 1.216075e+00 -3.823807e+00 3.917801e+00
3.954187e+01 2.083333e-01 -7.414564e-02 1.216454e+00 -3.823318e+00 3.917465e+00
3.835226e+01 2.083333e-01 -7.424483e-02 1.217133e+00 -3.823181e+00 3.917999e+00
3.836519e+01 2.135417e-01 -7.405370e-02 1.217670e+00 -3.823441e+00 3.918442e+00
3.973645e+01 2.187500e-01 -7.426491e-02 1.218802e+00 -3.826935e+00 3.922028e+00
3.946042e+01 2.135417e-01 -7.400049e-02 1.219466e+00 -3.825577e+00 3.920868e+00
3.974673e+01 2.135417e-01 -7.377364e-02 1.220221e+00 -3.830963e+00 3.927155e+00
3.796323e+01 2.031250e-01 -7.403777e-02 1.220848e+00 -3.830093e+00 3.926605e+00
3.951070e+01 2.187500e-01 -7.368720e-02 1.221402e+00 -3.832047e+00 3.929245e+00
3.909816e+01 2.135417e-01 -7.375886e-02 1.222507e+00 -3.831009e+00 3.928253e+00
3.927194e+01 2.031250e-01 -7.372052e-02 1.223315e+00 -3.838409e+00 3.935104e+00
3.974312e+01 2.083333e-01 -7.397104e-02 1.224239e+00 -3.839325e+00 3.935547e+00
3.939508e+01 2.083333e-01 -7.400619e-02 1.224575e+00 -3.841507e+00 3.938324e+00
3.941339e+01 2.135417e-01 -7.383998e-02 1.225316e+00 -3.837601e+00 3.935822e+00
3.806528e+01 2.135417e-01 -7.422290e-02 1.225692e+00 -3.841110e+00 3.939499e+00
3.939975e+01 2.135417e-01 -7.396775e-02 1.226851e+00 -3.840912e+00 3.937973e+00
3.866737e+01 2.135417e-01 -7.428935e-02 1.227379e+00 -3.840912e+00 3.939316e+00
3.962666e+01 2.083333e-01 -7.384906e-02 1.228411e+00 -3.844788e+00 3.942825e+00
3.908652e+01 2.187500e-01 -7.400783e-02 1.229010e+00 -3.844086e+00 3.943115e+00
3.869624e+01 2.135417e-01 -7.374061e-02 1.229726e+00 -3.846710e+00 3.945938e+00
3.810941e+01 2.083333e-01 -7.382994e-02 1.230432e+00 -3.850769e+00 3.949692e+00
3.837354e+01 2.135417e-01 -7.380792e-02 1.231293e+00 -3.852936e+00 3.950836e+00
3.808580e+01 2.083333e-01 -7.412314e-02 1.232138e+00 -3.857468e+00 3.955597e+00
3.959082e+01 2.083333e-01 -7.398552e-02 1.232520e+00 -3.860352e+00 3.957504e+00
3.831111e+01 2.135417e-01 -7.422725e-02 1.233587e+00 -3.858124e+00 3.955887e+00
3.984155e+01 2.135417e-01 -7.410093e-02 1.234150e+00 -3.862518e+00 3.960297e+00
3.945694e+01 2.135417e-01 -7.426907e-02 1.234495e+00 -3.862030e+00 3.960220e+00
3.805054e+01 2.135417e-01 -7.450809e-02 1.235258e+00 -3.864029e+00 3.962311e+00
3.846069e+01 2.135417e-01 -7.444280e-02 1.235623e+00 -3.863480e+00 3.961716e+00
3.937233e+01 2.083333e-01 -7.459887e-02 1.236276e+00 -3.865402e+00 3.963547e+00
3.943718e+01 2.187500e-01 -7.479347e-02 1.236670e+00 -3.861343e+00 3.960373e+00
3.962383e+01 2.083333e-01 -7.439944e-02 1.237803e+00 -3.866776e+00 3.965332e+00
3.949207e+01 2.135417e-01 -7.435531e-02 1.238137e+00 -3.864395e+00 3.963196e+00
4.066583e+01 2.135417e-01 -7.467091e-02 1.238961e+00 -3.876511e+00 3.974426e+00
3.942064e+01 2.083333e-01 -7.537117e-02 1.239463e+00 -3.870102e+00 3.968155e+00
3.968066e+01 2.135417e-01 -7.505702e-02 1.239637e+00 -3.865555e+00 3.964432e+00
3.962691e+01 2.135417e-01 -7.521376e-02 1.240192e+00 -3.867004e+00 3.965515e+00
3.966974e+01 2.135417e-01 -7.509681e-02 1.240924e+00 -3.872391e+00 3.970734e+00
3.933154e+01 2.031250e-01 -7.510772e-02 1.241505e+00 -3.868286e+00 3.968018e+00
3.796310e+01 2.031250e-01 -7.548079e-02 1.241902e+00 -3.874908e+00 3.974579e+00
3.805968e+01 2.031250e-01 -7.559417e-02 1.242793e+00 -3.880112e+00 3.979019e+00
3.972072e+01 2.083333e-01 -7.531226e-02 1.243521e+00 -3.873886e+00 3.973389e+00
3.925317e+01 2.031250e-01 -7.544679e-02 1.244587e+00 -3.876266e+00 3.975723e+00
3.996368e+01 2.083333e-01 -7.535650e-02 1.244886e+00 -3.882217e+00 3.982132e+00
3.976704e+01 2.083333e-01 -7.573594e-02 1.245690e+00 -3.882263e+00 3.981369e+00
3.869049e+01 2.083333e-01 -7.604034e-02 1.245733e+00 -3.877533e+00 3.977600e+00
4.013426e+01 2.083333e-01 -7.578538e-02 1.246261e+00 -3.887848e+00 3.987183e+00
3.870654e+01 2.083333e-01 -7.639091e-02 1.247153e+00 -3.878632e+00 3.978607e+00
3.948793e+01 2.083333e-01 -7.631374e-02 1.247570e+00 -3.882690e+00 3.982910e+00
3.825197e+01 2.187500e-01 -7.635092e-02 1.247961e+00 -3.884171e+00 3.984802e+00
3.998582e+01 2.083333e-01 -7.608544e-02 1.248879e+00 -3.891327e+00 3.991653e+00
3.993881e+01 2.135417e-01 -7.665233e-02 1.249150e+00 -3.887314e+00 3.987961e+00
3.865092e+01 2.083333e-01 -7.677218e-02 1.249702e+00 -3.882095e+00 3.983063e+00
3.885869e+01 2.083333e-01 -7.652428e-02 1.250346e+00 -3.884476e+00 3.984833e+00
3.869830e+01 2.083333e-01 -7.635624e-02 1.250883e+00 -3.886078e+00 3.986404e+00
3.980379e+01 2.135417e-01 -7.639912e-02 1.251316e+00 -3.889847e+00 3.990158e+00
4.031602e+01 2.135417e-01 -7.641611e-02 1.252211e+00 -3.897537e+00 3.998016e+00
3.967787e+01 2.135417e-01 -7.682540e-02 1.253053e+00 -3.893906e+00 3.993973e+00
4.039574e+01 2.083333e-01 -7.716090e-02 1.253335e+00 -3.899078e+00 3.998764e+00
3.869377e+01 2.135417e-01 -7.750943e-02 1.254096e+00 -3.891922e+00 3.991882e+00
3.862888e+01 2.083333e-01 -7.702366e-02 1.254476e+00 -3.893997e+00 3.995300e+00
3.875548e+01 2.083333e-01 -7.698890e-02 1.255188e+00 -3.893387e+00 3.994049e+00
3.916585e+01 2.187500e-01 -7.704481e-02 1.255883e+00 -3.894547e+00 3.995346e+00
4.025395e+01 2.135417e-01 -7.726442e-02 1.256073e+00 -3.901398e+00 4.001495e+00
3.947371e+01 2.135417e-01 -7.751706e-02 1.256708e+00 -3.897705e+00 3.997284e+00
4.000874e+01 2.135417e-01 -7.694998e-02 1.257854e+00 -3.903229e+00 4.002731e+00
3.947473e+01 2.135417e-01 -7.792818e-02 1.257994e+00 -3.900696e+00 3.999130e+00
3.910316e+01 2.135417e-01 -7.768047e-02 1.258438e+00 -3.900894e+00 4.000290e+00
3.828522e+01 2.135417e-01 -7.805450e-02 1.259243e+00 -3.903717e+00 4.002014e+00
3.857568e+01 2.135417e-01 -7.780225e-02 1.259947e+00 -3.903168e+00 4.002075e+00
4.042905e+01 2.135417e-01 -7.753734e-02 1.260630e+00 -3.910156e+00 4.008759e+00
3.845909e+01 2.135417e-01 -7.839184e-02 1.261202e+00 -3.914871e+00 4.011993e+00
4.052930e+01 2.135417e-01 -7.793600e-02 1.261492e+00 -3.913132e+00 4.011765e+00
4.076851e+01 2.135417e-01 -7.887171e-02 1.262630e+00 -3.914398e+00 4.011673e+00
4.085892e+01 2.187500e-01 -7.927781e-02 1.262608e+00 -3.916443e+00 4.014420e+00
3.979030e+01 2.135417e-01 -7.972466e-02 1.262945e+00 -3.912247e+00 4.008881e+00
3.860249e+01 2.083333e-01 -7.994360e-02 1.263521e+00 -3.910812e+00 4.007004e+00
3.790865e+01 1.979167e-01 -7.945184e-02 1.264199e+00 -3.914597e+00 4.010376e+00
4.047169e+01 2.083333e-01 -7.968149e-02 1.264889e+00 -3.919205e+00 4.015289e+00
3.847841e+01 2.135417e-01 -8.018059e-02 1.265390e+00 -3.911713e+00 4.007629e+00
3.845592e+01 2.135417e-01 -7.986064e-02 1.265964e+00 -3.914780e+00 4.010590e+00
3.832845e+01 2.083333e-01 -7.992612e-02 1.266756e+00 -3.918503e+00 4.014359e+00
4.018129e+01 2.083333e-01 -7.975624e-02 1.267592e+00 -3.924454e+00 4.020493e+00
3.952058e+01 2.187500e-01 -8.034197e-02 1.267875e+00 -3.921280e+00 4.017624e+00
3.906148e+01 2.187500e-01 -8.026084e-02 1.268478e+00 -3.920074e+00 4.015961e+00
4.140707e+01 2.187500e-01 -8.005408e-02 1.269137e+00 -3.931381e+00 4.026855e+00
3.915468e+01 2.187500e-01 -8.090307e-02 1.269541e+00 -3.923141e+00 4.018051e+00
4.013878e+01 2.083333e-01 -8.079374e-02 1.270058e+00 -3.929764e+00 4.024872e+00
4.030966e+01 2.135417e-01 -8.104532e-02 1.270307e+00 -3.930435e+00 4.025223e+00
3.865036e+01 2.083333e-01 -8.119945e-02 1.271145e+00 -3.924438e+00 4.019852e+00
3.790477e+01 1.979167e-01 -8.094189e-02 1.271970e+00 -3.930710e+00 4.025681e+00
3.806055e+01 1.979167e-01 -8.153495e-02 1.271865e+00 -3.932434e+00 4.026566e+00
3.844562e+01 2.083333e-01 -8.129052e-02 1.272799e+00 -3.930374e+00 4.024719e+00
3.941206e+01 2.187500e-01 -8.140390e-02 1.273164e+00 -3.931229e+00 4.025314e+00
4.082765e+01 2.239583e-01 -8.144746e-02 1.273876e+00 -3.938644e+00 4.032349e+00
4.079263e+01 2.239583e-01 -8.189894e-02 1.274414e+00 -3.939560e+00 4.032928e+00
3.942825e+01 2.135417e-01 -8.237515e-02 1.274138e+00 -3.930679e+00 4.024597e+00
3.959177e+01 2.187500e-01 -8.183916e-02 1.275243e+00 -3.933426e+00 4.027344e+00
4.085478e+01 2.239583e-01 -8.201570e-02 1.275705e+00 -3.942154e+00 4.036163e+00
3.852788e+01 2.135417e-01 -8.276406e-02 1.276106e+00 -3.940536e+00 4.034805e+00
4.010286e+01 2.187500e-01 -8.246072e-02 1.276520e+00 -3.938477e+00 4.032196e+00
3.797147e+01 2.031250e-01 -8.301979e-02 1.276853e+00 -3.934097e+00 4.027802e+00
3.858975e+01 2.083333e-01 -8.259486e-02 1.277725e+00 -3.937088e+00 4.031265e+00
3.948608e+01 2.187500e-01 -8.299584e-02 1.277712e+00 -3.938232e+00 4.031738e+00
3.791966e+01 2.031250e-01 -8.290593e-02 1.278724e+00 -3.939987e+00 4.033585e+00
3.901945e+01 2.135417e-01 -8.307657e-02 1.278921e+00 -3.938446e+00 4.032364e+00
3.901265e+01 2.135417e-01 -8.317218e-02 1.279725e+00 -3.939117e+00 4.032440e+00
3.944064e+01 2.187500e-01 -8.308778e-02 1.279920e+00 -3.942703e+00 4.036072e+00
3.960962e+01 2.187500e-01 -8.346983e-02 1.280764e+00 -3.944199e+00 4.037262e+00
4.050313e+01 2.135417e-01 -8.335645e-02 1.281551e+00 -3.948120e+00 4.041565e+00
4.039462e+01 2.135417e-01 -8.376196e-02 1.281932e+00 -3.948807e+00 4.042145e+00
3.844479e+01 2.135417e-01 -8.424542e-02 1.281912e+00 -3.941772e+00 4.034439e+00
4.102660e+01 2.187500e-01 -8.416912e-02 1.282574e+00 -3.953049e+00 4.045822e+00
3.774077e+01 1.927083e-01 -8.459656e-02 1.283204e+00 -3.946854e+00 4.039444e+00
3.940894e+01 2.187500e-01 -8.418119e-02 1.283854e+00 -3.947311e+00 4.039474e+00
3.920970e+01 2.187500e-01 -8.445778e-02 1.284261e+00 -3.949509e+00 4.041321e+00
3.911478e+01 2.187500e-01 -8.450404e-02 1.284831e+00 -3.949051e+00 4.041275e+00
3.826627e+01 2.135417e-01 -8.460825e-02 1.285230e+00 -3.950745e+00 4.042694e+00
3.959912e+01 2.187500e-01 -8.462843e-02 1.285558e+00 -3.953873e+00 4.045700e+00
4.006390e+01 2.135417e-01 -8.477889e-02 1.286271e+00 -3.955765e+00 4.047272e+00
3.790237e+01 2.031250e-01 -8.526766e-02 1.286817e+00 -3.952728e+00 4.044495e+00
3.838608e+01 2.135417e-01 -8.539069e-02 1.286952e+00 -3.962540e+00 4.053650e+00
3.797871e+01 1.979167e-01 -8.593702e-02 1.287012e+00 -3.953949e+00 4.044388e+00
3.825473e+01 2.135417e-01 -8.591983e-02 1.287884e+00 -3.953247e+00 4.045441e+00
3.895213e+01 2.083333e-01 -8.602461e-02 1.288595e+00 -3.955307e+00 4.046646e+00
3.841747e+01 2.135417e-01 -8.632728e-02 1.288772e+00 -3.952438e+00 4.044220e+00
3.970741e+01 2.135417e-01 -8.604122e-02 1.290000e+00 -3.960251e+00 4.051239e+00
4.062103e+01 2.083333e-01 -8.639266e-02 1.290295e+00 -3.965256e+00 4.056351e+00
3.817857e+01 2.135417e-01 -8.692671e-02 1.290872e+00 -3.957642e+00 4.048996e+00
3.822534e+01 2.031250e-01 -8.700001e-02 1.291079e+00 -3.962845e+00 4.054077e+00
3.869290e+01 2.083333e-01 -8.689021e-02 1.291506e+00 -3.958435e+00 4.049850e+00
3.907948e+01 2.135417e-01 -8.707003e-02 1.292067e+00 -3.962845e+00 4.054413e+00
3.852373e+01 2.031250e-01 -8.719732e-02 1.292613e+00 -3.959320e+00 4.051315e+00
4.086385e+01 2.083333e-01 -8.685197e-02 1.293510e+00 -3.970703e+00 4.062714e+00
3.893304e+01 2.031250e-01 -8.757444e-02 1.293631e+00 -3.962158e+00 4.054398e+00
3.775294e+01 2.031250e-01 -8.760766e-02 1.293853e+00 -3.962265e+00 4.054886e+00
3.783807e+01 2.083333e-01 -8.786329e-02 1.294352e+00 -3.965256e+00 4.057846e+00
3.834053e+01 2.031250e-01 -8.779733e-02 1.294881e+00 -3.965103e+00 4.056870e+00
3.946587e+01 2.135417e-01 -8.769863e-02 1.295584e+00 -3.967972e+00 4.059967e+00
3.837532e+01 2.031250e-01 -8.806011e-02 1.296030e+00 -3.965286e+00 4.057846e+00
3.911682e+01 2.031250e-01 -8.818943e-02 1.296270e+00 -3.966599e+00 4.059448e+00
3.826634e+01 2.031250e-01 -8.823192e-02 1.296477e+00 -3.964279e+00 4.057053e+00
3.807481e+01 1.979167e-01 -8.809662e-02 1.297111e+00 -3.968781e+00 4.061508e+00
3.855679e+01 2.031250e-01 -8.807112e-02 1.297594e+00 -3.967651e+00 4.060532e+00
3.883459e+01 2.031250e-01 -8.847847e-02 1.297971e+00 -3.967041e+00 4.060135e+00
3.815080e+01 2.031250e-01 -8.856443e-02 1.298475e+00 -3.967834e+00 4.061035e+00
3.910736e+01 2.135417e-01 -8.832473e-02 1.299086e+00 -3.972916e+00 4.065781e+00
3.805429e+01 2.083333e-01 -8.892137e-02 1.299380e+00 -3.970963e+00 4.063522e+00
3.797038e+01 2.083333e-01 -8.890379e-02 1.300268e+00 -3.979568e+00 4.072235e+00
3.929529e+01 2.135417e-01 -8.861049e-02 1.300808e+00 -3.975830e+00 4.069244e+00
3.865526e+01 2.031250e-01 -8.909240e-02 1.301306e+00 -3.973801e+00 4.066895e+00
3.850790e+01 2.031250e-01 -8.886825e-02 1.301654e+00 -3.974670e+00 4.067703e+00
3.855605e+01 2.031250e-01 -8.904904e-02 1.302228e+00 -3.974747e+00 4.068054e+00
3.781790e+01 2.083333e-01 -8.964857e-02 1.302482e+00 -3.982635e+00 4.075623e+00
3.913611e+01 2.135417e-01 -8.947995e-02 1.302842e+00 -3.978836e+00 4.071564e+00
3.894872e+01 2.083333e-01 -8.979778e-02 1.303159e+00 -3.976364e+00 4.069702e+00
4.042117e+01 2.083333e-01 -8.936580e-02 1.304194e+00 -3.983856e+00 4.077042e+00
4.142380e+01 2.135417e-01 -8.988576e-02 1.304589e+00 -3.989792e+00 4.082550e+00
4.000479e+01 2.083333e-01 -9.104388e-02 1.304468e+00 -3.981613e+00 4.074844e+00
4.094395e+01 2.135417e-01 -9.132318e-02 1.304918e+00 -3.985947e+00 4.079346e+00
3.878580e+01 2.031250e-01 -9.164689e-02 1.304921e+00 -3.973755e+00 4.067596e+00
3.815123e+01 1.927083e-01 -9.150319e-02 1.305679e+00 -3.977890e+00 4.071930e+00
3.801915e+01 1.875000e-01 -9.142149e-02 1.306155e+00 -3.979370e+00 4.073471e+00
3.878946e+01 2.031250e-01 -9.143936e-02 1.306649e+00 -3.977524e+00 4.071823e+00
3.902187e+01 2.135417e-01 -9.132752e-02 1.307509e+00 -3.979584e+00 4.073593e+00
3.836247e+01 1.927083e-01 -9.146620e-02 1.308050e+00 -3.981064e+00 4.075256e+00
3.855377e+01 1.979167e-01 -9.171488e-02 1.307921e+00 -3.979584e+00 4.073532e+00
3.788742e+01 1.927083e-01 -9.211760e-02 1.308764e+00 -3.986649e+00 4.080704e+00
3.814761e+01 1.875000e-01 -9.254929e-02 1.308806e+00 -3.983276e+00 4.077057e+00
3.911130e+01 2.135417e-01 -9.212668e-02 1.309642e+00 -3.982956e+00 4.077118e+00
3.916843e+01 2.135417e-01 -9.257247e-02 1.309712e+00 -3.982513e+00 4.077026e+00
4.052151e+01 1.979167e-01 -9.249878e-02 1.310398e+00 -3.990311e+00 4.084503e+00
3.818559e+01 2.031250e-01 -9.347109e-02 1.310468e+00 -3.986496e+00 4.080276e+00
3.996046e+01 2.135417e-01 -9.285157e-02 1.311311e+00 -3.986465e+00 4.080368e+00
3.773996e+01 1.875000e-01 -9.352778e-02 1.311453e+00 -3.985764e+00 4.079346e+00
3.870526e+01 2.031250e-01 -9.341962e-02 1.311658e+00 -3.981552e+00 4.075638e+00
3.873920e+01 2.083333e-01 -9.335134e-02 1.312429e+00 -3.982986e+00 4.076965e+00
3.818021e+01 1.875000e-01 -9.366231e-02 1.312750e+00 -3.984741e+00 4.078995e+00
3.818356e+01 1.875000e-01 -9.358312e-02 1.313442e+00 -3.987823e+00 4.082352e+00
3.796831e+01 1.875000e-01 -9.344038e-02 1.314044e+00 -3.989883e+00 4.083923e+00
3.783473e+01 1.927083e-01 -9.403625e-02 1.313908e+00 -3.989334e+00 4.083450e+00
3.784167e+01 1.927083e-01 -9.409178e-02 1.314763e+00 -3.991928e+00 4.086136e+00
3.783879e+01 1.927083e-01 -9.378100e-02 1.315271e+00 -3.994476e+00 4.087921e+00
3.893544e+01 2.083333e-01 -9.398825e-02 1.315579e+00 -3.987167e+00 4.082153e+00
3.847682e+01 1.875000e-01 -9.442699e-02 1.315943e+00 -3.987122e+00 4.082611e+00
3.889528e+01 2.083333e-01 -9.413697e-02 1.316466e+00 -3.988220e+00 4.082657e+00
3.874783e+01 2.083333e-01 -9.421578e-02 1.316978e+00 -3.987122e+00 4.082001e+00
3.935835e+01 2.135417e-01 -9.398622e-02 1.317580e+00 -3.992569e+00 4.087799e+00
3.985579e+01 2.083333e-01 -9.420564e-02 1.317866e+00 -3.994858e+00 4.089462e+00
3.887561e+01 2.083333e-01 -9.449420e-02 1.318488e+00 -3.989899e+00 4.084717e+00
3.906175e+01 2.083333e-01 -9.437600e-02 1.318780e+00 -3.993195e+00 4.087677e+00
3.795367e+01 1.979167e-01 -9.481840e-02 1.318980e+00 -3.995514e+00 4.090134e+00
3.868671e+01 2.083333e-01 -9.440207e-02 1.319755e+00 -3.995026e+00 4.089401e+00
3.800636e+01 1.927083e-01 -9.508456e-02 1.319982e+00 -3.994614e+00 4.089523e+00
3.879460e+01 2.083333e-01 -9.491372e-02 1.320350e+00 -3.993042e+00 4.087662e+00
3.897421e+01 2.083333e-01 -9.523879e-02 1.321085e+00 -3.993210e+00 4.087875e+00
3.895766e+01 2.083333e-01 -9.505791e-02 1.321454e+00 -3.994614e+00 4.088974e+00
3.850945e+01 2.031250e-01 -9.486457e-02 1.321921e+00 -3.996811e+00 4.091064e+00
4.144951e+01 2.083333e-01 -9.491875e-02 1.322705e+00 -4.006424e+00 4.100555e+00
3.926675e+01 2.187500e-01 -9.588604e-02 1.322424e+00 -3.996033e+00 4.091217e+00
3.889505e+01 2.135417e-01 -9.560877e-02 1.322714e+00 -3.994598e+00 4.089859e+00
3.833739e+01 2.031250e-01 -9.579053e-02 1.323186e+00 -3.993835e+00 4.089188e+00
3.908112e+01 2.135417e-01 -9.562258e-02 1.323607e+00 -3.994812e+00 4.090408e+00
3.952463e+01 2.135417e-01 -9.525618e-02 1.324466e+00 -4.000748e+00 4.096130e+00
4.229950e+01 2.135417e-01 -9.610941e-02 1.324881e+00 -4.009064e+00 4.104797e+00
3.919890e+01 2.187500e-01 -9.718622e-02 1.324632e+00 -3.997406e+00 4.094482e+00
3.875040e+01 2.135417e-01 -9.712374e-02 1.324814e+00 -3.993774e+00 4.090317e+00
3.883093e+01 2.135417e-01 -9.669408e-02 1.325318e+00 -3.994705e+00 4.091354e+00
3.883968e+01 2.187500e-01 -9.669939e-02 1.325942e+00 -3.998764e+00 4.095871e+00
3.838211e+01 2.135417e-01 -9.693136e-02 1.326267e+00 -3.996140e+00 4.092819e+00
3.874315e+01 2.135417e-01 -9.687400e-02 1.326807e+00 -3.997833e+00 4.093567e+00
3.983623e+01 2.135417e-01 -9.666897e-02 1.327251e+00 -4.004730e+00 4.100861e+00
3.884868e+01 2.187500e-01 -9.679345e-02 1.327801e+00 -4.002319e+00 4.099091e+00
3.822072e+01 2.135417e-01 -9.666829e-02 1.328164e+00 -4.001404e+00 4.098892e+00
3.875920e+01 2.187500e-01 -9.651609e-02 1.328643e+00 -4.002457e+00 4.099808e+00
3.898633e+01 2.135417e-01 -9.669543e-02 1.329141e+00 -4.000504e+00 4.098541e+00
3.871669e+01 2.135417e-01 -9.632903e-02 1.329542e+00 -4.000687e+00 4.099060e+00
3.782294e+01 2.083333e-01 -9.635578e-02 1.330055e+00 -4.005615e+00 4.105042e+00
3.947833e+01 2.135417e-01 -9.634921e-02 1.330089e+00 -4.005981e+00 4.103912e+00
4.043721e+01 2.083333e-01 -9.680572e-02 1.330719e+00 -4.008179e+00 4.105896e+00
3.761293e+01 2.083333e-01 -9.735040e-02 1.330511e+00 -4.000793e+00 4.099808e+00
3.793810e+01 2.031250e-01 -9.715464e-02 1.331172e+00 -4.004761e+00 4.103287e+00
3.823511e+01 2.083333e-01 -9.728994e-02 1.331438e+00 -4.002457e+00 4.100647e+00
3.835191e+01 2.083333e-01 -9.711128e-02 1.331698e+00 -4.002823e+00 4.101379e+00
3.995029e+01 2.083333e-01 -9.678775e-02 1.332669e+00 -4.009033e+00 4.107483e+00
3.819615e+01 2.083333e-01 -9.725933e-02 1.332684e+00 -4.002838e+00 4.102814e+00
3.780069e+01 2.083333e-01 -9.727381e-02 1.332942e+00 -4.009506e+00 4.109802e+00
3.796179e+01 2.083333e-01 -9.751796e-02 1.333391e+00 -4.006805e+00 4.107132e+00
3.834023e+01 2.135417e-01 -9.735977e-02 1.333496e+00 -4.002060e+00 4.101669e+00
4.099298e+01 2.135417e-01 -9.731814e-02 1.334291e+00 -4.012512e+00 4.111923e+00
3.833611e+01 2.187500e-01 -9.813941e-02 1.334926e+00 -4.000992e+00 4.102203e+00
3.818980e+01 2.135417e-01 -9.807857e-02 1.334962e+00 -4.008209e+00 4.110291e+00
3.762340e+01 2.083333e-01 -9.840596e-02 1.335064e+00 -4.006378e+00 4.107391e+00
3.816905e+01 2.135417e-01 -9.837998e-02 1.335896e+00 -4.007187e+00 4.107651e+00
3.834351e+01 2.187500e-01 -9.837766e-02 1.336235e+00 -4.005066e+00 4.105438e+00
3.919450e+01 2.083333e-01 -9.797099e-02 1.336890e+00 -4.008682e+00 4.110199e+00
3.824365e+01 2.135417e-01 -9.850678e-02 1.336752e+00 -4.001358e+00 4.103760e+00
3.801714e+01 2.083333e-01 -9.842180e-02 1.337056e+00 -4.002014e+00 4.105545e+00
3.756834e+01 2.031250e-01 -9.823637e-02 1.337482e+00 -4.009262e+00 4.111404e+00
3.962970e+01 2.083333e-01 -9.848950e-02 1.337615e+00 -4.011124e+00 4.112228e+00
3.782187e+01 2.031250e-01 -9.890216e-02 1.338316e+00 -4.008591e+00 4.110947e+00
3.757358e+01 2.083333e-01 -9.886198e-02 1.338176e+00 -4.008591e+00 4.110596e+00
3.838690e+01 2.135417e-01 -9.877420e-02 1.338662e+00 -4.004868e+00 4.108612e+00
3.852011e+01 2.187500e-01 -9.871113e-02 1.339395e+00 -4.004974e+00 4.109344e+00
3.844972e+01 2.187500e-01 -9.823695e-02 1.339886e+00 -4.005936e+00 4.110138e+00
3.763400e+01 2.031250e-01 -9.865145e-02 1.339828e+00 -4.007111e+00 4.111374e+00
3.845378e+01 2.187500e-01 -9.880336e-02 1.340150e+00 -4.004898e+00 4.109848e+00
4.052324e+01 2.083333e-01 -9.891433e-02 1.340583e+00 -4.015121e+00 4.118729e+00
3.844553e+01 2.187500e-01 -9.912293e-02 1.341076e+00 -4.005341e+00 4.110229e+00
3.856332e+01 2.187500e-01 -9.858501e-02 1.341456e+00 -4.007919e+00 4.113831e+00
3.783960e+01 2.031250e-01 -9.897787e-02 1.341790e+00 -4.010727e+00 4.116974e+00
3.808809e+01 1.979167e-01 -9.993705e-02 1.341501e+00 -4.008728e+00 4.113541e+00
3.858366e+01 2.135417e-01 -9.955491e-02 1.342294e+00 -4.008163e+00 4.113266e+00
3.825562e+01 2.083333e-01 -9.946741e-02 1.342575e+00 -4.007492e+00 4.114044e+00
4.029053e+01 2.135417e-01 -9.939923e-02 1.343241e+00 -4.014862e+00 4.120270e+00
3.943550e+01 2.083333e-01 -1.000852e-01 1.343533e+00 -4.010834e+00 4.116165e+00
3.855461e+01 2.135417e-01 -1.004076e-01 1.343563e+00 -4.004089e+00 4.111328e+00
3.878877e+01 2.187500e-01 -9.949397e-02 1.344228e+00 -4.008575e+00 4.116516e+00
3.838791e+01 2.135417e-01 -9.994478e-02 1.344133e+00 -4.004227e+00 4.112061e+00
3.790427e+01 2.031250e-01 -9.936359e-02 1.345036e+00 -4.010056e+00 4.118454e+00
3.774811e+01 2.031250e-01 -9.986037e-02 1.345095e+00 -4.009903e+00 4.118576e+00
3.791393e+01 2.083333e-01 -1.008297e-01 1.345498e+00 -4.025543e+00 4.124207e+00
3.826906e+01 2.083333e-01 -1.012362e-01 1.345548e+00 -4.013306e+00 4.120468e+00
3.799484e+01 2.083333e-01 -1.009002e-01 1.346285e+00 -4.016205e+00 4.124023e+00
3.885120e+01 2.083333e-01 -1.012369e-01 1.346414e+00 -4.009338e+00 4.116608e+00
3.882085e+01 2.083333e-01 -1.015448e-01 1.346939e+00 -4.006592e+00 4.114944e+00
3.803841e+01 2.083333e-01 -1.013083e-01 1.347469e+00 -4.009048e+00 4.117554e+00
3.863829e+01 2.031250e-01 -1.010579e-01 1.347794e+00 -4.009888e+00 4.118423e+00
3.772993e+01 2.031250e-01 -1.012640e-01 1.348084e+00 -4.008484e+00 4.117554e+00
4.024701e+01 2.083333e-01 -1.007801e-01 1.348531e+00 -4.016022e+00 4.125488e+00
4.163156e+01 2.083333e-01 -1.019267e-01 1.348802e+00 -4.037018e+00 4.127319e+00
3.915724e+01 2.187500e-01 -1.030852e-01 1.348852e+00 -4.018951e+00 4.115845e+00
3.878561e+01 2.083333e-01 -1.023780e-01 1.349297e+00 -4.004227e+00 4.113693e+00
3.907649e+01 2.187500e-01 -1.020406e-01 1.349863e+00 -4.006317e+00 4.117935e+00
3.971510e+01 2.135417e-01 -1.022373e-01 1.349839e+00 -4.015472e+00 4.120758e+00
3.791414e+01 2.031250e-01 -1.023417e-01 1.350360e+00 -4.018173e+00 4.116638e+00
4.042378e+01 2.031250e-01 -1.018497e-01 1.350901e+00 -4.015533e+00 4.123810e+00
3.752608e+01 2.031250e-01 -1.025260e-01 1.351568e+00 -4.034134e+00 4.124100e+00
3.920113e+01 2.187500e-01 -1.021447e-01 1.351450e+00 -4.008682e+00 4.119720e+00
3.891966e+01 2.083333e-01 -1.024819e-01 1.351808e+00 -4.006592e+00 4.116623e+00
4.010155e+01 2.135417e-01 -1.019681e-01 1.352226e+00 -4.019073e+00 4.124084e+00
4.042651e+01 2.083333e-01 -1.025525e-01 1.352610e+00 -4.035233e+00 4.123886e+00
4.013058e+01 2.083333e-01 -1.027109e-01 1.352949e+00 -4.027527e+00 4.122101e+00
3.785666e+01 2.031250e-01 -1.031540e-01 1.353283e+00 -4.020416e+00 4.116333e+00
3.779832e+01 2.031250e-01 -1.030113e-01 1.353374e+00 -4.027603e+00 4.121246e+00
4.095164e+01 2.083333e-01 -1.029338e-01 1.353755e+00 -4.032715e+00 4.123962e+00
3.905855e+01 2.187500e-01 -1.033065e-01 1.353715e+00 -4.022415e+00 4.117050e+00
3.968333e+01 2.135417e-01 -1.028919e-01 1.354448e+00 -4.017914e+00 4.120514e+00
3.860162e+01 1.979167e-01 -1.030548e-01 1.354869e+00 -4.012222e+00 4.115479e+00
3.758058e+01 2.031250e-01 -1.027828e-01 1.355342e+00 -4.024826e+00 4.121307e+00
3.967018e+01 2.135417e-01 -1.029531e-01 1.355193e+00 -4.015701e+00 4.121231e+00
3.776982e+01 2.031250e-01 -1.033737e-01 1.356036e+00 -4.019730e+00 4.118240e+00
3.940361e+01 2.083333e-01 -1.030243e-01 1.356225e+00 -4.020554e+00 4.120728e+00
3.774582e+01 2.135417e-01 -1.037379e-01 1.356585e+00 -4.036636e+00 4.119705e+00
3.900429e+01 2.135417e-01 -1.029878e-01 1.356858e+00 -4.007492e+00 4.117996e+00
3.776144e+01 1.979167e-01 -1.035572e-01 1.356945e+00 -4.022934e+00 4.116898e+00
3.785799e+01 1.979167e-01 -1.036796e-01 1.357274e+00 -4.025955e+00 4.118637e+00
3.753143e+01 2.135417e-01 -1.041925e-01 1.357595e+00 -4.042038e+00 4.122833e+00
3.854369e+01 2.031250e-01 -1.041639e-01 1.357893e+00 -4.018753e+00 4.117584e+00
3.846782e+01 2.031250e-01 -1.037952e-01 1.358216e+00 -4.019012e+00 4.118240e+00
3.927434e+01 2.135417e-01 -1.036261e-01 1.359038e+00 -4.023422e+00 4.121750e+00
4.074095e+01 2.031250e-01 -1.036811e-01 1.359333e+00 -4.030106e+00 4.126801e+00
3.865306e+01 2.031250e-01 -1.047234e-01 1.359186e+00 -4.020691e+00 4.116364e+00
3.801343e+01 1.979167e-01 -1.041428e-01 1.359537e+00 -4.019058e+00 4.118759e+00
3.894240e+01 2.083333e-01 -1.039622e-01 1.360336e+00 -4.019043e+00 4.119598e+00
3.744435e+01 2.083333e-01 -1.047374e-01 1.360172e+00 -4.042648e+00 4.120987e+00
3.739981e+01 1.927083e-01 -1.044330e-01 1.360852e+00 -4.023743e+00 4.120987e+00
4.053030e+01 2.135417e-01 -1.048756e-01 1.360633e+00 -4.035110e+00 4.124496e+00
3.775381e+01 1.979167e-01 -1.049014e-01 1.361514e+00 -4.021835e+00 4.116226e+00
3.720151e+01 1.875000e-01 -1.045709e-01 1.361542e+00 -4.027420e+00 4.120987e+00
3.897018e+01 2.083333e-01 -1.044476e-01 1.361775e+00 -4.013229e+00 4.120087e+00
3.798366e+01 1.979167e-01 -1.043629e-01 1.362252e+00 -4.019836e+00 4.119629e+00
4.030219e+01 2.083333e-01 -1.043964e-01 1.362908e+00 -4.037643e+00 4.127319e+00
3.861348e+01 2.031250e-01 -1.053483e-01 1.363056e+00 -4.032394e+00 4.119614e+00
3.918961e+01 2.187500e-01 -1.049291e-01 1.363402e+00 -4.029541e+00 4.124084e+00
3.853601e+01 2.083333e-01 -1.052328e-01 1.363514e+00 -4.023239e+00 4.120300e+00
3.858173e+01 2.083333e-01 -1.048330e-01 1.364255e+00 -4.021240e+00 4.121567e+00
3.924263e+01 2.187500e-01 -1.052046e-01 1.364216e+00 -4.031296e+00 4.123932e+00
3.843552e+01 2.083333e-01 -1.048721e-01 1.364605e+00 -4.018616e+00 4.122055e+00
4.075948e+01 2.083333e-01 -1.047215e-01 1.365056e+00 -4.040466e+00 4.129654e+00
4.038875e+01 2.135417e-01 -1.057587e-01 1.365344e+00 -4.043762e+00 4.125656e+00
3.795926e+01 2.083333e-01 -1.062770e-01 1.365401e+00 -4.053833e+00 4.125397e+00
3.902072e+01 2.135417e-01 -1.057124e-01 1.365925e+00 -4.028168e+00 4.124649e+00
4.086453e+01 2.031250e-01 -1.059113e-01 1.366266e+00 -4.048233e+00 4.128616e+00
4.055501e+01 2.135417e-01 -1.065265e-01 1.366369e+00 -4.049789e+00 4.125137e+00
3.896568e+01 2.083333e-01 -1.068280e-01 1.366557e+00 -4.042297e+00 4.121201e+00
3.741380e+01 1.875000e-01 -1.067447e-01 1.366996e+00 -4.050125e+00 4.123688e+00
4.251031e+01 2.187500e-01 -1.063079e-01 1.367517e+00 -4.056595e+00 4.132782e+00
3.823268e+01 2.031250e-01 -1.076632e-01 1.368044e+00 -4.046753e+00 4.118210e+00
3.795773e+01 1.979167e-01 -1.073188e-01 1.368195e+00 -4.038605e+00 4.120834e+00
3.888882e+01 2.031250e-01 -1.068440e-01 1.368601e+00 -4.034012e+00 4.121933e+00
3.854604e+01 2.031250e-01 -1.069095e-01 1.369118e+00 -4.032623e+00 4.121399e+00
3.755319e+01 2.031250e-01 -1.069676e-01 1.369090e+00 -4.043213e+00 4.121124e+00
3.859019e+01 2.031250e-01 -1.069231e-01 1.369272e+00 -4.036728e+00 4.122467e+00
4.028784e+01 2.135417e-01 -1.064902e-01 1.370463e+00 -4.051086e+00 4.127762e+00
3.913495e+01 2.135417e-01 -1.067622e-01 1.370630e+00 -4.041824e+00 4.123215e+00
3.830235e+01 2.031250e-01 -1.068637e-01 1.370711e+00 -4.035538e+00 4.122162e+00
3.807986e+01 2.083333e-01 -1.068465e-01 1.371161e+00 -4.038574e+00 4.122574e+00
3.809760e+01 2.083333e-01 -1.070994e-01 1.371227e+00 -4.041595e+00 4.120331e+00
4.007851e+01 2.135417e-01 -1.066266e-01 1.371777e+00 -4.052551e+00 4.128906e+00
3.906316e+01 2.187500e-01 -1.068500e-01 1.372321e+00 -4.052383e+00 4.124680e+00
3.765730e+01 2.083333e-01 -1.066740e-01 1.372497e+00 -4.054031e+00 4.125961e+00
3.725780e+01 1.979167e-01 -1.072810e-01 1.372356e+00 -4.059204e+00 4.126144e+00
3.803426e+01 2.031250e-01 -1.072453e-01 1.372955e+00 -4.045898e+00 4.122787e+00
4.068466e+01 2.031250e-01 -1.070362e-01 1.373199e+00 -4.068695e+00 4.131973e+00
3.795695e+01 2.031250e-01 -1.077165e-01 1.373485e+00 -4.050964e+00 4.120392e+00
3.806801e+01 2.083333e-01 -1.076179e-01 1.373642e+00 -4.048187e+00 4.119827e+00
3.836772e+01 2.135417e-01 -1.073979e-01 1.374073e+00 -4.043152e+00 4.120941e+00
3.977617e+01 2.135417e-01 -1.071874e-01 1.374653e+00 -4.061020e+00 4.128265e+00
3.795610e+01 2.083333e-01 -1.075706e-01 1.374959e+00 -4.051666e+00 4.122147e+00
3.838716e+01 2.135417e-01 -1.071695e-01 1.375344e+00 -4.045303e+00 4.123352e+00
3.748483e+01 1.979167e-01 -1.075293e-01 1.375758e+00 -4.070114e+00 4.128906e+00
3.805603e+01 2.083333e-01 -1.075251e-01 1.375602e+00 -4.052338e+00 4.123962e+00
3.879845e+01 2.135417e-01 -1.076411e-01 1.375951e+00 -4.055176e+00 4.123093e+00
3.903288e+01 2.135417e-01 -1.073701e-01 1.376635e+00 -4.058640e+00 4.124390e+00
3.762234e+01 2.083333e-01 -1.079446e-01 1.376662e+00 -4.063293e+00 4.123306e+00
3.930707e+01 2.135417e-01 -1.076662e-01 1.377056e+00 -4.062592e+00 4.126556e+00
3.876303e+01 2.187500e-01 -1.075958e-01 1.377434e+00 -4.054779e+00 4.122360e+00
3.755521e+01 2.031250e-01 -1.082269e-01 1.377503e+00 -4.072296e+00 4.122498e+00
3.763345e+01 2.135417e-01 -1.076599e-01 1.378244e+00 -4.065674e+00 4.126831e+00
3.768842e+01 2.031250e-01 -1.074504e-01 1.378507e+00 -4.058014e+00 4.125000e+00
3.790274e+01 2.083333e-01 -1.080899e-01 1.378704e+00 -4.087708e+00 4.129242e+00
3.782954e+01 2.083333e-01 -1.083848e-01 1.379196e+00 -4.059158e+00 4.123138e+00
4.082585e+01 2.083333e-01 -1.082543e-01 1.379777e+00 -4.090927e+00 4.132050e+00
3.901955e+01 2.187500e-01 -1.086536e-01 1.379818e+00 -4.076355e+00 4.124359e+00
3.755139e+01 2.083333e-01 -1.085256e-01 1.379866e+00 -4.069046e+00 4.120865e+00
3.747765e+01 2.031250e-01 -1.085149e-01 1.380468e+00 -4.065140e+00 4.121826e+00
3.780135e+01 2.135417e-01 -1.081639e-01 1.380844e+00 -4.073547e+00 4.126053e+00
3.774570e+01 2.031250e-01 -1.079975e-01 1.381245e+00 -4.071014e+00 4.127426e+00
3.973518e+01 2.187500e-01 -1.084491e-01 1.381304e+00 -4.074905e+00 4.126984e+00
3.836208e+01 2.083333e-01 -1.083343e-01 1.381871e+00 -4.063324e+00 4.121964e+00
3.973769e+01 2.187500e-01 -1.085206e-01 1.382021e+00 -4.079910e+00 4.127914e+00
3.867963e+01 2.135417e-01 -1.088472e-01 1.382453e+00 -4.073029e+00 4.121338e+00
3.900362e+01 2.187500e-01 -1.088803e-01 1.382758e+00 -4.080811e+00 4.125015e+00
3.901472e+01 2.187500e-01 -1.089602e-01 1.383054e+00 -4.082153e+00 4.125427e+00
3.869653e+01 2.135417e-01 -1.085129e-01 1.383405e+00 -4.067535e+00 4.123718e+00
3.870494e+01 2.083333e-01 -1.088324e-01 1.383980e+00 -4.074860e+00 4.121201e+00
3.884227e+01 2.135417e-01 -1.089638e-01 1.383991e+00 -4.077118e+00 4.124924e+00
3.789384e+01 1.927083e-01 -1.088280e-01 1.384277e+00 -4.092819e+00 4.126358e+00
3.893286e+01 2.135417e-01 -1.087120e-01 1.384742e+00 -4.075806e+00 4.125366e+00
4.013774e+01 2.239583e-01 -1.094345e-01 1.385048e+00 -4.097046e+00 4.128067e+00
3.756795e+01 1.927083e-01 -1.094363e-01 1.385439e+00 -4.084091e+00 4.124496e+00
3.889435e+01 2.135417e-01 -1.095964e-01 1.385690e+00 -4.086426e+00 4.125305e+00
3.822160e+01 2.291667e-01 -1.096780e-01 1.386173e+00 -4.117355e+00 4.135162e+00
3.765579e+01 1.979167e-01 -1.101768e-01 1.386364e+00 -4.089615e+00 4.126328e+00
3.835086e+01 2.083333e-01 -1.099046e-01 1.386796e+00 -4.076035e+00 4.121399e+00
3.787132e+01 1.979167e-01 -1.103767e-01 1.386707e+00 -4.080566e+00 4.118591e+00
3.752554e+01 1.979167e-01 -1.099488e-01 1.387080e+00 -4.084991e+00 4.122055e+00
3.803024e+01 2.083333e-01 -1.102460e-01 1.387706e+00 -4.116440e+00 4.131836e+00
3.964922e+01 2.239583e-01 -1.101330e-01 1.388017e+00 -4.092606e+00 4.126160e+00
3.752750e+01 1.979167e-01 -1.106450e-01 1.388068e+00 -4.094986e+00 4.121796e+00
3.965556e+01 2.135417e-01 -1.100170e-01 1.388829e+00 -4.092606e+00 4.126785e+00
3.829192e+01 2.083333e-01 -1.106126e-01 1.388880e+00 -4.081070e+00 4.120300e+00
3.807733e+01 2.031250e-01 -1.106704e-01 1.389312e+00 -4.116821e+00 4.129410e+00
3.741217e+01 1.927083e-01 -1.113289e-01 1.389083e+00 -4.096115e+00 4.120346e+00
3.757483e+01 1.979167e-01 -1.108570e-01 1.390050e+00 -4.099731e+00 4.126617e+00
3.847041e+01 2.083333e-01 -1.103499e-01 1.390471e+00 -4.080826e+00 4.122650e+00
3.751105e+01 1.927083e-01 -1.109335e-01 1.390579e+00 -4.097107e+00 4.122940e+00
3.743573e+01 1.979167e-01 -1.105654e-01 1.391177e+00 -4.092957e+00 4.123871e+00
3.833321e+01 2.083333e-01 -1.106881e-01 1.391458e+00 -4.094589e+00 4.122803e+00
3.844093e+01 2.083333e-01 -1.106582e-01 1.391843e+00 -4.101944e+00 4.125046e+00
3.785988e+01 2.031250e-01 -1.109919e-01 1.391869e+00 -4.092712e+00 4.122116e+00
3.839091e+01 2.083333e-01 -1.107739e-01 1.392415e+00 -4.100006e+00 4.124741e+00
3.775803e+01 1.979167e-01 -1.106363e-01 1.392738e+00 -4.094543e+00 4.121185e+00
3.779881e+01 1.979167e-01 -1.105893e-01 1.393243e+00 -4.096970e+00 4.123199e+00
3.764767e+01 1.979167e-01 -1.105376e-01 1.393603e+00 -4.098251e+00 4.123810e+00
4.098006e+01 2.187500e-01 -1.102272e-01 1.393914e+00 -4.115936e+00 4.135071e+00
4.086012e+01 2.187500e-01 -1.110936e-01 1.394018e+00 -4.128555e+00 4.133270e+00
3.741595e+01 1.927083e-01 -1.112106e-01 1.394202e+00 -4.111404e+00 4.121674e+00
3.832066e+01 2.135417e-01 -1.106009e-01 1.394735e+00 -4.098236e+00 4.125061e+00
3.798386e+01 2.031250e-01 -1.112277e-01 1.394622e+00 -4.103104e+00 4.122772e+00
3.786813e+01 2.031250e-01 -1.108962e-01 1.395565e+00 -4.101013e+00 4.122849e+00
3.824225e+01 2.135417e-01 -1.101159e-01 1.396069e+00 -4.099136e+00 4.125824e+00
3.749686e+01 1.927083e-01 -1.108336e-01 1.396089e+00 -4.114487e+00 4.128128e+00
4.008110e+01 2.135417e-01 -1.104695e-01 1.396748e+00 -4.117188e+00 4.131302e+00
3.804416e+01 2.083333e-01 -1.114338e-01 1.396617e+00 -4.116867e+00 4.126236e+00
3.804347e+01 2.083333e-01 -1.109910e-01 1.396943e+00 -4.107269e+00 4.125061e+00
3.819200e+01 2.135417e-01 -1.111082e-01 1.397442e+00 -4.116180e+00 4.127258e+00
3.754654e+01 1.979167e-01 -1.108718e-01 1.397997e+00 -4.106461e+00 4.126328e+00
3.768744e+01 1.979167e-01 -1.105355e-01 1.398220e+00 -4.108414e+00 4.127548e+00
3.783482e+01 2.083333e-01 -1.100756e-01 1.398757e+00 -4.099274e+00 4.128326e+00
3.830913e+01 2.135417e-01 -1.108442e-01 1.398758e+00 -4.111145e+00 4.128006e+00
3.830194e+01 2.343750e-01 -1.116055e-01 1.399080e+00 -4.153854e+00 4.135178e+00
3.915381e+01 2.187500e-01 -1.113668e-01 1.399260e+00 -4.118729e+00 4.128372e+00
3.760510e+01 2.031250e-01 -1.114299e-01 1.399942e+00 -4.111069e+00 4.124374e+00
3.755261e+01 1.927083e-01 -1.119897e-01 1.399803e+00 -4.119125e+00 4.122528e+00
4.024222e+01 2.031250e-01 -1.116861e-01 1.400381e+00 -4.140884e+00 4.133759e+00
3.999567e+01 2.083333e-01 -1.120944e-01 1.400575e+00 -4.139084e+00 4.132355e+00
3.809344e+01 2.135417e-01 -1.124326e-01 1.400866e+00 -4.127426e+00 4.126572e+00
3.773686e+01 1.979167e-01 -1.124616e-01 1.401235e+00 -4.136444e+00 4.128113e+00
3.894724e+01 2.135417e-01 -1.122077e-01 1.401692e+00 -4.127502e+00 4.128769e+00
3.763351e+01 1.927083e-01 -1.125463e-01 1.401971e+00 -4.124405e+00 4.125458e+00
3.966902e+01 2.187500e-01 -1.122709e-01 1.402547e+00 -4.129471e+00 4.131302e+00
3.976825e+01 2.083333e-01 -1.125174e-01 1.402758e+00 -4.142090e+00 4.132690e+00
3.855475e+01 2.187500e-01 -1.126993e-01 1.403154e+00 -4.131546e+00 4.128494e+00
3.765762e+01 1.927083e-01 -1.129803e-01 1.403337e+00 -4.130966e+00 4.126785e+00
3.783650e+01 1.979167e-01 -1.131276e-01 1.403352e+00 -4.132172e+00 4.125137e+00
3.766331e+01 2.083333e-01 -1.128479e-01 1.404134e+00 -4.122055e+00 4.126297e+00
3.761185e+01 1.927083e-01 -1.128374e-01 1.404439e+00 -4.123962e+00 4.124115e+00
3.752695e+01 1.979167e-01 -1.126814e-01 1.404953e+00 -4.120667e+00 4.125961e+00
3.772954e+01 1.979167e-01 -1.127255e-01 1.405265e+00 -4.134064e+00 4.129288e+00
3.772882e+01 1.927083e-01 -1.126063e-01 1.405635e+00 -4.130142e+00 4.129257e+00
3.762518e+01 1.979167e-01 -1.125235e-01 1.405788e+00 -4.123489e+00 4.125259e+00
3.963980e+01 2.187500e-01 -1.125977e-01 1.406515e+00 -4.149048e+00 4.134735e+00
3.863599e+01 2.239583e-01 -1.127162e-01 1.406948e+00 -4.139450e+00 4.131134e+00
3.798483e+01 2.135417e-01 -1.127993e-01 1.407389e+00 -4.132797e+00 4.129318e+00
3.786478e+01 1.979167e-01 -1.129937e-01 1.407417e+00 -4.141632e+00 4.131546e+00
3.792259e+01 2.135417e-01 -1.125979e-01 1.407888e+00 -4.127975e+00 4.129013e+00
3.822960e+01 2.135417e-01 -1.130568e-01 1.408117e+00 -4.138092e+00 4.130188e+00
3.750150e+01 2.031250e-01 -1.133724e-01 1.408146e+00 -4.136002e+00 4.128067e+00
3.806799e+01 2.135417e-01 -1.132210e-01 1.408694e+00 -4.136108e+00 4.129318e+00
3.749223e+01 2.031250e-01 -1.134707e-01 1.408550e+00 -4.134064e+00 4.127121e+00
3.752721e+01 2.031250e-01 -1.130230e-01 1.409341e+00 -4.131653e+00 4.127548e+00
3.766042e+01 1.979167e-01 -1.132801e-01 1.409770e+00 -4.148788e+00 4.131332e+00
3.780821e+01 2.083333e-01 -1.133066e-01 1.410063e+00 -4.155518e+00 4.134125e+00
3.906474e+01 2.239583e-01 -1.128487e-01 1.410825e+00 -4.146790e+00 4.133438e+00
3.855544e+01 2.239583e-01 -1.136893e-01 1.410636e+00 -4.152740e+00 4.132355e+00
3.958165e+01 2.239583e-01 -1.135605e-01 1.411051e+00 -4.156845e+00 4.135162e+00
3.756377e+01 1.979167e-01 -1.139134e-01 1.411366e+00 -4.143326e+00 4.125626e+00
3.777856e+01 1.979167e-01 -1.136865e-01 1.412228e+00 -4.145279e+00 4.130798e+00
3.754298e+01 1.979167e-01 -1.135914e-01 1.412332e+00 -4.154861e+00 4.133621e+00
3.791322e+01 2.031250e-01 -1.137434e-01 1.412469e+00 -4.148651e+00 4.130707e+00
3.744229e+01 2.083333e-01 -1.137972e-01 1.412725e+00 -4.139236e+00 4.129227e+00
3.755313e+01 1.979167e-01 -1.138888e-01 1.413327e+00 -4.146866e+00 4.129868e+00
3.791725e+01 2.083333e-01 -1.135655e-01 1.413795e+00 -4.143906e+00 4.130280e+00
3.770248e+01 2.031250e-01 -1.140080e-01 1.413628e+00 -4.148605e+00 4.127060e+00
3.858235e+01 2.239583e-01 -1.137904e-01 1.414270e+00 -4.153427e+00 4.134003e+00
3.768242e+01 2.083333e-01 -1.141437e-01 1.414483e+00 -4.161682e+00 4.131805e+00
3.867220e+01 2.239583e-01 -1.137938e-01 1.415242e+00 -4.153687e+00 4.134186e+00
3.831372e+01 2.135417e-01 -1.142235e-01 1.415170e+00 -4.152100e+00 4.132004e+00
3.819524e+01 2.135417e-01 -1.141410e-01 1.415667e+00 -4.151535e+00 4.131256e+00
3.761020e+01 1.979167e-01 -1.141430e-01 1.415911e+00 -4.152542e+00 4.129684e+00
3.747972e+01 1.979167e-01 -1.138857e-01 1.416660e+00 -4.151428e+00 4.131912e+00
3.748872e+01 2.031250e-01 -1.145368e-01 1.416781e+00 -4.169800e+00 4.134354e+00
3.845393e+01 2.187500e-01 -1.141452e-01 1.417383e+00 -4.159576e+00 4.133148e+00
4.095271e+01 2.031250e-01 -1.146461e-01 1.417624e+00 -4.194199e+00 4.143280e+00
3.757220e+01 1.979167e-01 -1.149333e-01 1.418013e+00 -4.165176e+00 4.130020e+00
3.764075e+01 1.979167e-01 -1.152155e-01 1.418139e+00 -4.167572e+00 4.129990e+00
4.107486e+01 2.031250e-01 -1.150882e-01 1.418773e+00 -4.188492e+00 4.142044e+00
3.981277e+01 2.187500e-01 -1.154676e-01 1.419133e+00 -4.179398e+00 4.137848e+00
3.835797e+01 2.135417e-01 -1.157885e-01 1.419606e+00 -4.173340e+00 4.133240e+00
3.749527e+01 2.031250e-01 -1.152523e-01 1.419938e+00 -4.168823e+00 4.134140e+00
3.776076e+01 2.135417e-01 -1.151238e-01 1.420391e+00 -4.162262e+00 4.133209e+00
3.822089e+01 2.135417e-01 -1.151783e-01 1.420765e+00 -4.159531e+00 4.130783e+00
3.791109e+01 2.135417e-01 -1.153019e-01 1.420868e+00 -4.161484e+00 4.130081e+00
3.886494e+01 2.239583e-01 -1.155411e-01 1.421249e+00 -4.174683e+00 4.134888e+00
3.789024e+01 2.083333e-01 -1.155993e-01 1.422080e+00 -4.168610e+00 4.132889e+00
3.828024e+01 2.135417e-01 -1.154841e-01 1.422223e+00 -4.165863e+00 4.130447e+00
3.785913e+01 2.083333e-01 -1.153649e-01 1.422814e+00 -4.167557e+00 4.133850e+00
3.784941e+01 2.083333e-01 -1.157434e-01 1.422730e+00 -4.166061e+00 4.127869e+00
3.785872e+01 2.083333e-01 -1.155274e-01 1.423539e+00 -4.169235e+00 4.130630e+00
3.772119e+01 2.031250e-01 -1.158707e-01 1.423703e+00 -4.174835e+00 4.130981e+00
3.784766e+01 2.031250e-01 -1.159939e-01 1.423633e+00 -4.174973e+00 4.126297e+00
3.803926e+01 2.135417e-01 -1.151270e-01 1.424515e+00 -4.163727e+00 4.130859e+00
3.777299e+01 2.083333e-01 -1.155840e-01 1.424833e+00 -4.171387e+00 4.129166e+00
3.801378e+01 2.083333e-01 -1.153302e-01 1.425379e+00 -4.169113e+00 4.129837e+00
3.832120e+01 2.135417e-01 -1.155216e-01 1.425661e+00 -4.168518e+00 4.129623e+00
3.848445e+01 2.135417e-01 -1.155588e-01 1.426193e+00 -4.171219e+00 4.128662e+00
3.822820e+01 2.135417e-01 -1.155171e-01 1.426362e+00 -4.169662e+00 4.127686e+00
3.839983e+01 2.187500e-01 -1.152509e-01 1.426952e+00 -4.172470e+00 4.130341e+00
3.797481e+01 2.083333e-01 -1.154464e-01 1.427240e+00 -4.166870e+00 4.127975e+00
3.753612e+01 2.083333e-01 -1.155644e-01 1.427673e+00 -4.200302e+00 4.136642e+00
4.002676e+01 2.135417e-01 -1.153533e-01 1.428005e+00 -4.186813e+00 4.136169e+00
3.903801e+01 2.135417e-01 -1.163701e-01 1.428023e+00 -4.195511e+00 4.132004e+00
4.143523e+01 2.083333e-01 -1.161892e-01 1.428956e+00 -4.214340e+00 4.140411e+00
4.115344e+01 2.135417e-01 -1.171579e-01 1.428988e+00 -4.215851e+00 4.135345e+00
3.971861e+01 2.135417e-01 -1.185509e-01 1.428612e+00 -4.209122e+00 4.128418e+00
3.819946e+01 2.083333e-01 -1.182815e-01 1.429204e+00 -4.188568e+00 4.119156e+00
3.795647e+01 2.083333e-01 -1.177023e-01 1.429569e+00 -4.190414e+00 4.122696e+00
3.859094e+01 2.135417e-01 -1.175353e-01 1.430040e+00 -4.180206e+00 4.121094e+00
3.739880e+01 2.031250e-01 -1.175746e-01 1.430723e+00 -4.207855e+00 4.129486e+00
3.772337e+01 1.979167e-01 -1.176936e-01 1.430816e+00 -4.201462e+00 4.127197e+00
3.784081e+01 2.083333e-01 -1.177578e-01 1.431220e+00 -4.194153e+00 4.123291e+00
3.895351e+01 2.135417e-01 -1.179112e-01 1.431764e+00 -4.204712e+00 4.125900e+00
3.880632e+01 2.135417e-01 -1.181364e-01 1.432063e+00 -4.200439e+00 4.122467e+00
3.860150e+01 2.135417e-01 -1.179694e-01 1.432720e+00 -4.199677e+00 4.124588e+00
3.866173e+01 2.135417e-01 -1.182601e-01 1.432762e+00 -4.201660e+00 4.122208e+00
3.866031e+01 2.135417e-01 -1.179713e-01 1.433218e+00 -4.197708e+00 4.123627e+00
3.804196e+01 2.083333e-01 -1.181785e-01 1.433622e+00 -4.195694e+00 4.119858e+00
4.006343e+01 2.135417e-01 -1.180504e-01 1.434492e+00 -4.213699e+00 4.129349e+00
3.794415e+01 2.083333e-01 -1.188193e-01 1.434293e+00 -4.199463e+00 4.117218e+00
3.852353e+01 2.187500e-01 -1.184863e-01 1.434843e+00 -4.198776e+00 4.119919e+00
3.847603e+01 2.083333e-01 -1.183957e-01 1.435186e+00 -4.193573e+00 4.115967e+00
3.842902e+01 2.135417e-01 -1.181787e-01 1.435631e+00 -4.197189e+00 4.120132e+00
3.851799e+01 2.083333e-01 -1.181211e-01 1.435907e+00 -4.202484e+00 4.121521e+00
3.804735e+01 2.083333e-01 -1.184274e-01 1.436158e+00 -4.202606e+00 4.116501e+00
3.838976e+01 2.187500e-01 -1.182335e-01 1.437034e+00 -4.200531e+00 4.118256e+00
3.849274e+01 2.135417e-01 -1.186388e-01 1.436971e+00 -4.206070e+00 4.115417e+00
3.854300e+01 2.135417e-01 -1.183110e-01 1.437632e+00 -4.214813e+00 4.119904e+00
3.857655e+01 2.135417e-01 -1.183956e-01 1.437794e+00 -4.208923e+00 4.119141e+00
3.848154e+01 2.083333e-01 -1.180144e-01 1.438410e+00 -4.205093e+00 4.118408e+00
3.841655e+01 2.083333e-01 -1.184787e-01 1.438584e+00 -4.200027e+00 4.114319e+00
3.795889e+01 2.135417e-01 -1.184415e-01 1.438853e+00 -4.204849e+00 4.115036e+00
3.819740e+01 2.135417e-01 -1.183303e-01 1.439253e+00 -4.196976e+00 4.111969e+00
3.836661e+01 2.135417e-01 -1.177466e-01 1.439953e+00 -4.203003e+00 4.118164e+00
3.820517e+01 2.135417e-01 -1.181714e-01 1.440005e+00 -4.198868e+00 4.111389e+00
3.813142e+01 2.135417e-01 -1.185993e-01 1.440200e+00 -4.210602e+00 4.110703e+00
3.773195e+01 1.979167e-01 -1.182861e-01 1.440810e+00 -4.215256e+00 4.114609e+00
3.777116e+01 2.083333e-01 -1.180998e-01 1.441236e+00 -4.206039e+00 4.113251e+00
3.795927e+01 2.083333e-01 -1.182267e-01 1.441590e+00 -4.212891e+00 4.113647e+00
3.785869e+01 2.187500e-01 -1.183597e-01 1.442118e+00 -4.203186e+00 4.111145e+00
4.011424e+01 2.187500e-01 -1.180248e-01 1.442560e+00 -4.228592e+00 4.121521e+00
3.756364e+01 1.979167e-01 -1.184642e-01 1.442747e+00 -4.223145e+00 4.114151e+00
3.791069e+01 2.135417e-01 -1.182886e-01 1.443320e+00 -4.202682e+00 4.111755e+00
3.805363e+01 2.135417e-01 -1.184509e-01 1.443450e+00 -4.214874e+00 4.113281e+00
3.746231e+01 1.979167e-01 -1.180367e-01 1.444118e+00 -4.225952e+00 4.117828e+00
3.816670e+01 2.135417e-01 -1.184726e-01 1.444483e+00 -4.212906e+00 4.113419e+00
3.883188e+01 2.135417e-01 -1.184461e-01 1.444828e+00 -4.224609e+00 4.116760e+00
3.800369e+01 2.135417e-01 -1.184848e-01 1.445220e+00 -4.212326e+00 4.111557e+00
3.842995e+01 2.187500e-01 -1.186368e-01 1.445499e+00 -4.214569e+00 4.113815e+00
4.010435e+01 2.187500e-01 -1.189470e-01 1.446075e+00 -4.239029e+00 4.121017e+00
3.772179e+01 2.135417e-01 -1.192083e-01 1.446416e+00 -4.214172e+00 4.109406e+00
3.797086e+01 2.135417e-01 -1.186751e-01 1.447096e+00 -4.206390e+00 4.112335e+00
3.807234e+01 2.135417e-01 -1.187316e-01 1.447395e+00 -4.212006e+00 4.112640e+00
3.890121e+01 2.135417e-01 -1.189906e-01 1.447946e+00 -4.231873e+00 4.117111e+00
3.791444e+01 2.135417e-01 -1.190757e-01 1.448172e+00 -4.215393e+00 4.111710e+00
3.727002e+01 2.135417e-01 -1.189365e-01 1.448683e+00 -4.212067e+00 4.111511e+00
3.814919e+01 2.135417e-01 -1.188978e-01 1.449031e+00 -4.214188e+00 4.113647e+00
3.759715e+01 2.135417e-01 -1.191381e-01 1.449840e+00 -4.214142e+00 4.111954e+00
3.737619e+01 1.927083e-01 -1.191543e-01 1.450014e+00 -4.238159e+00 4.120499e+00
3.756288e+01 2.083333e-01 -1.196940e-01 1.450255e+00 -4.220901e+00 4.109711e+00
3.875633e+01 2.187500e-01 -1.188604e-01 1.451049e+00 -4.226852e+00 4.119431e+00
3.760843e+01 2.083333e-01 -1.194030e-01 1.451484e+00 -4.221390e+00 4.114166e+00
3.810983e+01 2.187500e-01 -1.196325e-01 1.451693e+00 -4.224396e+00 4.115631e+00
3.735606e+01 1.927083e-01 -1.195584e-01 1.452282e+00 -4.241272e+00 4.119995e+00
3.834673e+01 2.187500e-01 -1.191512e-01 1.452958e+00 -4.223526e+00 4.117096e+00
3.755125e+01 2.083333e-01 -1.198898e-01 1.453020e+00 -4.227997e+00 4.112137e+00
3.778671e+01 2.135417e-01 -1.193495e-01 1.453734e+00 -4.216965e+00 4.114777e+00
3.844698e+01 2.187500e-01 -1.196946e-01 1.454008e+00 -4.230423e+00 4.119141e+00
3.776352e+01 2.083333e-01 -1.193350e-01 1.454676e+00 -4.229996e+00 4.120331e+00
3.774054e+01 2.083333e-01 -1.201051e-01 1.454772e+00 -4.235123e+00 4.116623e+00
3.754218e+01 2.083333e-01 -1.198712e-01 1.455287e+00 -4.221161e+00 4.115112e+00
3.738161e+01 2.031250e-01 -1.196328e-01 1.455923e+00 -4.227188e+00 4.119675e+00
3.727217e+01 2.031250e-01 -1.204189e-01 1.455955e+00 -4.223618e+00 4.113998e+00
3.838181e+01 2.135417e-01 -1.199826e-01 1.456574e+00 -4.232193e+00 4.118683e+00
3.929050e+01 2.187500e-01 -1.199395e-01 1.457171e+00 -4.244614e+00 4.122147e+00
3.756636e+01 2.031250e-01 -1.207691e-01 1.457084e+00 -4.233231e+00 4.112595e+00
3.773499e+01 2.031250e-01 -1.204740e-01 1.457524e+00 -4.236694e+00 4.118546e+00
3.726596e+01 2.031250e-01 -1.210032e-01 1.457986e+00 -4.249054e+00 4.119781e+00
3.723584e+01 2.031250e-01 -1.208014e-01 1.458385e+00 -4.231018e+00 4.113174e+00
3.817804e+01 2.083333e-01 -1.210698e-01 1.459130e+00 -4.242218e+00 4.118225e+00
3.758492e+01 2.031250e-01 -1.207419e-01 1.459292e+00 -4.228897e+00 4.114868e+00
3.742456e+01 2.031250e-01 -1.206773e-01 1.459819e+00 -4.235016e+00 4.117722e+00
3.777347e+01 2.083333e-01 -1.207181e-01 1.460314e+00 -4.226852e+00 4.116013e+00
3.748093e+01 2.031250e-01 -1.206560e-01 1.460827e+00 -4.236801e+00 4.120789e+00
3.779178e+01 2.083333e-01 -1.208286e-01 1.461167e+00 -4.269775e+00 4.127319e+00
3.731035e+01 2.031250e-01 -1.218656e-01 1.461101e+00 -4.238831e+00 4.115952e+00
3.955594e+01 2.187500e-01 -1.214772e-01 1.461642e+00 -4.251938e+00 4.122742e+00
3.726930e+01 2.031250e-01 -1.217789e-01 1.461975e+00 -4.239014e+00 4.113037e+00
3.871980e+01 2.135417e-01 -1.212978e-01 1.462785e+00 -4.250290e+00 4.121338e+00
3.742633e+01 2.031250e-01 -1.215333e-01 1.462886e+00 -4.237167e+00 4.115189e+00
3.755197e+01 2.031250e-01 -1.215172e-01 1.463382e+00 -4.233612e+00 4.115143e+00
3.715454e+01 1.979167e-01 -1.212862e-01 1.463836e+00 -4.249954e+00 4.121613e+00
3.744722e+01 2.031250e-01 -1.219218e-01 1.464218e+00 -4.256149e+00 4.118515e+00
3.874715e+01 2.135417e-01 -1.217163e-01 1.464684e+00 -4.252655e+00 4.120422e+00
3.747177e+01 1.979167e-01 -1.218289e-01 1.465499e+00 -4.259537e+00 4.121368e+00
3.734940e+01 2.031250e-01 -1.215183e-01 1.465541e+00 -4.244690e+00 4.119858e+00
3.871149e+01 2.135417e-01 -1.219712e-01 1.466092e+00 -4.255890e+00 4.121292e+00
3.729288e+01 2.031250e-01 -1.220479e-01 1.466142e+00 -4.241486e+00 4.114960e+00
3.735567e+01 1.927083e-01 -1.220014e-01 1.466821e+00 -4.256165e+00 4.119568e+00
3.742035e+01 1.927083e-01 -1.215500e-01 1.467398e+00 -4.257812e+00 4.122101e+00
3.745181e+01 2.031250e-01 -1.219678e-01 1.467582e+00 -4.244583e+00 4.115082e+00
3.782945e+01 1.979167e-01 -1.218042e-01 1.468150e+00 -4.245178e+00 4.115921e+00
3.807890e+01 2.031250e-01 -1.217382e-01 1.468305e+00 -4.248138e+00 4.118332e+00
3.752904e+01 1.979167e-01 -1.219413e-01 1.468835e+00 -4.252029e+00 4.116013e+00
3.991489e+01 2.083333e-01 -1.216027e-01 1.469633e+00 -4.275833e+00 4.127472e+00
3.760323e+01 1.875000e-01 -1.216515e-01 1.469711e+00 -4.264420e+00 4.119675e+00
3.993390e+01 2.187500e-01 -1.218799e-01 1.470139e+00 -4.268021e+00 4.123901e+00
3.781471e+01 2.031250e-01 -1.224953e-01 1.470598e+00 -4.264832e+00 4.116501e+00
3.757983e+01 2.031250e-01 -1.219163e-01 1.471250e+00 -4.253952e+00 4.115555e+00
3.834924e+01 2.031250e-01 -1.220798e-01 1.471154e+00 -4.257950e+00 4.117477e+00
3.763466e+01 1.875000e-01 -1.220994e-01 1.471546e+00 -4.269638e+00 4.116318e+00
3.744942e+01 1.979167e-01 -1.219645e-01 1.472125e+00 -4.257660e+00 4.116714e+00
3.776166e+01 2.031250e-01 -1.220712e-01 1.472605e+00 -4.259171e+00 4.115021e+00
3.784111e+01 1.979167e-01 -1.217394e-01 1.473088e+00 -4.273239e+00 4.123199e+00
3.873787e+01 2.083333e-01 -1.217371e-01 1.473452e+00 -4.261642e+00 4.118729e+00
3.830045e+01 2.031250e-01 -1.219979e-01 1.473685e+00 -4.279343e+00 4.118744e+00
3.872813e+01 2.135417e-01 -1.219562e-01 1.473926e+00 -4.262024e+00 4.118271e+00
3.733426e+01 1.875000e-01 -1.223134e-01 1.474352e+00 -4.271042e+00 4.113266e+00
3.814091e+01 2.031250e-01 -1.218151e-01 1.475062e+00 -4.256653e+00 4.115692e+00
3.784497e+01 2.031250e-01 -1.217586e-01 1.475593e+00 -4.256805e+00 4.114258e+00
3.823495e+01 2.135417e-01 -1.215865e-01 1.475903e+00 -4.263062e+00 4.119141e+00
3.729913e+01 1.875000e-01 -1.216716e-01 1.476095e+00 -4.260544e+00 4.116196e+00
3.845247e+01 2.187500e-01 -1.214390e-01 1.476751e+00 -4.266556e+00 4.119797e+00
3.706349e+01 1.822917e-01 -1.212089e-01 1.477437e+00 -4.264725e+00 4.120041e+00
3.939420e+01 2.135417e-01 -1.215411e-01 1.477341e+00 -4.283279e+00 4.123230e+00
3.724014e+01 1.875000e-01 -1.217535e-01 1.477727e+00 -4.276077e+00 4.117935e+00
3.722812e+01 2.031250e-01 -1.214264e-01 1.478295e+00 -4.258926e+00 4.116653e+00
3.825755e+01 2.031250e-01 -1.209560e-01 1.478945e+00 -4.256699e+00 4.117004e+00
3.720045e+01 2.031250e-01 -1.210506e-01 1.479452e+00 -4.260880e+00 4.119263e+00
3.848936e+01 2.031250e-01 -1.207706e-01 1.479669e+00 -4.257263e+00 4.117813e+00
3.854625e+01 2.031250e-01 -1.211149e-01 1.480062e+00 -4.262726e+00 4.117310e+00
3.767755e+01 2.031250e-01 -1.211068e-01 1.480155e+00 -4.261856e+00 4.115891e+00
3.748422e+01 2.031250e-01 -1.208511e-01 1.480374e+00 -4.258194e+00 4.115372e+00
3.714351e+01 1.979167e-01 -1.206044e-01 1.481169e+00 -4.267410e+00 4.119034e+00
3.744373e+01 1.822917e-01 -1.207105e-01 1.481690e+00 -4.282791e+00 4.123856e+00
3.693117e+01 1.979167e-01 -1.207221e-01 1.481771e+00 -4.267792e+00 4.119980e+00
3.710652e+01 1.979167e-01 -1.209995e-01 1.482381e+00 -4.270599e+00 4.118103e+00
3.697781e+01 1.979167e-01 -1.206510e-01 1.482923e+00 -4.268967e+00 4.121399e+00
3.709346e+01 1.979167e-01 -1.206658e-01 1.483098e+00 -4.268417e+00 4.119171e+00
3.731825e+01 1.979167e-01 -1.206949e-01 1.483625e+00 -4.266830e+00 4.118149e+00
3.844405e+01 2.135417e-01 -1.203102e-01 1.483968e+00 -4.265167e+00 4.120117e+00
3.784442e+01 2.031250e-01 -1.208609e-01 1.484116e+00 -4.265594e+00 4.116852e+00
3.794394e+01 2.031250e-01 -1.207298e-01 1.484755e+00 -4.270905e+00 4.117752e+00
3.716499e+01 1.979167e-01 -1.202846e-01 1.485095e+00 -4.270111e+00 4.118668e+00
3.917946e+01 2.239583e-01 -1.204920e-01 1.485602e+00 -4.282455e+00 4.123856e+00
3.735800e+01 1.979167e-01 -1.200920e-01 1.486069e+00 -4.269608e+00 4.121078e+00
3.733630e+01 1.927083e-01 -1.203586e-01 1.486346e+00 -4.278778e+00 4.120560e+00
3.735799e+01 1.979167e-01 -1.200083e-01 1.487027e+00 -4.273483e+00 4.121857e+00
3.740103e+01 1.927083e-01 -1.202496e-01 1.487431e+00 -4.279129e+00 4.123901e+00
3.862157e+01 2.187500e-01 -1.200346e-01 1.487824e+00 -4.270996e+00 4.123123e+00
3.778583e+01 2.031250e-01 -1.201891e-01 1.488235e+00 -4.270584e+00 4.119202e+00
3.729504e+01 1.979167e-01 -1.199861e-01 1.488743e+00 -4.275742e+00 4.122025e+00
3.819009e+01 2.135417e-01 -1.200214e-01 1.489364e+00 -4.273956e+00 4.121918e+00
3.770996e+01 2.083333e-01 -1.203480e-01 1.489569e+00 -4.300262e+00 4.126022e+00
3.855710e+01 2.135417e-01 -1.205330e-01 1.489967e+00 -4.286301e+00 4.123627e+00
3.751877e+01 2.031250e-01 -1.205212e-01 1.490378e+00 -4.271973e+00 4.119843e+00
3.780267e+01 2.083333e-01 -1.203820e-01 1.490887e+00 -4.275528e+00 4.121475e+00
3.892975e+01 2.083333e-01 -1.201783e-01 1.491449e+00 -4.294586e+00 4.128143e+00
3.759921e+01 2.031250e-01 -1.202768e-01 1.491635e+00 -4.275925e+00 4.121185e+00
3.762938e+01 2.031250e-01 -1.201683e-01 1.492332e+00 -4.276810e+00 4.123550e+00
3.761914e+01 2.083333e-01 -1.204787e-01 1.492264e+00 -4.272476e+00 4.119858e+00
3.762177e+01 2.083333e-01 -1.202581e-01 1.493017e+00 -4.276962e+00 4.120712e+00
3.876796e+01 2.135417e-01 -1.204468e-01 1.493268e+00 -4.289719e+00 4.126511e+00
3.870239e+01 2.135417e-01 -1.208347e-01 1.493816e+00 -4.297943e+00 4.125519e+00
3.870323e+01 2.187500e-01 -1.204025e-01 1.494238e+00 -4.282776e+00 4.124985e+00
3.822108e+01 2.135417e-01 -1.209012e-01 1.494531e+00 -4.291763e+00 4.123474e+00
3.788361e+01 2.031250e-01 -1.201360e-01 1.495299e+00 -4.281372e+00 4.126938e+00
3.784578e+01 2.083333e-01 -1.205147e-01 1.495617e+00 -4.276123e+00 4.122040e+00
3.788716e+01 2.031250e-01 -1.208129e-01 1.495832e+00 -4.280777e+00 4.122208e+00
3.778281e+01 2.083333e-01 -1.204453e-01 1.496322e+00 -4.276352e+00 4.121475e+00
3.784306e+01 2.083333e-01 -1.204691e-01 1.496692e+00 -4.276764e+00 4.122162e+00
3.787555e+01 2.083333e-01 -1.204310e-01 1.497028e+00 -4.278793e+00 4.121918e+00
3.763776e+01 1.979167e-01 -1.203540e-01 1.497799e+00 -4.295456e+00 4.130737e+00
3.816721e+01 2.083333e-01 -1.209582e-01 1.498057e+00 -4.285370e+00 4.122589e+00
3.787148e+01 2.083333e-01 -1.205006e-01 1.498508e+00 -4.277542e+00 4.123169e+00
3.748712e+01 1.979167e-01 -1.207582e-01 1.498899e+00 -4.294983e+00 4.126724e+00
3.762297e+01 1.875000e-01 -1.210601e-01 1.499182e+00 -4.298828e+00 4.126816e+00
3.780814e+01 2.083333e-01 -1.209175e-01 1.499785e+00 -4.282684e+00 4.122711e+00
3.791905e+01 2.083333e-01 -1.205666e-01 1.500372e+00 -4.285294e+00 4.124802e+00
3.867522e+01 2.135417e-01 -1.209423e-01 1.500811e+00 -4.294510e+00 4.129227e+00
3.790318e+01 2.031250e-01 -1.210922e-01 1.500972e+00 -4.290848e+00 4.122299e+00
3.782614e+01 2.031250e-01 -1.205231e-01 1.501849e+00 -4.292236e+00 4.129059e+00
3.842305e+01 2.083333e-01 -1.203554e-01 1.502269e+00 -4.290878e+00 4.129883e+00
3.782355e+01 2.135417e-01 -1.208787e-01 1.502450e+00 -4.285889e+00 4.123703e+00
3.850391e+01 2.083333e-01 -1.208002e-01 1.503315e+00 -4.297745e+00 4.127838e+00
3.739838e+01 2.135417e-01 -1.206871e-01 1.503395e+00 -4.281998e+00 4.125870e+00
3.854559e+01 2.135417e-01 -1.206728e-01 1.503952e+00 -4.296341e+00 4.130859e+00
3.839722e+01 2.135417e-01 -1.210730e-01 1.504291e+00 -4.302414e+00 4.129959e+00
3.745125e+01 2.135417e-01 -1.209627e-01 1.504828e+00 -4.291901e+00 4.125870e+00
3.799072e+01 2.083333e-01 -1.207265e-01 1.505155e+00 -4.291534e+00 4.128510e+00
3.824649e+01 2.083333e-01 -1.209453e-01 1.505680e+00 -4.297195e+00 4.129028e+00
3.840082e+01 2.135417e-01 -1.211402e-01 1.506165e+00 -4.299973e+00 4.130661e+00
3.797794e+01 2.083333e-01 -1.214377e-01 1.506307e+00 -4.301498e+00 4.128769e+00
3.766321e+01 2.135417e-01 -1.212542e-01 1.506870e+00 -4.296188e+00 4.127487e+00
3.784508e+01 1.979167e-01 -1.211406e-01 1.507273e+00 -4.297699e+00 4.128677e+00
3.938371e+01 2.083333e-01 -1.207886e-01 1.507904e+00 -4.313431e+00 4.139404e+00
3.839378e+01 2.083333e-01 -1.213385e-01 1.508160e+00 -4.307755e+00 4.130264e+00
3.813359e+01 2.135417e-01 -1.213589e-01 1.508725e+00 -4.294540e+00 4.127960e+00
3.801453e+01 2.083333e-01 -1.212833e-01 1.509123e+00 -4.295654e+00 4.131165e+00
3.759727e+01 1.927083e-01 -1.214949e-01 1.509384e+00 -4.307983e+00 4.130463e+00
3.779837e+01 2.187500e-01 -1.208622e-01 1.510470e+00 -4.289154e+00 4.132950e+00
3.842635e+01 2.031250e-01 -1.211976e-01 1.510919e+00 -4.311752e+00 4.137894e+00
3.857326e+01 2.031250e-01 -1.213706e-01 1.510801e+00 -4.307205e+00 4.136887e+00
3.809079e+01 2.083333e-01 -1.217594e-01 1.511336e+00 -4.302155e+00 4.132065e+00
3.747232e+01 1.927083e-01 -1.218959e-01 1.511988e+00 -4.307739e+00 4.133255e+00
3.817558e+01 2.135417e-01 -1.211583e-01 1.512425e+00 -4.294907e+00 4.132919e+00
3.808575e+01 2.135417e-01 -1.215162e-01 1.513012e+00 -4.297165e+00 4.131668e+00
3.862680e+01 2.083333e-01 -1.215843e-01 1.513177e+00 -4.311890e+00 4.137497e+00
3.818849e+01 2.083333e-01 -1.218902e-01 1.513883e+00 -4.304352e+00 4.133469e+00
3.726405e+01 1.927083e-01 -1.220990e-01 1.514351e+00 -4.308960e+00 4.134949e+00
3.822197e+01 2.187500e-01 -1.213890e-01 1.515019e+00 -4.296967e+00 4.136932e+00
3.809178e+01 2.135417e-01 -1.214964e-01 1.515213e+00 -4.297592e+00 4.135010e+00
3.800031e+01 2.187500e-01 -1.214964e-01 1.515691e+00 -4.293045e+00 4.134460e+00
3.810249e+01 2.083333e-01 -1.213057e-01 1.516421e+00 -4.299423e+00 4.137100e+00
3.814137e+01 2.135417e-01 -1.213466e-01 1.516779e+00 -4.296112e+00 4.137131e+00
3.824535e+01 2.135417e-01 -1.216528e-01 1.517073e+00 -4.306473e+00 4.139755e+00
3.795741e+01 2.083333e-01 -1.207752e-01 1.518110e+00 -4.299698e+00 4.143097e+00
3.823495e+01 2.083333e-01 -1.215211e-01 1.518177e+00 -4.305664e+00 4.140320e+00
3.823827e+01 2.135417e-01 -1.214029e-01 1.518836e+00 -4.303223e+00 4.139908e+00
3.736742e+01 1.875000e-01 -1.212402e-01 1.519598e+00 -4.319458e+00 4.145035e+00
3.821587e+01 2.135417e-01 -1.214522e-01 1.520042e+00 -4.295715e+00 4.139587e+00
3.802385e+01 2.083333e-01 -1.218114e-01 1.520359e+00 -4.302414e+00 4.138428e+00
3.783282e+01 1.979167e-01 -1.214855e-01 1.520715e+00 -4.304703e+00 4.141052e+00
3.752229e+01 1.979167e-01 -1.216557e-01 1.521251e+00 -4.325989e+00 4.147400e+00
3.831343e+01 2.083333e-01 -1.219094e-01 1.521594e+00 -4.315765e+00 4.144104e+00
3.745627e+01 1.979167e-01 -1.220729e-01 1.522319e+00 -4.310333e+00 4.140274e+00
3.749315e+01 1.927083e-01 -1.217002e-01 1.522933e+00 -4.320572e+00 4.147278e+00
3.889597e+01 1.979167e-01 -1.221313e-01 1.523225e+00 -4.322052e+00 4.148178e+00
3.853590e+01 2.031250e-01 -1.222651e-01 1.523875e+00 -4.316788e+00 4.145752e+00
3.761569e+01 1.927083e-01 -1.232599e-01 1.523852e+00 -4.309433e+00 4.137070e+00
3.801514e+01 2.083333e-01 -1.226357e-01 1.524715e+00 -4.304337e+00 4.139908e+00
3.795775e+01 1.979167e-01 -1.225003e-01 1.525359e+00 -4.306351e+00 4.144714e+00
3.818567e+01 2.083333e-01 -1.224300e-01 1.525824e+00 -4.312653e+00 4.145370e+00
3.861182e+01 1.979167e-01 -1.232894e-01 1.525893e+00 -4.336548e+00 4.147827e+00
3.767433e+01 1.979167e-01 -1.233733e-01 1.526196e+00 -4.313828e+00 4.138168e+00
3.785127e+01 2.031250e-01 -1.229270e-01 1.526882e+00 -4.306870e+00 4.141342e+00
3.781502e+01 2.031250e-01 -1.229612e-01 1.527540e+00 -4.307266e+00 4.142792e+00
3.821996e+01 2.031250e-01 -1.228897e-01 1.528164e+00 -4.332184e+00 4.151413e+00
3.781647e+01 2.031250e-01 -1.231171e-01 1.528524e+00 -4.311493e+00 4.142609e+00
3.826968e+01 2.031250e-01 -1.232185e-01 1.528806e+00 -4.334351e+00 4.148407e+00
3.741431e+01 2.031250e-01 -1.229225e-01 1.529602e+00 -4.309891e+00 4.145172e+00
3.746338e+01 1.927083e-01 -1.232180e-01 1.529934e+00 -4.321823e+00 4.145737e+00
3.819299e+01 2.031250e-01 -1.229490e-01 1.530516e+00 -4.310440e+00 4.147827e+00
3.773871e+01 1.979167e-01 -1.230422e-01 1.531278e+00 -4.319290e+00 4.150360e+00
3.769061e+01 2.031250e-01 -1.232252e-01 1.531267e+00 -4.311646e+00 4.144302e+00
3.764517e+01 1.979167e-01 -1.231165e-01 1.531931e+00 -4.318161e+00 4.147842e+00
3.757542e+01 1.927083e-01 -1.228629e-01 1.532475e+00 -4.322830e+00 4.150162e+00
3.766763e+01 1.875000e-01 -1.233207e-01 1.532696e+00 -4.332916e+00 4.151184e+00
3.839365e+01 2.083333e-01 -1.233380e-01 1.533692e+00 -4.321503e+00 4.149994e+00
3.748022e+01 1.979167e-01 -1.239049e-01 1.533790e+00 -4.320099e+00 4.144730e+00
3.782593e+01 1.927083e-01 -1.236049e-01 1.534443e+00 -4.338715e+00 4.152206e+00
3.845982e+01 2.031250e-01 -1.236870e-01 1.534763e+00 -4.321838e+00 4.149902e+00
3.783484e+01 2.031250e-01 -1.241982e-01 1.535080e+00 -4.323349e+00 4.144745e+00
3.837442e+01 2.031250e-01 -1.240077e-01 1.536044e+00 -4.337799e+00 4.151215e+00
3.845357e+01 2.135417e-01 -1.240510e-01 1.536334e+00 -4.329727e+00 4.149033e+00
3.751457e+01 2.031250e-01 -1.241901e-01 1.536786e+00 -4.319290e+00 4.145203e+00
3.776672e+01 2.083333e-01 -1.236353e-01 1.537386e+00 -4.326492e+00 4.148544e+00
3.774333e+01 1.979167e-01 -1.243052e-01 1.537548e+00 -4.332870e+00 4.147354e+00
3.711504e+01 1.927083e-01 -1.242305e-01 1.538444e+00 -4.325043e+00 4.150330e+00
3.731454e+01 1.979167e-01 -1.238176e-01 1.538772e+00 -4.321701e+00 4.149902e+00
3.721622e+01 1.927083e-01 -1.241918e-01 1.539340e+00 -4.325821e+00 4.146469e+00
3.873444e+01 2.083333e-01 -1.235151e-01 1.540238e+00 -4.337524e+00 4.157059e+00
3.730470e+01 1.979167e-01 -1.243134e-01 1.540362e+00 -4.325531e+00 4.147186e+00
3.772417e+01 2.031250e-01 -1.239760e-01 1.541018e+00 -4.326172e+00 4.149857e+00
3.771925e+01 1.979167e-01 -1.240654e-01 1.541578e+00 -4.337402e+00 4.153473e+00
3.871405e+01 2.031250e-01 -1.242010e-01 1.541702e+00 -4.339676e+00 4.156693e+00
3.745428e+01 1.979167e-01 -1.244011e-01 1.542051e+00 -4.325943e+00 4.146652e+00
3.762158e+01 1.979167e-01 -1.244845e-01 1.542785e+00 -4.334061e+00 4.148056e+00
3.798361e+01 1.927083e-01 -1.248541e-01 1.543063e+00 -4.349686e+00 4.149551e+00
3.842625e+01 2.031250e-01 -1.236357e-01 1.544161e+00 -4.336868e+00 4.155670e+00
3.779164e+01 1.875000e-01 -1.246994e-01 1.544305e+00 -4.340408e+00 4.148300e+00
3.739851e+01 1.979167e-01 -1.240874e-01 1.545031e+00 -4.333252e+00 4.151367e+00
3.765186e+01 1.822917e-01 -1.241879e-01 1.545626e+00 -4.342987e+00 4.155182e+00
3.766302e+01 1.927083e-01 -1.242916e-01 1.545946e+00 -4.332687e+00 4.150818e+00
3.779045e+01 1.927083e-01 -1.243678e-01 1.546610e+00 -4.350388e+00 4.156784e+00
3.772237e+01 1.927083e-01 -1.242334e-01 1.547119e+00 -4.339737e+00 4.154663e+00
3.838687e+01 2.031250e-01 -1.240033e-01 1.547739e+00 -4.347366e+00 4.158997e+00
3.836720e+01 2.083333e-01 -1.241259e-01 1.548088e+00 -4.352188e+00 4.157791e+00
3.949417e+01 2.031250e-01 -1.247207e-01 1.548734e+00 -4.367722e+00 4.162216e+00
3.748604e+01 1.979167e-01 -1.251203e-01 1.549207e+00 -4.347443e+00 4.151413e+00
3.780002e+01 1.979167e-01 -1.246107e-01 1.549616e+00 -4.336945e+00 4.151184e+00
3.756969e+01 1.875000e-01 -1.243140e-01 1.550109e+00 -4.349350e+00 4.156036e+00
3.801047e+01 1.979167e-01 -1.245883e-01 1.550613e+00 -4.337387e+00 4.151901e+00
3.784329e+01 1.979167e-01 -1.249788e-01 1.550817e+00 -4.339096e+00 4.149597e+00
3.743159e+01 1.875000e-01 -1.245151e-01 1.551173e+00 -4.357956e+00 4.158417e+00
3.781586e+01 1.979167e-01 -1.242978e-01 1.551915e+00 -4.343582e+00 4.153763e+00
3.785928e+01 1.979167e-01 -1.239260e-01 1.552707e+00 -4.337769e+00 4.156891e+00
3.764612e+01 1.875000e-01 -1.244755e-01 1.552806e+00 -4.353455e+00 4.156296e+00
3.788306e+01 1.979167e-01 -1.246137e-01 1.553201e+00 -4.342468e+00 4.151291e+00
3.748045e+01 1.822917e-01 -1.245366e-01 1.553873e+00 -4.350540e+00 4.154480e+00
3.741032e+01 1.927083e-01 -1.242574e-01 1.554324e+00 -4.364395e+00 4.160751e+00
3.785606e+01 1.927083e-01 -1.239714e-01 1.554637e+00 -4.341171e+00 4.154694e+00
3.750856e+01 1.927083e-01 -1.245794e-01 1.555277e+00 -4.357941e+00 4.158203e+00
3.724792e+01 1.822917e-01 -1.243086e-01 1.555619e+00 -4.355957e+00 4.158829e+00
3.824098e+01 1.927083e-01 -1.245675e-01 1.556099e+00 -4.352890e+00 4.157089e+00
3.849284e+01 2.031250e-01 -1.239565e-01 1.556894e+00 -4.359299e+00 4.162338e+00
3.773624e+01 1.875000e-01 -1.244257e-01 1.557250e+00 -4.344437e+00 4.155762e+00
3.840895e+01 1.979167e-01 -1.240534e-01 1.557664e+00 -4.350143e+00 4.159973e+00
3.790163e+01 1.927083e-01 -1.237227e-01 1.558084e+00 -4.335144e+00 4.156082e+00
3.793294e+01 1.927083e-01 -1.241884e-01 1.558709e+00 -4.343842e+00 4.156906e+00
3.810040e+01 1.927083e-01 -1.239648e-01 1.559127e+00 -4.343918e+00 4.156601e+00
3.834813e+01 1.927083e-01 -1.241140e-01 1.559511e+00 -4.350525e+00 4.156815e+00
3.751866e+01 1.979167e-01 -1.240265e-01 1.560295e+00 -4.362183e+00 4.161255e+00
3.842160e+01 2.031250e-01 -1.237847e-01 1.560359e+00 -4.353394e+00 4.162674e+00
3.793146e+01 1.927083e-01 -1.237601e-01 1.561115e+00 -4.343018e+00 4.156143e+00
3.733170e+01 1.770833e-01 -1.239426e-01 1.561646e+00 -4.354813e+00 4.160141e+00
3.826353e+01 1.927083e-01 -1.238713e-01 1.562008e+00 -4.347153e+00 4.159103e+00
3.778954e+01 1.927083e-01 -1.240606e-01 1.562286e+00 -4.344940e+00 4.155411e+00
3.720349e+01 1.927083e-01 -1.236017e-01 1.563369e+00 -4.363693e+00 4.165512e+00
3.767039e+01 1.927083e-01 -1.235695e-01 1.563462e+00 -4.342087e+00 4.157043e+00
3.789037e+01 1.927083e-01 -1.235950e-01 1.564015e+00 -4.344376e+00 4.157715e+00
3.722659e+01 1.927083e-01 -1.235385e-01 1.564672e+00 -4.364944e+00 4.164200e+00
3.731702e+01 1.770833e-01 -1.234409e-01 1.565149e+00 -4.358917e+00 4.163879e+00
3.902098e+01 2.135417e-01 -1.235727e-01 1.565616e+00 -4.360840e+00 4.165848e+00
3.886470e+01 2.031250e-01 -1.242174e-01 1.566026e+00 -4.371384e+00 4.164352e+00
3.722198e+01 1.770833e-01 -1.246853e-01 1.566106e+00 -4.362045e+00 4.156677e+00
3.788411e+01 1.927083e-01 -1.239742e-01 1.566882e+00 -4.347504e+00 4.158951e+00
3.784961e+01 1.927083e-01 -1.241415e-01 1.567374e+00 -4.351105e+00 4.158035e+00
3.987535e+01 2.135417e-01 -1.242649e-01 1.567690e+00 -4.379166e+00 4.170364e+00
3.799542e+01 1.927083e-01 -1.246326e-01 1.568044e+00 -4.351288e+00 4.156631e+00
3.777644e+01 1.979167e-01 -1.244111e-01 1.568482e+00 -4.355865e+00 4.157990e+00
3.794998e+01 1.927083e-01 -1.244126e-01 1.568927e+00 -4.351471e+00 4.157974e+00
3.784529e+01 1.927083e-01 -1.242419e-01 1.569848e+00 -4.359650e+00 4.159073e+00
3.730162e+01 1.770833e-01 -1.242372e-01 1.570176e+00 -4.363251e+00 4.161667e+00
3.724748e+01 1.770833e-01 -1.244494e-01 1.570412e+00 -4.361771e+00 4.157654e+00
3.734723e+01 1.770833e-01 -1.243528e-01 1.571087e+00 -4.364777e+00 4.161758e+00
3.713803e+01 1.927083e-01 -1.245189e-01 1.571564e+00 -4.372330e+00 4.166946e+00
3.804430e+01 1.927083e-01 -1.247453e-01 1.572061e+00 -4.361176e+00 4.160568e+00
3.732974e+01 1.875000e-01 -1.245089e-01 1.572478e+00 -4.368149e+00 4.163681e+00
3.843135e+01 1.927083e-01 -1.245342e-01 1.573086e+00 -4.361862e+00 4.162903e+00
3.804082e+01 1.875000e-01 -1.245747e-01 1.573594e+00 -4.360138e+00 4.161789e+00
3.748520e+01 2.343750e-01 -1.250499e-01 1.574085e+00 -4.404922e+00 4.174164e+00
3.824057e+01 1.927083e-01 -1.252061e-01 1.574251e+00 -4.366394e+00 4.162628e+00
3.810939e+01 1.927083e-01 -1.250978e-01 1.574993e+00 -4.363480e+00 4.161255e+00
3.902379e+01 2.135417e-01 -1.256385e-01 1.575529e+00 -4.389236e+00 4.168365e+00
3.882811e+01 2.083333e-01 -1.256827e-01 1.575823e+00 -4.391052e+00 4.167053e+00
3.730656e+01 1.927083e-01 -1.259017e-01 1.576244e+00 -4.371094e+00 4.159363e+00
3.765376e+01 2.135417e-01 -1.263095e-01 1.576410e+00 -4.394684e+00 4.165344e+00
3.754321e+01 1.979167e-01 -1.258283e-01 1.577123e+00 -4.364120e+00 4.162872e+00
3.712640e+01 1.875000e-01 -1.260312e-01 1.577369e+00 -4.374527e+00 4.163437e+00
3.762875e+01 2.031250e-01 -1.261968e-01 1.577976e+00 -4.392685e+00 4.168991e+00
3.739996e+01 1.927083e-01 -1.267895e-01 1.578186e+00 -4.389038e+00 4.162964e+00
3.730046e+01 1.927083e-01 -1.264156e-01 1.578615e+00 -4.374222e+00 4.160797e+00
3.808736e+01 1.927083e-01 -1.265897e-01 1.579292e+00 -4.373795e+00 4.164276e+00
3.730023e+01 1.979167e-01 -1.265943e-01 1.579940e+00 -4.366577e+00 4.160309e+00
3.747847e+01 2.031250e-01 -1.261984e-01 1.580804e+00 -4.364487e+00 4.162872e+00
3.735518e+01 1.979167e-01 -1.263852e-01 1.580813e+00 -4.366013e+00 4.160416e+00
3.834108e+01 1.927083e-01 -1.260427e-01 1.581456e+00 -4.368210e+00 4.165695e+00
3.894836e+01 2.083333e-01 -1.264219e-01 1.581864e+00 -4.379761e+00 4.169189e+00
3.745175e+01 2.031250e-01 -1.263363e-01 1.582348e+00 -4.365005e+00 4.164139e+00
3.725165e+01 1.927083e-01 -1.261727e-01 1.582860e+00 -4.364395e+00 4.163849e+00
3.733899e+01 1.979167e-01 -1.265404e-01 1.583356e+00 -4.370071e+00 4.162964e+00
3.779575e+01 1.979167e-01 -1.264217e-01 1.583688e+00 -4.371719e+00 4.166031e+00
3.934991e+01 2.187500e-01 -1.261706e-01 1.584422e+00 -4.382629e+00 4.171524e+00
3.722983e+01 1.927083e-01 -1.265931e-01 1.584886e+00 -4.385223e+00 4.169281e+00
3.716273e+01 1.927083e-01 -1.267545e-01 1.585326e+00 -4.384659e+00 4.170074e+00
3.705734e+01 1.927083e-01 -1.264945e-01 1.585898e+00 -4.373184e+00 4.166992e+00
3.709685e+01 1.927083e-01 -1.270541e-01 1.586192e+00 -4.386368e+00 4.166504e+00
3.720868e+01 1.875000e-01 -1.268613e-01 1.586779e+00 -4.371033e+00 4.162613e+00
3.717145e+01 1.927083e-01 -1.267541e-01 1.587274e+00 -4.386658e+00 4.168503e+00
3.721011e+01 1.927083e-01 -1.277631e-01 1.587306e+00 -4.390503e+00 4.162659e+00
3.707452e+01 1.875000e-01 -1.269675e-01 1.588012e+00 -4.388062e+00 4.169769e+00
3.722028e+01 1.979167e-01 -1.272513e-01 1.588517e+00 -4.372314e+00 4.162994e+00
3.760558e+01 1.927083e-01 -1.272660e-01 1.588916e+00 -4.396149e+00 4.168549e+00
3.713977e+01 1.927083e-01 -1.275461e-01 1.589270e+00 -4.392395e+00 4.167465e+00
3.705408e+01 1.927083e-01 -1.274056e-01 1.590155e+00 -4.379898e+00 4.164459e+00
3.762553e+01 1.927083e-01 -1.269017e-01 1.590754e+00 -4.399582e+00 4.174973e+00
3.738422e+01 1.979167e-01 -1.273195e-01 1.590996e+00 -4.375565e+00 4.163834e+00
3.877127e+01 2.135417e-01 -1.271751e-01 1.591671e+00 -4.390350e+00 4.169739e+00
3.740945e+01 1.927083e-01 -1.275168e-01 1.591915e+00 -4.392593e+00 4.166626e+00
3.749615e+01 1.927083e-01 -1.272455e-01 1.592649e+00 -4.381561e+00 4.164536e+00
3.742397e+01 1.979167e-01 -1.273613e-01 1.592899e+00 -4.385773e+00 4.163956e+00
3.694659e+01 1.875000e-01 -1.274261e-01 1.593623e+00 -4.382721e+00 4.162674e+00
3.856882e+01 2.135417e-01 -1.270786e-01 1.594153e+00 -4.387924e+00 4.167450e+00
3.725487e+01 1.979167e-01 -1.272559e-01 1.594864e+00 -4.383240e+00 4.164368e+00
3.814153e+01 2.083333e-01 -1.270094e-01 1.595089e+00 -4.383011e+00 4.167252e+00
3.730597e+01 1.979167e-01 -1.273777e-01 1.595627e+00 -4.385223e+00 4.164276e+00
3.729984e+01 1.927083e-01 -1.271269e-01 1.596255e+00 -4.390839e+00 4.167694e+00
3.741171e+01 1.927083e-01 -1.275385e-01 1.596705e+00 -4.384689e+00 4.164642e+00
3.701797e+01 1.927083e-01 -1.270930e-01 1.597063e+00 -4.383270e+00 4.164047e+00
3.849403e+01 2.083333e-01 -1.268090e-01 1.597941e+00 -4.391388e+00 4.169998e+00
3.760873e+01 1.927083e-01 -1.270090e-01 1.598380e+00 -4.402466e+00 4.169769e+00
3.748376e+01 1.927083e-01 -1.271819e-01 1.598850e+00 -4.407440e+00 4.172028e+00
3.730901e+01 1.927083e-01 -1.273810e-01 1.599239e+00 -4.388916e+00 4.166199e+00
3.714427e+01 1.875000e-01 -1.269386e-01 1.599861e+00 -4.389404e+00 4.168823e+00
3.823047e+01 2.083333e-01 -1.271611e-01 1.600549e+00 -4.395966e+00 4.169739e+00
3.752823e+01 1.927083e-01 -1.270313e-01 1.601033e+00 -4.402161e+00 4.171539e+00
3.834697e+01 2.083333e-01 -1.265981e-01 1.601286e+00 -4.383743e+00 4.169724e+00
3.853520e+01 2.135417e-01 -1.267774e-01 1.601897e+00 -4.395508e+00 4.174591e+00
3.863829e+01 2.135417e-01 -1.269007e-01 1.602612e+00 -4.398666e+00 4.174484e+00
3.714432e+01 1.927083e-01 -1.271067e-01 1.602920e+00 -4.388458e+00 4.167831e+00
3.733459e+01 1.875000e-01 -1.269603e-01 1.603256e+00 -4.392075e+00 4.168625e+00
3.837563e+01 2.083333e-01 -1.270795e-01 1.603891e+00 -4.398239e+00 4.170731e+00
3.794064e+01 2.083333e-01 -1.266470e-01 1.604716e+00 -4.389084e+00 4.171387e+00
3.837955e+01 2.187500e-01 -1.272882e-01 1.604937e+00 -4.406128e+00 4.172180e+00
3.748250e+01 1.927083e-01 -1.272560e-01 1.605518e+00 -4.413712e+00 4.174072e+00
3.862483e+01 2.187500e-01 -1.270112e-01 1.605843e+00 -4.404526e+00 4.175598e+00
3.844388e+01 2.187500e-01 -1.270254e-01 1.606542e+00 -4.409683e+00 4.175186e+00
3.865442e+01 2.135417e-01 -1.267538e-01 1.607134e+00 -4.410950e+00 4.178818e+00
3.721854e+01 1.927083e-01 -1.266376e-01 1.607828e+00 -4.408310e+00 4.177765e+00
3.845209e+01 2.187500e-01 -1.266981e-01 1.608010e+00 -4.399643e+00 4.175461e+00
3.847672e+01 2.135417e-01 -1.265899e-01 1.608770e+00 -4.407852e+00 4.178162e+00
3.811203e+01 2.187500e-01 -1.271012e-01 1.609130e+00 -4.403183e+00 4.173080e+00
3.723979e+01 1.927083e-01 -1.269796e-01 1.609277e+00 -4.401993e+00 4.173615e+00
3.761588e+01 2.083333e-01 -1.272063e-01 1.610029e+00 -4.400177e+00 4.172638e+00
3.709862e+01 1.927083e-01 -1.269323e-01 1.610677e+00 -4.397675e+00 4.173492e+00
3.871678e+01 2.135417e-01 -1.270050e-01 1.611032e+00 -4.416138e+00 4.180756e+00
3.740556e+01 1.927083e-01 -1.275130e-01 1.611288e+00 -4.408890e+00 4.172821e+00
3.746846e+01 1.927083e-01 -1.268962e-01 1.611994e+00 -4.406387e+00 4.178101e+00
3.711676e+01 1.927083e-01 -1.272143e-01 1.612191e+00 -4.398743e+00 4.173233e+00
3.718019e+01 1.927083e-01 -1.275778e-01 1.612963e+00 -4.403610e+00 4.171417e+00
3.721562e+01 1.927083e-01 -1.274025e-01 1.613307e+00 -4.418808e+00 4.177078e+00
4.072879e+01 2.135417e-01 -1.268237e-01 1.614053e+00 -4.430496e+00 4.187988e+00
3.808922e+01 2.239583e-01 -1.274516e-01 1.614193e+00 -4.414368e+00 4.176865e+00
3.835367e+01 2.187500e-01 -1.274682e-01 1.614844e+00 -4.419739e+00 4.179626e+00
3.807913e+01 2.187500e-01 -1.276229e-01 1.615137e+00 -4.413132e+00 4.176559e+00
3.730765e+01 1.927083e-01 -1.280359e-01 1.615730e+00 -4.411011e+00 4.172028e+00
3.839003e+01 2.187500e-01 -1.275907e-01 1.616139e+00 -4.417755e+00 4.179535e+00
3.751910e+01 2.083333e-01 -1.279682e-01 1.616527e+00 -4.430420e+00 4.178543e+00
3.960101e+01 2.135417e-01 -1.274467e-01 1.617148e+00 -4.432144e+00 4.186417e+00
3.736797e+01 1.927083e-01 -1.279360e-01 1.617267e+00 -4.424484e+00 4.175156e+00
3.747380e+01 1.927083e-01 -1.283803e-01 1.617740e+00 -4.413773e+00 4.171448e+00
3.713284e+01 1.979167e-01 -1.280444e-01 1.618518e+00 -4.410690e+00 4.174332e+00
3.741182e+01 1.927083e-01 -1.281204e-01 1.618953e+00 -4.417999e+00 4.176605e+00
3.724190e+01 1.927083e-01 -1.279158e-01 1.619335e+00 -4.413788e+00 4.175766e+00
3.889699e+01 2.239583e-01 -1.277851e-01 1.619863e+00 -4.422882e+00 4.181610e+00
3.752510e+01 1.979167e-01 -1.278784e-01 1.620418e+00 -4.417755e+00 4.178513e+00
3.769519e+01 2.239583e-01 -1.283956e-01 1.620860e+00 -4.417282e+00 4.177063e+00
3.739035e+01 2.083333e-01 -1.284318e-01 1.621341e+00 -4.418930e+00 4.174698e+00
3.753207e+01 2.187500e-01 -1.282409e-01 1.622028e+00 -4.418503e+00 4.177399e+00
3.752136e+01 1.979167e-01 -1.284076e-01 1.622092e+00 -4.420105e+00 4.174881e+00
3.739685e+01 1.979167e-01 -1.288361e-01 1.622559e+00 -4.419296e+00 4.173569e+00
3.741768e+01 2.083333e-01 -1.286716e-01 1.623117e+00 -4.415970e+00 4.174911e+00
3.745357e+01 1.979167e-01 -1.283694e-01 1.623662e+00 -4.421585e+00 4.179779e+00
3.747801e+01 1.979167e-01 -1.286501e-01 1.624135e+00 -4.424500e+00 4.179260e+00
3.752032e+01 2.083333e-01 -1.289398e-01 1.624516e+00 -4.417450e+00 4.176971e+00
