-3.592710e-02 9.515951e-01 -1.867188e+00 2.109375e+00 -5.507328e-04 3.055016e-02 -1.796875e-01 1.718750e-01
2.131935e-02 8.523448e-01 -1.867188e+00 2.109375e+00 1.756628e-03 2.668623e-02 -1.601562e-01 1.718750e-01
-7.665903e-02 7.983717e-01 -1.917969e+00 1.992188e+00 -5.197002e-04 2.570860e-02 -1.601562e-01 1.289062e-01
-4.891064e-02 7.680486e-01 -2.023438e+00 2.019531e+00 5.108153e-04 2.513614e-02 -1.328125e-01 1.406250e-01
-6.274188e-02 7.679607e-01 -2.074219e+00 2.027344e+00 3.035018e-04 2.504851e-02 -1.328125e-01 1.406250e-01
-7.415545e-02 8.008289e-01 -2.097656e+00 2.066406e+00 2.780061e-04 2.525758e-02 -1.445312e-01 1.406250e-01
-3.001325e-01 1.384825e+00 -4.742188e+00 3.765625e+00 1.070562e-03 2.436691e-02 -1.445312e-01 1.640625e-01
-6.934950e-01 1.987218e+00 -6.636719e+00 4.824219e+00 -1.196109e-03 2.447637e-02 -1.796875e-01 1.914062e-01
-7.788165e-01 2.435890e+00 -8.421875e+00 5.554688e+00 -4.913716e-04 2.565339e-02 -1.953125e-01 3.046875e-01
-7.766464e-01 2.991579e+00 -1.069141e+01 6.863281e+00 1.372647e-04 3.124526e-02 -1.835938e-01 4.609375e-01
-7.953435e-01 3.167814e+00 -1.106641e+01 7.054688e+00 1.764096e-05 3.412045e-02 -2.109375e-01 5.156250e-01
-7.919956e-01 3.179490e+00 -1.107031e+01 7.054688e+00 2.570172e-04 3.462432e-02 -2.109375e-01 5.156250e-01
-8.121157e-01 3.182881e+00 -1.109375e+01 7.054688e+00 5.845983e-04 3.312698e-02 -1.875000e-01 5.234375e-01
-8.485752e-01 3.166775e+00 -1.109766e+01 7.054688e+00 3.798601e-05 3.193635e-02 -1.875000e-01 5.156250e-01
-8.602159e-01 3.171868e+00 -1.111328e+01 7.054688e+00 1.631467e-04 3.244386e-02 -1.914062e-01 5.234375e-01
-8.848809e-01 3.177445e+00 -1.112891e+01 7.054688e+00 3.309290e-04 3.232963e-02 -1.953125e-01 5.351562e-01
-9.094950e-01 3.158735e+00 -1.113281e+01 7.054688e+00 -1.476948e-04 3.094190e-02 -1.875000e-01 5.039062e-01
-9.047693e-01 3.158177e+00 -1.113672e+01 7.054688e+00 -1.469222e-04 3.063152e-02 -1.835938e-01 4.960938e-01
-8.973784e-01 3.171370e+00 -1.115234e+01 7.054688e+00 1.498838e-04 3.156077e-02 -1.875000e-01 5.000000e-01
-9.030784e-01 3.163798e+00 -1.115234e+01 7.054688e+00 -1.661083e-05 3.135331e-02 -1.835938e-01 4.882812e-01
-9.043794e-01 3.165737e+00 -1.117188e+01 7.054688e+00 -1.035280e-04 3.155594e-02 -1.835938e-01 4.882812e-01
-8.831290e-01 3.187796e+00 -1.130078e+01 7.070312e+00 -8.382677e-05 3.267080e-02 -2.148438e-01 4.648438e-01
-8.615508e-01 3.208142e+00 -1.136719e+01 7.074219e+00 -4.107640e-05 3.369660e-02 -2.226562e-01 4.570312e-01
-8.429486e-01 3.226002e+00 -1.141016e+01 7.082031e+00 -4.545445e-05 3.472676e-02 -2.421875e-01 4.335938e-01
-8.214801e-01 3.247300e+00 -1.148438e+01 7.093750e+00 4.159147e-05 3.558131e-02 -2.851562e-01 4.335938e-01
-8.235700e-01 3.249092e+00 -1.149219e+01 7.093750e+00 6.682963e-05 3.562168e-02 -2.851562e-01 4.414062e-01
-8.235700e-01 3.249092e+00 -1.149219e+01 7.093750e+00 6.682963e-05 3.562168e-02 -2.851562e-01 4.414062e-01
-8.235700e-01 3.249092e+00 -1.149219e+01 7.093750e+00 6.682963e-05 3.562168e-02 -2.851562e-01 4.414062e-01
-8.291242e-01 3.243307e+00 -1.149219e+01 7.093750e+00 -5.240782e-05 3.554919e-02 -2.851562e-01 4.335938e-01
-8.329027e-01 3.236365e+00 -1.149219e+01 7.093750e+00 -3.698164e-04 3.560811e-02 -2.968750e-01 4.179688e-01
-8.238706e-01 3.246161e+00 -1.149219e+01 7.093750e+00 -4.275036e-05 3.566589e-02 -2.851562e-01 4.179688e-01
-8.179796e-01 3.251088e+00 -1.149219e+01 7.093750e+00 1.435743e-04 3.582832e-02 -2.617188e-01 4.335938e-01
-8.412329e-01 3.242286e+00 -1.150781e+01 7.093750e+00 -1.440893e-04 3.580411e-02 -2.851562e-01 4.257812e-01
-8.635299e-01 3.234868e+00 -1.151562e+01 7.093750e+00 -3.359509e-04 3.567421e-02 -2.695312e-01 4.218750e-01
-8.398076e-01 3.237787e+00 -1.151562e+01 7.093750e+00 -1.439606e-04 3.583286e-02 -2.929688e-01 4.140625e-01
-8.147798e-01 3.250756e+00 -1.151562e+01 7.093750e+00 2.655158e-04 3.605488e-02 -2.929688e-01 4.726562e-01
-8.188397e-01 3.253157e+00 -1.151953e+01 7.093750e+00 1.962396e-04 3.614117e-02 -2.734375e-01 4.648438e-01
-8.337741e-01 3.251046e+00 -1.152734e+01 7.093750e+00 5.459685e-05 3.621959e-02 -2.695312e-01 4.648438e-01
-8.695826e-01 3.238204e+00 -1.153125e+01 7.093750e+00 -5.745546e-04 3.575395e-02 -2.734375e-01 4.140625e-01
-8.497800e-01 3.248861e+00 -1.153125e+01 7.093750e+00 3.038881e-05 3.588124e-02 -2.734375e-01 4.492188e-01
-8.470369e-01 3.249984e+00 -1.153125e+01 7.093750e+00 1.138293e-04 3.566806e-02 -2.578125e-01 4.375000e-01
-8.472109e-01 3.249198e+00 -1.153125e+01 7.093750e+00 8.730345e-05 3.563264e-02 -2.578125e-01 4.375000e-01
-8.470821e-01 3.249029e+00 -1.153125e+01 7.093750e+00 7.803229e-05 3.561421e-02 -2.578125e-01 4.375000e-01
-8.861559e-01 3.240498e+00 -1.153906e+01 7.093750e+00 -2.612665e-04 3.523590e-02 -2.695312e-01 4.375000e-01
-8.956864e-01 3.241906e+00 -1.155859e+01 7.097656e+00 -2.358996e-04 3.526767e-02 -2.578125e-01 4.453125e-01
-8.865842e-01 3.244542e+00 -1.155859e+01 7.097656e+00 -1.180786e-04 3.509867e-02 -2.578125e-01 4.453125e-01
-8.877880e-01 3.241889e+00 -1.155859e+01 7.097656e+00 -1.882561e-04 3.481096e-02 -2.578125e-01 4.375000e-01
-8.741726e-01 3.249209e+00 -1.156641e+01 7.097656e+00 -6.309541e-06 3.524879e-02 -2.578125e-01 4.375000e-01
-8.647857e-01 3.253154e+00 -1.156641e+01 7.097656e+00 2.626830e-05 3.522720e-02 -2.578125e-01 4.335938e-01
-8.590687e-01 3.255366e+00 -1.157031e+01 7.097656e+00 -9.284040e-05 3.538794e-02 -2.578125e-01 4.257812e-01
-8.579181e-01 3.256218e+00 -1.157031e+01 7.097656e+00 -7.416930e-05 3.534640e-02 -2.578125e-01 4.257812e-01
-8.588336e-01 3.254675e+00 -1.157031e+01 7.097656e+00 -9.451436e-05 3.540121e-02 -2.617188e-01 4.257812e-01
-8.653361e-01 3.247287e+00 -1.157031e+01 7.097656e+00 -2.446557e-04 3.515279e-02 -2.617188e-01 4.257812e-01
-8.642171e-01 3.248521e+00 -1.157031e+01 7.097656e+00 -2.190312e-04 3.512802e-02 -2.617188e-01 4.257812e-01
-8.570851e-01 3.253706e+00 -1.157031e+01 7.097656e+00 -8.472813e-05 3.550312e-02 -2.578125e-01 4.335938e-01
-8.703308e-01 3.270370e+00 -1.158984e+01 7.097656e+00 1.962396e-04 3.618474e-02 -2.460938e-01 4.609375e-01
-8.732548e-01 3.261775e+00 -1.158984e+01 7.097656e+00 9.013631e-07 3.568091e-02 -2.617188e-01 4.570312e-01
-8.767124e-01 3.253801e+00 -1.159375e+01 7.097656e+00 -2.355133e-04 3.528724e-02 -2.734375e-01 4.140625e-01
-8.655203e-01 3.268198e+00 -1.159375e+01 7.097656e+00 1.577385e-04 3.600433e-02 -2.578125e-01 4.570312e-01
-8.652785e-01 3.266255e+00 -1.159375e+01 7.097656e+00 8.897741e-05 3.597722e-02 -2.578125e-01 4.570312e-01
-8.369706e-01 3.282010e+00 -1.159375e+01 7.097656e+00 3.623480e-04 3.677819e-02 -2.343750e-01 4.609375e-01
-8.491256e-01 3.265675e+00 -1.159375e+01 7.097656e+00 2.008752e-05 3.587798e-02 -2.695312e-01 4.531250e-01
-8.550901e-01 3.267983e+00 -1.160938e+01 7.101562e+00 -1.377798e-05 3.582970e-02 -2.734375e-01 4.531250e-01
-8.786418e-01 3.282900e+00 -1.160938e+01 7.101562e+00 2.490337e-04 3.635446e-02 -2.617188e-01 4.609375e-01
-9.201344e-01 3.273065e+00 -1.165234e+01 7.109375e+00 -4.751471e-05 3.514807e-02 -2.421875e-01 4.179688e-01
-9.247346e-01 3.267744e+00 -1.165234e+01 7.109375e+00 -2.026779e-04 3.470699e-02 -2.578125e-01 4.023438e-01
-9.183282e-01 3.277064e+00 -1.165234e+01 7.109375e+00 6.567074e-06 3.495794e-02 -2.460938e-01 4.023438e-01
-9.172341e-01 3.278841e+00 -1.165234e+01 7.109375e+00 6.219405e-05 3.504990e-02 -2.460938e-01 4.179688e-01
-9.157274e-01 3.280336e+00 -1.165234e+01 7.109375e+00 9.824857e-05 3.507555e-02 -2.304688e-01 4.179688e-01
-9.373406e-01 3.266018e+00 -1.165625e+01 7.109375e+00 -3.005402e-04 3.450869e-02 -2.617188e-01 4.023438e-01
-9.342990e-01 3.267460e+00 -1.165625e+01 7.109375e+00 -2.456858e-04 3.447809e-02 -2.617188e-01 4.023438e-01
-9.298989e-01 3.273160e+00 -1.165625e+01 7.109375e+00 -1.247744e-04 3.487790e-02 -2.460938e-01 4.335938e-01
-9.091989e-01 3.283079e+00 -1.166406e+01 7.109375e+00 1.657220e-04 3.520939e-02 -2.617188e-01 4.375000e-01
-9.160428e-01 3.281414e+00 -1.167969e+01 7.109375e+00 -1.854233e-05 3.501200e-02 -2.578125e-01 4.375000e-01
-9.202745e-01 3.284601e+00 -1.167969e+01 7.109375e+00 -4.764348e-06 3.522591e-02 -2.460938e-01 4.375000e-01
-9.233715e-01 3.279353e+00 -1.167969e+01 7.109375e+00 -8.318293e-05 3.543419e-02 -2.500000e-01 4.375000e-01
-9.075679e-01 3.293857e+00 -1.169922e+01 7.113281e+00 4.584075e-05 3.664177e-02 -2.851562e-01 4.179688e-01
-9.170114e-01 3.298485e+00 -1.170703e+01 7.113281e+00 -5.511191e-05 3.546896e-02 -2.500000e-01 4.687500e-01
-9.131651e-01 3.295415e+00 -1.170703e+01 7.113281e+00 -7.687339e-05 3.537855e-02 -2.734375e-01 4.648438e-01
-9.132860e-01 3.294867e+00 -1.170703e+01 7.113281e+00 -1.000513e-04 3.530832e-02 -2.734375e-01 4.648438e-01
-9.124891e-01 3.296875e+00 -1.170703e+01 7.113281e+00 -2.137518e-05 3.540246e-02 -2.460938e-01 4.648438e-01
-9.121275e-01 3.299456e+00 -1.170703e+01 7.113281e+00 1.442181e-05 3.539601e-02 -2.460938e-01 4.648438e-01
-9.103167e-01 3.300843e+00 -1.170703e+01 7.113281e+00 1.416428e-06 3.554991e-02 -2.500000e-01 4.648438e-01
-9.111803e-01 3.299481e+00 -1.171094e+01 7.113281e+00 -7.030632e-05 3.579844e-02 -2.539062e-01 4.648438e-01
-8.694288e-01 3.309989e+00 -1.173047e+01 7.113281e+00 8.794728e-05 3.598555e-02 -2.851562e-01 4.492188e-01
-8.717222e-01 3.313866e+00 -1.173047e+01 7.113281e+00 9.412806e-05 3.610508e-02 -2.890625e-01 4.492188e-01
-8.814720e-01 3.326402e+00 -1.173438e+01 7.113281e+00 2.067984e-04 3.682563e-02 -2.500000e-01 4.609375e-01
-8.885758e-01 3.315716e+00 -1.173438e+01 7.113281e+00 4.262160e-05 3.642119e-02 -2.734375e-01 4.609375e-01
-8.830318e-01 3.321991e+00 -1.175781e+01 7.121094e+00 4.437282e-04 3.602187e-02 -2.734375e-01 4.687500e-01
-8.921124e-01 3.317044e+00 -1.175781e+01 7.121094e+00 2.950033e-04 3.581883e-02 -2.617188e-01 4.648438e-01
-9.167334e-01 3.319865e+00 -1.176172e+01 7.121094e+00 1.102238e-04 3.617668e-02 -2.500000e-01 4.687500e-01
-9.218388e-01 3.311680e+00 -1.176172e+01 7.121094e+00 -1.622454e-05 3.591105e-02 -2.734375e-01 4.570312e-01
-9.222457e-01 3.308894e+00 -1.176172e+01 7.121094e+00 -6.914742e-05 3.574434e-02 -2.734375e-01 4.570312e-01
-9.224458e-01 3.308251e+00 -1.176172e+01 7.121094e+00 -9.039384e-05 3.594827e-02 -2.890625e-01 4.570312e-01
-9.224944e-01 3.307587e+00 -1.176953e+01 7.125000e+00 -1.064896e-04 3.583175e-02 -2.890625e-01 4.570312e-01
-9.176941e-01 3.317546e+00 -1.176953e+01 7.125000e+00 4.390926e-05 3.610661e-02 -2.734375e-01 4.648438e-01
-9.189702e-01 3.319199e+00 -1.176953e+01 7.125000e+00 6.695840e-05 3.607136e-02 -2.734375e-01 4.648438e-01
-9.202768e-01 3.314270e+00 -1.176953e+01 7.125000e+00 1.030129e-05 3.601066e-02 -2.734375e-01 4.648438e-01
-9.214873e-01 3.311287e+00 -1.176953e+01 7.125000e+00 -1.905739e-05 3.587626e-02 -2.734375e-01 4.570312e-01
-9.220050e-01 3.310939e+00 -1.176953e+01 7.125000e+00 -4.107640e-05 3.582237e-02 -2.734375e-01 4.570312e-01
-9.542937e-01 3.302765e+00 -1.177734e+01 7.125000e+00 -1.532317e-04 3.524457e-02 -2.656250e-01 4.648438e-01
-9.677022e-01 3.298750e+00 -1.177734e+01 7.125000e+00 -2.158121e-04 3.474935e-02 -2.734375e-01 4.296875e-01
-9.652608e-01 3.300516e+00 -1.177734e+01 7.125000e+00 -1.872260e-04 3.490636e-02 -2.734375e-01 4.296875e-01
-9.243198e-01 3.323092e+00 -1.177734e+01 7.125000e+00 -2.002314e-04 3.675033e-02 -2.812500e-01 4.492188e-01
-8.847046e-01 3.333531e+00 -1.179688e+01 7.128906e+00 -2.043519e-04 3.736286e-02 -3.085938e-01 4.375000e-01
-8.801789e-01 3.330319e+00 -1.179688e+01 7.128906e+00 -1.722891e-04 3.685241e-02 -3.085938e-01 4.375000e-01
-8.767983e-01 3.342858e+00 -1.179688e+01 7.128906e+00 2.861184e-04 3.703547e-02 -2.695312e-01 4.492188e-01
-9.021109e-01 3.334780e+00 -1.180469e+01 7.128906e+00 1.992012e-04 3.657560e-02 -2.695312e-01 4.648438e-01
-9.576857e-01 3.314782e+00 -1.181250e+01 7.128906e+00 -4.558322e-04 3.580564e-02 -2.890625e-01 4.257812e-01
-9.418663e-01 3.321198e+00 -1.181250e+01 7.128906e+00 -1.457633e-04 3.610455e-02 -2.929688e-01 4.257812e-01
-9.225272e-01 3.324617e+00 -1.181641e+01 7.128906e+00 -2.738856e-04 3.678277e-02 -3.242188e-01 4.453125e-01
-9.039182e-01 3.332801e+00 -1.181641e+01 7.128906e+00 -2.982224e-04 3.735002e-02 -3.125000e-01 4.687500e-01
-8.908058e-01 3.345473e+00 -1.182031e+01 7.128906e+00 3.718766e-04 3.642253e-02 -2.929688e-01 4.609375e-01
-8.940373e-01 3.342626e+00 -1.182031e+01 7.128906e+00 3.738081e-04 3.618707e-02 -2.929688e-01 4.609375e-01
-9.121331e-01 3.339003e+00 -1.182031e+01 7.128906e+00 3.116141e-05 3.661648e-02 -2.851562e-01 4.687500e-01
-8.950082e-01 3.357900e+00 -1.182031e+01 7.128906e+00 3.087812e-04 3.760320e-02 -2.539062e-01 4.765625e-01
-9.009038e-01 3.345295e+00 -1.182031e+01 7.128906e+00 1.175635e-04 3.679981e-02 -2.734375e-01 4.687500e-01
-9.040460e-01 3.342251e+00 -1.182031e+01 7.128906e+00 5.112016e-05 3.662678e-02 -2.851562e-01 4.687500e-01
-9.203593e-01 3.334246e+00 -1.182031e+01 7.128906e+00 -6.438308e-05 3.640421e-02 -2.812500e-01 4.687500e-01
-9.219598e-01 3.332919e+00 -1.182031e+01 7.128906e+00 -9.914994e-05 3.636525e-02 -2.929688e-01 4.687500e-01
-9.207911e-01 3.340128e+00 -1.182031e+01 7.128906e+00 4.133393e-05 3.645765e-02 -2.812500e-01 4.765625e-01
-9.229702e-01 3.339794e+00 -1.182031e+01 7.128906e+00 4.378049e-05 3.641192e-02 -2.656250e-01 4.726562e-01
-9.277683e-01 3.335266e+00 -1.182031e+01 7.128906e+00 -2.819979e-05 3.624145e-02 -2.812500e-01 4.726562e-01
-9.307251e-01 3.332704e+00 -1.182031e+01 7.128906e+00 -6.618580e-05 3.606715e-02 -2.812500e-01 4.648438e-01
-9.306381e-01 3.332729e+00 -1.182031e+01 7.128906e+00 -6.618580e-05 3.606715e-02 -2.812500e-01 4.648438e-01
-9.341645e-01 3.332394e+00 -1.182031e+01 7.128906e+00 -4.094764e-05 3.606203e-02 -2.812500e-01 4.648438e-01
-9.299949e-01 3.343918e+00 -1.182812e+01 7.128906e+00 7.082138e-05 3.647747e-02 -2.812500e-01 4.765625e-01
-9.303747e-01 3.342873e+00 -1.182812e+01 7.128906e+00 4.596952e-05 3.636218e-02 -2.656250e-01 4.765625e-01
-9.342764e-01 3.346642e+00 -1.183594e+01 7.128906e+00 3.824355e-05 3.632471e-02 -2.656250e-01 4.765625e-01
-8.898089e-01 3.360792e+00 -1.184766e+01 7.128906e+00 2.499351e-04 3.724208e-02 -2.812500e-01 4.609375e-01
-8.552065e-01 3.367036e+00 -1.184766e+01 7.128906e+00 2.731130e-04 3.733628e-02 -2.929688e-01 4.570312e-01
-8.594722e-01 3.363890e+00 -1.184766e+01 7.128906e+00 1.676535e-04 3.727652e-02 -3.085938e-01 4.570312e-01
-8.647269e-01 3.371143e+00 -1.184766e+01 7.128906e+00 2.073135e-04 3.741640e-02 -3.046875e-01 4.453125e-01
-8.783671e-01 3.365093e+00 -1.185156e+01 7.128906e+00 1.285086e-04 3.704717e-02 -2.812500e-01 4.687500e-01
-8.783671e-01 3.365093e+00 -1.185156e+01 7.128906e+00 1.285086e-04 3.704717e-02 -2.812500e-01 4.687500e-01
-8.819456e-01 3.359024e+00 -1.185156e+01 7.128906e+00 3.515316e-05 3.761881e-02 -3.085938e-01 4.453125e-01
-8.804491e-01 3.367632e+00 -1.185156e+01 7.128906e+00 1.855520e-04 3.770602e-02 -3.085938e-01 4.726562e-01
-8.768311e-01 3.370680e+00 -1.185156e+01 7.128906e+00 2.768472e-04 3.766609e-02 -2.539062e-01 4.726562e-01
-8.958865e-01 3.355597e+00 -1.185547e+01 7.128906e+00 -3.605452e-06 3.690748e-02 -2.929688e-01 4.687500e-01
-8.880966e-01 3.370567e+00 -1.185547e+01 7.128906e+00 2.504502e-04 3.772959e-02 -2.539062e-01 4.726562e-01
-8.958390e-01 3.363109e+00 -1.185938e+01 7.128906e+00 1.597988e-04 3.727474e-02 -2.851562e-01 4.687500e-01
-8.991767e-01 3.364089e+00 -1.185938e+01 7.128906e+00 1.882561e-04 3.719633e-02 -2.656250e-01 4.726562e-01
-9.093515e-01 3.348163e+00 -1.185938e+01 7.128906e+00 -8.305417e-05 3.653656e-02 -3.046875e-01 4.648438e-01
-9.135426e-01 3.351119e+00 -1.185938e+01 7.128906e+00 1.158895e-06 3.667917e-02 -3.046875e-01 4.648438e-01
-9.146378e-01 3.358275e+00 -1.186719e+01 7.128906e+00 1.246456e-04 3.702695e-02 -3.046875e-01 4.648438e-01
-9.175980e-01 3.358907e+00 -1.186719e+01 7.128906e+00 1.184649e-04 3.712789e-02 -2.812500e-01 4.648438e-01
-9.174613e-01 3.360051e+00 -1.186719e+01 7.128906e+00 1.044293e-04 3.694949e-02 -2.656250e-01 4.765625e-01
-9.190561e-01 3.350400e+00 -1.186719e+01 7.128906e+00 -1.442181e-05 3.664167e-02 -2.929688e-01 4.648438e-01
-9.279265e-01 3.347966e+00 -1.186719e+01 7.128906e+00 -6.992002e-05 3.644987e-02 -3.046875e-01 4.648438e-01
-9.280407e-01 3.353069e+00 -1.186719e+01 7.128906e+00 3.244907e-05 3.640166e-02 -2.773438e-01 4.726562e-01
-9.290082e-01 3.352378e+00 -1.186719e+01 7.128906e+00 2.858609e-05 3.651324e-02 -2.773438e-01 4.726562e-01
-9.365992e-01 3.362517e+00 -1.189062e+01 7.132812e+00 -2.176148e-05 3.685711e-02 -2.929688e-01 4.609375e-01
-9.859133e-01 3.370339e+00 -1.192188e+01 7.132812e+00 9.142397e-06 3.633119e-02 -2.890625e-01 4.609375e-01
-1.022872e+00 3.381896e+00 -1.203516e+01 7.144531e+00 5.060510e-05 3.574489e-02 -2.890625e-01 4.257812e-01
-1.019070e+00 3.390002e+00 -1.203516e+01 7.144531e+00 6.296665e-05 3.643670e-02 -2.734375e-01 4.648438e-01
-1.019232e+00 3.387905e+00 -1.203516e+01 7.144531e+00 -2.472310e-05 3.616831e-02 -2.734375e-01 4.296875e-01
-1.020523e+00 3.390025e+00 -1.203516e+01 7.144531e+00 -5.485438e-05 3.671809e-02 -2.968750e-01 4.687500e-01
-1.019587e+00 3.396683e+00 -1.203516e+01 7.144531e+00 -4.146270e-05 3.670465e-02 -2.617188e-01 4.687500e-01
-1.019952e+00 3.381267e+00 -1.203516e+01 7.144531e+00 -1.394537e-04 3.651492e-02 -3.046875e-01 4.609375e-01
-1.013931e+00 3.381185e+00 -1.203516e+01 7.144531e+00 -1.277360e-04 3.640782e-02 -2.968750e-01 4.179688e-01
-1.006393e+00 3.392579e+00 -1.203516e+01 7.144531e+00 -3.013128e-05 3.666328e-02 -2.890625e-01 4.609375e-01
-1.002987e+00 3.387520e+00 -1.203516e+01 7.144531e+00 -9.567325e-05 3.653955e-02 -2.968750e-01 4.570312e-01
-1.000973e+00 3.384599e+00 -1.203516e+01 7.144531e+00 -9.992253e-05 3.662420e-02 -2.968750e-01 4.570312e-01
-9.991534e-01 3.384742e+00 -1.203516e+01 7.144531e+00 -8.794728e-05 3.656080e-02 -2.968750e-01 4.570312e-01
-9.991048e-01 3.392424e+00 -1.203516e+01 7.144531e+00 -2.407927e-05 3.658787e-02 -2.890625e-01 4.570312e-01
-9.934410e-01 3.387966e+00 -1.203516e+01 7.144531e+00 -7.352547e-05 3.668979e-02 -3.203125e-01 4.570312e-01
-9.863225e-01 3.393390e+00 -1.203516e+01 7.144531e+00 -2.343544e-05 3.657371e-02 -2.890625e-01 4.570312e-01
-9.852080e-01 3.393773e+00 -1.203516e+01 7.144531e+00 -2.510940e-05 3.659114e-02 -2.890625e-01 4.570312e-01
-9.842699e-01 3.393639e+00 -1.203516e+01 7.144531e+00 -2.163271e-05 3.658374e-02 -2.890625e-01 4.570312e-01
-9.846666e-01 3.392163e+00 -1.203516e+01 7.144531e+00 -3.772848e-05 3.669804e-02 -2.890625e-01 4.570312e-01
-9.846666e-01 3.392163e+00 -1.203516e+01 7.144531e+00 -3.772848e-05 3.669804e-02 -2.890625e-01 4.570312e-01
-9.732858e-01 3.417722e+00 -1.203516e+01 7.144531e+00 1.572235e-04 3.819889e-02 -2.500000e-01 4.687500e-01
-9.757984e-01 3.398994e+00 -1.203516e+01 7.144531e+00 4.442432e-05 3.718341e-02 -2.890625e-01 4.570312e-01
-9.746625e-01 3.396156e+00 -1.203516e+01 7.144531e+00 1.931492e-05 3.696830e-02 -2.890625e-01 4.570312e-01
-9.750502e-01 3.394132e+00 -1.203516e+01 7.144531e+00 -2.987375e-05 3.670581e-02 -3.164062e-01 4.570312e-01
-9.690009e-01 3.393129e+00 -1.203516e+01 7.144531e+00 1.442181e-05 3.661509e-02 -3.164062e-01 4.570312e-01
-9.685149e-01 3.393418e+00 -1.203516e+01 7.144531e+00 1.455058e-05 3.670832e-02 -3.164062e-01 4.570312e-01
-9.590138e-01 3.406461e+00 -1.203516e+01 7.144531e+00 9.979377e-05 3.730081e-02 -2.812500e-01 4.609375e-01
-9.529238e-01 3.416889e+00 -1.204297e+01 7.144531e+00 1.355908e-04 3.858873e-02 -2.812500e-01 4.687500e-01
-9.497771e-01 3.418969e+00 -1.204297e+01 7.144531e+00 7.481313e-05 3.786522e-02 -2.656250e-01 4.687500e-01
-9.515144e-01 3.406458e+00 -1.204297e+01 7.144531e+00 -2.214778e-05 3.734303e-02 -2.851562e-01 4.492188e-01
-9.510159e-01 3.406869e+00 -1.204297e+01 7.144531e+00 -2.292038e-05 3.739759e-02 -2.851562e-01 4.492188e-01
-9.513030e-01 3.406760e+00 -1.204297e+01 7.144531e+00 -1.377798e-05 3.739169e-02 -2.851562e-01 4.492188e-01
-9.499704e-01 3.406302e+00 -1.204297e+01 7.144531e+00 9.914994e-06 3.743472e-02 -2.929688e-01 4.492188e-01
-9.432430e-01 3.402855e+00 -1.204688e+01 7.144531e+00 2.304914e-04 3.735529e-02 -3.320312e-01 4.492188e-01
-9.470226e-01 3.410103e+00 -1.204688e+01 7.144531e+00 2.116916e-04 3.765693e-02 -2.890625e-01 4.609375e-01
-9.589211e-01 3.402627e+00 -1.204688e+01 7.144531e+00 8.975001e-05 3.764509e-02 -3.164062e-01 4.609375e-01
-9.672987e-01 3.396456e+00 -1.204688e+01 7.144531e+00 -2.382174e-05 3.715486e-02 -3.164062e-01 4.609375e-01
-9.641814e-01 3.405125e+00 -1.204688e+01 7.144531e+00 5.266536e-05 3.726068e-02 -2.851562e-01 4.609375e-01
-9.773379e-01 3.396760e+00 -1.204688e+01 7.144531e+00 -4.146270e-05 3.705325e-02 -3.164062e-01 4.609375e-01
-9.957547e-01 3.394241e+00 -1.204688e+01 7.144531e+00 -4.545445e-05 3.666197e-02 -3.007812e-01 4.609375e-01
-1.003626e+00 3.394004e+00 -1.204688e+01 7.144531e+00 -9.232533e-05 3.660242e-02 -3.007812e-01 4.726562e-01
-1.001246e+00 3.393429e+00 -1.204688e+01 7.144531e+00 -1.015965e-04 3.648980e-02 -3.007812e-01 4.726562e-01
-9.990404e-01 3.392701e+00 -1.204688e+01 7.144531e+00 -1.169197e-04 3.643377e-02 -3.007812e-01 4.726562e-01
-9.985487e-01 3.392968e+00 -1.204688e+01 7.144531e+00 -1.097088e-04 3.642363e-02 -3.007812e-01 4.726562e-01
-9.892838e-01 3.406302e+00 -1.204688e+01 7.144531e+00 6.824606e-06 3.710579e-02 -2.656250e-01 4.726562e-01
-9.888600e-01 3.401691e+00 -1.204688e+01 7.144531e+00 -5.009003e-05 3.698884e-02 -2.890625e-01 4.726562e-01
-9.894601e-01 3.392511e+00 -1.204688e+01 7.144531e+00 -1.352045e-04 3.661164e-02 -3.046875e-01 4.609375e-01
-9.802190e-01 3.399028e+00 -1.204688e+01 7.144531e+00 -1.686837e-05 3.694449e-02 -3.046875e-01 4.648438e-01
-9.714785e-01 3.399506e+00 -1.204688e+01 7.144531e+00 2.523817e-05 3.687595e-02 -3.046875e-01 4.648438e-01
-9.714107e-01 3.397380e+00 -1.204688e+01 7.144531e+00 -3.232030e-05 3.693143e-02 -3.046875e-01 4.609375e-01
-9.706896e-01 3.397398e+00 -1.204688e+01 7.144531e+00 -4.622705e-05 3.681431e-02 -3.164062e-01 4.726562e-01
-9.701199e-01 3.399977e+00 -1.204688e+01 7.144531e+00 -2.240531e-05 3.708720e-02 -3.203125e-01 4.726562e-01
-9.654021e-01 3.416927e+00 -1.204688e+01 7.144531e+00 8.009255e-05 3.774606e-02 -2.500000e-01 4.726562e-01
-9.696192e-01 3.400166e+00 -1.204688e+01 7.144531e+00 -6.966249e-05 3.718422e-02 -3.046875e-01 4.609375e-01
-9.651207e-01 3.396841e+00 -1.204688e+01 7.144531e+00 -8.846235e-05 3.686718e-02 -3.203125e-01 4.531250e-01
-9.734542e-01 3.392683e+00 -1.205078e+01 7.140625e+00 5.408178e-05 3.689156e-02 -3.164062e-01 4.843750e-01
-9.741878e-01 3.402046e+00 -1.205078e+01 7.140625e+00 4.635581e-05 3.693257e-02 -3.085938e-01 4.921875e-01
-9.879365e-01 3.397286e+00 -1.205078e+01 7.140625e+00 -2.239243e-04 3.713906e-02 -3.085938e-01 4.882812e-01
-9.886147e-01 3.395632e+00 -1.205078e+01 7.140625e+00 -2.535406e-04 3.706053e-02 -3.203125e-01 4.882812e-01
-9.728360e-01 3.397497e+00 -1.205078e+01 7.140625e+00 -7.391177e-05 3.674117e-02 -3.085938e-01 4.843750e-01
-9.707642e-01 3.398252e+00 -1.205078e+01 7.140625e+00 -6.103516e-05 3.679351e-02 -3.085938e-01 4.843750e-01
-9.008755e-01 3.429909e+00 -1.205078e+01 7.140625e+00 1.971410e-04 3.856689e-02 -3.007812e-01 4.843750e-01
-8.784530e-01 3.436058e+00 -1.205078e+01 7.140625e+00 2.189025e-04 3.877942e-02 -3.007812e-01 4.843750e-01
-8.860937e-01 3.417880e+00 -1.205078e+01 7.140625e+00 9.940747e-05 3.820085e-02 -3.320312e-01 4.648438e-01
-8.849578e-01 3.430341e+00 -1.205078e+01 7.140625e+00 2.379598e-04 3.881790e-02 -3.125000e-01 4.804688e-01
-8.888539e-01 3.425951e+00 -1.205078e+01 7.140625e+00 2.213490e-04 3.852181e-02 -3.125000e-01 4.765625e-01
-8.958537e-01 3.420451e+00 -1.205078e+01 7.140625e+00 1.579961e-04 3.806527e-02 -2.968750e-01 4.765625e-01
-8.996130e-01 3.417495e+00 -1.205078e+01 7.140625e+00 1.411277e-04 3.818661e-02 -3.242188e-01 4.804688e-01
-9.017888e-01 3.416927e+00 -1.205078e+01 7.140625e+00 1.304401e-04 3.825599e-02 -3.085938e-01 4.765625e-01
-9.054532e-01 3.412514e+00 -1.205078e+01 7.140625e+00 8.369800e-05 3.793537e-02 -3.164062e-01 4.726562e-01
-8.965149e-01 3.423333e+00 -1.205078e+01 7.140625e+00 1.993300e-04 3.816891e-02 -3.085938e-01 4.765625e-01
-8.945211e-01 3.424153e+00 -1.205469e+01 7.140625e+00 1.852945e-04 3.805852e-02 -3.085938e-01 4.765625e-01
-9.620294e-01 3.404192e+00 -1.205469e+01 7.140625e+00 -9.284040e-05 3.738731e-02 -2.968750e-01 5.039062e-01
-1.019288e+00 3.389902e+00 -1.205859e+01 7.136719e+00 -3.229455e-04 3.603788e-02 -2.851562e-01 5.039062e-01
-1.010676e+00 3.392117e+00 -1.205859e+01 7.136719e+00 -2.792938e-04 3.583162e-02 -2.851562e-01 5.117188e-01
-1.005030e+00 3.389670e+00 -1.205859e+01 7.136719e+00 -2.651295e-04 3.585867e-02 -2.851562e-01 5.078125e-01
-1.001411e+00 3.389570e+00 -1.205859e+01 7.136719e+00 -2.673185e-04 3.595032e-02 -2.851562e-01 5.039062e-01
-9.868266e-01 3.401881e+00 -1.205859e+01 7.136719e+00 -1.131854e-04 3.648533e-02 -2.812500e-01 5.117188e-01
-9.710366e-01 3.400126e+00 -1.205859e+01 7.136719e+00 -1.084211e-04 3.659767e-02 -3.046875e-01 4.843750e-01
-9.502925e-01 3.408673e+00 -1.206250e+01 7.136719e+00 -3.296414e-05 3.674304e-02 -2.929688e-01 4.804688e-01
-9.426473e-01 3.406268e+00 -1.206250e+01 7.136719e+00 -8.498566e-05 3.681110e-02 -2.968750e-01 4.804688e-01
-9.399764e-01 3.412574e+00 -1.206250e+01 7.136719e+00 1.854233e-05 3.736816e-02 -2.968750e-01 4.804688e-01
-9.437471e-01 3.412200e+00 -1.206250e+01 7.136719e+00 -1.133142e-05 3.704340e-02 -2.812500e-01 4.804688e-01
-9.539693e-01 3.402482e+00 -1.206250e+01 7.136719e+00 -6.747346e-05 3.678650e-02 -3.046875e-01 4.804688e-01
-9.334977e-01 3.415188e+00 -1.206250e+01 7.136719e+00 5.292289e-05 3.733518e-02 -3.046875e-01 4.804688e-01
-9.123456e-01 3.427672e+00 -1.206641e+01 7.140625e+00 1.590262e-04 3.759167e-02 -2.773438e-01 4.804688e-01
-9.111825e-01 3.419532e+00 -1.206641e+01 7.140625e+00 2.626830e-05 3.729728e-02 -3.242188e-01 4.804688e-01
-9.048903e-01 3.424538e+00 -1.206641e+01 7.140625e+00 3.553946e-05 3.735281e-02 -2.929688e-01 4.804688e-01
-9.048880e-01 3.424535e+00 -1.206641e+01 7.140625e+00 3.940244e-05 3.735527e-02 -2.929688e-01 4.804688e-01
-9.101732e-01 3.419634e+00 -1.206641e+01 7.140625e+00 -5.923243e-06 3.737224e-02 -3.085938e-01 4.804688e-01
-9.114448e-01 3.419946e+00 -1.206641e+01 7.140625e+00 3.219154e-06 3.742268e-02 -3.085938e-01 4.804688e-01
-9.092690e-01 3.432151e+00 -1.206641e+01 7.140625e+00 1.384236e-04 3.825013e-02 -2.695312e-01 4.843750e-01
-9.169345e-01 3.421355e+00 -1.206641e+01 7.140625e+00 1.802726e-06 3.752442e-02 -2.929688e-01 4.804688e-01
-9.209075e-01 3.416097e+00 -1.206641e+01 7.140625e+00 -4.133393e-05 3.732313e-02 -3.046875e-01 4.804688e-01
-9.089209e-01 3.429967e+00 -1.206641e+01 7.140625e+00 1.339168e-04 3.807075e-02 -2.773438e-01 4.804688e-01
-9.100545e-01 3.411664e+00 -1.206641e+01 7.140625e+00 6.451184e-05 3.805361e-02 -3.359375e-01 4.570312e-01
-9.054464e-01 3.411668e+00 -1.207031e+01 7.140625e+00 1.628892e-04 3.786338e-02 -3.359375e-01 4.570312e-01
-9.009173e-01 3.432069e+00 -1.207031e+01 7.140625e+00 3.028580e-04 3.800255e-02 -2.656250e-01 4.921875e-01
-9.197953e-01 3.412674e+00 -1.207031e+01 7.140625e+00 1.854233e-05 3.734380e-02 -3.085938e-01 4.726562e-01
-9.200666e-01 3.412266e+00 -1.207031e+01 7.140625e+00 5.279412e-06 3.714524e-02 -3.085938e-01 4.726562e-01
-8.913179e-01 3.434769e+00 -1.207422e+01 7.144531e+00 9.876364e-05 3.761721e-02 -2.812500e-01 4.804688e-01
-8.980973e-01 3.424504e+00 -1.207422e+01 7.144531e+00 2.781349e-05 3.764500e-02 -3.046875e-01 4.687500e-01
-9.030129e-01 3.421130e+00 -1.207422e+01 7.144531e+00 2.601076e-05 3.724608e-02 -3.085938e-01 4.687500e-01
-9.029925e-01 3.421378e+00 -1.207422e+01 7.144531e+00 3.180524e-05 3.723435e-02 -3.085938e-01 4.687500e-01
-9.012609e-01 3.435559e+00 -1.207422e+01 7.144531e+00 1.559358e-04 3.777758e-02 -2.773438e-01 4.804688e-01
-9.105767e-01 3.422313e+00 -1.207422e+01 7.144531e+00 -4.635581e-06 3.725038e-02 -2.929688e-01 4.804688e-01
-9.113238e-01 3.419732e+00 -1.207422e+01 7.144531e+00 5.279412e-06 3.720790e-02 -3.046875e-01 4.765625e-01
-9.397199e-01 3.426169e+00 -1.207422e+01 7.144531e+00 5.021880e-05 3.692970e-02 -2.734375e-01 4.804688e-01
-9.782952e-01 3.404703e+00 -1.209375e+01 7.148438e+00 -1.671385e-04 3.612856e-02 -3.007812e-01 4.414062e-01
-9.697605e-01 3.418318e+00 -1.209375e+01 7.148438e+00 -3.605452e-05 3.658209e-02 -2.656250e-01 4.531250e-01
-9.634648e-01 3.425798e+00 -1.209375e+01 7.148438e+00 3.862985e-07 3.690686e-02 -2.500000e-01 4.804688e-01
-9.641735e-01 3.422445e+00 -1.209375e+01 7.148438e+00 -1.390674e-05 3.682807e-02 -2.617188e-01 4.804688e-01
-9.660837e-01 3.410216e+00 -1.209375e+01 7.148438e+00 -1.290237e-04 3.643770e-02 -2.773438e-01 4.570312e-01
-9.651817e-01 3.408159e+00 -1.209375e+01 7.148438e+00 -1.146019e-04 3.622475e-02 -3.007812e-01 4.492188e-01
-9.165909e-01 3.433289e+00 -1.209766e+01 7.148438e+00 1.859383e-04 3.737647e-02 -2.617188e-01 4.726562e-01
-9.233839e-01 3.434711e+00 -1.209766e+01 7.148438e+00 1.437030e-04 3.819096e-02 -2.617188e-01 4.804688e-01
-9.319560e-01 3.422036e+00 -1.209766e+01 7.148438e+00 -3.489563e-05 3.763964e-02 -2.968750e-01 4.804688e-01
-9.258751e-01 3.423317e+00 -1.210156e+01 7.148438e+00 1.426729e-04 3.692434e-02 -3.007812e-01 4.687500e-01
-9.405088e-01 3.418747e+00 -1.210156e+01 7.148438e+00 -4.339419e-05 3.704519e-02 -3.007812e-01 4.687500e-01
-9.430203e-01 3.414971e+00 -1.210156e+01 7.148438e+00 -5.781600e-05 3.673300e-02 -2.890625e-01 4.531250e-01
-9.543174e-01 3.430069e+00 -1.210156e+01 7.148438e+00 2.163271e-05 3.702939e-02 -2.656250e-01 4.804688e-01
-9.576077e-01 3.415800e+00 -1.210156e+01 7.148438e+00 -7.584326e-05 3.658164e-02 -2.890625e-01 4.531250e-01
-9.501840e-01 3.414014e+00 -1.210547e+01 7.152344e+00 -1.928917e-04 3.682071e-02 -3.164062e-01 4.531250e-01
-9.439460e-01 3.420586e+00 -1.210547e+01 7.152344e+00 -6.644333e-05 3.708229e-02 -2.890625e-01 4.804688e-01
-9.396068e-01 3.423430e+00 -1.210547e+01 7.152344e+00 -5.343795e-05 3.709328e-02 -3.164062e-01 4.687500e-01
-9.264707e-01 3.432164e+00 -1.210938e+01 7.152344e+00 -6.180775e-06 3.700446e-02 -2.734375e-01 4.687500e-01
-9.231274e-01 3.439090e+00 -1.210938e+01 7.152344e+00 2.549570e-05 3.750447e-02 -2.578125e-01 4.765625e-01
-9.243390e-01 3.429495e+00 -1.210938e+01 7.152344e+00 -4.983250e-05 3.724161e-02 -2.695312e-01 4.687500e-01
-8.244787e-01 3.478028e+00 -1.211328e+01 7.152344e+00 5.041195e-04 3.733222e-02 -2.968750e-01 4.648438e-01
-7.865171e-01 3.504692e+00 -1.212109e+01 7.152344e+00 1.904451e-04 3.764074e-02 -3.281250e-01 4.570312e-01
-7.311141e-01 3.578762e+00 -1.217188e+01 7.164062e+00 7.996378e-05 3.746498e-02 -3.398438e-01 4.531250e-01
-6.989610e-01 3.632925e+00 -1.217578e+01 7.164062e+00 3.268085e-04 3.673218e-02 -3.281250e-01 3.945312e-01
-7.345649e-01 3.632965e+00 -1.218750e+01 7.164062e+00 1.214265e-04 3.642491e-02 -3.125000e-01 3.984375e-01
-7.489048e-01 3.632623e+00 -1.218750e+01 7.164062e+00 1.077773e-04 3.635388e-02 -3.125000e-01 4.296875e-01
-7.435461e-01 3.637966e+00 -1.218750e+01 7.164062e+00 2.635843e-04 3.632509e-02 -3.125000e-01 4.296875e-01
-7.519870e-01 3.626292e+00 -1.218750e+01 7.164062e+00 -6.953372e-05 3.594281e-02 -3.164062e-01 4.257812e-01
-7.515281e-01 3.626642e+00 -1.218750e+01 7.164062e+00 -4.236406e-05 3.588845e-02 -3.164062e-01 4.257812e-01
-7.458530e-01 3.632332e+00 -1.218750e+01 7.164062e+00 9.103767e-05 3.618171e-02 -3.164062e-01 4.257812e-01
-7.412166e-01 3.636000e+00 -1.218750e+01 7.164062e+00 1.981711e-04 3.641181e-02 -3.125000e-01 4.296875e-01
-7.425820e-01 3.636431e+00 -1.218750e+01 7.164062e+00 2.588200e-04 3.625596e-02 -3.125000e-01 4.296875e-01
-7.427402e-01 3.636269e+00 -1.218750e+01 7.164062e+00 2.625542e-04 3.625808e-02 -3.125000e-01 4.296875e-01
-7.428815e-01 3.636244e+00 -1.218750e+01 7.164062e+00 2.625542e-04 3.625808e-02 -3.125000e-01 4.296875e-01
-7.517418e-01 3.627297e+00 -1.218750e+01 7.164062e+00 -4.532569e-05 3.660213e-02 -3.125000e-01 4.414062e-01
-7.567828e-01 3.620398e+00 -1.218750e+01 7.164062e+00 -1.972697e-04 3.623003e-02 -3.125000e-01 4.414062e-01
-7.506205e-01 3.627733e+00 -1.218750e+01 7.164062e+00 1.319853e-04 3.629069e-02 -3.125000e-01 4.296875e-01
-7.591553e-01 3.628174e+00 -1.218750e+01 7.164062e+00 2.527680e-04 3.663061e-02 -3.007812e-01 4.375000e-01
-7.641794e-01 3.617348e+00 -1.218750e+01 7.164062e+00 -1.054595e-04 3.602335e-02 -3.125000e-01 4.453125e-01
-7.641794e-01 3.617348e+00 -1.218750e+01 7.164062e+00 -1.054595e-04 3.602335e-02 -3.125000e-01 4.453125e-01
-7.731708e-01 3.609393e+00 -1.218750e+01 7.164062e+00 -2.384749e-04 3.619951e-02 -3.085938e-01 4.531250e-01
-7.825950e-01 3.601872e+00 -1.218750e+01 7.164062e+00 -3.574548e-04 3.605194e-02 -3.046875e-01 4.531250e-01
-7.729583e-01 3.610010e+00 -1.218750e+01 7.164062e+00 -3.141894e-05 3.625777e-02 -3.085938e-01 4.531250e-01
-7.735833e-01 3.608508e+00 -1.218750e+01 7.164062e+00 -9.438559e-05 3.609367e-02 -3.085938e-01 4.531250e-01
-7.731233e-01 3.610070e+00 -1.218750e+01 7.164062e+00 -3.631205e-05 3.610881e-02 -2.968750e-01 4.531250e-01
-7.051527e-01 3.657508e+00 -1.218750e+01 7.164062e+00 2.634555e-04 3.685059e-02 -3.164062e-01 4.531250e-01
-6.809625e-01 3.685027e+00 -1.219141e+01 7.164062e+00 3.775424e-04 3.681106e-02 -3.164062e-01 4.375000e-01
-7.278069e-01 3.657265e+00 -1.219141e+01 7.164062e+00 2.536693e-05 3.660731e-02 -3.164062e-01 4.531250e-01
-7.133506e-01 3.651975e+00 -1.219141e+01 7.164062e+00 3.074936e-04 3.626211e-02 -3.125000e-01 4.492188e-01
-7.808499e-01 3.602383e+00 -1.219531e+01 7.164062e+00 4.120517e-05 3.612994e-02 -2.929688e-01 4.492188e-01
-7.939792e-01 3.593589e+00 -1.219531e+01 7.164062e+00 -9.567325e-05 3.603639e-02 -2.929688e-01 4.492188e-01
-8.117212e-01 3.582776e+00 -1.219531e+01 7.164062e+00 -3.398139e-04 3.607831e-02 -2.929688e-01 4.687500e-01
-7.502385e-01 3.615411e+00 -1.219531e+01 7.164062e+00 1.670097e-04 3.580468e-02 -3.007812e-01 4.648438e-01
-7.148505e-01 3.643571e+00 -1.219531e+01 7.164062e+00 1.388099e-04 3.578617e-02 -3.007812e-01 4.570312e-01
-7.149556e-01 3.644728e+00 -1.219531e+01 7.164062e+00 2.024204e-04 3.592963e-02 -3.085938e-01 4.453125e-01
-7.376031e-01 3.634487e+00 -1.219531e+01 7.164062e+00 -5.202153e-05 3.590921e-02 -3.046875e-01 4.609375e-01
-7.342789e-01 3.638313e+00 -1.219531e+01 7.164062e+00 1.027554e-04 3.569096e-02 -3.046875e-01 4.609375e-01
-7.347864e-01 3.635086e+00 -1.219531e+01 7.164062e+00 5.343795e-05 3.574213e-02 -3.046875e-01 4.609375e-01
-7.351108e-01 3.636193e+00 -1.219531e+01 7.164062e+00 1.196238e-04 3.588535e-02 -3.046875e-01 4.609375e-01
-7.395845e-01 3.632666e+00 -1.219531e+01 7.164062e+00 5.433932e-05 3.606037e-02 -3.046875e-01 4.609375e-01
-7.413861e-01 3.631795e+00 -1.219531e+01 7.164062e+00 -2.626830e-05 3.579534e-02 -3.046875e-01 4.609375e-01
-7.380948e-01 3.634810e+00 -1.219531e+01 7.164062e+00 9.953624e-05 3.567440e-02 -3.046875e-01 4.609375e-01
-7.510240e-01 3.632487e+00 -1.219922e+01 7.164062e+00 1.398400e-04 3.637555e-02 -3.046875e-01 4.609375e-01
-7.683716e-01 3.623785e+00 -1.219922e+01 7.164062e+00 -3.103264e-05 3.680294e-02 -2.968750e-01 4.687500e-01
-7.410911e-01 3.624053e+00 -1.220312e+01 7.164062e+00 5.061797e-04 3.548470e-02 -2.968750e-01 4.804688e-01
-7.973554e-01 3.619626e+00 -1.220312e+01 7.164062e+00 -2.643569e-04 3.611828e-02 -2.968750e-01 4.726562e-01
-7.859915e-01 3.614214e+00 -1.220312e+01 7.164062e+00 -2.716966e-04 3.564372e-02 -2.968750e-01 4.648438e-01
-7.501390e-01 3.624661e+00 -1.220312e+01 7.164062e+00 3.445782e-04 3.561681e-02 -2.968750e-01 4.648438e-01
-7.501390e-01 3.624661e+00 -1.220312e+01 7.164062e+00 3.445782e-04 3.561681e-02 -2.968750e-01 4.648438e-01
-7.602256e-01 3.622089e+00 -1.220312e+01 7.164062e+00 3.270660e-05 3.564697e-02 -3.046875e-01 4.765625e-01
-7.599329e-01 3.623166e+00 -1.220312e+01 7.164062e+00 5.923243e-05 3.557640e-02 -3.046875e-01 4.648438e-01
-7.609705e-01 3.624091e+00 -1.220312e+01 7.164062e+00 1.017253e-04 3.556881e-02 -3.007812e-01 4.609375e-01
-7.609705e-01 3.624091e+00 -1.220312e+01 7.164062e+00 1.017253e-04 3.556881e-02 -3.007812e-01 4.609375e-01
-7.715929e-01 3.616889e+00 -1.220312e+01 7.164062e+00 -2.720829e-04 3.581913e-02 -3.007812e-01 4.570312e-01
-7.670141e-01 3.617616e+00 -1.220312e+01 7.164062e+00 -2.326804e-04 3.584838e-02 -3.007812e-01 4.570312e-01
-7.338053e-01 3.632387e+00 -1.220312e+01 7.164062e+00 3.108415e-04 3.596830e-02 -3.046875e-01 4.648438e-01
-7.276679e-01 3.634438e+00 -1.221094e+01 7.164062e+00 2.697651e-04 3.633210e-02 -3.046875e-01 4.609375e-01
-7.318273e-01 3.637093e+00 -1.221094e+01 7.164062e+00 2.298476e-04 3.610688e-02 -3.046875e-01 4.609375e-01
-7.603703e-01 3.622875e+00 -1.221094e+01 7.164062e+00 -1.779548e-04 3.666972e-02 -3.085938e-01 4.687500e-01
-7.654803e-01 3.621647e+00 -1.221094e+01 7.164062e+00 -1.325004e-04 3.657624e-02 -3.046875e-01 4.648438e-01
-7.617154e-01 3.618918e+00 -1.221094e+01 7.164062e+00 5.601328e-05 3.578014e-02 -3.007812e-01 4.687500e-01
-7.794178e-01 3.618462e+00 -1.221094e+01 7.164062e+00 -4.365173e-05 3.610309e-02 -3.046875e-01 4.648438e-01
-7.486109e-01 3.625266e+00 -1.221094e+01 7.164062e+00 1.004376e-04 3.590739e-02 -3.085938e-01 4.648438e-01
-7.475914e-01 3.629651e+00 -1.221094e+01 7.164062e+00 1.209114e-04 3.598484e-02 -3.085938e-01 4.648438e-01
-7.471698e-01 3.631611e+00 -1.221094e+01 7.164062e+00 1.595413e-04 3.598006e-02 -3.046875e-01 4.687500e-01
-7.620770e-01 3.622704e+00 -1.221094e+01 7.164062e+00 3.154771e-05 3.604980e-02 -3.085938e-01 4.648438e-01
-8.073990e-01 3.593381e+00 -1.221094e+01 7.164062e+00 -2.419516e-04 3.595973e-02 -3.007812e-01 4.843750e-01
-8.168290e-01 3.586323e+00 -1.221094e+01 7.164062e+00 -3.247482e-04 3.553663e-02 -2.929688e-01 4.765625e-01
-8.082558e-01 3.600995e+00 -1.221094e+01 7.164062e+00 -7.713093e-05 3.586386e-02 -2.968750e-01 4.843750e-01
-8.029808e-01 3.600384e+00 -1.221094e+01 7.164062e+00 -7.906242e-05 3.556751e-02 -3.007812e-01 4.843750e-01
-8.024891e-01 3.598397e+00 -1.221094e+01 7.164062e+00 -9.593078e-05 3.553266e-02 -3.007812e-01 4.843750e-01
-8.019025e-01 3.598451e+00 -1.221094e+01 7.164062e+00 -1.022403e-04 3.550495e-02 -3.007812e-01 4.843750e-01
-7.991864e-01 3.596422e+00 -1.221094e+01 7.164062e+00 -1.711302e-04 3.571181e-02 -2.968750e-01 4.687500e-01
-7.797592e-01 3.613963e+00 -1.221094e+01 7.164062e+00 9.065137e-05 3.536950e-02 -2.968750e-01 4.687500e-01
-7.825600e-01 3.619710e+00 -1.221094e+01 7.164062e+00 1.283799e-04 3.530973e-02 -2.929688e-01 4.687500e-01
-8.473081e-01 3.586250e+00 -1.221484e+01 7.164062e+00 -6.068749e-04 3.534132e-02 -2.968750e-01 4.726562e-01
-8.338081e-01 3.578035e+00 -1.221484e+01 7.164062e+00 -2.955183e-04 3.576738e-02 -2.929688e-01 4.687500e-01
-8.146566e-01 3.582639e+00 -1.221484e+01 7.164062e+00 -1.193662e-04 3.573922e-02 -2.968750e-01 4.726562e-01
-6.996528e-01 3.666525e+00 -1.224219e+01 7.179688e+00 -6.270912e-05 3.644245e-02 -3.242188e-01 4.375000e-01
-7.107114e-01 3.638745e+00 -1.224219e+01 7.179688e+00 6.272199e-04 3.632915e-02 -3.085938e-01 4.648438e-01
-7.195909e-01 3.633774e+00 -1.224219e+01 7.179688e+00 7.267562e-04 3.618345e-02 -3.085938e-01 4.648438e-01
-7.587721e-01 3.623630e+00 -1.224219e+01 7.179688e+00 1.558070e-04 3.648963e-02 -3.085938e-01 4.609375e-01
-7.807029e-01 3.616015e+00 -1.224219e+01 7.179688e+00 -2.259846e-04 3.648928e-02 -2.968750e-01 4.570312e-01
-7.474422e-01 3.623737e+00 -1.224219e+01 7.179688e+00 2.986087e-04 3.600204e-02 -3.085938e-01 4.609375e-01
-7.551507e-01 3.621176e+00 -1.224219e+01 7.179688e+00 1.792425e-04 3.626795e-02 -3.085938e-01 4.609375e-01
-7.677680e-01 3.618504e+00 -1.224219e+01 7.179688e+00 5.923243e-06 3.598373e-02 -2.968750e-01 4.570312e-01
-7.900425e-01 3.621552e+00 -1.224219e+01 7.179688e+00 -1.261908e-05 3.614450e-02 -3.046875e-01 4.843750e-01
-8.070882e-01 3.623186e+00 -1.224219e+01 7.179688e+00 -4.893114e-05 3.593133e-02 -3.046875e-01 4.843750e-01
-8.175388e-01 3.608636e+00 -1.224219e+01 7.179688e+00 -2.263709e-04 3.529566e-02 -2.968750e-01 4.687500e-01
-8.199734e-01 3.610839e+00 -1.224219e+01 7.179688e+00 -1.022403e-04 3.557827e-02 -3.085938e-01 4.843750e-01
-8.119936e-01 3.620600e+00 -1.224609e+01 7.179688e+00 -3.884875e-04 3.585224e-02 -3.085938e-01 4.843750e-01
-7.184041e-01 3.683078e+00 -1.226172e+01 7.187500e+00 -1.892862e-05 3.639165e-02 -3.046875e-01 4.375000e-01
-7.042688e-01 3.689528e+00 -1.226172e+01 7.187500e+00 9.490065e-05 3.647339e-02 -3.046875e-01 4.375000e-01
-7.214096e-01 3.651823e+00 -1.226172e+01 7.187500e+00 5.585876e-04 3.639316e-02 -3.046875e-01 4.531250e-01
-7.602889e-01 3.629013e+00 -1.226172e+01 7.187500e+00 9.824857e-05 3.619262e-02 -3.007812e-01 4.414062e-01
-7.793556e-01 3.618107e+00 -1.226172e+01 7.187500e+00 -1.591550e-04 3.628195e-02 -3.007812e-01 4.414062e-01
-7.722993e-01 3.620436e+00 -1.226172e+01 7.187500e+00 -1.012102e-04 3.628226e-02 -3.007812e-01 4.414062e-01
-7.650904e-01 3.635492e+00 -1.226172e+01 7.187500e+00 2.098888e-05 3.631111e-02 -3.046875e-01 4.375000e-01
-7.679217e-01 3.630561e+00 -1.226172e+01 7.187500e+00 -2.768472e-05 3.645700e-02 -3.046875e-01 4.375000e-01
-7.604404e-01 3.647034e+00 -1.226172e+01 7.187500e+00 -4.519692e-05 3.617186e-02 -3.046875e-01 4.492188e-01
-7.597046e-01 3.644742e+00 -1.226172e+01 7.187500e+00 -4.596952e-05 3.614178e-02 -3.046875e-01 4.492188e-01
-7.588411e-01 3.644222e+00 -1.226172e+01 7.187500e+00 -3.283537e-05 3.599116e-02 -3.046875e-01 4.492188e-01
-7.586579e-01 3.643769e+00 -1.226172e+01 7.187500e+00 -3.425180e-05 3.601683e-02 -3.046875e-01 4.492188e-01
-7.569151e-01 3.649492e+00 -1.226172e+01 7.187500e+00 7.494190e-05 3.602970e-02 -3.125000e-01 4.531250e-01
-7.586998e-01 3.646742e+00 -1.226172e+01 7.187500e+00 1.970122e-05 3.601763e-02 -3.046875e-01 4.375000e-01
-7.570349e-01 3.653431e+00 -1.226172e+01 7.187500e+00 1.046869e-04 3.625123e-02 -3.125000e-01 4.531250e-01
-7.612576e-01 3.646840e+00 -1.226172e+01 7.187500e+00 2.987375e-05 3.634652e-02 -3.164062e-01 4.531250e-01
-7.545709e-01 3.642700e+00 -1.226172e+01 7.187500e+00 1.043006e-05 3.620572e-02 -3.046875e-01 4.335938e-01
-7.484877e-01 3.643766e+00 -1.226172e+01 7.187500e+00 9.528695e-06 3.679475e-02 -3.046875e-01 4.335938e-01
-7.446617e-01 3.653770e+00 -1.226172e+01 7.187500e+00 1.918616e-04 3.769473e-02 -3.125000e-01 4.414062e-01
-7.561713e-01 3.652077e+00 -1.226172e+01 7.187500e+00 -2.008752e-05 3.658723e-02 -3.125000e-01 4.609375e-01
-7.465368e-01 3.660628e+00 -1.226172e+01 7.187500e+00 9.296916e-05 3.608051e-02 -3.164062e-01 4.687500e-01
-7.510896e-01 3.660660e+00 -1.226172e+01 7.187500e+00 1.118978e-04 3.587502e-02 -3.164062e-01 4.531250e-01
-7.553914e-01 3.657708e+00 -1.226172e+01 7.187500e+00 5.742970e-05 3.586301e-02 -3.164062e-01 4.531250e-01
-7.156033e-01 3.679828e+00 -1.226172e+01 7.187500e+00 3.261647e-04 3.623208e-02 -3.242188e-01 4.453125e-01
-7.608665e-01 3.657348e+00 -1.226172e+01 7.187500e+00 4.468185e-05 3.605428e-02 -3.085938e-01 4.375000e-01
-7.524256e-01 3.661845e+00 -1.226562e+01 7.187500e+00 3.273236e-04 3.600849e-02 -3.242188e-01 4.531250e-01
-7.449804e-01 3.676277e+00 -1.226562e+01 7.187500e+00 8.215281e-05 3.608428e-02 -3.203125e-01 4.492188e-01
-7.409408e-01 3.692225e+00 -1.226562e+01 7.187500e+00 2.040944e-04 3.581836e-02 -3.281250e-01 4.414062e-01
-7.458880e-01 3.679796e+00 -1.226562e+01 7.187500e+00 1.328867e-04 3.589418e-02 -3.203125e-01 4.492188e-01
-7.273130e-01 3.682603e+00 -1.226953e+01 7.187500e+00 2.013903e-04 3.623236e-02 -3.203125e-01 4.492188e-01
-7.095959e-01 3.694218e+00 -1.226953e+01 7.187500e+00 3.611891e-04 3.657238e-02 -3.203125e-01 4.296875e-01
-7.740015e-01 3.671028e+00 -1.226953e+01 7.187500e+00 -2.584337e-04 3.651509e-02 -3.320312e-01 4.453125e-01
-7.856750e-01 3.660311e+00 -1.226953e+01 7.187500e+00 -2.244394e-04 3.630446e-02 -3.242188e-01 4.492188e-01
-7.574553e-01 3.670192e+00 -1.226953e+01 7.187500e+00 2.977073e-04 3.627921e-02 -3.281250e-01 4.570312e-01
-8.074556e-01 3.668260e+00 -1.226953e+01 7.187500e+00 -5.274262e-04 3.613119e-02 -3.125000e-01 4.335938e-01
-7.852535e-01 3.700275e+00 -1.227734e+01 7.187500e+00 -1.429304e-04 3.512534e-02 -3.085938e-01 4.257812e-01
-7.730204e-01 3.697504e+00 -1.227734e+01 7.187500e+00 2.835431e-04 3.536381e-02 -3.320312e-01 4.296875e-01
-7.682766e-01 3.691387e+00 -1.227734e+01 7.187500e+00 3.716191e-04 3.539001e-02 -3.320312e-01 4.296875e-01
-8.107243e-01 3.679022e+00 -1.227734e+01 7.187500e+00 -2.904964e-04 3.530810e-02 -3.320312e-01 4.296875e-01
-8.161146e-01 3.675929e+00 -1.227734e+01 7.187500e+00 -3.928655e-04 3.523421e-02 -3.281250e-01 4.257812e-01
-7.779168e-01 3.693644e+00 -1.227734e+01 7.187500e+00 1.158895e-04 3.528736e-02 -3.203125e-01 4.375000e-01
-7.790753e-01 3.693198e+00 -1.227734e+01 7.187500e+00 6.682963e-05 3.525793e-02 -3.203125e-01 4.375000e-01
-7.783723e-01 3.695614e+00 -1.227734e+01 7.187500e+00 1.088074e-04 3.519993e-02 -3.281250e-01 4.257812e-01
-7.736432e-01 3.704144e+00 -1.227734e+01 7.187500e+00 1.398400e-04 3.536939e-02 -3.320312e-01 4.140625e-01
-7.703677e-01 3.710867e+00 -1.227734e+01 7.187500e+00 1.707439e-04 3.519380e-02 -3.320312e-01 4.140625e-01
-7.722857e-01 3.705750e+00 -1.227734e+01 7.187500e+00 9.039384e-05 3.554210e-02 -3.281250e-01 4.296875e-01
-7.726056e-01 3.711911e+00 -1.227734e+01 7.187500e+00 4.213229e-04 3.579362e-02 -3.359375e-01 4.179688e-01
-7.795602e-01 3.703138e+00 -1.227734e+01 7.187500e+00 2.405352e-04 3.539964e-02 -3.320312e-01 4.296875e-01
-7.889958e-01 3.694040e+00 -1.227734e+01 7.187500e+00 -1.300538e-05 3.507649e-02 -3.281250e-01 4.257812e-01
-7.890218e-01 3.692917e+00 -1.227734e+01 7.187500e+00 -4.506815e-05 3.505614e-02 -3.281250e-01 4.257812e-01
-7.937599e-01 3.691054e+00 -1.227734e+01 7.187500e+00 -2.047382e-05 3.515785e-02 -3.281250e-01 4.257812e-01
-8.001517e-01 3.688700e+00 -1.227734e+01 7.187500e+00 -1.313415e-05 3.494806e-02 -3.320312e-01 4.296875e-01
-7.999030e-01 3.686065e+00 -1.227734e+01 7.187500e+00 -6.888989e-05 3.524906e-02 -3.320312e-01 4.257812e-01
-7.995232e-01 3.683548e+00 -1.227734e+01 7.187500e+00 -1.122841e-04 3.510381e-02 -3.320312e-01 4.257812e-01
-7.967247e-01 3.691239e+00 -1.227734e+01 7.187500e+00 4.275036e-05 3.560582e-02 -3.320312e-01 4.335938e-01
-7.982178e-01 3.692696e+00 -1.227734e+01 7.187500e+00 7.725969e-07 3.526482e-02 -3.320312e-01 4.296875e-01
-8.126492e-01 3.678466e+00 -1.228125e+01 7.187500e+00 -8.421306e-05 3.518794e-02 -3.320312e-01 4.296875e-01
-8.253163e-01 3.670395e+00 -1.228125e+01 7.187500e+00 -1.229717e-04 3.499760e-02 -3.281250e-01 4.375000e-01
-8.256904e-01 3.681165e+00 -1.228125e+01 7.187500e+00 -1.403551e-04 3.551050e-02 -3.359375e-01 4.335938e-01
-8.256994e-01 3.679998e+00 -1.228125e+01 7.187500e+00 -4.611116e-04 3.546203e-02 -3.359375e-01 4.257812e-01
-7.780163e-01 3.700362e+00 -1.228125e+01 7.187500e+00 2.258558e-04 3.532459e-02 -3.359375e-01 4.296875e-01
-7.723479e-01 3.706497e+00 -1.228125e+01 7.187500e+00 3.638931e-04 3.512094e-02 -3.359375e-01 4.296875e-01
-7.723479e-01 3.706497e+00 -1.228125e+01 7.187500e+00 3.638931e-04 3.512094e-02 -3.359375e-01 4.296875e-01
-7.736183e-01 3.705187e+00 -1.228125e+01 7.187500e+00 3.447070e-04 3.532923e-02 -3.359375e-01 4.296875e-01
-7.907127e-01 3.693593e+00 -1.228125e+01 7.187500e+00 -8.382677e-05 3.532626e-02 -3.359375e-01 4.257812e-01
-7.805232e-01 3.703686e+00 -1.228125e+01 7.187500e+00 7.095015e-05 3.518207e-02 -3.359375e-01 4.296875e-01
-7.732081e-01 3.710968e+00 -1.228125e+01 7.187500e+00 1.818178e-04 3.513342e-02 -3.164062e-01 4.218750e-01
-7.728012e-01 3.711730e+00 -1.228125e+01 7.187500e+00 1.834918e-04 3.512054e-02 -3.164062e-01 4.218750e-01
-7.767379e-01 3.707882e+00 -1.228125e+01 7.187500e+00 1.052019e-04 3.554033e-02 -3.164062e-01 4.218750e-01
-7.794416e-01 3.703477e+00 -1.228125e+01 7.187500e+00 5.099140e-05 3.530572e-02 -3.359375e-01 4.296875e-01
-7.732646e-01 3.708295e+00 -1.228125e+01 7.187500e+00 9.554449e-05 3.532009e-02 -3.359375e-01 4.296875e-01
-7.698195e-01 3.710272e+00 -1.228125e+01 7.187500e+00 1.254182e-04 3.518329e-02 -3.164062e-01 4.218750e-01
-7.710345e-01 3.710156e+00 -1.228125e+01 7.187500e+00 1.207827e-04 3.512689e-02 -3.164062e-01 4.218750e-01
-7.768057e-01 3.702025e+00 -1.228125e+01 7.187500e+00 -1.055882e-05 3.533852e-02 -3.242188e-01 4.140625e-01
-7.719184e-01 3.711522e+00 -1.228125e+01 7.187500e+00 1.653357e-04 3.509487e-02 -3.164062e-01 4.218750e-01
-7.743530e-01 3.710185e+00 -1.228125e+01 7.187500e+00 1.446044e-04 3.514010e-02 -3.164062e-01 4.218750e-01
-7.755737e-01 3.710517e+00 -1.228125e+01 7.187500e+00 1.435743e-04 3.526102e-02 -3.281250e-01 4.101562e-01
-7.869353e-01 3.708147e+00 -1.228125e+01 7.187500e+00 2.056395e-04 3.566398e-02 -3.437500e-01 4.218750e-01
-7.945918e-01 3.695698e+00 -1.228125e+01 7.187500e+00 -4.197777e-05 3.539498e-02 -3.359375e-01 4.296875e-01
-7.967043e-01 3.693361e+00 -1.228125e+01 7.187500e+00 -1.030129e-04 3.515867e-02 -3.359375e-01 4.296875e-01
-7.955221e-01 3.696295e+00 -1.228125e+01 7.187500e+00 7.906242e-05 3.611650e-02 -3.398438e-01 4.335938e-01
-8.234287e-01 3.658992e+00 -1.228516e+01 7.187500e+00 -3.682712e-04 3.604561e-02 -3.515625e-01 4.414062e-01
-8.169104e-01 3.654742e+00 -1.228516e+01 7.187500e+00 -3.629918e-04 3.589683e-02 -3.437500e-01 4.492188e-01
-8.156874e-01 3.658942e+00 -1.228516e+01 7.187500e+00 -3.519179e-04 3.591791e-02 -3.515625e-01 4.375000e-01
-8.069334e-01 3.675602e+00 -1.228516e+01 7.187500e+00 -1.892862e-04 3.619054e-02 -3.515625e-01 4.453125e-01
-8.029932e-01 3.672800e+00 -1.228516e+01 7.187500e+00 -2.246969e-04 3.573742e-02 -3.437500e-01 4.375000e-01
-7.872552e-01 3.685482e+00 -1.228516e+01 7.187500e+00 -1.169197e-04 3.570498e-02 -3.437500e-01 4.414062e-01
-7.795557e-01 3.692222e+00 -1.228516e+01 7.187500e+00 -3.695589e-05 3.564613e-02 -3.437500e-01 4.414062e-01
-7.782095e-01 3.689101e+00 -1.228516e+01 7.187500e+00 -9.322669e-05 3.544157e-02 -3.281250e-01 4.296875e-01
-7.766113e-01 3.693354e+00 -1.228516e+01 7.187500e+00 -3.026005e-05 3.538756e-02 -3.242188e-01 4.296875e-01
-7.757512e-01 3.697791e+00 -1.228516e+01 7.187500e+00 3.386550e-05 3.523243e-02 -3.242188e-01 4.296875e-01
-7.781191e-01 3.701610e+00 -1.228516e+01 7.187500e+00 9.309793e-05 3.612630e-02 -3.398438e-01 4.414062e-01
-7.837276e-01 3.696639e+00 -1.228516e+01 7.187500e+00 -3.335043e-05 3.613202e-02 -3.242188e-01 4.257812e-01
-7.629722e-01 3.721110e+00 -1.228516e+01 7.187500e+00 2.169710e-04 3.571246e-02 -3.242188e-01 4.335938e-01
-7.716641e-01 3.709335e+00 -1.228516e+01 7.187500e+00 4.017504e-05 3.539855e-02 -3.281250e-01 4.296875e-01
-7.767108e-01 3.705200e+00 -1.228516e+01 7.187500e+00 1.210402e-05 3.551088e-02 -3.242188e-01 4.296875e-01
-7.788459e-01 3.706349e+00 -1.228516e+01 7.187500e+00 5.215029e-05 3.537993e-02 -3.164062e-01 4.375000e-01
-7.819191e-01 3.706383e+00 -1.228516e+01 7.187500e+00 2.047382e-05 3.528226e-02 -3.242188e-01 4.296875e-01
-7.850658e-01 3.696092e+00 -1.228516e+01 7.187500e+00 -1.366209e-04 3.511470e-02 -3.125000e-01 4.335938e-01
-7.838236e-01 3.699630e+00 -1.228516e+01 7.187500e+00 -9.026507e-05 3.498451e-02 -3.242188e-01 4.296875e-01
-7.647976e-01 3.705754e+00 -1.228516e+01 7.187500e+00 -2.601076e-05 3.544884e-02 -3.164062e-01 4.335938e-01
-7.586783e-01 3.719226e+00 -1.228516e+01 7.187500e+00 1.368784e-04 3.616006e-02 -3.320312e-01 4.218750e-01
-7.549563e-01 3.726194e+00 -1.228516e+01 7.187500e+00 2.774911e-04 3.568119e-02 -3.242188e-01 4.335938e-01
-7.717093e-01 3.711758e+00 -1.228516e+01 7.187500e+00 2.832855e-05 3.522076e-02 -3.242188e-01 4.335938e-01
-7.831263e-01 3.704934e+00 -1.228516e+01 7.187500e+00 -8.344047e-05 3.498095e-02 -3.242188e-01 4.335938e-01
-7.814195e-01 3.705858e+00 -1.228516e+01 7.187500e+00 -4.905990e-05 3.498209e-02 -3.242188e-01 4.335938e-01
-7.674651e-01 3.717867e+00 -1.228516e+01 7.187500e+00 1.482098e-04 3.520621e-02 -3.242188e-01 4.335938e-01
-7.692385e-01 3.714253e+00 -1.228516e+01 7.187500e+00 7.301041e-05 3.529512e-02 -3.242188e-01 4.335938e-01
-7.875965e-01 3.705138e+00 -1.228516e+01 7.187500e+00 -1.645631e-04 3.503349e-02 -3.281250e-01 4.296875e-01
-7.640720e-01 3.713337e+00 -1.228516e+01 7.187500e+00 1.142156e-04 3.496788e-02 -3.281250e-01 4.296875e-01
-7.488652e-01 3.733095e+00 -1.228516e+01 7.187500e+00 -2.897238e-05 3.529139e-02 -3.164062e-01 4.140625e-01
-7.311198e-01 3.735978e+00 -1.228516e+01 7.187500e+00 1.708727e-04 3.531656e-02 -3.046875e-01 4.179688e-01
-7.196282e-01 3.739554e+00 -1.228516e+01 7.187500e+00 3.284825e-04 3.525205e-02 -3.125000e-01 4.101562e-01
-7.556955e-01 3.715058e+00 -1.228516e+01 7.187500e+00 2.485187e-05 3.505872e-02 -3.085938e-01 4.218750e-01
-7.856185e-01 3.692129e+00 -1.228516e+01 7.187500e+00 -1.206539e-04 3.527219e-02 -3.320312e-01 4.296875e-01
-8.046287e-01 3.678554e+00 -1.228516e+01 7.187500e+00 -2.106614e-04 3.487653e-02 -3.515625e-01 4.375000e-01
-8.048661e-01 3.679135e+00 -1.228516e+01 7.187500e+00 -2.069272e-04 3.488770e-02 -3.515625e-01 4.375000e-01
-7.715737e-01 3.710033e+00 -1.228516e+01 7.187500e+00 -1.569659e-04 3.521730e-02 -3.046875e-01 4.140625e-01
-7.592536e-01 3.719308e+00 -1.228516e+01 7.187500e+00 -9.387053e-05 3.504047e-02 -3.085938e-01 4.179688e-01
-7.491941e-01 3.729558e+00 -1.228516e+01 7.187500e+00 1.804014e-04 3.519409e-02 -3.046875e-01 4.218750e-01
-7.736692e-01 3.707426e+00 -1.228516e+01 7.187500e+00 -2.961622e-05 3.509339e-02 -3.281250e-01 4.257812e-01
-7.815880e-01 3.699458e+00 -1.228516e+01 7.187500e+00 -1.641768e-04 3.514056e-02 -3.281250e-01 4.257812e-01
-7.683908e-01 3.707719e+00 -1.228516e+01 7.187500e+00 -8.550073e-05 3.505941e-02 -3.085938e-01 4.218750e-01
-7.549077e-01 3.718554e+00 -1.228516e+01 7.187500e+00 6.180775e-05 3.491235e-02 -3.085938e-01 4.218750e-01
-7.516163e-01 3.725216e+00 -1.228516e+01 7.187500e+00 2.227654e-04 3.556625e-02 -3.359375e-01 4.140625e-01
-7.578950e-01 3.712659e+00 -1.228516e+01 7.187500e+00 2.021629e-05 3.487836e-02 -3.085938e-01 4.218750e-01
-7.591372e-01 3.708869e+00 -1.228516e+01 7.187500e+00 3.875861e-05 3.498725e-02 -3.085938e-01 4.179688e-01
-7.706401e-01 3.704836e+00 -1.228516e+01 7.187500e+00 -1.197525e-04 3.522138e-02 -3.320312e-01 4.257812e-01
-7.793240e-01 3.702482e+00 -1.228516e+01 7.187500e+00 -1.081636e-04 3.531344e-02 -3.320312e-01 4.257812e-01
-7.819372e-01 3.699829e+00 -1.228516e+01 7.187500e+00 -1.058458e-04 3.527353e-02 -3.320312e-01 4.257812e-01
-6.824533e-01 3.770199e+00 -1.228906e+01 7.519531e+00 5.735244e-04 3.517256e-02 -3.203125e-01 3.984375e-01
-7.328943e-01 3.763221e+00 -1.228906e+01 7.433594e+00 -2.652583e-05 3.561901e-02 -3.007812e-01 3.789062e-01
-7.178978e-01 3.753715e+00 -1.228906e+01 7.328125e+00 3.014416e-04 3.522072e-02 -3.046875e-01 3.945312e-01
-7.190993e-01 3.746727e+00 -1.228906e+01 7.328125e+00 3.411015e-04 3.523268e-02 -3.046875e-01 3.984375e-01
-7.250118e-01 3.742982e+00 -1.228906e+01 7.332031e+00 2.509652e-04 3.487824e-02 -3.203125e-01 3.984375e-01
-7.390351e-01 3.734593e+00 -1.228906e+01 7.187500e+00 1.505276e-04 3.498342e-02 -3.007812e-01 3.984375e-01
-7.545663e-01 3.725281e+00 -1.228906e+01 7.187500e+00 7.082138e-05 3.500852e-02 -3.203125e-01 4.062500e-01
-7.563183e-01 3.722020e+00 -1.228906e+01 7.187500e+00 1.223278e-05 3.522152e-02 -3.203125e-01 4.062500e-01
-7.691843e-01 3.707431e+00 -1.229297e+01 7.187500e+00 -2.922992e-05 3.567900e-02 -3.515625e-01 4.179688e-01
-7.940855e-01 3.707300e+00 -1.230859e+01 7.187500e+00 -5.714642e-04 3.514539e-02 -3.476562e-01 4.101562e-01
-7.581561e-01 3.708002e+00 -1.230859e+01 7.187500e+00 -5.601328e-05 3.513426e-02 -3.554688e-01 4.101562e-01
-7.534530e-01 3.699080e+00 -1.230859e+01 7.187500e+00 3.566822e-05 3.538076e-02 -3.554688e-01 4.101562e-01
-7.123628e-01 3.755241e+00 -1.231250e+01 7.257812e+00 -3.734218e-05 3.550812e-02 -3.085938e-01 3.593750e-01
-6.410025e-01 3.799995e+00 -1.231250e+01 7.914062e+00 3.582274e-04 3.541707e-02 -3.203125e-01 3.398438e-01
-6.363706e-01 3.804250e+00 -1.231250e+01 7.906250e+00 4.311091e-04 3.552512e-02 -3.203125e-01 3.554688e-01
-6.595210e-01 3.793247e+00 -1.231250e+01 7.906250e+00 4.558322e-04 3.591008e-02 -3.164062e-01 3.593750e-01
-6.859515e-01 3.773294e+00 -1.231250e+01 7.578125e+00 2.908827e-04 3.532253e-02 -3.164062e-01 3.515625e-01
-6.945089e-01 3.756597e+00 -1.231250e+01 7.613281e+00 7.198028e-05 3.490805e-02 -3.242188e-01 3.437500e-01
-7.032154e-01 3.751314e+00 -1.231250e+01 7.566406e+00 1.376510e-04 3.498836e-02 -3.164062e-01 3.671875e-01
-7.031092e-01 3.753739e+00 -1.231250e+01 7.515625e+00 1.429304e-04 3.503726e-02 -3.203125e-01 3.554688e-01
-8.291581e-01 3.686823e+00 -1.231641e+01 7.187500e+00 -8.463799e-04 3.513874e-02 -3.593750e-01 4.062500e-01
-8.212156e-01 3.684227e+00 -1.231641e+01 7.187500e+00 -4.958785e-04 3.481560e-02 -3.593750e-01 4.062500e-01
-6.760322e-01 3.790084e+00 -1.232031e+01 7.902344e+00 2.960334e-04 3.480558e-02 -3.046875e-01 3.750000e-01
-6.600500e-01 3.796965e+00 -1.232031e+01 7.902344e+00 5.547246e-04 3.484830e-02 -3.046875e-01 3.750000e-01
-6.724322e-01 3.786076e+00 -1.232031e+01 7.906250e+00 3.413591e-04 3.520040e-02 -3.046875e-01 3.593750e-01
-6.833914e-01 3.779139e+00 -1.232031e+01 7.816406e+00 1.977848e-04 3.484554e-02 -3.007812e-01 3.750000e-01
-6.970870e-01 3.770706e+00 -1.232031e+01 7.804688e+00 1.485961e-04 3.474077e-02 -2.968750e-01 3.750000e-01
-7.039060e-01 3.765239e+00 -1.232031e+01 7.742188e+00 9.168150e-05 3.460331e-02 -2.968750e-01 3.710938e-01
-7.150144e-01 3.753023e+00 -1.232031e+01 7.730469e+00 -4.184900e-05 3.497022e-02 -3.007812e-01 3.867188e-01
-7.221092e-01 3.750334e+00 -1.232031e+01 7.699219e+00 -4.107640e-05 3.472873e-02 -2.929688e-01 3.867188e-01
-7.025090e-01 3.764953e+00 -1.232031e+01 7.656250e+00 9.206780e-05 3.473045e-02 -2.929688e-01 3.710938e-01
-6.759361e-01 3.772141e+00 -1.232031e+01 7.714844e+00 1.258045e-04 3.499134e-02 -3.164062e-01 3.359375e-01
-6.792863e-01 3.771608e+00 -1.232031e+01 7.718750e+00 2.218641e-04 3.472672e-02 -3.046875e-01 3.515625e-01
-6.802628e-01 3.770396e+00 -1.232031e+01 7.718750e+00 2.017766e-04 3.472649e-02 -3.164062e-01 3.515625e-01
-7.091596e-01 3.741800e+00 -1.232031e+01 7.585938e+00 -1.164046e-04 3.480282e-02 -3.242188e-01 3.437500e-01
-7.085888e-01 3.746523e+00 -1.232031e+01 7.566406e+00 2.871485e-05 3.483717e-02 -3.203125e-01 3.593750e-01
-7.083503e-01 3.750987e+00 -1.232031e+01 7.578125e+00 7.931995e-05 3.476840e-02 -3.281250e-01 3.632812e-01
-7.071477e-01 3.751870e+00 -1.232031e+01 7.578125e+00 6.245158e-05 3.483932e-02 -3.281250e-01 3.632812e-01
-7.092545e-01 3.750019e+00 -1.232031e+01 7.664062e+00 -9.940747e-05 3.498150e-02 -3.164062e-01 3.437500e-01
-7.158610e-01 3.748317e+00 -1.232031e+01 7.542969e+00 -1.558070e-05 3.482443e-02 -3.281250e-01 3.632812e-01
-7.159808e-01 3.748262e+00 -1.232031e+01 7.542969e+00 -1.545194e-05 3.482448e-02 -3.281250e-01 3.632812e-01
-7.118903e-01 3.748765e+00 -1.232031e+01 7.593750e+00 -2.974498e-05 3.488055e-02 -3.203125e-01 3.437500e-01
-6.801633e-01 3.768348e+00 -1.232031e+01 7.792969e+00 1.252895e-04 3.472966e-02 -3.164062e-01 3.437500e-01
-6.874401e-01 3.763674e+00 -1.232031e+01 7.777344e+00 5.768724e-05 3.470500e-02 -3.164062e-01 3.437500e-01
-6.910683e-01 3.765720e+00 -1.232031e+01 7.683594e+00 1.693275e-04 3.486646e-02 -3.046875e-01 3.632812e-01
-6.819266e-01 3.774454e+00 -1.232031e+01 7.878906e+00 1.545194e-04 3.482498e-02 -3.085938e-01 3.437500e-01
-6.989554e-01 3.758712e+00 -1.232031e+01 7.878906e+00 4.172023e-05 3.496299e-02 -3.164062e-01 3.632812e-01
-7.123164e-01 3.747998e+00 -1.232031e+01 7.601562e+00 2.137518e-05 3.526950e-02 -3.164062e-01 3.632812e-01
-7.035274e-01 3.760547e+00 -1.232031e+01 7.742188e+00 1.425441e-04 3.505232e-02 -2.968750e-01 3.671875e-01
-7.017189e-01 3.755353e+00 -1.232031e+01 7.601562e+00 2.173573e-04 3.494602e-02 -3.320312e-01 3.671875e-01
-7.525850e-01 3.735749e+00 -1.232031e+01 7.609375e+00 -5.746833e-04 3.481459e-02 -3.281250e-01 3.554688e-01
-7.273718e-01 3.740141e+00 -1.232031e+01 7.707031e+00 -2.929430e-04 3.489029e-02 -3.164062e-01 3.593750e-01
-7.215938e-01 3.744857e+00 -1.232031e+01 7.703125e+00 -2.076998e-04 3.508154e-02 -3.164062e-01 3.515625e-01
-7.336629e-01 3.733499e+00 -1.232031e+01 7.519531e+00 -1.276073e-04 3.488460e-02 -3.320312e-01 3.632812e-01
-7.351097e-01 3.736510e+00 -1.232031e+01 7.523438e+00 -8.678839e-05 3.484807e-02 -3.320312e-01 3.750000e-01
-7.102435e-01 3.751958e+00 -1.232031e+01 7.585938e+00 -1.533605e-04 3.500717e-02 -3.320312e-01 3.593750e-01
-6.795112e-01 3.762342e+00 -1.232031e+01 7.855469e+00 -4.841607e-05 3.490572e-02 -3.007812e-01 3.359375e-01
-6.707831e-01 3.760578e+00 -1.232031e+01 7.839844e+00 1.555495e-04 3.491745e-02 -3.164062e-01 3.437500e-01
-7.400128e-01 3.732990e+00 -1.232031e+01 7.582031e+00 -8.189527e-05 3.464254e-02 -3.320312e-01 3.828125e-01
-7.540792e-01 3.725942e+00 -1.232031e+01 7.554688e+00 -2.254695e-04 3.494826e-02 -3.320312e-01 3.828125e-01
-7.588942e-01 3.725724e+00 -1.232031e+01 7.554688e+00 -2.879211e-04 3.476023e-02 -3.320312e-01 3.828125e-01
-7.561985e-01 3.736856e+00 -1.232031e+01 7.507812e+00 -2.611378e-04 3.492379e-02 -3.359375e-01 3.828125e-01
-7.365870e-01 3.742541e+00 -1.232031e+01 7.691406e+00 -2.017766e-04 3.454549e-02 -3.007812e-01 3.750000e-01
-7.196610e-01 3.756263e+00 -1.232031e+01 7.757812e+00 -6.232282e-05 3.462215e-02 -3.085938e-01 3.710938e-01
-7.182109e-01 3.758961e+00 -1.232031e+01 7.761719e+00 -3.296414e-05 3.466302e-02 -3.085938e-01 3.710938e-01
-7.207574e-01 3.751777e+00 -1.232031e+01 7.773438e+00 -1.543906e-04 3.445738e-02 -3.007812e-01 3.671875e-01
-6.978251e-01 3.771950e+00 -1.232031e+01 8.046875e+00 9.927870e-05 3.499587e-02 -2.890625e-01 3.710938e-01
-6.864161e-01 3.779191e+00 -1.232031e+01 7.960938e+00 1.005664e-04 3.490348e-02 -3.085938e-01 3.710938e-01
-6.996743e-01 3.772680e+00 -1.232031e+01 7.875000e+00 4.120517e-06 3.501027e-02 -3.085938e-01 3.828125e-01
-7.050973e-01 3.768940e+00 -1.232031e+01 7.878906e+00 5.536945e-06 3.495211e-02 -3.085938e-01 3.828125e-01
-7.044904e-01 3.766209e+00 -1.232031e+01 7.898438e+00 -3.232030e-05 3.499355e-02 -3.085938e-01 3.710938e-01
-7.063938e-01 3.764009e+00 -1.232031e+01 7.902344e+00 -8.575826e-05 3.480048e-02 -3.046875e-01 3.710938e-01
-7.200973e-01 3.754876e+00 -1.232031e+01 7.535156e+00 -1.206539e-04 3.554898e-02 -3.398438e-01 3.828125e-01
-7.334120e-01 3.740436e+00 -1.232031e+01 7.597656e+00 -2.093738e-04 3.505103e-02 -3.398438e-01 3.828125e-01
-7.315267e-01 3.735913e+00 -1.232031e+01 7.722656e+00 -3.015703e-04 3.551417e-02 -3.398438e-01 3.750000e-01
-7.293249e-01 3.735297e+00 -1.232031e+01 7.722656e+00 -2.998964e-04 3.517978e-02 -3.046875e-01 3.710938e-01
-7.200419e-01 3.746302e+00 -1.232031e+01 7.738281e+00 -1.730617e-04 3.485142e-02 -3.085938e-01 3.710938e-01
-7.066662e-01 3.756154e+00 -1.232031e+01 7.777344e+00 -3.875861e-05 3.488394e-02 -3.125000e-01 3.710938e-01
-7.084701e-01 3.755240e+00 -1.232031e+01 7.777344e+00 -6.116392e-05 3.483045e-02 -3.125000e-01 3.710938e-01
-7.084283e-01 3.755248e+00 -1.232031e+01 7.777344e+00 -6.116392e-05 3.483045e-02 -3.125000e-01 3.710938e-01
-7.093325e-01 3.754664e+00 -1.232031e+01 7.777344e+00 -4.712841e-05 3.485262e-02 -3.125000e-01 3.789062e-01
-7.102559e-01 3.754377e+00 -1.232031e+01 7.757812e+00 -4.159147e-05 3.482561e-02 -3.125000e-01 3.789062e-01
-6.809794e-01 3.783665e+00 -1.232031e+01 7.992188e+00 1.489824e-04 3.506182e-02 -3.125000e-01 3.671875e-01
-7.494224e-01 3.767045e+00 -1.232422e+01 7.878906e+00 -2.177436e-04 3.430743e-02 -3.125000e-01 3.750000e-01
-7.451895e-01 3.768777e+00 -1.232422e+01 7.910156e+00 -1.487249e-04 3.425892e-02 -3.125000e-01 3.750000e-01
-7.444786e-01 3.769268e+00 -1.232422e+01 7.875000e+00 -8.318293e-05 3.431364e-02 -3.125000e-01 3.867188e-01
-7.569038e-01 3.758141e+00 -1.232422e+01 7.855469e+00 -3.121292e-04 3.438219e-02 -3.164062e-01 3.828125e-01
-7.190405e-01 3.766459e+00 -1.232422e+01 7.890625e+00 -7.713093e-05 3.456843e-02 -3.125000e-01 3.671875e-01
-7.007695e-01 3.778305e+00 -1.232422e+01 7.937500e+00 7.507067e-05 3.499328e-02 -3.085938e-01 3.632812e-01
-6.919940e-01 3.784546e+00 -1.232422e+01 7.949219e+00 1.259333e-04 3.498785e-02 -3.046875e-01 3.671875e-01
-6.937211e-01 3.773563e+00 -1.232422e+01 7.957031e+00 -6.039133e-05 3.536729e-02 -3.359375e-01 3.359375e-01
-6.923896e-01 3.771200e+00 -1.232422e+01 7.968750e+00 -1.126704e-04 3.496262e-02 -3.164062e-01 3.398438e-01
-6.828896e-01 3.779078e+00 -1.232422e+01 7.933594e+00 6.348171e-05 3.474306e-02 -3.203125e-01 3.476562e-01
-6.809229e-01 3.781086e+00 -1.232422e+01 7.972656e+00 4.146270e-05 3.463331e-02 -3.046875e-01 3.398438e-01
-6.817751e-01 3.777302e+00 -1.232422e+01 7.988281e+00 1.210402e-05 3.467743e-02 -3.281250e-01 3.398438e-01
-6.843974e-01 3.775747e+00 -1.232422e+01 7.988281e+00 1.545194e-05 3.486702e-02 -3.203125e-01 3.437500e-01
-6.893740e-01 3.775287e+00 -1.232812e+01 8.023438e+00 -1.435743e-04 3.501139e-02 -3.164062e-01 3.476562e-01
-6.942173e-01 3.771123e+00 -1.232812e+01 8.003906e+00 -1.462783e-04 3.478814e-02 -3.164062e-01 3.437500e-01
-6.889954e-01 3.779465e+00 -1.232812e+01 7.980469e+00 1.802726e-06 3.465900e-02 -3.164062e-01 3.515625e-01
-6.823843e-01 3.783086e+00 -1.232812e+01 8.101562e+00 1.570947e-05 3.466045e-02 -3.164062e-01 3.515625e-01
-6.916221e-01 3.771395e+00 -1.232812e+01 8.046875e+00 -9.863487e-05 3.499224e-02 -3.203125e-01 3.437500e-01
-7.006169e-01 3.772749e+00 -1.232812e+01 7.945312e+00 -7.082138e-05 3.459862e-02 -3.164062e-01 3.632812e-01
-6.938691e-01 3.782174e+00 -1.232812e+01 7.937500e+00 5.639957e-05 3.484750e-02 -3.046875e-01 3.632812e-01
-7.010170e-01 3.769727e+00 -1.232812e+01 7.996094e+00 -9.052261e-05 3.475301e-02 -3.164062e-01 3.632812e-01
-6.901901e-01 3.786665e+00 -1.232812e+01 7.992188e+00 7.713093e-05 3.490515e-02 -3.046875e-01 3.671875e-01
-6.834095e-01 3.778718e+00 -1.232812e+01 8.078125e+00 -7.095015e-05 3.459489e-02 -3.164062e-01 3.476562e-01
-6.774823e-01 3.786193e+00 -1.232812e+01 8.085938e+00 6.052009e-05 3.461047e-02 -3.085938e-01 3.476562e-01
-6.195114e-01 3.815556e+00 -1.232812e+01 8.316406e+00 2.876636e-04 3.503056e-02 -3.203125e-01 3.359375e-01
-6.111382e-01 3.816635e+00 -1.232812e+01 8.382812e+00 2.218641e-04 3.520285e-02 -3.085938e-01 3.281250e-01
-6.109088e-01 3.814990e+00 -1.232812e+01 8.417969e+00 2.028067e-04 3.511239e-02 -3.359375e-01 3.203125e-01
-6.175006e-01 3.816836e+00 -1.232812e+01 8.320312e+00 3.323454e-04 3.493281e-02 -3.046875e-01 3.359375e-01
-6.409392e-01 3.792152e+00 -1.232812e+01 8.125000e+00 4.429556e-05 3.499872e-02 -3.359375e-01 3.359375e-01
-6.810845e-01 3.774130e+00 -1.232812e+01 8.093750e+00 -1.134430e-04 3.484308e-02 -3.164062e-01 3.359375e-01
-7.137496e-01 3.766147e+00 -1.232812e+01 7.867188e+00 -3.126442e-04 3.497872e-02 -3.085938e-01 3.671875e-01
-6.951644e-01 3.765793e+00 -1.232812e+01 7.992188e+00 -1.287662e-05 3.469140e-02 -3.125000e-01 3.632812e-01
-6.866828e-01 3.766072e+00 -1.232812e+01 7.992188e+00 1.062321e-04 3.469202e-02 -3.125000e-01 3.554688e-01
-6.902681e-01 3.773169e+00 -1.232812e+01 8.136719e+00 -9.271163e-05 3.492797e-02 -3.281250e-01 3.476562e-01
-6.873033e-01 3.785335e+00 -1.232812e+01 8.125000e+00 -1.574810e-04 3.498365e-02 -3.281250e-01 3.476562e-01
-6.832219e-01 3.783984e+00 -1.232812e+01 8.105469e+00 -3.412303e-05 3.455276e-02 -3.085938e-01 3.476562e-01
-6.763204e-01 3.789104e+00 -1.232812e+01 8.132812e+00 2.446557e-06 3.455478e-02 -3.085938e-01 3.476562e-01
-6.871112e-01 3.787870e+00 -1.233203e+01 8.109375e+00 1.249032e-05 3.459175e-02 -3.085938e-01 3.476562e-01
-7.278431e-01 3.788832e+00 -1.233594e+01 8.164062e+00 -4.683225e-04 3.442484e-02 -3.125000e-01 3.593750e-01
-7.157706e-01 3.789617e+00 -1.233594e+01 8.222656e+00 -3.354358e-04 3.459767e-02 -3.125000e-01 3.593750e-01
-7.023801e-01 3.788912e+00 -1.233594e+01 8.167969e+00 -1.242593e-04 3.442361e-02 -3.085938e-01 3.554688e-01
-6.990436e-01 3.794855e+00 -1.233594e+01 8.152344e+00 -5.408178e-05 3.461946e-02 -3.085938e-01 3.632812e-01
-6.649825e-01 3.824562e+00 -1.233594e+01 8.570312e+00 2.575323e-05 3.443879e-02 -3.085938e-01 3.476562e-01
-6.521041e-01 3.832872e+00 -1.233594e+01 8.468750e+00 1.443469e-04 3.447872e-02 -3.085938e-01 3.476562e-01
-6.873090e-01 3.799104e+00 -1.233594e+01 8.195312e+00 -6.438308e-07 3.457638e-02 -3.085938e-01 3.554688e-01
-7.015064e-01 3.783911e+00 -1.233594e+01 8.156250e+00 -1.869685e-04 3.448562e-02 -3.125000e-01 3.437500e-01
-6.968011e-01 3.789133e+00 -1.233594e+01 8.195312e+00 -1.242593e-04 3.441139e-02 -3.125000e-01 3.554688e-01
-6.871711e-01 3.799449e+00 -1.233594e+01 8.210938e+00 -3.772848e-05 3.449625e-02 -3.085938e-01 3.554688e-01
-6.983756e-01 3.788122e+00 -1.233594e+01 8.273438e+00 -2.114340e-04 3.485571e-02 -3.085938e-01 3.437500e-01
-6.942512e-01 3.793515e+00 -1.233594e+01 8.234375e+00 -9.876364e-05 3.444943e-02 -3.085938e-01 3.437500e-01
-6.944151e-01 3.790318e+00 -1.233594e+01 8.187500e+00 -1.434455e-04 3.524842e-02 -3.085938e-01 3.554688e-01
-6.917476e-01 3.791531e+00 -1.233594e+01 8.242188e+00 -1.479523e-04 3.475361e-02 -3.085938e-01 3.398438e-01
-6.839995e-01 3.794173e+00 -1.233594e+01 8.218750e+00 -8.923494e-05 3.447634e-02 -3.125000e-01 3.359375e-01
-6.518758e-01 3.805590e+00 -1.233594e+01 8.429688e+00 1.076485e-04 3.474208e-02 -3.242188e-01 3.281250e-01
-6.052732e-01 3.840522e+00 -1.233984e+01 8.660156e+00 4.396076e-04 3.455984e-02 -3.164062e-01 3.203125e-01
-6.093388e-01 3.839548e+00 -1.233984e+01 8.636719e+00 4.197777e-04 3.452374e-02 -3.164062e-01 3.242188e-01
-6.215990e-01 3.832606e+00 -1.233984e+01 8.621094e+00 2.469735e-04 3.445364e-02 -3.164062e-01 3.281250e-01
-6.582370e-01 3.813441e+00 -1.233984e+01 8.515625e+00 -1.408702e-04 3.476146e-02 -3.203125e-01 3.359375e-01
-6.524364e-01 3.813104e+00 -1.233984e+01 8.472656e+00 -4.635581e-06 3.477865e-02 -3.125000e-01 3.359375e-01
-5.950170e-01 3.828657e+00 -1.233984e+01 8.574219e+00 7.553423e-04 3.464715e-02 -3.125000e-01 3.203125e-01
-6.245728e-01 3.825343e+00 -1.233984e+01 8.578125e+00 2.204477e-04 3.463783e-02 -3.242188e-01 3.281250e-01
-6.637788e-01 3.820073e+00 -1.233984e+01 8.554688e+00 -3.566822e-04 3.469655e-02 -3.164062e-01 3.242188e-01
-6.552090e-01 3.814310e+00 -1.233984e+01 8.519531e+00 -1.856808e-04 3.495033e-02 -3.242188e-01 3.281250e-01
-6.458209e-01 3.816911e+00 -1.233984e+01 8.519531e+00 3.953121e-05 3.462093e-02 -3.242188e-01 3.242188e-01
-6.526738e-01 3.808647e+00 -1.233984e+01 8.492188e+00 9.374176e-05 3.478307e-02 -3.164062e-01 3.359375e-01
-6.607677e-01 3.797202e+00 -1.233984e+01 8.261719e+00 1.879986e-05 3.484767e-02 -3.164062e-01 3.476562e-01
-6.570525e-01 3.798061e+00 -1.233984e+01 8.269531e+00 6.438308e-07 3.487983e-02 -3.164062e-01 3.476562e-01
-6.579307e-01 3.790529e+00 -1.233984e+01 8.250000e+00 1.686837e-05 3.470104e-02 -3.164062e-01 3.359375e-01
-6.803352e-01 3.776474e+00 -1.233984e+01 8.050781e+00 -1.639193e-04 3.505265e-02 -3.046875e-01 3.437500e-01
-6.477932e-01 3.798395e+00 -1.233984e+01 8.453125e+00 1.158895e-05 3.481716e-02 -3.359375e-01 3.281250e-01
-6.484974e-01 3.802855e+00 -1.233984e+01 8.410156e+00 5.124893e-05 3.492820e-02 -3.125000e-01 3.398438e-01
-6.504528e-01 3.799376e+00 -1.233984e+01 8.351562e+00 -1.725466e-05 3.485496e-02 -3.164062e-01 3.476562e-01
-6.475378e-01 3.790226e+00 -1.233984e+01 8.386719e+00 -1.017253e-05 3.463703e-02 -3.359375e-01 3.281250e-01
-6.389477e-01 3.806923e+00 -1.233984e+01 8.433594e+00 1.053307e-04 3.484736e-02 -3.164062e-01 3.359375e-01
-6.323118e-01 3.812687e+00 -1.233984e+01 8.433594e+00 1.734480e-04 3.475048e-02 -3.164062e-01 3.359375e-01
-6.333731e-01 3.807735e+00 -1.233984e+01 8.468750e+00 5.086263e-05 3.464883e-02 -3.164062e-01 3.281250e-01
-6.388425e-01 3.810156e+00 -1.233984e+01 8.406250e+00 1.070047e-04 3.475726e-02 -3.125000e-01 3.476562e-01
-6.429952e-01 3.802388e+00 -1.233984e+01 8.425781e+00 1.184649e-05 3.446159e-02 -3.164062e-01 3.281250e-01
-6.432133e-01 3.802303e+00 -1.233984e+01 8.425781e+00 5.279412e-06 3.445964e-02 -3.164062e-01 3.281250e-01
-6.434304e-01 3.802132e+00 -1.233984e+01 8.425781e+00 1.236155e-05 3.447402e-02 -3.164062e-01 3.281250e-01
-6.439887e-01 3.801874e+00 -1.233984e+01 8.425781e+00 1.094512e-05 3.448672e-02 -3.164062e-01 3.281250e-01
-6.445708e-01 3.801644e+00 -1.233984e+01 8.425781e+00 2.575323e-06 3.443313e-02 -3.164062e-01 3.281250e-01
-6.497825e-01 3.799533e+00 -1.233984e+01 8.453125e+00 1.326291e-05 3.499362e-02 -3.281250e-01 3.281250e-01
-6.552565e-01 3.798856e+00 -1.233984e+01 8.453125e+00 1.081636e-05 3.477938e-02 -3.164062e-01 3.359375e-01
-6.476599e-01 3.808090e+00 -1.233984e+01 8.367188e+00 4.120517e-06 3.489512e-02 -3.203125e-01 3.476562e-01
-6.222466e-01 3.805524e+00 -1.233984e+01 8.523438e+00 -7.764599e-05 3.511645e-02 -3.281250e-01 3.125000e-01
-6.247479e-01 3.788399e+00 -1.233984e+01 8.523438e+00 1.567084e-04 3.529472e-02 -3.359375e-01 3.046875e-01
-6.302275e-01 3.778066e+00 -1.233984e+01 8.210938e+00 3.484412e-04 3.543067e-02 -3.359375e-01 3.359375e-01
-6.813614e-01 3.771496e+00 -1.233984e+01 8.277344e+00 -5.110729e-04 3.495032e-02 -3.320312e-01 3.281250e-01
-6.551016e-01 3.774270e+00 -1.233984e+01 8.222656e+00 8.640209e-05 3.504550e-02 -3.281250e-01 3.359375e-01
-6.674974e-01 3.764948e+00 -1.233984e+01 8.253906e+00 -2.060258e-04 3.541622e-02 -3.359375e-01 3.203125e-01
-6.612933e-01 3.774072e+00 -1.233984e+01 8.234375e+00 -1.090649e-04 3.478335e-02 -3.242188e-01 3.398438e-01
-6.609565e-01 3.783459e+00 -1.233984e+01 8.257812e+00 -7.236658e-05 3.520040e-02 -3.242188e-01 3.554688e-01
-6.566592e-01 3.792188e+00 -1.233984e+01 8.261719e+00 -5.691464e-05 3.494931e-02 -3.203125e-01 3.554688e-01
-6.630125e-01 3.781844e+00 -1.233984e+01 8.332031e+00 -1.297963e-04 3.479695e-02 -3.359375e-01 3.359375e-01
-6.192367e-01 3.817997e+00 -1.233984e+01 8.808594e+00 6.348171e-05 3.518034e-02 -3.359375e-01 3.281250e-01
-5.512661e-01 3.882330e+00 -1.233984e+01 9.117188e+00 5.838257e-04 3.508423e-02 -3.046875e-01 3.320312e-01
-5.507270e-01 3.885666e+00 -1.233984e+01 9.117188e+00 6.129269e-04 3.498625e-02 -2.929688e-01 3.359375e-01
-7.213123e-01 3.763043e+00 -1.233984e+01 8.300781e+00 -8.101966e-04 3.524412e-02 -3.242188e-01 3.476562e-01
-7.337047e-01 3.749673e+00 -1.233984e+01 8.054688e+00 -7.633258e-04 3.553742e-02 -3.242188e-01 3.593750e-01
-7.154451e-01 3.757417e+00 -1.233984e+01 8.039062e+00 -5.460973e-04 3.501882e-02 -3.242188e-01 3.593750e-01
-6.743707e-01 3.772823e+00 -1.233984e+01 8.371094e+00 -1.806589e-04 3.455162e-02 -3.046875e-01 3.281250e-01
-6.708080e-01 3.777303e+00 -1.233984e+01 8.375000e+00 -1.617303e-04 3.448823e-02 -3.125000e-01 3.281250e-01
-6.624383e-01 3.793104e+00 -1.233984e+01 8.429688e+00 -5.768724e-05 3.478199e-02 -3.242188e-01 3.437500e-01
-6.560183e-01 3.796818e+00 -1.233984e+01 8.429688e+00 -7.352547e-05 3.452271e-02 -3.320312e-01 3.320312e-01
-6.649373e-01 3.815926e+00 -1.233984e+01 8.582031e+00 1.053307e-04 3.393989e-02 -3.242188e-01 3.593750e-01
-6.737999e-01 3.820753e+00 -1.233984e+01 8.726562e+00 4.403802e-05 3.367719e-02 -3.203125e-01 3.593750e-01
-6.974397e-01 3.816003e+00 -1.233984e+01 8.703125e+00 -4.511966e-04 3.392024e-02 -3.203125e-01 3.632812e-01
-6.954142e-01 3.815151e+00 -1.233984e+01 8.703125e+00 -4.326543e-04 3.406034e-02 -3.203125e-01 3.554688e-01
-6.295460e-01 3.820591e+00 -1.233984e+01 8.664062e+00 6.079050e-04 3.404870e-02 -3.242188e-01 3.554688e-01
-6.543590e-01 3.820505e+00 -1.233984e+01 8.710938e+00 6.116392e-05 3.420828e-02 -3.203125e-01 3.593750e-01
-6.650798e-01 3.818410e+00 -1.233984e+01 8.691406e+00 -1.367497e-04 3.424064e-02 -3.242188e-01 3.515625e-01
-6.454083e-01 3.809650e+00 -1.233984e+01 8.703125e+00 -1.854233e-05 3.450371e-02 -3.164062e-01 3.398438e-01
-6.429432e-01 3.808689e+00 -1.233984e+01 8.695312e+00 1.892862e-05 3.444089e-02 -3.164062e-01 3.398438e-01
-6.561053e-01 3.810439e+00 -1.233984e+01 8.582031e+00 -6.966249e-05 3.470522e-02 -3.203125e-01 3.515625e-01
-6.463454e-01 3.806172e+00 -1.233984e+01 8.707031e+00 -5.215029e-05 3.446016e-02 -3.164062e-01 3.320312e-01
-6.373890e-01 3.813752e+00 -1.233984e+01 8.695312e+00 1.050732e-04 3.431635e-02 -3.164062e-01 3.437500e-01
-6.647791e-01 3.800494e+00 -1.233984e+01 8.648438e+00 -3.575836e-04 3.444760e-02 -3.242188e-01 3.359375e-01
-6.758739e-01 3.793033e+00 -1.233984e+01 8.578125e+00 -5.593602e-04 3.432838e-02 -3.242188e-01 3.359375e-01
-6.553051e-01 3.794051e+00 -1.233984e+01 8.578125e+00 -2.516091e-04 3.436596e-02 -3.281250e-01 3.281250e-01
-6.529236e-01 3.785237e+00 -1.233984e+01 8.535156e+00 -1.896725e-04 3.452458e-02 -3.203125e-01 3.320312e-01
-6.572401e-01 3.784651e+00 -1.233984e+01 8.433594e+00 -1.406126e-04 3.457773e-02 -3.203125e-01 3.320312e-01
-6.577408e-01 3.790108e+00 -1.233984e+01 8.453125e+00 -6.618580e-05 3.449859e-02 -3.242188e-01 3.515625e-01
-6.494593e-01 3.792843e+00 -1.233984e+01 8.574219e+00 -1.292812e-04 3.439933e-02 -3.203125e-01 3.437500e-01
-6.493214e-01 3.791929e+00 -1.233984e+01 8.582031e+00 -1.455058e-04 3.434358e-02 -3.203125e-01 3.359375e-01
-6.296138e-01 3.803734e+00 -1.233984e+01 8.578125e+00 1.055882e-05 3.471718e-02 -3.242188e-01 3.476562e-01
-5.352467e-01 3.834845e+00 -1.233984e+01 9.054688e+00 3.601589e-04 3.495217e-02 -3.203125e-01 3.164062e-01
-4.799567e-01 3.862289e+00 -1.233984e+01 9.136719e+00 6.791127e-04 3.498784e-02 -3.007812e-01 3.007812e-01
-5.452937e-01 3.829753e+00 -1.233984e+01 9.054688e+00 -1.370072e-04 3.492902e-02 -3.203125e-01 2.968750e-01
-5.728161e-01 3.805147e+00 -1.233984e+01 8.843750e+00 -4.236406e-05 3.495649e-02 -3.320312e-01 2.968750e-01
-5.690285e-01 3.798749e+00 -1.233984e+01 8.675781e+00 2.687350e-04 3.484540e-02 -3.320312e-01 3.007812e-01
-5.774220e-01 3.798231e+00 -1.233984e+01 8.628906e+00 1.992012e-04 3.482216e-02 -3.242188e-01 3.164062e-01
-5.774220e-01 3.798231e+00 -1.233984e+01 8.628906e+00 1.992012e-04 3.482216e-02 -3.242188e-01 3.164062e-01
-5.783431e-01 3.805448e+00 -1.233984e+01 8.589844e+00 2.218641e-04 3.511573e-02 -3.398438e-01 3.476562e-01
-5.856787e-01 3.794025e+00 -1.233984e+01 8.609375e+00 -4.300789e-05 3.514841e-02 -3.320312e-01 3.203125e-01
-5.824664e-01 3.802034e+00 -1.233984e+01 8.671875e+00 8.176651e-05 3.544411e-02 -3.320312e-01 3.515625e-01
-5.810276e-01 3.805234e+00 -1.233984e+01 8.675781e+00 1.317278e-04 3.549783e-02 -3.320312e-01 3.515625e-01
-5.900732e-01 3.798853e+00 -1.233984e+01 8.582031e+00 6.077762e-05 3.493789e-02 -3.320312e-01 3.359375e-01
-5.912408e-01 3.796658e+00 -1.233984e+01 8.617188e+00 4.661335e-05 3.473056e-02 -3.320312e-01 3.203125e-01
-5.913606e-01 3.796830e+00 -1.233984e+01 8.609375e+00 4.764348e-05 3.462775e-02 -3.203125e-01 3.203125e-01
-5.909808e-01 3.796663e+00 -1.233984e+01 8.609375e+00 5.150646e-05 3.472033e-02 -3.320312e-01 3.203125e-01
-6.300908e-01 3.774949e+00 -1.233984e+01 8.500000e+00 -1.973985e-04 3.458598e-02 -3.242188e-01 3.242188e-01
-5.914996e-01 3.793820e+00 -1.233984e+01 8.738281e+00 6.335295e-05 3.495294e-02 -3.242188e-01 3.242188e-01
-5.697994e-01 3.805071e+00 -1.233984e+01 8.726562e+00 1.810452e-04 3.491566e-02 -3.242188e-01 3.203125e-01
-5.789490e-01 3.803206e+00 -1.233984e+01 8.707031e+00 3.476686e-06 3.499121e-02 -3.281250e-01 3.242188e-01
-5.815520e-01 3.802970e+00 -1.233984e+01 8.710938e+00 -6.605704e-05 3.490140e-02 -3.320312e-01 3.242188e-01
-5.787738e-01 3.798030e+00 -1.233984e+01 8.730469e+00 -1.287662e-07 3.480041e-02 -3.320312e-01 3.085938e-01
-6.103538e-01 3.767493e+00 -1.233984e+01 8.539062e+00 -1.178210e-04 3.505663e-02 -3.320312e-01 3.085938e-01
-6.090054e-01 3.773577e+00 -1.233984e+01 8.507812e+00 -1.196238e-04 3.476593e-02 -3.320312e-01 3.203125e-01
-6.108896e-01 3.775377e+00 -1.233984e+01 8.503906e+00 -1.314702e-04 3.477997e-02 -3.242188e-01 3.203125e-01
-6.117927e-01 3.778909e+00 -1.233984e+01 8.523438e+00 -1.724179e-04 3.495098e-02 -3.242188e-01 3.359375e-01
-6.091806e-01 3.783823e+00 -1.233984e+01 8.523438e+00 -1.089362e-04 3.518203e-02 -3.398438e-01 3.359375e-01
-5.932041e-01 3.794874e+00 -1.233984e+01 8.707031e+00 -4.326543e-05 3.481790e-02 -3.242188e-01 3.203125e-01
-5.800894e-01 3.792632e+00 -1.233984e+01 8.812500e+00 -3.798601e-05 3.526580e-02 -3.320312e-01 3.007812e-01
-6.094609e-01 3.774283e+00 -1.233984e+01 8.730469e+00 -2.545707e-04 3.506699e-02 -3.242188e-01 3.242188e-01
-6.295358e-01 3.754835e+00 -1.233984e+01 8.417969e+00 -4.142407e-04 3.499256e-02 -3.242188e-01 3.242188e-01
-6.104567e-01 3.765499e+00 -1.233984e+01 8.507812e+00 -2.075710e-04 3.473407e-02 -3.242188e-01 3.320312e-01
-5.600484e-01 3.799905e+00 -1.233984e+01 8.726562e+00 2.894663e-04 3.473638e-02 -3.242188e-01 3.320312e-01
-5.617212e-01 3.813487e+00 -1.233984e+01 8.917969e+00 1.622454e-05 3.466656e-02 -3.203125e-01 3.242188e-01
-6.235792e-01 3.789415e+00 -1.233984e+01 8.625000e+00 1.471797e-04 3.422238e-02 -3.359375e-01 3.515625e-01
-6.887004e-01 3.775095e+00 -1.233984e+01 8.582031e+00 -5.366973e-04 3.445976e-02 -3.359375e-01 3.750000e-01
-7.084780e-01 3.771751e+00 -1.233984e+01 8.578125e+00 -7.768462e-04 3.433419e-02 -3.320312e-01 3.750000e-01
-6.323095e-01 3.796785e+00 -1.233984e+01 8.710938e+00 2.295900e-04 3.406459e-02 -3.359375e-01 3.632812e-01
-5.769077e-01 3.844599e+00 -1.233984e+01 9.062500e+00 2.482611e-04 3.441893e-02 -3.281250e-01 3.476562e-01
-5.722668e-01 3.847777e+00 -1.233984e+01 9.089844e+00 2.650007e-04 3.442451e-02 -3.281250e-01 3.476562e-01
-5.803279e-01 3.833034e+00 -1.233984e+01 9.089844e+00 1.368784e-04 3.441549e-02 -3.203125e-01 3.437500e-01
-5.927994e-01 3.811412e+00 -1.233984e+01 8.933594e+00 2.124642e-05 3.432047e-02 -3.398438e-01 3.320312e-01
-5.954228e-01 3.807655e+00 -1.233984e+01 8.835938e+00 6.116392e-05 3.411017e-02 -3.398438e-01 3.242188e-01
-5.971759e-01 3.805729e+00 -1.233984e+01 8.847656e+00 3.219154e-05 3.406043e-02 -3.281250e-01 3.242188e-01
-6.008199e-01 3.798957e+00 -1.233984e+01 8.855469e+00 -5.601328e-05 3.425531e-02 -3.203125e-01 3.242188e-01
-6.003000e-01 3.804466e+00 -1.233984e+01 8.820312e+00 5.099140e-05 3.417484e-02 -3.359375e-01 3.320312e-01
-6.274776e-01 3.779568e+00 -1.233984e+01 8.527344e+00 -2.803239e-04 3.418802e-02 -3.398438e-01 3.320312e-01
-6.366159e-01 3.770279e+00 -1.233984e+01 8.527344e+00 -3.517891e-04 3.417125e-02 -3.281250e-01 3.281250e-01
-6.168507e-01 3.779457e+00 -1.233984e+01 8.585938e+00 -1.896725e-04 3.432835e-02 -3.359375e-01 3.398438e-01
-5.518720e-01 3.795235e+00 -1.233984e+01 8.832031e+00 2.946170e-04 3.422448e-02 -3.242188e-01 3.085938e-01
-5.538952e-01 3.795163e+00 -1.233984e+01 8.843750e+00 2.356421e-04 3.408745e-02 -3.398438e-01 3.085938e-01
-5.625576e-01 3.792779e+00 -1.233984e+01 8.843750e+00 7.185151e-05 3.415540e-02 -3.242188e-01 3.085938e-01
-5.600948e-01 3.797314e+00 -1.233984e+01 8.867188e+00 4.416679e-05 3.438913e-02 -3.242188e-01 3.164062e-01
-5.563027e-01 3.797172e+00 -1.233984e+01 8.871094e+00 5.755847e-05 3.436079e-02 -3.359375e-01 3.125000e-01
-5.577178e-01 3.793542e+00 -1.233984e+01 8.847656e+00 1.686837e-05 3.447014e-02 -3.359375e-01 3.164062e-01
-5.994568e-01 3.765431e+00 -1.233984e+01 8.472656e+00 -2.418228e-04 3.467973e-02 -3.281250e-01 3.164062e-01
-6.384210e-01 3.739369e+00 -1.233984e+01 8.500000e+00 -6.012092e-04 3.473552e-02 -3.281250e-01 3.203125e-01
-6.289085e-01 3.744953e+00 -1.233984e+01 8.500000e+00 -4.956209e-04 3.466352e-02 -3.320312e-01 3.125000e-01
-6.013850e-01 3.760626e+00 -1.233984e+01 8.605469e+00 -1.980423e-04 3.424751e-02 -3.242188e-01 3.125000e-01
-5.456995e-01 3.806620e+00 -1.233984e+01 9.046875e+00 7.507067e-05 3.442955e-02 -3.242188e-01 3.125000e-01
-5.439408e-01 3.812153e+00 -1.233984e+01 8.988281e+00 1.251607e-04 3.490028e-02 -3.359375e-01 3.281250e-01
-5.571504e-01 3.804831e+00 -1.233984e+01 8.945312e+00 8.987877e-05 3.450264e-02 -3.359375e-01 3.242188e-01
