8.999939e-01 9.989929e-01
6.560669e-01 9.959717e-01
4.782562e-01 9.929504e-01
3.486481e-01 9.899597e-01
2.541504e-01 9.869843e-01
1.852722e-01 9.840088e-01
1.350555e-01 9.810333e-01
9.844971e-02 9.780579e-01
7.176208e-02 9.751129e-01
5.232239e-02 9.721832e-01
3.813171e-02 9.692535e-01
2.780151e-02 9.663239e-01
2.026367e-02 9.633942e-01
1.475525e-02 9.604797e-01
1.075745e-02 9.575958e-01
7.843018e-03 9.547119e-01
5.722046e-03 9.518280e-01
4.165649e-03 9.489441e-01
3.036499e-03 9.460602e-01
2.212524e-03 9.432220e-01
1.602173e-03 9.403839e-01
1.159668e-03 9.375458e-01
8.392334e-04 9.347076e-01
6.103516e-04 9.318695e-01
4.425049e-04 9.290619e-01
3.204346e-04 9.262695e-01
2.288818e-04 9.234772e-01
1.678467e-04 9.206848e-01
1.220703e-04 9.178925e-01
7.629395e-05 9.151154e-01
6.103516e-05 9.123688e-01
6.103516e-05 9.096222e-01
6.103516e-05 9.068756e-01
6.103516e-05 9.041290e-01
6.103516e-05 9.013824e-01
6.103516e-05 8.986816e-01
6.103516e-05 8.959808e-01
6.103516e-05 8.932800e-01
6.103516e-05 8.905792e-01
6.103516e-05 8.878784e-01
6.103516e-05 8.851929e-01
6.103516e-05 8.825378e-01
6.103516e-05 8.798828e-01
6.103516e-05 8.772278e-01
6.103516e-05 8.745728e-01
6.103516e-05 8.719177e-01
6.103516e-05 8.692932e-01
6.103516e-05 8.666840e-01
6.103516e-05 8.640747e-01
6.103516e-05 8.614655e-01
6.103516e-05 8.588562e-01
6.103516e-05 8.562469e-01
6.103516e-05 8.536682e-01
6.103516e-05 8.511047e-01
6.103516e-05 8.485413e-01
6.103516e-05 8.459778e-01
6.103516e-05 8.434143e-01
6.103516e-05 8.408508e-01
6.103516e-05 8.383331e-01
6.103516e-05 8.358154e-01
6.103516e-05 8.332977e-01
6.103516e-05 8.307800e-01
6.103516e-05 8.282623e-01
6.103516e-05 8.257446e-01
6.103516e-05 8.232727e-01
6.103516e-05 8.208008e-01
6.103516e-05 8.183289e-01
6.103516e-05 8.158569e-01
6.103516e-05 8.133850e-01
6.103516e-05 8.109131e-01
6.103516e-05 8.084717e-01
6.103516e-05 8.060455e-01
6.103516e-05 8.036194e-01
6.103516e-05 8.011932e-01
6.103516e-05 7.987671e-01
6.103516e-05 7.963409e-01
6.103516e-05 7.939301e-01
6.103516e-05 7.915497e-01
6.103516e-05 7.891693e-01
6.103516e-05 7.867889e-01
6.103516e-05 7.844086e-01
6.103516e-05 7.820282e-01
6.103516e-05 7.796478e-01
6.103516e-05 7.773132e-01
6.103516e-05 7.749786e-01
6.103516e-05 7.726440e-01
6.103516e-05 7.703094e-01
6.103516e-05 7.679749e-01
6.103516e-05 7.656403e-01
6.103516e-05 7.633362e-01
6.103516e-05 7.610474e-01
6.103516e-05 7.587585e-01
6.103516e-05 7.564697e-01
6.103516e-05 7.541809e-01
6.103516e-05 7.518921e-01
6.103516e-05 7.496033e-01
6.103516e-05 7.473602e-01
6.103516e-05 7.451172e-01
6.103516e-05 7.428741e-01
6.103516e-05 7.406311e-01
6.103516e-05 7.383881e-01
6.103516e-05 7.361450e-01
6.103516e-05 7.339172e-01
6.103516e-05 7.317200e-01
6.103516e-05 7.295227e-01
6.103516e-05 7.273254e-01
6.103516e-05 7.251282e-01
6.103516e-05 7.229309e-01
6.103516e-05 7.207336e-01
6.103516e-05 7.185516e-01
6.103516e-05 7.164001e-01
6.103516e-05 7.142487e-01
6.103516e-05 7.120972e-01
6.103516e-05 7.099457e-01
6.103516e-05 7.077942e-01
6.103516e-05 7.056427e-01
6.103516e-05 7.035065e-01
6.103516e-05 7.014008e-01
6.103516e-05 6.992950e-01
6.103516e-05 6.971893e-01
6.103516e-05 6.950836e-01
6.103516e-05 6.929779e-01
6.103516e-05 6.908722e-01
6.103516e-05 6.887665e-01
6.103516e-05 6.867065e-01
6.103516e-05 6.846466e-01
6.103516e-05 6.825867e-01
6.103516e-05 6.805267e-01
6.103516e-05 6.784668e-01
6.103516e-05 6.764069e-01
6.103516e-05 6.743469e-01
6.103516e-05 6.723175e-01
6.103516e-05 6.703033e-01
6.103516e-05 6.682892e-01
6.103516e-05 6.662750e-01
6.103516e-05 6.642609e-01
6.103516e-05 6.622467e-01
6.103516e-05 6.602325e-01
6.103516e-05 6.582336e-01
6.103516e-05 6.562653e-01
6.103516e-05 6.542969e-01
6.103516e-05 6.523285e-01
6.103516e-05 6.503601e-01
6.103516e-05 6.483917e-01
6.103516e-05 6.464233e-01
6.103516e-05 6.444550e-01
6.103516e-05 6.425171e-01
6.103516e-05 6.405945e-01
6.103516e-05 6.386719e-01
6.103516e-05 6.367493e-01
6.103516e-05 6.348267e-01
6.103516e-05 6.329041e-01
6.103516e-05 6.309814e-01
6.103516e-05 6.290588e-01
6.103516e-05 6.271667e-01
6.103516e-05 6.252899e-01
6.103516e-05 6.234131e-01
6.103516e-05 6.215363e-01
6.103516e-05 6.196594e-01
6.103516e-05 6.177826e-01
6.103516e-05 6.159058e-01
6.103516e-05 6.140289e-01
6.103516e-05 6.121826e-01
6.103516e-05 6.103516e-01
6.103516e-05 6.085205e-01
6.103516e-05 6.066895e-01
6.103516e-05 6.048584e-01
6.103516e-05 6.030273e-01
6.103516e-05 6.011963e-01
6.103516e-05 5.993652e-01
6.103516e-05 5.975494e-01
6.103516e-05 5.957642e-01
6.103516e-05 5.939789e-01
6.103516e-05 5.921936e-01
6.103516e-05 5.904083e-01
6.103516e-05 5.886230e-01
6.103516e-05 5.868378e-01
6.103516e-05 5.850525e-01
6.103516e-05 5.832672e-01
