3.316348e+02 4.811083e-01 7.539503e-03 5.774417e-01 -9.990692e-01 9.989471e-01
3.128679e+02 4.811083e-01 1.218855e-02 7.305486e-01 -3.437668e+00 3.829590e+00
3.094101e+02 4.811083e-01 2.566585e-02 1.101777e+00 -5.934723e+00 6.236145e+00
3.082220e+02 4.811083e-01 1.976943e-02 1.450332e+00 -8.020065e+00 7.212387e+00
3.033457e+02 4.811083e-01 -2.499905e-03 1.746265e+00 -9.673309e+00 8.414749e+00
3.019271e+02 4.811083e-01 -1.264758e-02 1.996757e+00 -1.102519e+01 9.945160e+00
3.019164e+02 4.811083e-01 -2.346403e-02 2.212285e+00 -1.287035e+01 1.157320e+01
3.006495e+02 4.811083e-01 -3.756087e-02 2.402306e+00 -1.447379e+01 1.316638e+01
2.989623e+02 4.811083e-01 -4.542152e-02 2.573273e+00 -1.548566e+01 1.412103e+01
2.952889e+02 4.811083e-01 -4.989531e-02 2.730403e+00 -1.584877e+01 1.498737e+01
2.928205e+02 4.811083e-01 -6.217138e-02 2.878492e+00 -1.723654e+01 1.685008e+01
2.849849e+02 4.811083e-01 -7.829441e-02 3.022965e+00 -1.898155e+01 1.892754e+01
2.817408e+02 4.811083e-01 -7.558823e-02 3.166472e+00 -2.042334e+01 2.133760e+01
2.799057e+02 4.811083e-01 -4.489288e-02 3.313589e+00 -2.229282e+01 2.326430e+01
2.732481e+02 4.811083e-01 -1.593772e-02 3.467619e+00 -2.394012e+01 2.529187e+01
2.660262e+02 4.811083e-01 -1.842553e-03 3.631354e+00 -2.504803e+01 2.712807e+01
2.602427e+02 4.811083e-01 -1.559513e-02 3.812973e+00 -2.676053e+01 2.885390e+01
2.554550e+02 4.143577e-01 -2.096481e-02 4.015235e+00 -2.866013e+01 3.054752e+01
2.529203e+02 4.080605e-01 2.814252e-02 4.241498e+00 -3.065431e+01 3.136780e+01
2.470302e+02 3.299748e-01 5.646739e-02 4.498893e+00 -3.247418e+01 3.267650e+01
2.440040e+02 2.947103e-01 9.266695e-02 4.782808e+00 -3.408069e+01 3.460362e+01
2.383883e+02 2.934509e-01 1.296376e-01 5.087848e+00 -3.489615e+01 3.722408e+01
2.289252e+02 2.959698e-01 1.426810e-01 5.423174e+00 -3.588596e+01 4.003214e+01
2.260828e+02 3.073048e-01 1.417118e-01 5.787289e+00 -3.858646e+01 4.335364e+01
2.230142e+02 2.997481e-01 1.193211e-01 6.178524e+00 -4.230594e+01 4.618408e+01
2.185315e+02 2.833753e-01 1.308508e-01 6.595098e+00 -4.696942e+01 4.967125e+01
2.135314e+02 2.770781e-01 1.275736e-01 7.008955e+00 -5.075653e+01 5.303336e+01
2.119497e+02 2.783375e-01 1.212668e-01 7.408821e+00 -5.368994e+01 5.492679e+01
2.108848e+02 2.795970e-01 1.095879e-01 7.801139e+00 -5.672163e+01 5.760907e+01
2.091154e+02 2.833753e-01 1.000088e-01 8.190934e+00 -5.975220e+01 5.986621e+01
2.052115e+02 2.632242e-01 9.538019e-02 8.575170e+00 -6.277217e+01 6.224467e+01
2.052721e+02 2.770781e-01 1.149205e-01 8.951720e+00 -6.575621e+01 6.407695e+01
2.030877e+02 2.670025e-01 1.332868e-01 9.316945e+00 -6.917957e+01 6.663776e+01
2.001857e+02 2.657431e-01 1.744066e-01 9.707294e+00 -7.144933e+01 6.863039e+01
2.014623e+02 2.921914e-01 2.710456e-01 1.010662e+01 -7.268875e+01 6.905222e+01
2.011430e+02 2.632242e-01 3.850270e-01 1.051330e+01 -7.548381e+01 7.040924e+01
1.986098e+02 2.707809e-01 4.099391e-01 1.091959e+01 -7.925307e+01 7.377147e+01
1.981872e+02 2.682620e-01 3.945201e-01 1.131562e+01 -8.179239e+01 7.520934e+01
2.001302e+02 2.657431e-01 3.776845e-01 1.167978e+01 -8.529039e+01 7.789806e+01
1.932746e+02 2.531486e-01 3.359553e-01 1.199197e+01 -8.962788e+01 8.074998e+01
1.946599e+02 2.707809e-01 3.112505e-01 1.228978e+01 -9.658328e+01 8.218169e+01
1.937227e+02 2.758186e-01 3.144155e-01 1.260346e+01 -1.031431e+02 8.404813e+01
1.957345e+02 2.783375e-01 3.543902e-01 1.288131e+01 -1.089072e+02 8.403392e+01
1.952379e+02 2.745592e-01 4.078510e-01 1.316325e+01 -1.121407e+02 8.402271e+01
1.942625e+02 2.808564e-01 4.678577e-01 1.345414e+01 -1.152459e+02 8.400862e+01
1.937770e+02 2.795970e-01 5.639913e-01 1.376444e+01 -1.196009e+02 8.400247e+01
1.947273e+02 2.858942e-01 6.479124e-01 1.409180e+01 -1.220358e+02 8.401102e+01
1.957693e+02 2.947103e-01 7.093210e-01 1.441735e+01 -1.244050e+02 8.402400e+01
1.961163e+02 2.972292e-01 7.634705e-01 1.472624e+01 -1.252931e+02 8.815350e+01
1.952099e+02 2.947103e-01 7.632441e-01 1.504153e+01 -1.248219e+02 9.256793e+01
1.932412e+02 2.947103e-01 8.073673e-01 1.534048e+01 -1.254191e+02 9.568997e+01
1.923845e+02 2.884131e-01 8.973746e-01 1.558035e+01 -1.260510e+02 9.843245e+01
1.930171e+02 3.022670e-01 9.719960e-01 1.580198e+01 -1.285299e+02 1.033218e+02
1.905998e+02 3.047859e-01 1.009952e+00 1.600898e+01 -1.289419e+02 1.081356e+02
1.896775e+02 3.060453e-01 1.023174e+00 1.619670e+01 -1.279484e+02 1.113438e+02
1.904363e+02 3.085642e-01 1.037654e+00 1.640064e+01 -1.273263e+02 1.135217e+02
1.924882e+02 3.110831e-01 1.080406e+00 1.661838e+01 -1.254377e+02 1.152543e+02
1.915124e+02 3.073048e-01 1.071752e+00 1.687136e+01 -1.242421e+02 1.180480e+02
1.925457e+02 3.173804e-01 1.015856e+00 1.713869e+01 -1.243519e+02 1.208540e+02
1.931550e+02 3.110831e-01 9.807783e-01 1.737392e+01 -1.232411e+02 1.229688e+02
1.912156e+02 3.010076e-01 9.743579e-01 1.758066e+01 -1.225478e+02 1.246086e+02
1.899127e+02 3.035264e-01 9.463216e-01 1.778925e+01 -1.246946e+02 1.249173e+02
1.893717e+02 3.035264e-01 9.262766e-01 1.800180e+01 -1.265485e+02 1.250721e+02
1.897410e+02 3.085642e-01 9.309460e-01 1.817153e+01 -1.281505e+02 1.247657e+02
1.904680e+02 3.098237e-01 9.360558e-01 1.833366e+01 -1.289449e+02 1.255141e+02
1.889907e+02 3.047859e-01 9.071237e-01 1.847453e+01 -1.300502e+02 1.246257e+02
1.880610e+02 3.035264e-01 8.814335e-01 1.858692e+01 -1.300430e+02 1.247499e+02
1.887791e+02 3.035264e-01 8.770441e-01 1.867353e+01 -1.300231e+02 1.229641e+02
1.886924e+02 3.022670e-01 8.676701e-01 1.875352e+01 -1.300074e+02 1.229640e+02
1.876930e+02 3.010076e-01 8.594089e-01 1.886060e+01 -1.300014e+02 1.247584e+02
1.873618e+02 2.997481e-01 8.561305e-01 1.896552e+01 -1.299934e+02 1.257217e+02
1.865268e+02 2.896725e-01 8.555718e-01 1.902913e+01 -1.299805e+02 1.252962e+02
1.873705e+02 2.858942e-01 8.626205e-01 1.904161e+01 -1.299640e+02 1.254342e+02
1.878874e+02 2.884131e-01 8.598238e-01 1.908997e+01 -1.299471e+02 1.251045e+02
1.876314e+02 2.821159e-01 8.756599e-01 1.916591e+01 -1.299331e+02 1.251784e+02
1.870278e+02 2.846348e-01 8.890741e-01 1.927167e+01 -1.299178e+02 1.263004e+02
1.869645e+02 2.871537e-01 9.023464e-01 1.940886e+01 -1.299011e+02 1.273211e+02
1.866228e+02 2.871537e-01 8.970589e-01 1.953194e+01 -1.298876e+02 1.275718e+02
1.864734e+02 2.909320e-01 8.867012e-01 1.963239e+01 -1.298789e+02 1.261850e+02
1.880164e+02 2.884131e-01 9.019392e-01 1.970801e+01 -1.298721e+02 1.261415e+02
1.883419e+02 2.896725e-01 9.245800e-01 1.979114e+01 -1.303447e+02 1.269182e+02
1.878122e+02 2.858942e-01 9.332264e-01 1.987403e+01 -1.363911e+02 1.274679e+02
1.880181e+02 2.846348e-01 9.305896e-01 1.994012e+01 -1.411372e+02 1.272671e+02
1.876659e+02 2.821159e-01 8.995251e-01 1.999934e+01 -1.469036e+02 1.268293e+02
1.874241e+02 2.846348e-01 8.651351e-01 2.006126e+01 -1.500516e+02 1.263476e+02
1.879346e+02 2.833753e-01 8.385941e-01 2.012581e+01 -1.525641e+02 1.259574e+02
1.883204e+02 2.858942e-01 8.210522e-01 2.014959e+01 -1.525583e+02 1.257867e+02
1.891040e+02 2.858942e-01 8.087245e-01 2.016001e+01 -1.525468e+02 1.256227e+02
1.906490e+02 2.896725e-01 7.993676e-01 2.017502e+01 -1.525419e+02 1.254931e+02
1.908221e+02 2.896725e-01 7.954096e-01 2.019053e+01 -1.525434e+02 1.256778e+02
1.901229e+02 2.871537e-01 7.863765e-01 2.019890e+01 -1.525501e+02 1.259258e+02
1.879987e+02 2.846348e-01 7.825083e-01 2.019953e+01 -1.525560e+02 1.263824e+02
1.890051e+02 2.858942e-01 8.016813e-01 2.022589e+01 -1.525637e+02 1.266772e+02
1.889776e+02 2.833753e-01 8.165773e-01 2.024924e+01 -1.525702e+02 1.270835e+02
1.897731e+02 2.846348e-01 8.231772e-01 2.026312e+01 -1.525770e+02 1.273409e+02
1.888471e+02 2.833753e-01 8.227567e-01 2.026629e+01 -1.525993e+02 1.277986e+02
1.894255e+02 2.884131e-01 8.237460e-01 2.027113e+01 -1.526222e+02 1.284917e+02
1.896319e+02 2.884131e-01 8.279158e-01 2.028193e+01 -1.526404e+02 1.299364e+02
1.899940e+02 2.871537e-01 8.314783e-01 2.028719e+01 -1.526556e+02 1.318942e+02
1.901871e+02 2.884131e-01 8.322666e-01 2.029200e+01 -1.526665e+02 1.320841e+02
1.894660e+02 2.884131e-01 8.332475e-01 2.029568e+01 -1.526743e+02 1.325173e+02
1.900160e+02 2.896725e-01 8.338426e-01 2.028813e+01 -1.526799e+02 1.316561e+02
1.900632e+02 2.896725e-01 8.339451e-01 2.029131e+01 -1.526837e+02 1.330121e+02
1.904534e+02 2.884131e-01 8.298605e-01 2.029846e+01 -1.526862e+02 1.328141e+02
1.903674e+02 2.858942e-01 8.261729e-01 2.029916e+01 -1.526877e+02 1.327934e+02
1.899748e+02 2.858942e-01 8.267202e-01 2.029306e+01 -1.526883e+02 1.335026e+02
1.903362e+02 2.858942e-01 8.278542e-01 2.029565e+01 -1.526884e+02 1.342254e+02
1.899616e+02 2.871537e-01 8.286622e-01 2.029722e+01 -1.526882e+02 1.343924e+02
1.904846e+02 2.884131e-01 8.290586e-01 2.029801e+01 -1.526877e+02 1.341581e+02
1.903310e+02 2.896725e-01 8.301206e-01 2.030242e+01 -1.526869e+02 1.346702e+02
1.911273e+02 2.909320e-01 8.316273e-01 2.030571e+01 -1.526861e+02 1.347758e+02
1.916054e+02 2.896725e-01 8.315844e-01 2.030110e+01 -1.526854e+02 1.340484e+02
1.910968e+02 2.896725e-01 8.311686e-01 2.029604e+01 -1.526847e+02 1.326062e+02
1.911441e+02 2.884131e-01 8.357919e-01 2.029941e+01 -1.526838e+02 1.333340e+02
1.911295e+02 2.884131e-01 8.378266e-01 2.030308e+01 -1.526828e+02 1.342161e+02
1.915013e+02 2.884131e-01 8.383884e-01 2.030347e+01 -1.526817e+02 1.344214e+02
1.913344e+02 2.884131e-01 8.368521e-01 2.030235e+01 -1.526811e+02 1.344943e+02
1.916632e+02 2.884131e-01 8.341375e-01 2.030180e+01 -1.526804e+02 1.341901e+02
1.914674e+02 2.884131e-01 8.326219e-01 2.029870e+01 -1.526798e+02 1.335449e+02
1.922135e+02 2.884131e-01 8.323784e-01 2.029714e+01 -1.526794e+02 1.331276e+02
1.920485e+02 2.896725e-01 8.326754e-01 2.029867e+01 -1.526791e+02 1.334132e+02
1.920538e+02 2.884131e-01 8.328215e-01 2.029919e+01 -1.526790e+02 1.334519e+02
1.921362e+02 2.821159e-01 8.326430e-01 2.029774e+01 -1.526789e+02 1.332779e+02
1.917243e+02 2.808564e-01 8.328317e-01 2.029862e+01 -1.526792e+02 1.334758e+02
1.915154e+02 2.808564e-01 8.332046e-01 2.030107e+01 -1.526797e+02 1.339051e+02
1.909214e+02 2.795970e-01 8.334565e-01 2.030299e+01 -1.526803e+02 1.341620e+02
1.912512e+02 2.846348e-01 8.334098e-01 2.030317e+01 -1.526815e+02 1.341648e+02
1.913819e+02 2.783375e-01 8.332897e-01 2.030289e+01 -1.526826e+02 1.340978e+02
1.913561e+02 2.783375e-01 8.334218e-01 2.030448e+01 -1.526837e+02 1.344591e+02
1.924804e+02 2.783375e-01 8.333936e-01 2.030485e+01 -1.526849e+02 1.344732e+02
1.911017e+02 2.783375e-01 8.332401e-01 2.030429e+01 -1.526863e+02 1.343398e+02
1.926691e+02 2.884131e-01 8.331963e-01 2.030438e+01 -1.526872e+02 1.343346e+02
1.922326e+02 2.833753e-01 8.331951e-01 2.030456e+01 -1.526883e+02 1.344321e+02
1.938293e+02 2.833753e-01 8.333868e-01 2.030585e+01 -1.526891e+02 1.345842e+02
1.928370e+02 2.821159e-01 8.331285e-01 2.030418e+01 -1.526894e+02 1.344006e+02
1.927483e+02 2.833753e-01 8.330072e-01 2.030331e+01 -1.526895e+02 1.341324e+02
1.933995e+02 2.896725e-01 8.331458e-01 2.030420e+01 -1.526895e+02 1.343466e+02
1.929653e+02 2.896725e-01 8.333516e-01 2.030577e+01 -1.526892e+02 1.346394e+02
1.927394e+02 2.858942e-01 8.334215e-01 2.030624e+01 -1.526889e+02 1.346219e+02
1.930692e+02 2.871537e-01 8.333146e-01 2.030561e+01 -1.526884e+02 1.346132e+02
1.936185e+02 2.858942e-01 8.331418e-01 2.030449e+01 -1.526877e+02 1.343326e+02
1.941123e+02 2.871537e-01 8.331918e-01 2.030488e+01 -1.526870e+02 1.344030e+02
1.937614e+02 2.896725e-01 8.333200e-01 2.030597e+01 -1.526862e+02 1.346357e+02
1.936288e+02 2.896725e-01 8.332544e-01 2.030583e+01 -1.526853e+02 1.345915e+02
1.939832e+02 2.896725e-01 8.328290e-01 2.030371e+01 -1.526848e+02 1.342836e+02
1.936089e+02 2.896725e-01 8.324652e-01 2.030197e+01 -1.526845e+02 1.338810e+02
1.932233e+02 2.884131e-01 8.324145e-01 2.030214e+01 -1.526845e+02 1.340060e+02
1.940945e+02 2.846348e-01 8.327784e-01 2.030517e+01 -1.526846e+02 1.346012e+02
1.927097e+02 2.846348e-01 8.330105e-01 2.030722e+01 -1.526846e+02 1.347836e+02
1.935800e+02 2.871537e-01 8.326961e-01 2.030576e+01 -1.526841e+02 1.346604e+02
1.938322e+02 2.846348e-01 8.322256e-01 2.030303e+01 -1.526828e+02 1.341193e+02
1.929453e+02 2.846348e-01 8.320375e-01 2.030196e+01 -1.526819e+02 1.338787e+02
1.928051e+02 2.858942e-01 8.323295e-01 2.030399e+01 -1.526817e+02 1.343510e+02
1.930441e+02 2.884131e-01 8.325146e-01 2.030566e+01 -1.526817e+02 1.344755e+02
1.934043e+02 2.858942e-01 8.322013e-01 2.030417e+01 -1.526818e+02 1.343875e+02
1.953713e+02 2.846348e-01 8.317624e-01 2.030197e+01 -1.526819e+02 1.338819e+02
1.945086e+02 2.846348e-01 8.315161e-01 2.030178e+01 -1.526819e+02 1.337752e+02
1.950762e+02 2.846348e-01 8.314281e-01 2.030254e+01 -1.526819e+02 1.339408e+02
1.953750e+02 2.846348e-01 8.312573e-01 2.030347e+01 -1.526815e+02 1.340760e+02
1.952546e+02 2.846348e-01 8.310655e-01 2.030430e+01 -1.526805e+02 1.342023e+02
1.937204e+02 2.821159e-01 8.308745e-01 2.030484e+01 -1.526797e+02 1.342702e+02
1.941282e+02 2.833753e-01 8.307805e-01 2.030574e+01 -1.526792e+02 1.344933e+02
1.946366e+02 2.833753e-01 8.306796e-01 2.030619e+01 -1.526790e+02 1.345273e+02
1.943412e+02 2.833753e-01 8.305582e-01 2.030634e+01 -1.526789e+02 1.345246e+02
1.940547e+02 2.833753e-01 8.304701e-01 2.030658e+01 -1.526789e+02 1.345277e+02
1.941950e+02 2.846348e-01 8.302862e-01 2.030601e+01 -1.526790e+02 1.344276e+02
1.944822e+02 2.821159e-01 8.303083e-01 2.030670e+01 -1.526791e+02 1.345997e+02
1.936227e+02 2.821159e-01 8.301428e-01 2.030600e+01 -1.526792e+02 1.345180e+02
1.934392e+02 2.833753e-01 8.300658e-01 2.030589e+01 -1.526793e+02 1.344425e+02
1.935221e+02 2.833753e-01 8.303229e-01 2.030796e+01 -1.526788e+02 1.348910e+02
1.938586e+02 2.821159e-01 8.305910e-01 2.031023e+01 -1.526784e+02 1.351721e+02
1.929522e+02 2.821159e-01 8.302917e-01 2.030889e+01 -1.526781e+02 1.350166e+02
1.936460e+02 2.833753e-01 8.301284e-01 2.030851e+01 -1.526779e+02 1.348579e+02
1.941661e+02 2.821159e-01 8.299876e-01 2.030808e+01 -1.526777e+02 1.347724e+02
1.936936e+02 2.821159e-01 8.301208e-01 2.030946e+01 -1.526777e+02 1.350371e+02
1.938946e+02 2.821159e-01 8.299270e-01 2.030892e+01 -1.526777e+02 1.349606e+02
1.939514e+02 2.833753e-01 8.296216e-01 2.030810e+01 -1.526770e+02 1.347491e+02
1.939597e+02 2.833753e-01 8.294852e-01 2.030854e+01 -1.526760e+02 1.348647e+02
1.940275e+02 2.833753e-01 8.294863e-01 2.030983e+01 -1.526754e+02 1.350353e+02
