8.999939e-01 9.989929e-01
6.999817e-01 9.969788e-01
4.999847e-01 9.949646e-01
3.999786e-01 9.929504e-01
2.999725e-01 9.909363e-01
2.249908e-01 9.889221e-01
1.750031e-01 9.869080e-01
1.250153e-01 9.848938e-01
1.000061e-01 9.828796e-01
7.501221e-02 9.808655e-01
5.625916e-02 9.788513e-01
4.374695e-02 9.768372e-01
3.125000e-02 9.748230e-01
2.499390e-02 9.728088e-01
1.873779e-02 9.707947e-01
1.406860e-02 9.687805e-01
1.095581e-02 9.667664e-01
7.843018e-03 9.647522e-01
6.271362e-03 9.627380e-01
4.714966e-03 9.607239e-01
3.524780e-03 9.587097e-01
2.731323e-03 9.566956e-01
1.953125e-03 9.546814e-01
1.556396e-03 9.526672e-01
1.159668e-03 9.506531e-01
8.850098e-04 9.486389e-01
7.019043e-04 9.466248e-01
5.187988e-04 9.446106e-01
4.119873e-04 9.425964e-01
3.204346e-04 9.405823e-01
2.288818e-04 9.385681e-01
1.678467e-04 9.365540e-01
1.220703e-04 9.345398e-01
9.155273e-05 9.325256e-01
6.103516e-05 9.305115e-01
6.103516e-05 9.284973e-01
6.103516e-05 9.264832e-01
6.103516e-05 9.244690e-01
6.103516e-05 9.224548e-01
6.103516e-05 9.204407e-01
6.103516e-05 9.184265e-01
6.103516e-05 9.164124e-01
6.103516e-05 9.143982e-01
6.103516e-05 9.123840e-01
6.103516e-05 9.103699e-01
6.103516e-05 9.083557e-01
6.103516e-05 9.063416e-01
6.103516e-05 9.043274e-01
6.103516e-05 9.023132e-01
6.103516e-05 9.002991e-01
6.103516e-05 8.982849e-01
6.103516e-05 8.962708e-01
6.103516e-05 8.942566e-01
6.103516e-05 8.922424e-01
6.103516e-05 8.902283e-01
6.103516e-05 8.882141e-01
6.103516e-05 8.862000e-01
6.103516e-05 8.841858e-01
6.103516e-05 8.821716e-01
6.103516e-05 8.801575e-01
6.103516e-05 8.781433e-01
6.103516e-05 8.761292e-01
6.103516e-05 8.741150e-01
6.103516e-05 8.721008e-01
6.103516e-05 8.700867e-01
6.103516e-05 8.680725e-01
6.103516e-05 8.660583e-01
6.103516e-05 8.640442e-01
6.103516e-05 8.620300e-01
6.103516e-05 8.600159e-01
6.103516e-05 8.580017e-01
6.103516e-05 8.559875e-01
6.103516e-05 8.539734e-01
6.103516e-05 8.519592e-01
6.103516e-05 8.499451e-01
6.103516e-05 8.479309e-01
6.103516e-05 8.459167e-01
6.103516e-05 8.439026e-01
6.103516e-05 8.418884e-01
6.103516e-05 8.398743e-01
6.103516e-05 8.378601e-01
6.103516e-05 8.358459e-01
6.103516e-05 8.338318e-01
6.103516e-05 8.318176e-01
6.103516e-05 8.298035e-01
6.103516e-05 8.277893e-01
6.103516e-05 8.257751e-01
6.103516e-05 8.237610e-01
6.103516e-05 8.217468e-01
6.103516e-05 8.197327e-01
6.103516e-05 8.177185e-01
6.103516e-05 8.157043e-01
6.103516e-05 8.136902e-01
6.103516e-05 8.116760e-01
6.103516e-05 8.096619e-01
6.103516e-05 8.076477e-01
6.103516e-05 8.056335e-01
6.103516e-05 8.036194e-01
6.103516e-05 8.016052e-01
6.103516e-05 7.995911e-01
6.103516e-05 7.975769e-01
6.103516e-05 7.955627e-01
6.103516e-05 7.935486e-01
6.103516e-05 7.915344e-01
6.103516e-05 7.895203e-01
6.103516e-05 7.875061e-01
6.103516e-05 7.854919e-01
6.103516e-05 7.834778e-01
6.103516e-05 7.814636e-01
6.103516e-05 7.794495e-01
6.103516e-05 7.774353e-01
6.103516e-05 7.754211e-01
6.103516e-05 7.734070e-01
6.103516e-05 7.713928e-01
6.103516e-05 7.693787e-01
6.103516e-05 7.673645e-01
6.103516e-05 7.653503e-01
6.103516e-05 7.633362e-01
6.103516e-05 7.613220e-01
6.103516e-05 7.593079e-01
6.103516e-05 7.572937e-01
6.103516e-05 7.552795e-01
6.103516e-05 7.532654e-01
6.103516e-05 7.512512e-01
6.103516e-05 7.492371e-01
6.103516e-05 7.472229e-01
6.103516e-05 7.452087e-01
6.103516e-05 7.431946e-01
6.103516e-05 7.411804e-01
6.103516e-05 7.391663e-01
6.103516e-05 7.371521e-01
6.103516e-05 7.351379e-01
6.103516e-05 7.331238e-01
6.103516e-05 7.311096e-01
6.103516e-05 7.290955e-01
6.103516e-05 7.270813e-01
6.103516e-05 7.250671e-01
6.103516e-05 7.230530e-01
6.103516e-05 7.210388e-01
6.103516e-05 7.190247e-01
6.103516e-05 7.170105e-01
6.103516e-05 7.149963e-01
6.103516e-05 7.129822e-01
6.103516e-05 7.109680e-01
6.103516e-05 7.089539e-01
6.103516e-05 7.069397e-01
6.103516e-05 7.049255e-01
6.103516e-05 7.029114e-01
6.103516e-05 7.008972e-01
6.103516e-05 6.988831e-01
6.103516e-05 6.968689e-01
6.103516e-05 6.948547e-01
6.103516e-05 6.928406e-01
6.103516e-05 6.908264e-01
6.103516e-05 6.888123e-01
6.103516e-05 6.867981e-01
6.103516e-05 6.847839e-01
6.103516e-05 6.827698e-01
6.103516e-05 6.807556e-01
6.103516e-05 6.787415e-01
6.103516e-05 6.767273e-01
6.103516e-05 6.747131e-01
6.103516e-05 6.726990e-01
6.103516e-05 6.706848e-01
6.103516e-05 6.686707e-01
6.103516e-05 6.666565e-01
6.103516e-05 6.646423e-01
6.103516e-05 6.626282e-01
6.103516e-05 6.606140e-01
6.103516e-05 6.585999e-01
6.103516e-05 6.565857e-01
6.103516e-05 6.545715e-01
6.103516e-05 6.525574e-01
6.103516e-05 6.505432e-01
6.103516e-05 6.485291e-01
6.103516e-05 6.465149e-01
6.103516e-05 6.445007e-01
6.103516e-05 6.424866e-01
6.103516e-05 6.404724e-01
6.103516e-05 6.384583e-01
6.103516e-05 6.364441e-01
6.103516e-05 6.344299e-01
6.103516e-05 6.324158e-01
6.103516e-05 6.304016e-01
6.103516e-05 6.283875e-01
6.103516e-05 6.263733e-01
6.103516e-05 6.243591e-01
6.103516e-05 6.223450e-01
6.103516e-05 6.203308e-01
6.103516e-05 6.183167e-01
6.103516e-05 6.163025e-01
6.103516e-05 6.142883e-01
6.103516e-05 6.122742e-01
6.103516e-05 6.102600e-01
6.103516e-05 6.082458e-01
6.103516e-05 6.062317e-01
6.103516e-05 6.042175e-01
6.103516e-05 6.022034e-01
6.103516e-05 6.001892e-01
6.103516e-05 5.981750e-01
6.103516e-05 5.961609e-01
6.103516e-05 5.941467e-01
6.103516e-05 5.921326e-01
6.103516e-05 5.901184e-01
6.103516e-05 5.881042e-01
6.103516e-05 5.860901e-01
6.103516e-05 5.840759e-01
6.103516e-05 5.820618e-01
6.103516e-05 5.800476e-01
6.103516e-05 5.780334e-01
6.103516e-05 5.760193e-01
6.103516e-05 5.740051e-01
6.103516e-05 5.719910e-01
6.103516e-05 5.699768e-01
6.103516e-05 5.679626e-01
6.103516e-05 5.659485e-01
6.103516e-05 5.639343e-01
6.103516e-05 5.619202e-01
6.103516e-05 5.599060e-01
6.103516e-05 5.578918e-01
6.103516e-05 5.558777e-01
6.103516e-05 5.538635e-01
6.103516e-05 5.518494e-01
6.103516e-05 5.498352e-01
6.103516e-05 5.478210e-01
6.103516e-05 5.458069e-01
6.103516e-05 5.437927e-01
6.103516e-05 5.417786e-01
6.103516e-05 5.397644e-01
6.103516e-05 5.377502e-01
6.103516e-05 5.357361e-01
6.103516e-05 5.337219e-01
6.103516e-05 5.317078e-01
6.103516e-05 5.296936e-01
6.103516e-05 5.276794e-01
6.103516e-05 5.256653e-01
6.103516e-05 5.236511e-01
6.103516e-05 5.216370e-01
6.103516e-05 5.196228e-01
6.103516e-05 5.176086e-01
6.103516e-05 5.155945e-01
6.103516e-05 5.135803e-01
6.103516e-05 5.115662e-01
6.103516e-05 5.095520e-01
6.103516e-05 5.075378e-01
6.103516e-05 5.055237e-01
6.103516e-05 5.035095e-01
6.103516e-05 5.014954e-01
6.103516e-05 4.997406e-01
6.103516e-05 4.987335e-01
6.103516e-05 4.977264e-01
6.103516e-05 4.967194e-01
6.103516e-05 4.957123e-01
6.103516e-05 4.947052e-01
6.103516e-05 4.936981e-01
6.103516e-05 4.926910e-01
6.103516e-05 4.916840e-01
6.103516e-05 4.906769e-01
6.103516e-05 4.896698e-01
6.103516e-05 4.886627e-01
6.103516e-05 4.876556e-01
6.103516e-05 4.866486e-01
6.103516e-05 4.856415e-01
6.103516e-05 4.846344e-01
6.103516e-05 4.836273e-01
6.103516e-05 4.826202e-01
6.103516e-05 4.816132e-01
6.103516e-05 4.806061e-01
6.103516e-05 4.795990e-01
6.103516e-05 4.785919e-01
6.103516e-05 4.775848e-01
6.103516e-05 4.765778e-01
6.103516e-05 4.755707e-01
6.103516e-05 4.745636e-01
6.103516e-05 4.735565e-01
6.103516e-05 4.725494e-01
6.103516e-05 4.715424e-01
6.103516e-05 4.705353e-01
6.103516e-05 4.695282e-01
6.103516e-05 4.685211e-01
6.103516e-05 4.675140e-01
6.103516e-05 4.665070e-01
6.103516e-05 4.654999e-01
6.103516e-05 4.644928e-01
6.103516e-05 4.634857e-01
6.103516e-05 4.624786e-01
6.103516e-05 4.614716e-01
6.103516e-05 4.604645e-01
6.103516e-05 4.594574e-01
6.103516e-05 4.584503e-01
6.103516e-05 4.574432e-01
6.103516e-05 4.564362e-01
6.103516e-05 4.554291e-01
6.103516e-05 4.544220e-01
6.103516e-05 4.534149e-01
6.103516e-05 4.524078e-01
6.103516e-05 4.514008e-01
6.103516e-05 4.503937e-01
6.103516e-05 4.493866e-01
6.103516e-05 4.483795e-01
6.103516e-05 4.473724e-01
6.103516e-05 4.463654e-01
6.103516e-05 4.453583e-01
6.103516e-05 4.443512e-01
6.103516e-05 4.433441e-01
6.103516e-05 4.423370e-01
6.103516e-05 4.413300e-01
6.103516e-05 4.403229e-01
6.103516e-05 4.393158e-01
6.103516e-05 4.383087e-01
6.103516e-05 4.373016e-01
6.103516e-05 4.362946e-01
6.103516e-05 4.352875e-01
6.103516e-05 4.342804e-01
6.103516e-05 4.332733e-01
6.103516e-05 4.322662e-01
6.103516e-05 4.312592e-01
6.103516e-05 4.302521e-01
6.103516e-05 4.292450e-01
6.103516e-05 4.282379e-01
6.103516e-05 4.272308e-01
6.103516e-05 4.262238e-01
6.103516e-05 4.252167e-01
6.103516e-05 4.242096e-01
6.103516e-05 4.232025e-01
6.103516e-05 4.221954e-01
6.103516e-05 4.211884e-01
6.103516e-05 4.201813e-01
6.103516e-05 4.191742e-01
6.103516e-05 4.181671e-01
6.103516e-05 4.171600e-01
6.103516e-05 4.161530e-01
6.103516e-05 4.151459e-01
6.103516e-05 4.141388e-01
6.103516e-05 4.131317e-01
6.103516e-05 4.121246e-01
6.103516e-05 4.111176e-01
6.103516e-05 4.101105e-01
6.103516e-05 4.091034e-01
6.103516e-05 4.080963e-01
6.103516e-05 4.070892e-01
6.103516e-05 4.060822e-01
6.103516e-05 4.050751e-01
6.103516e-05 4.040680e-01
6.103516e-05 4.030609e-01
6.103516e-05 4.020538e-01
6.103516e-05 4.010468e-01
6.103516e-05 4.000397e-01
6.103516e-05 3.990326e-01
6.103516e-05 3.980255e-01
6.103516e-05 3.970184e-01
6.103516e-05 3.960114e-01
6.103516e-05 3.950043e-01
6.103516e-05 3.939972e-01
6.103516e-05 3.929901e-01
6.103516e-05 3.919830e-01
6.103516e-05 3.909760e-01
6.103516e-05 3.899689e-01
6.103516e-05 3.889618e-01
6.103516e-05 3.879547e-01
6.103516e-05 3.869476e-01
6.103516e-05 3.859406e-01
6.103516e-05 3.849335e-01
6.103516e-05 3.839264e-01
6.103516e-05 3.829193e-01
6.103516e-05 3.819122e-01
6.103516e-05 3.809052e-01
6.103516e-05 3.798981e-01
6.103516e-05 3.788910e-01
6.103516e-05 3.778839e-01
6.103516e-05 3.768768e-01
6.103516e-05 3.758698e-01
6.103516e-05 3.748627e-01
6.103516e-05 3.738556e-01
6.103516e-05 3.728485e-01
6.103516e-05 3.718414e-01
6.103516e-05 3.708344e-01
6.103516e-05 3.698273e-01
6.103516e-05 3.688202e-01
6.103516e-05 3.678131e-01
6.103516e-05 3.668060e-01
6.103516e-05 3.657990e-01
6.103516e-05 3.647919e-01
6.103516e-05 3.637848e-01
6.103516e-05 3.627777e-01
6.103516e-05 3.617706e-01
6.103516e-05 3.607635e-01
6.103516e-05 3.597565e-01
6.103516e-05 3.587494e-01
6.103516e-05 3.577423e-01
6.103516e-05 3.567352e-01
6.103516e-05 3.557281e-01
6.103516e-05 3.547211e-01
6.103516e-05 3.537140e-01
6.103516e-05 3.527069e-01
6.103516e-05 3.516998e-01
6.103516e-05 3.506927e-01
6.103516e-05 3.496857e-01
6.103516e-05 3.486786e-01
6.103516e-05 3.476715e-01
6.103516e-05 3.466644e-01
6.103516e-05 3.456573e-01
6.103516e-05 3.446503e-01
6.103516e-05 3.436432e-01
6.103516e-05 3.426361e-01
6.103516e-05 3.416290e-01
6.103516e-05 3.406219e-01
6.103516e-05 3.396149e-01
6.103516e-05 3.386078e-01
6.103516e-05 3.376007e-01
6.103516e-05 3.365936e-01
6.103516e-05 3.355865e-01
6.103516e-05 3.345795e-01
6.103516e-05 3.335724e-01
6.103516e-05 3.325653e-01
6.103516e-05 3.315582e-01
6.103516e-05 3.305511e-01
6.103516e-05 3.295441e-01
6.103516e-05 3.285370e-01
6.103516e-05 3.275299e-01
6.103516e-05 3.265228e-01
6.103516e-05 3.255157e-01
6.103516e-05 3.245087e-01
6.103516e-05 3.235016e-01
6.103516e-05 3.224945e-01
6.103516e-05 3.214874e-01
6.103516e-05 3.204803e-01
6.103516e-05 3.194733e-01
6.103516e-05 3.184662e-01
6.103516e-05 3.174591e-01
6.103516e-05 3.164520e-01
6.103516e-05 3.154449e-01
6.103516e-05 3.144379e-01
6.103516e-05 3.134308e-01
6.103516e-05 3.124237e-01
6.103516e-05 3.114166e-01
6.103516e-05 3.104095e-01
6.103516e-05 3.094025e-01
6.103516e-05 3.083954e-01
6.103516e-05 3.073883e-01
6.103516e-05 3.063812e-01
6.103516e-05 3.053741e-01
6.103516e-05 3.043671e-01
6.103516e-05 3.033600e-01
6.103516e-05 3.023529e-01
6.103516e-05 3.013458e-01
6.103516e-05 3.003387e-01
6.103516e-05 2.993317e-01
6.103516e-05 2.983246e-01
6.103516e-05 2.973175e-01
6.103516e-05 2.963104e-01
6.103516e-05 2.953033e-01
6.103516e-05 2.942963e-01
6.103516e-05 2.932892e-01
6.103516e-05 2.922821e-01
6.103516e-05 2.912750e-01
6.103516e-05 2.902679e-01
6.103516e-05 2.892609e-01
6.103516e-05 2.882538e-01
6.103516e-05 2.872467e-01
6.103516e-05 2.862396e-01
6.103516e-05 2.852325e-01
6.103516e-05 2.842255e-01
6.103516e-05 2.832184e-01
6.103516e-05 2.822113e-01
6.103516e-05 2.812042e-01
6.103516e-05 2.801971e-01
6.103516e-05 2.791901e-01
6.103516e-05 2.781830e-01
6.103516e-05 2.771759e-01
6.103516e-05 2.761688e-01
6.103516e-05 2.751617e-01
6.103516e-05 2.741547e-01
6.103516e-05 2.731476e-01
6.103516e-05 2.721405e-01
6.103516e-05 2.711334e-01
6.103516e-05 2.701263e-01
6.103516e-05 2.691193e-01
6.103516e-05 2.681122e-01
6.103516e-05 2.671051e-01
6.103516e-05 2.660980e-01
6.103516e-05 2.650909e-01
6.103516e-05 2.640839e-01
6.103516e-05 2.630768e-01
6.103516e-05 2.620697e-01
6.103516e-05 2.610626e-01
6.103516e-05 2.600555e-01
6.103516e-05 2.590485e-01
6.103516e-05 2.580414e-01
6.103516e-05 2.570343e-01
6.103516e-05 2.560272e-01
6.103516e-05 2.550201e-01
6.103516e-05 2.540131e-01
6.103516e-05 2.530060e-01
6.103516e-05 2.519989e-01
6.103516e-05 2.509918e-01
6.103516e-05 2.500000e-01
6.103516e-05 2.495117e-01
6.103516e-05 2.490234e-01
6.103516e-05 2.485352e-01
6.103516e-05 2.480469e-01
6.103516e-05 2.475586e-01
6.103516e-05 2.470703e-01
6.103516e-05 2.465820e-01
6.103516e-05 2.460938e-01
6.103516e-05 2.456055e-01
6.103516e-05 2.451172e-01
6.103516e-05 2.446289e-01
6.103516e-05 2.441406e-01
6.103516e-05 2.436523e-01
6.103516e-05 2.431641e-01
6.103516e-05 2.426758e-01
6.103516e-05 2.421875e-01
6.103516e-05 2.416992e-01
6.103516e-05 2.412109e-01
6.103516e-05 2.407227e-01
6.103516e-05 2.402344e-01
6.103516e-05 2.397461e-01
6.103516e-05 2.392578e-01
6.103516e-05 2.387695e-01
6.103516e-05 2.382812e-01
6.103516e-05 2.377930e-01
6.103516e-05 2.373047e-01
6.103516e-05 2.368164e-01
6.103516e-05 2.363281e-01
6.103516e-05 2.358398e-01
6.103516e-05 2.353516e-01
6.103516e-05 2.348633e-01
6.103516e-05 2.343750e-01
6.103516e-05 2.338867e-01
6.103516e-05 2.333984e-01
6.103516e-05 2.329102e-01
6.103516e-05 2.324219e-01
6.103516e-05 2.319336e-01
6.103516e-05 2.314453e-01
6.103516e-05 2.309570e-01
6.103516e-05 2.304688e-01
6.103516e-05 2.299805e-01
6.103516e-05 2.294922e-01
6.103516e-05 2.290039e-01
6.103516e-05 2.285156e-01
6.103516e-05 2.280273e-01
6.103516e-05 2.275391e-01
6.103516e-05 2.270508e-01
6.103516e-05 2.265625e-01
6.103516e-05 2.260742e-01
6.103516e-05 2.255859e-01
6.103516e-05 2.250977e-01
6.103516e-05 2.246094e-01
6.103516e-05 2.241211e-01
6.103516e-05 2.236328e-01
6.103516e-05 2.231445e-01
6.103516e-05 2.226562e-01
6.103516e-05 2.221680e-01
6.103516e-05 2.216797e-01
6.103516e-05 2.211914e-01
6.103516e-05 2.207031e-01
6.103516e-05 2.202148e-01
6.103516e-05 2.197266e-01
6.103516e-05 2.192383e-01
6.103516e-05 2.187500e-01
6.103516e-05 2.182617e-01
6.103516e-05 2.177734e-01
6.103516e-05 2.172852e-01
6.103516e-05 2.167969e-01
6.103516e-05 2.163086e-01
6.103516e-05 2.158203e-01
6.103516e-05 2.153320e-01
6.103516e-05 2.148438e-01
6.103516e-05 2.143555e-01
6.103516e-05 2.138672e-01
6.103516e-05 2.133789e-01
6.103516e-05 2.128906e-01
6.103516e-05 2.124023e-01
6.103516e-05 2.119141e-01
6.103516e-05 2.114258e-01
6.103516e-05 2.109375e-01
6.103516e-05 2.104492e-01
6.103516e-05 2.099609e-01
6.103516e-05 2.094727e-01
6.103516e-05 2.089844e-01
6.103516e-05 2.084961e-01
6.103516e-05 2.080078e-01
6.103516e-05 2.075195e-01
6.103516e-05 2.070312e-01
6.103516e-05 2.065430e-01
6.103516e-05 2.060547e-01
6.103516e-05 2.055664e-01
6.103516e-05 2.050781e-01
6.103516e-05 2.045898e-01
6.103516e-05 2.041016e-01
6.103516e-05 2.036133e-01
6.103516e-05 2.031250e-01
6.103516e-05 2.026367e-01
6.103516e-05 2.021484e-01
6.103516e-05 2.016602e-01
6.103516e-05 2.011719e-01
6.103516e-05 2.006836e-01
6.103516e-05 2.001953e-01
6.103516e-05 1.997070e-01
6.103516e-05 1.992188e-01
6.103516e-05 1.987305e-01
6.103516e-05 1.982422e-01
6.103516e-05 1.977539e-01
6.103516e-05 1.972656e-01
6.103516e-05 1.967773e-01
6.103516e-05 1.962891e-01
6.103516e-05 1.958008e-01
6.103516e-05 1.953125e-01
6.103516e-05 1.948242e-01
6.103516e-05 1.943359e-01
6.103516e-05 1.938477e-01
6.103516e-05 1.933594e-01
6.103516e-05 1.928711e-01
6.103516e-05 1.923828e-01
6.103516e-05 1.918945e-01
6.103516e-05 1.914062e-01
6.103516e-05 1.909180e-01
6.103516e-05 1.904297e-01
6.103516e-05 1.899414e-01
6.103516e-05 1.894531e-01
6.103516e-05 1.889648e-01
6.103516e-05 1.884766e-01
6.103516e-05 1.879883e-01
6.103516e-05 1.875000e-01
6.103516e-05 1.870117e-01
6.103516e-05 1.865234e-01
6.103516e-05 1.860352e-01
6.103516e-05 1.855469e-01
6.103516e-05 1.850586e-01
6.103516e-05 1.845703e-01
6.103516e-05 1.840820e-01
6.103516e-05 1.835938e-01
6.103516e-05 1.831055e-01
6.103516e-05 1.826172e-01
6.103516e-05 1.821289e-01
6.103516e-05 1.816406e-01
6.103516e-05 1.811523e-01
6.103516e-05 1.806641e-01
6.103516e-05 1.801758e-01
6.103516e-05 1.796875e-01
6.103516e-05 1.791992e-01
6.103516e-05 1.787109e-01
6.103516e-05 1.782227e-01
6.103516e-05 1.777344e-01
6.103516e-05 1.772461e-01
6.103516e-05 1.767578e-01
6.103516e-05 1.762695e-01
6.103516e-05 1.757812e-01
6.103516e-05 1.752930e-01
6.103516e-05 1.748047e-01
6.103516e-05 1.743164e-01
6.103516e-05 1.738281e-01
6.103516e-05 1.733398e-01
6.103516e-05 1.728516e-01
6.103516e-05 1.723633e-01
6.103516e-05 1.718750e-01
6.103516e-05 1.713867e-01
6.103516e-05 1.708984e-01
6.103516e-05 1.704102e-01
6.103516e-05 1.699219e-01
6.103516e-05 1.694336e-01
6.103516e-05 1.689453e-01
6.103516e-05 1.684570e-01
6.103516e-05 1.679688e-01
6.103516e-05 1.674805e-01
6.103516e-05 1.669922e-01
6.103516e-05 1.665039e-01
6.103516e-05 1.660156e-01
6.103516e-05 1.655273e-01
6.103516e-05 1.650391e-01
6.103516e-05 1.645508e-01
6.103516e-05 1.640625e-01
6.103516e-05 1.635742e-01
6.103516e-05 1.630859e-01
6.103516e-05 1.625977e-01
6.103516e-05 1.621094e-01
6.103516e-05 1.616211e-01
6.103516e-05 1.611328e-01
6.103516e-05 1.606445e-01
6.103516e-05 1.601562e-01
6.103516e-05 1.596680e-01
6.103516e-05 1.591797e-01
6.103516e-05 1.586914e-01
6.103516e-05 1.582031e-01
6.103516e-05 1.577148e-01
6.103516e-05 1.572266e-01
6.103516e-05 1.567383e-01
6.103516e-05 1.562500e-01
6.103516e-05 1.557617e-01
6.103516e-05 1.552734e-01
6.103516e-05 1.547852e-01
6.103516e-05 1.542969e-01
6.103516e-05 1.538086e-01
6.103516e-05 1.533203e-01
6.103516e-05 1.528320e-01
6.103516e-05 1.523438e-01
6.103516e-05 1.518555e-01
6.103516e-05 1.513672e-01
6.103516e-05 1.508789e-01
6.103516e-05 1.503906e-01
6.103516e-05 1.499023e-01
6.103516e-05 1.494141e-01
6.103516e-05 1.489258e-01
6.103516e-05 1.484375e-01
6.103516e-05 1.479492e-01
6.103516e-05 1.474609e-01
6.103516e-05 1.469727e-01
6.103516e-05 1.464844e-01
6.103516e-05 1.459961e-01
6.103516e-05 1.455078e-01
6.103516e-05 1.450195e-01
6.103516e-05 1.445312e-01
6.103516e-05 1.440430e-01
6.103516e-05 1.435547e-01
6.103516e-05 1.430664e-01
6.103516e-05 1.425781e-01
6.103516e-05 1.420898e-01
6.103516e-05 1.416016e-01
6.103516e-05 1.411133e-01
6.103516e-05 1.406250e-01
6.103516e-05 1.401367e-01
6.103516e-05 1.396484e-01
6.103516e-05 1.391602e-01
6.103516e-05 1.386719e-01
6.103516e-05 1.381836e-01
6.103516e-05 1.376953e-01
6.103516e-05 1.372070e-01
6.103516e-05 1.367188e-01
6.103516e-05 1.362305e-01
6.103516e-05 1.357422e-01
6.103516e-05 1.352539e-01
6.103516e-05 1.347656e-01
6.103516e-05 1.342773e-01
6.103516e-05 1.337891e-01
6.103516e-05 1.333008e-01
6.103516e-05 1.328125e-01
6.103516e-05 1.323242e-01
6.103516e-05 1.318359e-01
6.103516e-05 1.313477e-01
6.103516e-05 1.308594e-01
6.103516e-05 1.303711e-01
6.103516e-05 1.298828e-01
6.103516e-05 1.293945e-01
6.103516e-05 1.289062e-01
6.103516e-05 1.284180e-01
6.103516e-05 1.279297e-01
6.103516e-05 1.274414e-01
6.103516e-05 1.269531e-01
6.103516e-05 1.264648e-01
6.103516e-05 1.259766e-01
6.103516e-05 1.254883e-01
6.103516e-05 1.250000e-01
6.103516e-05 1.247559e-01
6.103516e-05 1.245117e-01
6.103516e-05 1.242676e-01
6.103516e-05 1.240234e-01
6.103516e-05 1.237793e-01
6.103516e-05 1.235352e-01
6.103516e-05 1.232910e-01
6.103516e-05 1.230469e-01
6.103516e-05 1.228027e-01
6.103516e-05 1.225586e-01
6.103516e-05 1.223145e-01
6.103516e-05 1.220703e-01
6.103516e-05 1.218262e-01
6.103516e-05 1.215820e-01
6.103516e-05 1.213379e-01
6.103516e-05 1.210938e-01
6.103516e-05 1.208496e-01
6.103516e-05 1.206055e-01
6.103516e-05 1.203613e-01
6.103516e-05 1.201172e-01
6.103516e-05 1.198730e-01
6.103516e-05 1.196289e-01
6.103516e-05 1.193848e-01
6.103516e-05 1.191406e-01
6.103516e-05 1.188965e-01
6.103516e-05 1.186523e-01
6.103516e-05 1.184082e-01
6.103516e-05 1.181641e-01
6.103516e-05 1.179199e-01
6.103516e-05 1.176758e-01
6.103516e-05 1.174316e-01
6.103516e-05 1.171875e-01
6.103516e-05 1.169434e-01
6.103516e-05 1.166992e-01
6.103516e-05 1.164551e-01
6.103516e-05 1.162109e-01
6.103516e-05 1.159668e-01
6.103516e-05 1.157227e-01
6.103516e-05 1.154785e-01
6.103516e-05 1.152344e-01
6.103516e-05 1.149902e-01
6.103516e-05 1.147461e-01
6.103516e-05 1.145020e-01
6.103516e-05 1.142578e-01
6.103516e-05 1.140137e-01
6.103516e-05 1.137695e-01
6.103516e-05 1.135254e-01
6.103516e-05 1.132812e-01
6.103516e-05 1.130371e-01
6.103516e-05 1.127930e-01
6.103516e-05 1.125488e-01
6.103516e-05 1.123047e-01
6.103516e-05 1.120605e-01
6.103516e-05 1.118164e-01
6.103516e-05 1.115723e-01
6.103516e-05 1.113281e-01
6.103516e-05 1.110840e-01
6.103516e-05 1.108398e-01
6.103516e-05 1.105957e-01
6.103516e-05 1.103516e-01
6.103516e-05 1.101074e-01
6.103516e-05 1.098633e-01
6.103516e-05 1.096191e-01
6.103516e-05 1.093750e-01
6.103516e-05 1.091309e-01
6.103516e-05 1.088867e-01
6.103516e-05 1.086426e-01
6.103516e-05 1.083984e-01
6.103516e-05 1.081543e-01
6.103516e-05 1.079102e-01
6.103516e-05 1.076660e-01
6.103516e-05 1.074219e-01
6.103516e-05 1.071777e-01
6.103516e-05 1.069336e-01
6.103516e-05 1.066895e-01
6.103516e-05 1.064453e-01
6.103516e-05 1.062012e-01
6.103516e-05 1.059570e-01
6.103516e-05 1.057129e-01
6.103516e-05 1.054688e-01
6.103516e-05 1.052246e-01
6.103516e-05 1.049805e-01
6.103516e-05 1.047363e-01
6.103516e-05 1.044922e-01
6.103516e-05 1.042480e-01
6.103516e-05 1.040039e-01
6.103516e-05 1.037598e-01
6.103516e-05 1.035156e-01
6.103516e-05 1.032715e-01
6.103516e-05 1.030273e-01
6.103516e-05 1.027832e-01
6.103516e-05 1.025391e-01
6.103516e-05 1.022949e-01
6.103516e-05 1.020508e-01
6.103516e-05 1.018066e-01
6.103516e-05 1.015625e-01
6.103516e-05 1.013184e-01
6.103516e-05 1.010742e-01
6.103516e-05 1.008301e-01
6.103516e-05 1.005859e-01
6.103516e-05 1.003418e-01
6.103516e-05 1.000977e-01
6.103516e-05 9.985352e-02
6.103516e-05 9.960938e-02
6.103516e-05 9.936523e-02
6.103516e-05 9.912109e-02
6.103516e-05 9.887695e-02
6.103516e-05 9.863281e-02
6.103516e-05 9.838867e-02
6.103516e-05 9.814453e-02
6.103516e-05 9.790039e-02
6.103516e-05 9.765625e-02
6.103516e-05 9.741211e-02
6.103516e-05 9.716797e-02
6.103516e-05 9.692383e-02
6.103516e-05 9.667969e-02
6.103516e-05 9.643555e-02
6.103516e-05 9.619141e-02
6.103516e-05 9.594727e-02
6.103516e-05 9.570312e-02
6.103516e-05 9.545898e-02
6.103516e-05 9.521484e-02
6.103516e-05 9.497070e-02
6.103516e-05 9.472656e-02
6.103516e-05 9.448242e-02
6.103516e-05 9.423828e-02
6.103516e-05 9.399414e-02
6.103516e-05 9.375000e-02
6.103516e-05 9.350586e-02
6.103516e-05 9.326172e-02
6.103516e-05 9.301758e-02
6.103516e-05 9.277344e-02
6.103516e-05 9.252930e-02
6.103516e-05 9.228516e-02
6.103516e-05 9.204102e-02
6.103516e-05 9.179688e-02
6.103516e-05 9.155273e-02
6.103516e-05 9.130859e-02
6.103516e-05 9.106445e-02
6.103516e-05 9.082031e-02
6.103516e-05 9.057617e-02
6.103516e-05 9.033203e-02
6.103516e-05 9.008789e-02
6.103516e-05 8.984375e-02
6.103516e-05 8.959961e-02
6.103516e-05 8.935547e-02
6.103516e-05 8.911133e-02
6.103516e-05 8.886719e-02
6.103516e-05 8.862305e-02
6.103516e-05 8.837891e-02
6.103516e-05 8.813477e-02
6.103516e-05 8.789062e-02
6.103516e-05 8.764648e-02
6.103516e-05 8.740234e-02
6.103516e-05 8.715820e-02
6.103516e-05 8.691406e-02
6.103516e-05 8.666992e-02
6.103516e-05 8.642578e-02
6.103516e-05 8.618164e-02
6.103516e-05 8.593750e-02
6.103516e-05 8.569336e-02
6.103516e-05 8.544922e-02
6.103516e-05 8.520508e-02
6.103516e-05 8.496094e-02
6.103516e-05 8.471680e-02
6.103516e-05 8.447266e-02
6.103516e-05 8.422852e-02
6.103516e-05 8.398438e-02
6.103516e-05 8.374023e-02
6.103516e-05 8.349609e-02
6.103516e-05 8.325195e-02
6.103516e-05 8.300781e-02
6.103516e-05 8.276367e-02
6.103516e-05 8.251953e-02
6.103516e-05 8.227539e-02
6.103516e-05 8.203125e-02
6.103516e-05 8.178711e-02
6.103516e-05 8.154297e-02
6.103516e-05 8.129883e-02
6.103516e-05 8.105469e-02
6.103516e-05 8.081055e-02
6.103516e-05 8.056641e-02
6.103516e-05 8.032227e-02
6.103516e-05 8.007812e-02
6.103516e-05 7.983398e-02
6.103516e-05 7.958984e-02
6.103516e-05 7.934570e-02
6.103516e-05 7.910156e-02
6.103516e-05 7.885742e-02
6.103516e-05 7.861328e-02
6.103516e-05 7.836914e-02
6.103516e-05 7.812500e-02
6.103516e-05 7.788086e-02
6.103516e-05 7.763672e-02
6.103516e-05 7.739258e-02
6.103516e-05 7.714844e-02
6.103516e-05 7.690430e-02
6.103516e-05 7.666016e-02
6.103516e-05 7.641602e-02
6.103516e-05 7.617188e-02
6.103516e-05 7.592773e-02
6.103516e-05 7.568359e-02
6.103516e-05 7.543945e-02
6.103516e-05 7.519531e-02
6.103516e-05 7.495117e-02
6.103516e-05 7.470703e-02
6.103516e-05 7.446289e-02
6.103516e-05 7.421875e-02
6.103516e-05 7.397461e-02
6.103516e-05 7.373047e-02
6.103516e-05 7.348633e-02
6.103516e-05 7.324219e-02
6.103516e-05 7.299805e-02
6.103516e-05 7.275391e-02
6.103516e-05 7.250977e-02
6.103516e-05 7.226562e-02
6.103516e-05 7.202148e-02
6.103516e-05 7.177734e-02
6.103516e-05 7.153320e-02
6.103516e-05 7.128906e-02
6.103516e-05 7.104492e-02
6.103516e-05 7.080078e-02
6.103516e-05 7.055664e-02
6.103516e-05 7.031250e-02
6.103516e-05 7.006836e-02
6.103516e-05 6.982422e-02
6.103516e-05 6.958008e-02
6.103516e-05 6.933594e-02
6.103516e-05 6.909180e-02
6.103516e-05 6.884766e-02
6.103516e-05 6.860352e-02
6.103516e-05 6.835938e-02
6.103516e-05 6.811523e-02
6.103516e-05 6.787109e-02
6.103516e-05 6.762695e-02
6.103516e-05 6.738281e-02
6.103516e-05 6.713867e-02
6.103516e-05 6.689453e-02
6.103516e-05 6.665039e-02
6.103516e-05 6.640625e-02
6.103516e-05 6.616211e-02
6.103516e-05 6.591797e-02
6.103516e-05 6.567383e-02
6.103516e-05 6.542969e-02
6.103516e-05 6.518555e-02
6.103516e-05 6.494141e-02
6.103516e-05 6.469727e-02
6.103516e-05 6.445312e-02
6.103516e-05 6.420898e-02
6.103516e-05 6.396484e-02
6.103516e-05 6.372070e-02
6.103516e-05 6.347656e-02
6.103516e-05 6.323242e-02
6.103516e-05 6.298828e-02
6.103516e-05 6.274414e-02
6.103516e-05 6.250000e-02
6.103516e-05 6.237793e-02
6.103516e-05 6.225586e-02
6.103516e-05 6.213379e-02
6.103516e-05 6.201172e-02
6.103516e-05 6.188965e-02
6.103516e-05 6.176758e-02
6.103516e-05 6.164551e-02
6.103516e-05 6.152344e-02
6.103516e-05 6.140137e-02
6.103516e-05 6.127930e-02
6.103516e-05 6.115723e-02
6.103516e-05 6.103516e-02
6.103516e-05 6.091309e-02
6.103516e-05 6.079102e-02
6.103516e-05 6.066895e-02
6.103516e-05 6.054688e-02
6.103516e-05 6.042480e-02
6.103516e-05 6.030273e-02
6.103516e-05 6.018066e-02
6.103516e-05 6.005859e-02
6.103516e-05 5.993652e-02
6.103516e-05 5.981445e-02
6.103516e-05 5.969238e-02
6.103516e-05 5.957031e-02
6.103516e-05 5.944824e-02
6.103516e-05 5.932617e-02
6.103516e-05 5.920410e-02
6.103516e-05 5.908203e-02
6.103516e-05 5.895996e-02
6.103516e-05 5.883789e-02
6.103516e-05 5.871582e-02
6.103516e-05 5.859375e-02
6.103516e-05 5.847168e-02
6.103516e-05 5.834961e-02
6.103516e-05 5.822754e-02
6.103516e-05 5.810547e-02
6.103516e-05 5.798340e-02
6.103516e-05 5.786133e-02
6.103516e-05 5.773926e-02
6.103516e-05 5.761719e-02
6.103516e-05 5.749512e-02
6.103516e-05 5.737305e-02
6.103516e-05 5.725098e-02
6.103516e-05 5.712891e-02
6.103516e-05 5.700684e-02
6.103516e-05 5.688477e-02
6.103516e-05 5.676270e-02
6.103516e-05 5.664062e-02
6.103516e-05 5.651855e-02
6.103516e-05 5.639648e-02
