2.386804e+01 3.139454e+02 -2.048000e+03 2.048000e+03 4.234624e-06 2.720362e-03 -2.248535e-01 2.250977e-01
5.690086e+01 7.087298e+02 -2.048000e+03 2.048000e+03 -6.088092e-08 2.041986e-03 -2.187500e-01 2.094727e-01
8.263802e+01 1.003948e+03 -2.048000e+03 2.048000e+03 -1.592082e-07 1.929876e-03 -2.158203e-01 2.062988e-01
9.396587e+01 1.171567e+03 -2.048000e+03 2.048000e+03 -3.530581e-08 1.877985e-03 -2.158203e-01 2.094727e-01
9.422387e+01 1.268302e+03 -2.048000e+03 2.048000e+03 7.349706e-07 1.840764e-03 -2.175293e-01 2.062988e-01
9.096394e+01 1.329513e+03 -2.048000e+03 2.048000e+03 9.054173e-07 1.813213e-03 -2.187500e-01 2.062988e-01
8.562817e+01 1.371518e+03 -2.048000e+03 2.048000e+03 -1.143436e-07 1.789989e-03 -2.158203e-01 2.094727e-01
7.812426e+01 1.409828e+03 -2.048000e+03 2.048000e+03 -4.704021e-07 1.774965e-03 -2.141113e-01 2.062988e-01
7.202320e+01 1.435822e+03 -2.048000e+03 2.048000e+03 2.960625e-07 1.757025e-03 -2.158203e-01 2.062988e-01
6.570633e+01 1.457107e+03 -2.048000e+03 2.048000e+03 5.456043e-07 1.752479e-03 -2.141113e-01 2.062988e-01
6.070601e+01 1.476504e+03 -2.048000e+03 2.048000e+03 3.363525e-08 1.747396e-03 -2.175293e-01 2.062988e-01
5.400688e+01 1.492493e+03 -2.048000e+03 2.048000e+03 1.592266e-07 1.740946e-03 -2.187500e-01 2.062988e-01
4.950937e+01 1.505096e+03 -2.048000e+03 2.048000e+03 3.366444e-07 1.739140e-03 -2.187500e-01 2.094727e-01
4.543894e+01 1.517948e+03 -2.048000e+03 2.048000e+03 1.989671e-07 1.731842e-03 -2.187500e-01 2.062988e-01
3.982131e+01 1.531365e+03 -2.048000e+03 2.048000e+03 -5.915686e-07 1.723316e-03 -2.175293e-01 2.094727e-01
3.694387e+01 1.540740e+03 -2.048000e+03 2.048000e+03 -2.368750e-08 1.718139e-03 -2.175293e-01 2.062988e-01
3.310577e+01 1.549414e+03 -2.048000e+03 2.048000e+03 1.041985e-06 1.715895e-03 -2.175293e-01 2.062988e-01
3.060542e+01 1.558223e+03 -2.048000e+03 2.048000e+03 -2.500623e-07 1.701645e-03 -2.158203e-01 2.094727e-01
2.713025e+01 1.565257e+03 -2.048000e+03 2.048000e+03 -4.440375e-07 1.704249e-03 -2.175293e-01 2.062988e-01
2.458891e+01 1.571879e+03 -2.048000e+03 2.048000e+03 -4.839370e-08 1.709236e-03 -2.187500e-01 2.094727e-01
2.228954e+01 1.578056e+03 -2.048000e+03 2.048000e+03 7.822852e-08 1.699927e-03 -2.175293e-01 2.062988e-01
1.829004e+01 1.585239e+03 -2.048000e+03 2.048000e+03 4.106331e-07 1.692913e-03 -2.197266e-01 2.062988e-01
1.616259e+01 1.590501e+03 -2.048000e+03 2.048000e+03 6.770166e-07 1.690453e-03 -2.226562e-01 2.062988e-01
1.561520e+01 1.594572e+03 -2.048000e+03 2.048000e+03 -6.097110e-07 1.686403e-03 -2.187500e-01 2.141113e-01
1.423823e+01 1.599405e+03 -2.048000e+03 2.048000e+03 -2.597769e-07 1.685415e-03 -2.187500e-01 2.121582e-01
1.206147e+01 1.603975e+03 -2.048000e+03 2.048000e+03 -3.462521e-07 1.674630e-03 -2.175293e-01 2.062988e-01
1.212051e+01 1.608541e+03 -2.048000e+03 2.048000e+03 1.853435e-07 1.681777e-03 -2.197266e-01 2.062988e-01
1.020838e+01 1.612638e+03 -2.048000e+03 2.048000e+03 6.613870e-07 1.680469e-03 -2.197266e-01 2.094727e-01
9.328110e+00 1.618218e+03 -2.048000e+03 2.048000e+03 -2.785475e-08 1.681539e-03 -2.197266e-01 2.250977e-01
8.569482e+00 1.622383e+03 -2.048000e+03 2.048000e+03 -5.026973e-06 2.392394e-03 -2.141113e-01 1.100879e+01
6.509213e+00 1.625644e+03 -2.048000e+03 2.048000e+03 8.053400e-06 3.537203e-03 -2.187500e-01 1.970386e+01
