-4.616123e+00 1.150766e+01 -6.736265e+01 5.693444e+01 4.718973e-06 2.060996e-03 -1.667352e-01 1.712018e-01
-5.330675e+00 1.271284e+01 -6.848384e+01 5.899525e+01 6.397269e-07 1.536772e-03 -1.421195e-01 1.565391e-01
-5.501817e+00 1.319565e+01 -6.884319e+01 5.997502e+01 2.825705e-07 1.400241e-03 -1.337417e-01 1.515068e-01
-5.652063e+00 1.342872e+01 -6.945092e+01 6.022467e+01 1.110283e-06 1.365183e-03 -1.408289e-01 1.378399e-01
-5.855449e+00 1.373264e+01 -7.069171e+01 6.051046e+01 -1.309057e-07 1.317973e-03 -1.378753e-01 1.351601e-01
-5.855235e+00 1.389166e+01 -7.151847e+01 6.091621e+01 5.708725e-07 1.267904e-03 -1.365247e-01 1.365404e-01
-5.927497e+00 1.400317e+01 -7.205052e+01 6.093633e+01 1.302819e-07 1.249316e-03 -1.314705e-01 1.370669e-01
-6.033222e+00 1.417587e+01 -7.583401e+01 6.147254e+01 5.417897e-07 1.244593e-03 -1.331352e-01 1.272568e-01
-6.063870e+00 1.430857e+01 -7.409092e+01 6.541932e+01 9.089698e-07 1.215839e-03 -1.263022e-01 1.324125e-01
-6.150566e+00 1.444667e+01 -7.561124e+01 6.662780e+01 1.953730e-07 1.173802e-03 -1.407992e-01 1.280393e-01
-6.217201e+00 1.451573e+01 -7.470723e+01 6.543054e+01 1.979467e-07 1.164294e-03 -1.262285e-01 1.307170e-01
-6.262117e+00 1.461881e+01 -7.528839e+01 6.625507e+01 5.511837e-08 1.149232e-03 -1.366236e-01 1.378090e-01
-6.280482e+00 1.469738e+01 -7.803141e+01 6.808170e+01 5.233882e-07 1.135537e-03 -1.346539e-01 1.311738e-01
-6.323937e+00 1.477279e+01 -7.774917e+01 7.119410e+01 4.186456e-07 1.140078e-03 -1.344017e-01 1.318927e-01
-6.351662e+00 1.491630e+01 -8.029132e+01 6.954050e+01 3.978249e-07 1.144464e-03 -1.494708e-01 1.360889e-01
-6.445013e+00 1.510582e+01 -7.948693e+01 6.917530e+01 1.504118e-07 1.122888e-03 -1.562505e-01 1.455646e-01
-6.473365e+00 1.518302e+01 -8.318211e+01 7.212644e+01 -2.971353e-07 1.090839e-03 -1.392967e-01 1.332788e-01
-6.463922e+00 1.521833e+01 -8.292022e+01 7.111863e+01 9.023190e-08 1.086746e-03 -1.479043e-01 1.448107e-01
-6.483795e+00 1.524584e+01 -8.270933e+01 7.221811e+01 1.343674e-07 1.068952e-03 -1.434014e-01 1.365389e-01
-6.537536e+00 1.529521e+01 -8.542648e+01 7.346422e+01 -7.920047e-08 1.055205e-03 -1.390993e-01 1.301726e-01
-6.556519e+00 1.540232e+01 -8.552281e+01 7.186754e+01 2.550923e-07 1.051334e-03 -1.391970e-01 1.336863e-01
-6.562248e+00 1.545225e+01 -8.596643e+01 7.358094e+01 -1.087944e-07 1.051231e-03 -1.450119e-01 1.473113e-01
-6.596266e+00 1.541685e+01 -8.627018e+01 7.471590e+01 3.972264e-07 1.041561e-03 -1.453533e-01 1.395607e-01
-6.609661e+00 1.545952e+01 -8.490348e+01 7.307918e+01 5.256816e-08 1.023271e-03 -1.531675e-01 1.365897e-01
-6.639831e+00 1.552239e+01 -8.599133e+01 7.441239e+01 4.079246e-07 1.035323e-03 -1.567429e-01 1.496706e-01
-6.670673e+00 1.560849e+01 -8.846690e+01 7.376545e+01 3.835100e-07 1.030122e-03 -1.529489e-01 1.381374e-01
-6.712754e+00 1.564329e+01 -8.966813e+01 7.668518e+01 3.107915e-07 1.036570e-03 -1.412279e-01 1.507262e-01
-6.692475e+00 1.572282e+01 -8.804810e+01 7.580068e+01 -9.209154e-10 1.000345e-03 -1.396898e-01 1.482834e-01
-6.675980e+00 1.576115e+01 -8.852510e+01 7.689216e+01 2.169946e-07 1.006439e-03 -1.503881e-01 1.458317e-01
-6.721318e+00 1.584529e+01 -8.782614e+01 7.832908e+01 4.724033e-07 1.008988e-03 -1.544948e-01 1.388827e-01
-6.796639e+00 1.586771e+01 -8.949366e+01 7.694910e+01 3.819292e-07 1.032831e-03 -1.507044e-01 1.619496e-01
