-9.659238e-02 3.651223e+00 -1.989533e+01 2.026340e+01 2.185879e-04 8.851639e-03 -1.259249e-01 1.258295e-01
-8.049824e-02 3.635828e+00 -2.228073e+01 2.003828e+01 -2.818717e-06 8.421668e-03 -1.262285e-01 1.109065e-01
-1.371116e-01 3.641171e+00 -2.347867e+01 2.109349e+01 -2.578106e-06 8.054791e-03 -1.262284e-01 1.192625e-01
-8.325444e-02 3.573303e+00 -2.344741e+01 1.921816e+01 -3.319381e-06 7.921207e-03 -1.262285e-01 1.169008e-01
-1.139656e-01 3.666254e+00 -2.237164e+01 2.114347e+01 -4.698391e-06 7.974810e-03 -1.262285e-01 1.188137e-01
-1.378571e-01 3.641380e+00 -2.238887e+01 1.923135e+01 3.386682e-06 7.970201e-03 -1.262285e-01 1.126249e-01
-9.235017e-02 3.624445e+00 -2.343380e+01 2.182853e+01 -7.188012e-07 7.840835e-03 -1.262284e-01 1.146166e-01
-1.317099e-01 3.641882e+00 -2.239998e+01 2.090668e+01 -5.367269e-06 8.034758e-03 -1.262285e-01 1.146166e-01
-1.172158e-01 3.649676e+00 -2.241786e+01 2.211184e+01 -8.048204e-06 8.089956e-03 -1.262285e-01 1.106848e-01
-1.367861e-01 3.656761e+00 -2.341215e+01 2.209137e+01 -2.203308e-06 7.857708e-03 -1.262285e-01 1.165241e-01
-1.482352e-01 3.617739e+00 -2.340814e+01 2.169833e+01 -8.820617e-06 8.008684e-03 -1.262285e-01 1.140550e-01
-1.131673e-01 3.675430e+00 -2.296207e+01 2.210061e+01 1.048704e-05 7.926042e-03 -1.262285e-01 1.145579e-01
-1.274181e-01 3.634156e+00 -2.296493e+01 2.069821e+01 -5.870860e-06 7.734325e-03 -1.262285e-01 1.171083e-01
-1.327963e-01 3.640368e+00 -2.187283e+01 2.079560e+01 6.813297e-06 7.853918e-03 -1.262285e-01 1.173157e-01
-8.461510e-02 3.679291e+00 -2.337654e+01 2.208937e+01 -5.874561e-06 7.929979e-03 -1.262284e-01 1.143505e-01
-6.901990e-02 3.689442e+00 -2.297199e+01 2.059190e+01 -6.172205e-06 7.826847e-03 -1.262285e-01 1.177181e-01
-9.615050e-02 3.704243e+00 -2.338307e+01 2.207034e+01 -8.816712e-06 7.926701e-03 -1.262285e-01 1.178535e-01
-1.141032e-01 3.629598e+00 -2.338307e+01 1.956946e+01 -1.291860e-06 8.032831e-03 -1.262285e-01 1.149767e-01
-1.767735e-01 3.577385e+00 -2.066681e+01 2.095764e+01 -1.782259e-06 8.057245e-03 -1.262285e-01 1.117014e-01
-1.735484e-01 3.632004e+00 -2.297133e+01 2.101732e+01 -8.738970e-06 8.002705e-03 -1.262285e-01 1.157502e-01
-1.421155e-01 3.649095e+00 -2.234966e+01 2.118877e+01 -2.692195e-06 8.013731e-03 -1.262283e-01 1.116301e-01
-1.784401e-01 3.678465e+00 -2.296937e+01 2.115949e+01 4.839199e-07 8.059475e-03 -1.262284e-01 1.177868e-01
-1.777462e-01 3.570739e+00 -2.296918e+01 2.115677e+01 3.882934e-07 8.040505e-03 -1.262285e-01 1.175513e-01
-1.705428e-01 3.636350e+00 -2.296389e+01 2.207139e+01 -5.050263e-06 7.990138e-03 -1.262285e-01 1.198672e-01
-1.781601e-01 3.662468e+00 -2.240992e+01 2.127040e+01 -1.912425e-05 8.061695e-03 -1.262285e-01 1.152227e-01
-1.365578e-01 3.653329e+00 -2.337792e+01 2.206446e+01 4.121575e-07 7.934706e-03 -1.262285e-01 1.212772e-01
-1.621075e-01 3.703988e+00 -2.338234e+01 2.134626e+01 -1.085782e-05 8.292897e-03 -1.262285e-01 1.155453e-01
-1.445707e-01 3.596046e+00 -2.294854e+01 2.203714e+01 -1.182020e-05 8.268881e-03 -1.262285e-01 1.191609e-01
-2.147864e-01 3.643241e+00 -2.177349e+01 2.154521e+01 -3.659885e-06 8.383232e-03 -1.262285e-01 1.211066e-01
-1.675310e-01 3.647192e+00 -2.177535e+01 2.202805e+01 -1.279754e-05 8.561624e-03 -1.262283e-01 1.201809e-01
-1.568425e-01 3.654272e+00 -2.337292e+01 2.202805e+01 -1.826773e-05 8.473030e-03 -1.262285e-01 1.199971e-01
-1.568917e-01 3.668787e+00 -2.225524e+01 2.163726e+01 -4.195825e-07 8.462954e-03 -1.262284e-01 1.230522e-01
-1.577632e-01 3.656823e+00 -2.288376e+01 2.200001e+01 7.068267e-06 8.523024e-03 -1.262285e-01 1.235014e-01
-1.459337e-01 3.669191e+00 -2.337539e+01 2.022837e+01 1.605019e-05 8.782442e-03 -1.262285e-01 1.228291e-01
-2.024561e-01 3.664490e+00 -2.010176e+01 1.979339e+01 -9.941785e-06 8.820139e-03 -1.262285e-01 1.215613e-01
-1.629493e-01 3.663526e+00 -2.215765e+01 2.005809e+01 -2.227627e-06 8.973369e-03 -1.262285e-01 1.244285e-01
-2.513975e-01 3.641806e+00 -2.338079e+01 2.194465e+01 -9.809663e-07 9.049197e-03 -1.262285e-01 1.222491e-01
-1.849076e-01 3.690636e+00 -2.282753e+01 1.974795e+01 -1.111301e-06 9.129836e-03 -1.262285e-01 1.247341e-01
-1.475798e-01 3.703925e+00 -2.287535e+01 1.986444e+01 1.638511e-05 9.052622e-03 -1.262285e-01 1.262256e-01
-2.331088e-01 3.719654e+00 -2.338801e+01 1.979655e+01 1.756024e-06 9.551140e-03 -1.262285e-01 1.240724e-01
-2.643623e-01 3.712065e+00 -2.340394e+01 1.934976e+01 -5.477305e-06 9.769712e-03 -1.262285e-01 1.262107e-01
-1.703659e-01 3.748087e+00 -2.340446e+01 2.194374e+01 3.251684e-06 9.373511e-03 -1.262285e-01 1.262285e-01
-2.490636e-01 3.683481e+00 -2.178085e+01 2.195895e+01 -8.183290e-06 9.911546e-03 -1.262285e-01 1.261316e-01
-2.548056e-01 3.706725e+00 -2.341325e+01 1.980639e+01 7.435134e-06 9.941734e-03 -1.262285e-01 1.262262e-01
-2.383049e-01 3.731428e+00 -2.320616e+01 2.184277e+01 -5.767426e-06 9.930819e-03 -1.262285e-01 1.262261e-01
-2.365480e-01 3.686438e+00 -2.340142e+01 1.945575e+01 -1.098373e-05 9.991314e-03 -1.262285e-01 1.262251e-01
-2.500266e-01 3.764870e+00 -2.234441e+01 2.196316e+01 2.585483e-05 1.013893e-02 -1.262285e-01 1.262284e-01
-2.910139e-01 3.738970e+00 -2.231178e+01 1.902655e+01 -2.016050e-05 1.017142e-02 -1.262285e-01 1.262285e-01
-2.343708e-01 3.752404e+00 -2.168700e+01 2.213985e+01 -3.893137e-05 9.785277e-03 -1.262285e-01 1.262282e-01
-2.822285e-01 3.808274e+00 -2.343378e+01 2.216405e+01 7.877762e-07 1.015640e-02 -1.262284e-01 1.262285e-01
-2.241136e-01 3.756373e+00 -2.353904e+01 1.954269e+01 -5.793273e-06 1.019723e-02 -1.262282e-01 1.262285e-01
-2.804380e-01 3.736561e+00 -2.356755e+01 1.995336e+01 1.605255e-05 1.038550e-02 -1.262285e-01 1.262285e-01
-2.846029e-01 3.749098e+00 -2.221375e+01 2.216273e+01 -2.051286e-05 1.060791e-02 -1.262285e-01 1.262284e-01
-2.948841e-01 3.752597e+00 -2.104465e+01 1.961720e+01 1.518027e-05 1.051016e-02 -1.262284e-01 1.262280e-01
-2.818593e-01 3.778979e+00 -2.068055e+01 2.188671e+01 4.451486e-06 1.112547e-02 -1.262285e-01 1.262283e-01
-2.648894e-01 3.774425e+00 -2.385678e+01 2.006078e+01 -1.679475e-05 1.068455e-02 -1.262282e-01 1.262274e-01
-2.594120e-01 3.823949e+00 -2.387676e+01 2.188588e+01 3.518030e-05 1.073412e-02 -1.262285e-01 1.262255e-01
-3.148639e-01 3.845388e+00 -2.274231e+01 2.186634e+01 -2.041446e-05 1.083792e-02 -1.262285e-01 1.262261e-01
-3.255884e-01 3.851925e+00 -2.282067e+01 1.966910e+01 -6.229754e-06 1.096666e-02 -1.262285e-01 1.262284e-01
-2.880929e-01 3.803502e+00 -2.398995e+01 1.967464e+01 2.036865e-05 1.130195e-02 -1.262280e-01 1.262243e-01
-2.722930e-01 3.769252e+00 -2.401733e+01 1.926166e+01 2.974159e-05 1.063863e-02 -1.262285e-01 1.262243e-01
-3.492250e-01 3.786716e+00 -2.415823e+01 1.967144e+01 9.566485e-07 1.129234e-02 -1.262285e-01 1.262277e-01
-2.690024e-01 3.798486e+00 -2.341153e+01 2.176015e+01 1.014461e-05 1.124366e-02 -1.262285e-01 1.262273e-01
-2.737151e-01 3.824484e+00 -2.425656e+01 1.927669e+01 -2.076201e-05 1.079571e-02 -1.262284e-01 1.261796e-01
-2.593775e-01 3.841913e+00 -2.426866e+01 2.182823e+01 -2.797107e-05 1.060352e-02 -1.262285e-01 1.261993e-01
-2.847963e-01 3.807634e+00 -2.285255e+01 2.182190e+01 -4.500534e-06 1.070731e-02 -1.262284e-01 1.262280e-01
-3.326049e-01 3.845251e+00 -2.337235e+01 2.181703e+01 8.595366e-08 1.092313e-02 -1.267425e-01 1.262282e-01
-2.943149e-01 3.860810e+00 -2.445417e+01 2.152560e+01 4.742906e-06 1.071898e-02 -1.262281e-01 1.262282e-01
-2.962065e-01 3.844243e+00 -2.133897e+01 2.132463e+01 -1.368742e-05 1.082003e-02 -1.262285e-01 1.262091e-01
-3.660315e-01 3.792325e+00 -2.452288e+01 2.125083e+01 8.971230e-07 1.113930e-02 -1.265240e-01 1.262273e-01
-3.844254e-01 3.850527e+00 -2.458919e+01 2.045148e+01 6.664630e-07 1.122671e-02 -1.278930e-01 1.262271e-01
-3.308027e-01 3.872500e+00 -2.328110e+01 2.080373e+01 -1.544770e-05 1.145007e-02 -1.262282e-01 1.262193e-01
-3.138743e-01 3.840214e+00 -2.327717e+01 2.082230e+01 -2.345943e-05 1.136801e-02 -1.262283e-01 1.261736e-01
-3.238053e-01 3.901594e+00 -2.474887e+01 2.081727e+01 7.983656e-06 1.121229e-02 -1.262275e-01 1.262259e-01
-3.197401e-01 3.864740e+00 -2.310571e+01 2.171416e+01 1.247951e-05 1.088133e-02 -1.273773e-01 1.262278e-01
-4.018051e-01 3.885705e+00 -2.310971e+01 1.981768e+01 -1.040574e-05 1.129692e-02 -1.312581e-01 1.279174e-01
-3.616926e-01 3.884071e+00 -2.484493e+01 2.067058e+01 -6.060844e-06 1.115927e-02 -1.262262e-01 1.272259e-01
-3.323700e-01 3.916180e+00 -2.493298e+01 2.053188e+01 -1.244199e-05 1.107706e-02 -1.262284e-01 1.291291e-01
-3.375434e-01 3.910102e+00 -2.494417e+01 2.171747e+01 -2.124274e-05 1.150503e-02 -1.263244e-01 1.291291e-01
-2.938891e-01 3.878190e+00 -2.185186e+01 2.073353e+01 -1.739280e-05 1.100964e-02 -1.262285e-01 1.274020e-01
-2.945988e-01 3.912018e+00 -2.185186e+01 2.077092e+01 1.603943e-05 1.087746e-02 -1.262280e-01 1.306439e-01
-3.426910e-01 3.918887e+00 -2.137320e+01 2.010012e+01 -6.790277e-06 1.178354e-02 -1.262285e-01 1.286705e-01
-3.637233e-01 4.004254e+00 -2.514681e+01 2.086841e+01 5.861862e-06 1.132987e-02 -1.262278e-01 1.306864e-01
-3.681441e-01 3.943599e+00 -2.305365e+01 2.113017e+01 6.863475e-06 1.081375e-02 -1.262274e-01 1.292139e-01
-3.385790e-01 3.930895e+00 -2.526658e+01 2.159995e+01 -3.698623e-05 1.056095e-02 -1.272943e-01 1.333151e-01
-3.688561e-01 3.941176e+00 -2.185900e+01 2.158948e+01 8.902968e-06 1.100212e-02 -1.296202e-01 1.324660e-01
-3.144128e-01 3.971254e+00 -2.204109e+01 2.156568e+01 -6.581789e-06 1.053933e-02 -1.262279e-01 1.331812e-01
-3.279749e-01 3.968950e+00 -2.321924e+01 1.972744e+01 -4.822518e-06 1.055796e-02 -1.262285e-01 1.330935e-01
-3.010622e-01 3.927407e+00 -2.312896e+01 2.127698e+01 1.125754e-05 1.087761e-02 -1.293028e-01 1.326621e-01
-3.758484e-01 3.986800e+00 -2.312370e+01 2.099828e+01 -8.911781e-06 1.124961e-02 -1.262278e-01 1.321210e-01
-2.811664e-01 3.940004e+00 -2.194640e+01 2.146098e+01 -1.409674e-06 1.067277e-02 -1.268106e-01 1.331044e-01
-3.216408e-01 3.959952e+00 -2.273997e+01 2.146116e+01 -1.718333e-06 1.042318e-02 -1.268106e-01 1.340425e-01
-3.075060e-01 3.979021e+00 -2.298879e+01 2.101445e+01 -2.082456e-05 1.068310e-02 -1.262172e-01 1.347076e-01
-2.821573e-01 3.967063e+00 -2.193007e+01 2.145592e+01 9.425730e-06 1.094055e-02 -1.268196e-01 1.373693e-01
-3.985031e-01 3.941996e+00 -2.231759e+01 2.145295e+01 9.356527e-06 1.044510e-02 -1.274656e-01 1.363043e-01
-3.572846e-01 3.916640e+00 -2.192797e+01 2.097889e+01 6.209671e-07 1.065065e-02 -1.262283e-01 1.368123e-01
-3.280032e-01 3.976690e+00 -2.249571e+01 1.989690e+01 -4.914295e-05 1.082376e-02 -1.276078e-01 1.388746e-01
-3.740874e-01 3.936601e+00 -2.181040e+01 2.139086e+01 2.354047e-05 1.123283e-02 -1.280396e-01 1.390229e-01
-3.020947e-01 3.999533e+00 -2.168209e+01 1.931920e+01 1.835230e-05 1.051668e-02 -1.288606e-01 1.385366e-01
-3.524327e-01 3.944671e+00 -2.222556e+01 2.005555e+01 -2.863783e-05 1.068949e-02 -1.276442e-01 1.393145e-01
-3.013854e-01 4.000947e+00 -2.576630e+01 2.114135e+01 -6.648525e-06 1.104418e-02 -1.276442e-01 1.403351e-01
-3.143973e-01 3.993441e+00 -2.581094e+01 2.129407e+01 -4.456679e-06 1.090189e-02 -1.264257e-01 1.400307e-01
-3.610659e-01 3.971184e+00 -2.243864e+01 2.006270e+01 7.506733e-06 1.105494e-02 -1.262283e-01 1.397516e-01
-3.548730e-01 3.986796e+00 -2.182225e+01 2.186119e+01 4.163580e-07 1.135199e-02 -1.285233e-01 1.370545e-01
-3.089705e-01 3.944983e+00 -2.251778e+01 2.006334e+01 -3.739892e-06 1.112120e-02 -1.298652e-01 1.402523e-01
-2.938474e-01 4.044825e+00 -2.216595e+01 2.129007e+01 6.181260e-07 1.027154e-02 -1.262284e-01 1.413606e-01
-3.124209e-01 4.003678e+00 -2.278893e+01 2.110573e+01 -8.883371e-06 1.079661e-02 -1.262204e-01 1.412174e-01
-3.434284e-01 3.960770e+00 -2.591175e+01 2.123902e+01 -5.902894e-08 1.091892e-02 -1.271879e-01 1.421650e-01
-3.760919e-01 3.990320e+00 -2.279653e+01 2.120344e+01 -3.031997e-05 1.126903e-02 -1.300419e-01 1.441706e-01
-3.513294e-01 3.978446e+00 -2.599836e+01 2.117188e+01 -2.293501e-06 1.113854e-02 -1.262280e-01 1.393613e-01
-2.863671e-01 3.985783e+00 -2.609450e+01 2.207193e+01 -6.252912e-06 1.032899e-02 -1.287498e-01 1.438231e-01
-2.981884e-01 3.966628e+00 -2.261726e+01 2.026124e+01 5.629240e-06 1.058029e-02 -1.332131e-01 1.424287e-01
-2.727562e-01 3.969115e+00 -2.218194e+01 2.207145e+01 2.210663e-05 1.067721e-02 -1.292196e-01 1.449758e-01
-2.748006e-01 3.968347e+00 -2.618222e+01 2.127330e+01 1.371796e-05 1.057585e-02 -1.301918e-01 1.453081e-01
-3.540478e-01 3.993986e+00 -2.292695e+01 2.204283e+01 -6.950257e-06 1.111315e-02 -1.283029e-01 1.455231e-01
-3.314589e-01 3.985218e+00 -2.194511e+01 1.878293e+01 -6.718026e-06 1.063995e-02 -1.280202e-01 1.452785e-01
-3.549454e-01 4.000400e+00 -2.295535e+01 1.984340e+01 2.830408e-05 1.124462e-02 -1.303222e-01 1.470760e-01
-3.570999e-01 3.993151e+00 -2.626134e+01 1.995542e+01 -2.561330e-05 1.065175e-02 -1.297203e-01 1.427046e-01
-2.897170e-01 3.992502e+00 -2.286981e+01 2.124880e+01 -1.191994e-05 1.050812e-02 -1.280881e-01 1.460429e-01
-3.755071e-01 3.997914e+00 -2.299517e+01 2.200394e+01 3.503344e-05 1.110462e-02 -1.306088e-01 1.465250e-01
-2.902659e-01 3.980304e+00 -2.190003e+01 2.120341e+01 -1.830508e-05 1.079015e-02 -1.262284e-01 1.485189e-01
-2.565553e-01 3.985642e+00 -2.288130e+01 2.136389e+01 4.190329e-06 1.063984e-02 -1.288548e-01 1.373085e-01
-3.374417e-01 4.049148e+00 -2.203188e+01 2.216181e+01 2.840617e-06 1.017670e-02 -1.291034e-01 1.496084e-01
-3.726757e-01 4.046234e+00 -2.310343e+01 2.220875e+01 3.543482e-07 1.010661e-02 -1.315878e-01 1.499073e-01
-3.065816e-01 3.962751e+00 -2.257809e+01 2.222863e+01 -1.340828e-05 9.896814e-03 -1.318035e-01 1.493415e-01
-2.685016e-01 3.999924e+00 -2.210827e+01 2.229042e+01 3.242362e-05 1.052866e-02 -1.309306e-01 1.491535e-01
-3.984402e-01 4.017324e+00 -2.255399e+01 2.230203e+01 -1.173876e-05 1.050109e-02 -1.286717e-01 1.495089e-01
-3.076780e-01 4.025188e+00 -2.322705e+01 2.231391e+01 3.166627e-06 1.106006e-02 -1.269641e-01 1.510064e-01
-2.613750e-01 4.010243e+00 -2.625832e+01 2.150974e+01 2.926063e-06 1.066335e-02 -1.262274e-01 1.525939e-01
-2.282473e-01 3.984506e+00 -2.339988e+01 1.998162e+01 -1.903060e-06 1.035490e-02 -1.262283e-01 1.525939e-01
-2.507087e-01 3.999615e+00 -2.336154e+01 2.227235e+01 2.944705e-05 1.064693e-02 -1.270654e-01 1.481775e-01
-2.986810e-01 4.027324e+00 -2.218588e+01 2.145828e+01 1.795470e-05 1.101072e-02 -1.266158e-01 1.512361e-01
-2.858029e-01 4.028514e+00 -2.245389e+01 2.230769e+01 2.475778e-06 1.073132e-02 -1.262118e-01 1.508179e-01
-2.679798e-01 4.010780e+00 -2.638499e+01 2.147198e+01 8.302450e-06 1.049675e-02 -1.337198e-01 1.524766e-01
-3.442330e-01 4.044592e+00 -2.638499e+01 2.233519e+01 1.970341e-06 1.041840e-02 -1.262285e-01 1.521239e-01
-3.141014e-01 4.030600e+00 -2.247064e+01 2.225907e+01 6.916434e-06 1.059924e-02 -1.339883e-01 1.545196e-01
-3.326845e-01 4.041863e+00 -2.262577e+01 2.134733e+01 8.199145e-06 9.942967e-03 -1.280070e-01 1.488346e-01
-2.872884e-01 4.038341e+00 -2.360448e+01 2.134707e+01 -7.230346e-06 1.074230e-02 -1.340791e-01 1.552452e-01
-2.840626e-01 4.024809e+00 -2.390853e+01 2.147513e+01 1.523461e-05 1.063898e-02 -1.262282e-01 1.557350e-01
-2.606716e-01 4.052205e+00 -2.397681e+01 2.234920e+01 5.090428e-06 1.066257e-02 -1.378268e-01 1.545206e-01
-2.265066e-01 4.008912e+00 -2.650198e+01 2.169471e+01 5.354200e-07 1.117575e-02 -1.291208e-01 1.596730e-01
-2.434786e-01 4.020534e+00 -2.652243e+01 2.141536e+01 -2.759049e-05 1.024849e-02 -1.382343e-01 1.576564e-01
-2.580750e-01 4.047796e+00 -2.410533e+01 2.247955e+01 2.127341e-05 1.099440e-02 -1.389073e-01 1.527944e-01
-2.756138e-01 3.998824e+00 -2.650022e+01 2.192333e+01 -8.924218e-06 1.135645e-02 -1.372899e-01 1.603324e-01
-2.633415e-01 4.007829e+00 -2.140596e+01 2.127745e+01 1.615545e-05 1.088573e-02 -1.279902e-01 1.605929e-01
-2.222415e-01 4.080869e+00 -2.648893e+01 2.254403e+01 5.412470e-06 1.185067e-02 -1.398776e-01 1.599599e-01
-2.420615e-01 4.084876e+00 -2.653100e+01 2.046239e+01 -1.963696e-06 1.090866e-02 -1.429718e-01 1.616847e-01
-2.773864e-01 4.019118e+00 -2.263906e+01 2.083304e+01 -4.560527e-06 1.197219e-02 -1.290087e-01 1.626701e-01
-3.532551e-01 4.116947e+00 -2.663642e+01 1.994707e+01 2.111156e-05 1.116809e-02 -1.307489e-01 1.626701e-01
-3.500852e-01 4.048966e+00 -2.664510e+01 2.237987e+01 1.087182e-05 1.183657e-02 -1.640199e-01 1.640199e-01
-2.022584e-01 4.054932e+00 -2.275924e+01 2.239764e+01 2.802562e-05 1.139709e-02 -1.523061e-01 1.645083e-01
-2.769675e-01 4.065048e+00 -2.075470e+01 2.253730e+01 1.921803e-05 1.105844e-02 -1.435046e-01 1.601909e-01
-2.254634e-01 4.059626e+00 -2.282348e+01 2.253730e+01 8.118167e-06 1.177825e-02 -1.649710e-01 1.670504e-01
-2.694921e-01 4.097140e+00 -2.695714e+01 2.006604e+01 -9.407553e-06 1.217819e-02 -1.751647e-01 1.751647e-01
-2.136656e-01 4.032838e+00 -2.377008e+01 2.247061e+01 2.878960e-05 1.124617e-02 -1.374494e-01 1.662127e-01
-2.167333e-01 4.087333e+00 -2.461647e+01 2.247485e+01 3.834468e-06 1.158457e-02 -1.445261e-01 1.681737e-01
-3.196462e-01 4.101554e+00 -2.455783e+01 2.269624e+01 3.330862e-06 1.221612e-02 -1.481264e-01 1.696968e-01
-2.534769e-01 4.031770e+00 -2.291969e+01 2.275272e+01 1.229997e-05 1.130144e-02 -1.471804e-01 1.672442e-01
-2.368985e-01 4.073223e+00 -2.301150e+01 2.234369e+01 -1.731618e-05 1.143696e-02 -1.499082e-01 1.610871e-01
-2.026100e-01 4.090982e+00 -2.297722e+01 2.124956e+01 1.384508e-05 1.174715e-02 -1.557386e-01 1.710952e-01
-2.010986e-01 4.097513e+00 -2.304964e+01 2.124956e+01 -6.209070e-06 1.168714e-02 -1.440131e-01 1.726985e-01
-2.511117e-01 4.087333e+00 -2.706357e+01 2.050549e+01 2.786917e-05 1.105981e-02 -1.510926e-01 1.726985e-01
-2.477247e-01 4.115553e+00 -2.319559e+01 2.317328e+01 1.455325e-05 1.117774e-02 -1.471569e-01 1.768912e-01
-2.172852e-01 4.073791e+00 -2.327234e+01 2.109120e+01 1.497059e-06 1.180878e-02 -1.556195e-01 1.705577e-01
-2.111156e-01 4.095048e+00 -2.480986e+01 2.227685e+01 2.440056e-06 1.193806e-02 -1.594909e-01 1.616838e-01
-2.835431e-01 4.093309e+00 -2.487724e+01 2.052460e+01 2.427552e-05 1.227236e-02 -1.760910e-01 1.760910e-01
-2.363620e-01 4.091206e+00 -2.283119e+01 2.041721e+01 6.677449e-06 1.190285e-02 -1.395177e-01 1.758992e-01
-2.418686e-01 4.103319e+00 -2.740662e+01 2.226881e+01 -1.967668e-05 1.229295e-02 -1.581273e-01 1.749029e-01
-2.428060e-01 4.124673e+00 -2.492989e+01 2.220989e+01 2.240350e-05 1.212614e-02 -1.552890e-01 1.740634e-01
-1.812654e-01 4.107531e+00 -2.494199e+01 2.080727e+01 3.095173e-05 1.264054e-02 -1.513033e-01 1.764874e-01
-1.825850e-01 4.069381e+00 -2.259791e+01 1.962970e+01 3.802127e-06 1.207819e-02 -1.470679e-01 1.823011e-01
-2.253781e-01 4.077802e+00 -2.230067e+01 2.072429e+01 2.734384e-05 1.259080e-02 -1.575149e-01 1.757115e-01
-2.269536e-01 4.107859e+00 -2.747927e+01 2.328226e+01 -2.356502e-07 1.149241e-02 -1.501926e-01 1.757115e-01
-2.356106e-01 4.140747e+00 -2.747978e+01 2.208276e+01 -6.314196e-06 1.244179e-02 -1.507837e-01 1.807869e-01
-2.257647e-01 4.141332e+00 -2.275328e+01 1.989593e+01 -5.334014e-07 1.187895e-02 -1.515539e-01 1.823423e-01
-1.790051e-01 4.146442e+00 -2.753812e+01 2.214458e+01 -1.385729e-05 1.163495e-02 -1.619422e-01 1.898917e-01
-1.967841e-01 4.156836e+00 -2.535255e+01 2.329162e+01 2.003180e-06 1.144854e-02 -1.620024e-01 1.906935e-01
-2.173275e-01 4.106165e+00 -2.537066e+01 2.321178e+01 1.756352e-05 1.145846e-02 -1.640836e-01 1.847070e-01
-1.399120e-01 4.091934e+00 -2.198459e+01 2.050480e+01 1.251983e-05 1.167885e-02 -1.599592e-01 1.909866e-01
-2.205449e-01 4.117130e+00 -2.336004e+01 2.318788e+01 -1.852079e-05 1.184083e-02 -1.619364e-01 1.859596e-01
-2.028681e-01 4.117383e+00 -2.770421e+01 2.321726e+01 -2.516636e-05 1.124389e-02 -1.626344e-01 1.906128e-01
-2.533295e-01 4.103688e+00 -2.766437e+01 2.092032e+01 -7.140281e-06 1.178655e-02 -1.602820e-01 1.898848e-01
-1.774149e-01 4.145762e+00 -2.758689e+01 2.327432e+01 2.957064e-05 1.267469e-02 -2.083249e-01 2.083249e-01
-1.703407e-01 4.181628e+00 -2.290650e+01 2.230837e+01 1.132178e-05 1.164109e-02 -1.714226e-01 1.936303e-01
-1.658590e-01 4.147484e+00 -2.307065e+01 2.013102e+01 9.423128e-06 1.175919e-02 -1.733714e-01 1.942085e-01
-1.537798e-01 4.119696e+00 -2.290218e+01 2.110497e+01 -2.350292e-06 1.176039e-02 -1.721386e-01 1.951860e-01
-1.368861e-01 4.167869e+00 -2.767914e+01 2.114645e+01 -1.701044e-06 1.165122e-02 -1.730918e-01 1.948032e-01
-2.131390e-01 4.103348e+00 -2.762661e+01 2.120842e+01 2.265077e-06 1.153136e-02 -1.841467e-01 2.006701e-01
-1.900075e-01 4.201176e+00 -2.315160e+01 2.211448e+01 2.922528e-05 1.182454e-02 -1.754878e-01 2.009184e-01
-1.355682e-01 4.214678e+00 -2.182029e+01 2.122329e+01 -2.515286e-05 1.153303e-02 -1.897255e-01 2.068863e-01
-1.160730e-01 4.194772e+00 -2.756502e+01 2.333392e+01 -1.684791e-06 1.083227e-02 -1.804522e-01 1.990871e-01
-1.738902e-01 4.162264e+00 -2.744906e+01 2.039882e+01 5.754226e-06 1.181893e-02 -1.731433e-01 1.957408e-01
-1.369334e-01 4.144669e+00 -2.311759e+01 2.115582e+01 2.343047e-05 1.218272e-02 -1.836251e-01 2.009580e-01
-1.498900e-01 4.213049e+00 -2.314750e+01 2.211643e+01 1.768493e-05 1.239944e-02 -1.971264e-01 2.028557e-01
-1.324529e-01 4.175010e+00 -2.276607e+01 2.338701e+01 8.175008e-06 1.198358e-02 -1.861637e-01 2.061001e-01
-1.363196e-01 4.162065e+00 -2.309829e+01 1.988734e+01 2.024060e-05 1.157730e-02 -1.889011e-01 2.063020e-01
-1.585286e-01 4.153717e+00 -2.587003e+01 2.200102e+01 -5.503401e-06 1.222905e-02 -2.035085e-01 2.217684e-01
-1.282980e-01 4.224424e+00 -2.745051e+01 2.201552e+01 -3.536246e-05 1.095339e-02 -1.939451e-01 2.162815e-01
-1.527457e-01 4.191095e+00 -2.735090e+01 2.202324e+01 3.762621e-05 1.107483e-02 -1.995857e-01 2.169157e-01
-2.031346e-01 4.182562e+00 -2.596788e+01 2.338046e+01 -7.749413e-06 1.101628e-02 -2.134188e-01 2.137074e-01
-1.784954e-01 4.216697e+00 -2.309246e+01 2.170302e+01 1.282189e-05 1.210686e-02 -2.004437e-01 2.137074e-01
-1.434547e-01 4.226221e+00 -2.246652e+01 2.343562e+01 1.874933e-05 1.163073e-02 -2.049913e-01 2.261812e-01
-1.494483e-01 4.156143e+00 -2.618635e+01 2.121320e+01 2.582002e-06 1.068364e-02 -2.128287e-01 1.908497e-01
-1.460402e-01 4.187950e+00 -2.300018e+01 2.332862e+01 -9.197868e-06 1.039587e-02 -2.191544e-01 2.360240e-01
-1.063332e-01 4.216431e+00 -2.732748e+01 2.176703e+01 2.581040e-05 1.077026e-02 -2.118080e-01 2.216548e-01
-1.639899e-01 4.242249e+00 -2.615804e+01 2.325852e+01 -3.564045e-05 1.184146e-02 -2.379978e-01 2.385511e-01
-1.039791e-01 4.192279e+00 -2.720992e+01 2.053581e+01 1.733851e-05 1.075554e-02 -2.306027e-01 2.396937e-01
-1.817648e-01 4.198372e+00 -2.310962e+01 2.099846e+01 -1.798958e-07 1.148917e-02 -2.180083e-01 2.392163e-01
-1.387917e-01 4.234749e+00 -2.313542e+01 2.131141e+01 -1.581463e-05 1.094198e-02 -2.329096e-01 2.177305e-01
-7.960559e-02 4.238293e+00 -2.321373e+01 2.318268e+01 5.188844e-06 1.102630e-02 -2.330964e-01 2.414513e-01
-1.336560e-01 4.214856e+00 -2.289387e+01 2.317990e+01 2.729783e-05 1.141607e-02 -2.349742e-01 2.375550e-01
-1.709418e-01 4.181733e+00 -2.211296e+01 2.027729e+01 -2.501560e-06 1.188822e-02 -2.243208e-01 2.396900e-01
-1.133270e-01 4.284853e+00 -2.750433e+01 2.325128e+01 -2.237057e-05 1.112740e-02 -2.052771e-01 2.456345e-01
-1.612122e-01 4.259556e+00 -2.754875e+01 2.325902e+01 1.457536e-05 1.106677e-02 -2.376327e-01 2.310140e-01
-1.526844e-01 4.195049e+00 -2.754875e+01 2.172892e+01 5.399546e-06 1.126103e-02 -2.376327e-01 2.371246e-01
-1.436060e-01 4.292921e+00 -2.647263e+01 2.175496e+01 1.095367e-05 1.091042e-02 -2.390303e-01 2.502188e-01
-1.586687e-01 4.247810e+00 -2.321051e+01 2.323491e+01 5.275784e-05 1.089782e-02 -2.362930e-01 1.639810e-01
-1.465163e-01 4.273765e+00 -2.650411e+01 2.168008e+01 -2.262805e-06 1.141176e-02 -2.332986e-01 2.210888e-01
-1.386447e-01 4.226645e+00 -2.257994e+01 2.325923e+01 3.250387e-07 1.083977e-02 -2.410855e-01 2.503702e-01
-1.142096e-01 4.289433e+00 -2.368603e+01 2.176359e+01 -8.275526e-07 9.865678e-03 -2.196816e-01 2.349188e-01
-1.321911e-01 4.254382e+00 -2.742829e+01 2.159456e+01 2.763228e-05 1.200726e-02 -2.346115e-01 2.465495e-01
-1.498690e-01 4.252550e+00 -2.750202e+01 2.135606e+01 6.062106e-06 1.167370e-02 -2.820762e-01 2.820762e-01
-7.510252e-02 4.276425e+00 -2.373105e+01 2.335558e+01 1.421806e-05 1.023343e-02 -2.254965e-01 2.543872e-01
-1.664186e-01 4.276233e+00 -2.658288e+01 2.336400e+01 4.097635e-05 1.162127e-02 -2.538081e-01 2.538081e-01
-1.703173e-01 4.269809e+00 -2.663605e+01 2.157203e+01 -1.191362e-05 1.111517e-02 -2.319589e-01 2.119526e-01
-1.469281e-01 4.278969e+00 -2.663605e+01 2.171591e+01 -2.818189e-06 1.143427e-02 -2.307408e-01 2.506177e-01
-1.153110e-01 4.267676e+00 -2.376389e+01 2.174724e+01 -8.862830e-07 1.139496e-02 -2.385954e-01 2.401684e-01
-1.643924e-01 4.242306e+00 -2.270277e+01 2.157257e+01 -9.860064e-06 1.103944e-02 -2.301398e-01 2.356315e-01
-1.488260e-01 4.298310e+00 -2.668536e+01 2.153858e+01 2.323996e-06 1.082774e-02 -2.408231e-01 2.154068e-01
-1.336599e-01 4.328631e+00 -2.263983e+01 2.342094e+01 -1.846561e-05 9.578293e-03 -2.450501e-01 2.200605e-01
-1.712645e-01 4.289348e+00 -2.320354e+01 2.215967e+01 1.865826e-05 1.019503e-02 -2.472285e-01 2.487121e-01
-1.237710e-01 4.333792e+00 -2.320354e+01 2.068611e+01 5.387431e-06 1.023046e-02 -2.452634e-01 2.577096e-01
-1.815409e-01 4.290517e+00 -2.681793e+01 2.164785e+01 -6.770842e-06 1.126826e-02 -2.341444e-01 2.255077e-01
-1.478011e-01 4.302621e+00 -2.328435e+01 2.335776e+01 -2.726259e-05 1.082801e-02 -2.378427e-01 2.633799e-01
-1.113306e-01 4.293669e+00 -2.381972e+01 2.332855e+01 2.430915e-05 1.022465e-02 -2.180799e-01 2.427877e-01
-1.276283e-01 4.292569e+00 -2.389289e+01 2.153659e+01 -3.165792e-05 9.446738e-03 -2.413364e-01 2.657713e-01
-1.887533e-01 4.287118e+00 -2.328481e+01 2.235014e+01 1.337424e-05 1.114004e-02 -2.496905e-01 2.490743e-01
-1.745370e-01 4.355372e+00 -2.746066e+01 2.178880e+01 4.365224e-06 1.030928e-02 -2.496905e-01 2.664214e-01
-1.641915e-01 4.319951e+00 -2.744776e+01 2.225533e+01 1.721474e-05 1.047841e-02 -2.484243e-01 2.336586e-01
-1.652696e-01 4.296465e+00 -2.669528e+01 2.148546e+01 1.506175e-05 1.051796e-02 -2.463154e-01 2.516230e-01
-1.292162e-01 4.355647e+00 -2.669528e+01 2.180953e+01 -1.025969e-05 1.037736e-02 -2.502582e-01 2.443541e-01
-1.751425e-01 4.335279e+00 -2.396335e+01 2.180363e+01 9.512596e-06 1.031250e-02 -2.342118e-01 2.410286e-01
-1.287451e-01 4.336735e+00 -2.746161e+01 2.099546e+01 2.230190e-05 1.033648e-02 -2.476550e-01 2.630449e-01
-1.239649e-01 4.302787e+00 -2.319303e+01 2.233766e+01 -1.781337e-05 9.294659e-03 -2.227970e-01 2.599123e-01
-9.734798e-02 4.311832e+00 -2.397812e+01 2.233766e+01 1.666460e-05 9.361427e-03 -2.505098e-01 2.353747e-01
-1.475277e-01 4.327094e+00 -2.747202e+01 2.231329e+01 1.124233e-05 9.058556e-03 -2.299078e-01 2.697766e-01
-1.289568e-01 4.352932e+00 -2.399670e+01 2.158825e+01 1.411542e-05 9.663608e-03 -2.643700e-01 2.355000e-01
-1.621014e-01 4.283487e+00 -2.253999e+01 2.141089e+01 -6.963480e-06 1.060481e-02 -2.542316e-01 2.638355e-01
-9.724068e-02 4.269404e+00 -2.740736e+01 2.209934e+01 -6.313655e-06 9.890714e-03 -2.526630e-01 2.387194e-01
-1.418292e-01 4.343478e+00 -2.646625e+01 2.323516e+01 2.285076e-06 9.693714e-03 -2.316665e-01 2.532668e-01
-1.182652e-01 4.311267e+00 -2.405698e+01 2.225661e+01 2.636955e-05 1.047189e-02 -2.585447e-01 2.752672e-01
-1.680887e-01 4.360333e+00 -2.635196e+01 2.222088e+01 -7.394154e-06 1.054586e-02 -2.435460e-01 2.479108e-01
-1.015991e-01 4.316347e+00 -2.426364e+01 2.320411e+01 1.069655e-05 9.131763e-03 -2.667113e-01 2.538754e-01
-1.205030e-01 4.331116e+00 -2.431275e+01 2.138828e+01 -1.479418e-05 9.177589e-03 -2.630200e-01 2.759223e-01
-1.001514e-01 4.297858e+00 -2.414403e+01 2.117400e+01 2.625941e-06 8.350226e-03 -2.296768e-01 2.403082e-01
-1.343742e-01 4.292890e+00 -2.736239e+01 2.180980e+01 2.326913e-06 8.835021e-03 -2.424307e-01 2.612400e-01
-1.544078e-01 4.326712e+00 -2.441943e+01 2.317268e+01 4.940611e-06 8.833958e-03 -2.440550e-01 2.660246e-01
-1.572468e-01 4.383060e+00 -2.741765e+01 2.229158e+01 -4.353299e-06 7.725338e-03 -2.384903e-01 2.805343e-01
-1.118575e-01 4.352870e+00 -2.588850e+01 2.132651e+01 5.464158e-06 1.051173e-02 -2.617788e-01 2.740575e-01
-1.462955e-01 4.316148e+00 -2.740564e+01 2.225033e+01 3.970554e-06 9.039461e-03 -2.519402e-01 2.740575e-01
-1.671256e-01 4.395849e+00 -2.741934e+01 2.189761e+01 -7.730427e-06 9.173795e-03 -2.282354e-01 2.618269e-01
-1.267581e-01 4.349727e+00 -2.741934e+01 2.222096e+01 -6.782399e-06 8.598475e-03 -2.326826e-01 2.654960e-01
-9.063853e-02 4.356273e+00 -2.445160e+01 2.141790e+01 -9.430521e-06 9.096174e-03 -2.499376e-01 2.654960e-01
-1.750092e-01 4.381364e+00 -2.740024e+01 2.222444e+01 6.774280e-06 8.422134e-03 -2.580131e-01 2.262818e-01
-1.180037e-01 4.361728e+00 -2.339928e+01 2.161544e+01 -4.635196e-06 8.398034e-03 -2.106066e-01 2.614608e-01
-1.268995e-01 4.371411e+00 -2.569878e+01 2.316817e+01 1.438728e-05 7.677383e-03 -2.696919e-01 2.844408e-01
-8.776810e-02 4.345712e+00 -2.447742e+01 2.219676e+01 1.178068e-05 7.937798e-03 -2.557595e-01 2.333432e-01
-3.563517e-02 4.399043e+00 -2.566473e+01 2.315662e+01 1.129019e-05 8.225109e-03 -2.780386e-01 2.650340e-01
-1.037505e-01 4.398709e+00 -2.345958e+01 2.315288e+01 -4.384354e-06 7.742980e-03 -2.339403e-01 2.316647e-01
-1.869791e-01 4.359432e+00 -2.352543e+01 2.213413e+01 -1.910372e-07 9.858435e-03 -2.481613e-01 2.468069e-01
-1.184066e-01 4.388367e+00 -2.355700e+01 2.111078e+01 1.265657e-05 7.666557e-03 -2.635676e-01 2.808902e-01
-1.299101e-01 4.382426e+00 -2.742357e+01 2.231801e+01 1.112739e-05 8.398767e-03 -2.716298e-01 2.844083e-01
-1.816818e-01 4.422668e+00 -2.563332e+01 2.325516e+01 -1.022435e-05 8.476895e-03 -2.640516e-01 2.506595e-01
-1.717508e-01 4.333248e+00 -2.560865e+01 2.222322e+01 -1.240868e-05 8.390199e-03 -2.546972e-01 2.800805e-01
-2.067484e-01 4.382667e+00 -2.558543e+01 2.319267e+01 1.298398e-06 9.107865e-03 -2.546972e-01 2.869417e-01
-1.673481e-01 4.366656e+00 -2.551343e+01 2.221424e+01 1.681653e-05 9.176463e-03 -2.866104e-01 2.751947e-01
-1.031953e-01 4.418376e+00 -2.727851e+01 2.319059e+01 9.663357e-07 8.760015e-03 -2.666002e-01 2.882508e-01
-1.508393e-01 4.444181e+00 -2.724869e+01 2.225243e+01 2.473882e-05 8.748001e-03 -2.528167e-01 2.693654e-01
-1.192426e-01 4.395052e+00 -2.550129e+01 2.230088e+01 1.239450e-05 8.335551e-03 -2.528167e-01 2.153809e-01
-1.376516e-01 4.315320e+00 -2.429205e+01 2.128886e+01 -1.921011e-05 7.771209e-03 -2.549695e-01 2.640708e-01
-2.098327e-01 4.348723e+00 -2.718836e+01 2.226570e+01 2.781170e-06 9.328645e-03 -2.835823e-01 2.656094e-01
-1.541617e-01 4.376283e+00 -2.716802e+01 2.234604e+01 1.300997e-05 8.892123e-03 -2.726386e-01 2.820607e-01
-1.083182e-01 4.354809e+00 -2.699964e+01 2.234707e+01 -6.333128e-07 8.993638e-03 -2.312864e-01 2.800189e-01
-1.054766e-01 4.361836e+00 -2.190074e+01 2.246361e+01 -8.948324e-07 8.808655e-03 -2.681793e-01 2.850794e-01
-1.018528e-01 4.372712e+00 -2.696406e+01 2.234926e+01 3.565282e-06 8.069507e-03 -2.575512e-01 2.347188e-01
-6.079839e-02 4.397528e+00 -2.272077e+01 2.334049e+01 -1.463750e-05 7.292044e-03 -2.419870e-01 2.347188e-01
-1.545583e-01 4.474558e+00 -2.353883e+01 2.333452e+01 -5.228696e-06 7.603828e-03 -2.472801e-01 2.535415e-01
-1.591587e-01 4.422329e+00 -2.424636e+01 2.334405e+01 7.024400e-06 8.834035e-03 -2.746848e-01 2.930657e-01
-1.666886e-01 4.324349e+00 -2.541895e+01 2.335009e+01 6.433580e-06 8.143061e-03 -2.738956e-01 2.399850e-01
-1.690481e-01 4.379882e+00 -2.693484e+01 2.254367e+01 1.931464e-05 8.707002e-03 -2.334912e-01 2.875778e-01
-1.075985e-01 4.385143e+00 -2.496051e+01 2.258418e+01 -8.660427e-06 9.753401e-03 -2.586283e-01 2.919619e-01
-1.341317e-01 4.501340e+00 -2.347206e+01 2.324358e+01 4.207798e-06 8.532719e-03 -2.588135e-01 2.919619e-01
-1.377837e-01 4.494603e+00 -2.530796e+01 2.261050e+01 -1.045025e-05 8.668224e-03 -2.352728e-01 2.666079e-01
-1.237251e-01 4.395249e+00 -2.699775e+01 2.316944e+01 2.663530e-06 7.829396e-03 -2.931151e-01 2.814981e-01
-1.558494e-01 4.398795e+00 -2.490356e+01 2.312972e+01 2.121658e-06 7.550875e-03 -2.669888e-01 2.663872e-01
-9.638836e-02 4.437344e+00 -2.703071e+01 2.257989e+01 1.247742e-05 7.978238e-03 -2.665117e-01 2.876257e-01
-1.184714e-01 4.420339e+00 -2.525524e+01 2.316158e+01 9.207950e-06 7.597460e-03 -2.427326e-01 2.807232e-01
-1.025565e-01 4.410005e+00 -2.279514e+01 2.275014e+01 -3.964268e-06 7.353742e-03 -2.402229e-01 1.945830e-01
-1.683320e-01 4.435351e+00 -2.701741e+01 2.261944e+01 -1.286869e-05 7.469091e-03 -2.563348e-01 2.770662e-01
-1.680700e-01 4.406507e+00 -2.524247e+01 2.265147e+01 -8.265772e-06 6.797486e-03 -2.946361e-01 2.374843e-01
-1.605850e-01 4.437175e+00 -2.272714e+01 2.195251e+01 1.596176e-05 7.256463e-03 -2.488310e-01 2.829457e-01
-1.743800e-01 4.353636e+00 -2.381914e+01 2.149590e+01 -3.114529e-05 8.822147e-03 -2.474385e-01 2.806374e-01
-1.555470e-01 4.464233e+00 -2.522492e+01 2.300993e+01 9.116942e-06 8.187967e-03 -2.277039e-01 2.326473e-01
-1.464097e-01 4.403393e+00 -2.706888e+01 2.277424e+01 1.714328e-06 7.370734e-03 -2.467981e-01 2.671022e-01
-1.168472e-01 4.469163e+00 -2.516757e+01 2.262655e+01 -2.283676e-06 7.322206e-03 -2.175379e-01 2.698505e-01
-1.383295e-01 4.453199e+00 -2.702951e+01 2.209627e+01 2.314520e-05 6.886302e-03 -2.721318e-01 2.862271e-01
-1.183304e-01 4.417345e+00 -2.335105e+01 2.285188e+01 -1.656263e-05 7.547284e-03 -2.700185e-01 2.862271e-01
-1.374550e-01 4.432365e+00 -2.702342e+01 2.193604e+01 8.716026e-06 8.624797e-03 -2.607136e-01 2.633210e-01
-1.058275e-01 4.459556e+00 -2.271403e+01 2.210068e+01 4.373485e-06 7.943968e-03 -2.751165e-01 2.771218e-01
-1.185099e-01 4.435551e+00 -2.502980e+01 2.292001e+01 -1.096992e-05 8.595783e-03 -2.409326e-01 2.785211e-01
-1.351756e-01 4.409552e+00 -2.385021e+01 2.129069e+01 -6.292235e-06 7.943490e-03 -2.289428e-01 2.830496e-01
-1.424104e-01 4.461833e+00 -2.712049e+01 2.139066e+01 -4.738965e-06 6.233515e-03 -2.406858e-01 2.637521e-01
-9.850647e-02 4.466939e+00 -2.504701e+01 2.302483e+01 1.096366e-05 7.007190e-03 -2.605392e-01 2.951296e-01
-1.584384e-01 4.433233e+00 -2.504502e+01 2.279538e+01 5.948890e-06 7.699736e-03 -2.378373e-01 2.123382e-01
-1.343783e-01 4.411420e+00 -2.504275e+01 2.309792e+01 7.880669e-06 6.856559e-03 -1.858729e-01 2.865456e-01
-1.231257e-01 4.444656e+00 -2.709127e+01 2.278394e+01 -6.737217e-06 7.690721e-03 -2.416691e-01 2.792547e-01
-1.098604e-01 4.375857e+00 -2.511393e+01 2.280058e+01 3.313647e-06 7.636861e-03 -2.272372e-01 2.892367e-01
-7.939453e-02 4.463246e+00 -2.709282e+01 2.310268e+01 -2.318701e-05 7.277019e-03 -2.472576e-01 2.902405e-01
-5.551808e-02 4.443745e+00 -2.709282e+01 2.272192e+01 -6.155228e-06 7.121371e-03 -2.529201e-01 2.903756e-01
-1.114278e-01 4.502928e+00 -2.419268e+01 2.317095e+01 -4.214931e-06 6.628111e-03 -2.594578e-01 2.962499e-01
-1.585003e-01 4.444443e+00 -2.707235e+01 2.268431e+01 1.511945e-07 5.508161e-03 -2.661249e-01 1.854753e-01
-9.035240e-02 4.465031e+00 -2.397467e+01 2.317640e+01 2.792536e-06 7.150903e-03 -2.447186e-01 2.562850e-01
-2.010669e-01 4.432860e+00 -2.508977e+01 2.273786e+01 7.906199e-06 7.186473e-03 -2.493621e-01 2.909363e-01
-1.372736e-01 4.360797e+00 -2.704667e+01 2.273786e+01 2.925521e-06 6.666469e-03 -2.301587e-01 2.165336e-01
-1.149634e-01 4.444297e+00 -2.494924e+01 2.195948e+01 1.918189e-07 7.477107e-03 -2.264985e-01 3.053920e-01
-1.252088e-01 4.456304e+00 -2.702348e+01 2.317787e+01 -9.204646e-06 6.737074e-03 -2.613054e-01 2.855289e-01
-1.220738e-01 4.464494e+00 -2.705437e+01 2.177371e+01 -1.498545e-05 7.457679e-03 -2.492847e-01 2.912026e-01
-1.480308e-01 4.408272e+00 -2.420921e+01 2.316792e+01 -9.260737e-06 6.578782e-03 -2.562555e-01 2.132857e-01
-1.327838e-01 4.485585e+00 -2.506979e+01 2.275420e+01 -1.284595e-05 7.460006e-03 -2.622310e-01 2.235377e-01
-1.863661e-01 4.460737e+00 -2.480710e+01 2.322448e+01 1.110133e-05 7.058535e-03 -2.856889e-01 2.902439e-01
-5.833117e-02 4.453867e+00 -2.479041e+01 2.326522e+01 7.843398e-06 6.805689e-03 -2.474282e-01 3.077140e-01
-1.879697e-01 4.418383e+00 -2.428094e+01 2.329076e+01 -2.103711e-05 6.487828e-03 -2.041256e-01 3.077140e-01
-1.669905e-01 4.382508e+00 -2.430117e+01 2.194019e+01 -1.879026e-05 6.667455e-03 -1.917224e-01 3.095554e-01
-1.807302e-01 4.404181e+00 -2.409241e+01 2.259883e+01 -6.087595e-07 6.195601e-03 -2.927433e-01 2.165183e-01
-1.165446e-01 4.478155e+00 -2.468656e+01 2.336182e+01 1.196602e-05 6.333119e-03 -1.980692e-01 2.835117e-01
-2.262620e-01 4.528504e+00 -2.503934e+01 2.275396e+01 -1.307902e-05 6.343875e-03 -2.690074e-01 2.809911e-01
-1.270129e-01 4.480856e+00 -2.701058e+01 2.271549e+01 -8.984384e-06 7.138803e-03 -2.759621e-01 2.650660e-01
-1.455972e-01 4.499235e+00 -2.463697e+01 2.193469e+01 -1.845640e-05 7.089679e-03 -2.615143e-01 2.370502e-01
-1.816967e-01 4.489896e+00 -2.703276e+01 2.272458e+01 1.185101e-05 6.140492e-03 -2.505964e-01 2.977273e-01
-1.440743e-01 4.469378e+00 -2.704485e+01 2.255305e+01 6.575839e-06 5.897495e-03 -2.003383e-01 3.099906e-01
-1.715503e-01 4.483392e+00 -2.704485e+01 2.195138e+01 1.553145e-05 6.569498e-03 -2.808641e-01 2.926186e-01
-1.586141e-01 4.469720e+00 -2.500168e+01 2.188041e+01 -1.294527e-05 6.229437e-03 -2.730457e-01 3.015231e-01
-1.630756e-01 4.440470e+00 -2.433468e+01 2.255880e+01 -1.019945e-05 6.039066e-03 -1.596136e-01 3.061655e-01
-1.413973e-01 4.478774e+00 -2.700876e+01 2.330654e+01 1.158167e-05 6.311813e-03 -2.548432e-01 3.044775e-01
-1.015363e-01 4.464318e+00 -2.703181e+01 2.139551e+01 -1.065113e-05 6.812198e-03 -2.702842e-01 3.163694e-01
-1.297690e-01 4.497972e+00 -2.703181e+01 2.258403e+01 -5.008750e-08 6.404047e-03 -2.796496e-01 3.010896e-01
-1.683986e-01 4.474058e+00 -2.410391e+01 2.327800e+01 2.903289e-06 6.346875e-03 -2.866780e-01 3.179768e-01
-1.997926e-01 4.501276e+00 -2.437138e+01 2.328987e+01 -4.179248e-06 6.392313e-03 -1.999451e-01 2.975665e-01
-1.165420e-01 4.555729e+00 -2.435179e+01 2.276895e+01 3.740535e-06 6.095214e-03 -2.925214e-01 3.014941e-01
-1.512074e-01 4.506016e+00 -2.323689e+01 2.329689e+01 -6.568354e-06 5.638383e-03 -2.957686e-01 3.041115e-01
-1.832489e-01 4.530034e+00 -2.415250e+01 2.331226e+01 -3.207517e-06 7.028748e-03 -2.996678e-01 3.188100e-01
-7.957665e-02 4.449539e+00 -2.459938e+01 2.263562e+01 1.084145e-07 6.270879e-03 -2.840071e-01 3.136272e-01
-1.039079e-01 4.463741e+00 -2.459938e+01 2.332722e+01 -2.821536e-06 6.787254e-03 -2.386748e-01 2.969336e-01
-1.194890e-01 4.493455e+00 -2.415028e+01 2.332722e+01 -5.556151e-06 5.849314e-03 -2.680911e-01 3.047390e-01
-9.331395e-02 4.479316e+00 -2.458924e+01 2.191573e+01 3.640440e-06 6.334568e-03 -2.611990e-01 3.044530e-01
-1.408018e-01 4.541016e+00 -2.698538e+01 2.278712e+01 -2.649764e-06 6.376555e-03 -2.859862e-01 3.032154e-01
-1.197197e-01 4.498561e+00 -2.504392e+01 2.192517e+01 3.328654e-06 5.964389e-03 -2.859862e-01 2.764498e-01
-1.438678e-01 4.489703e+00 -2.454798e+01 2.109960e+01 7.183583e-06 6.111658e-03 -2.465555e-01 3.106360e-01
-1.111439e-01 4.507333e+00 -2.277563e+01 2.279243e+01 -1.401561e-05 6.226544e-03 -2.561398e-01 3.001968e-01
-1.008605e-01 4.472910e+00 -2.503538e+01 2.246688e+01 1.668033e-05 5.819697e-03 -2.356060e-01 2.917820e-01
-1.226677e-01 4.514622e+00 -2.415256e+01 2.246735e+01 -9.659601e-07 5.995316e-03 -2.552168e-01 2.707156e-01
-2.650911e-01 4.532958e+00 -2.698944e+01 2.282394e+01 -6.823802e-06 6.887342e-03 -3.008388e-01 3.016896e-01
-9.124943e-02 4.498872e+00 -2.698944e+01 2.247207e+01 -6.575567e-06 7.123775e-03 -2.766404e-01 3.016896e-01
-7.481391e-02 4.534904e+00 -2.252024e+01 2.195051e+01 3.221401e-06 6.551013e-03 -3.018799e-01 3.009758e-01
-1.284931e-01 4.507903e+00 -2.322106e+01 2.152829e+01 -2.899290e-05 6.848678e-03 -3.053889e-01 2.207384e-01
-1.657690e-01 4.504913e+00 -2.696162e+01 2.244985e+01 -3.091755e-06 7.102021e-03 -3.082448e-01 3.011557e-01
-1.637183e-01 4.459475e+00 -2.452483e+01 2.288471e+01 1.497785e-06 6.213999e-03 -2.642163e-01 2.893776e-01
-1.779068e-01 4.509908e+00 -2.455316e+01 2.191602e+01 -4.694154e-06 4.931379e-03 -1.265000e-01 2.892910e-01
-2.208962e-01 4.493918e+00 -2.502284e+01 2.326505e+01 1.760346e-05 6.014357e-03 -2.788467e-01 2.952193e-01
-1.281133e-01 4.478732e+00 -2.688427e+01 2.000191e+01 -5.679541e-06 5.505382e-03 -2.108429e-01 2.968431e-01
-9.804035e-02 4.555255e+00 -2.502749e+01 2.112257e+01 2.453365e-07 5.488528e-03 -2.705277e-01 2.692460e-01
-1.059927e-01 4.547378e+00 -2.457451e+01 2.239566e+01 2.867071e-07 5.866637e-03 -2.478975e-01 2.889617e-01
-1.560782e-01 4.537481e+00 -2.457941e+01 2.188373e+01 1.023325e-05 6.642035e-03 -2.787574e-01 2.666111e-01
-1.032655e-01 4.473614e+00 -2.501668e+01 2.329418e+01 9.954136e-06 5.922987e-03 -2.503194e-01 2.840757e-01
-1.617895e-01 4.492804e+00 -2.459312e+01 2.329785e+01 -9.086243e-06 5.100369e-03 -2.300186e-01 2.729144e-01
-1.735472e-01 4.554947e+00 -2.459312e+01 2.086640e+01 8.906269e-06 5.648892e-03 -2.197889e-01 2.637434e-01
-1.089250e-01 4.491948e+00 -2.499527e+01 2.117509e+01 -1.117090e-05 5.357771e-03 -1.610008e-01 2.612640e-01
-1.566826e-01 4.485921e+00 -2.671599e+01 2.328642e+01 3.731067e-06 5.726871e-03 -1.840831e-01 2.334638e-01
-1.078897e-01 4.477903e+00 -2.298568e+01 2.204405e+01 -2.330924e-05 6.037486e-03 -3.131570e-01 2.546809e-01
-1.298155e-01 4.507945e+00 -2.499282e+01 2.041240e+01 3.241896e-06 5.177349e-03 -2.400786e-01 2.245860e-01
-1.106464e-01 4.566480e+00 -2.672795e+01 2.291440e+01 6.044653e-06 6.144441e-03 -2.967291e-01 2.824246e-01
-1.302906e-01 4.502114e+00 -2.444774e+01 2.166577e+01 -1.422552e-05 5.664929e-03 -2.967291e-01 2.494013e-01
-1.276846e-01 4.509072e+00 -2.671077e+01 2.326509e+01 -4.987773e-06 4.586913e-03 -3.129908e-01 1.930349e-01
-1.329041e-01 4.501563e+00 -2.671077e+01 2.208280e+01 -2.026597e-06 5.984282e-03 -2.975432e-01 2.788714e-01
-1.112235e-01 4.505792e+00 -2.443704e+01 2.161358e+01 1.063472e-05 5.462983e-03 -2.003444e-01 2.678754e-01
-1.773699e-01 4.542410e+00 -2.501009e+01 2.325425e+01 -4.044254e-06 4.425055e-03 -2.004637e-01 2.354635e-01
-1.428482e-01 4.454410e+00 -2.257801e+01 2.326340e+01 2.916017e-06 4.841551e-03 -1.681698e-01 2.740611e-01
-1.051108e-01 4.462246e+00 -2.209014e+01 2.327335e+01 -1.022091e-05 5.291196e-03 -3.142020e-01 2.782977e-01
-1.663914e-01 4.574986e+00 -2.666974e+01 2.327714e+01 6.794087e-06 5.159889e-03 -3.144089e-01 2.586601e-01
-1.745877e-01 4.557211e+00 -2.502150e+01 2.290851e+01 -4.040432e-06 5.259468e-03 -3.025030e-01 2.424029e-01
-1.938109e-01 4.517260e+00 -2.662180e+01 2.123022e+01 -2.546116e-06 5.028915e-03 -3.158466e-01 2.223951e-01
-1.281018e-01 4.507359e+00 -2.662006e+01 2.328640e+01 -2.592657e-06 5.008253e-03 -3.026290e-01 2.574474e-01
-1.663428e-01 4.486930e+00 -2.662006e+01 2.330931e+01 -6.735042e-06 4.926179e-03 -3.026290e-01 2.676120e-01
-8.386446e-02 4.482215e+00 -2.468824e+01 2.330931e+01 3.485254e-06 5.352418e-03 -2.763290e-01 2.091660e-01
-1.122000e-01 4.553500e+00 -2.468823e+01 2.296072e+01 -4.227446e-06 5.611530e-03 -2.935684e-01 2.377640e-01
-1.525273e-01 4.507552e+00 -2.447053e+01 2.232042e+01 -5.772348e-06 4.777327e-03 -1.229939e-01 2.626788e-01
-1.097057e-01 4.529973e+00 -2.329429e+01 2.295886e+01 -9.219758e-06 5.560643e-03 -3.211435e-01 2.609975e-01
-1.570169e-01 4.509676e+00 -2.286755e+01 2.160147e+01 3.815953e-06 4.575028e-03 -3.211435e-01 2.356067e-01
-1.294449e-01 4.523009e+00 -2.660635e+01 2.186313e+01 3.980260e-06 5.700542e-03 -2.470580e-01 2.910364e-01
-1.105973e-01 4.548333e+00 -2.500915e+01 2.186313e+01 3.100135e-06 5.308561e-03 -2.931668e-01 2.705441e-01
-1.783823e-01 4.593272e+00 -2.660689e+01 2.235370e+01 -1.679031e-05 6.709523e-03 -3.268447e-01 2.888968e-01
-1.433133e-01 4.514156e+00 -2.500233e+01 2.235370e+01 5.616255e-06 5.666018e-03 -3.253721e-01 2.888968e-01
-1.667589e-01 4.516841e+00 -2.205415e+01 2.326889e+01 1.400023e-06 5.333250e-03 -2.009945e-01 2.281271e-01
-1.423673e-01 4.579569e+00 -2.212446e+01 2.326889e+01 9.850128e-06 5.103943e-03 -2.974935e-01 2.914722e-01
-9.633684e-02 4.544160e+00 -2.282234e+01 2.203432e+01 -2.555235e-05 6.236698e-03 -2.968372e-01 2.323948e-01
-9.952025e-02 4.518532e+00 -2.649710e+01 2.288198e+01 -6.607069e-06 6.645744e-03 -2.968372e-01 2.874055e-01
-1.729334e-01 4.468421e+00 -2.504228e+01 2.237119e+01 7.792575e-06 5.080297e-03 -2.032784e-01 1.701897e-01
-1.549144e-01 4.516994e+00 -2.417516e+01 2.236357e+01 -1.473064e-06 5.046899e-03 -2.997000e-01 2.675484e-01
-1.123332e-01 4.570815e+00 -2.503127e+01 2.284837e+01 2.401644e-06 5.019369e-03 -2.315442e-01 2.555967e-01
-1.307013e-01 4.485462e+00 -2.418541e+01 2.321699e+01 1.611714e-06 5.226166e-03 -2.026100e-01 2.630943e-01
-2.238132e-01 4.543808e+00 -2.471317e+01 2.235388e+01 -1.175900e-05 6.662743e-03 -3.033670e-01 2.952913e-01
-1.574352e-01 4.579288e+00 -2.636220e+01 2.285526e+01 5.183572e-06 6.142832e-03 -3.194537e-01 3.266575e-01
-1.606672e-01 4.569600e+00 -2.469796e+01 2.321241e+01 -2.019342e-06 5.778702e-03 -3.198733e-01 3.266575e-01
-1.598133e-01 4.585122e+00 -2.628719e+01 2.321862e+01 1.252203e-05 4.942057e-03 -3.238967e-01 2.583162e-01
-1.618388e-01 4.540151e+00 -2.500978e+01 2.321862e+01 -1.192284e-05 4.499532e-03 -3.004968e-01 2.441312e-01
-1.904312e-01 4.604413e+00 -2.629516e+01 2.283218e+01 -8.385400e-07 6.124355e-03 -2.405372e-01 2.998338e-01
-1.918360e-01 4.505811e+00 -2.503202e+01 2.324179e+01 -1.673687e-06 5.346750e-03 -2.714061e-01 2.469917e-01
-1.215320e-01 4.485969e+00 -2.472004e+01 2.323775e+01 4.614225e-06 4.806853e-03 -2.941989e-01 2.469917e-01
-8.272765e-02 4.542356e+00 -2.623146e+01 2.323064e+01 3.888355e-06 4.433555e-03 -2.294589e-01 1.998123e-01
-1.662274e-01 4.587795e+00 -2.622467e+01 2.126503e+01 -1.183095e-05 4.788720e-03 -2.030845e-01 2.109711e-01
-1.428986e-01 4.510746e+00 -2.501695e+01 2.203364e+01 5.178478e-06 4.939834e-03 -3.295035e-01 2.553046e-01
-1.495459e-01 4.440266e+00 -2.501538e+01 2.325841e+01 -2.519808e-06 4.394371e-03 -2.944300e-01 2.106039e-01
-1.762514e-01 4.539423e+00 -2.620820e+01 2.325841e+01 7.884047e-07 4.845794e-03 -2.200780e-01 2.930079e-01
-1.781971e-01 4.567015e+00 -2.476800e+01 2.197328e+01 1.256193e-05 5.075511e-03 -2.038802e-01 2.476863e-01
-1.659752e-01 4.527002e+00 -2.504630e+01 2.173880e+01 -1.256348e-05 4.794212e-03 -2.484834e-01 2.115350e-01
-1.104645e-01 4.561020e+00 -2.253738e+01 2.273779e+01 6.295423e-06 4.715804e-03 -3.138510e-01 2.109576e-01
-1.688290e-01 4.544543e+00 -2.435441e+01 2.272449e+01 -3.311907e-06 5.082356e-03 -3.070297e-01 2.463127e-01
-1.427251e-01 4.575854e+00 -2.612097e+01 2.327393e+01 7.434810e-06 5.310460e-03 -3.070297e-01 2.244730e-01
-1.358909e-01 4.590574e+00 -2.477697e+01 2.326289e+01 -1.615875e-06 4.830138e-03 -2.575071e-01 2.198106e-01
-2.135325e-01 4.549117e+00 -2.478792e+01 2.164057e+01 3.173841e-06 4.140090e-03 -1.744405e-01 2.341430e-01
-1.633339e-01 4.589714e+00 -2.607585e+01 2.193300e+01 -7.514547e-06 5.152838e-03 -2.182809e-01 2.207801e-01
-1.149266e-01 4.531876e+00 -2.346771e+01 2.164444e+01 1.695139e-07 5.037994e-03 -3.278930e-01 2.378701e-01
-1.308648e-01 4.512472e+00 -2.507537e+01 2.325507e+01 -1.003806e-05 4.285256e-03 -2.034568e-01 2.857887e-01
-1.779473e-01 4.547884e+00 -2.607340e+01 2.268711e+01 -9.046791e-06 5.161966e-03 -3.337598e-01 2.401039e-01
