-2.322850e+00 8.923812e+00 -4.569444e+01 4.040876e+01 2.574794e-05 1.838817e-03 -1.262285e-01 1.262285e-01
-3.272135e+00 1.041214e+01 -5.185166e+01 4.457131e+01 5.160086e-06 1.365685e-03 -1.262285e-01 1.262285e-01
-3.422681e+00 1.073649e+01 -5.245182e+01 4.799048e+01 6.640554e-07 1.252608e-03 -1.262285e-01 1.262285e-01
-3.665667e+00 1.101455e+01 -5.283639e+01 4.670377e+01 1.345943e-06 1.197015e-03 -1.262285e-01 1.354528e-01
-3.744543e+00 1.119323e+01 -5.545712e+01 4.902225e+01 1.690877e-06 1.125122e-03 -1.262285e-01 1.262285e-01
-3.784658e+00 1.135114e+01 -5.596279e+01 5.253861e+01 3.143365e-06 1.193597e-03 -1.262285e-01 1.262285e-01
-4.022876e+00 1.156077e+01 -5.965845e+01 5.634520e+01 4.563710e-06 1.202917e-03 -1.262284e-01 1.262285e-01
-4.035686e+00 1.178849e+01 -5.942883e+01 5.755122e+01 -5.336951e-07 1.158009e-03 -1.262285e-01 1.262285e-01
-4.126143e+00 1.189715e+01 -6.029333e+01 6.025365e+01 3.173530e-06 1.118846e-03 -1.262285e-01 1.262285e-01
-4.204763e+00 1.202733e+01 -6.017420e+01 5.794168e+01 1.527595e-06 1.090794e-03 -1.262285e-01 1.262285e-01
-4.185789e+00 1.207736e+01 -6.069591e+01 5.824096e+01 -3.017319e-07 1.076355e-03 -1.262285e-01 1.262284e-01
-4.371762e+00 1.227157e+01 -6.359299e+01 6.145123e+01 -4.255096e-07 1.073700e-03 -1.262284e-01 1.262284e-01
-4.372819e+00 1.231948e+01 -6.290536e+01 6.166591e+01 3.840108e-07 1.029257e-03 -1.262285e-01 1.262285e-01
-4.307692e+00 1.241979e+01 -6.477908e+01 5.981508e+01 -3.273543e-06 1.015376e-03 -1.262285e-01 1.262277e-01
-4.342261e+00 1.243364e+01 -6.439778e+01 6.493900e+01 -1.001956e-06 1.007864e-03 -1.262285e-01 1.262285e-01
-4.348157e+00 1.251990e+01 -6.729396e+01 6.188392e+01 -1.455039e-06 9.868435e-04 -1.262285e-01 1.262284e-01
-4.397102e+00 1.256353e+01 -6.786640e+01 6.365172e+01 1.970235e-06 9.869683e-04 -1.274433e-01 1.262285e-01
-4.412857e+00 1.265007e+01 -6.848769e+01 6.619951e+01 2.493078e-06 9.690291e-04 -1.262284e-01 1.262285e-01
-4.376302e+00 1.269816e+01 -6.864099e+01 6.602480e+01 -1.972593e-06 9.594879e-04 -1.262285e-01 1.262284e-01
-4.404319e+00 1.275007e+01 -6.776751e+01 6.245396e+01 1.897799e-06 9.429789e-04 -1.262285e-01 1.262285e-01
-4.455749e+00 1.278245e+01 -6.996693e+01 6.364129e+01 6.218012e-07 9.549499e-04 -1.262285e-01 1.262284e-01
-4.453651e+00 1.286132e+01 -6.831467e+01 6.610652e+01 -1.459518e-06 9.198142e-04 -1.262285e-01 1.262285e-01
-4.502392e+00 1.293222e+01 -6.995043e+01 6.836578e+01 -7.572937e-07 9.451669e-04 -1.262285e-01 1.262285e-01
-4.503996e+00 1.299497e+01 -6.975030e+01 6.762992e+01 -2.231486e-07 9.421564e-04 -1.262285e-01 1.262285e-01
-4.564376e+00 1.308143e+01 -6.992536e+01 6.575536e+01 6.024035e-07 9.332219e-04 -1.262285e-01 1.262285e-01
-4.553852e+00 1.313848e+01 -7.190704e+01 6.769391e+01 -2.790563e-06 9.267277e-04 -1.262285e-01 1.262284e-01
-4.549067e+00 1.319818e+01 -7.240847e+01 6.824577e+01 1.604617e-06 8.905075e-04 -1.262285e-01 1.262285e-01
-4.578422e+00 1.320783e+01 -7.166625e+01 6.772371e+01 8.402029e-07 8.874844e-04 -1.352170e-01 1.262285e-01
-4.609803e+00 1.327830e+01 -7.259833e+01 6.885021e+01 1.269730e-06 8.987186e-04 -1.262285e-01 1.262285e-01
-4.608359e+00 1.331457e+01 -7.308835e+01 6.923940e+01 -1.368479e-06 8.685988e-04 -1.262285e-01 1.262282e-01
-4.635317e+00 1.332930e+01 -7.204774e+01 6.986863e+01 -1.142713e-07 8.680834e-04 -1.262285e-01 1.262285e-01
-4.669244e+00 1.340784e+01 -7.277974e+01 7.111558e+01 6.846539e-07 8.794015e-04 -1.395026e-01 1.262284e-01
-4.678505e+00 1.339961e+01 -7.454593e+01 6.998317e+01 -1.899123e-07 8.517197e-04 -1.262285e-01 1.262285e-01
-4.655561e+00 1.340446e+01 -7.405282e+01 6.914950e+01 -4.705885e-07 8.493008e-04 -1.424270e-01 1.262271e-01
-4.692357e+00 1.348036e+01 -7.491524e+01 7.027684e+01 -2.267322e-06 8.682440e-04 -1.325926e-01 1.262269e-01
