8.999939e-01 9.989929e-01
4.499817e-01 9.939575e-01
2.249908e-01 9.889221e-01
1.125031e-01 9.838867e-01
5.625916e-02 9.788513e-01
2.812195e-02 9.738159e-01
1.406860e-02 9.687805e-01
7.049561e-03 9.637451e-01
3.524780e-03 9.587097e-01
1.754761e-03 9.536743e-01
8.850098e-04 9.486389e-01
4.577637e-04 9.436035e-01
2.288818e-04 9.385681e-01
1.068115e-04 9.335327e-01
6.103516e-05 9.284973e-01
6.103516e-05 9.234619e-01
6.103516e-05 9.184265e-01
6.103516e-05 9.133911e-01
6.103516e-05 9.083557e-01
6.103516e-05 9.033203e-01
6.103516e-05 8.982849e-01
6.103516e-05 8.932495e-01
6.103516e-05 8.882141e-01
6.103516e-05 8.831787e-01
6.103516e-05 8.781433e-01
6.103516e-05 8.731079e-01
6.103516e-05 8.680725e-01
6.103516e-05 8.630371e-01
6.103516e-05 8.580017e-01
6.103516e-05 8.529663e-01
6.103516e-05 8.479309e-01
6.103516e-05 8.428955e-01
6.103516e-05 8.378601e-01
6.103516e-05 8.328247e-01
6.103516e-05 8.277893e-01
6.103516e-05 8.227539e-01
6.103516e-05 8.177185e-01
6.103516e-05 8.126831e-01
6.103516e-05 8.076477e-01
6.103516e-05 8.026123e-01
6.103516e-05 7.975769e-01
6.103516e-05 7.925415e-01
6.103516e-05 7.875061e-01
6.103516e-05 7.824707e-01
6.103516e-05 7.774353e-01
6.103516e-05 7.723999e-01
6.103516e-05 7.673645e-01
6.103516e-05 7.623291e-01
6.103516e-05 7.572937e-01
6.103516e-05 7.522583e-01
6.103516e-05 7.472229e-01
6.103516e-05 7.421875e-01
6.103516e-05 7.371521e-01
6.103516e-05 7.321167e-01
6.103516e-05 7.270813e-01
6.103516e-05 7.220459e-01
6.103516e-05 7.170105e-01
6.103516e-05 7.119751e-01
6.103516e-05 7.069397e-01
6.103516e-05 7.019043e-01
6.103516e-05 6.968689e-01
6.103516e-05 6.918335e-01
6.103516e-05 6.867981e-01
6.103516e-05 6.817627e-01
6.103516e-05 6.767273e-01
6.103516e-05 6.716919e-01
6.103516e-05 6.666565e-01
6.103516e-05 6.616211e-01
6.103516e-05 6.565857e-01
6.103516e-05 6.515503e-01
6.103516e-05 6.465149e-01
6.103516e-05 6.414795e-01
6.103516e-05 6.364441e-01
6.103516e-05 6.314087e-01
6.103516e-05 6.263733e-01
6.103516e-05 6.213379e-01
6.103516e-05 6.163025e-01
6.103516e-05 6.112671e-01
6.103516e-05 6.062317e-01
6.103516e-05 6.011963e-01
6.103516e-05 5.961609e-01
6.103516e-05 5.911255e-01
6.103516e-05 5.860901e-01
6.103516e-05 5.810547e-01
6.103516e-05 5.760193e-01
6.103516e-05 5.709839e-01
6.103516e-05 5.659485e-01
6.103516e-05 5.609131e-01
6.103516e-05 5.558777e-01
6.103516e-05 5.508423e-01
6.103516e-05 5.458069e-01
6.103516e-05 5.407715e-01
6.103516e-05 5.357361e-01
6.103516e-05 5.307007e-01
6.103516e-05 5.256653e-01
6.103516e-05 5.206299e-01
6.103516e-05 5.155945e-01
6.103516e-05 5.105591e-01
6.103516e-05 5.055237e-01
6.103516e-05 5.004883e-01
6.103516e-05 4.977264e-01
6.103516e-05 4.952087e-01
6.103516e-05 4.926910e-01
6.103516e-05 4.901733e-01
6.103516e-05 4.876556e-01
6.103516e-05 4.851379e-01
6.103516e-05 4.826202e-01
6.103516e-05 4.801025e-01
6.103516e-05 4.775848e-01
6.103516e-05 4.750671e-01
6.103516e-05 4.725494e-01
6.103516e-05 4.700317e-01
6.103516e-05 4.675140e-01
6.103516e-05 4.649963e-01
6.103516e-05 4.624786e-01
6.103516e-05 4.599609e-01
6.103516e-05 4.574432e-01
6.103516e-05 4.549255e-01
6.103516e-05 4.524078e-01
6.103516e-05 4.498901e-01
6.103516e-05 4.473724e-01
6.103516e-05 4.448547e-01
6.103516e-05 4.423370e-01
6.103516e-05 4.398193e-01
6.103516e-05 4.373016e-01
6.103516e-05 4.347839e-01
6.103516e-05 4.322662e-01
6.103516e-05 4.297485e-01
6.103516e-05 4.272308e-01
6.103516e-05 4.247131e-01
6.103516e-05 4.221954e-01
6.103516e-05 4.196777e-01
6.103516e-05 4.171600e-01
6.103516e-05 4.146423e-01
6.103516e-05 4.121246e-01
6.103516e-05 4.096069e-01
6.103516e-05 4.070892e-01
6.103516e-05 4.045715e-01
6.103516e-05 4.020538e-01
6.103516e-05 3.995361e-01
6.103516e-05 3.970184e-01
6.103516e-05 3.945007e-01
6.103516e-05 3.919830e-01
6.103516e-05 3.894653e-01
6.103516e-05 3.869476e-01
6.103516e-05 3.844299e-01
6.103516e-05 3.819122e-01
6.103516e-05 3.793945e-01
6.103516e-05 3.768768e-01
6.103516e-05 3.743591e-01
6.103516e-05 3.718414e-01
6.103516e-05 3.693237e-01
6.103516e-05 3.668060e-01
6.103516e-05 3.642883e-01
6.103516e-05 3.617706e-01
6.103516e-05 3.592529e-01
6.103516e-05 3.567352e-01
6.103516e-05 3.542175e-01
6.103516e-05 3.516998e-01
6.103516e-05 3.491821e-01
6.103516e-05 3.466644e-01
6.103516e-05 3.441467e-01
6.103516e-05 3.416290e-01
6.103516e-05 3.391113e-01
6.103516e-05 3.365936e-01
6.103516e-05 3.340759e-01
6.103516e-05 3.315582e-01
6.103516e-05 3.290405e-01
6.103516e-05 3.265228e-01
6.103516e-05 3.240051e-01
6.103516e-05 3.214874e-01
6.103516e-05 3.189697e-01
6.103516e-05 3.164520e-01
6.103516e-05 3.139343e-01
6.103516e-05 3.114166e-01
6.103516e-05 3.088989e-01
6.103516e-05 3.063812e-01
6.103516e-05 3.038635e-01
6.103516e-05 3.013458e-01
6.103516e-05 2.988281e-01
6.103516e-05 2.963104e-01
6.103516e-05 2.937927e-01
6.103516e-05 2.912750e-01
6.103516e-05 2.887573e-01
6.103516e-05 2.862396e-01
6.103516e-05 2.837219e-01
6.103516e-05 2.812042e-01
6.103516e-05 2.786865e-01
6.103516e-05 2.761688e-01
6.103516e-05 2.736511e-01
6.103516e-05 2.711334e-01
6.103516e-05 2.686157e-01
6.103516e-05 2.660980e-01
6.103516e-05 2.635803e-01
6.103516e-05 2.610626e-01
6.103516e-05 2.585449e-01
6.103516e-05 2.560272e-01
6.103516e-05 2.535095e-01
6.103516e-05 2.509918e-01
6.103516e-05 2.492676e-01
6.103516e-05 2.480469e-01
6.103516e-05 2.468262e-01
6.103516e-05 2.456055e-01
6.103516e-05 2.443848e-01
6.103516e-05 2.431641e-01
6.103516e-05 2.419434e-01
6.103516e-05 2.407227e-01
6.103516e-05 2.395020e-01
6.103516e-05 2.382812e-01
6.103516e-05 2.370605e-01
6.103516e-05 2.358398e-01
6.103516e-05 2.346191e-01
6.103516e-05 2.333984e-01
6.103516e-05 2.321777e-01
6.103516e-05 2.309570e-01
6.103516e-05 2.297363e-01
6.103516e-05 2.285156e-01
6.103516e-05 2.272949e-01
6.103516e-05 2.260742e-01
6.103516e-05 2.248535e-01
6.103516e-05 2.236328e-01
6.103516e-05 2.224121e-01
6.103516e-05 2.211914e-01
6.103516e-05 2.199707e-01
6.103516e-05 2.187500e-01
6.103516e-05 2.175293e-01
6.103516e-05 2.163086e-01
6.103516e-05 2.150879e-01
6.103516e-05 2.138672e-01
6.103516e-05 2.126465e-01
6.103516e-05 2.114258e-01
6.103516e-05 2.102051e-01
6.103516e-05 2.089844e-01
6.103516e-05 2.077637e-01
6.103516e-05 2.065430e-01
6.103516e-05 2.053223e-01
6.103516e-05 2.041016e-01
6.103516e-05 2.028809e-01
6.103516e-05 2.016602e-01
6.103516e-05 2.004395e-01
6.103516e-05 1.992188e-01
6.103516e-05 1.979980e-01
6.103516e-05 1.967773e-01
6.103516e-05 1.955566e-01
6.103516e-05 1.943359e-01
6.103516e-05 1.931152e-01
6.103516e-05 1.918945e-01
6.103516e-05 1.906738e-01
6.103516e-05 1.894531e-01
6.103516e-05 1.882324e-01
6.103516e-05 1.870117e-01
6.103516e-05 1.857910e-01
6.103516e-05 1.845703e-01
6.103516e-05 1.833496e-01
6.103516e-05 1.821289e-01
6.103516e-05 1.809082e-01
6.103516e-05 1.796875e-01
6.103516e-05 1.784668e-01
6.103516e-05 1.772461e-01
6.103516e-05 1.760254e-01
6.103516e-05 1.748047e-01
6.103516e-05 1.735840e-01
6.103516e-05 1.723633e-01
6.103516e-05 1.711426e-01
6.103516e-05 1.699219e-01
6.103516e-05 1.687012e-01
6.103516e-05 1.674805e-01
6.103516e-05 1.662598e-01
6.103516e-05 1.650391e-01
6.103516e-05 1.638184e-01
6.103516e-05 1.625977e-01
6.103516e-05 1.613770e-01
6.103516e-05 1.601562e-01
6.103516e-05 1.589355e-01
6.103516e-05 1.577148e-01
6.103516e-05 1.564941e-01
6.103516e-05 1.552734e-01
6.103516e-05 1.540527e-01
6.103516e-05 1.528320e-01
6.103516e-05 1.516113e-01
6.103516e-05 1.503906e-01
6.103516e-05 1.491699e-01
6.103516e-05 1.479492e-01
6.103516e-05 1.467285e-01
6.103516e-05 1.455078e-01
6.103516e-05 1.442871e-01
6.103516e-05 1.430664e-01
6.103516e-05 1.418457e-01
6.103516e-05 1.406250e-01
6.103516e-05 1.394043e-01
6.103516e-05 1.381836e-01
6.103516e-05 1.369629e-01
6.103516e-05 1.357422e-01
6.103516e-05 1.345215e-01
6.103516e-05 1.333008e-01
6.103516e-05 1.320801e-01
6.103516e-05 1.308594e-01
6.103516e-05 1.296387e-01
6.103516e-05 1.284180e-01
6.103516e-05 1.271973e-01
6.103516e-05 1.259766e-01
6.103516e-05 1.248779e-01
6.103516e-05 1.242676e-01
6.103516e-05 1.236572e-01
6.103516e-05 1.230469e-01
6.103516e-05 1.224365e-01
6.103516e-05 1.218262e-01
6.103516e-05 1.212158e-01
6.103516e-05 1.206055e-01
6.103516e-05 1.199951e-01
6.103516e-05 1.193848e-01
6.103516e-05 1.187744e-01
6.103516e-05 1.181641e-01
6.103516e-05 1.175537e-01
6.103516e-05 1.169434e-01
6.103516e-05 1.163330e-01
6.103516e-05 1.157227e-01
6.103516e-05 1.151123e-01
6.103516e-05 1.145020e-01
6.103516e-05 1.138916e-01
6.103516e-05 1.132812e-01
6.103516e-05 1.126709e-01
6.103516e-05 1.120605e-01
6.103516e-05 1.114502e-01
6.103516e-05 1.108398e-01
6.103516e-05 1.102295e-01
6.103516e-05 1.096191e-01
6.103516e-05 1.090088e-01
6.103516e-05 1.083984e-01
6.103516e-05 1.077881e-01
6.103516e-05 1.071777e-01
6.103516e-05 1.065674e-01
6.103516e-05 1.059570e-01
6.103516e-05 1.053467e-01
6.103516e-05 1.047363e-01
6.103516e-05 1.041260e-01
6.103516e-05 1.035156e-01
6.103516e-05 1.029053e-01
6.103516e-05 1.022949e-01
6.103516e-05 1.016846e-01
6.103516e-05 1.010742e-01
6.103516e-05 1.004639e-01
6.103516e-05 9.985352e-02
6.103516e-05 9.924316e-02
6.103516e-05 9.863281e-02
6.103516e-05 9.802246e-02
6.103516e-05 9.741211e-02
6.103516e-05 9.680176e-02
6.103516e-05 9.619141e-02
6.103516e-05 9.558105e-02
6.103516e-05 9.497070e-02
6.103516e-05 9.436035e-02
6.103516e-05 9.375000e-02
6.103516e-05 9.313965e-02
6.103516e-05 9.252930e-02
6.103516e-05 9.191895e-02
6.103516e-05 9.130859e-02
6.103516e-05 9.069824e-02
6.103516e-05 9.008789e-02
6.103516e-05 8.947754e-02
6.103516e-05 8.886719e-02
6.103516e-05 8.825684e-02
6.103516e-05 8.764648e-02
6.103516e-05 8.703613e-02
6.103516e-05 8.642578e-02
6.103516e-05 8.581543e-02
6.103516e-05 8.520508e-02
6.103516e-05 8.459473e-02
6.103516e-05 8.398438e-02
6.103516e-05 8.337402e-02
6.103516e-05 8.276367e-02
6.103516e-05 8.215332e-02
6.103516e-05 8.154297e-02
6.103516e-05 8.093262e-02
6.103516e-05 8.032227e-02
6.103516e-05 7.971191e-02
6.103516e-05 7.910156e-02
6.103516e-05 7.849121e-02
6.103516e-05 7.788086e-02
6.103516e-05 7.727051e-02
6.103516e-05 7.666016e-02
6.103516e-05 7.604980e-02
6.103516e-05 7.543945e-02
6.103516e-05 7.482910e-02
6.103516e-05 7.421875e-02
6.103516e-05 7.360840e-02
6.103516e-05 7.299805e-02
6.103516e-05 7.238770e-02
6.103516e-05 7.177734e-02
6.103516e-05 7.116699e-02
6.103516e-05 7.055664e-02
6.103516e-05 6.994629e-02
6.103516e-05 6.933594e-02
6.103516e-05 6.872559e-02
6.103516e-05 6.811523e-02
6.103516e-05 6.750488e-02
6.103516e-05 6.689453e-02
6.103516e-05 6.628418e-02
6.103516e-05 6.567383e-02
6.103516e-05 6.506348e-02
6.103516e-05 6.445312e-02
6.103516e-05 6.384277e-02
6.103516e-05 6.323242e-02
6.103516e-05 6.262207e-02
6.103516e-05 6.225586e-02
6.103516e-05 6.195068e-02
6.103516e-05 6.164551e-02
6.103516e-05 6.134033e-02
6.103516e-05 6.103516e-02
6.103516e-05 6.072998e-02
6.103516e-05 6.042480e-02
6.103516e-05 6.011963e-02
6.103516e-05 5.981445e-02
6.103516e-05 5.950928e-02
6.103516e-05 5.920410e-02
6.103516e-05 5.889893e-02
6.103516e-05 5.859375e-02
6.103516e-05 5.828857e-02
6.103516e-05 5.798340e-02
6.103516e-05 5.767822e-02
6.103516e-05 5.737305e-02
6.103516e-05 5.706787e-02
6.103516e-05 5.676270e-02
6.103516e-05 5.645752e-02
6.103516e-05 5.615234e-02
6.103516e-05 5.584717e-02
6.103516e-05 5.554199e-02
6.103516e-05 5.523682e-02
6.103516e-05 5.493164e-02
6.103516e-05 5.462646e-02
6.103516e-05 5.432129e-02
6.103516e-05 5.401611e-02
6.103516e-05 5.371094e-02
6.103516e-05 5.340576e-02
6.103516e-05 5.310059e-02
6.103516e-05 5.279541e-02
6.103516e-05 5.249023e-02
6.103516e-05 5.218506e-02
6.103516e-05 5.187988e-02
6.103516e-05 5.157471e-02
6.103516e-05 5.126953e-02
6.103516e-05 5.096436e-02
6.103516e-05 5.065918e-02
6.103516e-05 5.035400e-02
6.103516e-05 5.004883e-02
6.103516e-05 4.974365e-02
6.103516e-05 4.943848e-02
6.103516e-05 4.913330e-02
6.103516e-05 4.882812e-02
6.103516e-05 4.852295e-02
6.103516e-05 4.821777e-02
6.103516e-05 4.791260e-02
6.103516e-05 4.760742e-02
6.103516e-05 4.730225e-02
6.103516e-05 4.699707e-02
6.103516e-05 4.669189e-02
6.103516e-05 4.638672e-02
6.103516e-05 4.608154e-02
6.103516e-05 4.577637e-02
6.103516e-05 4.547119e-02
6.103516e-05 4.516602e-02
6.103516e-05 4.486084e-02
6.103516e-05 4.455566e-02
6.103516e-05 4.425049e-02
6.103516e-05 4.394531e-02
6.103516e-05 4.364014e-02
6.103516e-05 4.333496e-02
6.103516e-05 4.302979e-02
6.103516e-05 4.272461e-02
6.103516e-05 4.241943e-02
6.103516e-05 4.211426e-02
6.103516e-05 4.180908e-02
6.103516e-05 4.150391e-02
6.103516e-05 4.119873e-02
6.103516e-05 4.089355e-02
6.103516e-05 4.058838e-02
6.103516e-05 4.028320e-02
6.103516e-05 3.997803e-02
6.103516e-05 3.967285e-02
6.103516e-05 3.936768e-02
6.103516e-05 3.906250e-02
6.103516e-05 3.875732e-02
6.103516e-05 3.845215e-02
6.103516e-05 3.814697e-02
6.103516e-05 3.784180e-02
6.103516e-05 3.753662e-02
6.103516e-05 3.723145e-02
6.103516e-05 3.692627e-02
6.103516e-05 3.662109e-02
6.103516e-05 3.631592e-02
6.103516e-05 3.601074e-02
6.103516e-05 3.570557e-02
6.103516e-05 3.540039e-02
6.103516e-05 3.509521e-02
6.103516e-05 3.479004e-02
6.103516e-05 3.448486e-02
6.103516e-05 3.417969e-02
6.103516e-05 3.387451e-02
6.103516e-05 3.356934e-02
6.103516e-05 3.326416e-02
6.103516e-05 3.295898e-02
6.103516e-05 3.265381e-02
6.103516e-05 3.234863e-02
6.103516e-05 3.204346e-02
6.103516e-05 3.173828e-02
6.103516e-05 3.143311e-02
6.103516e-05 3.118896e-02
6.103516e-05 3.103638e-02
6.103516e-05 3.088379e-02
6.103516e-05 3.073120e-02
6.103516e-05 3.057861e-02
6.103516e-05 3.042603e-02
6.103516e-05 3.027344e-02
6.103516e-05 3.012085e-02
6.103516e-05 2.996826e-02
6.103516e-05 2.981567e-02
6.103516e-05 2.966309e-02
6.103516e-05 2.951050e-02
6.103516e-05 2.935791e-02
6.103516e-05 2.920532e-02
6.103516e-05 2.905273e-02
6.103516e-05 2.890015e-02
6.103516e-05 2.874756e-02
6.103516e-05 2.859497e-02
6.103516e-05 2.844238e-02
6.103516e-05 2.828979e-02
6.103516e-05 2.813721e-02
6.103516e-05 2.798462e-02
6.103516e-05 2.783203e-02
6.103516e-05 2.767944e-02
6.103516e-05 2.752686e-02
6.103516e-05 2.737427e-02
6.103516e-05 2.722168e-02
6.103516e-05 2.706909e-02
6.103516e-05 2.691650e-02
6.103516e-05 2.676392e-02
6.103516e-05 2.661133e-02
6.103516e-05 2.645874e-02
6.103516e-05 2.630615e-02
6.103516e-05 2.615356e-02
6.103516e-05 2.600098e-02
6.103516e-05 2.584839e-02
6.103516e-05 2.569580e-02
6.103516e-05 2.554321e-02
6.103516e-05 2.539062e-02
6.103516e-05 2.523804e-02
