-1.670737e-01 5.491183e+00 -2.349298e+01 2.211057e+01 1.128874e-03 2.732045e-02 -3.623352e-01 4.053650e-01
-1.725015e-01 5.505188e+00 -2.349298e+01 2.211057e+01 1.141297e-03 2.732091e-02 -3.623352e-01 4.053650e-01
-1.588081e-01 5.501829e+00 -2.349298e+01 2.211057e+01 1.135019e-03 2.738573e-02 -3.623352e-01 4.053650e-01
-1.719551e-01 5.500771e+00 -2.349298e+01 2.211057e+01 1.137087e-03 2.750353e-02 -3.623352e-01 4.053650e-01
-1.635604e-01 5.484470e+00 -2.349298e+01 2.206358e+01 1.144552e-03 2.738055e-02 -3.623352e-01 4.053650e-01
-1.601710e-01 5.501114e+00 -2.349298e+01 2.211057e+01 1.157415e-03 2.744237e-02 -3.623352e-01 4.053650e-01
-1.722760e-01 5.497419e+00 -2.349298e+01 2.211057e+01 1.142351e-03 2.733973e-02 -3.623352e-01 4.053650e-01
-1.837409e-01 5.482938e+00 -2.349298e+01 2.211057e+01 1.132983e-03 2.734920e-02 -3.623352e-01 4.053650e-01
-1.734179e-01 5.508661e+00 -2.349298e+01 2.211057e+01 1.131849e-03 2.725591e-02 -3.623352e-01 4.053650e-01
-1.685439e-01 5.490354e+00 -2.349298e+01 2.211057e+01 1.136753e-03 2.718112e-02 -3.474426e-01 4.053650e-01
-1.646580e-01 5.474623e+00 -2.349298e+01 2.206358e+01 1.142798e-03 2.712594e-02 -3.623352e-01 4.053650e-01
-1.686698e-01 5.493155e+00 -2.349298e+01 2.211057e+01 1.144674e-03 2.723863e-02 -3.623352e-01 4.053650e-01
-1.657772e-01 5.499766e+00 -2.349298e+01 2.211057e+01 1.139162e-03 2.731033e-02 -3.474426e-01 4.053650e-01
-1.544174e-01 5.495078e+00 -2.349298e+01 2.211057e+01 1.139946e-03 2.727339e-02 -3.623352e-01 4.053650e-01
-1.822824e-01 5.512291e+00 -2.349298e+01 2.211057e+01 1.140323e-03 2.745717e-02 -3.623352e-01 4.053650e-01
-1.809985e-01 5.502052e+00 -2.349298e+01 2.211057e+01 1.144889e-03 2.732295e-02 -3.623352e-01 4.053650e-01
-1.831615e-01 5.501785e+00 -2.349298e+01 2.211057e+01 1.147846e-03 2.750881e-02 -3.623352e-01 4.053650e-01
-1.683962e-01 5.489261e+00 -2.349298e+01 2.211057e+01 1.143766e-03 2.730928e-02 -3.623352e-01 4.053650e-01
-1.574895e-01 5.510057e+00 -2.349298e+01 2.211057e+01 1.151358e-03 2.737617e-02 -3.623352e-01 4.053650e-01
-1.784930e-01 5.486587e+00 -2.349298e+01 2.211057e+01 1.146124e-03 2.750437e-02 -3.623352e-01 4.053650e-01
-1.630381e-01 5.485459e+00 -2.349298e+01 2.211057e+01 1.144441e-03 2.738113e-02 -3.623352e-01 4.053650e-01
-1.634979e-01 5.490478e+00 -2.349298e+01 2.211057e+01 1.138380e-03 2.723011e-02 -3.623352e-01 4.053650e-01
-1.886837e-01 5.501359e+00 -2.349298e+01 2.211057e+01 1.140444e-03 2.740270e-02 -3.623352e-01 4.053650e-01
-1.710522e-01 5.481187e+00 -2.349298e+01 2.211057e+01 1.151631e-03 2.739257e-02 -3.623352e-01 4.053650e-01
-1.722144e-01 5.513044e+00 -2.349298e+01 2.211057e+01 1.143288e-03 2.729441e-02 -3.623352e-01 4.053650e-01
-1.641648e-01 5.507135e+00 -2.349298e+01 2.211057e+01 1.144428e-03 2.729041e-02 -3.623352e-01 4.053650e-01
-1.498799e-01 5.490657e+00 -2.349298e+01 2.211057e+01 1.156296e-03 2.751315e-02 -3.623352e-01 4.053650e-01
-1.551839e-01 5.497721e+00 -2.349298e+01 2.211057e+01 1.148419e-03 2.744860e-02 -3.623352e-01 4.053650e-01
-1.808058e-01 5.485792e+00 -2.349298e+01 2.211057e+01 1.146558e-03 2.747980e-02 -3.623352e-01 4.053650e-01
-1.685502e-01 5.483756e+00 -2.349298e+01 2.211057e+01 1.140063e-03 2.733380e-02 -3.623352e-01 4.053650e-01
-1.582137e-01 5.501760e+00 -2.349298e+01 2.211057e+01 1.144390e-03 2.739523e-02 -3.623352e-01 4.053650e-01
-1.623732e-01 5.500846e+00 -2.349298e+01 2.211057e+01 1.138570e-03 2.734555e-02 -3.623352e-01 4.053650e-01
-1.729246e-01 5.503873e+00 -2.349298e+01 2.211057e+01 1.133948e-03 2.740210e-02 -3.623352e-01 4.053650e-01
-1.582079e-01 5.489720e+00 -2.349298e+01 2.211057e+01 1.140393e-03 2.738548e-02 -3.623352e-01 4.053650e-01
-1.767464e-01 5.503206e+00 -2.349298e+01 2.211057e+01 1.131989e-03 2.725120e-02 -3.623352e-01 4.053650e-01
-1.710581e-01 5.496903e+00 -2.349298e+01 2.211057e+01 1.138267e-03 2.728237e-02 -3.623352e-01 4.053650e-01
-1.674737e-01 5.505474e+00 -2.349298e+01 2.211057e+01 1.144463e-03 2.741856e-02 -3.623352e-01 4.053650e-01
-1.702189e-01 5.492742e+00 -2.349298e+01 2.211057e+01 1.139305e-03 2.750824e-02 -3.623352e-01 4.053650e-01
-1.696971e-01 5.497461e+00 -2.349298e+01 2.211057e+01 1.138715e-03 2.742621e-02 -3.623352e-01 4.053650e-01
-1.689318e-01 5.494012e+00 -2.349298e+01 2.211057e+01 1.145603e-03 2.757118e-02 -3.623352e-01 4.053650e-01
-1.981203e-01 5.496706e+00 -2.349298e+01 2.211057e+01 1.143854e-03 2.744564e-02 -3.474426e-01 4.053650e-01
-1.630705e-01 5.500789e+00 -2.349298e+01 2.211057e+01 1.134345e-03 2.725920e-02 -3.623352e-01 4.053650e-01
-1.728543e-01 5.503790e+00 -2.349298e+01 2.211057e+01 1.142752e-03 2.734097e-02 -3.623352e-01 4.053650e-01
-1.591558e-01 5.496708e+00 -2.349298e+01 2.211057e+01 1.138727e-03 2.720989e-02 -3.623352e-01 4.053650e-01
-1.736400e-01 5.488563e+00 -2.349298e+01 2.211057e+01 1.143297e-03 2.732958e-02 -3.623352e-01 4.053650e-01
-1.820040e-01 5.515001e+00 -2.349298e+01 2.211057e+01 1.140014e-03 2.739098e-02 -3.474426e-01 4.053650e-01
-1.772489e-01 5.487126e+00 -2.349298e+01 2.211057e+01 1.127911e-03 2.720750e-02 -3.623352e-01 4.053650e-01
-1.568896e-01 5.511698e+00 -2.349298e+01 2.211057e+01 1.142683e-03 2.734284e-02 -3.623352e-01 4.053650e-01
-1.596999e-01 5.486333e+00 -2.349298e+01 2.211057e+01 1.145812e-03 2.733989e-02 -3.623352e-01 4.053650e-01
-1.672693e-01 5.491742e+00 -2.349298e+01 2.211057e+01 1.146371e-03 2.752196e-02 -3.623352e-01 4.053650e-01
-1.838292e-01 5.497713e+00 -2.284596e+01 2.211057e+01 1.136148e-03 2.733193e-02 -3.623352e-01 4.053650e-01
-1.834880e-01 5.485539e+00 -2.349298e+01 2.211057e+01 1.134331e-03 2.726564e-02 -3.474426e-01 4.053650e-01
-1.663703e-01 5.498583e+00 -2.349298e+01 2.211057e+01 1.161732e-03 2.750611e-02 -3.623352e-01 4.053650e-01
-1.690026e-01 5.484682e+00 -2.349298e+01 2.211057e+01 1.138407e-03 2.735442e-02 -3.623352e-01 4.053650e-01
-1.463889e-01 5.499575e+00 -2.349298e+01 2.211057e+01 1.148209e-03 2.725570e-02 -3.474426e-01 4.053650e-01
-1.649428e-01 5.496471e+00 -2.349298e+01 2.211057e+01 1.155213e-03 2.742609e-02 -3.623352e-01 4.053650e-01
-1.636002e-01 5.501039e+00 -2.349298e+01 2.211057e+01 1.142031e-03 2.755295e-02 -3.623352e-01 4.053650e-01
-1.641819e-01 5.494857e+00 -2.349298e+01 2.211057e+01 1.138529e-03 2.729184e-02 -3.623352e-01 4.053650e-01
-1.596451e-01 5.500212e+00 -2.349298e+01 2.211057e+01 1.142721e-03 2.739654e-02 -3.623352e-01 4.053650e-01
-1.653802e-01 5.498724e+00 -2.349298e+01 2.211057e+01 1.146882e-03 2.738973e-02 -3.623352e-01 4.053650e-01
-1.792097e-01 5.492176e+00 -2.349298e+01 2.211057e+01 1.141492e-03 2.733782e-02 -3.623352e-01 4.053650e-01
-1.742195e-01 5.501351e+00 -2.349298e+01 2.211057e+01 1.139416e-03 2.737905e-02 -3.623352e-01 4.053650e-01
-1.835751e-01 5.495799e+00 -2.349298e+01 2.211057e+01 1.137588e-03 2.724986e-02 -3.623352e-01 4.053650e-01
-1.906313e-01 5.495529e+00 -2.349298e+01 2.211057e+01 1.135297e-03 2.727725e-02 -3.623352e-01 4.053650e-01
-1.819967e-01 5.486064e+00 -2.349298e+01 2.211057e+01 1.137370e-03 2.737098e-02 -3.623352e-01 4.053650e-01
-1.873078e-01 5.490435e+00 -2.284596e+01 2.211057e+01 1.131637e-03 2.737333e-02 -3.623352e-01 4.053650e-01
-1.855368e-01 5.498807e+00 -2.349298e+01 2.211057e+01 1.138078e-03 2.742616e-02 -3.623352e-01 4.053650e-01
-1.605139e-01 5.497552e+00 -2.349298e+01 2.211057e+01 1.143453e-03 2.711754e-02 -3.623352e-01 4.053650e-01
-1.723218e-01 5.495499e+00 -2.284596e+01 2.211057e+01 1.131909e-03 2.725094e-02 -3.623352e-01 4.053650e-01
-1.718561e-01 5.496385e+00 -2.349298e+01 2.211057e+01 1.129893e-03 2.739381e-02 -3.623352e-01 4.053650e-01
-1.722041e-01 5.504874e+00 -2.349298e+01 2.211057e+01 1.141278e-03 2.729689e-02 -3.623352e-01 4.053650e-01
-1.706205e-01 5.488398e+00 -2.349298e+01 2.211057e+01 1.137427e-03 2.728202e-02 -3.623352e-01 4.053650e-01
-1.666820e-01 5.490126e+00 -2.349298e+01 2.211057e+01 1.136249e-03 2.731281e-02 -3.623352e-01 4.053650e-01
-1.722766e-01 5.494581e+00 -2.349298e+01 2.211057e+01 1.130909e-03 2.740271e-02 -3.623352e-01 4.053650e-01
-1.683107e-01 5.484002e+00 -2.349298e+01 2.211057e+01 1.140524e-03 2.738848e-02 -3.623352e-01 4.053650e-01
-1.496655e-01 5.499210e+00 -2.349298e+01 2.211057e+01 1.147126e-03 2.726225e-02 -3.623352e-01 4.053650e-01
-1.708346e-01 5.500064e+00 -2.349298e+01 2.211057e+01 1.145746e-03 2.740910e-02 -3.623352e-01 4.053650e-01
-1.937182e-01 5.479241e+00 -2.349298e+01 2.211057e+01 1.147186e-03 2.742835e-02 -3.623352e-01 4.053650e-01
-1.618478e-01 5.488130e+00 -2.349298e+01 2.211057e+01 1.148212e-03 2.724000e-02 -3.623352e-01 4.053650e-01
-1.715668e-01 5.487563e+00 -2.349298e+01 2.211057e+01 1.144716e-03 2.729007e-02 -3.623352e-01 4.053650e-01
-1.861372e-01 5.480401e+00 -2.349298e+01 2.211057e+01 1.136847e-03 2.744335e-02 -3.623352e-01 4.053650e-01
-1.698413e-01 5.494272e+00 -2.349298e+01 2.211057e+01 1.150932e-03 2.750371e-02 -3.623352e-01 4.053650e-01
-1.825309e-01 5.482910e+00 -2.349298e+01 2.211057e+01 1.139788e-03 2.729243e-02 -3.623352e-01 4.053650e-01
-1.784230e-01 5.494446e+00 -2.349298e+01 2.206358e+01 1.142970e-03 2.734105e-02 -3.623352e-01 4.053650e-01
-1.754562e-01 5.495900e+00 -2.349298e+01 2.211057e+01 1.136135e-03 2.728013e-02 -3.623352e-01 4.053650e-01
-1.519955e-01 5.500120e+00 -2.349298e+01 2.211057e+01 1.137199e-03 2.739794e-02 -3.623352e-01 4.053650e-01
-1.791878e-01 5.486520e+00 -2.349298e+01 2.211057e+01 1.160119e-03 2.738485e-02 -3.623352e-01 4.053650e-01
-1.912087e-01 5.491401e+00 -2.284596e+01 2.211057e+01 1.148547e-03 2.723699e-02 -3.623352e-01 4.053650e-01
-1.742316e-01 5.499570e+00 -2.239761e+01 2.211057e+01 1.138615e-03 2.743025e-02 -3.623352e-01 4.053650e-01
-1.730728e-01 5.504896e+00 -2.349298e+01 2.211057e+01 1.139766e-03 2.742197e-02 -3.623352e-01 4.053650e-01
-1.651693e-01 5.488976e+00 -2.349298e+01 2.211057e+01 1.148056e-03 2.744614e-02 -3.623352e-01 4.053650e-01
-1.721857e-01 5.504849e+00 -2.349298e+01 2.211057e+01 1.144560e-03 2.735370e-02 -3.623352e-01 4.053650e-01
-1.656693e-01 5.506046e+00 -2.349298e+01 2.211057e+01 1.139566e-03 2.725788e-02 -3.623352e-01 4.053650e-01
-1.607761e-01 5.505861e+00 -2.349298e+01 2.211057e+01 1.128048e-03 2.732693e-02 -3.623352e-01 4.053650e-01
-1.738358e-01 5.474574e+00 -2.349298e+01 2.211057e+01 1.145044e-03 2.741368e-02 -3.623352e-01 4.053650e-01
-1.563635e-01 5.505703e+00 -2.349298e+01 2.211057e+01 1.140140e-03 2.735332e-02 -3.623352e-01 4.053650e-01
-1.834233e-01 5.490748e+00 -2.349298e+01 2.211057e+01 1.141273e-03 2.739660e-02 -3.474426e-01 4.053650e-01
-1.659361e-01 5.492398e+00 -2.349298e+01 2.211057e+01 1.137412e-03 2.723291e-02 -3.623352e-01 4.053650e-01
-1.618273e-01 5.494885e+00 -2.349298e+01 2.211057e+01 1.147691e-03 2.733462e-02 -3.623352e-01 4.053650e-01
-1.854210e-01 5.518026e+00 -2.349298e+01 2.211057e+01 1.133150e-03 2.725614e-02 -3.623352e-01 4.053650e-01
