4.688227e+02 6.322418e-01 -1.704743e-02 5.771023e-01 -9.994354e-01 9.967194e-01
4.688227e+02 6.322418e-01 -1.704743e-02 5.771023e-01 -9.994354e-01 9.967194e-01
4.688227e+02 6.322418e-01 -1.704743e-02 5.771023e-01 -9.994354e-01 9.967194e-01
4.688227e+02 6.322418e-01 -1.704743e-02 5.771023e-01 -9.994354e-01 9.967194e-01
4.688227e+02 6.322418e-01 -1.704743e-02 5.771023e-01 -9.994354e-01 9.967194e-01
4.688227e+02 6.322418e-01 -1.704743e-02 5.771023e-01 -9.994354e-01 9.967194e-01
4.688227e+02 6.322418e-01 -1.704743e-02 5.771023e-01 -9.994354e-01 9.967194e-01
4.688227e+02 6.322418e-01 -1.704743e-02 5.771023e-01 -9.994354e-01 9.967194e-01
4.688227e+02 6.322418e-01 -1.704743e-02 5.771023e-01 -9.994354e-01 9.967194e-01
4.688227e+02 6.322418e-01 -1.704743e-02 5.771023e-01 -9.994354e-01 9.967194e-01
4.688227e+02 6.322418e-01 -1.704743e-02 5.771023e-01 -9.994354e-01 9.967194e-01
4.688227e+02 6.322418e-01 -1.704743e-02 5.771023e-01 -9.994354e-01 9.967194e-01
4.688227e+02 6.322418e-01 -1.704743e-02 5.771023e-01 -9.994354e-01 9.967194e-01
4.688227e+02 6.322418e-01 -1.704743e-02 5.771023e-01 -9.994354e-01 9.967194e-01
4.688227e+02 6.322418e-01 -1.704743e-02 5.771023e-01 -9.994354e-01 9.967194e-01
4.688227e+02 6.322418e-01 -1.704743e-02 5.771023e-01 -9.994354e-01 9.967194e-01
4.688227e+02 6.322418e-01 -1.704743e-02 5.771023e-01 -9.994354e-01 9.967194e-01
4.688227e+02 6.322418e-01 -1.704743e-02 5.771023e-01 -9.994354e-01 9.967194e-01
4.688227e+02 6.322418e-01 -1.704743e-02 5.771023e-01 -9.994354e-01 9.967194e-01
4.688227e+02 6.322418e-01 -1.704743e-02 5.771023e-01 -9.994354e-01 9.967194e-01
4.688227e+02 6.322418e-01 -1.704743e-02 5.771023e-01 -9.994354e-01 9.967194e-01
4.688227e+02 6.322418e-01 -1.704743e-02 5.771023e-01 -9.994354e-01 9.967194e-01
4.688227e+02 6.322418e-01 -1.704743e-02 5.771023e-01 -9.994354e-01 9.967194e-01
4.688227e+02 6.322418e-01 -1.704743e-02 5.771023e-01 -9.994354e-01 9.967194e-01
4.688227e+02 6.322418e-01 -1.704743e-02 5.771023e-01 -9.994354e-01 9.967194e-01
4.688227e+02 6.322418e-01 -1.704743e-02 5.771023e-01 -9.994354e-01 9.967194e-01
4.688227e+02 6.322418e-01 -1.704743e-02 5.771023e-01 -9.994354e-01 9.967194e-01
4.688227e+02 6.322418e-01 -1.704743e-02 5.771023e-01 -9.994354e-01 9.967194e-01
4.688227e+02 6.322418e-01 -1.704743e-02 5.771023e-01 -9.994354e-01 9.967194e-01
4.688227e+02 6.322418e-01 -1.704743e-02 5.771023e-01 -9.994354e-01 9.967194e-01
4.688227e+02 6.322418e-01 -1.704743e-02 5.771023e-01 -9.994354e-01 9.967194e-01
4.688227e+02 6.322418e-01 -1.704743e-02 5.771023e-01 -9.994354e-01 9.967194e-01
4.688227e+02 6.322418e-01 -1.704743e-02 5.771023e-01 -9.994354e-01 9.967194e-01
4.688227e+02 6.322418e-01 -1.704743e-02 5.771023e-01 -9.994354e-01 9.967194e-01
4.688227e+02 6.322418e-01 -1.704743e-02 5.771023e-01 -9.994354e-01 9.967194e-01
4.688227e+02 6.322418e-01 -1.704743e-02 5.771023e-01 -9.994354e-01 9.967194e-01
4.688227e+02 6.322418e-01 -1.704743e-02 5.771023e-01 -9.994354e-01 9.967194e-01
4.688227e+02 6.322418e-01 -1.704743e-02 5.771023e-01 -9.994354e-01 9.967194e-01
4.688227e+02 6.322418e-01 -1.704743e-02 5.771023e-01 -9.994354e-01 9.967194e-01
4.688227e+02 6.322418e-01 -1.704743e-02 5.771023e-01 -9.994354e-01 9.967194e-01
4.688227e+02 6.322418e-01 -1.704743e-02 5.771023e-01 -9.994354e-01 9.967194e-01
4.688227e+02 6.322418e-01 -1.704743e-02 5.771023e-01 -9.994354e-01 9.967194e-01
4.688227e+02 6.322418e-01 -1.704743e-02 5.771023e-01 -9.994354e-01 9.967194e-01
4.688227e+02 6.322418e-01 -1.704743e-02 5.771023e-01 -9.994354e-01 9.967194e-01
4.688227e+02 6.322418e-01 -1.704743e-02 5.771023e-01 -9.994354e-01 9.967194e-01
4.688227e+02 6.322418e-01 -1.704743e-02 5.771023e-01 -9.994354e-01 9.967194e-01
4.688227e+02 6.322418e-01 -1.704743e-02 5.771023e-01 -9.994354e-01 9.967194e-01
4.688227e+02 6.322418e-01 -1.704743e-02 5.771023e-01 -9.994354e-01 9.967194e-01
4.688227e+02 6.322418e-01 -1.704743e-02 5.771023e-01 -9.994354e-01 9.967194e-01
4.688227e+02 6.322418e-01 -1.704743e-02 5.771023e-01 -9.994354e-01 9.967194e-01
4.688227e+02 6.322418e-01 -1.704743e-02 5.771023e-01 -9.994354e-01 9.967194e-01
4.688227e+02 6.322418e-01 -1.704743e-02 5.771023e-01 -9.994354e-01 9.967194e-01
4.688227e+02 6.322418e-01 -1.704743e-02 5.771023e-01 -9.994354e-01 9.967194e-01
4.688227e+02 6.322418e-01 -1.704743e-02 5.771023e-01 -9.994354e-01 9.967194e-01
4.688227e+02 6.322418e-01 -1.704743e-02 5.771023e-01 -9.994354e-01 9.967194e-01
4.688227e+02 6.322418e-01 -1.704743e-02 5.771023e-01 -9.994354e-01 9.967194e-01
4.688227e+02 6.322418e-01 -1.704743e-02 5.771023e-01 -9.994354e-01 9.967194e-01
4.688227e+02 6.322418e-01 -1.704743e-02 5.771023e-01 -9.994354e-01 9.967194e-01
4.688227e+02 6.322418e-01 -1.704743e-02 5.771023e-01 -9.994354e-01 9.967194e-01
4.688227e+02 6.322418e-01 -1.704743e-02 5.771023e-01 -9.994354e-01 9.967194e-01
4.688227e+02 6.322418e-01 -1.704743e-02 5.771023e-01 -9.994354e-01 9.967194e-01
4.688227e+02 6.322418e-01 -1.704743e-02 5.771023e-01 -9.994354e-01 9.967194e-01
4.688227e+02 6.322418e-01 -1.704743e-02 5.771023e-01 -9.994354e-01 9.967194e-01
4.688227e+02 6.322418e-01 -1.704743e-02 5.771023e-01 -9.994354e-01 9.967194e-01
4.688227e+02 6.322418e-01 -1.704743e-02 5.771023e-01 -9.994354e-01 9.967194e-01
4.688227e+02 6.322418e-01 -1.704743e-02 5.771023e-01 -9.994354e-01 9.967194e-01
4.688227e+02 6.322418e-01 -1.704743e-02 5.771023e-01 -9.994354e-01 9.967194e-01
4.688227e+02 6.322418e-01 -1.704743e-02 5.771023e-01 -9.994354e-01 9.967194e-01
4.688227e+02 6.322418e-01 -1.704743e-02 5.771023e-01 -9.994354e-01 9.967194e-01
4.688227e+02 6.322418e-01 -1.704743e-02 5.771023e-01 -9.994354e-01 9.967194e-01
4.688227e+02 6.322418e-01 -1.704743e-02 5.771023e-01 -9.994354e-01 9.967194e-01
4.688227e+02 6.322418e-01 -1.704743e-02 5.771023e-01 -9.994354e-01 9.967194e-01
4.688227e+02 6.322418e-01 -1.704743e-02 5.771023e-01 -9.994354e-01 9.967194e-01
4.688227e+02 6.322418e-01 -1.704743e-02 5.771023e-01 -9.994354e-01 9.967194e-01
4.688227e+02 6.322418e-01 -1.704743e-02 5.771023e-01 -9.994354e-01 9.967194e-01
4.688227e+02 6.322418e-01 -1.704743e-02 5.771023e-01 -9.994354e-01 9.967194e-01
4.688227e+02 6.322418e-01 -1.704743e-02 5.771023e-01 -9.994354e-01 9.967194e-01
4.688227e+02 6.322418e-01 -1.704743e-02 5.771023e-01 -9.994354e-01 9.967194e-01
4.688227e+02 6.322418e-01 -1.704743e-02 5.771023e-01 -9.994354e-01 9.967194e-01
4.688227e+02 6.322418e-01 -1.704743e-02 5.771023e-01 -9.994354e-01 9.967194e-01
4.688227e+02 6.322418e-01 -1.704743e-02 5.771023e-01 -9.994354e-01 9.967194e-01
4.688227e+02 6.322418e-01 -1.704743e-02 5.771023e-01 -9.994354e-01 9.967194e-01
4.688227e+02 6.322418e-01 -1.704743e-02 5.771023e-01 -9.994354e-01 9.967194e-01
4.688227e+02 6.322418e-01 -1.704743e-02 5.771023e-01 -9.994354e-01 9.967194e-01
4.688227e+02 6.322418e-01 -1.704743e-02 5.771023e-01 -9.994354e-01 9.967194e-01
4.688227e+02 6.322418e-01 -1.704743e-02 5.771023e-01 -9.994354e-01 9.967194e-01
4.688227e+02 6.322418e-01 -1.704743e-02 5.771023e-01 -9.994354e-01 9.967194e-01
4.688227e+02 6.322418e-01 -1.704743e-02 5.771023e-01 -9.994354e-01 9.967194e-01
4.688227e+02 6.322418e-01 -1.704743e-02 5.771023e-01 -9.994354e-01 9.967194e-01
4.688227e+02 6.322418e-01 -1.704743e-02 5.771023e-01 -9.994354e-01 9.967194e-01
4.688227e+02 6.322418e-01 -1.704743e-02 5.771023e-01 -9.994354e-01 9.967194e-01
4.688227e+02 6.322418e-01 -1.704743e-02 5.771023e-01 -9.994354e-01 9.967194e-01
4.688227e+02 6.322418e-01 -1.704743e-02 5.771023e-01 -9.994354e-01 9.967194e-01
4.688227e+02 6.322418e-01 -1.704743e-02 5.771023e-01 -9.994354e-01 9.967194e-01
4.688227e+02 6.322418e-01 -1.704743e-02 5.771023e-01 -9.994354e-01 9.967194e-01
4.688227e+02 6.322418e-01 -1.704743e-02 5.771023e-01 -9.994354e-01 9.967194e-01
4.688227e+02 6.322418e-01 -1.704743e-02 5.771023e-01 -9.994354e-01 9.967194e-01
4.688227e+02 6.322418e-01 -1.704743e-02 5.771023e-01 -9.994354e-01 9.967194e-01
4.688227e+02 6.322418e-01 -1.704743e-02 5.771023e-01 -9.994354e-01 9.967194e-01
4.688227e+02 6.322418e-01 -1.704743e-02 5.771023e-01 -9.994354e-01 9.967194e-01
4.688227e+02 6.322418e-01 -1.704743e-02 5.771023e-01 -9.994354e-01 9.967194e-01
