8.999939e-01 9.989929e-01
4.923248e-01 8.067932e-01
2.673340e-01 7.611847e-01
1.447449e-01 7.503510e-01
7.936096e-02 6.626740e-01
4.466248e-02 6.320343e-01
2.497864e-02 6.247559e-01
1.428223e-02 5.755463e-01
7.919312e-03 5.638733e-01
4.409790e-03 5.430908e-01
2.441406e-03 5.324249e-01
1.388550e-03 5.208893e-01
7.781982e-04 5.152893e-01
4.425049e-04 5.080261e-01
2.288818e-04 5.036316e-01
1.373291e-04 5.002594e-01
6.103516e-05 4.134369e-01
6.103516e-05 3.829803e-01
6.103516e-05 3.757477e-01
6.103516e-05 3.380432e-01
6.103516e-05 3.176117e-01
6.103516e-05 3.127594e-01
6.103516e-05 2.903290e-01
6.103516e-05 2.825317e-01
6.103516e-05 2.738647e-01
6.103516e-05 2.667694e-01
6.103516e-05 2.616730e-01
6.103516e-05 2.579346e-01
6.103516e-05 2.543793e-01
6.103516e-05 2.521057e-01
6.103516e-05 2.504272e-01
6.103516e-05 2.133636e-01
6.103516e-05 1.930695e-01
6.103516e-05 1.882324e-01
6.103516e-05 1.734924e-01
6.103516e-05 1.598511e-01
6.103516e-05 1.566315e-01
6.103516e-05 1.468658e-01
6.103516e-05 1.416626e-01
6.103516e-05 1.384888e-01
6.103516e-05 1.337585e-01
6.103516e-05 1.316528e-01
6.103516e-05 1.291504e-01
6.103516e-05 1.274414e-01
6.103516e-05 1.262665e-01
6.103516e-05 1.253662e-01
6.103516e-05 1.111298e-01
6.103516e-05 9.757996e-02
6.103516e-05 9.436035e-02
6.103516e-05 8.972168e-02
6.103516e-05 8.064270e-02
6.103516e-05 7.847595e-02
6.103516e-05 7.456970e-02
6.103516e-05 7.110596e-02
6.103516e-05 7.028198e-02
6.103516e-05 6.712341e-02
6.103516e-05 6.637573e-02
6.103516e-05 6.471252e-02
6.103516e-05 6.388855e-02
6.103516e-05 6.326294e-02
6.103516e-05 6.274414e-02
6.103516e-05 5.851746e-02
6.103516e-05 4.949951e-02
6.103516e-05 4.734802e-02
6.103516e-05 4.684448e-02
6.103516e-05 4.078674e-02
6.103516e-05 3.935242e-02
6.103516e-05 3.804016e-02
6.103516e-05 3.572083e-02
6.103516e-05 3.517151e-02
6.103516e-05 3.372192e-02
6.103516e-05 3.323364e-02
6.103516e-05 3.244019e-02
6.103516e-05 3.205872e-02
6.103516e-05 3.172302e-02
6.103516e-05 3.141785e-02
6.103516e-05 3.123474e-02
6.103516e-05 2.520752e-02
6.103516e-05 2.377319e-02
6.103516e-05 2.345276e-02
6.103516e-05 2.070618e-02
6.103516e-05 1.974487e-02
6.103516e-05 1.951599e-02
6.103516e-05 1.799011e-02
6.103516e-05 1.762390e-02
6.103516e-05 1.710510e-02
6.103516e-05 1.667786e-02
6.103516e-05 1.644897e-02
6.103516e-05 1.612854e-02
6.103516e-05 1.591492e-02
6.103516e-05 1.577759e-02
6.103516e-05 1.567078e-02
6.103516e-05 1.461792e-02
6.103516e-05 1.237488e-02
6.103516e-05 1.182556e-02
6.103516e-05 1.170349e-02
6.103516e-05 1.020813e-02
6.103516e-05 9.841919e-03
6.103516e-05 9.750366e-03
6.103516e-05 9.002686e-03
6.103516e-05 8.819580e-03
6.103516e-05 8.560181e-03
6.103516e-05 8.331299e-03
6.103516e-05 8.178711e-03
6.103516e-05 8.056641e-03
6.103516e-05 7.949829e-03
6.103516e-05 7.873535e-03
6.103516e-05 7.797241e-03
6.103516e-05 6.301880e-03
6.103516e-05 5.950928e-03
6.103516e-05 5.859375e-03
6.103516e-05 5.859375e-03
6.103516e-05 5.859375e-03
6.103516e-05 5.859375e-03
6.103516e-05 5.859375e-03
6.103516e-05 5.859375e-03
6.103516e-05 5.859375e-03
6.103516e-05 5.859375e-03
6.103516e-05 5.859375e-03
6.103516e-05 5.859375e-03
6.103516e-05 5.859375e-03
6.103516e-05 5.859375e-03
6.103516e-05 5.859375e-03
6.103516e-05 5.859375e-03
6.103516e-05 5.859375e-03
6.103516e-05 5.859375e-03
6.103516e-05 5.859375e-03
6.103516e-05 5.859375e-03
6.103516e-05 5.859375e-03
6.103516e-05 5.859375e-03
6.103516e-05 5.859375e-03
6.103516e-05 5.859375e-03
6.103516e-05 5.859375e-03
6.103516e-05 5.859375e-03
6.103516e-05 5.859375e-03
6.103516e-05 5.859375e-03
6.103516e-05 5.859375e-03
6.103516e-05 5.859375e-03
6.103516e-05 5.859375e-03
6.103516e-05 5.859375e-03
6.103516e-05 5.859375e-03
6.103516e-05 5.859375e-03
6.103516e-05 5.859375e-03
6.103516e-05 5.859375e-03
6.103516e-05 5.859375e-03
6.103516e-05 5.859375e-03
6.103516e-05 5.859375e-03
6.103516e-05 5.859375e-03
6.103516e-05 5.859375e-03
6.103516e-05 5.859375e-03
6.103516e-05 5.859375e-03
6.103516e-05 5.859375e-03
6.103516e-05 5.859375e-03
6.103516e-05 5.859375e-03
6.103516e-05 5.859375e-03
6.103516e-05 5.859375e-03
6.103516e-05 5.859375e-03
6.103516e-05 5.859375e-03
6.103516e-05 5.859375e-03
6.103516e-05 5.859375e-03
6.103516e-05 5.859375e-03
6.103516e-05 5.859375e-03
6.103516e-05 5.859375e-03
6.103516e-05 5.859375e-03
6.103516e-05 5.859375e-03
6.103516e-05 5.859375e-03
6.103516e-05 5.859375e-03
6.103516e-05 5.859375e-03
6.103516e-05 5.859375e-03
6.103516e-05 5.859375e-03
6.103516e-05 5.859375e-03
6.103516e-05 5.859375e-03
6.103516e-05 5.859375e-03
6.103516e-05 5.859375e-03
6.103516e-05 5.859375e-03
6.103516e-05 5.859375e-03
6.103516e-05 5.859375e-03
6.103516e-05 5.859375e-03
6.103516e-05 5.859375e-03
6.103516e-05 5.859375e-03
6.103516e-05 5.859375e-03
6.103516e-05 5.859375e-03
6.103516e-05 5.859375e-03
6.103516e-05 5.859375e-03
6.103516e-05 5.859375e-03
6.103516e-05 5.859375e-03
6.103516e-05 5.859375e-03
6.103516e-05 5.859375e-03
6.103516e-05 5.859375e-03
6.103516e-05 5.859375e-03
6.103516e-05 5.859375e-03
6.103516e-05 5.859375e-03
6.103516e-05 5.859375e-03
6.103516e-05 5.859375e-03
6.103516e-05 5.859375e-03
6.103516e-05 5.859375e-03
6.103516e-05 5.859375e-03
6.103516e-05 5.859375e-03
6.103516e-05 5.859375e-03
6.103516e-05 5.859375e-03
6.103516e-05 5.859375e-03
6.103516e-05 5.859375e-03
6.103516e-05 5.859375e-03
6.103516e-05 5.859375e-03
6.103516e-05 5.859375e-03
6.103516e-05 5.859375e-03
6.103516e-05 5.859375e-03
6.103516e-05 5.859375e-03
6.103516e-05 5.859375e-03
6.103516e-05 5.859375e-03
6.103516e-05 5.859375e-03
6.103516e-05 5.859375e-03
6.103516e-05 5.859375e-03
6.103516e-05 5.859375e-03
6.103516e-05 5.859375e-03
6.103516e-05 5.859375e-03
6.103516e-05 5.859375e-03
6.103516e-05 5.859375e-03
6.103516e-05 5.859375e-03
6.103516e-05 5.859375e-03
6.103516e-05 5.859375e-03
6.103516e-05 5.859375e-03
6.103516e-05 5.859375e-03
6.103516e-05 5.859375e-03
6.103516e-05 5.859375e-03
6.103516e-05 5.859375e-03
6.103516e-05 5.859375e-03
6.103516e-05 5.859375e-03
6.103516e-05 5.859375e-03
6.103516e-05 5.859375e-03
6.103516e-05 5.859375e-03
6.103516e-05 5.859375e-03
6.103516e-05 5.859375e-03
6.103516e-05 5.859375e-03
6.103516e-05 5.859375e-03
6.103516e-05 5.859375e-03
6.103516e-05 5.859375e-03
6.103516e-05 5.859375e-03
6.103516e-05 5.859375e-03
6.103516e-05 5.859375e-03
6.103516e-05 5.859375e-03
6.103516e-05 5.859375e-03
6.103516e-05 5.859375e-03
6.103516e-05 5.859375e-03
6.103516e-05 5.859375e-03
6.103516e-05 5.859375e-03
6.103516e-05 5.859375e-03
6.103516e-05 5.859375e-03
6.103516e-05 5.859375e-03
6.103516e-05 5.859375e-03
6.103516e-05 5.859375e-03
6.103516e-05 5.859375e-03
6.103516e-05 5.859375e-03
6.103516e-05 5.859375e-03
6.103516e-05 5.859375e-03
6.103516e-05 5.859375e-03
6.103516e-05 5.859375e-03
6.103516e-05 5.859375e-03
6.103516e-05 5.859375e-03
6.103516e-05 5.859375e-03
6.103516e-05 5.859375e-03
6.103516e-05 5.859375e-03
6.103516e-05 5.859375e-03
6.103516e-05 5.859375e-03
6.103516e-05 5.859375e-03
6.103516e-05 5.859375e-03
6.103516e-05 5.859375e-03
6.103516e-05 5.859375e-03
6.103516e-05 5.859375e-03
6.103516e-05 5.859375e-03
6.103516e-05 5.859375e-03
6.103516e-05 5.859375e-03
6.103516e-05 5.859375e-03
6.103516e-05 5.859375e-03
6.103516e-05 5.859375e-03
6.103516e-05 5.859375e-03
6.103516e-05 5.859375e-03
6.103516e-05 5.859375e-03
6.103516e-05 5.859375e-03
6.103516e-05 5.859375e-03
6.103516e-05 5.859375e-03
6.103516e-05 5.859375e-03
6.103516e-05 5.859375e-03
6.103516e-05 5.859375e-03
6.103516e-05 5.859375e-03
6.103516e-05 5.859375e-03
6.103516e-05 5.859375e-03
6.103516e-05 5.859375e-03
6.103516e-05 5.859375e-03
6.103516e-05 5.859375e-03
6.103516e-05 5.859375e-03
6.103516e-05 5.859375e-03
6.103516e-05 5.859375e-03
6.103516e-05 5.859375e-03
6.103516e-05 5.859375e-03
6.103516e-05 5.859375e-03
6.103516e-05 5.859375e-03
6.103516e-05 5.859375e-03
6.103516e-05 5.859375e-03
