9.277167e+01 5.782609e-01 -3.213258e-02 5.666157e-01 -9.990705e-01 9.969887e-01
7.263037e+01 4.217391e-01 -2.952941e-02 5.654793e-01 -1.009554e+00 9.971308e-01
7.223910e+01 4.217391e-01 -2.924034e-02 5.652417e-01 -1.009281e+00 9.971600e-01
7.161536e+01 4.217391e-01 -2.762176e-02 5.649298e-01 -1.025502e+00 1.004482e+00
7.151226e+01 4.217391e-01 -2.730479e-02 5.652340e-01 -1.028974e+00 1.010206e+00
7.186986e+01 4.217391e-01 -2.731484e-02 5.655769e-01 -1.032310e+00 1.015060e+00
7.028995e+01 4.217391e-01 -2.687313e-02 5.676260e-01 -1.075820e+00 1.049449e+00
4.519646e+01 2.173913e-01 -2.543727e-02 6.117941e-01 -2.183514e+00 1.959726e+00
5.065372e+01 1.869565e-01 -2.703202e-02 7.127546e-01 -3.043010e+00 2.721340e+00
4.277054e+01 1.956522e-01 -2.724493e-02 7.595086e-01 -3.043010e+00 2.721340e+00
4.116566e+01 2.000000e-01 -2.751470e-02 7.500502e-01 -2.779582e+00 2.684711e+00
4.117026e+01 2.086957e-01 -2.913743e-02 7.524377e-01 -2.812167e+00 2.679932e+00
3.985099e+01 2.000000e-01 -2.949407e-02 7.531945e-01 -2.817369e+00 2.679603e+00
3.980088e+01 1.913043e-01 -3.043661e-02 7.526716e-01 -2.805120e+00 2.677496e+00
4.022827e+01 1.826087e-01 -2.991457e-02 7.560085e-01 -2.844517e+00 2.680459e+00
4.146587e+01 1.869565e-01 -3.049340e-02 7.564688e-01 -2.846883e+00 2.678290e+00
4.192017e+01 2.000000e-01 -3.111900e-02 7.554127e-01 -2.829975e+00 2.678399e+00
4.123833e+01 1.869565e-01 -3.382016e-02 7.555053e-01 -2.839737e+00 2.675252e+00
3.907870e+01 1.913043e-01 -3.537609e-02 7.562082e-01 -2.827309e+00 2.668066e+00
3.901299e+01 1.913043e-01 -3.513253e-02 7.563518e-01 -2.825794e+00 2.666365e+00
4.097272e+01 2.086957e-01 -3.563634e-02 7.562227e-01 -2.820474e+00 2.665308e+00
3.937626e+01 1.913043e-01 -3.623236e-02 7.566329e-01 -2.814833e+00 2.665308e+00
3.891295e+01 1.956522e-01 -3.646852e-02 7.568175e-01 -2.809344e+00 2.665798e+00
3.918247e+01 1.826087e-01 -3.576736e-02 7.577893e-01 -2.806500e+00 2.669378e+00
3.923132e+01 1.956522e-01 -3.692531e-02 7.593521e-01 -2.825739e+00 2.669101e+00
4.135481e+01 2.130435e-01 -4.311450e-02 7.646284e-01 -2.840951e+00 2.664526e+00
3.905187e+01 1.956522e-01 -4.366225e-02 7.581347e-01 -2.806530e+00 2.662723e+00
3.887421e+01 1.869565e-01 -4.355701e-02 7.566516e-01 -2.729904e+00 2.650647e+00
4.021733e+01 2.130435e-01 -4.343707e-02 7.579955e-01 -2.744722e+00 2.652631e+00
3.985316e+01 2.130435e-01 -4.383797e-02 7.593898e-01 -2.752513e+00 2.653434e+00
3.837206e+01 1.913043e-01 -4.421424e-02 7.603575e-01 -2.742632e+00 2.653434e+00
4.014812e+01 2.173913e-01 -4.312174e-02 7.607517e-01 -2.748301e+00 2.653599e+00
3.886601e+01 2.130435e-01 -3.983277e-02 7.608671e-01 -2.732614e+00 2.646792e+00
3.925767e+01 1.782609e-01 -4.212231e-02 7.636010e-01 -2.764983e+00 2.647774e+00
3.845024e+01 2.043478e-01 -4.258120e-02 7.650404e-01 -2.762365e+00 2.648389e+00
3.931250e+01 2.000000e-01 -4.316567e-02 7.660531e-01 -2.768497e+00 2.648301e+00
4.071474e+01 1.956522e-01 -4.340370e-02 7.667031e-01 -2.776233e+00 2.648570e+00
4.132666e+01 1.826087e-01 -4.310490e-02 7.679629e-01 -2.796597e+00 2.647431e+00
4.017288e+01 1.956522e-01 -4.358725e-02 7.694539e-01 -2.781421e+00 2.648290e+00
3.892220e+01 2.043478e-01 -4.368261e-02 7.693958e-01 -2.785037e+00 2.647478e+00
3.898077e+01 2.000000e-01 -4.312561e-02 7.689132e-01 -2.763851e+00 2.646473e+00
4.240112e+01 2.000000e-01 -3.970221e-02 7.745941e-01 -2.791150e+00 2.643201e+00
4.551030e+01 2.043478e-01 -3.663435e-02 7.751057e-01 -2.764077e+00 2.637361e+00
4.231392e+01 1.956522e-01 -3.898710e-02 7.793276e-01 -2.780984e+00 2.637361e+00
4.068484e+01 1.913043e-01 -3.935874e-02 7.786493e-01 -2.759210e+00 2.635799e+00
3.950257e+01 2.086957e-01 -4.614829e-02 7.763982e-01 -2.750279e+00 2.632671e+00
3.860773e+01 1.782609e-01 -5.125974e-02 7.759464e-01 -2.718960e+00 2.624982e+00
3.929634e+01 2.000000e-01 -5.076626e-02 7.773532e-01 -2.727598e+00 2.626392e+00
3.868316e+01 1.826087e-01 -4.989393e-02 7.785496e-01 -2.735591e+00 2.627007e+00
3.892263e+01 1.782609e-01 -4.899702e-02 7.813033e-01 -2.751447e+00 2.628539e+00
4.084126e+01 1.956522e-01 -4.859871e-02 7.814201e-01 -2.749242e+00 2.627397e+00
3.930020e+01 2.043478e-01 -4.935599e-02 7.845801e-01 -2.759602e+00 2.624032e+00
3.914504e+01 1.913043e-01 -4.972459e-02 7.877145e-01 -2.777534e+00 2.617127e+00
3.944509e+01 1.956522e-01 -4.902533e-02 7.921767e-01 -2.784020e+00 2.617440e+00
3.979899e+01 1.913043e-01 -4.863000e-02 7.934813e-01 -2.802698e+00 2.617781e+00
3.962818e+01 1.913043e-01 -4.856542e-02 7.940292e-01 -2.781205e+00 2.617395e+00
4.325733e+01 2.173913e-01 -5.022870e-02 7.965264e-01 -2.812518e+00 2.617395e+00
3.945428e+01 1.869565e-01 -5.226659e-02 7.998816e-01 -2.812829e+00 2.610897e+00
3.966350e+01 1.913043e-01 -5.048661e-02 7.971489e-01 -2.766858e+00 2.608587e+00
3.939145e+01 1.913043e-01 -5.060143e-02 7.977096e-01 -2.769945e+00 2.607952e+00
3.961013e+01 1.869565e-01 -5.072734e-02 8.001997e-01 -2.784359e+00 2.609185e+00
3.924703e+01 1.913043e-01 -5.134135e-02 8.017537e-01 -2.784359e+00 2.609583e+00
4.010221e+01 1.913043e-01 -5.290026e-02 8.007895e-01 -2.761382e+00 2.608382e+00
3.969668e+01 1.913043e-01 -5.269266e-02 8.032595e-01 -2.757734e+00 2.608771e+00
3.964593e+01 1.826087e-01 -5.213358e-02 8.048502e-01 -2.753924e+00 2.609252e+00
3.981192e+01 1.869565e-01 -5.303561e-02 8.056443e-01 -2.756211e+00 2.608343e+00
3.945048e+01 2.000000e-01 -5.395393e-02 8.071714e-01 -2.771387e+00 2.605999e+00
4.352109e+01 2.000000e-01 -5.291285e-02 8.088702e-01 -2.785203e+00 2.605328e+00
4.216085e+01 1.869565e-01 -5.413083e-02 8.101379e-01 -2.760954e+00 2.606011e+00
4.027310e+01 1.826087e-01 -5.410683e-02 8.105340e-01 -2.760362e+00 2.605424e+00
4.132044e+01 1.869565e-01 -5.369278e-02 8.111483e-01 -2.752133e+00 2.604957e+00
3.983497e+01 1.956522e-01 -5.388103e-02 8.118700e-01 -2.752111e+00 2.604293e+00
4.115916e+01 1.869565e-01 -5.388818e-02 8.124957e-01 -2.752442e+00 2.604243e+00
3.930294e+01 1.782609e-01 -5.259868e-02 8.138031e-01 -2.771119e+00 2.603048e+00
4.050503e+01 1.913043e-01 -5.215380e-02 8.157751e-01 -2.775854e+00 2.603625e+00
4.167765e+01 1.826087e-01 -5.196015e-02 8.169893e-01 -2.769397e+00 2.603542e+00
3.996692e+01 1.869565e-01 -5.289796e-02 8.181022e-01 -2.783382e+00 2.603256e+00
4.453814e+01 2.173913e-01 -5.242307e-02 8.193552e-01 -2.783382e+00 2.602507e+00
3.999931e+01 1.956522e-01 -4.917171e-02 8.217103e-01 -2.771485e+00 2.600568e+00
4.180186e+01 1.913043e-01 -4.933331e-02 8.235885e-01 -2.771485e+00 2.600986e+00
4.031488e+01 1.956522e-01 -4.991643e-02 8.246112e-01 -2.781066e+00 2.600972e+00
4.043003e+01 2.000000e-01 -5.063486e-02 8.255157e-01 -2.784813e+00 2.600482e+00
4.135771e+01 1.913043e-01 -5.044953e-02 8.288131e-01 -2.806190e+00 2.600060e+00
4.105697e+01 1.869565e-01 -5.154866e-02 8.300886e-01 -2.803691e+00 2.599305e+00
4.246373e+01 1.869565e-01 -5.127637e-02 8.325115e-01 -2.823256e+00 2.599037e+00
4.123425e+01 1.913043e-01 -5.058528e-02 8.337483e-01 -2.815763e+00 2.598842e+00
4.449491e+01 2.130435e-01 -5.076117e-02 8.339028e-01 -2.814893e+00 2.590483e+00
4.050997e+01 1.913043e-01 -5.091295e-02 8.359431e-01 -2.833654e+00 2.590401e+00
4.455858e+01 2.130435e-01 -5.121315e-02 8.384258e-01 -2.831857e+00 2.590863e+00
4.070931e+01 1.956522e-01 -5.136166e-02 8.393877e-01 -2.839266e+00 2.590692e+00
4.116261e+01 1.826087e-01 -5.151425e-02 8.398309e-01 -2.847065e+00 2.590270e+00
4.199162e+01 1.913043e-01 -5.190643e-02 8.409057e-01 -2.842235e+00 2.590067e+00
4.147061e+01 1.956522e-01 -5.164445e-02 8.426197e-01 -2.840174e+00 2.589605e+00
4.124220e+01 2.000000e-01 -5.159501e-02 8.455594e-01 -2.850407e+00 2.586306e+00
4.360370e+01 1.913043e-01 -5.182896e-02 8.471737e-01 -2.862418e+00 2.585798e+00
4.283071e+01 1.956522e-01 -5.367287e-02 8.511136e-01 -2.883171e+00 2.585547e+00
4.201859e+01 1.913043e-01 -5.167790e-02 8.523190e-01 -2.883784e+00 2.583943e+00
4.216607e+01 1.913043e-01 -5.198703e-02 8.532586e-01 -2.890282e+00 2.582058e+00
4.370072e+01 2.000000e-01 -4.940982e-02 8.608400e-01 -2.914808e+00 2.584297e+00
4.280273e+01 1.869565e-01 -5.150962e-02 8.619218e-01 -2.906513e+00 2.583902e+00
4.532512e+01 1.956522e-01 -5.179785e-02 8.614114e-01 -2.870913e+00 2.582270e+00
4.280095e+01 1.913043e-01 -5.557790e-02 8.617919e-01 -2.875575e+00 2.576814e+00
4.138480e+01 1.869565e-01 -5.683957e-02 8.650667e-01 -2.892434e+00 2.575181e+00
4.255047e+01 1.913043e-01 -5.573086e-02 8.672810e-01 -2.899936e+00 2.569954e+00
4.203529e+01 1.913043e-01 -5.354599e-02 8.670405e-01 -2.855819e+00 2.568848e+00
4.198536e+01 1.956522e-01 -5.453246e-02 8.693619e-01 -2.878368e+00 2.568854e+00
4.184836e+01 1.956522e-01 -5.426438e-02 8.709208e-01 -2.881551e+00 2.568514e+00
4.323158e+01 2.043478e-01 -5.412957e-02 8.715175e-01 -2.881551e+00 2.568069e+00
4.177943e+01 1.956522e-01 -5.541842e-02 8.738619e-01 -2.890547e+00 2.567944e+00
4.393211e+01 1.913043e-01 -5.356205e-02 8.738771e-01 -2.890547e+00 2.567082e+00
4.184464e+01 1.956522e-01 -5.319299e-02 8.740453e-01 -2.890772e+00 2.566132e+00
4.201032e+01 1.956522e-01 -5.462769e-02 8.749027e-01 -2.896707e+00 2.565710e+00
4.123450e+01 1.869565e-01 -5.461507e-02 8.756223e-01 -2.889189e+00 2.565754e+00
4.135969e+01 1.826087e-01 -5.493136e-02 8.770247e-01 -2.889645e+00 2.564960e+00
4.334141e+01 1.956522e-01 -5.542835e-02 8.779449e-01 -2.890773e+00 2.564235e+00
4.110116e+01 1.913043e-01 -5.459962e-02 8.786613e-01 -2.881201e+00 2.563439e+00
4.132181e+01 1.913043e-01 -5.508473e-02 8.800949e-01 -2.883516e+00 2.562709e+00
4.172877e+01 1.913043e-01 -5.543994e-02 8.811713e-01 -2.884698e+00 2.562728e+00
4.171677e+01 1.913043e-01 -5.500730e-02 8.819448e-01 -2.880276e+00 2.562620e+00
4.155886e+01 1.826087e-01 -5.461414e-02 8.826415e-01 -2.884544e+00 2.561829e+00
4.572136e+01 2.086957e-01 -5.550213e-02 8.837551e-01 -2.882234e+00 2.561921e+00
4.199148e+01 1.782609e-01 -5.506143e-02 8.855626e-01 -2.896374e+00 2.561767e+00
4.162723e+01 2.043478e-01 -5.597986e-02 8.877154e-01 -2.904230e+00 2.560658e+00
4.165588e+01 2.000000e-01 -5.755765e-02 8.912358e-01 -2.916861e+00 2.558654e+00
4.637782e+01 2.130435e-01 -5.591244e-02 8.936366e-01 -2.927778e+00 2.562460e+00
4.151273e+01 1.913043e-01 -5.553799e-02 8.940381e-01 -2.920237e+00 2.559100e+00
4.247768e+01 2.130435e-01 -5.590208e-02 8.945732e-01 -2.914271e+00 2.556779e+00
4.403045e+01 2.043478e-01 -5.511580e-02 8.966078e-01 -2.908779e+00 2.555881e+00
4.508491e+01 2.000000e-01 -5.702105e-02 8.978742e-01 -2.906896e+00 2.556104e+00
4.334096e+01 2.000000e-01 -5.703168e-02 8.986882e-01 -2.908773e+00 2.555753e+00
4.223323e+01 1.869565e-01 -5.591996e-02 9.001717e-01 -2.908463e+00 2.554740e+00
4.220261e+01 1.869565e-01 -5.497056e-02 9.011517e-01 -2.899227e+00 2.553661e+00
4.278260e+01 2.000000e-01 -5.491229e-02 9.010539e-01 -2.895342e+00 2.552436e+00
4.330128e+01 1.782609e-01 -5.469475e-02 9.015718e-01 -2.887827e+00 2.552451e+00
4.425381e+01 1.869565e-01 -5.376176e-02 9.022559e-01 -2.887574e+00 2.551546e+00
4.207664e+01 1.826087e-01 -5.469865e-02 9.024086e-01 -2.881083e+00 2.550886e+00
4.347154e+01 2.043478e-01 -5.623086e-02 9.038256e-01 -2.866886e+00 2.548687e+00
4.161931e+01 1.869565e-01 -5.618618e-02 9.052452e-01 -2.856942e+00 2.548095e+00
4.172615e+01 1.869565e-01 -5.594041e-02 9.061924e-01 -2.860142e+00 2.548138e+00
4.136657e+01 1.913043e-01 -5.800246e-02 9.080813e-01 -2.865536e+00 2.547620e+00
4.128249e+01 1.956522e-01 -5.698821e-02 9.102570e-01 -2.862560e+00 2.546432e+00
4.418364e+01 1.956522e-01 -5.724974e-02 9.113249e-01 -2.865572e+00 2.546253e+00
4.191742e+01 1.826087e-01 -5.680691e-02 9.122296e-01 -2.866735e+00 2.546075e+00
4.257613e+01 1.956522e-01 -5.623327e-02 9.134281e-01 -2.863597e+00 2.545097e+00
4.452288e+01 2.130435e-01 -5.605746e-02 9.146852e-01 -2.859117e+00 2.545093e+00
4.251433e+01 1.956522e-01 -5.685628e-02 9.166515e-01 -2.856693e+00 2.544584e+00
4.269440e+01 2.043478e-01 -5.803331e-02 9.181356e-01 -2.854308e+00 2.543818e+00
4.491481e+01 1.956522e-01 -5.649155e-02 9.193054e-01 -2.850084e+00 2.542816e+00
4.523696e+01 1.956522e-01 -5.622668e-02 9.199442e-01 -2.856067e+00 2.542208e+00
4.352556e+01 2.043478e-01 -5.592638e-02 9.208249e-01 -2.858396e+00 2.542134e+00
4.292480e+01 1.956522e-01 -5.583362e-02 9.211765e-01 -2.862708e+00 2.541391e+00
4.265228e+01 2.000000e-01 -5.600110e-02 9.241338e-01 -2.865871e+00 2.542056e+00
4.355305e+01 2.173913e-01 -5.724603e-02 9.304692e-01 -2.871422e+00 2.553719e+00
4.448413e+01 2.086957e-01 -5.682757e-02 9.318695e-01 -2.876714e+00 2.561526e+00
4.241954e+01 2.130435e-01 -5.680239e-02 9.318812e-01 -2.865104e+00 2.550636e+00
4.169942e+01 1.739130e-01 -5.804068e-02 9.319388e-01 -2.859556e+00 2.546459e+00
4.211551e+01 2.086957e-01 -5.870652e-02 9.327639e-01 -2.817491e+00 2.533925e+00
4.224259e+01 2.130435e-01 -5.849428e-02 9.347602e-01 -2.812379e+00 2.533598e+00
4.169837e+01 1.956522e-01 -5.864106e-02 9.355161e-01 -2.804954e+00 2.532873e+00
4.181175e+01 2.086957e-01 -5.797973e-02 9.367357e-01 -2.804976e+00 2.544926e+00
4.116188e+01 1.826087e-01 -5.632061e-02 9.376885e-01 -2.792074e+00 2.553872e+00
4.298936e+01 2.217391e-01 -5.677367e-02 9.382866e-01 -2.794614e+00 2.553538e+00
4.190093e+01 1.826087e-01 -5.948390e-02 9.404970e-01 -2.818594e+00 2.549786e+00
4.377530e+01 2.086957e-01 -5.590075e-02 9.429038e-01 -2.819924e+00 2.552527e+00
4.205375e+01 2.043478e-01 -5.291236e-02 9.442666e-01 -2.802482e+00 2.555568e+00
4.203040e+01 2.086957e-01 -5.547563e-02 9.451197e-01 -2.804396e+00 2.592190e+00
4.181915e+01 1.913043e-01 -5.496762e-02 9.460725e-01 -2.809762e+00 2.599099e+00
4.214768e+01 1.826087e-01 -5.464712e-02 9.477913e-01 -2.823210e+00 2.606419e+00
4.170028e+01 1.869565e-01 -5.443144e-02 9.490927e-01 -2.823871e+00 2.599449e+00
4.187761e+01 1.913043e-01 -5.437097e-02 9.505640e-01 -2.822504e+00 2.595835e+00
4.403592e+01 1.956522e-01 -5.475144e-02 9.514239e-01 -2.821131e+00 2.609730e+00
4.181393e+01 1.782609e-01 -5.506705e-02 9.520817e-01 -2.820740e+00 2.617857e+00
4.439521e+01 2.086957e-01 -5.539830e-02 9.524056e-01 -2.820740e+00 2.622408e+00
4.164416e+01 1.652174e-01 -5.486035e-02 9.530504e-01 -2.823512e+00 2.617510e+00
4.326825e+01 1.956522e-01 -5.504603e-02 9.538028e-01 -2.829604e+00 2.622619e+00
4.221894e+01 1.869565e-01 -5.465247e-02 9.570035e-01 -2.836935e+00 2.628213e+00
4.402286e+01 1.913043e-01 -5.315007e-02 9.589561e-01 -2.840264e+00 2.648560e+00
4.468948e+01 2.000000e-01 -5.344911e-02 9.607338e-01 -2.841326e+00 2.657917e+00
4.349991e+01 2.086957e-01 -5.376383e-02 9.614908e-01 -2.834615e+00 2.666381e+00
4.215948e+01 1.913043e-01 -5.514647e-02 9.644257e-01 -2.843491e+00 2.686159e+00
4.328042e+01 2.043478e-01 -5.202667e-02 9.664874e-01 -2.844192e+00 2.692749e+00
4.264117e+01 1.956522e-01 -5.236205e-02 9.674668e-01 -2.840135e+00 2.696418e+00
4.103267e+01 1.739130e-01 -5.334465e-02 9.706841e-01 -2.863306e+00 2.766166e+00
4.324958e+01 2.086957e-01 -5.425541e-02 9.749849e-01 -2.863306e+00 2.766166e+00
4.201852e+01 1.826087e-01 -5.568185e-02 9.759158e-01 -2.843319e+00 2.777913e+00
4.319448e+01 1.826087e-01 -5.387652e-02 9.781959e-01 -2.829677e+00 2.827859e+00
4.341717e+01 1.956522e-01 -5.660500e-02 9.842957e-01 -2.842046e+00 2.847958e+00
4.650561e+01 2.173913e-01 -5.166969e-02 9.953653e-01 -2.848896e+00 2.895975e+00
4.606763e+01 2.000000e-01 -5.153810e-02 9.984346e-01 -2.921303e+00 2.915658e+00
4.475122e+01 1.956522e-01 -5.294629e-02 9.996896e-01 -2.927763e+00 2.925403e+00
4.391761e+01 2.086957e-01 -5.090782e-02 1.002008e+00 -2.880797e+00 2.920707e+00
4.439225e+01 2.043478e-01 -5.135469e-02 1.003415e+00 -2.870542e+00 2.928861e+00
4.312853e+01 2.000000e-01 -5.137647e-02 1.004201e+00 -2.867924e+00 2.932318e+00
4.490768e+01 2.000000e-01 -5.114574e-02 1.005439e+00 -2.888089e+00 2.942158e+00
4.258184e+01 2.043478e-01 -5.060523e-02 1.007488e+00 -2.909901e+00 2.933545e+00
4.272071e+01 1.782609e-01 -5.207841e-02 1.008694e+00 -2.896290e+00 2.944251e+00
4.270441e+01 1.869565e-01 -5.226875e-02 1.009909e+00 -2.895758e+00 2.944079e+00
4.344309e+01 1.869565e-01 -5.264407e-02 1.010650e+00 -2.901174e+00 2.945271e+00
4.328704e+01 1.956522e-01 -5.193498e-02 1.010979e+00 -2.902343e+00 2.956498e+00
4.439894e+01 2.130435e-01 -5.255075e-02 1.012989e+00 -2.938114e+00 2.973192e+00
4.603838e+01 2.000000e-01 -5.121918e-02 1.014641e+00 -2.942395e+00 2.985151e+00
4.348135e+01 1.956522e-01 -5.119883e-02 1.015420e+00 -2.938843e+00 2.986092e+00
4.285056e+01 1.956522e-01 -5.030947e-02 1.018776e+00 -2.976161e+00 3.011587e+00
4.233206e+01 1.782609e-01 -5.049986e-02 1.021107e+00 -2.984411e+00 3.010145e+00
4.366099e+01 2.000000e-01 -4.989270e-02 1.021851e+00 -2.986989e+00 3.012285e+00
4.263736e+01 1.826087e-01 -5.098117e-02 1.023264e+00 -3.000927e+00 3.018413e+00
4.351957e+01 1.913043e-01 -5.048019e-02 1.023307e+00 -2.990764e+00 3.038707e+00
4.519758e+01 2.173913e-01 -5.179255e-02 1.024038e+00 -3.002483e+00 3.038818e+00
4.224773e+01 1.913043e-01 -5.225996e-02 1.025040e+00 -2.999063e+00 3.042117e+00
4.314082e+01 1.956522e-01 -5.213455e-02 1.025896e+00 -3.006390e+00 3.051052e+00
4.407577e+01 2.086957e-01 -5.060117e-02 1.029279e+00 -3.039589e+00 3.047566e+00
4.186329e+01 1.782609e-01 -5.031903e-02 1.031122e+00 -3.053480e+00 3.077255e+00
4.225692e+01 1.913043e-01 -5.181856e-02 1.032493e+00 -3.051007e+00 3.071640e+00
4.275668e+01 2.086957e-01 -5.183552e-02 1.034150e+00 -3.065081e+00 3.074900e+00
4.264467e+01 1.869565e-01 -5.124543e-02 1.034640e+00 -3.066219e+00 3.084045e+00
4.358878e+01 2.000000e-01 -5.000119e-02 1.035842e+00 -3.073937e+00 3.096162e+00
4.585726e+01 2.086957e-01 -4.923801e-02 1.037584e+00 -3.084245e+00 3.112590e+00
4.293572e+01 2.000000e-01 -5.050576e-02 1.039119e+00 -3.089525e+00 3.124528e+00
4.491344e+01 2.043478e-01 -4.846599e-02 1.043828e+00 -3.134954e+00 3.140215e+00
4.377285e+01 1.956522e-01 -4.476518e-02 1.051623e+00 -3.142800e+00 3.146832e+00
4.419757e+01 2.000000e-01 -4.654580e-02 1.052246e+00 -3.153623e+00 3.142104e+00
4.356455e+01 2.043478e-01 -4.736108e-02 1.053252e+00 -3.157469e+00 3.146510e+00
4.524399e+01 2.043478e-01 -4.800280e-02 1.053569e+00 -3.163328e+00 3.150887e+00
4.375364e+01 1.869565e-01 -4.849873e-02 1.055003e+00 -3.160959e+00 3.165893e+00
4.748010e+01 2.086957e-01 -4.608850e-02 1.055999e+00 -3.162638e+00 3.179245e+00
4.352266e+01 1.913043e-01 -4.731237e-02 1.056535e+00 -3.161061e+00 3.170242e+00
4.653579e+01 2.086957e-01 -4.592578e-02 1.057646e+00 -3.190527e+00 3.215688e+00
4.496033e+01 2.086957e-01 -4.293455e-02 1.061485e+00 -3.215950e+00 3.277069e+00
4.275996e+01 1.913043e-01 -4.711638e-02 1.065241e+00 -3.228462e+00 3.248129e+00
4.365751e+01 1.869565e-01 -4.733062e-02 1.067189e+00 -3.239519e+00 3.309578e+00
4.547639e+01 1.869565e-01 -4.731257e-02 1.071433e+00 -3.251396e+00 3.388815e+00
