-6.720605e-01 7.888922e+00 -8.327986e+01 7.723114e+01 1.665312e-04 8.444385e-03 -1.480865e-01 1.334381e-01
-3.517394e+00 2.827052e+01 -1.990519e+02 2.305181e+02 -6.075213e-06 8.130072e-03 -1.573944e-01 1.040497e-01
-5.323783e+00 4.268517e+01 -3.020687e+02 2.992453e+02 -6.112532e-05 7.962736e-03 -1.636505e-01 1.154785e-01
-6.178202e+00 5.121449e+01 -3.590422e+02 3.532595e+02 -6.177639e-05 7.794371e-03 -1.636505e-01 1.434174e-01
-6.487406e+00 5.714148e+01 -3.881887e+02 3.929745e+02 -4.648551e-05 7.704938e-03 -1.616516e-01 1.509705e-01
-5.983818e+00 6.118481e+01 -4.450235e+02 4.778663e+02 -3.538699e-05 7.593742e-03 -1.509705e-01 1.509705e-01
-5.004660e+00 6.442366e+01 -5.055600e+02 5.345346e+02 -1.761477e-05 7.518920e-03 -1.509705e-01 1.561737e-01
-3.945298e+00 6.793017e+01 -5.347384e+02 5.742075e+02 7.576683e-06 7.467626e-03 -1.480865e-01 1.737366e-01
-2.951610e+00 7.248900e+01 -6.299373e+02 6.048887e+02 1.977099e-05 7.317952e-03 -1.509705e-01 1.811676e-01
-2.139887e+00 7.756719e+01 -6.405812e+02 6.359659e+02 1.309660e-05 7.289686e-03 -1.616516e-01 1.934662e-01
-2.172399e+00 8.385630e+01 -6.559757e+02 6.512081e+02 -6.852728e-06 7.345812e-03 -1.621552e-01 1.934662e-01
-2.636662e+00 9.222588e+01 -6.685115e+02 7.446521e+02 -2.938865e-05 7.535006e-03 -1.701660e-01 1.984253e-01
-3.231338e+00 1.014662e+02 -6.941213e+02 7.854671e+02 -3.107896e-05 7.572289e-03 -1.733704e-01 1.984253e-01
-3.762143e+00 1.093880e+02 -7.201961e+02 8.235906e+02 -3.449830e-05 7.807356e-03 -1.733704e-01 2.026825e-01
-3.947560e+00 1.153521e+02 -7.976553e+02 8.673974e+02 -1.871746e-05 7.936898e-03 -1.808167e-01 2.026825e-01
-4.588189e+00 1.211115e+02 -8.352826e+02 8.823416e+02 -8.815365e-06 8.127322e-03 -1.808167e-01 2.026825e-01
-4.800212e+00 1.267101e+02 -8.624655e+02 9.132216e+02 -1.155368e-05 8.284230e-03 -1.808167e-01 2.026825e-01
-4.215106e+00 1.318311e+02 -9.052430e+02 9.229435e+02 -1.302712e-05 8.307220e-03 -1.808167e-01 1.984253e-01
-3.777453e+00 1.361344e+02 -9.122704e+02 9.573049e+02 -4.863709e-06 8.444214e-03 -1.808167e-01 1.934662e-01
-3.176350e+00 1.383036e+02 -9.172430e+02 9.769256e+02 -4.783722e-06 8.272017e-03 -1.808167e-01 1.984253e-01
-3.156904e+00 1.412150e+02 -9.248841e+02 9.860629e+02 -6.891730e-06 8.344795e-03 -1.808167e-01 1.984253e-01
-2.652044e+00 1.435116e+02 -9.285670e+02 9.963805e+02 3.101558e-06 8.400414e-03 -1.808167e-01 1.984253e-01
-2.861054e+00 1.451407e+02 -9.239364e+02 1.000804e+03 -6.312816e-06 8.382014e-03 -1.733704e-01 1.984253e-01
-2.752154e+00 1.472125e+02 -9.616276e+02 9.877513e+02 -8.778497e-06 8.466437e-03 -1.733704e-01 1.934662e-01
-2.733540e+00 1.484357e+02 -1.018241e+03 9.936898e+02 -3.788752e-07 8.447792e-03 -1.733704e-01 1.934662e-01
-1.815357e+00 1.492546e+02 -1.022595e+03 9.960793e+02 1.342238e-06 8.500337e-03 -1.770172e-01 2.026825e-01
-1.394825e+00 1.514826e+02 -1.036334e+03 1.008363e+03 1.382356e-06 8.520952e-03 -1.770172e-01 1.984253e-01
-2.372854e-01 1.548611e+02 -1.070783e+03 1.036329e+03 -6.375486e-06 8.503130e-03 -1.770172e-01 1.984253e-01
-1.044416e-01 1.568261e+02 -1.119709e+03 1.126904e+03 -1.135114e-05 8.639976e-03 -1.733704e-01 1.984253e-01
-4.842963e-01 1.584053e+02 -1.146753e+03 1.159211e+03 -1.594639e-06 8.617036e-03 -1.733704e-01 1.934662e-01
-4.445195e-01 1.597162e+02 -1.172088e+03 1.174146e+03 -5.148959e-07 8.650146e-03 -1.733704e-01 1.984253e-01
-6.222435e-01 1.617006e+02 -1.183502e+03 1.193017e+03 -2.489152e-06 8.682439e-03 -1.733704e-01 1.984253e-01
-9.538967e-01 1.634453e+02 -1.213431e+03 1.202305e+03 -2.512176e-06 8.641720e-03 -1.733704e-01 1.984253e-01
-1.109047e+00 1.657563e+02 -1.315150e+03 1.226077e+03 -4.861360e-06 8.782997e-03 -1.733704e-01 2.026825e-01
-1.320476e+00 1.675513e+02 -1.337642e+03 1.274015e+03 -1.216148e-07 8.707896e-03 -1.733704e-01 2.026825e-01
-1.446241e+00 1.678901e+02 -1.216895e+03 1.328275e+03 4.737021e-06 8.690680e-03 -1.733704e-01 2.026825e-01
-1.634820e+00 1.693960e+02 -1.404468e+03 1.369263e+03 7.542834e-06 8.762058e-03 -1.733704e-01 2.026825e-01
-2.110207e+00 1.708635e+02 -1.431117e+03 1.399968e+03 -3.217787e-07 8.860893e-03 -1.770172e-01 2.026825e-01
-1.754610e+00 1.714229e+02 -1.436971e+03 1.408123e+03 -8.028133e-06 8.793153e-03 -1.770172e-01 2.026825e-01
-1.654609e+00 1.726901e+02 -1.448097e+03 1.413691e+03 -3.022750e-06 8.738902e-03 -1.770172e-01 2.026825e-01
-1.678025e+00 1.726894e+02 -1.450914e+03 1.407848e+03 -4.695116e-06 8.806064e-03 -1.733704e-01 2.026825e-01
-1.522944e+00 1.727456e+02 -1.451875e+03 1.402315e+03 6.973182e-06 8.679155e-03 -1.733704e-01 1.984253e-01
-1.468468e+00 1.732612e+02 -1.451042e+03 1.394699e+03 9.378346e-06 8.745558e-03 -1.733704e-01 2.026825e-01
-1.837236e+00 1.737903e+02 -1.453058e+03 1.397561e+03 -2.694130e-06 8.816455e-03 -1.733704e-01 2.026825e-01
-1.507261e+00 1.739275e+02 -1.453009e+03 1.397296e+03 -8.749319e-06 8.786879e-03 -1.733704e-01 1.984253e-01
-1.764770e+00 1.747208e+02 -1.452537e+03 1.397179e+03 -1.761088e-06 8.784700e-03 -1.733704e-01 1.984253e-01
-1.137833e+00 1.740264e+02 -1.452231e+03 1.396579e+03 -3.026411e-06 8.722774e-03 -1.701660e-01 1.934662e-01
-1.409729e+00 1.745656e+02 -1.452123e+03 1.396193e+03 -1.464612e-06 8.816881e-03 -1.733704e-01 1.984253e-01
-1.648513e+00 1.746504e+02 -1.451814e+03 1.395878e+03 -2.941682e-06 8.721522e-03 -1.733704e-01 2.026825e-01
-1.641495e+00 1.740387e+02 -1.451553e+03 1.395613e+03 -7.562992e-06 8.680876e-03 -1.727142e-01 1.984253e-01
-1.999675e+00 1.738981e+02 -1.451498e+03 1.395450e+03 3.429695e-06 8.742524e-03 -1.701660e-01 1.984253e-01
-1.879762e+00 1.745555e+02 -1.451508e+03 1.395238e+03 1.486520e-06 8.751154e-03 -1.733704e-01 1.984253e-01
-1.686603e+00 1.749958e+02 -1.451618e+03 1.312436e+03 4.751704e-07 8.764375e-03 -1.733704e-01 1.984253e-01
-1.542658e+00 1.758396e+02 -1.451683e+03 1.394903e+03 -1.067177e-07 8.712218e-03 -1.733704e-01 1.984253e-01
-1.584630e+00 1.753831e+02 -1.451789e+03 1.394697e+03 -2.394330e-06 8.825715e-03 -1.733704e-01 1.984253e-01
-1.499486e+00 1.764805e+02 -1.452070e+03 1.394559e+03 7.346020e-06 8.820287e-03 -1.701660e-01 1.984253e-01
-1.527247e+00 1.765024e+02 -1.452204e+03 1.389689e+03 4.331228e-06 8.801702e-03 -1.733704e-01 1.984253e-01
-1.751246e+00 1.765198e+02 -1.452320e+03 1.394044e+03 -1.677056e-06 8.774941e-03 -1.733704e-01 1.984253e-01
-1.543242e+00 1.763738e+02 -1.452368e+03 1.393915e+03 -1.621245e-06 8.730203e-03 -1.733704e-01 2.026825e-01
-1.349983e+00 1.762304e+02 -1.452369e+03 1.393700e+03 -2.181868e-06 8.770913e-03 -1.701660e-01 2.026825e-01
-1.738346e+00 1.770427e+02 -1.452365e+03 1.393530e+03 -4.944526e-07 8.707689e-03 -1.733704e-01 2.026825e-01
-1.562492e+00 1.773997e+02 -1.452348e+03 1.414389e+03 -8.147666e-06 8.866283e-03 -1.760864e-01 2.026825e-01
-1.432331e+00 1.774846e+02 -1.452330e+03 1.426951e+03 -3.450666e-06 8.840819e-03 -1.733704e-01 2.026825e-01
-1.888713e+00 1.773898e+02 -1.452326e+03 1.419468e+03 6.019429e-06 8.844012e-03 -1.701660e-01 2.026825e-01
-1.593619e+00 1.777709e+02 -1.452326e+03 1.408858e+03 5.091130e-06 8.874316e-03 -1.733704e-01 1.984253e-01
-1.925862e+00 1.775982e+02 -1.452340e+03 1.393339e+03 -5.010599e-06 8.899849e-03 -1.733704e-01 1.984253e-01
-1.822867e+00 1.776719e+02 -1.452361e+03 1.393103e+03 -9.070419e-06 8.927592e-03 -1.733704e-01 1.984253e-01
-1.834657e+00 1.772721e+02 -1.452375e+03 1.392959e+03 3.362873e-06 8.869244e-03 -1.733704e-01 1.984253e-01
-2.315204e+00 1.774230e+02 -1.452380e+03 1.392827e+03 5.170457e-06 8.930394e-03 -1.733704e-01 1.984253e-01
-2.082484e+00 1.781047e+02 -1.452367e+03 1.392721e+03 6.783610e-06 8.899997e-03 -1.733704e-01 1.984253e-01
-1.871261e+00 1.782094e+02 -1.452347e+03 1.392705e+03 -1.298904e-06 8.905015e-03 -1.733704e-01 1.984253e-01
-2.094637e+00 1.786469e+02 -1.452361e+03 1.402463e+03 8.294494e-07 8.841169e-03 -1.733704e-01 1.984253e-01
-2.060920e+00 1.793405e+02 -1.452385e+03 1.444313e+03 5.197080e-06 8.898525e-03 -1.733704e-01 1.984253e-01
-1.962710e+00 1.808023e+02 -1.452432e+03 1.467960e+03 -1.517644e-06 8.916136e-03 -1.733704e-01 2.026825e-01
-1.987731e+00 1.810300e+02 -1.452501e+03 1.495578e+03 -4.960451e-06 8.890808e-03 -1.733704e-01 1.984253e-01
-1.872654e+00 1.811438e+02 -1.452545e+03 1.492110e+03 2.880986e-06 8.851470e-03 -1.733704e-01 1.984253e-01
-2.083183e+00 1.822223e+02 -1.452567e+03 1.487514e+03 1.249202e-06 8.893973e-03 -1.733704e-01 1.984253e-01
-2.233853e+00 1.822922e+02 -1.452587e+03 1.496086e+03 -3.814340e-06 8.954622e-03 -1.733704e-01 1.984253e-01
-2.433569e+00 1.829433e+02 -1.452585e+03 1.498020e+03 -1.371844e-06 8.947501e-03 -1.733704e-01 1.984253e-01
-2.457921e+00 1.826934e+02 -1.452572e+03 1.531851e+03 -6.608400e-06 8.866032e-03 -1.733704e-01 1.984253e-01
-2.392615e+00 1.829860e+02 -1.452553e+03 1.587644e+03 3.929435e-06 8.882240e-03 -1.733704e-01 2.026825e-01
-2.614591e+00 1.840533e+02 -1.452544e+03 1.597450e+03 -5.842531e-06 8.937764e-03 -1.733704e-01 2.026825e-01
-2.296184e+00 1.845973e+02 -1.452514e+03 1.639259e+03 -7.547782e-06 8.898875e-03 -1.733704e-01 1.984253e-01
-2.286439e+00 1.849707e+02 -1.452501e+03 1.657454e+03 -4.819500e-06 8.961793e-03 -1.760864e-01 1.984253e-01
-2.173943e+00 1.852082e+02 -1.452466e+03 1.686767e+03 1.977168e-07 8.901239e-03 -1.733704e-01 1.984253e-01
-2.491175e+00 1.855159e+02 -1.452454e+03 1.704009e+03 4.502615e-06 8.966999e-03 -1.701660e-01 2.026825e-01
-2.177152e+00 1.855501e+02 -1.452436e+03 1.709368e+03 1.793178e-06 8.917389e-03 -1.701660e-01 2.026825e-01
-1.856686e+00 1.855270e+02 -1.452434e+03 1.734650e+03 -4.365702e-06 8.911477e-03 -1.733704e-01 1.984253e-01
-1.794852e+00 1.849672e+02 -1.452433e+03 1.769449e+03 -1.254534e-06 8.855418e-03 -1.733704e-01 1.984253e-01
-2.294925e+00 1.849817e+02 -1.452437e+03 1.756043e+03 3.478495e-06 8.887104e-03 -1.664429e-01 1.984253e-01
-1.970972e+00 1.855810e+02 -1.452441e+03 1.794055e+03 4.010914e-06 8.897818e-03 -1.733704e-01 1.984253e-01
-1.979724e+00 1.841325e+02 -1.452440e+03 1.807615e+03 -6.632514e-06 9.046974e-03 -1.733704e-01 1.984253e-01
-2.313277e+00 1.852659e+02 -1.452435e+03 1.807539e+03 -5.269422e-06 8.977213e-03 -1.733704e-01 1.934662e-01
-2.070214e+00 1.849905e+02 -1.452422e+03 1.807414e+03 -1.611662e-06 8.957954e-03 -1.733704e-01 1.984253e-01
-1.834831e+00 1.852634e+02 -1.452415e+03 1.807244e+03 -1.190061e-06 8.903115e-03 -1.733704e-01 1.984253e-01
-2.036997e+00 1.856358e+02 -1.452414e+03 1.807132e+03 3.856557e-06 8.909400e-03 -1.733704e-01 1.984253e-01
-2.487770e+00 1.847826e+02 -1.452403e+03 1.807095e+03 -5.671250e-08 8.867932e-03 -1.733704e-01 1.984253e-01
-2.444405e+00 1.853972e+02 -1.452395e+03 1.795286e+03 -1.962967e-07 8.866110e-03 -1.701660e-01 1.984253e-01
-1.764547e+00 1.845343e+02 -1.452392e+03 1.806768e+03 -5.639634e-07 8.802459e-03 -1.701660e-01 1.984253e-01
-2.235083e+00 1.846788e+02 -1.452386e+03 1.806677e+03 -4.216436e-06 8.841306e-03 -1.733704e-01 1.984253e-01
-2.467382e+00 1.851530e+02 -1.452383e+03 1.806447e+03 -3.034521e-06 8.860224e-03 -1.733704e-01 1.984253e-01
-1.917233e+00 1.851137e+02 -1.452379e+03 1.806222e+03 -3.864756e-07 8.865241e-03 -1.733704e-01 1.984253e-01
-2.110610e+00 1.852809e+02 -1.452377e+03 1.806028e+03 7.153420e-06 8.836032e-03 -1.733704e-01 1.984253e-01
-2.430172e+00 1.845512e+02 -1.452377e+03 1.805967e+03 -1.049878e-06 8.870748e-03 -1.733704e-01 1.984253e-01
-2.174158e+00 1.849574e+02 -1.452375e+03 1.805962e+03 -4.105851e-06 8.975910e-03 -1.733704e-01 1.984253e-01
-2.048255e+00 1.843429e+02 -1.452372e+03 1.805955e+03 6.527475e-07 8.891257e-03 -1.701660e-01 1.984253e-01
-2.272579e+00 1.850727e+02 -1.452357e+03 1.806005e+03 1.091024e-07 8.862318e-03 -1.701660e-01 1.984253e-01
-2.349980e+00 1.846219e+02 -1.452357e+03 1.806040e+03 -1.335289e-06 8.908462e-03 -1.733704e-01 1.984253e-01
-2.102787e+00 1.846000e+02 -1.452351e+03 1.806087e+03 -6.290256e-06 8.848591e-03 -1.733704e-01 1.984253e-01
-2.674548e+00 1.848520e+02 -1.452358e+03 1.806123e+03 -3.370893e-06 8.837522e-03 -1.701660e-01 1.984253e-01
-1.979674e+00 1.852620e+02 -1.452359e+03 1.806141e+03 -4.872363e-07 8.862310e-03 -1.701660e-01 1.984253e-01
-1.958749e+00 1.848205e+02 -1.452355e+03 1.806150e+03 3.111650e-06 8.866117e-03 -1.701660e-01 1.984253e-01
-1.998996e+00 1.844760e+02 -1.452347e+03 1.806118e+03 3.557821e-06 8.814038e-03 -1.733704e-01 1.934662e-01
-1.623474e+00 1.849057e+02 -1.409457e+03 1.806103e+03 5.571124e-06 8.844984e-03 -1.701660e-01 1.984253e-01
-1.775630e+00 1.844312e+02 -1.452362e+03 1.806054e+03 2.952694e-06 8.850941e-03 -1.701660e-01 1.984253e-01
-1.473443e+00 1.847456e+02 -1.452370e+03 1.806048e+03 -3.903035e-06 8.888052e-03 -1.733704e-01 1.984253e-01
-2.137785e+00 1.849840e+02 -1.452361e+03 1.806050e+03 -5.459646e-06 8.872147e-03 -1.701660e-01 1.984253e-01
-1.444026e+00 1.855575e+02 -1.452358e+03 1.806057e+03 -3.215376e-07 8.864461e-03 -1.701660e-01 1.984253e-01
-1.436918e+00 1.858326e+02 -1.452340e+03 1.806064e+03 1.020311e-05 8.896322e-03 -1.733704e-01 1.984253e-01
-1.595539e+00 1.851095e+02 -1.452317e+03 1.806070e+03 -2.457679e-06 8.907853e-03 -1.733704e-01 1.984253e-01
-1.773742e+00 1.856204e+02 -1.452301e+03 1.806071e+03 -5.344417e-06 8.856591e-03 -1.701660e-01 1.984253e-01
-1.355341e+00 1.849984e+02 -1.452286e+03 1.806071e+03 8.189732e-07 8.817656e-03 -1.701660e-01 1.984253e-01
-1.628498e+00 1.854226e+02 -1.452279e+03 1.806072e+03 4.019487e-06 8.843213e-03 -1.701660e-01 1.934662e-01
-1.559550e+00 1.855052e+02 -1.452277e+03 1.806073e+03 4.170914e-07 8.872007e-03 -1.701660e-01 1.984253e-01
-1.410168e+00 1.850130e+02 -1.452269e+03 1.806080e+03 -1.068285e-06 8.782719e-03 -1.701660e-01 1.984253e-01
-1.719089e+00 1.855241e+02 -1.452271e+03 1.806110e+03 2.860007e-07 8.824883e-03 -1.701660e-01 1.984253e-01
-1.774207e+00 1.861037e+02 -1.409438e+03 1.806125e+03 -3.063091e-06 8.787033e-03 -1.701660e-01 1.984253e-01
-1.780391e+00 1.859178e+02 -1.452262e+03 1.806143e+03 -2.246029e-06 8.716980e-03 -1.701660e-01 1.984253e-01
-2.160498e+00 1.854425e+02 -1.452253e+03 1.806159e+03 7.848680e-06 8.799029e-03 -1.701660e-01 1.984253e-01
-1.846769e+00 1.851090e+02 -1.452255e+03 1.806161e+03 -1.629739e-06 8.716519e-03 -1.701660e-01 1.984253e-01
-1.962563e+00 1.857703e+02 -1.452267e+03 1.806177e+03 -2.375539e-06 8.761414e-03 -1.701660e-01 1.984253e-01
-1.758359e+00 1.849611e+02 -1.452270e+03 1.806183e+03 -1.370076e-06 8.785942e-03 -1.701660e-01 1.984253e-01
-2.088813e+00 1.848184e+02 -1.409427e+03 1.806187e+03 3.052294e-06 8.792322e-03 -1.701660e-01 1.984253e-01
-1.616455e+00 1.850677e+02 -1.452280e+03 1.806193e+03 3.244527e-06 8.798115e-03 -1.701660e-01 1.984253e-01
-1.911671e+00 1.846926e+02 -1.452279e+03 1.806187e+03 1.239226e-06 8.761087e-03 -1.701660e-01 1.984253e-01
-1.422353e+00 1.847714e+02 -1.452277e+03 1.806177e+03 2.869849e-06 8.715423e-03 -1.701660e-01 1.984253e-01
-1.520530e+00 1.854579e+02 -1.452274e+03 1.806100e+03 -2.148046e-06 8.790928e-03 -1.701660e-01 1.984253e-01
-2.019189e+00 1.846256e+02 -1.452270e+03 1.625284e+03 -4.022899e-06 8.786203e-03 -1.701660e-01 1.984253e-01
-2.119032e+00 1.848538e+02 -1.452266e+03 1.805976e+03 -8.851169e-07 8.799386e-03 -1.701660e-01 1.984253e-01
-1.744030e+00 1.847258e+02 -1.452263e+03 1.805953e+03 2.389776e-06 8.863013e-03 -1.701660e-01 1.984253e-01
-1.687744e+00 1.848460e+02 -1.452251e+03 1.805933e+03 -2.456321e-07 8.794955e-03 -1.701660e-01 1.984253e-01
-2.153550e+00 1.843316e+02 -1.452247e+03 1.805931e+03 2.692147e-06 8.825041e-03 -1.701660e-01 1.984253e-01
-2.340805e+00 1.845967e+02 -1.452247e+03 1.805971e+03 1.637169e-06 8.802547e-03 -1.701660e-01 1.984253e-01
-1.680362e+00 1.853477e+02 -1.452242e+03 1.806001e+03 -5.393305e-06 8.840895e-03 -1.701660e-01 1.984253e-01
-1.900055e+00 1.849881e+02 -1.452241e+03 1.806014e+03 -1.328028e-06 8.735113e-03 -1.701660e-01 1.984253e-01
-1.906311e+00 1.849603e+02 -1.452241e+03 1.806002e+03 1.042537e-06 8.790724e-03 -1.701660e-01 1.984253e-01
-2.055043e+00 1.854531e+02 -1.452241e+03 1.805988e+03 6.340690e-06 8.807061e-03 -1.701660e-01 1.984253e-01
-2.051402e+00 1.858620e+02 -1.452233e+03 1.805962e+03 -5.099865e-06 8.806251e-03 -1.701660e-01 1.984253e-01
-2.059719e+00 1.856481e+02 -1.452230e+03 1.805954e+03 -3.999616e-06 8.766017e-03 -1.701660e-01 1.984253e-01
-2.228698e+00 1.854793e+02 -1.452237e+03 1.805950e+03 -1.130544e-06 8.794897e-03 -1.701660e-01 1.984253e-01
-2.352797e+00 1.857035e+02 -1.452243e+03 1.805949e+03 5.942765e-06 8.865835e-03 -1.701660e-01 1.984253e-01
-2.147476e+00 1.850009e+02 -1.452245e+03 1.805957e+03 6.440584e-06 8.793400e-03 -1.701660e-01 1.984253e-01
-1.816571e+00 1.856573e+02 -1.452244e+03 1.805967e+03 -4.927397e-06 8.744107e-03 -1.701660e-01 1.984253e-01
-2.465685e+00 1.858318e+02 -1.452261e+03 1.805997e+03 -5.656603e-06 8.712916e-03 -1.701660e-01 1.984253e-01
-1.789825e+00 1.852183e+02 -1.409271e+03 1.806003e+03 1.278621e-06 8.851764e-03 -1.701660e-01 1.984253e-01
-2.044944e+00 1.856443e+02 -1.452274e+03 1.806021e+03 2.130640e-06 8.790827e-03 -1.701660e-01 1.984253e-01
-1.973070e+00 1.858168e+02 -1.452274e+03 1.806024e+03 -3.059349e-06 8.714752e-03 -1.701660e-01 1.984253e-01
-2.109757e+00 1.859439e+02 -1.452272e+03 1.806028e+03 -2.234499e-06 8.822001e-03 -1.701660e-01 1.984253e-01
-2.165021e+00 1.864207e+02 -1.452275e+03 1.806048e+03 1.374720e-06 8.766335e-03 -1.701660e-01 1.984253e-01
-1.955525e+00 1.856356e+02 -1.452277e+03 1.806060e+03 3.501841e-06 8.716529e-03 -1.701660e-01 1.984253e-01
-1.868577e+00 1.850308e+02 -1.409669e+03 1.806118e+03 1.786899e-06 8.721711e-03 -1.701660e-01 1.984253e-01
-2.291181e+00 1.856604e+02 -1.452269e+03 1.806186e+03 -1.466317e-06 8.759841e-03 -1.701660e-01 1.984253e-01
-2.680036e+00 1.854809e+02 -1.452257e+03 1.806216e+03 1.001909e-06 8.755001e-03 -1.701660e-01 1.984253e-01
-1.845883e+00 1.857458e+02 -1.452252e+03 1.806223e+03 -3.124591e-06 8.758922e-03 -1.701660e-01 1.984253e-01
-2.200428e+00 1.850506e+02 -1.452248e+03 1.806206e+03 -3.798264e-06 8.748323e-03 -1.701660e-01 1.984253e-01
-2.034542e+00 1.855002e+02 -1.452245e+03 1.806105e+03 6.318755e-08 8.818028e-03 -1.701660e-01 1.984253e-01
-2.197087e+00 1.852199e+02 -1.452237e+03 1.806082e+03 1.167139e-05 8.716225e-03 -1.701660e-01 1.984253e-01
-1.953959e+00 1.857658e+02 -1.452222e+03 1.806094e+03 -5.273155e-06 8.718118e-03 -1.701660e-01 1.984253e-01
-2.212074e+00 1.856835e+02 -1.452221e+03 1.806133e+03 -7.096029e-06 8.740880e-03 -1.701660e-01 1.984253e-01
-1.796955e+00 1.856986e+02 -1.452217e+03 1.806144e+03 -2.829570e-06 8.789301e-03 -1.701660e-01 1.984253e-01
-2.000824e+00 1.854705e+02 -1.409636e+03 1.806171e+03 -6.750485e-07 8.772522e-03 -1.701660e-01 1.984253e-01
-1.799541e+00 1.862403e+02 -1.452206e+03 1.806151e+03 5.665338e-06 8.708791e-03 -1.701660e-01 1.984253e-01
-2.311401e+00 1.856010e+02 -1.452207e+03 1.806139e+03 4.158321e-08 8.806040e-03 -1.701660e-01 1.984253e-01
-2.275578e+00 1.862585e+02 -1.452206e+03 1.806124e+03 4.159393e-07 8.854180e-03 -1.701660e-01 1.984253e-01
-1.840869e+00 1.857028e+02 -1.452201e+03 1.806127e+03 -1.857491e-06 8.744374e-03 -1.701660e-01 1.934662e-01
-2.279472e+00 1.858724e+02 -1.409690e+03 1.806137e+03 -9.648985e-07 8.775011e-03 -1.701660e-01 1.984253e-01
-2.390006e+00 1.858922e+02 -1.452199e+03 1.806172e+03 4.806577e-06 8.745088e-03 -1.701660e-01 1.984253e-01
-2.085278e+00 1.859471e+02 -1.452201e+03 1.806185e+03 3.286440e-06 8.746725e-03 -1.701660e-01 1.984253e-01
-1.962831e+00 1.854163e+02 -1.452203e+03 1.806181e+03 -2.735990e-06 8.815884e-03 -1.701660e-01 1.934662e-01
-2.686773e+00 1.853916e+02 -1.452211e+03 1.806165e+03 -2.813637e-06 8.781986e-03 -1.701660e-01 1.984253e-01
-2.206370e+00 1.853657e+02 -1.452213e+03 1.806147e+03 7.486783e-06 8.815639e-03 -1.701660e-01 1.984253e-01
-2.198185e+00 1.857566e+02 -1.452216e+03 1.806132e+03 -8.212596e-07 8.839271e-03 -1.701660e-01 1.984253e-01
-2.092217e+00 1.853880e+02 -1.452215e+03 1.806124e+03 -1.022317e-05 8.762141e-03 -1.701660e-01 1.984253e-01
-1.994925e+00 1.855194e+02 -1.452221e+03 1.806129e+03 -1.115740e-05 8.704095e-03 -1.701660e-01 1.984253e-01
-2.399006e+00 1.852754e+02 -1.452234e+03 1.806135e+03 1.104959e-05 8.701377e-03 -1.701660e-01 1.984253e-01
-1.642655e+00 1.857725e+02 -1.452246e+03 1.806135e+03 1.250015e-05 8.795571e-03 -1.701660e-01 1.984253e-01
-1.965176e+00 1.859178e+02 -1.452253e+03 1.806127e+03 -3.041308e-07 8.622724e-03 -1.701660e-01 1.984253e-01
-1.812627e+00 1.854777e+02 -1.409706e+03 1.806120e+03 -3.429186e-06 8.747597e-03 -1.701660e-01 1.984253e-01
-2.167210e+00 1.858428e+02 -1.452268e+03 1.806124e+03 -4.675557e-06 8.725457e-03 -1.701660e-01 1.984253e-01
-1.820547e+00 1.855871e+02 -1.452271e+03 1.806136e+03 7.371107e-06 8.776669e-03 -1.701660e-01 1.984253e-01
-2.284838e+00 1.853738e+02 -1.409705e+03 1.806141e+03 -1.104599e-06 8.728800e-03 -1.701660e-01 1.984253e-01
-1.861787e+00 1.856834e+02 -1.452260e+03 1.794486e+03 -7.527759e-06 8.776619e-03 -1.701660e-01 1.984253e-01
-2.185254e+00 1.854952e+02 -1.452243e+03 1.806123e+03 -1.264055e-06 8.781665e-03 -1.701660e-01 1.984253e-01
-1.955892e+00 1.861833e+02 -1.452235e+03 1.806116e+03 6.405655e-07 8.709700e-03 -1.701660e-01 1.984253e-01
-2.320355e+00 1.859561e+02 -1.452225e+03 1.806116e+03 -3.283297e-06 8.748867e-03 -1.701660e-01 1.984253e-01
-2.104537e+00 1.864977e+02 -1.452226e+03 1.806126e+03 -3.020624e-06 8.731017e-03 -1.701660e-01 1.984253e-01
-2.066065e+00 1.857811e+02 -1.452230e+03 1.806125e+03 3.542299e-06 8.838230e-03 -1.701660e-01 1.984253e-01
-2.330261e+00 1.856425e+02 -1.452231e+03 1.806115e+03 2.204580e-06 8.694927e-03 -1.701660e-01 1.984253e-01
-2.605988e+00 1.857383e+02 -1.452231e+03 1.806121e+03 -1.319026e-06 8.754491e-03 -1.701660e-01 1.984253e-01
-2.309282e+00 1.859188e+02 -1.452231e+03 1.806132e+03 2.160684e-06 8.690925e-03 -1.701660e-01 1.984253e-01
-2.143546e+00 1.863501e+02 -1.452233e+03 1.806132e+03 8.124624e-08 8.691161e-03 -1.701660e-01 1.984253e-01
-1.960162e+00 1.851404e+02 -1.452233e+03 1.806118e+03 -3.886807e-06 8.650151e-03 -1.701660e-01 1.984253e-01
-2.282208e+00 1.861463e+02 -1.409752e+03 1.806110e+03 1.590897e-06 8.697527e-03 -1.701660e-01 1.984253e-01
-2.101490e+00 1.859867e+02 -1.452220e+03 1.806108e+03 9.284122e-06 8.709752e-03 -1.701660e-01 1.984253e-01
-2.127206e+00 1.859155e+02 -1.452211e+03 1.806130e+03 4.520629e-06 8.663099e-03 -1.701660e-01 1.984253e-01
-2.017290e+00 1.854377e+02 -1.452201e+03 1.806128e+03 -4.582960e-06 8.696356e-03 -1.701660e-01 1.984253e-01
-2.453331e+00 1.863066e+02 -1.452198e+03 1.806116e+03 -4.145773e-06 8.725827e-03 -1.701660e-01 1.934662e-01
-1.941282e+00 1.854695e+02 -1.452197e+03 1.806106e+03 -3.987925e-06 8.699759e-03 -1.701660e-01 1.984253e-01
-2.361431e+00 1.859414e+02 -1.452196e+03 1.806106e+03 1.085102e-06 8.742257e-03 -1.701660e-01 1.984253e-01
-2.269523e+00 1.855252e+02 -1.452193e+03 1.794479e+03 7.345743e-07 8.647827e-03 -1.701660e-01 1.984253e-01
-2.175518e+00 1.853341e+02 -1.409753e+03 1.806125e+03 4.569152e-07 8.744418e-03 -1.701660e-01 1.984253e-01
-2.125471e+00 1.861775e+02 -1.452170e+03 1.806127e+03 -1.303459e-06 8.831596e-03 -1.701660e-01 1.984253e-01
-2.389116e+00 1.857274e+02 -1.452165e+03 1.806122e+03 -2.573712e-06 8.738101e-03 -1.701660e-01 1.984253e-01
-2.296765e+00 1.857474e+02 -1.452155e+03 1.806093e+03 -1.288928e-06 8.715283e-03 -1.701660e-01 1.984253e-01
-2.054093e+00 1.855134e+02 -1.452158e+03 1.806091e+03 -2.553170e-06 8.730401e-03 -1.701660e-01 1.984253e-01
-2.426012e+00 1.857379e+02 -1.452160e+03 1.806095e+03 5.529362e-06 8.652115e-03 -1.701660e-01 1.984253e-01
-1.677400e+00 1.858645e+02 -1.452165e+03 1.806110e+03 6.807278e-06 8.703906e-03 -1.701660e-01 1.984253e-01
-2.101053e+00 1.854423e+02 -1.452164e+03 1.806112e+03 1.343408e-06 8.754265e-03 -1.701660e-01 1.984253e-01
-1.854674e+00 1.858156e+02 -1.452161e+03 1.806103e+03 -1.770028e-06 8.729459e-03 -1.701660e-01 1.984253e-01
-2.314169e+00 1.856015e+02 -1.452160e+03 1.806089e+03 -7.568815e-06 8.768056e-03 -1.701660e-01 1.984253e-01
-2.068788e+00 1.848144e+02 -1.452161e+03 1.794493e+03 -1.136215e-06 8.728507e-03 -1.701660e-01 1.984253e-01
-2.103166e+00 1.855465e+02 -1.452182e+03 1.806087e+03 7.551033e-06 8.729371e-03 -1.701660e-01 1.984253e-01
-2.138932e+00 1.858796e+02 -1.452197e+03 1.806109e+03 2.798936e-06 8.743390e-03 -1.701660e-01 1.984253e-01
-1.629520e+00 1.860424e+02 -1.452199e+03 1.806117e+03 6.358409e-07 8.685369e-03 -1.701660e-01 1.984253e-01
-2.188026e+00 1.852998e+02 -1.452200e+03 1.806116e+03 -1.712521e-06 8.696577e-03 -1.701660e-01 1.984253e-01
-2.246169e+00 1.857546e+02 -1.452200e+03 1.806111e+03 -6.396965e-06 8.774005e-03 -1.701660e-01 1.984253e-01
-2.160626e+00 1.852414e+02 -1.452205e+03 1.806096e+03 -2.419927e-06 8.756670e-03 -1.701660e-01 1.984253e-01
-2.177703e+00 1.855574e+02 -1.452204e+03 1.806095e+03 8.457049e-06 8.711345e-03 -1.701660e-01 1.984253e-01
-2.344328e+00 1.852762e+02 -1.452196e+03 1.806100e+03 1.430182e-06 8.717478e-03 -1.701660e-01 1.984253e-01
-2.410410e+00 1.863909e+02 -1.452186e+03 1.806107e+03 -3.530197e-06 8.680317e-03 -1.701660e-01 1.984253e-01
-2.143101e+00 1.862886e+02 -1.452192e+03 1.806109e+03 4.378205e-07 8.747371e-03 -1.701660e-01 1.984253e-01
-2.278734e+00 1.855519e+02 -1.452193e+03 1.806099e+03 6.629111e-07 8.719400e-03 -1.701660e-01 1.984253e-01
-2.114566e+00 1.859686e+02 -1.452197e+03 1.806099e+03 -4.478859e-07 8.661265e-03 -1.701660e-01 1.984253e-01
-2.373031e+00 1.857459e+02 -1.452198e+03 1.806101e+03 1.209896e-06 8.710705e-03 -1.701660e-01 1.984253e-01
-2.040651e+00 1.857010e+02 -1.452197e+03 1.794483e+03 1.313328e-06 8.756391e-03 -1.701660e-01 1.984253e-01
-2.177336e+00 1.858739e+02 -1.452196e+03 1.806098e+03 -8.646201e-07 8.747106e-03 -1.701660e-01 1.984253e-01
-2.583434e+00 1.854259e+02 -1.452194e+03 1.806092e+03 6.395205e-07 8.765536e-03 -1.701660e-01 1.984253e-01
-2.076468e+00 1.864311e+02 -1.452190e+03 1.806082e+03 -1.659336e-06 8.734343e-03 -1.701660e-01 1.984253e-01
