6.891086e+01 6.250000e-01 -4.983679e-02 5.368955e-01 -9.529877e-01 9.633789e-01
6.391222e+01 3.697917e-01 -1.728473e-01 1.545742e+00 -8.446945e+00 4.937302e+00
5.749199e+01 3.697917e-01 -4.420028e-01 4.316188e+00 -2.240450e+01 1.247220e+01
5.688510e+01 3.697917e-01 -5.593165e-01 6.437392e+00 -3.131662e+01 1.797020e+01
5.652280e+01 3.697917e-01 -6.045676e-01 7.885656e+00 -3.704510e+01 2.246156e+01
5.628665e+01 3.697917e-01 -5.946040e-01 8.926901e+00 -4.124348e+01 3.021831e+01
5.524471e+01 3.697917e-01 -5.339280e-01 9.665664e+00 -4.411989e+01 3.799059e+01
5.331259e+01 3.697917e-01 -4.295011e-01 1.022030e+01 -4.635522e+01 4.542888e+01
5.201204e+01 3.697917e-01 -2.870597e-01 1.068052e+01 -4.805750e+01 5.226921e+01
5.337347e+01 3.697917e-01 -1.364798e-01 1.112563e+01 -4.934705e+01 5.787616e+01
5.335202e+01 3.697917e-01 -1.129257e-01 1.148503e+01 -5.042203e+01 6.088426e+01
5.281128e+01 3.697917e-01 -1.161011e-01 1.170758e+01 -5.130292e+01 6.168774e+01
5.208237e+01 3.697917e-01 -1.271742e-01 1.184276e+01 -5.197443e+01 6.181906e+01
5.120598e+01 3.697917e-01 -1.450769e-01 1.190785e+01 -5.250275e+01 6.080084e+01
5.121935e+01 3.697917e-01 -1.617967e-01 1.194748e+01 -5.292816e+01 5.939047e+01
5.070869e+01 3.697917e-01 -1.702172e-01 1.200171e+01 -5.326575e+01 5.887897e+01
5.090685e+01 3.697917e-01 -1.725124e-01 1.206164e+01 -5.353168e+01 5.914055e+01
5.066286e+01 3.697917e-01 -1.686579e-01 1.213739e+01 -5.375815e+01 6.001535e+01
5.083113e+01 3.697917e-01 -1.677806e-01 1.219411e+01 -5.396289e+01 6.043321e+01
5.100452e+01 3.697917e-01 -1.712246e-01 1.222728e+01 -5.413293e+01 6.041176e+01
5.084842e+01 3.697917e-01 -1.691736e-01 1.227755e+01 -5.426898e+01 6.092952e+01
5.055766e+01 3.697917e-01 -1.713358e-01 1.230964e+01 -5.441019e+01 6.125171e+01
5.016165e+01 3.697917e-01 -1.853060e-01 1.229099e+01 -5.455933e+01 6.025874e+01
4.954008e+01 3.593750e-01 -2.088606e-01 1.223391e+01 -5.470471e+01 5.808679e+01
4.899309e+01 3.489583e-01 -2.299549e-01 1.218298e+01 -5.483849e+01 5.616800e+01
4.792592e+01 3.020833e-01 -2.646811e-01 1.208548e+01 -5.495798e+01 5.253836e+01
4.761317e+01 3.333333e-01 -2.972962e-01 1.199758e+01 -5.504323e+01 4.913985e+01
4.742601e+01 3.437500e-01 -3.346703e-01 1.192296e+01 -5.515591e+01 4.548656e+01
4.734933e+01 3.593750e-01 -3.696064e-01 1.186219e+01 -5.523546e+01 4.213528e+01
4.695093e+01 3.645833e-01 -3.928218e-01 1.183884e+01 -5.529616e+01 4.036487e+01
4.698349e+01 3.541667e-01 -4.219528e-01 1.180494e+01 -5.533719e+01 3.794102e+01
4.654306e+01 3.177083e-01 -4.590463e-01 1.176991e+01 -5.540996e+01 3.507634e+01
4.694394e+01 2.968750e-01 -4.915268e-01 1.174551e+01 -5.590959e+01 3.376796e+01
4.649271e+01 3.020833e-01 -5.069152e-01 1.177239e+01 -5.641628e+01 3.382161e+01
4.599872e+01 2.812500e-01 -5.197824e-01 1.179599e+01 -5.684288e+01 3.387531e+01
4.642731e+01 2.760417e-01 -5.199122e-01 1.186323e+01 -5.737036e+01 3.470490e+01
4.636073e+01 2.656250e-01 -5.210369e-01 1.193605e+01 -5.789322e+01 3.684901e+01
4.597301e+01 2.656250e-01 -5.169518e-01 1.201651e+01 -5.834596e+01 3.922258e+01
4.582138e+01 2.447917e-01 -5.207582e-01 1.209419e+01 -5.886552e+01 4.146777e+01
4.522011e+01 2.447917e-01 -5.124875e-01 1.220695e+01 -5.934828e+01 4.491426e+01
4.455074e+01 2.500000e-01 -5.073578e-01 1.233333e+01 -5.993985e+01 4.843190e+01
4.415434e+01 2.343750e-01 -5.129573e-01 1.242996e+01 -6.049133e+01 5.063290e+01
4.375386e+01 2.343750e-01 -5.346155e-01 1.251482e+01 -6.111360e+01 5.236427e+01
4.367218e+01 2.343750e-01 -5.499386e-01 1.262100e+01 -6.172067e+01 5.462920e+01
4.315266e+01 2.343750e-01 -5.788879e-01 1.269434e+01 -6.228040e+01 5.578392e+01
4.221848e+01 2.343750e-01 -5.944548e-01 1.278545e+01 -6.290225e+01 5.746649e+01
4.243965e+01 2.239583e-01 -5.762056e-01 1.288026e+01 -6.346562e+01 5.946935e+01
4.240097e+01 2.291667e-01 -6.105671e-01 1.296078e+01 -6.399910e+01 6.074275e+01
4.204164e+01 2.291667e-01 -6.087321e-01 1.302886e+01 -6.446648e+01 6.183801e+01
4.126868e+01 2.343750e-01 -5.952214e-01 1.310917e+01 -6.488918e+01 6.343399e+01
4.135422e+01 2.291667e-01 -5.730718e-01 1.314921e+01 -6.529497e+01 6.444522e+01
4.122610e+01 2.291667e-01 -5.163907e-01 1.322928e+01 -6.570808e+01 6.599930e+01
4.116676e+01 2.552083e-01 -4.955874e-01 1.331836e+01 -6.609569e+01 6.726735e+01
4.050891e+01 2.395833e-01 -4.921555e-01 1.335565e+01 -6.640924e+01 6.761270e+01
4.013669e+01 2.291667e-01 -4.913695e-01 1.341700e+01 -6.672411e+01 6.865770e+01
4.047238e+01 2.343750e-01 -4.961803e-01 1.344704e+01 -6.704161e+01 6.908937e+01
4.024635e+01 2.395833e-01 -5.301429e-01 1.342280e+01 -6.736684e+01 6.771176e+01
4.005444e+01 2.447917e-01 -5.716919e-01 1.348347e+01 -6.762080e+01 6.904836e+01
3.993872e+01 2.343750e-01 -6.281910e-01 1.361392e+01 -6.784834e+01 7.131801e+01
4.091922e+01 2.395833e-01 -6.120656e-01 1.378009e+01 -6.802983e+01 7.351268e+01
3.976855e+01 2.447917e-01 -5.244013e-01 1.397661e+01 -6.820525e+01 7.374664e+01
3.949493e+01 2.291667e-01 -4.224363e-01 1.421540e+01 -6.837494e+01 7.409099e+01
3.920296e+01 2.239583e-01 -3.384959e-01 1.443233e+01 -6.853648e+01 7.448859e+01
3.948212e+01 2.187500e-01 -2.490021e-01 1.470481e+01 -6.868088e+01 7.651083e+01
3.937436e+01 2.187500e-01 -1.808108e-01 1.489857e+01 -6.884283e+01 7.641869e+01
3.804317e+01 2.083333e-01 -1.163623e-01 1.508538e+01 -6.898758e+01 7.689760e+01
3.950752e+01 2.239583e-01 -4.805976e-02 1.530573e+01 -6.914099e+01 7.850052e+01
3.878035e+01 2.291667e-01 9.503909e-03 1.547678e+01 -6.933528e+01 7.868443e+01
3.899835e+01 2.343750e-01 4.040132e-02 1.556872e+01 -6.952988e+01 7.752965e+01
3.862843e+01 2.239583e-01 6.339931e-02 1.568037e+01 -6.972447e+01 7.826009e+01
3.728564e+01 2.135417e-01 6.932130e-02 1.572874e+01 -6.991937e+01 7.777594e+01
3.799091e+01 2.239583e-01 6.262603e-02 1.574504e+01 -7.008240e+01 7.818378e+01
3.784566e+01 2.031250e-01 6.779373e-02 1.582805e+01 -7.024554e+01 7.980511e+01
3.781206e+01 2.083333e-01 8.706671e-02 1.595643e+01 -7.038089e+01 8.136566e+01
3.728424e+01 2.083333e-01 1.049785e-01 1.600642e+01 -7.052661e+01 8.318863e+01
3.673639e+01 2.031250e-01 1.372494e-01 1.610247e+01 -7.067233e+01 8.493689e+01
3.764671e+01 2.031250e-01 1.784519e-01 1.624918e+01 -7.079877e+01 8.653748e+01
3.764673e+01 2.031250e-01 2.025874e-01 1.635478e+01 -7.093521e+01 8.789226e+01
3.688872e+01 2.083333e-01 1.905724e-01 1.634833e+01 -7.110902e+01 8.914439e+01
3.683183e+01 1.979167e-01 2.001931e-01 1.642340e+01 -7.126027e+01 9.039471e+01
3.787465e+01 1.927083e-01 2.164203e-01 1.650259e+01 -7.139180e+01 9.166887e+01
3.717169e+01 1.979167e-01 2.346570e-01 1.655748e+01 -7.149013e+01 9.295659e+01
3.760048e+01 1.979167e-01 2.504214e-01 1.659211e+01 -7.158859e+01 9.421233e+01
3.783766e+01 2.031250e-01 2.625175e-01 1.661219e+01 -7.166916e+01 9.546529e+01
3.800725e+01 2.083333e-01 2.925786e-01 1.671346e+01 -7.173175e+01 9.656851e+01
3.865031e+01 2.083333e-01 3.098908e-01 1.680430e+01 -7.180336e+01 9.749921e+01
3.696040e+01 2.031250e-01 2.996422e-01 1.676692e+01 -7.188454e+01 9.834349e+01
3.652724e+01 1.979167e-01 3.188741e-01 1.683776e+01 -7.195670e+01 9.921024e+01
3.762956e+01 2.031250e-01 3.487188e-01 1.693654e+01 -7.202005e+01 1.000855e+02
3.766251e+01 2.187500e-01 3.769699e-01 1.702912e+01 -7.209280e+01 1.009490e+02
3.760045e+01 2.187500e-01 4.026090e-01 1.708093e+01 -7.214728e+01 1.018256e+02
3.712935e+01 2.083333e-01 4.028229e-01 1.706083e+01 -7.221075e+01 1.025887e+02
3.675186e+01 2.083333e-01 3.998940e-01 1.702481e+01 -7.226535e+01 1.033245e+02
3.737431e+01 2.031250e-01 4.273525e-01 1.709781e+01 -7.232010e+01 1.040625e+02
3.773904e+01 2.083333e-01 4.583996e-01 1.719758e+01 -7.237471e+01 1.047820e+02
3.657817e+01 2.083333e-01 4.602711e-01 1.718916e+01 -7.243857e+01 1.054797e+02
3.660310e+01 2.083333e-01 4.707052e-01 1.720468e+01 -7.246602e+01 1.061231e+02
3.620729e+01 2.083333e-01 4.890245e-01 1.722124e+01 -7.249348e+01 1.067890e+02
3.645422e+01 2.083333e-01 5.123217e-01 1.725929e+01 -7.250272e+01 1.074247e+02
3.789478e+01 2.083333e-01 5.554671e-01 1.740213e+01 -7.247533e+01 1.080217e+02
3.689304e+01 2.031250e-01 5.664852e-01 1.744172e+01 -7.242027e+01 1.085519e+02
3.587827e+01 1.979167e-01 5.712867e-01 1.743322e+01 -7.234715e+01 1.090930e+02
3.643555e+01 2.031250e-01 5.912503e-01 1.747476e+01 -7.226453e+01 1.097383e+02
3.664497e+01 2.031250e-01 6.183597e-01 1.754810e+01 -7.218190e+01 1.102623e+02
3.639191e+01 2.031250e-01 6.411754e-01 1.759601e+01 -7.209917e+01 1.107536e+02
3.654149e+01 1.979167e-01 6.540644e-01 1.759437e+01 -7.202545e+01 1.112516e+02
3.648866e+01 2.031250e-01 6.713888e-01 1.762948e+01 -7.192416e+01 1.117149e+02
3.660129e+01 1.979167e-01 6.791660e-01 1.762351e+01 -7.184131e+01 1.121349e+02
3.675861e+01 2.031250e-01 6.954566e-01 1.764418e+01 -7.171275e+01 1.125548e+02
3.653629e+01 2.031250e-01 7.050418e-01 1.764915e+01 -7.160228e+01 1.129748e+02
3.667177e+01 2.031250e-01 7.150355e-01 1.765434e+01 -7.146663e+01 1.133967e+02
3.660446e+01 2.031250e-01 7.380237e-01 1.771289e+01 -7.131999e+01 1.138760e+02
3.653674e+01 2.031250e-01 7.710430e-01 1.780761e+01 -7.115404e+01 1.143053e+02
3.690056e+01 1.979167e-01 7.990759e-01 1.787298e+01 -7.106151e+01 1.147345e+02
3.648302e+01 1.979167e-01 8.087446e-01 1.788408e+01 -7.112587e+01 1.151013e+02
3.653470e+01 1.979167e-01 8.081933e-01 1.786807e+01 -7.120895e+01 1.154690e+02
3.630388e+01 1.979167e-01 8.166016e-01 1.787477e+01 -7.127402e+01 1.158516e+02
3.591730e+01 1.979167e-01 8.372079e-01 1.792080e+01 -7.137614e+01 1.162469e+02
3.619868e+01 1.979167e-01 8.482055e-01 1.792500e+01 -7.152419e+01 1.166891e+02
3.622942e+01 1.979167e-01 8.642718e-01 1.794411e+01 -7.165526e+01 1.170859e+02
3.626396e+01 1.979167e-01 8.912762e-01 1.801077e+01 -7.180472e+01 1.174435e+02
3.601765e+01 1.979167e-01 9.049394e-01 1.803211e+01 -7.200990e+01 1.178233e+02
3.656349e+01 1.979167e-01 9.175519e-01 1.805324e+01 -7.224469e+01 1.181958e+02
3.620444e+01 1.979167e-01 9.327217e-01 1.806189e+01 -7.254884e+01 1.185692e+02
3.599141e+01 1.979167e-01 9.486022e-01 1.805595e+01 -7.283087e+01 1.189193e+02
3.692625e+01 2.031250e-01 9.803003e-01 1.809217e+01 -7.306700e+01 1.193080e+02
3.698138e+01 2.031250e-01 1.006707e+00 1.810027e+01 -7.337206e+01 1.196468e+02
3.656863e+01 1.979167e-01 1.029106e+00 1.807986e+01 -7.376131e+01 1.200063e+02
3.625635e+01 1.979167e-01 1.062806e+00 1.811068e+01 -7.428024e+01 1.204301e+02
3.633066e+01 1.979167e-01 1.093836e+00 1.814188e+01 -7.474506e+01 1.208303e+02
3.758369e+01 2.031250e-01 1.111009e+00 1.817892e+01 -7.521565e+01 1.211802e+02
3.685306e+01 1.979167e-01 1.076003e+00 1.820643e+01 -7.602760e+01 1.215018e+02
3.634981e+01 1.979167e-01 1.050087e+00 1.821321e+01 -7.667114e+01 1.218900e+02
3.713780e+01 2.031250e-01 1.049677e+00 1.827787e+01 -7.727893e+01 1.223215e+02
3.807333e+01 2.031250e-01 1.063671e+00 1.836923e+01 -7.789990e+01 1.226722e+02
3.689185e+01 2.031250e-01 1.052309e+00 1.834272e+01 -7.839079e+01 1.229698e+02
3.678352e+01 2.031250e-01 1.058631e+00 1.835880e+01 -7.884196e+01 1.232419e+02
3.715198e+01 1.979167e-01 1.082878e+00 1.843505e+01 -7.930870e+01 1.235421e+02
3.744557e+01 1.979167e-01 1.095947e+00 1.849935e+01 -7.977113e+01 1.239197e+02
3.720206e+01 1.979167e-01 1.092831e+00 1.850722e+01 -8.018317e+01 1.242206e+02
3.728975e+01 1.979167e-01 1.087770e+00 1.854430e+01 -8.077795e+01 1.245279e+02
3.712766e+01 2.135417e-01 1.071900e+00 1.853451e+01 -8.137151e+01 1.248069e+02
3.744649e+01 2.083333e-01 1.067362e+00 1.857052e+01 -8.183394e+01 1.250315e+02
3.862520e+01 2.083333e-01 1.086910e+00 1.867995e+01 -8.217827e+01 1.252479e+02
3.715858e+01 2.031250e-01 1.081852e+00 1.870296e+01 -8.253743e+01 1.254459e+02
3.685013e+01 2.135417e-01 1.070820e+00 1.872045e+01 -8.287863e+01 1.257044e+02
3.653026e+01 1.979167e-01 1.111454e+00 1.884013e+01 -8.285854e+01 1.260240e+02
3.847813e+01 1.979167e-01 1.147618e+00 1.894873e+01 -8.284932e+01 1.264029e+02
3.696770e+01 1.979167e-01 1.133554e+00 1.888942e+01 -8.309184e+01 1.267334e+02
3.673079e+01 2.031250e-01 1.104149e+00 1.885005e+01 -8.322450e+01 1.270062e+02
3.735109e+01 1.979167e-01 1.097467e+00 1.892158e+01 -8.339526e+01 1.272421e+02
3.694731e+01 1.979167e-01 1.106492e+00 1.901220e+01 -8.355504e+01 1.274671e+02
3.725267e+01 2.031250e-01 1.104604e+00 1.905538e+01 -8.365883e+01 1.277162e+02
3.771619e+01 1.979167e-01 1.133169e+00 1.914189e+01 -8.363080e+01 1.279890e+02
3.740767e+01 1.979167e-01 1.150973e+00 1.918046e+01 -8.376355e+01 1.282888e+02
3.736171e+01 2.031250e-01 1.146552e+00 1.919069e+01 -8.400172e+01 1.285477e+02
3.708661e+01 1.979167e-01 1.141873e+00 1.918089e+01 -8.405894e+01 1.287849e+02
3.709865e+01 1.979167e-01 1.146861e+00 1.920323e+01 -8.414581e+01 1.290116e+02
3.730547e+01 1.979167e-01 1.145984e+00 1.922181e+01 -8.419363e+01 1.292038e+02
3.731387e+01 1.979167e-01 1.152528e+00 1.924614e+01 -8.410770e+01 1.293943e+02
3.720987e+01 2.031250e-01 1.140303e+00 1.922331e+01 -8.410770e+01 1.295569e+02
3.714558e+01 1.979167e-01 1.155885e+00 1.926304e+01 -8.380435e+01 1.297401e+02
3.798315e+01 2.031250e-01 1.175807e+00 1.933998e+01 -8.370152e+01 1.298919e+02
3.762689e+01 1.979167e-01 1.177071e+00 1.935879e+01 -8.344014e+01 1.300329e+02
3.767091e+01 1.979167e-01 1.168581e+00 1.937988e+01 -8.340120e+01 1.301553e+02
3.782109e+01 1.979167e-01 1.182313e+00 1.937952e+01 -8.302444e+01 1.302415e+02
3.781116e+01 2.031250e-01 1.184668e+00 1.939326e+01 -8.287547e+01 1.303184e+02
3.766953e+01 1.927083e-01 1.181798e+00 1.939658e+01 -8.283772e+01 1.303852e+02
3.767329e+01 1.979167e-01 1.191994e+00 1.939694e+01 -8.240825e+01 1.304808e+02
3.773352e+01 1.927083e-01 1.213493e+00 1.941029e+01 -8.211943e+01 1.305670e+02
3.773096e+01 2.031250e-01 1.217667e+00 1.937686e+01 -8.183722e+01 1.306544e+02
3.786285e+01 1.927083e-01 1.228865e+00 1.940080e+01 -8.116600e+01 1.307325e+02
3.807031e+01 1.927083e-01 1.250205e+00 1.940788e+01 -8.006761e+01 1.308203e+02
3.779820e+01 1.979167e-01 1.265553e+00 1.939651e+01 -7.843713e+01 1.309082e+02
3.799226e+01 1.979167e-01 1.243524e+00 1.939929e+01 -7.798558e+01 1.309960e+02
3.767865e+01 1.927083e-01 1.259030e+00 1.943421e+01 -7.690125e+01 1.310840e+02
3.792973e+01 1.979167e-01 1.288979e+00 1.939120e+01 -7.485516e+01 1.311720e+02
3.774951e+01 1.927083e-01 1.279225e+00 1.933526e+01 -7.330791e+01 1.312600e+02
3.763591e+01 1.927083e-01 1.240742e+00 1.939112e+01 -7.327367e+01 1.313382e+02
3.732719e+01 1.927083e-01 1.248414e+00 1.937880e+01 -7.227397e+01 1.314458e+02
3.720679e+01 1.927083e-01 1.284631e+00 1.937225e+01 -7.136473e+01 1.315533e+02
3.706110e+01 1.927083e-01 1.320867e+00 1.940016e+01 -7.036009e+01 1.316510e+02
3.748004e+01 2.031250e-01 1.325628e+00 1.944735e+01 -7.079028e+01 1.317586e+02
3.748561e+01 2.083333e-01 1.322660e+00 1.945803e+01 -7.103961e+01 1.318563e+02
3.748767e+01 1.979167e-01 1.317278e+00 1.948945e+01 -7.160420e+01 1.319639e+02
3.817116e+01 1.979167e-01 1.322807e+00 1.950241e+01 -7.179977e+01 1.320714e+02
3.743938e+01 1.979167e-01 1.300141e+00 1.952614e+01 -7.266753e+01 1.321692e+02
3.715422e+01 2.083333e-01 1.274430e+00 1.954781e+01 -7.329819e+01 1.322938e+02
3.796356e+01 2.031250e-01 1.321989e+00 1.958780e+01 -7.295839e+01 1.324014e+02
3.764998e+01 1.979167e-01 1.337004e+00 1.966170e+01 -7.334450e+01 1.324991e+02
3.761490e+01 2.031250e-01 1.321998e+00 1.973039e+01 -7.437993e+01 1.325872e+02
3.743164e+01 2.031250e-01 1.300811e+00 1.977498e+01 -7.505563e+01 1.326753e+02
3.800171e+01 2.135417e-01 1.321096e+00 1.971000e+01 -7.449033e+01 1.327634e+02
3.677921e+01 2.135417e-01 1.316022e+00 1.964834e+01 -7.432878e+01 1.328614e+02
3.708617e+01 2.135417e-01 1.299088e+00 1.969628e+01 -7.525058e+01 1.329766e+02
3.763165e+01 2.083333e-01 1.297173e+00 1.977294e+01 -7.565759e+01 1.331212e+02
3.933078e+01 2.135417e-01 1.312849e+00 1.990270e+01 -7.648627e+01 1.332388e+02
3.708817e+01 2.031250e-01 1.299720e+00 1.993725e+01 -7.734685e+01 1.333368e+02
3.756323e+01 2.291667e-01 1.286447e+00 1.994514e+01 -7.786163e+01 1.334349e+02
3.739388e+01 2.083333e-01 1.336721e+00 2.003246e+01 -7.792049e+01 1.335330e+02
3.825366e+01 1.979167e-01 1.367317e+00 2.009960e+01 -7.813953e+01 1.336508e+02
3.762564e+01 2.083333e-01 1.309698e+00 2.011010e+01 -7.923973e+01 1.337491e+02
3.708835e+01 2.187500e-01 1.244633e+00 2.008543e+01 -7.994803e+01 1.338474e+02
3.781546e+01 2.187500e-01 1.252392e+00 2.008538e+01 -8.004634e+01 1.339555e+02
3.866946e+01 2.135417e-01 1.314404e+00 2.005259e+01 -7.877771e+01 1.340808e+02
3.878061e+01 2.135417e-01 1.329331e+00 2.003624e+01 -7.784357e+01 1.342061e+02
3.747339e+01 2.083333e-01 1.311797e+00 2.007717e+01 -7.844844e+01 1.343315e+02
3.727985e+01 2.031250e-01 1.278544e+00 2.016062e+01 -7.919121e+01 1.344494e+02
3.763156e+01 2.031250e-01 1.277640e+00 2.019738e+01 -7.933144e+01 1.345479e+02
3.793011e+01 2.083333e-01 1.321529e+00 2.018639e+01 -7.811298e+01 1.346463e+02
3.788470e+01 2.083333e-01 1.335213e+00 2.023401e+01 -7.744374e+01 1.347545e+02
3.737291e+01 2.031250e-01 1.314020e+00 2.025059e+01 -7.813304e+01 1.348628e+02
3.788788e+01 2.031250e-01 1.299820e+00 2.028104e+01 -7.873825e+01 1.349710e+02
3.835329e+01 2.135417e-01 1.300779e+00 2.033452e+01 -7.945493e+01 1.350891e+02
3.798582e+01 1.979167e-01 1.293914e+00 2.033350e+01 -8.029738e+01 1.352072e+02
3.838983e+01 2.031250e-01 1.302647e+00 2.032763e+01 -8.097166e+01 1.353253e+02
3.815860e+01 2.083333e-01 1.297582e+00 2.034716e+01 -8.187271e+01 1.354335e+02
3.850371e+01 1.979167e-01 1.301532e+00 2.040947e+01 -8.256166e+01 1.355221e+02
3.831592e+01 2.083333e-01 1.274603e+00 2.047065e+01 -8.352689e+01 1.356106e+02
3.861456e+01 2.083333e-01 1.277805e+00 2.048029e+01 -8.362535e+01 1.356992e+02
3.783475e+01 2.083333e-01 1.277369e+00 2.051004e+01 -8.387900e+01 1.357877e+02
3.809940e+01 2.083333e-01 1.284415e+00 2.054910e+01 -8.415236e+01 1.358861e+02
3.797252e+01 1.979167e-01 1.279270e+00 2.060952e+01 -8.466934e+01 1.359943e+02
3.760866e+01 1.927083e-01 1.286046e+00 2.063688e+01 -8.485643e+01 1.360829e+02
3.748248e+01 1.927083e-01 1.286495e+00 2.061228e+01 -8.478256e+01 1.361714e+02
3.825237e+01 1.979167e-01 1.277342e+00 2.062167e+01 -8.497211e+01 1.362600e+02
3.829025e+01 1.979167e-01 1.276495e+00 2.063004e+01 -8.471579e+01 1.363485e+02
3.807072e+01 1.979167e-01 1.267584e+00 2.062286e+01 -8.460530e+01 1.364371e+02
3.752365e+01 1.979167e-01 1.251698e+00 2.066406e+01 -8.501662e+01 1.365256e+02
3.774350e+01 1.979167e-01 1.264542e+00 2.074161e+01 -8.530440e+01 1.366240e+02
3.809015e+01 2.031250e-01 1.290929e+00 2.075315e+01 -8.500659e+01 1.367224e+02
3.788945e+01 1.979167e-01 1.312340e+00 2.077450e+01 -8.431912e+01 1.368111e+02
3.725673e+01 2.031250e-01 1.298608e+00 2.078979e+01 -8.484196e+01 1.368997e+02
3.763136e+01 2.135417e-01 1.302510e+00 2.083143e+01 -8.499947e+01 1.369884e+02
3.806329e+01 2.083333e-01 1.321877e+00 2.087533e+01 -8.503889e+01 1.370968e+02
3.802367e+01 2.031250e-01 1.340212e+00 2.087224e+01 -8.479977e+01 1.371855e+02
3.764986e+01 2.031250e-01 1.324374e+00 2.084161e+01 -8.515250e+01 1.372742e+02
3.795612e+01 1.979167e-01 1.325807e+00 2.086169e+01 -8.517233e+01 1.373727e+02
3.795232e+01 1.979167e-01 1.337883e+00 2.088949e+01 -8.537685e+01 1.374811e+02
3.805174e+01 1.979167e-01 1.353617e+00 2.092630e+01 -8.541156e+01 1.375896e+02
3.750740e+01 2.031250e-01 1.347618e+00 2.093310e+01 -8.576480e+01 1.376784e+02
3.817735e+01 2.031250e-01 1.355362e+00 2.099087e+01 -8.616742e+01 1.377770e+02
3.959955e+01 2.083333e-01 1.375995e+00 2.107222e+01 -8.643396e+01 1.378658e+02
3.808368e+01 2.083333e-01 1.347309e+00 2.105269e+01 -8.669037e+01 1.379446e+02
3.765005e+01 2.031250e-01 1.342692e+00 2.104743e+01 -8.676921e+01 1.380630e+02
3.860866e+01 2.031250e-01 1.362126e+00 2.107093e+01 -8.657181e+01 1.381888e+02
3.963991e+01 1.979167e-01 1.356183e+00 2.113736e+01 -8.689522e+01 1.382875e+02
3.818040e+01 2.031250e-01 1.337838e+00 2.116895e+01 -8.734457e+01 1.383663e+02
3.820894e+01 2.135417e-01 1.332439e+00 2.121792e+01 -8.770776e+01 1.384749e+02
3.855109e+01 2.083333e-01 1.377779e+00 2.125855e+01 -8.686221e+01 1.385736e+02
3.853622e+01 2.083333e-01 1.394451e+00 2.127705e+01 -8.617543e+01 1.386823e+02
3.841129e+01 2.031250e-01 1.397411e+00 2.129815e+01 -8.643257e+01 1.387910e+02
3.834586e+01 2.083333e-01 1.395785e+00 2.130749e+01 -8.653403e+01 1.388898e+02
3.944835e+01 2.135417e-01 1.381691e+00 2.133167e+01 -8.707585e+01 1.389985e+02
3.930544e+01 2.083333e-01 1.379292e+00 2.136065e+01 -8.735985e+01 1.390874e+02
3.845605e+01 2.083333e-01 1.378123e+00 2.138456e+01 -8.763191e+01 1.391763e+02
3.825862e+01 2.083333e-01 1.378785e+00 2.138319e+01 -8.755298e+01 1.392850e+02
3.942439e+01 2.083333e-01 1.396615e+00 2.143135e+01 -8.774847e+01 1.393739e+02
3.928625e+01 2.083333e-01 1.412108e+00 2.146923e+01 -8.785738e+01 1.394628e+02
3.849533e+01 2.083333e-01 1.391945e+00 2.148487e+01 -8.848071e+01 1.395517e+02
3.863530e+01 2.135417e-01 1.383764e+00 2.151931e+01 -8.875494e+01 1.396405e+02
3.901205e+01 2.083333e-01 1.395464e+00 2.155842e+01 -8.887111e+01 1.397393e+02
3.966011e+01 2.135417e-01 1.408577e+00 2.160527e+01 -8.896014e+01 1.398382e+02
3.933322e+01 2.083333e-01 1.392391e+00 2.163056e+01 -8.948853e+01 1.399270e+02
3.869650e+01 2.083333e-01 1.373271e+00 2.164881e+01 -8.980424e+01 1.400159e+02
3.935106e+01 2.083333e-01 1.393370e+00 2.169078e+01 -8.989323e+01 1.401048e+02
3.976927e+01 2.083333e-01 1.415207e+00 2.169773e+01 -8.950752e+01 1.401937e+02
3.946703e+01 2.031250e-01 1.417391e+00 2.169549e+01 -8.967073e+01 1.402826e+02
3.861401e+01 2.135417e-01 1.390324e+00 2.166739e+01 -9.002667e+01 1.403715e+02
3.889369e+01 2.135417e-01 1.408364e+00 2.172201e+01 -8.999222e+01 1.404604e+02
3.962311e+01 2.083333e-01 1.411551e+00 2.177786e+01 -9.040234e+01 1.405493e+02
3.939467e+01 2.135417e-01 1.395770e+00 2.179115e+01 -9.069122e+01 1.406382e+02
3.939278e+01 2.031250e-01 1.421750e+00 2.182565e+01 -9.035759e+01 1.407271e+02
3.934633e+01 2.083333e-01 1.454797e+00 2.188785e+01 -8.996483e+01 1.408160e+02
3.935562e+01 2.083333e-01 1.451184e+00 2.195192e+01 -9.027371e+01 1.409049e+02
3.922321e+01 2.031250e-01 1.434605e+00 2.197721e+01 -9.054570e+01 1.409938e+02
3.970052e+01 2.031250e-01 1.444363e+00 2.198306e+01 -9.029344e+01 1.410827e+02
3.928088e+01 2.083333e-01 1.438946e+00 2.194667e+01 -9.025404e+01 1.411716e+02
3.888422e+01 2.083333e-01 1.416900e+00 2.192161e+01 -9.066206e+01 1.412605e+02
3.949408e+01 2.031250e-01 1.431396e+00 2.194662e+01 -9.072133e+01 1.413494e+02
4.044415e+01 2.031250e-01 1.459474e+00 2.201976e+01 -9.090895e+01 1.414383e+02
3.914534e+01 1.979167e-01 1.444368e+00 2.206471e+01 -9.168039e+01 1.415272e+02
3.930927e+01 2.031250e-01 1.450287e+00 2.212064e+01 -9.209581e+01 1.416161e+02
3.965173e+01 2.031250e-01 1.475383e+00 2.219002e+01 -9.210579e+01 1.417050e+02
4.035471e+01 2.031250e-01 1.503511e+00 2.226925e+01 -9.231590e+01 1.417939e+02
3.937128e+01 2.031250e-01 1.475541e+00 2.226323e+01 -9.291197e+01 1.418828e+02
3.888574e+01 2.135417e-01 1.445339e+00 2.221070e+01 -9.309995e+01 1.419717e+02
3.862502e+01 2.031250e-01 1.461036e+00 2.220121e+01 -9.309995e+01 1.420606e+02
4.073888e+01 2.031250e-01 1.501651e+00 2.222499e+01 -9.247662e+01 1.421495e+02
3.806381e+01 1.979167e-01 1.512086e+00 2.224080e+01 -9.266194e+01 1.422384e+02
3.859868e+01 1.979167e-01 1.499237e+00 2.231530e+01 -9.302521e+01 1.423273e+02
3.909155e+01 1.979167e-01 1.496546e+00 2.237885e+01 -9.326227e+01 1.424162e+02
3.989192e+01 2.031250e-01 1.513531e+00 2.241608e+01 -9.322276e+01 1.425051e+02
3.918346e+01 2.031250e-01 1.521347e+00 2.239619e+01 -9.308931e+01 1.425940e+02
3.807220e+01 1.979167e-01 1.527923e+00 2.237371e+01 -9.263199e+01 1.426829e+02
3.830440e+01 1.979167e-01 1.542991e+00 2.237127e+01 -9.252084e+01 1.427718e+02
4.080910e+01 2.031250e-01 1.573619e+00 2.244023e+01 -9.240231e+01 1.428607e+02
3.950923e+01 2.031250e-01 1.544993e+00 2.252080e+01 -9.328523e+01 1.429496e+02
3.855585e+01 1.979167e-01 1.511975e+00 2.253418e+01 -9.350522e+01 1.430385e+02
3.892073e+01 1.979167e-01 1.532544e+00 2.256778e+01 -9.343619e+01 1.431274e+02
3.997728e+01 2.031250e-01 1.579201e+00 2.258145e+01 -9.250635e+01 1.432163e+02
3.962158e+01 2.031250e-01 1.579522e+00 2.256152e+01 -9.212851e+01 1.433052e+02
3.908411e+01 1.979167e-01 1.569410e+00 2.256547e+01 -9.256616e+01 1.433941e+02
3.869072e+01 1.979167e-01 1.554182e+00 2.258728e+01 -9.325839e+01 1.434830e+02
3.934444e+01 1.979167e-01 1.573267e+00 2.265392e+01 -9.368126e+01 1.435719e+02
4.045711e+01 2.031250e-01 1.580325e+00 2.275161e+01 -9.438895e+01 1.436608e+02
3.928636e+01 1.979167e-01 1.587464e+00 2.282336e+01 -9.512375e+01 1.437496e+02
3.888976e+01 1.979167e-01 1.589270e+00 2.284102e+01 -9.533386e+01 1.438385e+02
3.800583e+01 2.083333e-01 1.561206e+00 2.279362e+01 -9.581837e+01 1.439274e+02
3.913777e+01 2.031250e-01 1.586467e+00 2.283634e+01 -9.582823e+01 1.440163e+02
4.023711e+01 2.031250e-01 1.595524e+00 2.285252e+01 -9.612993e+01 1.441052e+02
3.919684e+01 2.083333e-01 1.585904e+00 2.287400e+01 -9.658223e+01 1.441941e+02
3.806618e+01 2.031250e-01 1.587283e+00 2.292479e+01 -9.669099e+01 1.442830e+02
3.905951e+01 1.979167e-01 1.616079e+00 2.301277e+01 -9.678986e+01 1.443719e+02
4.106172e+01 2.031250e-01 1.644851e+00 2.309936e+01 -9.694795e+01 1.444608e+02
3.949162e+01 1.979167e-01 1.627764e+00 2.311820e+01 -9.709625e+01 1.445497e+02
3.817725e+01 2.135417e-01 1.587898e+00 2.305688e+01 -9.716298e+01 1.446386e+02
3.822433e+01 2.135417e-01 1.594966e+00 2.303107e+01 -9.672804e+01 1.447275e+02
3.929102e+01 2.031250e-01 1.632349e+00 2.308751e+01 -9.626312e+01 1.448164e+02
3.986595e+01 1.979167e-01 1.654864e+00 2.315511e+01 -9.605792e+01 1.449053e+02
3.883073e+01 2.031250e-01 1.639634e+00 2.317171e+01 -9.643291e+01 1.449942e+02
3.847482e+01 2.031250e-01 1.635827e+00 2.318796e+01 -9.636604e+01 1.450831e+02
3.804364e+01 2.083333e-01 1.634612e+00 2.318660e+01 -9.631668e+01 1.451720e+02
3.864857e+01 2.031250e-01 1.649100e+00 2.321346e+01 -9.621036e+01 1.452609e+02
3.882756e+01 2.031250e-01 1.666763e+00 2.326136e+01 -9.629695e+01 1.453498e+02
3.913802e+01 1.979167e-01 1.694464e+00 2.333539e+01 -9.631668e+01 1.454387e+02
3.948494e+01 2.083333e-01 1.701890e+00 2.337750e+01 -9.646275e+01 1.455276e+02
3.842776e+01 2.083333e-01 1.655706e+00 2.334381e+01 -9.702885e+01 1.456165e+02
3.806670e+01 2.135417e-01 1.637029e+00 2.332116e+01 -9.727379e+01 1.457054e+02
3.965540e+01 2.031250e-01 1.667270e+00 2.338889e+01 -9.716481e+01 1.457943e+02
4.035255e+01 2.031250e-01 1.715443e+00 2.344661e+01 -9.646710e+01 1.458832e+02
3.852750e+01 2.083333e-01 1.717667e+00 2.343932e+01 -9.615544e+01 1.459721e+02
3.791518e+01 2.239583e-01 1.708628e+00 2.345555e+01 -9.625404e+01 1.460610e+02
3.894704e+01 2.083333e-01 1.713425e+00 2.352896e+01 -9.621451e+01 1.461499e+02
3.950227e+01 2.031250e-01 1.711995e+00 2.356129e+01 -9.615768e+01 1.462388e+02
4.044554e+01 2.083333e-01 1.715611e+00 2.358559e+01 -9.629364e+01 1.463177e+02
3.870616e+01 2.031250e-01 1.710535e+00 2.356692e+01 -9.646405e+01 1.464066e+02
3.829210e+01 2.187500e-01 1.714981e+00 2.358807e+01 -9.678290e+01 1.464955e+02
3.853403e+01 2.031250e-01 1.729979e+00 2.363073e+01 -9.692625e+01 1.465844e+02
3.900116e+01 2.031250e-01 1.751104e+00 2.371100e+01 -9.725237e+01 1.466733e+02
3.901389e+01 2.031250e-01 1.750598e+00 2.375986e+01 -9.768533e+01 1.467622e+02
3.889973e+01 2.031250e-01 1.741178e+00 2.376740e+01 -9.801930e+01 1.468511e+02
3.849408e+01 2.031250e-01 1.728671e+00 2.375945e+01 -9.827414e+01 1.469400e+02
3.866508e+01 2.031250e-01 1.744155e+00 2.378551e+01 -9.816774e+01 1.470289e+02
3.865396e+01 2.031250e-01 1.746772e+00 2.381846e+01 -9.843980e+01 1.471178e+02
3.881670e+01 2.031250e-01 1.760346e+00 2.386496e+01 -9.852879e+01 1.472067e+02
3.879333e+01 2.031250e-01 1.768746e+00 2.391817e+01 -9.871419e+01 1.472956e+02
3.907414e+01 2.135417e-01 1.764363e+00 2.394067e+01 -9.898129e+01 1.473845e+02
3.927484e+01 2.083333e-01 1.767109e+00 2.394699e+01 -9.900096e+01 1.474734e+02
3.910773e+01 2.031250e-01 1.749956e+00 2.394086e+01 -9.922581e+01 1.475623e+02
3.909044e+01 2.135417e-01 1.731388e+00 2.390832e+01 -9.930983e+01 1.476512e+02
3.875891e+01 2.031250e-01 1.738892e+00 2.393154e+01 -9.946559e+01 1.477401e+02
3.916676e+01 2.031250e-01 1.759363e+00 2.399430e+01 -9.987035e+01 1.478290e+02
3.892766e+01 2.083333e-01 1.777505e+00 2.404999e+01 -1.000755e+02 1.479179e+02
3.898793e+01 2.083333e-01 1.791482e+00 2.409701e+01 -1.002734e+02 1.480068e+02
3.918793e+01 2.083333e-01 1.779182e+00 2.412920e+01 -1.007404e+02 1.480957e+02
3.912965e+01 2.083333e-01 1.758821e+00 2.412721e+01 -1.010789e+02 1.481846e+02
3.953436e+01 2.031250e-01 1.779654e+00 2.417732e+01 -1.009210e+02 1.482735e+02
3.915851e+01 2.083333e-01 1.784875e+00 2.417662e+01 -1.006861e+02 1.483624e+02
3.882620e+01 2.083333e-01 1.791276e+00 2.419794e+01 -1.008913e+02 1.484512e+02
3.912123e+01 2.083333e-01 1.777069e+00 2.421629e+01 -1.011655e+02 1.485401e+02
3.932266e+01 2.135417e-01 1.775523e+00 2.425139e+01 -1.015437e+02 1.486290e+02
3.925995e+01 2.083333e-01 1.798711e+00 2.431831e+01 -1.017020e+02 1.487179e+02
3.906487e+01 2.135417e-01 1.787857e+00 2.434399e+01 -1.021793e+02 1.488068e+02
3.911122e+01 2.083333e-01 1.792189e+00 2.437055e+01 -1.024363e+02 1.488957e+02
3.844829e+01 2.083333e-01 1.797596e+00 2.437703e+01 -1.023967e+02 1.489846e+02
3.928374e+01 2.135417e-01 1.812636e+00 2.442795e+01 -1.026042e+02 1.490735e+02
3.938933e+01 2.135417e-01 1.811958e+00 2.445894e+01 -1.029158e+02 1.491624e+02
3.821820e+01 2.083333e-01 1.803136e+00 2.447792e+01 -1.031554e+02 1.492513e+02
3.889389e+01 2.135417e-01 1.797616e+00 2.449699e+01 -1.034420e+02 1.493402e+02
3.937047e+01 2.135417e-01 1.807861e+00 2.452160e+01 -1.035311e+02 1.494291e+02
3.915366e+01 2.135417e-01 1.806666e+00 2.449938e+01 -1.036175e+02 1.495180e+02
3.883226e+01 2.083333e-01 1.808124e+00 2.450698e+01 -1.035557e+02 1.496069e+02
3.947719e+01 2.135417e-01 1.836821e+00 2.459680e+01 -1.038150e+02 1.496958e+02
3.994119e+01 2.135417e-01 1.844351e+00 2.467872e+01 -1.041785e+02 1.497847e+02
3.846320e+01 2.187500e-01 1.827627e+00 2.469898e+01 -1.046355e+02 1.498736e+02
3.849744e+01 2.291667e-01 1.816988e+00 2.470597e+01 -1.049512e+02 1.499625e+02
3.918504e+01 2.135417e-01 1.842624e+00 2.475386e+01 -1.050205e+02 1.500514e+02
4.037460e+01 2.083333e-01 1.874145e+00 2.477618e+01 -1.046204e+02 1.501403e+02
3.928046e+01 2.187500e-01 1.868215e+00 2.478695e+01 -1.049195e+02 1.502292e+02
3.869722e+01 2.343750e-01 1.839459e+00 2.474971e+01 -1.050184e+02 1.503181e+02
3.886934e+01 2.135417e-01 1.842027e+00 2.477788e+01 -1.050184e+02 1.504070e+02
4.030385e+01 2.083333e-01 1.854222e+00 2.483463e+01 -1.049789e+02 1.504959e+02
3.896373e+01 2.135417e-01 1.841390e+00 2.483892e+01 -1.050729e+02 1.505848e+02
3.923882e+01 2.187500e-01 1.846410e+00 2.486982e+01 -1.052458e+02 1.506737e+02
3.948872e+01 2.395833e-01 1.846341e+00 2.486235e+01 -1.053793e+02 1.507626e+02
3.871309e+01 2.187500e-01 1.903878e+00 2.491905e+01 -1.052804e+02 1.508515e+02
3.973106e+01 2.083333e-01 1.918382e+00 2.501618e+01 -1.056366e+02 1.509404e+02
3.891228e+01 2.135417e-01 1.896540e+00 2.507097e+01 -1.062203e+02 1.510293e+02
3.923503e+01 2.291667e-01 1.884369e+00 2.505535e+01 -1.061414e+02 1.511182e+02
3.935620e+01 2.343750e-01 1.892099e+00 2.505169e+01 -1.061515e+02 1.512071e+02
3.881445e+01 2.187500e-01 1.927994e+00 2.503286e+01 -1.051278e+02 1.512960e+02
3.923064e+01 2.135417e-01 1.966689e+00 2.506890e+01 -1.045389e+02 1.513849e+02
3.910471e+01 2.135417e-01 1.972394e+00 2.509179e+01 -1.042351e+02 1.514738e+02
3.907692e+01 2.239583e-01 1.938782e+00 2.510145e+01 -1.047572e+02 1.515627e+02
3.848354e+01 2.135417e-01 1.921592e+00 2.513297e+01 -1.048239e+02 1.516516e+02
3.836617e+01 2.135417e-01 1.917010e+00 2.517953e+01 -1.050213e+02 1.517405e+02
3.907524e+01 2.291667e-01 1.925395e+00 2.521317e+01 -1.049819e+02 1.518294e+02
3.854124e+01 2.083333e-01 1.963351e+00 2.525898e+01 -1.046267e+02 1.519183e+02
3.904306e+01 2.135417e-01 1.980051e+00 2.528022e+01 -1.045476e+02 1.520072e+02
3.849721e+01 2.135417e-01 1.974044e+00 2.530142e+01 -1.049425e+02 1.520961e+02
3.881184e+01 2.187500e-01 1.964796e+00 2.531167e+01 -1.052292e+02 1.521850e+02
