7.377227e+01 3.697917e-01 -4.014061e-02 6.067846e-01 -9.987045e-01 9.952846e-01
5.673325e+01 3.697917e-01 -6.914139e-02 5.932400e-01 -1.114802e+00 9.581864e-01
5.787131e+01 3.697917e-01 -7.661568e-02 5.952705e-01 -1.075819e+00 9.706515e-01
5.631781e+01 3.697917e-01 -7.501147e-02 5.956486e-01 -1.076764e+00 1.001643e+00
5.582043e+01 3.697917e-01 -7.840003e-02 5.974505e-01 -1.075326e+00 1.049604e+00
5.581869e+01 3.697917e-01 -7.958232e-02 5.997202e-01 -1.056953e+00 1.057956e+00
5.649201e+01 3.697917e-01 -7.776182e-02 6.036370e-01 -1.029364e+00 1.092350e+00
4.706653e+01 3.072917e-01 -1.113292e-01 8.977646e-01 -2.099982e+00 2.801141e+00
4.523410e+01 2.760417e-01 -1.193843e-01 1.218827e+00 -2.450981e+00 3.614285e+00
4.511338e+01 2.968750e-01 -1.273044e-01 1.346041e+00 -2.755039e+00 3.890308e+00
4.509125e+01 2.864583e-01 -1.239443e-01 1.364503e+00 -2.755039e+00 3.890308e+00
4.403806e+01 2.708333e-01 -1.164376e-01 1.366439e+00 -2.674401e+00 3.873482e+00
4.241485e+01 2.604167e-01 -1.194383e-01 1.369633e+00 -2.793585e+00 3.858854e+00
4.276405e+01 2.500000e-01 -1.219610e-01 1.374360e+00 -2.907335e+00 3.819027e+00
4.319929e+01 2.604167e-01 -1.130619e-01 1.382239e+00 -2.919025e+00 3.766887e+00
4.239128e+01 2.552083e-01 -9.968694e-02 1.393211e+00 -2.868812e+00 3.712400e+00
4.037475e+01 2.135417e-01 -9.320906e-02 1.406516e+00 -2.932666e+00 3.670791e+00
3.903966e+01 2.239583e-01 -9.474476e-02 1.429651e+00 -3.110484e+00 3.596225e+00
4.026379e+01 2.187500e-01 -9.359698e-02 1.441126e+00 -3.152569e+00 3.563050e+00
3.902511e+01 2.135417e-01 -8.345915e-02 1.461870e+00 -3.169144e+00 3.457003e+00
3.900854e+01 2.135417e-01 -8.593800e-02 1.467139e+00 -3.212636e+00 3.432926e+00
3.992398e+01 2.135417e-01 -8.528300e-02 1.468581e+00 -3.205954e+00 3.392692e+00
3.866779e+01 2.135417e-01 -8.491841e-02 1.468517e+00 -3.201553e+00 3.404612e+00
3.830485e+01 2.031250e-01 -8.470156e-02 1.468343e+00 -3.200428e+00 3.415120e+00
3.918806e+01 2.083333e-01 -8.358465e-02 1.467374e+00 -3.185237e+00 3.415120e+00
3.975002e+01 2.135417e-01 -8.230948e-02 1.466415e+00 -3.156753e+00 3.394139e+00
3.969871e+01 2.135417e-01 -8.413019e-02 1.464452e+00 -3.177114e+00 3.408904e+00
3.829690e+01 2.083333e-01 -8.463701e-02 1.461905e+00 -3.139706e+00 3.399618e+00
3.810525e+01 2.083333e-01 -8.580771e-02 1.462393e+00 -3.146298e+00 3.403968e+00
3.840200e+01 2.083333e-01 -8.594536e-02 1.459004e+00 -3.130713e+00 3.378834e+00
3.906125e+01 2.083333e-01 -8.776660e-02 1.457550e+00 -3.108415e+00 3.361861e+00
3.901525e+01 2.083333e-01 -8.653359e-02 1.457649e+00 -3.093493e+00 3.357659e+00
3.878051e+01 2.135417e-01 -8.416311e-02 1.459161e+00 -3.069620e+00 3.359610e+00
3.882631e+01 2.135417e-01 -8.750720e-02 1.458116e+00 -3.097445e+00 3.355875e+00
3.948667e+01 2.135417e-01 -9.157598e-02 1.454599e+00 -3.083172e+00 3.323044e+00
3.831113e+01 2.135417e-01 -9.295677e-02 1.456340e+00 -3.100838e+00 3.336011e+00
3.924879e+01 2.083333e-01 -9.031161e-02 1.455363e+00 -3.077513e+00 3.324635e+00
4.148954e+01 2.187500e-01 -8.523465e-02 1.452350e+00 -3.012566e+00 3.289260e+00
3.910201e+01 2.083333e-01 -9.021639e-02 1.453646e+00 -3.060757e+00 3.311550e+00
3.888094e+01 2.083333e-01 -9.321148e-02 1.456890e+00 -3.082974e+00 3.289429e+00
3.922173e+01 2.083333e-01 -9.367185e-02 1.462909e+00 -3.085138e+00 3.248264e+00
3.823971e+01 2.083333e-01 -9.681404e-02 1.463948e+00 -3.117423e+00 3.258053e+00
3.943104e+01 2.083333e-01 -9.600841e-02 1.462956e+00 -3.107742e+00 3.252364e+00
4.005798e+01 2.083333e-01 -9.539844e-02 1.462305e+00 -3.094418e+00 3.242474e+00
4.047306e+01 2.135417e-01 -9.517786e-02 1.461847e+00 -3.089307e+00 3.231869e+00
4.048676e+01 2.135417e-01 -9.521374e-02 1.461559e+00 -3.080658e+00 3.230765e+00
3.908563e+01 2.083333e-01 -9.751850e-02 1.462755e+00 -3.115676e+00 3.254121e+00
3.842801e+01 2.135417e-01 -9.832453e-02 1.463333e+00 -3.100231e+00 3.260131e+00
3.840038e+01 2.083333e-01 -9.834275e-02 1.462543e+00 -3.086928e+00 3.267593e+00
3.969105e+01 2.083333e-01 -9.997319e-02 1.459194e+00 -3.028617e+00 3.290814e+00
3.850336e+01 2.083333e-01 -1.031374e-01 1.459758e+00 -3.007592e+00 3.288779e+00
3.822033e+01 2.083333e-01 -1.040767e-01 1.460404e+00 -3.019186e+00 3.291341e+00
3.845086e+01 2.187500e-01 -1.040928e-01 1.460676e+00 -3.019186e+00 3.291341e+00
3.924013e+01 2.031250e-01 -1.024404e-01 1.460515e+00 -3.001630e+00 3.263338e+00
3.982298e+01 2.031250e-01 -1.020408e-01 1.460489e+00 -2.997518e+00 3.242250e+00
3.805155e+01 2.083333e-01 -1.053719e-01 1.462700e+00 -3.040034e+00 3.261659e+00
3.845136e+01 2.135417e-01 -1.041056e-01 1.461880e+00 -3.023623e+00 3.246347e+00
3.816532e+01 2.135417e-01 -1.034295e-01 1.462160e+00 -2.999703e+00 3.242168e+00
3.906138e+01 2.135417e-01 -1.026019e-01 1.461644e+00 -2.990439e+00 3.235901e+00
3.989363e+01 2.135417e-01 -1.041053e-01 1.464324e+00 -3.016798e+00 3.235901e+00
3.894422e+01 2.083333e-01 -1.108172e-01 1.474572e+00 -3.108645e+00 3.237032e+00
3.864456e+01 2.083333e-01 -1.195825e-01 1.504381e+00 -3.171659e+00 3.248015e+00
3.776254e+01 1.927083e-01 -1.209796e-01 1.505139e+00 -3.207834e+00 3.253664e+00
3.857145e+01 2.135417e-01 -1.220959e-01 1.504978e+00 -3.207834e+00 3.253664e+00
3.776850e+01 2.031250e-01 -1.306123e-01 1.500706e+00 -3.264014e+00 3.307329e+00
3.867744e+01 2.187500e-01 -1.261106e-01 1.499311e+00 -3.218118e+00 3.309597e+00
3.844911e+01 2.135417e-01 -1.226846e-01 1.499930e+00 -3.177057e+00 3.327210e+00
3.770345e+01 1.979167e-01 -1.232227e-01 1.500481e+00 -3.191607e+00 3.333408e+00
3.914903e+01 2.187500e-01 -1.271650e-01 1.498587e+00 -3.207161e+00 3.356250e+00
3.840656e+01 2.135417e-01 -1.218290e-01 1.499026e+00 -3.139560e+00 3.373449e+00
3.845933e+01 2.083333e-01 -1.264926e-01 1.504926e+00 -3.134655e+00 3.556389e+00
4.030639e+01 2.083333e-01 -1.262986e-01 1.517496e+00 -3.041332e+00 3.792889e+00
3.844953e+01 2.083333e-01 -1.303898e-01 1.528034e+00 -3.038849e+00 3.853910e+00
3.841636e+01 2.083333e-01 -1.323190e-01 1.538693e+00 -3.114044e+00 3.905252e+00
3.924143e+01 2.135417e-01 -1.315620e-01 1.557985e+00 -3.196735e+00 3.990482e+00
3.957363e+01 2.135417e-01 -1.289187e-01 1.572070e+00 -3.210282e+00 4.015211e+00
3.847088e+01 2.083333e-01 -1.269690e-01 1.573789e+00 -3.216016e+00 4.023925e+00
3.907852e+01 2.135417e-01 -1.250211e-01 1.574910e+00 -3.175141e+00 4.022196e+00
4.061770e+01 2.083333e-01 -1.263410e-01 1.576541e+00 -3.202448e+00 4.027959e+00
3.800183e+01 2.083333e-01 -1.280671e-01 1.578045e+00 -3.230606e+00 4.040458e+00
3.772178e+01 1.979167e-01 -1.277188e-01 1.579953e+00 -3.226957e+00 4.045043e+00
4.015445e+01 2.083333e-01 -1.249270e-01 1.578085e+00 -3.181925e+00 4.035517e+00
3.963177e+01 2.187500e-01 -1.250744e-01 1.580394e+00 -3.208525e+00 4.046925e+00
3.990815e+01 2.083333e-01 -1.221021e-01 1.584567e+00 -3.157158e+00 4.030544e+00
3.886785e+01 2.187500e-01 -1.241874e-01 1.587415e+00 -3.183964e+00 4.041452e+00
3.899904e+01 2.135417e-01 -1.254930e-01 1.586991e+00 -3.208981e+00 4.063679e+00
3.815633e+01 2.135417e-01 -1.288670e-01 1.589553e+00 -3.232138e+00 4.070680e+00
3.809518e+01 2.187500e-01 -1.268236e-01 1.604200e+00 -3.291332e+00 4.128453e+00
3.793278e+01 2.083333e-01 -1.254524e-01 1.613241e+00 -3.273319e+00 4.212046e+00
3.851591e+01 2.135417e-01 -1.211131e-01 1.621440e+00 -3.231215e+00 4.256372e+00
3.809385e+01 2.135417e-01 -1.217527e-01 1.622288e+00 -3.242349e+00 4.259294e+00
3.979383e+01 2.135417e-01 -1.196444e-01 1.621466e+00 -3.214594e+00 4.254343e+00
3.782091e+01 2.083333e-01 -1.220570e-01 1.622995e+00 -3.255996e+00 4.264848e+00
3.770283e+01 2.135417e-01 -1.229237e-01 1.623772e+00 -3.261656e+00 4.266674e+00
3.740092e+01 2.083333e-01 -1.250239e-01 1.626181e+00 -3.297148e+00 4.273803e+00
4.032762e+01 2.135417e-01 -1.229073e-01 1.626122e+00 -3.289090e+00 4.273324e+00
3.849078e+01 2.187500e-01 -1.222912e-01 1.626402e+00 -3.269985e+00 4.276791e+00
3.829498e+01 2.187500e-01 -1.255140e-01 1.631174e+00 -3.310057e+00 4.288293e+00
3.877990e+01 2.135417e-01 -1.251897e-01 1.630590e+00 -3.298717e+00 4.287519e+00
3.763537e+01 2.187500e-01 -1.259170e-01 1.631636e+00 -3.313112e+00 4.297020e+00
3.742170e+01 2.135417e-01 -1.261482e-01 1.632530e+00 -3.317350e+00 4.300059e+00
3.858355e+01 2.187500e-01 -1.258522e-01 1.632994e+00 -3.304025e+00 4.360843e+00
3.904275e+01 2.135417e-01 -1.253983e-01 1.635163e+00 -3.283598e+00 4.398036e+00
3.837643e+01 2.187500e-01 -1.273223e-01 1.635820e+00 -3.302351e+00 4.403597e+00
3.984581e+01 2.135417e-01 -1.256178e-01 1.634608e+00 -3.276197e+00 4.399094e+00
3.814423e+01 2.187500e-01 -1.283806e-01 1.635869e+00 -3.317695e+00 4.413289e+00
3.857428e+01 2.239583e-01 -1.290587e-01 1.637701e+00 -3.327714e+00 4.436094e+00
3.905046e+01 2.187500e-01 -1.295707e-01 1.639979e+00 -3.322215e+00 4.448072e+00
3.825266e+01 2.239583e-01 -1.301969e-01 1.640605e+00 -3.334716e+00 4.453412e+00
3.785104e+01 2.135417e-01 -1.311837e-01 1.641291e+00 -3.351687e+00 4.461441e+00
3.840343e+01 2.239583e-01 -1.312042e-01 1.641613e+00 -3.351687e+00 4.461441e+00
3.869352e+01 2.187500e-01 -1.299690e-01 1.641735e+00 -3.330475e+00 4.458082e+00
3.827031e+01 2.239583e-01 -1.309050e-01 1.643153e+00 -3.338280e+00 4.471736e+00
3.810050e+01 2.187500e-01 -1.310668e-01 1.644584e+00 -3.344097e+00 4.476181e+00
3.879499e+01 2.239583e-01 -1.307501e-01 1.644097e+00 -3.339345e+00 4.478201e+00
3.924655e+01 2.187500e-01 -1.305010e-01 1.643869e+00 -3.330193e+00 4.478201e+00
3.838968e+01 2.239583e-01 -1.307880e-01 1.644286e+00 -3.338449e+00 4.480737e+00
3.852292e+01 2.239583e-01 -1.325990e-01 1.641805e+00 -3.282725e+00 4.560272e+00
3.831010e+01 2.239583e-01 -1.351758e-01 1.644597e+00 -3.297475e+00 4.576467e+00
3.953838e+01 2.187500e-01 -1.331412e-01 1.643877e+00 -3.273221e+00 4.569961e+00
3.821393e+01 2.187500e-01 -1.350918e-01 1.645854e+00 -3.304225e+00 4.577696e+00
3.953338e+01 2.187500e-01 -1.337012e-01 1.645335e+00 -3.292438e+00 4.575241e+00
3.843713e+01 2.291667e-01 -1.340800e-01 1.645896e+00 -3.305800e+00 4.579279e+00
3.841783e+01 2.239583e-01 -1.335967e-01 1.650758e+00 -3.333785e+00 4.579579e+00
3.905193e+01 2.187500e-01 -1.310760e-01 1.657699e+00 -3.361176e+00 4.593461e+00
3.956909e+01 2.187500e-01 -1.304133e-01 1.660884e+00 -3.355360e+00 4.593501e+00
4.010812e+01 2.187500e-01 -1.302464e-01 1.660684e+00 -3.349921e+00 4.594901e+00
3.843633e+01 2.239583e-01 -1.311878e-01 1.662477e+00 -3.375309e+00 4.604640e+00
3.819249e+01 2.135417e-01 -1.322764e-01 1.663301e+00 -3.390718e+00 4.610421e+00
3.885907e+01 2.239583e-01 -1.322928e-01 1.663408e+00 -3.390718e+00 4.610421e+00
3.931571e+01 2.187500e-01 -1.311641e-01 1.664018e+00 -3.370876e+00 4.617243e+00
3.830639e+01 2.187500e-01 -1.317176e-01 1.665117e+00 -3.386459e+00 4.619447e+00
3.824307e+01 2.135417e-01 -1.318974e-01 1.666463e+00 -3.387614e+00 4.622082e+00
4.044203e+01 2.187500e-01 -1.300665e-01 1.664943e+00 -3.356339e+00 4.615389e+00
3.814852e+01 2.135417e-01 -1.318554e-01 1.666531e+00 -3.394011e+00 4.626030e+00
3.846731e+01 2.239583e-01 -1.320580e-01 1.666890e+00 -3.394011e+00 4.626030e+00
3.896140e+01 2.187500e-01 -1.309712e-01 1.666358e+00 -3.372980e+00 4.624018e+00
3.823135e+01 2.135417e-01 -1.324182e-01 1.666849e+00 -3.389110e+00 4.631554e+00
3.874085e+01 2.343750e-01 -1.316953e-01 1.666636e+00 -3.380901e+00 4.633202e+00
3.915086e+01 2.187500e-01 -1.310757e-01 1.666428e+00 -3.367916e+00 4.632290e+00
3.849534e+01 2.343750e-01 -1.314332e-01 1.667273e+00 -3.379237e+00 4.637287e+00
3.841048e+01 2.239583e-01 -1.316581e-01 1.668009e+00 -3.378766e+00 4.641403e+00
3.905667e+01 2.239583e-01 -1.314096e-01 1.668313e+00 -3.371160e+00 4.642481e+00
3.980640e+01 2.187500e-01 -1.309759e-01 1.667532e+00 -3.370369e+00 4.642481e+00
3.928205e+01 2.187500e-01 -1.308453e-01 1.667064e+00 -3.353749e+00 4.644270e+00
3.824531e+01 2.135417e-01 -1.324075e-01 1.669957e+00 -3.381993e+00 4.652412e+00
3.940533e+01 2.239583e-01 -1.292005e-01 1.670640e+00 -3.355076e+00 4.653815e+00
3.895167e+01 2.187500e-01 -1.288491e-01 1.670830e+00 -3.350046e+00 4.658895e+00
3.817813e+01 2.187500e-01 -1.311689e-01 1.671647e+00 -3.380309e+00 4.672661e+00
3.958668e+01 2.187500e-01 -1.287482e-01 1.671255e+00 -3.360908e+00 4.671085e+00
3.904723e+01 2.239583e-01 -1.281480e-01 1.671262e+00 -3.349589e+00 4.672290e+00
3.841223e+01 2.239583e-01 -1.292127e-01 1.672158e+00 -3.363798e+00 4.677074e+00
3.806326e+01 2.187500e-01 -1.301399e-01 1.672695e+00 -3.378661e+00 4.680495e+00
3.829246e+01 2.187500e-01 -1.303045e-01 1.675595e+00 -3.414605e+00 4.709331e+00
3.863820e+01 2.239583e-01 -1.322020e-01 1.679863e+00 -3.406181e+00 4.709626e+00
3.780186e+01 2.083333e-01 -1.331024e-01 1.681629e+00 -3.426332e+00 4.716485e+00
3.894223e+01 2.239583e-01 -1.315361e-01 1.680866e+00 -3.410502e+00 4.713657e+00
3.806679e+01 2.135417e-01 -1.314284e-01 1.681622e+00 -3.412010e+00 4.716737e+00
3.847975e+01 2.343750e-01 -1.312395e-01 1.682321e+00 -3.412010e+00 4.716737e+00
3.886067e+01 2.187500e-01 -1.299938e-01 1.682062e+00 -3.389171e+00 4.712715e+00
3.926778e+01 2.187500e-01 -1.298969e-01 1.681661e+00 -3.381201e+00 4.715267e+00
3.801949e+01 2.135417e-01 -1.316527e-01 1.683165e+00 -3.408046e+00 4.724988e+00
3.889643e+01 2.187500e-01 -1.275973e-01 1.690660e+00 -3.389770e+00 4.732338e+00
4.004163e+01 2.135417e-01 -1.267986e-01 1.693134e+00 -3.369716e+00 4.744887e+00
4.083352e+01 2.187500e-01 -1.265238e-01 1.693637e+00 -3.363518e+00 4.751954e+00
4.046776e+01 2.239583e-01 -1.258892e-01 1.695092e+00 -3.343104e+00 4.762202e+00
3.862213e+01 2.187500e-01 -1.279495e-01 1.697665e+00 -3.374843e+00 4.781197e+00
3.767004e+01 2.083333e-01 -1.313259e-01 1.698646e+00 -3.426151e+00 4.791171e+00
3.842894e+01 2.291667e-01 -1.364761e-01 1.698186e+00 -3.440097e+00 4.791473e+00
3.867358e+01 2.239583e-01 -1.350283e-01 1.698056e+00 -3.423205e+00 4.793094e+00
3.868773e+01 2.187500e-01 -1.318540e-01 1.698013e+00 -3.363866e+00 4.795704e+00
3.804105e+01 2.135417e-01 -1.331743e-01 1.699109e+00 -3.389157e+00 4.802188e+00
3.903430e+01 2.239583e-01 -1.323457e-01 1.698489e+00 -3.378217e+00 4.800984e+00
3.989875e+01 2.187500e-01 -1.318061e-01 1.697987e+00 -3.362407e+00 4.798151e+00
3.822546e+01 2.239583e-01 -1.334576e-01 1.699482e+00 -3.396301e+00 4.808902e+00
3.835790e+01 2.291667e-01 -1.337478e-01 1.700060e+00 -3.396301e+00 4.809143e+00
3.855814e+01 2.239583e-01 -1.329569e-01 1.704057e+00 -3.414223e+00 4.834347e+00
3.940471e+01 2.187500e-01 -1.316563e-01 1.705145e+00 -3.405646e+00 4.840058e+00
3.894872e+01 2.239583e-01 -1.322105e-01 1.707136e+00 -3.435085e+00 4.848326e+00
3.834110e+01 2.187500e-01 -1.315834e-01 1.708170e+00 -3.423695e+00 4.852532e+00
3.816756e+01 2.239583e-01 -1.318434e-01 1.709087e+00 -3.433594e+00 4.854372e+00
3.860473e+01 2.135417e-01 -1.313590e-01 1.709775e+00 -3.433594e+00 4.854372e+00
3.807805e+01 2.343750e-01 -1.349330e-01 1.713540e+00 -3.481948e+00 4.868527e+00
3.878979e+01 2.239583e-01 -1.362470e-01 1.714948e+00 -3.492358e+00 4.872508e+00
3.795040e+01 2.187500e-01 -1.362177e-01 1.715722e+00 -3.503228e+00 4.878107e+00
3.763721e+01 2.135417e-01 -1.366016e-01 1.716176e+00 -3.516234e+00 4.880495e+00
3.844894e+01 2.239583e-01 -1.361210e-01 1.715794e+00 -3.518903e+00 4.878819e+00
3.924340e+01 2.187500e-01 -1.343080e-01 1.715256e+00 -3.504170e+00 4.864770e+00
3.870761e+01 2.135417e-01 -1.357780e-01 1.717973e+00 -3.538783e+00 4.872833e+00
3.921366e+01 2.187500e-01 -1.357310e-01 1.717001e+00 -3.521036e+00 4.871984e+00
3.814814e+01 2.135417e-01 -1.358531e-01 1.718421e+00 -3.540522e+00 4.879683e+00
3.845808e+01 2.187500e-01 -1.359122e-01 1.718759e+00 -3.540522e+00 4.881318e+00
3.886274e+01 2.187500e-01 -1.353027e-01 1.719083e+00 -3.533376e+00 4.881801e+00
3.805995e+01 2.187500e-01 -1.357730e-01 1.720067e+00 -3.547512e+00 4.894181e+00
3.794134e+01 2.135417e-01 -1.363036e-01 1.720732e+00 -3.548336e+00 4.904887e+00
4.064529e+01 2.187500e-01 -1.348211e-01 1.719149e+00 -3.516958e+00 4.896295e+00
3.882976e+01 2.239583e-01 -1.361498e-01 1.720751e+00 -3.552805e+00 4.908064e+00
3.797799e+01 2.135417e-01 -1.365031e-01 1.721384e+00 -3.546471e+00 4.915771e+00
3.834060e+01 2.239583e-01 -1.366555e-01 1.721746e+00 -3.546471e+00 4.917361e+00
3.857949e+01 2.291667e-01 -1.361232e-01 1.721409e+00 -3.532648e+00 4.917220e+00
3.811936e+01 2.187500e-01 -1.364064e-01 1.722105e+00 -3.542543e+00 4.920299e+00
3.794479e+01 2.135417e-01 -1.364300e-01 1.722559e+00 -3.545454e+00 4.922504e+00
3.784763e+01 2.135417e-01 -1.366051e-01 1.723211e+00 -3.552771e+00 4.925980e+00
3.820294e+01 2.135417e-01 -1.363600e-01 1.723306e+00 -3.552771e+00 4.926670e+00
3.940960e+01 2.187500e-01 -1.348512e-01 1.722118e+00 -3.517226e+00 4.925569e+00
3.976199e+01 2.187500e-01 -1.348948e-01 1.721533e+00 -3.512450e+00 4.925348e+00
3.920118e+01 2.239583e-01 -1.355425e-01 1.723232e+00 -3.545903e+00 4.938563e+00
3.839421e+01 2.291667e-01 -1.367540e-01 1.725856e+00 -3.538299e+00 4.953049e+00
3.820017e+01 2.187500e-01 -1.352460e-01 1.724619e+00 -3.521028e+00 4.950658e+00
3.790993e+01 2.187500e-01 -1.363019e-01 1.725834e+00 -3.540332e+00 4.954573e+00
3.811225e+01 2.135417e-01 -1.364184e-01 1.726372e+00 -3.540332e+00 4.954573e+00
3.843156e+01 2.239583e-01 -1.360154e-01 1.726142e+00 -3.529596e+00 4.953900e+00
3.928563e+01 2.187500e-01 -1.354033e-01 1.725948e+00 -3.517450e+00 4.953335e+00
3.816979e+01 2.187500e-01 -1.361572e-01 1.726846e+00 -3.533244e+00 4.960334e+00
3.803305e+01 2.135417e-01 -1.359944e-01 1.728385e+00 -3.536026e+00 4.962085e+00
3.782383e+01 2.135417e-01 -1.381750e-01 1.730312e+00 -3.608513e+00 4.995746e+00
3.789125e+01 2.239583e-01 -1.422282e-01 1.734653e+00 -3.615264e+00 5.017419e+00
3.951987e+01 2.187500e-01 -1.411039e-01 1.735582e+00 -3.564343e+00 5.017620e+00
4.046000e+01 2.187500e-01 -1.401552e-01 1.735480e+00 -3.517313e+00 5.014397e+00
3.967670e+01 2.187500e-01 -1.412695e-01 1.736976e+00 -3.542424e+00 5.026195e+00
3.893095e+01 2.187500e-01 -1.426848e-01 1.739676e+00 -3.576488e+00 5.037125e+00
3.828990e+01 2.187500e-01 -1.397117e-01 1.743786e+00 -3.569091e+00 5.053797e+00
3.811812e+01 2.187500e-01 -1.402830e-01 1.744158e+00 -3.575816e+00 5.057268e+00
3.812537e+01 2.239583e-01 -1.405577e-01 1.745179e+00 -3.589272e+00 5.061212e+00
3.923066e+01 2.239583e-01 -1.391614e-01 1.744244e+00 -3.573382e+00 5.058543e+00
4.027830e+01 2.187500e-01 -1.380715e-01 1.743422e+00 -3.543321e+00 5.050797e+00
3.821870e+01 2.187500e-01 -1.396751e-01 1.744696e+00 -3.575051e+00 5.063217e+00
3.819466e+01 2.239583e-01 -1.393334e-01 1.746002e+00 -3.575299e+00 5.068971e+00
3.964871e+01 2.239583e-01 -1.380204e-01 1.746093e+00 -3.575299e+00 5.068971e+00
3.837274e+01 2.187500e-01 -1.377469e-01 1.747321e+00 -3.568696e+00 5.074044e+00
3.820076e+01 2.343750e-01 -1.381822e-01 1.747741e+00 -3.579688e+00 5.077875e+00
3.920547e+01 2.187500e-01 -1.375126e-01 1.747582e+00 -3.579688e+00 5.077875e+00
3.911535e+01 2.187500e-01 -1.374305e-01 1.750424e+00 -3.582452e+00 5.086229e+00
4.008203e+01 2.135417e-01 -1.380802e-01 1.755149e+00 -3.582255e+00 5.090453e+00
3.875131e+01 2.239583e-01 -1.389495e-01 1.755900e+00 -3.605407e+00 5.098569e+00
3.846489e+01 2.187500e-01 -1.391711e-01 1.756427e+00 -3.611758e+00 5.104786e+00
3.859382e+01 2.187500e-01 -1.378394e-01 1.756516e+00 -3.605024e+00 5.101013e+00
3.798206e+01 2.135417e-01 -1.426395e-01 1.757326e+00 -3.668048e+00 5.119028e+00
3.857135e+01 2.187500e-01 -1.387559e-01 1.757857e+00 -3.634722e+00 5.120173e+00
3.853374e+01 2.239583e-01 -1.369870e-01 1.760309e+00 -3.613535e+00 5.135394e+00
3.845318e+01 2.187500e-01 -1.395056e-01 1.762038e+00 -3.608172e+00 5.166357e+00
3.930321e+01 2.291667e-01 -1.351906e-01 1.765065e+00 -3.579062e+00 5.180108e+00
3.828189e+01 2.135417e-01 -1.336470e-01 1.768786e+00 -3.583210e+00 5.195283e+00
3.876347e+01 2.291667e-01 -1.349075e-01 1.768252e+00 -3.600789e+00 5.193155e+00
3.865209e+01 2.239583e-01 -1.356286e-01 1.767769e+00 -3.591209e+00 5.182124e+00
3.962531e+01 2.239583e-01 -1.335890e-01 1.767751e+00 -3.564621e+00 5.186054e+00
3.807420e+01 2.083333e-01 -1.363790e-01 1.769953e+00 -3.602665e+00 5.201105e+00
3.980127e+01 2.239583e-01 -1.361450e-01 1.768007e+00 -3.577826e+00 5.188940e+00
3.809865e+01 2.187500e-01 -1.386766e-01 1.770080e+00 -3.621611e+00 5.200169e+00
3.838254e+01 2.135417e-01 -1.371341e-01 1.768748e+00 -3.595500e+00 5.194855e+00
3.879316e+01 2.291667e-01 -1.356199e-01 1.770380e+00 -3.590629e+00 5.190329e+00
3.943753e+01 2.239583e-01 -1.337314e-01 1.771138e+00 -3.578916e+00 5.185303e+00
3.815236e+01 2.187500e-01 -1.371616e-01 1.772482e+00 -3.626758e+00 5.196463e+00
3.798930e+01 2.135417e-01 -1.367514e-01 1.773756e+00 -3.627510e+00 5.200017e+00
3.874038e+01 2.239583e-01 -1.353753e-01 1.773302e+00 -3.610580e+00 5.197428e+00
3.943441e+01 2.239583e-01 -1.353746e-01 1.772464e+00 -3.601180e+00 5.193991e+00
3.848205e+01 2.187500e-01 -1.358405e-01 1.773514e+00 -3.622132e+00 5.206442e+00
3.842302e+01 2.239583e-01 -1.341633e-01 1.775449e+00 -3.622132e+00 5.207978e+00
3.925490e+01 2.343750e-01 -1.304110e-01 1.777385e+00 -3.583929e+00 5.220394e+00
4.050988e+01 2.187500e-01 -1.267874e-01 1.779446e+00 -3.559074e+00 5.226156e+00
4.183255e+01 2.187500e-01 -1.233307e-01 1.780066e+00 -3.498546e+00 5.227457e+00
3.910762e+01 2.395833e-01 -1.283015e-01 1.781126e+00 -3.565893e+00 5.243470e+00
3.836091e+01 2.187500e-01 -1.343480e-01 1.780843e+00 -3.609159e+00 5.256325e+00
3.825928e+01 2.187500e-01 -1.349277e-01 1.782011e+00 -3.603981e+00 5.262260e+00
3.940947e+01 2.239583e-01 -1.345417e-01 1.782735e+00 -3.596742e+00 5.257401e+00
3.977481e+01 2.187500e-01 -1.331584e-01 1.784051e+00 -3.562437e+00 5.247335e+00
4.170982e+01 2.187500e-01 -1.324092e-01 1.784552e+00 -3.586804e+00 5.253739e+00
3.988317e+01 2.239583e-01 -1.340667e-01 1.783477e+00 -3.537265e+00 5.253613e+00
3.839041e+01 2.135417e-01 -1.500116e-01 1.781666e+00 -3.632733e+00 5.267128e+00
3.934074e+01 2.343750e-01 -1.461946e-01 1.780910e+00 -3.585281e+00 5.262121e+00
3.956820e+01 2.291667e-01 -1.442678e-01 1.782136e+00 -3.571366e+00 5.261118e+00
3.844702e+01 2.135417e-01 -1.447515e-01 1.784041e+00 -3.607786e+00 5.274727e+00
3.834694e+01 2.187500e-01 -1.449077e-01 1.784595e+00 -3.603958e+00 5.286806e+00
3.858271e+01 2.187500e-01 -1.430252e-01 1.784900e+00 -3.584645e+00 5.290700e+00
3.910282e+01 2.239583e-01 -1.393722e-01 1.788274e+00 -3.567297e+00 5.307842e+00
3.905962e+01 2.291667e-01 -1.395667e-01 1.790850e+00 -3.589015e+00 5.330282e+00
3.866660e+01 2.187500e-01 -1.395423e-01 1.792258e+00 -3.597936e+00 5.338351e+00
3.907476e+01 2.291667e-01 -1.379598e-01 1.792794e+00 -3.584752e+00 5.336953e+00
4.010279e+01 2.187500e-01 -1.339966e-01 1.797057e+00 -3.566587e+00 5.325008e+00
3.895881e+01 2.343750e-01 -1.354574e-01 1.798477e+00 -3.599294e+00 5.334901e+00
3.988474e+01 2.135417e-01 -1.340940e-01 1.797347e+00 -3.576472e+00 5.330559e+00
4.022835e+01 2.239583e-01 -1.341580e-01 1.797142e+00 -3.573914e+00 5.330695e+00
3.930142e+01 2.343750e-01 -1.353521e-01 1.798523e+00 -3.600318e+00 5.339155e+00
3.866941e+01 2.239583e-01 -1.376933e-01 1.800654e+00 -3.627982e+00 5.345137e+00
3.823209e+01 2.135417e-01 -1.375297e-01 1.803093e+00 -3.633299e+00 5.352279e+00
4.069581e+01 2.187500e-01 -1.351884e-01 1.801238e+00 -3.583297e+00 5.340612e+00
3.917155e+01 2.291667e-01 -1.365628e-01 1.802605e+00 -3.620303e+00 5.351414e+00
3.891525e+01 2.239583e-01 -1.352096e-01 1.803699e+00 -3.601760e+00 5.350680e+00
3.934123e+01 2.239583e-01 -1.341770e-01 1.803883e+00 -3.594326e+00 5.351348e+00
3.849887e+01 2.187500e-01 -1.350876e-01 1.805011e+00 -3.616238e+00 5.358071e+00
3.956659e+01 2.291667e-01 -1.341773e-01 1.804391e+00 -3.600253e+00 5.351845e+00
4.021728e+01 2.239583e-01 -1.318854e-01 1.804590e+00 -3.595320e+00 5.357266e+00
3.879646e+01 2.239583e-01 -1.302835e-01 1.805414e+00 -3.595121e+00 5.364963e+00
3.893893e+01 2.291667e-01 -1.327038e-01 1.806007e+00 -3.604851e+00 5.371398e+00
3.866276e+01 2.239583e-01 -1.329884e-01 1.806507e+00 -3.612512e+00 5.373072e+00
3.830091e+01 2.135417e-01 -1.331683e-01 1.806828e+00 -3.622305e+00 5.375479e+00
3.918030e+01 2.187500e-01 -1.284501e-01 1.805827e+00 -3.648901e+00 5.344573e+00
3.999730e+01 2.239583e-01 -1.268480e-01 1.805370e+00 -3.634224e+00 5.334364e+00
3.916681e+01 2.239583e-01 -1.257246e-01 1.805957e+00 -3.608101e+00 5.317941e+00
3.881009e+01 2.187500e-01 -1.255496e-01 1.806909e+00 -3.609446e+00 5.313220e+00
3.834529e+01 2.291667e-01 -1.260822e-01 1.807896e+00 -3.633695e+00 5.322604e+00
3.904226e+01 2.239583e-01 -1.259543e-01 1.808150e+00 -3.633695e+00 5.322604e+00
3.933934e+01 2.291667e-01 -1.271089e-01 1.808569e+00 -3.623989e+00 5.321948e+00
3.866403e+01 2.135417e-01 -1.275700e-01 1.810068e+00 -3.627811e+00 5.329942e+00
3.837769e+01 2.291667e-01 -1.281914e-01 1.811151e+00 -3.648502e+00 5.340260e+00
3.942058e+01 2.291667e-01 -1.278569e-01 1.811366e+00 -3.648502e+00 5.340260e+00
4.000776e+01 2.187500e-01 -1.265575e-01 1.810766e+00 -3.608798e+00 5.329817e+00
3.918792e+01 2.239583e-01 -1.288715e-01 1.812366e+00 -3.652367e+00 5.346483e+00
3.965656e+01 2.239583e-01 -1.289924e-01 1.813905e+00 -3.645850e+00 5.338677e+00
3.904646e+01 2.187500e-01 -1.294133e-01 1.814615e+00 -3.655067e+00 5.344308e+00
3.814598e+01 2.135417e-01 -1.287686e-01 1.817207e+00 -3.671062e+00 5.357735e+00
3.801712e+01 2.187500e-01 -1.287088e-01 1.818174e+00 -3.678839e+00 5.365076e+00
3.992584e+01 2.239583e-01 -1.271394e-01 1.817213e+00 -3.666678e+00 5.362838e+00
3.853331e+01 2.187500e-01 -1.269588e-01 1.817001e+00 -3.653925e+00 5.361569e+00
3.878467e+01 2.239583e-01 -1.244758e-01 1.818430e+00 -3.635046e+00 5.349141e+00
3.871787e+01 2.187500e-01 -1.243844e-01 1.818541e+00 -3.636250e+00 5.349464e+00
3.942714e+01 2.187500e-01 -1.240581e-01 1.818116e+00 -3.626698e+00 5.347698e+00
3.895887e+01 2.239583e-01 -1.245563e-01 1.818361e+00 -3.636574e+00 5.351405e+00
3.829768e+01 2.187500e-01 -1.272752e-01 1.820835e+00 -3.668878e+00 5.363030e+00
3.849700e+01 2.135417e-01 -1.265792e-01 1.819960e+00 -3.655671e+00 5.362480e+00
3.894187e+01 2.291667e-01 -1.258540e-01 1.820838e+00 -3.659504e+00 5.374801e+00
3.985869e+01 2.187500e-01 -1.254429e-01 1.820787e+00 -3.658506e+00 5.374801e+00
3.931040e+01 2.291667e-01 -1.251005e-01 1.821206e+00 -3.649643e+00 5.375810e+00
3.869481e+01 2.187500e-01 -1.254065e-01 1.822684e+00 -3.660722e+00 5.383324e+00
3.850226e+01 2.135417e-01 -1.256796e-01 1.823107e+00 -3.665441e+00 5.385295e+00
3.813455e+01 2.187500e-01 -1.267411e-01 1.823308e+00 -3.681256e+00 5.388446e+00
3.840785e+01 2.239583e-01 -1.259214e-01 1.823887e+00 -3.667857e+00 5.389043e+00
3.862127e+01 2.187500e-01 -1.258785e-01 1.825698e+00 -3.660793e+00 5.391497e+00
3.894653e+01 2.239583e-01 -1.259816e-01 1.826415e+00 -3.656703e+00 5.394723e+00
3.903203e+01 2.291667e-01 -1.259507e-01 1.826351e+00 -3.652304e+00 5.396108e+00
3.840653e+01 2.135417e-01 -1.266463e-01 1.827537e+00 -3.669124e+00 5.402706e+00
3.819572e+01 2.083333e-01 -1.271230e-01 1.828107e+00 -3.683649e+00 5.421781e+00
3.804683e+01 2.187500e-01 -1.291386e-01 1.829462e+00 -3.687366e+00 5.424099e+00
4.197263e+01 2.187500e-01 -1.271633e-01 1.827052e+00 -3.635442e+00 5.406795e+00
3.890133e+01 2.239583e-01 -1.286264e-01 1.829770e+00 -3.672430e+00 5.421277e+00
3.936161e+01 2.239583e-01 -1.277127e-01 1.834419e+00 -3.619891e+00 5.411326e+00
3.882142e+01 2.187500e-01 -1.286547e-01 1.834117e+00 -3.646717e+00 5.427445e+00
3.873505e+01 2.187500e-01 -1.303216e-01 1.835638e+00 -3.665668e+00 5.438574e+00
3.844152e+01 2.135417e-01 -1.305216e-01 1.836327e+00 -3.671201e+00 5.451098e+00
3.817912e+01 2.187500e-01 -1.309067e-01 1.836931e+00 -3.681081e+00 5.453707e+00
3.909884e+01 2.239583e-01 -1.303577e-01 1.836902e+00 -3.681081e+00 5.453707e+00
4.073208e+01 2.187500e-01 -1.295882e-01 1.836194e+00 -3.654758e+00 5.444265e+00
3.810886e+01 2.135417e-01 -1.326375e-01 1.835790e+00 -3.694232e+00 5.455641e+00
3.834636e+01 2.135417e-01 -1.346770e-01 1.836427e+00 -3.684104e+00 5.459770e+00
3.810810e+01 2.187500e-01 -1.351849e-01 1.836597e+00 -3.691872e+00 5.463158e+00
3.808514e+01 2.187500e-01 -1.364720e-01 1.837016e+00 -3.704669e+00 5.468619e+00
3.903182e+01 2.187500e-01 -1.314836e-01 1.835232e+00 -3.677728e+00 5.460307e+00
3.973728e+01 2.135417e-01 -1.252577e-01 1.834021e+00 -3.568570e+00 5.435643e+00
3.906316e+01 2.239583e-01 -1.233703e-01 1.835877e+00 -3.556188e+00 5.449318e+00
3.854016e+01 2.239583e-01 -1.275255e-01 1.838992e+00 -3.600088e+00 5.462385e+00
3.790006e+01 2.135417e-01 -1.288112e-01 1.840516e+00 -3.605934e+00 5.465291e+00
3.889614e+01 2.239583e-01 -1.245949e-01 1.844323e+00 -3.605934e+00 5.483561e+00
3.901366e+01 2.239583e-01 -1.216588e-01 1.856213e+00 -3.589679e+00 5.502285e+00
4.001156e+01 2.187500e-01 -1.219783e-01 1.855353e+00 -3.586051e+00 5.499729e+00
4.107167e+01 2.239583e-01 -1.230714e-01 1.854824e+00 -3.589295e+00 5.497211e+00
3.846965e+01 2.291667e-01 -1.242744e-01 1.856046e+00 -3.625734e+00 5.505309e+00
3.834585e+01 2.291667e-01 -1.255843e-01 1.857176e+00 -3.638079e+00 5.508449e+00
3.933701e+01 2.187500e-01 -1.243441e-01 1.856320e+00 -3.621707e+00 5.505239e+00
4.056513e+01 2.239583e-01 -1.237160e-01 1.855695e+00 -3.609932e+00 5.501937e+00
3.856835e+01 2.291667e-01 -1.242504e-01 1.855922e+00 -3.622029e+00 5.505286e+00
3.828736e+01 2.135417e-01 -1.263062e-01 1.856324e+00 -3.658424e+00 5.497851e+00
3.834169e+01 2.135417e-01 -1.271711e-01 1.859489e+00 -3.689318e+00 5.493882e+00
3.922441e+01 2.239583e-01 -1.270706e-01 1.861975e+00 -3.672861e+00 5.487992e+00
3.829304e+01 2.187500e-01 -1.284419e-01 1.862834e+00 -3.693442e+00 5.496073e+00
3.889482e+01 2.239583e-01 -1.276635e-01 1.862339e+00 -3.682436e+00 5.495171e+00
3.919465e+01 2.291667e-01 -1.269938e-01 1.862205e+00 -3.671469e+00 5.494878e+00
3.827119e+01 2.135417e-01 -1.287167e-01 1.862813e+00 -3.696927e+00 5.500110e+00
3.807628e+01 2.083333e-01 -1.285850e-01 1.863332e+00 -3.702631e+00 5.502584e+00
4.059402e+01 2.187500e-01 -1.270924e-01 1.861273e+00 -3.661213e+00 5.489065e+00
3.887203e+01 2.291667e-01 -1.281320e-01 1.862414e+00 -3.687714e+00 5.502683e+00
3.937005e+01 2.343750e-01 -1.273945e-01 1.861655e+00 -3.670664e+00 5.487967e+00
3.832928e+01 2.135417e-01 -1.277439e-01 1.863109e+00 -3.687619e+00 5.497367e+00
3.866770e+01 2.187500e-01 -1.288814e-01 1.863409e+00 -3.693279e+00 5.497676e+00
3.942780e+01 2.187500e-01 -1.323508e-01 1.863141e+00 -3.692218e+00 5.465704e+00
3.977512e+01 2.187500e-01 -1.338453e-01 1.862766e+00 -3.693785e+00 5.456776e+00
3.850048e+01 2.187500e-01 -1.348184e-01 1.863855e+00 -3.723773e+00 5.474738e+00
3.848802e+01 2.135417e-01 -1.348138e-01 1.864450e+00 -3.727138e+00 5.486186e+00
3.953168e+01 2.291667e-01 -1.159522e-01 1.877150e+00 -3.695284e+00 5.576571e+00
3.906061e+01 2.239583e-01 -1.232051e-01 1.881052e+00 -3.737071e+00 5.627584e+00
3.926540e+01 2.239583e-01 -1.241765e-01 1.885344e+00 -3.730265e+00 5.644961e+00
3.927081e+01 2.239583e-01 -1.228381e-01 1.889101e+00 -3.736563e+00 5.688547e+00
3.891872e+01 2.135417e-01 -1.264841e-01 1.892862e+00 -3.770242e+00 5.722907e+00
3.972400e+01 2.343750e-01 -1.300963e-01 1.898664e+00 -3.751053e+00 5.769042e+00
4.043878e+01 2.135417e-01 -1.214545e-01 1.903546e+00 -3.700660e+00 5.743200e+00
3.891813e+01 2.239583e-01 -1.249388e-01 1.904181e+00 -3.754915e+00 5.754826e+00
4.065447e+01 2.239583e-01 -1.310487e-01 1.903514e+00 -3.782572e+00 5.753569e+00
3.858864e+01 2.083333e-01 -1.278477e-01 1.905454e+00 -3.769316e+00 5.756448e+00
3.889078e+01 2.135417e-01 -1.271253e-01 1.905954e+00 -3.768162e+00 5.756448e+00
3.853142e+01 2.135417e-01 -1.273169e-01 1.906435e+00 -3.740159e+00 5.733486e+00
3.955659e+01 2.291667e-01 -1.266159e-01 1.905964e+00 -3.730502e+00 5.731378e+00
3.977004e+01 2.239583e-01 -1.280962e-01 1.907467e+00 -3.747387e+00 5.726210e+00
3.967597e+01 2.239583e-01 -1.303956e-01 1.910310e+00 -3.758987e+00 5.701356e+00
4.070872e+01 2.135417e-01 -1.298548e-01 1.909643e+00 -3.745712e+00 5.707365e+00
3.924371e+01 2.187500e-01 -1.307223e-01 1.909561e+00 -3.769615e+00 5.715688e+00
3.877793e+01 2.135417e-01 -1.324423e-01 1.908333e+00 -3.764690e+00 5.728050e+00
