9.000000e-01 9.990000e-01
7.290000e-01 9.970030e-01
5.904900e-01 9.950100e-01
4.782969e-01 9.930210e-01
3.874205e-01 9.910359e-01
3.138106e-01 9.890548e-01
2.541866e-01 9.870777e-01
2.058911e-01 9.851045e-01
1.667718e-01 9.831353e-01
1.350852e-01 9.811700e-01
1.094190e-01 9.792087e-01
8.862938e-02 9.772512e-01
7.178980e-02 9.752977e-01
5.814974e-02 9.733481e-01
4.710129e-02 9.714024e-01
3.815204e-02 9.694605e-01
3.090315e-02 9.675226e-01
2.503156e-02 9.655885e-01
2.027556e-02 9.636583e-01
1.642320e-02 9.617319e-01
1.330279e-02 9.598094e-01
1.077526e-02 9.578908e-01
8.727964e-03 9.559760e-01
7.069650e-03 9.540650e-01
5.726417e-03 9.521578e-01
4.638398e-03 9.502544e-01
3.757102e-03 9.483549e-01
3.043253e-03 9.464591e-01
2.465035e-03 9.445671e-01
1.996678e-03 9.426789e-01
1.617309e-03 9.407945e-01
1.310021e-03 9.389139e-01
1.061117e-03 9.370370e-01
8.595045e-04 9.351639e-01
6.961986e-04 9.332945e-01
5.639209e-04 9.314288e-01
4.567759e-04 9.295669e-01
3.699885e-04 9.277087e-01
2.996907e-04 9.258542e-01
2.427494e-04 9.240034e-01
1.966271e-04 9.221563e-01
1.592679e-04 9.203129e-01
1.290070e-04 9.184732e-01
1.044957e-04 9.166372e-01
8.464150e-05 9.148048e-01
6.855961e-05 9.129761e-01
5.553329e-05 9.111511e-01
4.498196e-05 9.093297e-01
3.643539e-05 9.075120e-01
2.951267e-05 9.056978e-01
2.390526e-05 9.038874e-01
1.936326e-05 9.020805e-01
1.568424e-05 9.002772e-01
1.270423e-05 8.984776e-01
1.029043e-05 8.966815e-01
8.335248e-06 8.948890e-01
6.751551e-06 8.931002e-01
5.468756e-06 8.913149e-01
4.429693e-06 8.895331e-01
3.588051e-06 8.877549e-01
2.906321e-06 8.859803e-01
2.354120e-06 8.842092e-01
1.906837e-06 8.824417e-01
1.544538e-06 8.806777e-01
1.251076e-06 8.789172e-01
1.013372e-06 8.771603e-01
8.208310e-07 8.754068e-01
6.648731e-07 8.736569e-01
5.385472e-07 8.719105e-01
4.362233e-07 8.701675e-01
3.533408e-07 8.684280e-01
2.862061e-07 8.666921e-01
2.318269e-07 8.649595e-01
1.877798e-07 8.632305e-01
1.521016e-07 8.615049e-01
1.232023e-07 8.597827e-01
9.979389e-08 8.580640e-01
8.083305e-08 8.563488e-01
6.547477e-08 8.546369e-01
5.303456e-08 8.529285e-01
4.295800e-08 8.512235e-01
3.479598e-08 8.495219e-01
2.818474e-08 8.478237e-01
2.282964e-08 8.461289e-01
1.849201e-08 8.444375e-01
1.497853e-08 8.427495e-01
1.213261e-08 8.410648e-01
9.827412e-09 8.393835e-01
7.960204e-09 8.377056e-01
6.447765e-09 8.360310e-01
5.222690e-09 8.343598e-01
4.230379e-09 8.326919e-01
3.426607e-09 8.310274e-01
2.775551e-09 8.293661e-01
2.248197e-09 8.277082e-01
1.821039e-09 8.260536e-01
1.475042e-09 8.244024e-01
1.194784e-09 8.227544e-01
9.677749e-10 8.211097e-01
7.838977e-10 8.194683e-01
6.349571e-10 8.178302e-01
5.143153e-10 8.161953e-01
4.165954e-10 8.145638e-01
3.374422e-10 8.129355e-01
2.733282e-10 8.113104e-01
2.213959e-10 8.096886e-01
1.793306e-10 8.080700e-01
1.452578e-10 8.064547e-01
1.176588e-10 8.048426e-01
9.530366e-11 8.032337e-01
7.719596e-11 8.016280e-01
6.252873e-11 8.000256e-01
5.064827e-11 7.984263e-01
4.102510e-11 7.968303e-01
3.323033e-11 7.952374e-01
2.691657e-11 7.936477e-01
2.180242e-11 7.920612e-01
1.765996e-11 7.904779e-01
1.430457e-11 7.888977e-01
1.158670e-11 7.873207e-01
9.385227e-12 7.857469e-01
7.602034e-12 7.841762e-01
6.157647e-12 7.826086e-01
4.987694e-12 7.810442e-01
4.040032e-12 7.794829e-01
3.272426e-12 7.779247e-01
2.650665e-12 7.763696e-01
2.147039e-12 7.748176e-01
1.739101e-12 7.732688e-01
1.408672e-12 7.717230e-01
1.141024e-12 7.701803e-01
9.242298e-13 7.686407e-01
7.486262e-13 7.671042e-01
6.063872e-13 7.655708e-01
4.911736e-13 7.640404e-01
3.978506e-13 7.625131e-01
3.222590e-13 7.609888e-01
2.610298e-13 7.594676e-01
2.114341e-13 7.579494e-01
1.712617e-13 7.564343e-01
1.387219e-13 7.549222e-01
1.123648e-13 7.534131e-01
9.101546e-14 7.519070e-01
7.372253e-14 7.504040e-01
5.971525e-14 7.489039e-01
4.836935e-14 7.474068e-01
3.917917e-14 7.459128e-01
3.173513e-14 7.444217e-01
2.570546e-14 7.429336e-01
2.082142e-14 7.414485e-01
1.686535e-14 7.399663e-01
1.366093e-14 7.384871e-01
1.106536e-14 7.370109e-01
8.962938e-15 7.355376e-01
7.259980e-15 7.340673e-01
5.880584e-15 7.325999e-01
4.763273e-15 7.311354e-01
3.858251e-15 7.296739e-01
3.125183e-15 7.282152e-01
2.531398e-15 7.267595e-01
2.050433e-15 7.253068e-01
1.660851e-15 7.238569e-01
1.345289e-15 7.224099e-01
1.089684e-15 7.209658e-01
8.826441e-16 7.195246e-01
7.149417e-16 7.180862e-01
5.791028e-16 7.166508e-01
4.690732e-16 7.152182e-01
3.799493e-16 7.137885e-01
3.077590e-16 7.123616e-01
2.492848e-16 7.109376e-01
2.019207e-16 7.095164e-01
1.635557e-16 7.080981e-01
1.324801e-16 7.066826e-01
1.073089e-16 7.052700e-01
8.692022e-17 7.038601e-01
7.040538e-17 7.024531e-01
5.702836e-17 7.010489e-01
4.619297e-17 6.996475e-01
3.741630e-17 6.982489e-01
3.030721e-17 6.968531e-01
2.454884e-17 6.954601e-01
1.988456e-17 6.940699e-01
1.610649e-17 6.926824e-01
1.304626e-17 6.912978e-01
1.056747e-17 6.899159e-01
8.559650e-18 6.885367e-01
6.933317e-18 6.871603e-01
5.615987e-18 6.857867e-01
4.548949e-18 6.844158e-01
3.684649e-18 6.830477e-01
2.984566e-18 6.816823e-01
2.417498e-18 6.803196e-01
1.958173e-18 6.789596e-01
1.586120e-18 6.776024e-01
1.284758e-18 6.762478e-01
1.040654e-18 6.748960e-01
8.429295e-19 6.735469e-01
6.827729e-19 6.722005e-01
5.530460e-19 6.708568e-01
4.479673e-19 6.695157e-01
3.628535e-19 6.681774e-01
2.939113e-19 6.668417e-01
2.380682e-19 6.655087e-01
1.928352e-19 6.641783e-01
1.561965e-19 6.628506e-01
1.265192e-19 6.615256e-01
1.024805e-19 6.602032e-01
8.300924e-20 6.588834e-01
6.723748e-20 6.575663e-01
5.446236e-20 6.562519e-01
4.411451e-20 6.549400e-01
3.573276e-20 6.536308e-01
2.894353e-20 6.523242e-01
2.344426e-20 6.510202e-01
1.898985e-20 6.497188e-01
1.538178e-20 6.484200e-01
1.245924e-20 6.471238e-01
1.009199e-20 6.458302e-01
8.174508e-21 6.445392e-01
6.621352e-21 6.432508e-01
5.363295e-21 6.419649e-01
4.344269e-21 6.406816e-01
3.518858e-21 6.394009e-01
2.850275e-21 6.381227e-01
2.308723e-21 6.368471e-01
1.870065e-21 6.355741e-01
1.514753e-21 6.343036e-01
1.226950e-21 6.330356e-01
9.938294e-22 6.317701e-01
8.050018e-22 6.305072e-01
6.520515e-22 6.292468e-01
5.281617e-22 6.279890e-01
4.278110e-22 6.267336e-01
3.465269e-22 6.254808e-01
2.806868e-22 6.242305e-01
2.273563e-22 6.229826e-01
1.841586e-22 6.217373e-01
1.491685e-22 6.204944e-01
1.208265e-22 6.192541e-01
9.786943e-23 6.180162e-01
7.927423e-23 6.167808e-01
6.421213e-23 6.155478e-01
5.201183e-23 6.143173e-01
4.212958e-23 6.130893e-01
3.412496e-23 6.118637e-01
2.764122e-23 6.106406e-01
2.238939e-23 6.094200e-01
1.813540e-23 6.082017e-01
1.468968e-23 6.069859e-01
1.189864e-23 6.057726e-01
9.637896e-24 6.045616e-01
7.806696e-24 6.033531e-01
6.323424e-24 6.021470e-01
5.121973e-24 6.009433e-01
4.148798e-24 5.997420e-01
3.360527e-24 5.985431e-01
2.722027e-24 5.973467e-01
2.204842e-24 5.961526e-01
1.785922e-24 5.949609e-01
1.446597e-24 5.937715e-01
1.171743e-24 5.925846e-01
9.491120e-25 5.914000e-01
7.687807e-25 5.902178e-01
6.227124e-25 5.890379e-01
5.043970e-25 5.878605e-01
4.085616e-25 5.866853e-01
3.309349e-25 5.855125e-01
2.680573e-25 5.843421e-01
2.171264e-25 5.831740e-01
1.758724e-25 5.820082e-01
1.424566e-25 5.808448e-01
1.153899e-25 5.796837e-01
9.346579e-26 5.785249e-01
7.570729e-26 5.773684e-01
6.132290e-26 5.762143e-01
4.967155e-26 5.750624e-01
4.023396e-26 5.739129e-01
3.258950e-26 5.727656e-01
2.639750e-26 5.716207e-01
2.138197e-26 5.704780e-01
1.731940e-26 5.693376e-01
1.402871e-26 5.681995e-01
1.136326e-26 5.670637e-01
9.204239e-27 5.659301e-01
7.455433e-27 5.647988e-01
6.038901e-27 5.636698e-01
4.891510e-27 5.625430e-01
3.962123e-27 5.614185e-01
3.209320e-27 5.602962e-01
2.599549e-27 5.591762e-01
2.105635e-27 5.580584e-01
1.705564e-27 5.569428e-01
1.381507e-27 5.558295e-01
1.119021e-27 5.547184e-01
9.064066e-28 5.536095e-01
7.341894e-28 5.525028e-01
5.946934e-28 5.513984e-01
4.817017e-28 5.502961e-01
3.901783e-28 5.491961e-01
3.160445e-28 5.480983e-01
2.559960e-28 5.470026e-01
2.073568e-28 5.459092e-01
1.679590e-28 5.448179e-01
1.360468e-28 5.437288e-01
1.101979e-28 5.426419e-01
8.926029e-29 5.415571e-01
7.230083e-29 5.404746e-01
5.856368e-29 5.393942e-01
4.743658e-29 5.383159e-01
3.842363e-29 5.372398e-01
3.112314e-29 5.361659e-01
2.520974e-29 5.350941e-01
2.041989e-29 5.340244e-01
1.654011e-29 5.329569e-01
1.339749e-29 5.318915e-01
1.085197e-29 5.308283e-01
8.790093e-30 5.297671e-01
7.119976e-30 5.287081e-01
5.767180e-30 5.276513e-01
4.671416e-30 5.265965e-01
3.783847e-30 5.255438e-01
3.064916e-30 5.244933e-01
2.482582e-30 5.234448e-01
2.010891e-30 5.223984e-01
1.628822e-30 5.213542e-01
1.319346e-30 5.203120e-01
1.068670e-30 5.192719e-01
8.656228e-31 5.182338e-01
7.011545e-31 5.171979e-01
5.679351e-31 5.161640e-01
4.600275e-31 5.151322e-01
3.726222e-31 5.141024e-01
3.018240e-31 5.130748e-01
2.444775e-31 5.120491e-01
1.980267e-31 5.110255e-01
1.604017e-31 5.100040e-01
1.299253e-31 5.089845e-01
1.052395e-31 5.079670e-01
8.524402e-32 5.069516e-01
6.904765e-32 5.059382e-01
5.592860e-32 5.049268e-01
4.530217e-32 5.039175e-01
3.669475e-32 5.029102e-01
2.972275e-32 5.019048e-01
2.407543e-32 5.009015e-01
1.950110e-32 4.999002e-01
1.579589e-32 4.989009e-01
1.279467e-32 4.979036e-01
1.036368e-32 4.969083e-01
8.394583e-33 4.959150e-01
6.799612e-33 4.949237e-01
5.507686e-33 4.939343e-01
4.461225e-33 4.929469e-01
3.613593e-33 4.919615e-01
2.927010e-33 4.909781e-01
2.370878e-33 4.899966e-01
1.920411e-33 4.890171e-01
1.555533e-33 4.880396e-01
1.259982e-33 4.870640e-01
1.020585e-33 4.860904e-01
8.266741e-34 4.851187e-01
6.696060e-34 4.841489e-01
5.423809e-34 4.831811e-01
4.393285e-34 4.822152e-01
3.558561e-34 4.812513e-01
2.882434e-34 4.802893e-01
2.334772e-34 4.793292e-01
1.891165e-34 4.783710e-01
1.531844e-34 4.774147e-01
1.240793e-34 4.764604e-01
1.005043e-34 4.755079e-01
8.140846e-35 4.745574e-01
6.594085e-35 4.736087e-01
5.341209e-35 4.726620e-01
4.326379e-35 4.717171e-01
3.504367e-35 4.707742e-01
2.838537e-35 4.698331e-01
2.299215e-35 4.688939e-01
1.862364e-35 4.679566e-01
1.508515e-35 4.670211e-01
1.221897e-35 4.660876e-01
9.897368e-36 4.651559e-01
8.016868e-36 4.642260e-01
6.493663e-36 4.632980e-01
5.259867e-36 4.623719e-01
4.260492e-36 4.614476e-01
3.450999e-36 4.605252e-01
2.795309e-36 4.596046e-01
2.264200e-36 4.586858e-01
1.834002e-36 4.577689e-01
1.485542e-36 4.568538e-01
1.203289e-36 4.559406e-01
9.746640e-37 4.550292e-01
7.894778e-37 4.541196e-01
6.394771e-37 4.532118e-01
5.179764e-37 4.523058e-01
4.195609e-37 4.514016e-01
3.398443e-37 4.504993e-01
2.752739e-37 4.495987e-01
2.229719e-37 4.487000e-01
1.806072e-37 4.478030e-01
1.462918e-37 4.469079e-01
1.184964e-37 4.460145e-01
9.598208e-38 4.451229e-01
7.774548e-38 4.442331e-01
6.297384e-38 4.433451e-01
5.100881e-38 4.424589e-01
4.131714e-38 4.415744e-01
3.346688e-38 4.406917e-01
2.710817e-38 4.398107e-01
2.195762e-38 4.389316e-01
1.778567e-38 4.380541e-01
1.440639e-38 4.371785e-01
1.166918e-38 4.363045e-01
9.452035e-39 4.354324e-01
7.656149e-39 4.345619e-01
6.201480e-39 4.336933e-01
5.023199e-39 4.328263e-01
4.068791e-39 4.319611e-01
3.295721e-39 4.310976e-01
2.669534e-39 4.302358e-01
2.162323e-39 4.293758e-01
1.751481e-39 4.285175e-01
1.418700e-39 4.276609e-01
1.149147e-39 4.268060e-01
9.308090e-40 4.259528e-01
7.539553e-40 4.251013e-01
6.107038e-40 4.242515e-01
4.946700e-40 4.234034e-01
4.006827e-40 4.225571e-01
3.245530e-40 4.217124e-01
2.628879e-40 4.208694e-01
2.129392e-40 4.200280e-01
1.724808e-40 4.191884e-01
1.397094e-40 4.183505e-01
1.131646e-40 4.175142e-01
9.166336e-41 4.166796e-01
7.424732e-41 4.158466e-01
6.014033e-41 4.150153e-01
4.871367e-41 4.141857e-01
3.945807e-41 4.133578e-01
3.196104e-41 4.125315e-01
2.588844e-41 4.117068e-01
2.096964e-41 4.108838e-01
1.698541e-41 4.100625e-01
1.375818e-41 4.092427e-01
1.114412e-41 4.084247e-01
9.026741e-42 4.076082e-01
7.311660e-42 4.067934e-01
5.922445e-42 4.059802e-01
4.797180e-42 4.051687e-01
3.885716e-42 4.043587e-01
3.147430e-42 4.035504e-01
2.549418e-42 4.027437e-01
2.065029e-42 4.019387e-01
1.672673e-42 4.011352e-01
1.354865e-42 4.003333e-01
1.097441e-42 3.995330e-01
8.889272e-43 3.987344e-01
7.200310e-43 3.979373e-01
5.832251e-43 3.971418e-01
4.724123e-43 3.963479e-01
3.826540e-43 3.955556e-01
3.099497e-43 3.947649e-01
2.510593e-43 3.939758e-01
2.033580e-43 3.931882e-01
1.647200e-43 3.924023e-01
1.334232e-43 3.916178e-01
1.080728e-43 3.908350e-01
8.753896e-44 3.900537e-01
7.090656e-44 3.892740e-01
5.743431e-44 3.884958e-01
4.652179e-44 3.877192e-01
3.768265e-44 3.869442e-01
3.052295e-44 3.861707e-01
2.472359e-44 3.853987e-01
2.002611e-44 3.846283e-01
1.622115e-44 3.838594e-01
1.313913e-44 3.830921e-01
1.064269e-44 3.823263e-01
8.620582e-45 3.815620e-01
6.982671e-45 3.807993e-01
5.655964e-45 3.800381e-01
4.581331e-45 3.792784e-01
3.710878e-45 3.785202e-01
3.005811e-45 3.777635e-01
2.434707e-45 3.770084e-01
1.972113e-45 3.762548e-01
1.597411e-45 3.755026e-01
1.293903e-45 3.747520e-01
1.048062e-45 3.740029e-01
8.489298e-46 3.732552e-01
6.876332e-46 3.725091e-01
5.569829e-46 3.717644e-01
4.511561e-46 3.710213e-01
3.654365e-46 3.702796e-01
2.960035e-46 3.695394e-01
2.397629e-46 3.688007e-01
1.942079e-46 3.680635e-01
1.573084e-46 3.673277e-01
1.274198e-46 3.665934e-01
1.032100e-46 3.658606e-01
8.360014e-47 3.651293e-01
6.771611e-47 3.643994e-01
5.485005e-47 3.636709e-01
4.442854e-47 3.629440e-01
3.598712e-47 3.622184e-01
2.914957e-47 3.614944e-01
2.361115e-47 3.607717e-01
1.912503e-47 3.600506e-01
1.549127e-47 3.593308e-01
1.254793e-47 3.586125e-01
1.016383e-47 3.578956e-01
8.232699e-48 3.571802e-01
6.668486e-48 3.564662e-01
5.401474e-48 3.557536e-01
4.375194e-48 3.550425e-01
3.543907e-48 3.543327e-01
2.870564e-48 3.536244e-01
2.325157e-48 3.529175e-01
1.883377e-48 3.522121e-01
1.525536e-48 3.515080e-01
1.235684e-48 3.508053e-01
1.000904e-48 3.501041e-01
8.107322e-49 3.494042e-01
6.566931e-49 3.487057e-01
5.319214e-49 3.480087e-01
4.308563e-49 3.473130e-01
3.489936e-49 3.466187e-01
2.826848e-49 3.459258e-01
2.289747e-49 3.452343e-01
1.854695e-49 3.445442e-01
1.502303e-49 3.438555e-01
1.216866e-49 3.431681e-01
9.856611e-50 3.424821e-01
7.983855e-50 3.417975e-01
6.466922e-50 3.411142e-01
5.238207e-50 3.404323e-01
4.242948e-50 3.397518e-01
3.436788e-50 3.390727e-01
2.783798e-50 3.383949e-01
2.254876e-50 3.377184e-01
1.826450e-50 3.370433e-01
1.479424e-50 3.363696e-01
1.198334e-50 3.356972e-01
9.706504e-51 3.350261e-01
7.862268e-51 3.343564e-01
6.368437e-51 3.336880e-01
5.158434e-51 3.330210e-01
4.178331e-51 3.323552e-01
3.384449e-51 3.316909e-01
2.741403e-51 3.310278e-01
2.220537e-51 3.303661e-01
1.798635e-51 3.297057e-01
1.456894e-51 3.290466e-01
1.180084e-51 3.283888e-01
9.558682e-52 3.277324e-01
7.742533e-52 3.270773e-01
6.271451e-52 3.264234e-01
5.079876e-52 3.257709e-01
4.114699e-52 3.251197e-01
3.332906e-52 3.244698e-01
2.699654e-52 3.238212e-01
2.186720e-52 3.231738e-01
1.771243e-52 3.225278e-01
1.434707e-52 3.218831e-01
1.162113e-52 3.212396e-01
9.413112e-53 3.205975e-01
7.624621e-53 3.199566e-01
6.175943e-53 3.193170e-01
5.002514e-53 3.186787e-01
4.052036e-53 3.180417e-01
3.282149e-53 3.174059e-01
2.658541e-53 3.167714e-01
2.153418e-53 3.161382e-01
1.744269e-53 3.155062e-01
1.412858e-53 3.148755e-01
1.144415e-53 3.142461e-01
9.269759e-54 3.136179e-01
7.508505e-54 3.129910e-01
6.081889e-54 3.123653e-01
4.926330e-54 3.117409e-01
3.990327e-54 3.111177e-01
3.232165e-54 3.104958e-01
2.618054e-54 3.098751e-01
2.120624e-54 3.092557e-01
1.717705e-54 3.086375e-01
1.391341e-54 3.080205e-01
1.126986e-54 3.074048e-01
9.128589e-55 3.067903e-01
7.394157e-55 3.061770e-01
5.989267e-55 3.055650e-01
4.851306e-55 3.049541e-01
3.929558e-55 3.043445e-01
3.182942e-55 3.037361e-01
2.578183e-55 3.031290e-01
2.088328e-55 3.025230e-01
1.691546e-55 3.019183e-01
1.370152e-55 3.013147e-01
1.109823e-55 3.007124e-01
8.989569e-56 3.001113e-01
7.281551e-56 2.995114e-01
5.898056e-56 2.989126e-01
4.777425e-56 2.983151e-01
3.869715e-56 2.977188e-01
3.134469e-56 2.971236e-01
2.538920e-56 2.965297e-01
2.056525e-56 2.959369e-01
1.665785e-56 2.953454e-01
1.349286e-56 2.947550e-01
1.092922e-56 2.941657e-01
8.852666e-57 2.935777e-01
7.170659e-57 2.929908e-01
5.808234e-57 2.924052e-01
4.704669e-57 2.918206e-01
3.810782e-57 2.912373e-01
3.086734e-57 2.906551e-01
2.500254e-57 2.900741e-01
2.025206e-57 2.894942e-01
1.640417e-57 2.889155e-01
1.328738e-57 2.883380e-01
1.076277e-57 2.877616e-01
8.717848e-58 2.871864e-01
7.061457e-58 2.866123e-01
5.719780e-58 2.860393e-01
4.633022e-58 2.854675e-01
3.752748e-58 2.848969e-01
3.039725e-58 2.843274e-01
2.462178e-58 2.837590e-01
1.994364e-58 2.831918e-01
1.615435e-58 2.826257e-01
1.308502e-58 2.820607e-01
1.059887e-58 2.814969e-01
8.585083e-59 2.809342e-01
6.953917e-59 2.803726e-01
5.632673e-59 2.798121e-01
4.562465e-59 2.792528e-01
3.695597e-59 2.786945e-01
2.993433e-59 2.781374e-01
2.424681e-59 2.775814e-01
1.963992e-59 2.770266e-01
1.590833e-59 2.764728e-01
1.288575e-59 2.759201e-01
1.043746e-59 2.753685e-01
8.454340e-60 2.748181e-01
6.848015e-60 2.742687e-01
5.546892e-60 2.737205e-01
4.492983e-60 2.731733e-01
3.639316e-60 2.726272e-01
2.947846e-60 2.720822e-01
2.387755e-60 2.715383e-01
1.934082e-60 2.709955e-01
1.566606e-60 2.704538e-01
1.268951e-60 2.699132e-01
1.027850e-60 2.693736e-01
8.325588e-61 2.688351e-01
6.743726e-61 2.682977e-01
5.462418e-61 2.677614e-01
4.424559e-61 2.672262e-01
3.583892e-61 2.666920e-01
2.902953e-61 2.661589e-01
2.351392e-61 2.656268e-01
1.904627e-61 2.650958e-01
1.542748e-61 2.645659e-01
1.249626e-61 2.640370e-01
1.012197e-61 2.635092e-01
8.198796e-62 2.629825e-01
6.641025e-62 2.624568e-01
5.379230e-62 2.619321e-01
4.357177e-62 2.614085e-01
3.529313e-62 2.608859e-01
2.858744e-62 2.603644e-01
2.315582e-62 2.598440e-01
1.875622e-62 2.593245e-01
1.519254e-62 2.588062e-01
1.230595e-62 2.582888e-01
9.967822e-63 2.577725e-01
8.073936e-63 2.572572e-01
6.539888e-63 2.567429e-01
5.297309e-63 2.562297e-01
4.290821e-63 2.557175e-01
3.475565e-63 2.552063e-01
2.815207e-63 2.546962e-01
2.280318e-63 2.541870e-01
1.847058e-63 2.536789e-01
1.496117e-63 2.531718e-01
1.211854e-63 2.526657e-01
9.816021e-64 2.521606e-01
7.950977e-64 2.516566e-01
6.440292e-64 2.511535e-01
5.216636e-64 2.506514e-01
4.225475e-64 2.501504e-01
3.422635e-64 2.496503e-01
2.772334e-64 2.491513e-01
2.245591e-64 2.486532e-01
1.818929e-64 2.481562e-01
1.473332e-64 2.476601e-01
1.193399e-64 2.471650e-01
9.666532e-65 2.466710e-01
7.829891e-65 2.461779e-01
6.342212e-65 2.456858e-01
5.137192e-65 2.451946e-01
4.161125e-65 2.447045e-01
3.370511e-65 2.442153e-01
2.730114e-65 2.437271e-01
2.211393e-65 2.432399e-01
1.791228e-65 2.427537e-01
1.450895e-65 2.422684e-01
1.175225e-65 2.417841e-01
9.519320e-66 2.413008e-01
7.710649e-66 2.408184e-01
6.245626e-66 2.403370e-01
5.058957e-66 2.398566e-01
4.097755e-66 2.393771e-01
3.319182e-66 2.388986e-01
2.688537e-66 2.384211e-01
2.177715e-66 2.379445e-01
1.763949e-66 2.374688e-01
1.428799e-66 2.369941e-01
1.157327e-66 2.365204e-01
9.374349e-67 2.360476e-01
7.593223e-67 2.355757e-01
6.150510e-67 2.351048e-01
4.981913e-67 2.346348e-01
4.035350e-67 2.341658e-01
3.268633e-67 2.336977e-01
2.647593e-67 2.332305e-01
2.144550e-67 2.327643e-01
1.737086e-67 2.322990e-01
1.407040e-67 2.318346e-01
1.139702e-67 2.313712e-01
9.231586e-68 2.309087e-01
7.477585e-68 2.304471e-01
6.056844e-68 2.299864e-01
4.906043e-68 2.295267e-01
3.973895e-68 2.290679e-01
3.218855e-68 2.286100e-01
2.607273e-68 2.281530e-01
2.111891e-68 2.276969e-01
1.710632e-68 2.272417e-01
1.385612e-68 2.267875e-01
1.122345e-68 2.263341e-01
9.090997e-69 2.258817e-01
7.363708e-69 2.254301e-01
5.964603e-69 2.249795e-01
4.831329e-69 2.245298e-01
3.913376e-69 2.240809e-01
3.169835e-69 2.236330e-01
2.567566e-69 2.231859e-01
2.079729e-69 2.227398e-01
1.684580e-69 2.222945e-01
1.364510e-69 2.218502e-01
1.105253e-69 2.214067e-01
8.952550e-70 2.209641e-01
7.251565e-70 2.205224e-01
5.873768e-70 2.200816e-01
4.757752e-70 2.196416e-01
3.853779e-70 2.192026e-01
3.121561e-70 2.187644e-01
2.528464e-70 2.183271e-01
2.048056e-70 2.178906e-01
1.658926e-70 2.174551e-01
1.343730e-70 2.170204e-01
1.088421e-70 2.165866e-01
8.816211e-71 2.161536e-01
7.141131e-71 2.157215e-01
5.784316e-71 2.152903e-01
4.685296e-71 2.148599e-01
3.795090e-71 2.144304e-01
3.074023e-71 2.140018e-01
2.489958e-71 2.135740e-01
2.016866e-71 2.131470e-01
1.633662e-71 2.127210e-01
1.323266e-71 2.122957e-01
1.071845e-71 2.118714e-01
8.681948e-72 2.114478e-01
7.032378e-72 2.110251e-01
5.696226e-72 2.106033e-01
4.613943e-72 2.101823e-01
3.737294e-72 2.097621e-01
3.027208e-72 2.093428e-01
2.452038e-72 2.089244e-01
1.986151e-72 2.085067e-01
1.608782e-72 2.080899e-01
1.303114e-72 2.076739e-01
1.055522e-72 2.072588e-01
8.549729e-73 2.068445e-01
6.925281e-73 2.064310e-01
5.609477e-73 2.060184e-01
4.543677e-73 2.056065e-01
3.680378e-73 2.051955e-01
2.981106e-73 2.047853e-01
2.414696e-73 2.043760e-01
1.955904e-73 2.039674e-01
1.584282e-73 2.035597e-01
1.283269e-73 2.031528e-01
1.039447e-73 2.027467e-01
8.419525e-74 2.023414e-01
6.819815e-74 2.019369e-01
5.524050e-74 2.015332e-01
4.474481e-74 2.011304e-01
3.624329e-74 2.007283e-01
2.935707e-74 2.003270e-01
2.377922e-74 1.999266e-01
1.926117e-74 1.995269e-01
1.560155e-74 1.991281e-01
1.263725e-74 1.987300e-01
1.023618e-74 1.983328e-01
8.291303e-75 1.979363e-01
6.715955e-75 1.975406e-01
5.439924e-75 1.971457e-01
4.406338e-75 1.967516e-01
3.569134e-75 1.963583e-01
2.890999e-75 1.959658e-01
2.341709e-75 1.955741e-01
1.896784e-75 1.951831e-01
1.536395e-75 1.947930e-01
1.244480e-75 1.944036e-01
1.008029e-75 1.940150e-01
8.165034e-76 1.936271e-01
6.613677e-76 1.932401e-01
5.357079e-76 1.928538e-01
4.339234e-76 1.924683e-01
3.514779e-76 1.920835e-01
2.846971e-76 1.916995e-01
2.306047e-76 1.913163e-01
1.867898e-76 1.909339e-01
1.512997e-76 1.905522e-01
1.225528e-76 1.901713e-01
9.926775e-77 1.897911e-01
8.040688e-77 1.894118e-01
6.512957e-77 1.890331e-01
5.275495e-77 1.886552e-01
4.273151e-77 1.882781e-01
3.461252e-77 1.879018e-01
2.803614e-77 1.875261e-01
2.270928e-77 1.871513e-01
1.839451e-77 1.867772e-01
1.489956e-77 1.864038e-01
1.206864e-77 1.860312e-01
9.775599e-78 1.856593e-01
7.918235e-78 1.852882e-01
6.413771e-78 1.849178e-01
5.195154e-78 1.845481e-01
4.208075e-78 1.841792e-01
3.408541e-78 1.838110e-01
2.760918e-78 1.834436e-01
2.236344e-78 1.830769e-01
1.811438e-78 1.827109e-01
1.467265e-78 1.823457e-01
1.188485e-78 1.819812e-01
9.626726e-79 1.816174e-01
7.797648e-79 1.812543e-01
6.316095e-79 1.808920e-01
