2.810597e+04 8.991000e-01 -9.798652e-04 5.769263e-01 -9.999868e-01 9.999437e-01
1.708669e+03 1.208000e-01 -1.897638e-02 6.166255e-01 -3.640720e+00 3.949633e+00
1.174737e+03 8.970000e-02 -2.342714e-02 6.212524e-01 -3.444844e+00 3.025110e+00
1.034185e+03 7.990000e-02 -2.486452e-02 6.237137e-01 -2.870253e+00 2.900946e+00
1.068706e+03 7.780000e-02 -2.677746e-02 6.283898e-01 -2.935210e+00 3.001214e+00
9.252285e+02 7.480000e-02 -2.831429e-02 6.318030e-01 -3.257682e+00 3.017648e+00
1.073492e+03 8.160000e-02 -3.017509e-02 6.359914e-01 -3.592959e+00 3.214029e+00
9.819340e+02 7.680000e-02 -3.163819e-02 6.399603e-01 -3.807353e+00 3.485394e+00
8.587303e+02 7.270000e-02 -3.240505e-02 6.430203e-01 -4.018430e+00 3.735465e+00
8.816459e+02 7.260000e-02 -3.340791e-02 6.468164e-01 -4.221115e+00 3.822480e+00
8.166930e+02 6.770000e-02 -3.463240e-02 6.501242e-01 -4.269684e+00 4.000011e+00
8.801113e+02 7.190000e-02 -3.563647e-02 6.539602e-01 -4.473543e+00 4.153045e+00
8.988588e+02 7.420000e-02 -3.707035e-02 6.605114e-01 -4.761159e+00 4.432577e+00
7.567863e+02 6.700000e-02 -3.765341e-02 6.631729e-01 -4.961462e+00 4.478724e+00
8.137718e+02 6.830000e-02 -3.821640e-02 6.654803e-01 -5.163725e+00 4.518747e+00
7.814471e+02 6.410000e-02 -3.817886e-02 6.690457e-01 -5.254867e+00 4.594060e+00
8.094770e+02 6.510000e-02 -3.880854e-02 6.718888e-01 -5.442914e+00 4.671357e+00
7.628746e+02 6.500000e-02 -3.921577e-02 6.743016e-01 -5.689637e+00 4.759788e+00
7.999290e+02 6.720000e-02 -4.034126e-02 6.776366e-01 -5.803669e+00 4.833056e+00
