6.892188e+01 6.250000e-01 -4.962384e-02 5.350848e-01 -9.492188e-01 9.609375e-01
5.475000e+01 3.697917e-01 -3.703704e-02 5.342596e-01 -9.648438e-01 1.207031e+00
5.518750e+01 3.697917e-01 -3.723958e-02 5.344950e-01 -9.687500e-01 1.210938e+00
5.564453e+01 3.697917e-01 -3.844039e-02 5.349228e-01 -9.726562e-01 1.210938e+00
5.564453e+01 3.697917e-01 -3.967014e-02 5.351597e-01 -9.726562e-01 1.203125e+00
5.508984e+01 3.697917e-01 -3.841146e-02 5.351288e-01 -9.804688e-01 1.203125e+00
5.500781e+01 3.697917e-01 -3.815104e-02 5.350488e-01 -9.804688e-01 1.195312e+00
5.500781e+01 3.697917e-01 -3.865741e-02 5.348152e-01 -9.804688e-01 1.195312e+00
5.504688e+01 3.697917e-01 -3.920718e-02 5.346794e-01 -9.804688e-01 1.183594e+00
5.504688e+01 3.697917e-01 -3.912037e-02 5.348720e-01 -9.804688e-01 1.179688e+00
5.504688e+01 3.697917e-01 -3.912037e-02 5.348720e-01 -9.804688e-01 1.179688e+00
5.504688e+01 3.697917e-01 -3.912037e-02 5.348720e-01 -9.804688e-01 1.179688e+00
5.541016e+01 3.697917e-01 -3.922164e-02 5.348804e-01 -9.804688e-01 1.179688e+00
5.541016e+01 3.697917e-01 -3.932292e-02 5.348887e-01 -9.804688e-01 1.179688e+00
5.541016e+01 3.697917e-01 -3.932292e-02 5.348887e-01 -9.804688e-01 1.179688e+00
5.541016e+01 3.697917e-01 -3.932292e-02 5.348887e-01 -9.804688e-01 1.179688e+00
5.541016e+01 3.697917e-01 -3.932292e-02 5.348887e-01 -9.804688e-01 1.179688e+00
5.541016e+01 3.697917e-01 -3.932292e-02 5.348887e-01 -9.804688e-01 1.179688e+00
5.541016e+01 3.697917e-01 -3.932292e-02 5.348887e-01 -9.804688e-01 1.179688e+00
5.507812e+01 3.697917e-01 -4.068287e-02 5.347525e-01 -9.921875e-01 1.175781e+00
5.621875e+01 3.697917e-01 -4.075521e-02 5.346881e-01 -9.921875e-01 1.171875e+00
5.626172e+01 3.697917e-01 -4.632523e-02 5.342663e-01 -1.011719e+00 1.140625e+00
5.519141e+01 3.697917e-01 -4.450231e-02 5.347792e-01 -1.015625e+00 1.167969e+00
5.503125e+01 3.697917e-01 -4.589120e-02 5.345544e-01 -1.015625e+00 1.144531e+00
5.468359e+01 3.697917e-01 -4.522569e-02 5.350688e-01 -1.019531e+00 1.167969e+00
5.482422e+01 3.697917e-01 -4.539931e-02 5.352822e-01 -1.023438e+00 1.179688e+00
5.482422e+01 3.697917e-01 -4.539931e-02 5.352917e-01 -1.023438e+00 1.179688e+00
5.455859e+01 3.697917e-01 -4.548611e-02 5.354738e-01 -1.027344e+00 1.183594e+00
5.455859e+01 3.697917e-01 -4.548611e-02 5.354738e-01 -1.027344e+00 1.183594e+00
5.455859e+01 3.697917e-01 -4.548611e-02 5.354738e-01 -1.027344e+00 1.183594e+00
5.455859e+01 3.697917e-01 -4.548611e-02 5.354738e-01 -1.027344e+00 1.183594e+00
5.455859e+01 3.697917e-01 -4.548611e-02 5.354738e-01 -1.027344e+00 1.183594e+00
5.473438e+01 3.697917e-01 -4.626736e-02 5.353563e-01 -1.031250e+00 1.179688e+00
5.410938e+01 3.697917e-01 -4.612269e-02 5.355530e-01 -1.031250e+00 1.187500e+00
5.412891e+01 3.697917e-01 -4.620949e-02 5.355604e-01 -1.031250e+00 1.187500e+00
5.419141e+01 3.697917e-01 -4.622396e-02 5.355931e-01 -1.031250e+00 1.191406e+00
5.419141e+01 3.697917e-01 -4.623843e-02 5.356259e-01 -1.031250e+00 1.191406e+00
5.419141e+01 3.697917e-01 -4.623843e-02 5.356259e-01 -1.031250e+00 1.191406e+00
5.419141e+01 3.697917e-01 -4.615162e-02 5.357280e-01 -1.031250e+00 1.195312e+00
5.419141e+01 3.697917e-01 -4.615162e-02 5.357280e-01 -1.031250e+00 1.195312e+00
5.419141e+01 3.697917e-01 -4.615162e-02 5.357280e-01 -1.031250e+00 1.195312e+00
5.419141e+01 3.697917e-01 -4.615162e-02 5.357280e-01 -1.031250e+00 1.195312e+00
5.419141e+01 3.697917e-01 -4.615162e-02 5.357280e-01 -1.031250e+00 1.195312e+00
5.419141e+01 3.697917e-01 -4.615162e-02 5.357280e-01 -1.031250e+00 1.195312e+00
5.419141e+01 3.697917e-01 -4.615162e-02 5.357280e-01 -1.031250e+00 1.195312e+00
5.419141e+01 3.697917e-01 -4.615162e-02 5.357280e-01 -1.031250e+00 1.195312e+00
5.419141e+01 3.697917e-01 -4.615162e-02 5.357280e-01 -1.031250e+00 1.195312e+00
5.453125e+01 3.697917e-01 -4.626736e-02 5.363188e-01 -1.039062e+00 1.214844e+00
5.453125e+01 3.697917e-01 -4.626736e-02 5.363188e-01 -1.039062e+00 1.214844e+00
5.453125e+01 3.697917e-01 -4.626736e-02 5.363188e-01 -1.039062e+00 1.214844e+00
5.495312e+01 3.697917e-01 -4.629630e-02 5.363245e-01 -1.039062e+00 1.214844e+00
5.495312e+01 3.697917e-01 -4.632523e-02 5.363303e-01 -1.039062e+00 1.214844e+00
5.495312e+01 3.697917e-01 -4.632523e-02 5.363303e-01 -1.039062e+00 1.214844e+00
5.504688e+01 3.697917e-01 -4.646991e-02 5.363709e-01 -1.039062e+00 1.214844e+00
5.504688e+01 3.697917e-01 -4.646991e-02 5.363709e-01 -1.039062e+00 1.214844e+00
5.504688e+01 3.697917e-01 -4.646991e-02 5.363709e-01 -1.039062e+00 1.214844e+00
5.504688e+01 3.697917e-01 -4.646991e-02 5.363709e-01 -1.039062e+00 1.214844e+00
5.504688e+01 3.697917e-01 -4.646991e-02 5.363709e-01 -1.039062e+00 1.214844e+00
5.501172e+01 3.697917e-01 -4.762731e-02 5.366135e-01 -1.046875e+00 1.222656e+00
5.501172e+01 3.697917e-01 -4.762731e-02 5.366135e-01 -1.046875e+00 1.222656e+00
5.500000e+01 3.697917e-01 -4.767072e-02 5.366652e-01 -1.046875e+00 1.222656e+00
5.500000e+01 3.697917e-01 -4.771412e-02 5.367169e-01 -1.046875e+00 1.222656e+00
5.451562e+01 3.697917e-01 -5.546875e-02 5.420810e-01 -1.121094e+00 1.273438e+00
5.425391e+01 3.697917e-01 -5.666956e-02 5.424037e-01 -1.121094e+00 1.261719e+00
5.425391e+01 3.697917e-01 -5.656829e-02 5.424544e-01 -1.121094e+00 1.261719e+00
5.425391e+01 3.697917e-01 -5.656829e-02 5.424544e-01 -1.121094e+00 1.261719e+00
5.425391e+01 3.697917e-01 -5.656829e-02 5.424544e-01 -1.121094e+00 1.261719e+00
5.425391e+01 3.697917e-01 -5.656829e-02 5.424544e-01 -1.121094e+00 1.261719e+00
5.460156e+01 3.697917e-01 -5.691551e-02 5.428454e-01 -1.128906e+00 1.269531e+00
5.460156e+01 3.697917e-01 -5.691551e-02 5.429432e-01 -1.128906e+00 1.269531e+00
5.460156e+01 3.697917e-01 -5.691551e-02 5.429432e-01 -1.128906e+00 1.269531e+00
5.458984e+01 3.697917e-01 -5.685764e-02 5.430198e-01 -1.128906e+00 1.273438e+00
5.458984e+01 3.697917e-01 -5.685764e-02 5.430198e-01 -1.128906e+00 1.273438e+00
5.458984e+01 3.697917e-01 -5.685764e-02 5.430198e-01 -1.128906e+00 1.273438e+00
5.458984e+01 3.697917e-01 -5.685764e-02 5.430198e-01 -1.128906e+00 1.273438e+00
5.513672e+01 3.697917e-01 -5.671296e-02 5.434718e-01 -1.136719e+00 1.281250e+00
5.513672e+01 3.697917e-01 -5.671296e-02 5.436545e-01 -1.136719e+00 1.281250e+00
5.501172e+01 3.697917e-01 -5.633681e-02 5.438800e-01 -1.136719e+00 1.289062e+00
5.461719e+01 3.697917e-01 -5.593171e-02 5.446019e-01 -1.144531e+00 1.304688e+00
5.461719e+01 3.697917e-01 -5.604745e-02 5.446587e-01 -1.144531e+00 1.300781e+00
5.489062e+01 3.697917e-01 -5.604745e-02 5.448068e-01 -1.144531e+00 1.304688e+00
5.489062e+01 3.697917e-01 -5.604745e-02 5.448068e-01 -1.144531e+00 1.304688e+00
5.477344e+01 3.697917e-01 -5.607639e-02 5.447907e-01 -1.144531e+00 1.304688e+00
5.477344e+01 3.697917e-01 -5.607639e-02 5.447907e-01 -1.144531e+00 1.304688e+00
5.477344e+01 3.697917e-01 -5.607639e-02 5.447907e-01 -1.144531e+00 1.304688e+00
5.477344e+01 3.697917e-01 -5.607639e-02 5.447907e-01 -1.144531e+00 1.304688e+00
5.428906e+01 3.697917e-01 -5.710359e-02 5.453144e-01 -1.156250e+00 1.308594e+00
5.428906e+01 3.697917e-01 -5.737847e-02 5.454616e-01 -1.156250e+00 1.308594e+00
5.462109e+01 3.697917e-01 -5.729167e-02 5.458518e-01 -1.160156e+00 1.316406e+00
5.396094e+01 3.697917e-01 -5.769676e-02 5.457770e-01 -1.160156e+00 1.312500e+00
5.428516e+01 3.697917e-01 -5.771123e-02 5.458799e-01 -1.160156e+00 1.316406e+00
5.433203e+01 3.697917e-01 -5.766782e-02 5.462387e-01 -1.160156e+00 1.320312e+00
5.545312e+01 3.697917e-01 -6.014178e-02 5.482961e-01 -1.191406e+00 1.328125e+00
5.545312e+01 3.697917e-01 -6.223958e-02 5.494045e-01 -1.191406e+00 1.328125e+00
5.603125e+01 3.697917e-01 -6.203704e-02 5.495011e-01 -1.191406e+00 1.335938e+00
5.603125e+01 3.697917e-01 -6.183449e-02 5.495975e-01 -1.191406e+00 1.335938e+00
5.603125e+01 3.697917e-01 -6.183449e-02 5.495975e-01 -1.191406e+00 1.335938e+00
5.603125e+01 3.697917e-01 -6.183449e-02 5.495975e-01 -1.191406e+00 1.335938e+00
5.603125e+01 3.697917e-01 -6.183449e-02 5.495975e-01 -1.191406e+00 1.335938e+00
5.623438e+01 3.697917e-01 -6.137153e-02 5.499761e-01 -1.195312e+00 1.347656e+00
5.623438e+01 3.697917e-01 -6.137153e-02 5.499761e-01 -1.195312e+00 1.347656e+00
5.473828e+01 3.697917e-01 -6.128472e-02 5.508869e-01 -1.203125e+00 1.351562e+00
5.478516e+01 3.697917e-01 -6.108218e-02 5.512237e-01 -1.207031e+00 1.359375e+00
5.469922e+01 3.697917e-01 -6.102431e-02 5.514450e-01 -1.207031e+00 1.363281e+00
5.469922e+01 3.697917e-01 -6.102431e-02 5.514450e-01 -1.207031e+00 1.363281e+00
5.469922e+01 3.697917e-01 -6.108218e-02 5.514734e-01 -1.207031e+00 1.363281e+00
5.469922e+01 3.697917e-01 -6.108218e-02 5.514734e-01 -1.207031e+00 1.363281e+00
5.469922e+01 3.697917e-01 -6.108218e-02 5.514734e-01 -1.207031e+00 1.363281e+00
5.469922e+01 3.697917e-01 -6.108218e-02 5.514734e-01 -1.207031e+00 1.363281e+00
5.469922e+01 3.697917e-01 -6.108218e-02 5.514734e-01 -1.207031e+00 1.363281e+00
5.469922e+01 3.697917e-01 -6.108218e-02 5.514734e-01 -1.207031e+00 1.363281e+00
5.465625e+01 3.697917e-01 -5.930266e-02 5.551555e-01 -1.230469e+00 1.410156e+00
5.455859e+01 3.697917e-01 -5.791377e-02 5.565691e-01 -1.230469e+00 1.410156e+00
5.424609e+01 3.697917e-01 -5.688657e-02 5.596240e-01 -1.234375e+00 1.433594e+00
5.424609e+01 3.697917e-01 -5.674190e-02 5.597466e-01 -1.234375e+00 1.433594e+00
5.439453e+01 3.697917e-01 -5.665509e-02 5.599265e-01 -1.234375e+00 1.437500e+00
5.471484e+01 3.697917e-01 -5.666956e-02 5.599974e-01 -1.234375e+00 1.441406e+00
5.471484e+01 3.697917e-01 -5.668403e-02 5.600684e-01 -1.234375e+00 1.441406e+00
5.524219e+01 3.697917e-01 -5.653935e-02 5.602665e-01 -1.234375e+00 1.445312e+00
5.530469e+01 3.697917e-01 -5.653935e-02 5.603099e-01 -1.234375e+00 1.445312e+00
5.530469e+01 3.697917e-01 -5.653935e-02 5.603099e-01 -1.234375e+00 1.445312e+00
5.401562e+01 3.697917e-01 -5.572917e-02 5.678184e-01 -1.265625e+00 1.437500e+00
5.404688e+01 3.697917e-01 -5.347222e-02 5.753079e-01 -1.269531e+00 1.453125e+00
5.391406e+01 3.697917e-01 -5.308160e-02 5.757105e-01 -1.269531e+00 1.457031e+00
5.391406e+01 3.697917e-01 -5.300926e-02 5.757923e-01 -1.269531e+00 1.457031e+00
5.417188e+01 3.697917e-01 -5.292245e-02 5.758940e-01 -1.269531e+00 1.460938e+00
5.417188e+01 3.697917e-01 -5.283565e-02 5.759957e-01 -1.269531e+00 1.460938e+00
5.417188e+01 3.697917e-01 -5.283565e-02 5.759957e-01 -1.269531e+00 1.460938e+00
5.417188e+01 3.697917e-01 -5.283565e-02 5.759957e-01 -1.269531e+00 1.460938e+00
5.417188e+01 3.697917e-01 -5.283565e-02 5.759957e-01 -1.269531e+00 1.460938e+00
5.417188e+01 3.697917e-01 -5.283565e-02 5.759957e-01 -1.269531e+00 1.460938e+00
5.417188e+01 3.697917e-01 -5.283565e-02 5.759957e-01 -1.269531e+00 1.460938e+00
5.417188e+01 3.697917e-01 -5.283565e-02 5.759957e-01 -1.269531e+00 1.460938e+00
5.418359e+01 3.697917e-01 -5.280671e-02 5.760206e-01 -1.269531e+00 1.460938e+00
5.418359e+01 3.697917e-01 -5.280671e-02 5.760206e-01 -1.269531e+00 1.460938e+00
5.418359e+01 3.697917e-01 -5.280671e-02 5.760206e-01 -1.269531e+00 1.460938e+00
5.418359e+01 3.697917e-01 -5.280671e-02 5.760206e-01 -1.269531e+00 1.460938e+00
5.418359e+01 3.697917e-01 -5.280671e-02 5.760206e-01 -1.269531e+00 1.460938e+00
5.418359e+01 3.697917e-01 -5.280671e-02 5.760206e-01 -1.269531e+00 1.460938e+00
5.418359e+01 3.697917e-01 -5.280671e-02 5.760206e-01 -1.269531e+00 1.460938e+00
5.478906e+01 3.697917e-01 -5.251736e-02 5.762687e-01 -1.269531e+00 1.464844e+00
5.478906e+01 3.697917e-01 -5.248843e-02 5.763103e-01 -1.269531e+00 1.468750e+00
5.423438e+01 3.697917e-01 -5.217014e-02 5.796974e-01 -1.273438e+00 1.468750e+00
5.444922e+01 3.697917e-01 -5.185185e-02 5.802676e-01 -1.277344e+00 1.476562e+00
5.473438e+01 3.697917e-01 -5.182292e-02 5.805342e-01 -1.277344e+00 1.480469e+00
5.473438e+01 3.697917e-01 -5.182292e-02 5.805342e-01 -1.277344e+00 1.480469e+00
5.473438e+01 3.697917e-01 -5.182292e-02 5.805342e-01 -1.277344e+00 1.480469e+00
5.473438e+01 3.697917e-01 -5.182292e-02 5.805342e-01 -1.277344e+00 1.480469e+00
5.473438e+01 3.697917e-01 -5.182292e-02 5.805342e-01 -1.277344e+00 1.480469e+00
5.473438e+01 3.697917e-01 -5.182292e-02 5.805342e-01 -1.277344e+00 1.480469e+00
5.473438e+01 3.697917e-01 -5.182292e-02 5.805342e-01 -1.277344e+00 1.480469e+00
5.641406e+01 3.697917e-01 -5.163484e-02 5.831473e-01 -1.292969e+00 1.503906e+00
5.641406e+01 3.697917e-01 -5.205440e-02 5.841949e-01 -1.292969e+00 1.496094e+00
5.647266e+01 3.697917e-01 -5.177951e-02 5.847490e-01 -1.296875e+00 1.500000e+00
5.285156e+01 3.697917e-01 -5.219907e-02 5.889626e-01 -1.312500e+00 1.500000e+00
5.454688e+01 3.697917e-01 -5.199653e-02 5.932265e-01 -1.316406e+00 1.496094e+00
5.461719e+01 3.697917e-01 -5.214120e-02 5.976082e-01 -1.332031e+00 1.500000e+00
5.548828e+01 3.697917e-01 -5.345775e-02 6.003764e-01 -1.332031e+00 1.492188e+00
5.375391e+01 3.697917e-01 -5.387731e-02 6.008088e-01 -1.332031e+00 1.492188e+00
5.375391e+01 3.697917e-01 -5.413773e-02 6.014158e-01 -1.332031e+00 1.492188e+00
5.375391e+01 3.697917e-01 -5.413773e-02 6.014158e-01 -1.332031e+00 1.492188e+00
5.375391e+01 3.697917e-01 -5.413773e-02 6.014158e-01 -1.332031e+00 1.492188e+00
5.375391e+01 3.697917e-01 -5.413773e-02 6.014158e-01 -1.332031e+00 1.492188e+00
5.375391e+01 3.697917e-01 -5.413773e-02 6.014158e-01 -1.332031e+00 1.492188e+00
5.375391e+01 3.697917e-01 -5.413773e-02 6.014158e-01 -1.332031e+00 1.492188e+00
5.375391e+01 3.697917e-01 -5.413773e-02 6.014158e-01 -1.332031e+00 1.492188e+00
5.375391e+01 3.697917e-01 -5.413773e-02 6.014158e-01 -1.332031e+00 1.492188e+00
5.375391e+01 3.697917e-01 -5.413773e-02 6.014158e-01 -1.332031e+00 1.492188e+00
5.375391e+01 3.697917e-01 -5.413773e-02 6.014158e-01 -1.332031e+00 1.492188e+00
5.375391e+01 3.697917e-01 -5.413773e-02 6.014158e-01 -1.332031e+00 1.492188e+00
5.243750e+01 3.645833e-01 -5.419560e-02 6.041299e-01 -1.332031e+00 1.496094e+00
5.250000e+01 3.645833e-01 -5.407986e-02 6.043922e-01 -1.332031e+00 1.500000e+00
5.276953e+01 3.697917e-01 -5.357350e-02 6.049513e-01 -1.332031e+00 1.511719e+00
5.276953e+01 3.697917e-01 -5.347222e-02 6.050863e-01 -1.332031e+00 1.511719e+00
5.276953e+01 3.697917e-01 -5.347222e-02 6.050863e-01 -1.332031e+00 1.511719e+00
5.412891e+01 3.697917e-01 -5.312500e-02 6.052921e-01 -1.332031e+00 1.523438e+00
5.402344e+01 3.697917e-01 -5.358796e-02 6.068507e-01 -1.332031e+00 1.523438e+00
5.402344e+01 3.697917e-01 -5.358796e-02 6.068507e-01 -1.332031e+00 1.523438e+00
5.396484e+01 3.697917e-01 -5.353009e-02 6.069064e-01 -1.332031e+00 1.527344e+00
5.342578e+01 3.697917e-01 -5.238715e-02 6.098769e-01 -1.335938e+00 1.582031e+00
5.342578e+01 3.697917e-01 -5.130208e-02 6.127757e-01 -1.335938e+00 1.582031e+00
5.360156e+01 3.697917e-01 -5.133102e-02 6.130628e-01 -1.335938e+00 1.582031e+00
5.433203e+01 3.697917e-01 -5.128762e-02 6.136895e-01 -1.339844e+00 1.582031e+00
5.294922e+01 3.697917e-01 -5.206887e-02 6.156839e-01 -1.347656e+00 1.582031e+00
5.355859e+01 3.697917e-01 -5.227141e-02 6.184604e-01 -1.351562e+00 1.601562e+00
5.178516e+01 3.593750e-01 -5.144676e-02 6.360122e-01 -1.613281e+00 1.601562e+00
5.178516e+01 3.593750e-01 -5.251736e-02 6.372185e-01 -1.613281e+00 1.585938e+00
5.199609e+01 3.645833e-01 -5.243056e-02 6.434903e-01 -1.636719e+00 1.640625e+00
5.277344e+01 3.697917e-01 -5.170718e-02 6.445896e-01 -1.667969e+00 1.660156e+00
5.231250e+01 3.697917e-01 -5.203993e-02 6.448405e-01 -1.667969e+00 1.660156e+00
5.270312e+01 3.697917e-01 -5.244502e-02 6.455301e-01 -1.679688e+00 1.660156e+00
5.270312e+01 3.697917e-01 -5.257523e-02 6.459904e-01 -1.679688e+00 1.660156e+00
5.270312e+01 3.697917e-01 -5.257523e-02 6.459904e-01 -1.679688e+00 1.660156e+00
5.237109e+01 3.697917e-01 -5.306713e-02 6.467012e-01 -1.687500e+00 1.660156e+00
5.236328e+01 3.697917e-01 -5.309606e-02 6.466970e-01 -1.687500e+00 1.660156e+00
5.216016e+01 3.697917e-01 -5.315394e-02 6.468810e-01 -1.687500e+00 1.660156e+00
5.222266e+01 3.697917e-01 -5.315394e-02 6.471491e-01 -1.691406e+00 1.660156e+00
5.222266e+01 3.697917e-01 -5.315394e-02 6.471491e-01 -1.691406e+00 1.660156e+00
5.210938e+01 2.760417e-01 -5.653935e-02 6.507985e-01 -1.679688e+00 1.636719e+00
5.246484e+01 3.697917e-01 -5.355903e-02 6.523206e-01 -1.726562e+00 1.683594e+00
5.253906e+01 3.697917e-01 -5.358796e-02 6.524016e-01 -1.730469e+00 1.683594e+00
5.253906e+01 3.697917e-01 -5.358796e-02 6.524016e-01 -1.730469e+00 1.683594e+00
5.095312e+01 3.385417e-01 -5.596065e-02 6.552653e-01 -1.726562e+00 1.667969e+00
5.177734e+01 3.645833e-01 -5.561343e-02 6.560952e-01 -1.769531e+00 1.691406e+00
5.112500e+01 3.385417e-01 -5.277778e-02 7.033996e-01 -1.812500e+00 2.066406e+00
5.096484e+01 3.541667e-01 -5.072338e-02 7.045116e-01 -1.820312e+00 2.089844e+00
5.116797e+01 3.541667e-01 -4.691840e-02 7.114856e-01 -1.828125e+00 2.136719e+00
5.052734e+01 3.020833e-01 -4.626736e-02 7.155618e-01 -1.832031e+00 2.136719e+00
5.052734e+01 3.020833e-01 -4.754051e-02 7.174303e-01 -1.832031e+00 2.117188e+00
5.040625e+01 3.281250e-01 -4.606481e-02 7.196546e-01 -1.859375e+00 2.140625e+00
4.958203e+01 2.968750e-01 -4.872685e-02 7.287572e-01 -1.929688e+00 2.160156e+00
5.012500e+01 3.385417e-01 -4.982639e-02 7.338310e-01 -1.968750e+00 2.199219e+00
4.920312e+01 3.229167e-01 -4.894387e-02 7.373090e-01 -1.972656e+00 2.199219e+00
4.919141e+01 3.229167e-01 -4.924769e-02 7.386150e-01 -1.976562e+00 2.199219e+00
4.896875e+01 3.072917e-01 -4.874132e-02 7.475386e-01 -2.007812e+00 2.226562e+00
4.896875e+01 3.072917e-01 -4.861111e-02 7.477242e-01 -2.007812e+00 2.226562e+00
4.896094e+01 3.177083e-01 -4.846644e-02 7.483263e-01 -2.011719e+00 2.230469e+00
4.914844e+01 3.177083e-01 -4.843750e-02 7.487500e-01 -2.015625e+00 2.234375e+00
4.801172e+01 2.864583e-01 -5.098380e-02 7.678775e-01 -2.109375e+00 2.292969e+00
4.847266e+01 2.968750e-01 -5.057870e-02 7.681811e-01 -2.113281e+00 2.296875e+00
4.895312e+01 3.281250e-01 -4.829282e-02 7.706693e-01 -2.144531e+00 2.328125e+00
4.792188e+01 2.812500e-01 -5.026042e-02 7.734457e-01 -2.132812e+00 2.312500e+00
4.833203e+01 2.968750e-01 -4.891493e-02 7.762005e-01 -2.179688e+00 2.335938e+00
4.813672e+01 3.125000e-01 -3.532986e-02 7.893085e-01 -2.171875e+00 2.335938e+00
4.740234e+01 2.760417e-01 -4.169560e-02 7.949602e-01 -2.261719e+00 2.308594e+00
4.742188e+01 2.812500e-01 -4.247685e-02 7.960370e-01 -2.269531e+00 2.300781e+00
4.755859e+01 2.968750e-01 -4.898727e-02 8.192878e-01 -2.523438e+00 2.316406e+00
4.530078e+01 2.604167e-01 -4.570313e-02 8.316582e-01 -2.546875e+00 2.371094e+00
4.657812e+01 3.020833e-01 -4.558738e-02 8.391709e-01 -2.570312e+00 2.359375e+00
4.657812e+01 3.020833e-01 -4.516782e-02 8.396443e-01 -2.570312e+00 2.359375e+00
4.501953e+01 2.656250e-01 -4.522569e-02 8.625253e-01 -2.687500e+00 2.433594e+00
4.484375e+01 2.656250e-01 -4.435764e-02 8.662925e-01 -2.671875e+00 2.441406e+00
4.533594e+01 2.864583e-01 -4.942130e-02 9.093637e-01 -3.027344e+00 2.519531e+00
4.477734e+01 2.916667e-01 -5.384838e-02 9.200982e-01 -3.027344e+00 2.500000e+00
4.477734e+01 2.916667e-01 -5.419560e-02 9.201170e-01 -3.027344e+00 2.496094e+00
4.362891e+01 2.864583e-01 -5.668403e-02 9.222156e-01 -3.046875e+00 2.484375e+00
4.433984e+01 3.020833e-01 -5.604745e-02 9.229412e-01 -3.042969e+00 2.484375e+00
4.433984e+01 3.020833e-01 -5.604745e-02 9.229412e-01 -3.042969e+00 2.484375e+00
4.346484e+01 2.604167e-01 -5.736400e-02 9.241987e-01 -3.062500e+00 2.484375e+00
4.406641e+01 2.760417e-01 -6.193576e-02 9.269405e-01 -3.062500e+00 2.484375e+00
4.399219e+01 2.708333e-01 -6.186343e-02 9.278473e-01 -3.062500e+00 2.484375e+00
4.402344e+01 2.708333e-01 -6.168981e-02 9.283330e-01 -3.062500e+00 2.488281e+00
4.402344e+01 2.708333e-01 -6.157407e-02 9.285136e-01 -3.062500e+00 2.488281e+00
4.403125e+01 2.812500e-01 -6.137153e-02 9.290155e-01 -3.066406e+00 2.492188e+00
4.324609e+01 2.656250e-01 -5.931713e-02 9.398437e-01 -3.082031e+00 2.527344e+00
4.324609e+01 2.656250e-01 -5.931713e-02 9.398437e-01 -3.082031e+00 2.527344e+00
4.233203e+01 2.447917e-01 -6.302083e-02 9.483718e-01 -3.117188e+00 2.535156e+00
4.292969e+01 2.500000e-01 -6.273148e-02 9.487642e-01 -3.121094e+00 2.539062e+00
4.292969e+01 2.500000e-01 -6.273148e-02 9.487642e-01 -3.121094e+00 2.539062e+00
4.292969e+01 2.500000e-01 -6.274595e-02 9.494729e-01 -3.128906e+00 2.546875e+00
4.291797e+01 2.447917e-01 -6.299190e-02 9.499024e-01 -3.128906e+00 2.550781e+00
4.302734e+01 2.604167e-01 -6.278935e-02 9.502989e-01 -3.128906e+00 2.554688e+00
4.311719e+01 2.708333e-01 -6.171875e-02 9.540401e-01 -3.136719e+00 2.582031e+00
4.298438e+01 2.552083e-01 -6.193576e-02 9.547871e-01 -3.136719e+00 2.582031e+00
4.302344e+01 2.604167e-01 -6.202257e-02 9.559042e-01 -3.136719e+00 2.585938e+00
4.274219e+01 2.343750e-01 -5.996817e-02 9.690213e-01 -3.171875e+00 2.679688e+00
4.258203e+01 2.760417e-01 -5.733507e-02 9.801285e-01 -3.203125e+00 2.695312e+00
4.258203e+01 2.760417e-01 -5.717593e-02 9.808907e-01 -3.207031e+00 2.695312e+00
4.108203e+01 2.343750e-01 -6.426505e-02 9.884469e-01 -3.257812e+00 2.691406e+00
4.213672e+01 2.395833e-01 -6.378762e-02 9.890542e-01 -3.265625e+00 2.710938e+00
4.212891e+01 2.395833e-01 -6.326678e-02 9.898183e-01 -3.265625e+00 2.714844e+00
4.126562e+01 2.395833e-01 -6.326678e-02 9.900888e-01 -3.265625e+00 2.714844e+00
4.126562e+01 2.395833e-01 -6.331019e-02 9.902020e-01 -3.261719e+00 2.714844e+00
4.147266e+01 2.395833e-01 -6.319444e-02 9.904974e-01 -3.261719e+00 2.718750e+00
4.116016e+01 2.291667e-01 -6.333912e-02 9.919723e-01 -3.257812e+00 2.722656e+00
4.164844e+01 2.447917e-01 -6.304977e-02 9.922714e-01 -3.261719e+00 2.730469e+00
4.164844e+01 2.447917e-01 -6.276042e-02 9.925702e-01 -3.261719e+00 2.730469e+00
4.158984e+01 2.395833e-01 -6.258681e-02 9.929367e-01 -3.261719e+00 2.734375e+00
4.158984e+01 2.395833e-01 -6.258681e-02 9.929367e-01 -3.261719e+00 2.734375e+00
4.084375e+01 2.395833e-01 -5.969329e-02 1.000378e+00 -3.281250e+00 2.757812e+00
4.084375e+01 2.395833e-01 -5.798611e-02 1.003925e+00 -3.281250e+00 2.746094e+00
4.087500e+01 2.447917e-01 -5.801505e-02 1.004172e+00 -3.285156e+00 2.746094e+00
4.100000e+01 2.447917e-01 -5.789931e-02 1.004695e+00 -3.289062e+00 2.750000e+00
4.100000e+01 2.447917e-01 -5.789931e-02 1.004695e+00 -3.289062e+00 2.750000e+00
4.100000e+01 2.447917e-01 -5.789931e-02 1.004695e+00 -3.289062e+00 2.750000e+00
4.100000e+01 2.447917e-01 -5.789931e-02 1.004695e+00 -3.289062e+00 2.750000e+00
4.510156e+01 2.864583e-01 -5.677083e-02 1.005085e+00 -3.316406e+00 2.773438e+00
4.116797e+01 2.500000e-01 -5.771123e-02 1.005566e+00 -3.316406e+00 2.773438e+00
4.196875e+01 2.552083e-01 -5.895544e-02 1.007578e+00 -3.316406e+00 2.777344e+00
4.134375e+01 2.135417e-01 -6.002604e-02 1.010653e+00 -3.316406e+00 2.785156e+00
4.134375e+01 2.135417e-01 -6.079282e-02 1.012196e+00 -3.300781e+00 2.785156e+00
4.321484e+01 2.656250e-01 -6.028646e-02 1.013080e+00 -3.332031e+00 2.808594e+00
4.321484e+01 2.656250e-01 -5.978009e-02 1.013964e+00 -3.332031e+00 2.808594e+00
4.110547e+01 2.135417e-01 -6.157407e-02 1.015673e+00 -3.308594e+00 2.792969e+00
4.122656e+01 2.343750e-01 -6.082176e-02 1.016038e+00 -3.320312e+00 2.804688e+00
4.087109e+01 2.135417e-01 -5.944734e-02 1.026892e+00 -3.347656e+00 2.855469e+00
4.087109e+01 2.135417e-01 -5.896991e-02 1.028311e+00 -3.339844e+00 2.855469e+00
4.100781e+01 2.343750e-01 -5.896991e-02 1.028516e+00 -3.343750e+00 2.859375e+00
4.100781e+01 2.343750e-01 -5.896991e-02 1.028516e+00 -3.343750e+00 2.859375e+00
4.082031e+01 2.291667e-01 -5.896991e-02 1.028692e+00 -3.347656e+00 2.863281e+00
4.085156e+01 2.291667e-01 -5.896991e-02 1.028977e+00 -3.347656e+00 2.863281e+00
4.077734e+01 2.135417e-01 -6.012731e-02 1.031514e+00 -3.351562e+00 2.863281e+00
4.066016e+01 2.239583e-01 -5.993924e-02 1.031709e+00 -3.359375e+00 2.871094e+00
4.083203e+01 2.239583e-01 -5.995370e-02 1.032073e+00 -3.359375e+00 2.871094e+00
4.084375e+01 2.291667e-01 -5.995370e-02 1.032097e+00 -3.359375e+00 2.875000e+00
4.084375e+01 2.291667e-01 -5.995370e-02 1.032121e+00 -3.359375e+00 2.875000e+00
4.084375e+01 2.291667e-01 -5.995370e-02 1.032121e+00 -3.359375e+00 2.875000e+00
4.093750e+01 2.291667e-01 -5.978009e-02 1.032292e+00 -3.363281e+00 2.878906e+00
4.113281e+01 2.447917e-01 -6.073495e-02 1.034370e+00 -3.355469e+00 2.875000e+00
4.067188e+01 2.291667e-01 -6.050347e-02 1.034963e+00 -3.371094e+00 2.886719e+00
4.065625e+01 2.291667e-01 -6.061921e-02 1.035272e+00 -3.371094e+00 2.886719e+00
4.082031e+01 2.343750e-01 -6.050347e-02 1.037003e+00 -3.378906e+00 2.902344e+00
4.156641e+01 2.395833e-01 -5.989583e-02 1.039117e+00 -3.390625e+00 2.917969e+00
4.041797e+01 2.239583e-01 -6.064815e-02 1.039300e+00 -3.382812e+00 2.914062e+00
4.062500e+01 2.343750e-01 -5.999711e-02 1.073145e+00 -3.488281e+00 3.082031e+00
4.046484e+01 2.239583e-01 -5.910012e-02 1.074150e+00 -3.472656e+00 3.085938e+00
4.028125e+01 2.395833e-01 -5.988137e-02 1.074651e+00 -3.472656e+00 3.089844e+00
4.028125e+01 2.395833e-01 -6.085069e-02 1.074982e+00 -3.457031e+00 3.089844e+00
3.983984e+01 2.083333e-01 -7.792245e-02 1.088278e+00 -3.492188e+00 3.148438e+00
3.983984e+01 2.083333e-01 -7.792245e-02 1.088278e+00 -3.492188e+00 3.148438e+00
3.983984e+01 2.083333e-01 -7.792245e-02 1.088278e+00 -3.492188e+00 3.148438e+00
3.983984e+01 2.083333e-01 -7.792245e-02 1.088278e+00 -3.492188e+00 3.148438e+00
3.982031e+01 2.083333e-01 -7.780671e-02 1.088577e+00 -3.492188e+00 3.152344e+00
3.982031e+01 2.083333e-01 -7.769097e-02 1.088876e+00 -3.492188e+00 3.152344e+00
3.982031e+01 2.083333e-01 -7.769097e-02 1.088876e+00 -3.492188e+00 3.152344e+00
3.982031e+01 2.083333e-01 -7.769097e-02 1.088876e+00 -3.492188e+00 3.152344e+00
3.982031e+01 2.083333e-01 -7.769097e-02 1.088876e+00 -3.492188e+00 3.152344e+00
3.982031e+01 2.083333e-01 -7.769097e-02 1.088876e+00 -3.492188e+00 3.152344e+00
3.982031e+01 2.083333e-01 -7.769097e-02 1.088876e+00 -3.492188e+00 3.152344e+00
3.958203e+01 1.979167e-01 -7.818287e-02 1.089408e+00 -3.492188e+00 3.160156e+00
3.998438e+01 2.083333e-01 -7.867477e-02 1.089863e+00 -3.488281e+00 3.164062e+00
3.998438e+01 2.083333e-01 -7.870370e-02 1.089990e+00 -3.488281e+00 3.164062e+00
3.998438e+01 2.083333e-01 -7.870370e-02 1.089990e+00 -3.488281e+00 3.164062e+00
3.948828e+01 2.083333e-01 -7.887731e-02 1.090464e+00 -3.488281e+00 3.164062e+00
3.948828e+01 2.083333e-01 -7.887731e-02 1.090464e+00 -3.488281e+00 3.164062e+00
3.951562e+01 2.343750e-01 -8.104745e-02 1.092422e+00 -3.472656e+00 3.156250e+00
4.642578e+01 2.760417e-01 -7.962963e-02 1.092042e+00 -3.503906e+00 3.191406e+00
3.926562e+01 2.343750e-01 -8.220486e-02 1.092163e+00 -3.464844e+00 3.156250e+00
4.025391e+01 2.187500e-01 -8.197338e-02 1.092380e+00 -3.476562e+00 3.171875e+00
4.105078e+01 2.291667e-01 -8.347801e-02 1.092048e+00 -3.472656e+00 3.175781e+00
4.105078e+01 2.291667e-01 -8.347801e-02 1.092048e+00 -3.472656e+00 3.175781e+00
4.038281e+01 2.291667e-01 -8.396991e-02 1.092435e+00 -3.468750e+00 3.175781e+00
3.997266e+01 2.239583e-01 -8.289931e-02 1.094444e+00 -3.464844e+00 3.175781e+00
3.961328e+01 2.291667e-01 -8.457755e-02 1.095833e+00 -3.457031e+00 3.164062e+00
4.331641e+01 2.395833e-01 -8.554688e-02 1.097153e+00 -3.496094e+00 3.195312e+00
3.957812e+01 2.291667e-01 -8.744213e-02 1.098676e+00 -3.496094e+00 3.195312e+00
3.975781e+01 2.083333e-01 -8.817998e-02 1.099062e+00 -3.472656e+00 3.183594e+00
4.101562e+01 2.239583e-01 -8.888889e-02 1.099070e+00 -3.480469e+00 3.191406e+00
3.954688e+01 2.083333e-01 -8.940972e-02 1.099311e+00 -3.472656e+00 3.187500e+00
3.954688e+01 2.083333e-01 -8.940972e-02 1.099311e+00 -3.472656e+00 3.187500e+00
3.918750e+01 2.135417e-01 -8.984375e-02 1.100014e+00 -3.464844e+00 3.183594e+00
3.918750e+01 2.135417e-01 -8.984375e-02 1.100014e+00 -3.464844e+00 3.183594e+00
3.974609e+01 2.135417e-01 -8.982928e-02 1.100166e+00 -3.472656e+00 3.195312e+00
4.011328e+01 2.291667e-01 -8.854167e-02 1.099905e+00 -3.476562e+00 3.203125e+00
3.941016e+01 1.979167e-01 -9.004630e-02 1.099585e+00 -3.476562e+00 3.203125e+00
4.096875e+01 2.395833e-01 -9.207176e-02 1.099651e+00 -3.476562e+00 3.207031e+00
3.905859e+01 2.291667e-01 -9.447338e-02 1.122895e+00 -3.457031e+00 3.257812e+00
3.963672e+01 2.187500e-01 -9.438657e-02 1.123083e+00 -3.472656e+00 3.265625e+00
3.980859e+01 2.135417e-01 -9.571759e-02 1.122827e+00 -3.484375e+00 3.265625e+00
3.933203e+01 2.135417e-01 -9.769965e-02 1.123107e+00 -3.488281e+00 3.261719e+00
3.975781e+01 2.083333e-01 -9.989873e-02 1.125523e+00 -3.500000e+00 3.273438e+00
3.930469e+01 2.135417e-01 -1.002025e-01 1.125485e+00 -3.500000e+00 3.273438e+00
3.974609e+01 2.135417e-01 -1.011140e-01 1.124955e+00 -3.496094e+00 3.273438e+00
3.974609e+01 2.135417e-01 -1.011574e-01 1.124844e+00 -3.496094e+00 3.273438e+00
3.974609e+01 2.135417e-01 -1.011574e-01 1.124844e+00 -3.496094e+00 3.273438e+00
4.008594e+01 2.135417e-01 -1.012153e-01 1.124838e+00 -3.500000e+00 3.277344e+00
3.875781e+01 2.187500e-01 -1.017361e-01 1.125865e+00 -3.496094e+00 3.273438e+00
4.000391e+01 2.135417e-01 -1.015914e-01 1.126256e+00 -3.503906e+00 3.281250e+00
3.894141e+01 2.239583e-01 -1.016348e-01 1.128041e+00 -3.511719e+00 3.289062e+00
3.894141e+01 2.239583e-01 -1.016204e-01 1.129214e+00 -3.511719e+00 3.289062e+00
3.977344e+01 2.083333e-01 -1.016059e-01 1.129295e+00 -3.519531e+00 3.296875e+00
3.925781e+01 2.083333e-01 -1.016348e-01 1.129536e+00 -3.519531e+00 3.296875e+00
3.925781e+01 2.083333e-01 -1.016782e-01 1.129696e+00 -3.519531e+00 3.296875e+00
3.925781e+01 2.083333e-01 -1.016782e-01 1.129696e+00 -3.519531e+00 3.296875e+00
4.137891e+01 2.239583e-01 -1.015914e-01 1.130165e+00 -3.527344e+00 3.308594e+00
3.864844e+01 2.187500e-01 -1.014034e-01 1.130856e+00 -3.519531e+00 3.304688e+00
3.905859e+01 2.135417e-01 -1.008102e-01 1.131312e+00 -3.511719e+00 3.304688e+00
3.905859e+01 2.135417e-01 -1.007523e-01 1.131323e+00 -3.511719e+00 3.304688e+00
3.905859e+01 2.135417e-01 -1.007523e-01 1.131323e+00 -3.511719e+00 3.304688e+00
4.009766e+01 2.083333e-01 -1.008391e-01 1.131119e+00 -3.519531e+00 3.312500e+00
3.933594e+01 2.083333e-01 -1.023727e-01 1.130661e+00 -3.507812e+00 3.304688e+00
4.060547e+01 2.083333e-01 -1.028501e-01 1.130528e+00 -3.519531e+00 3.316406e+00
4.060547e+01 2.083333e-01 -1.032697e-01 1.130455e+00 -3.519531e+00 3.316406e+00
3.921875e+01 2.291667e-01 -1.107205e-01 1.138661e+00 -3.535156e+00 3.328125e+00
3.894141e+01 2.187500e-01 -1.179398e-01 1.146237e+00 -3.546875e+00 3.343750e+00
3.979297e+01 2.135417e-01 -1.178530e-01 1.145869e+00 -3.546875e+00 3.347656e+00
3.974219e+01 2.135417e-01 -1.178819e-01 1.145801e+00 -3.546875e+00 3.347656e+00
3.974219e+01 2.135417e-01 -1.178530e-01 1.145851e+00 -3.546875e+00 3.347656e+00
3.964453e+01 2.135417e-01 -1.169271e-01 1.149106e+00 -3.539062e+00 3.367188e+00
3.964453e+01 2.135417e-01 -1.165799e-01 1.151013e+00 -3.531250e+00 3.367188e+00
3.964453e+01 2.135417e-01 -1.165799e-01 1.151013e+00 -3.531250e+00 3.367188e+00
3.986328e+01 2.135417e-01 -1.177517e-01 1.154903e+00 -3.558594e+00 3.410156e+00
3.986328e+01 2.135417e-01 -1.180266e-01 1.156997e+00 -3.558594e+00 3.410156e+00
3.879688e+01 2.135417e-01 -1.186921e-01 1.157667e+00 -3.550781e+00 3.402344e+00
3.997656e+01 2.135417e-01 -1.184896e-01 1.157356e+00 -3.558594e+00 3.410156e+00
3.858203e+01 2.135417e-01 -1.192419e-01 1.157590e+00 -3.550781e+00 3.402344e+00
4.001953e+01 2.031250e-01 -1.193721e-01 1.158821e+00 -3.558594e+00 3.417969e+00
3.959766e+01 2.135417e-01 -1.194734e-01 1.159863e+00 -3.558594e+00 3.417969e+00
3.959766e+01 2.135417e-01 -1.195023e-01 1.159972e+00 -3.558594e+00 3.417969e+00
3.889062e+01 2.187500e-01 -1.207176e-01 1.160806e+00 -3.554688e+00 3.414062e+00
4.260156e+01 2.291667e-01 -1.206887e-01 1.160470e+00 -3.574219e+00 3.433594e+00
3.865625e+01 2.187500e-01 -1.223669e-01 1.160779e+00 -3.546875e+00 3.406250e+00
3.904688e+01 2.083333e-01 -1.224392e-01 1.161355e+00 -3.558594e+00 3.421875e+00
4.081250e+01 2.083333e-01 -1.262153e-01 1.161766e+00 -3.562500e+00 3.425781e+00
3.843359e+01 2.343750e-01 -1.273148e-01 1.162939e+00 -3.546875e+00 3.410156e+00
4.674219e+01 2.552083e-01 -1.265336e-01 1.163033e+00 -3.582031e+00 3.441406e+00
3.916797e+01 2.135417e-01 -1.284722e-01 1.162584e+00 -3.554688e+00 3.410156e+00
3.860938e+01 2.187500e-01 -1.309606e-01 1.165149e+00 -3.570312e+00 3.421875e+00
3.876172e+01 2.083333e-01 -1.311053e-01 1.166626e+00 -3.574219e+00 3.429688e+00
4.070312e+01 2.135417e-01 -1.312211e-01 1.167921e+00 -3.585938e+00 3.453125e+00
4.070312e+01 2.135417e-01 -1.312211e-01 1.168519e+00 -3.585938e+00 3.453125e+00
3.932031e+01 2.135417e-01 -1.314815e-01 1.168501e+00 -3.585938e+00 3.453125e+00
3.896094e+01 2.135417e-01 -1.313079e-01 1.168599e+00 -3.574219e+00 3.441406e+00
3.930859e+01 2.135417e-01 -1.313947e-01 1.168583e+00 -3.574219e+00 3.441406e+00
3.930859e+01 2.135417e-01 -1.314815e-01 1.168465e+00 -3.574219e+00 3.441406e+00
3.861719e+01 2.135417e-01 -1.320023e-01 1.168629e+00 -3.570312e+00 3.437500e+00
3.932031e+01 2.187500e-01 -1.319444e-01 1.168911e+00 -3.578125e+00 3.445312e+00
3.909766e+01 2.187500e-01 -1.324942e-01 1.169219e+00 -3.570312e+00 3.437500e+00
3.945312e+01 2.239583e-01 -1.324074e-01 1.169179e+00 -3.578125e+00 3.445312e+00
3.910547e+01 2.187500e-01 -1.329861e-01 1.169828e+00 -3.574219e+00 3.441406e+00
4.016016e+01 2.083333e-01 -1.331019e-01 1.169756e+00 -3.585938e+00 3.453125e+00
3.864844e+01 2.031250e-01 -1.343895e-01 1.170383e+00 -3.585938e+00 3.453125e+00
3.940625e+01 2.187500e-01 -1.356916e-01 1.170929e+00 -3.578125e+00 3.445312e+00
3.921094e+01 2.187500e-01 -1.350984e-01 1.171064e+00 -3.585938e+00 3.453125e+00
3.897656e+01 2.187500e-01 -1.352720e-01 1.170984e+00 -3.585938e+00 3.453125e+00
3.878906e+01 2.187500e-01 -1.352720e-01 1.170940e+00 -3.582031e+00 3.449219e+00
3.865234e+01 2.135417e-01 -1.352720e-01 1.171054e+00 -3.582031e+00 3.449219e+00
3.899609e+01 2.187500e-01 -1.354745e-01 1.171146e+00 -3.582031e+00 3.449219e+00
4.260938e+01 2.447917e-01 -1.355613e-01 1.171048e+00 -3.593750e+00 3.460938e+00
3.829688e+01 2.083333e-01 -1.362558e-01 1.171471e+00 -3.593750e+00 3.460938e+00
3.869922e+01 2.135417e-01 -1.368345e-01 1.172047e+00 -3.578125e+00 3.445312e+00
3.952734e+01 2.187500e-01 -1.369502e-01 1.172397e+00 -3.582031e+00 3.449219e+00
3.952734e+01 2.187500e-01 -1.370370e-01 1.172406e+00 -3.582031e+00 3.449219e+00
3.869141e+01 2.135417e-01 -1.371528e-01 1.173212e+00 -3.582031e+00 3.445312e+00
3.869141e+01 2.135417e-01 -1.371528e-01 1.173212e+00 -3.582031e+00 3.445312e+00
3.901562e+01 2.239583e-01 -1.371383e-01 1.175170e+00 -3.589844e+00 3.453125e+00
3.901172e+01 2.239583e-01 -1.372106e-01 1.175392e+00 -3.589844e+00 3.453125e+00
3.872266e+01 2.031250e-01 -1.378183e-01 1.176128e+00 -3.585938e+00 3.445312e+00
3.901562e+01 2.187500e-01 -1.381944e-01 1.176406e+00 -3.597656e+00 3.460938e+00
3.901562e+01 2.187500e-01 -1.385706e-01 1.176684e+00 -3.597656e+00 3.460938e+00
3.887500e+01 2.135417e-01 -1.387442e-01 1.176901e+00 -3.597656e+00 3.460938e+00
3.912891e+01 2.187500e-01 -1.388166e-01 1.176899e+00 -3.601562e+00 3.464844e+00
3.912891e+01 2.187500e-01 -1.388889e-01 1.176896e+00 -3.601562e+00 3.464844e+00
3.888281e+01 2.135417e-01 -1.389468e-01 1.176914e+00 -3.601562e+00 3.464844e+00
3.849609e+01 2.239583e-01 -1.393519e-01 1.177956e+00 -3.589844e+00 3.453125e+00
4.401953e+01 2.500000e-01 -1.390625e-01 1.177424e+00 -3.617188e+00 3.480469e+00
3.858984e+01 2.187500e-01 -1.401042e-01 1.177753e+00 -3.582031e+00 3.449219e+00
4.019531e+01 2.135417e-01 -1.406539e-01 1.177197e+00 -3.597656e+00 3.464844e+00
3.843750e+01 1.979167e-01 -1.412037e-01 1.177326e+00 -3.593750e+00 3.460938e+00
3.843750e+01 1.979167e-01 -1.415799e-01 1.177413e+00 -3.582031e+00 3.449219e+00
3.841016e+01 2.083333e-01 -1.415509e-01 1.177486e+00 -3.585938e+00 3.453125e+00
4.089062e+01 2.083333e-01 -1.506366e-01 1.179775e+00 -3.746094e+00 3.460938e+00
3.921094e+01 2.031250e-01 -1.510995e-01 1.179916e+00 -3.718750e+00 3.453125e+00
4.053906e+01 2.031250e-01 -1.513310e-01 1.180564e+00 -3.742188e+00 3.457031e+00
4.022656e+01 2.135417e-01 -1.513310e-01 1.180779e+00 -3.730469e+00 3.453125e+00
3.932422e+01 2.083333e-01 -1.515336e-01 1.180653e+00 -3.722656e+00 3.449219e+00
3.932422e+01 2.083333e-01 -1.515336e-01 1.180653e+00 -3.722656e+00 3.449219e+00
3.886719e+01 2.083333e-01 -1.516348e-01 1.180932e+00 -3.722656e+00 3.449219e+00
3.988281e+01 2.083333e-01 -1.519387e-01 1.181104e+00 -3.738281e+00 3.449219e+00
3.988281e+01 2.083333e-01 -1.521412e-01 1.180998e+00 -3.738281e+00 3.449219e+00
3.988281e+01 2.083333e-01 -1.521412e-01 1.180998e+00 -3.738281e+00 3.449219e+00
3.988281e+01 2.083333e-01 -1.521412e-01 1.180998e+00 -3.738281e+00 3.449219e+00
3.988281e+01 2.083333e-01 -1.521412e-01 1.180998e+00 -3.738281e+00 3.449219e+00
3.966406e+01 2.135417e-01 -1.522280e-01 1.180931e+00 -3.738281e+00 3.449219e+00
3.966406e+01 2.135417e-01 -1.523148e-01 1.180864e+00 -3.730469e+00 3.445312e+00
3.966406e+01 2.135417e-01 -1.523148e-01 1.180864e+00 -3.730469e+00 3.445312e+00
4.150391e+01 2.135417e-01 -1.525463e-01 1.181130e+00 -3.761719e+00 3.453125e+00
3.989844e+01 2.135417e-01 -1.530382e-01 1.180899e+00 -3.738281e+00 3.445312e+00
3.989844e+01 2.135417e-01 -1.530382e-01 1.180899e+00 -3.738281e+00 3.445312e+00
3.989844e+01 2.135417e-01 -1.530382e-01 1.180899e+00 -3.738281e+00 3.445312e+00
3.989844e+01 2.135417e-01 -1.530382e-01 1.180899e+00 -3.738281e+00 3.445312e+00
3.989844e+01 2.135417e-01 -1.530382e-01 1.180899e+00 -3.738281e+00 3.445312e+00
3.989844e+01 2.135417e-01 -1.530382e-01 1.180899e+00 -3.738281e+00 3.445312e+00
3.989844e+01 2.135417e-01 -1.530382e-01 1.180899e+00 -3.738281e+00 3.445312e+00
3.989844e+01 2.135417e-01 -1.530382e-01 1.180899e+00 -3.738281e+00 3.445312e+00
3.989844e+01 2.135417e-01 -1.530382e-01 1.180899e+00 -3.738281e+00 3.445312e+00
3.998828e+01 2.135417e-01 -1.529803e-01 1.180858e+00 -3.734375e+00 3.445312e+00
3.998828e+01 2.135417e-01 -1.529803e-01 1.180858e+00 -3.734375e+00 3.445312e+00
3.998828e+01 2.135417e-01 -1.529803e-01 1.180858e+00 -3.734375e+00 3.445312e+00
4.000000e+01 2.083333e-01 -1.530093e-01 1.180769e+00 -3.738281e+00 3.445312e+00
4.000000e+01 2.083333e-01 -1.530093e-01 1.180769e+00 -3.738281e+00 3.445312e+00
4.004297e+01 2.083333e-01 -1.529803e-01 1.180843e+00 -3.738281e+00 3.445312e+00
4.004297e+01 2.083333e-01 -1.529803e-01 1.180843e+00 -3.738281e+00 3.445312e+00
4.004297e+01 2.083333e-01 -1.529803e-01 1.180843e+00 -3.738281e+00 3.445312e+00
3.994141e+01 2.187500e-01 -1.530382e-01 1.180981e+00 -3.738281e+00 3.445312e+00
3.994141e+01 2.187500e-01 -1.530961e-01 1.181119e+00 -3.734375e+00 3.445312e+00
3.994141e+01 2.187500e-01 -1.530961e-01 1.181119e+00 -3.734375e+00 3.445312e+00
3.957812e+01 2.135417e-01 -1.531829e-01 1.181347e+00 -3.730469e+00 3.445312e+00
3.957812e+01 2.135417e-01 -1.531829e-01 1.181347e+00 -3.730469e+00 3.445312e+00
3.957812e+01 2.135417e-01 -1.531829e-01 1.181347e+00 -3.730469e+00 3.445312e+00
3.957812e+01 2.135417e-01 -1.531829e-01 1.181347e+00 -3.730469e+00 3.445312e+00
3.957812e+01 2.135417e-01 -1.531829e-01 1.181347e+00 -3.730469e+00 3.445312e+00
3.957812e+01 2.135417e-01 -1.531829e-01 1.181347e+00 -3.730469e+00 3.445312e+00
3.957812e+01 2.135417e-01 -1.531829e-01 1.181347e+00 -3.730469e+00 3.445312e+00
3.919531e+01 2.187500e-01 -1.564236e-01 1.183460e+00 -3.746094e+00 3.437500e+00
3.912500e+01 2.187500e-01 -1.564381e-01 1.183400e+00 -3.746094e+00 3.437500e+00
3.912500e+01 2.187500e-01 -1.564525e-01 1.183340e+00 -3.742188e+00 3.437500e+00
3.819531e+01 1.979167e-01 -1.586082e-01 1.182266e+00 -3.761719e+00 3.441406e+00
3.811328e+01 2.031250e-01 -1.601562e-01 1.181789e+00 -3.769531e+00 3.433594e+00
3.955078e+01 2.135417e-01 -1.605035e-01 1.182114e+00 -3.796875e+00 3.441406e+00
3.931250e+01 2.135417e-01 -1.611111e-01 1.182747e+00 -3.789062e+00 3.445312e+00
3.931250e+01 2.135417e-01 -1.611400e-01 1.182839e+00 -3.789062e+00 3.445312e+00
3.801562e+01 2.187500e-01 -1.618056e-01 1.183090e+00 -3.750000e+00 3.433594e+00
4.167969e+01 2.239583e-01 -1.619213e-01 1.182631e+00 -3.824219e+00 3.453125e+00
3.782812e+01 2.135417e-01 -1.631944e-01 1.182141e+00 -3.765625e+00 3.429688e+00
3.782812e+01 2.135417e-01 -1.631944e-01 1.182141e+00 -3.765625e+00 3.429688e+00
3.922266e+01 2.291667e-01 -1.631944e-01 1.182369e+00 -3.789062e+00 3.437500e+00
3.922266e+01 2.291667e-01 -1.631944e-01 1.182369e+00 -3.789062e+00 3.437500e+00
3.922266e+01 2.291667e-01 -1.631944e-01 1.182369e+00 -3.789062e+00 3.437500e+00
3.960156e+01 2.239583e-01 -1.632668e-01 1.182361e+00 -3.796875e+00 3.437500e+00
3.764453e+01 2.031250e-01 -1.637153e-01 1.182459e+00 -3.796875e+00 3.437500e+00
3.904297e+01 2.187500e-01 -1.639323e-01 1.183016e+00 -3.789062e+00 3.441406e+00
3.880859e+01 2.135417e-01 -1.639468e-01 1.183992e+00 -3.789062e+00 3.445312e+00
3.822656e+01 2.135417e-01 -1.637442e-01 1.184287e+00 -3.777344e+00 3.441406e+00
3.850000e+01 2.239583e-01 -1.672164e-01 1.185533e+00 -3.808594e+00 3.433594e+00
3.860547e+01 2.083333e-01 -1.675926e-01 1.185871e+00 -3.847656e+00 3.445312e+00
4.023047e+01 2.239583e-01 -1.690394e-01 1.185595e+00 -3.890625e+00 3.449219e+00
3.808984e+01 2.135417e-01 -1.694155e-01 1.185569e+00 -3.843750e+00 3.433594e+00
3.935156e+01 2.031250e-01 -1.695312e-01 1.185722e+00 -3.871094e+00 3.441406e+00
3.851953e+01 2.239583e-01 -1.697627e-01 1.185915e+00 -3.855469e+00 3.441406e+00
3.808203e+01 2.291667e-01 -1.706019e-01 1.187805e+00 -3.835938e+00 3.441406e+00
4.028906e+01 2.239583e-01 -1.706597e-01 1.188175e+00 -3.890625e+00 3.460938e+00
3.846875e+01 2.031250e-01 -1.640191e-01 1.195544e+00 -3.882812e+00 3.460938e+00
3.918750e+01 2.083333e-01 -1.580874e-01 1.202873e+00 -3.640625e+00 3.445312e+00
3.909766e+01 2.239583e-01 -1.592593e-01 1.203414e+00 -3.640625e+00 3.445312e+00
4.010547e+01 2.187500e-01 -1.617043e-01 1.203106e+00 -3.593750e+00 3.457031e+00
4.010547e+01 2.187500e-01 -1.645255e-01 1.202154e+00 -3.593750e+00 3.457031e+00
3.888672e+01 2.031250e-01 -1.635272e-01 1.206269e+00 -3.589844e+00 3.472656e+00
4.155859e+01 2.187500e-01 -1.642072e-01 1.213510e+00 -3.507812e+00 3.433594e+00
3.950781e+01 2.187500e-01 -1.640625e-01 1.213765e+00 -3.480469e+00 3.425781e+00
3.950781e+01 2.187500e-01 -1.640336e-01 1.213854e+00 -3.476562e+00 3.425781e+00
3.931641e+01 2.187500e-01 -1.639612e-01 1.213902e+00 -3.476562e+00 3.425781e+00
3.949609e+01 2.187500e-01 -1.639178e-01 1.213945e+00 -3.472656e+00 3.425781e+00
3.949609e+01 2.187500e-01 -1.639468e-01 1.213897e+00 -3.472656e+00 3.425781e+00
3.945312e+01 2.187500e-01 -1.639757e-01 1.213969e+00 -3.476562e+00 3.425781e+00
4.033984e+01 2.239583e-01 -1.652778e-01 1.219893e+00 -3.511719e+00 3.468750e+00
3.840625e+01 2.031250e-01 -1.655671e-01 1.219828e+00 -3.500000e+00 3.457031e+00
3.936328e+01 2.187500e-01 -1.657986e-01 1.219639e+00 -3.503906e+00 3.460938e+00
3.954297e+01 2.083333e-01 -1.643229e-01 1.221469e+00 -3.511719e+00 3.464844e+00
3.886328e+01 2.083333e-01 -1.645255e-01 1.223594e+00 -3.503906e+00 3.460938e+00
3.891406e+01 2.083333e-01 -1.643374e-01 1.223924e+00 -3.503906e+00 3.460938e+00
3.891406e+01 2.083333e-01 -1.643229e-01 1.224027e+00 -3.503906e+00 3.460938e+00
4.009375e+01 2.187500e-01 -1.641204e-01 1.224776e+00 -3.511719e+00 3.472656e+00
4.009375e+01 2.187500e-01 -1.641204e-01 1.224776e+00 -3.511719e+00 3.472656e+00
3.831641e+01 2.135417e-01 -1.645255e-01 1.225366e+00 -3.484375e+00 3.445312e+00
4.003516e+01 2.187500e-01 -1.644965e-01 1.225390e+00 -3.511719e+00 3.472656e+00
3.934766e+01 2.135417e-01 -1.645255e-01 1.225303e+00 -3.511719e+00 3.472656e+00
3.877734e+01 2.083333e-01 -1.648003e-01 1.225281e+00 -3.507812e+00 3.468750e+00
3.855859e+01 2.083333e-01 -1.648727e-01 1.225335e+00 -3.496094e+00 3.460938e+00
3.822656e+01 2.083333e-01 -1.645544e-01 1.229381e+00 -3.511719e+00 3.468750e+00
3.822656e+01 2.083333e-01 -1.644387e-01 1.229482e+00 -3.507812e+00 3.468750e+00
3.817578e+01 2.031250e-01 -1.644242e-01 1.229590e+00 -3.507812e+00 3.468750e+00
3.832812e+01 2.135417e-01 -1.643374e-01 1.229599e+00 -3.507812e+00 3.468750e+00
3.832812e+01 2.135417e-01 -1.642650e-01 1.229499e+00 -3.507812e+00 3.468750e+00
3.842188e+01 2.135417e-01 -1.642650e-01 1.229757e+00 -3.507812e+00 3.468750e+00
3.842188e+01 2.135417e-01 -1.642650e-01 1.229757e+00 -3.507812e+00 3.468750e+00
3.842188e+01 2.135417e-01 -1.642650e-01 1.229757e+00 -3.507812e+00 3.468750e+00
3.842188e+01 2.135417e-01 -1.642650e-01 1.229757e+00 -3.507812e+00 3.468750e+00
3.842188e+01 2.135417e-01 -1.642650e-01 1.229757e+00 -3.507812e+00 3.468750e+00
3.841406e+01 2.135417e-01 -1.642506e-01 1.229771e+00 -3.507812e+00 3.468750e+00
3.841406e+01 2.135417e-01 -1.642361e-01 1.229785e+00 -3.507812e+00 3.468750e+00
3.841406e+01 2.135417e-01 -1.642361e-01 1.229785e+00 -3.507812e+00 3.468750e+00
3.841406e+01 2.135417e-01 -1.642361e-01 1.229785e+00 -3.507812e+00 3.468750e+00
3.821484e+01 2.083333e-01 -1.645255e-01 1.229262e+00 -3.503906e+00 3.464844e+00
3.891016e+01 2.083333e-01 -1.647859e-01 1.228968e+00 -3.503906e+00 3.464844e+00
3.891016e+01 2.083333e-01 -1.646991e-01 1.228888e+00 -3.503906e+00 3.464844e+00
3.891016e+01 2.083333e-01 -1.646991e-01 1.228888e+00 -3.503906e+00 3.464844e+00
3.889844e+01 2.083333e-01 -1.646991e-01 1.228923e+00 -3.503906e+00 3.464844e+00
3.889844e+01 2.083333e-01 -1.646991e-01 1.228923e+00 -3.503906e+00 3.464844e+00
3.889844e+01 2.083333e-01 -1.646701e-01 1.228935e+00 -3.503906e+00 3.464844e+00
3.889453e+01 2.083333e-01 -1.648438e-01 1.229000e+00 -3.503906e+00 3.464844e+00
3.889453e+01 2.083333e-01 -1.648438e-01 1.229000e+00 -3.503906e+00 3.464844e+00
3.883594e+01 2.083333e-01 -1.648582e-01 1.229039e+00 -3.503906e+00 3.464844e+00
3.799609e+01 2.083333e-01 -1.648727e-01 1.229174e+00 -3.503906e+00 3.464844e+00
3.793359e+01 2.083333e-01 -1.650752e-01 1.229482e+00 -3.500000e+00 3.460938e+00
3.895703e+01 2.083333e-01 -1.653356e-01 1.229359e+00 -3.503906e+00 3.464844e+00
3.840234e+01 2.083333e-01 -1.652344e-01 1.229778e+00 -3.503906e+00 3.464844e+00
3.840234e+01 2.083333e-01 -1.652778e-01 1.229963e+00 -3.503906e+00 3.464844e+00
3.840234e+01 2.083333e-01 -1.652778e-01 1.229963e+00 -3.503906e+00 3.464844e+00
3.887500e+01 2.187500e-01 -1.668113e-01 1.232722e+00 -3.519531e+00 3.472656e+00
3.947266e+01 2.083333e-01 -1.670139e-01 1.232781e+00 -3.523438e+00 3.476562e+00
3.889844e+01 2.187500e-01 -1.670139e-01 1.232713e+00 -3.523438e+00 3.476562e+00
3.948047e+01 2.187500e-01 -1.670718e-01 1.232698e+00 -3.523438e+00 3.476562e+00
3.948047e+01 2.187500e-01 -1.671296e-01 1.232751e+00 -3.523438e+00 3.476562e+00
3.888281e+01 2.187500e-01 -1.681713e-01 1.232609e+00 -3.519531e+00 3.476562e+00
3.845703e+01 2.135417e-01 -1.681858e-01 1.232602e+00 -3.519531e+00 3.476562e+00
3.845703e+01 2.135417e-01 -1.682002e-01 1.232595e+00 -3.515625e+00 3.468750e+00
3.888281e+01 2.135417e-01 -1.685475e-01 1.232519e+00 -3.519531e+00 3.472656e+00
3.888281e+01 2.135417e-01 -1.685475e-01 1.232519e+00 -3.519531e+00 3.472656e+00
3.888281e+01 2.135417e-01 -1.685475e-01 1.232519e+00 -3.519531e+00 3.472656e+00
3.888281e+01 2.135417e-01 -1.685475e-01 1.232519e+00 -3.519531e+00 3.472656e+00
3.926172e+01 2.135417e-01 -1.684172e-01 1.232695e+00 -3.519531e+00 3.472656e+00
3.926172e+01 2.135417e-01 -1.682870e-01 1.232872e+00 -3.519531e+00 3.472656e+00
3.946484e+01 2.135417e-01 -1.686053e-01 1.232533e+00 -3.523438e+00 3.472656e+00
3.946484e+01 2.135417e-01 -1.686053e-01 1.232533e+00 -3.523438e+00 3.472656e+00
3.778906e+01 1.927083e-01 -1.685909e-01 1.232882e+00 -3.523438e+00 3.472656e+00
4.100000e+01 2.239583e-01 -1.689815e-01 1.236014e+00 -3.562500e+00 3.503906e+00
3.954688e+01 2.135417e-01 -1.693576e-01 1.238698e+00 -3.562500e+00 3.503906e+00
3.820703e+01 2.083333e-01 -1.709491e-01 1.238544e+00 -3.550781e+00 3.492188e+00
3.856250e+01 2.135417e-01 -1.721933e-01 1.238989e+00 -3.546875e+00 3.496094e+00
3.856250e+01 2.135417e-01 -1.720775e-01 1.239307e+00 -3.546875e+00 3.496094e+00
3.843750e+01 2.083333e-01 -1.723235e-01 1.239379e+00 -3.546875e+00 3.496094e+00
3.843750e+01 2.083333e-01 -1.725694e-01 1.239452e+00 -3.539062e+00 3.484375e+00
3.843750e+01 2.083333e-01 -1.725694e-01 1.239452e+00 -3.539062e+00 3.484375e+00
3.896094e+01 2.135417e-01 -1.726563e-01 1.239690e+00 -3.554688e+00 3.500000e+00
3.768359e+01 2.031250e-01 -1.729890e-01 1.240126e+00 -3.554688e+00 3.500000e+00
3.787891e+01 2.083333e-01 -1.733362e-01 1.240319e+00 -3.550781e+00 3.496094e+00
3.796875e+01 2.083333e-01 -1.734809e-01 1.240315e+00 -3.550781e+00 3.496094e+00
3.928516e+01 2.187500e-01 -1.736545e-01 1.240944e+00 -3.562500e+00 3.507812e+00
4.029297e+01 2.135417e-01 -1.771701e-01 1.244577e+00 -3.593750e+00 3.527344e+00
3.893750e+01 2.187500e-01 -1.772714e-01 1.244658e+00 -3.585938e+00 3.519531e+00
3.851953e+01 2.083333e-01 -1.773438e-01 1.244730e+00 -3.582031e+00 3.515625e+00
3.896875e+01 2.083333e-01 -2.136863e-01 1.233721e+00 -3.640625e+00 3.324219e+00
4.101172e+01 2.187500e-01 -2.137731e-01 1.234374e+00 -3.667969e+00 3.335938e+00
3.858984e+01 2.083333e-01 -2.130787e-01 1.236071e+00 -3.636719e+00 3.332031e+00
3.910547e+01 2.187500e-01 -2.110243e-01 1.243621e+00 -3.621094e+00 3.382812e+00
3.910547e+01 2.187500e-01 -2.104456e-01 1.244032e+00 -3.617188e+00 3.382812e+00
3.889062e+01 2.239583e-01 -2.104167e-01 1.244318e+00 -3.621094e+00 3.386719e+00
3.914844e+01 2.187500e-01 -2.103877e-01 1.244300e+00 -3.617188e+00 3.386719e+00
3.914844e+01 2.187500e-01 -2.103877e-01 1.244300e+00 -3.617188e+00 3.386719e+00
3.948828e+01 2.187500e-01 -2.100984e-01 1.245809e+00 -3.636719e+00 3.402344e+00
3.873047e+01 2.135417e-01 -2.097222e-01 1.246385e+00 -3.632812e+00 3.402344e+00
3.833203e+01 2.135417e-01 -2.088831e-01 1.248243e+00 -3.621094e+00 3.406250e+00
3.833203e+01 2.135417e-01 -2.082465e-01 1.249838e+00 -3.589844e+00 3.406250e+00
3.916406e+01 2.239583e-01 -2.086227e-01 1.250226e+00 -3.632812e+00 3.421875e+00
3.916406e+01 2.239583e-01 -2.089988e-01 1.250613e+00 -3.632812e+00 3.421875e+00
3.895703e+01 2.239583e-01 -2.089410e-01 1.250866e+00 -3.628906e+00 3.421875e+00
3.895703e+01 2.239583e-01 -2.089410e-01 1.250866e+00 -3.628906e+00 3.421875e+00
3.827344e+01 2.135417e-01 -2.069734e-01 1.255267e+00 -3.589844e+00 3.437500e+00
3.915234e+01 2.187500e-01 -2.066840e-01 1.255635e+00 -3.609375e+00 3.445312e+00
3.864062e+01 2.187500e-01 -2.066262e-01 1.255873e+00 -3.605469e+00 3.445312e+00
3.926172e+01 2.187500e-01 -2.068576e-01 1.256079e+00 -3.609375e+00 3.449219e+00
3.853516e+01 2.135417e-01 -2.071759e-01 1.256611e+00 -3.601562e+00 3.449219e+00
3.996484e+01 2.239583e-01 -2.074363e-01 1.256697e+00 -3.625000e+00 3.457031e+00
3.975781e+01 2.239583e-01 -2.085359e-01 1.256688e+00 -3.628906e+00 3.453125e+00
3.975781e+01 2.239583e-01 -2.086516e-01 1.256675e+00 -3.628906e+00 3.453125e+00
3.865234e+01 2.083333e-01 -2.079861e-01 1.257794e+00 -3.613281e+00 3.449219e+00
3.844531e+01 2.135417e-01 -2.080006e-01 1.257800e+00 -3.613281e+00 3.449219e+00
3.844531e+01 2.135417e-01 -2.080150e-01 1.257806e+00 -3.605469e+00 3.445312e+00
3.989453e+01 2.187500e-01 -2.050781e-01 1.260629e+00 -3.628906e+00 3.492188e+00
3.822656e+01 2.239583e-01 -2.063223e-01 1.271445e+00 -3.710938e+00 3.816406e+00
3.839844e+01 2.239583e-01 -2.091435e-01 1.277746e+00 -3.710938e+00 3.816406e+00
3.992188e+01 2.239583e-01 -2.077257e-01 1.278901e+00 -3.695312e+00 3.808594e+00
3.775391e+01 2.187500e-01 -2.079282e-01 1.278718e+00 -3.707031e+00 3.796875e+00
3.928125e+01 2.187500e-01 -2.082176e-01 1.278741e+00 -3.707031e+00 3.796875e+00
3.928125e+01 2.187500e-01 -2.082465e-01 1.278785e+00 -3.707031e+00 3.796875e+00
4.006641e+01 2.135417e-01 -2.136285e-01 1.276218e+00 -3.707031e+00 3.761719e+00
3.856641e+01 2.239583e-01 -2.138600e-01 1.276719e+00 -3.718750e+00 3.753906e+00
4.111328e+01 2.083333e-01 -2.144965e-01 1.276370e+00 -3.699219e+00 3.765625e+00
3.832812e+01 2.239583e-01 -2.146412e-01 1.276159e+00 -3.714844e+00 3.753906e+00
4.105859e+01 2.083333e-01 -2.155093e-01 1.276053e+00 -3.703125e+00 3.761719e+00
3.916797e+01 2.291667e-01 -2.159144e-01 1.274990e+00 -3.710938e+00 3.750000e+00
4.205469e+01 2.031250e-01 -2.171007e-01 1.274177e+00 -3.695312e+00 3.753906e+00
3.860938e+01 2.239583e-01 -2.173611e-01 1.273837e+00 -3.707031e+00 3.742188e+00
3.857031e+01 2.239583e-01 -2.173322e-01 1.273992e+00 -3.710938e+00 3.742188e+00
3.848438e+01 2.187500e-01 -2.173611e-01 1.274061e+00 -3.710938e+00 3.742188e+00
3.784766e+01 2.083333e-01 -2.285012e-01 1.264019e+00 -3.714844e+00 3.710938e+00
3.784766e+01 2.083333e-01 -2.304109e-01 1.263104e+00 -3.714844e+00 3.679688e+00
3.934375e+01 2.135417e-01 -2.307581e-01 1.262991e+00 -3.707031e+00 3.679688e+00
3.844141e+01 2.239583e-01 -2.309317e-01 1.263021e+00 -3.730469e+00 3.660156e+00
3.894531e+01 2.083333e-01 -2.313513e-01 1.264822e+00 -3.726562e+00 3.687500e+00
3.774219e+01 2.031250e-01 -2.317419e-01 1.266326e+00 -3.734375e+00 3.687500e+00
3.991797e+01 2.083333e-01 -2.463108e-01 1.261770e+00 -3.742188e+00 3.671875e+00
4.005078e+01 2.187500e-01 -2.589988e-01 1.260310e+00 -3.664062e+00 3.585938e+00
3.933984e+01 2.135417e-01 -2.570891e-01 1.261524e+00 -3.679688e+00 3.585938e+00
3.933984e+01 2.135417e-01 -2.573785e-01 1.261752e+00 -3.679688e+00 3.566406e+00
4.107031e+01 2.187500e-01 -2.575810e-01 1.261909e+00 -3.664062e+00 3.574219e+00
3.999219e+01 2.552083e-01 -2.578993e-01 1.261801e+00 -3.695312e+00 3.554688e+00
4.032031e+01 2.083333e-01 -2.587529e-01 1.262471e+00 -3.687500e+00 3.566406e+00
3.943359e+01 2.187500e-01 -2.614873e-01 1.262072e+00 -3.695312e+00 3.566406e+00
3.943359e+01 2.187500e-01 -2.632523e-01 1.261097e+00 -3.695312e+00 3.539062e+00
3.943359e+01 2.187500e-01 -2.632523e-01 1.261097e+00 -3.695312e+00 3.539062e+00
3.943359e+01 2.187500e-01 -2.632523e-01 1.261097e+00 -3.695312e+00 3.539062e+00
3.943359e+01 2.187500e-01 -2.632523e-01 1.261097e+00 -3.695312e+00 3.539062e+00
3.943359e+01 2.187500e-01 -2.632523e-01 1.261097e+00 -3.695312e+00 3.539062e+00
3.943359e+01 2.187500e-01 -2.632523e-01 1.261097e+00 -3.695312e+00 3.539062e+00
4.141797e+01 2.031250e-01 -2.618345e-01 1.269595e+00 -3.714844e+00 3.609375e+00
3.889844e+01 2.083333e-01 -2.604890e-01 1.278035e+00 -3.734375e+00 3.609375e+00
3.923047e+01 2.083333e-01 -2.608507e-01 1.278327e+00 -3.738281e+00 3.597656e+00
3.880078e+01 2.031250e-01 -2.608218e-01 1.278699e+00 -3.738281e+00 3.601562e+00
4.021094e+01 2.083333e-01 -2.611111e-01 1.278758e+00 -3.722656e+00 3.609375e+00
3.888672e+01 2.239583e-01 -2.614873e-01 1.278487e+00 -3.742188e+00 3.593750e+00
4.044141e+01 2.135417e-01 -2.617766e-01 1.279037e+00 -3.726562e+00 3.609375e+00
4.043750e+01 2.135417e-01 -2.618924e-01 1.278785e+00 -3.726562e+00 3.609375e+00
3.878906e+01 2.187500e-01 -2.619792e-01 1.279185e+00 -3.746094e+00 3.597656e+00
3.962500e+01 2.135417e-01 -2.619792e-01 1.279501e+00 -3.738281e+00 3.605469e+00
3.983594e+01 2.187500e-01 -2.635417e-01 1.278942e+00 -3.742188e+00 3.609375e+00
3.983594e+01 2.187500e-01 -2.648727e-01 1.278530e+00 -3.742188e+00 3.597656e+00
4.107031e+01 2.135417e-01 -2.668692e-01 1.277240e+00 -3.726562e+00 3.593750e+00
3.858203e+01 2.291667e-01 -2.666956e-01 1.277265e+00 -3.753906e+00 3.574219e+00
3.910156e+01 2.291667e-01 -2.668692e-01 1.277465e+00 -3.742188e+00 3.582031e+00
3.946484e+01 2.135417e-01 -2.672743e-01 1.277131e+00 -3.734375e+00 3.585938e+00
4.045312e+01 2.135417e-01 -2.688079e-01 1.278155e+00 -3.746094e+00 3.593750e+00
4.045312e+01 2.135417e-01 -2.699942e-01 1.279335e+00 -3.746094e+00 3.593750e+00
3.937500e+01 2.187500e-01 -2.701389e-01 1.279196e+00 -3.753906e+00 3.585938e+00
4.048828e+01 2.135417e-01 -2.703704e-01 1.279569e+00 -3.750000e+00 3.589844e+00
4.048828e+01 2.135417e-01 -2.703704e-01 1.279569e+00 -3.750000e+00 3.589844e+00
3.833203e+01 2.291667e-01 -2.703704e-01 1.279664e+00 -3.773438e+00 3.574219e+00
3.992578e+01 2.135417e-01 -2.710938e-01 1.279429e+00 -3.753906e+00 3.585938e+00
3.909375e+01 2.187500e-01 -2.715567e-01 1.280006e+00 -3.765625e+00 3.585938e+00
3.909375e+01 2.187500e-01 -2.720197e-01 1.280582e+00 -3.765625e+00 3.585938e+00
3.991797e+01 2.187500e-01 -2.721065e-01 1.280649e+00 -3.765625e+00 3.589844e+00
4.083594e+01 2.291667e-01 -2.733796e-01 1.280268e+00 -3.757812e+00 3.593750e+00
4.031250e+01 2.291667e-01 -2.734086e-01 1.280063e+00 -3.757812e+00 3.589844e+00
4.031250e+01 2.291667e-01 -2.734086e-01 1.280063e+00 -3.757812e+00 3.589844e+00
4.012500e+01 2.291667e-01 -2.734375e-01 1.280106e+00 -3.761719e+00 3.589844e+00
3.836328e+01 2.187500e-01 -2.739294e-01 1.279739e+00 -3.769531e+00 3.589844e+00
3.836328e+01 2.187500e-01 -2.744213e-01 1.279372e+00 -3.769531e+00 3.574219e+00
3.976562e+01 2.239583e-01 -2.744647e-01 1.279648e+00 -3.769531e+00 3.585938e+00
3.976562e+01 2.239583e-01 -2.745081e-01 1.279924e+00 -3.757812e+00 3.585938e+00
3.976562e+01 2.239583e-01 -2.745081e-01 1.279924e+00 -3.757812e+00 3.585938e+00
3.926562e+01 2.187500e-01 -2.745226e-01 1.279820e+00 -3.761719e+00 3.585938e+00
3.926562e+01 2.187500e-01 -2.745370e-01 1.279716e+00 -3.761719e+00 3.582031e+00
3.910547e+01 2.239583e-01 -2.725260e-01 1.287455e+00 -3.773438e+00 3.632812e+00
3.910547e+01 2.239583e-01 -2.708044e-01 1.294703e+00 -3.773438e+00 3.632812e+00
3.879297e+01 2.239583e-01 -2.713831e-01 1.294487e+00 -3.765625e+00 3.636719e+00
4.055469e+01 2.187500e-01 -2.733218e-01 1.293774e+00 -3.750000e+00 3.644531e+00
3.871484e+01 2.239583e-01 -2.746383e-01 1.293546e+00 -3.773438e+00 3.644531e+00
4.217188e+01 2.135417e-01 -2.761719e-01 1.295224e+00 -3.773438e+00 3.652344e+00
3.862891e+01 2.239583e-01 -2.765480e-01 1.296840e+00 -3.773438e+00 3.652344e+00
3.892969e+01 2.135417e-01 -2.769531e-01 1.296660e+00 -3.773438e+00 3.632812e+00
3.975000e+01 2.031250e-01 -2.766927e-01 1.298235e+00 -3.761719e+00 3.644531e+00
3.822656e+01 2.083333e-01 -2.792824e-01 1.299319e+00 -3.789062e+00 3.640625e+00
3.822656e+01 2.083333e-01 -2.792824e-01 1.299319e+00 -3.789062e+00 3.640625e+00
3.822656e+01 2.083333e-01 -2.792824e-01 1.299319e+00 -3.789062e+00 3.640625e+00
4.182422e+01 2.083333e-01 -2.799190e-01 1.299266e+00 -3.769531e+00 3.656250e+00
3.946875e+01 2.135417e-01 -2.800637e-01 1.299025e+00 -3.781250e+00 3.644531e+00
3.820703e+01 2.187500e-01 -2.802083e-01 1.298626e+00 -3.789062e+00 3.636719e+00
3.935547e+01 2.135417e-01 -2.802662e-01 1.298682e+00 -3.781250e+00 3.644531e+00
3.839453e+01 2.031250e-01 -2.797454e-01 1.299726e+00 -3.800781e+00 3.640625e+00
3.937500e+01 2.135417e-01 -2.805845e-01 1.300037e+00 -3.785156e+00 3.656250e+00
4.063281e+01 2.135417e-01 -2.808015e-01 1.312288e+00 -3.792969e+00 3.765625e+00
3.970703e+01 2.135417e-01 -2.808738e-01 1.312516e+00 -3.796875e+00 3.757812e+00
3.970703e+01 2.135417e-01 -2.809896e-01 1.312509e+00 -3.796875e+00 3.753906e+00
3.899219e+01 2.135417e-01 -2.810764e-01 1.312337e+00 -3.800781e+00 3.753906e+00
3.953516e+01 2.135417e-01 -2.832321e-01 1.312883e+00 -3.804688e+00 3.734375e+00
3.889453e+01 2.135417e-01 -2.835359e-01 1.313803e+00 -3.804688e+00 3.707031e+00
3.920312e+01 2.135417e-01 -2.837384e-01 1.313742e+00 -3.804688e+00 3.707031e+00
3.920312e+01 2.135417e-01 -2.837384e-01 1.313742e+00 -3.804688e+00 3.707031e+00
3.872656e+01 2.187500e-01 -2.839554e-01 1.313531e+00 -3.808594e+00 3.707031e+00
4.014453e+01 2.135417e-01 -2.845775e-01 1.314827e+00 -3.812500e+00 3.726562e+00
4.014453e+01 2.135417e-01 -2.849826e-01 1.316333e+00 -3.812500e+00 3.726562e+00
4.031641e+01 2.239583e-01 -2.851562e-01 1.316150e+00 -3.812500e+00 3.726562e+00
3.794141e+01 2.083333e-01 -2.843605e-01 1.314685e+00 -3.808594e+00 3.718750e+00
4.240234e+01 2.187500e-01 -2.838976e-01 1.315105e+00 -3.777344e+00 3.742188e+00
3.895312e+01 2.031250e-01 -2.855758e-01 1.315753e+00 -3.777344e+00 3.742188e+00
3.806641e+01 2.031250e-01 -2.859954e-01 1.314818e+00 -3.781250e+00 3.722656e+00
3.920703e+01 2.083333e-01 -2.870370e-01 1.314705e+00 -3.773438e+00 3.722656e+00
3.920703e+01 2.083333e-01 -2.870949e-01 1.314699e+00 -3.773438e+00 3.718750e+00
3.855859e+01 2.031250e-01 -2.871817e-01 1.314855e+00 -3.781250e+00 3.718750e+00
3.855859e+01 2.031250e-01 -2.872685e-01 1.315012e+00 -3.781250e+00 3.714844e+00
3.855859e+01 2.031250e-01 -2.872685e-01 1.315012e+00 -3.781250e+00 3.714844e+00
3.855859e+01 2.031250e-01 -2.872685e-01 1.315012e+00 -3.781250e+00 3.714844e+00
3.855859e+01 2.031250e-01 -2.872685e-01 1.315012e+00 -3.781250e+00 3.714844e+00
3.867969e+01 2.031250e-01 -2.887442e-01 1.315339e+00 -3.785156e+00 3.722656e+00
3.867969e+01 2.031250e-01 -2.887442e-01 1.315339e+00 -3.785156e+00 3.722656e+00
3.867969e+01 2.031250e-01 -2.887442e-01 1.315339e+00 -3.785156e+00 3.722656e+00
3.867969e+01 2.031250e-01 -2.887442e-01 1.315339e+00 -3.785156e+00 3.722656e+00
3.940625e+01 2.187500e-01 -2.890770e-01 1.315247e+00 -3.785156e+00 3.726562e+00
3.940625e+01 2.187500e-01 -2.894097e-01 1.315155e+00 -3.781250e+00 3.726562e+00
3.836719e+01 2.031250e-01 -2.894097e-01 1.315315e+00 -3.789062e+00 3.726562e+00
3.864453e+01 2.083333e-01 -2.895255e-01 1.315424e+00 -3.789062e+00 3.722656e+00
3.864453e+01 2.083333e-01 -2.896412e-01 1.315373e+00 -3.785156e+00 3.722656e+00
3.818750e+01 2.031250e-01 -2.894387e-01 1.315368e+00 -3.789062e+00 3.718750e+00
3.820703e+01 2.031250e-01 -2.894531e-01 1.315310e+00 -3.789062e+00 3.718750e+00
3.820703e+01 2.031250e-01 -2.894676e-01 1.315253e+00 -3.789062e+00 3.718750e+00
3.843359e+01 2.083333e-01 -2.900463e-01 1.317038e+00 -3.792969e+00 3.730469e+00
3.826172e+01 2.135417e-01 -2.907118e-01 1.316984e+00 -3.812500e+00 3.718750e+00
4.155469e+01 2.187500e-01 -2.920573e-01 1.317661e+00 -3.812500e+00 3.746094e+00
3.817188e+01 2.083333e-01 -2.933883e-01 1.318193e+00 -3.816406e+00 3.746094e+00
3.841797e+01 2.083333e-01 -2.933160e-01 1.318143e+00 -3.816406e+00 3.730469e+00
3.836328e+01 1.979167e-01 -2.934028e-01 1.318276e+00 -3.812500e+00 3.734375e+00
3.839453e+01 1.979167e-01 -2.935764e-01 1.318339e+00 -3.812500e+00 3.734375e+00
3.837500e+01 2.031250e-01 -2.937355e-01 1.318462e+00 -3.812500e+00 3.738281e+00
3.837500e+01 2.031250e-01 -2.938657e-01 1.318559e+00 -3.808594e+00 3.738281e+00
3.886719e+01 2.135417e-01 -2.952691e-01 1.318384e+00 -3.812500e+00 3.738281e+00
3.901953e+01 2.031250e-01 -2.964844e-01 1.318327e+00 -3.812500e+00 3.738281e+00
3.901953e+01 2.031250e-01 -2.964699e-01 1.318292e+00 -3.812500e+00 3.734375e+00
3.899609e+01 2.083333e-01 -2.964844e-01 1.318267e+00 -3.812500e+00 3.734375e+00
3.899609e+01 2.083333e-01 -2.964988e-01 1.318243e+00 -3.808594e+00 3.734375e+00
3.899609e+01 2.083333e-01 -2.964988e-01 1.318243e+00 -3.808594e+00 3.734375e+00
3.908984e+01 2.031250e-01 -2.964120e-01 1.317911e+00 -3.808594e+00 3.730469e+00
3.908984e+01 2.031250e-01 -2.964120e-01 1.317911e+00 -3.808594e+00 3.730469e+00
3.908984e+01 2.031250e-01 -2.964120e-01 1.317911e+00 -3.808594e+00 3.730469e+00
3.910156e+01 2.031250e-01 -2.963976e-01 1.317949e+00 -3.808594e+00 3.730469e+00
3.910156e+01 2.031250e-01 -2.963831e-01 1.317987e+00 -3.808594e+00 3.730469e+00
3.910156e+01 2.031250e-01 -2.963831e-01 1.317987e+00 -3.808594e+00 3.730469e+00
3.910156e+01 2.031250e-01 -2.963831e-01 1.317987e+00 -3.808594e+00 3.730469e+00
3.907031e+01 2.031250e-01 -2.963831e-01 1.317959e+00 -3.808594e+00 3.730469e+00
3.910156e+01 2.031250e-01 -2.964120e-01 1.317971e+00 -3.808594e+00 3.730469e+00
3.857031e+01 1.979167e-01 -2.964120e-01 1.317879e+00 -3.812500e+00 3.730469e+00
3.960938e+01 2.239583e-01 -2.963976e-01 1.318106e+00 -3.812500e+00 3.738281e+00
3.898828e+01 2.031250e-01 -2.966291e-01 1.319266e+00 -3.816406e+00 3.738281e+00
3.898828e+01 2.031250e-01 -2.968750e-01 1.320198e+00 -3.816406e+00 3.738281e+00
3.827734e+01 2.031250e-01 -2.980324e-01 1.319961e+00 -3.820312e+00 3.726562e+00
3.894531e+01 2.135417e-01 -2.988137e-01 1.319435e+00 -3.812500e+00 3.730469e+00
3.896094e+01 2.135417e-01 -2.987847e-01 1.319422e+00 -3.812500e+00 3.730469e+00
3.855078e+01 2.031250e-01 -2.986400e-01 1.319628e+00 -3.820312e+00 3.726562e+00
3.878125e+01 2.031250e-01 -2.986400e-01 1.319511e+00 -3.820312e+00 3.726562e+00
3.929297e+01 2.187500e-01 -2.987847e-01 1.319623e+00 -3.812500e+00 3.734375e+00
3.845312e+01 1.979167e-01 -2.989294e-01 1.319557e+00 -3.824219e+00 3.726562e+00
3.921484e+01 2.187500e-01 -2.991898e-01 1.319494e+00 -3.816406e+00 3.730469e+00
3.921484e+01 2.187500e-01 -2.991898e-01 1.319403e+00 -3.812500e+00 3.730469e+00
3.871094e+01 2.135417e-01 -2.990451e-01 1.319626e+00 -3.816406e+00 3.730469e+00
3.948828e+01 2.135417e-01 -3.000579e-01 1.320464e+00 -3.816406e+00 3.742188e+00
3.851953e+01 2.135417e-01 -3.008536e-01 1.319630e+00 -3.832031e+00 3.742188e+00
3.851953e+01 2.135417e-01 -3.016493e-01 1.318795e+00 -3.832031e+00 3.714844e+00
3.887891e+01 2.187500e-01 -3.018808e-01 1.319674e+00 -3.820312e+00 3.726562e+00
3.851172e+01 2.708333e-01 -3.041522e-01 1.324285e+00 -3.890625e+00 3.734375e+00
3.892969e+01 2.135417e-01 -3.062066e-01 1.325781e+00 -3.890625e+00 3.738281e+00
3.939453e+01 2.031250e-01 -3.073495e-01 1.325583e+00 -3.859375e+00 3.738281e+00
