1.201328e+02 5.782609e-01 4.396701e-02 5.824064e-01 -9.960938e-01 9.960938e-01
1.125195e+02 5.782609e-01 4.291667e-02 5.822792e-01 -1.046875e+00 1.031250e+00
1.125195e+02 5.782609e-01 4.291667e-02 5.822792e-01 -1.046875e+00 1.031250e+00
1.125195e+02 5.782609e-01 4.291667e-02 5.822792e-01 -1.046875e+00 1.031250e+00
1.125195e+02 5.782609e-01 4.291667e-02 5.822792e-01 -1.046875e+00 1.031250e+00
1.125195e+02 5.782609e-01 4.291667e-02 5.822792e-01 -1.046875e+00 1.031250e+00
1.125195e+02 5.782609e-01 4.291667e-02 5.822792e-01 -1.046875e+00 1.031250e+00
1.125195e+02 5.782609e-01 4.291667e-02 5.822792e-01 -1.046875e+00 1.031250e+00
1.125195e+02 5.782609e-01 4.291667e-02 5.822792e-01 -1.046875e+00 1.031250e+00
1.125195e+02 5.782609e-01 4.291667e-02 5.822792e-01 -1.046875e+00 1.031250e+00
1.125195e+02 5.782609e-01 4.291667e-02 5.822792e-01 -1.046875e+00 1.031250e+00
1.125195e+02 5.782609e-01 4.291667e-02 5.822792e-01 -1.046875e+00 1.031250e+00
1.125195e+02 5.782609e-01 4.291667e-02 5.822792e-01 -1.046875e+00 1.031250e+00
9.445312e+01 5.782609e-01 5.062847e-02 6.181566e-01 -1.933594e+00 1.695312e+00
8.704688e+01 5.782609e-01 7.528125e-02 7.818804e-01 -3.113281e+00 2.453125e+00
7.150000e+01 5.782609e-01 1.039809e-01 9.550365e-01 -3.718750e+00 3.195312e+00
7.187500e+01 5.782609e-01 1.331701e-01 1.099911e+00 -4.035156e+00 3.738281e+00
6.905078e+01 4.217391e-01 1.627274e-01 1.233993e+00 -4.226562e+00 4.011719e+00
6.905078e+01 4.217391e-01 1.912083e-01 1.361002e+00 -4.417969e+00 4.199219e+00
7.048047e+01 4.217391e-01 2.192170e-01 1.491977e+00 -4.601562e+00 4.386719e+00
7.022266e+01 4.217391e-01 2.463819e-01 1.626034e+00 -4.808594e+00 4.589844e+00
6.905078e+01 4.217391e-01 2.732813e-01 1.762698e+00 -5.007812e+00 4.789062e+00
6.905078e+01 4.217391e-01 3.002378e-01 1.901622e+00 -5.199219e+00 4.980469e+00
6.905078e+01 4.217391e-01 3.272587e-01 2.042222e+00 -5.382812e+00 5.164062e+00
6.905078e+01 4.217391e-01 3.542465e-01 2.184478e+00 -5.589844e+00 5.371094e+00
6.905078e+01 4.217391e-01 3.814028e-01 2.327707e+00 -5.789062e+00 5.570312e+00
6.905078e+01 4.217391e-01 4.085712e-01 2.471939e+00 -5.980469e+00 5.761719e+00
6.892188e+01 4.217391e-01 4.358281e-01 2.616873e+00 -6.164062e+00 5.945312e+00
6.892188e+01 4.217391e-01 4.629514e-01 2.762724e+00 -6.371094e+00 6.152344e+00
6.892188e+01 4.217391e-01 4.901858e-01 2.908972e+00 -6.570312e+00 6.351562e+00
6.892188e+01 4.217391e-01 5.173125e-01 3.055775e+00 -6.761719e+00 6.542969e+00
6.892188e+01 4.217391e-01 5.443594e-01 3.203002e+00 -6.945312e+00 6.726562e+00
6.892188e+01 4.217391e-01 5.713160e-01 3.350813e+00 -7.152344e+00 6.933594e+00
6.892188e+01 4.217391e-01 5.984253e-01 3.498729e+00 -7.351562e+00 7.132812e+00
6.892188e+01 4.217391e-01 6.255399e-01 3.646962e+00 -7.542969e+00 7.324219e+00
6.892188e+01 4.217391e-01 6.526389e-01 3.795388e+00 -7.726562e+00 7.507812e+00
6.892188e+01 4.217391e-01 6.796285e-01 3.944263e+00 -7.933594e+00 7.714844e+00
6.905078e+01 4.217391e-01 7.067795e-01 4.093117e+00 -8.132812e+00 7.914062e+00
6.905078e+01 4.217391e-01 7.339097e-01 4.242191e+00 -8.324219e+00 8.105469e+00
6.905078e+01 4.217391e-01 7.610174e-01 4.391374e+00 -8.507812e+00 8.289062e+00
6.892188e+01 4.217391e-01 7.880399e-01 4.540914e+00 -8.714844e+00 8.496094e+00
6.892188e+01 4.217391e-01 8.151823e-01 4.690381e+00 -8.914062e+00 8.695312e+00
6.892188e+01 4.217391e-01 8.423281e-01 4.839993e+00 -9.105469e+00 8.886719e+00
6.892188e+01 4.217391e-01 8.694497e-01 4.989672e+00 -9.289062e+00 9.070312e+00
6.892188e+01 4.217391e-01 8.964080e-01 5.139699e+00 -9.496094e+00 9.277344e+00
6.892188e+01 4.217391e-01 9.234740e-01 5.289628e+00 -9.695312e+00 9.476562e+00
6.892188e+01 4.217391e-01 9.505573e-01 5.439660e+00 -9.886719e+00 9.667969e+00
6.892188e+01 4.217391e-01 9.776424e-01 5.589708e+00 -1.007031e+01 9.851562e+00
6.892188e+01 4.217391e-01 1.004648e+00 5.740026e+00 -1.027734e+01 1.005859e+01
6.892188e+01 4.217391e-01 1.031767e+00 5.890216e+00 -1.047656e+01 1.025781e+01
6.892188e+01 4.217391e-01 1.058917e+00 6.040481e+00 -1.066797e+01 1.044922e+01
6.892188e+01 4.217391e-01 1.086038e+00 6.190758e+00 -1.085156e+01 1.063281e+01
6.892188e+01 4.217391e-01 1.113092e+00 6.341280e+00 -1.105859e+01 1.083984e+01
6.892188e+01 4.217391e-01 1.140314e+00 6.491626e+00 -1.125781e+01 1.103906e+01
6.892188e+01 4.217391e-01 1.167561e+00 6.642036e+00 -1.144922e+01 1.123047e+01
6.892188e+01 4.217391e-01 1.194764e+00 6.792465e+00 -1.163281e+01 1.141406e+01
6.892188e+01 4.217391e-01 1.221819e+00 6.943163e+00 -1.183984e+01 1.162109e+01
6.892188e+01 4.217391e-01 1.249003e+00 7.093697e+00 -1.203906e+01 1.182031e+01
6.892188e+01 4.217391e-01 1.276170e+00 7.244305e+00 -1.223047e+01 1.201172e+01
6.892188e+01 4.217391e-01 1.303285e+00 7.394919e+00 -1.241406e+01 1.219531e+01
6.892188e+01 4.217391e-01 1.330332e+00 7.545755e+00 -1.262109e+01 1.240234e+01
6.892188e+01 4.217391e-01 1.357526e+00 7.696410e+00 -1.282031e+01 1.260156e+01
6.892188e+01 4.217391e-01 1.384722e+00 7.847120e+00 -1.301172e+01 1.279297e+01
6.892188e+01 4.217391e-01 1.411870e+00 7.997830e+00 -1.319531e+01 1.297656e+01
6.892188e+01 4.217391e-01 1.438943e+00 8.148759e+00 -1.340234e+01 1.318359e+01
6.892188e+01 4.217391e-01 1.466137e+00 8.299515e+00 -1.360156e+01 1.338281e+01
6.892188e+01 4.217391e-01 1.493337e+00 8.450319e+00 -1.379297e+01 1.357422e+01
6.905078e+01 4.217391e-01 1.520545e+00 8.601104e+00 -1.397656e+01 1.375781e+01
6.905078e+01 4.217391e-01 1.547578e+00 8.752140e+00 -1.418359e+01 1.396484e+01
6.905078e+01 4.217391e-01 1.574689e+00 8.903014e+00 -1.438281e+01 1.416406e+01
6.905078e+01 4.217391e-01 1.601837e+00 9.053915e+00 -1.457422e+01 1.435547e+01
6.905078e+01 4.217391e-01 1.628936e+00 9.204809e+00 -1.475781e+01 1.453906e+01
6.905078e+01 4.217391e-01 1.655934e+00 9.355924e+00 -1.496484e+01 1.474609e+01
6.892188e+01 4.217391e-01 1.683068e+00 9.506850e+00 -1.516406e+01 1.494531e+01
6.892188e+01 4.217391e-01 1.710224e+00 9.657811e+00 -1.535547e+01 1.513672e+01
6.892188e+01 4.217391e-01 1.737382e+00 9.808733e+00 -1.553906e+01 1.532031e+01
6.892188e+01 4.217391e-01 1.764476e+00 9.959861e+00 -1.574609e+01 1.552734e+01
6.892188e+01 4.217391e-01 1.791714e+00 1.011080e+01 -1.594531e+01 1.572656e+01
6.892188e+01 4.217391e-01 1.818995e+00 1.026176e+01 -1.613672e+01 1.591797e+01
6.905078e+01 4.217391e-01 1.846267e+00 1.041269e+01 -1.632031e+01 1.610156e+01
6.905078e+01 4.217391e-01 1.873418e+00 1.056384e+01 -1.652734e+01 1.630859e+01
6.905078e+01 4.217391e-01 1.900628e+00 1.071483e+01 -1.672656e+01 1.650781e+01
6.905078e+01 4.217391e-01 1.927809e+00 1.086587e+01 -1.691797e+01 1.669922e+01
6.892188e+01 4.217391e-01 1.954950e+00 1.101689e+01 -1.710156e+01 1.688281e+01
6.892188e+01 4.217391e-01 1.981958e+00 1.116814e+01 -1.730859e+01 1.708984e+01
6.892188e+01 4.217391e-01 2.009102e+00 1.131920e+01 -1.750781e+01 1.728906e+01
6.892188e+01 4.217391e-01 2.036238e+00 1.147030e+01 -1.769922e+01 1.748047e+01
6.892188e+01 4.217391e-01 2.063368e+00 1.162136e+01 -1.788281e+01 1.766406e+01
6.892188e+01 4.217391e-01 2.090446e+00 1.177262e+01 -1.808984e+01 1.787109e+01
6.892188e+01 4.217391e-01 2.117630e+00 1.192369e+01 -1.828906e+01 1.807031e+01
6.892188e+01 4.217391e-01 2.144840e+00 1.207479e+01 -1.848047e+01 1.826172e+01
6.892188e+01 4.217391e-01 2.171974e+00 1.222589e+01 -1.866406e+01 1.844531e+01
6.892188e+01 4.217391e-01 2.199005e+00 1.237719e+01 -1.887109e+01 1.865234e+01
6.892188e+01 4.217391e-01 2.226198e+00 1.252829e+01 -1.907031e+01 1.885156e+01
6.892188e+01 4.217391e-01 2.253438e+00 1.267941e+01 -1.926172e+01 1.904297e+01
6.892188e+01 4.217391e-01 2.280609e+00 1.283051e+01 -1.944531e+01 1.922656e+01
6.892188e+01 4.217391e-01 2.307661e+00 1.298183e+01 -1.965234e+01 1.943359e+01
6.905078e+01 4.217391e-01 2.334873e+00 1.313296e+01 -1.985156e+01 1.963281e+01
6.905078e+01 4.217391e-01 2.362031e+00 1.328413e+01 -2.004297e+01 1.982422e+01
6.892188e+01 4.217391e-01 2.389149e+00 1.343528e+01 -2.022656e+01 2.000781e+01
6.892188e+01 4.217391e-01 2.416205e+00 1.358662e+01 -2.043359e+01 2.021484e+01
6.905078e+01 4.217391e-01 2.443486e+00 1.373774e+01 -2.063281e+01 2.041406e+01
6.892188e+01 4.217391e-01 2.470816e+00 1.388887e+01 -2.082422e+01 2.060547e+01
6.892188e+01 4.217391e-01 2.498043e+00 1.404000e+01 -2.100781e+01 2.078906e+01
6.892188e+01 4.217391e-01 2.525109e+00 1.419136e+01 -2.121484e+01 2.099609e+01
6.892188e+01 4.217391e-01 2.552365e+00 1.434251e+01 -2.141406e+01 2.119531e+01
6.892188e+01 4.217391e-01 2.579585e+00 1.449370e+01 -2.160547e+01 2.138672e+01
6.892188e+01 4.217391e-01 2.606679e+00 1.464489e+01 -2.178906e+01 2.157031e+01
6.892188e+01 4.217391e-01 2.633674e+00 1.479629e+01 -2.199609e+01 2.177734e+01
6.892188e+01 4.217391e-01 2.660813e+00 1.494749e+01 -2.219531e+01 2.197656e+01
6.892188e+01 4.217391e-01 2.688023e+00 1.509869e+01 -2.238672e+01 2.216797e+01
6.892188e+01 4.217391e-01 2.715231e+00 1.524986e+01 -2.257031e+01 2.235156e+01
6.892188e+01 4.217391e-01 2.742326e+00 1.540124e+01 -2.277734e+01 2.255859e+01
6.892188e+01 4.217391e-01 2.769531e+00 1.555243e+01 -2.297656e+01 2.275781e+01
6.892188e+01 4.217391e-01 2.796734e+00 1.570365e+01 -2.316797e+01 2.294922e+01
6.892188e+01 4.217391e-01 2.823884e+00 1.585485e+01 -2.335156e+01 2.313281e+01
6.892188e+01 4.217391e-01 2.850910e+00 1.600626e+01 -2.355859e+01 2.333984e+01
6.892188e+01 4.217391e-01 2.878097e+00 1.615748e+01 -2.375781e+01 2.353906e+01
6.905078e+01 4.217391e-01 2.905290e+00 1.630872e+01 -2.394922e+01 2.373047e+01
6.905078e+01 4.217391e-01 2.932434e+00 1.645993e+01 -2.413281e+01 2.391406e+01
6.892188e+01 4.217391e-01 2.959477e+00 1.661135e+01 -2.433984e+01 2.412109e+01
6.892188e+01 4.217391e-01 2.986658e+00 1.676257e+01 -2.453906e+01 2.432031e+01
6.892188e+01 4.217391e-01 3.013856e+00 1.691381e+01 -2.473047e+01 2.451172e+01
6.892188e+01 4.217391e-01 3.041017e+00 1.706503e+01 -2.491406e+01 2.469531e+01
6.892188e+01 4.217391e-01 3.068057e+00 1.721646e+01 -2.512109e+01 2.490234e+01
6.892188e+01 4.217391e-01 3.095205e+00 1.736770e+01 -2.532031e+01 2.510156e+01
6.905078e+01 4.217391e-01 3.122444e+00 1.751895e+01 -2.551172e+01 2.529297e+01
6.905078e+01 4.217391e-01 3.149644e+00 1.767017e+01 -2.569531e+01 2.547656e+01
6.905078e+01 4.217391e-01 3.176714e+00 1.782160e+01 -2.590234e+01 2.568359e+01
6.892188e+01 4.217391e-01 3.203826e+00 1.797285e+01 -2.610156e+01 2.588281e+01
6.892188e+01 4.217391e-01 3.230970e+00 1.812413e+01 -2.629297e+01 2.607422e+01
6.892188e+01 4.217391e-01 3.258099e+00 1.827538e+01 -2.647656e+01 2.625781e+01
6.892188e+01 4.217391e-01 3.285156e+00 1.842682e+01 -2.668359e+01 2.646484e+01
6.892188e+01 4.217391e-01 3.312372e+00 1.857806e+01 -2.688281e+01 2.666406e+01
6.892188e+01 4.217391e-01 3.339595e+00 1.872932e+01 -2.707422e+01 2.685547e+01
6.892188e+01 4.217391e-01 3.366780e+00 1.888056e+01 -2.725781e+01 2.703906e+01
6.892188e+01 4.217391e-01 3.393833e+00 1.903202e+01 -2.746484e+01 2.724609e+01
6.892188e+01 4.217391e-01 3.421002e+00 1.918328e+01 -2.766406e+01 2.744531e+01
6.892188e+01 4.217391e-01 3.448155e+00 1.933457e+01 -2.785547e+01 2.763672e+01
6.892188e+01 4.217391e-01 3.475273e+00 1.948583e+01 -2.803906e+01 2.782031e+01
6.892188e+01 4.217391e-01 3.502306e+00 1.963730e+01 -2.824609e+01 2.802734e+01
6.892188e+01 4.217391e-01 3.529514e+00 1.978856e+01 -2.844531e+01 2.822656e+01
6.892188e+01 4.217391e-01 3.556766e+00 1.993983e+01 -2.863672e+01 2.841797e+01
6.905078e+01 4.217391e-01 3.583970e+00 2.009108e+01 -2.882031e+01 2.860156e+01
6.905078e+01 4.217391e-01 3.611031e+00 2.024254e+01 -2.902734e+01 2.880859e+01
6.892188e+01 4.217391e-01 3.638187e+00 2.039382e+01 -2.922656e+01 2.900781e+01
6.892188e+01 4.217391e-01 3.665333e+00 2.054512e+01 -2.941797e+01 2.919922e+01
6.905078e+01 4.217391e-01 3.692509e+00 2.069638e+01 -2.960156e+01 2.938281e+01
6.905078e+01 4.217391e-01 3.719592e+00 2.084785e+01 -2.980859e+01 2.958984e+01
6.905078e+01 4.217391e-01 3.746802e+00 2.099911e+01 -3.000781e+01 2.978906e+01
6.892188e+01 4.217391e-01 3.774005e+00 2.115041e+01 -3.019922e+01 2.998047e+01
6.892188e+01 4.217391e-01 3.801130e+00 2.130168e+01 -3.038281e+01 3.016406e+01
6.892188e+01 4.217391e-01 3.828156e+00 2.145317e+01 -3.058984e+01 3.037109e+01
6.892188e+01 4.217391e-01 3.855325e+00 2.160445e+01 -3.078906e+01 3.057031e+01
6.892188e+01 4.217391e-01 3.882524e+00 2.175575e+01 -3.098047e+01 3.076172e+01
6.892188e+01 4.217391e-01 3.909677e+00 2.190703e+01 -3.116406e+01 3.094531e+01
6.892188e+01 4.217391e-01 3.936724e+00 2.205851e+01 -3.137109e+01 3.115234e+01
6.905078e+01 4.217391e-01 3.963931e+00 2.220979e+01 -3.157031e+01 3.135156e+01
6.905078e+01 4.217391e-01 3.991094e+00 2.236111e+01 -3.176172e+01 3.154297e+01
6.892188e+01 4.217391e-01 4.018188e+00 2.251241e+01 -3.194531e+01 3.172656e+01
6.892188e+01 4.217391e-01 4.045191e+00 2.266391e+01 -3.215234e+01 3.193359e+01
6.892188e+01 4.217391e-01 4.072352e+00 2.281520e+01 -3.235156e+01 3.213281e+01
6.892188e+01 4.217391e-01 4.099571e+00 2.296650e+01 -3.254297e+01 3.232422e+01
6.892188e+01 4.217391e-01 4.126786e+00 2.311778e+01 -3.272656e+01 3.250781e+01
6.917969e+01 5.782609e-01 4.153880e+00 2.326925e+01 -3.293359e+01 3.271484e+01
6.905078e+01 4.217391e-01 4.181075e+00 2.342054e+01 -3.313281e+01 3.291406e+01
6.892188e+01 4.217391e-01 4.208269e+00 2.357186e+01 -3.332422e+01 3.310547e+01
6.892188e+01 4.217391e-01 4.235307e+00 2.372317e+01 -3.350781e+01 3.328906e+01
6.892188e+01 4.217391e-01 4.262314e+00 2.387468e+01 -3.371484e+01 3.349609e+01
6.892188e+01 4.217391e-01 4.289464e+00 2.402599e+01 -3.391406e+01 3.369531e+01
6.892188e+01 4.217391e-01 4.316667e+00 2.417730e+01 -3.410547e+01 3.388672e+01
6.892188e+01 4.217391e-01 4.343847e+00 2.432859e+01 -3.428906e+01 3.407031e+01
6.892188e+01 4.217391e-01 4.370899e+00 2.448009e+01 -3.449609e+01 3.427734e+01
6.892188e+01 4.217391e-01 4.398075e+00 2.463139e+01 -3.469531e+01 3.447656e+01
6.892188e+01 4.217391e-01 4.425271e+00 2.478271e+01 -3.488672e+01 3.466797e+01
6.892188e+01 4.217391e-01 4.452391e+00 2.493402e+01 -3.507031e+01 3.485156e+01
6.892188e+01 4.217391e-01 4.479380e+00 2.508554e+01 -3.527734e+01 3.505859e+01
6.892188e+01 4.217391e-01 4.506536e+00 2.523685e+01 -3.547656e+01 3.525781e+01
6.892188e+01 4.217391e-01 4.533760e+00 2.538817e+01 -3.566797e+01 3.544922e+01
6.892188e+01 4.217391e-01 4.560965e+00 2.553945e+01 -3.585156e+01 3.563281e+01
6.892188e+01 4.217391e-01 4.588038e+00 2.569095e+01 -3.605859e+01 3.583984e+01
6.892188e+01 4.217391e-01 4.615250e+00 2.584225e+01 -3.625781e+01 3.603906e+01
6.892188e+01 4.217391e-01 4.642476e+00 2.599358e+01 -3.644922e+01 3.623047e+01
6.892188e+01 4.217391e-01 4.669637e+00 2.614488e+01 -3.663281e+01 3.641406e+01
6.892188e+01 4.217391e-01 4.696681e+00 2.629639e+01 -3.683984e+01 3.662109e+01
6.892188e+01 4.217391e-01 4.723863e+00 2.644770e+01 -3.703906e+01 3.682031e+01
6.892188e+01 4.217391e-01 4.751047e+00 2.659903e+01 -3.723047e+01 3.701172e+01
6.892188e+01 4.217391e-01 4.778163e+00 2.675035e+01 -3.741406e+01 3.719531e+01
6.892188e+01 4.217391e-01 4.805208e+00 2.690186e+01 -3.762109e+01 3.740234e+01
6.892188e+01 4.217391e-01 4.832422e+00 2.705316e+01 -3.782031e+01 3.760156e+01
6.892188e+01 4.217391e-01 4.859655e+00 2.720449e+01 -3.801172e+01 3.779297e+01
6.892188e+01 4.217391e-01 4.886825e+00 2.735579e+01 -3.819531e+01 3.797656e+01
6.917969e+01 5.782609e-01 4.913872e+00 2.750731e+01 -3.840234e+01 3.818359e+01
6.892188e+01 4.217391e-01 4.941059e+00 2.765862e+01 -3.860156e+01 3.838281e+01
6.892188e+01 4.217391e-01 4.968220e+00 2.780997e+01 -3.879297e+01 3.857422e+01
6.892188e+01 4.217391e-01 4.995380e+00 2.796128e+01 -3.897656e+01 3.875781e+01
6.905078e+01 4.217391e-01 5.022470e+00 2.811278e+01 -3.918359e+01 3.896484e+01
6.905078e+01 4.217391e-01 5.049670e+00 2.826410e+01 -3.938281e+01 3.916406e+01
6.892188e+01 4.217391e-01 5.076828e+00 2.841544e+01 -3.957422e+01 3.935547e+01
6.892188e+01 4.217391e-01 5.103967e+00 2.856676e+01 -3.975781e+01 3.953906e+01
6.892188e+01 4.217391e-01 5.130991e+00 2.871828e+01 -3.996484e+01 3.974609e+01
6.892188e+01 4.217391e-01 5.158181e+00 2.886960e+01 -4.016406e+01 3.994531e+01
6.892188e+01 4.217391e-01 5.185382e+00 2.902094e+01 -4.035547e+01 4.013672e+01
6.892188e+01 4.217391e-01 5.212530e+00 2.917226e+01 -4.053906e+01 4.032031e+01
6.892188e+01 4.217391e-01 5.239606e+00 2.932377e+01 -4.074609e+01 4.052734e+01
6.892188e+01 4.217391e-01 5.266823e+00 2.947509e+01 -4.094531e+01 4.072656e+01
6.892188e+01 4.217391e-01 5.294012e+00 2.962643e+01 -4.113672e+01 4.091797e+01
6.905078e+01 4.217391e-01 5.321148e+00 2.977775e+01 -4.132031e+01 4.110156e+01
6.892188e+01 4.217391e-01 5.348220e+00 2.992927e+01 -4.152734e+01 4.130859e+01
6.892188e+01 4.217391e-01 5.375432e+00 3.008059e+01 -4.172656e+01 4.150781e+01
6.892188e+01 4.217391e-01 5.402599e+00 3.023194e+01 -4.191797e+01 4.169922e+01
6.892188e+01 4.217391e-01 5.429766e+00 3.038325e+01 -4.210156e+01 4.188281e+01
6.892188e+01 4.217391e-01 5.456819e+00 3.053478e+01 -4.230859e+01 4.208984e+01
6.905078e+01 4.217391e-01 5.484005e+00 3.068610e+01 -4.250781e+01 4.228906e+01
6.905078e+01 4.217391e-01 5.511198e+00 3.083745e+01 -4.269922e+01 4.248047e+01
6.892188e+01 4.217391e-01 5.538361e+00 3.098877e+01 -4.288281e+01 4.266406e+01
6.892188e+01 4.217391e-01 5.565431e+00 3.114029e+01 -4.308984e+01 4.287109e+01
6.892188e+01 4.217391e-01 5.592648e+00 3.129161e+01 -4.328906e+01 4.307031e+01
6.892188e+01 4.217391e-01 5.619854e+00 3.144295e+01 -4.348047e+01 4.326172e+01
6.892188e+01 4.217391e-01 5.647016e+00 3.159427e+01 -4.366406e+01 4.344531e+01
6.905078e+01 4.217391e-01 5.674066e+00 3.174580e+01 -4.387109e+01 4.365234e+01
6.917969e+01 5.782609e-01 5.701273e+00 3.189713e+01 -4.407031e+01 4.385156e+01
6.905078e+01 4.217391e-01 5.728481e+00 3.204847e+01 -4.426172e+01 4.404297e+01
6.892188e+01 4.217391e-01 5.755628e+00 3.219980e+01 -4.444531e+01 4.422656e+01
6.892188e+01 4.217391e-01 5.782653e+00 3.235133e+01 -4.465234e+01 4.443359e+01
6.892188e+01 4.217391e-01 5.809809e+00 3.250267e+01 -4.485156e+01 4.463281e+01
6.905078e+01 4.217391e-01 5.837075e+00 3.265401e+01 -4.504297e+01 4.482422e+01
6.905078e+01 4.217391e-01 5.864299e+00 3.280532e+01 -4.522656e+01 4.500781e+01
