2.807773e-01 8.266357e-01 -1.653564e+00 2.471924e+00 6.512606e-03 3.829906e-02 -1.191406e-01 1.784668e-01
2.807773e-01 8.266357e-01 -1.653564e+00 2.471924e+00 6.512606e-03 3.829906e-02 -1.191406e-01 1.784668e-01
2.807773e-01 8.266357e-01 -1.653564e+00 2.471924e+00 6.512606e-03 3.829906e-02 -1.191406e-01 1.784668e-01
2.807773e-01 8.266357e-01 -1.653564e+00 2.471924e+00 6.512606e-03 3.829906e-02 -1.191406e-01 1.784668e-01
2.807773e-01 8.266357e-01 -1.653564e+00 2.471924e+00 6.512606e-03 3.829906e-02 -1.191406e-01 1.784668e-01
2.807773e-01 8.266357e-01 -1.653564e+00 2.471924e+00 6.512606e-03 3.829906e-02 -1.191406e-01 1.784668e-01
2.807773e-01 8.266357e-01 -1.653564e+00 2.471924e+00 6.512606e-03 3.829906e-02 -1.191406e-01 1.784668e-01
2.807773e-01 8.266357e-01 -1.653564e+00 2.471924e+00 6.512606e-03 3.829906e-02 -1.191406e-01 1.784668e-01
2.807773e-01 8.266357e-01 -1.653564e+00 2.471924e+00 6.512606e-03 3.829906e-02 -1.191406e-01 1.784668e-01
2.807773e-01 8.266357e-01 -1.653564e+00 2.471924e+00 6.512606e-03 3.829906e-02 -1.191406e-01 1.784668e-01
2.807773e-01 8.266357e-01 -1.653564e+00 2.471924e+00 6.512606e-03 3.829906e-02 -1.191406e-01 1.784668e-01
2.807773e-01 8.266357e-01 -1.653564e+00 2.471924e+00 6.512606e-03 3.829906e-02 -1.191406e-01 1.784668e-01
2.807773e-01 8.266357e-01 -1.653564e+00 2.471924e+00 6.512606e-03 3.829906e-02 -1.191406e-01 1.784668e-01
2.807773e-01 8.266357e-01 -1.653564e+00 2.471924e+00 6.512606e-03 3.829906e-02 -1.191406e-01 1.784668e-01
2.807773e-01 8.266357e-01 -1.653564e+00 2.471924e+00 6.512606e-03 3.829906e-02 -1.191406e-01 1.784668e-01
2.807773e-01 8.266357e-01 -1.653564e+00 2.471924e+00 6.512606e-03 3.829906e-02 -1.191406e-01 1.784668e-01
2.807773e-01 8.266357e-01 -1.653564e+00 2.471924e+00 6.512606e-03 3.829906e-02 -1.191406e-01 1.784668e-01
2.807773e-01 8.266357e-01 -1.653564e+00 2.471924e+00 6.512606e-03 3.829906e-02 -1.191406e-01 1.784668e-01
2.807773e-01 8.266357e-01 -1.653564e+00 2.471924e+00 6.512606e-03 3.829906e-02 -1.191406e-01 1.784668e-01
2.807773e-01 8.266357e-01 -1.653564e+00 2.471924e+00 6.512606e-03 3.829906e-02 -1.191406e-01 1.784668e-01
2.807773e-01 8.266357e-01 -1.653564e+00 2.471924e+00 6.512606e-03 3.829906e-02 -1.191406e-01 1.784668e-01
2.807773e-01 8.266357e-01 -1.653564e+00 2.471924e+00 6.512606e-03 3.829906e-02 -1.191406e-01 1.784668e-01
2.807773e-01 8.266357e-01 -1.653564e+00 2.471924e+00 6.512606e-03 3.829906e-02 -1.191406e-01 1.784668e-01
2.807773e-01 8.266357e-01 -1.653564e+00 2.471924e+00 6.512606e-03 3.829906e-02 -1.191406e-01 1.784668e-01
2.807773e-01 8.266357e-01 -1.653564e+00 2.471924e+00 6.512606e-03 3.829906e-02 -1.191406e-01 1.784668e-01
2.807773e-01 8.266357e-01 -1.653564e+00 2.471924e+00 6.512606e-03 3.829906e-02 -1.191406e-01 1.784668e-01
2.807773e-01 8.266357e-01 -1.653564e+00 2.471924e+00 6.512606e-03 3.829906e-02 -1.191406e-01 1.784668e-01
2.807773e-01 8.266357e-01 -1.653564e+00 2.471924e+00 6.512606e-03 3.829906e-02 -1.191406e-01 1.784668e-01
2.807773e-01 8.266357e-01 -1.653564e+00 2.471924e+00 6.512606e-03 3.829906e-02 -1.191406e-01 1.784668e-01
2.807773e-01 8.266357e-01 -1.653564e+00 2.471924e+00 6.512606e-03 3.829906e-02 -1.191406e-01 1.784668e-01
2.807773e-01 8.266357e-01 -1.653564e+00 2.471924e+00 6.512606e-03 3.829906e-02 -1.191406e-01 1.784668e-01
2.807773e-01 8.266357e-01 -1.653564e+00 2.471924e+00 6.512606e-03 3.829906e-02 -1.191406e-01 1.784668e-01
2.807773e-01 8.266357e-01 -1.653564e+00 2.471924e+00 6.512606e-03 3.829906e-02 -1.191406e-01 1.784668e-01
2.807773e-01 8.266357e-01 -1.653564e+00 2.471924e+00 6.512606e-03 3.829906e-02 -1.191406e-01 1.784668e-01
2.807773e-01 8.266357e-01 -1.653564e+00 2.471924e+00 6.512606e-03 3.829906e-02 -1.191406e-01 1.784668e-01
2.807773e-01 8.266357e-01 -1.653564e+00 2.471924e+00 6.512606e-03 3.829906e-02 -1.191406e-01 1.784668e-01
2.807773e-01 8.266357e-01 -1.653564e+00 2.471924e+00 6.512606e-03 3.829906e-02 -1.191406e-01 1.784668e-01
2.807773e-01 8.266357e-01 -1.653564e+00 2.471924e+00 6.512606e-03 3.829906e-02 -1.191406e-01 1.784668e-01
2.807773e-01 8.266357e-01 -1.653564e+00 2.471924e+00 6.512606e-03 3.829906e-02 -1.191406e-01 1.784668e-01
2.807773e-01 8.266357e-01 -1.653564e+00 2.471924e+00 6.512606e-03 3.829906e-02 -1.191406e-01 1.784668e-01
2.807773e-01 8.266357e-01 -1.653564e+00 2.471924e+00 6.512606e-03 3.829906e-02 -1.191406e-01 1.784668e-01
2.807773e-01 8.266357e-01 -1.653564e+00 2.471924e+00 6.512606e-03 3.829906e-02 -1.191406e-01 1.784668e-01
2.807773e-01 8.266357e-01 -1.653564e+00 2.471924e+00 6.512606e-03 3.829906e-02 -1.191406e-01 1.784668e-01
2.807773e-01 8.266357e-01 -1.653564e+00 2.471924e+00 6.512606e-03 3.829906e-02 -1.191406e-01 1.784668e-01
2.807773e-01 8.266357e-01 -1.653564e+00 2.471924e+00 6.512606e-03 3.829906e-02 -1.191406e-01 1.784668e-01
2.807773e-01 8.266357e-01 -1.653564e+00 2.471924e+00 6.512606e-03 3.829906e-02 -1.191406e-01 1.784668e-01
2.807773e-01 8.266357e-01 -1.653564e+00 2.471924e+00 6.512606e-03 3.829906e-02 -1.191406e-01 1.784668e-01
2.807773e-01 8.266357e-01 -1.653564e+00 2.471924e+00 6.512606e-03 3.829906e-02 -1.191406e-01 1.784668e-01
2.807773e-01 8.266357e-01 -1.653564e+00 2.471924e+00 6.512606e-03 3.829906e-02 -1.191406e-01 1.784668e-01
2.807773e-01 8.266357e-01 -1.653564e+00 2.471924e+00 6.512606e-03 3.829906e-02 -1.191406e-01 1.784668e-01
2.807773e-01 8.266357e-01 -1.653564e+00 2.471924e+00 6.512606e-03 3.829906e-02 -1.191406e-01 1.784668e-01
2.807773e-01 8.266357e-01 -1.653564e+00 2.471924e+00 6.512606e-03 3.829906e-02 -1.191406e-01 1.784668e-01
2.807773e-01 8.266357e-01 -1.653564e+00 2.471924e+00 6.512606e-03 3.829906e-02 -1.191406e-01 1.784668e-01
2.807773e-01 8.266357e-01 -1.653564e+00 2.471924e+00 6.512606e-03 3.829906e-02 -1.191406e-01 1.784668e-01
2.807773e-01 8.266357e-01 -1.653564e+00 2.471924e+00 6.512606e-03 3.829906e-02 -1.191406e-01 1.784668e-01
2.807773e-01 8.266357e-01 -1.653564e+00 2.471924e+00 6.512606e-03 3.829906e-02 -1.191406e-01 1.784668e-01
2.807773e-01 8.266357e-01 -1.653564e+00 2.471924e+00 6.512606e-03 3.829906e-02 -1.191406e-01 1.784668e-01
2.807773e-01 8.266357e-01 -1.653564e+00 2.471924e+00 6.512606e-03 3.829906e-02 -1.191406e-01 1.784668e-01
2.807773e-01 8.266357e-01 -1.653564e+00 2.471924e+00 6.512606e-03 3.829906e-02 -1.191406e-01 1.784668e-01
2.807773e-01 8.266357e-01 -1.653564e+00 2.471924e+00 6.512606e-03 3.829906e-02 -1.191406e-01 1.784668e-01
2.807773e-01 8.266357e-01 -1.653564e+00 2.471924e+00 6.512606e-03 3.829906e-02 -1.191406e-01 1.784668e-01
2.807773e-01 8.266357e-01 -1.653564e+00 2.471924e+00 6.512606e-03 3.829906e-02 -1.191406e-01 1.784668e-01
2.807773e-01 8.266357e-01 -1.653564e+00 2.471924e+00 6.512606e-03 3.829906e-02 -1.191406e-01 1.784668e-01
2.807773e-01 8.266357e-01 -1.653564e+00 2.471924e+00 6.512606e-03 3.829906e-02 -1.191406e-01 1.784668e-01
2.807773e-01 8.266357e-01 -1.653564e+00 2.471924e+00 6.512606e-03 3.829906e-02 -1.191406e-01 1.784668e-01
2.807773e-01 8.266357e-01 -1.653564e+00 2.471924e+00 6.512606e-03 3.829906e-02 -1.191406e-01 1.784668e-01
2.807773e-01 8.266357e-01 -1.653564e+00 2.471924e+00 6.512606e-03 3.829906e-02 -1.191406e-01 1.784668e-01
2.807773e-01 8.266357e-01 -1.653564e+00 2.471924e+00 6.512606e-03 3.829906e-02 -1.191406e-01 1.784668e-01
2.807773e-01 8.266357e-01 -1.653564e+00 2.471924e+00 6.512606e-03 3.829906e-02 -1.191406e-01 1.784668e-01
2.807773e-01 8.266357e-01 -1.653564e+00 2.471924e+00 6.512606e-03 3.829906e-02 -1.191406e-01 1.784668e-01
2.807773e-01 8.266357e-01 -1.653564e+00 2.471924e+00 6.512606e-03 3.829906e-02 -1.191406e-01 1.784668e-01
2.807773e-01 8.266357e-01 -1.653564e+00 2.471924e+00 6.512606e-03 3.829906e-02 -1.191406e-01 1.784668e-01
2.807773e-01 8.266357e-01 -1.653564e+00 2.471924e+00 6.512606e-03 3.829906e-02 -1.191406e-01 1.784668e-01
2.807773e-01 8.266357e-01 -1.653564e+00 2.471924e+00 6.512606e-03 3.829906e-02 -1.191406e-01 1.784668e-01
2.807773e-01 8.266357e-01 -1.653564e+00 2.471924e+00 6.512606e-03 3.829906e-02 -1.191406e-01 1.784668e-01
2.807773e-01 8.266357e-01 -1.653564e+00 2.471924e+00 6.512606e-03 3.829906e-02 -1.191406e-01 1.784668e-01
2.807773e-01 8.266357e-01 -1.653564e+00 2.471924e+00 6.512606e-03 3.829906e-02 -1.191406e-01 1.784668e-01
2.807773e-01 8.266357e-01 -1.653564e+00 2.471924e+00 6.512606e-03 3.829906e-02 -1.191406e-01 1.784668e-01
2.807773e-01 8.266357e-01 -1.653564e+00 2.471924e+00 6.512606e-03 3.829906e-02 -1.191406e-01 1.784668e-01
2.807773e-01 8.266357e-01 -1.653564e+00 2.471924e+00 6.512606e-03 3.829906e-02 -1.191406e-01 1.784668e-01
2.807773e-01 8.266357e-01 -1.653564e+00 2.471924e+00 6.512606e-03 3.829906e-02 -1.191406e-01 1.784668e-01
2.807773e-01 8.266357e-01 -1.653564e+00 2.471924e+00 6.512606e-03 3.829906e-02 -1.191406e-01 1.784668e-01
2.807773e-01 8.266357e-01 -1.653564e+00 2.471924e+00 6.512606e-03 3.829906e-02 -1.191406e-01 1.784668e-01
2.807773e-01 8.266357e-01 -1.653564e+00 2.471924e+00 6.512606e-03 3.829906e-02 -1.191406e-01 1.784668e-01
2.807773e-01 8.266357e-01 -1.653564e+00 2.471924e+00 6.512606e-03 3.829906e-02 -1.191406e-01 1.784668e-01
2.807773e-01 8.266357e-01 -1.653564e+00 2.471924e+00 6.512606e-03 3.829906e-02 -1.191406e-01 1.784668e-01
2.807773e-01 8.266357e-01 -1.653564e+00 2.471924e+00 6.512606e-03 3.829906e-02 -1.191406e-01 1.784668e-01
2.807773e-01 8.266357e-01 -1.653564e+00 2.471924e+00 6.512606e-03 3.829906e-02 -1.191406e-01 1.784668e-01
2.807773e-01 8.266357e-01 -1.653564e+00 2.471924e+00 6.512606e-03 3.829906e-02 -1.191406e-01 1.784668e-01
2.807773e-01 8.266357e-01 -1.653564e+00 2.471924e+00 6.512606e-03 3.829906e-02 -1.191406e-01 1.784668e-01
2.807773e-01 8.266357e-01 -1.653564e+00 2.471924e+00 6.512606e-03 3.829906e-02 -1.191406e-01 1.784668e-01
2.807773e-01 8.266357e-01 -1.653564e+00 2.471924e+00 6.512606e-03 3.829906e-02 -1.191406e-01 1.784668e-01
2.807773e-01 8.266357e-01 -1.653564e+00 2.471924e+00 6.512606e-03 3.829906e-02 -1.191406e-01 1.784668e-01
2.807773e-01 8.266357e-01 -1.653564e+00 2.471924e+00 6.512606e-03 3.829906e-02 -1.191406e-01 1.784668e-01
2.807773e-01 8.266357e-01 -1.653564e+00 2.471924e+00 6.512606e-03 3.829906e-02 -1.191406e-01 1.784668e-01
2.807773e-01 8.266357e-01 -1.653564e+00 2.471924e+00 6.512606e-03 3.829906e-02 -1.191406e-01 1.784668e-01
2.807773e-01 8.266357e-01 -1.653564e+00 2.471924e+00 6.512606e-03 3.829906e-02 -1.191406e-01 1.784668e-01
2.807773e-01 8.266357e-01 -1.653564e+00 2.471924e+00 6.512606e-03 3.829906e-02 -1.191406e-01 1.784668e-01
2.807773e-01 8.266357e-01 -1.653564e+00 2.471924e+00 6.512606e-03 3.829906e-02 -1.191406e-01 1.784668e-01
2.807773e-01 8.266357e-01 -1.653564e+00 2.471924e+00 6.512606e-03 3.829906e-02 -1.191406e-01 1.784668e-01
2.807773e-01 8.266357e-01 -1.653564e+00 2.471924e+00 6.512606e-03 3.829906e-02 -1.191406e-01 1.784668e-01
2.807773e-01 8.266357e-01 -1.653564e+00 2.471924e+00 6.512606e-03 3.829906e-02 -1.191406e-01 1.784668e-01
2.807773e-01 8.266357e-01 -1.653564e+00 2.471924e+00 6.512606e-03 3.829906e-02 -1.191406e-01 1.784668e-01
2.807773e-01 8.266357e-01 -1.653564e+00 2.471924e+00 6.512606e-03 3.829906e-02 -1.191406e-01 1.784668e-01
2.807773e-01 8.266357e-01 -1.653564e+00 2.471924e+00 6.512606e-03 3.829906e-02 -1.191406e-01 1.784668e-01
2.807773e-01 8.266357e-01 -1.653564e+00 2.471924e+00 6.512606e-03 3.829906e-02 -1.191406e-01 1.784668e-01
2.807773e-01 8.266357e-01 -1.653564e+00 2.471924e+00 6.512606e-03 3.829906e-02 -1.191406e-01 1.784668e-01
2.807773e-01 8.266357e-01 -1.653564e+00 2.471924e+00 6.512606e-03 3.829906e-02 -1.191406e-01 1.784668e-01
2.807773e-01 8.266357e-01 -1.653564e+00 2.471924e+00 6.512606e-03 3.829906e-02 -1.191406e-01 1.784668e-01
2.807773e-01 8.266357e-01 -1.653564e+00 2.471924e+00 6.512606e-03 3.829906e-02 -1.191406e-01 1.784668e-01
2.807773e-01 8.266357e-01 -1.653564e+00 2.471924e+00 6.512606e-03 3.829906e-02 -1.191406e-01 1.784668e-01
2.807773e-01 8.266357e-01 -1.653564e+00 2.471924e+00 6.512606e-03 3.829906e-02 -1.191406e-01 1.784668e-01
2.807773e-01 8.266357e-01 -1.653564e+00 2.471924e+00 6.512606e-03 3.829906e-02 -1.191406e-01 1.784668e-01
2.807773e-01 8.266357e-01 -1.653564e+00 2.471924e+00 6.512606e-03 3.829906e-02 -1.191406e-01 1.784668e-01
2.807773e-01 8.266357e-01 -1.653564e+00 2.471924e+00 6.512606e-03 3.829906e-02 -1.191406e-01 1.784668e-01
2.807773e-01 8.266357e-01 -1.653564e+00 2.471924e+00 6.512606e-03 3.829906e-02 -1.191406e-01 1.784668e-01
2.807773e-01 8.266357e-01 -1.653564e+00 2.471924e+00 6.512606e-03 3.829906e-02 -1.191406e-01 1.784668e-01
2.807773e-01 8.266357e-01 -1.653564e+00 2.471924e+00 6.512606e-03 3.829906e-02 -1.191406e-01 1.784668e-01
2.807773e-01 8.266357e-01 -1.653564e+00 2.471924e+00 6.512606e-03 3.829906e-02 -1.191406e-01 1.784668e-01
2.807773e-01 8.266357e-01 -1.653564e+00 2.471924e+00 6.512606e-03 3.829906e-02 -1.191406e-01 1.784668e-01
2.807773e-01 8.266357e-01 -1.653564e+00 2.471924e+00 6.512606e-03 3.829906e-02 -1.191406e-01 1.784668e-01
2.807773e-01 8.266357e-01 -1.653564e+00 2.471924e+00 6.512606e-03 3.829906e-02 -1.191406e-01 1.784668e-01
2.807773e-01 8.266357e-01 -1.653564e+00 2.471924e+00 6.512606e-03 3.829906e-02 -1.191406e-01 1.784668e-01
2.807773e-01 8.266357e-01 -1.653564e+00 2.471924e+00 6.512606e-03 3.829906e-02 -1.191406e-01 1.784668e-01
2.807773e-01 8.266357e-01 -1.653564e+00 2.471924e+00 6.512606e-03 3.829906e-02 -1.191406e-01 1.784668e-01
2.807773e-01 8.266357e-01 -1.653564e+00 2.471924e+00 6.512606e-03 3.829906e-02 -1.191406e-01 1.784668e-01
2.807773e-01 8.266357e-01 -1.653564e+00 2.471924e+00 6.512606e-03 3.829906e-02 -1.191406e-01 1.784668e-01
2.807773e-01 8.266357e-01 -1.653564e+00 2.471924e+00 6.512606e-03 3.829906e-02 -1.191406e-01 1.784668e-01
2.807773e-01 8.266357e-01 -1.653564e+00 2.471924e+00 6.512606e-03 3.829906e-02 -1.191406e-01 1.784668e-01
2.807773e-01 8.266357e-01 -1.653564e+00 2.471924e+00 6.512606e-03 3.829906e-02 -1.191406e-01 1.784668e-01
2.807773e-01 8.266357e-01 -1.653564e+00 2.471924e+00 6.512606e-03 3.829906e-02 -1.191406e-01 1.784668e-01
2.807773e-01 8.266357e-01 -1.653564e+00 2.471924e+00 6.512606e-03 3.829906e-02 -1.191406e-01 1.784668e-01
2.807773e-01 8.266357e-01 -1.653564e+00 2.471924e+00 6.512606e-03 3.829906e-02 -1.191406e-01 1.784668e-01
2.807773e-01 8.266357e-01 -1.653564e+00 2.471924e+00 6.512606e-03 3.829906e-02 -1.191406e-01 1.784668e-01
2.807773e-01 8.266357e-01 -1.653564e+00 2.471924e+00 6.512606e-03 3.829906e-02 -1.191406e-01 1.784668e-01
2.807773e-01 8.266357e-01 -1.653564e+00 2.471924e+00 6.512606e-03 3.829906e-02 -1.191406e-01 1.784668e-01
2.807773e-01 8.266357e-01 -1.653564e+00 2.471924e+00 6.512606e-03 3.829906e-02 -1.191406e-01 1.784668e-01
2.807773e-01 8.266357e-01 -1.653564e+00 2.471924e+00 6.512606e-03 3.829906e-02 -1.191406e-01 1.784668e-01
2.807773e-01 8.266357e-01 -1.653564e+00 2.471924e+00 6.512606e-03 3.829906e-02 -1.191406e-01 1.784668e-01
2.807773e-01 8.266357e-01 -1.653564e+00 2.471924e+00 6.512606e-03 3.829906e-02 -1.191406e-01 1.784668e-01
2.807773e-01 8.266357e-01 -1.653564e+00 2.471924e+00 6.512606e-03 3.829906e-02 -1.191406e-01 1.784668e-01
2.807773e-01 8.266357e-01 -1.653564e+00 2.471924e+00 6.512606e-03 3.829906e-02 -1.191406e-01 1.784668e-01
2.807773e-01 8.266357e-01 -1.653564e+00 2.471924e+00 6.512606e-03 3.829906e-02 -1.191406e-01 1.784668e-01
2.807773e-01 8.266357e-01 -1.653564e+00 2.471924e+00 6.512606e-03 3.829906e-02 -1.191406e-01 1.784668e-01
2.807773e-01 8.266357e-01 -1.653564e+00 2.471924e+00 6.512606e-03 3.829906e-02 -1.191406e-01 1.784668e-01
2.807773e-01 8.266357e-01 -1.653564e+00 2.471924e+00 6.512606e-03 3.829906e-02 -1.191406e-01 1.784668e-01
2.807773e-01 8.266357e-01 -1.653564e+00 2.471924e+00 6.512606e-03 3.829906e-02 -1.191406e-01 1.784668e-01
2.807773e-01 8.266357e-01 -1.653564e+00 2.471924e+00 6.512606e-03 3.829906e-02 -1.191406e-01 1.784668e-01
2.807773e-01 8.266357e-01 -1.653564e+00 2.471924e+00 6.512606e-03 3.829906e-02 -1.191406e-01 1.784668e-01
2.807773e-01 8.266357e-01 -1.653564e+00 2.471924e+00 6.512606e-03 3.829906e-02 -1.191406e-01 1.784668e-01
2.807773e-01 8.266357e-01 -1.653564e+00 2.471924e+00 6.512606e-03 3.829906e-02 -1.191406e-01 1.784668e-01
2.807773e-01 8.266357e-01 -1.653564e+00 2.471924e+00 6.512606e-03 3.829906e-02 -1.191406e-01 1.784668e-01
2.807773e-01 8.266357e-01 -1.653564e+00 2.471924e+00 6.512606e-03 3.829906e-02 -1.191406e-01 1.784668e-01
2.807773e-01 8.266357e-01 -1.653564e+00 2.471924e+00 6.512606e-03 3.829906e-02 -1.191406e-01 1.784668e-01
2.807773e-01 8.266357e-01 -1.653564e+00 2.471924e+00 6.512606e-03 3.829906e-02 -1.191406e-01 1.784668e-01
2.807773e-01 8.266357e-01 -1.653564e+00 2.471924e+00 6.512606e-03 3.829906e-02 -1.191406e-01 1.784668e-01
2.807773e-01 8.266357e-01 -1.653564e+00 2.471924e+00 6.512606e-03 3.829906e-02 -1.191406e-01 1.784668e-01
2.807773e-01 8.266357e-01 -1.653564e+00 2.471924e+00 6.512606e-03 3.829906e-02 -1.191406e-01 1.784668e-01
2.807773e-01 8.266357e-01 -1.653564e+00 2.471924e+00 6.512606e-03 3.829906e-02 -1.191406e-01 1.784668e-01
2.807773e-01 8.266357e-01 -1.653564e+00 2.471924e+00 6.512606e-03 3.829906e-02 -1.191406e-01 1.784668e-01
2.807773e-01 8.266357e-01 -1.653564e+00 2.471924e+00 6.512606e-03 3.829906e-02 -1.191406e-01 1.784668e-01
2.807773e-01 8.266357e-01 -1.653564e+00 2.471924e+00 6.512606e-03 3.829906e-02 -1.191406e-01 1.784668e-01
2.807773e-01 8.266357e-01 -1.653564e+00 2.471924e+00 6.512606e-03 3.829906e-02 -1.191406e-01 1.784668e-01
2.807773e-01 8.266357e-01 -1.653564e+00 2.471924e+00 6.512606e-03 3.829906e-02 -1.191406e-01 1.784668e-01
2.807773e-01 8.266357e-01 -1.653564e+00 2.471924e+00 6.512606e-03 3.829906e-02 -1.191406e-01 1.784668e-01
2.807773e-01 8.266357e-01 -1.653564e+00 2.471924e+00 6.512606e-03 3.829906e-02 -1.191406e-01 1.784668e-01
2.807773e-01 8.266357e-01 -1.653564e+00 2.471924e+00 6.512606e-03 3.829906e-02 -1.191406e-01 1.784668e-01
2.807773e-01 8.266357e-01 -1.653564e+00 2.471924e+00 6.512606e-03 3.829906e-02 -1.191406e-01 1.784668e-01
2.807773e-01 8.266357e-01 -1.653564e+00 2.471924e+00 6.512606e-03 3.829906e-02 -1.191406e-01 1.784668e-01
2.807773e-01 8.266357e-01 -1.653564e+00 2.471924e+00 6.512606e-03 3.829906e-02 -1.191406e-01 1.784668e-01
2.807773e-01 8.266357e-01 -1.653564e+00 2.471924e+00 6.512606e-03 3.829906e-02 -1.191406e-01 1.784668e-01
2.807773e-01 8.266357e-01 -1.653564e+00 2.471924e+00 6.512606e-03 3.829906e-02 -1.191406e-01 1.784668e-01
2.807773e-01 8.266357e-01 -1.653564e+00 2.471924e+00 6.512606e-03 3.829906e-02 -1.191406e-01 1.784668e-01
2.807773e-01 8.266357e-01 -1.653564e+00 2.471924e+00 6.512606e-03 3.829906e-02 -1.191406e-01 1.784668e-01
2.807773e-01 8.266357e-01 -1.653564e+00 2.471924e+00 6.512606e-03 3.829906e-02 -1.191406e-01 1.784668e-01
2.807773e-01 8.266357e-01 -1.653564e+00 2.471924e+00 6.512606e-03 3.829906e-02 -1.191406e-01 1.784668e-01
2.807773e-01 8.266357e-01 -1.653564e+00 2.471924e+00 6.512606e-03 3.829906e-02 -1.191406e-01 1.784668e-01
2.807773e-01 8.266357e-01 -1.653564e+00 2.471924e+00 6.512606e-03 3.829906e-02 -1.191406e-01 1.784668e-01
2.807773e-01 8.266357e-01 -1.653564e+00 2.471924e+00 6.512606e-03 3.829906e-02 -1.191406e-01 1.784668e-01
2.807773e-01 8.266357e-01 -1.653564e+00 2.471924e+00 6.512606e-03 3.829906e-02 -1.191406e-01 1.784668e-01
2.807773e-01 8.266357e-01 -1.653564e+00 2.471924e+00 6.512606e-03 3.829906e-02 -1.191406e-01 1.784668e-01
2.807773e-01 8.266357e-01 -1.653564e+00 2.471924e+00 6.512606e-03 3.829906e-02 -1.191406e-01 1.784668e-01
2.807773e-01 8.266357e-01 -1.653564e+00 2.471924e+00 6.512606e-03 3.829906e-02 -1.191406e-01 1.784668e-01
2.807773e-01 8.266357e-01 -1.653564e+00 2.471924e+00 6.512606e-03 3.829906e-02 -1.191406e-01 1.784668e-01
2.807773e-01 8.266357e-01 -1.653564e+00 2.471924e+00 6.512606e-03 3.829906e-02 -1.191406e-01 1.784668e-01
2.807773e-01 8.266357e-01 -1.653564e+00 2.471924e+00 6.512606e-03 3.829906e-02 -1.191406e-01 1.784668e-01
2.807773e-01 8.266357e-01 -1.653564e+00 2.471924e+00 6.512606e-03 3.829906e-02 -1.191406e-01 1.784668e-01
2.807773e-01 8.266357e-01 -1.653564e+00 2.471924e+00 6.512606e-03 3.829906e-02 -1.191406e-01 1.784668e-01
2.807773e-01 8.266357e-01 -1.653564e+00 2.471924e+00 6.512606e-03 3.829906e-02 -1.191406e-01 1.784668e-01
2.807773e-01 8.266357e-01 -1.653564e+00 2.471924e+00 6.512606e-03 3.829906e-02 -1.191406e-01 1.784668e-01
2.807773e-01 8.266357e-01 -1.653564e+00 2.471924e+00 6.512606e-03 3.829906e-02 -1.191406e-01 1.784668e-01
2.807773e-01 8.266357e-01 -1.653564e+00 2.471924e+00 6.512606e-03 3.829906e-02 -1.191406e-01 1.784668e-01
2.807773e-01 8.266357e-01 -1.653564e+00 2.471924e+00 6.512606e-03 3.829906e-02 -1.191406e-01 1.784668e-01
2.807773e-01 8.266357e-01 -1.653564e+00 2.471924e+00 6.512606e-03 3.829906e-02 -1.191406e-01 1.784668e-01
2.807773e-01 8.266357e-01 -1.653564e+00 2.471924e+00 6.512606e-03 3.829906e-02 -1.191406e-01 1.784668e-01
2.807773e-01 8.266357e-01 -1.653564e+00 2.471924e+00 6.512606e-03 3.829906e-02 -1.191406e-01 1.784668e-01
2.807773e-01 8.266357e-01 -1.653564e+00 2.471924e+00 6.512606e-03 3.829906e-02 -1.191406e-01 1.784668e-01
2.807773e-01 8.266357e-01 -1.653564e+00 2.471924e+00 6.512606e-03 3.829906e-02 -1.191406e-01 1.784668e-01
2.807773e-01 8.266357e-01 -1.653564e+00 2.471924e+00 6.512606e-03 3.829906e-02 -1.191406e-01 1.784668e-01
2.807773e-01 8.266357e-01 -1.653564e+00 2.471924e+00 6.512606e-03 3.829906e-02 -1.191406e-01 1.784668e-01
2.807773e-01 8.266357e-01 -1.653564e+00 2.471924e+00 6.512606e-03 3.829906e-02 -1.191406e-01 1.784668e-01
2.807773e-01 8.266357e-01 -1.653564e+00 2.471924e+00 6.512606e-03 3.829906e-02 -1.191406e-01 1.784668e-01
2.807773e-01 8.266357e-01 -1.653564e+00 2.471924e+00 6.512606e-03 3.829906e-02 -1.191406e-01 1.784668e-01
2.807773e-01 8.266357e-01 -1.653564e+00 2.471924e+00 6.512606e-03 3.829906e-02 -1.191406e-01 1.784668e-01
2.807773e-01 8.266357e-01 -1.653564e+00 2.471924e+00 6.512606e-03 3.829906e-02 -1.191406e-01 1.784668e-01
2.807773e-01 8.266357e-01 -1.653564e+00 2.471924e+00 6.512606e-03 3.829906e-02 -1.191406e-01 1.784668e-01
2.807773e-01 8.266357e-01 -1.653564e+00 2.471924e+00 6.512606e-03 3.829906e-02 -1.191406e-01 1.784668e-01
2.807773e-01 8.266357e-01 -1.653564e+00 2.471924e+00 6.512606e-03 3.829906e-02 -1.191406e-01 1.784668e-01
2.807773e-01 8.266357e-01 -1.653564e+00 2.471924e+00 6.512606e-03 3.829906e-02 -1.191406e-01 1.784668e-01
2.807773e-01 8.266357e-01 -1.653564e+00 2.471924e+00 6.512606e-03 3.829906e-02 -1.191406e-01 1.784668e-01
2.807773e-01 8.266357e-01 -1.653564e+00 2.471924e+00 6.512606e-03 3.829906e-02 -1.191406e-01 1.784668e-01
2.807773e-01 8.266357e-01 -1.653564e+00 2.471924e+00 6.512606e-03 3.829906e-02 -1.191406e-01 1.784668e-01
2.807773e-01 8.266357e-01 -1.653564e+00 2.471924e+00 6.512606e-03 3.829906e-02 -1.191406e-01 1.784668e-01
2.807773e-01 8.266357e-01 -1.653564e+00 2.471924e+00 6.512606e-03 3.829906e-02 -1.191406e-01 1.784668e-01
2.807773e-01 8.266357e-01 -1.653564e+00 2.471924e+00 6.512606e-03 3.829906e-02 -1.191406e-01 1.784668e-01
2.807773e-01 8.266357e-01 -1.653564e+00 2.471924e+00 6.512606e-03 3.829906e-02 -1.191406e-01 1.784668e-01
2.807773e-01 8.266357e-01 -1.653564e+00 2.471924e+00 6.512606e-03 3.829906e-02 -1.191406e-01 1.784668e-01
2.807773e-01 8.266357e-01 -1.653564e+00 2.471924e+00 6.512606e-03 3.829906e-02 -1.191406e-01 1.784668e-01
2.807773e-01 8.266357e-01 -1.653564e+00 2.471924e+00 6.512606e-03 3.829906e-02 -1.191406e-01 1.784668e-01
2.807773e-01 8.266357e-01 -1.653564e+00 2.471924e+00 6.512606e-03 3.829906e-02 -1.191406e-01 1.784668e-01
2.807773e-01 8.266357e-01 -1.653564e+00 2.471924e+00 6.512606e-03 3.829906e-02 -1.191406e-01 1.784668e-01
2.807773e-01 8.266357e-01 -1.653564e+00 2.471924e+00 6.512606e-03 3.829906e-02 -1.191406e-01 1.784668e-01
2.807773e-01 8.266357e-01 -1.653564e+00 2.471924e+00 6.512606e-03 3.829906e-02 -1.191406e-01 1.784668e-01
2.807773e-01 8.266357e-01 -1.653564e+00 2.471924e+00 6.512606e-03 3.829906e-02 -1.191406e-01 1.784668e-01
2.807773e-01 8.266357e-01 -1.653564e+00 2.471924e+00 6.512606e-03 3.829906e-02 -1.191406e-01 1.784668e-01
2.807773e-01 8.266357e-01 -1.653564e+00 2.471924e+00 6.512606e-03 3.829906e-02 -1.191406e-01 1.784668e-01
2.807773e-01 8.266357e-01 -1.653564e+00 2.471924e+00 6.512606e-03 3.829906e-02 -1.191406e-01 1.784668e-01
2.807773e-01 8.266357e-01 -1.653564e+00 2.471924e+00 6.512606e-03 3.829906e-02 -1.191406e-01 1.784668e-01
2.807773e-01 8.266357e-01 -1.653564e+00 2.471924e+00 6.512606e-03 3.829906e-02 -1.191406e-01 1.784668e-01
2.807773e-01 8.266357e-01 -1.653564e+00 2.471924e+00 6.512606e-03 3.829906e-02 -1.191406e-01 1.784668e-01
2.807773e-01 8.266357e-01 -1.653564e+00 2.471924e+00 6.512606e-03 3.829906e-02 -1.191406e-01 1.784668e-01
2.807773e-01 8.266357e-01 -1.653564e+00 2.471924e+00 6.512606e-03 3.829906e-02 -1.191406e-01 1.784668e-01
2.807773e-01 8.266357e-01 -1.653564e+00 2.471924e+00 6.512606e-03 3.829906e-02 -1.191406e-01 1.784668e-01
2.807773e-01 8.266357e-01 -1.653564e+00 2.471924e+00 6.512606e-03 3.829906e-02 -1.191406e-01 1.784668e-01
2.807773e-01 8.266357e-01 -1.653564e+00 2.471924e+00 6.512606e-03 3.829906e-02 -1.191406e-01 1.784668e-01
2.807773e-01 8.266357e-01 -1.653564e+00 2.471924e+00 6.512606e-03 3.829906e-02 -1.191406e-01 1.784668e-01
2.807773e-01 8.266357e-01 -1.653564e+00 2.471924e+00 6.512606e-03 3.829906e-02 -1.191406e-01 1.784668e-01
2.807773e-01 8.266357e-01 -1.653564e+00 2.471924e+00 6.512606e-03 3.829906e-02 -1.191406e-01 1.784668e-01
2.807773e-01 8.266357e-01 -1.653564e+00 2.471924e+00 6.512606e-03 3.829906e-02 -1.191406e-01 1.784668e-01
2.807773e-01 8.266357e-01 -1.653564e+00 2.471924e+00 6.512606e-03 3.829906e-02 -1.191406e-01 1.784668e-01
2.807773e-01 8.266357e-01 -1.653564e+00 2.471924e+00 6.512606e-03 3.829906e-02 -1.191406e-01 1.784668e-01
2.807773e-01 8.266357e-01 -1.653564e+00 2.471924e+00 6.512606e-03 3.829906e-02 -1.191406e-01 1.784668e-01
2.807773e-01 8.266357e-01 -1.653564e+00 2.471924e+00 6.512606e-03 3.829906e-02 -1.191406e-01 1.784668e-01
2.807773e-01 8.266357e-01 -1.653564e+00 2.471924e+00 6.512606e-03 3.829906e-02 -1.191406e-01 1.784668e-01
2.807773e-01 8.266357e-01 -1.653564e+00 2.471924e+00 6.512606e-03 3.829906e-02 -1.191406e-01 1.784668e-01
2.807773e-01 8.266357e-01 -1.653564e+00 2.471924e+00 6.512606e-03 3.829906e-02 -1.191406e-01 1.784668e-01
2.807773e-01 8.266357e-01 -1.653564e+00 2.471924e+00 6.512606e-03 3.829906e-02 -1.191406e-01 1.784668e-01
2.807773e-01 8.266357e-01 -1.653564e+00 2.471924e+00 6.512606e-03 3.829906e-02 -1.191406e-01 1.784668e-01
2.807773e-01 8.266357e-01 -1.653564e+00 2.471924e+00 6.512606e-03 3.829906e-02 -1.191406e-01 1.784668e-01
2.807773e-01 8.266357e-01 -1.653564e+00 2.471924e+00 6.512606e-03 3.829906e-02 -1.191406e-01 1.784668e-01
2.807773e-01 8.266357e-01 -1.653564e+00 2.471924e+00 6.512606e-03 3.829906e-02 -1.191406e-01 1.784668e-01
2.807773e-01 8.266357e-01 -1.653564e+00 2.471924e+00 6.512606e-03 3.829906e-02 -1.191406e-01 1.784668e-01
2.807773e-01 8.266357e-01 -1.653564e+00 2.471924e+00 6.512606e-03 3.829906e-02 -1.191406e-01 1.784668e-01
2.807773e-01 8.266357e-01 -1.653564e+00 2.471924e+00 6.512606e-03 3.829906e-02 -1.191406e-01 1.784668e-01
2.807773e-01 8.266357e-01 -1.653564e+00 2.471924e+00 6.512606e-03 3.829906e-02 -1.191406e-01 1.784668e-01
2.807773e-01 8.266357e-01 -1.653564e+00 2.471924e+00 6.512606e-03 3.829906e-02 -1.191406e-01 1.784668e-01
2.807773e-01 8.266357e-01 -1.653564e+00 2.471924e+00 6.512606e-03 3.829906e-02 -1.191406e-01 1.784668e-01
2.807773e-01 8.266357e-01 -1.653564e+00 2.471924e+00 6.512606e-03 3.829906e-02 -1.191406e-01 1.784668e-01
2.807773e-01 8.266357e-01 -1.653564e+00 2.471924e+00 6.512606e-03 3.829906e-02 -1.191406e-01 1.784668e-01
2.807773e-01 8.266357e-01 -1.653564e+00 2.471924e+00 6.512606e-03 3.829906e-02 -1.191406e-01 1.784668e-01
2.807773e-01 8.266357e-01 -1.653564e+00 2.471924e+00 6.512606e-03 3.829906e-02 -1.191406e-01 1.784668e-01
2.807773e-01 8.266357e-01 -1.653564e+00 2.471924e+00 6.512606e-03 3.829906e-02 -1.191406e-01 1.784668e-01
2.807773e-01 8.266357e-01 -1.653564e+00 2.471924e+00 6.512606e-03 3.829906e-02 -1.191406e-01 1.784668e-01
2.807773e-01 8.266357e-01 -1.653564e+00 2.471924e+00 6.512606e-03 3.829906e-02 -1.191406e-01 1.784668e-01
2.807773e-01 8.266357e-01 -1.653564e+00 2.471924e+00 6.512606e-03 3.829906e-02 -1.191406e-01 1.784668e-01
2.807773e-01 8.266357e-01 -1.653564e+00 2.471924e+00 6.512606e-03 3.829906e-02 -1.191406e-01 1.784668e-01
2.807773e-01 8.266357e-01 -1.653564e+00 2.471924e+00 6.512606e-03 3.829906e-02 -1.191406e-01 1.784668e-01
2.807773e-01 8.266357e-01 -1.653564e+00 2.471924e+00 6.512606e-03 3.829906e-02 -1.191406e-01 1.784668e-01
2.807773e-01 8.266357e-01 -1.653564e+00 2.471924e+00 6.512606e-03 3.829906e-02 -1.191406e-01 1.784668e-01
2.807773e-01 8.266357e-01 -1.653564e+00 2.471924e+00 6.512606e-03 3.829906e-02 -1.191406e-01 1.784668e-01
2.807773e-01 8.266357e-01 -1.653564e+00 2.471924e+00 6.512606e-03 3.829906e-02 -1.191406e-01 1.784668e-01
2.807773e-01 8.266357e-01 -1.653564e+00 2.471924e+00 6.512606e-03 3.829906e-02 -1.191406e-01 1.784668e-01
2.807773e-01 8.266357e-01 -1.653564e+00 2.471924e+00 6.512606e-03 3.829906e-02 -1.191406e-01 1.784668e-01
2.807773e-01 8.266357e-01 -1.653564e+00 2.471924e+00 6.512606e-03 3.829906e-02 -1.191406e-01 1.784668e-01
2.807773e-01 8.266357e-01 -1.653564e+00 2.471924e+00 6.512606e-03 3.829906e-02 -1.191406e-01 1.784668e-01
2.807773e-01 8.266357e-01 -1.653564e+00 2.471924e+00 6.512606e-03 3.829906e-02 -1.191406e-01 1.784668e-01
2.807773e-01 8.266357e-01 -1.653564e+00 2.471924e+00 6.512606e-03 3.829906e-02 -1.191406e-01 1.784668e-01
2.807773e-01 8.266357e-01 -1.653564e+00 2.471924e+00 6.512606e-03 3.829906e-02 -1.191406e-01 1.784668e-01
2.807773e-01 8.266357e-01 -1.653564e+00 2.471924e+00 6.512606e-03 3.829906e-02 -1.191406e-01 1.784668e-01
2.807773e-01 8.266357e-01 -1.653564e+00 2.471924e+00 6.512606e-03 3.829906e-02 -1.191406e-01 1.784668e-01
2.807773e-01 8.266357e-01 -1.653564e+00 2.471924e+00 6.512606e-03 3.829906e-02 -1.191406e-01 1.784668e-01
2.807773e-01 8.266357e-01 -1.653564e+00 2.471924e+00 6.512606e-03 3.829906e-02 -1.191406e-01 1.784668e-01
2.807773e-01 8.266357e-01 -1.653564e+00 2.471924e+00 6.512606e-03 3.829906e-02 -1.191406e-01 1.784668e-01
2.807773e-01 8.266357e-01 -1.653564e+00 2.471924e+00 6.512606e-03 3.829906e-02 -1.191406e-01 1.784668e-01
2.807773e-01 8.266357e-01 -1.653564e+00 2.471924e+00 6.512606e-03 3.829906e-02 -1.191406e-01 1.784668e-01
2.807773e-01 8.266357e-01 -1.653564e+00 2.471924e+00 6.512606e-03 3.829906e-02 -1.191406e-01 1.784668e-01
2.807773e-01 8.266357e-01 -1.653564e+00 2.471924e+00 6.512606e-03 3.829906e-02 -1.191406e-01 1.784668e-01
2.807773e-01 8.266357e-01 -1.653564e+00 2.471924e+00 6.512606e-03 3.829906e-02 -1.191406e-01 1.784668e-01
2.807773e-01 8.266357e-01 -1.653564e+00 2.471924e+00 6.512606e-03 3.829906e-02 -1.191406e-01 1.784668e-01
2.807773e-01 8.266357e-01 -1.653564e+00 2.471924e+00 6.512606e-03 3.829906e-02 -1.191406e-01 1.784668e-01
2.807773e-01 8.266357e-01 -1.653564e+00 2.471924e+00 6.512606e-03 3.829906e-02 -1.191406e-01 1.784668e-01
2.807773e-01 8.266357e-01 -1.653564e+00 2.471924e+00 6.512606e-03 3.829906e-02 -1.191406e-01 1.784668e-01
2.807773e-01 8.266357e-01 -1.653564e+00 2.471924e+00 6.512606e-03 3.829906e-02 -1.191406e-01 1.784668e-01
2.807773e-01 8.266357e-01 -1.653564e+00 2.471924e+00 6.512606e-03 3.829906e-02 -1.191406e-01 1.784668e-01
2.807773e-01 8.266357e-01 -1.653564e+00 2.471924e+00 6.512606e-03 3.829906e-02 -1.191406e-01 1.784668e-01
2.807773e-01 8.266357e-01 -1.653564e+00 2.471924e+00 6.512606e-03 3.829906e-02 -1.191406e-01 1.784668e-01
2.807773e-01 8.266357e-01 -1.653564e+00 2.471924e+00 6.512606e-03 3.829906e-02 -1.191406e-01 1.784668e-01
2.807773e-01 8.266357e-01 -1.653564e+00 2.471924e+00 6.512606e-03 3.829906e-02 -1.191406e-01 1.784668e-01
2.807773e-01 8.266357e-01 -1.653564e+00 2.471924e+00 6.512606e-03 3.829906e-02 -1.191406e-01 1.784668e-01
2.807773e-01 8.266357e-01 -1.653564e+00 2.471924e+00 6.512606e-03 3.829906e-02 -1.191406e-01 1.784668e-01
