3.293009e+04 8.972000e-01 -2.317250e-04 5.758392e-01 -9.999966e-01 9.999501e-01
1.377653e+03 1.042000e-01 -2.533375e-02 5.938624e-01 -4.034476e+00 3.020477e+00
1.131931e+03 8.690000e-02 -3.116457e-02 6.004790e-01 -3.346246e+00 2.854991e+00
1.365102e+03 9.770000e-02 -3.354706e-02 6.038169e-01 -3.752013e+00 2.790701e+00
9.327199e+02 7.290000e-02 -3.862175e-02 6.120820e-01 -4.227594e+00 2.898220e+00
9.077765e+02 7.050000e-02 -4.258810e-02 6.175453e-01 -4.705739e+00 3.227060e+00
8.514537e+02 6.770000e-02 -4.564047e-02 6.221810e-01 -5.036986e+00 3.114236e+00
8.622251e+02 6.890000e-02 -4.752521e-02 6.256138e-01 -5.313706e+00 3.097364e+00
9.129556e+02 7.010000e-02 -5.021638e-02 6.295373e-01 -5.510935e+00 3.182776e+00
9.786356e+02 7.040000e-02 -5.392769e-02 6.393724e-01 -5.685778e+00 3.225484e+00
9.164920e+02 6.790000e-02 -5.865607e-02 6.524442e-01 -6.135719e+00 3.583330e+00
8.254018e+02 5.920000e-02 -6.211786e-02 6.619856e-01 -6.359682e+00 3.817169e+00
7.327752e+02 5.740000e-02 -6.432991e-02 6.663772e-01 -6.437565e+00 4.019905e+00
8.119960e+02 6.130000e-02 -6.536125e-02 6.712671e-01 -6.536765e+00 4.101562e+00
7.491063e+02 5.860000e-02 -6.688637e-02 6.747308e-01 -6.507134e+00 4.263960e+00
7.415087e+02 5.910000e-02 -6.782750e-02 6.775049e-01 -6.738497e+00 4.574846e+00
7.288463e+02 5.640000e-02 -6.882882e-02 6.827028e-01 -6.782295e+00 4.610079e+00
7.034905e+02 5.550000e-02 -7.041831e-02 6.873619e-01 -6.868327e+00 4.772791e+00
6.931884e+02 5.620000e-02 -7.110904e-02 6.916127e-01 -7.023306e+00 4.957265e+00
6.831354e+02 5.310000e-02 -7.239611e-02 6.950721e-01 -7.148831e+00 5.041043e+00
7.336304e+02 5.860000e-02 -7.305729e-02 6.977652e-01 -7.233579e+00 5.116734e+00
7.008602e+02 5.670000e-02 -7.325257e-02 7.003295e-01 -7.371619e+00 5.279111e+00
7.018151e+02 5.540000e-02 -7.436397e-02 7.033665e-01 -7.474952e+00 5.300668e+00
6.924045e+02 5.410000e-02 -7.484678e-02 7.059994e-01 -7.556332e+00 5.425927e+00
6.913682e+02 5.380000e-02 -7.526743e-02 7.080424e-01 -7.604338e+00 5.553496e+00
