3.487092e-01 1.373371e+00 -4.015625e+00 5.046875e+00 8.447724e-04 1.666757e-02 -1.445312e-01 1.796875e-01
2.015056e-01 1.391633e+00 -4.679688e+00 5.148438e+00 1.445557e-04 1.493254e-02 -1.406250e-01 1.523438e-01
2.056980e-02 1.791460e+00 -6.148438e+00 5.199219e+00 -1.155835e-04 1.557868e-02 -2.031250e-01 1.875000e-01
4.641644e-02 1.807397e+00 -6.355469e+00 5.140625e+00 -7.659314e-06 1.510187e-02 -1.914062e-01 1.835938e-01
4.373726e-02 1.783712e+00 -6.425781e+00 5.093750e+00 6.271757e-06 1.530848e-02 -2.031250e-01 1.875000e-01
4.931471e-02 1.774326e+00 -6.421875e+00 5.050781e+00 -2.553105e-06 1.553163e-02 -1.914062e-01 1.835938e-01
1.202582e-01 1.774826e+00 -6.449219e+00 4.882812e+00 7.623237e-05 1.650352e-02 -2.031250e-01 1.953125e-01
1.211099e-01 1.776790e+00 -6.496094e+00 4.894531e+00 5.741710e-05 1.631438e-02 -2.031250e-01 1.953125e-01
6.606573e-02 1.763689e+00 -6.941406e+00 4.761719e+00 4.232048e-05 1.585771e-02 -2.031250e-01 1.914062e-01
1.397503e-02 1.763471e+00 -6.804688e+00 4.671875e+00 1.004591e-05 1.605228e-02 -1.992188e-01 2.031250e-01
-1.656675e-02 1.799371e+00 -7.183594e+00 4.828125e+00 3.391189e-05 1.576754e-02 -2.031250e-01 1.953125e-01
-6.372452e-02 1.773598e+00 -7.078125e+00 4.875000e+00 -7.132042e-06 1.523341e-02 -1.953125e-01 1.875000e-01
-6.550187e-02 1.788957e+00 -7.074219e+00 4.835938e+00 -2.525353e-06 1.529087e-02 -2.031250e-01 1.914062e-01
-5.687245e-02 1.778746e+00 -6.996094e+00 4.832031e+00 2.045259e-05 1.552644e-02 -2.031250e-01 1.914062e-01
-5.990829e-02 1.795912e+00 -7.265625e+00 4.859375e+00 -2.220091e-06 1.538750e-02 -2.031250e-01 1.914062e-01
-6.602412e-02 1.794056e+00 -7.109375e+00 4.890625e+00 -1.989757e-05 1.529012e-02 -2.031250e-01 1.875000e-01
-4.361668e-02 1.779424e+00 -6.863281e+00 4.855469e+00 2.500377e-05 1.555584e-02 -1.953125e-01 1.875000e-01
-4.599440e-02 1.807660e+00 -7.175781e+00 4.914062e+00 5.225539e-05 1.569540e-02 -2.031250e-01 1.914062e-01
-6.669243e-02 1.809297e+00 -7.230469e+00 4.867188e+00 9.490889e-06 1.538997e-02 -2.031250e-01 1.875000e-01
-7.555537e-02 1.806812e+00 -7.238281e+00 4.902344e+00 2.220091e-07 1.537084e-02 -1.953125e-01 1.875000e-01
-8.661515e-02 1.795487e+00 -7.167969e+00 4.835938e+00 4.190422e-06 1.538940e-02 -2.031250e-01 1.875000e-01
-7.663213e-02 1.819258e+00 -7.238281e+00 4.925781e+00 2.569755e-05 1.552714e-02 -2.031250e-01 1.953125e-01
-4.338825e-02 1.817202e+00 -6.644531e+00 4.851562e+00 7.118167e-05 1.626020e-02 -1.953125e-01 2.031250e-01
-9.505435e-02 1.846413e+00 -7.191406e+00 4.964844e+00 2.805640e-05 1.598673e-02 -2.070312e-01 1.992188e-01
-1.103227e-01 1.849365e+00 -6.902344e+00 5.109375e+00 5.014630e-05 1.583558e-02 -2.070312e-01 1.992188e-01
-1.270797e-01 1.878221e+00 -7.195312e+00 5.109375e+00 3.813006e-05 1.579708e-02 -2.031250e-01 1.953125e-01
-1.394370e-01 1.860796e+00 -7.093750e+00 5.039062e+00 1.159998e-05 1.569292e-02 -2.031250e-01 1.953125e-01
-1.800994e-01 1.887783e+00 -7.433594e+00 5.097656e+00 -8.575101e-06 1.566791e-02 -2.031250e-01 2.031250e-01
-1.765090e-01 1.892149e+00 -7.359375e+00 5.082031e+00 1.648418e-05 1.582078e-02 -2.031250e-01 2.031250e-01
-1.509876e-01 1.887244e+00 -7.253906e+00 5.066406e+00 3.105352e-05 1.572783e-02 -2.031250e-01 1.992188e-01
-1.578397e-01 1.898132e+00 -7.410156e+00 5.066406e+00 1.542963e-05 1.577064e-02 -2.031250e-01 2.070312e-01
-1.676359e-01 1.900062e+00 -7.265625e+00 5.121094e+00 1.320954e-05 1.586932e-02 -2.031250e-01 2.148438e-01
-1.569506e-01 1.921965e+00 -7.375000e+00 5.234375e+00 3.577122e-05 1.624713e-02 -2.031250e-01 2.070312e-01
-1.344778e-01 1.899287e+00 -7.128906e+00 5.140625e+00 2.261718e-05 1.597061e-02 -2.031250e-01 2.148438e-01
-1.070797e-01 1.920598e+00 -7.117188e+00 5.359375e+00 6.199604e-05 1.582949e-02 -2.031250e-01 2.031250e-01
-1.123684e-01 1.912679e+00 -6.984375e+00 5.328125e+00 3.024874e-05 1.582475e-02 -2.031250e-01 1.992188e-01
-1.142111e-01 1.915546e+00 -7.113281e+00 5.371094e+00 3.091477e-05 1.581583e-02 -2.031250e-01 1.992188e-01
-1.062288e-01 1.925481e+00 -6.746094e+00 5.429688e+00 5.575203e-05 1.596560e-02 -2.031250e-01 2.148438e-01
-8.962126e-02 1.934742e+00 -6.910156e+00 5.480469e+00 6.060848e-05 1.609470e-02 -2.031250e-01 2.031250e-01
-1.328915e-01 1.935837e+00 -7.070312e+00 5.492188e+00 -2.186790e-05 1.583712e-02 -2.031250e-01 2.031250e-01
-1.662551e-01 1.934932e+00 -7.445312e+00 5.492188e+00 -4.911951e-05 1.540371e-02 -2.031250e-01 2.031250e-01
-1.609817e-01 1.940927e+00 -7.406250e+00 5.488281e+00 -5.772236e-06 1.563241e-02 -2.031250e-01 2.148438e-01
-1.689156e-01 1.943789e+00 -7.300781e+00 5.433594e+00 -6.008121e-05 1.585696e-02 -2.031250e-01 2.070312e-01
-1.280936e-01 1.941518e+00 -7.296875e+00 5.445312e+00 8.131083e-05 1.640712e-02 -2.031250e-01 2.109375e-01
-1.338315e-01 1.958638e+00 -7.085938e+00 5.468750e+00 3.951762e-05 1.605680e-02 -2.031250e-01 2.070312e-01
-1.460360e-01 1.957995e+00 -7.113281e+00 5.476562e+00 8.575101e-06 1.597875e-02 -2.031250e-01 2.109375e-01
-1.785088e-01 1.998809e+00 -7.265625e+00 5.531250e+00 8.963617e-06 1.591354e-02 -2.031250e-01 1.992188e-01
-1.521629e-01 1.994610e+00 -7.269531e+00 5.511719e+00 4.687167e-05 1.605638e-02 -2.031250e-01 2.148438e-01
-1.563944e-01 2.002562e+00 -7.308594e+00 5.574219e+00 1.723346e-05 1.599055e-02 -2.031250e-01 2.109375e-01
-1.706810e-01 2.013459e+00 -7.507812e+00 5.582031e+00 4.445732e-05 1.593352e-02 -2.031250e-01 2.070312e-01
-2.010929e-01 2.024172e+00 -7.750000e+00 5.636719e+00 2.142388e-05 1.580714e-02 -2.031250e-01 2.109375e-01
-1.942714e-01 2.017651e+00 -7.566406e+00 5.617188e+00 1.662293e-05 1.587676e-02 -2.031250e-01 2.148438e-01
-1.513978e-01 2.091715e+00 -8.093750e+00 5.835938e+00 1.241031e-04 1.608477e-02 -2.031250e-01 2.070312e-01
-1.830290e-01 2.128173e+00 -8.246094e+00 5.847656e+00 5.708409e-05 1.597782e-02 -2.031250e-01 2.148438e-01
-1.984604e-01 2.141695e+00 -8.320312e+00 5.933594e+00 5.833289e-05 1.582733e-02 -2.031250e-01 2.304688e-01
-2.597164e-01 2.200611e+00 -8.808594e+00 5.910156e+00 3.463342e-05 1.640439e-02 -2.070312e-01 2.539062e-01
-2.743393e-01 2.181431e+00 -8.523438e+00 5.972656e+00 9.951558e-05 1.602134e-02 -2.031250e-01 2.382812e-01
-3.019081e-01 2.191891e+00 -8.761719e+00 5.992188e+00 -1.051768e-05 1.544544e-02 -2.031250e-01 2.265625e-01
-2.708280e-01 2.187675e+00 -8.656250e+00 6.007812e+00 4.717693e-06 1.583671e-02 -1.953125e-01 2.343750e-01
-2.816109e-01 2.193859e+00 -8.640625e+00 6.054688e+00 3.271859e-05 1.554239e-02 -2.031250e-01 2.343750e-01
-2.893860e-01 2.204730e+00 -8.796875e+00 6.078125e+00 3.829657e-05 1.556099e-02 -2.031250e-01 2.265625e-01
-2.761821e-01 2.192220e+00 -8.460938e+00 6.039062e+00 -1.110045e-06 1.566931e-02 -2.031250e-01 2.304688e-01
-2.630494e-01 2.199268e+00 -8.519531e+00 6.097656e+00 2.109086e-05 1.581085e-02 -2.031250e-01 2.304688e-01
-2.792315e-01 2.205886e+00 -8.609375e+00 6.128906e+00 -1.609566e-06 1.579668e-02 -2.031250e-01 2.304688e-01
-3.050900e-01 2.214328e+00 -8.636719e+00 6.113281e+00 -1.806599e-05 1.571025e-02 -2.031250e-01 2.304688e-01
-2.928864e-01 2.210597e+00 -8.726562e+00 6.148438e+00 -2.952721e-05 1.562888e-02 -2.031250e-01 2.382812e-01
-2.377267e-01 2.224675e+00 -8.105469e+00 6.207031e+00 1.464150e-04 1.693694e-02 -2.070312e-01 2.304688e-01
-2.991067e-01 2.236345e+00 -8.542969e+00 6.156250e+00 5.902667e-05 1.759491e-02 -2.031250e-01 2.500000e-01
-3.321671e-01 2.285532e+00 -8.878906e+00 6.292969e+00 1.150007e-04 1.668543e-02 -2.031250e-01 2.460938e-01
-3.368037e-01 2.278203e+00 -8.843750e+00 6.316406e+00 5.855490e-05 1.609855e-02 -2.031250e-01 2.460938e-01
-3.454203e-01 2.283912e+00 -9.050781e+00 6.289062e+00 2.525353e-05 1.595227e-02 -2.031250e-01 2.187500e-01
-3.561557e-01 2.285040e+00 -9.191406e+00 6.332031e+00 -7.631563e-06 1.583006e-02 -2.031250e-01 2.265625e-01
-3.700059e-01 2.300587e+00 -9.164062e+00 6.375000e+00 3.926786e-05 1.571596e-02 -2.031250e-01 2.031250e-01
-3.982736e-01 2.293572e+00 -9.234375e+00 6.371094e+00 -1.745546e-05 1.562286e-02 -2.031250e-01 2.109375e-01
-4.212789e-01 2.312429e+00 -8.710938e+00 6.437500e+00 -5.564103e-05 1.627045e-02 -2.148438e-01 2.187500e-01
-3.813460e-01 2.339841e+00 -8.953125e+00 6.503906e+00 6.749076e-05 1.645841e-02 -2.031250e-01 2.617188e-01
-3.939411e-01 2.337037e+00 -8.886719e+00 6.496094e+00 2.214541e-05 1.589667e-02 -2.031250e-01 2.265625e-01
-4.047784e-01 2.344622e+00 -8.859375e+00 6.769531e+00 3.560471e-05 1.612817e-02 -2.031250e-01 2.304688e-01
-4.001596e-01 2.410189e+00 -8.933594e+00 6.941406e+00 5.350419e-05 1.620935e-02 -2.031250e-01 2.460938e-01
-4.193979e-01 2.464234e+00 -8.984375e+00 7.046875e+00 1.011529e-04 1.558306e-02 -2.031250e-01 2.343750e-01
-4.483169e-01 2.474856e+00 -8.964844e+00 7.019531e+00 3.374538e-05 1.539830e-02 -2.031250e-01 2.382812e-01
-4.606046e-01 2.478824e+00 -8.730469e+00 7.019531e+00 9.235578e-05 1.580528e-02 -2.031250e-01 2.304688e-01
-4.809672e-01 2.475234e+00 -8.796875e+00 6.968750e+00 3.962862e-05 1.569381e-02 -2.031250e-01 2.382812e-01
-4.913052e-01 2.478616e+00 -8.871094e+00 6.988281e+00 5.267166e-05 1.571663e-02 -2.070312e-01 2.382812e-01
-4.392638e-01 2.473579e+00 -8.750000e+00 6.992188e+00 6.268982e-05 1.563548e-02 -2.031250e-01 2.343750e-01
-4.042595e-01 2.477253e+00 -8.792969e+00 6.886719e+00 1.774685e-04 1.599193e-02 -2.070312e-01 2.187500e-01
-4.810139e-01 2.491433e+00 -9.339844e+00 6.976562e+00 4.906401e-05 1.593224e-02 -2.070312e-01 2.265625e-01
-5.420491e-01 2.520122e+00 -9.156250e+00 7.003906e+00 -1.284878e-05 1.559706e-02 -1.953125e-01 2.265625e-01
-5.513349e-01 2.525788e+00 -9.265625e+00 6.996094e+00 1.373681e-05 1.548020e-02 -2.031250e-01 2.382812e-01
-4.482430e-01 2.466064e+00 -8.718750e+00 6.972656e+00 1.728618e-04 1.652698e-02 -2.031250e-01 2.382812e-01
-4.909672e-01 2.460097e+00 -8.953125e+00 6.957031e+00 1.145012e-04 1.641343e-02 -2.031250e-01 2.578125e-01
-5.429102e-01 2.487892e+00 -9.601562e+00 7.027344e+00 1.042888e-04 1.602404e-02 -2.031250e-01 2.539062e-01
-6.318699e-01 2.546111e+00 -9.800781e+00 7.113281e+00 -3.660375e-05 1.614802e-02 -2.031250e-01 2.656250e-01
-6.327276e-01 2.560946e+00 -9.859375e+00 7.136719e+00 -1.665068e-05 1.612415e-02 -2.070312e-01 2.578125e-01
-6.337084e-01 2.568274e+00 -9.664062e+00 7.214844e+00 4.642765e-05 1.633834e-02 -2.070312e-01 2.617188e-01
-6.683551e-01 2.563125e+00 -9.703125e+00 7.152344e+00 -2.064685e-05 1.595508e-02 -2.031250e-01 2.617188e-01
-6.300917e-01 2.574227e+00 -9.597656e+00 7.222656e+00 3.019324e-05 1.602157e-02 -2.109375e-01 2.539062e-01
-5.582116e-01 2.613648e+00 -9.062500e+00 7.718750e+00 1.420858e-04 1.680879e-02 -2.187500e-01 2.460938e-01
-6.099338e-01 2.639136e+00 -8.925781e+00 7.707031e+00 7.617687e-05 1.718262e-02 -2.031250e-01 2.656250e-01
-6.489198e-01 2.655218e+00 -9.164062e+00 7.726562e+00 4.082192e-05 1.653962e-02 -2.070312e-01 2.500000e-01
-6.448905e-01 2.625357e+00 -9.042969e+00 7.613281e+00 1.138629e-04 1.649462e-02 -2.148438e-01 2.421875e-01
-6.828906e-01 2.635610e+00 -9.183594e+00 7.531250e+00 1.312629e-05 1.601342e-02 -1.953125e-01 2.421875e-01
-7.061651e-01 2.645626e+00 -9.550781e+00 7.425781e+00 5.827739e-05 1.571438e-02 -2.031250e-01 2.382812e-01
-7.200518e-01 2.636282e+00 -9.500000e+00 7.425781e+00 4.384680e-05 1.620718e-02 -2.148438e-01 2.343750e-01
-7.361294e-01 2.647791e+00 -9.328125e+00 7.425781e+00 5.003530e-05 1.649776e-02 -2.187500e-01 2.460938e-01
-7.775340e-01 2.655064e+00 -9.636719e+00 7.347656e+00 -5.325443e-05 1.625330e-02 -2.031250e-01 2.421875e-01
-8.073888e-01 2.679998e+00 -9.773438e+00 7.402344e+00 -1.171098e-05 1.622157e-02 -2.148438e-01 2.187500e-01
-8.161107e-01 2.700758e+00 -9.863281e+00 7.554688e+00 -3.169180e-05 1.632638e-02 -2.226562e-01 2.109375e-01
-7.902267e-01 2.699117e+00 -9.718750e+00 7.625000e+00 -6.815679e-05 1.622550e-02 -2.226562e-01 2.421875e-01
-7.874066e-01 2.706872e+00 -9.800781e+00 7.625000e+00 2.297794e-05 1.620064e-02 -2.226562e-01 2.148438e-01
-8.204212e-01 2.714143e+00 -9.785156e+00 7.605469e+00 -7.173669e-05 1.631402e-02 -2.109375e-01 2.226562e-01
-8.017561e-01 2.722190e+00 -9.906250e+00 7.652344e+00 7.770318e-05 1.645973e-02 -2.226562e-01 2.031250e-01
-8.103261e-01 2.711886e+00 -9.703125e+00 7.609375e+00 -9.008019e-05 1.672840e-02 -2.109375e-01 2.539062e-01
-7.924941e-01 2.714863e+00 -9.835938e+00 7.687500e+00 1.920379e-05 1.626964e-02 -2.187500e-01 2.226562e-01
-7.906292e-01 2.701264e+00 -9.792969e+00 7.652344e+00 1.032342e-05 1.630986e-02 -2.304688e-01 2.421875e-01
-8.008738e-01 2.702001e+00 -9.890625e+00 7.570312e+00 -3.099802e-05 1.648443e-02 -2.148438e-01 2.226562e-01
-7.479059e-01 2.707061e+00 -9.867188e+00 7.566406e+00 4.467933e-05 1.639617e-02 -2.460938e-01 2.421875e-01
-7.166211e-01 2.726765e+00 -9.710938e+00 7.796875e+00 1.590695e-04 1.625951e-02 -2.382812e-01 2.421875e-01
-7.889164e-01 2.751737e+00 -9.933594e+00 7.789062e+00 -4.567837e-05 1.674339e-02 -2.343750e-01 2.578125e-01
-7.844268e-01 2.750519e+00 -1.007812e+01 7.738281e+00 1.156390e-04 1.663240e-02 -2.539062e-01 2.421875e-01
-8.196196e-01 2.762552e+00 -1.017969e+01 7.750000e+00 5.208888e-05 1.690871e-02 -2.500000e-01 2.421875e-01
-8.258432e-01 2.761979e+00 -1.001953e+01 7.847656e+00 8.733283e-05 1.648103e-02 -2.578125e-01 2.421875e-01
-8.410912e-01 2.759703e+00 -9.988281e+00 7.812500e+00 -1.559614e-05 1.642764e-02 -2.382812e-01 2.421875e-01
-8.411396e-01 2.753324e+00 -9.968750e+00 7.800781e+00 5.253290e-05 1.649857e-02 -2.265625e-01 2.421875e-01
-8.894905e-01 2.769141e+00 -1.035547e+01 7.812500e+00 -8.039504e-05 1.630200e-02 -2.226562e-01 2.226562e-01
-8.942069e-01 2.839548e+00 -1.052734e+01 8.683594e+00 -5.425347e-05 1.683111e-02 -2.304688e-01 2.695312e-01
-8.940430e-01 2.828505e+00 -1.022656e+01 8.640625e+00 -5.042382e-05 1.687147e-02 -2.460938e-01 2.578125e-01
-8.771883e-01 2.816753e+00 -1.034766e+01 8.488281e+00 -5.661232e-05 1.661239e-02 -2.421875e-01 2.539062e-01
-8.655027e-01 2.793327e+00 -1.040234e+01 8.406250e+00 5.447548e-05 1.651485e-02 -2.382812e-01 2.421875e-01
-8.632583e-01 2.778190e+00 -1.026562e+01 8.343750e+00 -5.525251e-05 1.649457e-02 -2.187500e-01 2.500000e-01
-8.415124e-01 2.779369e+00 -1.029297e+01 8.324219e+00 -4.770420e-05 1.671256e-02 -2.460938e-01 2.578125e-01
-8.409112e-01 2.795027e+00 -1.008984e+01 8.359375e+00 1.012361e-04 1.662224e-02 -2.500000e-01 2.421875e-01
-8.550068e-01 2.794124e+00 -1.024219e+01 8.339844e+00 -1.556839e-05 1.631360e-02 -2.500000e-01 2.421875e-01
-8.524822e-01 2.799619e+00 -1.018750e+01 8.375000e+00 2.916644e-05 1.648626e-02 -2.500000e-01 2.421875e-01
-8.439003e-01 2.810030e+00 -1.017188e+01 8.468750e+00 7.317975e-05 1.647502e-02 -2.617188e-01 2.421875e-01
-8.496221e-01 2.823450e+00 -1.022266e+01 8.554688e+00 -4.429081e-05 1.679527e-02 -2.460938e-01 2.226562e-01
-8.273497e-01 2.830673e+00 -1.045703e+01 8.492188e+00 2.117134e-04 1.701575e-02 -2.500000e-01 2.109375e-01
-7.827675e-01 2.822791e+00 -1.016406e+01 8.625000e+00 1.298198e-04 1.642421e-02 -2.304688e-01 2.343750e-01
-8.149049e-01 2.837912e+00 -9.882812e+00 8.667969e+00 1.733891e-04 1.678799e-02 -2.500000e-01 2.382812e-01
-8.373590e-01 2.831548e+00 -9.886719e+00 8.546875e+00 -1.248801e-05 1.697431e-02 -2.265625e-01 2.265625e-01
-8.452964e-01 2.854189e+00 -1.020312e+01 8.542969e+00 2.092436e-04 1.675116e-02 -2.656250e-01 2.031250e-01
-9.114224e-01 2.869697e+00 -1.054297e+01 8.414062e+00 -6.957210e-05 1.646542e-02 -2.460938e-01 2.187500e-01
-9.109163e-01 2.890899e+00 -1.051562e+01 8.660156e+00 5.070133e-05 1.645671e-02 -2.656250e-01 2.148438e-01
-9.213799e-01 2.912346e+00 -1.094531e+01 8.582031e+00 -6.188503e-06 1.631827e-02 -2.460938e-01 2.265625e-01
-9.123590e-01 2.893759e+00 -1.095312e+01 8.417969e+00 8.267064e-05 1.672336e-02 -2.578125e-01 2.265625e-01
-9.094845e-01 2.861659e+00 -1.072266e+01 8.316406e+00 4.662191e-06 1.705004e-02 -2.695312e-01 2.382812e-01
-9.247877e-01 2.935424e+00 -1.084766e+01 8.761719e+00 2.644683e-05 1.659395e-02 -2.656250e-01 2.109375e-01
-9.406632e-01 2.980037e+00 -1.090234e+01 8.769531e+00 4.356928e-06 1.652621e-02 -2.617188e-01 2.109375e-01
-9.602446e-01 2.996823e+00 -1.090234e+01 8.871094e+00 -5.497500e-05 1.641248e-02 -2.617188e-01 2.070312e-01
-9.400849e-01 2.981909e+00 -1.083594e+01 8.804688e+00 7.767543e-05 1.677816e-02 -2.695312e-01 2.187500e-01
-8.848319e-01 2.977357e+00 -1.075391e+01 8.734375e+00 6.721325e-05 1.728629e-02 -2.695312e-01 2.226562e-01
-8.295550e-01 2.998529e+00 -1.051953e+01 8.667969e+00 1.188304e-04 1.684767e-02 -2.460938e-01 2.421875e-01
-9.172325e-01 3.028292e+00 -1.075000e+01 8.722656e+00 1.092562e-04 1.704744e-02 -2.812500e-01 2.343750e-01
-9.399677e-01 3.023247e+00 -1.088672e+01 8.726562e+00 5.361520e-05 1.674565e-02 -2.812500e-01 2.343750e-01
-9.305910e-01 3.034307e+00 -1.087891e+01 8.820312e+00 1.203289e-04 1.659167e-02 -2.812500e-01 2.109375e-01
-9.235691e-01 3.024905e+00 -1.073438e+01 8.765625e+00 8.422470e-05 1.668738e-02 -2.734375e-01 2.265625e-01
-9.310190e-01 3.028958e+00 -1.071094e+01 8.812500e+00 -1.695594e-05 1.672473e-02 -2.695312e-01 2.343750e-01
-9.157609e-01 3.041788e+00 -1.069922e+01 8.976562e+00 1.247969e-04 1.683820e-02 -2.734375e-01 2.343750e-01
-1.066995e+00 3.026547e+00 -1.104688e+01 8.816406e+00 -1.003759e-04 1.670739e-02 -2.929688e-01 2.382812e-01
-1.071934e+00 3.029826e+00 -1.107031e+01 8.667969e+00 -3.446691e-05 1.652548e-02 -2.773438e-01 2.460938e-01
-9.941109e-01 3.068144e+00 -1.098828e+01 8.933594e+00 -7.104291e-06 1.679466e-02 -2.734375e-01 2.148438e-01
-9.925314e-01 3.075069e+00 -1.103125e+01 8.980469e+00 5.322668e-05 1.631027e-02 -2.773438e-01 2.226562e-01
-1.068578e+00 3.067426e+00 -1.110156e+01 8.968750e+00 -1.274610e-04 1.656598e-02 -2.656250e-01 2.265625e-01
-9.869141e-01 3.094255e+00 -1.077734e+01 9.125000e+00 -4.828698e-06 1.709458e-02 -2.695312e-01 2.382812e-01
-9.071790e-01 3.101449e+00 -1.074609e+01 9.316406e+00 2.319162e-04 1.715813e-02 -2.773438e-01 2.187500e-01
-9.477259e-01 3.102520e+00 -1.076562e+01 9.207031e+00 1.028457e-04 1.715795e-02 -2.734375e-01 2.187500e-01
-9.593903e-01 3.096603e+00 -1.090625e+01 9.046875e+00 7.556635e-05 1.658215e-02 -2.734375e-01 2.070312e-01
-1.064630e+00 3.133368e+00 -1.129297e+01 9.175781e+00 -8.602852e-07 1.672986e-02 -2.773438e-01 2.109375e-01
-9.988672e-01 3.171568e+00 -1.118750e+01 9.613281e+00 -6.021997e-06 1.707161e-02 -2.929688e-01 2.187500e-01
-8.081598e-01 3.188008e+00 -1.093359e+01 9.578125e+00 3.574346e-04 1.777221e-02 -3.085938e-01 2.460938e-01
-9.017952e-01 3.214467e+00 -1.136719e+01 9.503906e+00 2.300292e-04 1.739247e-02 -2.968750e-01 2.304688e-01
-9.742595e-01 3.221218e+00 -1.136719e+01 9.535156e+00 6.521517e-06 1.672353e-02 -2.890625e-01 2.304688e-01
-9.879034e-01 3.227263e+00 -1.139453e+01 9.597656e+00 1.085902e-04 1.660065e-02 -2.890625e-01 2.304688e-01
-1.003518e+00 3.215790e+00 -1.127344e+01 9.531250e+00 -3.532720e-05 1.667994e-02 -2.812500e-01 2.343750e-01
-9.966406e-01 3.213936e+00 -1.152344e+01 9.453125e+00 9.796151e-06 1.658570e-02 -2.851562e-01 2.226562e-01
-1.025021e+00 3.218545e+00 -1.140625e+01 9.558594e+00 -3.405064e-05 1.720353e-02 -2.851562e-01 2.265625e-01
-1.033056e+00 3.224892e+00 -1.147656e+01 9.558594e+00 4.273675e-06 1.666872e-02 -2.851562e-01 2.265625e-01
-1.035932e+00 3.244436e+00 -1.145312e+01 9.578125e+00 5.170037e-05 1.687530e-02 -2.929688e-01 2.070312e-01
-1.034377e+00 3.251592e+00 -1.147656e+01 9.468750e+00 -1.411978e-04 1.727415e-02 -2.851562e-01 2.656250e-01
-1.005878e+00 3.259083e+00 -1.133984e+01 9.695312e+00 8.092231e-05 1.689163e-02 -2.890625e-01 2.031250e-01
-1.016223e+00 3.273726e+00 -1.140625e+01 9.722656e+00 -1.315404e-05 1.668624e-02 -2.968750e-01 2.148438e-01
-1.003222e+00 3.254713e+00 -1.142188e+01 9.664062e+00 9.823902e-06 1.664118e-02 -2.890625e-01 2.070312e-01
-1.015681e+00 3.255135e+00 -1.141016e+01 9.460938e+00 3.524394e-05 1.669798e-02 -3.046875e-01 2.148438e-01
-1.021501e+00 3.268344e+00 -1.143750e+01 9.546875e+00 2.292244e-05 1.652254e-02 -2.890625e-01 2.070312e-01
-1.030624e+00 3.280791e+00 -1.141406e+01 9.593750e+00 -9.352133e-06 1.656917e-02 -2.890625e-01 2.109375e-01
-1.068139e+00 3.339110e+00 -1.194141e+01 9.847656e+00 6.932234e-05 1.687383e-02 -2.890625e-01 2.070312e-01
-1.082620e+00 3.342837e+00 -1.158984e+01 9.734375e+00 -1.631767e-05 1.692993e-02 -2.929688e-01 2.109375e-01
-1.102962e+00 3.339482e+00 -1.166406e+01 9.675781e+00 -3.130328e-05 1.705432e-02 -2.929688e-01 2.109375e-01
-1.050961e+00 3.345708e+00 -1.180859e+01 9.964844e+00 8.111657e-05 1.669219e-02 -2.890625e-01 2.031250e-01
-1.045915e+00 3.387976e+00 -1.165625e+01 9.945312e+00 5.289367e-05 1.698801e-02 -2.890625e-01 2.109375e-01
-1.041472e+00 3.360103e+00 -1.144531e+01 9.945312e+00 -3.396739e-05 1.690341e-02 -2.968750e-01 2.226562e-01
-1.036785e+00 3.363656e+00 -1.166797e+01 9.871094e+00 1.569049e-04 1.704040e-02 -2.890625e-01 2.109375e-01
-1.043941e+00 3.367779e+00 -1.175000e+01 9.781250e+00 1.040390e-04 1.672938e-02 -2.929688e-01 2.109375e-01
-1.176653e+00 3.404084e+00 -1.224609e+01 9.781250e+00 -7.190320e-05 1.658977e-02 -2.656250e-01 2.070312e-01
-1.129873e+00 3.418853e+00 -1.207812e+01 9.789062e+00 -1.659518e-05 1.652213e-02 -2.890625e-01 2.070312e-01
-1.117210e+00 3.416211e+00 -1.220312e+01 9.804688e+00 -6.843430e-05 1.651804e-02 -2.929688e-01 2.031250e-01
-1.095850e+00 3.425819e+00 -1.214844e+01 9.933594e+00 -2.708511e-05 1.631359e-02 -2.890625e-01 1.992188e-01
-1.110329e+00 3.455839e+00 -1.189453e+01 9.902344e+00 -5.528026e-05 1.732863e-02 -2.890625e-01 2.148438e-01
-1.192148e+00 3.522394e+00 -1.207422e+01 1.050000e+01 -1.229375e-05 1.703921e-02 -2.929688e-01 2.187500e-01
-1.195294e+00 3.515429e+00 -1.254297e+01 1.051953e+01 -1.628992e-05 1.648887e-02 -2.812500e-01 2.070312e-01
-1.202984e+00 3.495353e+00 -1.229297e+01 1.030469e+01 -7.725916e-05 1.629750e-02 -2.773438e-01 2.070312e-01
-1.189935e+00 3.494312e+00 -1.238672e+01 1.032812e+01 -9.712898e-07 1.618709e-02 -2.656250e-01 2.109375e-01
-1.191795e+00 3.523595e+00 -1.210547e+01 1.035547e+01 -6.257881e-05 1.644396e-02 -2.617188e-01 2.070312e-01
-1.151910e+00 3.537672e+00 -1.210547e+01 1.037891e+01 1.612341e-05 1.677493e-02 -2.812500e-01 2.109375e-01
-1.145363e+00 3.521494e+00 -1.220703e+01 1.035547e+01 4.087742e-05 1.648120e-02 -2.773438e-01 2.109375e-01
-1.139002e+00 3.490163e+00 -1.244531e+01 1.003516e+01 -1.139184e-04 1.704517e-02 -2.773438e-01 2.070312e-01
-1.055797e+00 3.571760e+00 -1.236719e+01 1.041406e+01 1.112543e-04 1.671716e-02 -2.890625e-01 2.031250e-01
-1.067023e+00 3.582539e+00 -1.239453e+01 1.053516e+01 1.251299e-04 1.681185e-02 -2.851562e-01 2.031250e-01
-1.156513e+00 3.524166e+00 -1.222266e+01 1.041406e+01 -4.717693e-05 1.725181e-02 -2.929688e-01 2.109375e-01
-1.280572e+00 3.496187e+00 -1.223828e+01 9.871094e+00 -4.337503e-05 1.717304e-02 -2.773438e-01 2.187500e-01
-1.302392e+00 3.568230e+00 -1.221484e+01 1.036719e+01 -1.514102e-04 1.707725e-02 -2.734375e-01 2.304688e-01
-1.251295e+00 3.631589e+00 -1.255859e+01 1.053125e+01 -1.687547e-04 1.632121e-02 -2.890625e-01 1.992188e-01
-1.214236e+00 3.639106e+00 -1.258984e+01 1.054297e+01 -7.700940e-05 1.605101e-02 -2.929688e-01 1.992188e-01
-1.197395e+00 3.641631e+00 -1.248828e+01 1.052344e+01 -5.328218e-06 1.610954e-02 -3.007812e-01 2.031250e-01
-1.181885e+00 3.649734e+00 -1.248828e+01 1.058594e+01 1.498561e-05 1.625412e-02 -3.007812e-01 2.031250e-01
-1.182413e+00 3.679281e+00 -1.249219e+01 1.058984e+01 -5.425347e-05 1.667089e-02 -2.890625e-01 1.992188e-01
-1.134231e+00 3.700014e+00 -1.252344e+01 1.071484e+01 2.435162e-04 1.734689e-02 -3.164062e-01 2.148438e-01
-1.163871e+00 3.667006e+00 -1.259375e+01 1.062109e+01 1.487183e-04 1.652129e-02 -2.968750e-01 2.031250e-01
-1.189769e+00 3.656537e+00 -1.247656e+01 1.060547e+01 1.471920e-04 1.644357e-02 -2.734375e-01 2.148438e-01
-1.210995e+00 3.639766e+00 -1.236719e+01 1.057031e+01 -9.207827e-05 1.616837e-02 -2.773438e-01 2.109375e-01
-1.211356e+00 3.663933e+00 -1.248828e+01 1.065625e+01 -1.307356e-04 1.623724e-02 -2.851562e-01 2.148438e-01
-1.199068e+00 3.682213e+00 -1.254297e+01 1.070703e+01 -2.089661e-05 1.681905e-02 -2.812500e-01 2.031250e-01
-1.266900e+00 3.669738e+00 -1.232422e+01 1.033984e+01 -1.194964e-04 1.668687e-02 -2.812500e-01 2.343750e-01
-1.254661e+00 3.683952e+00 -1.275781e+01 1.047266e+01 -1.093117e-04 1.644086e-02 -2.734375e-01 2.304688e-01
-1.165850e+00 3.710302e+00 -1.293750e+01 1.076953e+01 8.805436e-05 1.590136e-02 -2.968750e-01 2.109375e-01
-1.167993e+00 3.714681e+00 -1.238281e+01 1.070703e+01 -9.979309e-05 1.704562e-02 -2.968750e-01 2.500000e-01
-1.142055e+00 3.728628e+00 -1.289453e+01 1.093750e+01 2.583076e-04 1.640690e-02 -3.007812e-01 2.148438e-01
-1.156993e+00 3.734176e+00 -1.264844e+01 1.087891e+01 6.466015e-06 1.630477e-02 -2.929688e-01 2.265625e-01
-1.159361e+00 3.715661e+00 -1.269141e+01 1.095703e+01 1.622054e-04 1.632613e-02 -2.734375e-01 2.109375e-01
-1.163891e+00 3.687752e+00 -1.266016e+01 1.084375e+01 -2.081335e-05 1.626600e-02 -2.929688e-01 2.109375e-01
-1.186254e+00 3.691568e+00 -1.285156e+01 1.076172e+01 -4.243149e-05 1.619982e-02 -2.773438e-01 2.070312e-01
-1.220013e+00 3.713798e+00 -1.286328e+01 1.085156e+01 -8.225437e-05 1.624166e-02 -2.929688e-01 2.070312e-01
-1.213346e+00 3.725541e+00 -1.297266e+01 1.076953e+01 -6.923909e-05 1.635780e-02 -2.890625e-01 2.187500e-01
-1.194024e+00 3.736430e+00 -1.297266e+01 1.086328e+01 8.267064e-05 1.635128e-02 -2.890625e-01 2.304688e-01
-1.178647e+00 3.741706e+00 -1.280469e+01 1.094531e+01 5.272716e-07 1.603977e-02 -3.007812e-01 2.187500e-01
