2.819138e+04 9.010000e-01 -5.251506e-03 5.771212e-01 -9.999543e-01 9.999896e-01
1.471268e+03 1.177000e-01 -1.701843e-02 5.851220e-01 -1.757835e+00 1.942286e+00
1.142963e+03 8.780000e-02 -1.748300e-02 5.984176e-01 -2.633017e+00 1.976297e+00
9.834019e+02 7.180000e-02 -1.919790e-02 6.114691e-01 -3.124606e+00 2.162067e+00
8.937725e+02 6.780000e-02 -2.169680e-02 6.251109e-01 -3.451416e+00 2.508322e+00
8.319195e+02 6.330000e-02 -2.515963e-02 6.394712e-01 -3.591862e+00 2.743926e+00
7.733363e+02 5.840000e-02 -2.776577e-02 6.538876e-01 -3.706512e+00 2.997959e+00
7.341128e+02 5.540000e-02 -3.136237e-02 6.684382e-01 -3.803094e+00 3.426080e+00
7.271859e+02 5.780000e-02 -3.402682e-02 6.829447e-01 -3.962164e+00 3.798361e+00
6.996841e+02 5.540000e-02 -3.683061e-02 6.986505e-01 -4.142352e+00 4.076470e+00
7.036140e+02 5.630000e-02 -3.915001e-02 7.145766e-01 -4.260499e+00 4.383404e+00
6.830467e+02 5.490000e-02 -4.072150e-02 7.306204e-01 -4.454518e+00 4.579205e+00
6.746183e+02 5.180000e-02 -4.296378e-02 7.477793e-01 -4.649811e+00 4.773147e+00
6.843013e+02 5.320000e-02 -4.484031e-02 7.657222e-01 -4.791656e+00 4.980432e+00
6.778415e+02 5.380000e-02 -4.570546e-02 7.833955e-01 -4.955343e+00 5.191745e+00
6.750670e+02 5.380000e-02 -4.785906e-02 8.015876e-01 -5.173065e+00 5.452204e+00
6.619347e+02 5.310000e-02 -4.846303e-02 8.198699e-01 -5.333066e+00 5.619996e+00
6.585569e+02 5.290000e-02 -4.942505e-02 8.383066e-01 -5.479684e+00 5.788336e+00
6.613692e+02 5.310000e-02 -4.929397e-02 8.566563e-01 -5.652064e+00 5.919788e+00
6.568436e+02 5.260000e-02 -5.032568e-02 8.762337e-01 -5.883954e+00 6.056255e+00
6.518904e+02 5.240000e-02 -5.064957e-02 8.950639e-01 -5.936636e+00 6.149206e+00
6.585741e+02 5.230000e-02 -5.121314e-02 9.147760e-01 -6.086818e+00 6.240348e+00
6.679875e+02 5.290000e-02 -5.168288e-02 9.340463e-01 -6.275494e+00 6.364957e+00
6.547509e+02 5.460000e-02 -5.214100e-02 9.535343e-01 -6.324991e+00 6.503571e+00
6.501729e+02 5.160000e-02 -5.254852e-02 9.725697e-01 -6.395876e+00 6.621796e+00
6.515842e+02 5.160000e-02 -5.429350e-02 9.931956e-01 -6.482590e+00 6.674225e+00
6.546917e+02 5.310000e-02 -5.541816e-02 1.012638e+00 -6.686614e+00 6.788656e+00
6.609798e+02 5.160000e-02 -5.611298e-02 1.031930e+00 -6.832564e+00 6.871763e+00
6.451930e+02 5.300000e-02 -5.733948e-02 1.052404e+00 -6.847329e+00 6.988661e+00
6.447238e+02 5.130000e-02 -5.816109e-02 1.071720e+00 -6.999563e+00 7.080504e+00
6.445895e+02 5.200000e-02 -5.942916e-02 1.090941e+00 -7.056113e+00 7.113954e+00
6.476696e+02 5.250000e-02 -6.030508e-02 1.109528e+00 -7.181188e+00 7.122586e+00
6.565583e+02 5.400000e-02 -6.130236e-02 1.129629e+00 -7.335874e+00 7.223072e+00
6.504262e+02 5.190000e-02 -6.190629e-02 1.149773e+00 -7.456654e+00 7.224111e+00
6.504715e+02 5.180000e-02 -6.358949e-02 1.169579e+00 -7.613939e+00 7.236616e+00
6.537749e+02 5.450000e-02 -6.436302e-02 1.190016e+00 -7.720572e+00 7.243961e+00
