1.279961e+02 8.923000e-01 -9.179524e-04 5.757622e-01 -9.960938e-01 9.960938e-01
1.279961e+02 4.270000e-01 -1.595305e-01 3.017044e+00 -1.189062e+01 1.125000e+01
1.279961e+02 3.354000e-01 -4.081098e-01 8.018587e+00 -1.970312e+01 1.906250e+01
1.279961e+02 3.509000e-01 -6.718516e-01 1.324212e+01 -2.751562e+01 2.687500e+01
1.279961e+02 3.831000e-01 -1.020393e+00 1.849351e+01 -3.532812e+01 3.468750e+01
1.279961e+02 3.926000e-01 -1.370586e+00 2.375241e+01 -4.314062e+01 4.250000e+01
