9.200391e+01 5.782609e-01 -2.706291e-03 5.924803e-01 -9.960938e-01 9.960938e-01
7.933203e+01 5.478261e-01 -4.516442e-03 5.921460e-01 -9.960938e-01 1.011719e+00
7.418359e+01 5.086957e-01 -6.413399e-03 5.919696e-01 -9.960938e-01 1.023438e+00
7.067969e+01 4.260870e-01 -7.378472e-03 5.919980e-01 -9.960938e-01 1.027344e+00
6.898438e+01 4.086957e-01 -7.970792e-03 5.920479e-01 -9.960938e-01 1.027344e+00
6.796484e+01 3.695652e-01 -8.236315e-03 5.921245e-01 -9.960938e-01 1.027344e+00
6.760938e+01 3.782609e-01 -8.586091e-03 5.921455e-01 -9.960938e-01 1.027344e+00
6.718750e+01 3.608696e-01 -8.787786e-03 5.922492e-01 -9.960938e-01 1.027344e+00
6.662500e+01 3.565217e-01 -9.020118e-03 5.923620e-01 -9.960938e-01 1.027344e+00
6.644922e+01 3.565217e-01 -9.127349e-03 5.924382e-01 -1.003906e+00 1.027344e+00
6.654297e+01 3.608696e-01 -9.318832e-03 5.924833e-01 -1.023438e+00 1.027344e+00
6.657031e+01 3.652174e-01 -9.507761e-03 5.924949e-01 -1.042969e+00 1.027344e+00
6.639062e+01 3.652174e-01 -9.604779e-03 5.926234e-01 -1.066406e+00 1.027344e+00
6.603125e+01 3.565217e-01 -9.890727e-03 5.927675e-01 -1.089844e+00 1.031250e+00
6.608203e+01 3.652174e-01 -1.004647e-02 5.929185e-01 -1.109375e+00 1.031250e+00
6.603516e+01 3.695652e-01 -1.028135e-02 5.929785e-01 -1.128906e+00 1.031250e+00
6.581641e+01 3.739130e-01 -1.041156e-02 5.931444e-01 -1.144531e+00 1.031250e+00
6.608203e+01 3.739130e-01 -1.053411e-02 5.932710e-01 -1.167969e+00 1.031250e+00
6.582422e+01 3.652174e-01 -1.073836e-02 5.934046e-01 -1.183594e+00 1.031250e+00
6.500391e+01 3.608696e-01 -1.082772e-02 5.937000e-01 -1.207031e+00 1.031250e+00
6.451562e+01 3.521739e-01 -1.088899e-02 5.939457e-01 -1.226562e+00 1.031250e+00
6.391406e+01 3.434783e-01 -1.101409e-02 5.941080e-01 -1.246094e+00 1.035156e+00
6.398828e+01 3.434783e-01 -1.124387e-02 5.944022e-01 -1.261719e+00 1.035156e+00
6.396094e+01 3.521739e-01 -1.145323e-02 5.946211e-01 -1.277344e+00 1.035156e+00
6.358984e+01 3.434783e-01 -1.167279e-02 5.948699e-01 -1.292969e+00 1.035156e+00
6.361328e+01 3.521739e-01 -1.190002e-02 5.951858e-01 -1.312500e+00 1.035156e+00
6.293359e+01 3.434783e-01 -1.203533e-02 5.954602e-01 -1.332031e+00 1.035156e+00
6.258594e+01 3.434783e-01 -1.216554e-02 5.956599e-01 -1.347656e+00 1.035156e+00
6.225000e+01 3.434783e-01 -1.232639e-02 5.958970e-01 -1.367188e+00 1.035156e+00
6.152734e+01 3.304348e-01 -1.249745e-02 5.962177e-01 -1.382812e+00 1.035156e+00
6.128125e+01 3.304348e-01 -1.264553e-02 5.964936e-01 -1.398438e+00 1.035156e+00
6.092188e+01 3.217391e-01 -1.272212e-02 5.968475e-01 -1.417969e+00 1.035156e+00
6.085938e+01 3.086957e-01 -1.278595e-02 5.972694e-01 -1.441406e+00 1.035156e+00
6.047656e+01 3.043478e-01 -1.283956e-02 5.976807e-01 -1.464844e+00 1.035156e+00
5.998828e+01 3.000000e-01 -1.290594e-02 5.980175e-01 -1.484375e+00 1.035156e+00
5.938672e+01 2.956522e-01 -1.292892e-02 5.983389e-01 -1.507812e+00 1.035156e+00
5.874609e+01 2.913043e-01 -1.299530e-02 5.987824e-01 -1.523438e+00 1.035156e+00
5.897656e+01 3.043478e-01 -1.309232e-02 5.992080e-01 -1.542969e+00 1.035156e+00
5.915625e+01 2.956522e-01 -1.309487e-02 5.996016e-01 -1.562500e+00 1.035156e+00
5.839844e+01 2.826087e-01 -1.317657e-02 5.999112e-01 -1.582031e+00 1.035156e+00
5.785156e+01 2.782609e-01 -1.323019e-02 6.002593e-01 -1.601562e+00 1.035156e+00
5.779688e+01 2.739130e-01 -1.327359e-02 6.004973e-01 -1.617188e+00 1.035156e+00
5.762109e+01 2.739130e-01 -1.325317e-02 6.008843e-01 -1.632812e+00 1.035156e+00
5.738281e+01 2.695652e-01 -1.334508e-02 6.012296e-01 -1.652344e+00 1.035156e+00
5.708203e+01 2.565217e-01 -1.345231e-02 6.016924e-01 -1.675781e+00 1.035156e+00
5.701172e+01 2.608696e-01 -1.355699e-02 6.020936e-01 -1.695312e+00 1.035156e+00
5.699219e+01 2.608696e-01 -1.354167e-02 6.025235e-01 -1.714844e+00 1.035156e+00
5.643750e+01 2.652174e-01 -1.361826e-02 6.028227e-01 -1.734375e+00 1.035156e+00
5.591406e+01 2.565217e-01 -1.363358e-02 6.032633e-01 -1.757812e+00 1.035156e+00
5.549609e+01 2.608696e-01 -1.360039e-02 6.037324e-01 -1.773438e+00 1.035156e+00
5.519141e+01 2.565217e-01 -1.367953e-02 6.040928e-01 -1.789062e+00 1.035156e+00
5.520703e+01 2.565217e-01 -1.381485e-02 6.044771e-01 -1.804688e+00 1.035156e+00
5.474219e+01 2.478261e-01 -1.386080e-02 6.048883e-01 -1.824219e+00 1.035156e+00
5.482422e+01 2.521739e-01 -1.398080e-02 6.053065e-01 -1.843750e+00 1.035156e+00
5.508984e+01 2.565217e-01 -1.387868e-02 6.057413e-01 -1.855469e+00 1.046875e+00
5.508594e+01 2.565217e-01 -1.395272e-02 6.062009e-01 -1.871094e+00 1.058594e+00
5.478125e+01 2.565217e-01 -1.414165e-02 6.067422e-01 -1.890625e+00 1.082031e+00
5.452344e+01 2.565217e-01 -1.412633e-02 6.073223e-01 -1.906250e+00 1.105469e+00
5.457812e+01 2.565217e-01 -1.417228e-02 6.078563e-01 -1.925781e+00 1.128906e+00
5.393750e+01 2.565217e-01 -1.428462e-02 6.083254e-01 -1.941406e+00 1.148438e+00
5.381641e+01 2.565217e-01 -1.433824e-02 6.086682e-01 -1.953125e+00 1.171875e+00
5.336328e+01 2.478261e-01 -1.443525e-02 6.091670e-01 -1.968750e+00 1.187500e+00
5.364062e+01 2.565217e-01 -1.454248e-02 6.096280e-01 -1.984375e+00 1.210938e+00
5.321875e+01 2.478261e-01 -1.459610e-02 6.101060e-01 -2.000000e+00 1.226562e+00
5.322266e+01 2.478261e-01 -1.463440e-02 6.106256e-01 -2.015625e+00 1.246094e+00
5.301953e+01 2.434783e-01 -1.465737e-02 6.110121e-01 -2.031250e+00 1.265625e+00
5.269141e+01 2.434783e-01 -1.473907e-02 6.114087e-01 -2.046875e+00 1.281250e+00
5.258984e+01 2.434783e-01 -1.486673e-02 6.118422e-01 -2.062500e+00 1.300781e+00
5.250781e+01 2.391304e-01 -1.502247e-02 6.122782e-01 -2.078125e+00 1.316406e+00
5.205859e+01 2.434783e-01 -1.497141e-02 6.126871e-01 -2.093750e+00 1.335938e+00
5.250391e+01 2.434783e-01 -1.505055e-02 6.130971e-01 -2.109375e+00 1.355469e+00
5.198047e+01 2.391304e-01 -1.509906e-02 6.135380e-01 -2.121094e+00 1.371094e+00
5.176172e+01 2.347826e-01 -1.523437e-02 6.140629e-01 -2.136719e+00 1.386719e+00
5.118359e+01 2.347826e-01 -1.539011e-02 6.144491e-01 -2.152344e+00 1.406250e+00
5.099609e+01 2.304348e-01 -1.553309e-02 6.149099e-01 -2.167969e+00 1.421875e+00
4.956641e+01 2.260870e-01 -1.556117e-02 6.153904e-01 -2.183594e+00 1.441406e+00
4.956250e+01 2.347826e-01 -1.553819e-02 6.159264e-01 -2.199219e+00 1.464844e+00
4.973828e+01 2.304348e-01 -1.565308e-02 6.164300e-01 -2.214844e+00 1.480469e+00
4.976172e+01 2.304348e-01 -1.577308e-02 6.169372e-01 -2.226562e+00 1.503906e+00
4.991016e+01 2.260870e-01 -1.578074e-02 6.174164e-01 -2.238281e+00 1.519531e+00
4.979688e+01 2.217391e-01 -1.591861e-02 6.177734e-01 -2.253906e+00 1.535156e+00
4.967578e+01 2.217391e-01 -1.585478e-02 6.182379e-01 -2.269531e+00 1.554688e+00
4.932422e+01 2.173913e-01 -1.588542e-02 6.186687e-01 -2.285156e+00 1.570312e+00
4.930859e+01 2.217391e-01 -1.587010e-02 6.191321e-01 -2.296875e+00 1.589844e+00
4.917188e+01 2.217391e-01 -1.585223e-02 6.197322e-01 -2.312500e+00 1.605469e+00
4.897656e+01 2.217391e-01 -1.593903e-02 6.201666e-01 -2.328125e+00 1.621094e+00
4.972266e+01 2.304348e-01 -1.595180e-02 6.206827e-01 -2.339844e+00 1.640625e+00
4.951953e+01 2.304348e-01 -1.598243e-02 6.211019e-01 -2.351562e+00 1.660156e+00
4.942969e+01 2.347826e-01 -1.593903e-02 6.214197e-01 -2.359375e+00 1.675781e+00
4.949219e+01 2.347826e-01 -1.600541e-02 6.218059e-01 -2.371094e+00 1.691406e+00
4.883203e+01 2.304348e-01 -1.600031e-02 6.221965e-01 -2.378906e+00 1.707031e+00
4.805469e+01 2.217391e-01 -1.608456e-02 6.225811e-01 -2.390625e+00 1.722656e+00
4.812500e+01 2.217391e-01 -1.620200e-02 6.230344e-01 -2.402344e+00 1.738281e+00
4.791406e+01 2.173913e-01 -1.624030e-02 6.233826e-01 -2.414062e+00 1.753906e+00
4.776562e+01 2.217391e-01 -1.608201e-02 6.239566e-01 -2.425781e+00 1.765625e+00
4.739062e+01 2.217391e-01 -1.622243e-02 6.243389e-01 -2.437500e+00 1.781250e+00
4.763672e+01 2.173913e-01 -1.628115e-02 6.248177e-01 -2.449219e+00 1.796875e+00
4.696094e+01 2.130435e-01 -1.639093e-02 6.253208e-01 -2.460938e+00 1.812500e+00
4.689062e+01 2.173913e-01 -1.654412e-02 6.257409e-01 -2.472656e+00 1.824219e+00
4.663281e+01 2.086957e-01 -1.660029e-02 6.261856e-01 -2.484375e+00 1.835938e+00
4.664844e+01 2.173913e-01 -1.661050e-02 6.265884e-01 -2.496094e+00 1.847656e+00
4.632812e+01 2.173913e-01 -1.669730e-02 6.270786e-01 -2.507812e+00 1.859375e+00
4.634375e+01 2.217391e-01 -1.683772e-02 6.275305e-01 -2.519531e+00 1.875000e+00
4.589453e+01 2.173913e-01 -1.677900e-02 6.280738e-01 -2.535156e+00 1.886719e+00
4.531250e+01 2.173913e-01 -1.680198e-02 6.286236e-01 -2.546875e+00 1.902344e+00
4.543359e+01 2.173913e-01 -1.685049e-02 6.290887e-01 -2.562500e+00 1.921875e+00
4.521094e+01 2.130435e-01 -1.678922e-02 6.295922e-01 -2.574219e+00 1.933594e+00
4.497266e+01 2.086957e-01 -1.688113e-02 6.299996e-01 -2.585938e+00 1.945312e+00
4.484375e+01 2.130435e-01 -1.696538e-02 6.303267e-01 -2.593750e+00 1.960938e+00
4.436328e+01 2.086957e-01 -1.697815e-02 6.307021e-01 -2.605469e+00 1.972656e+00
4.427734e+01 2.086957e-01 -1.701389e-02 6.312433e-01 -2.621094e+00 1.988281e+00
4.412891e+01 2.086957e-01 -1.710325e-02 6.317939e-01 -2.636719e+00 2.000000e+00
4.381641e+01 2.043478e-01 -1.701900e-02 6.322472e-01 -2.648438e+00 2.015625e+00
4.386719e+01 2.043478e-01 -1.707516e-02 6.327291e-01 -2.660156e+00 2.031250e+00
4.387500e+01 2.000000e-01 -1.722835e-02 6.331258e-01 -2.671875e+00 2.046875e+00
4.371875e+01 2.000000e-01 -1.715176e-02 6.334979e-01 -2.679688e+00 2.058594e+00
4.380859e+01 2.000000e-01 -1.717218e-02 6.339668e-01 -2.691406e+00 2.074219e+00
4.380078e+01 2.000000e-01 -1.713133e-02 6.343961e-01 -2.699219e+00 2.089844e+00
4.334766e+01 1.956522e-01 -1.719771e-02 6.348440e-01 -2.710938e+00 2.105469e+00
4.330078e+01 1.956522e-01 -1.703942e-02 6.354180e-01 -2.718750e+00 2.121094e+00
4.347266e+01 1.956522e-01 -1.705984e-02 6.357942e-01 -2.726562e+00 2.132812e+00
4.299609e+01 1.956522e-01 -1.704708e-02 6.360791e-01 -2.734375e+00 2.148438e+00
4.323047e+01 2.000000e-01 -1.701900e-02 6.364303e-01 -2.738281e+00 2.160156e+00
4.332422e+01 2.000000e-01 -1.696793e-02 6.368413e-01 -2.746094e+00 2.171875e+00
4.298047e+01 2.000000e-01 -1.707006e-02 6.371927e-01 -2.753906e+00 2.183594e+00
4.294922e+01 2.000000e-01 -1.688368e-02 6.375624e-01 -2.757812e+00 2.191406e+00
4.336719e+01 2.000000e-01 -1.694240e-02 6.378927e-01 -2.765625e+00 2.203125e+00
4.377734e+01 2.043478e-01 -1.685304e-02 6.382205e-01 -2.773438e+00 2.218750e+00
4.353125e+01 2.043478e-01 -1.679943e-02 6.386799e-01 -2.785156e+00 2.234375e+00
4.338672e+01 2.043478e-01 -1.681219e-02 6.391237e-01 -2.796875e+00 2.250000e+00
4.366797e+01 2.000000e-01 -1.676879e-02 6.396290e-01 -2.804688e+00 2.261719e+00
4.367578e+01 2.000000e-01 -1.672539e-02 6.400409e-01 -2.816406e+00 2.277344e+00
4.415625e+01 2.043478e-01 -1.678922e-02 6.405355e-01 -2.828125e+00 2.289062e+00
4.387500e+01 2.000000e-01 -1.671518e-02 6.409455e-01 -2.835938e+00 2.300781e+00
4.404297e+01 2.000000e-01 -1.671773e-02 6.413945e-01 -2.843750e+00 2.312500e+00
4.344531e+01 1.956522e-01 -1.668199e-02 6.417588e-01 -2.851562e+00 2.320312e+00
4.337891e+01 1.956522e-01 -1.683007e-02 6.420402e-01 -2.859375e+00 2.332031e+00
4.307422e+01 1.913043e-01 -1.680709e-02 6.424838e-01 -2.867188e+00 2.343750e+00
4.312109e+01 2.000000e-01 -1.674837e-02 6.429032e-01 -2.878906e+00 2.351562e+00
4.304297e+01 1.956522e-01 -1.678156e-02 6.432434e-01 -2.886719e+00 2.359375e+00
4.319922e+01 1.956522e-01 -1.679687e-02 6.434876e-01 -2.894531e+00 2.367188e+00
4.317578e+01 1.913043e-01 -1.677134e-02 6.438555e-01 -2.902344e+00 2.378906e+00
4.308984e+01 1.913043e-01 -1.679688e-02 6.440715e-01 -2.906250e+00 2.382812e+00
4.319141e+01 1.913043e-01 -1.681219e-02 6.442942e-01 -2.910156e+00 2.394531e+00
4.312500e+01 1.869565e-01 -1.680709e-02 6.447489e-01 -2.917969e+00 2.406250e+00
4.241406e+01 1.956522e-01 -1.681219e-02 6.451265e-01 -2.925781e+00 2.414062e+00
4.281250e+01 1.869565e-01 -1.683262e-02 6.455654e-01 -2.937500e+00 2.425781e+00
4.212500e+01 1.869565e-01 -1.680709e-02 6.459627e-01 -2.949219e+00 2.437500e+00
4.253516e+01 1.869565e-01 -1.683262e-02 6.463614e-01 -2.953125e+00 2.449219e+00
4.256250e+01 1.913043e-01 -1.688623e-02 6.465849e-01 -2.960938e+00 2.457031e+00
4.197656e+01 1.913043e-01 -1.692964e-02 6.469335e-01 -2.968750e+00 2.464844e+00
4.243750e+01 1.913043e-01 -1.677390e-02 6.472817e-01 -2.972656e+00 2.476562e+00
4.269531e+01 1.913043e-01 -1.688113e-02 6.476593e-01 -2.984375e+00 2.488281e+00
4.271484e+01 1.869565e-01 -1.692964e-02 6.480579e-01 -2.992188e+00 2.500000e+00
4.252344e+01 1.913043e-01 -1.689389e-02 6.484623e-01 -3.000000e+00 2.507812e+00
4.261328e+01 1.913043e-01 -1.683262e-02 6.487967e-01 -3.007812e+00 2.515625e+00
4.252344e+01 1.956522e-01 -1.685560e-02 6.491196e-01 -3.015625e+00 2.527344e+00
4.248828e+01 1.956522e-01 -1.677645e-02 6.495632e-01 -3.019531e+00 2.539062e+00
4.303516e+01 1.913043e-01 -1.685815e-02 6.499677e-01 -3.027344e+00 2.550781e+00
4.277734e+01 1.869565e-01 -1.687347e-02 6.503576e-01 -3.039062e+00 2.566406e+00
4.288672e+01 1.913043e-01 -1.672539e-02 6.506412e-01 -3.046875e+00 2.574219e+00
4.269141e+01 1.913043e-01 -1.663603e-02 6.509988e-01 -3.054688e+00 2.582031e+00
4.291016e+01 1.913043e-01 -1.671518e-02 6.513179e-01 -3.058594e+00 2.597656e+00
4.305469e+01 1.913043e-01 -1.654667e-02 6.516862e-01 -3.066406e+00 2.605469e+00
4.307812e+01 1.913043e-01 -1.658241e-02 6.520114e-01 -3.070312e+00 2.617188e+00
4.309375e+01 1.913043e-01 -1.662071e-02 6.523002e-01 -3.074219e+00 2.625000e+00
4.261719e+01 1.869565e-01 -1.669986e-02 6.526192e-01 -3.082031e+00 2.632812e+00
4.256641e+01 1.869565e-01 -1.680964e-02 6.530072e-01 -3.093750e+00 2.644531e+00
4.259766e+01 1.869565e-01 -1.669220e-02 6.533134e-01 -3.097656e+00 2.656250e+00
4.259766e+01 1.869565e-01 -1.672283e-02 6.537528e-01 -3.105469e+00 2.667969e+00
4.284766e+01 1.869565e-01 -1.665135e-02 6.540590e-01 -3.109375e+00 2.675781e+00
4.268359e+01 1.869565e-01 -1.660539e-02 6.543136e-01 -3.113281e+00 2.679688e+00
4.298438e+01 1.913043e-01 -1.666156e-02 6.545686e-01 -3.121094e+00 2.691406e+00
4.310156e+01 1.913043e-01 -1.667688e-02 6.549218e-01 -3.125000e+00 2.699219e+00
4.300391e+01 1.913043e-01 -1.674837e-02 6.551426e-01 -3.128906e+00 2.707031e+00
4.291016e+01 1.913043e-01 -1.667943e-02 6.553946e-01 -3.132812e+00 2.714844e+00
4.267969e+01 1.913043e-01 -1.685304e-02 6.556538e-01 -3.136719e+00 2.726562e+00
4.279688e+01 1.913043e-01 -1.670241e-02 6.560276e-01 -3.140625e+00 2.734375e+00
4.221484e+01 1.913043e-01 -1.669220e-02 6.562584e-01 -3.148438e+00 2.742188e+00
4.212500e+01 1.913043e-01 -1.679688e-02 6.565369e-01 -3.152344e+00 2.750000e+00
4.222266e+01 1.913043e-01 -1.681730e-02 6.568122e-01 -3.156250e+00 2.757812e+00
4.225000e+01 1.913043e-01 -1.675858e-02 6.570321e-01 -3.164062e+00 2.765625e+00
4.207031e+01 1.913043e-01 -1.668709e-02 6.574415e-01 -3.171875e+00 2.777344e+00
4.217969e+01 1.956522e-01 -1.680964e-02 6.575810e-01 -3.171875e+00 2.781250e+00
4.201953e+01 1.956522e-01 -1.682751e-02 6.579077e-01 -3.175781e+00 2.792969e+00
4.157812e+01 1.956522e-01 -1.669475e-02 6.581703e-01 -3.179688e+00 2.796875e+00
4.144531e+01 1.956522e-01 -1.674837e-02 6.583373e-01 -3.183594e+00 2.804688e+00
4.143359e+01 1.956522e-01 -1.670496e-02 6.586323e-01 -3.187500e+00 2.812500e+00
4.135938e+01 1.956522e-01 -1.669730e-02 6.588765e-01 -3.191406e+00 2.820312e+00
4.143359e+01 2.000000e-01 -1.669986e-02 6.591158e-01 -3.195312e+00 2.824219e+00
4.054297e+01 1.956522e-01 -1.664114e-02 6.595226e-01 -3.203125e+00 2.832031e+00
4.057422e+01 2.000000e-01 -1.667177e-02 6.598428e-01 -3.207031e+00 2.839844e+00
4.052734e+01 2.000000e-01 -1.664114e-02 6.601346e-01 -3.207031e+00 2.847656e+00
4.049219e+01 2.000000e-01 -1.655688e-02 6.604746e-01 -3.214844e+00 2.859375e+00
4.059766e+01 2.000000e-01 -1.660284e-02 6.606059e-01 -3.214844e+00 2.863281e+00
4.048047e+01 2.000000e-01 -1.653901e-02 6.608843e-01 -3.218750e+00 2.871094e+00
4.043750e+01 2.000000e-01 -1.645476e-02 6.611016e-01 -3.222656e+00 2.875000e+00
4.050000e+01 1.956522e-01 -1.653135e-02 6.612645e-01 -3.226562e+00 2.878906e+00
4.026172e+01 1.956522e-01 -1.654922e-02 6.614719e-01 -3.226562e+00 2.882812e+00
4.026562e+01 2.043478e-01 -1.647008e-02 6.616928e-01 -3.230469e+00 2.890625e+00
4.016016e+01 2.043478e-01 -1.651603e-02 6.619680e-01 -3.234375e+00 2.894531e+00
4.014062e+01 2.000000e-01 -1.638838e-02 6.621612e-01 -3.242188e+00 2.902344e+00
4.016016e+01 2.000000e-01 -1.642667e-02 6.624620e-01 -3.250000e+00 2.910156e+00
4.016797e+01 2.000000e-01 -1.635774e-02 6.627927e-01 -3.257812e+00 2.921875e+00
4.012109e+01 2.000000e-01 -1.634753e-02 6.630982e-01 -3.261719e+00 2.929688e+00
3.993750e+01 2.000000e-01 -1.627859e-02 6.633713e-01 -3.265625e+00 2.937500e+00
3.998438e+01 2.000000e-01 -1.628625e-02 6.638086e-01 -3.269531e+00 2.941406e+00
3.981641e+01 2.000000e-01 -1.624540e-02 6.640382e-01 -3.273438e+00 2.945312e+00
3.998047e+01 2.000000e-01 -1.636795e-02 6.643327e-01 -3.277344e+00 2.957031e+00
3.999219e+01 2.000000e-01 -1.634242e-02 6.646168e-01 -3.281250e+00 2.964844e+00
3.982031e+01 2.043478e-01 -1.627094e-02 6.648379e-01 -3.285156e+00 2.972656e+00
3.991797e+01 2.043478e-01 -1.640880e-02 6.650086e-01 -3.285156e+00 2.976562e+00
3.970312e+01 2.000000e-01 -1.634242e-02 6.652959e-01 -3.289062e+00 2.984375e+00
3.983203e+01 2.043478e-01 -1.635774e-02 6.655468e-01 -3.292969e+00 2.984375e+00
3.975391e+01 2.000000e-01 -1.632966e-02 6.658148e-01 -3.296875e+00 2.988281e+00
3.982812e+01 2.043478e-01 -1.638327e-02 6.659936e-01 -3.296875e+00 2.992188e+00
4.044922e+01 2.086957e-01 -1.630923e-02 6.663903e-01 -3.304688e+00 3.000000e+00
4.042188e+01 2.086957e-01 -1.629647e-02 6.666125e-01 -3.304688e+00 3.000000e+00
4.035938e+01 2.086957e-01 -1.635263e-02 6.668775e-01 -3.308594e+00 3.007812e+00
4.048828e+01 2.086957e-01 -1.637051e-02 6.671266e-01 -3.304688e+00 3.015625e+00
4.032031e+01 2.086957e-01 -1.633476e-02 6.674216e-01 -3.308594e+00 3.027344e+00
4.031641e+01 2.086957e-01 -1.638327e-02 6.677424e-01 -3.312500e+00 3.031250e+00
4.029297e+01 2.043478e-01 -1.648029e-02 6.678290e-01 -3.316406e+00 3.035156e+00
4.053125e+01 2.043478e-01 -1.644710e-02 6.682122e-01 -3.324219e+00 3.042969e+00
4.026172e+01 2.043478e-01 -1.645987e-02 6.683989e-01 -3.324219e+00 3.042969e+00
4.021094e+01 2.043478e-01 -1.633476e-02 6.686207e-01 -3.328125e+00 3.050781e+00
4.039062e+01 2.000000e-01 -1.633732e-02 6.688556e-01 -3.332031e+00 3.058594e+00
4.050000e+01 2.043478e-01 -1.629391e-02 6.691000e-01 -3.332031e+00 3.062500e+00
4.024219e+01 2.000000e-01 -1.630157e-02 6.693274e-01 -3.335938e+00 3.066406e+00
4.021875e+01 2.043478e-01 -1.637306e-02 6.694195e-01 -3.339844e+00 3.066406e+00
4.046484e+01 2.043478e-01 -1.639604e-02 6.695359e-01 -3.343750e+00 3.070312e+00
4.018750e+01 2.043478e-01 -1.640625e-02 6.697581e-01 -3.343750e+00 3.078125e+00
4.033203e+01 2.043478e-01 -1.638072e-02 6.698477e-01 -3.343750e+00 3.078125e+00
4.026953e+01 2.043478e-01 -1.645476e-02 6.699741e-01 -3.343750e+00 3.078125e+00
4.036719e+01 2.043478e-01 -1.637306e-02 6.701258e-01 -3.347656e+00 3.082031e+00
4.016016e+01 2.043478e-01 -1.640880e-02 6.703244e-01 -3.351562e+00 3.085938e+00
4.017969e+01 2.043478e-01 -1.644965e-02 6.704664e-01 -3.359375e+00 3.093750e+00
4.011719e+01 2.043478e-01 -1.648540e-02 6.705963e-01 -3.359375e+00 3.093750e+00
4.010547e+01 2.000000e-01 -1.648795e-02 6.706648e-01 -3.363281e+00 3.097656e+00
4.101562e+01 2.000000e-01 -1.645987e-02 6.708682e-01 -3.371094e+00 3.101562e+00
4.049609e+01 2.043478e-01 -1.646497e-02 6.709910e-01 -3.375000e+00 3.105469e+00
4.110938e+01 2.000000e-01 -1.639604e-02 6.713380e-01 -3.382812e+00 3.113281e+00
4.104297e+01 2.000000e-01 -1.640880e-02 6.716211e-01 -3.386719e+00 3.117188e+00
4.057812e+01 1.956522e-01 -1.644965e-02 6.718845e-01 -3.390625e+00 3.121094e+00
4.096875e+01 2.000000e-01 -1.641902e-02 6.720999e-01 -3.394531e+00 3.125000e+00
4.091797e+01 2.000000e-01 -1.653391e-02 6.723263e-01 -3.398438e+00 3.132812e+00
4.095312e+01 2.000000e-01 -1.648284e-02 6.727215e-01 -3.402344e+00 3.140625e+00
4.044922e+01 1.956522e-01 -1.651093e-02 6.730387e-01 -3.406250e+00 3.144531e+00
4.051953e+01 1.956522e-01 -1.648540e-02 6.731125e-01 -3.410156e+00 3.152344e+00
4.055078e+01 1.956522e-01 -1.642923e-02 6.733498e-01 -3.410156e+00 3.152344e+00
4.073438e+01 1.956522e-01 -1.640625e-02 6.733925e-01 -3.410156e+00 3.156250e+00
4.041406e+01 1.956522e-01 -1.648284e-02 6.734889e-01 -3.414062e+00 3.160156e+00
4.073047e+01 2.000000e-01 -1.643178e-02 6.735396e-01 -3.414062e+00 3.160156e+00
4.032422e+01 1.956522e-01 -1.644455e-02 6.736192e-01 -3.414062e+00 3.160156e+00
4.045703e+01 1.956522e-01 -1.647008e-02 6.739070e-01 -3.421875e+00 3.164062e+00
4.082031e+01 2.000000e-01 -1.650071e-02 6.740067e-01 -3.417969e+00 3.167969e+00
4.075391e+01 2.000000e-01 -1.655688e-02 6.740958e-01 -3.417969e+00 3.171875e+00
4.072656e+01 2.000000e-01 -1.648284e-02 6.742986e-01 -3.417969e+00 3.175781e+00
4.078906e+01 1.956522e-01 -1.642667e-02 6.744421e-01 -3.425781e+00 3.179688e+00
4.032031e+01 1.956522e-01 -1.642923e-02 6.744927e-01 -3.425781e+00 3.179688e+00
4.032422e+01 1.956522e-01 -1.651093e-02 6.745742e-01 -3.425781e+00 3.183594e+00
4.058594e+01 1.956522e-01 -1.645987e-02 6.748439e-01 -3.429688e+00 3.187500e+00
4.071875e+01 1.956522e-01 -1.641136e-02 6.749714e-01 -3.433594e+00 3.191406e+00
4.085547e+01 2.000000e-01 -1.654667e-02 6.752372e-01 -3.433594e+00 3.195312e+00
4.071094e+01 1.869565e-01 -1.647774e-02 6.753526e-01 -3.437500e+00 3.199219e+00
4.070312e+01 1.913043e-01 -1.648540e-02 6.755579e-01 -3.445312e+00 3.207031e+00
4.078906e+01 1.869565e-01 -1.643944e-02 6.757607e-01 -3.445312e+00 3.210938e+00
4.055859e+01 1.869565e-01 -1.645731e-02 6.759794e-01 -3.449219e+00 3.214844e+00
4.092969e+01 2.000000e-01 -1.650327e-02 6.760692e-01 -3.453125e+00 3.214844e+00
4.060547e+01 1.913043e-01 -1.650837e-02 6.762146e-01 -3.453125e+00 3.218750e+00
4.046094e+01 1.869565e-01 -1.653391e-02 6.762747e-01 -3.453125e+00 3.218750e+00
4.056641e+01 1.913043e-01 -1.650327e-02 6.763551e-01 -3.457031e+00 3.226562e+00
4.046094e+01 1.913043e-01 -1.648795e-02 6.766750e-01 -3.460938e+00 3.234375e+00
4.038672e+01 1.913043e-01 -1.645476e-02 6.768102e-01 -3.460938e+00 3.238281e+00
4.052734e+01 1.913043e-01 -1.652114e-02 6.768288e-01 -3.457031e+00 3.234375e+00
4.075391e+01 1.956522e-01 -1.658752e-02 6.769651e-01 -3.457031e+00 3.238281e+00
4.062500e+01 1.869565e-01 -1.656199e-02 6.772150e-01 -3.460938e+00 3.242188e+00
4.061328e+01 1.869565e-01 -1.657220e-02 6.774090e-01 -3.464844e+00 3.246094e+00
4.065625e+01 1.869565e-01 -1.643178e-02 6.776624e-01 -3.472656e+00 3.253906e+00
4.065625e+01 1.869565e-01 -1.646242e-02 6.779551e-01 -3.476562e+00 3.253906e+00
4.071094e+01 1.869565e-01 -1.670752e-02 6.781678e-01 -3.480469e+00 3.257812e+00
4.054297e+01 1.913043e-01 -1.656710e-02 6.782986e-01 -3.488281e+00 3.261719e+00
4.060156e+01 1.826087e-01 -1.655178e-02 6.784926e-01 -3.492188e+00 3.265625e+00
4.039062e+01 1.826087e-01 -1.651093e-02 6.788508e-01 -3.496094e+00 3.273438e+00
4.039062e+01 1.869565e-01 -1.652369e-02 6.790938e-01 -3.496094e+00 3.277344e+00
4.031250e+01 1.826087e-01 -1.665390e-02 6.793012e-01 -3.500000e+00 3.281250e+00
4.040234e+01 1.869565e-01 -1.657475e-02 6.793438e-01 -3.500000e+00 3.281250e+00
4.033984e+01 1.826087e-01 -1.651348e-02 6.792922e-01 -3.503906e+00 3.285156e+00
4.031641e+01 1.826087e-01 -1.663348e-02 6.793731e-01 -3.503906e+00 3.285156e+00
4.024609e+01 1.869565e-01 -1.653901e-02 6.795400e-01 -3.507812e+00 3.292969e+00
4.033594e+01 1.869565e-01 -1.652625e-02 6.797481e-01 -3.511719e+00 3.296875e+00
4.037109e+01 1.913043e-01 -1.647774e-02 6.800489e-01 -3.519531e+00 3.300781e+00
4.028125e+01 1.869565e-01 -1.645987e-02 6.802135e-01 -3.519531e+00 3.304688e+00
4.026172e+01 1.869565e-01 -1.648795e-02 6.803670e-01 -3.519531e+00 3.308594e+00
4.017188e+01 1.869565e-01 -1.639604e-02 6.805176e-01 -3.523438e+00 3.312500e+00
4.001953e+01 1.869565e-01 -1.633221e-02 6.806366e-01 -3.523438e+00 3.316406e+00
4.044141e+01 1.913043e-01 -1.634242e-02 6.806922e-01 -3.527344e+00 3.320312e+00
4.026953e+01 1.869565e-01 -1.636029e-02 6.808393e-01 -3.531250e+00 3.320312e+00
4.028516e+01 1.826087e-01 -1.636540e-02 6.809819e-01 -3.531250e+00 3.324219e+00
4.022266e+01 1.869565e-01 -1.644199e-02 6.810796e-01 -3.531250e+00 3.320312e+00
4.017188e+01 1.826087e-01 -1.641902e-02 6.812237e-01 -3.539062e+00 3.328125e+00
4.030078e+01 1.869565e-01 -1.638838e-02 6.814048e-01 -3.539062e+00 3.332031e+00
4.012109e+01 1.869565e-01 -1.637051e-02 6.815848e-01 -3.542969e+00 3.335938e+00
4.024609e+01 1.869565e-01 -1.631434e-02 6.816350e-01 -3.542969e+00 3.335938e+00
4.020703e+01 1.869565e-01 -1.641136e-02 6.816581e-01 -3.542969e+00 3.339844e+00
4.022266e+01 1.869565e-01 -1.634242e-02 6.817426e-01 -3.546875e+00 3.343750e+00
4.032422e+01 1.869565e-01 -1.644199e-02 6.818962e-01 -3.546875e+00 3.343750e+00
4.014844e+01 1.869565e-01 -1.645987e-02 6.819976e-01 -3.546875e+00 3.343750e+00
4.021094e+01 1.869565e-01 -1.642923e-02 6.820145e-01 -3.546875e+00 3.343750e+00
4.033984e+01 1.956522e-01 -1.640625e-02 6.821037e-01 -3.550781e+00 3.347656e+00
4.017969e+01 1.869565e-01 -1.650837e-02 6.822498e-01 -3.550781e+00 3.347656e+00
4.022266e+01 1.869565e-01 -1.643944e-02 6.824080e-01 -3.554688e+00 3.351562e+00
4.012891e+01 1.869565e-01 -1.649561e-02 6.826488e-01 -3.562500e+00 3.359375e+00
4.021484e+01 1.913043e-01 -1.646752e-02 6.828575e-01 -3.566406e+00 3.359375e+00
4.019141e+01 1.869565e-01 -1.638072e-02 6.829849e-01 -3.570312e+00 3.363281e+00
4.008203e+01 1.869565e-01 -1.638072e-02 6.829982e-01 -3.566406e+00 3.359375e+00
4.023828e+01 1.956522e-01 -1.642157e-02 6.831029e-01 -3.570312e+00 3.363281e+00
4.025781e+01 1.956522e-01 -1.654412e-02 6.831204e-01 -3.570312e+00 3.367188e+00
4.025781e+01 1.956522e-01 -1.645221e-02 6.832260e-01 -3.566406e+00 3.371094e+00
4.007031e+01 1.913043e-01 -1.650327e-02 6.833124e-01 -3.570312e+00 3.371094e+00
4.094922e+01 1.869565e-01 -1.660029e-02 6.832737e-01 -3.570312e+00 3.371094e+00
4.104688e+01 1.869565e-01 -1.653135e-02 6.835160e-01 -3.578125e+00 3.375000e+00
4.017188e+01 1.869565e-01 -1.647518e-02 6.838142e-01 -3.578125e+00 3.375000e+00
4.012891e+01 1.913043e-01 -1.654922e-02 6.839821e-01 -3.582031e+00 3.378906e+00
4.090234e+01 1.869565e-01 -1.657986e-02 6.841987e-01 -3.582031e+00 3.382812e+00
4.016406e+01 1.913043e-01 -1.657475e-02 6.844149e-01 -3.585938e+00 3.386719e+00
4.016797e+01 1.913043e-01 -1.659263e-02 6.845797e-01 -3.589844e+00 3.390625e+00
4.090625e+01 1.913043e-01 -1.656965e-02 6.847676e-01 -3.589844e+00 3.390625e+00
4.096484e+01 1.956522e-01 -1.663348e-02 6.850663e-01 -3.597656e+00 3.394531e+00
4.092969e+01 1.913043e-01 -1.670241e-02 6.852151e-01 -3.597656e+00 3.398438e+00
4.078906e+01 1.913043e-01 -1.664369e-02 6.852360e-01 -3.597656e+00 3.402344e+00
4.019922e+01 1.956522e-01 -1.671262e-02 6.853647e-01 -3.593750e+00 3.402344e+00
4.081250e+01 1.913043e-01 -1.677900e-02 6.856033e-01 -3.597656e+00 3.406250e+00
4.089062e+01 1.869565e-01 -1.662326e-02 6.856742e-01 -3.597656e+00 3.410156e+00
4.081250e+01 1.826087e-01 -1.675347e-02 6.858551e-01 -3.601562e+00 3.410156e+00
4.083203e+01 1.826087e-01 -1.665390e-02 6.859247e-01 -3.605469e+00 3.414062e+00
4.088281e+01 1.869565e-01 -1.667177e-02 6.860740e-01 -3.605469e+00 3.417969e+00
4.091016e+01 1.869565e-01 -1.677134e-02 6.860927e-01 -3.601562e+00 3.414062e+00
4.103906e+01 1.913043e-01 -1.667688e-02 6.863036e-01 -3.605469e+00 3.421875e+00
3.999219e+01 1.869565e-01 -1.677134e-02 6.863365e-01 -3.601562e+00 3.421875e+00
4.008594e+01 1.913043e-01 -1.680709e-02 6.864419e-01 -3.605469e+00 3.425781e+00
4.085547e+01 1.869565e-01 -1.675603e-02 6.865333e-01 -3.605469e+00 3.425781e+00
4.087500e+01 1.869565e-01 -1.683007e-02 6.866837e-01 -3.609375e+00 3.429688e+00
4.082031e+01 1.869565e-01 -1.667177e-02 6.867407e-01 -3.609375e+00 3.429688e+00
4.098047e+01 1.913043e-01 -1.671518e-02 6.866981e-01 -3.609375e+00 3.429688e+00
4.095312e+01 1.913043e-01 -1.667943e-02 6.869360e-01 -3.617188e+00 3.433594e+00
4.099609e+01 1.869565e-01 -1.675347e-02 6.871524e-01 -3.621094e+00 3.441406e+00
4.085938e+01 1.913043e-01 -1.665390e-02 6.874250e-01 -3.621094e+00 3.441406e+00
4.091797e+01 1.913043e-01 -1.662837e-02 6.875488e-01 -3.621094e+00 3.437500e+00
4.082031e+01 1.913043e-01 -1.681475e-02 6.876211e-01 -3.625000e+00 3.441406e+00
4.085547e+01 1.913043e-01 -1.677645e-02 6.876646e-01 -3.625000e+00 3.441406e+00
4.083203e+01 1.869565e-01 -1.682496e-02 6.877795e-01 -3.625000e+00 3.449219e+00
4.077734e+01 1.869565e-01 -1.662071e-02 6.879128e-01 -3.625000e+00 3.449219e+00
4.087500e+01 1.913043e-01 -1.664369e-02 6.878216e-01 -3.625000e+00 3.449219e+00
4.074609e+01 1.913043e-01 -1.664369e-02 6.879792e-01 -3.625000e+00 3.453125e+00
4.075391e+01 1.913043e-01 -1.668709e-02 6.879585e-01 -3.625000e+00 3.453125e+00
4.073438e+01 1.869565e-01 -1.686070e-02 6.881441e-01 -3.628906e+00 3.460938e+00
4.073438e+01 1.956522e-01 -1.681219e-02 6.882539e-01 -3.628906e+00 3.460938e+00
4.077344e+01 1.913043e-01 -1.667177e-02 6.882376e-01 -3.628906e+00 3.460938e+00
4.074219e+01 1.956522e-01 -1.658241e-02 6.884356e-01 -3.632812e+00 3.464844e+00
4.071094e+01 1.913043e-01 -1.677134e-02 6.884901e-01 -3.636719e+00 3.464844e+00
4.104297e+01 1.869565e-01 -1.678666e-02 6.886070e-01 -3.640625e+00 3.468750e+00
4.079688e+01 1.913043e-01 -1.673305e-02 6.888613e-01 -3.644531e+00 3.472656e+00
4.077344e+01 1.913043e-01 -1.684028e-02 6.889332e-01 -3.644531e+00 3.472656e+00
4.081641e+01 1.913043e-01 -1.687347e-02 6.888740e-01 -3.644531e+00 3.472656e+00
4.086719e+01 2.000000e-01 -1.684538e-02 6.888490e-01 -3.644531e+00 3.472656e+00
4.081641e+01 1.956522e-01 -1.690411e-02 6.887972e-01 -3.640625e+00 3.468750e+00
4.083984e+01 1.956522e-01 -1.698325e-02 6.887467e-01 -3.644531e+00 3.468750e+00
4.088672e+01 2.000000e-01 -1.695261e-02 6.888066e-01 -3.644531e+00 3.468750e+00
4.087500e+01 2.000000e-01 -1.695006e-02 6.888756e-01 -3.644531e+00 3.472656e+00
4.067578e+01 1.956522e-01 -1.691687e-02 6.889140e-01 -3.644531e+00 3.468750e+00
4.071484e+01 2.000000e-01 -1.698070e-02 6.889512e-01 -3.648438e+00 3.472656e+00
4.071875e+01 2.000000e-01 -1.714665e-02 6.890052e-01 -3.644531e+00 3.472656e+00
4.075391e+01 1.956522e-01 -1.709559e-02 6.890643e-01 -3.648438e+00 3.476562e+00
4.063281e+01 1.956522e-01 -1.710580e-02 6.890669e-01 -3.652344e+00 3.476562e+00
4.080859e+01 1.956522e-01 -1.711857e-02 6.890691e-01 -3.652344e+00 3.472656e+00
4.083594e+01 1.913043e-01 -1.709304e-02 6.890715e-01 -3.652344e+00 3.476562e+00
4.079297e+01 1.956522e-01 -1.696283e-02 6.891622e-01 -3.652344e+00 3.480469e+00
4.087109e+01 1.913043e-01 -1.693219e-02 6.892126e-01 -3.652344e+00 3.480469e+00
4.073438e+01 1.869565e-01 -1.693474e-02 6.895494e-01 -3.656250e+00 3.488281e+00
4.091016e+01 1.956522e-01 -1.685560e-02 6.897857e-01 -3.660156e+00 3.492188e+00
4.076953e+01 1.913043e-01 -1.703176e-02 6.898421e-01 -3.660156e+00 3.492188e+00
4.066016e+01 1.869565e-01 -1.711091e-02 6.899496e-01 -3.664062e+00 3.496094e+00
4.080469e+01 1.913043e-01 -1.703942e-02 6.901239e-01 -3.664062e+00 3.500000e+00
4.082422e+01 1.913043e-01 -1.703431e-02 6.901190e-01 -3.664062e+00 3.500000e+00
4.071484e+01 1.956522e-01 -1.700112e-02 6.901939e-01 -3.667969e+00 3.503906e+00
4.056641e+01 1.913043e-01 -1.708538e-02 6.903993e-01 -3.667969e+00 3.507812e+00
4.053906e+01 1.956522e-01 -1.701900e-02 6.904474e-01 -3.671875e+00 3.507812e+00
4.065625e+01 1.956522e-01 -1.716197e-02 6.904672e-01 -3.675781e+00 3.507812e+00
4.049609e+01 1.869565e-01 -1.724367e-02 6.905971e-01 -3.675781e+00 3.507812e+00
4.058594e+01 1.869565e-01 -1.718750e-02 6.906816e-01 -3.679688e+00 3.511719e+00
4.062500e+01 1.913043e-01 -1.719261e-02 6.907694e-01 -3.679688e+00 3.511719e+00
4.070703e+01 1.869565e-01 -1.714920e-02 6.908589e-01 -3.679688e+00 3.511719e+00
4.078906e+01 1.869565e-01 -1.712112e-02 6.909192e-01 -3.679688e+00 3.511719e+00
4.042969e+01 1.913043e-01 -1.704708e-02 6.911641e-01 -3.683594e+00 3.515625e+00
4.057422e+01 1.869565e-01 -1.711601e-02 6.912581e-01 -3.683594e+00 3.515625e+00
4.043750e+01 1.913043e-01 -1.707516e-02 6.912670e-01 -3.687500e+00 3.519531e+00
4.045312e+01 1.913043e-01 -1.711091e-02 6.914255e-01 -3.687500e+00 3.519531e+00
4.074219e+01 1.913043e-01 -1.716963e-02 6.914912e-01 -3.691406e+00 3.519531e+00
4.067969e+01 1.956522e-01 -1.707006e-02 6.915218e-01 -3.691406e+00 3.515625e+00
4.057812e+01 1.913043e-01 -1.706495e-02 6.915248e-01 -3.691406e+00 3.515625e+00
4.066016e+01 1.956522e-01 -1.714920e-02 6.915065e-01 -3.691406e+00 3.515625e+00
4.063672e+01 1.869565e-01 -1.714920e-02 6.915235e-01 -3.691406e+00 3.515625e+00
4.080859e+01 1.913043e-01 -1.697304e-02 6.915334e-01 -3.691406e+00 3.515625e+00
4.083594e+01 1.913043e-01 -1.707772e-02 6.915378e-01 -3.695312e+00 3.515625e+00
4.089844e+01 1.913043e-01 -1.712112e-02 6.916038e-01 -3.695312e+00 3.515625e+00
4.103906e+01 1.956522e-01 -1.711601e-02 6.916784e-01 -3.699219e+00 3.519531e+00
4.094922e+01 1.956522e-01 -1.710069e-02 6.916667e-01 -3.699219e+00 3.519531e+00
4.079688e+01 1.956522e-01 -1.714665e-02 6.918010e-01 -3.699219e+00 3.519531e+00
4.097656e+01 1.956522e-01 -1.714920e-02 6.920452e-01 -3.703125e+00 3.523438e+00
4.085547e+01 1.869565e-01 -1.717218e-02 6.921350e-01 -3.707031e+00 3.523438e+00
4.087500e+01 1.913043e-01 -1.717473e-02 6.919663e-01 -3.699219e+00 3.519531e+00
4.076953e+01 1.913043e-01 -1.715176e-02 6.921727e-01 -3.703125e+00 3.523438e+00
