-2.983423e-01 3.552179e+00 -2.667603e+01 2.770020e+01 7.286208e-05 8.039085e-03 -1.591797e-01 1.240234e-01
-3.088807e-01 3.554636e+00 -2.667383e+01 2.768774e+01 1.279020e-05 8.035667e-03 -1.520996e-01 1.120605e-01
-3.029547e-01 3.558566e+00 -2.667334e+01 2.768237e+01 3.391818e-06 7.999836e-03 -1.520996e-01 1.120605e-01
-3.044545e-01 3.555408e+00 -2.667285e+01 2.767871e+01 -1.939836e-06 7.985780e-03 -1.520996e-01 1.120605e-01
-3.052716e-01 3.544335e+00 -2.667407e+01 2.766650e+01 3.734487e-06 7.982680e-03 -1.520996e-01 1.120605e-01
-3.059936e-01 3.553538e+00 -2.667627e+01 2.766382e+01 -1.373961e-06 7.986923e-03 -1.503906e-01 1.120605e-01
-3.137116e-01 3.553842e+00 -2.667627e+01 2.765527e+01 4.473697e-06 7.962525e-03 -1.520996e-01 1.120605e-01
-3.074109e-01 3.551197e+00 -2.667871e+01 2.764941e+01 7.930819e-08 7.975944e-03 -1.520996e-01 1.120605e-01
-3.018499e-01 3.550338e+00 -2.668188e+01 2.490527e+01 2.351095e-06 7.966408e-03 -1.520996e-01 1.120605e-01
-3.066096e-01 3.554284e+00 -2.668311e+01 2.764185e+01 -6.267491e-07 7.946001e-03 -1.520996e-01 1.120605e-01
-3.045519e-01 3.552508e+00 -2.668799e+01 2.763623e+01 8.230476e-06 7.940910e-03 -1.520996e-01 1.120605e-01
-3.056030e-01 3.553392e+00 -2.669189e+01 2.763159e+01 8.122302e-07 7.947546e-03 -1.591797e-01 1.120605e-01
-3.027931e-01 3.550811e+00 -2.669531e+01 2.762964e+01 1.795223e-06 7.959176e-03 -1.503906e-01 1.120605e-01
-2.957379e-01 3.544181e+00 -2.669800e+01 2.762817e+01 1.034293e-06 7.927195e-03 -1.520996e-01 1.120605e-01
-3.116308e-01 3.549371e+00 -2.670093e+01 2.762622e+01 4.440544e-06 7.943870e-03 -1.591797e-01 1.120605e-01
-3.094779e-01 3.546964e+00 -2.670483e+01 2.762378e+01 -2.238920e-06 7.899501e-03 -1.591797e-01 1.120605e-01
-3.074382e-01 3.550198e+00 -2.670898e+01 2.762109e+01 7.023419e-07 7.925196e-03 -1.520996e-01 1.120605e-01
-3.096868e-01 3.553042e+00 -2.671899e+01 2.761987e+01 5.266778e-06 7.946971e-03 -1.591797e-01 1.120605e-01
-3.038686e-01 3.545973e+00 -2.672998e+01 2.761694e+01 7.323504e-07 7.931910e-03 -1.520996e-01 1.120605e-01
-3.071357e-01 3.553331e+00 -2.673071e+01 2.761377e+01 3.765782e-06 7.930259e-03 -1.520996e-01 1.120605e-01
-2.991639e-01 3.541043e+00 -2.674365e+01 2.761279e+01 -8.849651e-07 7.905553e-03 -1.591797e-01 1.120605e-01
-3.123425e-01 3.553451e+00 -2.674414e+01 2.761084e+01 3.911109e-06 7.918749e-03 -1.591797e-01 1.120605e-01
-3.099506e-01 3.560973e+00 -2.676221e+01 2.760791e+01 3.894675e-06 7.914307e-03 -1.591797e-01 1.120605e-01
-3.089293e-01 3.542551e+00 -2.676685e+01 2.760742e+01 -1.711485e-06 7.910086e-03 -1.591797e-01 1.120605e-01
-3.067752e-01 3.549414e+00 -2.677637e+01 2.760449e+01 5.854231e-06 7.927249e-03 -1.591797e-01 1.120605e-01
-2.990398e-01 3.545255e+00 -2.677783e+01 2.760522e+01 2.610740e-07 7.891957e-03 -1.591797e-01 1.120605e-01
-3.040087e-01 3.552016e+00 -2.679346e+01 2.760498e+01 1.223347e-06 7.916326e-03 -1.520996e-01 1.120605e-01
-3.073748e-01 3.560245e+00 -2.680127e+01 2.760547e+01 5.188042e-06 7.942277e-03 -1.591797e-01 1.120605e-01
-3.104700e-01 3.552415e+00 -2.681909e+01 2.760645e+01 2.181047e-06 7.902049e-03 -1.520996e-01 1.120605e-01
-3.035265e-01 3.543187e+00 -2.682495e+01 2.760913e+01 1.061444e-06 7.956455e-03 -1.591797e-01 1.120605e-01
-3.028447e-01 3.547741e+00 -2.683203e+01 2.761157e+01 3.497849e-06 7.932506e-03 -1.591797e-01 1.120605e-01
-3.110883e-01 3.541331e+00 -2.684277e+01 2.761353e+01 6.820933e-06 7.914737e-03 -1.591797e-01 1.120605e-01
-3.024516e-01 3.549713e+00 -2.685962e+01 2.761304e+01 -2.167757e-06 7.903563e-03 -1.591797e-01 1.120605e-01
-3.120658e-01 3.553378e+00 -2.687354e+01 2.761572e+01 3.393676e-06 7.915608e-03 -1.591797e-01 1.120605e-01
-3.028876e-01 3.549491e+00 -2.689307e+01 2.761719e+01 1.463129e-06 7.937392e-03 -1.591797e-01 1.120605e-01
-3.032944e-01 3.551701e+00 -2.690161e+01 2.762207e+01 4.091017e-06 7.949700e-03 -1.591797e-01 1.120605e-01
-3.092966e-01 3.547611e+00 -2.690405e+01 2.762256e+01 6.318934e-07 7.958232e-03 -1.591797e-01 1.120605e-01
-3.074393e-01 3.549154e+00 -2.691748e+01 2.762671e+01 4.770638e-06 7.944656e-03 -1.591797e-01 1.120605e-01
-3.089683e-01 3.555481e+00 -2.694238e+01 2.762866e+01 4.274640e-06 7.960873e-03 -1.591797e-01 1.120605e-01
-3.081534e-01 3.555241e+00 -2.695215e+01 2.763159e+01 5.694042e-06 7.966534e-03 -1.596680e-01 1.120605e-01
-3.090693e-01 3.549747e+00 -2.697852e+01 2.490283e+01 3.258066e-08 7.975124e-03 -1.596680e-01 1.120605e-01
-3.073145e-01 3.555438e+00 -2.699609e+01 2.763916e+01 2.741777e-06 7.959809e-03 -1.596680e-01 1.120605e-01
-3.106533e-01 3.553985e+00 -2.700610e+01 2.764771e+01 4.448547e-06 7.976003e-03 -1.596680e-01 1.120605e-01
-3.110944e-01 3.551777e+00 -2.702612e+01 2.765161e+01 4.874667e-06 7.998562e-03 -1.596680e-01 1.120605e-01
-3.073782e-01 3.558902e+00 -2.704224e+01 2.765234e+01 7.041996e-07 8.021554e-03 -1.591797e-01 1.120605e-01
-3.206771e-01 3.553334e+00 -2.706006e+01 2.765845e+01 2.676616e-06 8.022719e-03 -1.596680e-01 1.120605e-01
-3.122540e-01 3.554324e+00 -2.706860e+01 2.766602e+01 2.825229e-06 8.044817e-03 -1.672363e-01 1.120605e-01
-3.150111e-01 3.556706e+00 -2.708789e+01 2.766553e+01 7.945395e-06 8.023736e-03 -1.672363e-01 1.120605e-01
-3.149596e-01 3.553114e+00 -2.711890e+01 2.767432e+01 -1.163044e-06 8.051656e-03 -1.672363e-01 1.120605e-01
-3.166732e-01 3.557730e+00 -2.712769e+01 2.767480e+01 5.830367e-06 8.060856e-03 -1.672363e-01 1.120605e-01
-3.147132e-01 3.559139e+00 -2.714966e+01 2.767944e+01 2.887676e-06 8.050753e-03 -1.672363e-01 1.120605e-01
-3.179140e-01 3.556039e+00 -2.717505e+01 2.768701e+01 2.598022e-06 8.085630e-03 -1.672363e-01 1.120605e-01
-3.164928e-01 3.557369e+00 -2.719263e+01 2.769775e+01 3.028430e-06 8.084194e-03 -1.672363e-01 1.120605e-01
-3.149962e-01 3.555650e+00 -2.721899e+01 2.770654e+01 4.411965e-06 8.100722e-03 -1.672363e-01 1.120605e-01
-3.159203e-01 3.558680e+00 -2.723706e+01 2.771436e+01 3.890960e-06 8.099094e-03 -1.672363e-01 1.120605e-01
-3.171807e-01 3.565179e+00 -2.727124e+01 2.772095e+01 3.984558e-06 8.115080e-03 -1.672363e-01 1.120605e-01
-3.232803e-01 3.560417e+00 -2.728564e+01 2.772900e+01 4.495417e-06 8.173491e-03 -1.672363e-01 1.120605e-01
-3.174332e-01 3.572821e+00 -2.730786e+01 2.773730e+01 2.773072e-06 8.173210e-03 -1.672363e-01 1.120605e-01
-3.195499e-01 3.560942e+00 -2.733032e+01 2.775513e+01 4.160608e-06 8.218171e-03 -1.672363e-01 1.120605e-01
-3.182879e-01 3.561820e+00 -2.735156e+01 2.776709e+01 6.610302e-06 8.209118e-03 -1.672363e-01 1.120605e-01
-3.182202e-01 3.572284e+00 -2.738574e+01 2.777832e+01 3.748634e-06 8.227321e-03 -1.672363e-01 1.120605e-01
-3.126651e-01 3.563823e+00 -2.740869e+01 2.778613e+01 2.702766e-06 8.266040e-03 -1.672363e-01 1.120605e-01
-3.201203e-01 3.571486e+00 -2.742480e+01 2.780103e+01 5.087585e-06 8.296966e-03 -1.672363e-01 1.120605e-01
-3.209046e-01 3.568718e+00 -2.404541e+01 2.781372e+01 5.128311e-06 8.329808e-03 -1.672363e-01 1.120605e-01
-3.313979e-01 3.567425e+00 -2.749487e+01 2.782349e+01 5.200617e-06 8.344516e-03 -1.743164e-01 1.120605e-01
-3.199186e-01 3.568567e+00 -2.752393e+01 2.784521e+01 5.880667e-06 8.386004e-03 -1.672363e-01 1.120605e-01
-3.226761e-01 3.570494e+00 -2.754688e+01 2.785254e+01 4.432971e-06 8.394559e-03 -1.743164e-01 1.120605e-01
-3.213664e-01 3.572035e+00 -2.756226e+01 2.786523e+01 2.712626e-06 8.448505e-03 -1.743164e-01 1.120605e-01
-3.238337e-01 3.574498e+00 -2.760913e+01 2.789185e+01 3.660895e-06 8.472423e-03 -1.743164e-01 1.120605e-01
-3.263021e-01 3.582568e+00 -2.763354e+01 2.790210e+01 3.697191e-06 8.514015e-03 -1.806641e-01 1.120605e-01
-3.229341e-01 3.570839e+00 -2.767261e+01 2.792065e+01 7.766487e-06 8.551479e-03 -1.806641e-01 1.120605e-01
-3.261211e-01 3.577405e+00 -2.770239e+01 2.794067e+01 4.713907e-06 8.603356e-03 -1.743164e-01 1.120605e-01
-3.316243e-01 3.579114e+00 -2.771240e+01 2.797144e+01 4.665322e-06 8.627587e-03 -1.806641e-01 1.120605e-01
-3.322979e-01 3.582450e+00 -2.774927e+01 2.799194e+01 5.533854e-06 8.674581e-03 -1.806641e-01 1.240234e-01
-3.358936e-01 3.586280e+00 -2.779907e+01 2.799658e+01 6.415533e-06 8.743247e-03 -1.806641e-01 1.120605e-01
-3.348293e-01 3.590170e+00 -2.783472e+01 2.801270e+01 5.631882e-06 8.772961e-03 -1.806641e-01 1.120605e-01
-3.313240e-01 3.589734e+00 -2.787134e+01 2.803076e+01 4.807505e-06 8.855307e-03 -1.806641e-01 1.120605e-01
-3.291663e-01 3.588286e+00 -2.789624e+01 2.805127e+01 3.919111e-06 8.889019e-03 -1.806641e-01 1.240234e-01
-3.393678e-01 3.589732e+00 -2.793896e+01 2.807495e+01 5.415106e-06 8.953430e-03 -1.806641e-01 1.120605e-01
-3.371332e-01 3.589736e+00 -2.794727e+01 2.810645e+01 9.771341e-07 9.019497e-03 -1.806641e-01 1.240234e-01
-3.397158e-01 3.592247e+00 -2.798145e+01 2.551367e+01 5.882382e-06 9.072426e-03 -1.806641e-01 1.240234e-01
-3.381876e-01 3.594851e+00 -2.802100e+01 2.814966e+01 3.975412e-07 9.184484e-03 -1.862793e-01 1.240234e-01
-3.417640e-01 3.606003e+00 -2.807544e+01 2.817505e+01 1.053399e-05 9.214518e-03 -1.806641e-01 1.240234e-01
-3.496169e-01 3.607450e+00 -2.809155e+01 2.819995e+01 7.337651e-06 9.307815e-03 -1.806641e-01 1.240234e-01
-3.461729e-01 3.613366e+00 -2.812939e+01 2.824097e+01 4.899817e-06 9.352731e-03 -1.862793e-01 1.240234e-01
-3.444891e-01 3.600437e+00 -2.818750e+01 2.825928e+01 3.991560e-06 9.394545e-03 -1.862793e-01 1.240234e-01
-3.543834e-01 3.594866e+00 -2.819971e+01 2.830029e+01 -3.156609e-07 9.497993e-03 -1.862793e-01 1.240234e-01
-3.530601e-01 3.609997e+00 -2.823804e+01 2.832129e+01 4.415537e-06 9.558762e-03 -1.862793e-01 1.240234e-01
-3.515039e-01 3.613648e+00 -2.829468e+01 2.837817e+01 6.076722e-06 9.652126e-03 -1.862793e-01 1.240234e-01
-3.581607e-01 3.620841e+00 -2.831567e+01 2.839429e+01 -1.933691e-06 9.703408e-03 -1.909180e-01 1.352539e-01
-3.583597e-01 3.620353e+00 -2.837280e+01 2.843823e+01 7.502269e-06 9.826289e-03 -1.909180e-01 1.352539e-01
-3.551829e-01 3.618599e+00 -2.842773e+01 2.846826e+01 9.592719e-07 9.874315e-03 -1.909180e-01 1.352539e-01
-3.563872e-01 3.627014e+00 -2.844116e+01 2.847876e+01 1.015716e-06 9.987838e-03 -1.909180e-01 1.352539e-01
-3.538533e-01 3.628006e+00 -2.848096e+01 2.849927e+01 2.719342e-06 1.006072e-02 -1.862793e-01 1.352539e-01
-3.550680e-01 3.649501e+00 -2.855396e+01 2.855688e+01 -1.347525e-07 1.013663e-02 -1.909180e-01 1.352539e-01
-3.604667e-01 3.632701e+00 -2.858740e+01 2.856226e+01 1.072161e-06 1.025452e-02 -1.909180e-01 1.352539e-01
-3.724154e-01 3.647552e+00 -2.863916e+01 2.859131e+01 2.414541e-06 1.036853e-02 -1.909180e-01 1.352539e-01
-3.670367e-01 3.649646e+00 -2.864478e+01 2.863794e+01 2.526573e-06 1.040474e-02 -1.909180e-01 1.352539e-01
-3.686119e-01 3.648317e+00 -2.867432e+01 2.864893e+01 1.843237e-06 1.056764e-02 -1.950684e-01 1.462402e-01
-3.620642e-01 3.651887e+00 -2.871411e+01 2.868774e+01 4.171182e-07 1.067289e-02 -1.950684e-01 1.462402e-01
-3.668228e-01 3.662265e+00 -2.876318e+01 2.872119e+01 1.868815e-06 1.075838e-02 -1.950684e-01 1.462402e-01
-3.692318e-01 3.670757e+00 -2.876758e+01 2.875952e+01 8.290921e-07 1.086866e-02 -1.950684e-01 1.462402e-01
-3.697969e-01 3.667150e+00 -2.879004e+01 2.603027e+01 -4.812793e-07 1.094641e-02 -1.950684e-01 1.462402e-01
-3.659104e-01 3.668429e+00 -2.883203e+01 2.881714e+01 -3.399678e-06 1.100544e-02 -1.950684e-01 1.462402e-01
-3.670480e-01 3.672942e+00 -2.885767e+01 2.882715e+01 -7.765058e-07 1.109769e-02 -1.950684e-01 1.462402e-01
-3.698908e-01 3.686377e+00 -2.888721e+01 2.886108e+01 4.398389e-06 1.121412e-02 -1.950684e-01 1.562500e-01
-3.755108e-01 3.680800e+00 -2.891455e+01 2.887744e+01 3.293648e-06 1.131861e-02 -1.950684e-01 1.462402e-01
-3.778156e-01 3.695377e+00 -2.894385e+01 2.891553e+01 7.149169e-07 1.135249e-02 -1.950684e-01 1.462402e-01
-3.732606e-01 3.699564e+00 -2.895361e+01 2.892749e+01 2.954980e-06 1.152723e-02 -1.909180e-01 1.562500e-01
-3.804444e-01 3.701114e+00 -2.897144e+01 2.896313e+01 -3.202336e-07 1.159809e-02 -1.950684e-01 1.462402e-01
-3.766099e-01 3.704180e+00 -2.899316e+01 2.898901e+01 5.761347e-06 1.169590e-02 -1.909180e-01 1.562500e-01
-3.902738e-01 3.714494e+00 -2.900903e+01 2.900854e+01 8.753910e-07 1.177123e-02 -1.865234e-01 1.562500e-01
-3.819378e-01 3.714338e+00 -2.905786e+01 2.905615e+01 4.459978e-06 1.183309e-02 -1.909180e-01 1.562500e-01
-3.772783e-01 3.709399e+00 -2.905029e+01 2.438037e+01 -1.002141e-06 1.196414e-02 -1.909180e-01 1.562500e-01
-3.847983e-01 3.724483e+00 -2.906250e+01 2.912012e+01 3.164754e-06 1.215533e-02 -1.909180e-01 1.562500e-01
-3.880963e-01 3.737680e+00 -2.907764e+01 2.911108e+01 3.952978e-06 1.211419e-02 -1.909180e-01 1.562500e-01
-3.809682e-01 3.732795e+00 -2.908154e+01 2.912744e+01 1.551868e-06 1.228007e-02 -1.909180e-01 1.562500e-01
-3.896897e-01 3.735158e+00 -2.909399e+01 2.915894e+01 1.967129e-06 1.237291e-02 -1.909180e-01 1.562500e-01
-3.855303e-01 3.735177e+00 -2.909790e+01 2.918213e+01 -2.437834e-07 1.227544e-02 -1.909180e-01 1.562500e-01
-3.904803e-01 3.751685e+00 -2.909180e+01 2.924268e+01 6.841939e-07 1.245685e-02 -1.909180e-01 1.562500e-01
-3.907741e-01 3.751044e+00 -2.909912e+01 2.924414e+01 3.329658e-06 1.241602e-02 -1.823730e-01 1.562500e-01
-3.891755e-01 3.751904e+00 -2.908496e+01 2.927441e+01 -2.120029e-06 1.247585e-02 -1.909180e-01 1.655273e-01
-3.908517e-01 3.759199e+00 -2.909814e+01 2.930908e+01 -3.029859e-06 1.264144e-02 -1.823730e-01 1.655273e-01
-3.878333e-01 3.768350e+00 -2.908789e+01 2.933228e+01 -2.138320e-06 1.255781e-02 -1.862793e-01 1.562500e-01
-3.964865e-01 3.769594e+00 -2.910034e+01 2.934961e+01 -2.308511e-06 1.277234e-02 -1.865234e-01 1.655273e-01
-3.869227e-01 3.771910e+00 -2.433423e+01 2.939258e+01 -2.724201e-06 1.269361e-02 -1.862793e-01 1.655273e-01
-3.899876e-01 3.775085e+00 -2.908984e+01 2.941455e+01 -5.908389e-06 1.280535e-02 -1.862793e-01 1.562500e-01
-3.866472e-01 3.779780e+00 -2.915259e+01 2.946387e+01 7.498554e-06 1.299515e-02 -1.862793e-01 1.655273e-01
-3.851813e-01 3.774796e+00 -2.914111e+01 2.948730e+01 -1.009715e-05 1.291760e-02 -1.862793e-01 1.655273e-01
-3.820710e-01 3.790021e+00 -2.914282e+01 2.948901e+01 -8.582433e-07 1.286055e-02 -1.823730e-01 1.655273e-01
-3.853584e-01 3.786994e+00 -2.913940e+01 2.950562e+01 -8.628160e-07 1.292147e-02 -1.862793e-01 1.655273e-01
-3.826204e-01 3.795544e+00 -2.917041e+01 2.955176e+01 -9.177601e-06 1.300490e-02 -1.862793e-01 1.655273e-01
-3.858965e-01 3.795492e+00 -2.916382e+01 2.955249e+01 -7.388666e-06 1.310856e-02 -1.862793e-01 1.655273e-01
-3.828923e-01 3.812662e+00 -2.915552e+01 2.959497e+01 -6.348942e-07 1.314075e-02 -1.862793e-01 1.655273e-01
-3.880752e-01 3.812118e+00 -2.916357e+01 2.960400e+01 -7.224048e-06 1.310206e-02 -1.823730e-01 1.655273e-01
-3.907308e-01 3.810905e+00 -2.914233e+01 2.963721e+01 -1.010858e-05 1.319886e-02 -1.823730e-01 1.655273e-01
-3.838735e-01 3.818547e+00 -2.912646e+01 2.965137e+01 -3.382387e-06 1.325450e-02 -1.862793e-01 1.655273e-01
-3.820189e-01 3.832082e+00 -2.913037e+01 2.967139e+01 -3.520998e-07 1.332917e-02 -1.823730e-01 1.655273e-01
-3.804504e-01 3.823821e+00 -2.913086e+01 2.971753e+01 -1.614886e-06 1.346860e-02 -1.862793e-01 1.655273e-01
-3.779039e-01 3.832388e+00 -2.909961e+01 2.972681e+01 -6.544712e-07 1.337610e-02 -1.862793e-01 1.655273e-01
-3.837622e-01 3.833486e+00 -2.909717e+01 2.973828e+01 -3.258495e-06 1.338603e-02 -1.862793e-01 1.738281e-01
-3.830594e-01 3.841562e+00 -2.909961e+01 2.975244e+01 -9.318641e-06 1.332393e-02 -1.862793e-01 1.655273e-01
-3.706673e-01 3.833868e+00 -2.905859e+01 2.977368e+01 -9.895948e-06 1.349035e-02 -1.823730e-01 1.694336e-01
-3.769930e-01 3.840251e+00 -2.904419e+01 2.980078e+01 -1.033664e-05 1.335978e-02 -1.823730e-01 1.682129e-01
-3.759873e-01 3.845080e+00 -2.907300e+01 2.630518e+01 -4.477269e-06 1.337074e-02 -1.823730e-01 1.655273e-01
-3.634056e-01 3.854444e+00 -2.901562e+01 2.984497e+01 -7.131307e-06 1.346189e-02 -1.823730e-01 1.738281e-01
-3.682692e-01 3.857162e+00 -2.903003e+01 2.987866e+01 1.543295e-06 1.335067e-02 -1.862793e-01 1.738281e-01
-3.703925e-01 3.857847e+00 -2.899097e+01 2.988403e+01 -5.953973e-06 1.349790e-02 -1.862793e-01 1.738281e-01
-3.721532e-01 3.864775e+00 -2.896313e+01 2.995581e+01 -2.792934e-06 1.360748e-02 -1.862793e-01 1.762695e-01
-3.650393e-01 3.871923e+00 -2.892578e+01 2.996338e+01 -1.157128e-05 1.368379e-02 -1.862793e-01 1.767578e-01
-3.609139e-01 3.881847e+00 -2.891138e+01 2.997534e+01 -4.253634e-06 1.364866e-02 -1.862793e-01 1.782227e-01
-3.666764e-01 3.879087e+00 -2.889429e+01 2.999561e+01 -8.802638e-06 1.352412e-02 -1.862793e-01 1.826172e-01
-3.603264e-01 3.886667e+00 -2.886914e+01 3.002661e+01 5.657604e-06 1.380670e-02 -1.862793e-01 1.806641e-01
-3.539457e-01 3.890947e+00 -2.885278e+01 3.005103e+01 -4.948831e-06 1.349457e-02 -1.909180e-01 1.826172e-01
-3.475260e-01 3.885809e+00 -2.881250e+01 3.007739e+01 -4.788643e-06 1.362381e-02 -1.862793e-01 1.840820e-01
-3.426962e-01 3.894285e+00 -2.876514e+01 3.010132e+01 -7.757770e-06 1.394522e-02 -1.862793e-01 1.848145e-01
-3.498999e-01 3.905391e+00 -2.874146e+01 3.011938e+01 -7.435822e-06 1.386236e-02 -1.909180e-01 1.867676e-01
-3.514349e-01 3.904516e+00 -2.871436e+01 3.017456e+01 -4.555291e-06 1.396390e-02 -1.909180e-01 1.875000e-01
-3.474311e-01 3.906758e+00 -2.455420e+01 3.023047e+01 -6.018420e-06 1.398528e-02 -1.909180e-01 1.945801e-01
-3.415632e-01 3.910237e+00 -2.865942e+01 3.023169e+01 -8.585433e-06 1.418278e-02 -1.909180e-01 1.955566e-01
-3.303983e-01 3.912939e+00 -2.861914e+01 3.026733e+01 -1.132778e-05 1.407627e-02 -1.909180e-01 1.962891e-01
-3.401508e-01 3.919566e+00 -2.860498e+01 3.030396e+01 -4.823510e-06 1.414853e-02 -1.909180e-01 1.997070e-01
-3.418068e-01 3.920492e+00 -2.858374e+01 3.035791e+01 -1.318059e-05 1.415938e-02 -1.909180e-01 1.904297e-01
-3.274550e-01 3.925954e+00 -2.855127e+01 3.037085e+01 -8.419243e-06 1.416592e-02 -1.909180e-01 1.992188e-01
-3.265082e-01 3.931603e+00 -2.851245e+01 3.040112e+01 -2.898679e-06 1.425619e-02 -1.909180e-01 2.011719e-01
-3.266523e-01 3.939725e+00 -2.847705e+01 3.040942e+01 -1.932691e-06 1.441189e-02 -1.950684e-01 2.014160e-01
-3.130316e-01 3.939254e+00 -2.842969e+01 3.045898e+01 2.046294e-06 1.442983e-02 -1.950684e-01 2.028809e-01
-3.151543e-01 3.941488e+00 -2.839624e+01 3.049316e+01 3.655750e-06 1.441694e-02 -1.950684e-01 1.926270e-01
-3.055892e-01 3.955952e+00 -2.834619e+01 3.053052e+01 4.907962e-06 1.443888e-02 -1.950684e-01 2.080078e-01
-3.108905e-01 3.965527e+00 -2.831470e+01 3.055615e+01 -7.884949e-06 1.448649e-02 -1.950684e-01 2.016602e-01
-2.944272e-01 3.955041e+00 -2.830249e+01 3.057275e+01 -4.581870e-06 1.449821e-02 -1.862793e-01 2.023926e-01
-3.034443e-01 3.962699e+00 -2.828784e+01 3.061255e+01 4.098162e-06 1.472494e-02 -1.950684e-01 2.041016e-01
-2.898413e-01 3.963633e+00 -2.825659e+01 3.063110e+01 1.176476e-06 1.471393e-02 -1.950684e-01 2.102051e-01
-2.891594e-01 3.978516e+00 -2.445044e+01 3.066064e+01 -1.214201e-06 1.465826e-02 -1.950684e-01 2.055664e-01
-2.914844e-01 3.976913e+00 -2.440942e+01 2.707861e+01 3.260353e-06 1.468909e-02 -1.950684e-01 2.075195e-01
-2.895617e-01 3.986989e+00 -2.817139e+01 3.070093e+01 -1.715343e-06 1.490557e-02 -1.950684e-01 2.011719e-01
-2.849710e-01 3.989162e+00 -2.814502e+01 3.075586e+01 4.138744e-06 1.506820e-02 -1.950684e-01 2.097168e-01
-2.786352e-01 3.988772e+00 -2.810864e+01 3.076953e+01 7.056143e-06 1.510822e-02 -1.950684e-01 2.099609e-01
-2.643523e-01 3.992342e+00 -2.436401e+01 3.079932e+01 6.165319e-06 1.523882e-02 -1.950684e-01 2.106934e-01
-2.672053e-01 3.996623e+00 -2.805273e+01 3.080322e+01 -2.690334e-06 1.519510e-02 -1.950684e-01 1.972656e-01
-2.584629e-01 4.004257e+00 -2.802856e+01 3.082471e+01 8.352653e-06 1.532890e-02 -1.916504e-01 2.011719e-01
-2.585714e-01 4.005042e+00 -2.796313e+01 3.084375e+01 8.279490e-07 1.523647e-02 -1.916504e-01 1.989746e-01
-2.516685e-01 4.014759e+00 -2.796069e+01 3.087573e+01 6.431394e-06 1.527802e-02 -1.918945e-01 2.019043e-01
-2.565601e-01 4.017022e+00 -2.792529e+01 3.086865e+01 -1.066331e-05 1.546835e-02 -1.950684e-01 2.028809e-01
-2.421385e-01 4.019120e+00 -2.793237e+01 3.087769e+01 2.078961e-05 1.551469e-02 -1.950684e-01 2.031250e-01
-2.440584e-01 4.016032e+00 -2.788721e+01 3.089868e+01 7.823503e-06 1.545738e-02 -1.950684e-01 2.028809e-01
-2.448727e-01 4.031932e+00 -2.787769e+01 3.092285e+01 -3.313796e-06 1.540425e-02 -1.965332e-01 1.984863e-01
-2.366861e-01 4.035487e+00 -2.787964e+01 3.092065e+01 -1.303941e-06 1.552252e-02 -2.021484e-01 2.050781e-01
-2.279626e-01 4.034985e+00 -2.784521e+01 3.091870e+01 -3.167898e-06 1.546440e-02 -2.036133e-01 2.045898e-01
-2.325191e-01 4.037942e+00 -2.782544e+01 3.096240e+01 -1.385393e-06 1.553884e-02 -2.045898e-01 2.050781e-01
-2.268763e-01 4.048225e+00 -2.781079e+01 3.095264e+01 -1.740922e-06 1.559732e-02 -2.004395e-01 2.055664e-01
-2.245268e-01 4.047593e+00 -2.780933e+01 3.096558e+01 -2.161756e-06 1.567555e-02 -2.011719e-01 2.062988e-01
-2.178787e-01 4.047432e+00 -2.429126e+01 2.779858e+01 -2.114742e-06 1.549299e-02 -2.038574e-01 1.984863e-01
-2.100619e-01 4.061872e+00 -2.775415e+01 3.098999e+01 -7.052999e-06 1.566157e-02 -2.006836e-01 1.999512e-01
-2.074074e-01 4.049319e+00 -2.428906e+01 2.784863e+01 1.482420e-06 1.592866e-02 -2.045898e-01 2.026367e-01
-2.073624e-01 4.053906e+00 -2.773193e+01 3.098779e+01 -1.436407e-06 1.576234e-02 -2.048340e-01 1.999512e-01
-1.866731e-01 4.056421e+00 -2.771436e+01 3.098975e+01 -8.100725e-06 1.570314e-02 -2.058105e-01 2.026367e-01
-1.918329e-01 4.072128e+00 -2.767676e+01 3.097437e+01 7.903669e-07 1.567342e-02 -1.965332e-01 2.026367e-01
-1.880913e-01 4.079756e+00 -2.765381e+01 3.098047e+01 -5.751487e-06 1.595500e-02 -2.006836e-01 2.026367e-01
-2.020678e-01 4.074555e+00 -2.764185e+01 3.098315e+01 -3.960408e-06 1.590280e-02 -2.036133e-01 2.038574e-01
-1.784687e-01 4.084285e+00 -2.761670e+01 3.097534e+01 -9.620012e-06 1.576832e-02 -1.965332e-01 2.089844e-01
-1.807987e-01 4.090688e+00 -2.761914e+01 3.096216e+01 -1.741779e-06 1.593013e-02 -1.965332e-01 2.094727e-01
-1.809765e-01 4.090362e+00 -2.760352e+01 3.095093e+01 -1.360114e-05 1.586715e-02 -2.065430e-01 2.026367e-01
-1.747602e-01 4.096253e+00 -2.761108e+01 3.095117e+01 -1.785935e-06 1.561209e-02 -1.982422e-01 2.026367e-01
-1.626032e-01 4.090006e+00 -2.758301e+01 2.514795e+01 -7.913529e-06 1.586429e-02 -1.965332e-01 2.053223e-01
-1.553153e-01 4.097952e+00 -2.760791e+01 3.095605e+01 -9.723184e-06 1.569521e-02 -1.972656e-01 2.062988e-01
-1.602517e-01 4.103585e+00 -2.757544e+01 3.095557e+01 -1.960370e-05 1.584549e-02 -2.006836e-01 2.060547e-01
-1.528994e-01 4.100923e+00 -2.440137e+01 2.829028e+01 -7.946824e-06 1.583838e-02 -2.028809e-01 2.119141e-01
-1.547182e-01 4.111108e+00 -2.757300e+01 2.827808e+01 3.236632e-07 1.572698e-02 -2.009277e-01 2.089844e-01
-1.488994e-01 4.109784e+00 -2.757031e+01 3.091260e+01 -3.964695e-06 1.589636e-02 -2.006836e-01 2.202148e-01
-1.469910e-01 4.119623e+00 -2.754688e+01 3.090332e+01 -1.359128e-05 1.590542e-02 -2.070312e-01 2.062988e-01
-1.469217e-01 4.108499e+00 -2.440967e+01 3.089795e+01 -2.988133e-06 1.574997e-02 -2.087402e-01 2.150879e-01
-1.434267e-01 4.126902e+00 -2.754053e+01 3.086060e+01 -9.113154e-06 1.581148e-02 -2.006836e-01 2.062988e-01
-1.368297e-01 4.116582e+00 -2.752783e+01 2.841797e+01 -1.426319e-05 1.569908e-02 -2.006836e-01 2.062988e-01
-1.339562e-01 4.132538e+00 -2.753687e+01 3.081372e+01 -1.351669e-06 1.585927e-02 -2.006836e-01 2.224121e-01
-1.247251e-01 4.132721e+00 -2.751758e+01 3.078247e+01 -1.365173e-05 1.600843e-02 -2.097168e-01 2.153320e-01
-1.162009e-01 4.138859e+00 -2.752441e+01 3.078687e+01 -1.919115e-07 1.577979e-02 -2.006836e-01 2.229004e-01
-1.216687e-01 4.138948e+00 -2.751123e+01 3.075806e+01 -2.619028e-06 1.603670e-02 -2.006836e-01 2.236328e-01
-1.200441e-01 4.142634e+00 -2.749243e+01 3.074243e+01 -7.454113e-06 1.591708e-02 -2.006836e-01 2.155762e-01
-1.085209e-01 4.137864e+00 -2.750024e+01 3.070996e+01 1.429691e-06 1.566488e-02 -2.006836e-01 2.207031e-01
-1.109116e-01 4.145982e+00 -2.748486e+01 3.071338e+01 -6.420963e-06 1.569043e-02 -2.006836e-01 2.153320e-01
-1.029154e-01 4.141529e+00 -2.746313e+01 3.068506e+01 8.716756e-08 1.571905e-02 -2.055664e-01 2.062988e-01
-1.052726e-01 4.144690e+00 -2.744897e+01 3.066406e+01 -8.897951e-06 1.579045e-02 -2.082520e-01 2.145996e-01
-9.125995e-02 4.149860e+00 -2.745093e+01 3.058252e+01 -1.008843e-05 1.590016e-02 -2.006836e-01 2.221680e-01
-9.040714e-02 4.153714e+00 -2.743726e+01 3.059131e+01 -6.026851e-06 1.561988e-02 -2.006836e-01 2.150879e-01
-8.885365e-02 4.152494e+00 -2.743335e+01 3.056738e+01 -6.337511e-07 1.545832e-02 -2.082520e-01 2.204590e-01
-8.627515e-02 4.161323e+00 -2.742529e+01 3.050610e+01 -9.272342e-06 1.576819e-02 -2.006836e-01 2.229004e-01
-7.261416e-02 4.161255e+00 -2.742114e+01 3.051514e+01 6.531851e-07 1.566495e-02 -2.006836e-01 2.263184e-01
-7.570291e-02 4.169892e+00 -2.741626e+01 3.049927e+01 -1.277005e-05 1.561193e-02 -2.094727e-01 2.238770e-01
-7.133614e-02 4.173355e+00 -2.741602e+01 3.046851e+01 -6.651742e-06 1.568368e-02 -2.006836e-01 2.153320e-01
-6.912393e-02 4.178091e+00 -2.736963e+01 2.883228e+01 -1.565001e-05 1.545923e-02 -2.026367e-01 2.062988e-01
-6.111403e-02 4.175521e+00 -2.737646e+01 3.043872e+01 -6.836509e-06 1.561459e-02 -2.026367e-01 2.263184e-01
-5.713925e-02 4.178764e+00 -2.736230e+01 3.040674e+01 -6.077580e-06 1.570481e-02 -2.106934e-01 2.104492e-01
-6.848795e-02 4.182563e+00 -2.736060e+01 3.040942e+01 -2.060584e-07 1.561060e-02 -2.006836e-01 2.280273e-01
-5.917875e-02 4.184928e+00 -2.736816e+01 3.037524e+01 1.231349e-06 1.569103e-02 -2.026367e-01 2.172852e-01
-5.570215e-02 4.185559e+00 -2.730835e+01 3.035742e+01 -3.124886e-06 1.545832e-02 -2.011719e-01 2.282715e-01
-4.847567e-02 4.183512e+00 -2.731787e+01 3.030908e+01 -1.189594e-05 1.551040e-02 -2.006836e-01 2.285156e-01
-4.750068e-02 4.191597e+00 -2.729614e+01 3.030811e+01 -1.859684e-05 1.565637e-02 -2.006836e-01 2.270508e-01
-4.753279e-02 4.196160e+00 -2.728442e+01 3.027930e+01 1.651468e-06 1.553564e-02 -2.043457e-01 2.277832e-01
-4.200798e-02 4.182105e+00 -2.724780e+01 3.022363e+01 -6.868375e-06 1.534713e-02 -2.119141e-01 2.106934e-01
-3.763718e-02 4.188053e+00 -2.724219e+01 3.022656e+01 -1.171175e-05 1.566027e-02 -2.043457e-01 2.343750e-01
-1.871806e-02 4.194327e+00 -2.721558e+01 3.021191e+01 -7.082007e-07 1.530170e-02 -2.014160e-01 2.114258e-01
-2.502549e-02 4.199632e+00 -2.722974e+01 3.020703e+01 5.697329e-07 1.543753e-02 -2.043457e-01 2.128906e-01
-2.805612e-02 4.197739e+00 -2.721045e+01 3.018433e+01 -8.710612e-06 1.542075e-02 -2.111816e-01 2.077637e-01
-2.056312e-02 4.204854e+00 -2.718408e+01 2.897119e+01 -9.617440e-06 1.533377e-02 -2.043457e-01 2.282715e-01
-2.562401e-02 4.206947e+00 -2.716406e+01 3.008057e+01 -8.415957e-06 1.534870e-02 -2.043457e-01 2.077637e-01
-1.706582e-02 4.207852e+00 -2.714038e+01 3.012842e+01 -5.494272e-06 1.535730e-02 -2.043457e-01 2.067871e-01
-1.960782e-02 4.212455e+00 -2.711328e+01 3.010620e+01 -9.917097e-06 1.528482e-02 -2.043457e-01 2.070312e-01
-1.849799e-02 4.214043e+00 -2.709692e+01 3.008203e+01 -3.471127e-06 1.545861e-02 -2.043457e-01 2.070312e-01
-9.963005e-03 4.213954e+00 -2.708496e+01 3.006812e+01 -5.530853e-06 1.549102e-02 -2.026367e-01 2.114258e-01
-3.431152e-03 4.211785e+00 -2.704785e+01 3.005469e+01 -8.051854e-06 1.520136e-02 -2.128906e-01 2.094727e-01
1.783263e-03 4.222474e+00 -2.701001e+01 3.003101e+01 -9.678315e-06 1.520725e-02 -2.026367e-01 2.080078e-01
-2.098452e-03 4.213905e+00 -2.701245e+01 3.001514e+01 1.538293e-06 1.520189e-02 -2.026367e-01 2.084961e-01
2.487612e-03 4.228524e+00 -2.699463e+01 2.998584e+01 -4.433114e-06 1.495249e-02 -2.028809e-01 2.087402e-01
9.524450e-03 4.235304e+00 -2.696826e+01 2.997412e+01 5.973122e-08 1.496454e-02 -2.043457e-01 2.084961e-01
7.555206e-03 4.215425e+00 -2.693506e+01 2.992822e+01 -1.054713e-05 1.532296e-02 -2.043457e-01 2.163086e-01
1.418511e-02 4.228377e+00 -2.691113e+01 2.992432e+01 -3.257209e-06 1.496844e-02 -2.026367e-01 2.097168e-01
7.361153e-03 4.220960e+00 -2.688062e+01 2.990479e+01 -3.790074e-06 1.492578e-02 -2.026367e-01 2.163086e-01
2.524426e-02 4.229312e+00 -2.684668e+01 2.989087e+01 -9.569569e-06 1.486996e-02 -2.031250e-01 2.099609e-01
2.014491e-02 4.230389e+00 -2.681812e+01 2.984253e+01 -1.090938e-05 1.487550e-02 -2.031250e-01 2.109375e-01
2.374011e-02 4.227607e+00 -2.377710e+01 2.983691e+01 -5.088871e-06 1.508467e-02 -2.055664e-01 2.238770e-01
3.347897e-02 4.227863e+00 -2.673120e+01 2.986060e+01 -1.175905e-06 1.501176e-02 -2.055664e-01 2.248535e-01
3.333957e-02 4.241806e+00 -2.669922e+01 2.979492e+01 -9.776199e-06 1.482632e-02 -2.053223e-01 2.219238e-01
2.884723e-02 4.234029e+00 -2.499463e+01 2.977026e+01 -9.780486e-06 1.491623e-02 -2.055664e-01 2.255859e-01
5.211413e-02 4.233727e+00 -2.665112e+01 2.976099e+01 -8.813784e-06 1.493563e-02 -2.043457e-01 2.229004e-01
4.181819e-02 4.241915e+00 -2.654810e+01 2.970093e+01 4.296932e-06 1.485715e-02 -2.043457e-01 2.236328e-01
3.891091e-02 4.242197e+00 -2.655420e+01 2.971948e+01 -5.823365e-06 1.501888e-02 -2.043457e-01 2.341309e-01
3.919971e-02 4.242115e+00 -2.651392e+01 2.967578e+01 -1.145167e-05 1.470223e-02 -2.041016e-01 2.294922e-01
6.492441e-02 4.243694e+00 -2.646729e+01 2.966675e+01 -9.680887e-06 1.477447e-02 -2.158203e-01 2.346191e-01
5.274128e-02 4.244118e+00 -2.644092e+01 2.960425e+01 -5.251060e-06 1.475849e-02 -2.026367e-01 2.358398e-01
5.497750e-02 4.244258e+00 -2.637451e+01 2.961133e+01 -2.147752e-07 1.497490e-02 -2.158203e-01 2.360840e-01
5.735245e-02 4.245837e+00 -2.629736e+01 2.958374e+01 -6.428536e-06 1.497376e-02 -2.043457e-01 2.373047e-01
6.044529e-02 4.258261e+00 -2.632397e+01 2.954858e+01 4.155749e-06 1.467990e-02 -2.006836e-01 2.297363e-01
5.990262e-02 4.250349e+00 -2.625269e+01 2.953979e+01 6.913388e-07 1.492748e-02 -2.141113e-01 2.336426e-01
6.270602e-02 4.250563e+00 -2.620801e+01 2.948218e+01 -4.176898e-07 1.503716e-02 -2.141113e-01 2.348633e-01
6.457317e-02 4.248317e+00 -2.612085e+01 2.948340e+01 -2.355382e-06 1.471175e-02 -2.143555e-01 2.312012e-01
7.811933e-02 4.259432e+00 -2.611475e+01 2.947607e+01 -1.749925e-06 1.484736e-02 -2.043457e-01 2.395020e-01
7.626644e-02 4.261647e+00 -2.603467e+01 2.943945e+01 -5.516421e-06 1.485462e-02 -2.016602e-01 2.363281e-01
6.868875e-02 4.263211e+00 -2.600366e+01 2.938550e+01 -7.576433e-07 1.470516e-02 -2.043457e-01 2.460938e-01
6.998727e-02 4.262001e+00 -2.599927e+01 2.937915e+01 -7.874232e-06 1.503560e-02 -2.043457e-01 2.470703e-01
7.422635e-02 4.260816e+00 -2.592700e+01 2.931250e+01 -2.498708e-06 1.463710e-02 -2.021484e-01 2.453613e-01
7.502182e-02 4.272097e+00 -2.591162e+01 2.930444e+01 -5.978980e-06 1.473188e-02 -2.006836e-01 2.478027e-01
8.285306e-02 4.265644e+00 -2.585107e+01 2.930884e+01 -4.432256e-06 1.483636e-02 -2.006836e-01 2.482910e-01
8.487578e-02 4.264239e+00 -2.583984e+01 2.929688e+01 -4.016281e-06 1.474825e-02 -2.050781e-01 2.487793e-01
8.762517e-02 4.275077e+00 -2.581323e+01 2.924878e+01 -2.415685e-06 1.466164e-02 -2.043457e-01 2.438965e-01
8.566986e-02 4.279636e+00 -2.575635e+01 2.921973e+01 5.563577e-06 1.459433e-02 -2.043457e-01 2.497559e-01
9.547691e-02 4.279719e+00 -2.575928e+01 2.920288e+01 1.996137e-06 1.461903e-02 -2.055664e-01 2.512207e-01
9.748039e-02 4.280828e+00 -2.573560e+01 2.917017e+01 4.889243e-06 1.456439e-02 -2.050781e-01 2.521973e-01
9.858763e-02 4.290496e+00 -2.570996e+01 2.913501e+01 -1.062615e-05 1.461214e-02 -2.043457e-01 2.531738e-01
8.482252e-02 4.284661e+00 -2.567822e+01 2.908398e+01 2.739205e-06 1.467139e-02 -2.053223e-01 2.536621e-01
1.029030e-01 4.286650e+00 -2.565698e+01 2.908423e+01 -3.408252e-06 1.438132e-02 -2.060547e-01 2.546387e-01
9.304923e-02 4.281812e+00 -2.563989e+01 2.905835e+01 1.859956e-06 1.471832e-02 -2.060547e-01 2.595215e-01
1.002711e-01 4.288788e+00 -2.561475e+01 2.902075e+01 -4.900532e-06 1.443785e-02 -2.055664e-01 2.553711e-01
1.015635e-01 4.287085e+00 -2.558179e+01 2.900415e+01 -1.093167e-06 1.451951e-02 -2.268066e-01 2.663574e-01
1.041498e-01 4.298032e+00 -2.463525e+01 2.897803e+01 -3.994418e-06 1.447417e-02 -2.006836e-01 2.668457e-01
9.965304e-02 4.302250e+00 -2.555786e+01 2.894507e+01 3.339661e-06 1.451873e-02 -2.243652e-01 2.678223e-01
1.113593e-01 4.299605e+00 -2.556714e+01 2.892261e+01 4.692330e-06 1.427286e-02 -2.534180e-01 2.680664e-01
1.139228e-01 4.297943e+00 -2.461133e+01 2.891431e+01 -1.847381e-06 1.475545e-02 -2.539062e-01 2.734375e-01
1.123439e-01 4.303411e+00 -2.554126e+01 2.889575e+01 -2.897964e-06 1.453294e-02 -2.783203e-01 2.783203e-01
1.085431e-01 4.301033e+00 -2.554419e+01 2.887891e+01 3.576585e-06 1.463540e-02 -2.707520e-01 2.707520e-01
1.202270e-01 4.308506e+00 -2.552783e+01 2.883423e+01 1.251498e-06 1.428223e-02 -2.827148e-01 2.827148e-01
1.123029e-01 4.311678e+00 -2.548608e+01 2.881689e+01 6.847084e-06 1.432884e-02 -2.990723e-01 2.990723e-01
1.261428e-01 4.307361e+00 -2.548145e+01 2.877637e+01 -1.426976e-06 1.443515e-02 -2.988281e-01 2.988281e-01
1.139095e-01 4.317921e+00 -2.547314e+01 2.879346e+01 -2.420400e-06 1.438238e-02 -3.022461e-01 3.022461e-01
1.164990e-01 4.311223e+00 -2.547681e+01 2.879980e+01 -8.666599e-06 1.416857e-02 -2.058105e-01 2.780762e-01
1.204741e-01 4.323447e+00 -2.544727e+01 2.878589e+01 -5.654317e-06 1.441844e-02 -2.878418e-01 2.878418e-01
1.170769e-01 4.323494e+00 -2.543726e+01 2.876807e+01 1.704197e-06 1.406400e-02 -2.912598e-01 2.912598e-01
1.228434e-01 4.320898e+00 -2.542822e+01 2.876514e+01 -1.326119e-05 1.381604e-02 -2.197266e-01 2.812500e-01
1.329500e-01 4.319928e+00 -2.540894e+01 2.876196e+01 8.899665e-07 1.412991e-02 -2.993164e-01 2.993164e-01
1.263146e-01 4.324325e+00 -2.539233e+01 2.749829e+01 -3.216912e-06 1.408346e-02 -2.751465e-01 2.819824e-01
1.288210e-01 4.324107e+00 -2.539233e+01 2.873804e+01 1.038294e-06 1.386789e-02 -2.634277e-01 2.827148e-01
1.247248e-01 4.317210e+00 -2.538721e+01 2.869165e+01 -4.789215e-06 1.418054e-02 -2.495117e-01 2.827148e-01
1.266810e-01 4.324427e+00 -2.536621e+01 2.869678e+01 2.285076e-06 1.394495e-02 -2.502441e-01 2.841797e-01
1.288393e-01 4.325415e+00 -2.536157e+01 2.868433e+01 -6.249486e-06 1.383908e-02 -2.185059e-01 2.841797e-01
1.328421e-01 4.333704e+00 -2.535254e+01 2.863965e+01 -9.399378e-06 1.368526e-02 -2.290039e-01 2.858887e-01
1.271407e-01 4.332672e+00 -2.533081e+01 2.864038e+01 -4.366095e-06 1.382871e-02 -2.163086e-01 2.863770e-01
1.363549e-01 4.333801e+00 -2.532983e+01 2.860449e+01 -5.941255e-06 1.356494e-02 -2.214355e-01 2.863770e-01
1.362201e-01 4.325228e+00 -2.531567e+01 2.740771e+01 -4.381242e-07 1.342622e-02 -2.199707e-01 2.968750e-01
1.413543e-01 4.330378e+00 -2.531885e+01 2.859204e+01 5.965977e-07 1.354551e-02 -2.211914e-01 2.880859e-01
1.430625e-01 4.345293e+00 -2.531079e+01 2.859009e+01 -5.008277e-06 1.349266e-02 -2.163086e-01 2.885742e-01
1.313187e-01 4.340236e+00 -2.529956e+01 2.860718e+01 -1.258928e-07 1.306421e-02 -2.165527e-01 2.988281e-01
1.444325e-01 4.335180e+00 -2.529297e+01 2.861108e+01 -4.753919e-06 1.334039e-02 -2.192383e-01 2.993164e-01
1.389037e-01 4.352168e+00 -2.527954e+01 2.857788e+01 -3.610309e-06 1.337304e-02 -2.287598e-01 2.995605e-01
1.424573e-01 4.346382e+00 -2.527588e+01 2.856543e+01 -2.536433e-06 1.315473e-02 -2.192383e-01 3.002930e-01
1.448687e-01 4.342381e+00 -2.527100e+01 2.855054e+01 -9.042277e-06 1.325903e-02 -2.246094e-01 3.007812e-01
1.365858e-01 4.352456e+00 -2.526978e+01 2.856665e+01 -9.247335e-06 1.312193e-02 -2.282715e-01 3.017578e-01
1.420450e-01 4.355733e+00 -2.527002e+01 2.856152e+01 1.615744e-06 1.271523e-02 -2.280273e-01 3.022461e-01
1.573760e-01 4.349316e+00 -2.524438e+01 2.857520e+01 -4.255778e-06 1.304841e-02 -2.277832e-01 3.022461e-01
1.474429e-01 4.348959e+00 -2.523999e+01 2.855957e+01 -4.545288e-06 1.305613e-02 -2.282715e-01 2.949219e-01
1.446451e-01 4.355174e+00 -2.523096e+01 2.853467e+01 -3.561867e-06 1.289075e-02 -2.285156e-01 3.049316e-01
1.443232e-01 4.367705e+00 -2.522485e+01 2.856128e+01 -1.040295e-06 1.278452e-02 -2.294922e-01 3.054199e-01
1.523604e-01 4.362504e+00 -2.521997e+01 2.853247e+01 -1.621417e-05 1.259176e-02 -2.297363e-01 2.937012e-01
1.482349e-01 4.369485e+00 -2.521851e+01 2.855103e+01 -6.081295e-06 1.276913e-02 -2.238770e-01 3.066406e-01
1.591236e-01 4.360921e+00 -2.521777e+01 2.856079e+01 -3.025286e-06 1.277459e-02 -2.297363e-01 2.937012e-01
1.507147e-01 4.357150e+00 -2.521484e+01 2.851392e+01 -8.370944e-07 1.276620e-02 -2.253418e-01 2.346191e-01
1.503156e-01 4.368280e+00 -2.519653e+01 2.732324e+01 -7.083293e-06 1.272754e-02 -2.299805e-01 3.078613e-01
1.518352e-01 4.366704e+00 -2.519678e+01 2.852075e+01 -9.129302e-06 1.280063e-02 -2.299805e-01 2.951660e-01
1.533887e-01 4.366701e+00 -2.518237e+01 2.852051e+01 -1.345796e-05 1.263871e-02 -2.224121e-01 3.090820e-01
1.610396e-01 4.370507e+00 -2.519653e+01 2.850366e+01 -5.119594e-06 1.254324e-02 -2.248535e-01 3.002930e-01
1.535872e-01 4.376904e+00 -2.519702e+01 2.851758e+01 -6.120020e-06 1.232125e-02 -2.258301e-01 3.095703e-01
1.541368e-01 4.370606e+00 -2.523022e+01 2.852417e+01 -6.891239e-06 1.243453e-02 -2.231445e-01 3.098145e-01
1.617797e-01 4.380193e+00 -2.524951e+01 2.852295e+01 -1.532749e-05 1.230029e-02 -2.302246e-01 3.105469e-01
1.535542e-01 4.367133e+00 -2.516992e+01 2.852832e+01 -4.391673e-06 1.235479e-02 -2.302246e-01 2.290039e-01
1.550651e-01 4.367252e+00 -2.530322e+01 2.851831e+01 -2.300795e-06 1.237271e-02 -2.229004e-01 3.120117e-01
1.561015e-01 4.381835e+00 -2.531860e+01 2.729175e+01 -5.394672e-06 1.220729e-02 -2.253418e-01 3.115234e-01
1.596496e-01 4.380057e+00 -2.534668e+01 2.853247e+01 -1.078148e-05 1.230947e-02 -2.307129e-01 3.125000e-01
1.601295e-01 4.395104e+00 -2.539502e+01 2.853271e+01 -9.498549e-06 1.219245e-02 -2.231445e-01 3.132324e-01
1.612566e-01 4.388341e+00 -2.540796e+01 2.854419e+01 -9.482402e-06 1.215698e-02 -2.231445e-01 3.046875e-01
1.568538e-01 4.386854e+00 -2.541968e+01 2.855518e+01 -2.839662e-06 1.203048e-02 -2.231445e-01 3.137207e-01
1.625264e-01 4.389219e+00 -2.546094e+01 2.855225e+01 -4.342374e-06 1.215325e-02 -2.233887e-01 3.146973e-01
1.651016e-01 4.390225e+00 -2.512988e+01 2.855518e+01 -6.185610e-06 1.223725e-02 -2.233887e-01 3.061523e-01
1.694855e-01 4.401512e+00 -2.511743e+01 2.724731e+01 -7.456256e-06 1.213917e-02 -2.233887e-01 3.156738e-01
1.691641e-01 4.394414e+00 -2.553979e+01 2.854639e+01 -2.698050e-06 1.189948e-02 -2.233887e-01 3.159180e-01
1.701938e-01 4.399715e+00 -2.556787e+01 2.856836e+01 -6.610159e-06 1.160810e-02 -2.233887e-01 2.338867e-01
1.673373e-01 4.401251e+00 -2.560742e+01 2.855737e+01 -1.370388e-05 1.178394e-02 -2.233887e-01 3.168945e-01
1.647669e-01 4.408587e+00 -2.559790e+01 2.856470e+01 -9.392948e-06 1.188823e-02 -2.314453e-01 3.178711e-01
1.761040e-01 4.398937e+00 -2.563696e+01 2.859204e+01 -3.535288e-07 1.165384e-02 -2.233887e-01 3.181152e-01
1.668382e-01 4.410698e+00 -2.565308e+01 2.856860e+01 -7.109872e-06 1.197143e-02 -2.216797e-01 3.186035e-01
1.616470e-01 4.409364e+00 -2.568823e+01 2.858789e+01 -6.974834e-06 1.170660e-02 -2.236328e-01 3.193359e-01
1.746960e-01 4.399426e+00 -2.510278e+01 2.718848e+01 -1.059915e-05 1.158619e-02 -2.353516e-01 3.208008e-01
1.831532e-01 4.411573e+00 -2.573877e+01 2.858984e+01 -6.698041e-06 1.161971e-02 -2.238770e-01 3.154297e-01
1.746847e-01 4.415909e+00 -2.574927e+01 2.856226e+01 -6.517847e-06 1.182257e-02 -2.236328e-01 3.159180e-01
1.741135e-01 4.414785e+00 -2.578662e+01 2.861914e+01 -6.018563e-06 1.140123e-02 -2.351074e-01 3.215332e-01
1.731894e-01 4.410350e+00 -2.578638e+01 2.860254e+01 -7.135022e-06 1.146350e-02 -2.226562e-01 3.217773e-01
1.816674e-01 4.421652e+00 -2.584131e+01 2.860522e+01 -2.696764e-06 1.163563e-02 -2.358398e-01 3.227539e-01
1.802319e-01 4.420775e+00 -2.587109e+01 2.861230e+01 -3.853807e-06 1.146081e-02 -2.214355e-01 3.178711e-01
1.770506e-01 4.417949e+00 -2.587427e+01 2.860327e+01 -6.605444e-06 1.139064e-02 -2.243652e-01 3.190918e-01
1.773959e-01 4.428359e+00 -2.588184e+01 2.859521e+01 -6.974691e-06 1.156739e-02 -2.360840e-01 3.188477e-01
1.794476e-01 4.421749e+00 -2.591431e+01 2.864844e+01 -1.427176e-05 1.141914e-02 -2.224121e-01 3.193359e-01
1.775914e-01 4.428708e+00 -2.593604e+01 2.863354e+01 -5.374380e-06 1.121108e-02 -2.233887e-01 3.195801e-01
1.876281e-01 4.431949e+00 -2.595459e+01 2.862256e+01 -6.770347e-06 1.125411e-02 -2.326660e-01 3.115234e-01
1.805287e-01 4.428708e+00 -2.598169e+01 2.865356e+01 -3.085160e-06 1.118526e-02 -2.214355e-01 3.210449e-01
1.742186e-01 4.437364e+00 -2.602246e+01 2.863672e+01 1.173761e-06 1.127621e-02 -2.226562e-01 3.103027e-01
1.853420e-01 4.426534e+00 -2.602881e+01 2.863770e+01 -6.256345e-06 1.140497e-02 -2.280273e-01 3.129883e-01
1.791955e-01 4.442271e+00 -2.606250e+01 2.862793e+01 -6.381809e-06 1.111132e-02 -2.229004e-01 3.115234e-01
1.842576e-01 4.433333e+00 -2.607056e+01 2.865259e+01 -4.115023e-06 1.092692e-02 -2.280273e-01 3.122559e-01
1.791654e-01 4.433607e+00 -2.608472e+01 2.862231e+01 -7.109444e-06 1.118088e-02 -2.329102e-01 2.797852e-01
1.819593e-01 4.431670e+00 -2.611133e+01 2.864429e+01 -8.323931e-06 1.086376e-02 -2.312012e-01 3.168945e-01
1.851411e-01 4.438594e+00 -2.613745e+01 2.864160e+01 -3.672898e-06 1.108983e-02 -2.255859e-01 2.932129e-01
1.923427e-01 4.443523e+00 -2.501440e+01 2.863550e+01 -9.431387e-06 1.091580e-02 -2.307129e-01 2.731934e-01
1.852177e-01 4.438642e+00 -2.617798e+01 2.866138e+01 -5.044287e-07 1.101384e-02 -2.270508e-01 2.812500e-01
1.871453e-01 4.441082e+00 -2.621680e+01 2.863135e+01 -3.357666e-06 1.093484e-02 -2.326660e-01 2.741699e-01
1.826675e-01 4.444455e+00 -2.619751e+01 2.867383e+01 -6.112447e-06 1.112596e-02 -2.316895e-01 2.819824e-01
1.896125e-01 4.438194e+00 -2.620557e+01 2.863110e+01 -3.705479e-06 1.089931e-02 -2.326660e-01 2.534180e-01
1.921925e-01 4.455091e+00 -2.621997e+01 2.864478e+01 -5.625737e-06 1.074464e-02 -2.231445e-01 2.539062e-01
1.927655e-01 4.451173e+00 -2.623926e+01 2.863940e+01 -5.102303e-06 1.081358e-02 -2.294922e-01 2.546387e-01
1.884994e-01 4.453884e+00 -2.627100e+01 2.863916e+01 -4.312651e-06 1.072778e-02 -2.358398e-01 2.265625e-01
1.878353e-01 4.451965e+00 -2.626367e+01 2.862744e+01 -3.156037e-06 1.071032e-02 -2.355957e-01 2.270508e-01
1.958295e-01 4.453837e+00 -2.630347e+01 2.863721e+01 -5.172037e-06 1.072151e-02 -2.333984e-01 2.543945e-01
1.980855e-01 4.456942e+00 -2.630908e+01 2.862646e+01 -6.527707e-06 1.069759e-02 -2.290039e-01 2.209473e-01
1.930432e-01 4.450497e+00 -2.633716e+01 2.860718e+01 -3.762924e-06 1.058805e-02 -2.326660e-01 2.280273e-01
1.964892e-01 4.457179e+00 -2.634302e+01 2.700806e+01 -3.842375e-06 1.048343e-02 -2.329102e-01 2.290039e-01
1.914061e-01 4.462403e+00 -2.637695e+01 2.863745e+01 -7.376376e-06 1.059031e-02 -2.360840e-01 2.299805e-01
1.964626e-01 4.454656e+00 -2.638086e+01 2.861987e+01 -8.827216e-06 1.042280e-02 -2.326660e-01 2.221680e-01
1.988229e-01 4.460856e+00 -2.639893e+01 2.865039e+01 1.306942e-06 1.057043e-02 -2.265625e-01 2.216797e-01
2.058201e-01 4.461518e+00 -2.641406e+01 2.863159e+01 -4.819080e-06 1.038688e-02 -2.375488e-01 2.358398e-01
1.920888e-01 4.468779e+00 -2.645508e+01 2.865234e+01 -5.585583e-06 1.046083e-02 -2.265625e-01 2.229004e-01
2.003625e-01 4.464341e+00 -2.643823e+01 2.864307e+01 -6.671462e-06 1.029106e-02 -2.268066e-01 2.329102e-01
2.104784e-01 4.464128e+00 -2.645654e+01 2.864844e+01 -6.482837e-06 1.023773e-02 -2.277832e-01 2.233887e-01
2.005646e-01 4.469070e+00 -2.647607e+01 2.864648e+01 -7.303927e-06 1.022883e-02 -2.204590e-01 2.438965e-01
1.997705e-01 4.484557e+00 -2.647119e+01 2.864697e+01 -8.103583e-06 1.022469e-02 -2.329102e-01 2.441406e-01
2.105397e-01 4.469927e+00 -2.650391e+01 2.862451e+01 -4.888671e-06 1.019004e-02 -2.263184e-01 2.336426e-01
2.004147e-01 4.471747e+00 -2.651416e+01 2.862524e+01 -7.583149e-06 1.027037e-02 -2.297363e-01 2.246094e-01
2.043267e-01 4.479387e+00 -2.654810e+01 2.867847e+01 -9.928243e-06 1.014180e-02 -2.224121e-01 2.346191e-01
2.057097e-01 4.477274e+00 -2.654565e+01 2.864380e+01 -4.310650e-06 1.007426e-02 -2.302246e-01 2.248535e-01
2.044950e-01 4.485940e+00 -2.658374e+01 2.865039e+01 -4.968265e-06 9.996608e-03 -2.307129e-01 2.346191e-01
2.054395e-01 4.481916e+00 -2.659082e+01 2.859766e+01 1.695052e-06 1.021933e-02 -2.377930e-01 2.377930e-01
1.973156e-01 4.487041e+00 -2.660596e+01 2.863135e+01 -7.966258e-06 9.853101e-03 -2.307129e-01 2.348633e-01
2.129584e-01 4.485702e+00 -2.660400e+01 2.867505e+01 -2.377388e-06 1.019335e-02 -2.307129e-01 2.358398e-01
2.077837e-01 4.486035e+00 -2.660522e+01 2.867822e+01 -7.516988e-06 1.001188e-02 -2.382812e-01 2.255859e-01
2.123991e-01 4.489786e+00 -2.663647e+01 2.866089e+01 -9.546992e-07 9.968392e-03 -2.314453e-01 2.255859e-01
2.139854e-01 4.489663e+00 -2.663232e+01 2.862280e+01 -5.344515e-06 1.017938e-02 -2.385254e-01 2.246094e-01
2.171862e-01 4.487283e+00 -2.665186e+01 2.863525e+01 -7.217188e-06 1.011850e-02 -2.314453e-01 2.265625e-01
2.063765e-01 4.491606e+00 -2.665649e+01 2.696948e+01 -4.822653e-06 1.002864e-02 -2.355957e-01 2.260742e-01
2.161931e-01 4.488160e+00 -2.667554e+01 2.861426e+01 -5.379239e-06 1.014041e-02 -2.319336e-01 2.258301e-01
2.084883e-01 4.494441e+00 -2.668359e+01 2.863867e+01 -7.302927e-06 1.006619e-02 -2.370605e-01 2.370605e-01
2.109121e-01 4.491615e+00 -2.668970e+01 2.863257e+01 -3.456551e-06 9.923082e-03 -2.319336e-01 2.270508e-01
2.171629e-01 4.499146e+00 -2.671680e+01 2.861353e+01 -2.480703e-06 9.833179e-03 -2.297363e-01 2.253418e-01
2.122347e-01 4.496832e+00 -2.673022e+01 2.863013e+01 -2.938690e-06 9.980916e-03 -2.292480e-01 2.258301e-01
2.147050e-01 4.501819e+00 -2.675024e+01 2.863135e+01 -4.609878e-06 1.013706e-02 -2.312012e-01 2.277832e-01
2.107581e-01 4.499615e+00 -2.674365e+01 2.864404e+01 -5.620164e-06 9.859434e-03 -2.253418e-01 2.280273e-01
2.141663e-01 4.501314e+00 -2.677783e+01 2.862988e+01 -5.924536e-06 1.006925e-02 -2.294922e-01 2.260742e-01
2.138066e-01 4.502671e+00 -2.678564e+01 2.863818e+01 -5.963119e-06 1.008706e-02 -2.375488e-01 2.375488e-01
2.155859e-01 4.501115e+00 -2.679443e+01 2.863086e+01 -8.465685e-06 9.990480e-03 -2.294922e-01 2.194824e-01
2.273322e-01 4.501885e+00 -2.680615e+01 2.864966e+01 -6.686609e-06 1.002479e-02 -2.395020e-01 2.395020e-01
2.161940e-01 4.508238e+00 -2.683276e+01 2.862598e+01 -6.645884e-06 9.915672e-03 -2.316895e-01 2.265625e-01
2.187828e-01 4.513927e+00 -2.683325e+01 2.863916e+01 -8.591578e-06 1.012284e-02 -2.429199e-01 2.429199e-01
2.190245e-01 4.509110e+00 -2.685791e+01 2.864526e+01 -3.714481e-06 1.013495e-02 -2.741699e-01 2.741699e-01
2.236091e-01 4.499394e+00 -2.689380e+01 2.862915e+01 -8.558997e-06 9.898517e-03 -2.734375e-01 2.734375e-01
2.310065e-01 4.509387e+00 -2.687988e+01 2.867261e+01 -2.179189e-07 1.009802e-02 -2.915039e-01 2.915039e-01
2.175320e-01 4.511662e+00 -2.482568e+01 2.864478e+01 -5.382954e-06 9.710969e-03 -2.976074e-01 2.976074e-01
2.226331e-01 4.511058e+00 -2.691724e+01 2.867285e+01 -4.825939e-06 1.011719e-02 -2.775879e-01 2.775879e-01
2.143306e-01 4.523293e+00 -2.691479e+01 2.866455e+01 -3.960980e-06 1.006958e-02 -2.770996e-01 2.770996e-01
2.188337e-01 4.514988e+00 -2.481372e+01 2.864673e+01 -5.386098e-06 1.013312e-02 -2.807617e-01 2.807617e-01
2.202377e-01 4.519510e+00 -2.697412e+01 2.866089e+01 -8.647165e-06 9.801272e-03 -2.810059e-01 2.810059e-01
2.259917e-01 4.523481e+00 -2.695361e+01 2.866187e+01 -2.387248e-06 1.018310e-02 -2.458496e-01 2.458496e-01
2.238302e-01 4.517877e+00 -2.695923e+01 2.863306e+01 1.423832e-06 9.771984e-03 -2.302246e-01 2.517090e-01
2.179619e-01 4.519529e+00 -2.697559e+01 2.865894e+01 -4.149890e-06 9.791171e-03 -2.304688e-01 2.343750e-01
2.208750e-01 4.517713e+00 -2.699072e+01 2.865479e+01 -1.273018e-05 9.712099e-03 -2.304688e-01 2.495117e-01
2.337882e-01 4.521105e+00 -2.701001e+01 2.866089e+01 -2.658039e-06 9.574691e-03 -2.304688e-01 2.346191e-01
2.283915e-01 4.517912e+00 -2.701196e+01 2.865039e+01 -3.651464e-06 9.750547e-03 -2.302246e-01 2.182617e-01
2.215248e-01 4.526219e+00 -2.701685e+01 2.868774e+01 -7.549997e-06 9.871760e-03 -2.302246e-01 2.351074e-01
2.276859e-01 4.532063e+00 -2.703101e+01 2.864355e+01 -6.208045e-06 9.463368e-03 -2.302246e-01 2.351074e-01
2.230960e-01 4.527317e+00 -2.703296e+01 2.869312e+01 -7.011844e-06 9.764193e-03 -2.470703e-01 2.470703e-01
2.205215e-01 4.539922e+00 -2.704224e+01 2.869556e+01 -4.313508e-06 9.599854e-03 -2.307129e-01 2.355957e-01
2.273383e-01 4.533581e+00 -2.706006e+01 2.867822e+01 -9.312782e-06 9.625131e-03 -2.326660e-01 2.375488e-01
2.337200e-01 4.529357e+00 -2.707300e+01 2.869653e+01 -4.441259e-06 9.596311e-03 -2.463379e-01 2.463379e-01
2.291659e-01 4.523699e+00 -2.708594e+01 2.867700e+01 -7.960971e-06 9.404444e-03 -2.348633e-01 2.377930e-01
2.336007e-01 4.543007e+00 -2.709351e+01 2.869800e+01 -1.485993e-06 9.355581e-03 -2.360840e-01 2.360840e-01
2.344107e-01 4.536555e+00 -2.709619e+01 2.869995e+01 4.304649e-06 9.349588e-03 -2.370605e-01 2.370605e-01
2.280563e-01 4.546561e+00 -2.711548e+01 2.869556e+01 -2.427259e-06 9.155196e-03 -2.370605e-01 2.370605e-01
2.291474e-01 4.548141e+00 -2.712769e+01 2.867603e+01 -3.852949e-06 9.487765e-03 -2.485352e-01 2.485352e-01
2.293284e-01 4.538368e+00 -2.713721e+01 2.868823e+01 -4.790215e-06 9.458074e-03 -2.360840e-01 2.360840e-01
2.283907e-01 4.531402e+00 -2.713940e+01 2.870093e+01 -1.816229e-06 9.533335e-03 -2.490234e-01 2.490234e-01
2.224804e-01 4.547097e+00 -2.715796e+01 2.868237e+01 -4.098447e-06 9.436517e-03 -2.490234e-01 2.490234e-01
2.222003e-01 4.544849e+00 -2.718262e+01 2.866748e+01 -3.099736e-06 9.501073e-03 -2.495117e-01 2.495117e-01
2.338436e-01 4.545929e+00 -2.716064e+01 2.869922e+01 -8.409812e-06 9.356480e-03 -2.502441e-01 2.502441e-01
2.207738e-01 4.551615e+00 -2.717334e+01 2.867090e+01 -4.830083e-06 9.483560e-03 -2.500000e-01 2.500000e-01
2.370577e-01 4.537919e+00 -2.717749e+01 2.867261e+01 -4.290930e-06 9.183782e-03 -2.333984e-01 2.106934e-01
2.225378e-01 4.546363e+00 -2.720947e+01 2.867456e+01 -5.169465e-06 9.371699e-03 -2.307129e-01 2.180176e-01
2.374750e-01 4.556519e+00 -2.719263e+01 2.867749e+01 -1.037437e-06 8.901372e-03 -2.336426e-01 2.165527e-01
2.393779e-01 4.548151e+00 -2.719287e+01 2.865186e+01 -2.854809e-06 9.311639e-03 -2.329102e-01 2.167969e-01
2.373771e-01 4.546397e+00 -2.721558e+01 2.693555e+01 -2.081161e-06 9.084980e-03 -2.336426e-01 2.167969e-01
2.234743e-01 4.559910e+00 -2.722266e+01 2.867432e+01 -4.791215e-06 8.910289e-03 -2.338867e-01 2.187500e-01
2.427044e-01 4.551312e+00 -2.478589e+01 2.871069e+01 -1.540437e-07 9.290703e-03 -2.536621e-01 2.536621e-01
2.361210e-01 4.562806e+00 -2.724683e+01 2.870435e+01 1.119889e-06 9.005299e-03 -2.543945e-01 2.543945e-01
2.388343e-01 4.559453e+00 -2.726489e+01 2.869067e+01 -4.008279e-06 9.204133e-03 -2.548828e-01 2.548828e-01
2.315654e-01 4.559846e+00 -2.727295e+01 2.866992e+01 -3.418826e-06 9.012717e-03 -2.346191e-01 2.177734e-01
2.316907e-01 4.563672e+00 -2.727686e+01 2.869482e+01 -1.814657e-06 9.189519e-03 -2.543945e-01 2.543945e-01
2.447046e-01 4.560967e+00 -2.730054e+01 2.868994e+01 -1.877818e-06 9.218638e-03 -2.553711e-01 2.553711e-01
2.359251e-01 4.572528e+00 -2.730566e+01 2.868750e+01 3.881100e-07 9.150938e-03 -2.558594e-01 2.558594e-01
2.407820e-01 4.573286e+00 -2.731714e+01 2.868530e+01 3.500992e-07 9.186497e-03 -2.558594e-01 2.558594e-01
2.306100e-01 4.561269e+00 -2.731909e+01 2.868579e+01 1.058586e-06 8.979066e-03 -2.338867e-01 2.187500e-01
2.365565e-01 4.563929e+00 -2.734058e+01 2.869189e+01 -3.380958e-06 8.560491e-03 -2.280273e-01 2.189941e-01
2.452006e-01 4.576704e+00 -2.733838e+01 2.872510e+01 -2.710768e-06 8.867820e-03 -2.504883e-01 2.504883e-01
2.423971e-01 4.569111e+00 -2.735815e+01 2.870337e+01 -7.745052e-07 9.168513e-03 -2.585449e-01 2.585449e-01
2.436773e-01 4.577263e+00 -2.734937e+01 2.867603e+01 -5.504131e-06 9.125367e-03 -2.587891e-01 2.587891e-01
2.428659e-01 4.575129e+00 -2.736328e+01 2.871777e+01 -3.799363e-06 8.906701e-03 -2.512207e-01 2.512207e-01
2.402058e-01 4.571507e+00 -2.737427e+01 2.870972e+01 -4.887528e-06 9.075011e-03 -2.607422e-01 2.607422e-01
2.437381e-01 4.572591e+00 -2.738550e+01 2.867993e+01 1.818087e-06 9.047683e-03 -2.517090e-01 2.517090e-01
2.510091e-01 4.576480e+00 -2.475317e+01 2.865186e+01 4.852804e-07 8.507483e-03 -2.360840e-01 2.360840e-01
2.418099e-01 4.577671e+00 -2.740063e+01 2.864990e+01 -2.257926e-06 8.908531e-03 -2.355957e-01 2.187500e-01
2.416386e-01 4.578939e+00 -2.741162e+01 2.866089e+01 -3.483702e-06 8.872180e-03 -2.287598e-01 2.185059e-01
2.401738e-01 4.585794e+00 -2.740967e+01 2.868164e+01 -3.716053e-06 8.918502e-03 -2.595215e-01 2.595215e-01
2.414535e-01 4.581095e+00 -2.741846e+01 2.868262e+01 -3.474270e-06 9.024549e-03 -2.607422e-01 2.607422e-01
2.493891e-01 4.574071e+00 -2.743213e+01 2.865918e+01 2.353096e-06 8.898414e-03 -2.607422e-01 2.607422e-01
2.423055e-01 4.594737e+00 -2.744409e+01 2.868726e+01 9.635588e-07 8.871646e-03 -2.363281e-01 2.263184e-01
2.521183e-01 4.578705e+00 -2.475269e+01 2.866382e+01 2.095451e-06 8.876197e-03 -2.287598e-01 2.194824e-01
2.381047e-01 4.588482e+00 -2.744336e+01 2.868555e+01 -1.542151e-06 8.949886e-03 -2.622070e-01 2.622070e-01
2.431966e-01 4.576273e+00 -2.745483e+01 2.866064e+01 -5.774494e-07 8.851899e-03 -2.287598e-01 2.346191e-01
2.335090e-01 4.583528e+00 -2.746191e+01 2.866626e+01 -1.983991e-06 8.915621e-03 -2.629395e-01 2.629395e-01
2.525778e-01 4.591065e+00 -2.745020e+01 2.870288e+01 -2.152753e-06 8.858047e-03 -2.631836e-01 2.631836e-01
2.495592e-01 4.594882e+00 -2.747266e+01 2.865137e+01 -1.048583e-06 8.854281e-03 -2.292480e-01 2.202148e-01
2.332373e-01 4.598278e+00 -2.748413e+01 2.869214e+01 -2.867098e-06 8.964740e-03 -2.570801e-01 2.570801e-01
2.521204e-01 4.590737e+00 -2.747852e+01 2.865771e+01 -1.245210e-06 8.755703e-03 -2.280273e-01 2.207031e-01
2.515690e-01 4.589308e+00 -2.473730e+01 2.867700e+01 8.579575e-07 8.650481e-03 -2.285156e-01 2.351074e-01
2.435035e-01 4.589625e+00 -2.750562e+01 2.867993e+01 5.815934e-08 8.609759e-03 -2.292480e-01 2.292480e-01
2.553655e-01 4.590224e+00 -2.751123e+01 2.867896e+01 -2.775072e-06 8.565238e-03 -2.292480e-01 2.292480e-01
2.523234e-01 4.595248e+00 -2.752002e+01 2.867480e+01 -1.231063e-06 8.767256e-03 -2.297363e-01 2.297363e-01
2.424928e-01 4.593714e+00 -2.751758e+01 2.865259e+01 1.396253e-06 8.844933e-03 -2.299805e-01 2.299805e-01
2.549796e-01 4.599825e+00 -2.752759e+01 2.868115e+01 -5.025710e-07 8.720130e-03 -2.299805e-01 2.299805e-01
2.452123e-01 4.601460e+00 -2.752905e+01 2.866431e+01 -4.404105e-07 8.781641e-03 -2.297363e-01 2.297363e-01
2.456420e-01 4.598802e+00 -2.754712e+01 2.867334e+01 -4.971409e-07 8.873540e-03 -2.597656e-01 2.597656e-01
