2.764158e+04 9.057000e-01 -5.251481e-03 5.771145e-01 -9.999542e-01 9.999847e-01
2.554095e+03 2.278000e-01 -3.863636e-01 4.326802e+00 -1.184127e+02 8.557881e+01
2.336533e+03 2.161000e-01 -8.981921e-01 8.620192e+00 -1.642531e+02 1.364096e+02
2.028036e+03 1.846000e-01 -1.478738e+00 1.250655e+01 -2.013472e+02 1.625555e+02
1.941135e+03 1.813000e-01 -2.134319e+00 1.625327e+01 -2.235240e+02 1.715836e+02
1.880345e+03 1.651000e-01 -2.698598e+00 2.023840e+01 -2.374409e+02 2.012149e+02
1.909563e+03 1.723000e-01 -3.475151e+00 2.432642e+01 -2.711408e+02 2.275878e+02
1.794580e+03 1.553000e-01 -4.271887e+00 2.837432e+01 -2.962938e+02 2.272063e+02
1.666570e+03 1.513000e-01 -4.913924e+00 3.239383e+01 -3.219868e+02 2.220826e+02
1.632793e+03 1.481000e-01 -5.551807e+00 3.649104e+01 -3.526301e+02 2.274835e+02
1.595646e+03 1.489000e-01 -6.204192e+00 4.054611e+01 -3.633208e+02 2.357808e+02
1.556434e+03 1.429000e-01 -6.998901e+00 4.452317e+01 -3.690263e+02 2.545092e+02
1.566568e+03 1.432000e-01 -7.840627e+00 4.853817e+01 -3.825167e+02 2.685168e+02
1.543871e+03 1.403000e-01 -8.524091e+00 5.265243e+01 -3.940622e+02 2.668008e+02
1.471005e+03 1.353000e-01 -9.206567e+00 5.671637e+01 -4.320956e+02 2.635893e+02
1.464784e+03 1.357000e-01 -9.826785e+00 6.074040e+01 -4.420741e+02 2.642491e+02
1.477442e+03 1.369000e-01 -1.057557e+01 6.472456e+01 -4.526740e+02 2.687459e+02
1.435521e+03 1.352000e-01 -1.131128e+01 6.877012e+01 -4.590517e+02 2.729343e+02
1.429876e+03 1.348000e-01 -1.201521e+01 7.281708e+01 -4.764960e+02 2.881208e+02
1.417831e+03 1.338000e-01 -1.289423e+01 7.684416e+01 -4.808342e+02 2.841462e+02
1.362267e+03 1.255000e-01 -1.365782e+01 8.084700e+01 -4.903801e+02 2.907572e+02
1.354646e+03 1.271000e-01 -1.436794e+01 8.484722e+01 -4.887336e+02 2.982401e+02
1.363355e+03 1.266000e-01 -1.520330e+01 8.884646e+01 -4.975531e+02 2.961365e+02
1.371523e+03 1.303000e-01 -1.598525e+01 9.288853e+01 -5.301297e+02 3.030288e+02
1.343156e+03 1.253000e-01 -1.672701e+01 9.692615e+01 -5.150776e+02 3.326828e+02
1.349801e+03 1.249000e-01 -1.752969e+01 1.010202e+02 -5.070244e+02 3.886681e+02
1.351480e+03 1.307000e-01 -1.840671e+01 1.050566e+02 -4.905987e+02 3.916278e+02
1.363371e+03 1.294000e-01 -1.908199e+01 1.091232e+02 -4.945534e+02 3.790773e+02
1.318363e+03 1.285000e-01 -1.978809e+01 1.131851e+02 -5.079644e+02 4.101168e+02
1.296723e+03 1.236000e-01 -2.050377e+01 1.172700e+02 -5.248772e+02 4.107336e+02
1.314986e+03 1.252000e-01 -2.124223e+01 1.213702e+02 -5.360496e+02 3.939801e+02
1.288888e+03 1.206000e-01 -2.210665e+01 1.254214e+02 -5.427993e+02 4.149019e+02
1.326768e+03 1.251000e-01 -2.279192e+01 1.295372e+02 -5.527530e+02 4.236914e+02
1.291430e+03 1.210000e-01 -2.352604e+01 1.336362e+02 -5.560659e+02 4.365696e+02
1.284719e+03 1.188000e-01 -2.427509e+01 1.377219e+02 -5.809279e+02 4.500150e+02
1.277981e+03 1.189000e-01 -2.515404e+01 1.417965e+02 -6.024517e+02 4.478811e+02
1.274564e+03 1.167000e-01 -2.576308e+01 1.458788e+02 -6.124004e+02 4.518988e+02
1.274611e+03 1.189000e-01 -2.647565e+01 1.499484e+02 -6.198620e+02 4.623798e+02
1.274752e+03 1.193000e-01 -2.709405e+01 1.540376e+02 -6.263436e+02 4.737114e+02
1.286388e+03 1.187000e-01 -2.779618e+01 1.581392e+02 -6.371528e+02 4.840631e+02
1.278562e+03 1.210000e-01 -2.845191e+01 1.622314e+02 -6.370732e+02 4.898234e+02
1.277500e+03 1.183000e-01 -2.918880e+01 1.663016e+02 -6.335364e+02 5.007172e+02
