-3.029735e-01 1.100856e+00 -2.807007e+00 2.173645e+00 1.473272e-03 1.640051e-02 -7.153320e-02 1.369629e-01
-3.043366e-01 1.097117e+00 -2.807007e+00 2.442490e+00 1.465360e-03 1.629558e-02 -7.153320e-02 1.369629e-01
-3.079613e-01 1.094831e+00 -2.807007e+00 2.442490e+00 1.414839e-03 1.629608e-02 -7.153320e-02 1.313629e-01
-3.065752e-01 1.092391e+00 -2.807007e+00 2.139481e+00 1.460733e-03 1.630234e-02 -7.153320e-02 1.369629e-01
-3.068225e-01 1.095136e+00 -2.807007e+00 2.442490e+00 1.441082e-03 1.629144e-02 -7.153320e-02 1.369629e-01
-3.070312e-01 1.096317e+00 -2.807007e+00 2.173645e+00 1.461820e-03 1.635073e-02 -7.153320e-02 1.369629e-01
-3.079453e-01 1.090386e+00 -2.807007e+00 2.442490e+00 1.419516e-03 1.631035e-02 -7.153320e-02 1.369629e-01
-3.080035e-01 1.094809e+00 -2.807007e+00 2.442490e+00 1.445615e-03 1.635519e-02 -7.153320e-02 1.369629e-01
-3.064397e-01 1.093920e+00 -2.807007e+00 2.442490e+00 1.394583e-03 1.629225e-02 -7.153320e-02 1.369629e-01
-3.039767e-01 1.097780e+00 -2.807007e+00 2.442490e+00 1.450909e-03 1.637080e-02 -7.153320e-02 1.369629e-01
-3.053386e-01 1.095776e+00 -2.807007e+00 2.170898e+00 1.428387e-03 1.632246e-02 -7.153320e-02 1.313629e-01
-3.063563e-01 1.098900e+00 -2.807007e+00 2.173645e+00 1.414957e-03 1.642948e-02 -7.153320e-02 1.369629e-01
-3.053472e-01 1.098205e+00 -2.807007e+00 2.442490e+00 1.422136e-03 1.641575e-02 -7.153320e-02 1.369629e-01
-3.019061e-01 1.098764e+00 -2.807007e+00 2.173645e+00 1.447031e-03 1.638080e-02 -7.153320e-02 1.369629e-01
-3.021111e-01 1.097446e+00 -2.807007e+00 2.442490e+00 1.412702e-03 1.631869e-02 -7.153320e-02 1.313629e-01
-3.089036e-01 1.094593e+00 -2.807007e+00 2.442490e+00 1.437964e-03 1.635065e-02 -7.153320e-02 1.369629e-01
-3.038800e-01 1.096780e+00 -2.807007e+00 2.442490e+00 1.400326e-03 1.632327e-02 -7.153320e-02 1.369629e-01
-3.068829e-01 1.097066e+00 -2.807007e+00 2.442490e+00 1.422264e-03 1.636726e-02 -7.153320e-02 1.369629e-01
-3.059268e-01 1.095796e+00 -2.803604e+00 2.442490e+00 1.373678e-03 1.624465e-02 -7.153320e-02 1.313629e-01
-3.086554e-01 1.092225e+00 -2.807007e+00 2.173645e+00 1.381519e-03 1.629373e-02 -7.153320e-02 1.313629e-01
-3.084266e-01 1.097152e+00 -2.807007e+00 2.442490e+00 1.379131e-03 1.636094e-02 -7.153320e-02 1.369629e-01
-3.084603e-01 1.096626e+00 -2.807007e+00 2.173645e+00 1.443781e-03 1.637752e-02 -7.153320e-02 1.369629e-01
-3.046707e-01 1.093856e+00 -2.807007e+00 2.170898e+00 1.427422e-03 1.635669e-02 -7.153320e-02 1.369629e-01
-3.076436e-01 1.097583e+00 -2.807007e+00 2.170898e+00 1.349042e-03 1.640352e-02 -7.153320e-02 1.369629e-01
-3.083882e-01 1.094631e+00 -2.807007e+00 2.442490e+00 1.422776e-03 1.624133e-02 -7.153320e-02 1.369629e-01
-3.041036e-01 1.099267e+00 -2.807007e+00 2.442490e+00 1.389268e-03 1.631583e-02 -7.153320e-02 1.369629e-01
-3.063299e-01 1.096753e+00 -2.807007e+00 2.139481e+00 1.389752e-03 1.630107e-02 -7.153320e-02 1.369629e-01
-3.061788e-01 1.093452e+00 -2.760849e+00 2.139481e+00 1.439593e-03 1.633289e-02 -7.153320e-02 1.369629e-01
-3.105279e-01 1.097965e+00 -2.807007e+00 2.442490e+00 1.390375e-03 1.638466e-02 -7.153320e-02 1.369629e-01
-3.072104e-01 1.099052e+00 -2.807007e+00 2.442490e+00 1.460762e-03 1.630234e-02 -7.153320e-02 1.369629e-01
-3.050292e-01 1.096837e+00 -2.807007e+00 2.170898e+00 1.398235e-03 1.642803e-02 -7.153320e-02 1.369629e-01
-3.088668e-01 1.091306e+00 -2.807007e+00 2.173645e+00 1.451020e-03 1.624886e-02 -7.153320e-02 1.369629e-01
-3.078693e-01 1.096109e+00 -2.807007e+00 2.139481e+00 1.401813e-03 1.631802e-02 -7.153320e-02 1.369629e-01
-3.065460e-01 1.095649e+00 -2.807007e+00 2.170898e+00 1.431456e-03 1.641671e-02 -7.153320e-02 1.369629e-01
-3.067229e-01 1.096571e+00 -2.807007e+00 2.112534e+00 1.377630e-03 1.638233e-02 -7.153320e-02 1.369629e-01
-3.092012e-01 1.093655e+00 -2.807007e+00 2.173645e+00 1.375107e-03 1.622545e-02 -7.153320e-02 1.313629e-01
-3.045544e-01 1.097349e+00 -2.807007e+00 2.139481e+00 1.430499e-03 1.626885e-02 -7.153320e-02 1.369629e-01
-3.040715e-01 1.096999e+00 -2.807007e+00 2.173645e+00 1.424104e-03 1.639969e-02 -7.153320e-02 1.369629e-01
-3.033810e-01 1.094624e+00 -2.807007e+00 2.170898e+00 1.430032e-03 1.639819e-02 -7.153320e-02 1.369629e-01
-3.031515e-01 1.095720e+00 -2.807007e+00 2.173645e+00 1.394087e-03 1.637680e-02 -7.153320e-02 1.369629e-01
-3.037431e-01 1.097742e+00 -2.807007e+00 2.442490e+00 1.430640e-03 1.634212e-02 -7.153320e-02 1.369629e-01
-3.096549e-01 1.090795e+00 -2.807007e+00 2.173645e+00 1.423798e-03 1.627276e-02 -7.153320e-02 1.369629e-01
-3.078394e-01 1.093395e+00 -2.807007e+00 2.442490e+00 1.395501e-03 1.631208e-02 -7.153320e-02 1.369629e-01
-3.060601e-01 1.097927e+00 -2.807007e+00 2.173645e+00 1.394043e-03 1.644940e-02 -7.153320e-02 1.369629e-01
-3.056512e-01 1.095210e+00 -2.807007e+00 2.442490e+00 1.455097e-03 1.634061e-02 -7.153320e-02 1.369629e-01
-3.090581e-01 1.091911e+00 -2.807007e+00 2.173645e+00 1.391867e-03 1.630119e-02 -7.153320e-02 1.369629e-01
-3.062312e-01 1.096836e+00 -2.807007e+00 2.442490e+00 1.414876e-03 1.628912e-02 -7.153320e-02 1.369629e-01
-3.061877e-01 1.094859e+00 -2.807007e+00 2.442490e+00 1.406674e-03 1.627763e-02 -7.153320e-02 1.313629e-01
-3.081679e-01 1.096706e+00 -2.807007e+00 2.442490e+00 1.374819e-03 1.637663e-02 -7.153320e-02 1.369629e-01
-3.068361e-01 1.093904e+00 -2.760849e+00 2.442490e+00 1.363559e-03 1.636133e-02 -7.153320e-02 1.369629e-01
-3.061010e-01 1.094969e+00 -2.807007e+00 2.442490e+00 1.458736e-03 1.636291e-02 -7.153320e-02 1.369629e-01
-3.074753e-01 1.093735e+00 -2.807007e+00 2.442490e+00 1.406180e-03 1.624558e-02 -7.153320e-02 1.369629e-01
-3.040081e-01 1.097356e+00 -2.807007e+00 2.170898e+00 1.499469e-03 1.633642e-02 -7.153320e-02 1.369629e-01
-3.085877e-01 1.096400e+00 -2.807007e+00 2.442490e+00 1.391947e-03 1.637137e-02 -7.153320e-02 1.369629e-01
-3.039568e-01 1.098586e+00 -2.807007e+00 2.112534e+00 1.463926e-03 1.631108e-02 -7.153320e-02 1.369629e-01
-3.077667e-01 1.093076e+00 -2.807007e+00 2.442490e+00 1.468538e-03 1.630329e-02 -7.153320e-02 1.369629e-01
-3.077385e-01 1.092207e+00 -2.807007e+00 2.139481e+00 1.432978e-03 1.629803e-02 -7.153320e-02 1.369629e-01
-3.044025e-01 1.094049e+00 -2.807007e+00 2.442490e+00 1.444127e-03 1.634056e-02 -7.153320e-02 1.369629e-01
-3.038153e-01 1.094867e+00 -2.807007e+00 2.139481e+00 1.411695e-03 1.635659e-02 -7.153320e-02 1.369629e-01
-3.110968e-01 1.090311e+00 -2.807007e+00 2.170898e+00 1.410024e-03 1.629197e-02 -7.153320e-02 1.369629e-01
-3.029086e-01 1.097665e+00 -2.807007e+00 2.442490e+00 1.380397e-03 1.636437e-02 -7.153320e-02 1.369629e-01
-3.059812e-01 1.092814e+00 -2.807007e+00 2.173645e+00 1.424808e-03 1.627104e-02 -7.153320e-02 1.369629e-01
-3.064111e-01 1.095888e+00 -2.807007e+00 2.170898e+00 1.454535e-03 1.631926e-02 -7.153320e-02 1.369629e-01
-3.066043e-01 1.097558e+00 -2.807007e+00 2.442490e+00 1.407349e-03 1.649639e-02 -7.153320e-02 1.369629e-01
-3.057207e-01 1.093341e+00 -2.807007e+00 2.442490e+00 1.398470e-03 1.629339e-02 -7.153320e-02 1.369629e-01
-3.082422e-01 1.093711e+00 -2.803604e+00 2.170898e+00 1.419314e-03 1.628259e-02 -7.153320e-02 1.369629e-01
-3.069676e-01 1.094763e+00 -2.807007e+00 2.442490e+00 1.457831e-03 1.624633e-02 -7.153320e-02 1.313629e-01
-3.071007e-01 1.094932e+00 -2.803604e+00 2.442490e+00 1.405947e-03 1.643271e-02 -7.153320e-02 1.369629e-01
-3.058034e-01 1.092627e+00 -2.807007e+00 2.173645e+00 1.467456e-03 1.621309e-02 -7.153320e-02 1.369629e-01
-3.084325e-01 1.096678e+00 -2.760849e+00 2.173645e+00 1.395412e-03 1.643886e-02 -7.153320e-02 1.369629e-01
-3.076861e-01 1.094412e+00 -2.807007e+00 2.442490e+00 1.414217e-03 1.630687e-02 -7.153320e-02 1.369629e-01
-3.077979e-01 1.095654e+00 -2.807007e+00 2.173645e+00 1.422544e-03 1.642399e-02 -7.153320e-02 1.369629e-01
-3.041782e-01 1.091571e+00 -2.807007e+00 2.170898e+00 1.396190e-03 1.632299e-02 -7.153320e-02 1.369629e-01
-3.081806e-01 1.095949e+00 -2.807007e+00 2.442490e+00 1.366589e-03 1.634514e-02 -7.153320e-02 1.369629e-01
-3.019829e-01 1.104040e+00 -2.807007e+00 2.442490e+00 1.452897e-03 1.636216e-02 -7.153320e-02 1.369629e-01
-3.066028e-01 1.097520e+00 -2.807007e+00 2.173645e+00 1.386541e-03 1.630659e-02 -7.153320e-02 1.369629e-01
-3.059848e-01 1.094189e+00 -2.807007e+00 2.442490e+00 1.472348e-03 1.629715e-02 -7.153320e-02 1.369629e-01
-3.073867e-01 1.094923e+00 -2.760849e+00 2.442490e+00 1.384339e-03 1.634059e-02 -7.153320e-02 1.369629e-01
-3.062737e-01 1.096834e+00 -2.807007e+00 2.173645e+00 1.452321e-03 1.635273e-02 -7.153320e-02 1.369629e-01
-3.045246e-01 1.095686e+00 -2.807007e+00 2.442490e+00 1.434250e-03 1.630040e-02 -7.153320e-02 1.369629e-01
-3.049400e-01 1.099400e+00 -2.807007e+00 2.173645e+00 1.410379e-03 1.639275e-02 -7.153320e-02 1.369629e-01
-3.076889e-01 1.094273e+00 -2.807007e+00 2.442490e+00 1.413932e-03 1.634270e-02 -7.153320e-02 1.369629e-01
-3.033742e-01 1.097365e+00 -2.807007e+00 2.170898e+00 1.407086e-03 1.630329e-02 -7.153320e-02 1.369629e-01
-3.084630e-01 1.095789e+00 -2.807007e+00 2.442490e+00 1.426289e-03 1.631632e-02 -7.153320e-02 1.369629e-01
-3.057157e-01 1.096482e+00 -2.807007e+00 2.442490e+00 1.440444e-03 1.629861e-02 -7.153320e-02 1.369629e-01
-3.065193e-01 1.093763e+00 -2.807007e+00 2.442490e+00 1.471878e-03 1.632400e-02 -7.153320e-02 1.369629e-01
-3.068984e-01 1.095776e+00 -2.807007e+00 2.442490e+00 1.385680e-03 1.632883e-02 -7.153320e-02 1.369629e-01
-3.056032e-01 1.096350e+00 -2.807007e+00 2.173645e+00 1.450739e-03 1.629010e-02 -7.153320e-02 1.369629e-01
-3.098164e-01 1.093601e+00 -2.760849e+00 2.442490e+00 1.434603e-03 1.638755e-02 -7.153320e-02 1.369629e-01
-3.078596e-01 1.093733e+00 -2.807007e+00 2.112534e+00 1.418009e-03 1.633922e-02 -7.153320e-02 1.369629e-01
-3.073445e-01 1.093729e+00 -2.807007e+00 2.442490e+00 1.419900e-03 1.636943e-02 -7.153320e-02 1.369629e-01
-3.074664e-01 1.093612e+00 -2.807007e+00 2.130936e+00 1.448301e-03 1.634819e-02 -7.153320e-02 1.369629e-01
-3.053109e-01 1.094894e+00 -2.807007e+00 2.173645e+00 1.445824e-03 1.626304e-02 -7.153320e-02 1.369629e-01
-3.083268e-01 1.091847e+00 -2.807007e+00 2.173645e+00 1.410151e-03 1.626387e-02 -7.153320e-02 1.369629e-01
-3.077829e-01 1.091201e+00 -2.807007e+00 2.173645e+00 1.411610e-03 1.629531e-02 -7.153320e-02 1.369629e-01
-3.042846e-01 1.096228e+00 -2.807007e+00 2.170898e+00 1.499822e-03 1.635124e-02 -7.153320e-02 1.369629e-01
-3.096052e-01 1.091806e+00 -2.760849e+00 2.130936e+00 1.391049e-03 1.632831e-02 -7.153320e-02 1.369629e-01
-3.054560e-01 1.096810e+00 -2.807007e+00 2.442490e+00 1.405993e-03 1.628451e-02 -7.153320e-02 1.313629e-01
-3.075522e-01 1.092367e+00 -2.803604e+00 2.442490e+00 1.391211e-03 1.623304e-02 -7.153320e-02 1.369629e-01
-3.055985e-01 1.098069e+00 -2.807007e+00 2.442490e+00 1.463893e-03 1.633411e-02 -7.153320e-02 1.369629e-01
-3.072423e-01 1.098999e+00 -2.807007e+00 2.442490e+00 1.469985e-03 1.632667e-02 -7.153320e-02 1.369629e-01
-3.090459e-01 1.093815e+00 -2.807007e+00 2.442490e+00 1.401923e-03 1.621173e-02 -7.153320e-02 1.261597e-01
-3.082587e-01 1.092066e+00 -2.807007e+00 2.442490e+00 1.349034e-03 1.632520e-02 -7.153320e-02 1.313629e-01
-3.082966e-01 1.096562e+00 -2.807007e+00 2.139481e+00 1.387416e-03 1.632180e-02 -7.153320e-02 1.369629e-01
-3.060929e-01 1.095504e+00 -2.807007e+00 2.170898e+00 1.388153e-03 1.638505e-02 -7.153320e-02 1.369629e-01
-3.061133e-01 1.091661e+00 -2.807007e+00 2.173645e+00 1.381803e-03 1.626937e-02 -7.153320e-02 1.369629e-01
-3.070699e-01 1.094680e+00 -2.807007e+00 2.173645e+00 1.433715e-03 1.632841e-02 -7.153320e-02 1.369629e-01
-3.053716e-01 1.093893e+00 -2.807007e+00 2.442490e+00 1.414940e-03 1.628472e-02 -7.153320e-02 1.313629e-01
-3.064332e-01 1.098122e+00 -2.807007e+00 2.442490e+00 1.446814e-03 1.634301e-02 -7.153320e-02 1.369629e-01
-3.043391e-01 1.097677e+00 -2.807007e+00 2.442490e+00 1.391042e-03 1.631761e-02 -7.153320e-02 1.369629e-01
-3.047703e-01 1.098050e+00 -2.807007e+00 2.173645e+00 1.401976e-03 1.628366e-02 -7.153320e-02 1.313629e-01
-3.051823e-01 1.098949e+00 -2.807007e+00 2.173645e+00 1.415687e-03 1.633542e-02 -7.153320e-02 1.369629e-01
-3.083504e-01 1.094044e+00 -2.803604e+00 2.139481e+00 1.401748e-03 1.628546e-02 -7.153320e-02 1.369629e-01
-3.039622e-01 1.099587e+00 -2.803604e+00 2.173645e+00 1.419953e-03 1.634791e-02 -7.153320e-02 1.369629e-01
-3.025059e-01 1.098568e+00 -2.807007e+00 2.173645e+00 1.459476e-03 1.638274e-02 -7.153320e-02 1.369629e-01
-3.069479e-01 1.094057e+00 -2.807007e+00 2.170898e+00 1.410511e-03 1.628874e-02 -7.153320e-02 1.369629e-01
-3.049237e-01 1.095949e+00 -2.807007e+00 2.173645e+00 1.390265e-03 1.632465e-02 -7.153320e-02 1.369629e-01
-3.044711e-01 1.096867e+00 -2.807007e+00 2.442490e+00 1.392684e-03 1.635532e-02 -7.153320e-02 1.369629e-01
-3.045880e-01 1.093751e+00 -2.807007e+00 2.170898e+00 1.396423e-03 1.626045e-02 -7.153320e-02 1.313629e-01
-3.082250e-01 1.091762e+00 -2.803604e+00 2.173645e+00 1.403271e-03 1.632062e-02 -7.153320e-02 1.369629e-01
-3.063951e-01 1.095350e+00 -2.807007e+00 2.442490e+00 1.446679e-03 1.636798e-02 -7.153320e-02 1.369629e-01
-3.051843e-01 1.098856e+00 -2.807007e+00 2.442490e+00 1.466550e-03 1.636469e-02 -7.153320e-02 1.369629e-01
-3.065247e-01 1.094192e+00 -2.807007e+00 2.173645e+00 1.370972e-03 1.629499e-02 -7.153320e-02 1.369629e-01
-3.080574e-01 1.095780e+00 -2.803604e+00 2.442490e+00 1.387288e-03 1.627598e-02 -7.153320e-02 1.369629e-01
-3.056166e-01 1.095436e+00 -2.807007e+00 2.442490e+00 1.447260e-03 1.625138e-02 -7.153320e-02 1.369629e-01
-3.052998e-01 1.094550e+00 -2.807007e+00 2.442490e+00 1.414780e-03 1.632738e-02 -7.153320e-02 1.369629e-01
-3.091175e-01 1.096856e+00 -2.807007e+00 2.442490e+00 1.422027e-03 1.635940e-02 -7.153320e-02 1.369629e-01
-3.061482e-01 1.096302e+00 -2.807007e+00 2.442490e+00 1.404492e-03 1.634118e-02 -7.153320e-02 1.369629e-01
-3.093009e-01 1.092565e+00 -2.803604e+00 2.173645e+00 1.451078e-03 1.635169e-02 -7.153320e-02 1.369629e-01
-3.089815e-01 1.093272e+00 -2.807007e+00 2.170898e+00 1.418889e-03 1.630636e-02 -7.153320e-02 1.369629e-01
-3.077558e-01 1.093370e+00 -2.760849e+00 2.442490e+00 1.451459e-03 1.627225e-02 -7.153320e-02 1.369629e-01
-3.099961e-01 1.094889e+00 -2.807007e+00 2.115662e+00 1.385629e-03 1.626839e-02 -7.153320e-02 1.313629e-01
-3.069075e-01 1.099109e+00 -2.807007e+00 2.442490e+00 1.474724e-03 1.628404e-02 -7.153320e-02 1.369629e-01
-3.053932e-01 1.097209e+00 -2.807007e+00 2.170898e+00 1.451993e-03 1.636270e-02 -7.153320e-02 1.369629e-01
-3.036023e-01 1.101109e+00 -2.807007e+00 2.442490e+00 1.485618e-03 1.632641e-02 -7.153320e-02 1.369629e-01
-3.058454e-01 1.096540e+00 -2.807007e+00 2.442490e+00 1.425471e-03 1.631973e-02 -7.153320e-02 1.369629e-01
-3.073397e-01 1.097204e+00 -2.807007e+00 2.442490e+00 1.459674e-03 1.630162e-02 -7.153320e-02 1.313629e-01
-3.052399e-01 1.099811e+00 -2.807007e+00 2.442490e+00 1.447384e-03 1.635229e-02 -7.153320e-02 1.369629e-01
-3.095213e-01 1.096673e+00 -2.807007e+00 2.442490e+00 1.446512e-03 1.642007e-02 -7.153320e-02 1.369629e-01
-3.052538e-01 1.099462e+00 -2.807007e+00 2.130936e+00 1.467077e-03 1.636514e-02 -7.153320e-02 1.369629e-01
-3.088695e-01 1.092604e+00 -2.803604e+00 2.173645e+00 1.399663e-03 1.631193e-02 -7.153320e-02 1.369629e-01
-3.050980e-01 1.095079e+00 -2.807007e+00 2.442490e+00 1.360696e-03 1.637845e-02 -7.153320e-02 1.369629e-01
-3.060735e-01 1.098688e+00 -2.807007e+00 2.442490e+00 1.452827e-03 1.632222e-02 -7.153320e-02 1.369629e-01
-3.020932e-01 1.099329e+00 -2.807007e+00 2.442490e+00 1.455436e-03 1.627729e-02 -7.153320e-02 1.369629e-01
-3.065444e-01 1.098624e+00 -2.807007e+00 2.442490e+00 1.437762e-03 1.638864e-02 -7.153320e-02 1.369629e-01
-3.038020e-01 1.098570e+00 -2.807007e+00 2.170898e+00 1.381542e-03 1.640383e-02 -7.153320e-02 1.369629e-01
-3.085362e-01 1.094555e+00 -2.807007e+00 2.442490e+00 1.440674e-03 1.629956e-02 -7.153320e-02 1.369629e-01
-3.050002e-01 1.096764e+00 -2.807007e+00 2.173645e+00 1.456522e-03 1.631550e-02 -7.153320e-02 1.369629e-01
-3.060571e-01 1.094482e+00 -2.807007e+00 2.442490e+00 1.399867e-03 1.637825e-02 -7.153320e-02 1.369629e-01
-3.056326e-01 1.094051e+00 -2.807007e+00 2.139481e+00 1.468757e-03 1.631088e-02 -7.153320e-02 1.369629e-01
-3.070490e-01 1.097912e+00 -2.801086e+00 2.442490e+00 1.404890e-03 1.637635e-02 -7.153320e-02 1.369629e-01
-3.043221e-01 1.094786e+00 -2.807007e+00 2.112534e+00 1.459396e-03 1.627586e-02 -7.153320e-02 1.313629e-01
-3.064136e-01 1.097049e+00 -2.807007e+00 2.173645e+00 1.419234e-03 1.633243e-02 -7.153320e-02 1.369629e-01
-3.092951e-01 1.092538e+00 -2.807007e+00 2.442490e+00 1.408608e-03 1.624120e-02 -7.153320e-02 1.313629e-01
-3.083793e-01 1.095932e+00 -2.803604e+00 2.170898e+00 1.397021e-03 1.641829e-02 -7.153320e-02 1.369629e-01
-3.102717e-01 1.093938e+00 -2.803604e+00 2.139481e+00 1.376117e-03 1.637892e-02 -7.153320e-02 1.369629e-01
-2.993351e-01 1.097079e+00 -2.807007e+00 2.442490e+00 1.382020e-03 1.634881e-02 -7.153320e-02 1.369629e-01
-3.056136e-01 1.094498e+00 -2.807007e+00 2.139481e+00 1.461989e-03 1.639441e-02 -7.153320e-02 1.369629e-01
-3.068300e-01 1.095518e+00 -2.807007e+00 2.442490e+00 1.433302e-03 1.632466e-02 -7.153320e-02 1.369629e-01
-3.058557e-01 1.097816e+00 -2.807007e+00 2.173645e+00 1.479280e-03 1.629935e-02 -7.153320e-02 1.369629e-01
-3.091711e-01 1.094259e+00 -2.807007e+00 2.442490e+00 1.395691e-03 1.633263e-02 -7.153320e-02 1.369629e-01
-3.045148e-01 1.098623e+00 -2.807007e+00 2.170898e+00 1.410451e-03 1.628501e-02 -7.153320e-02 1.313629e-01
-3.081584e-01 1.097264e+00 -2.807007e+00 2.442490e+00 1.441295e-03 1.635605e-02 -7.153320e-02 1.369629e-01
-3.083524e-01 1.094589e+00 -2.807007e+00 2.442490e+00 1.442817e-03 1.632423e-02 -7.153320e-02 1.369629e-01
-3.101727e-01 1.094359e+00 -2.807007e+00 2.442490e+00 1.401738e-03 1.627301e-02 -7.153320e-02 1.369629e-01
-3.059950e-01 1.096810e+00 -2.807007e+00 2.442490e+00 1.394084e-03 1.622787e-02 -7.153320e-02 1.369629e-01
-3.080935e-01 1.098185e+00 -2.807007e+00 2.139481e+00 1.473748e-03 1.635368e-02 -7.153320e-02 1.369629e-01
-3.081433e-01 1.093193e+00 -2.807007e+00 2.130936e+00 1.458677e-03 1.628509e-02 -7.153320e-02 1.369629e-01
-3.046069e-01 1.093161e+00 -2.760849e+00 2.173645e+00 1.436243e-03 1.632841e-02 -7.153320e-02 1.369629e-01
-3.069207e-01 1.094550e+00 -2.807007e+00 2.442490e+00 1.397148e-03 1.630387e-02 -7.153320e-02 1.313629e-01
-3.066589e-01 1.090791e+00 -2.807007e+00 2.170898e+00 1.397053e-03 1.627543e-02 -7.153320e-02 1.313629e-01
-3.048241e-01 1.092899e+00 -2.807007e+00 2.442490e+00 1.342673e-03 1.631720e-02 -7.153320e-02 1.369629e-01
-3.074637e-01 1.094392e+00 -2.807007e+00 2.173645e+00 1.401097e-03 1.637877e-02 -7.153320e-02 1.369629e-01
-3.059929e-01 1.094815e+00 -2.807007e+00 2.173645e+00 1.461000e-03 1.630342e-02 -7.153320e-02 1.369629e-01
-3.076846e-01 1.095727e+00 -2.803604e+00 2.170898e+00 1.451046e-03 1.635378e-02 -7.153320e-02 1.369629e-01
-3.066195e-01 1.089739e+00 -2.801086e+00 2.130936e+00 1.463614e-03 1.623714e-02 -7.153320e-02 1.369629e-01
-3.092676e-01 1.091459e+00 -2.807007e+00 2.173645e+00 1.386956e-03 1.633103e-02 -7.153320e-02 1.369629e-01
-3.094801e-01 1.092706e+00 -2.807007e+00 2.442490e+00 1.406858e-03 1.631374e-02 -7.153320e-02 1.369629e-01
-3.084198e-01 1.094037e+00 -2.754105e+00 2.173645e+00 1.431368e-03 1.625661e-02 -7.153320e-02 1.369629e-01
-3.054081e-01 1.098147e+00 -2.807007e+00 2.112534e+00 1.457486e-03 1.638526e-02 -7.153320e-02 1.369629e-01
-3.051625e-01 1.097675e+00 -2.807007e+00 2.139481e+00 1.442323e-03 1.634312e-02 -7.153320e-02 1.369629e-01
-3.069193e-01 1.092468e+00 -2.807007e+00 2.173645e+00 1.409089e-03 1.631320e-02 -7.153320e-02 1.313629e-01
-3.060222e-01 1.095172e+00 -2.807007e+00 2.442490e+00 1.398706e-03 1.630549e-02 -7.153320e-02 1.313629e-01
-3.080441e-01 1.093443e+00 -2.807007e+00 2.442490e+00 1.404654e-03 1.623327e-02 -7.153320e-02 1.261597e-01
-3.051456e-01 1.098456e+00 -2.807007e+00 2.170898e+00 1.462448e-03 1.632976e-02 -7.153320e-02 1.369629e-01
-3.027146e-01 1.097262e+00 -2.807007e+00 2.442490e+00 1.398558e-03 1.630416e-02 -7.153320e-02 1.369629e-01
-3.043117e-01 1.093997e+00 -2.807007e+00 2.442490e+00 1.438348e-03 1.627215e-02 -7.153320e-02 1.313629e-01
-3.057747e-01 1.094879e+00 -2.807007e+00 2.173645e+00 1.430965e-03 1.638029e-02 -7.153320e-02 1.369629e-01
-3.041027e-01 1.099276e+00 -2.807007e+00 2.173645e+00 1.456246e-03 1.638988e-02 -7.153320e-02 1.369629e-01
-3.058436e-01 1.095816e+00 -2.807007e+00 2.173645e+00 1.450700e-03 1.632119e-02 -7.153320e-02 1.369629e-01
-3.049744e-01 1.094586e+00 -2.807007e+00 2.130936e+00 1.388425e-03 1.628954e-02 -7.153320e-02 1.369629e-01
-3.060632e-01 1.095422e+00 -2.807007e+00 2.442490e+00 1.388745e-03 1.633850e-02 -7.153320e-02 1.369629e-01
-3.054459e-01 1.099078e+00 -2.760849e+00 2.442490e+00 1.465311e-03 1.643939e-02 -7.153320e-02 1.369629e-01
-3.081299e-01 1.092070e+00 -2.807007e+00 2.442490e+00 1.437730e-03 1.639398e-02 -7.153320e-02 1.369629e-01
-3.094035e-01 1.093650e+00 -2.807007e+00 2.442490e+00 1.381092e-03 1.628631e-02 -7.153320e-02 1.369629e-01
-3.091864e-01 1.096419e+00 -2.807007e+00 2.173645e+00 1.387413e-03 1.630945e-02 -7.153320e-02 1.369629e-01
-3.077673e-01 1.095641e+00 -2.807007e+00 2.442490e+00 1.414106e-03 1.630821e-02 -7.153320e-02 1.369629e-01
-3.077351e-01 1.096741e+00 -2.807007e+00 2.442490e+00 1.473483e-03 1.630843e-02 -7.153320e-02 1.369629e-01
-3.071472e-01 1.097598e+00 -2.807007e+00 2.173645e+00 1.443892e-03 1.638882e-02 -7.153320e-02 1.369629e-01
-3.060128e-01 1.095283e+00 -2.807007e+00 2.130936e+00 1.444730e-03 1.641431e-02 -7.153320e-02 1.369629e-01
-3.077040e-01 1.095869e+00 -2.807007e+00 2.173645e+00 1.432538e-03 1.636702e-02 -7.153320e-02 1.369629e-01
-3.099081e-01 1.092638e+00 -2.807007e+00 2.170898e+00 1.414258e-03 1.646980e-02 -7.153320e-02 1.369629e-01
-3.051676e-01 1.098610e+00 -2.807007e+00 2.442490e+00 1.440110e-03 1.641401e-02 -7.153320e-02 1.369629e-01
-3.112913e-01 1.094697e+00 -2.801086e+00 2.442490e+00 1.469595e-03 1.633862e-02 -7.153320e-02 1.369629e-01
-3.050988e-01 1.096560e+00 -2.807007e+00 2.173645e+00 1.414686e-03 1.628106e-02 -7.153320e-02 1.369629e-01
-3.042497e-01 1.097393e+00 -2.807007e+00 2.173645e+00 1.485748e-03 1.634582e-02 -7.153320e-02 1.369629e-01
-3.077596e-01 1.094559e+00 -2.807007e+00 2.442490e+00 1.394833e-03 1.629912e-02 -7.153320e-02 1.313629e-01
-3.084869e-01 1.093909e+00 -2.807007e+00 2.170898e+00 1.440077e-03 1.625770e-02 -7.153320e-02 1.369629e-01
-3.066225e-01 1.096289e+00 -2.807007e+00 2.170898e+00 1.362732e-03 1.634651e-02 -7.153320e-02 1.369629e-01
-3.063068e-01 1.094307e+00 -2.807007e+00 2.442490e+00 1.388010e-03 1.636282e-02 -7.153320e-02 1.369629e-01
-3.073987e-01 1.093868e+00 -2.807007e+00 2.173645e+00 1.441502e-03 1.631300e-02 -7.153320e-02 1.369629e-01
-3.086695e-01 1.092819e+00 -2.807007e+00 2.173645e+00 1.459273e-03 1.629728e-02 -7.153320e-02 1.369629e-01
-3.090477e-01 1.094479e+00 -2.807007e+00 2.442490e+00 1.390441e-03 1.630650e-02 -7.153320e-02 1.369629e-01
-3.047210e-01 1.095777e+00 -2.807007e+00 2.442490e+00 1.392594e-03 1.631280e-02 -7.153320e-02 1.313629e-01
-3.094540e-01 1.092683e+00 -2.807007e+00 2.173645e+00 1.389065e-03 1.626411e-02 -7.153320e-02 1.369629e-01
-3.062496e-01 1.096165e+00 -2.807007e+00 2.442490e+00 1.407684e-03 1.631044e-02 -7.153320e-02 1.369629e-01
-3.070786e-01 1.094541e+00 -2.807007e+00 2.102890e+00 1.468622e-03 1.637577e-02 -7.153320e-02 1.369629e-01
-3.073569e-01 1.089105e+00 -2.801086e+00 2.170898e+00 1.383628e-03 1.626543e-02 -7.153320e-02 1.313629e-01
-3.090059e-01 1.090705e+00 -2.807007e+00 2.173645e+00 1.385682e-03 1.634025e-02 -7.153320e-02 1.313629e-01
-3.078558e-01 1.095438e+00 -2.807007e+00 2.442490e+00 1.405086e-03 1.632801e-02 -7.153320e-02 1.369629e-01
-3.018052e-01 1.095788e+00 -2.807007e+00 2.442490e+00 1.376444e-03 1.636033e-02 -7.153320e-02 1.369629e-01
-3.081613e-01 1.096374e+00 -2.807007e+00 2.442490e+00 1.432570e-03 1.641045e-02 -7.153320e-02 1.369629e-01
-3.051306e-01 1.094406e+00 -2.807007e+00 2.442490e+00 1.387400e-03 1.626449e-02 -7.153320e-02 1.313629e-01
-3.065051e-01 1.094864e+00 -2.807007e+00 2.442490e+00 1.483495e-03 1.638718e-02 -7.153320e-02 1.369629e-01
-3.059006e-01 1.095304e+00 -2.807007e+00 2.442490e+00 1.397817e-03 1.626075e-02 -7.153320e-02 1.369629e-01
-3.064307e-01 1.090134e+00 -2.803604e+00 2.442490e+00 1.416069e-03 1.628484e-02 -7.153320e-02 1.369629e-01
-3.072272e-01 1.095164e+00 -2.807007e+00 2.442490e+00 1.439152e-03 1.627114e-02 -7.153320e-02 1.369629e-01
-3.078436e-01 1.095266e+00 -2.807007e+00 2.139481e+00 1.493379e-03 1.626374e-02 -7.153320e-02 1.369629e-01
-3.044425e-01 1.097125e+00 -2.803604e+00 2.170898e+00 1.428533e-03 1.630045e-02 -7.153320e-02 1.369629e-01
-3.057147e-01 1.095619e+00 -2.807007e+00 2.442490e+00 1.418862e-03 1.636426e-02 -7.153320e-02 1.369629e-01
-3.048024e-01 1.097978e+00 -2.807007e+00 2.173645e+00 1.432806e-03 1.616793e-02 -7.153320e-02 1.261597e-01
-3.100915e-01 1.093544e+00 -2.803604e+00 2.442490e+00 1.452920e-03 1.626905e-02 -7.153320e-02 1.369629e-01
-3.034953e-01 1.097265e+00 -2.807007e+00 2.173645e+00 1.465050e-03 1.635601e-02 -7.153320e-02 1.369629e-01
-3.032279e-01 1.094180e+00 -2.807007e+00 2.442490e+00 1.448340e-03 1.628432e-02 -7.153320e-02 1.369629e-01
-3.091746e-01 1.091180e+00 -2.807007e+00 2.442490e+00 1.368863e-03 1.624123e-02 -7.153320e-02 1.261597e-01
-3.066110e-01 1.098497e+00 -2.807007e+00 2.442490e+00 1.454348e-03 1.632086e-02 -7.153320e-02 1.369629e-01
-3.076755e-01 1.094573e+00 -2.807007e+00 2.173645e+00 1.457977e-03 1.629644e-02 -7.153320e-02 1.369629e-01
-3.065050e-01 1.095997e+00 -2.807007e+00 2.139481e+00 1.439858e-03 1.632774e-02 -7.153320e-02 1.369629e-01
-3.090229e-01 1.094081e+00 -2.803604e+00 2.442490e+00 1.429934e-03 1.636890e-02 -7.153320e-02 1.369629e-01
-3.063237e-01 1.096580e+00 -2.807007e+00 2.170898e+00 1.409130e-03 1.627781e-02 -7.153320e-02 1.369629e-01
-3.072716e-01 1.098797e+00 -2.807007e+00 2.173645e+00 1.433454e-03 1.642716e-02 -7.153320e-02 1.369629e-01
-3.048884e-01 1.093959e+00 -2.807007e+00 2.442490e+00 1.421384e-03 1.637541e-02 -7.153320e-02 1.369629e-01
-3.042638e-01 1.097235e+00 -2.807007e+00 2.173645e+00 1.467703e-03 1.625064e-02 -7.153320e-02 1.369629e-01
-3.055817e-01 1.094839e+00 -2.807007e+00 2.173645e+00 1.395895e-03 1.633529e-02 -7.153320e-02 1.369629e-01
-3.067233e-01 1.096178e+00 -2.807007e+00 2.442490e+00 1.399879e-03 1.635635e-02 -7.153320e-02 1.369629e-01
-3.071907e-01 1.091686e+00 -2.807007e+00 2.442490e+00 1.416459e-03 1.632956e-02 -7.153320e-02 1.369629e-01
-3.062574e-01 1.097401e+00 -2.807007e+00 2.173645e+00 1.444172e-03 1.634877e-02 -7.153320e-02 1.369629e-01
-3.038670e-01 1.098442e+00 -2.807007e+00 2.173645e+00 1.348151e-03 1.640468e-02 -7.153320e-02 1.369629e-01
-3.019889e-01 1.098481e+00 -2.807007e+00 2.442490e+00 1.429550e-03 1.640978e-02 -7.153320e-02 1.369629e-01
-3.077148e-01 1.097151e+00 -2.807007e+00 2.173645e+00 1.413310e-03 1.641629e-02 -7.153320e-02 1.369629e-01
-3.037979e-01 1.095171e+00 -2.807007e+00 2.112534e+00 1.468626e-03 1.636010e-02 -7.153320e-02 1.369629e-01
-3.070142e-01 1.097764e+00 -2.807007e+00 2.442490e+00 1.378330e-03 1.637158e-02 -7.153320e-02 1.369629e-01
-3.029847e-01 1.098528e+00 -2.807007e+00 2.442490e+00 1.412008e-03 1.633254e-02 -7.153320e-02 1.369629e-01
-3.081695e-01 1.097051e+00 -2.807007e+00 2.442490e+00 1.469444e-03 1.640785e-02 -7.153320e-02 1.369629e-01
-3.067257e-01 1.092413e+00 -2.807007e+00 2.170898e+00 1.389950e-03 1.635932e-02 -7.153320e-02 1.369629e-01
-3.078926e-01 1.097871e+00 -2.807007e+00 2.173645e+00 1.447838e-03 1.631735e-02 -7.153320e-02 1.369629e-01
-3.088271e-01 1.097958e+00 -2.807007e+00 2.173645e+00 1.431263e-03 1.633631e-02 -7.153320e-02 1.369629e-01
-3.099700e-01 1.096017e+00 -2.807007e+00 2.173645e+00 1.466117e-03 1.615654e-02 -7.153320e-02 1.313629e-01
-3.051735e-01 1.099659e+00 -2.807007e+00 2.442490e+00 1.472615e-03 1.633334e-02 -7.153320e-02 1.369629e-01
-3.074086e-01 1.095128e+00 -2.807007e+00 2.173645e+00 1.452662e-03 1.625109e-02 -7.153320e-02 1.369629e-01
-3.063321e-01 1.097464e+00 -2.803604e+00 2.442490e+00 1.439916e-03 1.637448e-02 -7.153320e-02 1.369629e-01
-3.051376e-01 1.098448e+00 -2.803604e+00 2.173645e+00 1.514372e-03 1.635946e-02 -7.153320e-02 1.369629e-01
-3.071936e-01 1.094550e+00 -2.807007e+00 2.130936e+00 1.411169e-03 1.628412e-02 -7.153320e-02 1.369629e-01
-3.105611e-01 1.090395e+00 -2.807007e+00 2.442490e+00 1.381856e-03 1.639185e-02 -7.153320e-02 1.369629e-01
-3.049603e-01 1.094641e+00 -2.807007e+00 2.173645e+00 1.419478e-03 1.639227e-02 -7.153320e-02 1.369629e-01
-3.040094e-01 1.100322e+00 -2.807007e+00 2.442490e+00 1.445834e-03 1.635966e-02 -7.153320e-02 1.369629e-01
-3.060969e-01 1.097241e+00 -2.807007e+00 2.442490e+00 1.384171e-03 1.645030e-02 -7.153320e-02 1.369629e-01
-3.070403e-01 1.095068e+00 -2.807007e+00 2.139481e+00 1.365117e-03 1.635579e-02 -7.153320e-02 1.369629e-01
-3.075446e-01 1.094837e+00 -2.803604e+00 2.442490e+00 1.430389e-03 1.621723e-02 -7.153320e-02 1.369629e-01
-3.099315e-01 1.095268e+00 -2.801086e+00 2.173645e+00 1.478790e-03 1.632411e-02 -7.153320e-02 1.369629e-01
-3.048400e-01 1.098356e+00 -2.807007e+00 2.173645e+00 1.437235e-03 1.644029e-02 -7.153320e-02 1.369629e-01
-3.064814e-01 1.095161e+00 -2.807007e+00 2.442490e+00 1.398648e-03 1.631659e-02 -7.153320e-02 1.369629e-01
-3.060077e-01 1.096172e+00 -2.807007e+00 2.442490e+00 1.414500e-03 1.633463e-02 -7.153320e-02 1.369629e-01
-3.084036e-01 1.092863e+00 -2.807007e+00 2.442490e+00 1.434568e-03 1.624280e-02 -7.153320e-02 1.369629e-01
-3.057608e-01 1.096500e+00 -2.807007e+00 2.442490e+00 1.398816e-03 1.632258e-02 -7.153320e-02 1.369629e-01
-3.106533e-01 1.092075e+00 -2.807007e+00 2.442490e+00 1.349782e-03 1.629285e-02 -7.153320e-02 1.369629e-01
-3.074613e-01 1.092922e+00 -2.807007e+00 2.139481e+00 1.434039e-03 1.632827e-02 -7.153320e-02 1.369629e-01
-3.043256e-01 1.102091e+00 -2.807007e+00 2.442490e+00 1.475229e-03 1.638961e-02 -7.153320e-02 1.369629e-01
-3.083876e-01 1.094394e+00 -2.803604e+00 2.442490e+00 1.420544e-03 1.635651e-02 -7.153320e-02 1.369629e-01
-3.074044e-01 1.094411e+00 -2.807007e+00 2.173645e+00 1.431492e-03 1.634791e-02 -7.153320e-02 1.369629e-01
-3.084801e-01 1.093288e+00 -2.807007e+00 2.442490e+00 1.372161e-03 1.624641e-02 -7.153320e-02 1.261597e-01
-3.082240e-01 1.090718e+00 -2.807007e+00 2.170898e+00 1.395697e-03 1.634038e-02 -7.153320e-02 1.313629e-01
-3.088128e-01 1.091207e+00 -2.807007e+00 2.112534e+00 1.434535e-03 1.630062e-02 -7.153320e-02 1.369629e-01
-3.071249e-01 1.095655e+00 -2.807007e+00 2.173645e+00 1.402148e-03 1.635056e-02 -7.153320e-02 1.313629e-01
-3.074600e-01 1.092759e+00 -2.807007e+00 2.130936e+00 1.374080e-03 1.633869e-02 -7.153320e-02 1.369629e-01
-3.062201e-01 1.097778e+00 -2.807007e+00 2.442490e+00 1.459356e-03 1.637584e-02 -7.153320e-02 1.369629e-01
-3.065159e-01 1.095606e+00 -2.807007e+00 2.442490e+00 1.440440e-03 1.639976e-02 -7.153320e-02 1.369629e-01
-3.080923e-01 1.095746e+00 -2.807007e+00 2.442490e+00 1.427760e-03 1.634542e-02 -7.153320e-02 1.369629e-01
-3.057478e-01 1.095463e+00 -2.807007e+00 2.442490e+00 1.438297e-03 1.632958e-02 -7.153320e-02 1.369629e-01
-3.081515e-01 1.093561e+00 -2.803604e+00 2.112534e+00 1.374363e-03 1.639440e-02 -7.153320e-02 1.369629e-01
-3.069796e-01 1.090610e+00 -2.807007e+00 2.170898e+00 1.406031e-03 1.627849e-02 -7.153320e-02 1.313629e-01
-3.065852e-01 1.096052e+00 -2.807007e+00 2.173645e+00 1.470196e-03 1.633371e-02 -7.153320e-02 1.369629e-01
-3.024149e-01 1.095890e+00 -2.807007e+00 2.442490e+00 1.438418e-03 1.628971e-02 -7.153320e-02 1.313629e-01
-3.056296e-01 1.090901e+00 -2.807007e+00 2.442490e+00 1.364052e-03 1.627991e-02 -7.153320e-02 1.313629e-01
-3.086778e-01 1.096368e+00 -2.807007e+00 2.442490e+00 1.384124e-03 1.645539e-02 -7.153320e-02 1.369629e-01
-3.047226e-01 1.094098e+00 -2.807007e+00 2.173645e+00 1.405038e-03 1.623417e-02 -7.153320e-02 1.369629e-01
-3.099289e-01 1.093190e+00 -2.754105e+00 2.442490e+00 1.452969e-03 1.632236e-02 -7.153320e-02 1.369629e-01
-3.045475e-01 1.093301e+00 -2.807007e+00 2.173645e+00 1.430587e-03 1.630181e-02 -7.153320e-02 1.369629e-01
-3.044345e-01 1.100177e+00 -2.807007e+00 2.442490e+00 1.413221e-03 1.636678e-02 -7.153320e-02 1.369629e-01
-3.079889e-01 1.098423e+00 -2.807007e+00 2.173645e+00 1.418437e-03 1.635122e-02 -7.153320e-02 1.369629e-01
