6.468750e+01 3.697917e-01 3.307019e-02 5.475315e-01 -9.960938e-01 9.960938e-01
6.198828e+01 3.697917e-01 2.303869e-02 5.478761e-01 -1.062500e+00 1.035156e+00
5.934766e+01 3.697917e-01 7.863629e-03 5.595588e-01 -1.199219e+00 1.230469e+00
5.789453e+01 3.697917e-01 -1.315036e-02 5.852973e-01 -1.441406e+00 1.515625e+00
5.820312e+01 3.697917e-01 -3.221122e-02 6.249008e-01 -1.769531e+00 1.828125e+00
5.831250e+01 3.697917e-01 -4.969732e-02 6.684622e-01 -2.035156e+00 2.085938e+00
5.923438e+01 3.697917e-01 -6.268406e-02 7.024313e-01 -2.250000e+00 2.292969e+00
6.039062e+01 3.697917e-01 -7.486297e-02 7.276547e-01 -2.421875e+00 2.457031e+00
6.028125e+01 3.697917e-01 -8.784972e-02 7.467782e-01 -2.562500e+00 2.589844e+00
5.810156e+01 3.697917e-01 -9.911854e-02 7.637795e-01 -2.671875e+00 2.695312e+00
5.806250e+01 3.697917e-01 -1.117372e-01 7.857986e-01 -2.761719e+00 2.816406e+00
5.740234e+01 3.697917e-01 -1.265032e-01 8.151246e-01 -2.835938e+00 2.960938e+00
5.746875e+01 3.697917e-01 -1.464332e-01 8.486715e-01 -2.894531e+00 3.066406e+00
5.786719e+01 3.697917e-01 -1.680097e-01 8.839726e-01 -2.937500e+00 3.226562e+00
5.852734e+01 3.697917e-01 -1.862831e-01 9.169955e-01 -2.968750e+00 3.359375e+00
5.844922e+01 3.697917e-01 -2.010696e-01 9.493048e-01 -3.027344e+00 3.464844e+00
5.769531e+01 3.697917e-01 -2.130133e-01 9.837310e-01 -3.414062e+00 3.554688e+00
5.749219e+01 3.697917e-01 -2.239549e-01 1.021513e+00 -3.746094e+00 3.628906e+00
5.680469e+01 3.697917e-01 -2.294871e-01 1.058877e+00 -4.011719e+00 3.687500e+00
5.761328e+01 3.697917e-01 -2.314811e-01 1.094649e+00 -4.246094e+00 3.730469e+00
5.643359e+01 3.697917e-01 -2.351726e-01 1.127829e+00 -4.449219e+00 3.851562e+00
5.635156e+01 3.697917e-01 -2.390073e-01 1.159391e+00 -4.578125e+00 4.121094e+00
5.534766e+01 3.697917e-01 -2.417069e-01 1.190485e+00 -4.804688e+00 4.339844e+00
5.532422e+01 3.697917e-01 -2.446621e-01 1.220520e+00 -5.085938e+00 4.468750e+00
5.451172e+01 3.697917e-01 -2.480162e-01 1.251527e+00 -5.406250e+00 4.593750e+00
5.470703e+01 3.697917e-01 -2.487729e-01 1.284926e+00 -5.675781e+00 4.714844e+00
5.384375e+01 3.697917e-01 -2.487627e-01 1.318890e+00 -5.863281e+00 4.796875e+00
5.345703e+01 3.697917e-01 -2.507567e-01 1.354450e+00 -6.058594e+00 4.878906e+00
5.146094e+01 3.697917e-01 -2.539574e-01 1.396184e+00 -6.269531e+00 4.980469e+00
4.970703e+01 3.437500e-01 -2.570149e-01 1.443027e+00 -6.472656e+00 5.070312e+00
4.858203e+01 3.177083e-01 -2.587737e-01 1.483340e+00 -6.648438e+00 5.109375e+00
4.850000e+01 3.072917e-01 -2.599701e-01 1.520973e+00 -6.824219e+00 5.125000e+00
4.739844e+01 2.916667e-01 -2.621073e-01 1.562233e+00 -7.023438e+00 5.160156e+00
4.673828e+01 2.604167e-01 -2.697153e-01 1.603695e+00 -7.234375e+00 5.191406e+00
4.614062e+01 2.656250e-01 -2.776301e-01 1.642742e+00 -7.414062e+00 5.210938e+00
4.586328e+01 2.447917e-01 -2.848086e-01 1.678750e+00 -7.574219e+00 5.226562e+00
4.616797e+01 2.604167e-01 -2.928563e-01 1.710871e+00 -7.750000e+00 5.250000e+00
4.461719e+01 2.552083e-01 -3.046977e-01 1.742594e+00 -7.984375e+00 5.304688e+00
4.465625e+01 2.500000e-01 -3.160790e-01 1.774093e+00 -8.195312e+00 5.332031e+00
4.401562e+01 2.604167e-01 -3.257322e-01 1.797595e+00 -8.343750e+00 5.324219e+00
4.453125e+01 2.604167e-01 -3.310291e-01 1.817059e+00 -8.457031e+00 5.281250e+00
4.437109e+01 2.604167e-01 -3.388007e-01 1.841758e+00 -8.636719e+00 5.289062e+00
4.429688e+01 2.708333e-01 -3.456929e-01 1.866210e+00 -8.816406e+00 5.308594e+00
4.391406e+01 2.604167e-01 -3.548450e-01 1.891116e+00 -9.003906e+00 5.351562e+00
4.323828e+01 2.552083e-01 -3.640789e-01 1.915503e+00 -9.187500e+00 5.406250e+00
4.327344e+01 2.500000e-01 -3.717687e-01 1.936844e+00 -9.335938e+00 5.453125e+00
4.304297e+01 2.708333e-01 -3.799697e-01 1.957782e+00 -9.472656e+00 5.496094e+00
4.303125e+01 2.656250e-01 -3.898990e-01 1.978818e+00 -9.617188e+00 5.542969e+00
4.250391e+01 2.552083e-01 -3.991431e-01 1.999142e+00 -9.742188e+00 5.578125e+00
4.250000e+01 2.500000e-01 -4.085304e-01 2.019231e+00 -9.859375e+00 5.617188e+00
4.289062e+01 2.552083e-01 -4.163735e-01 2.037271e+00 -9.953125e+00 5.652344e+00
4.283203e+01 2.291667e-01 -4.252188e-01 2.055482e+00 -1.005469e+01 5.695312e+00
4.206250e+01 2.447917e-01 -4.365592e-01 2.076241e+00 -1.017969e+01 5.765625e+00
4.295703e+01 2.500000e-01 -4.468566e-01 2.095391e+00 -1.027734e+01 5.816406e+00
4.274609e+01 2.500000e-01 -4.553542e-01 2.113912e+00 -1.036719e+01 5.855469e+00
4.283203e+01 2.395833e-01 -4.629111e-01 2.130480e+00 -1.043359e+01 5.871094e+00
4.234375e+01 2.343750e-01 -4.700078e-01 2.147689e+00 -1.050391e+01 5.894531e+00
4.256641e+01 2.395833e-01 -4.775646e-01 2.165425e+00 -1.057812e+01 5.941406e+00
4.242578e+01 2.447917e-01 -4.859191e-01 2.183259e+00 -1.067188e+01 5.976562e+00
4.186328e+01 2.447917e-01 -4.937623e-01 2.201582e+00 -1.077734e+01 6.015625e+00
4.234766e+01 2.447917e-01 -5.007567e-01 2.218794e+00 -1.086719e+01 6.027344e+00
4.237891e+01 2.447917e-01 -5.072399e-01 2.236238e+00 -1.096875e+01 6.039062e+00
4.218359e+01 2.395833e-01 -5.135185e-01 2.252631e+00 -1.106641e+01 6.035156e+00
4.187891e+01 2.395833e-01 -5.200732e-01 2.269241e+00 -1.117578e+01 6.062500e+00
4.207031e+01 2.343750e-01 -5.276505e-01 2.286666e+00 -1.128516e+01 6.105469e+00
4.150391e+01 2.343750e-01 -5.350540e-01 2.303600e+00 -1.138672e+01 6.140625e+00
4.162109e+01 2.343750e-01 -5.415576e-01 2.319547e+00 -1.147266e+01 6.160156e+00
4.152344e+01 2.343750e-01 -5.491554e-01 2.335890e+00 -1.156250e+01 6.183594e+00
4.125000e+01 2.343750e-01 -5.559862e-01 2.351964e+00 -1.164844e+01 6.214844e+00
4.101172e+01 2.291667e-01 -5.632260e-01 2.368199e+00 -1.173828e+01 6.246094e+00
4.119922e+01 2.343750e-01 -5.702614e-01 2.383713e+00 -1.182031e+01 6.261719e+00
4.092578e+01 2.343750e-01 -5.780330e-01 2.400331e+00 -1.191406e+01 6.296875e+00
4.083984e+01 2.395833e-01 -5.855898e-01 2.416964e+00 -1.200781e+01 6.332031e+00
4.169531e+01 2.343750e-01 -5.911833e-01 2.433136e+00 -1.207812e+01 6.343750e+00
4.151562e+01 2.395833e-01 -5.977585e-01 2.449932e+00 -1.215234e+01 6.371094e+00
4.203906e+01 2.447917e-01 -6.018795e-01 2.466666e+00 -1.221094e+01 6.378906e+00
4.214062e+01 2.500000e-01 -6.068492e-01 2.483590e+00 -1.226953e+01 6.406250e+00
4.182812e+01 2.447917e-01 -6.128518e-01 2.500344e+00 -1.233203e+01 6.449219e+00
4.167578e+01 2.500000e-01 -6.197337e-01 2.517963e+00 -1.239062e+01 6.496094e+00
4.138281e+01 2.500000e-01 -6.239672e-01 2.535427e+00 -1.242969e+01 6.535156e+00
4.129297e+01 2.552083e-01 -6.284359e-01 2.553496e+00 -1.247266e+01 6.582031e+00
4.100391e+01 2.552083e-01 -6.331704e-01 2.571623e+00 -1.251172e+01 6.625000e+00
4.087891e+01 2.447917e-01 -6.351849e-01 2.589965e+00 -1.254688e+01 6.660156e+00
4.070703e+01 2.395833e-01 -6.380481e-01 2.608246e+00 -1.258984e+01 6.703125e+00
4.072266e+01 2.395833e-01 -6.440097e-01 2.626084e+00 -1.264453e+01 6.761719e+00
4.073047e+01 2.291667e-01 -6.499407e-01 2.644109e+00 -1.269531e+01 6.800781e+00
4.094531e+01 2.343750e-01 -6.528448e-01 2.661390e+00 -1.272266e+01 6.820312e+00
4.171875e+01 2.395833e-01 -6.552172e-01 2.678631e+00 -1.276172e+01 6.839844e+00
4.146094e+01 2.395833e-01 -6.614549e-01 2.694328e+00 -1.283203e+01 6.898438e+00
4.135938e+01 2.395833e-01 -6.672018e-01 2.710431e+00 -1.289844e+01 6.941406e+00
4.099219e+01 2.395833e-01 -6.748098e-01 2.724846e+00 -1.296484e+01 6.984375e+00
4.132422e+01 2.500000e-01 -6.802908e-01 2.740099e+00 -1.300000e+01 7.007812e+00
4.205078e+01 2.343750e-01 -6.844016e-01 2.755485e+00 -1.303125e+01 7.011719e+00
4.208594e+01 2.395833e-01 -6.899849e-01 2.770381e+00 -1.307422e+01 7.042969e+00
4.187500e+01 2.500000e-01 -6.961919e-01 2.784291e+00 -1.312891e+01 7.085938e+00
4.146094e+01 2.500000e-01 -7.035238e-01 2.796772e+00 -1.319531e+01 7.144531e+00
4.118359e+01 2.500000e-01 -7.082890e-01 2.810692e+00 -1.323047e+01 7.175781e+00
4.156641e+01 2.500000e-01 -7.126248e-01 2.824573e+00 -1.325781e+01 7.203125e+00
4.226562e+01 2.604167e-01 -7.149153e-01 2.840424e+00 -1.328125e+01 7.230469e+00
4.239453e+01 2.604167e-01 -7.181774e-01 2.854695e+00 -1.332422e+01 7.273438e+00
4.171875e+01 2.552083e-01 -7.235561e-01 2.868402e+00 -1.339844e+01 7.332031e+00
4.114062e+01 2.604167e-01 -7.290985e-01 2.881852e+00 -1.347656e+01 7.390625e+00
4.091406e+01 2.604167e-01 -7.342830e-01 2.895942e+00 -1.354688e+01 7.421875e+00
4.153125e+01 2.604167e-01 -7.379949e-01 2.909858e+00 -1.358984e+01 7.437500e+00
4.156250e+01 2.552083e-01 -7.419319e-01 2.923592e+00 -1.363672e+01 7.460938e+00
4.152344e+01 2.552083e-01 -7.453166e-01 2.938442e+00 -1.367578e+01 7.492188e+00
4.139453e+01 2.343750e-01 -7.499693e-01 2.952579e+00 -1.372656e+01 7.523438e+00
4.174609e+01 2.447917e-01 -7.569944e-01 2.966395e+00 -1.380859e+01 7.566406e+00
4.145703e+01 2.447917e-01 -7.629561e-01 2.980297e+00 -1.387891e+01 7.601562e+00
4.147266e+01 2.447917e-01 -7.669850e-01 2.993725e+00 -1.391797e+01 7.621094e+00
4.175391e+01 2.500000e-01 -7.712492e-01 3.007141e+00 -1.394922e+01 7.656250e+00
4.172656e+01 2.447917e-01 -7.734580e-01 3.021540e+00 -1.397656e+01 7.675781e+00
4.167969e+01 2.500000e-01 -7.784788e-01 3.034969e+00 -1.402734e+01 7.703125e+00
4.198438e+01 2.500000e-01 -7.823237e-01 3.048933e+00 -1.406250e+01 7.710938e+00
4.246484e+01 2.552083e-01 -7.885512e-01 3.061090e+00 -1.409766e+01 7.734375e+00
4.259766e+01 2.552083e-01 -7.947889e-01 3.073404e+00 -1.412891e+01 7.753906e+00
4.270312e+01 2.604167e-01 -8.019265e-01 3.086330e+00 -1.416016e+01 7.777344e+00
4.296484e+01 2.656250e-01 -8.068656e-01 3.098322e+00 -1.416406e+01 7.781250e+00
4.241797e+01 2.604167e-01 -8.109866e-01 3.111481e+00 -1.417578e+01 7.785156e+00
4.247656e+01 2.604167e-01 -8.158847e-01 3.125086e+00 -1.420312e+01 7.800781e+00
4.280078e+01 2.656250e-01 -8.207931e-01 3.138162e+00 -1.422656e+01 7.820312e+00
4.271875e+01 2.604167e-01 -8.241267e-01 3.151082e+00 -1.424609e+01 7.835938e+00
4.269922e+01 2.604167e-01 -8.281966e-01 3.164412e+00 -1.428125e+01 7.847656e+00
4.201562e+01 2.552083e-01 -8.340866e-01 3.176873e+00 -1.432422e+01 7.867188e+00
4.228516e+01 2.604167e-01 -8.386882e-01 3.189933e+00 -1.435938e+01 7.871094e+00
4.230078e+01 2.604167e-01 -8.429524e-01 3.203143e+00 -1.439062e+01 7.871094e+00
4.265625e+01 2.604167e-01 -8.475335e-01 3.216678e+00 -1.443359e+01 7.867188e+00
4.258984e+01 2.656250e-01 -8.540167e-01 3.229375e+00 -1.448828e+01 7.875000e+00
4.230078e+01 2.656250e-01 -8.588944e-01 3.242632e+00 -1.453125e+01 7.878906e+00
4.242188e+01 2.656250e-01 -8.629336e-01 3.256209e+00 -1.457422e+01 7.890625e+00
4.251953e+01 2.656250e-01 -8.678420e-01 3.269644e+00 -1.461719e+01 7.906250e+00
4.275000e+01 2.760417e-01 -8.733946e-01 3.282251e+00 -1.466016e+01 7.925781e+00
4.259375e+01 2.708333e-01 -8.776894e-01 3.295442e+00 -1.469531e+01 7.945312e+00
4.238281e+01 2.552083e-01 -8.809514e-01 3.309230e+00 -1.473438e+01 7.960938e+00
4.227344e+01 2.447917e-01 -8.831602e-01 3.323345e+00 -1.477344e+01 7.968750e+00
4.242578e+01 2.500000e-01 -8.883446e-01 3.336220e+00 -1.483984e+01 8.000000e+00
4.250781e+01 2.500000e-01 -8.940813e-01 3.349110e+00 -1.490234e+01 8.035156e+00
4.217188e+01 2.500000e-01 -8.989488e-01 3.362943e+00 -1.496094e+01 8.062500e+00
4.191016e+01 2.500000e-01 -9.010246e-01 3.377252e+00 -1.499219e+01 8.078125e+00
4.222656e+01 2.447917e-01 -9.024869e-01 3.392241e+00 -1.502344e+01 8.082031e+00
4.184766e+01 2.447917e-01 -9.059944e-01 3.406865e+00 -1.506250e+01 8.097656e+00
4.182422e+01 2.395833e-01 -9.105755e-01 3.420554e+00 -1.510156e+01 8.125000e+00
4.212891e+01 2.500000e-01 -9.174063e-01 3.433262e+00 -1.514844e+01 8.160156e+00
4.203125e+01 2.552083e-01 -9.235827e-01 3.447218e+00 -1.519141e+01 8.179688e+00
4.197266e+01 2.500000e-01 -9.253415e-01 3.461604e+00 -1.520703e+01 8.167969e+00
4.196094e+01 2.552083e-01 -9.306487e-01 3.475919e+00 -1.525391e+01 8.175781e+00
4.213672e+01 2.552083e-01 -9.342073e-01 3.490595e+00 -1.528516e+01 8.160156e+00
4.240234e+01 2.552083e-01 -9.396576e-01 3.504595e+00 -1.532031e+01 8.140625e+00
4.202734e+01 2.500000e-01 -9.445251e-01 3.518388e+00 -1.535547e+01 8.121094e+00
4.166406e+01 2.447917e-01 -9.519081e-01 3.531226e+00 -1.539844e+01 8.117188e+00
4.171094e+01 2.500000e-01 -9.572358e-01 3.544475e+00 -1.542578e+01 8.101562e+00
4.178906e+01 2.447917e-01 -9.626861e-01 3.557764e+00 -1.546094e+01 8.082031e+00
4.192969e+01 2.500000e-01 -9.666639e-01 3.570871e+00 -1.548047e+01 8.046875e+00
4.176953e+01 2.447917e-01 -9.717564e-01 3.584261e+00 -1.551172e+01 8.031250e+00
4.200781e+01 2.447917e-01 -9.767568e-01 3.597643e+00 -1.554688e+01 8.003906e+00
4.197656e+01 2.395833e-01 -9.832399e-01 3.610421e+00 -1.558594e+01 7.984375e+00
4.185938e+01 2.447917e-01 -9.902139e-01 3.623150e+00 -1.562500e+01 8.011719e+00
4.165625e+01 2.395833e-01 -9.973311e-01 3.636083e+00 -1.566406e+01 8.042969e+00
4.198047e+01 2.395833e-01 -1.003589e+00 3.649437e+00 -1.569531e+01 8.074219e+00
4.226172e+01 2.447917e-01 -1.008579e+00 3.663683e+00 -1.572656e+01 8.105469e+00
4.217969e+01 2.343750e-01 -1.012281e+00 3.678126e+00 -1.575391e+01 8.136719e+00
4.229297e+01 2.291667e-01 -1.017997e+00 3.692361e+00 -1.579688e+01 8.167969e+00
4.219531e+01 2.343750e-01 -1.025115e+00 3.706303e+00 -1.584766e+01 8.199219e+00
4.210938e+01 2.395833e-01 -1.031843e+00 3.719823e+00 -1.587891e+01 8.230469e+00
4.228125e+01 2.395833e-01 -1.037365e+00 3.733447e+00 -1.590625e+01 8.261719e+00
4.249609e+01 2.395833e-01 -1.041230e+00 3.747511e+00 -1.592188e+01 8.292969e+00
4.249609e+01 2.500000e-01 -1.045679e+00 3.761235e+00 -1.594531e+01 8.324219e+00
4.217578e+01 2.447917e-01 -1.049922e+00 3.775050e+00 -1.597266e+01 8.355469e+00
4.214062e+01 2.500000e-01 -1.055710e+00 3.788605e+00 -1.601172e+01 8.386719e+00
4.202734e+01 2.552083e-01 -1.061610e+00 3.801910e+00 -1.604688e+01 8.417969e+00
4.137500e+01 2.552083e-01 -1.067838e+00 3.815239e+00 -1.607812e+01 8.449219e+00
4.159766e+01 2.552083e-01 -1.073288e+00 3.828785e+00 -1.610156e+01 8.480469e+00
4.140625e+01 2.395833e-01 -1.076182e+00 3.842471e+00 -1.610156e+01 8.511719e+00
4.158984e+01 2.395833e-01 -1.081970e+00 3.855522e+00 -1.612109e+01 8.542969e+00
4.115625e+01 2.343750e-01 -1.085764e+00 3.869341e+00 -1.613281e+01 8.574219e+00
4.135938e+01 2.447917e-01 -1.091255e+00 3.883083e+00 -1.616016e+01 8.605469e+00
4.125781e+01 2.395833e-01 -1.096623e+00 3.896724e+00 -1.619141e+01 8.636719e+00
4.138672e+01 2.447917e-01 -1.101614e+00 3.910690e+00 -1.622656e+01 8.667969e+00
4.154688e+01 2.552083e-01 -1.107156e+00 3.924126e+00 -1.625781e+01 8.699219e+00
4.153906e+01 2.447917e-01 -1.109447e+00 3.938187e+00 -1.628125e+01 8.730469e+00
4.148438e+01 2.447917e-01 -1.113251e+00 3.952382e+00 -1.632031e+01 8.761719e+00
4.088672e+01 2.291667e-01 -1.119417e+00 3.965678e+00 -1.637109e+01 8.792969e+00
4.078125e+01 2.395833e-01 -1.125634e+00 3.978341e+00 -1.641016e+01 8.824219e+00
4.063672e+01 2.395833e-01 -1.130358e+00 3.991086e+00 -1.643359e+01 8.855469e+00
4.048047e+01 2.343750e-01 -1.135379e+00 4.004088e+00 -1.646484e+01 8.886719e+00
4.028516e+01 2.343750e-01 -1.138795e+00 4.017449e+00 -1.648438e+01 8.917969e+00
4.092969e+01 2.291667e-01 -1.142547e+00 4.030472e+00 -1.651172e+01 8.949219e+00
4.133594e+01 2.291667e-01 -1.146270e+00 4.043607e+00 -1.653906e+01 8.980469e+00
4.075000e+01 2.291667e-01 -1.152374e+00 4.056403e+00 -1.657812e+01 9.011719e+00
4.122266e+01 2.395833e-01 -1.156598e+00 4.069199e+00 -1.661328e+01 9.042969e+00
4.153125e+01 2.395833e-01 -1.160023e+00 4.082364e+00 -1.664844e+01 9.074219e+00
4.133594e+01 2.343750e-01 -1.164686e+00 4.095615e+00 -1.668359e+01 9.105469e+00
4.110938e+01 2.343750e-01 -1.169073e+00 4.108560e+00 -1.671094e+01 9.136719e+00
4.130469e+01 2.291667e-01 -1.175290e+00 4.120557e+00 -1.674219e+01 9.167969e+00
4.127734e+01 2.395833e-01 -1.178716e+00 4.133419e+00 -1.676562e+01 9.199219e+00
4.126562e+01 2.343750e-01 -1.183706e+00 4.146411e+00 -1.680078e+01 9.230469e+00
4.140625e+01 2.395833e-01 -1.189699e+00 4.159287e+00 -1.683594e+01 9.261719e+00
4.118750e+01 2.395833e-01 -1.194873e+00 4.172919e+00 -1.687109e+01 9.292969e+00
4.115625e+01 2.343750e-01 -1.200466e+00 4.186544e+00 -1.690625e+01 9.324219e+00
4.118750e+01 2.343750e-01 -1.205129e+00 4.200201e+00 -1.693750e+01 9.355469e+00
4.055469e+01 2.343750e-01 -1.209690e+00 4.214031e+00 -1.697266e+01 9.386719e+00
4.093750e+01 2.343750e-01 -1.213739e+00 4.227553e+00 -1.700000e+01 9.417969e+00
4.085156e+01 2.343750e-01 -1.218556e+00 4.240520e+00 -1.703125e+01 9.449219e+00
4.087500e+01 2.343750e-01 -1.222718e+00 4.253539e+00 -1.705859e+01 9.480469e+00
4.087500e+01 2.343750e-01 -1.227135e+00 4.266733e+00 -1.709375e+01 9.511719e+00
4.070703e+01 2.291667e-01 -1.232831e+00 4.279690e+00 -1.713281e+01 9.542969e+00
4.075781e+01 2.291667e-01 -1.237555e+00 4.293091e+00 -1.716406e+01 9.574219e+00
4.079688e+01 2.239583e-01 -1.242300e+00 4.306485e+00 -1.720312e+01 9.605469e+00
4.097266e+01 2.291667e-01 -1.248057e+00 4.319339e+00 -1.725000e+01 9.636719e+00
4.086328e+01 2.239583e-01 -1.253180e+00 4.332847e+00 -1.729688e+01 9.667969e+00
4.074609e+01 2.239583e-01 -1.256841e+00 4.346786e+00 -1.734766e+01 9.699219e+00
4.051953e+01 2.187500e-01 -1.262261e+00 4.360184e+00 -1.739844e+01 9.730469e+00
4.082422e+01 2.239583e-01 -1.269470e+00 4.373299e+00 -1.746094e+01 9.761719e+00
4.039062e+01 2.187500e-01 -1.274920e+00 4.386467e+00 -1.751562e+01 9.792969e+00
4.060156e+01 2.239583e-01 -1.279624e+00 4.399943e+00 -1.756641e+01 9.824219e+00
4.050000e+01 2.187500e-01 -1.284778e+00 4.413222e+00 -1.762109e+01 9.855469e+00
4.040234e+01 2.187500e-01 -1.288776e+00 4.426788e+00 -1.766406e+01 9.886719e+00
4.062109e+01 2.291667e-01 -1.294308e+00 4.440505e+00 -1.771484e+01 9.917969e+00
4.076172e+01 2.291667e-01 -1.298450e+00 4.454968e+00 -1.776172e+01 9.949219e+00
4.069922e+01 2.291667e-01 -1.304268e+00 4.469226e+00 -1.780469e+01 9.980469e+00
4.065625e+01 2.291667e-01 -1.311212e+00 4.483000e+00 -1.785547e+01 1.001172e+01
4.059766e+01 2.343750e-01 -1.317122e+00 4.497403e+00 -1.790625e+01 1.004297e+01
4.074609e+01 2.343750e-01 -1.319269e+00 4.512277e+00 -1.793750e+01 1.007422e+01
4.077344e+01 2.343750e-01 -1.323063e+00 4.526546e+00 -1.797266e+01 1.010547e+01
4.081641e+01 2.343750e-01 -1.328769e+00 4.540152e+00 -1.801172e+01 1.013672e+01
4.092578e+01 2.343750e-01 -1.331847e+00 4.554727e+00 -1.804688e+01 1.016797e+01
4.115625e+01 2.395833e-01 -1.337073e+00 4.568057e+00 -1.808594e+01 1.019922e+01
4.091797e+01 2.447917e-01 -1.340335e+00 4.581895e+00 -1.811719e+01 1.023047e+01
4.095312e+01 2.447917e-01 -1.345519e+00 4.595070e+00 -1.815625e+01 1.026172e+01
4.090234e+01 2.395833e-01 -1.352227e+00 4.607523e+00 -1.819141e+01 1.029297e+01
4.057031e+01 2.395833e-01 -1.359528e+00 4.620109e+00 -1.823438e+01 1.032422e+01
4.053125e+01 2.343750e-01 -1.363925e+00 4.633686e+00 -1.825781e+01 1.035547e+01
4.061328e+01 2.343750e-01 -1.366963e+00 4.648297e+00 -1.828906e+01 1.038672e+01
4.139844e+01 2.395833e-01 -1.371646e+00 4.662457e+00 -1.832812e+01 1.041797e+01
4.117969e+01 2.343750e-01 -1.376871e+00 4.676136e+00 -1.836328e+01 1.044922e+01
4.111328e+01 2.343750e-01 -1.381637e+00 4.690255e+00 -1.839453e+01 1.048047e+01
4.099219e+01 2.343750e-01 -1.387649e+00 4.704038e+00 -1.842578e+01 1.051172e+01
4.108984e+01 2.291667e-01 -1.392905e+00 4.718143e+00 -1.845703e+01 1.054297e+01
4.121094e+01 2.343750e-01 -1.398499e+00 4.732303e+00 -1.848438e+01 1.057422e+01
4.119141e+01 2.291667e-01 -1.405350e+00 4.745878e+00 -1.851953e+01 1.060547e+01
4.100391e+01 2.291667e-01 -1.409788e+00 4.760589e+00 -1.855078e+01 1.063672e+01
4.117188e+01 2.239583e-01 -1.414001e+00 4.775568e+00 -1.858594e+01 1.066797e+01
4.108594e+01 2.291667e-01 -1.419196e+00 4.790159e+00 -1.862500e+01 1.069922e+01
4.151953e+01 2.291667e-01 -1.422785e+00 4.805067e+00 -1.865625e+01 1.073047e+01
4.136719e+01 2.291667e-01 -1.427837e+00 4.819861e+00 -1.869922e+01 1.076172e+01
4.115234e+01 2.291667e-01 -1.435005e+00 4.833807e+00 -1.875391e+01 1.079297e+01
4.090234e+01 2.291667e-01 -1.441938e+00 4.847669e+00 -1.880469e+01 1.082422e+01
4.083594e+01 2.291667e-01 -1.447000e+00 4.862436e+00 -1.885156e+01 1.085547e+01
4.129688e+01 2.291667e-01 -1.449812e+00 4.877828e+00 -1.887500e+01 1.088672e+01
4.111328e+01 2.239583e-01 -1.454229e+00 4.893129e+00 -1.891406e+01 1.091797e+01
4.074609e+01 2.239583e-01 -1.460927e+00 4.907376e+00 -1.896094e+01 1.094922e+01
4.040234e+01 2.239583e-01 -1.467380e+00 4.921561e+00 -1.899219e+01 1.098047e+01
4.047266e+01 2.239583e-01 -1.474119e+00 4.936292e+00 -1.903125e+01 1.101172e+01
4.091016e+01 2.291667e-01 -1.478321e+00 4.951107e+00 -1.906641e+01 1.104297e+01
4.040625e+01 2.239583e-01 -1.481195e+00 4.966007e+00 -1.910547e+01 1.107422e+01
4.056250e+01 2.239583e-01 -1.487709e+00 4.980145e+00 -1.914453e+01 1.110547e+01
4.037109e+01 2.239583e-01 -1.492862e+00 4.994740e+00 -1.917969e+01 1.113672e+01
4.016797e+01 2.291667e-01 -1.497617e+00 5.009094e+00 -1.921094e+01 1.116797e+01
4.037500e+01 2.291667e-01 -1.502393e+00 5.023912e+00 -1.925000e+01 1.119922e+01
4.032812e+01 2.291667e-01 -1.507853e+00 5.038781e+00 -1.929297e+01 1.123047e+01
4.035547e+01 2.343750e-01 -1.511954e+00 5.053622e+00 -1.933203e+01 1.126172e+01
4.023438e+01 2.343750e-01 -1.516310e+00 5.068686e+00 -1.936719e+01 1.129297e+01
4.028906e+01 2.343750e-01 -1.520902e+00 5.083743e+00 -1.940625e+01 1.132422e+01
4.008203e+01 2.291667e-01 -1.527405e+00 5.098292e+00 -1.944141e+01 1.135547e+01
3.992969e+01 2.343750e-01 -1.532201e+00 5.112585e+00 -1.947656e+01 1.138672e+01
3.999609e+01 2.291667e-01 -1.536434e+00 5.127405e+00 -1.951172e+01 1.141797e+01
4.015625e+01 2.395833e-01 -1.539911e+00 5.142203e+00 -1.953906e+01 1.144922e+01
4.019531e+01 2.395833e-01 -1.543654e+00 5.156999e+00 -1.957812e+01 1.148047e+01
4.033203e+01 2.395833e-01 -1.549933e+00 5.171362e+00 -1.962500e+01 1.151172e+01
4.057031e+01 2.395833e-01 -1.556303e+00 5.185702e+00 -1.966406e+01 1.154297e+01
4.036719e+01 2.395833e-01 -1.560997e+00 5.200545e+00 -1.969531e+01 1.157422e+01
4.031250e+01 2.395833e-01 -1.566437e+00 5.215273e+00 -1.973047e+01 1.160547e+01
4.012109e+01 2.395833e-01 -1.571079e+00 5.230454e+00 -1.976172e+01 1.163672e+01
4.007422e+01 2.395833e-01 -1.577276e+00 5.245317e+00 -1.979688e+01 1.166797e+01
4.028906e+01 2.395833e-01 -1.580814e+00 5.260945e+00 -1.983203e+01 1.169922e+01
4.038672e+01 2.395833e-01 -1.585406e+00 5.276478e+00 -1.986719e+01 1.173047e+01
4.077344e+01 2.395833e-01 -1.588412e+00 5.292572e+00 -1.990625e+01 1.176172e+01
4.090625e+01 2.395833e-01 -1.592625e+00 5.308153e+00 -1.994531e+01 1.179297e+01
4.072266e+01 2.395833e-01 -1.598106e+00 5.323352e+00 -1.998828e+01 1.182422e+01
4.080078e+01 2.395833e-01 -1.602074e+00 5.338979e+00 -2.002344e+01 1.185547e+01
4.097266e+01 2.395833e-01 -1.604620e+00 5.354705e+00 -2.005078e+01 1.188672e+01
4.133594e+01 2.343750e-01 -1.610408e+00 5.370271e+00 -2.008984e+01 1.191797e+01
4.128125e+01 2.343750e-01 -1.613220e+00 5.386064e+00 -2.012109e+01 1.194922e+01
4.149609e+01 2.395833e-01 -1.615930e+00 5.401899e+00 -2.016016e+01 1.198047e+01
4.125781e+01 2.395833e-01 -1.619202e+00 5.417911e+00 -2.019922e+01 1.201172e+01
4.128125e+01 2.395833e-01 -1.623763e+00 5.433596e+00 -2.023828e+01 1.204297e+01
4.098047e+01 2.395833e-01 -1.629029e+00 5.448832e+00 -2.028125e+01 1.207422e+01
4.136328e+01 2.447917e-01 -1.632219e+00 5.464675e+00 -2.030859e+01 1.210547e+01
4.133203e+01 2.447917e-01 -1.637077e+00 5.480101e+00 -2.034766e+01 1.213672e+01
4.158984e+01 2.447917e-01 -1.639868e+00 5.495564e+00 -2.037891e+01 1.216797e+01
4.182422e+01 2.447917e-01 -1.644654e+00 5.511082e+00 -2.041797e+01 1.219922e+01
4.145703e+01 2.447917e-01 -1.649808e+00 5.526590e+00 -2.045703e+01 1.223047e+01
4.114844e+01 2.447917e-01 -1.655821e+00 5.542096e+00 -2.050000e+01 1.226172e+01
4.146094e+01 2.447917e-01 -1.659757e+00 5.557863e+00 -2.053516e+01 1.229297e+01
4.161328e+01 2.395833e-01 -1.662825e+00 5.573470e+00 -2.057422e+01 1.232422e+01
4.186719e+01 2.395833e-01 -1.666813e+00 5.588645e+00 -2.060938e+01 1.235547e+01
4.189844e+01 2.395833e-01 -1.671026e+00 5.603594e+00 -2.064453e+01 1.238672e+01
4.174219e+01 2.447917e-01 -1.676037e+00 5.618427e+00 -2.067969e+01 1.241797e+01
4.144531e+01 2.395833e-01 -1.681692e+00 5.633515e+00 -2.071875e+01 1.244922e+01
4.142969e+01 2.395833e-01 -1.686130e+00 5.648950e+00 -2.075000e+01 1.248047e+01
4.136328e+01 2.395833e-01 -1.689422e+00 5.664617e+00 -2.078516e+01 1.251172e+01
4.160938e+01 2.447917e-01 -1.690977e+00 5.680476e+00 -2.080859e+01 1.254297e+01
4.158984e+01 2.447917e-01 -1.695241e+00 5.695493e+00 -2.084766e+01 1.257422e+01
4.127344e+01 2.395833e-01 -1.700436e+00 5.710312e+00 -2.089453e+01 1.260547e+01
4.105469e+01 2.395833e-01 -1.706111e+00 5.725247e+00 -2.093359e+01 1.263672e+01
4.090625e+01 2.395833e-01 -1.710968e+00 5.740087e+00 -2.096875e+01 1.266797e+01
4.094141e+01 2.395833e-01 -1.715774e+00 5.755085e+00 -2.100391e+01 1.269922e+01
4.100000e+01 2.395833e-01 -1.720519e+00 5.769696e+00 -2.104297e+01 1.273047e+01
4.107422e+01 2.395833e-01 -1.725734e+00 5.784075e+00 -2.108594e+01 1.276172e+01
4.092578e+01 2.395833e-01 -1.729303e+00 5.798972e+00 -2.112500e+01 1.279297e+01
4.070703e+01 2.447917e-01 -1.734631e+00 5.813189e+00 -2.116016e+01 1.282422e+01
4.097656e+01 2.447917e-01 -1.741298e+00 5.826850e+00 -2.119922e+01 1.285547e+01
4.099609e+01 2.395833e-01 -1.746237e+00 5.840582e+00 -2.123438e+01 1.288672e+01
4.110938e+01 2.395833e-01 -1.751841e+00 5.853953e+00 -2.126953e+01 1.291797e+01
4.125000e+01 2.343750e-01 -1.756483e+00 5.867960e+00 -2.130469e+01 1.294922e+01
4.126562e+01 2.343750e-01 -1.761197e+00 5.881808e+00 -2.133984e+01 1.298047e+01
4.123047e+01 2.343750e-01 -1.765768e+00 5.895640e+00 -2.137891e+01 1.301172e+01
4.128906e+01 2.395833e-01 -1.767956e+00 5.910028e+00 -2.141406e+01 1.304297e+01
4.076562e+01 2.343750e-01 -1.771791e+00 5.924357e+00 -2.144922e+01 1.307422e+01
4.110938e+01 2.395833e-01 -1.776076e+00 5.938479e+00 -2.148828e+01 1.310547e+01
4.134766e+01 2.395833e-01 -1.781066e+00 5.952201e+00 -2.153516e+01 1.313672e+01
4.114062e+01 2.343750e-01 -1.786506e+00 5.965719e+00 -2.157812e+01 1.316797e+01
4.106250e+01 2.395833e-01 -1.792734e+00 5.978840e+00 -2.162109e+01 1.319922e+01
4.130469e+01 2.343750e-01 -1.796998e+00 5.992505e+00 -2.165625e+01 1.323047e+01
4.115625e+01 2.343750e-01 -1.801661e+00 6.005912e+00 -2.169141e+01 1.326172e+01
4.107812e+01 2.343750e-01 -1.806753e+00 6.019231e+00 -2.173438e+01 1.329297e+01
4.088281e+01 2.343750e-01 -1.811641e+00 6.032779e+00 -2.177734e+01 1.332422e+01
4.123828e+01 2.395833e-01 -1.815077e+00 6.047278e+00 -2.181641e+01 1.335547e+01
4.096094e+01 2.343750e-01 -1.819392e+00 6.061488e+00 -2.185938e+01 1.338672e+01
4.096875e+01 2.343750e-01 -1.824413e+00 6.075389e+00 -2.190625e+01 1.341797e+01
4.125781e+01 2.395833e-01 -1.829557e+00 6.089181e+00 -2.194922e+01 1.344922e+01
4.150391e+01 2.395833e-01 -1.833770e+00 6.103464e+00 -2.199219e+01 1.348047e+01
4.165234e+01 2.395833e-01 -1.840600e+00 6.117235e+00 -2.204297e+01 1.351172e+01
4.157031e+01 2.395833e-01 -1.846736e+00 6.131189e+00 -2.208984e+01 1.354297e+01
4.095312e+01 2.395833e-01 -1.853822e+00 6.145409e+00 -2.214453e+01 1.357422e+01
4.102344e+01 2.395833e-01 -1.858802e+00 6.159697e+00 -2.219141e+01 1.360547e+01
4.135156e+01 2.395833e-01 -1.862044e+00 6.174294e+00 -2.223438e+01 1.363281e+01
4.127344e+01 2.447917e-01 -1.865163e+00 6.188315e+00 -2.227734e+01 1.365625e+01
4.196875e+01 2.447917e-01 -1.868711e+00 6.202240e+00 -2.231641e+01 1.367969e+01
4.196484e+01 2.395833e-01 -1.872781e+00 6.216009e+00 -2.235547e+01 1.370312e+01
4.135547e+01 2.395833e-01 -1.879366e+00 6.229476e+00 -2.239453e+01 1.372656e+01
4.145703e+01 2.395833e-01 -1.884950e+00 6.242879e+00 -2.244141e+01 1.375000e+01
4.188672e+01 2.395833e-01 -1.890063e+00 6.256448e+00 -2.247656e+01 1.377344e+01
4.172656e+01 2.343750e-01 -1.896464e+00 6.269971e+00 -2.252344e+01 1.379688e+01
4.179297e+01 2.395833e-01 -1.901464e+00 6.282717e+00 -2.256250e+01 1.382031e+01
4.200781e+01 2.447917e-01 -1.905156e+00 6.296540e+00 -2.260547e+01 1.384375e+01
4.235547e+01 2.447917e-01 -1.908653e+00 6.310278e+00 -2.264062e+01 1.386719e+01
4.215234e+01 2.447917e-01 -1.912334e+00 6.323858e+00 -2.267969e+01 1.389062e+01
4.231641e+01 2.447917e-01 -1.916936e+00 6.337833e+00 -2.272266e+01 1.391406e+01
4.176562e+01 2.395833e-01 -1.923051e+00 6.352020e+00 -2.276172e+01 1.393750e+01
4.117188e+01 2.395833e-01 -1.929739e+00 6.365842e+00 -2.280078e+01 1.395703e+01
4.130078e+01 2.395833e-01 -1.935189e+00 6.378717e+00 -2.283594e+01 1.397266e+01
4.162500e+01 2.447917e-01 -1.939975e+00 6.392001e+00 -2.287109e+01 1.398828e+01
4.198047e+01 2.447917e-01 -1.944372e+00 6.405714e+00 -2.290625e+01 1.400391e+01
4.209766e+01 2.447917e-01 -1.948963e+00 6.419579e+00 -2.294531e+01 1.401953e+01
4.196875e+01 2.395833e-01 -1.953994e+00 6.433830e+00 -2.298438e+01 1.403516e+01
4.206250e+01 2.395833e-01 -1.957737e+00 6.448174e+00 -2.301953e+01 1.405078e+01
4.194141e+01 2.447917e-01 -1.961674e+00 6.462442e+00 -2.305469e+01 1.406641e+01
4.183203e+01 2.447917e-01 -1.966776e+00 6.476462e+00 -2.310156e+01 1.408203e+01
4.171875e+01 2.447917e-01 -1.970315e+00 6.490428e+00 -2.314062e+01 1.409766e+01
4.250000e+01 2.447917e-01 -1.973740e+00 6.504260e+00 -2.317578e+01 1.411328e+01
4.242188e+01 2.447917e-01 -1.978976e+00 6.517161e+00 -2.321484e+01 1.412891e+01
4.217969e+01 2.447917e-01 -1.983956e+00 6.530675e+00 -2.325781e+01 1.414453e+01
4.188672e+01 2.447917e-01 -1.989805e+00 6.544156e+00 -2.329688e+01 1.416016e+01
4.165625e+01 2.395833e-01 -1.994693e+00 6.557573e+00 -2.333594e+01 1.417578e+01
4.205859e+01 2.447917e-01 -1.998814e+00 6.571461e+00 -2.337500e+01 1.419141e+01
4.182812e+01 2.395833e-01 -2.004458e+00 6.585000e+00 -2.342578e+01 1.420703e+01
4.188672e+01 2.395833e-01 -2.009490e+00 6.598400e+00 -2.347656e+01 1.422266e+01
4.162500e+01 2.395833e-01 -2.014623e+00 6.612217e+00 -2.351953e+01 1.423828e+01
4.199609e+01 2.395833e-01 -2.020165e+00 6.625857e+00 -2.356641e+01 1.425391e+01
4.199219e+01 2.395833e-01 -2.024910e+00 6.639895e+00 -2.360547e+01 1.426953e+01
4.177344e+01 2.395833e-01 -2.030647e+00 6.653289e+00 -2.364062e+01 1.428516e+01
4.173438e+01 2.395833e-01 -2.034348e+00 6.667261e+00 -2.367578e+01 1.430078e+01
4.176953e+01 2.343750e-01 -2.039564e+00 6.680741e+00 -2.371484e+01 1.431641e+01
4.202734e+01 2.395833e-01 -2.043664e+00 6.694291e+00 -2.375000e+01 1.433203e+01
4.179297e+01 2.395833e-01 -2.048572e+00 6.707685e+00 -2.378516e+01 1.434766e+01
4.184375e+01 2.395833e-01 -2.053338e+00 6.721126e+00 -2.382031e+01 1.436328e+01
4.174609e+01 2.395833e-01 -2.058655e+00 6.734460e+00 -2.385547e+01 1.437891e+01
4.153906e+01 2.447917e-01 -2.064187e+00 6.747785e+00 -2.389062e+01 1.439453e+01
4.178906e+01 2.447917e-01 -2.070108e+00 6.761037e+00 -2.392188e+01 1.441016e+01
4.193359e+01 2.447917e-01 -2.074045e+00 6.774008e+00 -2.394531e+01 1.442578e+01
4.159375e+01 2.447917e-01 -2.077675e+00 6.787257e+00 -2.396875e+01 1.444141e+01
4.159766e+01 2.447917e-01 -2.082389e+00 6.800458e+00 -2.399609e+01 1.445703e+01
4.144141e+01 2.447917e-01 -2.087952e+00 6.813557e+00 -2.403125e+01 1.447266e+01
4.095703e+01 2.343750e-01 -2.093791e+00 6.826782e+00 -2.406250e+01 1.448828e+01
4.110547e+01 2.343750e-01 -2.097462e+00 6.840643e+00 -2.408203e+01 1.450391e+01
4.133203e+01 2.343750e-01 -2.100213e+00 6.854201e+00 -2.410156e+01 1.451953e+01
4.161328e+01 2.395833e-01 -2.102902e+00 6.867665e+00 -2.412891e+01 1.453516e+01
4.135938e+01 2.395833e-01 -2.106583e+00 6.881214e+00 -2.416406e+01 1.455078e+01
4.093750e+01 2.343750e-01 -2.111246e+00 6.894446e+00 -2.420312e+01 1.456641e+01
4.069922e+01 2.343750e-01 -2.114611e+00 6.907735e+00 -2.423828e+01 1.458203e+01
4.085938e+01 2.343750e-01 -2.117597e+00 6.921293e+00 -2.427344e+01 1.459766e+01
4.104688e+01 2.395833e-01 -2.121728e+00 6.934804e+00 -2.431250e+01 1.461328e+01
4.098438e+01 2.395833e-01 -2.125020e+00 6.948196e+00 -2.434375e+01 1.462891e+01
4.109375e+01 2.395833e-01 -2.128477e+00 6.961625e+00 -2.437109e+01 1.464453e+01
4.133984e+01 2.395833e-01 -2.132179e+00 6.975000e+00 -2.440625e+01 1.466016e+01
4.130469e+01 2.395833e-01 -2.136504e+00 6.988499e+00 -2.443750e+01 1.467578e+01
4.085938e+01 2.343750e-01 -2.142639e+00 7.001804e+00 -2.447656e+01 1.469141e+01
4.054688e+01 2.239583e-01 -2.147272e+00 7.015371e+00 -2.451172e+01 1.470703e+01
4.044922e+01 2.239583e-01 -2.150370e+00 7.028800e+00 -2.454688e+01 1.472266e+01
4.053906e+01 2.187500e-01 -2.153162e+00 7.042404e+00 -2.457812e+01 1.473828e+01
4.037500e+01 2.187500e-01 -2.157099e+00 7.056232e+00 -2.461328e+01 1.475391e+01
4.045703e+01 2.187500e-01 -2.161148e+00 7.070230e+00 -2.464844e+01 1.476953e+01
4.039453e+01 2.187500e-01 -2.165934e+00 7.084513e+00 -2.468359e+01 1.478516e+01
4.054688e+01 2.187500e-01 -2.170730e+00 7.098476e+00 -2.471094e+01 1.480078e+01
4.080469e+01 2.239583e-01 -2.176160e+00 7.112395e+00 -2.474219e+01 1.481641e+01
4.089062e+01 2.239583e-01 -2.180966e+00 7.126442e+00 -2.476953e+01 1.483203e+01
4.089453e+01 2.239583e-01 -2.187929e+00 7.140130e+00 -2.480859e+01 1.484766e+01
4.060547e+01 2.291667e-01 -2.195394e+00 7.153658e+00 -2.484375e+01 1.486328e+01
4.053906e+01 2.291667e-01 -2.202307e+00 7.167545e+00 -2.487891e+01 1.487891e+01
4.079688e+01 2.343750e-01 -2.207154e+00 7.181605e+00 -2.490234e+01 1.489453e+01
4.081250e+01 2.395833e-01 -2.212062e+00 7.195768e+00 -2.492188e+01 1.491016e+01
4.110547e+01 2.395833e-01 -2.215795e+00 7.209588e+00 -2.495312e+01 1.492578e+01
4.093359e+01 2.395833e-01 -2.220928e+00 7.223410e+00 -2.498828e+01 1.494141e+01
4.093359e+01 2.395833e-01 -2.224793e+00 7.237238e+00 -2.501172e+01 1.495703e+01
4.082422e+01 2.395833e-01 -2.229845e+00 7.250920e+00 -2.504688e+01 1.497266e+01
4.058984e+01 2.343750e-01 -2.235490e+00 7.264322e+00 -2.508203e+01 1.498828e+01
4.064453e+01 2.343750e-01 -2.240470e+00 7.277524e+00 -2.510156e+01 1.500391e+01
4.101172e+01 2.447917e-01 -2.245756e+00 7.290804e+00 -2.512891e+01 1.501953e+01
4.100781e+01 2.395833e-01 -2.250368e+00 7.304155e+00 -2.516406e+01 1.503516e+01
4.114453e+01 2.447917e-01 -2.255440e+00 7.317772e+00 -2.519922e+01 1.505078e+01
4.078906e+01 2.447917e-01 -2.261218e+00 7.331436e+00 -2.523828e+01 1.506641e+01
4.100391e+01 2.447917e-01 -2.265768e+00 7.345500e+00 -2.526953e+01 1.508203e+01
4.092188e+01 2.447917e-01 -2.269818e+00 7.359443e+00 -2.529688e+01 1.509375e+01
4.082812e+01 2.447917e-01 -2.271914e+00 7.373161e+00 -2.531250e+01 1.509375e+01
4.077734e+01 2.447917e-01 -2.276403e+00 7.387233e+00 -2.534375e+01 1.509375e+01
4.086719e+01 2.447917e-01 -2.281812e+00 7.401603e+00 -2.537109e+01 1.509375e+01
4.082812e+01 2.447917e-01 -2.288152e+00 7.416174e+00 -2.540234e+01 1.509375e+01
4.071875e+01 2.447917e-01 -2.292693e+00 7.430610e+00 -2.542969e+01 1.509375e+01
4.070703e+01 2.395833e-01 -2.297080e+00 7.444738e+00 -2.546875e+01 1.508984e+01
4.092188e+01 2.395833e-01 -2.300495e+00 7.459220e+00 -2.550391e+01 1.508203e+01
4.074609e+01 2.395833e-01 -2.305526e+00 7.474091e+00 -2.555469e+01 1.507422e+01
4.063281e+01 2.395833e-01 -2.310312e+00 7.489509e+00 -2.559766e+01 1.506641e+01
4.059375e+01 2.395833e-01 -2.315097e+00 7.504040e+00 -2.562891e+01 1.505859e+01
4.061719e+01 2.395833e-01 -2.320415e+00 7.518555e+00 -2.566016e+01 1.505078e+01
4.065234e+01 2.395833e-01 -2.324433e+00 7.533018e+00 -2.568750e+01 1.504297e+01
4.082031e+01 2.447917e-01 -2.329505e+00 7.547449e+00 -2.571875e+01 1.503516e+01
4.110156e+01 2.395833e-01 -2.333913e+00 7.561821e+00 -2.574609e+01 1.506250e+01
4.089062e+01 2.447917e-01 -2.340202e+00 7.575944e+00 -2.578516e+01 1.509375e+01
4.084766e+01 2.395833e-01 -2.347523e+00 7.589696e+00 -2.581641e+01 1.512500e+01
4.078516e+01 2.395833e-01 -2.353383e+00 7.603812e+00 -2.584766e+01 1.515625e+01
4.103906e+01 2.447917e-01 -2.357862e+00 7.617765e+00 -2.588281e+01 1.518750e+01
4.094141e+01 2.447917e-01 -2.361737e+00 7.631965e+00 -2.591016e+01 1.521875e+01
4.095703e+01 2.447917e-01 -2.365480e+00 7.646407e+00 -2.594531e+01 1.525000e+01
4.070312e+01 2.395833e-01 -2.369897e+00 7.661106e+00 -2.598438e+01 1.528125e+01
4.080859e+01 2.447917e-01 -2.375746e+00 7.674817e+00 -2.602734e+01 1.531250e+01
4.098047e+01 2.447917e-01 -2.381412e+00 7.687965e+00 -2.606641e+01 1.534375e+01
4.101172e+01 2.447917e-01 -2.387394e+00 7.700675e+00 -2.610547e+01 1.537500e+01
4.085938e+01 2.395833e-01 -2.393580e+00 7.713785e+00 -2.614062e+01 1.540625e+01
4.085156e+01 2.447917e-01 -2.399051e+00 7.727323e+00 -2.617188e+01 1.543750e+01
4.074219e+01 2.395833e-01 -2.402937e+00 7.740540e+00 -2.619531e+01 1.546875e+01
4.071875e+01 2.447917e-01 -2.407416e+00 7.754190e+00 -2.622266e+01 1.550000e+01
4.079688e+01 2.447917e-01 -2.411905e+00 7.768183e+00 -2.625000e+01 1.553125e+01
4.084766e+01 2.500000e-01 -2.418603e+00 7.781596e+00 -2.628906e+01 1.556250e+01
4.090625e+01 2.500000e-01 -2.423828e+00 7.794150e+00 -2.632422e+01 1.559375e+01
4.101172e+01 2.500000e-01 -2.429463e+00 7.806914e+00 -2.636328e+01 1.562500e+01
4.086719e+01 2.500000e-01 -2.436590e+00 7.819899e+00 -2.640234e+01 1.565625e+01
4.082812e+01 2.447917e-01 -2.442286e+00 7.832715e+00 -2.643359e+01 1.568750e+01
4.088281e+01 2.447917e-01 -2.446734e+00 7.845158e+00 -2.646484e+01 1.571875e+01
4.100000e+01 2.343750e-01 -2.449822e+00 7.857713e+00 -2.648828e+01 1.575000e+01
4.066016e+01 2.395833e-01 -2.454485e+00 7.870561e+00 -2.652344e+01 1.578125e+01
4.066406e+01 2.395833e-01 -2.459179e+00 7.883304e+00 -2.655469e+01 1.581250e+01
4.048828e+01 2.395833e-01 -2.464926e+00 7.895376e+00 -2.658594e+01 1.584375e+01
4.052344e+01 2.395833e-01 -2.469016e+00 7.907750e+00 -2.660938e+01 1.587500e+01
4.049219e+01 2.395833e-01 -2.474292e+00 7.920069e+00 -2.664062e+01 1.590625e+01
4.047266e+01 2.395833e-01 -2.478966e+00 7.932668e+00 -2.667578e+01 1.593750e+01
4.058203e+01 2.447917e-01 -2.484518e+00 7.945442e+00 -2.671094e+01 1.596875e+01
4.053125e+01 2.447917e-01 -2.489427e+00 7.958305e+00 -2.674609e+01 1.600000e+01
4.061328e+01 2.395833e-01 -2.494591e+00 7.970987e+00 -2.678125e+01 1.603125e+01
4.056641e+01 2.395833e-01 -2.499499e+00 7.983387e+00 -2.681641e+01 1.606250e+01
4.042188e+01 2.395833e-01 -2.504418e+00 7.995246e+00 -2.685156e+01 1.609375e+01
4.053906e+01 2.395833e-01 -2.510052e+00 8.007201e+00 -2.688672e+01 1.612500e+01
4.035156e+01 2.447917e-01 -2.516116e+00 8.019203e+00 -2.691797e+01 1.615625e+01
4.049219e+01 2.395833e-01 -2.520564e+00 8.031258e+00 -2.693750e+01 1.618750e+01
4.078516e+01 2.395833e-01 -2.524634e+00 8.043008e+00 -2.696094e+01 1.621875e+01
4.086328e+01 2.395833e-01 -2.529972e+00 8.054180e+00 -2.699219e+01 1.625000e+01
4.084375e+01 2.395833e-01 -2.535289e+00 8.065802e+00 -2.702734e+01 1.628125e+01
4.095703e+01 2.395833e-01 -2.540535e+00 8.077802e+00 -2.705859e+01 1.631250e+01
4.084375e+01 2.395833e-01 -2.544748e+00 8.089474e+00 -2.709375e+01 1.634375e+01
4.041406e+01 2.395833e-01 -2.550802e+00 8.101262e+00 -2.713281e+01 1.637500e+01
4.065234e+01 2.395833e-01 -2.556354e+00 8.112854e+00 -2.716406e+01 1.640625e+01
4.085938e+01 2.395833e-01 -2.560874e+00 8.124457e+00 -2.719531e+01 1.643750e+01
4.087891e+01 2.395833e-01 -2.565384e+00 8.136378e+00 -2.723438e+01 1.646875e+01
4.058984e+01 2.395833e-01 -2.571028e+00 8.148062e+00 -2.726953e+01 1.650000e+01
4.031641e+01 2.395833e-01 -2.576571e+00 8.159846e+00 -2.730078e+01 1.653125e+01
4.048438e+01 2.395833e-01 -2.581520e+00 8.171983e+00 -2.733594e+01 1.656250e+01
4.047656e+01 2.395833e-01 -2.586347e+00 8.184089e+00 -2.737500e+01 1.659375e+01
4.072266e+01 2.395833e-01 -2.590672e+00 8.196757e+00 -2.741016e+01 1.662500e+01
4.075781e+01 2.395833e-01 -2.595294e+00 8.209610e+00 -2.744531e+01 1.665625e+01
4.073047e+01 2.395833e-01 -2.600407e+00 8.222489e+00 -2.748047e+01 1.668750e+01
4.051562e+01 2.343750e-01 -2.605213e+00 8.234920e+00 -2.750781e+01 1.671875e+01
4.044922e+01 2.343750e-01 -2.611349e+00 8.247006e+00 -2.753906e+01 1.675000e+01
4.066016e+01 2.447917e-01 -2.617995e+00 8.259696e+00 -2.757422e+01 1.678125e+01
4.085547e+01 2.447917e-01 -2.624315e+00 8.272443e+00 -2.760938e+01 1.681250e+01
4.087891e+01 2.395833e-01 -2.630532e+00 8.284773e+00 -2.764453e+01 1.684375e+01
4.097656e+01 2.447917e-01 -2.636616e+00 8.296671e+00 -2.767578e+01 1.687500e+01
4.066016e+01 2.395833e-01 -2.641709e+00 8.308891e+00 -2.771094e+01 1.690625e+01
4.017969e+01 2.395833e-01 -2.646791e+00 8.320530e+00 -2.774219e+01 1.693750e+01
4.015625e+01 2.395833e-01 -2.651198e+00 8.332719e+00 -2.777734e+01 1.696875e+01
4.028516e+01 2.395833e-01 -2.655984e+00 8.344948e+00 -2.780469e+01 1.700000e+01
4.039453e+01 2.395833e-01 -2.660412e+00 8.357694e+00 -2.783203e+01 1.703125e+01
4.040234e+01 2.395833e-01 -2.665463e+00 8.370353e+00 -2.786719e+01 1.706250e+01
4.036719e+01 2.395833e-01 -2.671006e+00 8.382543e+00 -2.789062e+01 1.709375e+01
4.053516e+01 2.395833e-01 -2.677693e+00 8.394036e+00 -2.792188e+01 1.712500e+01
4.032812e+01 2.395833e-01 -2.683952e+00 8.405846e+00 -2.794922e+01 1.715625e+01
4.036719e+01 2.395833e-01 -2.688604e+00 8.418067e+00 -2.796875e+01 1.718750e+01
4.047266e+01 2.395833e-01 -2.692572e+00 8.430616e+00 -2.798047e+01 1.721875e+01
4.046094e+01 2.395833e-01 -2.696713e+00 8.443283e+00 -2.799219e+01 1.725000e+01
4.051172e+01 2.395833e-01 -2.701612e+00 8.455412e+00 -2.800391e+01 1.728125e+01
4.017188e+01 2.395833e-01 -2.706203e+00 8.467446e+00 -2.801562e+01 1.731250e+01
4.048828e+01 2.395833e-01 -2.712604e+00 8.479346e+00 -2.803516e+01 1.734375e+01
4.035156e+01 2.395833e-01 -2.717963e+00 8.491171e+00 -2.804688e+01 1.737500e+01
4.053516e+01 2.395833e-01 -2.723137e+00 8.503592e+00 -2.805859e+01 1.740625e+01
4.062891e+01 2.395833e-01 -2.727871e+00 8.515913e+00 -2.807031e+01 1.743750e+01
4.063672e+01 2.395833e-01 -2.731522e+00 8.527974e+00 -2.807031e+01 1.746875e+01
4.061328e+01 2.395833e-01 -2.735265e+00 8.539679e+00 -2.806641e+01 1.750000e+01
4.051172e+01 2.395833e-01 -2.739590e+00 8.551516e+00 -2.807422e+01 1.753125e+01
4.056250e+01 2.395833e-01 -2.743640e+00 8.563838e+00 -2.808203e+01 1.756250e+01
4.053125e+01 2.395833e-01 -2.747679e+00 8.576264e+00 -2.808594e+01 1.759375e+01
4.059375e+01 2.395833e-01 -2.751012e+00 8.589221e+00 -2.808203e+01 1.762500e+01
4.078516e+01 2.447917e-01 -2.755409e+00 8.601640e+00 -2.808203e+01 1.765625e+01
4.095703e+01 2.447917e-01 -2.760573e+00 8.613749e+00 -2.808594e+01 1.768750e+01
4.070312e+01 2.395833e-01 -2.765134e+00 8.625833e+00 -2.808984e+01 1.771875e+01
4.096094e+01 2.447917e-01 -2.768570e+00 8.638664e+00 -2.808203e+01 1.775000e+01
4.116406e+01 2.447917e-01 -2.772507e+00 8.651049e+00 -2.807812e+01 1.778125e+01
4.118750e+01 2.447917e-01 -2.776700e+00 8.663633e+00 -2.807812e+01 1.781250e+01
4.096875e+01 2.447917e-01 -2.780585e+00 8.676425e+00 -2.807812e+01 1.784375e+01
4.049609e+01 2.343750e-01 -2.786066e+00 8.688622e+00 -2.809766e+01 1.787500e+01
4.049219e+01 2.343750e-01 -2.790627e+00 8.701107e+00 -2.811719e+01 1.790625e+01
4.049609e+01 2.343750e-01 -2.794462e+00 8.713816e+00 -2.813672e+01 1.793750e+01
4.082031e+01 2.343750e-01 -2.798797e+00 8.727126e+00 -2.815234e+01 1.796875e+01
4.079688e+01 2.343750e-01 -2.803706e+00 8.740172e+00 -2.816797e+01 1.800000e+01
4.076953e+01 2.343750e-01 -2.808594e+00 8.752894e+00 -2.819922e+01 1.803125e+01
4.058984e+01 2.343750e-01 -2.813809e+00 8.765542e+00 -2.823047e+01 1.806250e+01
4.075391e+01 2.343750e-01 -2.819218e+00 8.778021e+00 -2.825391e+01 1.809375e+01
4.067578e+01 2.343750e-01 -2.824270e+00 8.790877e+00 -2.828125e+01 1.812500e+01
4.096094e+01 2.343750e-01 -2.829812e+00 8.803718e+00 -2.830078e+01 1.815625e+01
4.092188e+01 2.343750e-01 -2.835130e+00 8.816627e+00 -2.832031e+01 1.818750e+01
4.077344e+01 2.343750e-01 -2.840457e+00 8.829063e+00 -2.834766e+01 1.821875e+01
4.076953e+01 2.343750e-01 -2.845672e+00 8.841724e+00 -2.837500e+01 1.825000e+01
4.086328e+01 2.343750e-01 -2.851900e+00 8.854009e+00 -2.839453e+01 1.828125e+01
4.100000e+01 2.343750e-01 -2.856553e+00 8.866864e+00 -2.841016e+01 1.831250e+01
4.108203e+01 2.343750e-01 -2.861778e+00 8.879589e+00 -2.842188e+01 1.834375e+01
4.135547e+01 2.343750e-01 -2.865868e+00 8.892540e+00 -2.843359e+01 1.837500e+01
4.130859e+01 2.343750e-01 -2.871032e+00 8.905200e+00 -2.845312e+01 1.840625e+01
4.129297e+01 2.343750e-01 -2.876421e+00 8.918041e+00 -2.846484e+01 1.843750e+01
4.132422e+01 2.343750e-01 -2.882342e+00 8.930532e+00 -2.848828e+01 1.846875e+01
4.098828e+01 2.343750e-01 -2.887731e+00 8.943209e+00 -2.850781e+01 1.850000e+01
4.086719e+01 2.343750e-01 -2.892711e+00 8.955814e+00 -2.853125e+01 1.853125e+01
4.092188e+01 2.343750e-01 -2.897364e+00 8.968562e+00 -2.855469e+01 1.856250e+01
4.078906e+01 2.343750e-01 -2.902149e+00 8.981502e+00 -2.857422e+01 1.859375e+01
4.080469e+01 2.343750e-01 -2.907252e+00 8.994199e+00 -2.859375e+01 1.862500e+01
4.061719e+01 2.343750e-01 -2.912416e+00 9.006841e+00 -2.860938e+01 1.865625e+01
4.069531e+01 2.343750e-01 -2.917151e+00 9.020289e+00 -2.862891e+01 1.868750e+01
4.079688e+01 2.343750e-01 -2.920924e+00 9.033830e+00 -2.864062e+01 1.871875e+01
4.060547e+01 2.343750e-01 -2.926016e+00 9.046538e+00 -2.866797e+01 1.875000e+01
4.059766e+01 2.343750e-01 -2.931600e+00 9.059288e+00 -2.869922e+01 1.878125e+01
4.046875e+01 2.343750e-01 -2.936426e+00 9.072148e+00 -2.872656e+01 1.881250e+01
4.064844e+01 2.343750e-01 -2.941048e+00 9.085268e+00 -2.874219e+01 1.884375e+01
4.056250e+01 2.343750e-01 -2.945773e+00 9.098619e+00 -2.876562e+01 1.887500e+01
4.067969e+01 2.343750e-01 -2.951080e+00 9.111756e+00 -2.878516e+01 1.890625e+01
4.061328e+01 2.343750e-01 -2.955927e+00 9.125279e+00 -2.880859e+01 1.893750e+01
4.026172e+01 2.343750e-01 -2.961428e+00 9.138498e+00 -2.883203e+01 1.896875e+01
4.048047e+01 2.343750e-01 -2.966715e+00 9.151576e+00 -2.885547e+01 1.900000e+01
4.058594e+01 2.343750e-01 -2.971122e+00 9.165027e+00 -2.887500e+01 1.903125e+01
