5.253483e+02 7.707809e-01 1.324067e-02 5.681828e-01 -9.999847e-01 9.998169e-01
3.122214e+02 4.811083e-01 1.081952e-02 5.675206e-01 -1.054230e+00 1.047104e+00
3.074449e+02 4.823678e-01 1.097042e-02 5.672675e-01 -1.071167e+00 1.076569e+00
2.943120e+02 4.559194e-01 1.121791e-02 5.693925e-01 -1.318176e+00 2.131271e+00
2.936836e+02 4.508816e-01 1.051232e-02 5.731662e-01 -1.195618e+00 2.130554e+00
2.898441e+02 4.483627e-01 9.687391e-03 5.737561e-01 -1.408615e+00 2.006744e+00
2.661310e+02 4.055416e-01 5.513685e-03 5.811672e-01 -3.061020e+00 2.034210e+00
2.560348e+02 3.715365e-01 -4.380669e-04 5.950080e-01 -3.061020e+00 2.084198e+00
2.544741e+02 3.702771e-01 2.437612e-03 5.954534e-01 -2.948868e+00 2.138794e+00
2.371856e+02 3.627204e-01 1.692791e-03 5.973062e-01 -2.935837e+00 2.138794e+00
2.323566e+02 3.476071e-01 -7.479514e-03 6.264162e-01 -4.211121e+00 2.020554e+00
2.226603e+02 3.198992e-01 -9.629559e-03 6.275955e-01 -4.089325e+00 2.061127e+00
2.067496e+02 2.871537e-01 -1.027715e-02 6.315281e-01 -3.874908e+00 2.160202e+00
2.023966e+02 2.783375e-01 -1.097230e-02 6.320394e-01 -3.874908e+00 2.145996e+00
2.022651e+02 2.846348e-01 -1.289844e-02 6.328572e-01 -3.815384e+00 2.162415e+00
1.964099e+02 2.808564e-01 -1.321193e-02 6.333268e-01 -3.821487e+00 2.164932e+00
1.960695e+02 2.783375e-01 -1.391592e-02 6.336113e-01 -3.803024e+00 2.165558e+00
1.936787e+02 2.770781e-01 -1.385828e-02 6.363827e-01 -3.783005e+00 2.246002e+00
1.883135e+02 2.632242e-01 -1.371990e-02 6.376097e-01 -3.755661e+00 2.256714e+00
1.853664e+02 2.632242e-01 -1.373416e-02 6.394361e-01 -3.805878e+00 2.372574e+00
1.875978e+02 2.581864e-01 -9.450172e-03 6.684766e-01 -4.091812e+00 2.416946e+00
1.784039e+02 2.531486e-01 -8.503512e-03 6.685775e-01 -4.104401e+00 2.405838e+00
1.777909e+02 2.531486e-01 -1.881523e-02 6.768013e-01 -4.136551e+00 2.518539e+00
1.820956e+02 2.418136e-01 -2.106707e-02 6.815759e-01 -4.147415e+00 2.539352e+00
1.650682e+02 2.304786e-01 -2.163388e-02 6.827847e-01 -4.091248e+00 2.510193e+00
1.641031e+02 2.178841e-01 -2.006495e-02 6.837330e-01 -4.084717e+00 2.589890e+00
1.614920e+02 2.153652e-01 -2.010569e-02 6.843904e-01 -4.092422e+00 2.564041e+00
1.627041e+02 2.292191e-01 -7.796912e-03 6.924296e-01 -4.197800e+00 2.656937e+00
1.647575e+02 2.241814e-01 -5.869705e-03 6.997226e-01 -4.194977e+00 2.600998e+00
1.598410e+02 2.204030e-01 -6.342441e-03 7.006495e-01 -4.172546e+00 2.644211e+00
1.614604e+02 2.128463e-01 -1.077790e-02 7.062508e-01 -4.392059e+00 2.741653e+00
1.542757e+02 2.052897e-01 -9.272787e-03 7.067163e-01 -4.357559e+00 2.758926e+00
1.536231e+02 2.103275e-01 -9.402965e-03 7.068648e-01 -4.376633e+00 2.751114e+00
1.534904e+02 2.128463e-01 -9.929072e-03 7.071062e-01 -4.371460e+00 2.732407e+00
1.554225e+02 2.052897e-01 -1.119979e-02 7.070538e-01 -4.369644e+00 2.706802e+00
1.527676e+02 2.040302e-01 -1.117408e-02 7.073122e-01 -4.349457e+00 2.723663e+00
1.534205e+02 2.052897e-01 -1.188332e-02 7.081350e-01 -4.432449e+00 2.721909e+00
1.521925e+02 2.090680e-01 -1.269558e-02 7.083239e-01 -4.412476e+00 2.723328e+00
1.533616e+02 2.027708e-01 -1.246991e-02 7.086909e-01 -4.421051e+00 2.723724e+00
1.530861e+02 2.128463e-01 -1.239917e-02 7.089712e-01 -4.418884e+00 2.730942e+00
1.540797e+02 2.103275e-01 -1.208006e-02 7.093441e-01 -4.431885e+00 2.734650e+00
1.541330e+02 2.103275e-01 -1.146867e-02 7.098337e-01 -4.428772e+00 2.750015e+00
1.541707e+02 2.078086e-01 -8.336228e-03 7.105364e-01 -4.421722e+00 2.787125e+00
1.533041e+02 2.128463e-01 -9.012806e-03 7.109263e-01 -4.427872e+00 2.790421e+00
1.519799e+02 2.027708e-01 -8.715600e-03 7.119706e-01 -4.449051e+00 2.824722e+00
1.513010e+02 2.027708e-01 -9.724382e-03 7.125691e-01 -4.475708e+00 2.825195e+00
1.544800e+02 2.141058e-01 -2.854475e-02 7.203627e-01 -4.425629e+00 2.887573e+00
1.548770e+02 1.977330e-01 -1.584928e-02 7.299519e-01 -4.466980e+00 3.031265e+00
1.529602e+02 2.002519e-01 -1.578070e-02 7.300200e-01 -4.491913e+00 2.980072e+00
1.511805e+02 2.015113e-01 -1.138651e-02 7.314815e-01 -4.546112e+00 2.989563e+00
1.480812e+02 1.939547e-01 -9.871664e-03 7.327781e-01 -4.496170e+00 3.005737e+00
1.476751e+02 1.939547e-01 -9.812879e-03 7.330060e-01 -4.496170e+00 3.001724e+00
1.469116e+02 1.952141e-01 -9.494065e-03 7.333989e-01 -4.472534e+00 3.022827e+00
1.452867e+02 2.002519e-01 -4.787589e-03 7.360141e-01 -4.583572e+00 3.078094e+00
1.451208e+02 1.977330e-01 -5.132316e-03 7.363063e-01 -4.533859e+00 3.078094e+00
1.465645e+02 1.914358e-01 -6.130043e-03 7.372580e-01 -4.571579e+00 3.088715e+00
1.466697e+02 1.876574e-01 -8.838872e-03 7.402178e-01 -4.571289e+00 3.102982e+00
1.466575e+02 1.939547e-01 -9.077354e-03 7.421460e-01 -4.641647e+00 3.093826e+00
1.480658e+02 1.914358e-01 -9.101594e-03 7.428240e-01 -4.665604e+00 3.094528e+00
1.533994e+02 2.027708e-01 -8.990602e-03 7.470443e-01 -4.803070e+00 3.118073e+00
1.529018e+02 2.040302e-01 -9.357747e-03 7.473334e-01 -4.761032e+00 3.118622e+00
1.529722e+02 2.078086e-01 -9.322896e-03 7.475252e-01 -4.755875e+00 3.125076e+00
1.486478e+02 2.040302e-01 -7.753677e-03 7.483629e-01 -4.798737e+00 3.152222e+00
1.502339e+02 2.065491e-01 -6.657880e-03 7.528894e-01 -4.756836e+00 3.152664e+00
1.501606e+02 2.078086e-01 -6.394805e-03 7.531379e-01 -4.753113e+00 3.152756e+00
1.497867e+02 1.964736e-01 -6.642536e-03 7.535969e-01 -4.777405e+00 3.169403e+00
1.497601e+02 1.964736e-01 -6.136674e-03 7.537967e-01 -4.775711e+00 3.169510e+00
1.497266e+02 2.027708e-01 -6.631824e-03 7.541803e-01 -4.779327e+00 3.175278e+00
1.488148e+02 2.002519e-01 -6.716341e-03 7.545091e-01 -4.776566e+00 3.180740e+00
1.488508e+02 1.989924e-01 -6.739952e-03 7.547641e-01 -4.777756e+00 3.179718e+00
1.485787e+02 2.027708e-01 -6.930050e-03 7.550192e-01 -4.757187e+00 3.187775e+00
1.479822e+02 2.027708e-01 -8.005201e-03 7.556810e-01 -4.800369e+00 3.198196e+00
1.480063e+02 2.027708e-01 -7.765875e-03 7.558735e-01 -4.770233e+00 3.198227e+00
1.478219e+02 1.952141e-01 -6.905143e-03 7.565520e-01 -4.799194e+00 3.200806e+00
1.487126e+02 1.964736e-01 -5.572738e-03 7.604333e-01 -4.960892e+00 3.262650e+00
1.474929e+02 1.952141e-01 -5.884711e-03 7.614544e-01 -4.914474e+00 3.285904e+00
1.475527e+02 1.977330e-01 -5.908870e-03 7.615792e-01 -4.914581e+00 3.282791e+00
1.480189e+02 1.952141e-01 -6.034853e-03 7.618342e-01 -4.926056e+00 3.291779e+00
1.478667e+02 1.952141e-01 -5.905776e-03 7.618945e-01 -4.926056e+00 3.292435e+00
1.481633e+02 2.015113e-01 -6.564854e-03 7.628940e-01 -4.916809e+00 3.311218e+00
1.492944e+02 2.002519e-01 -8.958439e-03 7.672443e-01 -4.835556e+00 3.357819e+00
1.491427e+02 1.901763e-01 -2.921755e-03 7.690082e-01 -4.872528e+00 3.373016e+00
1.468357e+02 1.914358e-01 -3.700926e-03 7.695131e-01 -4.918091e+00 3.393661e+00
1.467057e+02 1.914358e-01 -3.982001e-03 7.698823e-01 -4.918091e+00 3.393890e+00
1.472419e+02 1.926952e-01 -4.116207e-03 7.712669e-01 -4.954941e+00 3.402893e+00
1.460874e+02 1.952141e-01 -4.032625e-03 7.717109e-01 -4.967239e+00 3.420166e+00
1.453225e+02 1.889169e-01 -3.919521e-03 7.719554e-01 -4.956085e+00 3.420181e+00
1.446968e+02 1.876574e-01 -3.865531e-03 7.722149e-01 -4.966431e+00 3.426483e+00
1.466010e+02 1.964736e-01 -5.071295e-04 7.778094e-01 -5.073624e+00 3.447922e+00
1.481705e+02 2.052897e-01 -6.239844e-03 7.820033e-01 -4.896332e+00 3.510971e+00
1.478782e+02 2.002519e-01 -3.821090e-03 7.822493e-01 -4.933929e+00 3.512131e+00
1.491005e+02 2.052897e-01 -4.388992e-03 7.821907e-01 -4.926544e+00 3.512817e+00
1.466360e+02 2.065491e-01 -4.680706e-03 7.827231e-01 -4.934937e+00 3.517181e+00
1.462692e+02 1.977330e-01 6.698675e-03 7.829572e-01 -4.965744e+00 3.541153e+00
1.443664e+02 2.040302e-01 5.566984e-03 7.832269e-01 -4.951004e+00 3.546890e+00
1.444234e+02 2.052897e-01 4.945707e-03 7.834888e-01 -4.959518e+00 3.550751e+00
1.473380e+02 1.952141e-01 -7.297429e-04 7.857556e-01 -5.142899e+00 3.594009e+00
1.442399e+02 1.926952e-01 -4.327757e-04 7.865948e-01 -5.007233e+00 3.595520e+00
1.451007e+02 1.964736e-01 2.968814e-05 7.881944e-01 -5.186615e+00 3.595795e+00
1.468835e+02 1.926952e-01 3.708243e-03 7.928905e-01 -5.156204e+00 3.672424e+00
1.442628e+02 1.901763e-01 3.810464e-03 7.929037e-01 -5.156830e+00 3.671844e+00
1.435049e+02 1.901763e-01 3.858753e-03 7.931824e-01 -5.163956e+00 3.676163e+00
1.436826e+02 1.851385e-01 3.657090e-03 7.934479e