2.073628e+04 9.305000e-01 1.465197e-04 5.776570e-01 -9.999792e-01 9.999183e-01
1.887444e+03 1.388000e-01 -2.360753e-03 5.767306e-01 -1.304897e+00 1.285052e+00
1.516905e+03 1.072000e-01 -2.805932e-03 5.761590e-01 -1.500749e+00 1.384267e+00
1.348746e+03 9.440000e-02 -2.804799e-03 5.759508e-01 -1.533810e+00 1.479574e+00
1.250864e+03 8.920000e-02 -2.785632e-03 5.758619e-01 -1.568755e+00 1.542694e+00
1.140272e+03 8.190000e-02 -2.746404e-03 5.758412e-01 -1.597907e+00 1.622512e+00
1.101383e+03 7.650000e-02 -2.772279e-03 5.758406e-01 -1.611987e+00 1.665607e+00
1.054069e+03 7.190000e-02 -2.745106e-03 5.758512e-01 -1.656253e+00 1.715196e+00
1.000218e+03 6.950000e-02 -2.815012e-03 5.758743e-01 -1.711305e+00 1.746198e+00
9.862653e+02 7.060000e-02 -2.842327e-03 5.759067e-01 -1.760317e+00 1.765955e+00
9.434197e+02 6.710000e-02 -2.804158e-03 5.759260e-01 -1.796255e+00 1.785624e+00
9.428112e+02 6.640000e-02 -2.875081e-03 5.759583e-01 -1.838639e+00 1.807342e+00
9.044095e+02 6.420000e-02 -2.839476e-03 5.759837e-01 -1.879077e+00 1.804143e+00
9.104609e+02 6.560000e-02 -2.829785e-03 5.760225e-01 -1.913702e+00 1.816936e+00
8.817058e+02 6.340000e-02 -2.849573e-03 5.760544e-01 -1.950689e+00 1.828235e+00
8.557921e+02 5.990000e-02 -2.867042e-03 5.760816e-01 -1.987272e+00 1.866611e+00
8.392270e+02 5.920000e-02 -2.899901e-03 5.761257e-01 -2.012196e+00 1.905678e+00
8.272221e+02 5.820000e-02 -2.879219e-03 5.761661e-01 -2.036190e+00 1.942130e+00
8.099082e+02 5.850000e-02 -2.925221e-03 5.762107e-01 -2.059057e+00 1.977925e+00
7.968973e+02 5.710000e-02 -2.948246e-03 5.762464e-01 -2.088691e+00 2.010503e+00
7.937607e+02 5.620000e-02 -2.913898e-03 5.762884e-01 -2.105840e+00 2.041542e+00
7.880245e+02 5.640000e-02 -2.991046e-03 5.763279e-01 -2.131212e+00 2.077560e+00
7.771200e+02 5.450000e-02 -2.976305e-03 5.763740e-01 -2.152522e+00 2.130495e+00
7.780608e+02 5.540000e-02 -2.944982e-03 5.764281e-01 -2.179118e+00 2.180787e+00
7.595868e+02 5.450000e-02 -2.977493e-03 5.764740e-01 -2.188641e+00 2.234149e+00
7.504795e+02 5.350000e-02 -3.036482e-03 5.765187e-01 -2.210456e+00 2.278421e+00
7.468307e+02 5.360000e-02 -3.013867e-03 5.765639e-01 -2.230793e+00 2.327741e+00
7.516293e+02 5.360000e-02 -3.028854e-03 5.766151e-01 -2.256021e+00 2.376952e+00
7.370812e+02 5.240000e-02 -2.982545e-03 5.766690e-01 -2.307388e+00 2.407569e+00
7.267857e+02 5.120000e-02 -3.000438e-03 5.767148e-01 -2.332356e+00 2.450981e+00
7.243840e+02 5.170000e-02 -2.983753e-03 5.767674e-01 -2.371443e+00 2.485692e+00
7.182723e+02 5.100000e-02 -3.016914e-03 5.768156e-01 -2.414437e+00 2.525783e+00
7.163311e+02 5.110000e-02 -2.998840e-03 5.768740e-01 -2.441467e+00 2.563923e+00
7.053240e+02 4.990000e-02 -2.978160e-03 5.769178e-01 -2.477029e+00 2.600761e+00
7.047842e+02 5.040000e-02 -2.985863e-03 5.769725e-01 -2.512799e+00 2.639507e+00
7.045580e+02 4.920000e-02 -3.020957e-03 5.770223e-01 -2.547486e+00 2.678394e+00
6.921401e+02 4.920000e-02 -3.036891e-03 5.770761e-01 -2.584231e+00 2.715355e+00
6.905017e+02 4.950000e-02 -2.984869e-03 5.771272e-01 -2.614269e+00 2.745887e+00
6.971003e+02 5.030000e-02 -3.017175e-03 5.771867e-01 -2.646101e+00 2.778954e+00
7.004439e+02 4.940000e-02 -3.013364e-03 5.772379e-01 -2.678061e+00 2.817084e+00
6.932719e+02 4.850000e-02 -3.003512e-03 5.772939e-01 -2.712215e+00 2.846351e+00
6.816968e+02 4.840000e-02 -3.017385e-03 5.773470e-01 -2.741098e+00 2.871537e+00
6.736474e+02 4.820000e-02 -3.003692e-03 5.774006e-01 -2.773523e+00 2.910911e+00
6.764044e+02 4.880000e-02 -3.000686e-03 5.774574e-01 -2.805184e+00 2.928099e+00
6.706655e+02 4.740000e-02 -3.033833e-03 5.775077e-01 -2.830319e+00 2.960621e+00
6.775572e+02 4.800000e-02 -3.007518e-03 5.775727e-01 -2.861487e+00 2.988102e+00
6.760209e+02 4.880000e-02 -3.006402e-03 5.776311e-01 -2.888319e+00 3.014181e+00
6.638118e+02 4.680000e-02 -3.028919e-03 5.776878e-01 -2.915910e+00 3.033929e+00
6.633391e+02 4.800000e-02 -3.010971e-03 5.777480e-01 -2.952257e+00 3.057572e+00
6.614107e+02 4.790000e-02 -3.071445e-03 5.778089e-01 -2.974663e+00 3.091330e+00
6.538506e+02 4.710000e-02 -3.038797e-03 5.778672e-01 -3.003759e+00 3.102802e+00
6.718930e+02 4.740000e-02 -3.026272e-03 5.779260e-01 -3.029147e+00 3.130302e+00
6.498703e+02 4.720000e-02 -3.046571e-03 5.779910e-01 -3.053928e+00 3.147661e+00
6.585551e+02 4.670000e-02 -3.049268e-03 5.780516e-01 -3.084373e+00 3.176028e+00
6.634340e+02 4.670000e-02 -3.086453e-03 5.781130e-01 -3.112590e+00 3.196438e+00
6.450372e+02 4.670000e-02 -3.065912e-03 5.781801e-01 -3.130983e+00 3.213617e+00
6.408947e+02 4.590000e-02 -3.061683e-03 5.782432e-01 -3.171754e+00 3.239046e+00
6.518041e+02 4.730000e-02 -3.058343e-03 5.783025e-01 -3.185006e+00 3.257619e+00
6.346048e+02 4.550000e-02 -3.137156e-03 5.783689e-01 -3.207057e+00 3.276132e+00
6.395021e+02 4.630000e-02 -3.103758e-03 5.784354e-01 -3.233744e+00 3.299929e+00
6.423011e+02 4.580000e-02 -3.125012e-03 5.784976e-01 -3.260063e+00 3.314007e+00
6.340476e+02 4.580000e-02 -3.131711e-03 5.785641e-01 -3.280384e+00 3.337258e+00
6.332180e+02 4.490000e-02 -3.102209e-03 5.786354e-01 -3.304184e+00 3.352485e+00
6.347501e+02 4.480000e-02 -3.095478e-03 5.786951e-01 -3.327824e+00 3.373276e+00
6.314887e+02 4.540000e-02 -3.174473e-03 5.787648e-01 -3.352769e+00 3.381355e+00
6.386261e+02 4.560000e-02 -3.160061e-03 5.788313e-01 -3.378149e+00 3.397984e+00
6.297582e+02 4.550000e-02 -3.166498e-03 5.788989e-01 -3.393916e+00 3.413642e+00
6.264371e+02 4.610000e-02 -3.153207e-03 5.789690e-01 -3.414794e+00 3.432997e+00
6.266006e+02 4.510000e-02 -3.163941e-03 5.790321e-01 -3.438489e+00 3.452939e+00
6.369559e+02 4.400000e-02 -3.207755e-03 5.791067e-01 -3.454995e+00 3.466400e+00
6.289908e+02 4.460000e-02 -3.196395e-03 5.791753e-01 -3.482897e+00 3.481018e+00
6.275773e+02 4.530000e-02 -3.231252e-03 5.792492e-01 -3.497352e+00 3.497693e+00
6.171572e+02 4.440000e-02 -3.203416e-03 5.793173e-01 -3.511772e+00 3.505834e+00
6.211825e+02 4.370000e-02 -3.217630e-03 5.793860e-01 -3.536147e+00 3.524899e+00
6.156932e+02 4.440000e-02 -3.246510e-03 5.794544e-01 -3.551700e+00 3.534329e+00
6.149060e+02 4.440000e-02 -3.249818e-03 5.795296e-01 -3.571493e+00 3.547517e+00
6.237633e+02 4.460000e-02 -3.262027e-03 5.795996e-01 -3.586094e+00 3.562685e+00
6.162576e+02 4.400000e-02 -3.263857e-03 5.796697e-01 -3.597056e+00 3.575174e+00
6.137395e+02 4.330000e-02 -3.292958e-03 5.797425e-01 -3.617712e+00 3.596861e+00
6.188503e+02 4.470000e-02 -3.297621e-03 5.798220e-01 -3.635629e+00 3.604045e+00
6.134784e+02 4.360000e-02 -3.286888e-03 5.798858e-01 -3.644881e+00 3.614523e+00
6.165828e+02 4.360000e-02 -3.331865e-03 5.799587e-01 -3.659785e+00 3.628211e+00
6.139953e+02 4.370000e-02 -3.300263e-03 5.800343e-01 -3.677036e+00 3.639297e+00
6.046172e+02 4.350000e-02 -3.354373e-03 5.801016e-01 -3.690583e+00 3.652761e+00
6.120449e+02 4.330000e-02 -3.349242e-03 5.801820e-01 -3.702488e+00 3.669976e+00
6.044355e+02 4.320000e-02 -3.392776e-03 5.802558e-01 -3.717034e+00 3.680855e+00
6.047556e+02 4.330000e-02 -3.357231e-03 5.803269e-01 -3.728201e+00 3.686128e+00
6.053400e+02 4.330000e-02 -3.401639e-03 5.804016e-01 -3.737084e+00 3.703810e+00
6.009989e+02 4.340000e-02 -3.423749e-03 5.804735e-01 -3.753197e+00 3.707021e+00
6.034018e+02 4.340000e-02 -3.414500e-03 5.805482e-01 -3.765014e+00 3.715320e+00
6.000167e+02 4.240000e-02 -3.409962e-03 5.806242e-01 -3.779400e+00 3.729419e+00
6.012407e+02 4.350000e-02 -3.411271e-03 5.807039e-01 -3.784759e+00 3.746167e+00
6.031505e+02 4.180000e-02 -3.454729e-03 5.807795e-01 -3.794473e+00 3.755245e+00
5.947348e+02 4.220000e-02 -3.449767e-03 5.808636e-01 -3.813592e+00 3.758603e+00
5.957560e+02 4.270000e-02 -3.459307e-03 5.809399e-01 -3.826189e+00 3.771606e+00
6.100098e+02 4.220000e-02 -3.470123e-03 5.810157e-01 -3.833268e+00 3.786079e+00
5.925264e+02 4.320000e-02 -3.493418e-03 5.810940e-01 -3.844726e+00 3.795822e+00
5.960389e+02 4.370000e-02 -3.498465e-03 5.811720e-01 -3.854574e+00 3.799476e+00
5.954417e+02 4.170000e-02 -3.491046e-03 5.812450e-01 -3.863556e+00 3.805515e+00
5.913262e+02 4.160000e-02 -3.506654e-03 5.813287e-01 -3.875244e+00 3.820888e+00
5.886183e+02 4.280000e-02 -3.521937e-03 5.814033e-01 -3.885077e+00 3.821677e+00
5.915620e+02 4.260000e-02 -3.535325e-03 5.814874e-01 -3.901826e+00 3.834300e+00
5.922461e+02 4.220000e-02 -3.528688e-03 5.815634e-01 -3.909989e+00 3.845192e+00
5.961888e+02 4.210000e-02 -3.555733e-03 5.816434e-01 -3.923011e+00 3.856602e+00
5.877565e+02 4.270000e-02 -3.575952e-03 5.817244e-01 -3.927855e+00 3.855891e+00
5.872323e+02 4.200000e-02 -3.576375e-03 5.818040e-01 -3.940444e+00 3.867507e+00
5.858241e+02 4.210000e-02 -3.584808e-03 5.818829e-01 -3.953136e+00 3.868121e+00
5.842432e+02 4.170000e-02 -3.581852e-03 5.819708e-01 -3.957542e+00 3.882054e+00
5.846918e+02 4.110000e-02 -3.600785e-03 5.820441e-01 -3.967553e+00 3.890199e+00
5.900054e+02 4.170000e-02 -3.551843e-03 5.821305e-01 -3.978812e+00 3.898606e+00
5.839698e+02 4.240000e-02 -3.608360e-03 5.822043e-01 -3.988623e+00 3.902758e+00
5.825466e+02 4.200000e-02 -3.597515e-03 5.822921e-01 -4.001233e+00 3.915253e+00
5.846796e+02 4.150000e-02 -3.601359e-03 5.823655e-01 -4.004501e+00 3.920736e+00
5.821551e+02 4.160000e-02 -3.600572e-03 5.824568e-01 -4.013915e+00 3.927098e+00
5.833607e+02 4.190000e-02 -3.628773e-03 5.825378e-01 -4.021584e+00 3.943663e+00
5.864078e+02 4.140000e-02 -3.627269e-03 5.826234e-01 -4.033311e+00 3.944558e+00
5.850897e+02 4.200000e-02 -3.645677e-03 5.827037e-01 -4.038213e+00 3.953838e+00
5.770706e+02 4.140000e-02 -3.624680e-03 5.827919e-01 -4.047869e+00 3.965909e+00
5.773329e+02 4.150000e-02 -3.623778e-03 5.828725e-01 -4.057556e+00 3.969810e+00
5.859793e+02 4.160000e-02 -3.659368e-03 5.829470e-01 -4.064500e+00 3.978460e+00
5.848389e+02 4.130000e-02 -3.649592e-03 5.830413e-01 -4.071140e+00 3.988345e+00
5.817603e+02 4.030000e-02 -3.630171e-03 5.831199e-01 -4.077282e+00 3.995710e+00
5.801374e+02 4.150000e-02 -3.655012e-03 5.831953e-01 -4.086216e+00 3.996633e+00
