5.035810e-01 1.368364e+00 -3.964844e+00 5.289307e+00 1.221929e-03 1.715778e-02 -1.127930e-01 1.806641e-01
3.909143e-01 1.564442e+00 -4.208008e+00 5.802734e+00 5.162076e-04 1.563847e-02 -1.469727e-01 1.616211e-01
4.426812e-01 1.708287e+00 -4.835693e+00 5.788086e+00 1.342184e-04 1.484755e-02 -1.887207e-01 1.806641e-01
3.217491e-01 1.838827e+00 -6.387207e+00 5.091064e+00 -7.142969e-05 1.491030e-02 -1.850586e-01 1.806641e-01
3.425256e-01 1.941169e+00 -5.283447e+00 5.102295e+00 -1.515750e-04 1.393162e-02 -1.933594e-01 1.850586e-01
3.171471e-01 1.977210e+00 -6.125000e+00 5.033203e+00 -2.236915e-05 1.605600e-02 -1.877441e-01 1.901855e-01
3.347465e-01 1.873614e+00 -5.696289e+00 5.095459e+00 -4.711449e-05 1.338933e-02 -1.850586e-01 1.635742e-01
3.345377e-01 1.987704e+00 -6.453857e+00 5.812500e+00 -7.727651e-05 1.290322e-02 -1.652832e-01 1.857910e-01
2.659274e-01 1.910961e+00 -6.063965e+00 4.991455e+00 -8.747679e-05 1.565524e-02 -2.026367e-01 1.901855e-01
3.046371e-01 1.964162e+00 -6.243164e+00 5.208496e+00 -2.074397e-05 1.515912e-02 -1.635742e-01 1.635742e-01
2.916527e-01 1.962362e+00 -5.833740e+00 4.651611e+00 1.682864e-04 1.564509e-02 -1.901855e-01 1.877441e-01
2.820892e-01 1.989670e+00 -6.275879e+00 5.203125e+00 2.619014e-07 1.416719e-02 -1.811523e-01 1.857910e-01
2.527528e-01 2.031035e+00 -5.813232e+00 4.867432e+00 -1.957322e-05 1.496287e-02 -1.901855e-01 1.806641e-01
2.777585e-01 2.031279e+00 -6.850586e+00 5.709961e+00 -1.332644e-04 1.494415e-02 -1.877441e-01 1.691895e-01
3.019292e-01 1.944007e+00 -6.258301e+00 5.806152e+00 -1.904474e-04 1.522976e-02 -2.026367e-01 1.838379e-01
2.745478e-01 2.022619e+00 -6.620361e+00 5.016846e+00 -1.457802e-05 1.437443e-02 -1.933594e-01 1.806641e-01
2.496440e-01 2.018755e+00 -6.602051e+00 5.669189e+00 -3.861744e-05 1.461272e-02 -1.933594e-01 1.850586e-01
2.803768e-01 2.032152e+00 -6.135742e+00 5.072754e+00 -1.155817e-04 1.176485e-02 -1.850586e-01 1.806641e-01
3.072754e-01 1.951048e+00 -5.380615e+00 5.705322e+00 5.189809e-05 1.564078e-02 -1.933594e-01 1.806641e-01
3.676382e-01 2.017165e+00 -6.610840e+00 5.715088e+00 -9.048778e-05 1.536333e-02 -1.982422e-01 1.806641e-01
3.063468e-01 1.962977e+00 -6.542236e+00 5.086914e+00 2.512362e-04 1.485793e-02 -1.933594e-01 1.806641e-01
3.281036e-01 2.076489e+00 -6.726318e+00 5.887939e+00 -5.990777e-06 1.503623e-02 -1.877441e-01 1.850586e-01
3.626798e-01 2.050986e+00 -6.136230e+00 5.902344e+00 9.424980e-06 1.379338e-02 -1.735840e-01 1.701660e-01
3.927558e-01 2.062873e+00 -6.068115e+00 5.103516e+00 1.025127e-04 1.692104e-02 -1.997070e-01 1.901855e-01
4.045383e-01 2.018558e+00 -6.714111e+00 5.549561e+00 -8.815322e-05 1.419869e-02 -1.652832e-01 1.623535e-01
3.556692e-01 1.881458e+00 -5.372314e+00 5.739502e+00 -8.416053e-05 1.729988e-02 -1.997070e-01 1.901855e-01
3.911895e-01 1.999872e+00 -6.908447e+00 5.590088e+00 6.701032e-05 1.615065e-02 -1.933594e-01 1.857910e-01
4.338732e-01 1.956276e+00 -5.564697e+00 5.860596e+00 -7.826341e-05 1.472117e-02 -1.857910e-01 1.806641e-01
4.790856e-01 2.054010e+00 -6.917725e+00 6.014404e+00 4.361386e-04 1.452907e-02 -1.901855e-01 1.901855e-01
4.760939e-01 1.994437e+00 -6.665283e+00 5.568604e+00 3.301171e-05 1.535503e-02 -1.877441e-01 1.806641e-01
3.264171e-01 2.088001e+00 -6.734375e+00 5.313232e+00 -2.903272e-04 1.497727e-02 -1.726074e-01 1.630859e-01
3.046498e-01 2.039458e+00 -5.869629e+00 5.835205e+00 8.618462e-06 1.953774e-02 -1.938477e-01 1.938477e-01
3.631486e-01 2.018744e+00 -6.163086e+00 5.273682e+00 1.178192e-04 1.478421e-02 -2.021484e-01 1.970215e-01
3.239051e-01 2.027766e+00 -7.159668e+00 5.420898e+00 -1.774945e-04 1.534396e-02 -1.933594e-01 1.806641e-01
4.108193e-01 2.076869e+00 -6.152588e+00 5.857666e+00 4.900851e-05 1.523196e-02 -1.933594e-01 1.857910e-01
3.670513e-01 2.071769e+00 -5.987549e+00 6.075684e+00 1.736267e-04 1.737166e-02 -2.092285e-01 1.984863e-01
3.478127e-01 2.056394e+00 -6.653320e+00 5.433350e+00 -1.338125e-05 1.653786e-02 -1.970215e-01 1.850586e-01
3.338695e-01 2.095773e+00 -6.729248e+00 5.420410e+00 -3.951068e-05 1.521750e-02 -1.982422e-01 1.887207e-01
3.907356e-01 1.960563e+00 -4.971680e+00 4.901367e+00 -7.440774e-07 1.736233e-02 -1.918945e-01 2.026367e-01
4.866443e-01 2.042630e+00 -6.721436e+00 5.446289e+00 -1.292318e-04 1.435566e-02 -1.933594e-01 1.984863e-01
4.492233e-01 2.118287e+00 -7.363281e+00 5.445312e+00 -3.421195e-05 1.514906e-02 -1.857910e-01 1.850586e-01
5.620128e-01 2.173422e+00 -7.298584e+00 5.899658e+00 1.106577e-06 1.342188e-02 -1.933594e-01 1.850586e-01
5.530267e-01 2.055028e+00 -6.513672e+00 5.900146e+00 -1.656396e-05 1.726140e-02 -1.877441e-01 1.806641e-01
6.067278e-01 2.112419e+00 -7.055908e+00 6.083008e+00 1.743812e-05 1.536881e-02 -1.970215e-01 1.806641e-01
6.276290e-01 2.082632e+00 -7.390381e+00 5.455566e+00 3.298396e-05 1.610374e-02 -2.026367e-01 1.901855e-01
6.361604e-01 2.104191e+00 -7.203369e+00 6.115479e+00 1.093325e-04 1.572897e-02 -1.970215e-01 1.936035e-01
5.707049e-01 2.136937e+00 -7.259766e+00 5.738037e+00 1.205180e-04 1.565514e-02 -1.982422e-01 1.887207e-01
6.112710e-01 2.091320e+00 -5.092529e+00 6.208496e+00 -9.393586e-05 1.618872e-02 -2.021484e-01 1.782227e-01
6.435752e-01 2.029996e+00 -5.761719e+00 5.970947e+00 4.023568e-05 1.466132e-02 -1.901855e-01 1.850586e-01
6.237854e-01 2.131230e+00 -6.659912e+00 6.179443e+00 8.048003e-05 1.487566e-02 -2.026367e-01 1.838379e-01
5.703853e-01 2.155521e+00 -6.604248e+00 6.182373e+00 1.416401e-04 1.470537e-02 -1.997070e-01 1.936035e-01
6.253770e-01 2.103077e+00 -7.274658e+00 6.182373e+00 1.487582e-04 1.602888e-02 -1.997070e-01 1.887207e-01
5.163296e-01 2.123674e+00 -6.417236e+00 6.225342e+00 2.305426e-05 1.459134e-02 -1.877441e-01 1.738281e-01
6.405219e-01 2.163006e+00 -6.634521e+00 6.228760e+00 2.427357e-05 1.559463e-02 -2.026367e-01 1.877441e-01
5.386494e-01 2.196698e+00 -7.383789e+00 6.188477e+00 -1.648938e-05 1.480211e-02 -1.997070e-01 1.760254e-01
5.491846e-01 2.156546e+00 -7.295410e+00 5.312988e+00 -3.586488e-05 1.671318e-02 -2.026367e-01 1.938477e-01
5.228012e-01 2.064147e+00 -5.929199e+00 5.306885e+00 1.249235e-04 1.533832e-02 -1.933594e-01 1.850586e-01
5.570026e-01 2.139330e+00 -7.029785e+00 5.990234e+00 -2.683535e-05 1.836277e-02 -2.026367e-01 1.938477e-01
5.247139e-01 2.139000e+00 -7.438232e+00 6.195557e+00 3.077601e-05 1.457775e-02 -1.970215e-01 1.857910e-01
5.180356e-01 2.132031e+00 -6.258301e+00 6.243896e+00 5.705287e-05 1.547526e-02 -1.982422e-01 1.857910e-01
4.534791e-01 2.258319e+00 -8.211182e+00 5.616943e+00 -2.883863e-05 1.723122e-02 -1.857910e-01 1.733398e-01
4.648906e-01 2.248984e+00 -8.024414e+00 6.012939e+00 -7.989205e-05 1.648598e-02 -1.933594e-01 1.850586e-01
4.540025e-01 2.318468e+00 -8.112061e+00 5.513916e+00 -6.403748e-05 1.649909e-02 -1.933594e-01 1.857910e-01
4.831711e-01 2.324722e+00 -8.062012e+00 5.611328e+00 9.976187e-05 1.709779e-02 -1.933594e-01 1.857910e-01
4.532632e-01 2.309795e+00 -7.992920e+00 6.259521e+00 1.249200e-04 1.410566e-02 -1.877441e-01 1.877441e-01
4.573597e-01 2.353866e+00 -7.881592e+00 6.207031e+00 1.549884e-04 1.641401e-02 -1.938477e-01 1.811523e-01
4.459288e-01 2.289261e+00 -7.881592e+00 6.207031e+00 1.572449e-04 1.485650e-02 -2.026367e-01 1.938477e-01
3.576755e-01 2.321407e+00 -8.533447e+00 6.205811e+00 1.374531e-04 1.678583e-02 -1.938477e-01 1.811523e-01
2.896351e-01 2.399468e+00 -8.820068e+00 5.378174e+00 -1.897657e-04 1.508024e-02 -1.877441e-01 1.738281e-01
3.453498e-01 2.280887e+00 -8.803955e+00 6.267578e+00 3.300928e-04 1.705211e-02 -2.026367e-01 1.887207e-01
2.819135e-01 2.346051e+00 -8.647705e+00 6.259521e+00 -2.243402e-04 1.513703e-02 -1.877441e-01 1.677246e-01
3.696255e-01 2.295152e+00 -7.609619e+00 6.243408e+00 -9.807945e-05 1.398610e-02 -1.811523e-01 1.691895e-01
3.083061e-01 2.371076e+00 -8.824951e+00 5.270752e+00 2.306813e-07 1.707578e-02 -1.982422e-01 1.850586e-01
3.588620e-01 2.334988e+00 -8.463379e+00 5.598145e+00 3.302732e-05 1.588358e-02 -2.092285e-01 1.850586e-01
2.187102e-01 2.273216e+00 -7.727051e+00 6.227783e+00 -2.724468e-05 1.714368e-02 -2.021484e-01 1.806641e-01
3.277762e-01 2.309713e+00 -8.072510e+00 5.799072e+00 4.931377e-05 1.485290e-02 -1.691895e-01 1.857910e-01
3.576290e-01 2.409560e+00 -8.871826e+00 6.328613e+00 1.311918e-04 1.565953e-02 -1.933594e-01 1.877441e-01
3.934815e-01 2.353108e+00 -7.453369e+00 6.332275e+00 -4.639470e-05 1.515257e-02 -1.982422e-01 1.850586e-01
5.236681e-01 2.340889e+00 -7.711670e+00 6.349365e+00 2.119597e-04 1.497345e-02 -1.933594e-01 1.850586e-01
4.513669e-01 2.232234e+00 -7.161621e+00 5.607422e+00 5.205593e-05 1.549239e-02 -1.970215e-01 1.938477e-01
5.299809e-01 2.267659e+00 -6.932617e+00 6.298584e+00 -4.970402e-05 1.512580e-02 -1.970215e-01 1.850586e-01
4.601760e-01 2.265778e+00 -7.111328e+00 6.364990e+00 1.210678e-04 1.411400e-02 -1.733398e-01 1.806641e-01
5.068196e-01 2.185722e+00 -8.339355e+00 6.065186e+00 -2.865999e-05 1.828523e-02 -1.982422e-01 1.850586e-01
5.276542e-01 2.308717e+00 -7.298584e+00 6.104248e+00 1.755259e-06 1.384243e-02 -1.508789e-01 1.616211e-01
5.171641e-01 2.337809e+00 -7.641113e+00 6.512451e+00 1.132611e-04 1.578922e-02 -1.970215e-01 1.733398e-01
5.368653e-01 2.264069e+00 -7.738281e+00 5.713867e+00 -1.087116e-04 1.793901e-02 -2.026367e-01 1.887207e-01
4.632396e-01 2.265786e+00 -7.396484e+00 6.513428e+00 -1.120088e-04 1.471643e-02 -1.982422e-01 1.770020e-01
4.902678e-01 2.363581e+00 -7.210693e+00 6.484863e+00 -6.120860e-06 1.458248e-02 -1.733398e-01 1.691895e-01
5.009229e-01 2.196755e+00 -6.736084e+00 5.313965e+00 -1.201156e-04 1.677688e-02 -1.938477e-01 1.901855e-01
5.627447e-01 2.221117e+00 -6.920166e+00 6.438477e+00 1.503747e-04 1.685617e-02 -2.026367e-01 1.938477e-01
3.559062e-01 2.346308e+00 -7.976318e+00 6.431641e+00 -2.904174e-04 1.410288e-02 -1.938477e-01 1.857910e-01
3.913453e-01 2.368433e+00 -7.164062e+00 6.422852e+00 -1.799904e-04 1.628347e-02 -1.982422e-01 1.918945e-01
4.161527e-01 2.244711e+00 -6.900635e+00 5.635010e+00 -1.695785e-04 1.490624e-02 -2.026367e-01 1.857910e-01
4.181073e-01 2.371326e+00 -7.637451e+00 5.778076e+00 1.037754e-04 1.549600e-02 -1.982422e-01 1.901855e-01
4.176018e-01 2.293473e+00 -7.353027e+00 6.430664e+00 1.109265e-04 1.542389e-02 -2.062988e-01 1.806641e-01
3.938274e-01 2.358231e+00 -7.107422e+00 6.554199e+00 8.702236e-05 1.697349e-02 -1.877441e-01 1.857910e-01
4.141764e-01 2.262819e+00 -6.872070e+00 6.391602e+00 -1.555625e-04 1.679268e-02 -2.026367e-01 1.887207e-01
4.286028e-01 2.369086e+00 -8.099854e+00 6.103760e+00 -9.827371e-05 1.292745e-02 -2.026367e-01 1.857910e-01
4.502157e-01 2.308017e+00 -7.924316e+00 6.455566e+00 1.966879e-04 1.554216e-02 -1.877441e-01 1.887207e-01
4.054736e-01 2.359862e+00 -6.932617e+00 6.475830e+00 -4.176720e-05 1.396357e-02 -1.877441e-01 1.733398e-01
3.980835e-01 2.320107e+00 -7.305176e+00 6.197754e+00 -2.224306e-04 1.509306e-02 -1.938477e-01 1.857910e-01
3.158204e-01 2.319789e+00 -6.724854e+00 5.585205e+00 -1.605906e-04 1.629771e-02 -1.901855e-01 1.733398e-01
4.248205e-01 2.407099e+00 -7.135010e+00 6.472900e+00 3.526996e-05 1.385031e-02 -1.982422e-01 1.901855e-01
4.559515e-01 2.442267e+00 -7.898438e+00 6.487549e+00 -1.669300e-04 1.439450e-02 -2.021484e-01 1.901855e-01
5.072362e-01 2.338350e+00 -6.782715e+00 5.705566e+00 -1.967556e-05 1.550273e-02 -1.982422e-01 1.850586e-01
6.268383e-01 2.305585e+00 -6.163574e+00 7.142334e+00 7.552992e-05 1.624513e-02 -1.997070e-01 1.901855e-01
5.516017e-01 2.358250e+00 -6.550537e+00 6.485352e+00 1.654367e-04 1.420019e-02 -1.691895e-01 1.738281e-01
4.528386e-01 2.358906e+00 -6.505127e+00 5.432617e+00 -1.214719e-04 1.583299e-02 -1.938477e-01 1.733398e-01
5.208447e-01 2.308404e+00 -6.811279e+00 6.814697e+00 1.401068e-04 1.457375e-02 -1.982422e-01 1.850586e-01
5.611586e-01 2.377606e+00 -7.074951e+00 6.497070e+00 -3.694093e-04 1.620537e-02 -2.062988e-01 1.970215e-01
4.953922e-01 2.399049e+00 -7.182373e+00 6.494629e+00 -2.601149e-04 1.526302e-02 -1.997070e-01 1.901855e-01
4.800360e-01 2.397444e+00 -7.026855e+00 6.449951e+00 -1.572657e-04 1.386781e-02 -1.997070e-01 1.806641e-01
4.561250e-01 2.368401e+00 -7.309570e+00 6.996338e+00 -8.761207e-05 1.654658e-02 -1.982422e-01 1.850586e-01
5.478680e-01 2.341045e+00 -7.731934e+00 6.450928e+00 1.711864e-04 1.596168e-02 -1.997070e-01 1.850586e-01
5.006184e-01 2.383165e+00 -7.365234e+00 6.451660e+00 -7.812118e-05 1.530043e-02 -1.970215e-01 1.938477e-01
5.321367e-01 2.381503e+00 -7.179932e+00 6.448242e+00 1.318699e-04 1.418159e-02 -1.901855e-01 1.770020e-01
4.845970e-01 2.382729e+00 -7.046631e+00 6.203125e+00 -4.572173e-05 1.489042e-02 -1.938477e-01 1.857910e-01
5.269676e-01 2.364369e+00 -8.348389e+00 6.719971e+00 1.233954e-04 1.418726e-02 -1.933594e-01 1.970215e-01
6.553784e-01 2.291783e+00 -7.965820e+00 6.625977e+00 7.164476e-05 1.567877e-02 -1.982422e-01 1.938477e-01
6.852411e-01 2.301145e+00 -7.774902e+00 6.516357e+00 1.663507e-05 1.487637e-02 -1.877441e-01 1.850586e-01
6.110115e-01 2.294842e+00 -7.057129e+00 6.079834e+00 7.283633e-05 1.568188e-02 -1.933594e-01 1.938477e-01
6.208078e-01 2.374388e+00 -7.241943e+00 6.454102e+00 -2.056706e-05 1.432207e-02 -1.938477e-01 1.857910e-01
5.570488e-01 2.305965e+00 -6.815674e+00 5.858398e+00 3.276160e-04 1.630467e-02 -1.877441e-01 1.857910e-01
5.884319e-01 2.297804e+00 -7.039795e+00 5.583740e+00 2.005557e-04 1.407784e-02 -1.811523e-01 1.738281e-01
4.023609e-01 2.413746e+00 -7.350830e+00 6.495361e+00 -6.175148e-05 1.364459e-02 -1.901855e-01 1.938477e-01
3.072783e-01 2.392461e+00 -8.458252e+00 5.984131e+00 -5.467841e-05 1.307614e-02 -2.026367e-01 1.945801e-01
3.813025e-01 2.465685e+00 -7.356689e+00 6.252686e+00 -6.991379e-05 1.427031e-02 -1.850586e-01 1.738281e-01
4.528463e-01 2.425463e+00 -6.951660e+00 5.870605e+00 -1.468573e-04 1.381842e-02 -2.026367e-01 1.838379e-01
4.410477e-01 2.522023e+00 -7.552979e+00 6.209229e+00 -9.067510e-05 1.593826e-02 -2.026367e-01 1.938477e-01
4.601669e-01 2.522119e+00 -8.756836e+00 7.381348e+00 -6.960505e-05 1.326551e-02 -1.982422e-01 1.901855e-01
4.243812e-01 2.397057e+00 -7.340088e+00 6.367920e+00 7.820617e-05 1.536292e-02 -1.982422e-01 1.938477e-01
4.415695e-01 2.549391e+00 -8.299072e+00 6.469238e+00 1.118995e-04 1.546124e-02 -1.970215e-01 1.901855e-01
3.937773e-01 2.533132e+00 -9.042725e+00 7.280518e+00 -2.041200e-04 1.523353e-02 -1.970215e-01 1.806641e-01
5.056761e-01 2.409703e+00 -7.646973e+00 6.512207e+00 4.836537e-04 1.487036e-02 -1.970215e-01 1.901855e-01
3.722666e-01 2.506594e+00 -7.716064e+00 7.291992e+00 -1.241066e-04 1.609504e-02 -2.026367e-01 1.970215e-01
3.775291e-01 2.530882e+00 -7.730957e+00 5.829834e+00 -8.081998e-05 1.242144e-02 -1.938477e-01 1.877441e-01
3.910527e-01 2.482458e+00 -8.756836e+00 6.972168e+00 -1.032776e-04 1.860990e-02 -1.733398e-01 1.677246e-01
4.658026e-01 2.604719e+00 -7.788818e+00 6.492920e+00 1.146261e-04 1.514068e-02 -2.062988e-01 1.901855e-01
3.574709e-01 2.487897e+00 -7.840820e+00 6.306641e+00 -3.736743e-04 1.520670e-02 -2.026367e-01 1.918945e-01
3.836963e-01 2.479083e+00 -7.538330e+00 5.831787e+00 -3.003072e-04 1.525566e-02 -2.062988e-01 1.938477e-01
3.893782e-01 2.540406e+00 -8.241943e+00 6.131836e+00 -1.585162e-04 1.538224e-02 -1.857910e-01 1.635742e-01
3.723277e-01 2.582963e+00 -8.234863e+00 6.131836e+00 -4.747179e-05 1.461642e-02 -1.933594e-01 1.733398e-01
4.065111e-01 2.532625e+00 -8.167725e+00 6.125732e+00 2.728284e-06 1.558822e-02 -1.982422e-01 1.938477e-01
3.970179e-01 2.605728e+00 -8.233154e+00 6.531738e+00 -6.707103e-05 1.418801e-02 -1.857910e-01 1.733398e-01
4.226682e-01 2.594831e+00 -8.194824e+00 5.931396e+00 -8.424204e-05 1.464624e-02 -1.877441e-01 1.857910e-01
4.784877e-01 2.590581e+00 -8.401855e+00 6.555420e+00 9.662772e-05 1.451817e-02 -1.982422e-01 1.887207e-01
5.124118e-01 2.567407e+00 -8.879883e+00 7.049316e+00 -4.020099e-05 1.388603e-02 -1.877441e-01 1.806641e-01
5.053442e-01 2.488739e+00 -8.282959e+00 6.570312e+00 1.224519e-04 1.650163e-02 -2.026367e-01 1.997070e-01
5.330427e-01 2.488543e+00 -8.470215e+00 7.733887e+00 -7.631909e-05 1.519171e-02 -1.857910e-01 1.857910e-01
5.056252e-01 2.511281e+00 -7.639648e+00 6.525879e+00 4.630277e-05 1.622601e-02 -2.026367e-01 1.938477e-01
4.409915e-01 2.560708e+00 -7.855957e+00 6.566895e+00 -1.852146e-04 1.515935e-02 -1.982422e-01 1.857910e-01
6.492799e-01 2.468763e+00 -7.964111e+00 6.569824e+00 -3.552145e-06 1.504923e-02 -1.857910e-01 1.738281e-01
5.213809e-01 2.560245e+00 -7.431396e+00 7.205078e+00 -4.273502e-04 1.618848e-02 -1.938477e-01 1.901855e-01
6.128985e-01 2.559261e+00 -7.888184e+00 6.272949e+00 1.509991e-04 1.351984e-02 -1.733398e-01 1.738281e-01
5.671861e-01 2.543073e+00 -7.685303e+00 7.225342e+00 -1.493462e-04 1.474102e-02 -2.026367e-01 1.877441e-01
5.339978e-01 2.661435e+00 -7.770508e+00 7.324707e+00 7.929887e-06 1.590839e-02 -1.982422e-01 1.901855e-01
5.502614e-01 2.371503e+00 -6.638428e+00 6.569336e+00 2.457502e-04 1.674975e-02 -1.982422e-01 1.901855e-01
5.342738e-01 2.575477e+00 -8.530029e+00 7.865723e+00 5.950884e-05 1.478404e-02 -1.933594e-01 1.901855e-01
5.523285e-01 2.560649e+00 -7.503174e+00 7.133789e+00 -9.199849e-05 1.403765e-02 -2.026367e-01 1.806641e-01
6.198162e-01 2.537695e+00 -7.626709e+00 6.162842e+00 2.758133e-04 1.461276e-02 -2.026367e-01 1.865234e-01
5.957503e-01 2.503828e+00 -7.659180e+00 6.536865e+00 -8.078876e-05 1.618909e-02 -2.062988e-01 1.901855e-01
6.213036e-01 2.560751e+00 -7.386475e+00 7.325195e+00 3.147135e-04 1.631902e-02 -2.062988e-01 1.857910e-01
4.234861e-01 2.666052e+00 -7.808838e+00 7.263672e+00 -1.603929e-04 1.424555e-02 -2.092285e-01 1.806641e-01
4.732242e-01 2.517230e+00 -7.782227e+00 6.877686e+00 -2.410360e-05 1.568535e-02 -1.933594e-01 1.877441e-01
4.126293e-01 2.587485e+00 -7.777100e+00 6.701660e+00 2.484039e-04 1.356109e-02 -1.857910e-01 1.970215e-01
4.867896e-01 2.690647e+00 -8.002197e+00 7.059814e+00 2.437677e-04 1.302012e-02 -1.677246e-01 1.811523e-01
3.782156e-01 2.623735e+00 -7.800049e+00 6.723633e+00 -9.569806e-05 1.654029e-02 -2.092285e-01 1.989746e-01
4.809759e-01 2.578055e+00 -7.886719e+00 7.300781e+00 1.897484e-06 1.634892e-02 -1.982422e-01 2.026367e-01
3.928563e-01 2.651636e+00 -7.771484e+00 6.575928e+00 2.533713e-04 1.471653e-02 -1.901855e-01 1.877441e-01
4.195583e-01 2.580671e+00 -7.595947e+00 6.110596e+00 -4.338890e-05 1.516829e-02 -1.982422e-01 1.938477e-01
4.158645e-01 2.605627e+00 -8.663818e+00 8.309326e+00 1.248454e-04 1.594665e-02 -1.938477e-01 2.026367e-01
4.339672e-01 2.651852e+00 -7.528076e+00 6.475830e+00 -4.415553e-05 1.375579e-02 -1.877441e-01 1.901855e-01
6.184003e-01 2.650055e+00 -8.090332e+00 8.844482e+00 3.682905e-04 1.315978e-02 -1.623535e-01 1.901855e-01
5.403127e-01 2.692545e+00 -8.203125e+00 8.799072e+00 -1.712401e-04 1.269881e-02 -2.026367e-01 1.901855e-01
4.976838e-01 2.633884e+00 -7.327393e+00 6.852295e+00 1.141612e-04 1.512849e-02 -1.970215e-01 1.936035e-01
4.621900e-01 2.621347e+00 -7.215088e+00 7.119873e+00 1.804171e-05 1.303909e-02 -1.857910e-01 1.806641e-01
6.466132e-01 2.588953e+00 -7.289062e+00 6.549072e+00 1.145272e-04 1.756004e-02 -2.062988e-01 1.901855e-01
5.776487e-01 2.651338e+00 -8.078857e+00 6.641846e+00 -1.931999e-05 1.605354e-02 -1.982422e-01 1.901855e-01
6.346448e-01 2.732234e+00 -8.418213e+00 7.184326e+00 2.603039e-04 1.751014e-02 -1.735840e-01 1.984863e-01
6.837928e-01 2.659054e+00 -7.856934e+00 7.317871e+00 4.265176e-05 1.504764e-02 -2.026367e-01 2.004395e-01
7.004424e-01 2.809005e+00 -8.922852e+00 8.752686e+00 -4.818291e-05 1.464192e-02 -2.026367e-01 1.857910e-01
6.754935e-01 2.732052e+00 -8.856445e+00 7.206299e+00 -8.774563e-05 1.542050e-02 -1.982422e-01 1.970215e-01
6.423400e-01 2.743496e+00 -8.519043e+00 7.350586e+00 -2.069888e-05 1.310881e-02 -1.857910e-01 1.677246e-01
5.094474e-01 2.757943e+00 -9.009521e+00 8.694824e+00 -1.619261e-04 1.550537e-02 -2.062988e-01 1.970215e-01
5.653595e-01 2.840190e+00 -8.339600e+00 7.992432e+00 2.171526e-06 1.300663e-02 -2.062988e-01 2.021484e-01
5.973969e-01 2.835506e+00 -8.544922e+00 8.778320e+00 2.961809e-04 1.666711e-02 -1.982422e-01 2.062988e-01
4.918111e-01 2.856786e+00 -8.526855e+00 8.638916e+00 1.952553e-04 1.350715e-02 -2.026367e-01 1.997070e-01
6.197644e-01 2.733567e+00 -7.588379e+00 6.912354e+00 3.482768e-04 1.463620e-02 -1.735840e-01 1.811523e-01
4.415965e-01 2.917482e+00 -9.313232e+00 7.486084e+00 1.287132e-05 1.873663e-02 -2.062988e-01 2.026367e-01
3.596342e-01 2.906218e+00 -9.186279e+00 6.373779e+00 -7.668333e-05 1.382778e-02 -1.877441e-01 1.936035e-01
4.994461e-01 2.848693e+00 -9.795654e+00 6.815674e+00 -1.003065e-04 1.595926e-02 -1.877441e-01 1.857910e-01
4.119571e-01 2.967045e+00 -9.089844e+00 7.006104e+00 -8.276777e-05 1.292699e-02 -2.026367e-01 1.918945e-01
3.803354e-01 2.955235e+00 -9.821289e+00 8.754395e+00 1.658182e-04 1.583353e-02 -1.877441e-01 1.936035e-01
4.112889e-01 2.873063e+00 -8.486816e+00 6.156738e+00 -4.455272e-05 1.368989e-02 -1.735840e-01 1.877441e-01
3.556446e-01 2.907744e+00 -9.442383e+00 7.043213e+00 -2.159125e-04 1.428825e-02 -1.982422e-01 1.877441e-01
4.684327e-01 2.928431e+00 -8.477051e+00 6.711182e+00 3.734609e-05 1.404588e-02 -1.933594e-01 1.850586e-01
4.299731e-01 2.934743e+00 -9.600586e+00 8.779785e+00 -6.871528e-05 1.370353e-02 -1.877441e-01 1.877441e-01
4.865822e-01 2.706676e+00 -7.796387e+00 6.384033e+00 -6.820536e-05 1.422569e-02 -1.616211e-01 1.811523e-01
4.770647e-01 2.859166e+00 -9.566162e+00 8.903809e+00 -2.000996e-04 1.544424e-02 -1.877441e-01 1.811523e-01
4.469676e-01 2.787905e+00 -9.340576e+00 6.380127e+00 -1.066285e-04 1.536278e-02 -2.026367e-01 1.918945e-01
4.859372e-01 2.839060e+00 -8.634766e+00 7.078369e+00 2.500377e-05 1.272265e-02 -1.677246e-01 1.738281e-01
5.011570e-01 2.807507e+00 -9.431641e+00 8.842285e+00 -9.098210e-05 1.607918e-02 -1.982422e-01 1.877441e-01
5.479087e-01 2.799821e+00 -8.047363e+00 6.033447e+00 1.212291e-04 1.568112e-02 -1.877441e-01 1.936035e-01
4.044673e-01 2.864532e+00 -8.835693e+00 7.411865e+00 7.287795e-05 1.481245e-02 -1.877441e-01 1.806641e-01
2.377900e-01 2.753595e+00 -8.882080e+00 7.063477e+00 -3.225376e-05 1.647251e-02 -1.938477e-01 1.738281e-01
3.367249e-01 2.819875e+00 -9.496582e+00 6.868896e+00 -5.768369e-04 1.395965e-02 -1.811523e-01 1.682129e-01
2.900240e-01 2.873301e+00 -9.272949e+00 7.520996e+00 -1.959057e-05 1.680386e-02 -1.982422e-01 1.936035e-01
1.954499e-01 2.814165e+00 -9.721191e+00 7.522461e+00 -1.772864e-04 1.626300e-02 -1.982422e-01 1.936035e-01
2.742752e-01 2.846437e+00 -8.962891e+00 6.545654e+00 -3.113920e-04 1.396246e-02 -1.933594e-01 1.857910e-01
2.404647e-01 2.819802e+00 -8.489746e+00 6.688477e+00 -1.288225e-04 1.552971e-02 -1.982422e-01 1.936035e-01
3.607757e-01 2.882160e+00 -9.161377e+00 6.957764e+00 -2.192739e-04 1.330226e-02 -1.933594e-01 1.936035e-01
3.580823e-01 2.783853e+00 -9.631592e+00 7.332764e+00 -1.517467e-05 1.629142e-02 -1.877441e-01 1.877441e-01
2.836687e-01 2.771800e+00 -9.149170e+00 6.930176e+00 8.704491e-05 1.560405e-02 -1.933594e-01 1.877441e-01
3.143632e-01 2.868747e+00 -9.210693e+00 7.289795e+00 -2.025070e-04 1.411293e-02 -1.877441e-01 1.877441e-01
3.921373e-01 2.792130e+00 -1.000513e+01 9.160400e+00 2.214263e-04 1.509064e-02 -1.933594e-01 1.970215e-01
4.963975e-01 2.833328e+00 -9.248535e+00 9.219727e+00 -2.684749e-05 1.623875e-02 -1.933594e-01 1.984863e-01
6.015411e-01 2.938048e+00 -8.393555e+00 8.319336e+00 -1.731151e-05 1.517342e-02 -1.933594e-01 1.936035e-01
5.265559e-01 2.857280e+00 -7.759033e+00 8.294678e+00 1.595794e-04 1.226395e-02 -1.572266e-01 1.738281e-01
5.752518e-01 2.828774e+00 -8.469482e+00 8.007568e+00 -2.962434e-04 1.519725e-02 -2.026367e-01 1.918945e-01
5.758495e-01 2.825248e+00 -8.472900e+00 8.518799e+00 -6.025292e-05 1.811580e-02 -2.062988e-01 1.918945e-01
5.440468e-01 2.802953e+00 -7.931152e+00 7.792236e+00 -3.034674e-04 1.428667e-02 -2.026367e-01 1.918945e-01
6.139973e-01 2.859784e+00 -7.918701e+00 8.675293e+00 -6.015232e-05 1.483530e-02 -1.933594e-01 1.857910e-01
5.054180e-01 2.839296e+00 -8.113281e+00 7.933350e+00 7.952782e-05 1.511492e-02 -1.982422e-01 1.936035e-01
5.669747e-01 2.760061e+00 -9.338623e+00 9.779297e+00 5.537566e-05 1.282360e-02 -1.811523e-01 1.877441e-01
4.964615e-01 2.829598e+00 -7.615723e+00 6.857422e+00 -2.362142e-04 1.259214e-02 -1.933594e-01 1.857910e-01
6.447403e-01 2.753898e+00 -8.662109e+00 7.260498e+00 -2.040576e-05 1.492918e-02 -1.982422e-01 1.936035e-01
5.791024e-01 2.730808e+00 -7.271484e+00 6.957520e+00 -9.598424e-05 1.561734e-02 -2.026367e-01 1.918945e-01
5.866127e-01 2.806272e+00 -8.629639e+00 8.538330e+00 -7.832758e-06 1.566429e-02 -2.026367e-01 1.936035e-01
5.396588e-01 2.813875e+00 -8.670898e+00 7.189941e+00 4.956873e-05 1.591513e-02 -1.877441e-01 1.811523e-01
5.693806e-01 2.788441e+00 -7.772461e+00 7.297852e+00 2.657345e-05 1.550344e-02 -1.933594e-01 1.877441e-01
3.605898e-01 2.733156e+00 -8.278564e+00 6.849609e+00 -1.256693e-04 1.674111e-02 -1.933594e-01 1.936035e-01
4.162365e-01 2.843008e+00 -9.405273e+00 6.828125e+00 -2.215946e-04 1.518301e-02 -1.677246e-01 1.562500e-01
4.079412e-01 2.764679e+00 -9.734863e+00 8.437012e+00 -2.330488e-04 1.516724e-02 -1.933594e-01 1.811523e-01
5.468493e-01 2.848344e+00 -1.010034e+01 8.914062e+00 2.740910e-04 1.480611e-02 -1.677246e-01 1.877441e-01
5.654828e-01 2.989413e+00 -1.014722e+01 9.016357e+00 -1.143538e-04 1.415868e-02 -1.933594e-01 1.936035e-01
5.256709e-01 2.886162e+00 -8.761719e+00 7.361816e+00 1.267030e-04 1.586135e-02 -1.933594e-01 1.936035e-01
5.852628e-01 2.829539e+00 -7.811768e+00 8.091553e+00 1.841617e-04 1.739149e-02 -1.877441e-01 1.936035e-01
4.518463e-01 2.899982e+00 -8.882812e+00 6.866699e+00 -3.864693e-05 1.398508e-02 -1.877441e-01 1.936035e-01
4.513835e-01 2.855076e+00 -9.513184e+00 6.613037e+00 1.309472e-04 1.550607e-02 -2.026367e-01 2.026367e-01
4.348997e-01 3.014259e+00 -1.077930e+01 9.175293e+00 2.670006e-05 1.497745e-02 -2.026367e-01 1.984863e-01
4.867695e-01 2.933694e+00 -1.064819e+01 9.156494e+00 1.476291e-04 1.571396e-02 -1.933594e-01 1.936035e-01
4.814775e-01 2.904130e+00 -1.062622e+01 9.136719e+00 2.144296e-05 1.508243e-02 -1.933594e-01 1.901855e-01
5.879805e-01 2.902317e+00 -9.422363e+00 7.904053e+00 -1.290081e-05 1.556235e-02 -1.982422e-01 1.984863e-01
5.795121e-01 2.838215e+00 -9.592285e+00 7.364014e+00 3.830871e-05 1.383417e-02 -1.877441e-01 1.901855e-01
4.920246e-01 2.972838e+00 -9.930420e+00 7.471924e+00 1.433034e-04 1.344293e-02 -1.877441e-01 1.936035e-01
4.212250e-01 2.871850e+00 -9.506836e+00 7.247803e+00 -3.714975e-04 1.655263e-02 -2.026367e-01 1.877441e-01
4.214969e-01 2.856272e+00 -9.612061e+00 7.190918e+00 1.250709e-05 1.551144e-02 -1.850586e-01 1.738281e-01
3.709183e-01 2.935607e+00 -1.017529e+01 7.195068e+00 1.495231e-04 1.573498e-02 -1.877441e-01 1.857910e-01
2.731619e-01 2.903384e+00 -9.662109e+00 7.875000e+00 -2.101212e-04 1.440954e-02 -1.877441e-01 1.733398e-01
3.659575e-01 2.978572e+00 -1.003052e+01 7.354004e+00 -2.033863e-04 1.343027e-02 -2.062988e-01 1.918945e-01
3.623202e-01 2.891436e+00 -9.140137e+00 7.098145e+00 -1.103611e-04 1.413559e-02 -1.877441e-01 1.877441e-01
3.291347e-01 2.912608e+00 -9.784668e+00 8.068115e+00 -3.434221e-04 1.573110e-02 -2.026367e-01 1.887207e-01
3.600829e-01 2.936022e+00 -9.671143e+00 7.565674e+00 2.044964e-04 1.554695e-02 -1.877441e-01 1.936035e-01
3.876327e-01 2.921535e+00 -9.082275e+00 7.484863e+00 -2.487490e-04 1.672833e-02 -2.062988e-01 2.026367e-01
4.380643e-01 2.940309e+00 -1.000293e+01 7.492188e+00 1.415655e-05 1.519695e-02 -2.026367e-01 1.887207e-01
4.237819e-01 2.872746e+00 -9.538818e+00 7.608154e+00 6.030669e-05 1.481491e-02 -1.877441e-01 1.811523e-01
4.707013e-01 2.919488e+00 -9.331543e+00 6.580078e+00 -1.767921e-04 1.604953e-02 -2.026367e-01 1.918945e-01
4.624228e-01 2.859593e+00 -9.538330e+00 7.133057e+00 5.754892e-06 1.662243e-02 -1.982422e-01 1.936035e-01
4.152941e-01 2.837593e+00 -9.572266e+00 7.436279e+00 -2.174961e-04 1.499563e-02 -2.026367e-01 1.806641e-01
4.896153e-01 2.886069e+00 -9.577637e+00 7.054688e+00 -2.052439e-04 1.566244e-02 -1.811523e-01 1.811523e-01
3.065515e-01 2.788952e+00 -9.702637e+00 7.240234e+00 -1.312768e-04 1.600453e-02 -1.938477e-01 1.936035e-01
1.417701e-01 2.775381e+00 -9.497803e+00 6.560059e+00 -3.393218e-04 1.554546e-02 -2.026367e-01 1.945801e-01
9.618902e-02 2.833210e+00 -1.034668e+01 6.361816e+00 -4.284082e-07 1.593115e-02 -1.811523e-01 1.738281e-01
1.108214e-01 2.828034e+00 -9.926270e+00 6.812744e+00 1.847029e-04 1.435922e-02 -1.982422e-01 1.936035e-01
1.825603e-01 2.896679e+00 -1.137500e+01 8.536621e+00 -1.849596e-04 1.745541e-02 -1.933594e-01 1.877441e-01
8.429921e-02 2.863298e+00 -1.001196e+01 6.163818e+00 1.156407e-04 1.608958e-02 -1.811523e-01 1.811523e-01
7.709860e-02 2.882020e+00 -9.998291e+00 6.583984e+00 -1.795585e-04 1.585761e-02 -2.026367e-01 1.918945e-01
1.243468e-01 2.934789e+00 -1.131274e+01 8.774414e+00 -2.912915e-04 1.606329e-02 -2.026367e-01 1.945801e-01
1.127792e-01 2.893089e+00 -9.421143e+00 7.126953e+00 -2.504193e-04 1.603830e-02 -1.982422e-01 1.936035e-01
1.150322e-01 2.960780e+00 -1.028687e+01 7.198242e+00 -2.333073e-04 1.425014e-02 -2.026367e-01 1.918945e-01
2.248285e-01 2.936117e+00 -1.126611e+01 8.896973e+00 9.206440e-06 1.519903e-02 -2.026367e-01 1.936035e-01
3.294019e-01 2.835065e+00 -9.138428e+00 6.477783e+00 2.693942e-04 1.695096e-02 -1.933594e-01 2.026367e-01
3.602500e-01 2.782372e+00 -8.741943e+00 6.425537e+00 -4.451109e-05 1.720000e-02 -1.982422e-01 1.936035e-01
3.142865e-01 2.914412e+00 -9.991943e+00 7.488770e+00 2.148736e-04 1.691482e-02 -1.982422e-01 1.887207e-01
3.113627e-01 2.851766e+00 -9.018066e+00 7.892578e+00 1.217963e-04 1.684835e-02 -1.982422e-01 1.938477e-01
2.713626e-01 2.880394e+00 -9.673828e+00 7.918945e+00 -2.379660e-06 1.455017e-02 -1.877441e-01 1.901855e-01
2.174805e-01 2.962903e+00 -1.133740e+01 9.251953e+00 -3.275796e-04 1.413419e-02 -1.933594e-01 1.901855e-01
1.579565e-01 2.765459e+00 -8.940918e+00 7.801025e+00 -5.259014e-05 1.636665e-02 -1.635742e-01 1.811523e-01
2.609714e-01 2.910521e+00 -9.150879e+00 8.420898e+00 -2.402069e-04 1.290851e-02 -1.877441e-01 1.738281e-01
3.734308e-01 2.903736e+00 -1.000830e+01 7.899414e+00 1.003724e-05 1.542669e-02 -1.877441e-01 1.850586e-01
2.521453e-01 2.954462e+00 -9.876221e+00 7.371094e+00 -1.134328e-04 1.598333e-02 -2.026367e-01 2.062988e-01
3.877863e-01 2.949586e+00 -9.635742e+00 8.476074e+00 3.107798e-04 1.645112e-02 -2.026367e-01 2.026367e-01
3.471365e-01 2.824091e+00 -1.001367e+01 6.815918e+00 -8.688014e-05 1.801946e-02 -1.982422e-01 1.984863e-01
3.581877e-01 2.912491e+00 -9.790527e+00 7.857422e+00 -4.669302e-05 1.503784e-02 -1.691895e-01 1.655273e-01
3.818138e-01 2.881890e+00 -1.067310e+01 9.567871e+00 -1.056278e-05 1.611488e-02 -1.901855e-01 1.936035e-01
7.590352e-01 3.003662e+00 -1.067261e+01 9.659180e+00 -2.386372e-04 1.773281e-02 -1.933594e-01 1.984863e-01
8.406382e-01 2.962094e+00 -8.315430e+00 8.449219e+00 2.718206e-04 1.535870e-02 -1.735840e-01 1.738281e-01
8.200148e-01 3.041262e+00 -1.038208e+01 9.779297e+00 4.411303e-04 1.601283e-02 -1.933594e-01 1.936035e-01
7.416137e-01 3.128747e+00 -1.052734e+01 9.651611e+00 1.215465e-04 1.650809e-02 -1.970215e-01 1.877441e-01
7.070446e-01 2.974096e+00 -8.732666e+00 8.437256e+00 3.782827e-05 1.419552e-02 -1.938477e-01 1.877441e-01
6.922883e-01 3.043298e+00 -1.056030e+01 9.501953e+00 3.350950e-05 1.262467e-02 -1.652832e-01 1.738281e-01
4.031645e-01 3.102765e+00 -9.808350e+00 7.234863e+00 -1.013055e-04 1.266804e-02 -1.933594e-01 1.901855e-01
3.080090e-01 3.134080e+00 -1.119092e+01 9.258057e+00 -9.579345e-06 1.465599e-02 -2.026367e-01 1.984863e-01
3.092127e-01 3.070072e+00 -1.057373e+01 8.586426e+00 -4.160936e-06 1.741401e-02 -2.026367e-01 1.936035e-01
3.252125e-01 2.997288e+00 -9.433350e+00 7.979736e+00 6.871355e-05 1.701749e-02 -1.933594e-01 1.887207e-01
2.477670e-01 3.006534e+00 -1.125488e+01 9.199707e+00 -1.759908e-04 1.494330e-02 -1.735840e-01 1.811523e-01
3.424729e-01 3.004276e+00 -9.308838e+00 8.573486e+00 -1.888014e-04 1.683706e-02 -2.026367e-01 1.938477e-01
3.454579e-01 3.083081e+00 -1.126514e+01 9.309326e+00 6.484053e-05 1.497519e-02 -1.982422e-01 1.936035e-01
3.616357e-01 3.103289e+00 -1.057446e+01 7.520508e+00 -6.082008e-05 1.584728e-02 -1.735840e-01 1.936035e-01
4.137690e-01 2.916439e+00 -1.014282e+01 7.130371e+00 -1.673151e-04 1.570212e-02 -1.811523e-01 1.811523e-01
3.525834e-01 3.066138e+00 -1.144482e+01 9.327881e+00 -6.070388e-05 1.529813e-02 -1.735840e-01 1.877441e-01
4.242361e-01 3.037104e+00 -1.143677e+01 9.932617e+00 -3.833993e-05 1.361808e-02 -1.857910e-01 1.984863e-01
5.058452e-01 2.857758e+00 -8.748779e+00 7.959961e+00 -1.216194e-05 1.635242e-02 -1.652832e-01 1.655273e-01
4.479666e-01 3.007990e+00 -1.074780e+01 9.864502e+00 1.527093e-04 1.476541e-02 -1.811523e-01 1.738281e-01
5.155514e-01 2.884521e+00 -1.073560e+01 9.757080e+00 -2.707557e-04 1.682221e-02 -1.811523e-01 1.635742e-01
5.113421e-01 3.029168e+00 -9.504639e+00 7.952393e+00 -4.001020e-05 1.381587e-02 -1.811523e-01 1.738281e-01
4.273158e-01 2.998837e+00 -8.849854e+00 9.381592e+00 -2.753329e-04 1.556551e-02 -1.982422e-01 1.938477e-01
4.877152e-01 3.015955e+00 -1.094263e+01 9.933594e+00 -1.422471e-04 1.571697e-02 -2.062988e-01 2.026367e-01
5.031162e-01 3.001688e+00 -1.078198e+01 9.764893e+00 -6.600955e-05 1.723058e-02 -2.062988e-01 2.026367e-01
4.859119e-01 2.935346e+00 -8.269287e+00 9.302734e+00 -6.459424e-05 1.550509e-02 -1.811523e-01 1.738281e-01
5.321873e-01 2.973454e+00 -9.600342e+00 9.302734e+00 9.196900e-05 1.544948e-02 -2.026367e-01 2.026367e-01
3.221323e-01 2.964626e+00 -9.656982e+00 7.511719e+00 -4.281827e-05 1.451358e-02 -1.945801e-01 1.936035e-01
3.712426e-01 3.026505e+00 -9.765137e+00 8.878662e+00 1.846838e-05 1.435443e-02 -1.933594e-01 1.811523e-01
3.265577e-01 3.050809e+00 -9.768555e+00 7.878906e+00 1.496098e-04 1.599558e-02 -1.982422e-01 1.950684e-01
4.513421e-01 2.933589e+00 -8.914307e+00 8.826172e+00 -6.292397e-05 1.531414e-02 -1.877441e-01 1.811523e-01
3.266091e-01 2.981392e+00 -9.739502e+00 7.279785e+00 -3.613909e-04 1.648514e-02 -1.982422e-01 1.811523e-01
3.533039e-01 2.974516e+00 -9.074951e+00 7.886963e+00 -1.178695e-04 1.232526e-02 -1.333008e-01 1.337891e-01
2.840362e-01 2.940832e+00 -1.006030e+01 7.570068e+00 -9.581774e-05 1.777880e-02 -2.026367e-01 1.970215e-01
2.806693e-01 3.029028e+00 -9.038818e+00 8.666016e+00 -1.559631e-04 1.665727e-02 -1.933594e-01 1.936035e-01
2.532576e-01 2.980350e+00 -1.044653e+01 8.726562e+00 -8.841859e-05 1.613087e-02 -1.933594e-01 1.811523e-01
3.343283e-01 3.001625e+00 -1.052026e+01 8.838135e+00 -9.784704e-05 1.693996e-02 -2.092285e-01 1.938477e-01
3.373129e-01 3.071606e+00 -9.435303e+00 8.768311e+00 -5.033362e-05 1.803094e-02 -1.933594e-01 1.984863e-01
3.757613e-01 3.046887e+00 -9.913574e+00 7.480713e+00 -2.221305e-05 1.558833e-02 -1.811523e-01 1.811523e-01
2.592582e-01 3.006370e+00 -1.041821e+01 8.528076e+00 -2.294915e-04 1.441466e-02 -1.811523e-01 1.738281e-01
2.992903e-01 2.938825e+00 -9.035645e+00 8.439209e+00 4.995205e-05 1.731960e-02 -1.933594e-01 1.877441e-01
2.998868e-01 3.015011e+00 -1.026880e+01 8.415771e+00 -3.999286e-05 1.525528e-02 -1.735840e-01 1.811523e-01
2.760642e-01 3.086616e+00 -9.164307e+00 7.146729e+00 -1.597546e-04 1.272534e-02 -1.811523e-01 1.811523e-01
6.669298e-01 3.059372e+00 -9.510254e+00 7.549316e+00 1.647672e-04 1.270234e-02 -1.901855e-01 1.984863e-01
6.776743e-01 3.054319e+00 -9.906982e+00 9.217041e+00 4.168307e-04 1.621522e-02 -1.857910e-01 1.984863e-01
5.158094e-01 2.921904e+00 -7.617432e+00 8.790283e+00 1.716789e-04 1.579644e-02 -1.877441e-01 1.811523e-01
6.903138e-01 2.971881e+00 -7.753662e+00 8.727295e+00 1.802905e-04 1.553830e-02 -1.811523e-01 2.026367e-01
5.475889e-01 3.025231e+00 -9.370117e+00 8.716797e+00 4.291644e-04 1.657242e-02 -2.026367e-01 2.026367e-01
6.200518e-01 3.021491e+00 -8.415527e+00 8.745117e+00 1.507875e-04 1.474488e-02 -1.933594e-01 1.970215e-01
5.290120e-01 3.015568e+00 -9.544434e+00 7.563721e+00 -9.980523e-05 1.423157e-02 -1.982422e-01 1.877441e-01
4.279224e-01 2.963536e+00 -9.893555e+00 8.874023e+00 -5.382160e-05 1.602570e-02 -1.901855e-01 1.811523e-01
2.718873e-01 3.165799e+00 -8.763916e+00 8.491455e+00 -1.565997e-04 1.414028e-02 -1.982422e-01 1.938477e-01
3.033160e-01 3.026496e+00 -9.232910e+00 7.116455e+00 8.458373e-05 1.422593e-02 -1.933594e-01 1.901855e-01
3.831140e-01 3.217370e+00 -1.047021e+01 7.969971e+00 -1.285728e-04 1.255790e-02 -2.026367e-01 1.938477e-01
4.115155e-01 3.051715e+00 -1.047681e+01 8.147949e+00 1.891708e-04 1.491662e-02 -1.652832e-01 1.738281e-01
4.421350e-01 3.134580e+00 -9.406738e+00 7.939453e+00 1.593297e-04 1.786580e-02 -1.982422e-01 2.026367e-01
3.215537e-01 3.052363e+00 -9.603027e+00 8.595215e+00 -2.122841e-04 1.340402e-02 -1.735840e-01 1.562500e-01
3.434939e-01 3.023198e+00 -8.628906e+00 7.037842e+00 1.602090e-04 1.517016e-02 -1.857910e-01 1.877441e-01
3.584203e-01 3.060938e+00 -8.879639e+00 7.417969e+00 -1.487530e-04 1.219564e-02 -1.933594e-01 1.877441e-01
4.313696e-01 2.965104e+00 -9.838135e+00 7.417969e+00 2.730209e-04 1.827154e-02 -1.933594e-01 1.936035e-01
3.729134e-01 3.026632e+00 -8.001709e+00 8.545898e+00 -1.997943e-04 1.453475e-02 -1.877441e-01 1.901855e-01
3.624849e-01 2.963990e+00 -8.730957e+00 7.366211e+00 -2.104924e-04 1.652103e-02 -1.933594e-01 1.733398e-01
2.944254e-01 3.097621e+00 -9.148682e+00 6.642090e+00 -3.716103e-04 1.295050e-02 -1.982422e-01 1.811523e-01
2.982122e-01 2.944996e+00 -8.916016e+00 6.362549e+00 -2.498470e-05 1.628871e-02 -1.982422e-01 1.936035e-01
4.250394e-01 3.074636e+00 -1.078101e+01 8.289307e+00 -7.045667e-05 1.411165e-02 -1.933594e-01 1.811523e-01
3.577153e-01 3.035610e+00 -1.015186e+01 6.615967e+00 -6.631308e-05 1.453713e-02 -1.933594e-01 1.877441e-01
3.360572e-01 3.080497e+00 -9.635742e+00 8.477295e+00 -2.746495e-05 1.435712e-02 -1.877441e-01 1.936035e-01
2.850792e-01 3.047566e+00 -1.103052e+01 8.477295e+00 5.070653e-05 1.404518e-02 -1.733398e-01 1.738281e-01
2.963784e-01 3.079237e+00 -1.103052e+01 8.462402e+00 -2.092800e-04 1.391741e-02 -1.735840e-01 1.655273e-01
6.805271e-01 3.129185e+00 -8.818359e+00 8.930420e+00 2.672486e-04 1.386429e-02 -1.933594e-01 1.984863e-01
7.757084e-01 3.122855e+00 -9.916748e+00 9.325684e+00 6.570602e-05 1.327145e-02 -1.877441e-01 1.857910e-01
7.135377e-01 3.188322e+00 -8.889648e+00 8.916504e+00 7.427071e-05 1.456986e-02 -1.982422e-01 2.062988e-01
4.257750e-01 3.034456e+00 -7.871094e+00 8.650146e+00 2.073790e-04 1.713742e-02 -1.933594e-01 1.936035e-01
5.280584e-01 2.983708e+00 -8.561523e+00 8.014160e+00 1.319740e-05 1.636530e-02 -1.982422e-01 1.901855e-01
4.987343e-01 2.852259e+00 -9.933350e+00 9.002686e+00 1.301632e-04 1.402922e-02 -1.806641e-01 1.984863e-01
5.824099e-01 2.975267e+00 -9.496338e+00 8.845703e+00 -3.706511e-06 1.699606e-02 -1.887207e-01 1.877441e-01
3.724496e-01 3.239334e+00 -1.066748e+01 9.103516e+00 -2.157547e-04 1.341006e-02 -1.933594e-01 1.811523e-01
3.132517e-01 3.150457e+00 -1.119141e+01 9.103516e+00 -1.888465e-05 1.733067e-02 -1.933594e-01 1.877441e-01
