3.223743e+02 4.811083e-01 8.521839e-03 5.708003e-01 -9.999847e-01 9.998169e-01
3.159039e+02 4.811083e-01 7.418295e-03 5.708492e-01 -1.064163e+00 1.015854e+00
3.161066e+02 4.811083e-01 7.700004e-03 5.707364e-01 -1.023300e+00 1.005234e+00
3.154062e+02 4.811083e-01 7.888557e-03 5.706432e-01 -1.022995e+00 1.005157e+00
3.156671e+02 4.811083e-01 7.949387e-03 5.705976e-01 -1.005569e+00 1.003311e+00
3.148059e+02 4.811083e-01 7.876960e-03 5.705960e-01 -1.034393e+00 1.006958e+00
3.130911e+02 4.811083e-01 7.785291e-03 5.705533e-01 -1.034393e+00 1.006958e+00
3.129994e+02 4.811083e-01 7.470939e-03 5.704427e-01 -1.012009e+00 1.011719e+00
3.139258e+02 4.811083e-01 7.352964e-03 5.703863e-01 -1.002106e+00 1.011902e+00
3.140741e+02 4.811083e-01 7.628756e-03 5.702069e-01 -1.003220e+00 1.033066e+00
3.118213e+02 4.811083e-01 7.237859e-03 5.703049e-01 -1.004501e+00 1.019653e+00
3.099268e+02 4.811083e-01 6.434194e-03 5.707112e-01 -1.045731e+00 1.061127e+00
3.100299e+02 4.811083e-01 5.111842e-03 5.718581e-01 -1.468323e+00 1.049744e+00
3.100255e+02 4.811083e-01 5.588146e-03 5.719933e-01 -1.457169e+00 1.059402e+00
3.067057e+02 4.811083e-01 4.557033e-03 5.725501e-01 -1.468475e+00 1.081543e+00
3.064724e+02 4.811083e-01 3.875188e-03 5.728386e-01 -1.477127e+00 1.079391e+00
3.074382e+02 4.811083e-01 4.308690e-03 5.730304e-01 -1.501053e+00 1.094925e+00
3.037784e+02 4.811083e-01 2.872453e-03 5.746570e-01 -1.674744e+00 1.132751e+00
2.992778e+02 4.785894e-01 -5.844496e-03 5.824643e-01 -1.811768e+00 1.088165e+00
2.992778e+02 4.785894e-01 -5.844853e-03 5.824658e-01 -1.811768e+00 1.088165e+00
2.993368e+02 4.785894e-01 -5.844884e-03 5.824665e-01 -1.811935e+00 1.088211e+00
2.962869e+02 4.659950e-01 -5.996838e-03 5.831362e-01 -1.875076e+00 1.107605e+00
2.968105e+02 4.823678e-01 -5.671264e-03 5.833827e-01 -1.872696e+00 1.111710e+00
2.914239e+02 4.622166e-01 -3.394056e-03 5.879036e-01 -2.036163e+00 1.558472e+00
2.847179e+02 4.269521e-01 -1.920718e-03 5.906382e-01 -2.024429e+00 1.541397e+00
2.702428e+02 3.828715e-01 1.014685e-03 5.974470e-01 -2.179047e+00 1.989914e+00
2.635106e+02 3.841310e-01 2.711746e-03 6.022503e-01 -2.142548e+00 1.736237e+00
2.631861e+02 3.753149e-01 1.812697e-03 6.034984e-01 -2.143143e+00 1.758133e+00
2.580052e+02 3.828715e-01 1.613953e-03 6.048439e-01 -2.175339e+00 1.783188e+00
2.544348e+02 3.727960e-01 1.395203e-03 6.061028e-01 -2.178040e+00 1.783829e+00
2.535291e+02 3.790932e-01 1.787560e-03 6.066781e-01 -2.184647e+00 1.819397e+00
2.494760e+02 3.677582e-01 2.984315e-03 6.078652e-01 -2.198105e+00 1.934006e+00
2.513056e+02 3.702771e-01 8.837067e-03 6.123296e-01 -2.292480e+00 2.345444e+00
2.465301e+02 3.627204e-01 8.069993e-03 6.135111e-01 -2.318481e+00 2.351883e+00
2.483918e+02 3.664987e-01 5.170305e-03 6.153703e-01 -2.501694e+00 2.440201e+00
2.435770e+02 3.589421e-01 4.329374e-03 6.165796e-01 -2.501755e+00 2.429062e+00
2.427267e+02 3.539043e-01 4.351314e-03 6.167532e-01 -2.501755e+00 2.429062e+00
2.445852e+02 3.602015e-01 3.303222e-03 6.173829e-01 -2.526367e+00 2.429382e+00
2.402204e+02 3.627204e-01 3.282466e-03 6.180095e-01 -2.538483e+00 2.429230e+00
2.388946e+02 3.564232e-01 3.456877e-03 6.185828e-01 -2.542725e+00 2.430023e+00
2.386934e+02 3.589421e-01 1.526102e-03 6.209974e-01 -2.585312e+00 2.460632e+00
2.367711e+02 3.513854e-01 3.734058e-03 6.231126e-01 -2.621643e+00 2.505783e+00
2.329682e+02 3.450882e-01 3.929828e-03 6.236267e-01 -2.614853e+00 2.504715e+00
2.329898e+02 3.463476e-01 3.582372e-03 6.240289e-01 -2.613556e+00 2.515182e+00
2.333764e+02 3.463476e-01 5.756645e-03 6.256907e-01 -2.622437e+00 2.592117e+00
2.298435e+02 3.438287e-01 5.601583e-03 6.263883e-01 -2.647278e+00 2.604263e+00
2.280329e+02 3.450882e-01 4.056360e-03 6.278245e-01 -2.662582e+00 2.604568e+00
2.281188e+02 3.450882e-01 3.755944e-03 6.281037e-01 -2.662613e+00 2.603485e+00
2.285441e+02 3.387909e-01 4.208278e-03 6.290419e-01 -2.678772e+00 2.617935e+00
2.257922e+02 3.350126e-01 4.536594e-03 6.298683e-01 -2.683670e+00 2.631012e+00
2.266061e+02 3.400504e-01 3.842433e-03 6.301780e-01 -2.684860e+00 2.630875e+00
2.269101e+02 3.337531e-01 5.113498e-03 6.320938e-01 -2.709885e+00 2.639816e+00
2.148608e+02 3.274559e-01 3.726445e-03 6.362130e-01 -2.757751e+00 2.703415e+00
2.152903e+02 3.110831e-01 4.303514e-03 6.395819e-01 -2.789047e+00 2.737595e+00
2.117267e+02 3.211587e-01 4.580968e-03 6.409320e-01 -2.813385e+00 2.748642e+00
2.131134e+02 3.173804e-01 5.518939e-03 6.432014e-01 -2.872330e+00 2.791000e+00
2.076667e+02 3.211587e-01 6.223233e-03 6.445218e-01 -2.839752e+00 2.778748e+00
2.067104e+02 3.148615e-01 6.236317e-03 6.446610e-01 -2.855469e+00 2.786774e+00
2.014986e+02 3.022670e-01 7.354384e-03 6.475313e-01 -2.882782e+00 2.806473e+00
1.998361e+02 2.909320e-01 7.123778e-03 6.487434e-01 -2.911621e+00 2.820129e+00
2.014018e+02 2.833753e-01 7.278938e-03 6.496162e-01 -2.923950e+00 2.827576e+00
1.981805e+02 2.909320e-01 7.349275e-03 6.501216e-01 -2.923950e+00 2.827576e+00
1.972679e+02 2.934509e-01 8.263766e-03 6.516986e-01 -2.954239e+00 2.864059e+00
1.927357e+02 2.783375e-01 6.928084e-03 6.552345e-01 -2.984024e+00 2.885513e+00
1.978492e+02 2.821159e-01 8.024172e-03 6.571849e-01 -3.020447e+00 2.937866e+00
1.898970e+02 2.707809e-01 8.151873e-03 6.582119e-01 -2.997879e+00 2.930908e+00
1.880456e+02 2.670025e-01 6.376620e-03 6.599728e-01 -3.026581e+00 2.943497e+00
1.840170e+02 2.481108e-01 -1.359521e-02 6.744044e-01 -3.132339e+00 3.001633e+00
1.807673e+02 2.443325e-01 -1.448981e-02 6.759662e-01 -3.137299e+00 3.026321e+00
1.783895e+02 2.455919e-01 -1.282400e-02 6.768721e-01 -3.122452e+00 3.033768e+00
1.757613e+02 2.443325e-01 -2.861315e-03 6.827242e-01 -3.114883e+00 3.071594e+00
1.694761e+02 2.292191e-01 -3.413235e-03 6.829099e-01 -3.135422e+00 3.094788e+00
1.691770e+02 2.292191e-01 -3.602414e-03 6.835332e-01 -3.149826e+00 3.101593e+00
1.668286e+02 2.279597e-01 -5.271655e-03 6.844867e-01 -3.174042e+00 3.117950e+00
1.671852e+02 2.329975e-01 -5.369508e-03 6.861825e-01 -3.167831e+00 3.135483e+00
1.662967e+02 2.317380e-01 -5.501202e-03 6.872973e-01 -3.169830e+00 3.141495e+00
1.645955e+02 2.254408e-01 -4.636631e-03 6.884903e-01 -3.174255e+00 3.158234e+00
1.613474e+02 2.292191e-01 -5.217648e-03 6.912296e-01 -3.218323e+00 3.211487e+00
1.613986e+02 2.292191e-01 -4.910838e-03 6.917441e-01 -3.187134e+00 3.203888e+00
1.613986e+02 2.292191e-01 -4.618108e-03 6.918577e-01 -3.187057e+00 3.203888e+00
1.585555e+02 2.229219e-01 -4.602778e-03 6.925178e-01 -3.184525e+00 3.210526e+00
1.582812e+02 2.229219e-01 -4.505630e-03 6.930043e-01 -3.175781e+00 3.212250e+00
1.616434e+02 2.204030e-01 -3.512045e-03 6.952615e-01 -3.185349e+00 3.236420e+00
1.563468e+02 2.128463e-01 -3.670848e-03 6.958551e-01 -3.183273e+00 3.238098e+00
1.546691e+02 2.078086e-01 -5.212960e-03 6.970112e-01 -3.219955e+00 3.247559e+00
1.543656e+02 2.078086e-01 -5.027452e-03 6.973013e-01 -3.192184e+00 3.237030e+00
1.546614e+02 2.166247e-01 -3.525352e-03 6.983051e-01 -3.196136e+00 3.257126e+00
1.531770e+02 2.078086e-01 -3.469961e-03 6.987815e-01 -3.189575e+00 3.257477e+00
1.530481e+02 2.153652e-01 -3.829782e-03 6.991595e-01 -3.189941e+00 3.266449e+00
1.515844e+02 2.090680e-01 -3.242901e-03 6.999104e-01 -3.188309e+00 3.274826e+00
1.589230e+02 2.065491e-01 -2.320716e-03 7.109709e-01 -3.289047e+00 3.405380e+00
1.542502e+02 1.977330e-01 -1.505101e-03 7.113314e-01 -3.239075e+00 3.412430e+00
1.502805e+02 1.952141e-01 -2.025391e-03 7.119432e-01 -3.262405e+00 3.410828e+00
1.503036e+02 2.040302e-01 -2.093308e-03 7.129192e-01 -3.271774e+00 3.417252e+00
1.491426e+02 2.002519e-01 -2.430162e-03 7.134953e-01 -3.267685e+00 3.420303e+00
1.471124e+02 1.939547e-01 -3.293858e-03 7.155245e-01 -3.311172e+00 3.405518e+00
1.475983e+02 1.926952e-01 -3.313131e-03 7.157465e-01 -3.287430e+00 3.417603e+00
1.464470e+02 1.926952e-01 -4.498061e-03 7.164401e-01 -3.353088e+00 3.424301e+00
1.445455e+02 2.002519e-01 -4.199422e-03 7.182518e-01 -3.328781e+00 3.431625e+00
1.464610e+02 1.964736e-01 -2.895513e-03 7.189150e-01 -3.349991e+00 3.450348e+00
1.459222e+02 2.065491e-01 -1.651892e-03 7.215705e-01 -3.327042e+00 3.502426e+00
1.439070e+02 2.027708e-01 -4.170066e-04 7.216974e-01 -3.318481e+00 3.474442e+00
1.457273e+02 2.002519e-01 1.971541e-05 7.225739e-01 -3.304092e+00 3.463669e+00
1.439309e+02 2.040302e-01 -5.470256e-04 7.234903e-01 -3.354538e+00 3.485306e+00
1.427434e+02 1.876574e-01 -1.037379e-03 7.245011e-01 -3.363098e+00 3.490631e+00
1.421787e+02 1.939547e-01 -1.297604e-03 7.249378e-01 -3.331757e+00 3.494553e+00
1.421757e+02 1.989924e-01 -7.503645e-04 7.261067e-01 -3.368759e+00 3.496918e+00
1.424197e+02 1.989924e-01 -8.899844e-04 7.263404e-01 -3.334305e+00 3.496918e+00
1.425507e+02 2.015113e-01 -1.322996e-03 7.271067e-01 -3.338608e+00 3.508423e+00
1.424985e+02 2.015113e-01 -2.642369e-03 7.276342e-01 -3.338623e+00 3.508423e+00
1.437921e+02 1.989924e-01 -2.051921e-03 7.282434e-01 -3.347839e+00 3.500946e+00
1.445634e+02 1.952141e-01 -1.272611e-03 7.297039e-01 -3.358887e+00 3.520752e+00
1.417534e+02 1.926952e-01 -1.247068e-03 7.299801e-01 -3.345535e+00 3.518112e+00
1.412252e+02 1.889169e-01 -1.142583e-03 7.307207e-01 -3.343475e+00 3.522827e+00
1.420125e+02 1.914358e-01 5.665802e-04 7.324608e-01 -3.340363e+00 3.565292e+00
1.409043e+02 1.939547e-01 1.094748e-03 7.329333e-01 -3.360321e+00 3.560654e+00
1.395371e+02 1.939547e-01 2.127130e-03 7.347616e-01 -3.383194e+00 3.603027e+00
1.397013e+02 1.901763e-01 2.249017e-03 7.350155e-01 -3.383194e+00 3.592377e+00
1.407788e+02 1.876574e-01 9.776878e-05 7.371279e-01 -3.315094e+00 3.602554e+00
1.398160e+02 1.939547e-01 1.464388e-04 7.377950e-01 -3.350861e+00 3.605484e+00
1.399105e+02 1.939547e-01 3.893112e-04 7.380271e-01 -3.333923e+00 3.618851e+00
1.394050e+02 1.901763e-01 1.138626e-03 7.387142e-01 -3.353943e+00 3.626785e+00
1.389803e+02 1.939547e-01 1.159114e-03 7.393999e-01 -3.354691e+00 3.638351e+00
1.387010e+02 1.926952e-01 1.483246e-03 7.399814e-01 -3.368134e+00 3.642868e+00
1.369157e+02 1.826196e-01 1.604571e-03 7.408746e-01 -3.387421e+00 3.667526e+00
1.383230e+02 1.889169e-01 2.415345e-03 7.417587e-01 -3.397751e+00 3.680008e+00
1.381316e+02 1.914358e-01 2.820773e-03 7.422822e-01 -3.392914e+00 3.675079e+00
1.366859e+02 1.863980e-01 2.797855e-03 7.423235e-01 -3.392654e+00 3.681274e+00
1.393871e+02 1.763224e-01 2.266107e-03 7.454376e-01 -3.403214e+00 3.700516e+00
1.386638e+02 1.826196e-01 1.805918e-03 7.458445e-01 -3.356537e+00 3.701965e+00
1.444392e+02 1.889169e-01 5.317954e-03 7.474096e-01 -3.385620e+00 3.728989e+00
1.388490e+02 1.863980e-01 5.005356e-03 7.483022e-01 -3.389664e+00 3.746780e+00
1.389168e+02 1.801008e-01 4.734083e-03 7.489540e-01 -3.426025e+00 3.751190e+00
1.389168e+02 1.801008e-01 4.968605e-03 7.490216e-01 -3.396698e+00 3.751190e+00
1.389876e+02 1.889169e-01 5.294849e-03 7.492630e-01 -3.365173e+00 3.762955e+00
1.388370e+02 1.863980e-01 3.845934e-03 7.510746e-01 -3.358994e+00 3.793655e+00
1.388861e+02 1.863980e-01 4.110379e-03 7.512392e-01 -3.358994e+00 3.793655e+00
1.430295e+02 1.914358e-01 3.845237e-03 7.523832e-01 -3.392365e+00 3.816055e+00
1.381136e+02 1.851385e-01 3.868927e-03 7.528660e-01 -3.353195e+00 3.827805e+00
1.363315e+02 1.838791e-01 4.151735e-03 7.531781e-01 -3.343292e+00 3.822388e+00
1.355315e+02 1.838791e-01 5.598882e-03 7.565785e-01 -3.372894e+00 3.862885e+00
1.355261e+02 1.838791e-01 5.367369e-03 7.569520e-01 -3.312561e+00 3.858154e+00
1.350529e+02 1.838791e-01 5.330953e-03 7.570998e-01 -3.331833e+00 3.867645e+00
1.333740e+02 1.775819e-01 4.566482e-03 7.579638e-01 -3.335892e+00 3.884094e+00
1.340708e+02 1.851385e-01 4.757849e-03 7.601003e-01 -3.335236e+00 3.917175e+00
1.324602e+02 1.813602e-01 4.788205e-03 7.604678e-01 -3.321289e+00 3.917175e+00
1.373724e+02 1.851385e-01 8.201061e-03 7.683300e-01 -3.406662e+00 3.982956e+00
1.366124e+02 1.876574e-01 7.322406e-03 7.685886e-01 -3.371292e+00 3.984161e+00
1.350849e+02 1.863980e-01 7.475440e-03 7.690651e-01 -3.344330e+00 3.986404e+00
1.338927e+02 1.801008e-01 7.007098e-03 7.696473e-01 -3.313309e+00 4.001968e+00
1.325828e+02 1.788413e-01 6.367206e-03 7.709920e-01 -3.314636e+00 4.005997e+00
1.343300e+02 1.851385e-01 7.136549e-03 7.722276e-01 -3.323669e+00 4.013382e+00
1.325529e+02 1.750630e-01 5.785131e-03 7.724232e-01 -3.336090e+00 4.008713e+00
1.336096e+02 1.813602e-01 6.234437e-03 7.727392e-01 -3.313553e+00 4.015289e+00
1.323632e+02 1.712846e-01 6.118261e-03 7.729933e-01 -3.305069e+00 4.018509e+00
1.334762e+02 1.801008e-01 6.035537e-03 7.732980e-01 -3.323410e+00 4.019424e+00
1.349671e+02 1.851385e-01 4.583795e-03 7.744288e-01 -3.339050e+00 4.047867e+00
1.349760e+02 1.851385e-01 4.456625e-03 7.746604e-01 -3.293732e+00 4.047867e+00
1.329043e+02 1.788413e-01 4.583120e-03 7.750173e-01 -3.303375e+00 4.058105e+00
1.319961e+02 1.788413e-01 5.019208e-03 7.755372e-01 -3.292648e+00 4.063004e+00
1.319961e+02 1.788413e-01 5.093515e-03 7.757008e-01 -3.285110e+00 4.063004e+00
1.319811e+02 1.775819e-01 5.059104e-03 7.760086e-01 -3.281708e+00 4.068512e+00
1.321785e+02 1.813602e-01 5.625617e-03 7.763913e-01 -3.292313e+00 4.073441e+00
1.324666e+02 1.738035e-01 1.843286e-03 7.780595e-01 -3.301086e+00 4.105698e+00
1.324698e+02 1.738035e-01 1.887504e-03 7.781897e-01 -3.301086e+00 4.101929e+00
1.339534e+02 1.750630e-01 3.642715e-03 7.793653e-01 -3.312836e+00 4.122406e+00
1.338998e+02 1.750630e-01 3.684392e-03 7.794616e-01 -3.302338e+00 4.122498e+00
1.338198e+02 1.763224e-01 3.193887e-03 7.801184e-01 -3.308411e+00 4.117264e+00
1.332698e+02 1.725441e-01 4.824734e-03 7.868433e-01 -3.297058e+00 4.175385e+00
1.339675e+02 1.712846e-01 8.931951e-04 7.881524e-01 -3.332260e+00 4.193298e+00
1.328284e+02 1.662469e-01 1.057920e-03 7.883818e-01 -3.307739e+00 4.199890e+00
1.356345e+02 1.801008e-01 4.585349e-03 7.888532e-01 -3.282288e+00 4.216522e+00
1.338224e+02 1.775819e-01 4.882071e-03 7.892337e-01 -3.279678e+00 4.234131e+00
1.342363e+02 1.725441e-01 1.117591e-02 7.898632e-01 -3.317230e+00 4.245087e+00
1.342363e+02 1.725441e-01 1.113515e-02 7.899878e-01 -3.272903e+00 4.245087e+00
1.340553e+02 1.725441e-01 1.060514e-02 7.903755e-01 -3.278000e+00 4.247742e+00
1.329887e+02 1.700252e-01 1.056570e-02 7.909011e-01 -3.284012e+00 4.258865e+00
1.363915e+02 1.738035e-01 9.584560e-03 7.935866e-01 -3.322769e+00 4.293228e+00
1.358037e+02 1.763224e-01 9.405777e-03 7.938257e-01 -3.304672e+00 4.288712e+00
1.367121e+02 1.775819e-01 1.015649e-02 7.955096e-01 -3.257309e+00 4.315048e+00
1.381231e+02 1.763224e-01 1.164770e-02 7.974505e-01 -3.282745e+00 4.353897e+00
1.376668e+02 1.838791e-01 1.090768e-02 7.982132e-01 -3.291656e+00 4.362411e+00
1.363456e+02 1.750630e-01 1.036982e-02 7.988561e-01 -3.267868e+00 4.359879e+00
1.366455e+02 1.801008e-01 1.031912e-02 8.001878e-01 -3.278198e+00 4.373749e+00
1.363955e+02 1.712846e-01 1.008015e-02 8.006859e-01 -3.272034e+00 4.376328e+00
1.379177e+02 1.763224e-01 9.384499e-03 8.032285e-01 -3.269394e+00 4.436203e+00
1.382664e+02 1.801008e-01 8.470468e-03 8.031614e-01 -3.301270e+00 4.435455e+00
1.379858e+02 1.775819e-01 8.886559e-03 8.037313e-01 -3.295868e+00 4.439789e+00
1.363193e+02 1.725441e-01 8.462175e-03 8.040737e-01 -3.291336e+00 4.442856e+00
1.351696e+02 1.687657e-01 1.098127e-02 8.068079e-01 -3.342621e+00 4.498840e+00
1.351781e+02 1.687657e-01 1.091927e-02 8.070259e-01 -3.342621e+00 4.490189e+00
1.357070e+02 1.700252e-01 1.097028e-02 8.073274e-01 -3.338669e+00 4.493332e+00
1.367116e+02 1.700252e-01 1.080927e-02 8.081208e-01 -3.349792e+00 4.501801e+00
1.361375e+02 1.712846e-01 1.056424e-02 8.085712e-01 -3.345078e+00 4.501114e+00
1.364800e+02 1.700252e-01 1.038709e-02 8.095031e-01 -3.337418e+00 4.511536e+00
1.368519e+02 1.712846e-01 1.023815e-02 8.097135e-01 -3.336227e+00 4.511551e+00
1.366019e+02 1.725441e-01 9.480526e-03 8.097879e-01 -3.338348e+00 4.511383e+00
1.367372e+02 1.712846e-01 9.891835e-03 8.100958e-01 -3.337234e+00 4.515152e+00
1.354792e+02 1.687657e-01 9.859196e-03 8.102708e-01 -3.331253e+00 4.521835e+00
1.359423e+02 1.675063e-01 1.001464e-02 8.108124e-01 -3.323441e+00 4.529053e+00
1.354479e+02 1.662469e-01 1.019353e-02 8.111819e-01 -3.323044e+00 4.532120e+00
1.359430e+02 1.675063e-01 1.024226e-02 8.114622e-01 -3.320618e+00 4.532089e+00
1.359349e+02 1.725441e-01 1.002922e-02 8.117131e-01 -3.325195e+00 4.540939e+00
1.356428e+02 1.725441e-01 9.583654e-03 8.128824e-01 -3.323318e+00 4.543747e+00
1.357955e+02 1.675063e-01 9.631458e-03 8.130668e-01 -3.322037e+00 4.543747e+00
1.359139e+02 1.649874e-01 9.639692e-03 8.131100e-01 -3.323792e+00 4.543427e+00
1.355851e+02 1.662469e-01 9.385674e-03 8.135759e-01 -3.337967e+00 4.548813e+00
1.354806e+02 1.624685e-01 9.604579e-03 8.143518e-01 -3.335251e+00 4.556366e+00
1.361779e+02 1.700252e-01 9.889240e-03 8.146596e-01 -3.341797e+00 4.560379e+00
1.374103e+02 1.763224e-01 1.070244e-02 8.149536e-01 -3.350388e+00 4.567703e+00
1.388871e+02 1.775819e-01 1.052919e-02 8.160251e-01 -3.352188e+00 4.589752e+00
1.379966e+02 1.738035e-01 1.070971e-02 8.164605e-01 -3.359100e+00 4.589401e+00
1.378581e+02 1.700252e-01 1.081600e-02 8.167734e-01 -3.359100e+00 4.592697e+00
1.383330e+02 1.712846e-01 9.801367e-03 8.170534e-01 -3.358124e+00 4.600250e+00
1.374174e+02 1.662469e-01 9.748852e-03 8.172736e-01 -3.352905e+00 4.611389e+00
1.384716e+02 1.750630e-01 9.636481e-03 8.176130e-01 -3.350235e+00 4.616333e+00
1.384597e+02 1.738035e-01 9.685133e-03 8.176565e-01 -3.350571e+00 4.617126e+00
1.383961e+02 1.738035e-01 9.685647e-03 8.178644e-01 -3.349747e+00 4.625519e+00
1.388035e+02 1.788413e-01 1.005122e-02 8.182188e-01 -3.351837e+00 4.630692e+00
1.383598e+02 1.712846e-01 1.091642e-02 8.184856e-01 -3.359619e+00 4.635696e+00
1.388838e+02 1.750630e-01 1.054468e-02 8.192975e-01 -3.383789e+00 4.652725e+00
1.393138e+02 1.738035e-01 1.137323e-02 8.203721e-01 -3.385834e+00 4.661911e+00
1.390106e+02 1.712846e-01 1.138785e-02 8.205898e-01 -3.378067e+00 4.661911e+00
1.387260e+02 1.750630e-01 1.200824e-02 8.210699e-01 -3.397232e+00 4.670090e+00
1.380861e+02 1.725441e-01 1.177877e-02 8.212951e-01 -3.397232e+00 4.673843e+00
1.394041e+02 1.763224e-01 1.487094e-02 8.216559e-01 -3.387207e+00 4.685471e+00
1.372132e+02 1.712846e-01 1.445557e-02 8.221311e-01 -3.401993e+00 4.686447e+00
1.373430e+02 1.712846e-01 1.426154e-02 8.223112e-01 -3.399979e+00 4.686630e+00
1.383104e+02 1.775819e-01 1.422225e-02 8.224317e-01 -3.399643e+00 4.686600e+00
1.376451e+02 1.750630e-01 1.391712e-02 8.227043e-01 -3.403671e+00 4.689590e+00
1.381307e+02 1.750630e-01 1.396240e-02 8.230419e-01 -3.405869e+00 4.699310e+00
1.404167e+02 1.851385e-01 1.414824e-02 8.240790e-01 -3.422791e+00 4.701233e+00
1.392100e+02 1.788413e-01 1.413222e-02 8.240962e-01 -3.422775e+00 4.703949e+00
1.382872e+02 1.763224e-01 1.381503e-02 8.240402e-01 -3.422348e+00 4.704117e+00
1.382818e+02 1.750630e-01 1.414430e-02 8.244758e-01 -3.424286e+00 4.709671e+00
1.387750e+02 1.775819e-01 1.443478e-02 8.249704e-01 -3.421631e+00 4.717773e+00
1.379209e+02 1.788413e-01 1.383249e-02 8.259201e-01 -3.435547e+00 4.730698e+00
1.382726e+02 1.788413e-01 1.372843e-02 8.265685e-01 -3.451813e+00 4.731125e+00
1.381621e+02 1.788413e-01 1.318255e-02 8.278199e-01 -3.463440e+00 4.755768e+00
1.367290e+02 1.687657e-01 1.323095e-02 8.280570e-01 -3.463440e+00 4.754807e+00
1.373451e+02 1.649874e-01 1.467421e-02 8.283368e-01 -3.462296e+00 4.751907e+00
1.367736e+02 1.649874e-01 1.458862e-02 8.284802e-01 -3.462601e+00 4.753555e+00
1.366833e+02 1.662469e-01 1.455795e-02 8.285847e-01 -3.463776e+00 4.754395e+00
1.388410e+02 1.826196e-01 1.441594e-02 8.297802e-01 -3.450089e+00 4.768021e+00
1.389806e+02 1.801008e-01 1.432650e-02 8.307212e-01 -3.460571e+00 4.775955e+00
1.407524e+02 1.851385e-01 1.522008e-02 8.324705e-01 -3.444458e+00 4.800095e+00
1.405481e+02 1.838791e-01 1.501224e-02 8.329616e-01 -3.449997e+00 4.798065e+00
1.392541e+02 1.750630e-01 1.683569e-02 8.355822e-01 -3.556381e+00 4.811691e+00
1.402827e+02 1.775819e-01 1.342689e-02 8.370630e-01 -3.554535e+00 4.820267e+00
1.389120e+02 1.801008e-01 1.387941e-02 8.373322e-01 -3.549408e+00 4.823715e+00
1.402826e+02 1.826196e-01 8.585978e-03 8.409434e-01 -3.547562e+00 4.870331e+00
1.399681e+02 1.750630e-01 9.886677e-03 8.414723e-01 -3.566666e+00 4.859100e+00
1.448249e+02 1.813602e-01 1.101869e-02 8.465849e-01 -3.574432e+00 4.889740e+00
1.432861e+02 1.763224e-01 1.316553e-02 8.471547e-01 -3.563599e+00 4.903214e+00
1.434989e+02 1.763224e-01 1.393244e-02 8.476068e-01 -3.563034e+00 4.903214e+00
1.443052e+02 1.763224e-01 1.383973e-02 8.480605e-01 -3.566330e+00 4.906769e+00
1.432396e+02 1.826196e-01 1.449990e-02 8.488632e-01 -3.547546e+00 4.922852e+00
1.434645e+02 1.826196e-01 1.454844e-02 8.488908e-01 -3.549286e+00 4.921860e+00
1.433673e+02 1.763224e-01 1.445416e-02 8.492550e-01 -3.558838e+00 4.912750e+00
1.438458e+02 1.801008e-01 1.712853e-02 8.523408e-01 -3.589890e+00 4.950882e+00
1.448457e+02 1.838791e-01 1.677259e-02 8.525057e-01 -3.594879e+00 4.946457e+00
1.442855e+02 1.788413e-01 1.667645e-02 8.525743e-01 -3.593750e+00 4.951111e+00
