8.999939e-01 9.989929e-01
5.314026e-01 9.939575e-01
3.137817e-01 9.889679e-01
1.852722e-01 9.840088e-01
1.093903e-01 9.790497e-01
6.459045e-02 9.741364e-01
3.813171e-02 9.692535e-01
2.252197e-02 9.643707e-01
1.327515e-02 9.595184e-01
7.843018e-03 9.547119e-01
4.623413e-03 9.499054e-01
2.731323e-03 9.451141e-01
1.602173e-03 9.403839e-01
9.307861e-04 9.356537e-01
5.493164e-04 9.309235e-01
3.204346e-04 9.262695e-01
1.831055e-04 9.216156e-01
1.068115e-04 9.169617e-01
6.103516e-05 9.123688e-01
6.103516e-05 9.077911e-01
6.103516e-05 9.032135e-01
6.103516e-05 8.986816e-01
6.103516e-05 8.941803e-01
6.103516e-05 8.896790e-01
6.103516e-05 8.851929e-01
6.103516e-05 8.807678e-01
6.103516e-05 8.763428e-01
6.103516e-05 8.719177e-01
6.103516e-05 8.675537e-01
6.103516e-05 8.632050e-01
6.103516e-05 8.588562e-01
6.103516e-05 8.545227e-01
6.103516e-05 8.502502e-01
6.103516e-05 8.459778e-01
6.103516e-05 8.417053e-01
6.103516e-05 8.374939e-01
6.103516e-05 8.332977e-01
6.103516e-05 8.291016e-01
6.103516e-05 8.249207e-01
6.103516e-05 8.208008e-01
6.103516e-05 8.166809e-01
6.103516e-05 8.125610e-01
6.103516e-05 8.084717e-01
6.103516e-05 8.044281e-01
6.103516e-05 8.003845e-01
6.103516e-05 7.963409e-01
6.103516e-05 7.923431e-01
6.103516e-05 7.883759e-01
6.103516e-05 7.844086e-01
6.103516e-05 7.804413e-01
6.103516e-05 7.765350e-01
6.103516e-05 7.726440e-01
6.103516e-05 7.687531e-01
6.103516e-05 7.648621e-01
6.103516e-05 7.610474e-01
6.103516e-05 7.572327e-01
6.103516e-05 7.534180e-01
6.103516e-05 7.496033e-01
6.103516e-05 7.458649e-01
6.103516e-05 7.421265e-01
6.103516e-05 7.383881e-01
6.103516e-05 7.346497e-01
6.103516e-05 7.309875e-01
6.103516e-05 7.273254e-01
6.103516e-05 7.236633e-01
6.103516e-05 7.200012e-01
6.103516e-05 7.164001e-01
6.103516e-05 7.128143e-01
6.103516e-05 7.092285e-01
6.103516e-05 7.056427e-01
6.103516e-05 7.021027e-01
6.103516e-05 6.985931e-01
6.103516e-05 6.950836e-01
6.103516e-05 6.915741e-01
6.103516e-05 6.880798e-01
6.103516e-05 6.846466e-01
6.103516e-05 6.812134e-01
6.103516e-05 6.777802e-01
6.103516e-05 6.743469e-01
6.103516e-05 6.709747e-01
6.103516e-05 6.676178e-01
6.103516e-05 6.642609e-01
6.103516e-05 6.609039e-01
6.103516e-05 6.575775e-01
6.103516e-05 6.542969e-01
6.103516e-05 6.510162e-01
6.103516e-05 6.477356e-01
6.103516e-05 6.444550e-01
6.103516e-05 6.412354e-01
6.103516e-05 6.380310e-01
6.103516e-05 6.348267e-01
6.103516e-05 6.316223e-01
6.103516e-05 6.284180e-01
6.103516e-05 6.252899e-01
6.103516e-05 6.221619e-01
6.103516e-05 6.190338e-01
6.103516e-05 6.159058e-01
6.103516e-05 6.127930e-01
6.103516e-05 6.097412e-01
6.103516e-05 6.066895e-01
6.103516e-05 6.036377e-01
6.103516e-05 6.005859e-01
6.103516e-05 5.975494e-01
6.103516e-05 5.945740e-01
6.103516e-05 5.915985e-01
6.103516e-05 5.886230e-01
6.103516e-05 5.856476e-01
6.103516e-05 5.826874e-01
6.103516e-05 5.797882e-01
6.103516e-05 5.768890e-01
6.103516e-05 5.739899e-01
6.103516e-05 5.710907e-01
6.103516e-05 5.681915e-01
6.103516e-05 5.653534e-01
6.103516e-05 5.625305e-01
6.103516e-05 5.597076e-01
6.103516e-05 5.568848e-01
6.103516e-05 5.540619e-01
6.103516e-05 5.512848e-01
6.103516e-05 5.485382e-01
6.103516e-05 5.457916e-01
6.103516e-05 5.430450e-01
6.103516e-05 5.402985e-01
6.103516e-05 5.375519e-01
6.103516e-05 5.348816e-01
6.103516e-05 5.322113e-01
6.103516e-05 5.295410e-01
6.103516e-05 5.268707e-01
6.103516e-05 5.242004e-01
6.103516e-05 5.215607e-01
6.103516e-05 5.189667e-01
6.103516e-05 5.163727e-01
6.103516e-05 5.137787e-01
6.103516e-05 5.111847e-01
6.103516e-05 5.085907e-01
6.103516e-05 5.060425e-01
6.103516e-05 5.035248e-01
6.103516e-05 5.010071e-01
6.103516e-05 4.984894e-01
6.103516e-05 4.959717e-01
6.103516e-05 4.934540e-01
6.103516e-05 4.909668e-01
6.103516e-05 4.885254e-01
6.103516e-05 4.860840e-01
6.103516e-05 4.836426e-01
6.103516e-05 4.812012e-01
6.103516e-05 4.787598e-01
6.103516e-05 4.763336e-01
6.103516e-05 4.739685e-01
6.103516e-05 4.716034e-01
6.103516e-05 4.692383e-01
6.103516e-05 4.668732e-01
6.103516e-05 4.645081e-01
6.103516e-05 4.621429e-01
6.103516e-05 4.598389e-01
6.103516e-05 4.575500e-01
6.103516e-05 4.552612e-01
6.103516e-05 4.529724e-01
6.103516e-05 4.506836e-01
6.103516e-05 4.483948e-01
6.103516e-05 4.461212e-01
6.103516e-05 4.439087e-01
6.103516e-05 4.416962e-01
6.103516e-05 4.394836e-01
6.103516e-05 4.372711e-01
6.103516e-05 4.350586e-01
6.103516e-05 4.328461e-01
6.103516e-05 4.306641e-01
6.103516e-05 4.285278e-01
6.103516e-05 4.263916e-01
6.103516e-05 4.242554e-01
6.103516e-05 4.221191e-01
6.103516e-05 4.199829e-01
6.103516e-05 4.178467e-01
6.103516e-05 4.157410e-01
6.103516e-05 4.136810e-01
6.103516e-05 4.116211e-01
6.103516e-05 4.095612e-01
6.103516e-05 4.075012e-01
6.103516e-05 4.054413e-01
6.103516e-05 4.033813e-01
6.103516e-05 4.013214e-01
6.103516e-05 3.993378e-01
6.103516e-05 3.973541e-01
6.103516e-05 3.953705e-01
6.103516e-05 3.933868e-01
6.103516e-05 3.914032e-01
6.103516e-05 3.894196e-01
6.103516e-05 3.874359e-01
6.103516e-05 3.854828e-01
6.103516e-05 3.835754e-01
6.103516e-05 3.816681e-01
6.103516e-05 3.797607e-01
6.103516e-05 3.778534e-01
6.103516e-05 3.759460e-01
6.103516e-05 3.740387e-01
6.103516e-05 3.721313e-01
6.103516e-05 3.702545e-01
6.103516e-05 3.684235e-01
6.103516e-05 3.665924e-01
6.103516e-05 3.647614e-01
6.103516e-05 3.629303e-01
6.103516e-05 3.610992e-01
6.103516e-05 3.592682e-01
6.103516e-05 3.574371e-01
6.103516e-05 3.556213e-01
6.103516e-05 3.538666e-01
6.103516e-05 3.521118e-01
6.103516e-05 3.503571e-01
6.103516e-05 3.486023e-01
6.103516e-05 3.468475e-01
6.103516e-05 3.450928e-01
6.103516e-05 3.433380e-01
6.103516e-05 3.415833e-01
6.103516e-05 3.398743e-01
6.103516e-05 3.381958e-01
6.103516e-05 3.365173e-01
6.103516e-05 3.348389e-01
6.103516e-05 3.331604e-01
6.103516e-05 3.314819e-01
6.103516e-05 3.298035e-01
6.103516e-05 3.281250e-01
6.103516e-05 3.264465e-01
6.103516e-05 3.247986e-01
6.103516e-05 3.231964e-01
6.103516e-05 3.215942e-01
6.103516e-05 3.199921e-01
6.103516e-05 3.183899e-01
6.103516e-05 3.167877e-01
6.103516e-05 3.151855e-01
6.103516e-05 3.135834e-01
6.103516e-05 3.119812e-01
6.103516e-05 3.103790e-01
6.103516e-05 3.088531e-01
6.103516e-05 3.073273e-01
6.103516e-05 3.058014e-01
6.103516e-05 3.042755e-01
6.103516e-05 3.027496e-01
6.103516e-05 3.012238e-01
6.103516e-05 2.996979e-01
6.103516e-05 2.981720e-01
6.103516e-05 2.966461e-01
6.103516e-05 2.951355e-01
6.103516e-05 2.936859e-01
6.103516e-05 2.922363e-01
6.103516e-05 2.907867e-01
6.103516e-05 2.893372e-01
6.103516e-05 2.878876e-01
6.103516e-05 2.864380e-01
6.103516e-05 2.849884e-01
6.103516e-05 2.835388e-01
6.103516e-05 2.820892e-01
6.103516e-05 2.806396e-01
6.103516e-05 2.792358e-01
6.103516e-05 2.778625e-01
6.103516e-05 2.764893e-01
6.103516e-05 2.751160e-01
6.103516e-05 2.737427e-01
6.103516e-05 2.723694e-01
6.103516e-05 2.709961e-01
6.103516e-05 2.696228e-01
6.103516e-05 2.682495e-01
6.103516e-05 2.668762e-01
6.103516e-05 2.655029e-01
6.103516e-05 2.641754e-01
6.103516e-05 2.628784e-01
6.103516e-05 2.615814e-01
6.103516e-05 2.602844e-01
6.103516e-05 2.589874e-01
6.103516e-05 2.576904e-01
6.103516e-05 2.563934e-01
6.103516e-05 2.550964e-01
6.103516e-05 2.537994e-01
6.103516e-05 2.525024e-01
6.103516e-05 2.512054e-01
6.103516e-05 2.499084e-01
6.103516e-05 2.486877e-01
6.103516e-05 2.474670e-01
6.103516e-05 2.462463e-01
6.103516e-05 2.450256e-01
6.103516e-05 2.438049e-01
6.103516e-05 2.425842e-01
6.103516e-05 2.413635e-01
6.103516e-05 2.401428e-01
6.103516e-05 2.389221e-01
6.103516e-05 2.377014e-01
6.103516e-05 2.364807e-01
6.103516e-05 2.352600e-01
6.103516e-05 2.340851e-01
6.103516e-05 2.329407e-01
6.103516e-05 2.317963e-01
6.103516e-05 2.306519e-01
6.103516e-05 2.295074e-01
6.103516e-05 2.283630e-01
6.103516e-05 2.272186e-01
6.103516e-05 2.260742e-01
6.103516e-05 2.249298e-01
6.103516e-05 2.237854e-01
6.103516e-05 2.226410e-01
6.103516e-05 2.214966e-01
6.103516e-05 2.203522e-01
6.103516e-05 2.192383e-01
6.103516e-05 2.181702e-01
6.103516e-05 2.171021e-01
6.103516e-05 2.160339e-01
6.103516e-05 2.149658e-01
6.103516e-05 2.138977e-01
6.103516e-05 2.128296e-01
6.103516e-05 2.117615e-01
6.103516e-05 2.106934e-01
6.103516e-05 2.096252e-01
6.103516e-05 2.085571e-01
6.103516e-05 2.074890e-01
6.103516e-05 2.064209e-01
6.103516e-05 2.053528e-01
6.103516e-05 2.042999e-01
6.103516e-05 2.033081e-01
6.103516e-05 2.023163e-01
6.103516e-05 2.013245e-01
6.103516e-05 2.003326e-01
6.103516e-05 1.993408e-01
6.103516e-05 1.983490e-01
6.103516e-05 1.973572e-01
6.103516e-05 1.963654e-01
6.103516e-05 1.953735e-01
6.103516e-05 1.943817e-01
6.103516e-05 1.933899e-01
6.103516e-05 1.923981e-01
6.103516e-05 1.914062e-01
6.103516e-05 1.904144e-01
6.103516e-05 1.894226e-01
6.103516e-05 1.884918e-01
6.103516e-05 1.875763e-01
6.103516e-05 1.866608e-01
6.103516e-05 1.857452e-01
6.103516e-05 1.848297e-01
6.103516e-05 1.839142e-01
6.103516e-05 1.829987e-01
6.103516e-05 1.820831e-01
6.103516e-05 1.811676e-01
6.103516e-05 1.802521e-01
6.103516e-05 1.793365e-01
6.103516e-05 1.784210e-01
6.103516e-05 1.775055e-01
6.103516e-05 1.765900e-01
6.103516e-05 1.756744e-01
6.103516e-05 1.747589e-01
6.103516e-05 1.738739e-01
6.103516e-05 1.730347e-01
6.103516e-05 1.721954e-01
6.103516e-05 1.713562e-01
6.103516e-05 1.705170e-01
6.103516e-05 1.696777e-01
6.103516e-05 1.688385e-01
6.103516e-05 1.679993e-01
6.103516e-05 1.671600e-01
6.103516e-05 1.663208e-01
6.103516e-05 1.654816e-01
6.103516e-05 1.646423e-01
6.103516e-05 1.638031e-01
6.103516e-05 1.629639e-01
6.103516e-05 1.621246e-01
6.103516e-05 1.612854e-01
6.103516e-05 1.604462e-01
6.103516e-05 1.596069e-01
6.103516e-05 1.587830e-01
6.103516e-05 1.580200e-01
6.103516e-05 1.572571e-01
6.103516e-05 1.564941e-01
6.103516e-05 1.557312e-01
6.103516e-05 1.549683e-01
6.103516e-05 1.542053e-01
6.103516e-05 1.534424e-01
6.103516e-05 1.526794e-01
6.103516e-05 1.519165e-01
6.103516e-05 1.511536e-01
6.103516e-05 1.503906e-01
6.103516e-05 1.496277e-01
6.103516e-05 1.488647e-01
6.103516e-05 1.481018e-01
6.103516e-05 1.473389e-01
6.103516e-05 1.465759e-01
6.103516e-05 1.458130e-01
6.103516e-05 1.450500e-01
6.103516e-05 1.442871e-01
6.103516e-05 1.435547e-01
6.103516e-05 1.428680e-01
6.103516e-05 1.421814e-01
6.103516e-05 1.414948e-01
6.103516e-05 1.408081e-01
6.103516e-05 1.401215e-01
6.103516e-05 1.394348e-01
6.103516e-05 1.387482e-01
6.103516e-05 1.380615e-01
6.103516e-05 1.373749e-01
6.103516e-05 1.366882e-01
6.103516e-05 1.360016e-01
6.103516e-05 1.353149e-01
6.103516e-05 1.346283e-01
6.103516e-05 1.339417e-01
6.103516e-05 1.332550e-01
6.103516e-05 1.325684e-01
6.103516e-05 1.318817e-01
6.103516e-05 1.311951e-01
6.103516e-05 1.305084e-01
6.103516e-05 1.298218e-01
6.103516e-05 1.291351e-01
6.103516e-05 1.284790e-01
6.103516e-05 1.278687e-01
6.103516e-05 1.272583e-01
6.103516e-05 1.266479e-01
6.103516e-05 1.260376e-01
6.103516e-05 1.254272e-01
6.103516e-05 1.248169e-01
6.103516e-05 1.242065e-01
6.103516e-05 1.235962e-01
6.103516e-05 1.229858e-01
6.103516e-05 1.223755e-01
6.103516e-05 1.217651e-01
6.103516e-05 1.211548e-01
6.103516e-05 1.205444e-01
6.103516e-05 1.199341e-01
6.103516e-05 1.193237e-01
6.103516e-05 1.187134e-01
6.103516e-05 1.181030e-01
6.103516e-05 1.174927e-01
6.103516e-05 1.168823e-01
6.103516e-05 1.162720e-01
6.103516e-05 1.156616e-01
6.103516e-05 1.150513e-01
6.103516e-05 1.144409e-01
6.103516e-05 1.138306e-01
6.103516e-05 1.132660e-01
6.103516e-05 1.127319e-01
6.103516e-05 1.121979e-01
6.103516e-05 1.116638e-01
6.103516e-05 1.111298e-01
6.103516e-05 1.105957e-01
6.103516e-05 1.100616e-01
6.103516e-05 1.095276e-01
6.103516e-05 1.089935e-01
6.103516e-05 1.084595e-01
6.103516e-05 1.079254e-01
6.103516e-05 1.073914e-01
6.103516e-05 1.068573e-01
6.103516e-05 1.063232e-01
6.103516e-05 1.057892e-01
6.103516e-05 1.052551e-01
6.103516e-05 1.047211e-01
6.103516e-05 1.041870e-01
6.103516e-05 1.036530e-01
6.103516e-05 1.031189e-01
6.103516e-05 1.025848e-01
6.103516e-05 1.020508e-01
6.103516e-05 1.015167e-01
6.103516e-05 1.009827e-01
6.103516e-05 1.004486e-01
6.103516e-05 9.991455e-02
6.103516e-05 9.938049e-02
6.103516e-05 9.884644e-02
6.103516e-05 9.832764e-02
6.103516e-05 9.786987e-02
6.103516e-05 9.741211e-02
6.103516e-05 9.695435e-02
6.103516e-05 9.649658e-02
6.103516e-05 9.603882e-02
6.103516e-05 9.558105e-02
6.103516e-05 9.512329e-02
6.103516e-05 9.466553e-02
6.103516e-05 9.420776e-02
6.103516e-05 9.375000e-02
6.103516e-05 9.329224e-02
6.103516e-05 9.283447e-02
6.103516e-05 9.237671e-02
6.103516e-05 9.191895e-02
6.103516e-05 9.146118e-02
6.103516e-05 9.100342e-02
6.103516e-05 9.054565e-02
6.103516e-05 9.008789e-02
6.103516e-05 8.963013e-02
6.103516e-05 8.917236e-02
6.103516e-05 8.871460e-02
6.103516e-05 8.825684e-02
6.103516e-05 8.779907e-02
6.103516e-05 8.734131e-02
6.103516e-05 8.688354e-02
6.103516e-05 8.642578e-02
6.103516e-05 8.596802e-02
6.103516e-05 8.551025e-02
6.103516e-05 8.505249e-02
6.103516e-05 8.459473e-02
6.103516e-05 8.413696e-02
6.103516e-05 8.367920e-02
6.103516e-05 8.323669e-02
6.103516e-05 8.285522e-02
6.103516e-05 8.247375e-02
6.103516e-05 8.209229e-02
6.103516e-05 8.171082e-02
6.103516e-05 8.132935e-02
6.103516e-05 8.094788e-02
6.103516e-05 8.056641e-02
6.103516e-05 8.018494e-02
6.103516e-05 7.980347e-02
6.103516e-05 7.942200e-02
6.103516e-05 7.904053e-02
6.103516e-05 7.865906e-02
6.103516e-05 7.827759e-02
6.103516e-05 7.789612e-02
6.103516e-05 7.751465e-02
6.103516e-05 7.713318e-02
6.103516e-05 7.675171e-02
6.103516e-05 7.637024e-02
6.103516e-05 7.598877e-02
6.103516e-05 7.560730e-02
6.103516e-05 7.522583e-02
6.103516e-05 7.484436e-02
6.103516e-05 7.446289e-02
6.103516e-05 7.408142e-02
6.103516e-05 7.369995e-02
6.103516e-05 7.331848e-02
6.103516e-05 7.293701e-02
6.103516e-05 7.255554e-02
6.103516e-05 7.217407e-02
6.103516e-05 7.179260e-02
6.103516e-05 7.141113e-02
6.103516e-05 7.102966e-02
6.103516e-05 7.064819e-02
6.103516e-05 7.026672e-02
6.103516e-05 6.988525e-02
6.103516e-05 6.950378e-02
6.103516e-05 6.912231e-02
6.103516e-05 6.874084e-02
6.103516e-05 6.835938e-02
6.103516e-05 6.800842e-02
6.103516e-05 6.770325e-02
6.103516e-05 6.739807e-02
6.103516e-05 6.709290e-02
6.103516e-05 6.678772e-02
6.103516e-05 6.648254e-02
6.103516e-05 6.617737e-02
6.103516e-05 6.587219e-02
6.103516e-05 6.556702e-02
6.103516e-05 6.526184e-02
6.103516e-05 6.495667e-02
6.103516e-05 6.465149e-02
6.103516e-05 6.434631e-02
6.103516e-05 6.404114e-02
6.103516e-05 6.373596e-02
6.103516e-05 6.343079e-02
6.103516e-05 6.312561e-02
6.103516e-05 6.282043e-02
6.103516e-05 6.251526e-02
6.103516e-05 6.221008e-02
6.103516e-05 6.190491e-02
6.103516e-05 6.159973e-02
6.103516e-05 6.129456e-02
6.103516e-05 6.098938e-02
6.103516e-05 6.068420e-02
6.103516e-05 6.037903e-02
6.103516e-05 6.007385e-02
6.103516e-05 5.976868e-02
6.103516e-05 5.946350e-02
6.103516e-05 5.915833e-02
6.103516e-05 5.885315e-02
6.103516e-05 5.854797e-02
6.103516e-05 5.824280e-02
6.103516e-05 5.793762e-02
6.103516e-05 5.763245e-02
6.103516e-05 5.732727e-02
6.103516e-05 5.702209e-02
6.103516e-05 5.671692e-02
6.103516e-05 5.641174e-02
6.103516e-05 5.610657e-02
6.103516e-05 5.580139e-02
6.103516e-05 5.549622e-02
6.103516e-05 5.519104e-02
6.103516e-05 5.488586e-02
6.103516e-05 5.458069e-02
6.103516e-05 5.427551e-02
6.103516e-05 5.397034e-02
6.103516e-05 5.366516e-02
6.103516e-05 5.335999e-02
6.103516e-05 5.305481e-02
6.103516e-05 5.281067e-02
6.103516e-05 5.258179e-02
6.103516e-05 5.235291e-02
6.103516e-05 5.212402e-02
6.103516e-05 5.189514e-02
6.103516e-05 5.166626e-02
6.103516e-05 5.143738e-02
6.103516e-05 5.120850e-02
6.103516e-05 5.097961e-02
6.103516e-05 5.075073e-02
6.103516e-05 5.052185e-02
6.103516e-05 5.029297e-02
6.103516e-05 5.006409e-02
6.103516e-05 4.983521e-02
6.103516e-05 4.960632e-02
6.103516e-05 4.937744e-02
6.103516e-05 4.914856e-02
6.103516e-05 4.891968e-02
6.103516e-05 4.869080e-02
6.103516e-05 4.846191e-02
