-4.153645e-01 5.485949e+00 -2.349298e+01 2.211841e+01 1.312371e-04 1.387772e-02 -2.063141e-01 2.026825e-01
-5.224333e-01 5.491525e+00 -2.367160e+01 2.181808e+01 1.385855e-05 1.147109e-02 -1.984253e-01 1.811676e-01
-6.782207e-01 5.601158e+00 -2.456821e+01 2.243764e+01 -5.505208e-05 1.153564e-02 -1.984253e-01 1.653900e-01
-8.574696e-01 5.843883e+00 -2.504565e+01 2.316232e+01 8.227897e-06 1.239912e-02 -2.063141e-01 2.063141e-01
-1.022663e+00 6.157488e+00 -2.538640e+01 2.402643e+01 1.053536e-05 1.302177e-02 -2.063141e-01 2.026825e-01
-1.134536e+00 6.759161e+00 -2.776871e+01 2.517207e+01 3.417627e-05 1.386959e-02 -2.499390e-01 2.499390e-01
-1.359248e+00 8.029162e+00 -3.312971e+01 3.337631e+01 -5.907977e-05 1.602695e-02 -2.528687e-01 2.528687e-01
-1.230567e+00 8.706999e+00 -3.630077e+01 4.105128e+01 7.896495e-05 1.582161e-02 -2.312469e-01 2.312469e-01
-1.095791e+00 9.514835e+00 -3.997473e+01 4.641728e+01 1.402542e-05 1.314783e-02 -2.214203e-01 2.214203e-01
-1.024624e+00 9.620131e+00 -4.057146e+01 4.724449e+01 3.070179e-05 1.239891e-02 -2.175446e-01 1.984253e-01
-9.874532e-01 9.597263e+00 -4.018996e+01 4.704576e+01 3.255780e-05 1.118782e-02 -2.093964e-01 1.984253e-01
-9.672249e-01 9.547627e+00 -3.946811e+01 4.395113e+01 -7.739094e-07 1.006018e-02 -2.093964e-01 1.877289e-01
-8.764395e-01 9.487565e+00 -3.932977e+01 4.501334e+01 -4.436049e-06 8.978040e-03 -1.984253e-01 1.877289e-01
-7.320594e-01 9.439656e+00 -3.951286e+01 4.252092e+01 -3.058007e-05 8.682902e-03 -1.934509e-01 1.902161e-01
-5.690715e-01 9.396781e+00 -3.981941e+01 4.046332e+01 3.409205e-05 9.055011e-03 -1.934509e-01 1.934662e-01
-4.108048e-01 9.446276e+00 -4.049113e+01 3.876381e+01 -3.438461e-05 9.514970e-03 -1.877289e-01 1.984253e-01
-3.805962e-01 9.477301e+00 -4.083868e+01 3.819139e+01 -2.860411e-05 9.438071e-03 -1.902161e-01 1.984253e-01
-3.579364e-01 9.442072e+00 -4.102655e+01 3.820219e+01 -3.859661e-06 8.943638e-03 -1.877289e-01 1.877289e-01
-4.213570e-01 9.471566e+00 -4.119684e+01 3.785268e+01 -2.286790e-05 8.269753e-03 -1.934509e-01 1.877289e-01
-4.126996e-01 9.491716e+00 -4.136700e+01 3.732840e+01 1.029372e-05 7.988175e-03 -1.934509e-01 1.811676e-01
-4.247495e-01 9.525843e+00 -4.143556e+01 3.647606e+01 2.583477e-05 8.067928e-03 -1.877289e-01 1.877289e-01
-3.922339e-01 9.523272e+00 -4.140411e+01 3.782050e+01 -1.756619e-05 8.555156e-03 -1.984253e-01 1.934662e-01
-3.837982e-01 9.654243e+00 -4.138438e+01 3.850897e+01 3.695765e-05 9.275239e-03 -2.026825e-01 1.984253e-01
-3.933971e-01 9.723824e+00 -4.122125e+01 3.922198e+01 -4.538875e-05 1.017304e-02 -1.984253e-01 2.093964e-01
-3.664050e-01 9.874347e+00 -4.082219e+01 4.043547e+01 -2.149296e-06 1.036642e-02 -2.093964e-01 2.063141e-01
-3.484390e-01 9.910578e+00 -4.096960e+01 4.045036e+01 1.068431e-05 1.041057e-02 -2.119904e-01 2.063141e-01
-3.100209e-01 9.888078e+00 -4.114478e+01 4.047510e+01 1.377612e-05 9.310192e-03 -2.093964e-01 2.063141e-01
-3.180452e-01 9.905132e+00 -4.117487e+01 4.057365e+01 -5.704170e-06 8.120002e-03 -2.026825e-01 1.934662e-01
-3.211668e-01 9.884397e+00 -4.119885e+01 4.062854e+01 -9.149303e-06 7.935872e-03 -2.063141e-01 1.811676e-01
-2.618592e-01 9.893472e+00 -4.118723e+01 4.069083e+01 9.572091e-07 7.576533e-03 -2.026825e-01 1.877289e-01
-2.128502e-01 9.946727e+00 -4.112357e+01 4.069951e+01 4.410480e-08 7.304627e-03 -2.063141e-01 1.877289e-01
-1.793952e-01 9.949341e+00 -4.067337e+01 4.088043e+01 5.941491e-06 8.139987e-03 -1.934509e-01 1.877289e-01
-1.671807e-01 9.993848e+00 -4.066882e+01 4.089403e+01 1.974942e-05 8.234584e-03 -2.063141e-01 1.934662e-01
-1.842527e-01 9.971386e+00 -3.981606e+01 4.094093e+01 -1.092421e-05 7.377978e-03 -2.026825e-01 1.934662e-01
-2.042619e-01 9.992216e+00 -4.061145e+01 4.102899e+01 -4.896543e-06 7.191671e-03 -1.984253e-01 1.877289e-01
-1.889625e-01 1.000846e+01 -4.053069e+01 4.107384e+01 -8.770261e-06 7.115922e-03 -2.026825e-01 1.811676e-01
-1.948650e-01 1.005288e+01 -4.014153e+01 4.110223e+01 3.311050e-06 7.194168e-03 -2.026825e-01 1.877289e-01
-1.918158e-01 1.007013e+01 -3.975499e+01 4.110793e+01 5.693169e-06 7.682991e-03 -2.063141e-01 1.934662e-01
-1.720522e-01 1.009073e+01 -3.957091e+01 4.104066e+01 2.125063e-05 7.982669e-03 -2.040405e-01 2.040405e-01
-1.781397e-01 1.008051e+01 -3.955309e+01 3.813014e+01 9.889689e-06 7.568953e-03 -2.063141e-01 1.934662e-01
-1.664481e-01 1.008490e+01 -3.955653e+01 4.078224e+01 -1.488769e-05 7.848782e-03 -2.063141e-01 1.877289e-01
-1.200351e-01 1.013901e+01 -3.965077e+01 4.071432e+01 -1.245485e-05 7.936272e-03 -2.026825e-01 1.811676e-01
-1.314295e-01 1.009783e+01 -3.969366e+01 4.076375e+01 -4.778225e-06 7.120504e-03 -2.063141e-01 1.934662e-01
-1.247614e-01 1.010133e+01 -3.985869e+01 4.089119e+01 2.018280e-06 6.939916e-03 -2.026825e-01 1.934662e-01
-1.397978e-01 1.012767e+01 -3.988383e+01 4.101353e+01 -1.671821e-06 6.618156e-03 -2.026825e-01 1.934662e-01
-1.263349e-01 1.009666e+01 -3.932919e+01 4.112799e+01 -1.407407e-06 7.242823e-03 -1.984253e-01 1.934662e-01
-1.055618e-01 1.011157e+01 -4.008325e+01 4.128749e+01 -9.782453e-06 7.251275e-03 -1.877289e-01 1.877289e-01
-1.012671e-01 1.012522e+01 -4.016982e+01 4.137286e+01 -4.570071e-06 7.251710e-03 -1.877289e-01 1.877289e-01
-8.329429e-02 1.014935e+01 -4.037810e+01 4.171391e+01 2.407362e-06 7.730095e-03 -2.075958e-01 2.075958e-01
-8.419202e-02 1.014813e+01 -4.040366e+01 4.170639e+01 -4.931273e-06 7.442914e-03 -2.059326e-01 2.059326e-01
-1.121722e-01 1.015809e+01 -4.046750e+01 4.169295e+01 -6.657627e-06 7.262980e-03 -1.934509e-01 1.934662e-01
-1.023669e-01 1.016533e+01 -4.046812e+01 4.168925e+01 -2.925240e-06 7.628775e-03 -1.934509e-01 1.934662e-01
-9.359784e-02 1.017782e+01 -4.057841e+01 3.899457e+01 -1.667538e-06 7.361935e-03 -1.934509e-01 1.934662e-01
-9.823068e-02 1.016709e+01 -4.086211e+01 4.179372e+01 1.041808e-05 7.220901e-03 -1.977997e-01 1.984253e-01
-6.539995e-02 1.023189e+01 -4.110211e+01 4.196944e+01 6.243488e-06 7.355511e-03 -1.984253e-01 1.982880e-01
-6.316976e-02 1.023431e+01 -3.879344e+01 4.211867e+01 2.186285e-06 7.240256e-03 -1.934509e-01 1.984253e-01
-1.141977e-01 1.024619e+01 -4.115274e+01 4.212279e+01 4.744487e-06 7.181595e-03 -1.934509e-01 1.984253e-01
-9.485465e-02 1.021223e+01 -4.120494e+01 4.213077e+01 4.004755e-06 7.102034e-03 -1.898651e-01 1.984253e-01
-8.295056e-02 1.024961e+01 -4.121667e+01 4.215694e+01 7.284694e-06 7.252901e-03 -1.934509e-01 1.934662e-01
-1.200245e-01 1.026528e+01 -4.123584e+01 4.216760e+01 2.261399e-06 7.344599e-03 -1.934509e-01 1.984253e-01
-1.129861e-01 1.026014e+01 -4.126839e+01 4.217920e+01 -3.179420e-06 7.110990e-03 -1.934509e-01 1.984253e-01
-6.427115e-02 1.028676e+01 -4.134538e+01 4.216147e+01 5.009453e-06 7.829584e-03 -1.934509e-01 1.877289e-01
-5.771341e-02 1.027283e+01 -4.139598e+01 4.215622e+01 2.093087e-07 7.502282e-03 -1.934509e-01 1.984253e-01
-9.275611e-02 1.026614e+01 -4.141318e+01 4.218672e+01 -1.166975e-05 6.907829e-03 -1.934509e-01 1.934662e-01
-4.967658e-02 1.028826e+01 -4.143239e+01 4.218686e+01 1.005117e-06 7.247693e-03 -1.934509e-01 1.934662e-01
-5.694710e-02 1.028279e+01 -4.147171e+01 4.221306e+01 1.486589e-06 7.110703e-03 -2.049255e-01 2.049255e-01
-6.245714e-02 1.029527e+01 -4.150839e+01 4.222351e+01 3.493849e-06 7.030155e-03 -2.062683e-01 2.062683e-01
-6.896599e-02 1.033339e+01 -4.178120e+01 4.221167e+01 -1.288650e-05 7.013088e-03 -1.941681e-01 1.984253e-01
-7.678771e-02 1.036040e+01 -4.182045e+01 4.216862e+01 -2.740387e-06 6.988045e-03 -1.934509e-01 1.984253e-01
-8.116207e-02 1.037201e+01 -4.182169e+01 4.216837e+01 2.206181e-06 7.039597e-03 -2.021637e-01 2.021637e-01
-3.868858e-02 1.034101e+01 -4.186601e+01 4.212294e+01 4.491400e-06 6.570536e-03 -1.970825e-01 1.984253e-01
-9.425174e-02 1.033578e+01 -4.191180e+01 4.212312e+01 7.869752e-07 6.578673e-03 -1.967316e-01 1.984253e-01
-7.067860e-02 1.033556e+01 -3.933345e+01 4.213145e+01 -4.033177e-06 6.710739e-03 -1.984253e-01 1.984253e-01
-6.120221e-02 1.037340e+01 -4.196049e+01 4.215298e+01 -5.135163e-06 6.384853e-03 -1.984253e-01 1.934662e-01
-2.510637e-02 1.035344e+01 -4.196652e+01 4.218184e+01 -2.217815e-06 6.649262e-03 -1.934509e-01 1.984253e-01
5.022400e-03 1.036605e+01 -4.196696e+01 4.223778e+01 -1.635885e-07 6.209621e-03 -1.934509e-01 1.984253e-01
-6.942262e-02 1.034845e+01 -4.191727e+01 4.225754e+01 2.712752e-06 6.371100e-03 -1.934509e-01 1.984253e-01
-8.851166e-02 1.035693e+01 -4.187979e+01 4.225191e+01 2.176839e-06 6.567262e-03 -2.019043e-01 2.019043e-01
-5.320663e-02 1.033671e+01 -4.187207e+01 4.224045e+01 -1.756013e-06 6.520717e-03 -1.934509e-01 1.984253e-01
-5.826432e-02 1.037259e+01 -4.190276e+01 4.224144e+01 -4.615362e-07 6.437940e-03 -1.934509e-01 1.984253e-01
-8.666435e-02 1.037923e+01 -4.186917e+01 4.225417e+01 7.960661e-06 6.539925e-03 -2.069092e-01 2.069092e-01
-4.515175e-02 1.036839e+01 -4.186917e+01 4.226364e+01 4.832625e-06 6.588468e-03 -2.072601e-01 2.072601e-01
-8.713294e-02 1.037346e+01 -4.199156e+01 4.227438e+01 4.061200e-06 6.785965e-03 -2.038879e-01 2.038879e-01
-4.945060e-02 1.039282e+01 -4.200293e+01 4.240836e+01 9.355401e-06 7.064625e-03 -1.934509e-01 1.984253e-01
-3.791249e-02 1.038169e+01 -4.204010e+01 4.240033e+01 2.547957e-06 6.837432e-03 -1.984253e-01 1.984253e-01
1.568673e-03 1.040097e+01 -4.210977e+01 4.241681e+01 6.728170e-06 6.925200e-03 -2.043915e-01 2.043915e-01
-5.954478e-02 1.035328e+01 -4.211462e+01 3.920638e+01 -3.439326e-06 6.989395e-03 -1.945801e-01 1.984253e-01
-5.270072e-02 1.040115e+01 -4.211699e+01 4.243227e+01 -1.730311e-06 6.710493e-03 -2.039337e-01 2.039337e-01
-3.923728e-02 1.038841e+01 -4.214383e+01 4.244580e+01 -1.405260e-06 6.810279e-03 -2.046356e-01 2.046356e-01
-3.473000e-02 1.037317e+01 -3.957237e+01 4.243713e+01 -2.789174e-06 6.847809e-03 -2.023621e-01 2.023621e-01
-5.203913e-04 1.038861e+01 -4.215384e+01 4.249440e+01 -8.117543e-06 6.936088e-03 -1.934509e-01 1.984253e-01
-2.198893e-02 1.039050e+01 -4.221144e+01 4.259705e+01 9.305408e-06 7.839687e-03 -1.984253e-01 1.984253e-01
-1.474411e-02 1.043022e+01 -4.223019e+01 4.259409e+01 2.032706e-06 7.471484e-03 -2.124939e-01 2.124939e-01
-2.124067e-02 1.041409e+01 -4.228085e+01 3.993721e+01 1.044428e-05 6.997408e-03 -2.122955e-01 2.122955e-01
-3.576009e-02 1.040019e+01 -4.230971e+01 4.251683e+01 4.951076e-06 7.111770e-03 -1.945648e-01 1.984253e-01
-1.761613e-02 1.040185e+01 -4.235152e+01 4.250186e+01 -1.655049e-05 7.010381e-03 -1.984253e-01 1.984253e-01
-3.319994e-02 1.044021e+01 -4.238570e+01 4.253871e+01 -1.053573e-05 7.143167e-03 -1.984253e-01 1.984253e-01
9.372499e-03 1.042129e+01 -4.240276e+01 4.251398e+01 6.286478e-06 6.719309e-03 -1.984253e-01 1.934662e-01
-3.682114e-02 1.044565e+01 -4.239610e+01 3.921526e+01 -8.240963e-06 6.828599e-03 -2.014771e-01 2.014771e-01
-2.288795e-02 1.047386e+01 -4.239793e+01 4.257460e+01 -6.924219e-06 7.115052e-03 -2.055206e-01 2.055206e-01
-5.043169e-03 1.047203e+01 -4.237624e+01 4.258702e+01 7.084413e-06 7.391624e-03 -1.950226e-01 1.984253e-01
-1.351648e-02 1.047628e+01 -4.238547e+01 4.260913e+01 -2.941700e-06 6.874052e-03 -1.984253e-01 1.984253e-01
1.156608e-02 1.048970e+01 -4.238481e+01 4.274710e+01 -4.341491e-06 6.793063e-03 -1.984253e-01 1.984253e-01
5.329397e-03 1.053572e+01 -4.240382e+01 4.290883e+01 -6.916653e-06 7.041143e-03 -1.984253e-01 1.984253e-01
2.324010e-02 1.050835e+01 -4.245094e+01 4.290883e+01 -7.267610e-06 6.739036e-03 -1.984253e-01 1.984253e-01
-4.088476e-03 1.051950e+01 -4.246437e+01 4.289709e+01 -3.947359e-06 6.832693e-03 -1.984253e-01 1.984253e-01
1.783618e-02 1.050409e+01 -4.247723e+01 4.293953e+01 -3.133404e-06 6.787795e-03 -1.984253e-01 1.984253e-01
1.941603e-02 1.050807e+01 -4.249667e+01 4.292638e+01 -8.652679e-07 6.522876e-03 -1.984253e-01 1.984253e-01
-1.694260e-02 1.053155e+01 -4.252423e+01 4.291919e+01 5.727061e-06 6.779714e-03 -1.934509e-01 1.984253e-01
-1.963689e-02 1.056379e+01 -4.268250e+01 4.294351e+01 1.397121e-05 7.187461e-03 -2.019501e-01 2.019501e-01
-5.434211e-03 1.053994e+01 -4.272743e+01 4.296103e+01 1.324734e-05 7.230993e-03 -2.019501e-01 2.019501e-01
9.595009e-03 1.054360e+01 -4.270934e+01 4.296494e+01 4.508617e-06 7.342332e-03 -1.984253e-01 1.934662e-01
-3.590069e-03 1.054112e+01 -4.268861e+01 4.291498e+01 -9.538047e-07 6.973195e-03 -1.984253e-01 1.984253e-01
3.496523e-02 1.058330e+01 -4.272389e+01 4.297290e+01 1.216655e-05 7.052815e-03 -1.984253e-01 1.984253e-01
-5.675446e-03 1.058881e+01 -4.285210e+01 4.299957e+01 1.039246e-05 7.008369e-03 -1.984253e-01 1.984253e-01
1.582394e-02 1.057488e+01 -4.287239e+01 4.301964e+01 -2.339374e-07 6.905160e-03 -1.984253e-01 1.984253e-01
5.945354e-03 1.058330e+01 -4.289081e+01 4.299687e+01 -2.466025e-06 6.504599e-03 -1.984253e-01 1.984253e-01
6.194247e-03 1.059426e+01 -4.288782e+01 4.300537e+01 6.017944e-07 6.410847e-03 -1.984253e-01 1.984253e-01
5.289589e-02 1.058200e+01 -4.293243e+01 4.307628e+01 -5.328103e-06 6.703133e-03 -1.877289e-01 1.984253e-01
2.513131e-02 1.062648e+01 -4.305888e+01 4.308464e+01 -1.477081e-06 6.643544e-03 -1.984253e-01 1.984253e-01
1.785813e-02 1.062953e+01 -4.308273e+01 4.311124e+01 1.813153e-06 6.511398e-03 -1.984253e-01 1.984253e-01
1.482950e-02 1.063864e+01 -4.307326e+01 4.319730e+01 1.164248e-06 6.986189e-03 -1.934509e-01 1.984253e-01
2.405149e-02 1.063251e+01 -4.311462e+01 4.046815e+01 -3.421649e-07 6.821136e-03 -1.984253e-01 1.984253e-01
1.137403e-02 1.062985e+01 -4.304625e+01 4.324825e+01 6.934289e-07 6.832349e-03 -1.984253e-01 1.984253e-01
2.501553e-02 1.064721e+01 -4.298344e+01 4.327751e+01 -2.842245e-06 6.918901e-03 -1.984253e-01 1.984253e-01
1.821529e-02 1.065525e+01 -4.092332e+01 4.333145e+01 -3.865887e-06 6.668109e-03 -1.984253e-01 1.934662e-01
1.887251e-02 1.065549e+01 -4.305904e+01 4.337817e+01 2.207612e-06 6.485851e-03 -1.984253e-01 2.026825e-01
6.532966e-02 1.068737e+01 -4.309895e+01 4.340421e+01 4.193054e-06 6.474636e-03 -1.984253e-01 1.984253e-01
3.464972e-02 1.070180e+01 -4.095721e+01 4.360626e+01 -7.637676e-06 6.988741e-03 -1.984253e-01 1.934662e-01
6.068397e-02 1.071804e+01 -4.339793e+01 4.359793e+01 -7.744646e-06 7.013801e-03 -1.934509e-01 1.984253e-01
1.020299e-02 1.072357e+01 -4.342436e+01 4.361208e+01 5.895454e-06 6.541194e-03 -1.934509e-01 1.984253e-01
1.770210e-02 1.078824e+01 -4.347360e+01 4.375226e+01 -1.178142e-05 6.727293e-03 -1.984253e-01 1.984253e-01
2.482194e-02 1.075188e+01 -4.351109e+01 4.382454e+01 1.938863e-05 6.522814e-03 -1.934509e-01 2.026825e-01
2.391341e-02 1.078409e+01 -4.362997e+01 4.087181e+01 -3.477378e-06 6.579995e-03 -1.984253e-01 1.984253e-01
4.748707e-02 1.080391e+01 -4.370706e+01 4.395119e+01 -4.330848e-06 7.067883e-03 -1.984253e-01 1.984253e-01
4.052663e-02 1.081584e+01 -4.376909e+01 4.402525e+01 6.518422e-06 7.156479e-03 -1.984253e-01 1.934662e-01
3.253092e-02 1.084281e+01 -4.389427e+01 4.400827e+01 4.799500e-06 6.651998e-03 -1.984253e-01 2.026825e-01
5.407919e-02 1.081435e+01 -4.166588e+01 4.400992e+01 -3.116545e-06 7.087915e-03 -1.984253e-01 1.984253e-01
4.364300e-02 1.085204e+01 -4.162779e+01 4.399377e+01 -6.427370e-06 6.431658e-03 -1.934509e-01 2.026825e-01
1.889088e-02 1.081322e+01 -4.405586e+01 4.396341e+01 1.496414e-06 6.342831e-03 -1.934509e-01 2.026825e-01
1.209291e-02 1.085436e+01 -4.405850e+01 4.396362e+01 4.050025e-06 6.022870e-03 -1.984253e-01 1.984253e-01
3.356706e-02 1.084551e+01 -4.407629e+01 4.401285e+01 -8.059278e-06 6.237164e-03 -1.984253e-01 1.934662e-01
2.871543e-02 1.086314e+01 -4.407845e+01 4.401285e+01 -3.353038e-06 5.935623e-03 -1.984253e-01 1.934662e-01
2.443679e-02 1.088169e+01 -4.400996e+01 4.402208e+01 2.000829e-06 6.261130e-03 -1.934509e-01 1.984253e-01
3.594102e-02 1.089776e+01 -4.400996e+01 4.403880e+01 -2.477823e-06 6.121002e-03 -1.984253e-01 1.984253e-01
3.369561e-02 1.085695e+01 -4.403931e+01 4.408662e+01 -3.598508e-06 6.205733e-03 -1.984253e-01 1.984253e-01
4.370949e-02 1.089838e+01 -4.405972e+01 4.100204e+01 -4.969315e-06 6.206656e-03 -1.934509e-01 1.984253e-01
5.687568e-02 1.086432e+01 -4.409914e+01 4.409026e+01 7.129458e-07 5.866133e-03 -1.934509e-01 1.984253e-01
4.079187e-02 1.088116e+01 -4.409958e+01 4.409125e+01 8.455874e-07 5.824435e-03 -1.984253e-01 1.984253e-01
2.489109e-02 1.087392e+01 -4.413191e+01 4.407451e+01 1.847873e-06 6.013740e-03 -1.984253e-01 1.984253e-01
2.592911e-02 1.090309e+01 -4.427512e+01 4.407957e+01 -5.959056e-06 6.389579e-03 -1.984253e-01 1.984253e-01
2.328758e-03 1.091225e+01 -4.433664e+01 4.408746e+01 -1.952808e-06 6.263750e-03 -1.984253e-01 1.984253e-01
6.337930e-02 1.090575e+01 -4.438971e+01 4.408746e+01 -3.624957e-06 6.044142e-03 -1.984253e-01 1.984253e-01
3.958410e-02 1.088699e+01 -4.443398e+01 4.410002e+01 -3.939753e-06 6.133309e-03 -1.984253e-01 1.934662e-01
5.526684e-02 1.090295e+01 -4.443744e+01 4.118062e+01 3.060857e-06 5.939668e-03 -1.984253e-01 1.984253e-01
1.571286e-02 1.088701e+01 -4.450789e+01 4.420428e+01 -3.335423e-06 5.862544e-03 -1.984253e-01 1.984253e-01
3.904982e-02 1.091019e+01 -4.450565e+01 4.418707e+01 2.480573e-06 6.072864e-03 -1.984253e-01 1.984253e-01
1.195964e-03 1.091572e+01 -4.461191e+01 4.418016e+01 -6.645829e-06 6.176699e-03 -1.984253e-01 1.984253e-01
2.413892e-02 1.089617e+01 -4.461191e+01 4.418578e+01 -9.454724e-06 6.026729e-03 -1.984253e-01 1.984253e-01
4.773765e-02 1.091496e+01 -4.462648e+01 4.418587e+01 -3.320997e-06 6.042982e-03 -1.984253e-01 1.984253e-01
3.023673e-02 1.094552e+01 -4.464877e+01 4.419182e+01 4.744180e-06 5.708298e-03 -1.934509e-01 1.984253e-01
5.238450e-02 1.095241e+01 -4.465189e+01 4.419269e+01 6.625422e-06 5.793049e-03 -1.984253e-01 1.984253e-01
6.482546e-03 1.094943e+01 -4.472427e+01 4.133058e+01 -5.635907e-06 5.874603e-03 -1.984253e-01 1.984253e-01
4.486067e-02 1.096422e+01 -4.484326e+01 4.430743e+01 8.815347e-06 6.263895e-03 -1.984253e-01 1.984253e-01
5.050613e-02 1.095218e+01 -4.484125e+01 4.432175e+01 2.340928e-06 6.548297e-03 -1.934509e-01 1.984253e-01
2.229923e-02 1.095166e+01 -4.480798e+01 4.434071e+01 -4.768113e-06 6.334623e-03 -1.984253e-01 1.984253e-01
5.748014e-02 1.096368e+01 -4.475854e+01 4.439891e+01 2.102973e-06 6.254341e-03 -1.984253e-01 1.984253e-01
3.711186e-02 1.101220e+01 -4.479169e+01 4.446303e+01 -2.777785e-06 6.299012e-03 -1.984253e-01 1.984253e-01
9.343921e-03 1.099276e+01 -4.486235e+01 4.446303e+01 -1.732877e-06 6.128579e-03 -1.934509e-01 1.984253e-01
6.356193e-02 1.098182e+01 -4.486334e+01 4.449196e+01 -1.952716e-06 5.993840e-03 -1.984253e-01 1.984253e-01
4.746124e-02 1.100019e+01 -4.486717e+01 4.449586e+01 -3.616338e-06 6.074043e-03 -1.984253e-01 1.984253e-01
3.563038e-02 1.099984e+01 -4.490764e+01 4.451701e+01 -1.246140e-06 5.953743e-03 -1.984253e-01 1.984253e-01
4.680463e-02 1.103554e+01 -4.492451e+01 4.461533e+01 -4.294513e-06 6.070309e-03 -1.984253e-01 1.984253e-01
6.528396e-02 1.100294e+01 -4.503029e+01 4.466399e+01 -8.931580e-07 6.257294e-03 -1.984253e-01 1.984253e-01
2.836411e-02 1.102708e+01 -4.502135e+01 4.463702e+01 2.801442e-06 6.066058e-03 -1.984253e-01 1.984253e-01
6.084827e-02 1.101600e+01 -4.305081e+01 4.457684e+01 3.226081e-06 5.994111e-03 -1.984253e-01 1.984253e-01
3.119831e-02 1.101719e+01 -4.497792e+01 4.457684e+01 8.023230e-06 6.049492e-03 -1.984253e-01 1.984253e-01
6.252696e-02 1.105116e+01 -4.502118e+01 4.461995e+01 -2.925772e-06 5.913376e-03 -1.984253e-01 1.984253e-01
