-8.044009e-01 6.268400e+00 -3.447386e+01 3.969139e+01 2.297796e-06 3.052826e-03 -1.262285e-01 1.262285e-01
-8.326530e-01 7.071680e+00 -3.470506e+01 4.206929e+01 1.789327e-08 2.555058e-03 -1.262285e-01 1.262285e-01
-8.494663e-01 7.524570e+00 -3.575772e+01 4.199699e+01 3.639252e-07 2.362097e-03 -1.262285e-01 1.262285e-01
-8.401701e-01 7.870098e+00 -3.604780e+01 4.242340e+01 1.868588e-08 2.261187e-03 -1.262285e-01 1.262285e-01
-8.121843e-01 8.115635e+00 -3.646378e+01 4.261205e+01 -5.490707e-08 2.194737e-03 -1.262285e-01 1.262284e-01
-7.726464e-01 8.322275e+00 -3.729020e+01 4.379456e+01 -1.019477e-07 2.145091e-03 -1.262285e-01 1.262285e-01
-7.376174e-01 8.506811e+00 -3.866060e+01 4.621970e+01 -1.297373e-07 2.100006e-03 -1.262285e-01 1.262285e-01
-7.191814e-01 8.685906e+00 -3.944302e+01 4.697590e+01 5.204086e-08 2.065156e-03 -1.262285e-01 1.290222e-01
-7.025944e-01 8.825615e+00 -4.003894e+01 4.813958e+01 -5.833770e-08 2.038327e-03 -1.262285e-01 1.309167e-01
-6.845920e-01 8.988132e+00 -4.025682e+01 4.977537e+01 1.637361e-07 2.010264e-03 -1.262285e-01 1.262285e-01
-6.958461e-01 9.105856e+00 -4.023788e+01 5.049786e+01 -1.089543e-07 1.981952e-03 -1.262285e-01 1.372373e-01
-6.806565e-01 9.218642e+00 -4.083396e+01 5.120374e+01 1.372765e-07 1.963282e-03 -1.262285e-01 1.300573e-01
-6.938362e-01 9.322647e+00 -4.163926e+01 5.201283e+01 6.105598e-08 1.940187e-03 -1.262285e-01 1.262285e-01
-6.933434e-01 9.424785e+00 -4.191009e+01 5.338974e+01 -9.796775e-08 1.925531e-03 -1.262285e-01 1.268786e-01
-6.931386e-01 9.512773e+00 -4.203866e+01 5.366273e+01 2.075961e-07 1.908173e-03 -1.278736e-01 1.295887e-01
-6.994611e-01 9.596776e+00 -4.244423e+01 5.426246e+01 7.063203e-08 1.897767e-03 -1.280091e-01 1.322059e-01
-7.089212e-01 9.672774e+00 -4.301456e+01 5.470256e+01 9.940988e-09 1.877668e-03 -1.273695e-01 1.300894e-01
-7.184482e-01 9.746710e+00 -4.333510e+01 5.520277e+01 -4.618527e-08 1.867818e-03 -1.426969e-01 1.300808e-01
-7.183421e-01 9.814235e+00 -4.337180e+01 5.537275e+01 1.122204e-07 1.849405e-03 -1.373845e-01 1.300916e-01
-7.238800e-01 9.879478e+00 -4.421987e+01 5.591102e+01 5.211065e-08 1.842175e-03 -1.452796e-01 1.262285e-01
-7.280946e-01 9.938937e+00 -4.430631e+01 5.617442e+01 1.917575e-07 1.832185e-03 -1.415660e-01 1.262285e-01
-7.401788e-01 9.988399e+00 -4.500551e+01 5.680294e+01 -2.673266e-08 1.823396e-03 -1.481558e-01 1.262284e-01
-7.338905e-01 1.003777e+01 -4.511945e+01 5.735571e+01 1.189574e-07 1.812998e-03 -1.520960e-01 1.327210e-01
-7.484891e-01 1.008387e+01 -4.556645e+01 5.787379e+01 -1.683108e-08 1.805883e-03 -1.526411e-01 1.262285e-01
-7.407253e-01 1.013422e+01 -4.528153e+01 5.837806e+01 7.797254e-08 1.793809e-03 -1.552814e-01 1.269331e-01
-7.549859e-01 1.017004e+01 -4.564906e+01 5.888952e+01 -3.791669e-08 1.791567e-03 -1.594251e-01 1.367922e-01
-7.465214e-01 1.020920e+01 -4.612652e+01 5.895473e+01 9.868704e-08 1.788961e-03 -1.560956e-01 1.346779e-01
-7.628637e-01 1.025096e+01 -4.640732e+01 5.956838e+01 -1.074502e-09 1.779770e-03 -1.581065e-01 1.276463e-01
-7.544148e-01 1.028363e+01 -4.673806e+01 6.007789e+01 6.519507e-08 1.772402e-03 -1.663671e-01 1.369191e-01
-7.649244e-01 1.031559e+01 -4.655472e+01 6.055888e+01 2.448777e-08 1.767962e-03 -1.566845e-01 1.322142e-01
-7.658422e-01 1.035102e+01 -4.639745e+01 6.058018e+01 1.712471e-07 1.762365e-03 -1.692667e-01 1.363364e-01
-7.741613e-01 1.037464e+01 -4.665905e+01 6.090807e+01 3.644188e-08 1.760114e-03 -1.721999e-01 1.346734e-01
-7.795194e-01 1.040685e+01 -4.632696e+01 6.179367e+01 8.871648e-10 1.753536e-03 -1.728989e-01 1.492422e-01
-7.768785e-01 1.043244e+01 -4.673397e+01 6.102590e+01 5.755131e-08 1.748579e-03 -1.705373e-01 1.489593e-01
-7.920681e-01 1.045662e+01 -4.702712e+01 6.160862e+01 -8.803015e-08 1.745967e-03 -1.616961e-01 1.483910e-01
-7.827045e-01 1.047473e+01 -4.658089e+01 6.180774e+01 2.167863e-07 1.741772e-03 -1.758762e-01 1.605961e-01
-7.905953e-01 1.050512e+01 -4.693756e+01 6.248559e+01 6.777986e-08 1.739291e-03 -1.778631e-01 1.650475e-01
-8.050885e-01 1.052455e+01 -4.736205e+01 6.270765e+01 -1.862312e-07 1.734331e-03 -1.793626e-01 1.420315e-01
-8.115586e-01 1.054703e+01 -4.767634e+01 6.197805e+01 -1.225409e-07 1.731534e-03 -1.746098e-01 1.425295e-01
-7.980648e-01 1.056472e+01 -4.767969e+01 6.270211e+01 2.240070e-07 1.728251e-03 -1.704603e-01 1.553993e-01
-8.105277e-01 1.058238e+01 -4.839844e+01 6.248221e+01 9.975853e-08 1.722550e-03 -1.844277e-01 1.558981e-01
-8.199811e-01 1.060051e+01 -4.828171e+01 6.284800e+01 4.650213e-09 1.720319e-03 -1.824119e-01 1.543318e-01
-8.224897e-01 1.061293e+01 -4.884724e+01 6.294541e+01 -2.724456e-08 1.720384e-03 -1.807427e-01 1.615761e-01
-8.246779e-01 1.063566e+01 -4.865128e+01 6.305001e+01 1.395884e-07 1.714747e-03 -1.748137e-01 1.667249e-01
-8.289668e-01 1.064703e+01 -4.935404e+01 6.291616e+01 1.232477e-07 1.712362e-03 -1.773945e-01 1.526620e-01
-8.349807e-01 1.066927e+01 -4.971635e+01 6.306668e+01 9.733394e-09 1.708696e-03 -1.791565e-01 1.624583e-01
-8.359854e-01 1.067426e+01 -4.971981e+01 6.339773e+01 1.245280e-07 1.709538e-03 -1.818866e-01 1.639888e-01
-8.477817e-01 1.069103e+01 -5.012177e+01 6.310875e+01 -3.103366e-08 1.707323e-03 -1.830419e-01 1.586271e-01
-8.515467e-01 1.070179e+01 -5.032490e+01 6.381265e+01 9.895834e-09 1.702087e-03 -1.788455e-01 1.696233e-01
-8.555427e-01 1.070207e+01 -5.036511e+01 6.355829e+01 -2.030217e-08 1.704323e-03 -1.720242e-01 1.713070e-01
-8.433012e-01 1.071903e+01 -5.034839e+01 6.374025e+01 1.601126e-07 1.702427e-03 -1.815071e-01 1.692779e-01
-8.560194e-01 1.072935e+01 -5.078849e+01 6.404965e+01 -7.284678e-09 1.699950e-03 -1.788995e-01 1.465835e-01
-8.581652e-01 1.074138e+01 -5.087754e+01 6.386606e+01 -2.995173e-09 1.700881e-03 -1.827070e-01 1.734689e-01
-8.691725e-01 1.075015e+01 -5.103142e+01 6.350211e+01 1.473213e-08 1.695065e-03 -1.891427e-01 1.750723e-01
-8.545491e-01 1.076598e+01 -5.106887e+01 6.397308e+01 1.697676e-07 1.696957e-03 -1.840407e-01 1.650051e-01
-8.687647e-01 1.077573e+01 -5.129880e+01 6.438371e+01 -1.194058e-08 1.690932e-03 -1.805266e-01 1.742945e-01
-8.721905e-01 1.078177e+01 -5.102276e+01 6.438479e+01 7.071706e-08 1.691349e-03 -1.869559e-01 1.518109e-01
-8.819806e-01 1.079653e+01 -5.194572e+01 6.393057e+01 8.354561e-08 1.689722e-03 -1.877081e-01 1.750581e-01
-8.764191e-01 1.080397e+01 -5.173091e+01 6.451305e+01 4.339529e-09 1.690677e-03 -1.937320e-01 1.573087e-01
-8.846718e-01 1.081235e+01 -5.179658e+01 6.429437e+01 7.755721e-08 1.690278e-03 -1.933203e-01 1.693187e-01
-8.929307e-01 1.082391e+01 -5.178258e+01 6.468236e+01 -8.220695e-08 1.689228e-03 -1.944611e-01 1.724502e-01
-8.878836e-01 1.083509e+01 -5.233501e+01 6.471847e+01 1.014959e-07 1.684738e-03 -1.910593e-01 1.716742e-01
-8.932098e-01 1.083910e+01 -5.180891e+01 6.462832e+01 1.707386e-07 1.688078e-03 -1.920956e-01 1.783452e-01
-8.996337e-01 1.085057e+01 -5.256085e+01 6.483007e+01 7.639610e-08 1.685750e-03 -1.911263e-01 1.771052e-01
-9.106470e-01 1.086282e+01 -5.266315e+01 6.471350e+01 -4.967826e-08 1.682026e-03 -1.923060e-01 1.615799e-01
-9.073177e-01 1.087243e+01 -5.255808e+01 6.470132e+01 1.490122e-07 1.682383e-03 -1.923859e-01 1.668261e-01
-9.149369e-01 1.088406e+01 -5.268871e+01 6.466491e+01 4.494578e-08 1.681091e-03 -1.898762e-01 1.627883e-01
-9.210447e-01 1.088897e+01 -5.272490e+01 6.454669e+01 -9.831289e-08 1.681449e-03 -1.872688e-01 1.667806e-01
-9.069704e-01 1.090199e+01 -5.253062e+01 6.463049e+01 2.845742e-07 1.679620e-03 -1.918851e-01 1.730957e-01
-9.218371e-01 1.090432e+01 -5.293168e+01 6.455451e+01 -3.284258e-08 1.678274e-03 -1.856821e-01 1.828245e-01
-9.183712e-01 1.091498e+01 -5.229904e+01 6.472411e+01 1.106061e-07 1.674714e-03 -1.876877e-01 1.667098e-01
-9.278246e-01 1.091556e+01 -5.284194e+01 6.504443e+01 -4.209638e-08 1.678633e-03 -1.824878e-01 1.709113e-01
-9.345680e-01 1.092475e+01 -5.320693e+01 6.503435e+01 -4.061207e-08 1.677313e-03 -1.937070e-01 1.748505e-01
-9.304999e-01 1.093568e+01 -5.300012e+01 6.511909e+01 1.073404e-07 1.674737e-03 -1.979947e-01 1.551415e-01
-9.302846e-01 1.094264e+01 -5.281102e+01 6.539108e+01 7.990440e-08 1.675564e-03 -1.688102e-01 1.456074e-01
-9.330695e-01 1.094602e+01 -5.363813e+01 6.545967e+01 1.779548e-08 1.675955e-03 -1.810050e-01 1.866886e-01
-9.446048e-01 1.095924e+01 -5.294941e+01 6.530432e+01 4.959700e-08 1.673298e-03 -1.883740e-01 1.616946e-01
-9.424049e-01 1.096042e+01 -5.353053e+01 6.527282e+01 6.489446e-08 1.673128e-03 -1.731229e-01 1.840379e-01
-9.453050e-01 1.097716e+01 -5.341587e+01 6.513504e+01 3.330204e-08 1.672710e-03 -1.890759e-01 1.746170e-01
-9.467403e-01 1.098117e+01 -5.406750e+01 6.499362e+01 5.629810e-08 1.670908e-03 -1.930286e-01 1.772016e-01
-9.479947e-01 1.098688e+01 -5.362717e+01 6.548755e+01 6.037453e-08 1.667018e-03 -1.935938e-01 1.719074e-01
-9.565247e-01 1.099265e+01 -5.389813e+01 6.558885e+01 -3.703908e-08 1.670843e-03 -1.952685e-01 1.571601e-01
-9.546489e-01 1.099470e+01 -5.403021e+01 6.532548e+01 8.840339e-08 1.667363e-03 -1.749818e-01 1.757686e-01
-9.451967e-01 1.101131e+01 -5.377264e+01 6.538027e+01 1.132699e-07 1.669222e-03 -1.874525e-01 1.732603e-01
-9.602747e-01 1.101549e+01 -5.388934e+01 6.565635e+01 2.402298e-08 1.666346e-03 -1.923489e-01 1.747640e-01
-9.605397e-01 1.102268e+01 -5.362441e+01 6.560071e+01 1.422515e-07 1.666079e-03 -1.934862e-01 1.746884e-01
-9.702641e-01 1.103090e+01 -5.413234e+01 6.565168e+01 -1.927922e-07 1.666002e-03 -1.847144e-01 1.903664e-01
-9.648555e-01 1.103423e+01 -5.376071e+01 6.570412e+01 1.063308e-07 1.664102e-03 -1.922190e-01 1.802960e-01
-9.613964e-01 1.104410e+01 -5.421785e+01 6.556773e+01 5.437707e-08 1.663262e-03 -1.870465e-01 1.771889e-01
-9.752205e-01 1.104511e+01 -5.366277e+01 6.555306e+01 -5.323620e-08 1.664261e-03 -1.869321e-01 1.806228e-01
-9.728801e-01 1.105922e+01 -5.419075e+01 6.611036e+01 2.074725e-07 1.662735e-03 -1.929229e-01 1.855932e-01
-9.758217e-01 1.107017e+01 -5.385416e+01 6.590939e+01 -1.553230e-08 1.660552e-03 -1.749814e-01 1.821746e-01
-9.722784e-01 1.107154e+01 -5.459853e+01 6.578487e+01 2.542076e-08 1.655575e-03 -1.819102e-01 1.829549e-01
-9.731612e-01 1.107957e+01 -5.414213e+01 6.612424e+01 1.229360e-07 1.658891e-03 -1.883889e-01 1.815018e-01
-9.765998e-01 1.108774e+01 -5.419419e+01 6.595218e+01 3.701157e-08 1.655751e-03 -1.891397e-01 1.850951e-01
-9.841245e-01 1.109570e+01 -5.463211e+01 6.604601e+01 1.649194e-08 1.658632e-03 -1.942142e-01 1.846762e-01
-9.842257e-01 1.109947e+01 -5.495188e+01 6.623112e+01 7.630387e-08 1.656378e-03 -1.908092e-01 1.909813e-01
-9.864916e-01 1.111543e+01 -5.440646e+01 6.611091e+01 1.417653e-07 1.651778e-03 -1.914361e-01 1.838343e-01
-9.888032e-01 1.111855e+01 -5.495906e+01 6.655799e+01 -6.566952e-08 1.657980e-03 -1.854671e-01 1.886515e-01
-9.944490e-01 1.112451e+01 -5.520347e+01 6.616460e+01 -7.633829e-08 1.653638e-03 -1.928447e-01 1.912957e-01
-9.870471e-01 1.113157e+01 -5.467244e+01 6.649949e+01 1.790536e-07 1.652133e-03 -1.893711e-01 1.921278e-01
-9.978152e-01 1.114020e+01 -5.515819e+01 6.650233e+01 -2.492609e-08 1.650362e-03 -1.914570e-01 1.900184e-01
-9.968812e-01 1.114594e+01 -5.496816e+01 6.652172e+01 -1.071349e-08 1.648060e-03 -1.858204e-01 1.852839e-01
-9.964813e-01 1.115717e+01 -5.545383e+01 6.654400e+01 4.937011e-08 1.645420e-03 -1.793490e-01 1.929076e-01
-1.004759e+00 1.115621e+01 -5.502144e+01 6.679712e+01 -6.752279e-08 1.643146e-03 -1.941820e-01 1.955170e-01
-9.916401e-01 1.116428e+01 -5.535260e+01 6.642190e+01 3.385175e-07 1.650640e-03 -1.920242e-01 1.888407e-01
-1.002762e+00 1.116660e+01 -5.503496e+01 6.637705e+01 -1.975014e-07 1.644660e-03 -1.845075e-01 1.980286e-01
-1.004352e+00 1.117359e+01 -5.547397e+01 6.672702e+01 1.007727e-07 1.649102e-03 -1.764254e-01 1.813247e-01
-1.005725e+00 1.118620e+01 -5.564959e+01 6.646458e+01 9.545644e-08 1.640532e-03 -1.935744e-01 2.026150e-01
-1.003218e+00 1.118606e+01 -5.580210e+01 6.680521e+01 3.598334e-08 1.645122e-03 -1.809263e-01 2.016143e-01
-1.006913e+00 1.119327e+01 -5.572255e+01 6.650122e+01 -5.285961e-09 1.641089e-03 -2.035589e-01 1.845324e-01
-1.005579e+00 1.119920e+01 -5.623441e+01 6.706201e+01 8.143305e-08 1.641981e-03 -1.851728e-01 2.072852e-01
-1.007865e+00 1.120728e+01 -5.672459e+01 6.701513e+01 9.767875e-08 1.640887e-03 -1.906880e-01 2.039042e-01
-1.013064e+00 1.121556e+01 -5.652982e+01 6.730621e+01 -1.915078e-07 1.642791e-03 -1.836049e-01 1.934112e-01
-1.011729e+00 1.121692e+01 -5.672010e+01 6.749994e+01 2.701650e-07 1.641986e-03 -1.970893e-01 2.033940e-01
-1.019050e+00 1.122360e+01 -5.722053e+01 6.729731e+01 -1.277035e-07 1.636106e-03 -2.023905e-01 1.967981e-01
-1.018205e+00 1.122987e+01 -5.767828e+01 6.679799e+01 4.890528e-08 1.634477e-03 -2.012492e-01 2.015903e-01
-1.014921e+00 1.123777e+01 -5.742682e+01 6.743097e+01 -2.853513e-09 1.631415e-03 -1.940246e-01 2.078771e-01
-1.014737e+00 1.123680e+01 -5.693452e+01 6.753100e+01 1.029083e-07 1.630417e-03 -2.045651e-01 2.063046e-01
-1.021287e+00 1.125071e+01 -5.787063e+01 6.744126e+01 6.826506e-08 1.638122e-03 -2.017872e-01 1.861437e-01
-1.021393e+00 1.125497e+01 -5.834976e+01 6.750256e+01 -4.793621e-08 1.634487e-03 -1.965135e-01 2.038895e-01
-1.017651e+00 1.125868e+01 -5.792549e+01 6.756920e+01 1.232540e-07 1.634963e-03 -2.042824e-01 2.016681e-01
-1.023255e+00 1.126202e+01 -5.850255e+01 6.749071e+01 7.342777e-08 1.628522e-03 -2.070776e-01 2.037505e-01
-1.027494e+00 1.127110e+01 -5.859460e+01 6.764205e+01 -7.864290e-08 1.629340e-03 -2.036820e-01 2.110369e-01
-1.022062e+00 1.127979e+01 -5.913743e+01 6.774097e+01 1.893554e-07 1.628579e-03 -1.967574e-01 1.991595e-01
-1.023843e+00 1.128048e+01 -5.895345e+01 6.809083e+01 -1.992819e-08 1.625269e-03 -1.980225e-01 2.055979e-01
-1.028355e+00 1.128329e+01 -5.925949e+01 6.775450e+01 -3.138489e-08 1.623764e-03 -1.936196e-01 2.001068e-01
-1.025779e+00 1.129273e+01 -5.934300e+01 6.805008e+01 9.812219e-08 1.628508e-03 -1.891935e-01 2.107419e-01
-1.033152e+00 1.129577e+01 -5.933231e+01 6.797533e+01 -7.740424e-08 1.624719e-03 -2.158121e-01 2.117659e-01
-1.027374e+00 1.129800e+01 -5.943275e+01 6.829111e+01 1.268521e-07 1.625269e-03 -1.744230e-01 2.052447e-01
-1.036097e+00 1.130799e+01 -6.025731e+01 6.831238e+01 3.406419e-08 1.625118e-03 -1.781755e-01 1.790249e-01
