-9.801562e+00 9.025399e+00 -7.788672e+01 3.986328e+01 2.315908e-05 4.181698e-03 -4.492188e-01 7.890625e-01
-1.314190e+01 9.906809e+00 -8.517969e+01 4.352734e+01 3.649044e-06 2.896548e-03 -5.039062e-01 8.750000e-01
-1.377239e+01 1.029606e+01 -8.499609e+01 4.212500e+01 4.325022e-06 2.827988e-03 -4.414062e-01 9.414062e-01
-1.416309e+01 1.062735e+01 -8.941016e+01 4.221094e+01 3.586486e-06 2.741511e-03 -4.375000e-01 1.046875e+00
-1.440439e+01 1.089328e+01 -9.128125e+01 4.260938e+01 3.418710e-06 2.681107e-03 -4.960938e-01 9.531250e-01
