-1.459491e+00 8.044679e+00 -4.389243e+01 3.923724e+01 4.780153e-06 2.794647e-03 -1.262285e-01 1.262285e-01
-1.697952e+00 9.486050e+00 -5.123675e+01 4.915045e+01 4.558866e-08 2.048546e-03 -1.262285e-01 1.262285e-01
-1.783560e+00 1.029535e+01 -5.916126e+01 5.393682e+01 5.030119e-09 1.893193e-03 -1.262285e-01 1.271658e-01
-1.896195e+00 1.086324e+01 -6.382560e+01 5.624307e+01 2.772391e-08 1.814844e-03 -1.442063e-01 1.418493e-01
-1.982853e+00 1.128610e+01 -6.882106e+01 6.191590e+01 2.977184e-08 1.758783e-03 -1.510379e-01 1.555505e-01
-2.005901e+00 1.160433e+01 -7.456175e+01 6.521559e+01 2.303764e-08 1.707242e-03 -1.476842e-01 1.535757e-01
-2.071049e+00 1.198046e+01 -7.648656e+01 6.766430e+01 4.068018e-08 1.678173e-03 -1.569999e-01 1.638916e-01
-2.083895e+00 1.248491e+01 -8.066040e+01 7.584397e+01 7.631519e-08 1.639056e-03 -1.647728e-01 1.584989e-01
-2.150819e+00 1.295206e+01 -8.554946e+01 7.780621e+01 -9.750808e-08 1.604127e-03 -1.646591e-01 1.587104e-01
-2.108411e+00 1.337112e+01 -8.684519e+01 8.264143e+01 6.996156e-08 1.589299e-03 -1.557318e-01 1.590271e-01
-2.116312e+00 1.379423e+01 -8.753265e+01 8.153996e+01 -1.503051e-08 1.560258e-03 -1.579067e-01 1.551369e-01
-2.154295e+00 1.417412e+01 -9.431477e+01 8.558826e+01 1.798828e-08 1.549070e-03 -1.597887e-01 1.644315e-01
-2.118428e+00 1.440666e+01 -9.774126e+01 8.901741e+01 1.198349e-08 1.531174e-03 -1.736672e-01 1.635437e-01
-2.118671e+00 1.466200e+01 -9.858275e+01 9.156079e+01 3.746504e-08 1.509908e-03 -1.670920e-01 1.666686e-01
-2.100957e+00 1.491282e+01 -1.017021e+02 9.445606e+01 -1.192295e-07 1.505841e-03 -1.707357e-01 1.565849e-01
-2.108664e+00 1.513148e+01 -1.020674e+02 9.322126e+01 1.489671e-07 1.493648e-03 -1.648360e-01 1.665756e-01
-2.089869e+00 1.534831e+01 -1.059537e+02 9.639123e+01 -5.514407e-08 1.486726e-03 -1.653614e-01 1.695769e-01
-2.134391e+00 1.552228e+01 -1.088305e+02 1.008424e+02 -2.336790e-08 1.461512e-03 -1.725974e-01 1.669632e-01
-2.174879e+00 1.574216e+01 -1.101934e+02 9.963857e+01 8.300372e-08 1.449653e-03 -1.728552e-01 2.122130e-01
-2.150302e+00 1.598340e+01 -1.099598e+02 1.067057e+02 -9.438272e-08 1.441100e-03 -1.766272e-01 1.724577e-01
-2.156252e+00 1.617046e+01 -1.157773e+02 1.045089e+02 3.587160e-08 1.435991e-03 -1.799934e-01 2.098912e-01
-2.189084e+00 1.635884e+01 -1.190307e+02 1.083126e+02 -5.548932e-08 1.433913e-03 -1.875159e-01 1.786397e-01
-2.194148e+00 1.651075e+01 -1.188393e+02 1.078822e+02 5.246203e-08 1.416314e-03 -2.071445e-01 1.856824e-01
-2.244655e+00 1.665228e+01 -1.205538e+02 1.123752e+02 6.292746e-08 1.402447e-03 -1.833209e-01 1.791201e-01
-2.233205e+00 1.673591e+01 -1.209573e+02 1.106814e+02 -8.519299e-09 1.393812e-03 -1.977907e-01 1.893925e-01
-2.263072e+00 1.685304e+01 -1.208810e+02 1.130008e+02 -4.012626e-08 1.386821e-03 -1.743562e-01 1.906870e-01
-2.292305e+00 1.698278e+01 -1.241333e+02 1.137097e+02 1.147253e-08 1.379885e-03 -1.794853e-01 1.825958e-01
-2.272723e+00 1.716639e+01 -1.260149e+02 1.155027e+02 -1.757811e-08 1.392035e-03 -1.890049e-01 2.019536e-01
-2.355098e+00 1.726188e+01 -1.303723e+02 1.168937e+02 3.876242e-08 1.372681e-03 -2.039800e-01 1.860674e-01
-2.351664e+00 1.739823e+01 -1.297829e+02 1.165242e+02 2.615142e-08 1.364174e-03 -1.886222e-01 1.940947e-01
-2.395822e+00 1.750907e+01 -1.305057e+02 1.175726e+02 -2.312949e-08 1.361852e-03 -1.933978e-01 1.859375e-01
-2.428516e+00 1.766186e+01 -1.332397e+02 1.229577e+02 -3.311954e-08 1.347936e-03 -2.014752e-01 2.167149e-01
