-2.784780e-01 3.551977e+00 -2.374113e+01 2.770477e+01 7.480008e-05 7.920200e-03 -1.573944e-01 1.239014e-01
-2.683626e-01 3.597733e+00 -2.374240e+01 2.365834e+01 4.484925e-05 7.826182e-03 -1.471405e-01 1.239014e-01
-3.410441e-01 3.545422e+00 -2.128055e+01 2.496338e+01 4.309460e-05 7.868817e-03 -1.471405e-01 1.239014e-01
-3.073840e-01 3.516073e+00 -2.667949e+01 2.770139e+01 1.061576e-05 7.817103e-03 -1.573944e-01 1.239014e-01
-2.684206e-01 3.465862e+00 -1.936676e+01 2.173953e+01 2.115314e-06 7.837082e-03 -1.506348e-01 1.120605e-01
-3.396647e-01 3.537006e+00 -2.314119e+01 2.763454e+01 -5.105635e-05 7.928935e-03 -1.573944e-01 1.000061e-01
-3.133119e-01 3.597715e+00 -2.379070e+01 2.248891e+01 -2.718607e-05 7.978017e-03 -1.692200e-01 1.000061e-01
-3.073005e-01 3.554898e+00 -2.363927e+01 2.346262e+01 4.457049e-05 8.009033e-03 -1.573944e-01 1.352997e-01
-2.609909e-01 3.525384e+00 -2.133723e+01 2.332561e+01 1.217785e-04 8.106264e-03 -1.471405e-01 1.352997e-01
-2.700851e-01 3.635917e+00 -2.668980e+01 2.332019e+01 5.282496e-05 7.966783e-03 -1.471405e-01 1.239014e-01
-3.329123e-01 3.557910e+00 -2.314893e+01 2.496820e+01 1.617874e-05 8.093821e-03 -1.636505e-01 1.120605e-01
-2.906073e-01 3.620517e+00 -2.386635e+01 2.360452e+01 -4.255961e-05 8.388097e-03 -1.636505e-01 1.120605e-01
-2.877988e-01 3.548869e+00 -2.727530e+01 2.509398e+01 8.701779e-06 8.534850e-03 -1.727142e-01 1.239014e-01
-2.817566e-01 3.556050e+00 -2.742088e+01 2.785065e+01 -4.428514e-06 8.706928e-03 -1.636505e-01 1.154785e-01
-2.949561e-01 3.550624e+00 -2.169206e+01 2.796744e+01 -1.599947e-05 8.592115e-03 -1.808167e-01 1.154785e-01
-2.826741e-01 3.633035e+00 -2.759775e+01 2.248912e+01 -1.487913e-06 8.587970e-03 -1.727142e-01 1.154785e-01
-3.203374e-01 3.561160e+00 -2.772563e+01 2.289809e+01 8.465024e-06 8.679678e-03 -1.692200e-01 1.154785e-01
-3.656009e-01 3.598813e+00 -2.480708e+01 2.850101e+01 -3.137359e-05 9.484393e-03 -1.692200e-01 1.239014e-01
-3.626873e-01 3.640071e+00 -2.297523e+01 2.287849e+01 -1.571779e-05 9.681741e-03 -1.808167e-01 1.334381e-01
-3.623882e-01 3.672517e+00 -2.817004e+01 2.298508e+01 5.926893e-05 9.786542e-03 -1.839294e-01 1.561737e-01
-3.998318e-01 3.691869e+00 -2.452042e+01 2.914267e+01 -5.069214e-05 1.027334e-02 -1.888428e-01 1.352997e-01
-3.468355e-01 3.772015e+00 -2.827464e+01 2.908952e+01 8.358549e-05 1.149014e-02 -1.624756e-01 1.561737e-01
-3.565203e-01 3.753000e+00 -2.448756e+01 2.255881e+01 -2.178875e-05 1.146122e-02 -1.866455e-01 1.561737e-01
-4.011493e-01 3.723506e+00 -2.338748e+01 2.217757e+01 -6.287059e-06 1.207221e-02 -1.692200e-01 1.653900e-01
-3.465160e-01 3.695102e+00 -2.337474e+01 2.686189e+01 1.880749e-05 1.197151e-02 -1.851196e-01 1.737366e-01
-4.014294e-01 3.739375e+00 -2.357043e+01 2.953879e+01 -3.204264e-05 1.241079e-02 -1.866455e-01 1.653900e-01
-3.336538e-01 3.786988e+00 -2.294797e+01 2.971263e+01 4.359573e-05 1.278333e-02 -1.851196e-01 1.737366e-01
-3.504978e-01 3.820494e+00 -2.388167e+01 2.449945e+01 6.675231e-05 1.331820e-02 -1.851196e-01 1.877289e-01
-4.060379e-01 3.935017e+00 -2.332289e+01 3.034131e+01 -1.103205e-05 1.274622e-02 -1.839294e-01 1.653900e-01
-3.955807e-01 3.874827e+00 -2.425558e+01 2.541167e+01 4.892079e-05 1.343289e-02 -1.851196e-01 1.859283e-01
-3.154279e-01 3.999805e+00 -2.354770e+01 2.418970e+01 5.223295e-05 1.472926e-02 -1.851196e-01 1.902161e-01
-3.262619e-01 3.954632e+00 -2.976282e+01 2.986630e+01 -4.873873e-05 1.452946e-02 -1.920319e-01 1.737366e-01
-3.974610e-01 3.953006e+00 -2.434332e+01 2.992702e+01 2.616580e-05 1.418069e-02 -1.920319e-01 1.737366e-01
-3.324647e-01 3.966031e+00 -2.439792e+01 2.525818e+01 1.759117e-05 1.398666e-02 -1.888428e-01 1.737366e-01
-3.903408e-01 4.047157e+00 -2.439806e+01 3.044789e+01 1.905338e-05 1.449012e-02 -1.851196e-01 1.934662e-01
-3.703959e-01 3.998325e+00 -2.442581e+01 2.518295e+01 -4.522032e-06 1.506913e-02 -1.851196e-01 1.934662e-01
-2.608249e-01 4.299677e+00 -2.574712e+01 2.412492e+01 -5.818906e-05 1.691286e-02 -2.021637e-01 2.063141e-01
-2.283488e-01 4.400036e+00 -2.936938e+01 3.229512e+01 3.530994e-05 1.840405e-02 -1.902161e-01 2.063141e-01
-2.580833e-01 4.435981e+00 -2.569608e+01 2.406790e+01 4.460716e-05 1.838517e-02 -1.959686e-01 1.998138e-01
-2.697084e-01 4.386007e+00 -2.643564e+01 2.422993e+01 -1.080797e-05 1.744755e-02 -2.021637e-01 1.971436e-01
-2.529631e-01 4.431163e+00 -2.522701e+01 3.030829e+01 -1.549144e-05 1.690479e-02 -1.971283e-01 1.984253e-01
-2.609059e-01 4.437348e+00 -2.524805e+01 2.611601e+01 -9.086549e-06 1.598315e-02 -1.998596e-01 1.934662e-01
-2.677720e-01 4.484521e+00 -2.524927e+01 3.001282e+01 -5.663431e-05 1.722500e-02 -1.939392e-01 2.063141e-01
-2.866980e-01 4.402653e+00 -2.440388e+01 2.416733e+01 1.317604e-05 1.568513e-02 -2.098846e-01 2.098846e-01
-2.951604e-01 4.493425e+00 -2.631142e+01 3.230785e+01 4.808691e-05 1.720473e-02 -2.033844e-01 2.093964e-01
-2.823281e-01 4.438866e+00 -2.631142e+01 2.258528e+01 5.013080e-05 1.554929e-02 -2.111206e-01 2.111206e-01
-2.007535e-01 4.456243e+00 -2.339481e+01 2.583257e+01 1.370701e-06 1.533779e-02 -2.111206e-01 2.111206e-01
-1.921992e-01 4.370033e+00 -3.000627e+01 3.229945e+01 -6.376556e-05 1.644189e-02 -1.963654e-01 1.963654e-01
-2.687439e-01 4.445715e+00 -2.482578e+01 2.310693e+01 4.378086e-05 1.497557e-02 -1.949310e-01 1.949310e-01
-3.073604e-01 4.462634e+00 -2.999037e+01 3.228334e+01 2.126102e-05 1.344398e-02 -1.951599e-01 1.951599e-01
-2.867785e-01 4.562618e+00 -2.947127e+01 3.144884e+01 1.020038e-04 1.497530e-02 -2.304993e-01 2.026825e-01
-2.485713e-01 4.477488e+00 -2.515851e+01 3.146756e+01 4.089947e-05 1.518945e-02 -2.144165e-01 1.971436e-01
-2.944749e-01 4.508692e+00 -2.948730e+01 2.380693e+01 -9.942148e-06 1.404865e-02 -2.214813e-01 2.214813e-01
-3.540865e-01 4.533496e+00 -2.451334e+01 2.347827e+01 1.323040e-05 1.565766e-02 -2.150421e-01 2.063141e-01
-3.067131e-01 4.550433e+00 -2.676505e+01 2.175830e+01 -3.819318e-05 1.642399e-02 -2.268677e-01 2.163849e-01
-3.231480e-01 4.539906e+00 -2.424359e+01 2.852304e+01 -3.420323e-05 1.479598e-02 -2.181244e-01 2.063141e-01
-3.257277e-01 4.555148e+00 -2.514713e+01 2.394130e+01 -3.872143e-05 1.310343e-02 -2.444458e-01 2.444458e-01
-2.509858e-01 4.600173e+00 -2.924722e+01 2.478351e+01 -7.434536e-06 1.197702e-02 -2.280273e-01 2.063141e-01
-3.669714e-01 4.618692e+00 -2.924722e+01 2.782790e+01 7.010298e-05 1.510872e-02 -2.331543e-01 2.063141e-01
-2.986704e-01 4.607099e+00 -2.916516e+01 2.407875e+01 5.033044e-05 1.417098e-02 -2.308655e-01 2.025909e-01
-2.938433e-01 4.646670e+00 -2.628877e+01 2.358821e+01 -4.173589e-05 1.392624e-02 -2.310333e-01 1.998596e-01
-3.611368e-01 4.596397e+00 -2.640723e+01 2.778960e+01 -2.253173e-05 1.335431e-02 -2.207336e-01 2.120514e-01
-3.459495e-01 4.548763e+00 -2.904619e+01 2.420338e+01 4.051931e-05 1.283329e-02 -2.454224e-01 1.984253e-01
-3.624018e-01 4.569393e+00 -2.650658e+01 2.315112e+01 -1.679313e-05 1.158006e-02 -2.474060e-01 2.026825e-01
-3.056196e-01 4.644365e+00 -2.496741e+01 3.056006e+01 6.020715e-06 1.251200e-02 -2.402649e-01 2.117920e-01
-3.295190e-01 4.636060e+00 -2.447275e+01 2.342955e+01 2.373165e-05 1.248180e-02 -2.399139e-01 2.353516e-01
-3.288471e-01 4.608777e+00 -2.416446e+01 2.331618e+01 -2.366526e-05 1.177529e-02 -2.400055e-01 2.022247e-01
-3.136530e-01 4.629168e+00 -2.873643e+01 3.058258e+01 -5.659552e-05 1.287239e-02 -2.395935e-01 2.026825e-01
-3.610357e-01 4.604319e+00 -2.500751e+01 2.719647e+01 -3.795243e-05 1.267219e-02 -2.236633e-01 1.934662e-01
-2.517687e-01 4.581164e+00 -2.668776e+01 3.056172e+01 -1.758473e-05 1.099244e-02 -2.310028e-01 2.021790e-01
-3.012377e-01 4.632985e+00 -2.409290e+01 3.056427e+01 6.392195e-05 1.264569e-02 -1.984558e-01 2.063141e-01
-3.130271e-01 4.715699e+00 -2.503670e+01 3.057452e+01 1.837097e-05 1.160582e-02 -2.207642e-01 2.026825e-01
-3.075757e-01 4.729814e+00 -2.756705e+01 2.350539e+01 2.659937e-05 1.185906e-02 -2.237701e-01 2.093964e-01
-2.808835e-01 4.684947e+00 -2.789969e+01 2.409329e+01 -1.287508e-05 1.184182e-02 -2.422333e-01 1.909485e-01
-2.426434e-01 4.707459e+00 -2.632283e+01 3.085155e+01 3.930935e-05 1.023037e-02 -2.328796e-01 2.026825e-01
-3.117172e-01 4.679446e+00 -2.558862e+01 3.092119e+01 -1.116487e-04 1.263135e-02 -2.560425e-01 1.971436e-01
-3.030681e-01 4.701578e+00 -2.525322e+01 3.085068e+01 -1.475828e-05 1.141865e-02 -2.307129e-01 2.093964e-01
-2.959433e-01 4.696325e+00 -2.621111e+01 3.069389e+01 -1.316321e-05 1.267962e-02 -2.353210e-01 2.182465e-01
-3.853595e-01 4.759904e+00 -2.594966e+01 2.637355e+01 -8.627999e-06 1.246756e-02 -2.314606e-01 2.313080e-01
-3.021313e-01 4.691684e+00 -2.594743e+01 2.711786e+01 -2.668216e-05 1.169981e-02 -2.322388e-01 2.203674e-01
-3.563944e-01 4.723365e+00 -2.812187e+01 2.713107e+01 2.711679e-06 1.221230e-02 -2.451019e-01 1.971436e-01
-3.063113e-01 4.712261e+00 -2.330246e+01 2.712390e+01 -1.647512e-06 1.133675e-02 -2.514954e-01 2.041321e-01
-2.568271e-01 4.718210e+00 -2.427420e+01 3.080972e+01 2.304149e-05 1.022024e-02 -2.535706e-01 2.026825e-01
-3.283198e-01 4.757007e+00 -2.790559e+01 3.065448e+01 7.667289e-06 1.044474e-02 -2.210541e-01 2.063141e-01
-3.279769e-01 4.759958e+00 -2.793707e+01 2.435056e+01 1.053552e-05 1.161495e-02 -2.443085e-01 1.984253e-01
-3.382441e-01 4.804993e+00 -2.587463e+01 3.055841e+01 3.113931e-05 1.121166e-02 -2.693024e-01 2.221069e-01
-3.305210e-01 4.736063e+00 -2.792166e+01 2.500024e+01 3.333742e-05 1.018545e-02 -2.440948e-01 2.063141e-01
-2.825926e-01 4.799527e+00 -2.792467e+01 3.039601e+01 1.039604e-05 1.076187e-02 -2.576599e-01 2.576599e-01
-4.122660e-01 4.760928e+00 -2.415331e+01 2.515071e+01 2.008962e-06 1.186456e-02 -2.391815e-01 2.313690e-01
-3.012204e-01 4.771042e+00 -2.590456e+01 2.619635e+01 -6.943182e-06 9.486140e-03 -2.208405e-01 2.063141e-01
-3.831207e-01 4.817042e+00 -2.480092e+01 2.619769e+01 3.822065e-07 1.120730e-02 -2.436218e-01 2.013092e-01
-3.394255e-01 4.861799e+00 -2.642700e+01 2.706187e+01 -3.222315e-05 1.429426e-02 -2.958984e-01 2.481232e-01
-2.794340e-01 4.893267e+00 -2.636697e+01 3.103134e+01 -5.563358e-05 1.563880e-02 -2.958984e-01 2.450104e-01
-3.545784e-01 4.917141e+00 -2.806429e+01 3.088834e+01 -1.712840e-05 1.434175e-02 -2.993469e-01 2.905579e-01
-3.047747e-01 4.854323e+00 -2.257689e+01 2.637283e+01 7.196118e-05 1.415196e-02 -3.000946e-01 3.000946e-01
-3.001307e-01 4.894036e+00 -2.611237e+01 3.086612e+01 -1.074099e-06 1.212587e-02 -3.109589e-01 1.999207e-01
-3.507205e-01 4.916752e+00 -2.571611e+01 3.064314e+01 1.044746e-05 1.130050e-02 -2.729187e-01 2.517242e-01
-2.852855e-01 4.878542e+00 -2.733307e+01 2.596306e+01 -2.700351e-05 1.078729e-02 -2.922211e-01 2.049561e-01
-3.047194e-01 4.944801e+00 -2.563210e+01 3.054707e+01 -1.724990e-05 1.090822e-02 -2.198029e-01 2.114868e-01
-3.867285e-01 4.867720e+00 -2.703244e+01 3.074965e+01 -1.111654e-04 1.185516e-02 -2.578583e-01 2.063141e-01
-3.704601e-01 4.955897e+00 -2.396111e+01 3.075014e+01 -5.931411e-05 1.158658e-02 -2.733154e-01 2.068176e-01
-3.300399e-01 4.893293e+00 -2.554260e+01 2.713074e+01 6.970636e-07 1.100988e-02 -2.231903e-01 2.063141e-01
-3.497110e-01 4.838061e+00 -2.483847e+01 2.612701e+01 -1.702794e-05 1.049242e-02 -2.769470e-01 2.112732e-01
-3.392359e-01 4.868559e+00 -2.680098e+01 2.417798e+01 -2.316766e-05 8.946403e-03 -2.905426e-01 1.984253e-01
-3.235153e-01 4.882061e+00 -2.678986e+01 2.620163e+01 2.516588e-05 9.965253e-03 -2.282562e-01 2.061615e-01
-2.579942e-01 4.840811e+00 -2.676491e+01 2.668886e+01 2.385539e-05 1.041296e-02 -2.989960e-01 2.783661e-01
-2.687277e-01 4.899576e+00 -2.436441e+01 3.006194e+01 3.271245e-05 1.074649e-02 -2.910309e-01 2.086487e-01
-3.269887e-01 4.944524e+00 -2.599055e+01 2.717732e+01 5.272477e-07 9.562960e-03 -2.358551e-01 2.358551e-01
-3.528810e-01 4.920577e+00 -2.599055e+01 3.006419e+01 4.173093e-06 8.943291e-03 -2.072906e-01 2.093964e-01
-3.197657e-01 4.896036e+00 -2.471590e+01 3.006467e+01 8.789697e-06 8.311158e-03 -2.698822e-01 2.120056e-01
-3.543282e-01 5.011548e+00 -2.635678e+01 2.750140e+01 -4.306578e-08 8.079341e-03 -2.588654e-01 2.149200e-01
-3.150228e-01 4.961675e+00 -2.613896e+01 2.986041e+01 -2.554248e-05 9.425473e-03 -2.894745e-01 2.093964e-01
-3.898134e-01 4.891508e+00 -2.507527e+01 2.690511e+01 -1.699539e-05 8.721347e-03 -2.536621e-01 2.033539e-01
-4.096117e-01 4.985268e+00 -2.562863e+01 2.725203e+01 -6.475317e-06 8.291635e-03 -2.847900e-01 2.093964e-01
-4.503765e-01 4.884169e+00 -2.507298e+01 2.723996e+01 -1.277982e-05 8.381116e-03 -2.819519e-01 2.093964e-01
-4.448451e-01 4.997551e+00 -2.561790e+01 2.562431e+01 7.179535e-07 6.397441e-03 -1.998596e-01 1.877289e-01
-4.154365e-01 4.985556e+00 -2.538744e+01 2.992683e+01 -2.324883e-05 7.716125e-03 -2.804413e-01 2.120056e-01
-3.885098e-01 4.961699e+00 -2.568665e+01 2.991454e+01 4.577297e-06 8.514703e-03 -2.810669e-01 2.120056e-01
-3.653644e-01 4.882076e+00 -2.505717e+01 2.991454e+01 -1.689649e-06 8.146604e-03 -2.810669e-01 2.120056e-01
-4.472182e-01 4.989959e+00 -2.505717e+01 2.479144e+01 7.118580e-06 7.380660e-03 -2.384491e-01 2.120056e-01
-4.518617e-01 5.004158e+00 -2.488461e+01 2.983183e+01 -6.258685e-06 8.014700e-03 -2.357330e-01 1.902161e-01
-3.813452e-01 5.035670e+00 -2.548010e+01 2.982777e+01 -1.023022e-06 7.469362e-03 -2.720642e-01 2.093964e-01
-3.768210e-01 4.927601e+00 -2.544937e+01 2.983327e+01 1.569019e-05 7.921167e-03 -1.661072e-01 1.811676e-01
-3.986947e-01 4.949742e+00 -2.487540e+01 2.679039e+01 -1.081214e-05 6.891828e-03 -2.582245e-01 1.680450e-01
-3.529392e-01 4.971992e+00 -2.544937e+01 2.997418e+01 1.049213e-05 7.852420e-03 -2.143555e-01 2.132568e-01
-3.239550e-01 4.972246e+00 -2.398732e+01 2.808937e+01 -1.705004e-05 7.926680e-03 -2.621307e-01 2.093964e-01
-4.437437e-01 4.999769e+00 -2.479764e+01 3.023512e+01 -2.992951e-05 8.598948e-03 -2.452393e-01 2.063141e-01
-4.188093e-01 4.966707e+00 -2.559927e+01 2.564801e+01 2.519126e-05 8.004573e-03 -2.909851e-01 2.120056e-01
-3.570320e-01 4.986652e+00 -2.474532e+01 2.551212e+01 -3.107460e-05 7.923967e-03 -2.260437e-01 2.141876e-01
-3.617022e-01 5.003350e+00 -2.655687e+01 2.586603e+01 -1.535999e-05 8.927516e-03 -2.292480e-01 2.006989e-01
-3.448860e-01 5.007821e+00 -2.655687e+01 3.005940e+01 -4.745303e-05 7.378037e-03 -2.059631e-01 2.120056e-01
-3.572840e-01 4.950861e+00 -2.567032e+01 2.663095e+01 4.983321e-05 8.284613e-03 -2.328949e-01 2.002563e-01
-3.726102e-01 4.988987e+00 -2.554750e+01 2.994583e+01 -1.394209e-05 7.485045e-03 -2.539673e-01 1.859283e-01
-3.460249e-01 5.084989e+00 -2.659969e+01 2.797125e+01 6.262543e-06 8.044505e-03 -2.804413e-01 2.141876e-01
-3.146334e-01 5.019463e+00 -2.553407e+01 2.587614e+01 -3.171845e-06 7.836831e-03 -2.774506e-01 1.725464e-01
-3.419125e-01 4.943539e+00 -2.563213e+01 2.323592e+01 1.648289e-06 8.249374e-03 -2.298889e-01 1.660614e-01
-3.642626e-01 5.028730e+00 -2.577028e+01 2.981087e+01 2.113456e-07 7.637478e-03 -2.743073e-01 2.120056e-01
-3.734154e-01 5.021781e+00 -2.520874e+01 2.981439e+01 -2.256844e-05 7.041173e-03 -2.654419e-01 2.120056e-01
-3.753106e-01 5.047178e+00 -2.497502e+01 2.777925e+01 -1.085852e-05 5.453122e-03 -2.271881e-01 1.859283e-01
-3.866222e-01 5.097707e+00 -2.564430e+01 2.777925e+01 -6.852853e-06 7.730615e-03 -2.584076e-01 2.093964e-01
-4.504795e-01 5.056349e+00 -2.619328e+01 2.988683e+01 -1.128868e-05 6.749478e-03 -2.422638e-01 2.026825e-01
-3.836219e-01 5.069964e+00 -2.602924e+01 2.983498e+01 5.394904e-06 7.175953e-03 -1.818848e-01 1.737366e-01
-3.296057e-01 5.024468e+00 -2.602768e+01 2.566339e+01 3.223146e-06 7.667111e-03 -1.955261e-01 2.120056e-01
-3.331440e-01 5.046849e+00 -2.603091e+01 2.976808e+01 -6.624744e-06 6.651728e-03 -2.647095e-01 1.707458e-01
-3.348122e-01 5.010004e+00 -2.496645e+01 2.577948e+01 -2.858676e-06 6.099073e-03 -1.637421e-01 2.026825e-01
-2.942050e-01 5.046585e+00 -2.600060e+01 2.960912e+01 1.999759e-05 6.935843e-03 -2.166443e-01 2.093964e-01
-4.017703e-01 5.055238e+00 -2.557977e+01 2.369615e+01 7.486461e-06 7.094256e-03 -2.340546e-01 2.093964e-01
-3.600670e-01 5.019621e+00 -2.500237e+01 2.621281e+01 4.396585e-06 6.445847e-03 -2.333527e-01 2.120056e-01
-3.845604e-01 5.055352e+00 -2.603859e+01 2.780373e+01 -2.543968e-05 7.027832e-03 -2.181854e-01 2.063141e-01
-3.667740e-01 5.003482e+00 -2.616954e+01 2.783456e+01 -2.531799e-05 7.555708e-03 -2.355347e-01 2.093964e-01
-3.014886e-01 5.047404e+00 -2.616394e+01 2.565317e+01 2.702861e-05 5.802417e-03 -2.332306e-01 2.120056e-01
-3.303989e-01 5.080032e+00 -2.518927e+01 2.616345e+01 5.476280e-05 6.890632e-03 -2.429047e-01 2.120056e-01
-3.164998e-01 5.049050e+00 -2.594263e+01 2.939230e+01 1.505811e-06 7.444758e-03 -2.548828e-01 2.120056e-01
-2.974413e-01 4.986845e+00 -2.450388e+01 2.613376e+01 2.949610e-05 6.511656e-03 -1.711121e-01 1.561737e-01
-3.449779e-01 4.995400e+00 -2.575784e+01 2.547061e+01 -4.713988e-06 6.788127e-03 -2.410889e-01 1.859283e-01
-3.525791e-01 5.061690e+00 -2.565221e+01 2.776805e+01 2.250301e-05 6.876695e-03 -2.680054e-01 2.093964e-01
-4.041079e-01 5.116481e+00 -2.495345e+01 2.934599e+01 -1.055866e-05 7.235728e-03 -2.680054e-01 1.561737e-01
-4.122520e-01 5.021144e+00 -2.567024e+01 2.830254e+01 -5.057237e-07 6.672523e-03 -2.066803e-01 2.093964e-01
-4.424384e-01 5.063313e+00 -2.615323e+01 2.342329e+01 2.768758e-06 5.041116e-03 -2.072144e-01 2.120056e-01
-3.807179e-01 5.013050e+00 -2.633740e+01 2.952623e+01 2.568675e-05 5.489741e-03 -1.700287e-01 2.026825e-01
-3.963062e-01 5.145333e+00 -2.514967e+01 2.946181e+01 2.085707e-06 5.453450e-03 -2.028809e-01 2.026825e-01
-3.995881e-01 5.131469e+00 -2.619048e+01 2.940916e+01 -3.480055e-05 3.926006e-03 -1.536713e-01 1.458588e-01
-4.095378e-01 5.040581e+00 -2.623181e+01 2.843304e+01 -1.665291e-05 7.133811e-03 -1.999054e-01 2.120056e-01
-3.812610e-01 5.089705e+00 -2.590247e+01 2.937068e+01 -4.984663e-06 5.581428e-03 -1.825562e-01 2.063141e-01
-3.174901e-01 5.169911e+00 -2.580270e+01 2.940100e+01 2.373245e-05 6.127910e-03 -2.022858e-01 1.984253e-01
-3.764317e-01 5.029541e+00 -2.576715e+01 2.541957e+01 1.136527e-06 5.500561e-03 -1.988220e-01 2.120056e-01
-4.130048e-01 5.071447e+00 -2.658032e+01 2.927130e+01 5.824285e-06 6.289528e-03 -2.623749e-01 1.877289e-01
-3.432986e-01 5.087316e+00 -2.324350e+01 2.869386e+01 7.020454e-06 5.144507e-03 -1.958923e-01 2.093964e-01
-3.761583e-01 5.083995e+00 -2.654405e+01 2.576334e+01 1.757810e-05 6.863548e-03 -1.914825e-01 1.877289e-01
-4.058023e-01 5.131901e+00 -2.519960e+01 2.453221e+01 1.823706e-05 6.088146e-03 -1.872559e-01 1.984253e-01
-3.705218e-01 5.072044e+00 -2.652135e+01 2.819714e+01 1.696850e-05 7.453599e-03 -2.848511e-01 1.877289e-01
-3.450796e-01 5.084378e+00 -2.557234e+01 2.869066e+01 -1.694021e-05 6.006838e-03 -2.150574e-01 2.150574e-01
-3.815767e-01 5.101198e+00 -2.586005e+01 2.581528e+01 -4.470124e-06 4.963898e-03 -2.400970e-01 2.063141e-01
-3.517725e-01 5.133907e+00 -2.586005e+01 2.862238e+01 -5.638652e-06 4.457029e-03 -1.919556e-01 1.934662e-01
-3.783212e-01 5.075334e+00 -2.633379e+01 2.861234e+01 -4.195832e-08 6.666289e-03 -2.703857e-01 2.093964e-01
-4.065370e-01 5.108582e+00 -2.585995e+01 2.923393e+01 -5.530112e-06 6.192978e-03 -2.400055e-01 2.063141e-01
-3.007273e-01 5.091593e+00 -2.538229e+01 2.618478e+01 1.050214e-05 6.239965e-03 -2.932739e-01 1.893158e-01
-2.764995e-01 5.058348e+00 -2.542606e+01 2.920761e+01 3.291549e-06 5.674190e-03 -2.661438e-01 2.063141e-01
-4.196263e-01 5.128903e+00 -2.583896e+01 2.583278e+01 -1.320612e-05 5.032078e-03 -2.662964e-01 2.093964e-01
-3.643147e-01 5.170467e+00 -2.637619e+01 2.629839e+01 2.835822e-06 5.160724e-03 -3.049774e-01 1.854553e-01
-2.963383e-01 5.184098e+00 -2.565242e+01 2.877599e+01 1.877445e-05 5.989786e-03 -1.795349e-01 2.141876e-01
-2.959223e-01 5.138102e+00 -2.607588e+01 2.631097e+01 1.619246e-05 7.436540e-03 -2.253418e-01 2.253418e-01
-3.046643e-01 5.103211e+00 -2.429126e+01 2.886253e+01 -7.315020e-06 6.638329e-03 -1.863708e-01 2.120056e-01
-2.976788e-01 5.048323e+00 -2.425525e+01 2.884229e+01 3.081737e-05 7.202214e-03 -1.929016e-01 2.141876e-01
-2.575719e-01 5.104355e+00 -2.599661e+01 2.888077e+01 7.449254e-06 5.480898e-03 -1.920319e-01 2.093964e-01
-3.002677e-01 5.170350e+00 -2.628242e+01 2.859717e+01 2.437415e-05 6.055060e-03 -1.636353e-01 2.093964e-01
-2.929725e-01 5.046503e+00 -2.568703e+01 2.369762e+01 7.479959e-06 5.696091e-03 -1.569824e-01 1.619263e-01
-3.737066e-01 5.162736e+00 -2.638742e+01 2.951981e+01 6.222063e-05 8.069226e-03 -2.252045e-01 2.183685e-01
-3.788286e-01 5.085496e+00 -2.589191e+01 2.424371e+01 -4.787233e-05 1.028830e-02 -3.048706e-01 3.048706e-01
-4.004544e-01 5.128516e+00 -2.503510e+01 2.447371e+01 5.116798e-06 8.611040e-03 -3.427124e-01 3.427124e-01
-3.963160e-01 5.155269e+00 -2.631050e+01 2.447331e+01 1.262628e-05 7.576754e-03 -2.464294e-01 2.464294e-01
-3.662865e-01 5.206069e+00 -2.666032e+01 2.988786e+01 1.685046e-05 7.853534e-03 -3.108368e-01 3.108368e-01
-4.080981e-01 5.154240e+00 -2.663330e+01 3.001257e+01 -9.271101e-06 5.919757e-03 -2.474976e-01 2.093964e-01
-3.476534e-01 5.208522e+00 -2.636847e+01 3.004793e+01 2.527273e-05 5.009621e-03 -2.106628e-01 2.063141e-01
-4.051189e-01 5.145100e+00 -2.522240e+01 2.933160e+01 1.284539e-05 5.660644e-03 -2.053833e-01 2.093964e-01
-3.473706e-01 5.151343e+00 -2.657806e+01 3.008406e+01 -5.045225e-06 5.270543e-03 -2.204285e-01 1.554871e-01
-2.291356e-01 5.201990e+00 -2.653764e+01 2.934425e+01 4.013080e-05 5.127060e-03 -1.868896e-01 1.609039e-01
-3.389413e-01 5.153786e+00 -2.521193e+01 2.922401e+01 2.627254e-05 4.763774e-03 -1.986237e-01 2.063141e-01
-3.102866e-01 5.146695e+00 -2.579659e+01 2.838458e+01 1.048784e-05 4.137233e-03 -1.934509e-01 2.026825e-01
-4.065577e-01 5.172378e+00 -2.522404e+01 2.846852e+01 1.697588e-06 4.591194e-03 -1.934509e-01 2.093964e-01
-3.477062e-01 5.178257e+00 -2.573660e+01 3.031906e+01 5.969549e-06 5.244432e-03 -1.712189e-01 1.663513e-01
-3.669304e-01 5.208047e+00 -2.573119e+01 2.912511e+01 -1.246903e-05 4.870586e-03 -1.989441e-01 1.830902e-01
-3.522711e-01 5.153812e+00 -2.654356e+01 2.477490e+01 1.197904e-05 4.485878e-03 -2.097168e-01 1.984253e-01
-3.698280e-01 5.223933e+00 -2.568547e+01 3.042259e+01 2.283469e-06 5.234379e-03 -1.954956e-01 2.063141e-01
-2.719132e-01 5.176397e+00 -2.567029e+01 2.688107e+01 1.120031e-05 4.603674e-03 -2.447510e-01 2.063141e-01
-3.218341e-01 5.241873e+00 -2.671266e+01 2.914694e+01 -8.375767e-06 3.642199e-03 -1.892242e-01 2.063141e-01
-3.943884e-01 5.160862e+00 -2.653888e+01 2.914584e+01 7.319994e-06 4.498955e-03 -2.006683e-01 1.984253e-01
-3.443929e-01 5.208080e+00 -2.685431e+01 2.692845e+01 2.024499e-05 4.530712e-03 -2.029114e-01 1.934662e-01
-3.595098e-01 5.151817e+00 -2.642888e+01 2.918738e+01 1.179307e-06 4.407239e-03 -2.447968e-01 2.093964e-01
-4.019397e-01 5.216526e+00 -2.432101e+01 2.851437e+01 -9.275272e-06 4.940779e-03 -1.934509e-01 1.998291e-01
-3.515871e-01 5.139475e+00 -2.575905e+01 2.851439e+01 1.675623e-05 4.460193e-03 -2.391968e-01 1.877289e-01
-3.263813e-01 5.200096e+00 -2.687866e+01 3.038744e+01 -7.691912e-07 4.537926e-03 -1.966705e-01 2.063141e-01
-2.741957e-01 5.251343e+00 -2.687834e+01 3.038664e+01 -1.077244e-05 4.552980e-03 -1.657562e-01 2.097473e-01
-2.953088e-01 5.174681e+00 -2.566112e+01 2.619200e+01 1.426025e-05 4.871247e-03 -2.514191e-01 2.093964e-01
-3.258846e-01 5.166026e+00 -2.538602e+01 2.410985e+01 2.044217e-05 4.346441e-03 -2.489471e-01 2.063141e-01
-2.960626e-01 5.152478e+00 -2.417664e+01 3.027933e+01 7.493124e-06 4.308461e-03 -2.489471e-01 2.093964e-01
-3.142200e-01 5.225157e+00 -2.685870e+01 3.028233e+01 -1.914382e-06 4.162952e-03 -2.447052e-01 1.618958e-01
-3.387811e-01 5.224828e+00 -2.644521e+01 2.549474e+01 5.535426e-06 4.538872e-03 -2.426758e-01 2.063141e-01
-2.440974e-01 5.217699e+00 -2.688846e+01 3.025244e+01 9.020182e-06 4.609152e-03 -2.427521e-01 1.877289e-01
-3.766482e-01 5.126542e+00 -2.585736e+01 2.543866e+01 -6.637176e-06 4.153373e-03 -1.888428e-01 2.093964e-01
-2.818983e-01 5.214215e+00 -2.585144e+01 3.021971e+01 1.787274e-06 6.283905e-03 -2.773590e-01 2.073517e-01
-3.231552e-01 5.140508e+00 -2.538985e+01 3.022012e+01 9.235966e-06 3.679914e-03 -2.030792e-01 1.625061e-01
-3.448941e-01 5.211209e+00 -2.538145e+01 2.339595e+01 3.873178e-06 5.103647e-03 -2.644501e-01 1.877289e-01
-3.296647e-01 5.152825e+00 -2.687921e+01 2.619974e+01 -4.737459e-06 4.185119e-03 -1.983795e-01 1.934662e-01
-3.115904e-01 5.235965e+00 -2.557724e+01 3.065961e+01 -1.607759e-06 4.681391e-03 -1.986694e-01 2.026825e-01
-4.034658e-01 5.163152e+00 -2.584167e+01 2.853896e+01 -9.533247e-06 3.903676e-03 -1.730804e-01 1.811676e-01
-3.697823e-01 5.246511e+00 -2.695068e+01 3.068417e+01 -3.023982e-07 4.549328e-03 -2.462921e-01 1.811676e-01
-3.579591e-01 5.260631e+00 -2.536061e+01 3.068260e+01 1.377926e-06 4.045195e-03 -1.944427e-01 2.120056e-01
-2.854542e-01 5.240400e+00 -2.668735e+01 2.711890e+01 8.108325e-06 3.277105e-03 -1.850739e-01 1.547394e-01
-3.088232e-01 5.284004e+00 -2.596674e+01 2.672643e+01 -1.803792e-05 6.336198e-03 -1.649628e-01 2.094116e-01
-3.426620e-01 5.298333e+00 -2.712280e+01 2.711308e+01 -1.636720e-05 5.599781e-03 -2.058258e-01 2.093964e-01
-3.479878e-01 5.266194e+00 -2.558238e+01 2.926221e+01 -1.873358e-05 5.614055e-03 -1.877289e-01 2.044067e-01
-3.028351e-01 5.281210e+00 -2.710651e+01 2.682413e+01 -9.389545e-06 5.214197e-03 -1.934509e-01 2.044067e-01
-4.188669e-01 5.226797e+00 -2.559830e+01 2.553935e+01 5.015234e-06 5.336851e-03 -1.977997e-01 2.083893e-01
-3.064360e-01 5.313904e+00 -2.718649e+01 3.046042e+01 2.229901e-05 5.051264e-03 -1.976013e-01 2.063141e-01
-3.008247e-01 5.298911e+00 -2.658020e+01 3.081299e+01 1.713765e-05 4.176681e-03 -1.948853e-01 2.093964e-01
-2.340095e-01 5.301519e+00 -2.648531e+01 3.084184e+01 -6.901045e-06 4.552677e-03 -2.037659e-01 1.700897e-01
-3.535168e-01 5.301657e+00 -2.713072e+01 3.090776e+01 -9.634606e-07 3.708094e-03 -2.135925e-01 2.098389e-01
-2.505043e-01 5.312168e+00 -2.716966e+01 2.742818e+01 -5.753488e-06 3.507807e-03 -1.540070e-01 1.437378e-01
-2.776104e-01 5.275100e+00 -2.716966e+01 2.742999e+01 -1.346328e-06 3.818000e-03 -2.206879e-01 1.679077e-01
-2.616964e-01 5.340801e+00 -2.489000e+01 2.582512e+01 2.245342e-06 2.958834e-03 -1.934509e-01 1.934662e-01
-2.818382e-01 5.354118e+00 -2.589084e+01 2.579480e+01 7.666387e-06 4.039416e-03 -1.911469e-01 2.063141e-01
-2.745214e-01 5.349997e+00 -2.719727e+01 2.840215e+01 3.720412e-06 3.510770e-03 -2.071075e-01 2.063141e-01
-3.763529e-01 5.328642e+00 -2.646909e+01 3.103413e+01 1.738836e-05 4.050446e-03 -2.182617e-01 2.063141e-01
-2.873436e-01 5.315086e+00 -2.734363e+01 2.720383e+01 -8.924253e-06 3.830534e-03 -2.163239e-01 2.026825e-01
-2.864825e-01 5.315964e+00 -2.734363e+01 2.931378e+01 -7.041031e-06 3.517110e-03 -1.888428e-01 2.063141e-01
-2.593594e-01 5.312297e+00 -2.614154e+01 2.845003e+01 -5.942381e-06 4.041583e-03 -2.111816e-01 2.063141e-01
-2.522637e-01 5.332519e+00 -2.735332e+01 2.845003e+01 2.311780e-06 3.824549e-03 -1.946106e-01 1.783905e-01
-3.112676e-01 5.319657e+00 -2.633707e+01 3.110165e+01 2.175108e-06 3.873714e-03 -2.549896e-01 2.093964e-01
-2.552065e-01 5.292230e+00 -2.484496e+01 3.106963e+01 -7.305303e-06 3.355544e-03 -1.934509e-01 2.093964e-01
-3.333459e-01 5.352501e+00 -2.640823e+01 2.911429e+01 -9.224043e-06 3.736288e-03 -2.464905e-01 2.063141e-01
-2.605509e-01 5.364617e+00 -2.562296e+01 2.829213e+01 1.201812e-05 3.303867e-03 -2.333069e-01 2.026825e-01
-3.463103e-01 5.385232e+00 -2.560313e+01 2.909760e+01 2.218561e-05 3.556744e-03 -1.992493e-01 1.644897e-01
-2.851385e-01 5.410476e+00 -2.664433e+01 2.759586e+01 -3.783492e-06 3.183080e-03 -1.888428e-01 2.063141e-01
-2.390297e-01 5.303559e+00 -2.664433e+01 2.910950e+01 6.967644e-06 3.537123e-03 -1.599884e-01 1.613007e-01
-2.939069e-01 5.373836e+00 -2.703960e+01 2.911627e+01 -4.276784e-06 3.334573e-03 -1.994781e-01 1.649628e-01
-3.086929e-01 5.321626e+00 -2.565154e+01 3.112997e+01 8.162224e-06 4.286667e-03 -1.887665e-01 2.026825e-01
-3.503230e-01 5.354480e+00 -2.483205e+01 3.113564e+01 -1.328052e-05 3.263793e-03 -2.482758e-01 2.093964e-01
-3.118142e-01 5.301726e+00 -2.657973e+01 2.617441e+01 1.724685e-06 3.406412e-03 -2.007904e-01 1.656799e-01
-2.800706e-01 5.361419e+00 -2.466170e+01 2.397679e+01 1.117584e-05 2.617969e-03 -1.610107e-01 2.026825e-01
-3.645269e-01 5.367768e+00 -2.551566e+01 2.917152e+01 9.126078e-06 3.745891e-03 -1.941986e-01 2.026825e-01
-2.567357e-01 5.372981e+00 -2.573944e+01 3.116727e+01 5.725864e-06 2.862524e-03 -1.888428e-01 2.093964e-01
-3.110564e-01 5.393736e+00 -2.657620e+01 3.116794e+01 -1.817810e-06 3.167530e-03 -1.943359e-01 1.877289e-01
-3.179462e-01 5.386988e+00 -2.657620e+01 2.919289e+01 2.912290e-06 3.212215e-03 -2.357635e-01 1.754150e-01
-2.805826e-01 5.408627e+00 -2.475957e+01 3.112440e+01 -6.397626e-06 3.566516e-03 -2.397156e-01 1.757507e-01
-2.447828e-01 5.399971e+00 -2.657320e+01 2.919849e+01 -2.242002e-06 2.853169e-03 -1.725464e-01 1.737366e-01
-3.066499e-01 5.426525e+00 -2.566245e+01 2.697906e+01 4.351180e-06 3.537527e-03 -1.945953e-01 1.755981e-01
-3.621479e-01 5.280081e+00 -2.487694e+01 3.112556e+01 -6.413121e-06 3.622548e-03 -2.026367e-01 1.832275e-01
-2.878141e-01 5.395082e+00 -2.713951e+01 2.922519e+01 3.345788e-06 2.355309e-03 -1.888428e-01 2.093964e-01
-3.297789e-01 5.376986e+00 -2.493974e+01 3.112856e+01 -1.891045e-06 3.722530e-03 -2.407379e-01 1.663361e-01
-2.229944e-01 5.354285e+00 -2.374065e+01 3.112886e+01 -1.047618e-06 3.384129e-03 -1.967468e-01 2.063141e-01
-2.776389e-01 5.356741e+00 -2.475822e+01 2.841539e+01 -6.657530e-06 2.941511e-03 -1.610107e-01 2.026825e-01
-3.134365e-01 5.354347e+00 -2.710002e+01 2.545573e+01 1.352642e-06 3.662855e-03 -2.014008e-01 2.063141e-01
-3.014730e-01 5.364185e+00 -2.595628e+01 2.841022e+01 -7.807481e-07 3.181651e-03 -2.013855e-01 2.063141e-01
-2.275960e-01 5.377008e+00 -2.713080e+01 2.923082e+01 -6.220513e-08 3.540398e-03 -2.132263e-01 2.063141e-01
-3.045376e-01 5.414443e+00 -2.478381e+01 2.572983e+01 3.005754e-06 4.121838e-03 -2.299957e-01 2.299957e-01
-3.225213e-01 5.406591e+00 -2.662706e+01 2.597615e+01 1.005017e-05 4.870484e-03 -2.330322e-01 2.330322e-01
-3.533700e-01 5.367814e+00 -2.714662e+01 2.597615e+01 2.207083e-05 5.114740e-03 -2.533264e-01 2.533264e-01
-3.596195e-01 5.353648e+00 -2.714867e+01 2.923759e+01 1.560594e-06 3.433430e-03 -2.175903e-01 1.845856e-01
-3.527784e-01 5.334436e+00 -2.675175e+01 2.823935e+01 2.851022e-06 2.523137e-03 -1.578217e-01 1.561737e-01
-3.799543e-01 5.350654e+00 -2.719215e+01 2.568068e+01 5.659140e-06 3.284683e-03 -2.506256e-01 1.840668e-01
-2.989478e-01 5.411287e+00 -2.721542e+01 2.934192e+01 -1.803406e-05 3.929667e-03 -2.612915e-01 2.612915e-01
-2.200286e-01 5.428082e+00 -2.654245e+01 2.714142e+01 3.514369e-05 4.090255e-03 -1.933136e-01 1.868286e-01
-2.798671e-01 5.375528e+00 -2.692596e+01 3.117111e+01 1.208327e-05 3.446199e-03 -1.934509e-01 1.934662e-01
-1.882208e-01 5.456244e+00 -2.430174e+01 3.118292e+01 8.409026e-06 4.215397e-03 -1.744843e-01 1.647034e-01
