3.640064e+04 9.383000e-01 1.827976e-03 5.773983e-01 -9.999996e-01 9.999734e-01
1.934089e+03 1.472000e-01 -4.415097e-04 5.764624e-01 -1.483175e+00 1.238189e+00
1.586055e+03 1.133000e-01 -8.275401e-04 5.758956e-01 -1.536648e+00 1.429869e+00
1.423080e+03 9.920000e-02 -1.238909e-03 5.756694e-01 -1.551640e+00 1.661360e+00
1.330638e+03 9.050000e-02 -1.553104e-03 5.755530e-01 -1.555561e+00 1.812593e+00
1.219332e+03 8.340000e-02 -1.758502e-03 5.754948e-01 -1.540295e+00 1.888174e+00
1.182861e+03 8.150000e-02 -1.824598e-03 5.754523e-01 -1.520816e+00 1.945970e+00
1.134185e+03 7.760000e-02 -1.941411e-03 5.754285e-01 -1.559431e+00 1.984884e+00
1.081799e+03 7.500000e-02 -2.018479e-03 5.754002e-01 -1.602207e+00 1.993464e+00
1.064399e+03 7.410000e-02 -2.133849e-03 5.753820e-01 -1.666180e+00 2.011897e+00
1.009351e+03 7.150000e-02 -2.157394e-03 5.753857e-01 -1.702378e+00 2.020771e+00
1.017011e+03 6.960000e-02 -2.277441e-03 5.753843e-01 -1.765845e+00 1.990683e+00
9.671191e+02 6.760000e-02 -2.332276e-03 5.753926e-01 -1.793139e+00 1.987244e+00
9.413552e+02 6.720000e-02 -2.449491e-03 5.754006e-01 -1.846086e+00 1.977439e+00
9.471082e+02 6.640000e-02 -2.559202e-03 5.754164e-01 -1.866713e+00 1.929747e+00
9.099640e+02 6.440000e-02 -2.617945e-03 5.754315e-01 -1.895489e+00 1.936955e+00
8.912758e+02 6.230000e-02 -2.740656e-03 5.754472e-01 -1.944002e+00 1.915705e+00
8.812836e+02 6.270000e-02 -2.828640e-03 5.754690e-01 -1.965945e+00 1.872819e+00
8.520245e+02 6.090000e-02 -2.894113e-03 5.754956e-01 -2.004894e+00 1.879655e+00
8.459165e+02 6.020000e-02 -2.934218e-03 5.755175e-01 -2.026364e+00 1.846677e+00
8.347605e+02 5.880000e-02 -3.077226e-03 5.755379e-01 -2.052669e+00 1.830882e+00
8.217005e+02 5.880000e-02 -3.121321e-03 5.755690e-01 -2.088252e+00 1.843422e+00
8.143030e+02 5.890000e-02 -3.231421e-03 5.755947e-01 -2.104195e+00 1.809950e+00
8.035004e+02 5.720000e-02 -3.323035e-03 5.756230e-01 -2.122262e+00 1.815539e+00
7.992151e+02 5.730000e-02 -3.292339e-03 5.756473e-01 -2.150814e+00 1.793564e+00
7.851520e+02 5.620000e-02 -3.381185e-03 5.756824e-01 -2.163026e+00 1.812517e+00
7.816857e+02 5.620000e-02 -3.443901e-03 5.757027e-01 -2.185126e+00 1.784793e+00
7.689299e+02 5.420000e-02 -3.519374e-03 5.757354e-01 -2.209299e+00 1.765981e+00
7.661131e+02 5.460000e-02 -3.535641e-03 5.757665e-01 -2.226312e+00 1.783154e+00
7.505860e+02 5.230000e-02 -3.632668e-03 5.758000e-01 -2.230961e+00 1.793729e+00
7.447588e+02 5.220000e-02 -3.593455e-03 5.758342e-01 -2.241110e+00 1.808827e+00
7.548553e+02 5.290000e-02 -3.686452e-03 5.758703e-01 -2.257636e+00 1.821695e+00
7.390810e+02 5.180000e-02 -3.732055e-03 5.759023e-01 -2.266250e+00 1.842722e+00
7.390349e+02 5.220000e-02 -3.725502e-03 5.759397e-01 -2.290172e+00 1.861491e+00
7.308511e+02 5.000000e-02 -3.807238e-03 5.759822e-01 -2.294996e+00 1.878810e+00
7.259656e+02 5.190000e-02 -3.847203e-03 5.760134e-01 -2.304033e+00 1.897448e+00
7.182838e+02 5.090000e-02 -3.862488e-03 5.760537e-01 -2.320125e+00 1.915801e+00
7.125972e+02 5.030000e-02 -3.915261e-03 5.760910e-01 -2.327653e+00 1.933322e+00
7.182397e+02 4.930000e-02 -3.929636e-03 5.761272e-01 -2.353524e+00 1.951610e+00
7.105137e+02 5.110000e-02 -3.972664e-03 5.761645e-01 -2.382502e+00 1.969390e+00
6.997333e+02 4.890000e-02 -4.001403e-03 5.762045e-01 -2.410139e+00 1.985259e+00
6.935213e+02 4.930000e-02 -4.078723e-03 5.762490e-01 -2.429784e+00 2.002621e+00
7.062700e+02 4.830000e-02 -4.104509e-03 5.762881e-01 -2.456918e+00 2.019442e+00
6.975148e+02 4.860000e-02 -4.107226e-03 5.763275e-01 -2.476486e+00 2.036277e+00
7.011068e+02 4.750000e-02 -4.147148e-03 5.763662e-01 -2.500784e+00 2.053465e+00
6.802581e+02 4.800000e-02 -4.175070e-03 5.764065e-01 -2.527975e+00 2.068339e+00
6.816594e+02 4.790000e-02 -4.198302e-03 5.764464e-01 -2.547844e+00 2.087426e+00
6.777834e+02 4.830000e-02 -4.219007e-03 5.764978e-01 -2.564233e+00 2.133419e+00
6.720408e+02 4.710000e-02 -4.288642e-03 5.765337e-01 -2.585894e+00 2.159311e+00
6.841105e+02 4.840000e-02 -4.315180e-03 5.765705e-01 -2.603232e+00 2.199258e+00
6.736766e+02 4.730000e-02 -4.288167e-03 5.766196e-01 -2.631391e+00 2.244065e+00
6.640359e+02 4.740000e-02 -4.349551e-03 5.766559e-01 -2.646138e+00 2.266560e+00
6.653145e+02 4.610000e-02 -4.340347e-03 5.767027e-01 -2.659922e+00 2.300583e+00
6.625612e+02 4.610000e-02 -4.408813e-03 5.767508e-01 -2.688370e+00 2.341045e+00
6.611017e+02 4.590000e-02 -4.382949e-03 5.767943e-01 -2.700929e+00 2.376582e+00
6.593303e+02 4.630000e-02 -4.450178e-03 5.768413e-01 -2.722022e+00 2.405355e+00
6.594766e+02 4.580000e-02 -4.412311e-03 5.768882e-01 -2.741192e+00 2.438118e+00
6.543161e+02 4.630000e-02 -4.481890e-03 5.769358e-01 -2.758529e+00 2.476804e+00
6.544150e+02 4.480000e-02 -4.488237e-03 5.769797e-01 -2.779630e+00 2.502468e+00
6.524687e+02 4.560000e-02 -4.506560e-03 5.770352e-01 -2.793201e+00 2.539954e+00
6.446153e+02 4.670000e-02 -4.541785e-03 5.770796e-01 -2.806484e+00 2.565816e+00
6.407699e+02 4.520000e-02 -4.586687e-03 5.771417e-01 -2.819429e+00 2.601071e+00
6.458157e+02 4.480000e-02 -4.587318e-03 5.771892e-01 -2.834507e+00 2.633579e+00
6.435178e+02 4.420000e-02 -4.585585e-03 5.772333e-01 -2.853516e+00 2.662503e+00
6.419307e+02 4.290000e-02 -4.632974e-03 5.772896e-01 -2.869976e+00 2.687332e+00
6.395468e+02 4.490000e-02 -4.676177e-03 5.773428e-01 -2.883909e+00 2.710074e+00
6.361836e+02 4.450000e-02 -4.677916e-03 5.773936e-01 -2.892579e+00 2.740053e+00
6.309138e+02 4.380000e-02 -4.698558e-03 5.774435e-01 -2.913820e+00 2.764291e+00
6.423269e+02 4.360000e-02 -4.744633e-03 5.775048e-01 -2.926711e+00 2.792326e+00
6.316113e+02 4.400000e-02 -4.749966e-03 5.775595e-01 -2.940829e+00 2.819372e+00
6.347387e+02 4.330000e-02 -4.779696e-03 5.776184e-01 -2.951703e+00 2.843184e+00
6.374325e+02 4.510000e-02 -4.828880e-03 5.776774e-01 -2.967780e+00 2.871791e+00
6.286682e+02 4.390000e-02 -4.871354e-03 5.777327e-01 -2.980826e+00 2.887180e+00
6.232942e+02 4.370000e-02 -4.852739e-03 5.777887e-01 -2.987944e+00 2.918544e+00
6.247193e+02 4.330000e-02 -4.914948e-03 5.778514e-01 -2.996721e+00 2.942857e+00
6.189083e+02 4.250000e-02 -4.935531e-03 5.779077e-01 -3.011940e+00 2.966545e+00
6.309832e+02 4.310000e-02 -5.002414e-03 5.779649e-01 -3.019419e+00 2.982868e+00
6.174055e+02 4.340000e-02 -4.947701e-03 5.780248e-01 -3.036351e+00 3.010758e+00
6.174738e+02 4.360000e-02 -5.028309e-03 5.780817e-01 -3.044346e+00 3.027700e+00
6.198915e+02 4.230000e-02 -5.040191e-03 5.781530e-01 -3.049098e+00 3.053094e+00
6.163985e+02 4.350000e-02 -5.131158e-03 5.782128e-01 -3.065495e+00 3.079554e+00
6.200616e+02 4.200000e-02 -5.140044e-03 5.782703e-01 -3.071248e+00 3.094610e+00
6.086355e+02 4.420000e-02 -5.174442e-03 5.783380e-01 -3.075078e+00 3.116719e+00
6.074750e+02 4.370000e-02 -5.175999e-03 5.783953e-01 -3.093339e+00 3.129908e+00
6.108990e+02 4.290000e-02 -5.209974e-03 5.784608e-01 -3.095293e+00 3.151129e+00
6.097571e+02 4.330000e-02 -5.227736e-03 5.785248e-01 -3.105690e+00 3.166058e+00
6.047290e+02 4.410000e-02 -5.291377e-03 5.786001e-01 -3.114354e+00 3.180533e+00
6.048778e+02 4.380000e-02 -5.315905e-03 5.786557e-01 -3.123076e+00 3.189412e+00
6.065209e+02 4.360000e-02 -5.301311e-03 5.787219e-01 -3.131838e+00 3.213348e+00
6.036078e+02 4.360000e-02 -5.370463e-03 5.787958e-01 -3.137053e+00 3.236645e+00
6.084963e+02 4.300000e-02 -5.365147e-03 5.788589e-01 -3.143346e+00 3.254820e+00
6.042005e+02 4.330000e-02 -5.410621e-03 5.789275e-01 -3.155298e+00 3.264832e+00
6.011820e+02 4.370000e-02 -5.469536e-03 5.789890e-01 -3.163938e+00 3.276619e+00
6.023820e+02 4.350000e-02 -5.476258e-03 5.790590e-01 -3.175316e+00 3.289821e+00
5.966910e+02 4.250000e-02 -5.539165e-03 5.791238e-01 -3.179555e+00 3.297747e+00
6.037920e+02 4.180000e-02 -5.565338e-03 5.791977e-01 -3.185290e+00 3.314057e+00
6.025931e+02 4.250000e-02 -5.592027e-03 5.792643e-01 -3.194513e+00 3.328455e+00
6.046868e+02 4.250000e-02 -5.621014e-03 5.793374e-01 -3.201034e+00 3.342853e+00
5.969181e+02 4.190000e-02 -5.625469e-03 5.794073e-01 -3.211589e+00 3.349392e+00
5.945348e+02 4.240000e-02 -5.676844e-03 5.794748e-01 -3.220848e+00 3.361775e+00
5.914654e+02 4.250000e-02 -5.673126e-03 5.795483e-01 -3.228704e+00 3.375802e+00
5.942096e+02 4.230000e-02 -5.708124e-03 5.796257e-01 -3.240016e+00 3.381813e+00
5.929812e+02 4.170000e-02 -5.791228e-03 5.796927e-01 -3.249695e+00 3.400640e+00
5.872983e+02 4.150000e-02 -5.797749e-03 5.797622e-01 -3.257823e+00 3.409836e+00
5.872184e+02 4.140000e-02 -5.807388e-03 5.798344e-01 -3.261264e+00 3.421085e+00
6.001484e+02 4.250000e-02 -5.839034e-03 5.799104e-01 -3.268580e+00 3.439053e+00
5.941522e+02 4.150000e-02 -5.890261e-03 5.799809e-01 -3.280393e+00 3.441600e+00
5.850889e+02 4.150000e-02 -5.907047e-03 5.800494e-01 -3.286128e+00 3.449700e+00
5.927329e+02 4.200000e-02 -5.919252e-03 5.801334e-01 -3.292620e+00 3.461861e+00
5.921156e+02 4.130000e-02 -5.950976e-03 5.802092e-01 -3.299269e+00 3.468753e+00
5.850547e+02 4.120000e-02 -5.987581e-03 5.802712e-01 -3.308515e+00 3.476882e+00
5.876482e+02 4.030000e-02 -6.010844e-03 5.803497e-01 -3.311584e+00 3.493545e+00
5.793597e+02 4.100000e-02 -6.064172e-03 5.804352e-01 -3.324164e+00 3.506274e+00
5.792686e+02 4.110000e-02 -6.050488e-03 5.805018e-01 -3.326323e+00 3.507621e+00
5.810624e+02 4.170000e-02 -6.104566e-03 5.805793e-01 -3.336554e+00 3.517398e+00
5.800996e+02 3.960000e-02 -6.120518e-03 5.806525e-01 -3.341993e+00 3.535345e+00
5.762244e+02 4.080000e-02 -6.137879e-03 5.807263e-01 -3.345948e+00 3.543614e+00
5.746484e+02 4.070000e-02 -6.195463e-03 5.808114e-01 -3.356278e+00 3.542618e+00
5.755163e+02 4.070000e-02 -6.188158e-03 5.808868e-01 -3.361944e+00 3.547839e+00
5.723863e+02 4.110000e-02 -6.255581e-03 5.809625e-01 -3.365932e+00 3.561573e+00
5.731731e+02 4.030000e-02 -6.259892e-03 5.810445e-01 -3.377220e+00 3.569683e+00
5.793160e+02 4.100000e-02 -6.300407e-03 5.811202e-01 -3.387389e+00 3.573068e+00
5.732588e+02 4.090000e-02 -6.290234e-03 5.811977e-01 -3.386731e+00 3.584606e+00
5.852462e+02 4.250000e-02 -6.329774e-03 5.812820e-01 -3.395754e+00 3.589850e+00
5.726510e+02 4.110000e-02 -6.373806e-03 5.813539e-01 -3.406379e+00 3.597768e+00
