1.226763e+02 5.782609e-01 4.407528e-02 5.841813e-01 -9.999847e-01 9.998169e-01
1.069674e+02 5.782609e-01 4.381746e-02 5.838809e-01 -1.001633e+00 1.000793e+00
9.713002e+01 5.782609e-01 4.351581e-02 5.835502e-01 -1.002838e+00 1.001877e+00
8.766771e+01 5.782609e-01 4.331313e-02 5.833592e-01 -1.005020e+00 1.002747e+00
7.917822e+01 5.782609e-01 4.321509e-02 5.832709e-01 -1.006943e+00 1.003357e+00
7.619246e+01 5.782609e-01 4.316862e-02 5.832401e-01 -1.008499e+00 1.003891e+00
7.588158e+01 5.782609e-01 4.314050e-02 5.832326e-01 -1.009766e+00 1.004257e+00
7.336977e+01 5.782609e-01 4.312080e-02 5.832364e-01 -1.010864e+00 1.004608e+00
7.344849e+01 5.782609e-01 4.310126e-02 5.832504e-01 -1.011642e+00 1.004822e+00
7.342038e+01 5.782609e-01 4.311369e-02 5.832621e-01 -1.012314e+00 1.004959e+00
7.331390e+01 5.782609e-01 4.312785e-02 5.832832e-01 -1.012939e+00 1.005096e+00
7.331390e+01 5.782609e-01 4.313951e-02 5.833048e-01 -1.013535e+00 1.005234e+00
7.331390e+01 5.782609e-01 4.315426e-02 5.833263e-01 -1.014130e+00 1.005371e+00
7.327673e+01 5.739130e-01 4.316821e-02 5.833537e-01 -1.014725e+00 1.005493e+00
7.354800e+01 6.043478e-01 4.318203e-02 5.833810e-01 -1.015320e+00 1.005630e+00
7.273932e+01 5.260870e-01 4.319986e-02 5.834241e-01 -1.017700e+00 1.005737e+00
7.129031e+01 4.391304e-01 4.320924e-02 5.834506e-01 -1.021103e+00 1.005829e+00
7.143590e+01 4.173913e-01 4.321425e-02 5.834624e-01 -1.023743e+00 1.005768e+00
7.134647e+01 4.347826e-01 4.322439e-02 5.834635e-01 -1.024307e+00 1.005661e+00
7.140565e+01 4.304348e-01 4.324773e-02 5.834885e-01 -1.026978e+00 1.005646e+00
7.102576e+01 4.260870e-01 4.324766e-02 5.834768e-01 -1.025864e+00 1.005463e+00
7.098555e+01 4.260870e-01 4.326362e-02 5.834869e-01 -1.027405e+00 1.005417e+00
7.068605e+01 4.260870e-01 4.327381e-02 5.834927e-01 -1.027557e+00 1.005280e+00
7.068301e+01 4.260870e-01 4.328495e-02 5.834915e-01 -1.027588e+00 1.005157e+00
7.075334e+01 4.260870e-01 4.329384e-02 5.834946e-01 -1.027786e+00 1.005112e+00
7.078951e+01 4.260870e-01 4.330597e-02 5.835020e-01 -1.028793e+00 1.005035e+00
7.082159e+01 4.217391e-01 4.331441e-02 5.835071e-01 -1.029129e+00 1.004898e+00
7.078442e+01 4.217391e-01 4.331516e-02 5.835033e-01 -1.028549e+00 1.004700e+00
7.067186e+01 4.217391e-01 4.332792e-02 5.835087e-01 -1.029083e+00 1.004623e+00
7.067186e+01 4.217391e-01 4.333660e-02 5.835148e-01 -1.029755e+00 1.004547e+00
7.067186e+01 4.217391e-01 4.334627e-02 5.835231e-01 -1.030075e+00 1.004486e+00
7.070804e+01 4.217391e-01 4.334897e-02 5.835256e-01 -1.029724e+00 1.004303e+00
7.070804e+01 4.217391e-01 4.335546e-02 5.835254e-01 -1.029434e+00 1.004211e+00
7.077937e+01 4.217391e-01 4.336020e-02 5.835273e-01 -1.030182e+00 1.004074e+00
7.074219e+01 4.217391e-01 4.337181e-02 5.835415e-01 -1.030853e+00 1.004028e+00
7.074219e+01 4.217391e-01 4.336143e-02 5.835241e-01 -1.029480e+00 1.003784e+00
7.070500e+01 4.217391e-01 4.336941e-02 5.835330e-01 -1.029572e+00 1.003754e+00
7.066882e+01 4.217391e-01 4.337256e-02 5.835353e-01 -1.029694e+00 1.003571e+00
7.066882e+01 4.217391e-01 4.338496e-02 5.835519e-01 -1.031433e+00 1.003525e+00
7.066882e+01 4.217391e-01 4.338350e-02 5.835525e-01 -1.030762e+00 1.003418e+00
7.059445e+01 4.217391e-01 4.338387e-02 5.835518e-01 -1.029938e+00 1.003265e+00
7.063164e+01 4.217391e-01 4.339183e-02 5.835658e-01 -1.031250e+00 1.003250e+00
7.066782e+01 4.217391e-01 4.338837e-02 5.835607e-01 -1.030670e+00 1.003036e+00
7.063063e+01 4.217391e-01 4.339570e-02 5.835713e-01 -1.031250e+00 1.002991e+00
7.063063e+01 4.217391e-01 4.340377e-02 5.835854e-01 -1.032883e+00 1.002914e+00
7.059344e+01 4.217391e-01 4.339231e-02 5.835703e-01 -1.030411e+00 1.002686e+00
7.059344e+01 4.217391e-01 4.339440e-02 5.835755e-01 -1.030548e+00 1.002548e+00
7.059344e+01 4.217391e-01 4.340283e-02 5.835898e-01 -1.031693e+00 1.002548e+00
7.059344e+01 4.217391e-01 4.340392e-02 5.835958e-01 -1.031906e+00 1.002457e+00
7.056339e+01 4.217391e-01 4.340182e-02 5.835982e-01 -1.031204e+00 1.002319e+00
7.052722e+01 4.217391e-01 4.340174e-02 5.836017e-01 -1.031906e+00 1.002258e+00
7.052722e+01 4.217391e-01 4.340466e-02 5.836119e-01 -1.031204e+00 1.002090e+00
7.056340e+01 4.217391e-01 4.340005e-02 5.836079e-01 -1.031296e+00 1.001968e+00
7.052621e+01 4.217391e-01 4.340424e-02 5.836229e-01 -1.031860e+00 1.001907e+00
7.048804e+01 4.217391e-01 4.340761e-02 5.836310e-01 -1.032761e+00 1.001923e+00
7.052354e+01 4.217391e-01 4.340249e-02 5.836275e-01 -1.031601e+00 1.002136e+00
7.052354e+01 4.217391e-01 4.341212e-02 5.836502e-01 -1.033981e+00 1.002350e+00
7.052354e+01 4.217391e-01 4.340761e-02 5.836515e-01 -1.033005e+00 1.002548e+00
7.042726e+01 4.217391e-01 4.340552e-02 5.836550e-01 -1.033310e+00 1.002747e+00
7.042726e+01 4.217391e-01 4.340557e-02 5.836651e-01 -1.033768e+00 1.002960e+00
7.042825e+01 4.217391e-01 4.339523e-02 5.836576e-01 -1.032135e+00 1.003159e+00
7.042825e+01 4.217391e-01 4.339784e-02 5.836672e-01 -1.032303e+00 1.003372e+00
7.042825e+01 4.217391e-01 4.340267e-02 5.836823e-01 -1.033737e+00 1.003586e+00
7.042825e+01 4.217391e-01 4.339922e-02 5.836878e-01 -1.033417e+00 1.003738e+00
7.042825e+01 4.217391e-01 4.340488e-02 5.837062e-01 -1.035278e+00 1.004059e+00
7.042825e+01 4.217391e-01 4.339076e-02 5.836980e-01 -1.032837e+00 1.004105e+00
7.046542e+01 4.217391e-01 4.339189e-02 5.837083e-01 -1.033463e+00 1.004303e+00
7.046542e+01 4.217391e-01 4.338739e-02 5.837130e-01 -1.033295e+00 1.004486e+00
7.043536e+01 4.217391e-01 4.338740e-02 5.837212e-01 -1.034286e+00 1.004700e+00
7.043471e+01 4.217391e-01 4.338936e-02 5.837335e-01 -1.033951e+00 1.004852e+00
7.043471e+01 4.217391e-01 4.338215e-02 5.837310e-01 -1.033218e+00 1.005035e+00
7.039754e+01 4.217391e-01 4.338769e-02 5.837487e-01 -1.034790e+00 1.005219e+00
7.037154e+01 4.217391e-01 4.338098e-02 5.837507e-01 -1.033493e+00 1.005417e+00
7.037154e+01 4.217391e-01 4.337674e-02 5.837500e-01 -1.033447e+00 1.005630e+00
7.040161e+01 4.217391e-01 4.338237e-02 5.837715e-01 -1.034546e+00 1.005844e+00
7.037154e+01 4.217391e-01 4.338392e-02 5.837798e-01 -1.033936e+00 1.006012e+00
7.037154e+01 4.217391e-01 4.337734e-02 5.837814e-01 -1.033524e+00 1.006195e+00
7.037154e+01 4.217391e-01 4.337725e-02 5.837891e-01 -1.033447e+00 1.006409e+00
7.040872e+01 4.217391e-01 4.337741e-02 5.837996e-01 -1.033386e+00 1.006577e+00
7.040872e+01 4.217391e-01 4.337829e-02 5.838079e-01 -1.033859e+00 1.006775e+00
7.047598e+01 4.217391e-01 4.338362e-02 5.838254e-01 -1.035339e+00 1.007034e+00
7.047598e+01 4.217391e-01 4.338097e-02 5.838286e-01 -1.034348e+00 1.007156e+00
7.047598e+01 4.217391e-01 4.338045e-02 5.838350e-01 -1.034317e+00 1.007278e+00
7.040974e+01 4.217391e-01 4.337661e-02 5.838429e-01 -1.033752e+00 1.007431e+00
7.040974e+01 4.217391e-01 4.338385e-02 5.838632e-01 -1.035538e+00 1.007645e+00
7.040974e+01 4.217391e-01 4.337720e-02 5.838599e-01 -1.033188e+00 1.007751e+00
7.040974e+01 4.217391e-01 4.337397e-02 5.838602e-01 -1.032715e+00 1.007919e+00
7.040974e+01 4.217391e-01 4.338169e-02 5.838736e-01 -1.032639e+00 1.008072e+00
7.040874e+01 4.217391e-01 4.338909e-02 5.838821e-01 -1.032547e+00 1.008240e+00
7.037868e+01 4.217391e-01 4.340097e-02 5.839072e-01 -1.034592e+00 1.008469e+00
7.037868e+01 4.217391e-01 4.339783e-02 5.839066e-01 -1.033188e+00 1.008545e+00
7.034149e+01 4.217391e-01 4.340308e-02 5.839155e-01 -1.032181e+00 1.008698e+00
7.034149e+01 4.217391e-01 4.340913e-02 5.839294e-01 -1.033340e+00 1.008865e+00
7.034149e+01 4.217391e-01 4.341410e-02 5.839407e-01 -1.033096e+00 1.009048e+00
7.037868e+01 4.217391e-01 4.342017e-02 5.839571e-01 -1.033463e+00 1.009201e+00
7.037868e+01 4.217391e-01 4.341844e-02 5.839615e-01 -1.032806e+00 1.009354e+00
7.037868e+01 4.217391e-01 4.342188e-02 5.839745e-01 -1.033081e+00 1.009460e+00
7.037868e+01 4.217391e-01 4.341977e-02 5.839764e-01 -1.031448e+00 1.009628e+00
7.037868e+01 4.217391e-01 4.343191e-02 5.840058e-01 -1.033569e+00 1.009842e+00
7.034149e+01 4.217391e-01 4.342443e-02 5.840041e-01 -1.031998e+00 1.009918e+00
7.034149e+01 4.217391e-01 4.342607e-02 5.840134e-01 -1.032410e+00 1.010132e+00
7.040874e+01 4.217391e-01 4.342508e-02 5.840264e-01 -1.032043e+00 1.010223e+00
7.040874e+01 4.217391e-01 4.342762e-02 5.840413e-01 -1.032333e+00 1.010376e+00
7.040874e+01 4.217391e-01 4.342471e-02 5.840448e-01 -1.031021e+00 1.010529e+00
7.040874e+01 4.217391e-01 4.343043e-02 5.840592e-01 -1.031967e+00 1.010696e+00
7.044492e+01 4.217391e-01 4.342484e-02 5.840599e-01 -1.030518e+00 1.010849e+00
7.047430e+01 4.217391e-01 4.342850e-02 5.840731e-01 -1.030380e+00 1.011002e+00
7.043880e+01 4.217391e-01 4.343828e-02 5.841023e-01 -1.032578e+00 1.011200e+00
7.043880e+01 4.217391e-01 4.343032e-02 5.841003e-01 -1.030258e+00 1.011292e+00
7.043880e+01 4.217391e-01 4.343135e-02 5.841133e-01 -1.030502e+00 1.011459e+00
7.043880e+01 4.217391e-01 4.343193e-02 5.841271e-01 -1.030487e+00 1.011627e+00
7.046886e+01 4.217391e-01 4.342919e-02 5.841352e-01 -1.029816e+00 1.011719e+00
7.046886e+01 4.217391e-01 4.343440e-02 5.841563e-01 -1.031555e+00 1.011948e+00
7.046886e+01 4.217391e-01 4.343303e-02 5.841681e-01 -1.031906e+00 1.012146e+00
7.046886e+01 4.217391e-01 4.342655e-02 5.841717e-01 -1.030136e+00 1.012177e+00
7.050604e+01 4.217391e-01 4.343056e-02 5.841929e-01 -1.031097e+00 1.012360e+00
7.050604e+01 4.217391e-01 4.342742e-02 5.841986e-01 -1.030609e+00 1.012512e+00
7.050604e+01 4.217391e-01 4.342638e-02 5.842116e-01 -1.029678e+00 1.012604e+00
7.050604e+01 4.217391e-01 4.342312e-02 5.842184e-01 -1.029282e+00 1.012741e+00
7.050604e+01 4.217391e-01 4.342200e-02 5.842308e-01 -1.028763e+00 1.012878e+00
7.050604e+01 4.217391e-01 4.342640e-02 5.842495e-01 -1.029892e+00 1.013092e+00
7.054323e+01 4.217391e-01 4.342054e-02 5.842553e-01 -1.027878e+00 1.013153e+00
7.054155e+01 4.217391e-01 4.342050e-02 5.842634e-01 -1.027771e+00 1.013306e+00
7.057161e+01 4.217391e-01 4.342464e-02 5.842820e-01 -1.028000e+00 1.013443e+00
7.067606e+01 4.217391e-01 4.342953e-02 5.842999e-01 -1.028198e+00 1.013641e+00
7.067606e+01 4.217391e-01 4.342617e-02 5.843162e-01 -1.028244e+00 1.013733e+00
7.067061e+01 4.217391e-01 4.341650e-02 5.843168e-01 -1.027008e+00 1.013855e+00
7.067061e+01 4.217391e-01 4.341890e-02 5.843365e-01 -1.027176e+00 1.013977e+00
7.067061e+01 4.217391e-01 4.340730e-02 5.843302e-01 -1.025772e+00 1.014114e+00
7.067061e+01 4.217391e-01 4.341946e-02 5.843681e-01 -1.027496e+00 1.014236e+00
7.067061e+01 4.217391e-01 4.341490e-02 5.843830e-01 -1.027313e+00 1.014404e+00
7.064055e+01 4.217391e-01 4.340263e-02 5.843859e-01 -1.026047e+00 1.014496e+00
7.064055e+01 4.217391e-01 4.339421e-02 5.843972e-01 -1.024979e+00 1.014648e+00
7.067505e+01 4.217391e-01 4.338651e-02 5.844105e-01 -1.024902e+00 1.014771e+00
7.060068e+01 4.217391e-01 4.338298e-02 5.844320e-01 -1.026077e+00 1.014923e+00
7.060234e+01 4.217391e-01 4.337244e-02 5.844414e-01 -1.025391e+00 1.015060e+00
7.056683e+01 4.217391e-01 4.336043e-02 5.844538e-01 -1.025223e+00 1.015228e+00
7.056616e+01 4.217391e-01 4.335272e-02 5.844693e-01 -1.024261e+00 1.015335e+00
7.056616e+01 4.217391e-01 4.334878e-02 5.844958e-01 -1.025955e+00 1.015533e+00
7.056784e+01 4.217391e-01 4.332885e-02 5.844954e-01 -1.024796e+00 1.015625e+00
7.056784e+01 4.217391e-01 4.332267e-02 5.845159e-01 -1.024277e+00 1.015793e+00
7.053168e+01 4.217391e-01 4.331547e-02 5.845315e-01 -1.024673e+00 1.015991e+00
7.053168e+01 4.217391e-01 4.329714e-02 5.845363e-01 -1.023148e+00 1.016068e+00
7.053168e+01 4.217391e-01 4.329076e-02 5.845535e-01 -1.023239e+00 1.016205e+00
7.049617e+01 4.217391e-01 4.328732e-02 5.845789e-01 -1.023849e+00 1.016342e+00
7.049617e+01 4.217391e-01 4.328196e-02 5.846019e-01 -1.025085e+00 1.016525e+00
7.049617e+01 4.217391e-01 4.326646e-02 5.846096e-01 -1.024124e+00 1.016586e+00
7.046001e+01 4.217391e-01 4.325702e-02 5.846218e-01 -1.022751e+00 1.016693e+00
7.042383e+01 4.217391e-01 4.324685e-02 5.846328e-01 -1.022186e+00 1.016815e+00
7.042383e+01 4.217391e-01 4.324043e-02 5.846578e-01 -1.022995e+00 1.016922e+00
7.045389e+01 4.217391e-01 4.322947e-02 5.846634e-01 -1.021881e+00 1.017044e+00
7.045389e+01 4.217391e-01 4.322613e-02 5.846929e-01 -1.023148e+00 1.017197e+00
7.038156e+01 4.217391e-01 4.321162e-02 5.846980e-01 -1.021301e+00 1.017258e+00
7.038156e+01 4.217391e-01 4.321493e-02 5.847302e-01 -1.023987e+00 1.017471e+00
7.031534e+01 4.217391e-01 4.320301e-02 5.847411e-01 -1.022583e+00 1.017563e+00
7.035252e+01 4.217391e-01 4.318972e-02 5.847507e-01 -1.021896e+00 1.017578e+00
7.038870e+01 4.217391e-01 4.318452e-02 5.847728e-01 -1.022202e+00 1.017715e+00
7.045393e+01 4.217391e-01 4.317585e-02 5.847793e-01 -1.022507e+00 1.017776e+00
7.049010e+01 4.217391e-01 4.317147e-02 5.848013e-01 -1.022797e+00 1.017822e+00
7.037956e+01 4.217391e-01 4.316191e-02 5.848140e-01 -1.023102e+00 1.017868e+00
7.034338e+01 4.217391e-01 4.314819e-02 5.848235e-01 -1.023422e+00 1.017960e+00
7.034338e+01 4.217391e-01 4.313943e-02 5.848392e-01 -1.023743e+00 1.018051e+00
7.037955e+01 4.217391e-01 4.313746e-02 5.848638e-01 -1.024063e+00 1.018112e+00
7.041505e+01 4.217391e-01 4.312693e-02 5.848826e-01 -1.024384e+00 1.018188e+00
7.038499e+01 4.217391e-01 4.310651e-02 5.848824e-01 -1.024704e+00 1.018250e+00
7.038499e+01 4.217391e-01 4.310772e-02 5.849146e-01 -1.025024e+00 1.018311e+00
7.038499e+01 4.217391e-01 4.309545e-02 5.849286e-01 -1.025360e+00 1.018402e+00
7.038399e+01 4.217391e-01 4.309397e-02 5.849602e-01 -1.025696e+00 1.018463e+00
7.034781e+01 4.217391e-01 4.307551e-02 5.849696e-01 -1.026031e+00 1.018539e+00
7.038332e+01 4.217391e-01 4.307093e-02 5.849969e-01 -1.026382e+00 1.018616e+00
7.034715e+01 4.217391e-01 4.306527e-02 5.850199e-01 -1.026718e+00 1.018692e+00
7.034814e+01 4.260870e-01 4.305684e-02 5.850353e-01 -1.027054e+00 1.018829e+00
7.042047e+01 4.260870e-01 4.303716e-02 5.850467e-01 -1.027420e+00 1.018829e+00
7.038496e+01 4.260870e-01 4.302702e-02 5.850692e-01 -1.027756e+00 1.018890e+00
7.038396e+01 4.217391e-01 4.301895e-02 5.850916e-01 -1.028107e+00 1.018982e+00
7.038564e+01 4.217391e-01 4.300393e-02 5.851172e-01 -1.028473e+00 1.019043e+00
7.049005e+01 4.260870e-01 4.299042e-02 5.851340e-01 -1.028824e+00 1.019180e+00
7.042381e+01 4.260870e-01 4.296656e-02 5.851417e-01 -1.029175e+00 1.019119e+00
7.039372e+01 4.217391e-01 4.295455e-02 5.851624e-01 -1.029526e+00 1.019196e+00
7.035753e+01 4.260870e-01 4.294403e-02 5.851869e-01 -1.029877e+00 1.019272e+00
7.045485e+01 4.304348e-01 4.293653e-02 5.852156e-01 -1.030243e+00 1.019501e+00
7.038350e+01 4.260870e-01 4.291381e-02 5.852232e-01 -1.030594e+00 1.019424e+00
7.038249e+01 4.260870e-01 4.289763e-02 5.852453e-01 -1.030960e+00 1.019455e+00
7.042067e+01 4.260870e-01 4.288354e-02 5.852709e-01 -1.031311e+00 1.019623e+00
7.042268e+01 4.260870e-01 4.286067e-02 5.852794e-01 -1.031662e+00 1.019592e+00
7.026559e+01 4.260870e-01 4.284954e-02 5.853062e-01 -1.032028e+00 1.019653e+00
7.026561e+01 4.260870e-01 4.283267e-02 5.853257e-01 -1.032410e+00 1.019730e+00
7.022945e+01 4.260870e-01 4.282088e-02 5.853596e-01 -1.032776e+00 1.019852e+00
7.019226e+01 4.260870e-01 4.279776e-02 5.853748e-01 -1.033157e+00 1.019836e+00
7.019226e+01 4.260870e-01 4.277861e-02 5.853945e-01 -1.033539e+00 1.019867e+00
7.025748e+01 4.260870e-01 4.276428e-02 5.854192e-01 -1.033920e+00 1.019989e+00
7.029366e+01 4.260870e-01 4.274141e-02 5.854387e-01 -1.034271e+00 1.019974e+00
7.029266e+01 4.260870e-01 4.273065e-02 5.854623e-01 -1.034653e+00 1.020050e+00
7.023357e+01 4.260870e-01 4.271920e-02 5.854973e-01 -1.035019e+00 1.020126e+00
7.022746e+01 4.260870e-01 4.269109e-02 5.855055e-01 -1.035385e+00 1.020111e+00
7.015514e+01 4.260870e-01 4.267751e-02 5.855358e-01 -1.035767e+00 1.020142e+00
7.012000e+01 4.260870e-01 4.266756e-02 5.855707e-01 -1.036148e+00 1.020264e+00
7.010777e+01 4.260870e-01 4.264420e-02 5.855863e-01 -1.036530e+00 1.020233e+00
7.010777e+01 4.260870e-01 4.262882e-02 5.856122e-01 -1.036911e+00 1.020325e+00
7.006044e+01 4.260870e-01 4.260638e-02 5.856298e-01 -1.037308e+00 1.020340e+00
6.998810e+01 4.260870e-01 4.259038e-02 5.856620e-01 -1.037704e+00 1.020462e+00
6.998810e+01 4.260870e-01 4.256831e-02 5.856836e-01 -1.038071e+00 1.020477e+00
6.998808e+01 4.260870e-01 4.255821e-02 5.857184e-01 -1.038467e+00 1.020676e+00
6.997487e+01 4.260870e-01 4.253661e-02 5.857404e-01 -1.038864e+00 1.021103e+00
7.004820e+01 4.260870e-01 4.252077e-02 5.857661e-01 -1.039261e+00 1.021530e+00
6.998907e+01 4.260870e-01 4.250042e-02 5.857932e-01 -1.039658e+00 1.021973e+00
6.998907e+01 4.260870e-01 4.247659e-02 5.858160e-01 -1.040054e+00 1.022415e+00
7.009148e+01 4.260870e-01 4.246179e-02 5.858462e-01 -1.040466e+00 1.022842e+00
7.006142e+01 4.260870e-01 4.244396e-02 5.858704e-01 -1.040863e+00 1.023285e+00
7.007878e+01 4.260870e-01 4.242672e-02 5.859016e-01 -1.041260e+00 1.023727e+00
7.022350e+01 4.260870e-01 4.241259e-02 5.859348e-01 -1.041672e+00 1.024170e+00
7.022350e+01 4.260870e-01 4.239864e-02 5.859715e-01 -1.042084e+00 1.024612e+00
7.018799e+01 4.260870e-01 4.237265e-02 5.859924e-01 -1.042496e+00 1.025070e+00
7.020699e+01 4.304348e-01 4.235497e-02 5.860226e-01 -1.042908e+00 1.025528e+00
7.017146e+01 4.304348e-01 4.232847e-02 5.860418e-01 -1.043304e+00 1.025970e+00
7.003967e+01 4.304348e-01 4.231621e-02 5.860837e-01 -1.043716e+00 1.026443e+00
7.003357e+01 4.260870e-01 4.229197e-02 5.861138e-01 -1.044144e+00 1.026901e+00
7.006871e+01 4.304348e-01 4.227626e-02 5.861443e-01 -1.044540e+00 1.027359e+00
7.003319e+01 4.304348e-01 4.225081e-02 5.861732e-01 -1.044952e+00 1.027832e+00
7.002708e+01 4.304348e-01 4.222784e-02 5.862057e-01 -1.045349e+00 1.028290e+00
7.006259e+01 4.304348e-01 4.220977e-02 5.862403e-01 -1.045761e+00 1.028748e+00
7.016600e+01 4.304348e-01 4.218663e-02 5.862725e-01 -1.046188e+00 1.029205e+00
7.009975e+01 4.304348e-01 4.215723e-02 5.862987e-01 -1.046600e+00 1.029663e+00
7.005649e+01 4.260870e-01 4.213995e-02 5.863414e-01 -1.047012e+00 1.030136e+00
7.005551e+01 4.217391e-01 4.211492e-02 5.863701e-01 -1.047424e+00 1.030594e+00
7.010953e+01 4.217391e-01 4.208816e-02 5.864069e-01 -1.047821e+00 1.031067e+00
7.015080e+01 4.217391e-01 4.206235e-02 5.864337e-01 -1.048248e+00 1.031525e+00
7.006165e+01 4.217391e-01 4.204965e-02 5.864744e-01 -1.048676e+00 1.031982e+00
7.009781e+01 4.217391e-01 4.202507e-02 5.865096e-01 -1.049103e+00 1.032440e+00
6.994072e+01 4.217391e-01 4.200165e-02 5.865467e-01 -1.049530e+00 1.032898e+00
6.993361e+01 4.217391e-01 4.198469e-02 5.865838e-01 -1.049973e+00 1.033356e+00
6.993803e+01 4.217391e-01 4.195481e-02 5.866090e-01 -1.050415e+00 1.033813e+00
6.993604e+01 4.217391e-01 4.193629e-02 5.866506e-01 -1.050858e+00 1.034271e+00
6.997800e+01 4.217391e-01 4.191701e-02 5.866907e-01 -1.051300e+00 1.034729e+00
6.989453e+01 4.217391e-01 4.189636e-02 5.867267e-01 -1.051743e+00 1.035187e+00
6.987993e+01 4.173913e-01 4.186738e-02 5.867624e-01 -1.052170e+00 1.035660e+00
6.989845e+01 4.173913e-01 4.184321e-02 5.868027e-01 -1.052612e+00 1.036148e+00
6.986130e+01 4.173913e-01 4.181388e-02 5.868316e-01 -1.053055e+00 1.036621e+00
6.979570e+01 4.173913e-01 4.178590e-02 5.868655e-01 -1.053497e+00 1.037094e+00
6.991508e+01 4.217391e-01 4.176254e-02 5.868990e-01 -1.053955e+00 1.037582e+00
6.983121e+01 4.173913e-01 4.175339e-02 5.869613e-01 -1.054413e+00 1.038055e+00
6.968655e+01 4.217391e-01 4.172145e-02 5.869912e-01 -1.054886e+00 1.038528e+00
6.963820e+01 4.217391e-01 4.169786e-02 5.870335e-01 -1.055359e+00 1.038986e+00
6.982346e+01 4.217391e-01 4.166465e-02 5.870633e-01 -1.055832e+00 1.039459e+00
6.974568e+01 4.217391e-01 4.164702e-02 5.871108e-01 -1.056305e+00 1.039932e+00
6.992549e+01 4.217391e-01 4.161983e-02 5.871476e-01 -1.056778e+00 1.040405e+00
6.989064e+01 4.217391e-01 4.159037e-02 5.871834e-01 -1.057251e+00 1.040894e+00
6.992746e+01 4.217391e-01 4.156383e-02 5.872244e-01 -1.057739e+00 1.041397e+00
6.992747e+01 4.217391e-01 4.154351e-02 5.872782e-01 -1.058212e+00 1.041885e+00
6.996466e+01 4.217391e-01 4.151980e-02 5.873197e-01 -1.058701e+00 1.042374e+00
6.992850e+01 4.217391e-01 4.149899e-02 5.873641e-01 -1.059189e+00 1.042862e+00
6.995859e+01 4.217391e-01 4.147281e-02 5.874052e-01 -1.059662e+00 1.043335e+00
7.008493e+01 4.217391e-01 4.145485e-02 5.874618e-01 -1.060150e+00 1.043808e+00
7.015114e+01 4.217391e-01 4.143366e-02 5.874962e-01 -1.060638e+00 1.044312e+00
7.015315e+01 4.217391e-01 4.141558e-02 5.875400e-01 -1.061142e+00 1.044830e+00
7.015315e+01 4.217391e-01 4.140272e-02 5.875929e-01 -1.061630e+00 1.045334e+00
7.015518e+01 4.260870e-01 4.138596e-02 5.876412e-01 -1.062134e+00 1.045868e+00
7.015518e+01 4.260870e-01 4.136237e-02 5.876920e-01 -1.062637e+00 1.046402e+00
7.026271e+01 4.260870e-01 4.133986e-02 5.877392e-01 -1.063126e+00 1.046921e+00
7.022653e+01 4.260870e-01 4.132636e-02 5.877985e-01 -1.063644e+00 1.047440e+00
7.019035e+01 4.260870e-01 4.130093e-02 5.878398e-01 -1.064148e+00 1.048004e+00
7.019034e+01 4.260870e-01 4.128241e-02 5.878861e-01 -1.064636e+00 1.048553e+00
7.019034e+01 4.260870e-01 4.127168e-02 5.879463e-01 -1.065155e+00 1.049088e+00
6.991681e+01 4.260870e-01 4.124677e-02 5.879946e-01 -1.065659e+00 1.049652e+00
6.981337e+01 4.260870e-01 4.123104e-02 5.880475e-01 -1.066162e+00 1.050201e+00
6.981337e+01 4.260870e-01 4.120925e-02 5.881051e-01 -1.066666e+00 1.050751e+00
6.981337e+01 4.260870e-01 4.118831e-02 5.881573e-01 -1.067184e+00 1.051285e+00
6.974168e+01 4.260870e-01 4.116638e-02 5.882078e-01 -1.067703e+00 1.051834e+00
6.964030e+01 4.217391e-01 4.114997e-02 5.882661e-01 -1.068253e+00 1.052353e+00
6.939534e+01 4.217391e-01 4.112801e-02 5.883233e-01 -1.068787e+00 1.052902e+00
6.946800e+01 4.217391e-01 4.110300e-02 5.883743e-01 -1.069305e+00 1.053467e+00
6.943184e+01 4.217391e-01 4.108411e-02 5.884337e-01 -1.069855e+00 1.054016e+00
6.952913e+01 4.217391e-01 4.106167e-02 5.884938e-01 -1.070389e+00 1.054581e+00
6.950514e+01 4.217391e-01 4.103806e-02 5.885533e-01 -1.071182e+00 1.055130e+00
6.951125e+01 4.217391e-01 4.101484e-02 5.886062e-01 -1.072220e+00 1.055710e+00
6.954741e+01 4.217391e-01 4.099060e-02 5.886654e-01 -1.073242e+00 1.056259e+00
6.956590e+01 4.217391e-01 4.097049e-02 5.887336e-01 -1.074265e+00 1.056808e+00
6.966602e+01 4.304348e-01 4.093688e-02 5.887820e-01 -1.075287e+00 1.057404e+00
6.969000e+01 4.304348e-01 4.091976e-02 5.888562e-01 -1.076309e+00 1.057953e+00
6.979849e+01 4.304348e-01 4.089007e-02 5.889102e-01 -1.077332e+00 1.058517e+00
6.956993e+01 4.260870e-01 4.087143e-02 5.889869e-01 -1.078384e+00 1.059067e+00
6.964960e+01 4.260870e-01 4.084934e-02 5.890497e-01 -1.079422e+00 1.059616e+00
6.990376e+01 4.260870e-01 4.081803e-02 5.890993e-01 -1.080460e+00 1.060196e+00
6.949881e+01 4.217391e-01 4.080614e-02 5.891732e-01 -1.081528e+00 1.060745e+00
6.972227e+01 4.217391e-01 4.078000e-02 5.892301e-01 -1.082565e+00 1.061356e+00
6.965060e+01 4.217391e-01 4.075624e-02 5.892969e-01 -1.083618e+00 1.061951e+00
6.982532e+01 4.173913e-01 4.072940e-02 5.893555e-01 -1.084671e+00 1.062546e+00
6.984927e+01 4.130435e-01 4.070533e-02 5.894276e-01 -1.085724e+00 1.063141e+00
6.972391e+01 4.130435e-01 4.068409e-02 5.894998e-01 -1.086792e+00 1.063751e+00
6.954790e+01 4.173913e-01 4.065382e-02 5.895579e-01 -1.087845e+00 1.064362e+00
6.957796e+01 4.173913e-01 4.063279e-02 5.896281e-01 -1.088928e+00 1.064957e+00
6.947684e+01 4.173913e-01 4.061253e-02 5.897009e-01 -1.090012e+00 1.065567e+00
6.947073e+01 4.173913e-01 4.058956e-02 5.897684e-01 -1.091095e+00 1.066177e+00
6.943456e+01 4.173913e-01 4.057604e-02 5.898448e-01 -1.092163e+00 1.066803e+00
6.949979e+01 4.173913e-01 4.054632e-02 5.899072e-01 -1.093246e+00 1.067429e+00
6.943353e+01 4.173913e-01 4.052913e-02 5.899864e-01 -1.094330e+00 1.068069e+00
6.936121e+01 4.130435e-01 4.051170e-02 5.900565e-01 -1.095444e+00 1.068710e+00
6.931331e+01 4.173913e-01 4.048110e-02 5.901152e-01 -1.096527e+00 1.069366e+00
6.927715e+01 4.130435e-01 4.046993e-02 5.902026e-01 -1.097626e+00 1.070023e+00
6.920000e+01 4.130435e-01 4.045665e-02 5.902832e-01 -1.098740e+00 1.070679e+00
6.912833e+01 4.086957e-01 4.044130e-02 5.903620e-01 -1.099838e+00 1.071320e+00
6.915839e+01 4.086957e-01 4.041956e-02 5.904354e-01 -1.100937e+00 1.071976e+00
6.909929e+01 4.043478e-01 4.039289e-02 5.904993e-01 -1.102020e+00 1.072632e+00
6.906555e+01 4.043478e-01 4.037764e-02 5.905803e-01 -1.103134e+00 1.073273e+00
6.928149e+01 4.086957e-01 4.036743e-02 5.906707e-01 -1.104248e+00 1.073944e+00
6.925140e+01 4.086957e-01 4.034385e-02 5.907456e-01 -1.105377e+00 1.074600e+00
6.920978e+01 4.086957e-01 4.031905e-02 5.908170e-01 -1.106506e+00 1.075272e+00
6.920978e+01 4.086957e-01 4.030659e-02 5.909048e-01 -1.107651e+00 1.075943e+00
6.911179e+01 4.043478e-01 4.028203e-02 5.909874e-01 -1.108780e+00 1.076599e+00
6.895438e+01 4.000000e-01 4.026441e-02 5.910677e-01 -1.109924e+00 1.077286e+00
6.903845e+01 4.000000e-01 4.025050e-02 5.911611e-01 -1.111084e+00 1.077957e+00
6.907664e+01 4.043478e-01 4.022666e-02 5.912366e-01 -1.112244e+00 1.078674e+00
6.892996e+01 3.956522e-01 4.020041e-02 5.913273e-01 -1.113388e+00 1.079330e+00
6.911993e+01 4.086957e-01 4.018014e-02 5.914126e-01 -1.114532e+00 1.080017e+00
6.885501e+01 3.956522e-01 4.015803e-02 5.915003e-01 -1.115692e+00 1.080704e+00
6.880710e+01 3.956522e-01 4.013072e-02 5.915782e-01 -1.116852e+00 1.081406e+00
6.860129e+01 3.956522e-01 4.010963e-02 5.916687e-01 -1.117996e+00 1.082123e+00
6.860127e+01 3.956522e-01 4.009079e-02 5.917590e-01 -1.119156e+00 1.082840e+00
6.839543e+01 3.869565e-01 4.006436e-02 5.918450e-01 -1.120300e+00 1.083557e+00
6.830016e+01 3.869565e-01 4.004553e-02 5.919497e-01 -1.121475e+00 1.084274e+00
6.827008e+01 3.869565e-01 4.001883e-02 5.920413e-01 -1.122650e+00 1.084991e+00
6.834848e+01 3.869565e-01 3.999964e-02 5.921351e-01 -1.123840e+00 1.085709e+00
6.830521e+01 3.869565e-01 3.997311e-02 5.922288e-01 -1.125031e+00 1.086441e+00
6.829843e+01 3.826087e-01 3.994882e-02 5.923325e-01 -1.126221e+00 1.087173e+00
6.835248e+01 3.826087e-01 3.992763e-02 5.924351e-01 -1.127426e+00 1.087891e+00
6.833415e+01 3.826087e-01 3.989167e-02 5.925291e-01 -1.128601e+00 1.088638e+00
6.806245e+01 3.695652e-01 3.986645e-02 5.926325e-01 -1.129807e+00 1.089386e+00
6.808641e+01 3.695652e-01 3.984543e-02 5.927347e-01 -1.131058e+00 1.090103e+00
6.780717e+01 3.565217e-01 3.982463e-02 5.928415e-01 -1.132309e+00 1.090866e+00
6.791568e+01 3.608696e-01 3.978784e-02 5.929255e-01 -1.133514e+00 1.091553e+00
6.787950e+01 3.565217e-01 3.976192e-02 5.930430e-01 -1.134735e+00 1.092270e+00
6.794572e+01 3.565217e-01 3.972789e-02 5.931368e-01 -1.135956e+00 1.093018e+00
6.796970e+01 3.521739e-01 3.969684e-02 5.932489e-01 -1.137192e+00 1.093765e+00
6.787440e+01 3.478261e-01 3.966671e-02 5.933596e-01 -1.138412e+00 1.094498e+00
6.786505e+01 3.565217e-01 3.963139e-02 5.934676e-01 -1.139648e+00 1.095245e+00
6.767244e+01 3.565217e-01 3.959580e-02 5.935760e-01 -1.140869e+00 1.095993e+00
6.783682e+01 3.434783e-01 3.956925e-02 5.936933e-01 -1.142120e+00 1.096725e+00
6.756529e+01 3.478261e-01 3.953353e-02 5.938052e-01 -1.143356e+00 1.097977e+00
6.746967e+01 3.434783e-01 3.951084e-02 5.939203e-01 -1.144608e+00 1.099594e+00
6.739732e+01 3.391304e-01 3.947082e-02 5.940325e-01 -1.145844e+00 1.101288e+00
6.733720e+01 3.391304e-01 3.943440e-02 5.941450e-01 -1.147095e+00 1.103012e+00
6.737273e+01 3.391304e-01 3.940246e-02 5.942711e-01 -1.148346e+00 1.104660e+00
6.740892e+01 3.391304e-01 3.937484e-02 5.943932e-01 -1.149612e+00 1.106400e+00
6.741159e+01 3.391304e-01 3.933580e-02 5.945087e-01 -1.150879e+00 1.108093e+00
6.737608e+01 3.391304e-01 3.929060e-02 5.946222e-01 -1.152130e+00 1.109375e+00
6.745386e+01 3.478261e-01 3.924479e-02 5.947436e-01 -1.153366e+00 1.111053e+00
6.728624e+01 3.304348e-01 3.920772e-02 5.948731e-01 -1.154633e+00 1.112656e+00
6.733926e+01 3.260870e-01 3.917594e-02 5.949932e-01 -1.155914e+00 1.114822e+00
6.720187e+01 3.260870e-01 3.912543e-02 5.951076e-01 -1.157181e+00 1.116089e+00
6.716670e+01 3.260870e-01 3.909206e-02 5.952427e-01 -1.158432e+00 1.118011e+00
6.689403e+01 3.304348e-01 3.904464e-02 5.953636e-01 -1.159714e+00 1.119705e+00
6.696532e+01 3.217391e-01 3.901665e-02 5.954989e-01 -1.160995e+00 1.121689e+00
6.688832e+01 3.217391e-01 3.897426e-02 5.956229e-01 -1.162292e+00 1.123077e+00
6.683829e+01 3.173913e-01 3.893825e-02 5.957572e-01 -1.163589e+00 1.124802e+00
6.653815e+01 3.086957e-01 3.889767e-02 5.958871e-01 -1.164886e+00 1.126541e+00
6.674966e+01 3.000000e-01 3.886899e-02 5.960248e-01 -1.166199e+00 1.128571e+00
6.628952e+01 3.043478e-01 3.882300e-02 5.961535e-01 -1.167480e+00 1.130081e+00
6.652734e+01 2.913043e-01 3.879521e-02 5.963020e-01 -1.168793e+00 1.132233e+00
6.641779e+01 2.826087e-01 3.875351e-02 5.964332e-01 -1.170074e+00 1.133514e+00
6.644885e+01 2.826087e-01 3.872029e-02 5.965670e-01 -1.171387e+00 1.135620e+00
6.619408e+01 2.826087e-01 3.868218e-02 5.967086e-01 -1.172684e+00 1.137283e+00
6.634178e+01 2.913043e-01 3.864914e-02 5.968587e-01 -1.173981e+00 1.139175e+00
6.626141e+01 2.913043e-01 3.861125e-02 5.969936e-01 -1.175262e+00 1.141098e+00
6.638275e+01 2.913043e-01 3.858598e-02 5.971461e-01 -1.176590e+00 1.142944e+00
6.608055e+01 2.826087e-01 3.854850e-02 5.972863e-01 -1.177917e+00 1.144943e+00
6.609337e+01 2.782609e-01 3.852079e-02 5.974417e-01 -1.179276e+00 1.147232e+00
6.591191e+01 2.782609e-01 3.848183e-02 5.975823e-01 -1.180588e+00 1.148773e+00
6.591327e+01 2.739130e-01 3.845243e-02 5.977365e-01 -1.181915e+00 1.150894e+00
6.589195e+01 2.782609e-01 3.841850e-02 5.978851e-01 -1.183228e+00 1.152725e+00
6.598761e+01 2.782609e-01 3.838763e-02 5.980368e-01 -1.184555e+00 1.154770e+00
6.575337e+01 2.739130e-01 3.835455e-02 5.981879e-01 -1.185883e+00 1.156754e+00
6.570413e+01 2.739130e-01 3.831588e-02 5.983432e-01 -1.187225e+00 1.158844e+00
6.558716e+01 2.652174e-01 3.829650e-02 5.985214e-01 -1.188599e+00 1.161255e+00
6.526472e+01 2.608696e-01 3.825749e-02 5.986653e-01 -1.189941e+00 1.162582e+00
6.545164e+01 2.739130e-01 3.823117e-02 5.988274e-01 -1.191284e+00 1.164658e+00
6.527995e+01 2.695652e-01 3.820756e-02 5.989984e-01 -1.192657e+00 1.167679e+00
6.534497e+01 2.739130e-01 3.815981e-02 5.991348e-01 -1.193954e+00 1.169220e+00
6.521417e+01 2.739130e-01 3.813961e-02 5.993273e-01 -1.195328e+00 1.171265e+00
6.514523e+01 2.739130e-01 3.810832e-02 5.994819e-01 -1.196701e+00 1.173279e+00
6.510779e+01 2.652174e-01 3.807402e-02 5.996587e-01 -1.198090e+00 1.175323e+00
6.501859e+01 2.608696e-01 3.804555e-02 5.998361e-01 -1.199463e+00 1.177338e+00
6.498683e+01 2.608696e-01 3.801095e-02 6.000074e-01 -1.200851e+00 1.179474e+00
6.470361e+01 2.434783e-01 3.798842e-02 6.001898e-01 -1.202255e+00 1.181488e+00
6.456401e+01 2.391304e-01 3.795021e-02 6.003582e-01 -1.203629e+00 1.183594e+00
6.458368e+01 2.478261e-01 3.791847e-02 6.005401e-01 -1.205002e+00 1.185806e+00
6.468611e+01 2.565217e-01 3.788775e-02 6.007244e-01 -1.206406e+00 1.187912e+00
6.443900e+01 2.521739e-01 3.785499e-02 6.009165e-01 -1.207809e+00 1.190033e+00
6.438153e+01 2.565217e-01 3.782260e-02 6.011006e-01 -1.209229e+00 1.192154e+00
6.429764e+01 2.434783e-01 3.778853e-02 6.012873e-01 -1.210632e+00 1.194275e+00
6.442946e+01 2.434783e-01 3.775432e-02 6.014825e-01 -1.212067e+00 1.196487e+00
6.446152e+01 2.347826e-01 3.772033e-02 6.016753e-01 -1.213501e+00 1.198578e+00
6.423172e+01 2.304348e-01 3.768612e-02 6.018663e-01 -1.214966e+00 1.201172e+00
6.414034e+01 2.260870e-01 3.764679e-02 6.020610e-01 -1.216431e+00 1.202789e+00
6.420047e+01 2.260870e-01 3.761308e-02 6.022538e-01 -1.217865e+00 1.205170e+00
6.410909e+01 2.260870e-01 3.757608e-02 6.024470e-01 -1.219299e+00 1.207214e+00
6.395642e+01 2.260870e-01 3.754643e-02 6.026484e-01 -1.220749e+00 1.209488e+00
6.392122e+01 2.304348e-01 3.750320e-02 6.028638e-01 -1.222229e+00 1.211761e+00
6.398135e+01 2.304348e-01 3.746299e-02 6.030718e-01 -1.223709e+00 1.214401e+00
6.408800e+01 2.304348e-01 3.742167e-02 6.032802e-01 -1.225189e+00 1.216599e+00
6.427437e+01 2.347826e-01 3.738060e-02 6.034856e-01 -1.226669e+00 1.218674e+00
6.421303e+01 2.347826e-01 3.733890e-02 6.036940e-01 -1.229141e+00 1.221039e+00
6.421846e+01 2.304348e-01 3.731053e-02 6.039133e-01 -1.233047e+00 1.223404e+00
6.419171e+01 2.347826e-01 3.726213e-02 6.041328e-01 -1.237183e+00 1.225922e+00
6.394873e+01 2.260870e-01 3.722725e-02 6.043564e-01 -1.241348e+00 1.228409e+00
6.381042e+01 2.304348e-01 3.718812e-02 6.045736e-01 -1.245636e+00 1.231049e+00
6.371739e+01 2.304348e-01 3.715403e-02 6.048040e-01 -1.249802e+00 1.233566e+00
6.380858e+01 2.304348e-01 3.711825e-02 6.050361e-01 -1.253967e+00 1.236130e+00
6.386559e+01 2.347826e-01 3.708504e-02 6.052610e-01 -1.258087e+00 1.238708e+00
6.379933e+01 2.304348e-01 3.704185e-02 6.054916e-01 -1.262222e+00 1.241257e+00
6.362111e+01 2.260870e-01 3.699917e-02 6.057222e-01 -1.266495e+00 1.243942e+00
6.353802e+01 2.260870e-01 3.697012e-02 6.059712e-01 -1.270523e+00 1.246490e+00
6.341443e+01 2.304348e-01 3.693147e-02 6.062123e-01 -1.274750e+00 1.249146e+00
6.334343e+01 2.304348e-01 3.689066e-02 6.064572e-01 -1.279114e+00 1.251862e+00
6.335286e+01 2.347826e-01 3.685524e-02 6.067005e-01 -1.283539e+00 1.254532e+00
6.347688e+01 2.391304e-01 3.681210e-02 6.069370e-01 -1.288284e+00 1.257385e+00
6.352838e+01 2.434783e-01 3.677032e-02 6.071977e-01 -1.292953e+00 1.260132e+00
6.344765e+01 2.478261e-01 3.673395e-02 6.074603e-01 -1.297516e+00 1.262909e+00
6.348975e+01 2.521739e-01 3.669735e-02 6.077164e-01 -1.302155e+00 1.265762e+00
6.340938e+01 2.521739e-01 3.664865e-02 6.079758e-01 -1.306839e+00 1.268600e+00
6.346248e+01 2.608696e-01 3.661089e-02 6.082503e-01 -1.311417e+00 1.271240e+00
6.321883e+01 2.434783e-01 3.656390e-02 6.085120e-01 -1.316101e+00 1.274033e+00
6.310672e+01 2.434783e-01 3.652398e-02 6.087892e-01 -1.320816e+00 1.276794e+00
6.294431e+01 2.391304e-01 3.647310e-02 6.090550e-01 -1.325867e+00 1.279770e+00
6.295041e+01 2.391304e-01 3.642801e-02 6.093324e-01 -1.330948e+00 1.282745e+00
6.296574e+01 2.434783e-01 3.637857e-02 6.096118e-01 -1.336044e+00 1.285767e+00
6.286722e+01 2.434783e-01 3.633664e-02 6.098902e-01 -1.341202e+00 1.288818e+00
6.272862e+01 2.304348e-01 3.629429e-02 6.101853e-01 -1.346436e+00 1.291870e+00
6.271152e+01 2.304348e-01 3.624830e-02 6.104894e-01 -1.351593e+00 1.294861e+00
6.266148e+01 2.260870e-01 3.620251e-02 6.107838e-01 -1.356735e+00 1.297852e+00
6.256316e+01 2.260870e-01 3.615388e-02 6.110737e-01 -1.362122e+00 1.300964e+00
6.245366e+01 2.260870e-01 3.611060e-02 6.113793e-01 -1.367310e+00 1.303940e+00
6.242851e+01 2.260870e-01 3.606776e-02 6.116985e-01 -1.372528e+00 1.306900e+00
6.235728e+01 2.260870e-01 3.602962e-02 6.119906e-01 -1.378021e+00 1.310059e+00
6.241890e+01 2.260870e-01 3.598077e-02 6.122986e-01 -1.383667e+00 1.313232e+00
6.234557e+01 2.260870e-01 3.593458e-02 6.126190e-01 -1.389023e+00 1.316147e+00
6.232930e+01 2.260870e-01 3.588363e-02 6.129412e-01 -1.394745e+00 1.319427e+00
6.222775e+01 2.217391e-01 3.584135e-02 6.132693e-01 -1.400345e+00 1.322540e+00
6.197459e+01 2.304348e-01 3.579435e-02 6.135858e-01 -1.406479e+00 1.326187e+00
6.193320e+01 2.130435e-01 3.574641e-02 6.139200e-01 -1.411438e+00 1.328751e+00
6.181511e+01 2.086957e-01 3.569788e-02 6.142592e-01 -1.417145e+00 1.331985e+00
6.155092e+01 2.000000e-01 3.565011e-02 6.145806e-01 -1.422989e+00 1.335281e+00
6.151427e+01 2.000000e-01 3.559439e-02 6.149242e-01 -1.428955e+00 1.338776e+00
6.140327e+01 2.043478e-01 3.556148e-02 6.152637e-01 -1.434845e+00 1.342117e+00
6.132407e+01 2.086957e-01 3.550385e-02 6.156067e-01 -1.441010e+00 1.345703e+00
6.143962e+01 2.130435e-01 3.546707e-02 6.159667e-01 -1.446899e+00 1.349045e+00
6.122798e+01 2.130435e-01 3.542034e-02 6.163196e-01 -1.453003e+00 1.352661e+00
6.094176e+01 2.173913e-01 3.536789e-02 6.166625e-01 -1.459030e+00 1.356216e+00
6.062503e+01 2.130435e-01 3.532252e-02 6.170176e-01 -1.465225e+00 1.359848e+00
6.065128e+01 2.130435e-01 3.527751e-02 6.173883e-01 -1.471390e+00 1.363251e+00
6.029312e+01 2.086957e-01 3.522780e-02 6.177493e-01 -1.477615e+00 1.366730e+00
6.015448e+01 2.130435e-01 3.517763e-02 6.180979e-01 -1.483994e+00 1.370255e+00
6.020688e+01 2.130435e-01 3.512356e-02 6.184814e-01 -1.490341e+00 1.373764e+00
5.982199e+01 2.086957e-01 3.508198e-02 6.188572e-01 -1.496719e+00 1.377304e+00
5.948470e+01 2.086957e-01 3.502715e-02 6.192288e-01 -1.503143e+00 1.380875e+00
5.945349e+01 2.130435e-01 3.497464e-02 6.196257e-01 -1.509460e+00 1.384338e+00
5.929608e+01 2.130435e-01 3.492157e-02 6.199932e-01 -1.516052e+00 1.387970e+00
5.912993e+01 2.130435e-01 3.486875e-02 6.203836e-01 -1.522461e+00 1.391479e+00
5.920499e+01 2.173913e-01 3.481748e-02 6.207866e-01 -1.528992e+00 1.395111e+00
5.900777e+01 2.173913e-01 3.477131e-02 6.211778e-01 -1.535355e+00 1.398621e+00
5.889491e+01 2.130435e-01 3.471499e-02 6.215609e-01 -1.541962e+00 1.402283e+00
5.876338e+01 2.173913e-01 3.466899e-02 6.219654e-01 -1.548355e+00 1.405731e+00
5.866321e+01 2.173913e-01 3.461563e-02 6.223738e-01 -1.554962e+00 1.409332e+00
5.842491e+01 2.173913e-01 3.456388e-02 6.227766e-01 -1.561600e+00 1.412918e+00
5.841885e+01 2.173913e-01 3.451034e-02 6.231854e-01 -1.568253e+00 1.416550e+00
5.818703e+01 2.173913e-01 3.444933e-02 6.235776e-01 -1.575287e+00 1.420380e+00
5.800436e+01 2.173913e-01 3.440051e-02 6.239927e-01 -1.582092e+00 1.424057e+00
5.770509e+01 2.217391e-01 3.434922e-02 6.244152e-01 -1.588577e+00 1.427475e+00
5.724792e+01 2.130435e-01 3.429230e-02 6.248285e-01 -1.595261e+00 1.431046e+00
5.691228e+01 2.173913e-01 3.423458e-02 6.252433e-01 -1.602295e+00 1.434860e+00
5.680911e+01 2.173913e-01 3.418945e-02 6.256576e-01 -1.609207e+00 1.438660e+00
5.638417e+01 2.130435e-01 3.413715e-02 6.260879e-01 -1.615646e+00 1.442139e+00
5.631104e+01 2.130435e-01 3.408517e-02 6.265255e-01 -1.622498e+00 1.445938e+00
5.607759e+01 2.173913e-01 3.404321e-02 6.269429e-01 -1.629761e+00 1.449997e+00
5.589011e+01 2.173913e-01 3.399544e-02 6.273872e-01 -1.636627e+00 1.453751e+00
5.581906e+01 2.173913e-01 3.394116e-02 6.278098e-01 -1.643585e+00 1.457611e+00
5.577333e+01 2.173913e-01 3.389619e-02 6.282132e-01 -1.650772e+00 1.461563e+00
5.545152e+01 2.173913e-01 3.384353e-02 6.286649e-01 -1.657959e+00 1.465500e+00
5.504367e+01 2.217391e-01 3.378876e-02 6.291110e-01 -1.664993e+00 1.469299e+00
5.518140e+01 2.217391e-01 3.374987e-02 6.295482e-01 -1.671799e+00 1.472916e+00
5.494041e+01 2.173913e-01 3.369571e-02 6.299854e-01 -1.679092e+00 1.476929e+00
5.484096e+01 2.217391e-01 3.365135e-02 6.304195e-01 -1.686188e+00 1.480728e+00
5.432498e+01 2.173913e-01 3.360361e-02 6.308557e-01 -1.693741e+00 1.484833e+00
5.398906e+01 2.173913e-01 3.355787e-02 6.313061e-01 -1.701080e+00 1.488739e+00
5.396767e+01 2.173913e-01 3.352140e-02 6.317531e-01 -1.708298e+00 1.492493e+00
5.349779e+01 2.173913e-01 3.346646e-02 6.322085e-01 -1.715515e+00 1.496170e+00
5.335970e+01 2.173913e-01 3.341039e-02 6.326550e-01 -1.722748e+00 1.499893e+00
5.328648e+01 2.173913e-01 3.336795e-02 6.330891e-01 -1.729706e+00 1.503403e+00
5.325580e+01 2.217391e-01 3.331551e-02 6.335414e-01 -1.736786e+00 1.507065e+00
5.333337e+01 2.260870e-01 3.325936e-02 6.339997e-01 -1.744003e+00 1.510788e+00
5.302129e+01 2.217391e-01 3.321850e-02 6.344382e-01 -1.751251e+00 1.514587e+00
5.276096e+01 2.173913e-01 3.317500e-02 6.349177e-01 -1.758270e+00 1.518127e+00
5.247293e+01 2.130435e-01 3.312957e-02 6.353606e-01 -1.765244e+00 1.521637e+00
5.239796e+01 2.173913e-01 3.307232e-02 6.358116e-01 -1.772415e+00 1.525330e+00
5.215427e+01 2.086957e-01 3.302782e-02 6.362483e-01 -1.779434e+00 1.528976e+00
5.177278e+01 2.086957e-01 3.297389e-02 6.367090e-01 -1.786728e+00 1.532639e+00
5.163081e+01 2.086957e-01 3.293137e-02 6.371622e-01 -1.793808e+00 1.536316e+00
5.154393e+01 2.130435e-01 3.286968e-02 6.376050e-01 -1.801361e+00 1.540375e+00
5.122833e+01 2.130435e-01 3.282847e-02 6.380789e-01 -1.808273e+00 1.544006e+00
5.117619e+01 2.173913e-01 3.278504e-02 6.385091e-01 -1.815598e+00 1.547806e+00
5.105739e+01 2.130435e-01 3.273634e-02 6.389942e-01 -1.822708e+00 1.551407e+00
5.089838e+01 2.130435e-01 3.269734e-02 6.394326e-01 -1.829742e+00 1.554962e+00
5.048940e+01 2.130435e-01 3.265153e-02 6.398786e-01 -1.837082e+00 1.558777e+00
5.031511e+01 2.130435e-01 3.260769e-02 6.403293e-01 -1.844284e+00 1.564102e+00
5.023033e+01 2.130435e-01 3.258664e-02 6.407734e-01 -1.851730e+00 1.570663e+00
5.025600e+01 2.130435e-01 3.255353e-02 6.412414e-01 -1.858688e+00 1.577225e+00
5.004123e+01 2.130435e-01 3.251947e-02 6.417045e-01 -1.865738e+00 1.583786e+00
4.981171e+01 2.173913e-01 3.249694e-02 6.421638e-01 -1.872528e+00 1.590088e+00
4.971170e+01 2.217391e-01 3.245862e-02 6.426032e-01 -1.879532e+00 1.596542e+00
4.963342e+01 2.217391e-01 3.244234e-02 6.430350e-01 -1.886154e+00 1.602737e+00
4.948965e+01 2.217391e-01 3.239375e-02 6.434897e-01 -1.893173e+00 1.609024e+00
4.943713e+01 2.217391e-01 3.236793e-02 6.439229e-01 -1.900192e+00 1.615372e+00
4.931421e+01 2.217391e-01 3.233132e-02 6.443817e-01 -1.906860e+00 1.621429e+00
4.890186e+01 2.217391e-01 3.229724e-02 6.448422e-01 -1.913574e+00 1.627441e+00
4.886412e+01 2.217391e-01 3.225814e-02 6.452759e-01 -1.920380e+00 1.633575e+00
4.865292e+01 2.217391e-01 3.222274e-02 6.457062e-01 -1.927704e+00 1.640015e+00
4.833804e+01 2.173913e-01 3.218121e-02 6.461815e-01 -1.934433e+00 1.645981e+00
4.816786e+01 2.173913e-01 3.214490e-02 6.466058e-01 -1.941299e+00 1.652023e+00
4.815247e+01 2.217391e-01 3.212245e-02 6.470511e-01 -1.947784e+00 1.657684e+00
4.810490e+01 2.217391e-01 3.206517e-02 6.475051e-01 -1.954437e+00 1.663559e+00
4.786415e+01 2.130435e-01 3.203710e-02 6.479247e-01 -1.961014e+00 1.669174e+00
4.746001e+01 2.173913e-01 3.198895e-02 6.483613e-01 -1.967789e+00 1.674988e+00
4.724236e+01 2.217391e-01 3.194695e-02 6.487997e-01 -1.974625e+00 1.680878e+00
4.715730e+01 2.260870e-01 3.190416e-02 6.492535e-01 -1.981186e+00 1.686478e+00
4.702022e+01 2.217391e-01 3.186896e-02 6.496610e-01 -1.987839e+00 1.692184e+00
4.657837e+01 2.173913e-01 3.182115e-02 6.501041e-01 -1.994537e+00 1.697937e+00
4.648886e+01 2.173913e-01 3.177740e-02 6.505361e-01 -2.001144e+00 1.703644e+00
4.643559e+01 2.260870e-01 3.175077e-02 6.509617e-01 -2.007309e+00 1.709442e+00
4.665567e+01 2.260870e-01 3.172197e-02 6.513666e-01 -2.013596e+00 1.715179e+00
4.643430e+01 2.260870e-01 3.169297e-02 6.518050e-01 -2.019470e+00 1.720581e+00
4.644275e+01 2.304348e-01 3.166716e-02 6.522104e-01 -2.025467e+00 1.726089e+00
4.635832e+01 2.304348e-01 3.163861e-02 6.526185e-01 -2.031418e+00 1.731628e+00
4.625021e+01 2.304348e-01 3.161494e-02 6.530434e-01 -2.037415e+00 1.737076e+00
4.589590e+01 2.304348e-01 3.157388e-02 6.534803e-01 -2.043411e+00 1.742462e+00
4.602005e+01 2.304348e-01 3.153806e-02 6.538821e-01 -2.049622e+00 1.748032e+00
4.571143e+01 2.304348e-01 3.151943e-02 6.542649e-01 -2.055618e+00 1.753265e+00
4.553174e+01 2.304348e-01 3.148067e-02 6.546725e-01 -2.061539e+00 1.758392e+00
4.528308e+01 2.260870e-01 3.144246e-02 6.550560e-01 -2.067429e+00 1.763565e+00
4.508621e+01 2.217391e-01 3.141124e-02 6.554492e-01 -2.073578e+00 1.769043e+00
4.504108e+01 2.217391e-01 3.137815e-02 6.558583e-01 -2.079544e+00 1.774338e+00
4.488220e+01 2.217391e-01 3.134756e-02 6.562631e-01 -2.085495e+00 1.779587e+00
4.483751e+01 2.217391e-01 3.131531e-02 6.566348e-01 -2.091415e+00 1.784760e+00
4.470889e+01 2.173913e-01 3.128023e-02 6.570350e-01 -2.097214e+00 1.789886e+00
4.465286e+01 2.130435e-01 3.124331e-02 6.574364e-01 -2.102951e+00 1.794876e+00
4.472491e+01 2.130435e-01 3.121366e-02 6.578140e-01 -2.108902e+00 1.799988e+00
4.478223e+01 2.130435e-01 3.116983e-02 6.581913e-01 -2.114807e+00 1.804977e+00
4.462160e+01 2.130435e-01 3.113887e-02 6.585694e-01 -2.120560e+00 1.809937e+00
4.446606e+01 2.130435e-01 3.109277e-02 6.589460e-01 -2.126312e+00 1.814896e+00
4.452573e+01 2.130435e-01 3.106029e-02 6.593452e-01 -2.132111e+00 1.819946e+00
4.445183e+01 2.173913e-01 3.102488e-02 6.596995e-01 -2.137848e+00 1.824982e+00
4.437146e+01 2.173913e-01 3.098472e-02 6.600722e-01 -2.143539e+00 1.829971e+00
4.424133e+01 2.173913e-01 3.095502e-02 6.604666e-01 -2.149033e+00 1.834824e+00
4.413811e+01 2.173913e-01 3.093302e-02 6.608185e-01 -2.154419e+00 1.839630e+00
4.407092e+01 2.173913e-01 3.089145e-02 6.611946e-01 -2.160049e+00 1.844666e+00
4.389735e+01 2.173913e-01 3.086666e-02 6.615610e-01 -2.165390e+00 1.849350e+00
4.400117e+01 2.173913e-01 3.083019e-02 6.619345e-01 -2.170914e+00 1.854156e+00
4.382469e+01 2.173913e-01 3.080841e-02 6.622845e-01 -2.176010e+00 1.858780e+00
4.369005e+01 2.130435e-01 3.077837e-02 6.626492e-01 -2.181061e+00 1.863449e+00
4.382019e+01 2.130435e-01 3.074719e-02 6.629901e-01 -2.186661e+00 1.868317e+00
4.374063e+01 2.130435e-01 3.072862e-02 6.633555e-01 -2.191406e+00 1.872787e+00
4.342216e+01 2.173913e-01 3.069478e-02 6.636976e-01 -2.196594e+00 1.877457e+00
4.335713e+01 2.130435e-01 3.066076e-02 6.640455e-01 -2.202011e+00 1.882233e+00
4.327464e+01 2.173913e-01 3.063816e-02 6.643756e-01 -2.206772e+00 1.886688e+00
4.334595e+01 2.173913e-01 3.063385e-02 6.647360e-01 -2.211380e+00 1.891083e+00
4.327341e+01 2.173913e-01 3.059218e-02 6.650506e-01 -2.215973e+00 1.895462e+00
4.345929e+01 2.173913e-01 3.056270e-02 6.653461e-01 -2.221176e+00 1.900024e+00
4.334297e+01 2.173913e-01 3.054226e-02 6.656878e-01 -2.225693e+00 1.904221e+00
4.322235e+01 2.173913e-01 3.052026e-02 6.660423e-01 -2.230331e+00 1.908539e+00
4.321124e+01 2.130435e-01 3.049253e-02 6.663322e-01 -2.234863e+00 1.912643e+00
4.284854e+01 2.086957e-01 3.046280e-02 6.666509e-01 -2.239746e+00 1.917099e+00
4.297574e+01 2.043478e-01 3.045791e-02 6.669759e-01 -2.244186e+00 1.921127e+00
4.279684e+01 2.086957e-01 3.042834e-02 6.673102e-01 -2.248566e+00 1.925140e+00
4.296155e+01 2.086957e-01 3.039267e-02 6.676406e-01 -2.253036e+00 1.929214e+00
4.275937e+01 2.130435e-01 3.038887e-02 6.679421e-01 -2.257370e+00 1.933228e+00
4.270171e+01 2.130435e-01 3.035992e-02 6.682385e-01 -2.261566e+00 1.937103e+00
4.252132e+01 2.130435e-01 3.033859e-02 6.685591e-01 -2.266098e+00 1.941193e+00
4.248602e+01 2.130435e-01 3.030391e-02 6.688408e-01 -2.270615e+00 1.945267e+00
4.256320e+01 2.086957e-01 3.027188e-02 6.691650e-01 -2.275040e+00 1.949249e+00
4.269217e+01 2.130435e-01 3.024955e-02 6.694828e-01 -2.279388e+00 1.953079e+00
4.254832e+01 2.086957e-01 3.022184e-02 6.697827e-01 -2.283966e+00 1.957199e+00
4.246391e+01 2.086957e-01 3.019201e-02 6.700717e-01 -2.288406e+00 1.961182e+00
4.222279e+01 2.086957e-01 3.016327e-02 6.703634e-01 -2.292618e+00 1.964920e+00
4.235252e+01 2.086957e-01 3.013774e-02 6.706579e-01 -2.296982e+00 1.968781e+00
4.232169e+01 2.086957e-01 3.011879e-02 6.709587e-01 -2.301224e+00 1.972504e+00
4.231313e+01 2.086957e-01 3.009187e-02 6.712276e-01 -2.305267e+00 1.976059e+00
4.229851e+01 2.130435e-01 3.005983e-02 6.714980e-01 -2.309448e+00 1.979736e+00
4.243352e+01 2.130435e-01 3.003047e-02 6.717848e-01 -2.313721e+00 1.983551e+00
4.235910e+01 2.130435e-01 3.000977e-02 6.720622e-01 -2.317993e+00 1.987350e+00
4.215437e+01 2.130435e-01 2.998337e-02 6.723500e-01 -2.322342e+00 1.991272e+00
4.193208e+01 2.130435e-01 2.996991e-02 6.726061e-01 -2.326385e+00 1.994949e+00
4.188206e+01 2.086957e-01 2.993911e-02 6.729154e-01 -2.330246e+00 1.998520e+00
4.182396e+01 2.086957e-01 2.992315e-02 6.731631e-01 -2.334152e+00 2.001892e+00
4.191228e+01 2.086957e-01 2.989139e-02 6.733962e-01 -2.337799e+00 2.004883e+00
4.188783e+01 2.173913e-01 2.986705e-02 6.736801e-01 -2.341187e+00 2.007477e+00
4.177864e+01 2.173913e-01 2.983402e-02 6.739176e-01 -2.345215e+00 2.010559e+00
4.188004e+01 2.130435e-01 2.980690e-02 6.742013e-01 -2.349274e+00 2.013794e+00
4.171786e+01 2.043478e-01 2.978677e-02 6.744154e-01 -2.352783e+00 2.016388e+00
4.162910e+01 2.043478e-01 2.976109e-02 6.746914e-01 -2.356430e+00 2.019257e+00
4.163885e+01 2.000000e-01 2.973425e-02 6.748954e-01 -2.360138e+00 2.022156e+00
4.169171e+01 2.000000e-01 2.969642e-02 6.751576e-01 -2.363861e+00 2.025070e+00
4.161554e+01 2.000000e-01 2.968277e-02 6.754004e-01 -2.367432e+00 2.027908e+00
4.148328e+01 2.000000e-01 2.965425e-02 6.756462e-01 -2.371063e+00 2.030914e+00
4.144737e+01 2.000000e-01 2.963772e-02 6.758858e-01 -2.374588e+00 2.033752e+00
4.152020e+01 2.043478e-01 2.960899e-02 6.761177e-01 -2.377991e+00 2.036530e+00
4.157591e+01 2.043478e-01 2.957605e-02 6.763784e-01 -2.381638e+00 2.039490e+00
4.157422e+01 2.086957e-01 2.956852e-02 6.766046e-01 -2.385284e+00 2.042572e+00
4.158084e+01 2.086957e-01 2.954030e-02 6.767965e-01 -2.388687e+00 2.045303e+00
4.164302e+01 2.130435e-01 2.952893e-02 6.770682e-01 -2.392242e+00 2.048416e+00
4.173857e+01 2.130435e-01 2.949974e-02 6.772566e-01 -2.395477e+00 2.051163e+00
4.179190e+01 2.130435e-01 2.948292e-02 6.775070e-01 -2.399078e+00 2.054398e+00
4.181439e+01 2.130435e-01 2.945849e-02 6.777339e-01 -2.402298e+00 2.057068e+00
4.173241e+01 2.130435e-01 2.944401e-02 6.779626e-01 -2.405624e+00 2.059998e+00
4.164474e+01 2.173913e-01 2.940179e-02 6.781759e-01 -2.408905e+00 2.062759e+00
4.169604e+01 2.173913e-01 2.939338e-02 6.784301e-01 -2.412094e+00 2.065506e+00
4.164586e+01 2.173913e-01 2.937674e-02 6.786454e-01 -2.415558e+00 2.068466e+00
4.163083e+01 2.173913e-01 2.936331e-02 6.788801e-01 -2.418777e+00 2.071274e+00
4.146021e+01 2.173913e-01 2.933299e-02 6.790721e-01 -2.422043e+00 2.074203e+00
4.148546e+01 2.173913e-01 2.933357e-02 6.792863e-01 -2.424820e+00 2.076645e+00
4.129941e+01 2.173913e-01 2.930182e-02 6.795158e-01 -2.428543e+00 2.079910e+00
4.117892e+01 2.173913e-01 2.927913e-02 6.797225e-01 -2.430847e+00 2.081894e+00
4.118925e+01 2.173913e-01 2.925604e-02 6.799432e-01 -2.433899e+00 2.084549e+00
4.115813e+01 2.173913e-01 2.924888e-02 6.801387e-01 -2.437057e+00 2.087234e+00
4.114738e+01 2.173913e-01 2.923208e-02 6.803485e-01 -2.439957e+00 2.089798e+00
4.097163e+01 2.130435e-01 2.921410e-02 6.805395e-01 -2.442902e+00 2.092392e+00
4.097296e+01 2.130435e-01 2.920456e-02 6.807658e-01 -2.445969e+00 2.095123e+00
4.082965e+01 2.130435e-01 2.917898e-02 6.809350e-01 -2.448944e+00 2.097656e+00
4.069843e+01 2.086957e-01 2.915242e-02 6.811251e-01 -2.451721e+00 2.100082e+00
4.059163e+01 2.086957e-01 2.914438e-02 6.813409e-01 -2.454514e+00 2.102493e+00
4.065218e+01 2.086957e-01 2.912958e-02 6.815225e-01 -2.457458e+00 2.105026e+00
4.054303e+01 2.086957e-01 2.910689e-02 6.817314e-01 -2.460327e+00 2.107544e+00
4.034642e+01 2.086957e-01 2.908858e-02 6.818968e-01 -2.463165e+00 2.109833e+00
4.049382e+01 2.086957e-01 2.907259e-02 6.821078e-01 -2.466141e+00 2.112457e+00
4.060840e+01 2.086957e-01 2.906115e-02 6.823055e-01 -2.469025e+00 2.114838e+00
4.056931e+01 2.086957e-01 2.903019e-02 6.824974e-01 -2.471436e+00 2.116882e+00
4.044963e+01 2.086957e-01 2.901681e-02 6.826677e-01 -2.473907e+00 2.119095e+00
4.072688e+01 2.173913e-01 2.899153e-02 6.828437e-01 -2.476624e+00 2.121460e+00
4.068568e+01 2.173913e-01 2.897831e-02 6.830188e-01 -2.479263e+00 2.123764e+00
4.020236e+01 2.086957e-01 2.896113e-02 6.832280e-01 -2.482025e+00 2.126083e+00
4.014206e+01 2.043478e-01 2.893165e-02 6.833974e-01 -2.484695e+00 2.128326e+00
4.022209e+01 2.043478e-01 2.892752e-02 6.835915e-01 -2.487213e+00 2.130447e+00
4.025017e+01 2.043478e-01 2.889645e-02 6.837565e-01 -2.489548e+00 2.132339e+00
4.024179e+01 2.086957e-01 2.888265e-02 6.839536e-01 -2.492218e+00 2.134674e+00
4.029047e+01 2.130435e-01 2.886394e-02 6.840770e-01 -2.494553e+00 2.136490e+00
4.031776e+01 2.130435e-01 2.884941e-02 6.842579e-01 -2.497101e+00 2.138596e+00
4.047490e+01 2.130435e-01 2.883322e-02 6.844410e-01 -2.500504e+00 2.141510e+00
4.020209e+01 2.130435e-01 2.881508e-02 6.845818e-01 -2.501678e+00 2.142502e+00
4.033545e+01 2.130435e-01 2.880810e-02 6.847806e-01 -2.504074e+00 2.144653e+00
4.025087e+01 2.130435e-01 2.879846e-02 6.849577e-01 -2.506180e+00 2.146667e+00
4.030246e+01 2.173913e-01 2.877884e-02 6.850767e-01 -2.508438e+00 2.148788e+00
4.024803e+01 2.173913e-01 2.876161e-02 6.852771e-01 -2.510712e+00 2.150879e+00
4.020401e+01 2.173913e-01 2.874217e-02 6.854056e-01 -2.512909e+00 2.152939e+00
4.027002e+01 2.173913e-01 2.873771e-02 6.855720e-01 -2.515030e+00 2.154892e+00
4.027556e+01 2.173913e-01 2.873349e-02 6.857648e-01 -2.517242e+00 2.156952e+00
4.032027e+01 2.173913e-01 2.871814e-02 6.858670e-01 -2.519165e+00 2.158737e+00
4.018852e+01 2.173913e-01 2.871405e-02 6.860689e-01 -2.521210e+00 2.160614e+00
4.005852e+01 2.130435e-01 2.869324e-02 6.862120e-01 -2.523270e+00 2.162476e+00
4.011044e+01 2.130435e-01 2.868654e-02 6.863694e-01 -2.525375e+00 2.164276e+00
4.002756e+01 2.130435e-01 2.866355e-02 6.865355e-01 -2.527527e+00 2.166245e+00
4.012285e+01 2.173913e-01 2.865888e-02 6.866843e-01 -2.529694e+00 2.168106e+00
4.005415e+01 2.130435e-01 2.863240e-02 6.868239e-01 -2.532303e+00 2.170410e+00
4.010373e+01 2.173913e-01 2.863073e-02 6.869860e-01 -2.533813e+00 2.171631e+00
4.011903e+01 2.173913e-01 2.860611e-02 6.871417e-01 -2.535873e+00 2.173355e+00
4.003758e+01 2.130435e-01 2.857491e-02 6.872838e-01 -2.538025e+00 2.175217e+00
4.006558e+01 2.130435e-01 2.857828e-02 6.874444e-01 -2.540039e+00 2.176941e+00
4.000638e+01 2.130435e-01 2.855105e-02 6.875865e-01 -2.542145e+00 2.178711e+00
3.987723e+01 2.130435e-01 2.853144e-02 6.877090e-01 -2.544296e+00 2.180496e+00
3.998708e+01 2.173913e-01 2.851755e-02 6.878361e-01 -2.546310e+00 2.182251e+00
3.988847e+01 2.173913e-01 2.850604e-02 6.880486e-01 -2.549347e+00 2.184967e+00
3.993762e+01 2.173913e-01 2.848805e-02 6.881642e-01 -2.550125e+00 2.185699e+00
4.004581e+01 2.173913e-01 2.846160e-02 6.882770e-01 -2.552139e+00 2.187210e+00
4.003468e+01 2.173913e-01 2.845456e-02 6.884104e-01 -2.554199e+00 2.188934e+00
4.002942e+01 2.173913e-01 2.843849e-02 6.885658e-01 -2.556107e+00 2.190552e+00
3.997148e+01 2.173913e-01 2.842968e-02 6.887028e-01 -2.558365e+00 2.192627e+00
3.997565e+01 2.173913e-01 2.841417e-02 6.888418e-01 -2.559845e+00 2.193924e+00
3.991556e+01 2.173913e-01 2.839625e-02 6.889883e-01 -2.561676e+00 2.195480e+00
3.989078e+01 2.173913e-01 2.838489e-02 6.891318e-01 -2.563477e+00 2.197052e+00
3.986285e+01 2.173913e-01 2.835749e-02 6.892877e-01 -2.565536e+00 2.198669e+00
3.987027e+01 2.173913e-01 2.834131e-02 6.894346e-01 -2.567642e+00 2.200409e+00
3.972733e+01 2.173913e-01 2.832074e-02 6.895280e-01 -2.569687e+00 2.202133e+00
3.980379e+01 2.173913e-01 2.831487e-02 6.896913e-01 -2.571457e+00 2.203766e+00
3.972554e+01 2.173913e-01 2.830183e-02 6.898194e-01 -2.573257e+00 2.205353e+00
3.982935e+01 2.130435e-01 2.827880e-02 6.899425e-01 -2.575073e+00 2.206970e+00
3.982408e+01 2.130435e-01 2.826173e-02 6.900846e-01 -2.576736e+00 2.208481e+00
3.980592e+01 2.173913e-01 2.825770e-02 6.901751e-01 -2.578629e+00 2.210144e+00
3.977332e+01 2.173913e-01 2.824194e-02 6.903494e-01 -2.581589e+00 2.212830e+00
3.975688e+01 2.173913e-01 2.822095e-02 6.904616e-01 -2.582062e+00 2.213257e+00
3.976535e+01 2.173913e-01 2.820768e-02 6.905885e-01 -2.583923e+00 2.214966e+00
3.966106e+01 2.130435e-01 2.820029e-02 6.906991e-01 -2.585419e+00 2.216354e+00
3.961905e+01 2.130435e-01 2.817922e-02 6.908553e-01 -2.587982e+00 2.218765e+00
3.961905e+01 2.130435e-01 2.816317e-02 6.909610e-01 -2.588745e+00 2.219498e+00
3.963661e+01 2.130435e-01 2.815561e-02 6.911048e-01 -2.591507e+00 2.222000e+00
3.963133e+01 2.130435e-01 2.814244e-02 6.912447e-01 -2.592117e+00 2.222672e+00
3.964680e+01 2.130435e-01 2.812652e-02 6.913603e-01 -2.594070e+00 2.224518e+00
3.958507e+01 2.130435e-01 2.811378e-02 6.914973e-01 -2.596252e+00 2.226501e+00
3.956401e+01 2.130435e-01 2.810375e-02 6.915842e-01 -2.597351e+00 2.227463e+00
3.956573e+01 2.130435e-01 2.808673e-02 6.917037e-01 -2.598862e+00 2.228760e+00
3.956502e+01 2.086957e-01 2.807495e-02 6.918706e-01 -2.601868e+00 2.231628e+00
3.944177e+01 2.043478e-01 2.806872e-02 6.919631e-01 -2.602158e+00 2.232101e+00
3.938252e+01 2.043478e-01 2.805183e-02 6.920990e-01 -2.604645e+00 2.234451e+00
3.934749e+01 2.043478e-01 2.804903e-02 6.921773e-01 -2.605362e+00 2.235229e+00
3.954146e+01 2.086957e-01 2.804614e-02 6.923204e-01 -2.607285e+00 2.237137e+00
3.954665e+01 2.086957e-01 2.803183e-02 6.924107e-01 -2.608704e+00 2.238480e+00
3.953021e+01 2.086957e-01 2.802856e-02 6.925349e-01 -2.610046e+00 2.239777e+00
3.953371e+01 2.086957e-01 2.801074e-02 6.926285e-01 -2.611496e+00 2.241089e+00
3.926736e+01 2.043478e-01 2.800125e-02 6.927562e-01 -2.613220e+00 2.242661e+00
3.919299e+01 2.043478e-01 2.798923e-02 6.929108e-01 -2.615173e+00 2.244431e+00
3.921404e+01 2.043478e-01 2.797800e-02 6.929805e-01 -2.616394e+00 2.245483e+00
3.918463e+01 2.086957e-01 2.796530e-02 6.930958e-01 -2.617920e+00 2.246765e+00
3.919608e+01 2.086957e-01 2.795181e-02 6.932090e-01 -2.619324e+00 2.247879e+00
3.909224e+01 2.086957e-01 2.794718e-02 6.932994e-01 -2.620926e+00 2.249146e+00
3.908360e+01 2.086957e-01 2.794602e-02 6.934429e-01 -2.622452e+00 2.250244e+00
3.902568e+01 2.043478e-01 2.792468e-02 6.935550e-01 -2.623932e+00 2.251190e+00
3.898323e+01 2.000000e-01 2.790510e-02 6.936343e-01 -2.625259e+00 2.252197e+00
3.901707e+01 2.000000e-01 2.789856e-02 6.937812e-01 -2.626770e+00 2.252991e+00
3.893651e+01 2.000000e-01 2.788894e-02 6.938981e-01 -2.628311e+00 2.254044e+00
3.888503e+01 2.000000e-01 2.787625e-02 6.939746e-01 -2.629837e+00 2.255051e+00
3.878726e+01 1.956522e-01 2.785082e-02 6.940908e-01 -2.631287e+00 2.256027e+00
3.896057e+01 2.000000e-01 2.784570e-02 6.941806e-01 -2.632675e+00 2.256958e+00
3.872383e+01 2.000000e-01 2.783675e-02 6.942830e-01 -2.633942e+00 2.257965e+00
3.885107e+01 2.000000e-01 2.780208e-02 6.943831e-01 -2.635406e+00 2.258835e+00
3.866100e+01 2.000000e-01 2.780482e-02 6.944971e-01 -2.636841e+00 2.259888e+00
3.867049e+01 2.000000e-01 2.777961e-02 6.945865e-01 -2.638214e+00 2.260788e+00
3.858385e+01 2.000000e-01 2.776483e-02 6.946925e-01 -2.639450e+00 2.261673e+00
3.861267e+01 1.956522e-01 2.775407e-02 6.947973e-01 -2.640762e+00 2.262665e+00
3.859691e+01 1.913043e-01 2.774979e-02 6.948967e-01 -2.642029e+00 2.263657e+00
3.855209e+01 1.913043e-01 2.773922e-02 6.950121e-01 -2.643188e+00 2.264450e+00
3.873970e+01 1.956522e-01 2.771702e-02 6.950867e-01 -2.644623e+00 2.265549e+00
3.863538e+01 1.956522e-01 2.769575e-02 6.952364e-01 -2.646698e+00 2.267395e+00
3.866577e+01 1.956522e-01 2.768913e-02 6.953149e-01 -2.647324e+00 2.267563e+00
3.861485e+01 1.956522e-01 2.767647e-02 6.954328e-01 -2.648743e+00 2.268631e+00
3.871230e+01 1.956522e-01 2.766385e-02 6.955148e-01 -2.650040e+00 2.269730e+00
3.877254e+01 1.956522e-01 2.765526e-02 6.956178e-01 -2.652359e+00 2.271667e+00
3.886906e+01 1.956522e-01 2.763978e-02 6.956856e-01 -2.652344e+00 2.271530e+00
3.886305e+01 1.956522e-01 2.763026e-02 6.958083e-01 -2.653671e+00 2.272629e+00
3.871172e+01 1.956522e-01 2.762363e-02 6.958774e-01 -2.655121e+00 2.273788e+00
3.874228e+01 1.956522e-01 2.761363e-02 6.959744e-01 -2.656509e+00 2.274948e+00
3.860580e+01 1.956522e-01 2.760884e-02 6.960661e-01 -2.657776e+00 2.276016e+00
3.859767e+01 1.956522e-01 2.758370e-02 6.961693e-01 -2.658722e+00 2.276657e+00
3.860822e+01 1.956522e-01 2.758789e-02 6.962419e-01 -2.660065e+00 2.277817e+00
3.867670e+01 1.956522e-01 2.757126e-02 6.963509e-01 -2.661545e+00 2.279099e+00
3.869531e+01 1.956522e-01 2.755953e-02 6.964365e-01 -2.662186e+00 2.279526e+00
3.872467e+01 1.956522e-01 2.756663e-02 6.965594e-01 -2.663620e+00 2.280624e+00
3.886572e+01 1.956522e-01 2.757190e-02 6.966535e-01 -2.665039e+00 2.281754e+00
3.880609e+01 1.956522e-01 2.754628e-02 6.967265e-01 -2.666321e+00 2.282806e+00
3.871942e+01 1.956522e-01 2.754468e-02 6.968351e-01 -2.667511e+00 2.283783e+00
3.884291e+01 1.956522e-01 2.753871e-02 6.969256e-01 -2.667969e+00 2.284103e+00
3.891109e+01 1.956522e-01 2.752026e-02 6.969990e-01 -2.669418e+00 2.285278e+00
3.890173e+01 1.956522e-01 2.751742e-02 6.971020e-01 -2.671036e+00 2.286713e+00
3.888553e+01 1.956522e-01 2.752247e-02 6.972127e-01 -2.671616e+00 2.287170e+00
3.904097e+01 1.956522e-01 2.751035e-02 6.972924e-01 -2.672562e+00 2.287918e+00
3.906561e+01 1.956522e-01 2.749910e-02 6.973876e-01 -2.673813e+00 2.288956e+00
3.916928e+01 1.956522e-01 2.748085e-02 6.974493e-01 -2.674683e+00 2.289520e+00
3.913365e+01 1.956522e-01 2.747089e-02 6.975658e-01 -2.676010e+00 2.290543e+00
3.904997e+01 1.956522e-01 2.745461e-02 6.976358e-01 -2.677216e+00 2.291489e+00
3.915703e+01 1.956522e-01 2.745508e-02 6.977566e-01 -2.678467e+00 2.292511e+00
3.916356e+01 1.956522e-01 2.743685e-02 6.978070e-01 -2.679352e+00 2.293045e+00
3.917720e+01 1.956522e-01 2.742221e-02 6.978779e-01 -2.680511e+00 2.293900e+00
3.928590e+01 1.956522e-01 2.740483e-02 6.980252e-01 -2.681686e+00 2.294739e+00
3.934044e+01 1.956522e-01 2.739646e-02 6.981082e-01 -2.683167e+00 2.295990e+00
3.923132e+01 1.956522e-01 2.737617e-02 6.981821e-01 -2.683548e+00 2.296066e+00
3.914432e+01 1.956522e-01 2.736218e-02 6.982838e-01 -2.684814e+00 2.296982e+00
3.919888e+01 1.956522e-01 2.734663e-02 6.983623e-01 -2.685806e+00 2.297638e+00
3.911931e+01 1.956522e-01 2.733804e-02 6.984545e-01 -2.687012e+00 2.298615e+00
3.911931e+01 1.956522e-01 2.730873e-02 6.985156e-01 -2.687820e+00 2.299088e+00
3.913521e+01 1.956522e-01 2.730558e-02 6.986216e-01 -2.688843e+00 2.299789e+00
3.923875e+01 1.956522e-01 2.729102e-02 6.987163e-01 -2.689911e+00 2.300491e+00
3.913896e+01 1.956522e-01 2.727842e-02 6.987976e-01 -2.691071e+00 2.301361e+00
3.909457e+01 1.956522e-01 2.725698e-02 6.988930e-01 -2.692230e+00 2.302139e+00
3.902448e+01 1.956522e-01 2.724584e-02 6.989712e-01 -2.693298e+00 2.302872e+00
3.892656e+01 1.956522e-01 2.724213e-02 6.990729e-01 -2.694229e+00 2.303665e+00
3.890840e+01 1.956522e-01 2.723193e-02 6.991709e-01 -2.694962e+00 2.304092e+00
3.898683e+01 1.956522e-01 2.723338e-02 6.992715e-01 -2.696091e+00 2.304871e+00
3.898701e+01 1.956522e-01 2.721250e-02 6.993443e-01 -2.697205e+00 2.305710e+00
3.899956e+01 1.913043e-01 2.720573e-02 6.994118e-01 -2.697983e+00 2.306229e+00
3.903926e+01 1.956522e-01 2.719472e-02 6.995018e-01 -2.698990e+00 2.306976e+00
3.892601e+01 1.956522e-01 2.717431e-02 6.996153e-01 -2.700027e+00 2.307724e+00
3.887735e+01 1.956522e-01 2.717624e-02 6.996893e-01 -2.701019e+00 2.308456e+00
3.891177e+01 1.956522e-01 2.717194e-02 6.997745e-01 -2.702057e+00 2.309311e+00
3.903534e+01 1.956522e-01 2.717050e-02 6.998626e-01 -2.703751e+00 2.310730e+00
3.894461e+01 1.956522e-01 2.715696e-02 6.999443e-01 -2.703979e+00 2.310654e+00
3.901102e+01 1.956522e-01 2.713982e-02 7.000376e-01 -2.704788e+00 2.311264e+00
3.901749e+01 1.956522e-01 2.713336e-02 7.001174e-01 -2.706146e+00 2.312454e+00
3.901643e+01 1.956522e-01 2.712008e-02 7.002207e-01 -2.706818e+00 2.312576e+00
3.907417e+01 1.956522e-01 2.710257e-02 7.002982e-01 -2.708496e+00 2.313904e+00
3.903979e+01 1.956522e-01 2.710017e-02 7.003647e-01 -2.708771e+00 2.314056e+00
3.905510e+01 1.956522e-01 2.708491e-02 7.004511e-01 -2.709579e+00 2.314621e+00
3.908411e+01 1.956522e-01 2.708826e-02 7.005364e-01 -2.710999e+00 2.315704e+00
3.904303e+01 1.956522e-01 2.706514e-02 7.006406e-01 -2.711395e+00 2.315933e+00
3.902162e+01 1.956522e-01 2.705929e-02 7.006999e-01 -2.713409e+00 2.317474e+00
3.894792e+01 1.956522e-01 2.705336e-02 7.007668e-01 -2.713120e+00 2.317093e+00
3.894792e+01 1.956522e-01 2.702378e-02 7.008437e-01 -2.714218e+00 2.317825e+00
3.879543e+01 1.956522e-01 2.702888e-02 7.009464e-01 -2.715683e+00 2.319153e+00
3.878012e+01 1.956522e-01 2.700204e-02 7.010184e-01 -2.715729e+00 2.319016e+00
3.876370e+01 1.956522e-01 2.700229e-02 7.011009e-01 -2.717010e+00 2.320145e+00
3.874838e+01 1.956522e-01 2.699000e-02 7.012014e-01 -2.717911e+00 2.320831e+00
3.880414e+01 1.956522e-01 2.697877e-02 7.012575e-01 -2.718109e+00 2.320694e+00
3.883728e+01 1.956522e-01 2.695954e-02 7.013507e-01 -2.719238e+00 2.321533e+00
3.891682e+01 1.956522e-01 2.695341e-02 7.014118e-01 -2.720413e+00 2.322693e+00
3.896959e+01 1.956522e-01 2.694253e-02 7.015143e-01 -2.721176e+00 2.323151e+00
3.900490e+01 1.956522e-01 2.693333e-02 7.015640e-01 -2.722473e+00 2.324188e+00
3.889319e+01 1.956522e-01 2.693041e-02 7.016778e-01 -2.722824e+00 2.324554e+00
3.883568e+01 1.956522e-01 2.692870e-02 7.017548e-01 -2.724030e+00 2.325607e+00
3.902188e+01 2.000000e-01 2.691562e-02 7.018185e-01 -2.724121e+00 2.325470e+00
3.897470e+01 1.956522e-01 2.690660e-02 7.018803e-01 -2.724854e+00 2.326218e+00
3.897469e+01 1.956522e-01 2.690021e-02 7.019646e-01 -2.725510e+00 2.326782e+00
3.907335e+01 2.000000e-01 2.688795e-02 7.020835e-01 -2.726624e+00 2.327576e+00
3.913557e+01 2.000000e-01 2.687977e-02 7.021008e-01 -2.727661e+00 2.328232e+00
3.907994e+01 2.000000e-01 2.687680e-02 7.022010e-01 -2.728928e+00 2.329437e+00
3.923248e+01 2.000000e-01 2.686298e-02 7.022437e-01 -2.729004e+00 2.329453e+00
3.906042e+01 2.000000e-01 2.685921e-02 7.023742e-01 -2.730316e+00 2.330643e+00
3.901170e+01 1.956522e-01 2.685197e-02 7.024487e-01 -2.730469e+00 2.330765e+00
3.903685e+01 2.000000e-01 2.683552e-02 7.024881e-01 -2.731323e+00 2.331512e+00
3.883678e+01 1.956522e-01 2.682841e-02 7.025909e-01 -2.732056e+00 2.332245e+00
3.891922e+01 2.000000e-01 2.682893e-02 7.026416e-01 -2.732834e+00 2.332977e+00
3.870944e+01 2.000000e-01 2.682909e-02 7.027113e-01 -2.733978e+00 2.334106e+00
3.867139e+01 2.000000e-01 2.681028e-02 7.027869e-01 -2.734238e+00 2.334442e+00
3.883858e+01 2.000000e-01 2.681479e-02 7.028387e-01 -2.734451e+00 2.334579e+00
3.906992e+01 2.000000e-01 2.679598e-02 7.029451e-01 -2.735428e+00 2.335480e+00
3.923042e+01 2.000000e-01 2.678609e-02 7.029991e-01 -2.736252e+00 2.336151e+00
3.932683e+01 2.000000e-01 2.678030e-02 7.030873e-01 -2.737274e+00 2.337051e+00
3.930168e+01 2.000000e-01 2.677194e-02 7.031361e-01 -2.737732e+00 2.337570e+00
3.935887e+01 2.000000e-01 2.675062e-02 7.031689e-01 -2.738724e+00 2.338394e+00
3.927791e+01 2.000000e-01 2.675764e-02 7.033046e-01 -2.739655e+00 2.339188e+00
3.929747e+01 2.000000e-01 2.674041e-02 7.033737e-01 -2.741013e+00 2.340469e+00
3.929691e+01 2.000000e-01 2.672894e-02 7.034426e-01 -2.741043e+00 2.340515e+00
3.917545e+01 2.000000e-01 2.671834e-02 7.035229e-01 -2.741852e+00 2.341293e+00
3.918744e+01 2.000000e-01 2.672717e-02 7.035761e-01 -2.742508e+00 2.341934e+00
3.924918e+01 2.000000e-01 2.671143e-02 7.036473e-01 -2.743164e+00 2.342560e+00
3.924918e+01 2.000000e-01 2.671513e-02 7.037454e-01 -2.743866e+00 2.343231e+00
3.918121e+01 2.000000e-01 2.670179e-02 7.038294e-01 -2.744614e+00 2.343887e+00
3.912706e+01 2.000000e-01 2.668717e-02 7.039097e-01 -2.745819e+00 2.344986e+00
3.921851e+01 2.000000e-01 2.668170e-02 7.039602e-01 -2.746765e+00 2.346008e+00
3.910808e+01 2.000000e-01 2.668611e-02 7.040287e-01 -2.746750e+00 2.345932e+00
3.911902e+01 2.000000e-01 2.667834e-02 7.041160e-01 -2.747864e+00 2.347015e+00
3.912640e+01 2.000000e-01 2.666786e-02 7.041901e-01 -2.748352e+00 2.347382e+00
3.912794e+01 2.043478e-01 2.665401e-02 7.042580e-01 -2.749466e+00 2.348328e+00
3.911273e+01 2.043478e-01 2.664797e-02 7.043213e-01 -2.750610e+00 2.349426e+00
3.923839e+01 2.043478e-01 2.663513e-02 7.043864e-01 -2.750839e+00 2.349487e+00
3.917372e+01 2.000000e-01 2.663340e-02 7.044827e-01 -2.752426e+00 2.350861e+00
3.919199e+01 2.000000e-01 2.660903e-02 7.045485e-01 -2.752579e+00 2.350998e+00
3.916734e+01 2.000000e-01 2.659893e-02 7.045530e-01 -2.752853e+00 2.351288e+00
3.914966e+01 2.000000e-01 2.658714e-02 7.046624e-01 -2.753677e+00 2.352020e+00
3.915115e+01 2.000000e-01 2.658564e-02 7.047480e-01 -2.754349e+00 2.352676e+00
3.904298e+01 2.000000e-01 2.658685e-02 7.048114e-01 -2.754959e+00 2.353287e+00
3.900307e+01 2.000000e-01 2.656910e-02 7.048570e-01 -2.755630e+00 2.353958e+00
3.911455e+01 2.000000e-01 2.657089e-02 7.049413e-01 -2.756241e+00 2.354492e+00
3.910519e+01 2.000000e-01 2.656891e-02 7.050397e-01 -2.758316e+00 2.356461e+00
3.891927e+01 2.000000e-01 2.654736e-02 7.050559e-01 -2.757660e+00 2.355820e+00
3.903777e+01 2.000000e-01 2.654165e-02 7.051388e-01 -2.758469e+00 2.356567e+00
3.912689e+01 2.000000e-01 2.653206e-02 7.052360e-01 -2.759262e+00 2.357346e+00
3.910175e+01 2.000000e-01 2.652094e-02 7.053027e-01 -2.760254e+00 2.358185e+00
3.931943e+01 2.000000e-01 2.651655e-02 7.053476e-01 -2.760422e+00 2.358353e+00
3.908614e+01 2.000000e-01 2.651380e-02 7.054090e-01 -2.762466e+00 2.360184e+00
3.917200e+01 2.000000e-01 2.649693e-02 7.054633e-01 -2.761383e+00 2.359100e+00
3.907750e+01 2.000000e-01 2.649146e-02 7.055179e-01 -2.762207e+00 2.359848e+00
3.914841e+01 2.000000e-01 2.648369e-02 7.055837e-01 -2.762161e+00 2.359711e+00
3.920593e+01 2.000000e-01 2.646121e-02 7.056564e-01 -2.762878e+00 2.360428e+00
3.916898e+01 2.000000e-01 2.647093e-02 7.057082e-01 -2.763397e+00 2.360886e+00
3.912210e+01 2.000000e-01 2.644385e-02 7.057663e-01 -2.763962e+00 2.361374e+00
3.913640e+01 2.000000e-01 2.644685e-02 7.058346e-01 -2.765121e+00 2.362427e+00
3.926552e+01 2.000000e-01 2.643192e-02 7.059049e-01 -2.765762e+00 2.362946e+00
3.931636e+01 2.000000e-01 2.643156e-02 7.059901e-01 -2.767059e+00 2.363937e+00
3.935715e+01 2.000000e-01 2.642316e-02 7.060223e-01 -2.766754e+00 2.363647e+00
3.924194e+01 2.000000e-01 2.640538e-02 7.060944e-01 -2.767120e+00 2.363922e+00
3.931477e+01 2.000000e-01 2.639629e-02 7.061515e-01 -2.767838e+00 2.364609e+00
3.937012e+01 2.000000e-01 2.638517e-02 7.061893e-01 -2.768066e+00 2.364777e+00
3.939902e+01 2.000000e-01 2.638311e-02 7.062812e-01 -2.769348e+00 2.365997e+00
3.930406e+01 2.000000e-01 2.637142e-02 7.063429e-01 -2.770508e+00 2.366989e+00
3.931757e+01 2.000000e-01 2.637273e-02 7.063880e-01 -2.769928e+00 2.366547e+00
3.941222e+01 2.000000e-01 2.635389e-02 7.064258e-01 -2.769760e+00 2.366440e+00
3.939520e+01 2.000000e-01 2.635343e-02 7.064839e-01 -2.770264e+00 2.366821e+00
3.925699e+01 1.956522e-01 2.634664e-02 7.065672e-01 -2.771103e+00 2.367523e+00
3.925334e+01 1.956522e-01 2.632220e-02 7.065980e-01 -2.771301e+00 2.367676e+00
3.923563e+01 1.956522e-01 2.632198e-02 7.067053e-01 -2.772522e+00 2.368774e+00
3.942839e+01 1.956522e-01 2.631210e-02 7.067400e-01 -2.772476e+00 2.368759e+00
3.929688e+01 1.956522e-01 2.630821e-02 7.068097e-01 -2.773743e+00 2.369980e+00
3.941467e+01 1.956522e-01 2.630526e-02 7.068586e-01 -2.773376e+00 2.369583e+00
3.936864e+01 1.956522e-01 2.629789e-02 7.068968e-01 -2.774155e+00 2.370255e+00
3.924666e+01 1.956522e-01 2.629350e-02 7.069752e-01 -2.774902e+00 2.370956e+00
3.911795e+01 1.956522e-01 2.628599e-02 7.070293e-01 -2.775253e+00 2.371262e+00
3.916339e+01 1.956522e-01 2.628047e-02 7.070959e-01 -2.775238e+00 2.371231e+00
3.912947e+01 1.913043e-01 2.627205e-02 7.071446e-01 -2.775497e+00 2.371506e+00
3.906474e+01 1.913043e-01 2.625595e-02 7.071881e-01 -2.776779e+00 2.372757e+00
3.902853e+01 1.913043e-01 2.625661e-02 7.072443e-01 -2.776337e+00 2.372330e+00
3.915167e+01 1.913043e-01 2.624600e-02 7.073144e-01 -2.776978e+00 2.372910e+00
3.895435e+01 1.913043e-01 2.623777e-02 7.073497e-01 -2.777359e+00 2.373322e+00
3.905438e+01 1.913043e-01 2.623273e-02 7.074237e-01 -2.777878e+00 2.373856e+00
3.916809e+01 1.913043e-01 2.623303e-02 7.074964e-01 -2.778458e+00 2.374451e+00
3.908272e+01 1.913043e-01 2.621502e-02 7.075390e-01 -2.778793e+00 2.374863e+00
3.904564e+01 1.913043e-01 2.621767e-02 7.075834e-01 -2.779510e+00 2.375549e+00
3.901068e+01 1.913043e-01 2.620620e-02 7.076525e-01 -2.779633e+00 2.375717e+00
3.892267e+01 1.913043e-01 2.620239e-02 7.076904e-01 -2.780090e+00 2.376160e+00
3.893736e+01 1.913043e-01 2.619427e-02 7.077765e-01 -2.780731e+00 2.376770e+00
3.893910e+01 1.913043e-01 2.617519e-02 7.078106e-01 -2.780716e+00 2.376862e+00
3.894846e+01 1.956522e-01 2.616972e-02 7.078752e-01 -2.781296e+00 2.377396e+00
3.893562e+01 1.913043e-01 2.618292e-02 7.079126e-01 -2.781662e+00 2.377777e+00
3.882086e+01 1.913043e-01 2.616327e-02 7.079766e-01 -2.782883e+00 2.378876e+00
3.905450e+01 2.000000e-01 2.615723e-02 7.080218e-01 -2.782761e+00 2.378830e+00
3.885532e+01 1.956522e-01 2.614383e-02 7.080635e-01 -2.783340e+00 2.379562e+00
3.886794e+01 1.956522e-01 2.615255e-02 7.081333e-01 -2.782837e+00 2.379059e+00
3.894164e+01 1.956522e-01 2.614492e-02 7.081823e-01 -2.783493e+00 2.379730e+00
3.904555e+01 2.000000e-01 2.611110e-02 7.082289e-01 -2.783585e+00 2.379837e+00
3.904729e+01 2.000000e-01 2.611690e-02 7.082871e-01 -2.784531e+00 2.380753e+00
3.897453e+01 2.000000e-01 2.609638e-02 7.083128e-01 -2.784241e+00 2.380524e+00
3.894881e+01 2.000000e-01 2.610504e-02 7.084275e-01 -2.785202e+00 2.381470e+00
3.897304e+01 2.000000e-01 2.609332e-02 7.084553e-01 -2.785751e+00 2.382050e+00
3.888393e+01 1.956522e-01 2.608120e-02 7.085028e-01 -2.785599e+00 2.381912e+00
3.865309e+01 1.956522e-01 2.607135e-02 7.085190e-01 -2.785751e+00 2.382050e+00
3.865022e+01 1.956522e-01 2.606681e-02 7.085903e-01 -2.786270e+00 2.382553e+00
3.879022e+01 1.956522e-01 2.604487e-02 7.086349e-01 -2.786865e+00 2.383270e+00
3.869606e+01 1.956522e-01 2.604567e-02 7.086831e-01 -2.787247e+00 2.383835e+00
3.867081e+01 1.956522e-01 2.604600e-02 7.087455e-01 -2.787201e+00 2.383850e+00
3.872566e+01 1.956522e-01 2.603111e-02 7.087747e-01 -2.786697e+00 2.383408e+00
3.865990e+01 1.913043e-01 2.601774e-02 7.088406e-01 -2.788422e+00 2.385132e+00
3.884865e+01 1.913043e-01 2.600189e-02 7.088849e-01 -2.787933e+00 2.384766e+00
3.888524e+01 1.913043e-01 2.599955e-02 7.089318e-01 -2.788269e+00 2.385117e+00
3.889697e+01 1.913043e-01 2.600255e-02 7.089791e-01 -2.788010e+00 2.385056e+00
3.878738e+01 1.913043e-01 2.599015e-02 7.090481e-01 -2.788498e+00 2.385498e+00
3.867441e+01 1.913043e-01 2.598044e-02 7.091039e-01 -2.789032e+00 2.386124e+00
3.870042e+01 1.913043e-01 2.596905e-02 7.091479e-01 -2.789825e+00 2.386932e+00
3.863629e+01 1.913043e-01 2.594729e-02 7.091910e-01 -2.789398e+00 2.386627e+00
3.863936e+01 1.956522e-01 2.594358e-02 7.092312e-01 -2.789856e+00 2.387100e+00
3.863165e+01 1.913043e-01 2.594503e-02 7.093109e-01 -2.791077e+00 2.388321e+00
3.857312e+01 1.913043e-01 2.593115e-02 7.093386e-01 -2.790649e+00 2.388046e+00
3.862277e+01 1.956522e-01 2.589947e-02 7.093685e-01 -2.790726e+00 2.388245e+00
3.874422e+01 1.956522e-01 2.590811e-02 7.094440e-01 -2.791092e+00 2.388672e+00
