1.226445e+02 5.782609e-01 4.396701e-02 5.824064e-01 -9.960938e-01 9.960938e-01
9.750781e+01 5.782609e-01 4.336458e-02 5.818956e-01 -9.960938e-01 9.960938e-01
8.253906e+01 5.782609e-01 4.258160e-02 5.815074e-01 -9.960938e-01 9.960938e-01
7.757422e+01 5.782609e-01 4.209375e-02 5.814344e-01 -9.960938e-01 9.960938e-01
7.406641e+01 5.782609e-01 4.188889e-02 5.814013e-01 -9.960938e-01 9.960938e-01
7.371875e+01 5.782609e-01 4.175174e-02 5.814145e-01 -9.960938e-01 9.960938e-01
7.367188e+01 5.782609e-01 4.162674e-02 5.813533e-01 -1.007812e+00 9.960938e-01
7.277734e+01 4.652174e-01 4.155903e-02 5.813407e-01 -1.019531e+00 9.960938e-01
7.327344e+01 4.173913e-01 4.151215e-02 5.813415e-01 -1.027344e+00 9.960938e-01
7.329688e+01 4.217391e-01 4.153299e-02 5.813646e-01 -1.031250e+00 9.960938e-01
7.318750e+01 4.217391e-01 4.155556e-02 5.813733e-01 -1.031250e+00 9.960938e-01
7.300781e+01 4.217391e-01 4.155729e-02 5.813746e-01 -1.031250e+00 9.960938e-01
7.297266e+01 4.217391e-01 4.156597e-02 5.813533e-01 -1.035156e+00 9.960938e-01
7.255078e+01 4.217391e-01 4.156424e-02 5.813571e-01 -1.039062e+00 9.960938e-01
7.222266e+01 4.217391e-01 4.155556e-02 5.813730e-01 -1.042969e+00 9.960938e-01
7.232812e+01 4.217391e-01 4.151215e-02 5.813914e-01 -1.042969e+00 9.960938e-01
7.202344e+01 4.217391e-01 4.146007e-02 5.814258e-01 -1.050781e+00 9.960938e-01
7.202344e+01 4.217391e-01 4.144444e-02 5.814333e-01 -1.050781e+00 9.960938e-01
7.197656e+01 4.217391e-01 4.143403e-02 5.814142e-01 -1.050781e+00 9.960938e-01
7.220312e+01 4.217391e-01 4.143403e-02 5.814269e-01 -1.054688e+00 9.960938e-01
7.220312e+01 4.217391e-01 4.142361e-02 5.813984e-01 -1.050781e+00 9.960938e-01
7.225000e+01 4.217391e-01 4.140799e-02 5.814034e-01 -1.054688e+00 9.960938e-01
7.177344e+01 4.217391e-01 4.140104e-02 5.814075e-01 -1.058594e+00 9.960938e-01
7.176953e+01 4.217391e-01 4.138889e-02 5.813928e-01 -1.058594e+00 9.960938e-01
7.196484e+01 4.217391e-01 4.136111e-02 5.813830e-01 -1.058594e+00 9.960938e-01
7.184766e+01 4.217391e-01 4.135069e-02 5.813600e-01 -1.058594e+00 9.960938e-01
7.240234e+01 4.217391e-01 4.134549e-02 5.813493e-01 -1.054688e+00 9.960938e-01
7.195703e+01 4.217391e-01 4.134549e-02 5.813326e-01 -1.054688e+00 9.960938e-01
7.178906e+01 4.217391e-01 4.136458e-02 5.813123e-01 -1.050781e+00 9.960938e-01
7.183203e+01 4.217391e-01 4.137153e-02 5.813218e-01 -1.054688e+00 9.960938e-01
7.175781e+01 4.217391e-01 4.139062e-02 5.813244e-01 -1.058594e+00 9.960938e-01
7.215234e+01 4.217391e-01 4.140104e-02 5.813026e-01 -1.058594e+00 9.960938e-01
7.215234e+01 4.217391e-01 4.140625e-02 5.813050e-01 -1.058594e+00 9.960938e-01
7.165625e+01 4.217391e-01 4.139757e-02 5.812797e-01 -1.058594e+00 9.960938e-01
7.209375e+01 4.217391e-01 4.139931e-02 5.812436e-01 -1.058594e+00 9.960938e-01
7.169922e+01 4.217391e-01 4.139583e-02 5.811992e-01 -1.058594e+00 9.960938e-01
7.169922e+01 4.217391e-01 4.139410e-02 5.811991e-01 -1.058594e+00 9.960938e-01
7.168750e+01 4.217391e-01 4.137153e-02 5.812039e-01 -1.058594e+00 9.960938e-01
7.179297e+01 4.217391e-01 4.136111e-02 5.812214e-01 -1.062500e+00 9.960938e-01
7.190234e+01 4.217391e-01 4.136979e-02 5.812044e-01 -1.062500e+00 9.960938e-01
7.179297e+01 4.217391e-01 4.137153e-02 5.811655e-01 -1.058594e+00 9.960938e-01
7.175000e+01 4.217391e-01 4.136458e-02 5.811759e-01 -1.062500e+00 9.960938e-01
7.161328e+01 4.217391e-01 4.137500e-02 5.811650e-01 -1.066406e+00 9.960938e-01
7.169922e+01 4.217391e-01 4.137500e-02 5.811531e-01 -1.070312e+00 9.960938e-01
7.236328e+01 4.217391e-01 4.140972e-02 5.811416e-01 -1.070312e+00 9.960938e-01
7.255078e+01 4.217391e-01 4.142361e-02 5.810818e-01 -1.066406e+00 9.960938e-01
7.182812e+01 4.217391e-01 4.141319e-02 5.810686e-01 -1.062500e+00 9.960938e-01
7.200391e+01 4.217391e-01 4.139063e-02 5.811062e-01 -1.066406e+00 9.960938e-01
7.196875e+01 4.217391e-01 4.139410e-02 5.811095e-01 -1.062500e+00 9.960938e-01
7.196875e+01 4.217391e-01 4.138889e-02 5.810929e-01 -1.062500e+00 9.960938e-01
7.178516e+01 4.217391e-01 4.137674e-02 5.811161e-01 -1.070312e+00 9.960938e-01
7.178516e+01 4.217391e-01 4.136285e-02 5.811377e-01 -1.070312e+00 9.960938e-01
7.160547e+01 4.217391e-01 4.136632e-02 5.811216e-01 -1.074219e+00 9.960938e-01
7.168750e+01 4.217391e-01 4.136979e-02 5.811122e-01 -1.074219e+00 9.960938e-01
7.200391e+01 4.217391e-01 4.139583e-02 5.810799e-01 -1.074219e+00 9.960938e-01
7.204297e+01 4.217391e-01 4.140625e-02 5.810628e-01 -1.062500e+00 9.960938e-01
7.206641e+01 4.217391e-01 4.140799e-02 5.810827e-01 -1.066406e+00 9.960938e-01
7.276172e+01 4.217391e-01 4.140625e-02 5.810649e-01 -1.062500e+00 9.960938e-01
7.247266e+01 4.217391e-01 4.139410e-02 5.810495e-01 -1.058594e+00 9.960938e-01
7.280469e+01 4.217391e-01 4.138889e-02 5.810745e-01 -1.058594e+00 9.960938e-01
7.243750e+01 4.217391e-01 4.140278e-02 5.810483e-01 -1.058594e+00 9.960938e-01
7.208203e+01 4.217391e-01 4.140104e-02 5.810612e-01 -1.058594e+00 9.960938e-01
7.207031e+01 4.217391e-01 4.140625e-02 5.810777e-01 -1.062500e+00 9.960938e-01
7.208594e+01 4.217391e-01 4.144444e-02 5.810440e-01 -1.058594e+00 9.960938e-01
7.248438e+01 4.217391e-01 4.146007e-02 5.810344e-01 -1.062500e+00 9.960938e-01
7.248438e+01 4.217391e-01 4.149306e-02 5.810136e-01 -1.058594e+00 9.960938e-01
7.207422e+01 4.217391e-01 4.148090e-02 5.810106e-01 -1.058594e+00 9.960938e-01
7.200781e+01 4.217391e-01 4.145486e-02 5.810003e-01 -1.062500e+00 9.960938e-01
7.195703e+01 4.217391e-01 4.142708e-02 5.810014e-01 -1.066406e+00 9.960938e-01
7.195703e+01 4.217391e-01 4.141146e-02 5.809926e-01 -1.062500e+00 9.960938e-01
7.190625e+01 4.217391e-01 4.140278e-02 5.809828e-01 -1.062500e+00 9.960938e-01
7.195703e+01 4.217391e-01 4.139410e-02 5.810047e-01 -1.066406e+00 9.960938e-01
7.246094e+01 4.217391e-01 4.140799e-02 5.810042e-01 -1.062500e+00 9.960938e-01
7.210547e+01 4.217391e-01 4.144271e-02 5.810071e-01 -1.066406e+00 9.960938e-01
7.192188e+01 4.217391e-01 4.143750e-02 5.810263e-01 -1.070312e+00 9.960938e-01
7.192188e+01 4.217391e-01 4.144965e-02 5.810044e-01 -1.066406e+00 9.960938e-01
7.190625e+01 4.217391e-01 4.144271e-02 5.809871e-01 -1.070312e+00 9.960938e-01
7.190625e+01 4.217391e-01 4.146701e-02 5.809746e-01 -1.070312e+00 9.960938e-01
7.190625e+01 4.217391e-01 4.144792e-02 5.809780e-01 -1.070312e+00 9.960938e-01
7.198047e+01 4.217391e-01 4.148264e-02 5.809714e-01 -1.070312e+00 9.960938e-01
7.211719e+01 4.217391e-01 4.148785e-02 5.809659e-01 -1.070312e+00 9.960938e-01
7.212109e+01 4.217391e-01 4.148611e-02 5.809598e-01 -1.074219e+00 9.960938e-01
7.195703e+01 4.217391e-01 4.145486e-02 5.809638e-01 -1.074219e+00 9.960938e-01
7.190625e+01 4.217391e-01 4.141840e-02 5.809579e-01 -1.074219e+00 9.960938e-01
7.209375e+01 4.217391e-01 4.147049e-02 5.809660e-01 -1.078125e+00 9.960938e-01
7.178906e+01 4.217391e-01 4.151215e-02 5.809559e-01 -1.078125e+00 9.960938e-01
7.162109e+01 4.217391e-01 4.150521e-02 5.809753e-01 -1.082031e+00 9.960938e-01
7.167969e+01 4.217391e-01 4.148090e-02 5.809822e-01 -1.082031e+00 9.960938e-01
7.169141e+01 4.217391e-01 4.148611e-02 5.809478e-01 -1.078125e+00 9.960938e-01
7.221484e+01 4.217391e-01 4.148611e-02 5.809484e-01 -1.082031e+00 9.960938e-01
7.197656e+01 4.217391e-01 4.151042e-02 5.809535e-01 -1.078125e+00 9.960938e-01
7.211719e+01 4.217391e-01 4.148437e-02 5.809664e-01 -1.078125e+00 9.960938e-01
7.208594e+01 4.217391e-01 4.148090e-02 5.809790e-01 -1.082031e+00 9.960938e-01
7.158984e+01 4.217391e-01 4.147222e-02 5.809995e-01 -1.085938e+00 9.960938e-01
7.237500e+01 4.217391e-01 4.148611e-02 5.810198e-01 -1.085938e+00 9.960938e-01
7.226172e+01 4.217391e-01 4.150521e-02 5.809985e-01 -1.085938e+00 9.960938e-01
7.197656e+01 4.217391e-01 4.152257e-02 5.809852e-01 -1.085938e+00 9.960938e-01
7.179297e+01 4.217391e-01 4.148090e-02 5.809589e-01 -1.082031e+00 9.960938e-01
7.223047e+01 4.217391e-01 4.150521e-02 5.810021e-01 -1.082031e+00 9.960938e-01
7.227344e+01 4.217391e-01 4.150347e-02 5.810072e-01 -1.082031e+00 9.960938e-01
7.226562e+01 4.217391e-01 4.150000e-02 5.810148e-01 -1.085938e+00 9.960938e-01
7.192578e+01 4.217391e-01 4.149306e-02 5.810275e-01 -1.085938e+00 9.960938e-01
7.208984e+01 4.217391e-01 4.145833e-02 5.810485e-01 -1.089844e+00 9.960938e-01
7.177734e+01 4.217391e-01 4.144618e-02 5.810439e-01 -1.089844e+00 9.960938e-01
7.158203e+01 4.217391e-01 4.146701e-02 5.810751e-01 -1.093750e+00 9.960938e-01
7.158984e+01 4.217391e-01 4.149306e-02 5.810440e-01 -1.093750e+00 9.960938e-01
7.187109e+01 4.217391e-01 4.149653e-02 5.810727e-01 -1.093750e+00 9.960938e-01
7.190234e+01 4.217391e-01 4.150694e-02 5.810882e-01 -1.097656e+00 9.960938e-01
7.190234e+01 4.217391e-01 4.152778e-02 5.810554e-01 -1.089844e+00 9.960938e-01
7.189453e+01 4.217391e-01 4.152083e-02 5.810541e-01 -1.089844e+00 9.960938e-01
7.226562e+01 4.217391e-01 4.150868e-02 5.810450e-01 -1.089844e+00 9.960938e-01
7.226562e+01 4.217391e-01 4.149306e-02 5.810307e-01 -1.089844e+00 9.960938e-01
7.228516e+01 4.217391e-01 4.148611e-02 5.810206e-01 -1.089844e+00 9.960938e-01
7.242188e+01 4.217391e-01 4.150347e-02 5.810406e-01 -1.093750e+00 9.960938e-01
7.214844e+01 4.217391e-01 4.153819e-02 5.810763e-01 -1.093750e+00 9.960938e-01
7.209766e+01 4.217391e-01 4.154687e-02 5.810963e-01 -1.097656e+00 9.960938e-01
7.213281e+01 4.217391e-01 4.153472e-02 5.810790e-01 -1.089844e+00 9.960938e-01
7.195703e+01 4.217391e-01 4.152083e-02 5.810733e-01 -1.089844e+00 9.960938e-01
7.195703e+01 4.217391e-01 4.149132e-02 5.810465e-01 -1.085938e+00 9.960938e-01
7.170312e+01 4.217391e-01 4.143056e-02 5.810359e-01 -1.085938e+00 9.960938e-01
7.214062e+01 4.217391e-01 4.142361e-02 5.810428e-01 -1.089844e+00 9.960938e-01
7.192188e+01 4.217391e-01 4.143750e-02 5.810400e-01 -1.089844e+00 9.960938e-01
7.187891e+01 4.217391e-01 4.144444e-02 5.810387e-01 -1.089844e+00 9.960938e-01
7.208984e+01 4.217391e-01 4.143229e-02 5.810588e-01 -1.089844e+00 9.960938e-01
7.189844e+01 4.217391e-01 4.144792e-02 5.810701e-01 -1.089844e+00 9.960938e-01
7.204297e+01 4.217391e-01 4.146007e-02 5.810873e-01 -1.093750e+00 9.960938e-01
7.186328e+01 4.217391e-01 4.144965e-02 5.810742e-01 -1.097656e+00 9.960938e-01
7.192578e+01 4.217391e-01 4.144097e-02 5.810959e-01 -1.101562e+00 9.960938e-01
7.168750e+01 4.217391e-01 4.144271e-02 5.810964e-01 -1.105469e+00 9.960938e-01
7.163281e+01 4.217391e-01 4.142882e-02 5.811152e-01 -1.109375e+00 9.960938e-01
7.189453e+01 4.217391e-01 4.147396e-02 5.810950e-01 -1.109375e+00 9.960938e-01
7.144141e+01 4.217391e-01 4.148090e-02 5.810613e-01 -1.105469e+00 9.960938e-01
7.144141e+01 4.217391e-01 4.145833e-02 5.810742e-01 -1.105469e+00 9.960938e-01
7.183594e+01 4.217391e-01 4.145486e-02 5.810710e-01 -1.105469e+00 9.960938e-01
7.170703e+01 4.217391e-01 4.143056e-02 5.810758e-01 -1.109375e+00 9.960938e-01
7.193359e+01 4.217391e-01 4.141319e-02 5.810665e-01 -1.105469e+00 9.960938e-01
7.189453e+01 4.217391e-01 4.140972e-02 5.810581e-01 -1.105469e+00 9.960938e-01
7.189453e+01 4.217391e-01 4.142361e-02 5.810469e-01 -1.101562e+00 9.960938e-01
7.185156e+01 4.217391e-01 4.142187e-02 5.810716e-01 -1.105469e+00 9.960938e-01
7.188672e+01 4.217391e-01 4.143056e-02 5.810681e-01 -1.101562e+00 9.960938e-01
7.189062e+01 4.217391e-01 4.142014e-02 5.810854e-01 -1.101562e+00 9.960938e-01
7.189062e+01 4.217391e-01 4.142535e-02 5.810882e-01 -1.105469e+00 9.960938e-01
7.193359e+01 4.217391e-01 4.142535e-02 5.810970e-01 -1.101562e+00 9.960938e-01
7.189062e+01 4.217391e-01 4.142187e-02 5.810958e-01 -1.101562e+00 9.960938e-01
7.189062e+01 4.217391e-01 4.142014e-02 5.810980e-01 -1.101562e+00 9.960938e-01
7.206641e+01 4.217391e-01 4.143229e-02 5.811143e-01 -1.105469e+00 9.960938e-01
7.206641e+01 4.217391e-01 4.144097e-02 5.810826e-01 -1.101562e+00 9.960938e-01
7.193359e+01 4.217391e-01 4.142882e-02 5.810863e-01 -1.101562e+00 9.960938e-01
7.203906e+01 4.217391e-01 4.141493e-02 5.811045e-01 -1.105469e+00 9.960938e-01
7.224609e+01 4.217391e-01 4.140625e-02 5.810999e-01 -1.105469e+00 9.960938e-01
7.203906e+01 4.217391e-01 4.140625e-02 5.810766e-01 -1.105469e+00 9.960938e-01
7.199609e+01 4.217391e-01 4.138889e-02 5.810973e-01 -1.105469e+00 9.960938e-01
7.216406e+01 4.217391e-01 4.139757e-02 5.810882e-01 -1.101562e+00 9.960938e-01
7.221875e+01 4.217391e-01 4.140104e-02 5.811266e-01 -1.109375e+00 9.960938e-01
7.206250e+01 4.217391e-01 4.139062e-02 5.811532e-01 -1.109375e+00 9.960938e-01
7.175000e+01 4.217391e-01 4.136458e-02 5.811701e-01 -1.105469e+00 9.960938e-01
7.186328e+01 4.217391e-01 4.136285e-02 5.812029e-01 -1.109375e+00 9.960938e-01
7.162109e+01 4.217391e-01 4.139236e-02 5.812110e-01 -1.113281e+00 9.960938e-01
7.182031e+01 4.217391e-01 4.140799e-02 5.812339e-01 -1.117188e+00 9.960938e-01
7.181641e+01 4.217391e-01 4.138368e-02 5.812353e-01 -1.117188e+00 9.960938e-01
7.167578e+01 4.217391e-01 4.138715e-02 5.812507e-01 -1.121094e+00 9.960938e-01
7.153516e+01 4.217391e-01 4.140625e-02 5.812576e-01 -1.121094e+00 9.960938e-01
7.156250e+01 4.217391e-01 4.141146e-02 5.812845e-01 -1.121094e+00 9.960938e-01
7.155078e+01 4.217391e-01 4.143229e-02 5.813028e-01 -1.121094e+00 9.960938e-01
7.159375e+01 4.217391e-01 4.140104e-02 5.813013e-01 -1.125000e+00 9.960938e-01
7.162109e+01 4.217391e-01 4.136806e-02 5.813258e-01 -1.125000e+00 9.960938e-01
7.171484e+01 4.217391e-01 4.136632e-02 5.813429e-01 -1.128906e+00 9.960938e-01
7.169922e+01 4.217391e-01 4.138194e-02 5.813706e-01 -1.128906e+00 9.960938e-01
7.165625e+01 4.217391e-01 4.137674e-02 5.813575e-01 -1.128906e+00 9.960938e-01
7.165625e+01 4.217391e-01 4.137153e-02 5.813666e-01 -1.128906e+00 9.960938e-01
7.153516e+01 4.217391e-01 4.139063e-02 5.813808e-01 -1.128906e+00 9.960938e-01
7.168359e+01 4.217391e-01 4.139757e-02 5.813793e-01 -1.128906e+00 9.960938e-01
7.169922e+01 4.217391e-01 4.137326e-02 5.813674e-01 -1.128906e+00 9.960938e-01
7.174219e+01 4.217391e-01 4.138715e-02 5.814079e-01 -1.132812e+00 9.960938e-01
7.179297e+01 4.217391e-01 4.139583e-02 5.814447e-01 -1.136719e+00 9.960938e-01
7.158984e+01 4.217391e-01 4.139063e-02 5.814619e-01 -1.136719e+00 9.960938e-01
7.197266e+01 4.217391e-01 4.139410e-02 5.814524e-01 -1.140625e+00 9.960938e-01
7.207031e+01 4.217391e-01 4.139583e-02 5.814225e-01 -1.136719e+00 9.960938e-01
7.209375e+01 4.217391e-01 4.135938e-02 5.814291e-01 -1.136719e+00 9.960938e-01
7.214062e+01 4.217391e-01 4.133681e-02 5.814358e-01 -1.136719e+00 9.960938e-01
7.231641e+01 4.217391e-01 4.131771e-02 5.814535e-01 -1.144531e+00 9.960938e-01
7.218359e+01 4.217391e-01 4.131076e-02 5.814531e-01 -1.140625e+00 9.960938e-01
7.209766e+01 4.217391e-01 4.130903e-02 5.814644e-01 -1.140625e+00 9.960938e-01
7.203516e+01 4.217391e-01 4.131597e-02 5.814896e-01 -1.144531e+00 9.960938e-01
7.203516e+01 4.217391e-01 4.131771e-02 5.815052e-01 -1.140625e+00 9.960938e-01
7.205078e+01 4.217391e-01 4.131944e-02 5.815187e-01 -1.140625e+00 9.960938e-01
7.208594e+01 4.217391e-01 4.132813e-02 5.815394e-01 -1.144531e+00 9.960938e-01
7.223828e+01 4.217391e-01 4.134028e-02 5.815894e-01 -1.148438e+00 9.960938e-01
7.214453e+01 4.217391e-01 4.130556e-02 5.815935e-01 -1.148438e+00 9.960938e-01
7.227344e+01 4.217391e-01 4.128819e-02 5.815771e-01 -1.148438e+00 9.960938e-01
7.227734e+01 4.217391e-01 4.129861e-02 5.815813e-01 -1.144531e+00 9.960938e-01
7.167188e+01 4.217391e-01 4.130208e-02 5.815808e-01 -1.140625e+00 9.960938e-01
7.163672e+01 4.217391e-01 4.131076e-02 5.815828e-01 -1.140625e+00 9.960938e-01
7.217969e+01 4.217391e-01 4.134896e-02 5.815937e-01 -1.144531e+00 9.960938e-01
7.210156e+01 4.217391e-01 4.138542e-02 5.815883e-01 -1.140625e+00 9.960938e-01
7.210156e+01 4.217391e-01 4.138021e-02 5.815885e-01 -1.140625e+00 9.960938e-01
7.200391e+01 4.217391e-01 4.141493e-02 5.815955e-01 -1.144531e+00 9.960938e-01
7.191406e+01 4.217391e-01 4.141840e-02 5.815781e-01 -1.140625e+00 9.960938e-01
7.203516e+01 4.217391e-01 4.141493e-02 5.815972e-01 -1.144531e+00 9.960938e-01
7.210547e+01 4.217391e-01 4.140451e-02 5.816004e-01 -1.144531e+00 9.960938e-01
7.216797e+01 4.217391e-01 4.138542e-02 5.816123e-01 -1.148438e+00 9.960938e-01
7.193359e+01 4.217391e-01 4.137153e-02 5.815869e-01 -1.148438e+00 9.960938e-01
7.189062e+01 4.217391e-01 4.138021e-02 5.815768e-01 -1.144531e+00 9.960938e-01
7.193750e+01 4.217391e-01 4.136458e-02 5.815898e-01 -1.144531e+00 9.960938e-01
7.185938e+01 4.217391e-01 4.134549e-02 5.815901e-01 -1.144531e+00 9.960938e-01
7.190625e+01 4.217391e-01 4.133681e-02 5.816058e-01 -1.148438e+00 9.960938e-01
7.198047e+01 4.217391e-01 4.132639e-02 5.816356e-01 -1.152344e+00 9.960938e-01
7.191797e+01 4.217391e-01 4.132986e-02 5.816607e-01 -1.152344e+00 9.960938e-01
7.146484e+01 4.217391e-01 4.131076e-02 5.816572e-01 -1.156250e+00 9.960938e-01
7.168750e+01 4.217391e-01 4.132639e-02 5.816712e-01 -1.156250e+00 9.960938e-01
7.169141e+01 4.217391e-01 4.135069e-02 5.816581e-01 -1.156250e+00 9.960938e-01
7.167188e+01 4.217391e-01 4.136111e-02 5.816811e-01 -1.160156e+00 9.960938e-01
7.167578e+01 4.217391e-01 4.136979e-02 5.816933e-01 -1.156250e+00 9.960938e-01
7.167578e+01 4.217391e-01 4.137153e-02 5.817133e-01 -1.156250e+00 9.960938e-01
7.153906e+01 4.217391e-01 4.136806e-02 5.817066e-01 -1.156250e+00 9.960938e-01
7.193750e+01 4.217391e-01 4.136285e-02 5.817237e-01 -1.156250e+00 9.960938e-01
7.191016e+01 4.217391e-01 4.136458e-02 5.817348e-01 -1.160156e+00 9.960938e-01
7.192578e+01 4.217391e-01 4.135417e-02 5.817953e-01 -1.164062e+00 9.960938e-01
7.200391e+01 4.217391e-01 4.134201e-02 5.818271e-01 -1.167969e+00 9.960938e-01
7.200391e+01 4.217391e-01 4.133681e-02 5.818313e-01 -1.164062e+00 9.960938e-01
7.197266e+01 4.217391e-01 4.131944e-02 5.818434e-01 -1.167969e+00 9.960938e-01
7.220703e+01 4.217391e-01 4.131076e-02 5.818237e-01 -1.164062e+00 9.960938e-01
7.228516e+01 4.217391e-01 4.131424e-02 5.817788e-01 -1.160156e+00 9.960938e-01
7.199609e+01 4.217391e-01 4.131076e-02 5.818047e-01 -1.164062e+00 9.960938e-01
7.199609e+01 4.217391e-01 4.131076e-02 5.818046e-01 -1.164062e+00 9.960938e-01
7.158594e+01 4.217391e-01 4.130556e-02 5.818183e-01 -1.167969e+00 9.960938e-01
7.169531e+01 4.217391e-01 4.131771e-02 5.818376e-01 -1.167969e+00 9.960938e-01
7.162891e+01 4.217391e-01 4.131597e-02 5.818367e-01 -1.167969e+00 9.960938e-01
7.199609e+01 4.217391e-01 4.130035e-02 5.818495e-01 -1.171875e+00 9.960938e-01
7.183984e+01 4.217391e-01 4.130382e-02 5.818880e-01 -1.175781e+00 9.960938e-01
7.183984e+01 4.217391e-01 4.131597e-02 5.818932e-01 -1.175781e+00 9.960938e-01
7.182031e+01 4.217391e-01 4.133681e-02 5.818951e-01 -1.179688e+00 9.960938e-01
7.183984e+01 4.217391e-01 4.135243e-02 5.819090e-01 -1.179688e+00 9.960938e-01
7.189844e+01 4.217391e-01 4.137153e-02 5.819154e-01 -1.179688e+00 9.960938e-01
7.175391e+01 4.217391e-01 4.140451e-02 5.819062e-01 -1.179688e+00 9.960938e-01
7.194922e+01 4.217391e-01 4.140278e-02 5.819434e-01 -1.171875e+00 9.960938e-01
7.180859e+01 4.217391e-01 4.139236e-02 5.819909e-01 -1.175781e+00 9.960938e-01
7.180859e+01 4.217391e-01 4.139236e-02 5.819922e-01 -1.171875e+00 9.960938e-01
7.174609e+01 4.217391e-01 4.138194e-02 5.820049e-01 -1.175781e+00 9.960938e-01
7.163281e+01 4.217391e-01 4.136285e-02 5.820425e-01 -1.179688e+00 9.960938e-01
7.176172e+01 4.217391e-01 4.138889e-02 5.820719e-01 -1.183594e+00 9.960938e-01
7.179688e+01 4.217391e-01 4.142014e-02 5.820778e-01 -1.183594e+00 9.960938e-01
7.181641e+01 4.217391e-01 4.146181e-02 5.820548e-01 -1.187500e+00 9.960938e-01
7.187891e+01 4.217391e-01 4.145313e-02 5.820399e-01 -1.179688e+00 9.960938e-01
7.227734e+01 4.217391e-01 4.144965e-02 5.820653e-01 -1.183594e+00 9.960938e-01
7.224609e+01 4.217391e-01 4.142187e-02 5.820735e-01 -1.183594e+00 9.960938e-01
7.213672e+01 4.217391e-01 4.142361e-02 5.820969e-01 -1.183594e+00 9.960938e-01
7.216797e+01 4.217391e-01 4.141493e-02 5.821210e-01 -1.187500e+00 9.960938e-01
7.216797e+01 4.217391e-01 4.141493e-02 5.821479e-01 -1.187500e+00 9.960938e-01
7.212500e+01 4.217391e-01 4.140799e-02 5.821466e-01 -1.187500e+00 9.960938e-01
7.177344e+01 4.217391e-01 4.140625e-02 5.821458e-01 -1.187500e+00 9.960938e-01
7.177344e+01 4.217391e-01 4.140104e-02 5.821377e-01 -1.187500e+00 9.960938e-01
7.196875e+01 4.217391e-01 4.137326e-02 5.821579e-01 -1.191406e+00 9.960938e-01
7.183203e+01 4.217391e-01 4.134375e-02 5.821723e-01 -1.191406e+00 9.960938e-01
7.189844e+01 4.217391e-01 4.132465e-02 5.821864e-01 -1.191406e+00 9.960938e-01
7.178906e+01 4.217391e-01 4.132986e-02 5.821927e-01 -1.195312e+00 9.960938e-01
7.182422e+01 4.217391e-01 4.131597e-02 5.822227e-01 -1.195312e+00 9.960938e-01
7.183594e+01 4.217391e-01 4.132292e-02 5.822428e-01 -1.199219e+00 9.960938e-01
7.194531e+01 4.217391e-01 4.132813e-02 5.822447e-01 -1.199219e+00 9.960938e-01
7.226562e+01 4.217391e-01 4.136632e-02 5.822301e-01 -1.199219e+00 9.960938e-01
7.226562e+01 4.217391e-01 4.138889e-02 5.822142e-01 -1.195312e+00 9.960938e-01
7.183594e+01 4.217391e-01 4.140278e-02 5.822152e-01 -1.199219e+00 9.960938e-01
7.211719e+01 4.217391e-01 4.140625e-02 5.822241e-01 -1.203125e+00 9.960938e-01
7.181641e+01 4.217391e-01 4.139410e-02 5.822064e-01 -1.199219e+00 9.960938e-01
7.187109e+01 4.217391e-01 4.139757e-02 5.822134e-01 -1.199219e+00 9.960938e-01
7.196875e+01 4.217391e-01 4.140104e-02 5.822262e-01 -1.203125e+00 9.960938e-01
7.176953e+01 4.217391e-01 4.135764e-02 5.822811e-01 -1.203125e+00 9.960938e-01
7.176953e+01 4.217391e-01 4.134375e-02 5.823193e-01 -1.207031e+00 9.960938e-01
7.141406e+01 4.217391e-01 4.135764e-02 5.823521e-01 -1.210938e+00 9.960938e-01
7.176953e+01 4.217391e-01 4.136806e-02 5.824021e-01 -1.210938e+00 9.960938e-01
7.174219e+01 4.217391e-01 4.137326e-02 5.824111e-01 -1.210938e+00 9.960938e-01
7.177344e+01 4.217391e-01 4.139236e-02 5.824301e-01 -1.210938e+00 9.960938e-01
7.183203e+01 4.217391e-01 4.136632e-02 5.824165e-01 -1.210938e+00 9.960938e-01
7.172266e+01 4.217391e-01 4.133333e-02 5.823979e-01 -1.210938e+00 9.960938e-01
7.190234e+01 4.217391e-01 4.130208e-02 5.824229e-01 -1.214844e+00 9.960938e-01
7.185938e+01 4.217391e-01 4.131944e-02 5.824394e-01 -1.214844e+00 9.960938e-01
7.195703e+01 4.217391e-01 4.131597e-02 5.824540e-01 -1.218750e+00 9.960938e-01
7.196094e+01 4.217391e-01 4.132465e-02 5.824786e-01 -1.218750e+00 9.960938e-01
7.183594e+01 4.217391e-01 4.129861e-02 5.825112e-01 -1.218750e+00 9.960938e-01
7.142969e+01 4.217391e-01 4.131771e-02 5.824919e-01 -1.218750e+00 9.960938e-01
7.188281e+01 4.217391e-01 4.130556e-02 5.825583e-01 -1.222656e+00 9.960938e-01
7.196094e+01 4.217391e-01 4.128993e-02 5.825868e-01 -1.222656e+00 9.960938e-01
7.185156e+01 4.217391e-01 4.128472e-02 5.825861e-01 -1.222656e+00 9.960938e-01
7.175000e+01 4.217391e-01 4.127778e-02 5.826276e-01 -1.226562e+00 9.960938e-01
7.193750e+01 4.217391e-01 4.129514e-02 5.826761e-01 -1.230469e+00 9.960938e-01
7.185938e+01 4.217391e-01 4.128819e-02 5.827451e-01 -1.234375e+00 9.960938e-01
7.169922e+01 4.217391e-01 4.127431e-02 5.827667e-01 -1.230469e+00 9.960938e-01
7.189062e+01 4.217391e-01 4.124479e-02 5.827586e-01 -1.234375e+00 9.960938e-01
7.201953e+01 4.217391e-01 4.122917e-02 5.827642e-01 -1.234375e+00 9.960938e-01
7.174609e+01 4.217391e-01 4.124479e-02 5.827519e-01 -1.230469e+00 9.960938e-01
7.151172e+01 4.217391e-01 4.125174e-02 5.827908e-01 -1.234375e+00 9.960938e-01
7.177344e+01 4.217391e-01 4.125000e-02 5.828133e-01 -1.234375e+00 9.960938e-01
7.189844e+01 4.217391e-01 4.125347e-02 5.828140e-01 -1.234375e+00 9.960938e-01
7.194922e+01 4.217391e-01 4.126042e-02 5.828186e-01 -1.234375e+00 9.960938e-01
7.188281e+01 4.217391e-01 4.125174e-02 5.828202e-01 -1.234375e+00 9.960938e-01
7.191797e+01 4.217391e-01 4.125347e-02 5.828628e-01 -1.238281e+00 9.960938e-01
7.180859e+01 4.217391e-01 4.124826e-02 5.829037e-01 -1.238281e+00 9.960938e-01
7.176953e+01 4.217391e-01 4.125000e-02 5.829111e-01 -1.234375e+00 9.960938e-01
7.200000e+01 4.217391e-01 4.125868e-02 5.829258e-01 -1.234375e+00 9.960938e-01
7.193750e+01 4.217391e-01 4.126389e-02 5.829534e-01 -1.234375e+00 9.960938e-01
7.181250e+01 4.217391e-01 4.125174e-02 5.829719e-01 -1.230469e+00 9.960938e-01
7.181250e+01 4.217391e-01 4.125868e-02 5.829619e-01 -1.226562e+00 9.960938e-01
7.178125e+01 4.217391e-01 4.123785e-02 5.829413e-01 -1.226562e+00 9.960938e-01
7.174219e+01 4.217391e-01 4.121007e-02 5.829516e-01 -1.226562e+00 9.960938e-01
7.183984e+01 4.217391e-01 4.119097e-02 5.829879e-01 -1.230469e+00 9.960938e-01
7.194531e+01 4.217391e-01 4.119271e-02 5.829961e-01 -1.226562e+00 9.960938e-01
7.199219e+01 4.217391e-01 4.120486e-02 5.829608e-01 -1.218750e+00 9.960938e-01
7.175000e+01 4.217391e-01 4.119792e-02 5.829511e-01 -1.218750e+00 9.960938e-01
7.174609e+01 4.217391e-01 4.118924e-02 5.829732e-01 -1.218750e+00 9.960938e-01
7.174609e+01 4.217391e-01 4.118576e-02 5.830057e-01 -1.214844e+00 9.960938e-01
7.179297e+01 4.217391e-01 4.122743e-02 5.830446e-01 -1.218750e+00 9.960938e-01
7.160938e+01 4.217391e-01 4.124826e-02 5.830319e-01 -1.214844e+00 9.960938e-01
7.160938e+01 4.217391e-01 4.125347e-02 5.830504e-01 -1.214844e+00 9.960938e-01
7.190625e+01 4.217391e-01 4.126910e-02 5.830639e-01 -1.214844e+00 1.000000e+00
7.166406e+01 4.217391e-01 4.127257e-02 5.830904e-01 -1.210938e+00 1.003906e+00
7.171875e+01 4.217391e-01 4.127778e-02 5.831112e-01 -1.210938e+00 1.011719e+00
7.144141e+01 4.217391e-01 4.128125e-02 5.831480e-01 -1.210938e+00 1.011719e+00
7.161719e+01 4.217391e-01 4.129687e-02 5.831813e-01 -1.214844e+00 1.015625e+00
7.183594e+01 4.217391e-01 4.130382e-02 5.832127e-01 -1.218750e+00 1.019531e+00
7.177344e+01 4.217391e-01 4.129167e-02 5.832651e-01 -1.218750e+00 1.023438e+00
7.164453e+01 4.217391e-01 4.126910e-02 5.832835e-01 -1.214844e+00 1.023438e+00
7.164453e+01 4.217391e-01 4.124132e-02 5.833369e-01 -1.214844e+00 1.023438e+00
7.176562e+01 4.217391e-01 4.122917e-02 5.833426e-01 -1.214844e+00 1.023438e+00
7.170703e+01 4.217391e-01 4.121875e-02 5.833608e-01 -1.214844e+00 1.023438e+00
7.151172e+01 4.217391e-01 4.123090e-02 5.833705e-01 -1.218750e+00 1.027344e+00
7.170703e+01 4.217391e-01 4.123438e-02 5.833786e-01 -1.218750e+00 1.031250e+00
7.159766e+01 4.217391e-01 4.122569e-02 5.834225e-01 -1.222656e+00 1.035156e+00
7.155469e+01 4.217391e-01 4.123437e-02 5.834241e-01 -1.222656e+00 1.039062e+00
7.166797e+01 4.217391e-01 4.122396e-02 5.835010e-01 -1.226562e+00 1.042969e+00
7.176953e+01 4.217391e-01 4.120313e-02 5.834909e-01 -1.222656e+00 1.039062e+00
7.178516e+01 4.217391e-01 4.118576e-02 5.835227e-01 -1.226562e+00 1.042969e+00
7.186328e+01 4.217391e-01 4.117882e-02 5.835379e-01 -1.222656e+00 1.042969e+00
7.176953e+01 4.217391e-01 4.117188e-02 5.836050e-01 -1.226562e+00 1.046875e+00
7.178125e+01 4.217391e-01 4.117708e-02 5.836426e-01 -1.230469e+00 1.054688e+00
7.160938e+01 4.217391e-01 4.116493e-02 5.836873e-01 -1.230469e+00 1.058594e+00
7.151562e+01 4.217391e-01 4.115972e-02 5.836995e-01 -1.230469e+00 1.058594e+00
7.148047e+01 4.217391e-01 4.116493e-02 5.837219e-01 -1.230469e+00 1.058594e+00
7.160938e+01 4.217391e-01 4.116667e-02 5.837222e-01 -1.230469e+00 1.058594e+00
7.167188e+01 4.217391e-01 4.116146e-02 5.837383e-01 -1.234375e+00 1.062500e+00
7.179688e+01 4.217391e-01 4.112326e-02 5.837432e-01 -1.230469e+00 1.062500e+00
7.184375e+01 4.217391e-01 4.106424e-02 5.838025e-01 -1.230469e+00 1.062500e+00
7.173047e+01 4.217391e-01 4.104340e-02 5.838332e-01 -1.230469e+00 1.066406e+00
7.172266e+01 4.217391e-01 4.105035e-02 5.838613e-01 -1.234375e+00 1.070312e+00
7.167188e+01 4.217391e-01 4.104167e-02 5.838787e-01 -1.230469e+00 1.074219e+00
7.176562e+01 4.217391e-01 4.101736e-02 5.838845e-01 -1.226562e+00 1.070312e+00
7.173047e+01 4.217391e-01 4.102604e-02 5.838911e-01 -1.226562e+00 1.070312e+00
7.175391e+01 4.217391e-01 4.100868e-02 5.839083e-01 -1.230469e+00 1.074219e+00
7.199609e+01 4.217391e-01 4.097569e-02 5.839111e-01 -1.230469e+00 1.074219e+00
7.173047e+01 4.217391e-01 4.096007e-02 5.839057e-01 -1.230469e+00 1.074219e+00
7.162109e+01 4.217391e-01 4.097396e-02 5.839350e-01 -1.234375e+00 1.078125e+00
7.177734e+01 4.217391e-01 4.097049e-02 5.840117e-01 -1.238281e+00 1.082031e+00
7.171875e+01 4.217391e-01 4.096528e-02 5.840333e-01 -1.238281e+00 1.082031e+00
7.214453e+01 4.217391e-01 4.096701e-02 5.840233e-01 -1.234375e+00 1.078125e+00
7.214453e+01 4.217391e-01 4.096354e-02 5.840234e-01 -1.230469e+00 1.074219e+00
7.173828e+01 4.217391e-01 4.095312e-02 5.840602e-01 -1.234375e+00 1.082031e+00
7.176953e+01 4.217391e-01 4.096007e-02 5.841077e-01 -1.238281e+00 1.085938e+00
7.176953e+01 4.217391e-01 4.096354e-02 5.841155e-01 -1.234375e+00 1.082031e+00
7.160547e+01 4.217391e-01 4.095486e-02 5.841791e-01 -1.242188e+00 1.089844e+00
7.157812e+01 4.217391e-01 4.095486e-02 5.842320e-01 -1.242188e+00 1.089844e+00
7.164844e+01 4.217391e-01 4.096181e-02 5.842424e-01 -1.242188e+00 1.093750e+00
7.164844e+01 4.217391e-01 4.096181e-02 5.842699e-01 -1.238281e+00 1.089844e+00
7.136719e+01 4.217391e-01 4.096701e-02 5.842982e-01 -1.242188e+00 1.093750e+00
7.136719e+01 4.217391e-01 4.097222e-02 5.843111e-01 -1.242188e+00 1.093750e+00
7.159766e+01 4.217391e-01 4.097743e-02 5.843472e-01 -1.246094e+00 1.097656e+00
7.156250e+01 4.217391e-01 4.094965e-02 5.843864e-01 -1.250000e+00 1.101562e+00
7.157422e+01 4.217391e-01 4.090104e-02 5.844201e-01 -1.250000e+00 1.101562e+00
7.174219e+01 4.217391e-01 4.089583e-02 5.844290e-01 -1.250000e+00 1.101562e+00
7.156250e+01 4.217391e-01 4.085764e-02 5.844546e-01 -1.250000e+00 1.101562e+00
7.143359e+01 4.217391e-01 4.082118e-02 5.844614e-01 -1.246094e+00 1.097656e+00
7.158594e+01 4.217391e-01 4.083160e-02 5.844637e-01 -1.246094e+00 1.097656e+00
7.159375e+01 4.217391e-01 4.082986e-02 5.844696e-01 -1.246094e+00 1.097656e+00
7.167578e+01 4.217391e-01 4.080903e-02 5.844806e-01 -1.246094e+00 1.097656e+00
7.198047e+01 4.217391e-01 4.082986e-02 5.845273e-01 -1.250000e+00 1.101562e+00
7.168359e+01 4.217391e-01 4.080903e-02 5.846058e-01 -1.250000e+00 1.101562e+00
7.174219e+01 4.217391e-01 4.080208e-02 5.846364e-01 -1.250000e+00 1.101562e+00
7.158203e+01 4.217391e-01 4.078993e-02 5.846683e-01 -1.253906e+00 1.105469e+00
7.187891e+01 4.217391e-01 4.069618e-02 5.846161e-01 -1.250000e+00 1.101562e+00
7.183984e+01 4.217391e-01 4.065972e-02 5.846907e-01 -1.253906e+00 1.101562e+00
7.164062e+01 4.217391e-01 4.064063e-02 5.847253e-01 -1.257812e+00 1.105469e+00
7.180078e+01 4.217391e-01 4.064931e-02 5.847665e-01 -1.257812e+00 1.105469e+00
7.171875e+01 4.217391e-01 4.064583e-02 5.847896e-01 -1.257812e+00 1.105469e+00
7.171094e+01 4.217391e-01 4.062326e-02 5.848074e-01 -1.261719e+00 1.109375e+00
7.169922e+01 4.217391e-01 4.059375e-02 5.848211e-01 -1.261719e+00 1.109375e+00
7.109766e+01 4.217391e-01 4.057813e-02 5.848168e-01 -1.257812e+00 1.109375e+00
7.170703e+01 4.217391e-01 4.057813e-02 5.848291e-01 -1.257812e+00 1.113281e+00
7.180078e+01 4.217391e-01 4.056771e-02 5.848733e-01 -1.257812e+00 1.113281e+00
7.145312e+01 4.217391e-01 4.055903e-02 5.849162e-01 -1.261719e+00 1.117188e+00
7.195312e+01 4.217391e-01 4.056250e-02 5.849352e-01 -1.257812e+00 1.113281e+00
7.195312e+01 4.217391e-01 4.057813e-02 5.849255e-01 -1.257812e+00 1.113281e+00
7.180078e+01 4.217391e-01 4.055729e-02 5.849324e-01 -1.253906e+00 1.113281e+00
7.177734e+01 4.217391e-01 4.052778e-02 5.849736e-01 -1.253906e+00 1.117188e+00
7.197266e+01 4.217391e-01 4.049653e-02 5.849996e-01 -1.250000e+00 1.117188e+00
7.149219e+01 4.217391e-01 4.046875e-02 5.849744e-01 -1.246094e+00 1.113281e+00
7.191797e+01 4.217391e-01 4.045486e-02 5.850123e-01 -1.250000e+00 1.117188e+00
7.187500e+01 4.217391e-01 4.042882e-02 5.850809e-01 -1.253906e+00 1.121094e+00
7.180859e+01 4.217391e-01 4.041840e-02 5.851385e-01 -1.257812e+00 1.125000e+00
7.158594e+01 4.217391e-01 4.044444e-02 5.851755e-01 -1.257812e+00 1.125000e+00
7.209766e+01 4.217391e-01 4.046181e-02 5.851930e-01 -1.261719e+00 1.128906e+00
7.115625e+01 4.217391e-01 4.044792e-02 5.852002e-01 -1.257812e+00 1.128906e+00
7.109375e+01 4.217391e-01 4.043576e-02 5.851812e-01 -1.253906e+00 1.125000e+00
7.166406e+01 4.217391e-01 4.044444e-02 5.851925e-01 -1.253906e+00 1.125000e+00
7.208984e+01 4.217391e-01 4.043056e-02 5.852535e-01 -1.257812e+00 1.128906e+00
7.218359e+01 4.217391e-01 4.043576e-02 5.852864e-01 -1.257812e+00 1.128906e+00
7.221484e+01 4.217391e-01 4.041493e-02 5.852804e-01 -1.257812e+00 1.128906e+00
7.199219e+01 4.217391e-01 4.037500e-02 5.852908e-01 -1.257812e+00 1.132812e+00
7.207812e+01 4.217391e-01 4.037500e-02 5.853476e-01 -1.257812e+00 1.132812e+00
7.207812e+01 4.217391e-01 4.037326e-02 5.853508e-01 -1.257812e+00 1.132812e+00
7.199219e+01 4.217391e-01 4.036806e-02 5.853622e-01 -1.257812e+00 1.132812e+00
7.207812e+01 4.217391e-01 4.034028e-02 5.854017e-01 -1.261719e+00 1.136719e+00
7.199219e+01 4.217391e-01 4.029167e-02 5.854366e-01 -1.261719e+00 1.136719e+00
7.152344e+01 4.217391e-01 4.026389e-02 5.854956e-01 -1.265625e+00 1.140625e+00
7.177344e+01 4.217391e-01 4.025694e-02 5.855108e-01 -1.265625e+00 1.140625e+00
7.146875e+01 4.217391e-01 4.025174e-02 5.855317e-01 -1.269531e+00 1.144531e+00
7.162500e+01 4.217391e-01 4.024479e-02 5.855612e-01 -1.269531e+00 1.144531e+00
7.146094e+01 4.217391e-01 4.022917e-02 5.855965e-01 -1.269531e+00 1.144531e+00
7.158984e+01 4.217391e-01 4.021181e-02 5.856211e-01 -1.269531e+00 1.144531e+00
7.183203e+01 4.217391e-01 4.019097e-02 5.856646e-01 -1.269531e+00 1.144531e+00
7.189453e+01 4.217391e-01 4.019618e-02 5.856647e-01 -1.269531e+00 1.144531e+00
7.218750e+01 4.217391e-01 4.019792e-02 5.856705e-01 -1.265625e+00 1.140625e+00
7.217969e+01 4.217391e-01 4.019792e-02 5.857306e-01 -1.269531e+00 1.144531e+00
7.232812e+01 4.217391e-01 4.019792e-02 5.857840e-01 -1.273438e+00 1.148438e+00
7.240625e+01 4.217391e-01 4.018924e-02 5.858417e-01 -1.273438e+00 1.148438e+00
7.203906e+01 4.217391e-01 4.018576e-02 5.858556e-01 -1.269531e+00 1.144531e+00
7.234375e+01 4.217391e-01 4.014410e-02 5.858584e-01 -1.269531e+00 1.144531e+00
7.145703e+01 4.217391e-01 4.013368e-02 5.858923e-01 -1.273438e+00 1.148438e+00
7.202734e+01 4.217391e-01 4.012153e-02 5.859327e-01 -1.273438e+00 1.148438e+00
7.219922e+01 4.217391e-01 4.012153e-02 5.859666e-01 -1.277344e+00 1.152344e+00
7.247266e+01 4.217391e-01 4.011285e-02 5.860129e-01 -1.277344e+00 1.152344e+00
7.247266e+01 4.217391e-01 4.012674e-02 5.860222e-01 -1.273438e+00 1.152344e+00
7.207422e+01 4.217391e-01 4.009549e-02 5.860049e-01 -1.273438e+00 1.152344e+00
7.213281e+01 4.217391e-01 4.007986e-02 5.860692e-01 -1.277344e+00 1.156250e+00
7.212891e+01 4.217391e-01 4.008160e-02 5.861480e-01 -1.281250e+00 1.160156e+00
7.195703e+01 4.217391e-01 4.001042e-02 5.862436e-01 -1.285156e+00 1.164062e+00
7.169922e+01 4.217391e-01 3.991146e-02 5.863518e-01 -1.289062e+00 1.167969e+00
7.196875e+01 4.217391e-01 3.988715e-02 5.864317e-01 -1.292969e+00 1.171875e+00
7.203125e+01 4.217391e-01 3.979688e-02 5.864662e-01 -1.289062e+00 1.167969e+00
7.193750e+01 4.217391e-01 3.978646e-02 5.865415e-01 -1.292969e+00 1.171875e+00
7.212500e+01 4.217391e-01 3.974479e-02 5.866108e-01 -1.296875e+00 1.175781e+00
7.210156e+01 4.217391e-01 3.971181e-02 5.866276e-01 -1.292969e+00 1.171875e+00
7.207031e+01 4.217391e-01 3.970486e-02 5.866987e-01 -1.296875e+00 1.175781e+00
7.182812e+01 4.217391e-01 3.968229e-02 5.867260e-01 -1.296875e+00 1.175781e+00
7.186719e+01 4.217391e-01 3.969444e-02 5.867436e-01 -1.300781e+00 1.175781e+00
7.207031e+01 4.217391e-01 3.966493e-02 5.867692e-01 -1.300781e+00 1.175781e+00
7.201172e+01 4.217391e-01 3.965278e-02 5.867987e-01 -1.300781e+00 1.175781e+00
7.160938e+01 4.217391e-01 3.962500e-02 5.867972e-01 -1.300781e+00 1.175781e+00
7.224219e+01 4.217391e-01 3.964236e-02 5.868185e-01 -1.300781e+00 1.175781e+00
7.135938e+01 4.217391e-01 3.963021e-02 5.868163e-01 -1.300781e+00 1.175781e+00
7.212500e+01 4.217391e-01 3.968924e-02 5.867897e-01 -1.296875e+00 1.175781e+00
7.190625e+01 4.217391e-01 3.971354e-02 5.867939e-01 -1.296875e+00 1.175781e+00
7.191406e+01 4.217391e-01 3.967188e-02 5.868204e-01 -1.300781e+00 1.175781e+00
7.208594e+01 4.217391e-01 3.962847e-02 5.868714e-01 -1.300781e+00 1.175781e+00
7.164844e+01 4.217391e-01 3.960764e-02 5.868913e-01 -1.296875e+00 1.171875e+00
7.228906e+01 4.217391e-01 3.963194e-02 5.869013e-01 -1.296875e+00 1.171875e+00
7.227734e+01 4.217391e-01 3.965104e-02 5.868958e-01 -1.292969e+00 1.171875e+00
7.177344e+01 4.217391e-01 3.965799e-02 5.869239e-01 -1.289062e+00 1.167969e+00
7.201172e+01 4.217391e-01 3.966667e-02 5.869511e-01 -1.292969e+00 1.171875e+00
7.210156e+01 4.217391e-01 3.967708e-02 5.870092e-01 -1.296875e+00 1.171875e+00
7.212500e+01 4.217391e-01 3.965104e-02 5.869937e-01 -1.292969e+00 1.171875e+00
7.226172e+01 4.217391e-01 3.964410e-02 5.870574e-01 -1.296875e+00 1.171875e+00
7.216016e+01 4.217391e-01 3.963542e-02 5.870910e-01 -1.296875e+00 1.171875e+00
7.132031e+01 4.217391e-01 3.962326e-02 5.870826e-01 -1.296875e+00 1.171875e+00
7.200000e+01 4.217391e-01 3.960417e-02 5.870682e-01 -1.292969e+00 1.167969e+00
7.223828e+01 4.217391e-01 3.961806e-02 5.870864e-01 -1.292969e+00 1.167969e+00
7.223828e+01 4.217391e-01 3.961806e-02 5.870880e-01 -1.292969e+00 1.167969e+00
7.196094e+01 4.217391e-01 3.962847e-02 5.871078e-01 -1.296875e+00 1.171875e+00
7.178906e+01 4.217391e-01 3.963889e-02 5.871532e-01 -1.296875e+00 1.171875e+00
7.202344e+01 4.217391e-01 3.962326e-02 5.871594e-01 -1.300781e+00 1.175781e+00
7.204688e+01 4.217391e-01 3.961285e-02 5.871509e-01 -1.296875e+00 1.171875e+00
7.189062e+01 4.217391e-01 3.956424e-02 5.871468e-01 -1.292969e+00 1.171875e+00
7.193359e+01 4.217391e-01 3.951562e-02 5.871445e-01 -1.292969e+00 1.171875e+00
7.135938e+01 4.217391e-01 3.948958e-02 5.871560e-01 -1.292969e+00 1.175781e+00
7.184766e+01 4.217391e-01 3.950521e-02 5.871581e-01 -1.289062e+00 1.171875e+00
7.178125e+01 4.217391e-01 3.948785e-02 5.871556e-01 -1.289062e+00 1.171875e+00
7.184766e+01 4.217391e-01 3.947743e-02 5.871680e-01 -1.292969e+00 1.175781e+00
7.203516e+01 4.217391e-01 3.946007e-02 5.871650e-01 -1.289062e+00 1.171875e+00
7.215625e+01 4.217391e-01 3.942708e-02 5.871807e-01 -1.289062e+00 1.167969e+00
7.208984e+01 4.217391e-01 3.940625e-02 5.872346e-01 -1.292969e+00 1.171875e+00
7.208984e+01 4.217391e-01 3.942361e-02 5.872714e-01 -1.292969e+00 1.171875e+00
7.211328e+01 4.217391e-01 3.944271e-02 5.873026e-01 -1.296875e+00 1.175781e+00
7.206641e+01 4.217391e-01 3.943403e-02 5.872970e-01 -1.292969e+00 1.171875e+00
7.206641e+01 4.217391e-01 3.941667e-02 5.873492e-01 -1.296875e+00 1.171875e+00
7.198047e+01 4.217391e-01 3.937326e-02 5.874028e-01 -1.300781e+00 1.171875e+00
7.207812e+01 4.217391e-01 3.938368e-02 5.874534e-01 -1.300781e+00 1.171875e+00
7.210547e+01 4.217391e-01 3.937674e-02 5.874749e-01 -1.300781e+00 1.171875e+00
7.201562e+01 4.217391e-01 3.935937e-02 5.874717e-01 -1.296875e+00 1.167969e+00
7.201562e+01 4.217391e-01 3.935590e-02 5.875062e-01 -1.300781e+00 1.171875e+00
7.210547e+01 4.217391e-01 3.933160e-02 5.875281e-01 -1.300781e+00 1.171875e+00
7.178906e+01 4.217391e-01 3.931076e-02 5.875297e-01 -1.292969e+00 1.164062e+00
7.179297e+01 4.217391e-01 3.930556e-02 5.875407e-01 -1.292969e+00 1.164062e+00
7.206250e+01 4.217391e-01 3.928993e-02 5.875567e-01 -1.296875e+00 1.167969e+00
7.212500e+01 4.217391e-01 3.929167e-02 5.875982e-01 -1.296875e+00 1.167969e+00
7.207031e+01 4.217391e-01 3.928646e-02 5.876278e-01 -1.300781e+00 1.171875e+00
7.192578e+01 4.217391e-01 3.926736e-02 5.876438e-01 -1.296875e+00 1.167969e+00
7.165625e+01 4.217391e-01 3.925347e-02 5.876439e-01 -1.296875e+00 1.167969e+00
7.167969e+01 4.217391e-01 3.925174e-02 5.876602e-01 -1.296875e+00 1.167969e+00
7.206250e+01 4.217391e-01 3.928646e-02 5.877200e-01 -1.300781e+00 1.171875e+00
7.207422e+01 4.217391e-01 3.929340e-02 5.877427e-01 -1.300781e+00 1.171875e+00
7.197266e+01 4.217391e-01 3.931250e-02 5.878429e-01 -1.308594e+00 1.179688e+00
7.180469e+01 4.260870e-01 3.929687e-02 5.878256e-01 -1.300781e+00 1.171875e+00
7.176953e+01 4.217391e-01 3.927257e-02 5.878066e-01 -1.300781e+00 1.171875e+00
7.173438e+01 4.217391e-01 3.927257e-02 5.878413e-01 -1.304688e+00 1.175781e+00
7.173047e+01 4.217391e-01 3.926736e-02 5.878562e-01 -1.304688e+00 1.175781e+00
7.173047e+01 4.217391e-01 3.929687e-02 5.878828e-01 -1.304688e+00 1.175781e+00
7.198047e+01 4.217391e-01 3.927257e-02 5.879138e-01 -1.304688e+00 1.175781e+00
7.207422e+01 4.217391e-01 3.927951e-02 5.879584e-01 -1.304688e+00 1.175781e+00
7.217969e+01 4.217391e-01 3.928125e-02 5.879683e-01 -1.304688e+00 1.175781e+00
7.212891e+01 4.217391e-01 3.927604e-02 5.879838e-01 -1.304688e+00 1.175781e+00
7.198438e+01 4.217391e-01 3.927083e-02 5.879958e-01 -1.300781e+00 1.175781e+00
7.210156e+01 4.217391e-01 3.927083e-02 5.880024e-01 -1.300781e+00 1.175781e+00
7.195703e+01 4.217391e-01 3.928125e-02 5.880402e-01 -1.304688e+00 1.179688e+00
7.214844e+01 4.217391e-01 3.927778e-02 5.880798e-01 -1.304688e+00 1.179688e+00
7.194531e+01 4.217391e-01 3.930903e-02 5.881217e-01 -1.308594e+00 1.183594e+00
7.181250e+01 4.217391e-01 3.932118e-02 5.881523e-01 -1.308594e+00 1.179688e+00
7.171094e+01 4.217391e-01 3.926042e-02 5.881900e-01 -1.308594e+00 1.175781e+00
7.191797e+01 4.217391e-01 3.926562e-02 5.881868e-01 -1.308594e+00 1.171875e+00
7.184766e+01 4.217391e-01 3.927604e-02 5.882380e-01 -1.308594e+00 1.171875e+00
7.182031e+01 4.217391e-01 3.929514e-02 5.882719e-01 -1.308594e+00 1.171875e+00
7.178906e+01 4.217391e-01 3.927951e-02 5.883112e-01 -1.312500e+00 1.175781e+00
7.178906e+01 4.217391e-01 3.926215e-02 5.883132e-01 -1.308594e+00 1.171875e+00
7.168750e+01 4.173913e-01 3.924826e-02 5.883231e-01 -1.308594e+00 1.171875e+00
7.177344e+01 4.173913e-01 3.922917e-02 5.883800e-01 -1.308594e+00 1.175781e+00
7.219922e+01 4.173913e-01 3.926042e-02 5.884124e-01 -1.308594e+00 1.179688e+00
7.224219e+01 4.173913e-01 3.927778e-02 5.884712e-01 -1.308594e+00 1.179688e+00
7.229297e+01 4.217391e-01 3.925347e-02 5.884901e-01 -1.308594e+00 1.179688e+00
7.229297e+01 4.217391e-01 3.924653e-02 5.885293e-01 -1.308594e+00 1.179688e+00
7.201172e+01 4.217391e-01 3.923264e-02 5.885336e-01 -1.308594e+00 1.179688e+00
7.224219e+01 4.173913e-01 3.924479e-02 5.885470e-01 -1.308594e+00 1.179688e+00
7.228906e+01 4.173913e-01 3.926042e-02 5.885628e-01 -1.308594e+00 1.179688e+00
7.230078e+01 4.173913e-01 3.928125e-02 5.886868e-01 -1.312500e+00 1.183594e+00
7.204688e+01 4.217391e-01 3.924653e-02 5.887791e-01 -1.316406e+00 1.187500e+00
7.204688e+01 4.217391e-01 3.923264e-02 5.887871e-01 -1.316406e+00 1.187500e+00
7.189062e+01 4.217391e-01 3.924306e-02 5.888154e-01 -1.320312e+00 1.191406e+00
7.182422e+01 4.217391e-01 3.923437e-02 5.888584e-01 -1.320312e+00 1.191406e+00
7.182422e+01 4.217391e-01 3.923090e-02 5.888917e-01 -1.320312e+00 1.191406e+00
7.222266e+01 4.217391e-01 3.923611e-02 5.888871e-01 -1.320312e+00 1.191406e+00
7.216797e+01 4.217391e-01 3.924306e-02 5.888939e-01 -1.320312e+00 1.191406e+00
7.210547e+01 4.217391e-01 3.927604e-02 5.889472e-01 -1.324219e+00 1.195312e+00
7.234766e+01 4.217391e-01 3.926736e-02 5.889682e-01 -1.324219e+00 1.195312e+00
7.234766e+01 4.217391e-01 3.924479e-02 5.890252e-01 -1.324219e+00 1.195312e+00
7.264062e+01 4.217391e-01 3.925694e-02 5.890488e-01 -1.328125e+00 1.199219e+00
7.219922e+01 4.217391e-01 3.928472e-02 5.890777e-01 -1.328125e+00 1.199219e+00
7.242188e+01 4.217391e-01 3.927778e-02 5.890781e-01 -1.328125e+00 1.199219e+00
7.210547e+01 4.217391e-01 3.925000e-02 5.891481e-01 -1.332031e+00 1.199219e+00
7.234375e+01 4.217391e-01 3.923958e-02 5.891473e-01 -1.328125e+00 1.199219e+00
7.212891e+01 4.217391e-01 3.920486e-02 5.891821e-01 -1.328125e+00 1.199219e+00
7.206641e+01 4.217391e-01 3.917187e-02 5.891634e-01 -1.324219e+00 1.195312e+00
7.208984e+01 4.217391e-01 3.917361e-02 5.891857e-01 -1.324219e+00 1.195312e+00
7.200391e+01 4.217391e-01 3.915451e-02 5.891890e-01 -1.324219e+00 1.195312e+00
7.194922e+01 4.217391e-01 3.917882e-02 5.892279e-01 -1.324219e+00 1.199219e+00
7.233594e+01 4.217391e-01 3.916667e-02 5.892602e-01 -1.324219e+00 1.199219e+00
7.197266e+01 4.217391e-01 3.914931e-02 5.893023e-01 -1.320312e+00 1.199219e+00
7.184766e+01 4.217391e-01 3.914236e-02 5.893341e-01 -1.320312e+00 1.199219e+00
7.182812e+01 4.217391e-01 3.913021e-02 5.893187e-01 -1.320312e+00 1.199219e+00
7.176172e+01 4.217391e-01 3.911285e-02 5.893319e-01 -1.320312e+00 1.199219e+00
7.212500e+01 4.217391e-01 3.908507e-02 5.893591e-01 -1.320312e+00 1.199219e+00
7.220703e+01 4.217391e-01 3.908333e-02 5.894284e-01 -1.320312e+00 1.203125e+00
7.179297e+01 4.217391e-01 3.907118e-02 5.894902e-01 -1.324219e+00 1.207031e+00
7.179297e+01 4.217391e-01 3.906250e-02 5.894821e-01 -1.320312e+00 1.203125e+00
7.180859e+01 4.217391e-01 3.906250e-02 5.894864e-01 -1.320312e+00 1.203125e+00
7.206641e+01 4.217391e-01 3.906250e-02 5.895004e-01 -1.320312e+00 1.203125e+00
7.180469e+01 4.217391e-01 3.905382e-02 5.895492e-01 -1.320312e+00 1.203125e+00
7.184766e+01 4.217391e-01 3.905556e-02 5.895955e-01 -1.324219e+00 1.207031e+00
7.184766e+01 4.217391e-01 3.904514e-02 5.896013e-01 -1.320312e+00 1.203125e+00
7.177734e+01 4.217391e-01 3.904167e-02 5.896087e-01 -1.320312e+00 1.203125e+00
7.177734e+01 4.217391e-01 3.905035e-02 5.896271e-01 -1.320312e+00 1.203125e+00
7.203906e+01 4.217391e-01 3.902083e-02 5.896862e-01 -1.324219e+00 1.207031e+00
7.199609e+01 4.217391e-01 3.902431e-02 5.897126e-01 -1.320312e+00 1.207031e+00
7.211719e+01 4.217391e-01 3.898438e-02 5.897812e-01 -1.328125e+00 1.210938e+00
7.195703e+01 4.217391e-01 3.895139e-02 5.898297e-01 -1.320312e+00 1.207031e+00
7.203516e+01 4.217391e-01 3.896354e-02 5.898428e-01 -1.320312e+00 1.207031e+00
7.204297e+01 4.217391e-01 3.896181e-02 5.898599e-01 -1.320312e+00 1.207031e+00
7.201172e+01 4.217391e-01 3.898264e-02 5.899155e-01 -1.324219e+00 1.210938e+00
7.201172e+01 4.217391e-01 3.897569e-02 5.899469e-01 -1.320312e+00 1.210938e+00
7.194531e+01 4.217391e-01 3.897396e-02 5.899430e-01 -1.324219e+00 1.214844e+00
7.194531e+01 4.217391e-01 3.896701e-02 5.899417e-01 -1.320312e+00 1.210938e+00
7.194531e+01 4.217391e-01 3.896701e-02 5.899482e-01 -1.320312e+00 1.210938e+00
7.194531e+01 4.217391e-01 3.895833e-02 5.899708e-01 -1.320312e+00 1.210938e+00
7.200781e+01 4.217391e-01 3.895139e-02 5.900610e-01 -1.324219e+00 1.214844e+00
7.216016e+01 4.217391e-01 3.894792e-02 5.901332e-01 -1.328125e+00 1.218750e+00
7.192969e+01 4.217391e-01 3.895313e-02 5.902011e-01 -1.328125e+00 1.222656e+00
7.195312e+01 4.217391e-01 3.893056e-02 5.902779e-01 -1.328125e+00 1.222656e+00
7.195312e+01 4.217391e-01 3.892708e-02 5.902970e-01 -1.328125e+00 1.222656e+00
7.182031e+01 4.217391e-01 3.891493e-02 5.903126e-01 -1.332031e+00 1.222656e+00
7.173047e+01 4.217391e-01 3.889236e-02 5.903484e-01 -1.335938e+00 1.226562e+00
7.173047e+01 4.217391e-01 3.888889e-02 5.903547e-01 -1.332031e+00 1.222656e+00
7.181641e+01 4.217391e-01 3.888194e-02 5.903626e-01 -1.332031e+00 1.222656e+00
7.171875e+01 4.217391e-01 3.888194e-02 5.903633e-01 -1.332031e+00 1.222656e+00
7.199219e+01 4.217391e-01 3.888368e-02 5.903861e-01 -1.335938e+00 1.222656e+00
7.169922e+01 4.217391e-01 3.889236e-02 5.904618e-01 -1.335938e+00 1.222656e+00
7.214453e+01 4.217391e-01 3.888194e-02 5.904780e-01 -1.339844e+00 1.226562e+00
7.189062e+01 4.217391e-01 3.888715e-02 5.905575e-01 -1.339844e+00 1.226562e+00
7.173438e+01 4.217391e-01 3.887326e-02 5.906365e-01 -1.343750e+00 1.226562e+00
7.174609e+01 4.217391e-01 3.882813e-02 5.907806e-01 -1.347656e+00 1.234375e+00
7.176953e+01 4.217391e-01 3.879167e-02 5.908023e-01 -1.339844e+00 1.230469e+00
7.164453e+01 4.217391e-01 3.878819e-02 5.908723e-01 -1.339844e+00 1.230469e+00
7.158203e+01 4.217391e-01 3.879861e-02 5.909704e-01 -1.343750e+00 1.234375e+00
7.160938e+01 4.217391e-01 3.878125e-02 5.910466e-01 -1.347656e+00 1.238281e+00
7.160938e+01 4.217391e-01 3.877604e-02 5.910799e-01 -1.347656e+00 1.238281e+00
7.160938e+01 4.217391e-01 3.876389e-02 5.911058e-01 -1.347656e+00 1.238281e+00
7.185156e+01 4.217391e-01 3.875521e-02 5.911475e-01 -1.343750e+00 1.238281e+00
