3.248435e+02 4.811083e-01 7.537922e-03 5.773427e-01 -9.990234e-01 9.987793e-01
3.095923e+02 4.811083e-01 -1.181613e-02 6.331632e-01 -3.445068e+00 2.581299e+00
2.993455e+02 4.811083e-01 -3.107817e-02 8.679311e-01 -5.360840e+00 5.039795e+00
2.829070e+02 4.811083e-01 -2.151717e-02 1.116305e+00 -6.041016e+00 8.272217e+00
2.635771e+02 4.811083e-01 -6.838224e-03 1.337093e+00 -6.923340e+00 1.023828e+01
2.494043e+02 4.811083e-01 2.624172e-02 1.544918e+00 -8.692871e+00 1.168872e+01
2.357224e+02 3.438287e-01 4.940079e-02 1.729833e+00 -1.008594e+01 1.271509e+01
2.265242e+02 2.216625e-01 5.171780e-02 1.907278e+00 -1.132056e+01 1.339380e+01
2.178972e+02 1.989924e-01 5.913783e-02 2.066640e+00 -1.216797e+01 1.392236e+01
2.116511e+02 2.027708e-01 5.958567e-02 2.213436e+00 -1.296655e+01 1.463623e+01
2.035730e+02 2.002519e-01 5.595700e-02 2.345984e+00 -1.371851e+01 1.507153e+01
1.979302e+02 1.926952e-01 3.895583e-02 2.483035e+00 -1.396094e+01 1.534082e+01
1.906968e+02 1.889169e-01 -7.521489e-03 2.632038e+00 -1.352173e+01 1.554077e+01
1.867810e+02 1.977330e-01 -4.035958e-02 2.792643e+00 -1.317896e+01 1.590381e+01
1.882539e+02 2.002519e-01 -6.643426e-02 2.956152e+00 -1.396997e+01 1.652954e+01
1.856189e+02 1.952141e-01 -6.638403e-02 3.125477e+00 -1.593115e+01 1.800830e+01
1.802668e+02 1.989924e-01 -5.002618e-02 3.302423e+00 -1.694360e+01 1.939502e+01
1.746680e+02 1.964736e-01 -5.281754e-02 3.477670e+00 -1.892041e+01 2.117529e+01
1.712388e+02 2.027708e-01 -5.257897e-02 3.637215e+00 -2.084326e+01 2.236816e+01
1.695405e+02 1.926952e-01 -4.535593e-02 3.768669e+00 -2.220117e+01 2.348657e+01
1.639966e+02 1.926952e-01 -2.498051e-02 3.889239e+00 -2.313330e+01 2.429834e+01
1.635847e+02 2.040302e-01 -5.760490e-03 4.000168e+00 -2.345557e+01 2.464624e+01
1.568584e+02 1.939547e-01 -9.373585e-03 4.109674e+00 -2.371948e+01 2.492651e+01
1.521167e+02 2.002519e-01 -1.425561e-02 4.220244e+00 -2.382324e+01 2.514673e+01
1.516016e+02 2.027708e-01 -5.661669e-02 4.334416e+00 -2.458252e+01 2.503760e+01
1.496560e+02 1.964736e-01 -7.138052e-02 4.459756e+00 -2.589185e+01 2.531152e+01
1.460554e+02 1.964736e-01 -1.032375e-01 4.605467e+00 -2.667773e+01 2.565796e+01
1.386379e+02 1.889169e-01 -1.527812e-01 4.761916e+00 -2.721582e+01 2.593921e+01
1.388135e+02 1.863980e-01 -1.902969e-01 4.922973e+00 -2.875708e+01 2.652417e+01
1.396726e+02 1.838791e-01 -2.094446e-01 5.080325e+00 -3.119971e+01 2.697827e+01
1.382947e+02 1.876574e-01 -2.479815e-01 5.232143e+00 -3.269409e+01 2.700513e+01
1.374414e+02 1.914358e-01 -2.579810e-01 5.379332e+00 -3.492578e+01 2.702441e+01
1.389341e+02 1.863980e-01 -2.396794e-01 5.523423e+00 -3.621387e+01 2.704492e+01
1.366138e+02 1.863980e-01 -2.196440e-01 5.686930e+00 -3.781860e+01 2.706299e+01
1.365103e+02 1.876574e-01 -2.379254e-01 5.831142e+00 -3.782666e+01 2.708789e+01
1.412126e+02 1.977330e-01 -2.598209e-01 5.974533e+00 -3.785913e+01 2.713232e+01
1.385671e+02 1.901763e-01 -2.758286e-01 6.118590e+00 -3.789209e+01 2.716650e+01
1.415833e+02 1.914358e-01 -2.599470e-01 6.253824e+00 -3.792578e+01 2.717603e+01
1.421731e+02 1.939547e-01 -2.410463e-01 6.377346e+00 -3.795288e+01 2.718237e+01
1.437195e+02 1.952141e-01 -2.280616e-01 6.496985e+00 -3.796875e+01 2.718359e+01
1.452290e+02 1.977330e-01 -2.488763e-01 6.612447e+00 -3.799927e+01 2.728687e+01
1.460835e+02 1.964736e-01 -2.501063e-01 6.718998e+00 -3.802197e+01 2.753662e+01
1.493193e+02 2.002519e-01 -2.383210e-01 6.821127e+00 -3.804370e+01 2.770239e+01
1.520156e+02 2.103275e-01 -2.191345e-01 6.910848e+00 -3.805884e+01 2.793774e+01
1.518948e+02 2.078086e-01 -2.212571e-01 6.996309e+00 -3.807300e+01 2.786328e+01
1.524353e+02 2.090680e-01 -2.298536e-01 7.075525e+00 -3.898267e+01 2.892017e+01
1.491467e+02 2.015113e-01 -2.305357e-01 7.155459e+00 -4.020972e+01 3.109839e+01
1.480518e+02 2.015113e-01 -2.275826e-01 7.216801e+00 -4.021240e+01 3.193140e+01
1.485823e+02 2.040302e-01 -2.333322e-01 7.274090e+00 -4.021265e+01 3.229761e+01
1.468232e+02 1.977330e-01 -2.487881e-01 7.329726e+00 -4.022217e+01 3.233325e+01
1.473118e+02 1.964736e-01 -2.530552e-01 7.383741e+00 -4.022778e+01 3.237158e+01
1.502585e+02 1.939547e-01 -2.535220e-01 7.433673e+00 -4.023096e+01 3.239258e+01
1.519534e+02 1.939547e-01 -2.426924e-01 7.489344e+00 -4.022803e+01 3.240430e+01
1.528359e+02 1.901763e-01 -2.435905e-01 7.543102e+00 -4.022290e+01 3.241846e+01
1.516084e+02 1.939547e-01 -2.646935e-01 7.580586e+00 -4.022705e+01 3.242920e+01
1.523264e+02 2.002519e-01 -2.815037e-01 7.615811e+00 -4.023462e+01 3.243677e+01
1.540537e+02 2.052897e-01 -2.957166e-01 7.647739e+00 -4.024316e+01 3.243994e+01
1.546504e+02 2.065491e-01 -3.079869e-01 7.673139e+00 -4.025269e+01 3.244922e+01
1.516616e+02 1.989924e-01 -3.127560e-01 7.688806e+00 -4.026196e+01 3.245728e+01
1.479087e+02 1.952141e-01 -2.916438e-01 7.721219e+00 -4.027002e+01 3.246533e+01
1.443550e+02 1.914358e-01 -2.852823e-01 7.756957e+00 -4.027734e+01 3.246777e+01
1.482771e+02 1.977330e-01 -2.976824e-01 7.797027e+00 -4.028223e+01 3.340088e+01
1.511326e+02 2.027708e-01 -2.921551e-01 7.838731e+00 -4.028442e+01 3.497461e+01
1.509353e+02 1.977330e-01 -2.809538e-01 7.871797e+00 -4.028491e+01 3.594067e+01
1.508774e+02 1.939547e-01 -2.833222e-01 7.908280e+00 -4.028418e+01 3.597168e+01
1.496721e+02 1.952141e-01 -2.816827e-01 7.953046e+00 -4.027954e+01 3.649536e+01
1.481665e+02 1.964736e-01 -2.670358e-01 8.002026e+00 -4.026929e+01 3.687085e+01
1.456548e+02 1.952141e-01 -2.309460e-01 8.053431e+00 -4.026514e+01 3.675684e+01
1.439402e+02 1.889169e-01 -2.044257e-01 8.099646e+00 -4.027148e+01 3.745288e+01
1.432332e+02 1.876574e-01 -1.914746e-01 8.138758e+00 -4.027417e+01 3.764819e+01
1.443354e+02 1.876574e-01 -1.888623e-01 8.175796e+00 -4.026489e+01 3.753662e+01
1.437021e+02 1.863980e-01 -1.941227e-01 8.208358e+00 -4.025537e+01 3.695581e+01
1.462363e+02 1.939547e-01 -1.890559e-01 8.238389e+00 -4.026416e+01 3.647388e+01
1.495039e+02 1.952141e-01 -1.880726e-01 8.267517e+00 -4.027344e+01 3.521484e+01
1.497925e+02 1.952141e-01 -1.988792e-01 8.302806e+00 -4.027808e+01 3.546216e+01
1.492507e+02 1.989924e-01 -2.316392e-01 8.335384e+00 -4.028540e+01 3.546680e+01
1.504170e+02 2.002519e-01 -2.479203e-01 8.359196e+00 -4.028809e+01 3.676929e+01
1.519851e+02 2.052897e-01 -2.546826e-01 8.379821e+00 -4.028809e+01 3.766113e+01
1.539424e+02 2.027708e-01 -2.520313e-01 8.404606e+00 -4.028564e+01 3.950342e+01
1.535232e+02 2.027708e-01 -2.411154e-01 8.418023e+00 -4.028564e+01 3.985254e+01
1.503538e+02 1.964736e-01 -2.270064e-01 8.429200e+00 -4.028442e+01 4.021582e+01
1.484763e+02 1.939547e-01 -2.229765e-01 8.439767e+00 -4.028467e+01 4.052686e+01
1.485593e+02 1.838791e-01 -2.216435e-01 8.457161e+00 -4.028979e+01 4.110962e+01
1.457000e+02 1.851385e-01 -2.221542e-01 8.477848e+00 -4.031006e+01 4.200220e+01
1.466479e+02 1.876574e-01 -2.330596e-01 8.491368e+00 -4.033447e+01 4.324512e+01
1.453030e+02 1.876574e-01 -2.413287e-01 8.506658e+00 -4.048755e+01 4.420898e+01
1.431208e+02 1.863980e-01 -2.452504e-01 8.522443e+00 -4.078857e+01 4.468726e+01
1.420010e+02 1.826196e-01 -2.498497e-01 8.538881e+00 -4.087378e+01 4.475269e+01
1.457136e+02 1.876574e-01 -2.365448e-01 8.559956e+00 -4.104395e+01 4.445215e+01
1.480447e+02 1.901763e-01 -2.304400e-01 8.583094e+00 -4.126807e+01 4.514819e+01
1.477034e+02 1.851385e-01 -2.380778e-01 8.606891e+00 -4.133716e+01 4.565796e+01
1.477939e+02 1.838791e-01 -2.351729e-01 8.621397e+00 -4.154443e+01 4.519971e+01
1.478218e+02 1.914358e-01 -2.216770e-01 8.630246e+00 -4.166528e+01 4.413647e+01
1.482708e+02 1.863980e-01 -2.120737e-01 8.635325e+00 -4.175244e+01 4.326782e+01
1.475208e+02 1.914358e-01 -2.015846e-01 8.650862e+00 -4.188940e+01 4.352490e+01
1.468784e+02 1.901763e-01 -2.194643e-01 8.671480e+00 -4.205664e+01 4.401099e+01
1.450420e+02 1.863980e-01 -2.311516e-01 8.689984e+00 -4.218872e+01 4.357739e+01
1.447512e+02 1.914358e-01 -2.345595e-01 8.706821e+00 -4.236279e+01 4.307593e+01
1.452046e+02 1.876574e-01 -2.327090e-01 8.728567e+00 -4.251929e+01 4.389844e+01
1.455840e+02 1.876574e-01 -2.320118e-01 8.756039e+00 -4.269873e+01 4.493018e+01
1.454558e+02 1.901763e-01 -2.333546e-01 8.780639e+00 -4.285327e+01 4.561353e+01
1.464580e+02 1.863980e-01 -2.383801e-01 8.801274e+00 -4.294971e+01 4.588013e+01
1.456511e+02 1.889169e-01 -2.462747e-01 8.818019e+00 -4.307861e+01 4.592139e+01
1.453989e+02 1.901763e-01 -2.486995e-01 8.832571e+00 -4.322949e+01 4.587183e+01
1.474353e+02 1.939547e-01 -2.492626e-01 8.843171e+00 -4.337451e+01 4.567920e+01
1.456626e+02 1.926952e-01 -2.590999e-01 8.856769e+00 -4.348828e+01 4.570044e+01
1.486929e+02 1.964736e-01 -2.595356e-01 8.882290e+00 -4.352515e+01 4.680200e+01
1.487788e+02 1.952141e-01 -2.448145e-01 8.920900e+00 -4.352979e+01 4.796631e+01
1.468264e+02 1.876574e-01 -2.343461e-01 8.959790e+00 -4.340918e+01 4.885376e+01
1.455081e+02 1.863980e-01 -2.296572e-01 8.988237e+00 -4.323389e+01 4.975610e+01
1.430647e+02 1.826196e-01 -2.217713e-01 9.015886e+00 -4.318677e+01 5.106958e+01
1.431421e+02 1.838791e-01 -2.179851e-01 9.040801e+00 -4.322339e+01 5.190576e+01
1.457158e+02 1.863980e-01 -2.159433e-01 9.056606e+00 -4.327368e+01 5.191040e+01
1.467883e+02 1.914358e-01 -2.108148e-01 9.072151e+00 -4.329199e+01 5.228613e+01
1.478408e+02 1.914358e-01 -2.042263e-01 9.083096e+00 -4.361182e+01 5.304175e+01
1.459385e+02 1.863980e-01 -2.127610e-01 9.097087e+00 -4.407373e+01 5.325562e+01
1.441748e+02 1.826196e-01 -2.187355e-01 9.107403e+00 -4.441846e+01 5.291528e+01
1.418889e+02 1.788413e-01 -2.230100e-01 9.111151e+00 -4.448071e+01 5.296753e+01
1.411248e+02 1.788413e-01 -2.288133e-01 9.109354e+00 -4.443921e+01 5.317188e+01
1.401257e+02 1.813602e-01 -2.265275e-01 9.105581e+00 -4.470654e+01 5.325684e+01
1.406094e+02 1.826196e-01 -2.176633e-01 9.102839e+00 -4.499756e+01 5.333374e+01
1.424036e+02 1.901763e-01 -2.141611e-01 9.110898e+00 -4.507080e+01 5.364526e+01
1.418635e+02 1.876574e-01 -2.098180e-01 9.123640e+00 -4.525122e+01 5.395215e+01
1.425791e+02 1.863980e-01 -1.991461e-01 9.138163e+00 -4.538599e+01 5.410767e+01
1.428940e+02 1.901763e-01 -1.950790e-01 9.161085e+00 -4.540894e+01 5.414917e+01
1.432476e+02 1.838791e-01 -1.921860e-01 9.183048e+00 -4.539990e+01 5.410352e+01
1.433433e+02 1.876574e-01 -1.872423e-01 9.193985e+00 -4.517969e+01 5.401147e+01
1.402581e+02 1.813602e-01 -1.768465e-01 9.195469e+00 -4.503320e+01 5.375220e+01
1.406277e+02 1.826196e-01 -1.717325e-01 9.195154e+00 -4.493213e+01 5.350903e+01
1.427349e+02 1.838791e-01 -1.742475e-01 9.197616e+00 -4.497729e+01 5.333643e+01
1.413054e+02 1.826196e-01 -1.769303e-01 9.201305e+00 -4.523608e+01 5.302002e+01
1.401294e+02 1.813602e-01 -1.834931e-01 9.204553e+00 -4.559619e+01 5.286450e+01
1.393486e+02 1.826196e-01 -1.911850e-01 9.204160e+00 -4.592822e+01 5.271362e+01
1.398284e+02 1.838791e-01 -1.992255e-01 9.202243e+00 -4.610229e+01 5.254297e+01
1.399856e+02 1.813602e-01 -2.045640e-01 9.200741e+00 -4.621289e+01 5.240454e+01
