1.020710e+02 4.217391e-01 -2.129235e-02 5.705657e-01 -9.990692e-01 9.969788e-01
6.676122e+01 3.869565e-01 -2.393201e-02 5.659155e-01 -1.066925e+00 1.075134e+00
6.407935e+01 3.608696e-01 -2.407469e-02 5.664329e-01 -1.053879e+00 1.111877e+00
6.265184e+01 3.086957e-01 -2.506249e-02 5.674862e-01 -1.067047e+00 1.129166e+00
6.299715e+01 3.782609e-01 -2.520731e-02 5.683205e-01 -1.075287e+00 1.171844e+00
6.333894e+01 3.608696e-01 -2.557927e-02 5.691550e-01 -1.088333e+00 1.187393e+00
6.377551e+01 3.086957e-01 -2.699772e-02 5.731937e-01 -1.117340e+00 1.237961e+00
5.846767e+01 3.652174e-01 -2.962124e-02 5.747240e-01 -1.117889e+00 1.220215e+00
5.702124e+01 2.826087e-01 -3.010270e-02 5.756857e-01 -1.125534e+00 1.198059e+00
5.896147e+01 2.782609e-01 -3.115598e-02 5.798429e-01 -1.155487e+00 1.272552e+00
4.994601e+01 2.347826e-01 -3.512827e-02 5.935370e-01 -1.316620e+00 1.509537e+00
4.568568e+01 2.434783e-01 -3.972620e-02 6.240540e-01 -1.440674e+00 1.649506e+00
4.508435e+01 2.347826e-01 -4.126421e-02 6.319833e-01 -1.485840e+00 1.708130e+00
4.461272e+01 2.260870e-01 -4.305321e-02 6.336152e-01 -1.493103e+00 1.734741e+00
4.633311e+01 2.304348e-01 -4.416187e-02 6.338976e-01 -1.493103e+00 1.734741e+00
4.377092e+01 2.173913e-01 -4.524474e-02 6.362318e-01 -1.524750e+00 1.857239e+00
4.131003e+01 2.130435e-01 -4.816810e-02 6.434087e-01 -1.544434e+00 1.886566e+00
4.171480e+01 2.130435e-01 -4.864910e-02 6.440517e-01 -1.544434e+00 1.875519e+00
3.992621e+01 1.826087e-01 -4.954568e-02 6.432997e-01 -1.541290e+00 1.871124e+00
4.213568e+01 1.956522e-01 -5.089392e-02 6.419399e-01 -1.550461e+00 1.873810e+00
4.002281e+01 1.913043e-01 -5.124537e-02 6.425030e-01 -1.541733e+00 1.859268e+00
4.065956e+01 2.000000e-01 -5.233137e-02 6.424098e-01 -1.566696e+00 1.860229e+00
4.031187e+01 1.869565e-01 -5.360688e-02 6.418784e-01 -1.570221e+00 1.847809e+00
4.075722e+01 1.913043e-01 -5.356901e-02 6.426451e-01 -1.571533e+00 1.849625e+00
4.075722e+01 1.913043e-01 -5.356901e-02 6.426451e-01 -1.571533e+00 1.849625e+00
3.895264e+01 1.695652e-01 -5.382527e-02 6.426734e-01 -1.575821e+00 1.858673e+00
3.669380e+01 1.869565e-01 -5.417153e-02 6.426634e-01 -1.587204e+00 1.838104e+00
4.006740e+01 1.782609e-01 -5.598463e-02 6.457013e-01 -1.601288e+00 1.834946e+00
4.031642e+01 2.086957e-01 -5.637184e-02 6.480733e-01 -1.699615e+00 1.848633e+00
3.888800e+01 1.869565e-01 -5.700593e-02 6.488754e-01 -1.690872e+00 1.836105e+00
3.993993e+01 1.956522e-01 -5.743410e-02 6.482224e-01 -1.731262e+00 1.825592e+00
4.107065e+01 1.956522e-01 -5.820781e-02 6.477160e-01 -1.731262e+00 1.782730e+00
4.115584e+01 2.000000e-01 -5.858306e-02 6.476036e-01 -1.742447e+00 1.781387e+00
4.144258e+01 2.217391e-01 -5.910759e-02 6.496666e-01 -1.744858e+00 1.817062e+00
4.052727e+01 1.869565e-01 -6.013653e-02 6.503409e-01 -1.750610e+00 1.802658e+00
4.047418e+01 1.826087e-01 -6.123104e-02 6.512292e-01 -1.757111e+00 1.806290e+00
4.088371e+01 1.869565e-01 -6.127331e-02 6.515163e-01 -1.753677e+00 1.815521e+00
4.208929e+01 1.782609e-01 -6.167149e-02 6.516260e-01 -1.760544e+00 1.805954e+00
4.208929e+01 1.782609e-01 -6.193026e-02 6.517139e-01 -1.760544e+00 1.805038e+00
4.054538e+01 1.782609e-01 -6.180309e-02 6.520868e-01 -1.766388e+00 1.810089e+00
4.109521e+01 1.826087e-01 -6.190543e-02 6.528626e-01 -1.770279e+00 1.815201e+00
4.081761e+01 1.782609e-01 -6.206187e-02 6.532743e-01 -1.779999e+00 1.823853e+00
4.129280e+01 1.869565e-01 -6.233838e-02 6.551403e-01 -1.783234e+00 1.824600e+00
4.008104e+01 2.000000e-01 -6.254229e-02 6.554707e-01 -1.788010e+00 1.857162e+00
4.025079e+01 2.173913e-01 -6.466446e-02 6.578927e-01 -1.821442e+00 1.887146e+00
4.053101e+01 2.086957e-01 -6.644001e-02 6.600973e-01 -1.837830e+00 1.898895e+00
3.872609e+01 2.000000e-01 -6.605323e-02 6.593625e-01 -1.839417e+00 1.890518e+00
3.963890e+01 2.086957e-01 -6.488884e-02 6.608207e-01 -1.841797e+00 1.909912e+00
3.899330e+01 1.826087e-01 -6.533936e-02 6.610358e-01 -1.855530e+00 1.912170e+00
3.995427e+01 1.913043e-01 -6.584451e-02 6.620123e-01 -1.863388e+00 1.912170e+00
3.948643e+01 1.826087e-01 -6.581044e-02 6.621332e-01 -1.863388e+00 1.921265e+00
3.978752e+01 1.869565e-01 -6.578690e-02 6.625374e-01 -1.861542e+00 1.926956e+00
3.923311e+01 1.869565e-01 -6.624353e-02 6.619784e-01 -1.855194e+00 1.924194e+00
3.847871e+01 1.869565e-01 -6.646698e-02 6.617965e-01 -1.855179e+00 1.945847e+00
3.909390e+01 2.000000e-01 -6.625949e-02 6.627142e-01 -1.855179e+00 1.955948e+00
4.092711e+01 2.000000e-01 -6.549703e-02 6.639691e-01 -1.859329e+00 1.975067e+00
3.918887e+01 1.956522e-01 -6.686922e-02 6.646191e-01 -1.871902e+00 1.992340e+00
3.934198e+01 1.956522e-01 -6.668030e-02 6.661311e-01 -1.863754e+00 2.003616e+00
4.115811e+01 2.173913e-01 -6.846085e-02 6.666469e-01 -1.897858e+00 2.009552e+00
4.132729e+01 1.956522e-01 -6.930972e-02 6.665729e-01 -1.893036e+00 2.029053e+00
4.100162e+01 2.130435e-01 -7.004948e-02 6.669764e-01 -1.900101e+00 2.027008e+00
3.863860e+01 1.782609e-01 -7.079027e-02 6.665745e-01 -1.900101e+00 2.046494e+00
3.925638e+01 2.000000e-01 -7.096112e-02 6.673740e-01 -1.896851e+00 2.051346e+00
3.808537e+01 1.782609e-01 -7.087381e-02 6.683820e-01 -1.901093e+00 2.082214e+00
3.914262e+01 1.869565e-01 -7.027929e-02 6.693707e-01 -1.896393e+00 2.082214e+00
3.976468e+01 1.869565e-01 -7.018795e-02 6.697367e-01 -1.900421e+00 2.091339e+00
3.844112e+01 2.000000e-01 -7.054392e-02 6.709130e-01 -1.907166e+00 2.112244e+00
3.993318e+01 1.869565e-01 -7.034946e-02 6.712049e-01 -1.903152e+00 2.120682e+00
3.899103e+01 2.086957e-01 -7.036457e-02 6.711726e-01 -1.908905e+00 2.123993e+00
3.914891e+01 1.913043e-01 -7.016698e-02 6.715117e-01 -1.915161e+00 2.131973e+00
3.858128e+01 1.913043e-01 -7.057013e-02 6.717362e-01 -1.915161e+00 2.132904e+00
3.858128e+01 1.913043e-01 -7.055805e-02 6.717810e-01 -1.914948e+00 2.132904e+00
3.781720e+01 1.826087e-01 -7.061104e-02 6.719591e-01 -1.916855e+00 2.149796e+00
3.833650e+01 1.782609e-01 -7.081263e-02 6.727244e-01 -1.916855e+00 2.164719e+00
3.925266e+01 1.913043e-01 -7.206387e-02 6.727816e-01 -1.909225e+00 2.143463e+00
3.868481e+01 1.869565e-01 -7.168804e-02 6.741177e-01 -1.914337e+00 2.181824e+00
3.898007e+01 1.782609e-01 -7.247683e-02 6.739418e-01 -1.934753e+00 2.181824e+00
3.860709e+01 1.826087e-01 -7.346467e-02 6.753578e-01 -1.925552e+00 2.175797e+00
3.926822e+01 1.826087e-01 -7.433342e-02 6.767615e-01 -1.929108e+00 2.194656e+00
3.966388e+01 1.782609e-01 -7.473355e-02 6.767524e-01 -1.928040e+00 2.200775e+00
3.923433e+01 1.782609e-01 -7.536917e-02 6.758518e-01 -1.914917e+00 2.188171e+00
3.695474e+01 1.739130e-01 -7.493853e-02 6.767960e-01 -1.917618e+00 2.204483e+00
3.761122e+01 1.826087e-01 -7.473234e-02 6.778453e-01 -1.923477e+00 2.218079e+00
3.833992e+01 1.869565e-01 -7.363272e-02 6.797481e-01 -1.916061e+00 2.255219e+00
3.863222e+01 1.869565e-01 -7.442398e-02 6.798212e-01 -1.895386e+00 2.248260e+00
3.845210e+01 1.782609e-01 -7.608334e-02 6.791641e-01 -1.899445e+00 2.236816e+00
3.808781e+01 1.826087e-01 -7.594135e-02 6.790771e-01 -1.896500e+00 2.239960e+00
3.762361e+01 1.782609e-01 -7.607114e-02 6.810890e-01 -1.917694e+00 2.268951e+00
3.849071e+01 2.000000e-01 -7.643562e-02 6.813229e-01 -1.900055e+00 2.283508e+00
3.819545e+01 1.782609e-01 -7.610382e-02 6.819441e-01 -1.902115e+00 2.286087e+00
3.927179e+01 1.956522e-01 -7.640658e-02 6.825138e-01 -1.902222e+00 2.295807e+00
3.940617e+01 1.913043e-01 -7.697695e-02 6.829537e-01 -1.916504e+00 2.296387e+00
3.891460e+01 1.826087e-01 -7.800307e-02 6.825822e-01 -1.913177e+00 2.302551e+00
4.105553e+01 2.173913e-01 -7.696823e-02 6.832433e-01 -1.905396e+00 2.321274e+00
3.807407e+01 1.782609e-01 -7.737503e-02 6.835843e-01 -1.906799e+00 2.321274e+00
3.759842e+01 1.782609e-01 -7.732789e-02 6.851138e-01 -1.904541e+00 2.343628e+00
3.807065e+01 1.826087e-01 -7.801272e-02 6.855931e-01 -1.901810e+00 2.334579e+00
3.918936e+01 2.043478e-01 -7.966434e-02 6.861315e-01 -1.901016e+00 2.335190e+00
3.855565e+01 1.956522e-01 -8.120947e-02 6.873543e-01 -1.904877e+00 2.340790e+00
3.854857e+01 1.913043e-01 -7.995586e-02 6.895015e-01 -1.904617e+00 2.370148e+00
3.701413e+01 1.869565e-01 -7.991239e-02 6.942108e-01 -1.911453e+00 2.408401e+00
3.879703e+01 1.826087e-01 -8.053049e-02 6.942118e-01 -1.907730e+00 2.419373e+00
3.926103e+01 1.826087e-01 -8.132470e-02 6.936961e-01 -1.925415e+00 2.413971e+00
3.890373e+01 1.956522e-01 -7.894963e-02 6.989842e-01 -1.937149e+00 2.494278e+00
3.862685e+01 1.956522e-01 -8.000663e-02 6.988344e-01 -1.933777e+00 2.496094e+00
3.852135e+01 2.043478e-01 -8.136160e-02 6.992127e-01 -1.944473e+00 2.504700e+00
3.935355e+01 1.956522e-01 -8.147409e-02 6.997100e-01 -1.938461e+00 2.499847e+00
3.944701e+01 1.913043e-01 -8.269976e-02 7.014154e-01 -1.943802e+00 2.513550e+00
3.937086e+01 1.956522e-01 -8.308280e-02 7.019714e-01 -1.944199e+00 2.524429e+00
3.962482e+01 1.913043e-01 -8.330366e-02 7.025165e-01 -1.949371e+00 2.527161e+00
3.919426e+01 1.913043e-01 -8.270637e-02 7.032893e-01 -1.944580e+00 2.536652e+00
3.897978e+01 1.956522e-01 -8.315636e-02 7.045653e-01 -1.947128e+00 2.537582e+00
3.927094e+01 2.043478e-01 -8.309990e-02 7.052392e-01 -1.959091e+00 2.558609e+00
3.913339e+01 2.086957e-01 -8.297129e-02 7.068659e-01 -1.964294e+00 2.563522e+00
3.869662e+01 1.869565e-01 -8.425632e-02 7.070673e-01 -1.960266e+00 2.572464e+00
3.854675e+01 1.956522e-01 -8.614934e-02 7.072500e-01 -1.972565e+00 2.561401e+00
3.909924e+01 2.000000e-01 -8.670119e-02 7.097890e-01 -2.008255e+00 2.584869e+00
3.786214e+01 1.913043e-01 -8.750900e-02 7.104719e-01 -2.009521e+00 2.596161e+00
3.815257e+01 2.043478e-01 -8.705843e-02 7.114074e-01 -2.014542e+00 2.622803e+00
3.838371e+01 2.000000e-01 -8.603298e-02 7.141575e-01 -2.022629e+00 2.651215e+00
3.827669e+01 1.956522e-01 -8.692241e-02 7.142845e-01 -2.017487e+00 2.656174e+00
3.837924e+01 1.782609e-01 -8.695464e-02 7.143782e-01 -2.018677e+00 2.658493e+00
3.813272e+01 1.782609e-01 -8.681526e-02 7.165980e-01 -1.993378e+00 2.675079e+00
3.836392e+01 2.043478e-01 -8.719792e-02 7.166703e-01 -2.009476e+00 2.685486e+00
3.710524e+01 1.956522e-01 -8.721304e-02 7.163609e-01 -2.015564e+00 2.691727e+00
3.810350e+01 2.086957e-01 -8.716503e-02 7.170998e-01 -2.015564e+00 2.700439e+00
3.753915e+01 1.826087e-01 -8.671145e-02 7.181011e-01 -2.011749e+00 2.718155e+00
3.733302e+01 1.826087e-01 -8.615019e-02 7.189329e-01 -1.998413e+00 2.730545e+00
3.907410e+01 1.913043e-01 -8.675599e-02 7.185461e-01 -2.003342e+00 2.730545e+00
3.944769e+01 2.000000e-01 -8.890429e-02 7.185231e-01 -2.046509e+00 2.731949e+00
3.672612e+01 1.913043e-01 -8.952573e-02 7.203911e-01 -2.042999e+00 2.754196e+00
3.812566e+01 1.695652e-01 -8.961522e-02 7.218352e-01 -2.042999e+00 2.754456e+00
3.735808e+01 1.826087e-01 -8.957623e-02 7.221115e-01 -2.026245e+00 2.763992e+00
3.769855e+01 1.826087e-01 -8.796269e-02 7.235599e-01 -2.018250e+00 2.777130e+00
3.877234e+01 1.782609e-01 -9.033277e-02 7.232633e-01 -2.016602e+00 2.777130e+00
3.793623e+01 2.043478e-01 -9.148712e-02 7.229081e-01 -2.024918e+00 2.755066e+00
3.837869e+01 1.913043e-01 -9.104232e-02 7.231385e-01 -2.024918e+00 2.758270e+00
3.884502e+01 1.739130e-01 -8.974371e-02 7.249038e-01 -2.022263e+00 2.788315e+00
3.907420e+01 1.782609e-01 -8.949874e-02 7.256862e-01 -2.025223e+00 2.792603e+00
3.876788e+01 1.826087e-01 -8.986157e-02 7.259873e-01 -2.019928e+00 2.801331e+00
3.917984e+01 1.826087e-01 -8.815761e-02 7.275203e-01 -2.021713e+00 2.809464e+00
3.709242e+01 1.869565e-01 -8.841676e-02 7.275967e-01 -2.027588e+00 2.816025e+00
3.823073e+01 1.739130e-01 -8.927583e-02 7.282563e-01 -2.025864e+00 2.840530e+00
3.805843e+01 1.913043e-01 -8.977529e-02 7.293795e-01 -2.035812e+00 2.840530e+00
4.015463e+01 1.956522e-01 -9.002870e-02 7.294285e-01 -2.034134e+00 2.841583e+00
3.805893e+01 1.956522e-01 -8.958538e-02 7.306094e-01 -2.026840e+00 2.861374e+00
4.008516e+01 1.826087e-01 -8.978221e-02 7.309802e-01 -2.024216e+00 2.861374e+00
3.924263e+01 1.782609e-01 -8.990385e-02 7.313522e-01 -2.026825e+00 2.862732e+00
3.934023e+01 1.826087e-01 -9.015301e-02 7.315715e-01 -2.017471e+00 2.867538e+00
3.862656e+01 1.826087e-01 -8.980899e-02 7.317485e-01 -2.027069e+00 2.881302e+00
3.833595e+01 1.782609e-01 -8.996688e-02 7.319082e-01 -2.025879e+00 2.892059e+00
3.819206e+01 1.782609e-01 -9.044184e-02 7.318035e-01 -2.026871e+00 2.884888e+00
3.572813e+01 1.782609e-01 -8.972845e-02 7.324612e-01 -2.033188e+00 2.894913e+00
3.800180e+01 1.652174e-01 -8.916611e-02 7.335190e-01 -2.033188e+00 2.900894e+00
3.802420e+01 1.739130e-01 -9.125675e-02 7.332629e-01 -2.044250e+00 2.897964e+00
3.830898e+01 1.782609e-01 -9.273397e-02 7.332915e-01 -2.035263e+00 2.890152e+00
3.709764e+01 1.869565e-01 -9.310258e-02 7.341496e-01 -2.034622e+00 2.938614e+00
3.599863e+01 1.826087e-01 -8.983718e-02 7.389079e-01 -2.061234e+00 2.969055e+00
3.789783e+01 1.956522e-01 -9.028380e-02 7.392948e-01 -2.061234e+00 2.956512e+00
3.868961e+01 1.739130e-01 -9.110134e-02 7.391651e-01 -2.055695e+00 2.937332e+00
4.056529e+01 1.913043e-01 -9.445025e-02 7.393173e-01 -2.042587e+00 2.952133e+00
3.860626e+01 1.913043e-01 -9.329476e-02 7.413998e-01 -2.057526e+00 2.963577e+00
3.827654e+01 1.869565e-01 -9.247419e-02 7.422566e-01 -2.068695e+00 2.985977e+00
3.654929e+01 1.739130e-01 -9.206529e-02 7.432806e-01 -2.074371e+00 2.995529e+00
3.903635e+01 1.913043e-01 -9.210978e-02 7.435613e-01 -2.077347e+00 2.995529e+00
3.741522e+01 1.956522e-01 -9.205254e-02 7.434634e-01 -2.080444e+00 2.990036e+00
3.830441e+01 1.869565e-01 -9.214117e-02 7.426356e-01 -2.075943e+00 3.027420e+00
3.879160e+01 1.869565e-01 -9.137416e-02 7.436946e-01 -2.075943e+00 3.027420e+00
3.655151e+01 1.913043e-01 -9.163952e-02 7.449172e-01 -2.092056e+00 3.049988e+00
3.662080e+01 1.913043e-01 -9.202886e-02 7.455118e-01 -2.100037e+00 3.073776e+00
3.743912e+01 1.869565e-01 -9.308535e-02 7.472943e-01 -2.100235e+00 3.101776e+00
3.804292e+01 1.695652e-01 -9.350894e-02 7.477341e-01 -2.099579e+00 3.109344e+00
3.638802e+01 1.652174e-01 -9.190894e-02 7.501336e-01 -2.120316e+00 3.129196e+00
3.403596e+01 1.652174e-01 -9.298299e-02 7.502868e-01 -2.121140e+00 3.127213e+00
3.709866e+01 1.826087e-01 -9.314139e-02 7.513348e-01 -2.121140e+00 3.128235e+00
3.615776e+01 1.652174e-01 -9.330447e-02 7.512603e-01 -2.123871e+00 3.131958e+00
3.757697e+01 1.826087e-01 -9.318647e-02 7.513429e-01 -2.123199e+00 3.130371e+00
3.645940e+01 1.956522e-01 -9.338037e-02 7.528535e-01 -2.095551e+00 3.114487e+00
3.657982e+01 1.913043e-01 -9.257720e-02 7.551419e-01 -2.100342e+00 3.127548e+00
3.733098e+01 1.913043e-01 -9.319603e-02 7.550745e-01 -2.109085e+00 3.132172e+00
3.805402e+01 1.826087e-01 -9.283811e-02 7.555962e-01 -2.112167e+00 3.142349e+00
3.745717e+01 1.826087e-01 -9.197815e-02 7.576567e-01 -2.120758e+00 3.151291e+00
3.768820e+01 1.782609e-01 -9.191963e-02 7.581092e-01 -2.114258e+00 3.147842e+00
3.766689e+01 1.913043e-01 -9.290293e-02 7.580585e-01 -2.118988e+00 3.166138e+00
3.782076e+01 1.826087e-01 -9.288585e-02 7.588752e-01 -2.125397e+00 3.175034e+00
3.796576e+01 1.869565e-01 -9.135300e-02 7.612810e-01 -2.131424e+00 3.187073e+00
3.572208e+01 1.782609e-01 -9.148447e-02 7.617324e-01 -2.131424e+00 3.192139e+00
3.679756e+01 1.826087e-01 -9.259382e-02 7.614382e-01 -2.121613e+00 3.195480e+00
3.890346e+01 1.826087e-01 -9.279772e-02 7.610791e-01 -2.121613e+00 3.195480e+00
3.834782e+01 1.826087e-01 -9.308291e-02 7.611958e-01 -2.119400e+00 3.215698e+00
3.878595e+01 1.956522e-01 -9.319263e-02 7.621507e-01 -2.119400e+00 3.223709e+00
3.847182e+01 1.869565e-01 -9.241793e-02 7.635358e-01 -2.134445e+00 3.237793e+00
3.776741e+01 1.826087e-01 -9.272941e-02 7.645644e-01 -2.140106e+00 3.242920e+00
3.829269e+01 1.695652e-01 -9.286914e-02 7.653707e-01 -2.135376e+00 3.246399e+00
3.634135e+01 1.695652e-01 -9.458539e-02 7.658843e-01 -2.133942e+00 3.250702e+00
3.716130e+01 1.739130e-01 -9.596300e-02 7.656896e-01 -2.117813e+00 3.249130e+00
3.707082e+01 1.739130e-01 -9.523259e-02 7.661682e-01 -2.124435e+00 3.255997e+00
3.692513e+01 1.695652e-01 -9.457018e-02 7.669103e-01 -2.134674e+00 3.272964e+00
3.882353e+01 1.695652e-01 -9.483660e-02 7.676246e-01 -2.145096e+00 3.280777e+00
3.823488e+01 1.782609e-01 -9.515001e-02 7.690203e-01 -2.152405e+00 3.320251e+00
3.694394e+01 1.913043e-01 -9.623558e-02 7.710497e-01 -2.149765e+00 3.323792e+00
3.738979e+01 1.826087e-01 -9.812947e-02 7.713355e-01 -2.109711e+00 3.344513e+00
3.749380e+01 1.739130e-01 -9.666570e-02 7.724600e-01 -2.116180e+00 3.353394e+00
3.657692e+01 1.956522e-01 -9.584295e-02 7.732347e-01 -2.127029e+00 3.358154e+00
3.843808e+01 1.913043e-01 -9.574834e-02 7.753807e-01 -2.132095e+00 3.371307e+00
3.666226e+01 1.782609e-01 -9.393345e-02 7.788529e-01 -2.153748e+00 3.421875e+00
3.623709e+01 1.652174e-01 -9.526268e-02 7.800043e-01 -2.136063e+00 3.422897e+00
3.617407e+01 1.826087e-01 -9.632620e-02 7.797284e-01 -2.146362e+00 3.437393e+00
3.574025e+01 1.869565e-01 -9.577068e-02 7.804853e-01 -2.149948e+00 3.440384e+00
3.622858e+01 1.826087e-01 -9.627009e-02 7.813458e-01 -2.157471e+00 3.445419e+00
3.594162e+01 1.826087e-01 -9.682301e-02 7.819014e-01 -2.157471e+00 3.455307e+00
3.718375e+01 1.869565e-01 -9.687579e-02 7.819790e-01 -2.166702e+00 3.472580e+00
4.273181e+01 2.043478e-01 -9.118965e-02 7.996443e-01 -2.277695e+00 3.677567e+00
3.836157e+01 2.000000e-01 -9.772948e-02 7.942537e-01 -2.297791e+00 3.670700e+00
3.760225e+01 2.043478e-01 -1.002205e-01 7.936794e-01 -2.272537e+00 3.659149e+00
3.917326e+01 1.826087e-01 -9.789882e-02 7.961259e-01 -2.305710e+00 3.685471e+00
3.891911e+01 1.869565e-01 -9.823937e-02 7.977062e-01 -2.305710e+00 3.685471e+00
3.856404e+01 1.913043e-01 -9.898046e-02 7.986882e-01 -2.280991e+00 3.684204e+00
3.833070e+01 1.869565e-01 -9.753422e-02 7.997580e-01 -2.300247e+00 3.694870e+00
3.847005e+01 1.913043e-01 -9.860131e-02 8.004126e-01 -2.298584e+00 3.702209e+00
3.630463e+01 1.739130e-01 -9.904421e-02 8.011091e-01 -2.306030e+00 3.715958e+00
3.691406e+01 1.695652e-01 -1.000109e-01 8.015710e-01 -2.306030e+00 3.716064e+00
3.872372e+01 1.956522e-01 -1.004841e-01 8.022884e-01 -2.300278e+00 3.731995e+00
3.745912e+01 1.782609e-01 -1.004308e-01 8.029903e-01 -2.300278e+00 3.737442e+00
3.781035e+01 1.869565e-01 -9.977466e-02 8.040901e-01 -2.304474e+00 3.747879e+00
3.712033e+01 1.826087e-01 -1.007035e-01 8.056368e-01 -2.308502e+00 3.762482e+00
3.742311e+01 1.782609e-01 -1.012133e-01 8.055532e-01 -2.307083e+00 3.783844e+00
3.927327e+01 1.913043e-01 -1.011030e-01 8.065492e-01 -2.300095e+00 3.787567e+00
3.779301e+01 1.869565e-01 -1.004051e-01 8.075788e-01 -2.311615e+00 3.799316e+00
3.852263e+01 1.826087e-01 -9.949719e-02 8.085134e-01 -2.304779e+00 3.796494e+00
3.853734e+01 1.913043e-01 -1.003350e-01 8.087813e-01 -2.309494e+00 3.809341e+00
3.794061e+01 1.869565e-01 -1.005429e-01 8.095865e-01 -2.309494e+00 3.810852e+00
3.751385e+01 1.869565e-01 -1.022789e-01 8.092169e-01 -2.304886e+00 3.820511e+00
3.860474e+01 1.913043e-01 -1.004866e-01 8.126434e-01 -2.329407e+00 3.846085e+00
4.007625e+01 2.043478e-01 -1.005359e-01 8.140215e-01 -2.336182e+00 3.856613e+00
3.939711e+01 1.956522e-01 -1.003417e-01 8.142712e-01 -2.336380e+00 3.857681e+00
3.848999e+01 1.913043e-01 -1.008767e-01 8.142943e-01 -2.330505e+00 3.861664e+00
3.941254e+01 1.913043e-01 -1.007156e-01 8.151788e-01 -2.339096e+00 3.865585e+00
3.980782e+01 2.043478e-01 -1.001862e-01 8.155148e-01 -2.341324e+00 3.876175e+00
3.996518e+01 2.043478e-01 -1.012998e-01 8.159374e-01 -2.335052e+00 3.883972e+00
4.001112e+01 2.043478e-01 -1.007176e-01 8.171876e-01 -2.339859e+00 3.893097e+00
4.001112e+01 2.043478e-01 -1.005135e-01 8.172482e-01 -2.339859e+00 3.893097e+00
3.963303e+01 2.086957e-01 -1.006119e-01 8.174998e-01 -2.344254e+00 3.895401e+00
4.017450e+01 2.000000e-01 -1.015771e-01 8.178254e-01 -2.338287e+00 3.899750e+00
4.136371e+01 2.043478e-01 -1.008012e-01 8.186997e-01 -2.341980e+00 3.912796e+00
4.231985e+01 2.130435e-01 -1.004964e-01 8.193028e-01 -2.355515e+00 3.921890e+00
4.003192e+01 1.913043e-01 -1.005010e-01 8.204540e-01 -2.367386e+00 3.930450e+00
3.783994e+01 1.782609e-01 -1.001875e-01 8.223293e-01 -2.367386e+00 3.956009e+00
3.767531e+01 1.782609e-01 -1.015494e-01 8.247891e-01 -2.357330e+00 3.965164e+00
3.961635e+01 2.260870e-01 -1.009431e-01 8.270770e-01 -2.388855e+00 3.976242e+00
3.951250e+01 1.956522e-01 -1.025411e-01 8.307494e-01 -2.398224e+00 3.985291e+00
3.894452e+01 2.086957e-01 -1.020379e-01 8.307738e-01 -2.407181e+00 3.991577e+00
4.025894e+01 1.956522e-01 -1.018121e-01 8.313695e-01 -2.407974e+00 3.990936e+00
3.902525e+01 1.956522e-01 -1.029272e-01 8.320782e-01 -2.407974e+00 3.993820e+00
3.883752e+01 1.956522e-01 -1.031135e-01 8.330239e-01 -2.426559e+00 4.004776e+00
3.977211e+01 1.956522e-01 -1.023980e-01 8.359399e-01 -2.436417e+00 4.060089e+00
3.927039e+01 2.086957e-01 -1.049523e-01 8.368705e-01 -2.412796e+00 4.054260e+00
3.876439e+01 2.130435e-01 -1.047991e-01 8.375866e-01 -2.406342e+00 4.056625e+00
3.886327e+01 2.000000e-01 -1.044728e-01 8.383150e-01 -2.404861e+00 4.064499e+00
3.800122e+01 1.913043e-01 -1.041928e-01 8.400542e-01 -2.418808e+00 4.071564e+00
3.864256e+01 1.913043e-01 -1.064733e-01 8.419260e-01 -2.419693e+00 4.096649e+00
3.895062e+01 2.000000e-01 -1.059363e-01 8.436723e-01 -2.442642e+00 4.120377e+00
4.060121e+01 2.130435e-01 -1.060150e-01 8.437761e-01 -2.435410e+00 4.123230e+00
3.856828e+01 2.000000e-01 -1.060833e-01 8.441524e-01 -2.436081e+00 4.131516e+00
3.922383e+01 2.043478e-01 -1.052559e-01 8.454709e-01 -2.449753e+00 4.150116e+00
3.878577e+01 2.086957e-01 -1.047427e-01 8.460723e-01 -2.460297e+00 4.157089e+00
3.885484e+01 2.086957e-01 -1.043329e-01 8.465967e-01 -2.464813e+00 4.160233e+00
3.918581e+01 1.956522e-01 -1.046122e-01 8.471656e-01 -2.474228e+00 4.164062e+00
4.096815e+01 2.086957e-01 -1.059384e-01 8.475311e-01 -2.460922e+00 4.166992e+00
3.886583e+01 2.000000e-01 -1.062509e-01 8.484710e-01 -2.464478e+00 4.168472e+00
4.178888e+01 2.260870e-01 -1.059767e-01 8.494247e-01 -2.464294e+00 4.178223e+00
3.997676e+01 2.086957e-01 -1.049320e-01 8.501171e-01 -2.468246e+00 4.177277e+00
3.952034e+01 2.000000e-01 -1.067217e-01 8.505339e-01 -2.464813e+00 4.192963e+00
3.888312e+01 1.956522e-01 -1.074151e-01 8.511288e-01 -2.464813e+00 4.201630e+00
3.990038e+01 2.043478e-01 -1.079706e-01 8.520528e-01 -2.467285e+00 4.217575e+00
3.849655e+01 1.869565e-01 -1.071682e-01 8.530376e-01 -2.492615e+00 4.236298e+00
3.849655e+01 1.869565e-01 -1.056163e-01 8.543541e-01 -2.492615e+00 4.236298e+00
3.799416e+01 1.826087e-01 -1.061629e-01 8.550847e-01 -2.499832e+00 4.237854e+00
3.911102e+01 1.869565e-01 -1.057874e-01 8.554799e-01 -2.518433e+00 4.246780e+00
3.928307e+01 2.000000e-01 -1.053496e-01 8.556667e-01 -2.518433e+00 4.246780e+00
4.030650e+01 2.000000e-01 -1.064328e-01 8.561294e-01 -2.506363e+00 4.245667e+00
4.032582e+01 1.913043e-01 -1.075472e-01 8.559388e-01 -2.509186e+00 4.248505e+00
3.840115e+01 1.956522e-01 -1.081006e-01 8.562270e-01 -2.501709e+00 4.246399e+00
3.843675e+01 2.086957e-01 -1.102015e-01 8.563600e-01 -2.486572e+00 4.244064e+00
3.960219e+01 2.130435e-01 -1.096143e-01 8.588377e-01 -2.487518e+00 4.249237e+00
3.781798e+01 1.956522e-01 -1.097830e-01 8.595639e-01 -2.499771e+00 4.260101e+00
3.805759e+01 1.913043e-01 -1.103038e-01 8.593802e-01 -2.501114e+00 4.275055e+00
3.895912e+01 2.086957e-01 -1.083183e-01 8.612418e-01 -2.521561e+00 4.291046e+00
3.796852e+01 1.869565e-01 -1.082755e-01 8.615846e-01 -2.529358e+00 4.300522e+00
3.959196e+01 2.086957e-01 -1.089934e-01 8.633248e-01 -2.530060e+00 4.313019e+00
3.887051e+01 2.130435e-01 -1.114821e-01 8.632590e-01 -2.515854e+00 4.321854e+00
3.856769e+01 2.086957e-01 -1.146830e-01 8.637147e-01 -2.515854e+00 4.346405e+00
3.856769e+01 2.086957e-01 -1.168395e-01 8.640404e-01 -2.486450e+00 4.346405e+00
3.878192e+01 1.826087e-01 -1.162671e-01 8.644034e-01 -2.493652e+00 4.354279e+00
4.279671e+01 2.000000e-01 -1.100973e-01 8.710879e-01 -2.582733e+00 4.412323e+00
3.908652e+01 1.695652e-01 -1.132572e-01 8.720824e-01 -2.552948e+00 4.386047e+00
3.923666e+01 1.869565e-01 -1.134978e-01 8.718433e-01 -2.566803e+00 4.390900e+00
3.812660e+01 2.000000e-01 -1.161325e-01 8.715527e-01 -2.560532e+00 4.404327e+00
3.857655e+01 1.739130e-01 -1.165294e-01 8.729091e-01 -2.549545e+00 4.421127e+00
4.009801e+01 2.000000e-01 -1.162435e-01 8.743955e-01 -2.551529e+00 4.456757e+00
3.897032e+01 1.869565e-01 -1.154799e-01 8.774228e-01 -2.555969e+00 4.463562e+00
3.979510e+01 1.826087e-01 -1.179180e-01 8.784485e-01 -2.565094e+00 4.477890e+00
3.854225e+01 1.869565e-01 -1.185161e-01 8.786135e-01 -2.548584e+00 4.487854e+00
3.901996e+01 1.869565e-01 -1.195312e-01 8.799804e-01 -2.557739e+00 4.505554e+00
3.936348e+01 1.739130e-01 -1.196406e-01 8.806825e-01 -2.550537e+00 4.512115e+00
4.002547e+01 1.956522e-01 -1.193405e-01 8.814198e-01 -2.549088e+00 4.517181e+00
4.056616e+01 2.043478e-01 -1.183666e-01 8.825697e-01 -2.541412e+00 4.519943e+00
3.790544e+01 1.913043e-01 -1.190987e-01 8.832009e-01 -2.534378e+00 4.528854e+00
3.912122e+01 1.913043e-01 -1.192084e-01 8.833366e-01 -2.533508e+00 4.534180e+00
3.756699e+01 1.782609e-01 -1.185264e-01 8.840836e-01 -2.543427e+00 4.542542e+00
3.803165e+01 1.782609e-01 -1.187738e-01 8.846752e-01 -2.545486e+00 4.545120e+00
3.777644e+01 1.739130e-01 -1.193080e-01 8.850672e-01 -2.554092e+00 4.545944e+00
3.806345e+01 1.608696e-01 -1.183986e-01 8.860066e-01 -2.548691e+00 4.553497e+00
3.775752e+01 1.695652e-01 -1.184351e-01 8.869596e-01 -2.542755e+00 4.561127e+00
4.099596e+01 2.043478e-01 -1.173339e-01 8.888535e-01 -2.539688e+00 4.586319e+00
3.949669e+01 1.782609e-01 -1.160726e-01 8.903524e-01 -2.541473e+00 4.591095e+00
3.968147e+01 1.826087e-01 -1.180043e-01 8.916318e-01 -2.547867e+00 4.611237e+00
3.953442e+01 1.913043e-01 -1.186385e-01 8.919679e-01 -2.549423e+00 4.623062e+00
3.900085e+01 2.000000e-01 -1.192763e-01 8.921466e-01 -2.551743e+00 4.617416e+00
4.060632e+01 2.130435e-01 -1.195213e-01 8.955343e-01 -2.570374e+00 4.650116e+00
4.022556e+01 1.869565e-01 -1.187652e-01 8.971171e-01 -2.575058e+00 4.661789e+00
3.837697e+01 1.782609e-01 -1.184704e-01 8.982884e-01 -2.578217e+00 4.670578e+00
3.951195e+01 1.782609e-01 -1.186283e-01 8.996246e-01 -2.581345e+00 4.676971e+00
4.065692e+01 1.739130e-01 -1.188322e-01 9.016244e-01 -2.599945e+00 4.688171e+00
4.178011e+01 1.913043e-01 -1.185673e-01 9.020861e-01 -2.607941e+00 4.695541e+00
4.117720e+01 1.826087e-01 -1.189577e-01 9.030326e-01 -2.613190e+00 4.704132e+00
4.081519e+01 1.826087e-01 -1.182659e-01 9.038796e-01 -2.614639e+00 4.708527e+00
4.134157e+01 1.913043e-01 -1.183111e-01 9.045440e-01 -2.614883e+00 4.716736e+00
3.877701e+01 1.913043e-01 -1.193644e-01 9.046506e-01 -2.615341e+00 4.721481e+00
3.936266e+01 1.956522e-01 -1.199013e-01 9.051822e-01 -2.618362e+00 4.732300e+00
3.941949e+01 1.869565e-01 -1.193683e-01 9.056862e-01 -2.627243e+00 4.737686e+00
3.845590e+01 1.739130e-01 -1.203900e-01 9.064000e-01 -2.641220e+00 4.743393e+00
4.072827e+01 1.826087e-01 -1.192625e-01 9.068386e-01 -2.638702e+00 4.753616e+00
4.072827e+01 1.826087e-01 -1.188296e-01 9.070502e-01 -2.634796e+00 4.753616e+00
3.997797e+01 1.913043e-01 -1.191419e-01 9.068511e-01 -2.636063e+00 4.756607e+00
3.878204e+01 1.869565e-01 -1.196322e-01 9.071627e-01 -2.643723e+00 4.763565e+00
4.090222e+01 1.869565e-01 -1.194542e-01 9.078520e-01 -2.643723e+00 4.771652e+00
4.011555e+01 1.913043e-01 -1.191247e-01 9.089159e-01 -2.650574e+00 4.780411e+00
4.118474e+01 2.000000e-01 -1.211943e-01 9.105731e-01 -2.677460e+00 4.787750e+00
4.231949e+01 1.826087e-01 -1.213920e-01 9.117182e-01 -2.679016e+00 4.799438e+00
3.961971e+01 1.913043e-01 -1.206875e-01 9.142988e-01 -2.679184e+00 4.833847e+00
4.077650e+01 1.869565e-01 -1.217344e-01 9.154097e-01 -2.668243e+00 4.837463e+00
4.053876e+01 1.782609e-01 -1.208876e-01 9.164610e-01 -2.663956e+00 4.849426e+00
3.991154e+01 1.782609e-01 -1.202992e-01 9.170960e-01 -2.662628e+00 4.855469e+00
4.060603e+01 1.782609e-01 -1.208648e-01 9.176178e-01 -2.671722e+00 4.868866e+00
3.963586e+01 1.782609e-01 -1.205501e-01 9.185513e-01 -2.675446e+00 4.878571e+00
4.188080e+01 1.913043e-01 -1.202757e-01 9.192885e-01 -2.696350e+00 4.894943e+00
4.130661e+01 1.913043e-01 -1.212846e-01 9.197402e-01 -2.712509e+00 4.892715e+00
4.141681e+01 1.956522e-01 -1.216847e-01 9.206604e-01 -2.739182e+00 4.898468e+00
4.009091e+01 1.782609e-01 -1.206118e-01 9.218930e-01 -2.739182e+00 4.912415e+00
4.063559e+01 1.869565e-01 -1.196100e-01 9.228553e-01 -2.733978e+00 4.917618e+00
4.151367e+01 1.913043e-01 -1.214390e-01 9.226522e-01 -2.734207e+00 4.918610e+00
3.993361e+01 1.826087e-01 -1.178380e-01 9.270887e-01 -2.737595e+00 4.985733e+00
4.053793e+01 1.956522e-01 -1.199130e-01 9.274043e-01 -2.735123e+00 4.985046e+00
4.156422e+01 2.000000e-01 -1.182664e-01 9.295280e-01 -2.747055e+00 5.024338e+00
3.980943e+01 2.043478e-01 -1.210627e-01 9.304295e-01 -2.771896e+00 5.025223e+00
4.025519e+01 1.913043e-01 -1.236277e-01 9.312354e-01 -2.779175e+00 5.030991e+00
3.917575e+01 1.956522e-01 -1.225416e-01 9.320388e-01 -2.778656e+00 5.033951e+00
3.883083e+01 1.826087e-01 -1.220697e-01 9.327691e-01 -2.781128e+00 5.043365e+00
4.051210e+01 2.086957e-01 -1.213315e-01 9.342716e-01 -2.785538e+00 5.063370e+00
3.970831e+01 2.130435e-01 -1.202535e-01 9.362406e-01 -2.794861e+00 5.074387e+00
3.892801e+01 1.956522e-01 -1.214007e-01 9.364607e-01 -2.801788e+00 5.086395e+00
3.856668e+01 1.913043e-01 -1.208021e-01 9.379613e-01 -2.803284e+00 5.088806e+00
3.982236e+01 1.869565e-01 -1.213535e-01 9.387414e-01 -2.803482e+00 5.101654e+00
4.215274e+01 1.956522e-01 -1.221946e-01 9.404465e-01 -2.836304e+00 5.147446e+00
4.027812e+01 1.956522e-01 -1.220484e-01 9.417679e-01 -2.847443e+00 5.147446e+00
4.041833e+01 2.000000e-01 -1.225832e-01 9.418996e-01 -2.847443e+00 5.162582e+00
3.971844e+01 2.000000e-01 -1.226100e-01 9.422864e-01 -2.841904e+00 5.164566e+00
4.101266e+01 2.086957e-01 -1.223403e-01 9.429332e-01 -2.847763e+00 5.174667e+00
3.946609e+01 1.956522e-01 -1.220335e-01 9.439305e-01 -2.847900e+00 5.174667e+00
4.119090e+01 2.000000e-01 -1.217515e-01 9.442041e-01 -2.847900e+00 5.178101e+00
4.043295e+01 2.000000e-01 -1.222212e-01 9.446254e-01 -2.846558e+00 5.187469e+00
4.061517e+01 1.956522e-01 -1.233711e-01 9.441972e-01 -2.858459e+00 5.188934e+00
3.994221e+01 1.956522e-01 -1.229287e-01 9.450856e-01 -2.858459e+00 5.202011e+00
