-7.388310e-03 3.629250e+00 -1.985547e+01 2.016406e+01 7.221452e-04 1.030528e-02 -9.375000e-02 1.367188e-01
4.519416e-02 3.617070e+00 -2.218359e+01 1.996484e+01 6.886729e-04 1.018695e-02 -9.375000e-02 1.367188e-01
-1.110822e-03 3.620909e+00 -2.344141e+01 2.108594e+01 7.177623e-04 1.024355e-02 -9.765625e-02 1.367188e-01
6.250434e-02 3.550035e+00 -2.344141e+01 1.909375e+01 7.242373e-04 1.029584e-02 -9.375000e-02 1.367188e-01
3.510619e-02 3.645592e+00 -2.218359e+01 2.130469e+01 7.099567e-04 1.025181e-02 -9.765625e-02 1.367188e-01
1.258304e-02 3.622264e+00 -2.234766e+01 1.933594e+01 7.126591e-04 1.022508e-02 -9.375000e-02 1.367188e-01
6.290683e-02 3.601852e+00 -2.344141e+01 2.200391e+01 7.343819e-04 1.034521e-02 -9.375000e-02 1.367188e-01
2.531163e-02 3.623615e+00 -2.218359e+01 2.108594e+01 7.081047e-04 1.022145e-02 -9.765625e-02 1.367188e-01
4.274797e-02 3.630107e+00 -2.234766e+01 2.205469e+01 7.025351e-04 1.022252e-02 -9.375000e-02 1.367188e-01
2.798206e-02 3.635495e+00 -2.344141e+01 2.205469e+01 7.246214e-04 1.025616e-02 -9.765625e-02 1.367188e-01
1.895920e-02 3.596273e+00 -2.344141e+01 2.200391e+01 7.046683e-04 1.022680e-02 -9.765625e-02 1.367188e-01
5.635909e-02 3.655012e+00 -2.275781e+01 2.205469e+01 7.167403e-04 1.025927e-02 -9.375000e-02 1.367188e-01
4.624797e-02 3.607837e+00 -2.275781e+01 2.108594e+01 7.262264e-04 1.030007e-02 -9.765625e-02 1.367188e-01
3.921644e-02 3.612947e+00 -2.183203e+01 2.019141e+01 7.180161e-04 1.025648e-02 -9.765625e-02 1.367188e-01
9.440017e-02 3.652497e+00 -2.344141e+01 2.205469e+01 7.169461e-04 1.027509e-02 -9.375000e-02 1.367188e-01
1.088779e-01 3.661640e+00 -2.275781e+01 2.108594e+01 7.285585e-04 1.026670e-02 -9.375000e-02 1.367188e-01
8.927575e-02 3.673589e+00 -2.344141e+01 2.205469e+01 7.114725e-04 1.027518e-02 -9.375000e-02 1.367188e-01
7.221383e-02 3.604672e+00 -2.344141e+01 1.981250e+01 7.063213e-04 1.022704e-02 -9.375000e-02 1.367188e-01
1.203038e-02 3.557247e+00 -2.112109e+01 2.016406e+01 7.140241e-04 1.020095e-02 -9.375000e-02 1.367188e-01
1.517274e-02 3.601741e+00 -2.275781e+01 2.016406e+01 7.079126e-04 1.023700e-02 -9.375000e-02 1.367188e-01
4.959288e-02 3.622898e+00 -2.234766e+01 2.200391e+01 7.150735e-04 1.024789e-02 -9.375000e-02 1.367188e-01
2.325029e-02 3.643079e+00 -2.275781e+01 2.200391e+01 6.968489e-04 1.018077e-02 -9.765625e-02 1.367188e-01
2.107263e-02 3.543475e+00 -2.275781e+01 2.200391e+01 7.070072e-04 1.020904e-02 -9.765625e-02 1.367188e-01
2.790451e-02 3.608075e+00 -2.275781e+01 2.205469e+01 7.189901e-04 1.025952e-02 -9.765625e-02 1.367188e-01
2.262413e-02 3.629331e+00 -2.234766e+01 2.200391e+01 7.162876e-04 1.024638e-02 -9.765625e-02 1.367188e-01
6.498785e-02 3.617041e+00 -2.344141e+01 2.205469e+01 7.296011e-04 1.030832e-02 -9.375000e-02 1.367188e-01
4.398090e-02 3.673551e+00 -2.344141e+01 2.016406e+01 7.026174e-04 1.019620e-02 -9.765625e-02 1.367188e-01
5.795139e-02 3.562325e+00 -2.275781e+01 2.205469e+01 7.220286e-04 1.027837e-02 -9.765625e-02 1.367188e-01
-9.245370e-03 3.610814e+00 -2.167578e+01 2.108594e+01 7.094011e-04 1.022721e-02 -9.375000e-02 1.367188e-01
4.592188e-02 3.609814e+00 -2.167578e+01 2.205469e+01 6.855863e-04 1.019311e-02 -9.765625e-02 1.367188e-01
5.809780e-02 3.617257e+00 -2.344141e+01 2.205469e+01 7.095794e-04 1.021725e-02 -9.375000e-02 1.367188e-01
4.625347e-02 3.628502e+00 -2.218359e+01 2.130469e+01 7.278863e-04 1.032299e-02 -9.765625e-02 1.367188e-01
5.325376e-02 3.614998e+00 -2.275781e+01 2.205469e+01 7.236954e-04 1.030272e-02 -9.765625e-02 1.367188e-01
6.048669e-02 3.618954e+00 -2.344141e+01 2.200391e+01 7.046134e-04 1.019849e-02 -9.375000e-02 1.367188e-01
1.221470e-02 3.628339e+00 -2.112109e+01 2.130469e+01 7.136880e-04 1.023282e-02 -9.765625e-02 1.367188e-01
6.036227e-02 3.610928e+00 -2.218359e+01 2.200391e+01 7.043665e-04 1.021996e-02 -9.375000e-02 1.367188e-01
-1.979774e-02 3.592445e+00 -2.344141e+01 2.108594e+01 7.126934e-04 1.026758e-02 -9.765625e-02 1.367188e-01
5.690972e-02 3.635958e+00 -2.275781e+01 1.981250e+01 7.173988e-04 1.026019e-02 -9.765625e-02 1.367188e-01
1.008750e-01 3.634162e+00 -2.234766e+01 2.019141e+01 7.221521e-04 1.028232e-02 -9.375000e-02 1.367188e-01
2.327228e-02 3.649368e+00 -2.344141e+01 2.200391e+01 7.018492e-04 1.026736e-02 -9.765625e-02 1.367188e-01
-4.062500e-04 3.633261e+00 -2.344141e+01 2.108594e+01 7.062939e-04 1.020663e-02 -9.375000e-02 1.367188e-01
7.480642e-02 3.658617e+00 -2.344141e+01 2.205469e+01 7.270289e-04 1.028388e-02 -9.375000e-02 1.367188e-01
1.561198e-02 3.610095e+00 -2.218359e+01 2.205469e+01 7.189695e-04 1.027344e-02 -9.375000e-02 1.367188e-01
3.418981e-02 3.603047e+00 -2.344141e+01 2.200391e+01 7.017326e-04 1.020125e-02 -9.765625e-02 1.367188e-01
4.096904e-02 3.619951e+00 -2.234766e+01 2.108594e+01 7.148952e-04 1.026920e-02 -9.765625e-02 1.367188e-01
4.321181e-02 3.566854e+00 -2.344141e+01 2.019141e+01 7.156566e-04 1.026796e-02 -9.765625e-02 1.367188e-01
1.022772e-02 3.658101e+00 -2.275781e+01 2.205469e+01 7.270221e-04 1.024875e-02 -9.765625e-02 1.367188e-01
9.660880e-03 3.610947e+00 -2.275781e+01 1.981250e+01 7.246625e-04 1.029918e-02 -9.765625e-02 1.367188e-01
6.994907e-02 3.625374e+00 -2.167578e+01 2.200391e+01 7.364876e-04 1.031443e-02 -9.765625e-02 1.367188e-01
3.542072e-02 3.655476e+00 -2.344141e+01 2.130469e+01 7.105808e-04 1.025823e-02 -9.765625e-02 1.367188e-01
9.440856e-02 3.619213e+00 -2.234766e+01 2.200391e+01 7.236954e-04 1.029059e-02 -9.765625e-02 1.367188e-01
6.048900e-02 3.592087e+00 -2.275781e+01 2.200391e+01 7.172684e-04 1.027919e-02 -9.765625e-02 1.328125e-01
4.093287e-02 3.590682e+00 -2.183203e+01 2.016406e+01 7.337988e-04 1.033295e-02 -9.375000e-02 1.367188e-01
3.301331e-02 3.590218e+00 -2.218359e+01 2.019141e+01 7.159241e-04 1.028068e-02 -9.765625e-02 1.367188e-01
4.361082e-02 3.602848e+00 -1.978516e+01 2.205469e+01 7.164316e-04 1.025716e-02 -9.765625e-02 1.367188e-01
6.181337e-02 3.584498e+00 -2.234766e+01 1.996484e+01 7.323721e-04 1.031400e-02 -9.765625e-02 1.367188e-01
6.780642e-02 3.646311e+00 -2.234766e+01 2.108594e+01 7.265899e-04 1.028217e-02 -9.375000e-02 1.367188e-01
3.945486e-02 3.633908e+00 -2.218359e+01 2.205469e+01 7.051073e-04 1.025485e-02 -9.765625e-02 1.367188e-01
2.992390e-02 3.633369e+00 -2.218359e+01 2.019141e+01 7.136537e-04 1.028838e-02 -9.765625e-02 1.367188e-01
4.960041e-02 3.613325e+00 -2.344141e+01 2.200391e+01 7.310964e-04 1.029458e-02 -9.765625e-02 1.367188e-01
6.967043e-02 3.577284e+00 -2.234766e+01 2.108594e+01 7.360075e-04 1.032621e-02 -9.375000e-02 1.367188e-01
3.530556e-02 3.575870e+00 -2.275781e+01 2.108594e+01 6.976720e-04 1.019454e-02 -9.765625e-02 1.367188e-01
8.417274e-02 3.583398e+00 -2.344141e+01 2.016406e+01 7.225568e-04 1.028161e-02 -9.765625e-02 1.367188e-01
8.293692e-02 3.605761e+00 -2.234766e+01 2.200391e+01 7.224265e-04 1.030606e-02 -9.765625e-02 1.367188e-01
8.581742e-02 3.619240e+00 -2.275781e+01 2.205469e+01 7.307054e-04 1.027659e-02 -9.375000e-02 1.367188e-01
7.963310e-02 3.590515e+00 -2.275781e+01 2.205469e+01 7.194839e-04 1.025193e-02 -9.375000e-02 1.367188e-01
1.458970e-02 3.629596e+00 -2.344141e+01 2.205469e+01 7.190381e-04 1.028482e-02 -9.765625e-02 1.367188e-01
9.877141e-02 3.634199e+00 -2.234766e+01 2.200391e+01 7.169461e-04 1.023947e-02 -9.765625e-02 1.367188e-01
7.203414e-02 3.582779e+00 -2.218359e+01 2.108594e+01 7.273444e-04 1.031186e-02 -9.765625e-02 1.367188e-01
2.067708e-03 3.550010e+00 -2.234766e+01 2.019141e+01 7.157663e-04 1.026600e-02 -9.765625e-02 1.367188e-01
2.112384e-02 3.587651e+00 -2.234766e+01 2.019141e+01 7.044557e-04 1.024733e-02 -9.765625e-02 1.367188e-01
3.606973e-02 3.625518e+00 -2.344141e+01 2.108594e+01 7.159995e-04 1.024907e-02 -9.765625e-02 1.367188e-01
5.826939e-02 3.585817e+00 -2.344141e+01 2.019141e+01 7.226803e-04 1.029166e-02 -9.375000e-02 1.367188e-01
6.221817e-02 3.630418e+00 -2.275781e+01 2.130469e+01 7.182767e-04 1.028346e-02 -9.765625e-02 1.367188e-01
6.061863e-02 3.592776e+00 -2.275781e+01 2.205469e+01 7.312198e-04 1.031221e-02 -9.765625e-02 1.367188e-01
7.164931e-03 3.537811e+00 -2.275781e+01 2.200391e+01 7.088935e-04 1.023255e-02 -9.765625e-02 1.367188e-01
2.305440e-02 3.574547e+00 -2.344141e+01 2.016406e+01 7.280235e-04 1.029014e-02 -9.765625e-02 1.367188e-01
3.803183e-02 3.630008e+00 -2.275781e+01 2.200391e+01 7.210958e-04 1.025242e-02 -9.765625e-02 1.367188e-01
4.927257e-02 3.622133e+00 -2.234766e+01 2.205469e+01 7.234210e-04 1.029325e-02 -9.765625e-02 1.367188e-01
8.769705e-02 3.538717e+00 -2.218359e+01 2.108594e+01 7.245665e-04 1.029453e-02 -9.765625e-02 1.367188e-01
8.586690e-02 3.605808e+00 -2.183203e+01 2.130469e+01 7.297108e-04 1.029007e-02 -9.765625e-02 1.367188e-01
3.263339e-02 3.613783e+00 -2.167578e+01 2.200391e+01 7.126248e-04 1.024883e-02 -9.375000e-02 1.367188e-01
2.597338e-02 3.685558e+00 -2.234766e+01 2.200391e+01 7.100938e-04 1.025292e-02 -9.765625e-02 1.367188e-01
2.766811e-02 3.584057e+00 -2.344141e+01 2.200391e+01 7.080361e-04 1.023907e-02 -9.765625e-02 1.367188e-01
5.207407e-02 3.591166e+00 -2.344141e+01 2.205469e+01 7.060401e-04 1.023005e-02 -9.375000e-02 1.367188e-01
7.450231e-03 3.592786e+00 -2.183203e+01 2.205469e+01 7.067946e-04 1.022477e-02 -9.765625e-02 1.367188e-01
4.808304e-02 3.623739e+00 -2.275781e+01 2.205469e+01 7.230918e-04 1.029149e-02 -9.765625e-02 1.367188e-01
5.219763e-02 3.628858e+00 -2.183203e+01 2.130469e+01 7.107249e-04 1.024061e-02 -9.765625e-02 1.367188e-01
4.949161e-02 3.615474e+00 -2.218359e+01 2.200391e+01 7.222687e-04 1.027972e-02 -9.375000e-02 1.367188e-01
3.748061e-02 3.623909e+00 -2.275781e+01 2.108594e+01 6.945923e-04 1.020510e-02 -9.375000e-02 1.367188e-01
6.857436e-02 3.594306e+00 -2.218359e+01 2.205469e+01 7.233319e-04 1.030490e-02 -9.765625e-02 1.367188e-01
3.259867e-02 3.603036e+00 -2.344141e+01 2.205469e+01 7.277148e-04 1.029662e-02 -9.375000e-02 1.367188e-01
2.035475e-02 3.636973e+00 -2.218359e+01 2.200391e+01 7.442932e-04 1.036939e-02 -9.765625e-02 1.367188e-01
4.417130e-02 3.671878e+00 -2.275781e+01 2.205469e+01 7.354862e-04 1.029926e-02 -9.765625e-02 1.367188e-01
-3.598003e-02 3.588671e+00 -2.218359e+01 2.205469e+01 7.153273e-04 1.025707e-02 -9.765625e-02 1.367188e-01
5.314236e-03 3.565480e+00 -2.218359e+01 2.200391e+01 7.241893e-04 1.026254e-02 -9.765625e-02 1.367188e-01
4.531887e-02 3.630884e+00 -2.344141e+01 2.016406e+01 7.132216e-04 1.025758e-02 -9.765625e-02 1.367188e-01
3.471094e-02 3.572777e+00 -2.218359e+01 2.205469e+01 7.004431e-04 1.023236e-02 -9.765625e-02 1.367188e-01
6.143605e-02 3.642840e+00 -2.218359e+01 2.200391e+01 7.039549e-04 1.025028e-02 -9.765625e-02 1.367188e-01
-3.122685e-03 3.600337e+00 -2.218359e+01 1.981250e+01 7.167197e-04 1.025729e-02 -9.765625e-02 1.367188e-01
