-3.758372e+00 9.708941e+00 -5.676024e+01 4.856522e+01 4.245408e-06 1.985319e-03 -1.262285e-01 1.364382e-01
-5.293386e+00 1.142660e+01 -6.823109e+01 5.303484e+01 9.376244e-07 1.409400e-03 -1.262285e-01 1.262285e-01
-5.574297e+00 1.209229e+01 -6.529660e+01 5.701911e+01 7.279899e-07 1.274376e-03 -1.262285e-01 1.262285e-01
-5.700362e+00 1.233039e+01 -6.737563e+01 5.747865e+01 9.279519e-07 1.236534e-03 -1.262285e-01 1.262285e-01
-5.932594e+00 1.267401e+01 -6.715757e+01 5.998165e+01 2.647252e-07 1.181998e-03 -1.262285e-01 1.262285e-01
-6.012816e+00 1.286399e+01 -6.892373e+01 6.314136e+01 1.254317e-08 1.155986e-03 -1.262285e-01 1.262285e-01
-6.096375e+00 1.305180e+01 -7.116378e+01 6.265788e+01 3.679032e-07 1.134687e-03 -1.334094e-01 1.349008e-01
-6.293056e+00 1.326139e+01 -7.495491e+01 6.496558e+01 3.046814e-07 1.116934e-03 -1.301782e-01 1.286617e-01
-6.362507e+00 1.341364e+01 -7.261082e+01 6.547762e+01 -4.444642e-08 1.061697e-03 -1.304262e-01 1.262285e-01
-6.360426e+00 1.353094e+01 -7.525062e+01 6.693261e+01 3.301747e-07 1.067449e-03 -1.272650e-01 1.262285e-01
-6.419083e+00 1.364751e+01 -7.512498e+01 6.686836e+01 3.067188e-07 1.056555e-03 -1.494134e-01 1.465459e-01
-6.456816e+00 1.373616e+01 -8.004257e+01 7.492680e+01 4.906791e-07 1.048177e-03 -1.340221e-01 1.351870e-01
-6.550956e+00 1.384147e+01 -7.851636e+01 7.028983e+01 4.008094e-07 1.018567e-03 -1.384875e-01 1.289854e-01
-6.574972e+00 1.390014e+01 -7.986758e+01 7.493015e+01 2.938628e-08 1.039187e-03 -1.413455e-01 1.266351e-01
-6.650503e+00 1.410558e+01 -8.195408e+01 7.313756e+01 -1.459175e-08 9.962782e-04 -1.327101e-01 1.340119e-01
-6.703061e+00 1.417376e+01 -8.466707e+01 7.520818e+01 6.074266e-07 9.981718e-04 -1.430202e-01 1.479758e-01
-6.740231e+00 1.423588e+01 -8.419708e+01 7.178209e+01 1.487164e-07 9.742990e-04 -1.491565e-01 1.300887e-01
-6.793410e+00 1.428100e+01 -8.176038e+01 7.250104e+01 8.952051e-08 9.736213e-04 -1.284613e-01 1.262913e-01
