9.357886e+01 5.782609e-01 -2.614539e-03 5.941351e-01 -9.985352e-01 9.965820e-01
8.618677e+01 5.782609e-01 -3.378874e-03 5.938662e-01 -9.992676e-01 1.000488e+00
8.088306e+01 5.782609e-01 -4.509261e-03 5.935138e-01 -9.992676e-01 1.005859e+00
7.703882e+01 5.478261e-01 -5.379391e-03 5.933049e-01 -9.992676e-01 1.010498e+00
7.474561e+01 5.000000e-01 -6.072719e-03 5.931406e-01 -9.992676e-01 1.014893e+00
7.261230e+01 4.739130e-01 -6.611743e-03 5.930552e-01 -9.992676e-01 1.018799e+00
7.180469e+01 4.304348e-01 -7.074653e-03 5.929942e-01 -1.000732e+00 1.022217e+00
7.006665e+01 3.913043e-01 -7.423471e-03 5.929831e-01 -1.002197e+00 1.025635e+00
6.951660e+01 3.652174e-01 -7.712769e-03 5.929954e-01 -1.003662e+00 1.028809e+00
6.920728e+01 3.478261e-01 -7.964410e-03 5.930330e-01 -1.005371e+00 1.031494e+00
6.860010e+01 3.478261e-01 -8.178871e-03 5.930732e-01 -1.006592e+00 1.034180e+00
6.822241e+01 3.347826e-01 -8.359981e-03 5.931118e-01 -1.008057e+00 1.036621e+00
6.786060e+01 3.434783e-01 -8.535188e-03 5.931780e-01 -1.009277e+00 1.038818e+00
6.735449e+01 3.521739e-01 -8.670024e-03 5.932079e-01 -1.010498e+00 1.041016e+00
6.652881e+01 3.434783e-01 -8.788584e-03 5.932650e-01 -1.011719e+00 1.042969e+00
6.601685e+01 3.347826e-01 -8.918792e-03 5.933152e-01 -1.012939e+00 1.044922e+00
6.576196e+01 3.347826e-01 -9.017725e-03 5.933810e-01 -1.014160e+00 1.046875e+00
6.550220e+01 3.391304e-01 -9.112190e-03 5.934244e-01 -1.015137e+00 1.048584e+00
6.500708e+01 3.478261e-01 -9.206974e-03 5.934916e-01 -1.015869e+00 1.050293e+00
6.489771e+01 3.478261e-01 -9.288673e-03 5.935513e-01 -1.016846e+00 1.051758e+00
6.462329e+01 3.478261e-01 -9.325374e-03 5.936276e-01 -1.022461e+00 1.053223e+00
6.439062e+01 3.434783e-01 -9.358086e-03 5.937040e-01 -1.032959e+00 1.054688e+00
6.423853e+01 3.391304e-01 -9.393670e-03 5.937882e-01 -1.042725e+00 1.055908e+00
6.404321e+01 3.391304e-01 -9.446168e-03 5.938616e-01 -1.052490e+00 1.057129e+00
6.389038e+01 3.434783e-01 -9.485741e-03 5.939389e-01 -1.062012e+00 1.058350e+00
6.364771e+01 3.478261e-01 -9.534888e-03 5.940130e-01 -1.071533e+00 1.059570e+00
6.353735e+01 3.478261e-01 -9.563451e-03 5.940910e-01 -1.080811e+00 1.060547e+00
6.321338e+01 3.434783e-01 -9.594727e-03 5.941698e-01 -1.090576e+00 1.061768e+00
6.278003e+01 3.391304e-01 -9.647544e-03 5.942700e-01 -1.100098e+00 1.062988e+00
6.252295e+01 3.347826e-01 -9.648980e-03 5.943866e-01 -1.109375e+00 1.064209e+00
6.229150e+01 3.304348e-01 -9.696053e-03 5.944825e-01 -1.118408e+00 1.065430e+00
6.225781e+01 3.347826e-01 -9.733871e-03 5.945779e-01 -1.127441e+00 1.066406e+00
6.204907e+01 3.347826e-01 -9.746158e-03 5.946829e-01 -1.136719e+00 1.067627e+00
6.177515e+01 3.304348e-01 -9.766104e-03 5.947873e-01 -1.145508e+00 1.068848e+00
6.160522e+01 3.304348e-01 -9.803124e-03 5.949158e-01 -1.154541e+00 1.069824e+00
6.142700e+01 3.217391e-01 -9.838388e-03 5.950153e-01 -1.163818e+00 1.070801e+00
6.130566e+01 3.130435e-01 -9.863281e-03 5.951472e-01 -1.172607e+00 1.071777e+00
6.120508e+01 3.130435e-01 -9.897269e-03 5.952669e-01 -1.181641e+00 1.072998e+00
6.084204e+01 3.086957e-01 -9.899184e-03 5.954168e-01 -1.190430e+00 1.074219e+00
6.071021e+01 3.043478e-01 -9.896152e-03 5.955562e-01 -1.199219e+00 1.074707e+00
6.048682e+01 3.043478e-01 -9.895355e-03 5.957009e-01 -1.207764e+00 1.075684e+00
6.028247e+01 3.043478e-01 -9.924077e-03 5.958233e-01 -1.216797e+00 1.076660e+00
6.007251e+01 3.000000e-01 -9.950406e-03 5.959731e-01 -1.225586e+00 1.077393e+00
5.958862e+01 3.043478e-01 -9.985511e-03 5.961112e-01 -1.234375e+00 1.078125e+00
5.935889e+01 3.043478e-01 -1.000482e-02 5.962734e-01 -1.242920e+00 1.078857e+00
5.910840e+01 3.000000e-01 -1.003913e-02 5.964231e-01 -1.251709e+00 1.079346e+00
5.901562e+01 3.000000e-01 -1.004599e-02 5.965929e-01 -1.260010e+00 1.079834e+00
5.857373e+01 2.869565e-01 -1.006944e-02 5.967336e-01 -1.268555e+00 1.080566e+00
5.847144e+01 2.869565e-01 -1.009210e-02 5.969045e-01 -1.277588e+00 1.081299e+00
5.842676e+01 2.869565e-01 -1.008237e-02 5.970948e-01 -1.286377e+00 1.082031e+00
5.805396e+01 2.913043e-01 -1.008971e-02 5.972636e-01 -1.294922e+00 1.082764e+00
5.785522e+01 2.913043e-01 -1.013439e-02 5.974192e-01 -1.303711e+00 1.083252e+00
5.762695e+01 2.869565e-01 -1.014540e-02 5.976032e-01 -1.312256e+00 1.083740e+00
5.706616e+01 2.913043e-01 -1.016423e-02 5.977738e-01 -1.321045e+00 1.084473e+00
5.679980e+01 2.913043e-01 -1.013646e-02 5.979640e-01 -1.329590e+00 1.085205e+00
5.669653e+01 2.913043e-01 -1.016136e-02 5.981470e-01 -1.338135e+00 1.085449e+00
5.646729e+01 2.913043e-01 -1.020508e-02 5.983046e-01 -1.346924e+00 1.085693e+00
5.635986e+01 2.913043e-01 -1.016854e-02 5.985116e-01 -1.355225e+00 1.085938e+00
5.612280e+01 2.913043e-01 -1.019279e-02 5.986983e-01 -1.363770e+00 1.086670e+00
5.601611e+01 2.913043e-01 -1.018753e-02 5.989158e-01 -1.372070e+00 1.087402e+00
5.588208e+01 2.913043e-01 -1.018737e-02 5.991128e-01 -1.380371e+00 1.088135e+00
5.593774e+01 2.913043e-01 -1.020556e-02 5.993205e-01 -1.388672e+00 1.088867e+00
5.554639e+01 2.913043e-01 -1.020396e-02 5.995271e-01 -1.396973e+00 1.089355e+00
5.544263e+01 2.913043e-01 -1.021322e-02 5.997331e-01 -1.405029e+00 1.089844e+00
5.532739e+01 2.913043e-01 -1.021433e-02 5.999390e-01 -1.413330e+00 1.090332e+00
5.491846e+01 2.869565e-01 -1.020540e-02 6.001591e-01 -1.421631e+00 1.091064e+00
5.468677e+01 2.869565e-01 -1.020237e-02 6.003936e-01 -1.430176e+00 1.091553e+00
5.464429e+01 2.782609e-01 -1.020508e-02 6.006111e-01 -1.438477e+00 1.092041e+00
5.424121e+01 2.782609e-01 -1.021098e-02 6.008210e-01 -1.446777e+00 1.092529e+00
5.391626e+01 2.652174e-01 -1.021050e-02 6.010500e-01 -1.454834e+00 1.093018e+00
5.391553e+01 2.652174e-01 -1.020811e-02 6.012795e-01 -1.463135e+00 1.093262e+00
5.371631e+01 2.652174e-01 -1.018928e-02 6.015050e-01 -1.471680e+00 1.093994e+00
5.347949e+01 2.608696e-01 -1.016918e-02 6.017461e-01 -1.479980e+00 1.094238e+00
5.309668e+01 2.608696e-01 -1.018481e-02 6.019366e-01 -1.488525e+00 1.094971e+00
5.288501e+01 2.608696e-01 -1.016774e-02 6.021936e-01 -1.497070e+00 1.095459e+00
5.253467e+01 2.608696e-01 -1.015976e-02 6.024081e-01 -1.505127e+00 1.095703e+00
5.244214e+01 2.478261e-01 -1.014317e-02 6.026366e-01 -1.512939e+00 1.095947e+00
5.231738e+01 2.434783e-01 -1.011444e-02 6.028666e-01 -1.520508e+00 1.096191e+00
5.208496e+01 2.478261e-01 -1.012577e-02 6.030924e-01 -1.528564e+00 1.096924e+00
5.189673e+01 2.478261e-01 -1.008843e-02 6.033299e-01 -1.536377e+00 1.097168e+00
5.166040e+01 2.478261e-01 -1.007678e-02 6.035686e-01 -1.544189e+00 1.097168e+00
5.161938e+01 2.434783e-01 -1.005939e-02 6.038164e-01 -1.552002e+00 1.097412e+00
5.164502e+01 2.434783e-01 -1.002540e-02 6.040544e-01 -1.559814e+00 1.097900e+00
5.157520e+01 2.434783e-01 -1.002923e-02 6.043069e-01 -1.567627e+00 1.097900e+00
5.139258e+01 2.391304e-01 -9.990936e-03 6.045579e-01 -1.574951e+00 1.098633e+00
5.123950e+01 2.391304e-01 -9.985671e-03 6.048122e-01 -1.582764e+00 1.098877e+00
5.119580e+01 2.347826e-01 -9.977054e-03 6.050606e-01 -1.590332e+00 1.099365e+00
5.091162e+01 2.347826e-01 -9.949608e-03 6.052966e-01 -1.597900e+00 1.099609e+00
5.079443e+01 2.347826e-01 -9.917216e-03 6.055505e-01 -1.605469e+00 1.100098e+00
5.060449e+01 2.347826e-01 -9.907482e-03 6.058025e-01 -1.613281e+00 1.100342e+00
5.050708e+01 2.347826e-01 -9.884664e-03 6.060697e-01 -1.620605e+00 1.100830e+00
5.028711e+01 2.347826e-01 -9.873813e-03 6.063279e-01 -1.628418e+00 1.100830e+00
5.010840e+01 2.347826e-01 -9.830410e-03 6.066028e-01 -1.635986e+00 1.101318e+00
5.012231e+01 2.347826e-01 -9.795784e-03 6.068679e-01 -1.643066e+00 1.101562e+00
4.989136e+01 2.347826e-01 -9.743764e-03 6.071568e-01 -1.650146e+00 1.101807e+00
4.969312e+01 2.347826e-01 -9.750306e-03 6.073981e-01 -1.657471e+00 1.101807e+00
4.945654e+01 2.304348e-01 -9.720307e-03 6.076601e-01 -1.664551e+00 1.101807e+00
4.902588e+01 2.260870e-01 -9.688872e-03 6.079290e-01 -1.671875e+00 1.102051e+00
4.885669e+01 2.304348e-01 -9.692862e-03 6.081860e-01 -1.678955e+00 1.101807e+00
4.869434e+01 2.260870e-01 -9.688074e-03 6.084635e-01 -1.685791e+00 1.102051e+00
4.849487e+01 2.304348e-01 -9.668767e-03 6.087504e-01 -1.693359e+00 1.102295e+00
4.842505e+01 2.304348e-01 -9.656639e-03 6.090103e-01 -1.699951e+00 1.102295e+00
4.820068e+01 2.260870e-01 -9.640044e-03 6.092661e-01 -1.707031e+00 1.102295e+00
4.815210e+01 2.260870e-01 -9.595524e-03 6.095555e-01 -1.714111e+00 1.102539e+00
4.800659e+01 2.260870e-01 -9.558185e-03 6.098341e-01 -1.720947e+00 1.103027e+00
4.782300e+01 2.260870e-01 -9.564249e-03 6.100944e-01 -1.727783e+00 1.102539e+00
4.771997e+01 2.260870e-01 -9.515102e-03 6.103658e-01 -1.734863e+00 1.102783e+00
4.764966e+01 2.260870e-01 -9.469146e-03 6.106429e-01 -1.741943e+00 1.103027e+00
4.736597e+01 2.260870e-01 -9.458295e-03 6.108994e-01 -1.749023e+00 1.103760e+00
4.728735e+01 2.217391e-01 -9.410903e-03 6.111968e-01 -1.756348e+00 1.113037e+00
4.711548e+01 2.217391e-01 -9.375160e-03 6.114639e-01 -1.763184e+00 1.122559e+00
4.718311e+01 2.217391e-01 -9.351543e-03 6.117420e-01 -1.770264e+00 1.131348e+00
4.709424e+01 2.217391e-01 -9.319310e-03 6.120090e-01 -1.777100e+00 1.140625e+00
4.712036e+01 2.217391e-01 -9.290269e-03 6.123074e-01 -1.783936e+00 1.149658e+00
4.696313e+01 2.217391e-01 -9.278461e-03 6.125562e-01 -1.790527e+00 1.158447e+00
4.691675e+01 2.217391e-01 -9.255483e-03 6.128639e-01 -1.797363e+00 1.167725e+00
4.680225e+01 2.217391e-01 -9.236175e-03 6.131310e-01 -1.803955e+00 1.176758e+00
4.656152e+01 2.217391e-01 -9.208091e-03 6.134258e-01 -1.810547e+00 1.185791e+00
4.648486e+01 2.217391e-01 -9.194687e-03 6.136780e-01 -1.817139e+00 1.195068e+00
4.637231e+01 2.217391e-01 -9.170113e-03 6.139901e-01 -1.823975e+00 1.204102e+00
4.622876e+01 2.217391e-01 -9.108520e-03 6.142757e-01 -1.830566e+00 1.212891e+00
4.612744e+01 2.217391e-01 -9.077882e-03 6.145227e-01 -1.837402e+00 1.221924e+00
4.611182e+01 2.260870e-01 -9.047564e-03 6.148183e-01 -1.843994e+00 1.230713e+00
4.595752e+01 2.260870e-01 -9.001608e-03 6.151108e-01 -1.850342e+00 1.239746e+00
4.584521e+01 2.260870e-01 -8.986928e-03 6.153911e-01 -1.857178e+00 1.248535e+00
4.568921e+01 2.260870e-01 -8.940972e-03 6.156775e-01 -1.863525e+00 1.256836e+00
4.558398e+01 2.260870e-01 -8.935866e-03 6.159546e-01 -1.869629e+00 1.265625e+00
4.578247e+01 2.260870e-01 -8.911133e-03 6.162231e-01 -1.875732e+00 1.274170e+00
4.557886e+01 2.260870e-01 -8.901080e-03 6.165015e-01 -1.881836e+00 1.282471e+00
4.545947e+01 2.260870e-01 -8.843635e-03 6.167703e-01 -1.887939e+00 1.290771e+00
4.517603e+01 2.260870e-01 -8.813157e-03 6.170681e-01 -1.893799e+00 1.298828e+00
4.512256e+01 2.260870e-01 -8.789541e-03 6.173288e-01 -1.899658e+00 1.306885e+00
4.504565e+01 2.260870e-01 -8.773106e-03 6.175933e-01 -1.905518e+00 1.315186e+00
4.504468e+01 2.260870e-01 -8.701140e-03 6.178624e-01 -1.911133e+00 1.323242e+00
4.500732e+01 2.260870e-01 -8.674492e-03 6.181696e-01 -1.916748e+00 1.331543e+00
4.490845e+01 2.260870e-01 -8.619760e-03 6.184443e-01 -1.922607e+00 1.339600e+00
4.486499e+01 2.260870e-01 -8.589920e-03 6.187029e-01 -1.928711e+00 1.347900e+00
4.481372e+01 2.260870e-01 -8.560719e-03 6.189952e-01 -1.934570e+00 1.355957e+00
4.452710e+01 2.217391e-01 -8.520348e-03 6.192762e-01 -1.940430e+00 1.364014e+00
4.445728e+01 2.217391e-01 -8.495615e-03 6.195495e-01 -1.946045e+00 1.372070e+00
4.429150e+01 2.173913e-01 -8.461148e-03 6.198234e-01 -1.951904e+00 1.379883e+00
4.426782e+01 2.173913e-01 -8.431947e-03 6.201013e-01 -1.957275e+00 1.387695e+00
4.398462e+01 2.173913e-01 -8.407054e-03 6.203683e-01 -1.962402e+00 1.395508e+00
4.368652e+01 2.173913e-01 -8.376577e-03 6.206385e-01 -1.967773e+00 1.403076e+00
4.359180e+01 2.173913e-01 -8.356950e-03 6.209318e-01 -1.973145e+00 1.410889e+00
4.359888e+01 2.173913e-01 -8.336844e-03 6.211903e-01 -1.978271e+00 1.418701e+00
4.356763e+01 2.173913e-01 -8.297111e-03 6.214528e-01 -1.983398e+00 1.426270e+00
4.352124e+01 2.130435e-01 -8.269665e-03 6.217159e-01 -1.988770e+00 1.434082e+00
4.332935e+01 2.130435e-01 -8.225784e-03 6.220035e-01 -1.993652e+00 1.441895e+00
4.338818e+01 2.130435e-01 -8.221795e-03 6.222515e-01 -1.999023e+00 1.449707e+00
4.334961e+01 2.173913e-01 -8.199295e-03 6.225021e-01 -2.003906e+00 1.457275e+00
4.327124e+01 2.130435e-01 -8.148393e-03 6.227731e-01 -2.008057e+00 1.464844e+00
4.295215e+01 2.130435e-01 -8.104671e-03 6.230193e-01 -2.012207e+00 1.472412e+00
4.273828e+01 2.130435e-01 -8.042918e-03 6.232859e-01 -2.016602e+00 1.479736e+00
4.267358e+01 2.130435e-01 -7.987069e-03 6.235260e-01 -2.020996e+00 1.486816e+00
4.266821e+01 2.130435e-01 -7.938240e-03 6.237749e-01 -2.024902e+00 1.493896e+00
4.274634e+01 2.173913e-01 -7.894359e-03 6.240246e-01 -2.029053e+00 1.500977e+00
4.279321e+01 2.173913e-01 -7.862764e-03 6.242870e-01 -2.033447e+00 1.507568e+00
4.291333e+01 2.173913e-01 -7.849680e-03 6.245413e-01 -2.037842e+00 1.514160e+00
4.285474e+01 2.173913e-01 -7.829574e-03 6.247816e-01 -2.042480e+00 1.520996e+00
4.272168e+01 2.173913e-01 -7.745321e-03 6.250260e-01 -2.046631e+00 1.527344e+00
4.267236e+01 2.173913e-01 -7.726811e-03 6.252747e-01 -2.051025e+00 1.533936e+00
4.261670e+01 2.173913e-01 -7.697770e-03 6.255198e-01 -2.055176e+00 1.540527e+00
4.264575e+01 2.217391e-01 -7.636017e-03 6.257971e-01 -2.059814e+00 1.547119e+00
4.258496e+01 2.217391e-01 -7.631389e-03 6.260399e-01 -2.063721e+00 1.553711e+00
4.256592e+01 2.217391e-01 -7.588625e-03 6.262579e-01 -2.067871e+00 1.559814e+00
4.221021e+01 2.130435e-01 -7.551924e-03 6.265132e-01 -2.072510e+00 1.565918e+00
4.218896e+01 2.130435e-01 -7.545541e-03 6.267485e-01 -2.076172e+00 1.572266e+00
4.216504e+01 2.130435e-01 -7.502298e-03 6.269846e-01 -2.079834e+00 1.578857e+00
4.210498e+01 2.130435e-01 -7.481713e-03 6.272241e-01 -2.083740e+00 1.585449e+00
4.185840e+01 2.130435e-01 -7.442938e-03 6.274595e-01 -2.087891e+00 1.591797e+00
4.176440e+01 2.130435e-01 -7.405439e-03 6.277096e-01 -2.092041e+00 1.598145e+00
4.162256e+01 2.130435e-01 -7.388685e-03 6.279250e-01 -2.096191e+00 1.604492e+00
4.158423e+01 2.130435e-01 -7.352782e-03 6.281813e-01 -2.100586e+00 1.610840e+00
4.162964e+01 2.130435e-01 -7.314006e-03 6.283963e-01 -2.104492e+00 1.617188e+00
4.155981e+01 2.130435e-01 -7.279220e-03 6.286539e-01 -2.108154e+00 1.623291e+00
4.140161e+01 2.130435e-01 -7.259593e-03 6.288578e-01 -2.111816e+00 1.629395e+00
4.131860e+01 2.130435e-01 -7.213797e-03 6.291101e-01 -2.115723e+00 1.635254e+00
4.137915e+01 2.130435e-01 -7.176617e-03 6.293472e-01 -2.119629e+00 1.641357e+00
4.129980e+01 2.130435e-01 -7.155235e-03 6.295928e-01 -2.123535e+00 1.647461e+00
4.121558e+01 2.130435e-01 -7.111194e-03 6.298287e-01 -2.127197e+00 1.653320e+00
4.124756e+01 2.130435e-01 -7.074812e-03 6.300469e-01 -2.130859e+00 1.659180e+00
4.106689e+01 2.130435e-01 -7.037154e-03 6.303085e-01 -2.135010e+00 1.664795e+00
4.104761e+01 2.130435e-01 -7.049920e-03 6.304928e-01 -2.138184e+00 1.670898e+00
4.099487e+01 2.130435e-01 -7.029176e-03 6.307368e-01 -2.142090e+00 1.677002e+00
4.093457e+01 2.130435e-01 -6.989922e-03 6.309780e-01 -2.145752e+00 1.682373e+00
4.073950e+01 2.130435e-01 -6.974284e-03 6.311901e-01 -2.149414e+00 1.687988e+00
4.075146e+01 2.130435e-01 -6.940455e-03 6.314239e-01 -2.152588e+00 1.693359e+00
4.077563e+01 2.130435e-01 -6.923381e-03 6.316314e-01 -2.156250e+00 1.698730e+00
4.061597e+01 2.130435e-01 -6.913807e-03 6.318345e-01 -2.159180e+00 1.704102e+00
4.067993e+01 2.130435e-01 -6.888914e-03 6.320654e-01 -2.162842e+00 1.709473e+00
4.062231e+01 2.130435e-01 -6.844235e-03 6.322767e-01 -2.166016e+00 1.714600e+00
4.049365e+01 2.130435e-01 -6.812162e-03 6.324866e-01 -2.169189e+00 1.719727e+00
4.053833e+01 2.130435e-01 -6.777695e-03 6.327206e-01 -2.173584e+00 1.725586e+00
4.042822e+01 2.130435e-01 -6.761897e-03 6.329123e-01 -2.176270e+00 1.730469e+00
4.042969e+01 2.130435e-01 -6.729186e-03 6.331282e-01 -2.179443e+00 1.735596e+00
4.040088e+01 2.130435e-01 -6.712910e-03 6.333453e-01 -2.182861e+00 1.740723e+00
4.043652e+01 2.130435e-01 -6.719771e-03 6.335417e-01 -2.186279e+00 1.745850e+00
4.058545e+01 2.173913e-01 -6.692964e-03 6.337611e-01 -2.189697e+00 1.750977e+00
4.045142e+01 2.173913e-01 -6.641742e-03 6.339650e-01 -2.192871e+00 1.756104e+00
4.040430e+01 2.173913e-01 -6.631689e-03 6.342010e-01 -2.196289e+00 1.761230e+00
4.033032e+01 2.173913e-01 -6.609190e-03 6.343978e-01 -2.199707e+00 1.766113e+00
4.022852e+01 2.130435e-01 -6.629934e-03 6.345900e-01 -2.202881e+00 1.771240e+00
4.018213e+01 2.086957e-01 -6.595467e-03 6.348086e-01 -2.206299e+00 1.775879e+00
4.012695e+01 2.086957e-01 -6.571053e-03 6.349844e-01 -2.209229e+00 1.780518e+00
4.010449e+01 2.086957e-01 -6.550947e-03 6.351817e-01 -2.212402e+00 1.785156e+00
4.005786e+01 2.086957e-01 -6.539458e-03 6.354233e-01 -2.215576e+00 1.789795e+00
4.001611e+01 2.086957e-01 -6.502119e-03 6.355960e-01 -2.218750e+00 1.794434e+00
4.004932e+01 2.130435e-01 -6.489034e-03 6.358141e-01 -2.221680e+00 1.799072e+00
3.998340e+01 2.130435e-01 -6.472758e-03 6.360257e-01 -2.224854e+00 1.803955e+00
4.002808e+01 2.130435e-01 -6.424409e-03 6.362458e-01 -2.228027e+00 1.808594e+00
4.004492e+01 2.130435e-01 -6.414356e-03 6.364170e-01 -2.230469e+00 1.812988e+00
3.996436e+01 2.130435e-01 -6.389304e-03 6.366103e-01 -2.233398e+00 1.817627e+00
3.999487e+01 2.130435e-01 -6.396165e-03 6.368122e-01 -2.236328e+00 1.822266e+00
3.999707e+01 2.086957e-01 -6.361379e-03 6.370132e-01 -2.239258e+00 1.826660e+00
3.985645e+01 2.043478e-01 -6.364571e-03 6.371959e-01 -2.241943e+00 1.831055e+00
3.977832e+01 2.043478e-01 -6.333135e-03 6.373932e-01 -2.245117e+00 1.835938e+00
3.971240e+01 2.043478e-01 -6.318615e-03 6.375713e-01 -2.247314e+00 1.840088e+00
3.962305e+01 2.043478e-01 -6.307445e-03 6.377890e-01 -2.250732e+00 1.844482e+00
3.954321e+01 2.000000e-01 -6.298828e-03 6.379730e-01 -2.252441e+00 1.848633e+00
3.971362e+01 2.000000e-01 -6.273138e-03 6.381500e-01 -2.254883e+00 1.853027e+00
3.964502e+01 2.000000e-01 -6.269148e-03 6.383439e-01 -2.257568e+00 1.857422e+00
3.966675e+01 2.000000e-01 -6.224788e-03 6.385186e-01 -2.260254e+00 1.861816e+00
3.963135e+01 2.000000e-01 -6.254149e-03 6.386914e-01 -2.262695e+00 1.865723e+00
3.975244e+01 2.000000e-01 -6.212342e-03 6.388801e-01 -2.265137e+00 1.870117e+00
3.965820e+01 2.000000e-01 -6.179470e-03 6.390549e-01 -2.267334e+00 1.873779e+00
3.961426e+01 2.000000e-01 -6.189523e-03 6.392307e-01 -2.269531e+00 1.878174e+00
3.961597e+01 2.000000e-01 -6.151865e-03 6.394198e-01 -2.271729e+00 1.882568e+00
3.952783e+01 2.000000e-01 -6.137663e-03 6.395969e-01 -2.273926e+00 1.886963e+00
3.962671e+01 2.043478e-01 -6.107984e-03 6.397862e-01 -2.276367e+00 1.890869e+00
3.949536e+01 2.043478e-01 -6.107824e-03 6.399502e-01 -2.278809e+00 1.894775e+00
3.949976e+01 2.043478e-01 -6.067134e-03 6.401346e-01 -2.281250e+00 1.898438e+00
3.947681e+01 1.956522e-01 -6.048464e-03 6.403130e-01 -2.283447e+00 1.902100e+00
3.944360e+01 1.956522e-01 -6.061070e-03 6.404627e-01 -2.285645e+00 1.906006e+00
3.947900e+01 1.956522e-01 -6.025167e-03 6.406366e-01 -2.287842e+00 1.909668e+00
3.942017e+01 1.956522e-01 -6.014317e-03 6.408260e-01 -2.290283e+00 1.913574e+00
3.940698e+01 2.000000e-01 -6.015593e-03 6.409925e-01 -2.292725e+00 1.917236e+00
3.937744e+01 2.000000e-01 -6.012880e-03 6.411665e-01 -2.294678e+00 1.921143e+00
3.939307e+01 2.000000e-01 -6.017348e-03 6.413247e-01 -2.297119e+00 1.924805e+00
3.944556e+01 2.000000e-01 -6.007136e-03 6.414844e-01 -2.299561e+00 1.928467e+00
3.950195e+01 2.000000e-01 -6.023252e-03 6.416579e-01 -2.301758e+00 1.932373e+00
3.952881e+01 2.000000e-01 -5.986232e-03 6.418335e-01 -2.303955e+00 1.936035e+00
3.949902e+01 2.000000e-01 -5.962776e-03 6.419916e-01 -2.305908e+00 1.939941e+00
3.942920e+01 2.043478e-01 -5.983201e-03 6.421374e-01 -2.308105e+00 1.943848e+00
3.945361e+01 2.043478e-01 -5.927351e-03 6.423334e-01 -2.310547e+00 1.947266e+00
3.939209e+01 2.000000e-01 -5.922724e-03 6.424636e-01 -2.312012e+00 1.950928e+00
3.940942e+01 2.000000e-01 -5.915224e-03 6.426495e-01 -2.313721e+00 1.954590e+00
3.930908e+01 2.000000e-01 -5.901023e-03 6.428010e-01 -2.315918e+00 1.958008e+00
3.923145e+01 2.000000e-01 -5.884108e-03 6.429410e-01 -2.317871e+00 1.961670e+00
3.944165e+01 2.000000e-01 -5.901820e-03 6.431116e-01 -2.320068e+00 1.965332e+00
3.947852e+01 2.000000e-01 -5.875811e-03 6.432360e-01 -2.321777e+00 1.968994e+00
3.941162e+01 2.000000e-01 -5.870385e-03 6.434001e-01 -2.323730e+00 1.972656e+00
3.941016e+01 2.000000e-01 -5.842939e-03 6.435751e-01 -2.325439e+00 1.976074e+00
3.936670e+01 2.000000e-01 -5.854588e-03 6.437126e-01 -2.327393e+00 1.979492e+00
3.927124e+01 2.000000e-01 -5.838471e-03 6.438923e-01 -2.330322e+00 1.983154e+00
3.921875e+01 1.956522e-01 -5.818525e-03 6.440331e-01 -2.331787e+00 1.986084e+00
3.922681e+01 1.956522e-01 -5.803047e-03 6.441816e-01 -2.333252e+00 1.989014e+00
3.915283e+01 1.956522e-01 -5.799537e-03 6.443431e-01 -2.335449e+00 1.992432e+00
3.906372e+01 1.956522e-01 -5.753900e-03 6.444970e-01 -2.337158e+00 1.995605e+00
3.912842e+01 1.956522e-01 -5.733315e-03 6.446470e-01 -2.339355e+00 1.999023e+00
3.892358e+01 2.000000e-01 -5.749113e-03 6.447907e-01 -2.340820e+00 2.001221e+00
3.888892e+01 1.956522e-01 -5.752304e-03 6.449167e-01 -2.342773e+00 2.003418e+00
3.888403e+01 1.956522e-01 -5.730922e-03 6.450609e-01 -2.345459e+00 2.006592e+00
3.881348e+01 1.956522e-01 -5.763314e-03 6.451918e-01 -2.346191e+00 2.007812e+00
3.878760e+01 2.000000e-01 -5.782144e-03 6.453345e-01 -2.348145e+00 2.010010e+00
3.872192e+01 2.000000e-01 -5.793952e-03 6.454634e-01 -2.350098e+00 2.012695e+00
3.864746e+01 2.000000e-01 -5.754538e-03 6.455849e-01 -2.351807e+00 2.015137e+00
3.857520e+01 1.956522e-01 -5.769538e-03 6.457165e-01 -2.353516e+00 2.017578e+00
3.851343e+01 1.956522e-01 -5.781505e-03 6.458599e-01 -2.355713e+00 2.019775e+00
3.851587e+01 1.956522e-01 -5.768261e-03 6.459711e-01 -2.356934e+00 2.022217e+00
3.847534e+01 1.956522e-01 -5.781665e-03 6.461080e-01 -2.359131e+00 2.024658e+00
3.847974e+01 1.956522e-01 -5.755017e-03 6.462144e-01 -2.360840e+00 2.027100e+00
3.856055e+01 1.956522e-01 -5.765389e-03 6.463651e-01 -2.362793e+00 2.029785e+00
3.858545e+01 1.956522e-01 -5.782303e-03 6.465345e-01 -2.366211e+00 2.033447e+00
3.856909e+01 1.956522e-01 -5.778314e-03 6.466527e-01 -2.366211e+00 2.034912e+00
3.851221e+01 1.956522e-01 -5.782941e-03 6.467700e-01 -2.368164e+00 2.037354e+00
3.854663e+01 1.956522e-01 -5.773846e-03 6.468943e-01 -2.369141e+00 2.039795e+00
3.845044e+01 1.956522e-01 -5.797622e-03 6.469874e-01 -2.370850e+00 2.042480e+00
3.842407e+01 1.956522e-01 -5.756772e-03 6.470958e-01 -2.372803e+00 2.044922e+00
3.843970e+01 1.956522e-01 -5.731879e-03 6.472139e-01 -2.374268e+00 2.047363e+00
3.850513e+01 1.956522e-01 -5.762836e-03 6.473284e-01 -2.375977e+00 2.050293e+00
3.851245e+01 1.956522e-01 -5.744485e-03 6.474379e-01 -2.377686e+00 2.052490e+00
3.852856e+01 1.956522e-01 -5.744485e-03 6.475749e-01 -2.379395e+00 2.054932e+00
3.849634e+01 1.956522e-01 -5.686881e-03 6.477192e-01 -2.381104e+00 2.057373e+00
3.851709e+01 1.956522e-01 -5.687838e-03 6.478285e-01 -2.382812e+00 2.059814e+00
3.854346e+01 1.956522e-01 -5.746241e-03 6.479305e-01 -2.383789e+00 2.061768e+00
3.857837e+01 1.956522e-01 -5.707625e-03 6.480621e-01 -2.385498e+00 2.064453e+00
3.864990e+01 1.956522e-01 -5.697253e-03 6.481891e-01 -2.388184e+00 2.067383e+00
3.868652e+01 1.956522e-01 -5.723103e-03 6.483202e-01 -2.388672e+00 2.069092e+00
3.873828e+01 1.956522e-01 -5.721826e-03 6.484270e-01 -2.390381e+00 2.071289e+00
3.878052e+01 1.956522e-01 -5.727092e-03 6.485079e-01 -2.391357e+00 2.073486e+00
3.880542e+01 1.956522e-01 -5.724699e-03 6.486203e-01 -2.393066e+00 2.075928e+00
3.886719e+01 1.956522e-01 -5.710018e-03 6.487400e-01 -2.394531e+00 2.078125e+00
3.882544e+01 1.956522e-01 -5.684806e-03 6.488427e-01 -2.396484e+00 2.080322e+00
3.880566e+01 1.956522e-01 -5.699168e-03 6.489399e-01 -2.397217e+00 2.082275e+00
3.876709e+01 1.956522e-01 -5.670286e-03 6.490621e-01 -2.398926e+00 2.085205e+00
3.880493e+01 1.956522e-01 -5.662786e-03 6.491384e-01 -2.399902e+00 2.087402e+00
3.869800e+01 1.956522e-01 -5.632468e-03 6.492552e-01 -2.400879e+00 2.089844e+00
3.865259e+01 1.956522e-01 -5.629755e-03 6.494030e-01 -2.403564e+00 2.093018e+00
3.868530e+01 1.956522e-01 -5.618426e-03 6.495100e-01 -2.404053e+00 2.094482e+00
3.871460e+01 1.956522e-01 -5.597203e-03 6.496071e-01 -2.405273e+00 2.096680e+00
3.872900e+01 1.956522e-01 -5.596724e-03 6.497261e-01 -2.406006e+00 2.098877e+00
3.865552e+01 1.956522e-01 -5.601990e-03 6.498333e-01 -2.407227e+00 2.101074e+00
3.863623e+01 2.000000e-01 -5.582523e-03 6.499179e-01 -2.409424e+00 2.104004e+00
3.869971e+01 2.000000e-01 -5.565449e-03 6.500012e-01 -2.409424e+00 2.105469e+00
3.865698e+01 2.000000e-01 -5.544386e-03 6.501260e-01 -2.410645e+00 2.107666e+00
3.865625e+01 2.000000e-01 -5.540875e-03 6.502293e-01 -2.411865e+00 2.109863e+00
3.867065e+01 2.000000e-01 -5.537684e-03 6.503194e-01 -2.413086e+00 2.112061e+00
3.860278e+01 2.000000e-01 -5.552524e-03 6.504272e-01 -2.414307e+00 2.114258e+00
3.849854e+01 1.956522e-01 -5.514387e-03 6.505499e-01 -2.416504e+00 2.117188e+00
3.846533e+01 1.956522e-01 -5.531461e-03 6.506319e-01 -2.416748e+00 2.118408e+00
3.845679e+01 1.956522e-01 -5.537046e-03 6.507281e-01 -2.418213e+00 2.120605e+00
3.846021e+01 1.956522e-01 -5.535450e-03 6.508069e-01 -2.418945e+00 2.122314e+00
3.844775e+01 1.956522e-01 -5.551566e-03 6.509160e-01 -2.420166e+00 2.124268e+00
3.829907e+01 1.956522e-01 -5.554279e-03 6.510163e-01 -2.421631e+00 2.125977e+00
3.827563e+01 1.956522e-01 -5.560981e-03 6.511133e-01 -2.422852e+00 2.127686e+00
3.824902e+01 2.000000e-01 -5.550130e-03 6.511931e-01 -2.424561e+00 2.129639e+00
3.821533e+01 2.000000e-01 -5.564172e-03 6.513094e-01 -2.425537e+00 2.131348e+00
3.820166e+01 2.000000e-01 -5.536567e-03 6.514124e-01 -2.427246e+00 2.133545e+00
3.818604e+01 2.000000e-01 -5.553800e-03 6.515063e-01 -2.428223e+00 2.135254e+00
3.816479e+01 2.000000e-01 -5.565608e-03 6.515900e-01 -2.429443e+00 2.137451e+00
3.814624e+01 2.000000e-01 -5.554917e-03 6.516758e-01 -2.430664e+00 2.139404e+00
3.813086e+01 2.000000e-01 -5.527471e-03 6.517934e-01 -2.431641e+00 2.141113e+00
3.829492e+01 2.043478e-01 -5.512631e-03 6.518879e-01 -2.432617e+00 2.142822e+00
3.831836e+01 2.043478e-01 -5.479282e-03 6.519878e-01 -2.434082e+00 2.145264e+00
3.825220e+01 2.043478e-01 -5.475452e-03 6.520591e-01 -2.434326e+00 2.146729e+00
3.824805e+01 2.043478e-01 -5.459016e-03 6.521597e-01 -2.435303e+00 2.148438e+00
3.847925e+01 2.043478e-01 -5.454548e-03 6.522269e-01 -2.435791e+00 2.149902e+00
3.840015e+01 2.000000e-01 -5.434602e-03 6.523391e-01 -2.437256e+00 2.152588e+00
3.836621e+01 2.000000e-01 -5.424549e-03 6.524399e-01 -2.437988e+00 2.154541e+00
3.832593e+01 2.000000e-01 -5.409231e-03 6.525076e-01 -2.438721e+00 2.155762e+00
3.833423e+01 2.000000e-01 -5.399657e-03 6.525791e-01 -2.438721e+00 2.157227e+00
3.824585e+01 1.956522e-01 -5.406518e-03 6.527081e-01 -2.440186e+00 2.158691e+00
3.820459e+01 1.956522e-01 -5.369498e-03 6.527796e-01 -2.441406e+00 2.160156e+00
3.809668e+01 1.956522e-01 -5.397423e-03 6.528510e-01 -2.442139e+00 2.162109e+00
3.820288e+01 1.956522e-01 -5.384976e-03 6.529080e-01 -2.442871e+00 2.163818e+00
3.819409e+01 1.956522e-01 -5.358967e-03 6.529991e-01 -2.443604e+00 2.165527e+00
3.815820e+01 1.956522e-01 -5.341733e-03 6.530836e-01 -2.444824e+00 2.167236e+00
3.816162e+01 1.956522e-01 -5.313968e-03 6.531717e-01 -2.446289e+00 2.169189e+00
3.820850e+01 1.956522e-01 -5.304394e-03 6.532352e-01 -2.446533e+00 2.169922e+00
3.819214e+01 1.956522e-01 -5.305351e-03 6.533090e-01 -2.447266e+00 2.171631e+00
3.819214e+01 1.956522e-01 -5.286522e-03 6.533724e-01 -2.448486e+00 2.173096e+00
3.809985e+01 1.956522e-01 -5.289554e-03 6.534864e-01 -2.449951e+00 2.174805e+00
3.807910e+01 1.956522e-01 -5.271682e-03 6.535555e-01 -2.450195e+00 2.176270e+00
3.810400e+01 1.956522e-01 -5.262906e-03 6.536327e-01 -2.451904e+00 2.178711e+00
3.806616e+01 1.956522e-01 -5.289235e-03 6.537166e-01 -2.451416e+00 2.179199e+00
3.820044e+01 1.956522e-01 -5.281576e-03 6.537898e-01 -2.453369e+00 2.181396e+00
3.820044e+01 1.956522e-01 -5.258438e-03 6.538748e-01 -2.453857e+00 2.182373e+00
3.825781e+01 1.956522e-01 -5.247428e-03 6.539258e-01 -2.454834e+00 2.183594e+00
3.828442e+01 1.956522e-01 -5.239609e-03 6.540065e-01 -2.455811e+00 2.184814e+00
3.816626e+01 1.956522e-01 -5.248864e-03 6.541119e-01 -2.457031e+00 2.186279e+00
3.815967e+01 1.956522e-01 -5.249343e-03 6.541452e-01 -2.457764e+00 2.187012e+00
3.815649e+01 1.956522e-01 -5.232588e-03 6.542641e-01 -2.459473e+00 2.188965e+00
3.824585e+01 1.956522e-01 -5.224929e-03 6.543176e-01 -2.459473e+00 2.189697e+00
3.819141e+01 1.913043e-01 -5.203546e-03 6.544266e-01 -2.460938e+00 2.191406e+00
3.821777e+01 1.956522e-01 -5.184398e-03 6.544825e-01 -2.461426e+00 2.192383e+00
3.821875e+01 1.913043e-01 -5.185834e-03 6.545698e-01 -2.462402e+00 2.194092e+00
3.813013e+01 1.913043e-01 -5.185355e-03 6.546330e-01 -2.463379e+00 2.195312e+00
3.810547e+01 1.913043e-01 -5.163814e-03 6.547086e-01 -2.463867e+00 2.196289e+00
3.808569e+01 1.913043e-01 -5.137166e-03 6.547797e-01 -2.465088e+00 2.197998e+00
3.804321e+01 1.913043e-01 -5.163654e-03 6.548362e-01 -2.465332e+00 2.199219e+00
3.811035e+01 1.913043e-01 -5.142272e-03 6.549043e-01 -2.466309e+00 2.200928e+00
3.806934e+01 1.913043e-01 -5.106688e-03 6.549699e-01 -2.467041e+00 2.202148e+00
3.806860e+01 1.913043e-01 -5.125038e-03 6.550375e-01 -2.467773e+00 2.203857e+00
3.802832e+01 1.913043e-01 -5.124240e-03 6.551130e-01 -2.468994e+00 2.205322e+00
3.812769e+01 1.913043e-01 -5.102220e-03 6.552024e-01 -2.470459e+00 2.207275e+00
3.812622e+01 1.913043e-01 -5.131900e-03 6.552767e-01 -2.470215e+00 2.208008e+00
3.812695e+01 1.913043e-01 -5.094082e-03 6.553332e-01 -2.471191e+00 2.209229e+00
3.818408e+01 1.913043e-01 -5.085146e-03 6.554233e-01 -2.472656e+00 2.210938e+00
3.814355e+01 1.913043e-01 -5.078125e-03 6.554983e-01 -2.473877e+00 2.213379e+00
3.806567e+01 1.913043e-01 -5.083869e-03 6.555716e-01 -2.473389e+00 2.213623e+00
3.807764e+01 1.913043e-01 -5.048286e-03 6.556250e-01 -2.475098e+00 2.215332e+00
3.800366e+01 1.913043e-01 -5.061211e-03 6.556834e-01 -2.474854e+00 2.216064e+00
3.795728e+01 1.913043e-01 -5.070466e-03 6.557911e-01 -2.476562e+00 2.218018e+00
3.795557e+01 1.913043e-01 -5.043020e-03 6.558500e-01 -2.478027e+00 2.219971e+00
3.794922e+01 1.913043e-01 -5.067274e-03 6.559210e-01 -2.478271e+00 2.220947e+00
3.800317e+01 1.913043e-01 -5.068551e-03 6.559910e-01 -2.479248e+00 2.222412e+00
3.801855e+01 1.913043e-01 -5.033446e-03 6.560598e-01 -2.480225e+00 2.223877e+00
3.800000e+01 1.913043e-01 -5.024191e-03 6.561361e-01 -2.481445e+00 2.225098e+00
3.801123e+01 1.913043e-01 -5.036318e-03 6.562393e-01 -2.482910e+00 2.227051e+00
3.803247e+01 1.913043e-01 -5.007117e-03 6.562566e-01 -2.483643e+00 2.228027e+00
3.801123e+01 1.913043e-01 -5.018606e-03 6.563484e-01 -2.483643e+00 2.228516e+00
3.804956e+01 1.913043e-01 -5.028978e-03 6.564010e-01 -2.484375e+00 2.229492e+00
3.804175e+01 1.913043e-01 -4.991000e-03 6.564828e-01 -2.485596e+00 2.230957e+00
3.803345e+01 1.913043e-01 -4.969618e-03 6.565304e-01 -2.486084e+00 2.231934e+00
3.808325e+01 1.913043e-01 -4.956693e-03 6.566020e-01 -2.487549e+00 2.233887e+00
3.803687e+01 1.913043e-01 -4.969458e-03 6.566920e-01 -2.489258e+00 2.236084e+00
3.796875e+01 1.913043e-01 -4.934513e-03 6.567136e-01 -2.489258e+00 2.236572e+00
3.808472e+01 1.913043e-01 -4.934513e-03 6.567645e-01 -2.489014e+00 2.237305e+00
3.819653e+01 1.956522e-01 -4.954299e-03 6.568292e-01 -2.489746e+00 2.238281e+00
3.823071e+01 1.913043e-01 -4.927013e-03 6.568717e-01 -2.490479e+00 2.239746e+00
3.814062e+01 1.913043e-01 -4.927971e-03 6.569161e-01 -2.491455e+00 2.240967e+00
3.812817e+01 1.869565e-01 -4.930524e-03 6.569596e-01 -2.492188e+00 2.241943e+00
3.809937e+01 1.869565e-01 -4.947598e-03 6.570437e-01 -2.493164e+00 2.242920e+00
3.804712e+01 1.869565e-01 -4.941693e-03 6.571201e-01 -2.494141e+00 2.243896e+00
3.801050e+01 1.869565e-01 -4.955097e-03 6.571657e-01 -2.494629e+00 2.244873e+00
3.808765e+01 1.869565e-01 -4.956214e-03 6.571992e-01 -2.495117e+00 2.246094e+00
3.807495e+01 1.869565e-01 -4.960203e-03 6.572844e-01 -2.496338e+00 2.247559e+00
3.806665e+01 1.869565e-01 -4.947917e-03 6.573060e-01 -2.496338e+00 2.248291e+00
3.806665e+01 1.869565e-01 -4.909461e-03 6.573683e-01 -2.497314e+00 2.249756e+00
3.812769e+01 1.869565e-01 -4.930683e-03 6.574438e-01 -2.497803e+00 2.250488e+00
3.808716e+01 1.869565e-01 -4.938981e-03 6.574803e-01 -2.498047e+00 2.251465e+00
3.802808e+01 1.869565e-01 -4.943449e-03 6.575332e-01 -2.498779e+00 2.252197e+00
3.796362e+01 1.869565e-01 -4.940257e-03 6.575987e-01 -2.499268e+00 2.253174e+00
3.795557e+01 1.869565e-01 -4.952065e-03 6.576632e-01 -2.500000e+00 2.254150e+00
3.795215e+01 1.869565e-01 -4.940257e-03 6.577067e-01 -2.500244e+00 2.255127e+00
3.801587e+01 1.869565e-01 -4.931002e-03 6.577730e-01 -2.500977e+00 2.256836e+00
3.798291e+01 1.869565e-01 -4.933875e-03 6.577822e-01 -2.500977e+00 2.257080e+00
3.797314e+01 1.869565e-01 -4.922705e-03 6.578353e-01 -2.500732e+00 2.257812e+00
3.794727e+01 1.869565e-01 -4.938502e-03 6.578895e-01 -2.501465e+00 2.258789e+00
3.793677e+01 1.869565e-01 -4.918396e-03 6.579611e-01 -2.502441e+00 2.260742e+00
3.790967e+01 1.869565e-01 -4.881696e-03 6.579635e-01 -2.501465e+00 2.260742e+00
3.793774e+01 1.869565e-01 -4.901801e-03 6.580305e-01 -2.501953e+00 2.261719e+00
3.791772e+01 1.869565e-01 -4.879621e-03 6.581040e-01 -2.502930e+00 2.263184e+00
3.788379e+01 1.869565e-01 -4.901003e-03 6.581086e-01 -2.502441e+00 2.263428e+00
3.796069e+01 1.913043e-01 -4.845633e-03 6.581456e-01 -2.503418e+00 2.264648e+00
3.798901e+01 1.913043e-01 -4.869728e-03 6.581861e-01 -2.503174e+00 2.265381e+00
3.799219e+01 1.913043e-01 -4.847069e-03 6.582710e-01 -2.504883e+00 2.267578e+00
3.800220e+01 1.913043e-01 -4.844037e-03 6.582681e-01 -2.503906e+00 2.267578e+00
3.799097e+01 1.913043e-01 -4.814038e-03 6.583395e-01 -2.504395e+00 2.268311e+00
3.798682e+01 1.913043e-01 -4.825846e-03 6.583807e-01 -2.504639e+00 2.269043e+00
3.791284e+01 1.913043e-01 -4.820740e-03 6.584214e-01 -2.505127e+00 2.269775e+00
3.790942e+01 1.913043e-01 -4.813879e-03 6.584502e-01 -2.505127e+00 2.270996e+00
3.787842e+01 1.913043e-01 -4.811006e-03 6.585077e-01 -2.505371e+00 2.271973e+00
3.784131e+01 1.913043e-01 -4.799996e-03 6.585476e-01 -2.505371e+00 2.272705e+00
3.790942e+01 1.913043e-01 -4.743668e-03 6.585810e-01 -2.507324e+00 2.274902e+00
3.791309e+01 1.913043e-01 -4.772550e-03 6.586167e-01 -2.505615e+00 2.274170e+00
3.775781e+01 1.913043e-01 -4.759625e-03 6.586699e-01 -2.506348e+00 2.275146e+00
3.770483e+01 1.913043e-01 -4.735052e-03 6.587020e-01 -2.506836e+00 2.276367e+00
3.776318e+01 1.913043e-01 -4.696755e-03 6.587698e-01 -2.508057e+00 2.278076e+00
3.782080e+01 1.913043e-01 -4.684787e-03 6.588139e-01 -2.507568e+00 2.278320e+00
3.780957e+01 1.913043e-01 -4.685106e-03 6.588776e-01 -2.507812e+00 2.279297e+00
3.783105e+01 1.913043e-01 -4.687021e-03 6.588952e-01 -2.507324e+00 2.279297e+00
3.780103e+01 1.913043e-01 -4.654629e-03 6.589613e-01 -2.508301e+00 2.280762e+00
3.782666e+01 1.913043e-01 -4.660533e-03 6.589799e-01 -2.507812e+00 2.281250e+00
3.784546e+01 1.913043e-01 -4.633725e-03 6.590472e-01 -2.508789e+00 2.282959e+00
3.774634e+01 1.913043e-01 -4.626704e-03 6.590879e-01 -2.508545e+00 2.283203e+00
3.774976e+01 1.913043e-01 -4.604045e-03 6.591236e-01 -2.509033e+00 2.284424e+00
3.774170e+01 1.913043e-01 -4.653193e-03 6.591731e-01 -2.508789e+00 2.285156e+00
3.776611e+01 1.913043e-01 -4.605162e-03 6.592453e-01 -2.509521e+00 2.285889e+00
3.771802e+01 1.913043e-01 -4.604524e-03 6.592565e-01 -2.509277e+00 2.286621e+00
3.767432e+01 1.913043e-01 -4.597184e-03 6.593386e-01 -2.510498e+00 2.288330e+00
3.766089e+01 1.913043e-01 -4.565749e-03 6.593348e-01 -2.510254e+00 2.289062e+00
3.764966e+01 1.913043e-01 -4.558249e-03 6.593853e-01 -2.509766e+00 2.289551e+00
3.768555e+01 1.913043e-01 -4.573249e-03 6.594344e-01 -2.510498e+00 2.290771e+00
3.773364e+01 1.913043e-01 -4.579312e-03 6.594506e-01 -2.510010e+00 2.291016e+00
3.778296e+01 1.913043e-01 -4.588408e-03 6.595217e-01 -2.510498e+00 2.291992e+00
3.776172e+01 1.913043e-01 -4.577717e-03 6.595149e-01 -2.510254e+00 2.292969e+00
3.776758e+01 1.913043e-01 -4.568940e-03 6.595856e-01 -2.510742e+00 2.293701e+00
3.776587e+01 1.913043e-01 -4.543409e-03 6.596472e-01 -2.511963e+00 2.295166e+00
3.776050e+01 1.913043e-01 -4.544047e-03 6.596801e-01 -2.511230e+00 2.295410e+00
3.780591e+01 1.913043e-01 -4.535271e-03 6.597164e-01 -2.511719e+00 2.296387e+00
3.785571e+01 1.913043e-01 -4.505910e-03 6.597655e-01 -2.511963e+00 2.297119e+00
3.784033e+01 1.913043e-01 -4.483730e-03 6.598045e-01 -2.512451e+00 2.298096e+00
3.773657e+01 1.913043e-01 -4.489156e-03 6.598396e-01 -2.513184e+00 2.299561e+00
3.773657e+01 1.913043e-01 -4.475911e-03 6.598583e-01 -2.512695e+00 2.299561e+00
3.773364e+01 1.913043e-01 -4.458199e-03 6.599467e-01 -2.513916e+00 2.301025e+00
3.775317e+01 1.913043e-01 -4.451178e-03 6.599673e-01 -2.513672e+00 2.301025e+00
3.774683e+01 1.913043e-01 -4.410967e-03 6.600319e-01 -2.514160e+00 2.302490e+00
3.770947e+01 1.913043e-01 -4.404265e-03 6.600460e-01 -2.513428e+00 2.302490e+00
3.770776e+01 1.913043e-01 -4.382404e-03 6.601079e-01 -2.514648e+00 2.304443e+00
3.774121e+01 1.913043e-01 -4.395010e-03 6.601294e-01 -2.514160e+00 2.304688e+00
3.772314e+01 1.913043e-01 -4.371394e-03 6.601804e-01 -2.514893e+00 2.305908e+00
3.765112e+01 1.913043e-01 -4.359586e-03 6.602333e-01 -2.515869e+00 2.306885e+00
3.768555e+01 1.913043e-01 -4.341076e-03 6.602412e-01 -2.515381e+00 2.307129e+00
3.775977e+01 1.913043e-01 -4.346501e-03 6.603111e-01 -2.515869e+00 2.308350e+00
3.774438e+01 1.913043e-01 -4.348895e-03 6.603800e-01 -2.516113e+00 2.309082e+00
3.775732e+01 1.913043e-01 -4.337884e-03 6.604007e-01 -2.515869e+00 2.309326e+00
3.768115e+01 1.913043e-01 -4.300545e-03 6.604425e-01 -2.517090e+00 2.311035e+00
3.770068e+01 1.913043e-01 -4.286184e-03 6.604467e-01 -2.516357e+00 2.310791e+00
3.768115e+01 1.913043e-01 -4.275174e-03 6.605137e-01 -2.517334e+00 2.312256e+00
3.769458e+01 1.913043e-01 -4.272461e-03 6.605425e-01 -2.517090e+00 2.312256e+00
3.774365e+01 1.913043e-01 -4.264802e-03 6.605764e-01 -2.517578e+00 2.313232e+00
3.780225e+01 1.913043e-01 -4.247568e-03 6.606045e-01 -2.517090e+00 2.313721e+00
3.776758e+01 1.913043e-01 -4.265440e-03 6.606410e-01 -2.517578e+00 2.314453e+00
3.772534e+01 1.913043e-01 -4.230654e-03 6.606705e-01 -2.518066e+00 2.315186e+00
3.772192e+01 1.913043e-01 -4.245813e-03 6.607272e-01 -2.518066e+00 2.315918e+00
3.779688e+01 1.913043e-01 -4.211984e-03 6.607590e-01 -2.519043e+00 2.317383e+00
3.779150e+01 1.913043e-01 -4.216931e-03 6.608342e-01 -2.520020e+00 2.318359e+00
3.777124e+01 1.913043e-01 -4.199538e-03 6.608313e-01 -2.519287e+00 2.318604e+00
3.774121e+01 1.869565e-01 -4.204644e-03 6.608817e-01 -2.519287e+00 2.319336e+00
3.772729e+01 1.869565e-01 -4.206559e-03 6.609351e-01 -2.519287e+00 2.319824e+00
3.776636e+01 1.869565e-01 -4.196985e-03 6.609971e-01 -2.519775e+00 2.320557e+00
3.777026e+01 1.869565e-01 -4.179911e-03 6.610430e-01 -2.520020e+00 2.321533e+00
3.777026e+01 1.869565e-01 -4.186294e-03 6.610754e-01 -2.520508e+00 2.322266e+00
3.772461e+01 1.869565e-01 -4.135232e-03 6.611282e-01 -2.520996e+00 2.323486e+00
3.771094e+01 1.869565e-01 -4.166826e-03 6.611704e-01 -2.521240e+00 2.323975e+00
3.771411e+01 1.869565e-01 -4.137785e-03 6.612123e-01 -2.521729e+00 2.324951e+00
3.766064e+01 1.869565e-01 -4.161560e-03 6.612358e-01 -2.521484e+00 2.325195e+00
3.761816e+01 1.869565e-01 -4.092467e-03 6.613025e-01 -2.523193e+00 2.327148e+00
3.760449e+01 1.869565e-01 -4.108903e-03 6.613466e-01 -2.521729e+00 2.326660e+00
3.761987e+01 1.869565e-01 -4.090393e-03 6.613863e-01 -2.522461e+00 2.327393e+00
3.762158e+01 1.869565e-01 -4.123423e-03 6.614459e-01 -2.522217e+00 2.327881e+00
3.764355e+01 1.869565e-01 -4.079542e-03 6.614621e-01 -2.522949e+00 2.328613e+00
3.758960e+01 1.869565e-01 -4.078904e-03 6.614816e-01 -2.522461e+00 2.329102e+00
3.758228e+01 1.869565e-01 -4.104116e-03 6.615485e-01 -2.523193e+00 2.329834e+00
3.759229e+01 1.869565e-01 -4.047788e-03 6.615858e-01 -2.523682e+00 2.331055e+00
3.757251e+01 1.869565e-01 -4.024491e-03 6.616141e-01 -2.524414e+00 2.331787e+00
3.760645e+01 1.869565e-01 -4.061192e-03 6.616282e-01 -2.524170e+00 2.331787e+00
3.757300e+01 1.869565e-01 -4.050660e-03 6.616858e-01 -2.524902e+00 2.332764e+00
3.758057e+01 1.869565e-01 -4.039809e-03 6.617106e-01 -2.525146e+00 2.333252e+00
3.758228e+01 1.869565e-01 -4.011246e-03 6.617778e-01 -2.526367e+00 2.335205e+00
3.758228e+01 1.869565e-01 -4.007417e-03 6.617906e-01 -2.525146e+00 2.334717e+00
3.757178e+01 1.869565e-01 -3.992577e-03 6.618580e-01 -2.526367e+00 2.336426e+00
3.757104e+01 1.869565e-01 -3.970716e-03 6.618666e-01 -2.526611e+00 2.336914e+00
3.757007e+01 1.869565e-01 -3.978216e-03 6.619101e-01 -2.526123e+00 2.337158e+00
3.755469e+01 1.869565e-01 -3.978535e-03 6.619152e-01 -2.526123e+00 2.337646e+00
3.755322e+01 1.869565e-01 -3.952844e-03 6.619696e-01 -2.526855e+00 2.338379e+00
3.755151e+01 1.869565e-01 -3.912792e-03 6.620152e-01 -2.527832e+00 2.339844e+00
3.753613e+01 1.869565e-01 -3.912952e-03 6.620421e-01 -2.527344e+00 2.339600e+00
3.753613e+01 1.869565e-01 -3.882155e-03 6.620942e-01 -2.529541e+00 2.341797e+00
3.755151e+01 1.869565e-01 -3.859975e-03 6.621110e-01 -2.528076e+00 2.340820e+00
3.761328e+01 1.869565e-01 -3.867475e-03 6.621532e-01 -2.528809e+00 2.341553e+00
3.759790e+01 1.869565e-01 -3.848326e-03 6.621786e-01 -2.529297e+00 2.342285e+00
3.761499e+01 1.869565e-01 -3.839391e-03 6.622396e-01 -2.529541e+00 2.342773e+00
3.756250e+01 1.869565e-01 -3.870985e-03 6.622480e-01 -2.529541e+00 2.343262e+00
3.759326e+01 1.869565e-01 -3.850401e-03 6.623092e-01 -2.530273e+00 2.343994e+00
3.769067e+01 1.869565e-01 -3.818806e-03 6.623600e-01 -2.530762e+00 2.344482e+00
3.769067e+01 1.869565e-01 -3.836040e-03 6.623792e-01 -2.531250e+00 2.345459e+00
3.767163e+01 1.869565e-01 -3.810987e-03 6.624374e-01 -2.531738e+00 2.345947e+00
3.766162e+01 1.869565e-01 -3.785297e-03 6.624663e-01 -2.532227e+00 2.346680e+00
3.766138e+01 1.869565e-01 -3.773489e-03 6.625241e-01 -2.532715e+00 2.347656e+00
3.765503e+01 1.869565e-01 -3.801254e-03 6.625667e-01 -2.532471e+00 2.348145e+00
3.768896e+01 1.869565e-01 -3.769499e-03 6.626171e-01 -2.534180e+00 2.349854e+00
3.769067e+01 1.869565e-01 -3.741575e-03 6.626303e-01 -2.533203e+00 2.349121e+00
3.761694e+01 1.826087e-01 -3.716682e-03 6.626673e-01 -2.533936e+00 2.350098e+00
3.757983e+01 1.826087e-01 -3.697853e-03 6.627087e-01 -2.534424e+00 2.350830e+00
3.754810e+01 1.826087e-01 -3.697853e-03 6.627342e-01 -2.533691e+00 2.350586e+00
3.748779e+01 1.826087e-01 -3.703597e-03 6.627787e-01 -2.534180e+00 2.351074e+00
3.757300e+01 1.826087e-01 -3.683013e-03 6.628246e-01 -2.535156e+00 2.352051e+00
3.750024e+01 1.826087e-01 -3.698970e-03 6.628526e-01 -2.534668e+00 2.352295e+00
3.749536e+01 1.826087e-01 -3.654290e-03 6.629133e-01 -2.535400e+00 2.353027e+00
3.751392e+01 1.826087e-01 -3.660833e-03 6.629349e-01 -2.535400e+00 2.354004e+00
3.751392e+01 1.826087e-01 -3.661152e-03 6.629861e-01 -2.535889e+00 2.354492e+00
3.751392e+01 1.826087e-01 -3.642802e-03 6.630349e-01 -2.536377e+00 2.354980e+00
3.756079e+01 1.826087e-01 -3.605143e-03 6.630582e-01 -2.537109e+00 2.355957e+00
3.756250e+01 1.826087e-01 -3.642642e-03 6.631042e-01 -2.537109e+00 2.356445e+00
3.761108e+01 1.826087e-01 -3.628121e-03 6.631349e-01 -2.536865e+00 2.356934e+00
3.761108e+01 1.826087e-01 -3.609771e-03 6.631503e-01 -2.537109e+00 2.357666e+00
3.755493e+01 1.826087e-01 -3.614398e-03 6.631906e-01 -2.537109e+00 2.358154e+00
3.752832e+01 1.826087e-01 -3.579453e-03 6.632509e-01 -2.538330e+00 2.359375e+00
3.750024e+01 1.782609e-01 -3.544188e-03 6.632866e-01 -2.538574e+00 2.359375e+00
3.749854e+01 1.782609e-01 -3.553124e-03 6.633055e-01 -2.538818e+00 2.360107e+00
3.752026e+01 1.826087e-01 -3.550730e-03 6.633182e-01 -2.538330e+00 2.359863e+00
3.750488e+01 1.826087e-01 -3.566687e-03 6.633501e-01 -2.538574e+00 2.360596e+00
3.753418e+01 1.826087e-01 -3.572591e-03 6.633994e-01 -2.538818e+00 2.361328e+00
3.751880e+01 1.826087e-01 -3.562379e-03 6.634334e-01 -2.539062e+00 2.361816e+00
3.749707e+01 1.782609e-01 -3.556794e-03 6.634568e-01 -2.539551e+00 2.362305e+00
3.748169e+01 1.782609e-01 -3.534295e-03 6.634661e-01 -2.539551e+00 2.362549e+00
3.753882e+01 1.826087e-01 -3.494243e-03 6.635199e-01 -2.540527e+00 2.363770e+00
3.748291e+01 1.782609e-01 -3.473499e-03 6.635645e-01 -2.540527e+00 2.363770e+00
3.754565e+01 1.782609e-01 -3.470946e-03 6.635958e-01 -2.541016e+00 2.364502e+00
3.759277e+01 1.782609e-01 -3.478445e-03 6.636054e-01 -2.540283e+00 2.363770e+00
3.762842e+01 1.782609e-01 -3.478445e-03 6.636637e-01 -2.540527e+00 2.364502e+00
3.762842e+01 1.782609e-01 -3.463765e-03 6.636942e-01 -2.541260e+00 2.365479e+00
3.770605e+01 1.826087e-01 -3.477328e-03 6.637060e-01 -2.541016e+00 2.365479e+00
3.765625e+01 1.826087e-01 -3.444138e-03 6.637298e-01 -2.541748e+00 2.366455e+00
3.761426e+01 1.826087e-01 -3.442064e-03 6.637853e-01 -2.542480e+00 2.367432e+00
3.759180e+01 1.826087e-01 -3.425947e-03 6.638104e-01 -2.543701e+00 2.368652e+00
3.759180e+01 1.826087e-01 -3.446532e-03 6.638390e-01 -2.542725e+00 2.368164e+00
3.757056e+01 1.826087e-01 -3.444617e-03 6.638543e-01 -2.541992e+00 2.367676e+00
3.756738e+01 1.826087e-01 -3.443021e-03 6.639052e-01 -2.542969e+00 2.369141e+00
3.759766e+01 1.826087e-01 -3.442383e-03 6.639332e-01 -2.542725e+00 2.369873e+00
3.759985e+01 1.826087e-01 -3.448606e-03 6.639502e-01 -2.542480e+00 2.369873e+00
3.764111e+01 1.826087e-01 -3.425947e-03 6.639994e-01 -2.542725e+00 2.370605e+00
3.764111e+01 1.826087e-01 -3.414299e-03 6.640291e-01 -2.543701e+00 2.372070e+00
3.763013e+01 1.826087e-01 -3.424671e-03 6.640429e-01 -2.542969e+00 2.372070e+00
3.762646e+01 1.826087e-01 -3.390044e-03 6.640733e-01 -2.543213e+00 2.372559e+00
3.764111e+01 1.826087e-01 -3.338823e-03 6.641022e-01 -2.543945e+00 2.373291e+00
3.763794e+01 1.826087e-01 -3.394353e-03 6.641466e-01 -2.543701e+00 2.373779e+00
3.765015e+01 1.826087e-01 -3.363715e-03 6.641746e-01 -2.543701e+00 2.373779e+00
3.765332e+01 1.826087e-01 -3.338982e-03 6.641867e-01 -2.544189e+00 2.374512e+00
3.765332e+01 1.826087e-01 -3.335472e-03 6.642234e-01 -2.544922e+00 2.375244e+00
3.767627e+01 1.826087e-01 -3.335950e-03 6.642531e-01 -2.544434e+00 2.375244e+00
3.772876e+01 1.826087e-01 -3.337386e-03 6.643037e-01 -2.544678e+00 2.375977e+00
3.773950e+01 1.826087e-01 -3.304356e-03 6.643169e-01 -2.545410e+00 2.376953e+00
3.773950e+01 1.826087e-01 -3.321110e-03 6.643523e-01 -2.545166e+00 2.377197e+00
3.776953e+01 1.826087e-01 -3.276750e-03 6.643733e-01 -2.546143e+00 2.378174e+00
3.776953e+01 1.826087e-01 -3.275154e-03 6.644389e-01 -2.547119e+00 2.378906e+00
3.774780e+01 1.826087e-01 -3.271963e-03 6.644577e-01 -2.546631e+00 2.378662e+00
3.773804e+01 1.826087e-01 -3.268772e-03 6.645150e-01 -2.548096e+00 2.380371e+00
3.776001e+01 1.826087e-01 -3.307387e-03 6.645488e-01 -2.546631e+00 2.379150e+00
3.774951e+01 1.826087e-01 -3.271644e-03 6.645706e-01 -2.547363e+00 2.380371e+00
3.774951e+01 1.826087e-01 -3.256964e-03 6.645878e-01 -2.547119e+00 2.380371e+00
3.774805e+01 1.826087e-01 -3.229837e-03 6.646344e-01 -2.547607e+00 2.380859e+00
3.773438e+01 1.826087e-01 -3.237177e-03 6.646746e-01 -2.547852e+00 2.381104e+00
3.783960e+01 1.826087e-01 -3.201912e-03 6.647019e-01 -2.548584e+00 2.382324e+00
3.783960e+01 1.826087e-01 -3.198083e-03 6.647263e-01 -2.548096e+00 2.382324e+00
3.781982e+01 1.826087e-01 -3.184679e-03 6.647589e-01 -2.549072e+00 2.384033e+00
3.784033e+01 1.869565e-01 -3.196008e-03 6.648081e-01 -2.548828e+00 2.384033e+00
3.778516e+01 1.869565e-01 -3.155637e-03 6.648086e-01 -2.548828e+00 2.384277e+00
3.778198e+01 1.869565e-01 -3.146542e-03 6.648770e-01 -2.549072e+00 2.385498e+00
3.776245e+01 1.869565e-01 -3.165690e-03 6.648789e-01 -2.548584e+00 2.385742e+00
3.781909e+01 1.913043e-01 -3.126277e-03 6.649141e-01 -2.548828e+00 2.386475e+00
3.783521e+01 1.913043e-01 -3.114468e-03 6.649699e-01 -2.550049e+00 2.388184e+00
3.777075e+01 1.869565e-01 -3.097075e-03 6.649691e-01 -2.549561e+00 2.387695e+00
3.777905e+01 1.869565e-01 -3.079523e-03 6.649902e-01 -2.549561e+00 2.388184e+00
3.777905e+01 1.869565e-01 -3.084310e-03 6.650247e-01 -2.550049e+00 2.388672e+00
3.777905e+01 1.869565e-01 -3.040588e-03 6.650677e-01 -2.551025e+00 2.389893e+00
3.777734e+01 1.869565e-01 -3.041226e-03 6.650869e-01 -2.550537e+00 2.389648e+00
3.777734e+01 1.869565e-01 -3.021121e-03 6.651314e-01 -2.551270e+00 2.390625e+00
3.772363e+01 1.869565e-01 -3.012344e-03 6.651724e-01 -2.551514e+00 2.391113e+00
3.771216e+01 1.869565e-01 -3.028461e-03 6.652017e-01 -2.551514e+00 2.391357e+00
3.770728e+01 1.869565e-01 -3.020961e-03 6.652508e-01 -2.551758e+00 2.391846e+00
3.770728e+01 1.869565e-01 -3.013142e-03 6.652583e-01 -2.552246e+00 2.392334e+00
3.775806e+01 1.913043e-01 -2.979633e-03 6.652933e-01 -2.552734e+00 2.392822e+00
3.773145e+01 1.913043e-01 -2.966867e-03 6.653431e-01 -2.553467e+00 2.393555e+00
3.777197e+01 1.913043e-01 -2.972452e-03 6.653833e-01 -2.553711e+00 2.394043e+00
3.777734e+01 1.913043e-01 -2.933996e-03 6.654136e-01 -2.554443e+00 2.395264e+00
3.777734e+01 1.913043e-01 -2.950591e-03 6.654449e-01 -2.554688e+00 2.395996e+00
3.777734e+01 1.913043e-01 -2.925539e-03 6.654612e-01 -2.554199e+00 2.395752e+00
3.768384e+01 1.913043e-01 -2.926337e-03 6.655319e-01 -2.554688e+00 2.396240e+00
3.770923e+01 1.913043e-01 -2.927454e-03 6.655553e-01 -2.554688e+00 2.396973e+00
3.768579e+01 1.913043e-01 -2.876232e-03 6.655695e-01 -2.555908e+00 2.398193e+00
3.768896e+01 1.913043e-01 -2.871285e-03 6.656095e-01 -2.555908e+00 2.398682e+00
3.768896e+01 1.913043e-01 -2.882136e-03 6.656517e-01 -2.556152e+00 2.399170e+00
3.768579e+01 1.913043e-01 -2.876072e-03 6.656914e-01 -2.556885e+00 2.400146e+00
3.768262e+01 1.913043e-01 -2.854052e-03 6.656839e-01 -2.556152e+00 2.399902e+00
3.768262e+01 1.913043e-01 -2.855967e-03 6.657101e-01 -2.556152e+00 2.400391e+00
3.768262e+01 1.913043e-01 -2.836180e-03 6.657758e-01 -2.556885e+00 2.401123e+00
3.768433e+01 1.913043e-01 -2.870168e-03 6.658105e-01 -2.556396e+00 2.401855e+00
3.767944e+01 1.913043e-01 -2.832670e-03 6.658437e-01 -2.556885e+00 2.402344e+00
3.763647e+01 1.913043e-01 -2.804745e-03 6.659014e-01 -2.558594e+00 2.403809e+00
3.763965e+01 1.913043e-01 -2.833946e-03 6.659171e-01 -2.557617e+00 2.403320e+00
3.763965e+01 1.913043e-01 -2.817351e-03 6.659529e-01 -2.558105e+00 2.404053e+00
3.764771e+01 1.913043e-01 -2.798362e-03 6.659500e-01 -2.558105e+00 2.404541e+00
3.764771e+01 1.913043e-01 -2.793575e-03 6.660078e-01 -2.559082e+00 2.405518e+00
3.766895e+01 1.913043e-01 -2.763576e-03 6.660190e-01 -2.559570e+00 2.406250e+00
3.759473e+01 1.869565e-01 -2.772033e-03 6.660621e-01 -2.559326e+00 2.406250e+00
3.759473e+01 1.869565e-01 -2.782086e-03 6.660725e-01 -2.559082e+00 2.406250e+00
3.759473e+01 1.869565e-01 -2.755438e-03 6.661129e-01 -2.560303e+00 2.407227e+00
3.759473e+01 1.869565e-01 -2.751449e-03 6.661620e-01 -2.560303e+00 2.407715e+00
3.762500e+01 1.869565e-01 -2.755598e-03 6.661755e-01 -2.559814e+00 2.407227e+00
3.762183e+01 1.869565e-01 -2.747619e-03 6.662012e-01 -2.560303e+00 2.407959e+00
3.765771e+01 1.913043e-01 -2.723843e-03 6.662383e-01 -2.560547e+00 2.408203e+00
3.764697e+01 1.869565e-01 -2.710280e-03 6.662609e-01 -2.561523e+00 2.409424e+00
3.764404e+01 1.869565e-01 -2.711716e-03 6.662719e-01 -2.561279e+00 2.409180e+00
3.761157e+01 1.869565e-01 -2.710599e-03 6.663398e-01 -2.561523e+00 2.409668e+00
3.761157e+01 1.869565e-01 -2.708525e-03 6.663710e-01 -2.561768e+00 2.409912e+00
3.761157e+01 1.869565e-01 -2.665441e-03 6.664008e-01 -2.562012e+00 2.410645e+00
3.757568e+01 1.826087e-01 -2.671664e-03 6.664147e-01 -2.561768e+00 2.410645e+00
3.756445e+01 1.869565e-01 -2.666718e-03 6.664607e-01 -2.563232e+00 2.412109e+00
3.751904e+01 1.826087e-01 -2.674217e-03 6.664886e-01 -2.561768e+00 2.411865e+00
3.751099e+01 1.826087e-01 -2.627145e-03 6.665068e-01 -2.562988e+00 2.412842e+00
3.749976e+01 1.826087e-01 -2.654431e-03 6.665154e-01 -2.562744e+00 2.413330e+00
3.752100e+01 1.826087e-01 -2.600177e-03 6.665337e-01 -2.562500e+00 2.413330e+00
3.757300e+01 1.826087e-01 -2.602731e-03 6.665704e-01 -2.563232e+00 2.414062e+00
3.751416e+01 1.782609e-01 -2.636080e-03 6.666096e-01 -2.563477e+00 2.414551e+00
3.760571e+01 1.826087e-01 -2.608954e-03 6.666267e-01 -2.563477e+00 2.414551e+00
3.760254e+01 1.782609e-01 -2.599858e-03 6.666594e-01 -2.563721e+00 2.415527e+00
3.755151e+01 1.782609e-01 -2.630655e-03 6.667025e-01 -2.563477e+00 2.415283e+00
3.760254e+01 1.782609e-01 -2.562679e-03 6.667325e-01 -2.564697e+00 2.416504e+00
3.760254e+01 1.782609e-01 -2.580391e-03 6.667646e-01 -2.565186e+00 2.417480e+00
3.760254e+01 1.782609e-01 -2.601614e-03 6.668020e-01 -2.565186e+00 2.417725e+00
3.759717e+01 1.782609e-01 -2.584061e-03 6.667948e-01 -2.564697e+00 2.417236e+00
3.759717e+01 1.782609e-01 -2.576242e-03 6.668380e-01 -2.564941e+00 2.417480e+00
3.755298e+01 1.782609e-01 -2.565551e-03 6.668802e-01 -2.565918e+00 2.418701e+00
3.754785e+01 1.782609e-01 -2.544647e-03 6.668975e-01 -2.565674e+00 2.418701e+00
3.753784e+01 1.782609e-01 -2.556296e-03 6.669461e-01 -2.566406e+00 2.419678e+00
3.753784e+01 1.782609e-01 -2.558849e-03 6.669569e-01 -2.566162e+00 2.419678e+00
3.758325e+01 1.782609e-01 -2.570019e-03 6.669777e-01 -2.565674e+00 2.419434e+00
3.754370e+01 1.782609e-01 -2.579912e-03 6.669870e-01 -2.565674e+00 2.419678e+00
3.755811e+01 1.782609e-01 -2.548318e-03 6.669996e-01 -2.566162e+00 2.420166e+00
3.747339e+01 1.782609e-01 -2.544807e-03 6.670360e-01 -2.566406e+00 2.420898e+00
3.749707e+01 1.782609e-01 -2.501723e-03 6.670762e-01 -2.567627e+00 2.422363e+00
3.750830e+01 1.782609e-01 -2.477948e-03 6.670788e-01 -2.566895e+00 2.421631e+00
3.750732e+01 1.782609e-01 -2.474277e-03 6.671141e-01 -2.567871e+00 2.423096e+00
3.748071e+01 1.782609e-01 -2.484649e-03 6.671507e-01 -2.567627e+00 2.423096e+00
3.745044e+01 1.782609e-01 -2.506670e-03 6.671829e-01 -2.567627e+00 2.423340e+00
3.746704e+01 1.782609e-01 -2.505872e-03 6.671744e-01 -2.567383e+00 2.423584e+00
3.750366e+01 1.782609e-01 -2.512574e-03 6.672309e-01 -2.568115e+00 2.424072e+00
3.746777e+01 1.739130e-01 -2.489915e-03 6.672485e-01 -2.567871e+00 2.424805e+00
3.737207e+01 1.739130e-01 -2.445715e-03 6.672995e-01 -2.570312e+00 2.427246e+00
3.737036e+01 1.739130e-01 -2.473480e-03 6.672954e-01 -2.567871e+00 2.424805e+00
3.740576e+01 1.739130e-01 -2.465980e-03 6.673536e-01 -2.569092e+00 2.426270e+00
3.740210e+01 1.739130e-01 -2.482096e-03 6.673881e-01 -2.568848e+00 2.426270e+00
3.736841e+01 1.739130e-01 -2.451300e-03 6.673859e-01 -2.568848e+00 2.426270e+00
3.745215e+01 1.739130e-01 -2.420184e-03 6.674328e-01 -2.569580e+00 2.427490e+00
3.751538e+01 1.739130e-01 -2.455927e-03 6.674264e-01 -2.568604e+00 2.426758e+00
3.753735e+01 1.739130e-01 -2.441885e-03 6.674662e-01 -2.569336e+00 2.427490e+00
3.753564e+01 1.739130e-01 -2.425768e-03 6.674934e-01 -2.569336e+00 2.427734e+00
3.752441e+01 1.739130e-01 -2.414280e-03 6.675097e-01 -2.570068e+00 2.428467e+00
3.749854e+01 1.739130e-01 -2.389387e-03 6.675526e-01 -2.569580e+00 2.428223e+00
3.747729e+01 1.739130e-01 -2.406939e-03 6.675764e-01 -2.570068e+00 2.428955e+00
3.746606e+01 1.739130e-01 -2.380930e-03 6.676019e-01 -2.570557e+00 2.429443e+00
3.745776e+01 1.739130e-01 -2.372792e-03 6.676300e-01 -2.571045e+00 2.429932e+00
3.745776e+01 1.739130e-01 -2.374706e-03 6.676735e-01 -2.571045e+00 2.430664e+00
3.751953e+01 1.739130e-01 -2.366249e-03 6.676771e-01 -2.570801e+00 2.430420e+00
3.743188e+01 1.739130e-01 -2.351409e-03 6.677066e-01 -2.572510e+00 2.432129e+00
3.732422e+01 1.739130e-01 -2.336569e-03 6.677082e-01 -2.571289e+00 2.431152e+00
3.743408e+01 1.739130e-01 -2.387312e-03 6.677619e-01 -2.570801e+00 2.431396e+00
3.746021e+01 1.782609e-01 -2.328751e-03 6.677673e-01 -2.571045e+00 2.432373e+00
3.733472e+01 1.782609e-01 -2.336889e-03 6.678099e-01 -2.571045e+00 2.432617e+00
3.738989e+01 1.782609e-01 -2.329229e-03 6.678372e-01 -2.571045e+00 2.432861e+00
3.738916e+01 1.782609e-01 -2.317900e-03 6.678547e-01 -2.571289e+00 2.433350e+00
3.737378e+01 1.782609e-01 -2.298592e-03 6.678795e-01 -2.572021e+00 2.434082e+00
3.737378e+01 1.782609e-01 -2.324761e-03 6.679031e-01 -2.571289e+00 2.434082e+00
3.733667e+01 1.782609e-01 -2.327155e-03 6.679339e-01 -2.571777e+00 2.434570e+00
3.733667e+01 1.782609e-01 -2.298592e-03 6.679586e-01 -2.572510e+00 2.435547e+00
3.735840e+01 1.782609e-01 -2.265721e-03 6.679818e-01 -2.573242e+00 2.436768e+00
3.735840e+01 1.782609e-01 -2.281997e-03 6.680252e-01 -2.572998e+00 2.437012e+00
3.735840e+01 1.782609e-01 -2.300028e-03 6.680592e-01 -2.572998e+00 2.437012e+00
3.735840e+01 1.782609e-01 -2.323644e-03 6.680696e-01 -2.571777e+00 2.436523e+00
3.736963e+01 1.782609e-01 -2.302741e-03 6.681085e-01 -2.572998e+00 2.437500e+00
3.736963e+01 1.782609e-01 -2.320932e-03 6.681334e-01 -2.572510e+00 2.437256e+00
3.736963e+01 1.782609e-01 -2.316623e-03 6.681652e-01 -2.572754e+00 2.438232e+00
3.736963e+01 1.782609e-01 -2.305773e-03 6.681731e-01 -2.573242e+00 2.438477e+00
3.740649e+01 1.782609e-01 -2.312953e-03 6.682065e-01 -2.572754e+00 2.438232e+00
3.744360e+01 1.782609e-01 -2.340239e-03 6.682386e-01 -2.573486e+00 2.438477e+00
3.740649e+01 1.782609e-01 -2.339601e-03 6.682531e-01 -2.573486e+00 2.438477e+00
3.736401e+01 1.782609e-01 -2.325240e-03 6.682822e-01 -2.574463e+00 2.439941e+00
3.736401e+01 1.782609e-01 -2.345665e-03 6.683252e-01 -2.574463e+00 2.439941e+00
3.736401e+01 1.782609e-01 -2.324921e-03 6.683540e-01 -2.573730e+00 2.439697e+00
3.740063e+01 1.782609e-01 -2.311198e-03 6.684032e-01 -2.574951e+00 2.441162e+00
3.740063e+01 1.782609e-01 -2.312315e-03 6.684066e-01 -2.574219e+00 2.440918e+00
3.736011e+01 1.782609e-01 -2.275774e-03 6.684418e-01 -2.575684e+00 2.442627e+00
3.739258e+01 1.782609e-01 -2.309283e-03 6.684275e-01 -2.574219e+00 2.440918e+00
3.739185e+01 1.782609e-01 -2.292847e-03 6.684740e-01 -2.574463e+00 2.442139e+00
3.736182e+01 1.782609e-01 -2.304017e-03 6.684981e-01 -2.574219e+00 2.441895e+00
3.735059e+01 1.782609e-01 -2.315028e-03 6.685139e-01 -2.573975e+00 2.441650e+00
3.744678e+01 1.826087e-01 -2.328751e-03 6.685617e-01 -2.573730e+00 2.441895e+00
3.740967e+01 1.826087e-01 -2.291571e-03 6.685913e-01 -2.575195e+00 2.443359e+00
3.742090e+01 1.826087e-01 -2.296358e-03 6.685974e-01 -2.574951e+00 2.443359e+00
3.752979e+01 1.826087e-01 -2.306092e-03 6.686544e-01 -2.574463e+00 2.442871e+00
3.753320e+01 1.826087e-01 -2.308007e-03 6.686551e-01 -2.574219e+00 2.443359e+00
3.755566e+01 1.826087e-01 -2.261412e-03 6.686952e-01 -2.575439e+00 2.444580e+00
3.752856e+01 1.826087e-01 -2.231094e-03 6.687398e-01 -2.576416e+00 2.445557e+00
3.752686e+01 1.826087e-01 -2.250881e-03 6.687774e-01 -2.576416e+00 2.445312e+00
3.752856e+01 1.826087e-01 -2.249445e-03 6.688062e-01 -2.577148e+00 2.446289e+00
3.747705e+01 1.826087e-01 -2.279284e-03 6.687984e-01 -2.575439e+00 2.444824e+00
3.749585e+01 1.826087e-01 -2.260934e-03 6.688099e-01 -2.575439e+00 2.445312e+00
3.749585e+01 1.826087e-01 -2.239232e-03 6.688874e-01 -2.576660e+00 2.446777e+00
3.750000e+01 1.826087e-01 -2.237956e-03 6.688901e-01 -2.576660e+00 2.446777e+00
3.750000e+01 1.826087e-01 -2.230296e-03 6.689394e-01 -2.576660e+00 2.447266e+00
3.748120e+01 1.826087e-01 -2.209233e-03 6.689210e-01 -2.576904e+00 2.447510e+00
3.748877e+01 1.826087e-01 -2.224552e-03 6.689744e-01 -2.576416e+00 2.447021e+00
3.748877e+01 1.826087e-01 -2.232850e-03 6.690046e-01 -2.577393e+00 2.448242e+00
3.754956e+01 1.826087e-01 -2.194234e-03 6.690142e-01 -2.577637e+00 2.448486e+00
3.762646e+01 1.826087e-01 -2.238275e-03 6.690425e-01 -2.576904e+00 2.447998e+00
3.760986e+01 1.826087e-01 -2.218967e-03 6.690680e-01 -2.576904e+00 2.447998e+00
3.762891e+01 1.826087e-01 -2.196787e-03 6.691307e-01 -2.578369e+00 2.449463e+00
3.762817e+01 1.826087e-01 -2.201734e-03 6.691334e-01 -2.578125e+00 2.449463e+00
3.762280e+01 1.826087e-01 -2.221520e-03 6.691515e-01 -2.577393e+00 2.448975e+00
3.757471e+01 1.826087e-01 -2.182266e-03 6.691759e-01 -2.578369e+00 2.449951e+00
3.760156e+01 1.826087e-01 -2.168703e-03 6.692101e-01 -2.578369e+00 2.450684e+00
3.757397e+01 1.826087e-01 -2.188649e-03 6.692327e-01 -2.577637e+00 2.450195e+00
3.759741e+01 1.826087e-01 -2.170777e-03 6.692365e-01 -2.577881e+00 2.450195e+00
3.756470e+01 1.826087e-01 -2.140619e-03 6.692755e-01 -2.578369e+00 2.450928e+00
3.756470e+01 1.826087e-01 -2.121630e-03 6.692761e-01 -2.578125e+00 2.450928e+00
3.756470e+01 1.826087e-01 -2.123066e-03 6.693270e-01 -2.578857e+00 2.452148e+00
3.761279e+01 1.826087e-01 -2.104396e-03 6.693209e-01 -2.578125e+00 2.451660e+00
3.763403e+01 1.826087e-01 -2.102641e-03 6.693512e-01 -2.577881e+00 2.451904e+00
3.761279e+01 1.826087e-01 -2.096578e-03 6.694129e-01 -2.578857e+00 2.452881e+00
3.762402e+01 1.826087e-01 -2.098971e-03 6.694431e-01 -2.579346e+00 2.453613e+00
3.761108e+01 1.826087e-01 -2.124662e-03 6.694637e-01 -2.578857e+00 2.453125e+00
3.754321e+01 1.782609e-01 -2.111417e-03 6.695063e-01 -2.579346e+00 2.453613e+00
3.754321e+01 1.782609e-01 -2.100567e-03 6.695308e-01 -2.579834e+00 2.454346e+00
3.751880e+01 1.782609e-01 -2.073759e-03 6.695620e-01 -2.580811e+00 2.455811e+00
3.755591e+01 1.826087e-01 -2.071366e-03 6.695886e-01 -2.579590e+00 2.455078e+00
3.753247e+01 1.782609e-01 -2.066898e-03 6.696465e-01 -2.580566e+00 2.456299e+00
3.756104e+01 1.782609e-01 -2.055568e-03 6.696453e-01 -2.580322e+00 2.456055e+00
3.758374e+01 1.782609e-01 -2.051260e-03 6.696612e-01 -2.580322e+00 2.456299e+00
3.758374e+01 1.782609e-01 -2.026048e-03 6.696926e-01 -2.581299e+00 2.457031e+00
3.766919e+01 1.782609e-01 -2.038175e-03 6.697269e-01 -2.580811e+00 2.456787e+00
3.765698e+01 1.782609e-01 -2.028442e-03 6.697098e-01 -2.581299e+00 2.457275e+00
3.763110e+01 1.739130e-01 -2.013921e-03 6.697477e-01 -2.581787e+00 2.458008e+00
3.762866e+01 1.739130e-01 -2.011368e-03 6.697372e-01 -2.581543e+00 2.457764e+00
3.765991e+01 1.739130e-01 -1.998283e-03 6.697854e-01 -2.582275e+00 2.458252e+00
3.761279e+01 1.739130e-01 -1.996049e-03 6.698040e-01 -2.582031e+00 2.458008e+00
3.760938e+01 1.739130e-01 -1.959029e-03 6.698312e-01 -2.583252e+00 2.459229e+00
3.758276e+01 1.739130e-01 -2.005464e-03 6.698586e-01 -2.582520e+00 2.458496e+00
3.758276e+01 1.739130e-01 -1.990783e-03 6.699008e-01 -2.583008e+00 2.459229e+00
3.761987e+01 1.782609e-01 -1.988868e-03 6.699100e-01 -2.583008e+00 2.459229e+00
3.767822e+01 1.782609e-01 -1.978496e-03 6.699547e-01 -2.583252e+00 2.459717e+00
3.766968e+01 1.782609e-01 -1.998443e-03 6.699696e-01 -2.583496e+00 2.459717e+00
3.766748e+01 1.782609e-01 -1.940359e-03 6.700154e-01 -2.584473e+00 2.460693e+00
3.766431e+01 1.782609e-01 -1.970358e-03 6.700202e-01 -2.583984e+00 2.460693e+00
3.766431e+01 1.782609e-01 -1.940519e-03 6.700678e-01 -2.584717e+00 2.461670e+00
3.766113e+01 1.782609e-01 -1.945944e-03 6.701085e-01 -2.585205e+00 2.461914e+00
3.766113e+01 1.782609e-01 -1.965571e-03 6.701159e-01 -2.584473e+00 2.461182e+00
3.766113e+01 1.782609e-01 -1.954721e-03 6.701252e-01 -2.584717e+00 2.461914e+00
3.766113e+01 1.782609e-01 -1.974188e-03 6.701872e-01 -2.585449e+00 2.462891e+00
3.766479e+01 1.782609e-01 -1.970518e-03 6.701893e-01 -2.584717e+00 2.462646e+00
3.759546e+01 1.782609e-01 -1.939721e-03 6.702156e-01 -2.584961e+00 2.463135e+00
3.761768e+01 1.782609e-01 -1.913871e-03 6.702248e-01 -2.584473e+00 2.463135e+00
3.761768e+01 1.782609e-01 -1.938923e-03 6.702583e-01 -2.584717e+00 2.463379e+00
3.765601e+01 1.782609e-01 -1.906212e-03 6.702682e-01 -2.584473e+00 2.463623e+00
3.765063e+01 1.782609e-01 -1.921530e-03 6.703001e-01 -2.584717e+00 2.463867e+00
3.766138e+01 1.782609e-01 -1.895201e-03 6.703552e-01 -2.584961e+00 2.464355e+00
3.765601e+01 1.782609e-01 -1.855788e-03 6.703535e-01 -2.585449e+00 2.464844e+00
3.765063e+01 1.782609e-01 -1.876691e-03 6.704049e-01 -2.585449e+00 2.465088e+00
3.765063e+01 1.782609e-01 -1.881479e-03 6.704151e-01 -2.585938e+00 2.465088e+00
3.765063e+01 1.782609e-01 -1.872064e-03 6.704337e-01 -2.586182e+00 2.465576e+00
3.765063e+01 1.782609e-01 -1.860096e-03 6.704980e-01 -2.586426e+00 2.465576e+00
3.759229e+01 1.782609e-01 -1.879245e-03 6.705254e-01 -2.585938e+00 2.465820e+00
3.765063e+01 1.782609e-01 -1.827065e-03 6.705561e-01 -2.587402e+00 2.467773e+00
3.759229e+01 1.782609e-01 -1.868075e-03 6.705580e-01 -2.586182e+00 2.466553e+00
3.762939e+01 1.782609e-01 -1.827225e-03 6.706079e-01 -2.587158e+00 2.467529e+00
3.765942e+01 1.782609e-01 -1.820364e-03 6.706251e-01 -2.587402e+00 2.467773e+00
3.766992e+01 1.782609e-01 -1.834725e-03 6.706441e-01 -2.586914e+00 2.467773e+00
3.766406e+01 1.782609e-01 -1.842544e-03 6.706532e-01 -2.586914e+00 2.467529e+00
3.761816e+01 1.782609e-01 -1.832331e-03 6.707016e-01 -2.587402e+00 2.467773e+00
3.766406e+01 1.782609e-01 -1.818608e-03 6.707209e-01 -2.587891e+00 2.468018e+00
3.763818e+01 1.782609e-01 -1.843661e-03 6.707539e-01 -2.588135e+00 2.468506e+00
3.766016e+01 1.782609e-01 -1.804088e-03 6.707688e-01 -2.588379e+00 2.468506e+00
3.762061e+01 1.782609e-01 -1.847490e-03 6.707724e-01 -2.587646e+00 2.468018e+00
3.765674e+01 1.782609e-01 -1.828342e-03 6.708042e-01 -2.588867e+00 2.469238e+00
3.762207e+01 1.782609e-01 -1.833289e-03 6.708223e-01 -2.587891e+00 2.468506e+00
3.762207e+01 1.782609e-01 -1.819406e-03 6.708677e-01 -2.589111e+00 2.469482e+00
3.762378e+01 1.782609e-01 -1.800417e-03 6.708740e-01 -2.589355e+00 2.470215e+00
3.765210e+01 1.782609e-01 -1.845097e-03 6.708851e-01 -2.587891e+00 2.468994e+00
3.770020e+01 1.782609e-01 -1.828182e-03 6.708901e-01 -2.588135e+00 2.469482e+00
3.770190e+01 1.782609e-01 -1.845735e-03 6.709413e-01 -2.588135e+00 2.469971e+00
3.766772e+01 1.782609e-01 -1.872543e-03 6.709962e-01 -2.589111e+00 2.471191e+00
3.766162e+01 1.782609e-01 -1.858181e-03 6.710148e-01 -2.588623e+00 2.470947e+00
3.766089e+01 1.782609e-01 -1.863926e-03 6.710218e-01 -2.588623e+00 2.470947e+00
3.770923e+01 1.782609e-01 -1.850043e-03 6.710542e-01 -2.588623e+00 2.471436e+00
3.770410e+01 1.782609e-01 -1.824831e-03 6.710877e-01 -2.589600e+00 2.472412e+00
3.772241e+01 1.782609e-01 -1.834884e-03 6.711262e-01 -2.589600e+00 2.472412e+00
3.768335e+01 1.782609e-01 -1.828182e-03 6.711323e-01 -2.589600e+00 2.472412e+00
3.775415e+01 1.782609e-01 -1.838395e-03 6.711520e-01 -2.589355e+00 2.472412e+00
3.775952e+01 1.782609e-01 -1.820044e-03 6.711982e-01 -2.590088e+00 2.473145e+00
3.775952e+01 1.782609e-01 -1.838874e-03 6.712186e-01 -2.590088e+00 2.473389e+00
3.772949e+01 1.782609e-01 -1.814140e-03 6.712410e-01 -2.590088e+00 2.473389e+00
3.780420e+01 1.782609e-01 -1.806162e-03 6.712972e-01 -2.590088e+00 2.474121e+00
3.772754e+01 1.782609e-01 -1.796269e-03 6.713358e-01 -2.590332e+00 2.474854e+00
3.777686e+01 1.782609e-01 -1.782865e-03 6.713670e-01 -2.590576e+00 2.475098e+00
3.770288e+01 1.782609e-01 -1.761163e-03 6.714054e-01 -2.591309e+00 2.476074e+00
3.770288e+01 1.782609e-01 -1.750791e-03 6.714213e-01 -2.590820e+00 2.475830e+00
3.780029e+01 1.782609e-01 -1.772174e-03 6.714456e-01 -2.590576e+00 2.475586e+00
3.780029e+01 1.782609e-01 -1.758291e-03 6.714779e-01 -2.591309e+00 2.476074e+00
3.777148e+01 1.782609e-01 -1.744728e-03 6.714989e-01 -2.591064e+00 2.476318e+00
3.784155e+01 1.782609e-01 -1.743132e-03 6.715217e-01 -2.592285e+00 2.477539e+00
3.783643e+01 1.782609e-01 -1.750313e-03 6.715430e-01 -2.591309e+00 2.476807e+00
3.784595e+01 1.782609e-01 -1.708187e-03 6.715659e-01 -2.592285e+00 2.477539e+00
3.784473e+01 1.782609e-01 -1.735154e-03 6.715953e-01 -2.591553e+00 2.477051e+00
3.784619e+01 1.782609e-01 -1.730207e-03 6.716075e-01 -2.592041e+00 2.478027e+00
3.784375e+01 1.782609e-01 -1.748398e-03 6.716808e-01 -2.592529e+00 2.478516e+00
3.784546e+01 1.782609e-01 -1.757972e-03 6.716800e-01 -2.592285e+00 2.478760e+00
3.785181e+01 1.782609e-01 -1.746164e-03 6.717259e-01 -2.592773e+00 2.479492e+00
3.783057e+01 1.782609e-01 -1.740419e-03 6.717963e-01 -2.593506e+00 2.480225e+00
3.783057e+01 1.782609e-01 -1.752387e-03 6.718023e-01 -2.593018e+00 2.479736e+00
3.783057e+01 1.782609e-01 -1.742653e-03 6.718174e-01 -2.593018e+00 2.479736e+00
3.781396e+01 1.782609e-01 -1.725899e-03 6.718618e-01 -2.594482e+00 2.481201e+00
3.781396e+01 1.782609e-01 -1.726377e-03 6.718571e-01 -2.593506e+00 2.480713e+00
3.783057e+01 1.782609e-01 -1.734356e-03 6.719046e-01 -2.593018e+00 2.480713e+00
3.781519e+01 1.782609e-01 -1.701644e-03 6.719630e-01 -2.594482e+00 2.482178e+00
3.771411e+01 1.782609e-01 -1.694464e-03 6.720179e-01 -2.594971e+00 2.482666e+00
3.770581e+01 1.782609e-01 -1.727654e-03 6.720227e-01 -2.593750e+00 2.481689e+00
3.772070e+01 1.782609e-01 -1.699729e-03 6.720220e-01 -2.594238e+00 2.481934e+00
3.771411e+01 1.782609e-01 -1.690794e-03 6.720731e-01 -2.595215e+00 2.482910e+00
3.771240e+01 1.782609e-01 -1.710899e-03 6.720885e-01 -2.594482e+00 2.482178e+00
3.769238e+01 1.782609e-01 -1.710580e-03 6.721348e-01 -2.596924e+00 2.484375e+00
3.772949e+01 1.782609e-01 -1.718718e-03 6.721676e-01 -2.596191e+00 2.483643e+00
3.769238e+01 1.782609e-01 -1.734675e-03 6.721838e-01 -2.596191e+00 2.483643e+00
3.771899e+01 1.782609e-01 -1.696378e-03 6.722063e-01 -2.596191e+00 2.483887e+00
3.770776e+01 1.782609e-01 -1.671964e-03 6.722297e-01 -2.595703e+00 2.483643e+00
3.769238e+01 1.782609e-01 -1.729409e-03 6.722481e-01 -2.595703e+00 2.483643e+00
3.768115e+01 1.782609e-01 -1.678826e-03 6.722894e-01 -2.596680e+00 2.484619e+00
3.769312e+01 1.782609e-01 -1.704836e-03 6.723181e-01 -2.596191e+00 2.484619e+00
3.768188e+01 1.782609e-01 -1.671167e-03 6.723058e-01 -2.595459e+00 2.484375e+00
3.768018e+01 1.782609e-01 -1.687443e-03 6.723487e-01 -2.595947e+00 2.484863e+00
3.768018e+01 1.782609e-01 -1.670050e-03 6.723888e-01 -2.595947e+00 2.484863e+00
3.764673e+01 1.782609e-01 -1.685209e-03 6.724382e-01 -2.596680e+00 2.485596e+00
3.764673e+01 1.782609e-01 -1.682336e-03 6.724465e-01 -2.596924e+00 2.486084e+00
3.762549e+01 1.782609e-01 -1.666220e-03 6.724810e-01 -2.596680e+00 2.486084e+00
3.766260e+01 1.782609e-01 -1.671167e-03 6.725166e-01 -2.598389e+00 2.487793e+00
3.761572e+01 1.826087e-01 -1.694144e-03 6.725148e-01 -2.596191e+00 2.486084e+00
3.758447e+01 1.826087e-01 -1.655848e-03 6.725415e-01 -2.596924e+00 2.486816e+00
3.749072e+01 1.826087e-01 -1.659678e-03 6.725596e-01 -2.596680e+00 2.486816e+00
3.744360e+01 1.782609e-01 -1.637657e-03 6.725936e-01 -2.597656e+00 2.487793e+00
3.749072e+01 1.826087e-01 -1.646593e-03 6.726103e-01 -2.597412e+00 2.487305e+00
3.748901e+01 1.826087e-01 -1.642763e-03 6.726409e-01 -2.597656e+00 2.487549e+00
3.750024e+01 1.826087e-01 -1.655529e-03 6.726732e-01 -2.597900e+00 2.487793e+00
3.757153e+01 1.826087e-01 -1.627764e-03 6.726999e-01 -2.598389e+00 2.488281e+00
3.755713e+01 1.826087e-01 -1.601594e-03 6.727305e-01 -2.598389e+00 2.488525e+00
3.750586e+01 1.826087e-01 -1.600477e-03 6.727727e-01 -2.598633e+00 2.489014e+00
3.740259e+01 1.826087e-01 -1.589627e-03 6.727928e-01 -2.598877e+00 2.489014e+00
3.741968e+01 1.826087e-01 -1.573670e-03 6.727903e-01 -2.598877e+00 2.489014e+00
3.749707e+01 1.869565e-01 -1.575425e-03 6.728186e-01 -2.598877e+00 2.489258e+00
3.748218e+01 1.869565e-01 -1.544628e-03 6.728482e-01 -2.600342e+00 2.490723e+00
3.746143e+01 1.869565e-01 -1.604467e-03 6.728709e-01 -2.599121e+00 2.489990e+00
3.741504e+01 1.869565e-01 -1.571436e-03 6.728992e-01 -2.599609e+00 2.490234e+00
3.746216e+01 1.869565e-01 -1.600956e-03 6.729356e-01 -2.599365e+00 2.490479e+00
3.742383e+01 1.869565e-01 -1.567766e-03 6.729559e-01 -2.600342e+00 2.491211e+00
3.746753e+01 1.869565e-01 -1.603828e-03 6.730007e-01 -2.600098e+00 2.491211e+00
3.745630e+01 1.869565e-01 -1.598084e-03 6.730451e-01 -2.601074e+00 2.492188e+00
3.745630e+01 1.869565e-01 -1.626966e-03 6.730798e-01 -2.600342e+00 2.491699e+00
3.745947e+01 1.869565e-01 -1.623296e-03 6.730964e-01 -2.600342e+00 2.491943e+00
3.745947e+01 1.869565e-01 -1.591701e-03 6.731402e-01 -2.602051e+00 2.493408e+00
